-2.272458 -1.518133 10.841904
-1.554949 -1.694830 12.401119
-1.101329 -1.598229 14.048325
-0.961570 -1.201320 15.721619
-0.772096 -0.848994 17.400257
-2.271669 -1.518291 10.843735
-1.555742 -1.694667 12.399290
-1.554164 -1.694983 12.402952
-1.101548 -1.598638 14.046379
-1.101109 -1.597821 14.050270
-0.961780 -1.201737 15.719675
-0.961359 -1.200903 15.723564
-0.772285 -0.849430 17.398314
-2.257457 -1.521134 10.876704
-1.570022 -1.691750 12.366358
-1.540186 -1.697570 12.436042
-1.105497 -1.605995 14.011347
-1.097628 -1.590041 14.085261
-0.965562 -1.209245 15.684656
-0.957482 -1.193480 15.758591
-0.775687 -0.857281 17.363331
-2.190990 -1.535212 11.028416
-2.081808 -1.561783 11.266685
-1.970075 -1.591206 11.503435
-1.857523 -1.621550 11.739682
-1.745879 -1.650873 11.976487
-1.636708 -1.677431 12.214762
-1.476634 -1.708462 12.589258
-1.382448 -1.718710 12.835043
-1.297688 -1.719053 13.084424
-1.225213 -1.706850 13.337337
-1.167712 -1.679876 13.592905
-1.125414 -1.638420 13.849536
-1.082695 -1.553112 14.246648
-1.063837 -1.490308 14.501793
-1.047185 -1.425556 14.756609
-1.029174 -1.362003 15.011631
-1.007522 -1.301681 15.267153
-0.982655 -1.244234 15.523047
-0.939318 -1.159459 15.920290
-0.909460 -1.106519 16.176624
-0.879036 -1.054093 16.432998
-0.848786 -1.001508 16.689359
-0.819485 -0.948061 16.945652
-0.791853 -0.893105 17.201810
73 NaN NaN
-2.272656 -1.518094 10.841446
-2.232561 -1.526115 10.934458
-2.191622 -1.535065 11.027018
-2.149978 -1.544794 11.119183
-2.107757 -1.555166 11.211015
-2.065078 -1.566049 11.302576
-2.022054 -1.577319 11.393929
-1.978791 -1.588858 11.485135
-1.935391 -1.600550 11.576257
-1.891952 -1.612287 11.667355
-1.848571 -1.623958 11.758488
-1.805342 -1.635459 11.849715
-1.762359 -1.646683 11.941092
-1.719717 -1.657524 12.032676
-1.677514 -1.667877 12.124518
-1.635846 -1.677633 12.216670
-1.594816 -1.686683 12.309179
-1.554528 -1.694916 12.402090
-1.515094 -1.702215 12.495444
-1.476627 -1.708463 12.589276
-1.439247 -1.713539 12.683617
-1.403083 -1.717317 12.778490
-1.368266 -1.719667 12.873912
-1.334936 -1.720460 12.969888
-1.303238 -1.719559 13.066414
-1.273326 -1.716830 13.163474
-1.245353 -1.712137 13.261036
-1.219482 -1.705346 13.359052
-1.195871 -1.696327 13.457458
-1.174680 -1.684961 13.556170
-1.155920 -1.671270 13.655080
-1.139399 -1.655469 13.754075
-1.124896 -1.637789 13.853070
-1.112187 -1.618459 13.952003
-1.101045 -1.597702 14.050837
-1.091245 -1.575733 14.149551
-1.082563 -1.552764 14.248143
-1.074779 -1.528995 14.346620
-1.067673 -1.504624 14.445002
-1.061033 -1.479842 14.543313
-1.054645 -1.454838 14.641585
-1.048297 -1.429799 14.739851
-1.041777 -1.404910 14.838144
-1.034875 -1.380360 14.936495
-1.027406 -1.356310 15.034929
-1.019354 -1.332779 15.133442
-1.010761 -1.309730 15.232023
-1.001667 -1.287129 15.330663
-0.992114 -1.264938 15.429353
-0.982146 -1.243120 15.528085
-0.971805 -1.221639 15.626853
-0.961134 -1.200455 15.725650
-0.950177 -1.179531 15.824470
-0.938976 -1.158827 15.923310
-0.927576 -1.138304 16.022165
-0.916020 -1.117922 16.121031
-0.904353 -1.097642 16.219904
-0.892617 -1.077424 16.318782
-0.880857 -1.057228 16.417662
-0.869116 -1.037014 16.516541
-0.857439 -1.016742 16.615415
-0.845870 -0.996373 16.714282
-0.834451 -0.975866 16.813138
-0.823228 -0.955183 16.911980
-0.812243 -0.934283 17.010802
-0.801540 -0.913128 17.109602
-0.791163 -0.891680 17.208373
-0.781154 -0.869899 17.307109
-0.771557 -0.847749 17.405803
-0.762413 -0.825192 17.504449
-0.753765 -0.802191 17.603037
-0.745655 -0.778712 17.701557
-0.738124 -0.754718 17.800000
-2.272352 -1.518160 10.841054
-1.657278 -1.649706 9.860641
-1.258893 -1.722423 8.768488
-1.105473 -1.722043 7.614184
-1.148349 -1.671797 6.449352
-1.201772 -1.635945 5.284175
-1.134474 -1.543666 4.123943
-0.958358 -1.381789 2.981717
-0.766996 -1.213167 1.842789
-0.575241 -1.045061 0.703852
-2.271138 -1.518426 10.839488
-1.658154 -1.649527 9.862430
-1.656402 -1.649885 9.858852
-1.259360 -1.722362 8.770431
-1.258426 -1.722485 8.766544
-1.105523 -1.722108 7.616182
-1.105422 -1.721978 7.612186
-1.148217 -1.671873 6.451346
-1.148482 -1.671720 6.447358
-1.201751 -1.636021 5.286174
-1.201792 -1.635868 5.282177
-1.134721 -1.543910 4.125913
-1.134227 -1.543423 4.121973
-0.958684 -1.382080 2.983668
-0.958031 -1.381498 2.979765
-0.767325 -1.213455 1.844741
-0.766667 -1.212879 1.840838
-0.575569 -1.045350 0.705803
-2.256052 -1.521724 10.820027
-1.669037 -1.647303 9.884651
-1.645519 -1.652110 9.836631
-1.265489 -1.721496 8.794490
-1.252626 -1.723252 8.742400
-1.106154 -1.722913 7.641004
-1.104791 -1.721174 7.587364
-1.146571 -1.672850 6.476115
-1.150129 -1.670774 6.422588
-1.201496 -1.636970 5.310997
-1.202048 -1.634920 5.257354
-1.137770 -1.546921 4.150383
-1.131162 -1.540401 4.097506
-0.962741 -1.385691 3.007910
-0.953974 -1.377888 2.955523
-0.771408 -1.217031 1.868983
-0.762584 -1.209303 1.816595
-0.579644 -1.048937 0.730046
-2.188466 -1.536489 10.731648
-2.085076 -1.558991 10.588782
-1.986463 -1.580316 10.442396
-1.892738 -1.600407 10.292666
-1.803745 -1.619278 10.139924
-1.719546 -1.636891 9.984338
-1.597849 -1.661751 9.735479
-1.526709 -1.675817 9.573156
-1.460636 -1.688464 9.408595
-1.399717 -1.699647 9.241950
-1.344131 -1.709292 9.073353
-1.294253 -1.717267 8.902894
-1.227280 -1.726458 8.633112
-1.191753 -1.730139 8.458956
-1.162065 -1.732037 8.283677
-1.138742 -1.731972 8.107430
-1.121498 -1.730012 7.930501
-1.110268 -1.726195 7.753117
-1.103492 -1.717133 7.475206
-1.105125 -1.709862 7.297571
-1.110225 -1.701931 7.120031
-1.118068 -1.693671 6.942604
-1.127942 -1.685407 6.765277
-1.139173 -1.677512 6.588014
-1.157504 -1.666689 6.310666
-1.168707 -1.661039 6.133315
-1.178972 -1.656083 5.955887
-1.187813 -1.651395 5.778375
-1.194857 -1.646503 5.600789
-1.199744 -1.640985 5.423150
-1.202061 -1.630062 5.145220
-1.199380 -1.620871 4.967687
-1.192969 -1.609420 4.790385
-1.182587 -1.595393 4.613459
-1.168338 -1.578804 4.437021
-1.150532 -1.559869 4.261140
-1.116830 -1.526437 3.987066
-1.092336 -1.503170 3.812513
-1.066083 -1.478799 3.638366
-1.038471 -1.453601 3.464546
-1.009970 -1.427901 3.290943
-0.981057 -1.402020 3.117435
-0.935629 -1.361596 2.845998
-0.906537 -1.335833 2.672502
-0.877406 -1.310119 2.499005
-0.848245 -1.284446 2.325508
-0.819059 -1.258805 2.152010
-0.789853 -1.233191 1.978512
-0.744134 -1.193150 1.707067
-0.714904 -1.167566 1.533568
-0.685676 -1.141981 1.360068
-0.656455 -1.116387 1.186570
-0.627247 -1.090775 1.013071
-0.598058 -1.065138 0.839573
112 NaN NaN
-2.272656 -1.518094 10.841446
-2.211242 -1.531521 10.762223
-2.151332 -1.544588 10.681798
-2.092935 -1.557288 10.600210
-2.036059 -1.569613 10.517497
-1.980717 -1.581556 10.433695
-1.926916 -1.593109 10.348841
-1.874669 -1.604265 10.262969
-1.823986 -1.615017 10.176114
-1.774878 -1.625356 10.088309
-1.727359 -1.635276 9.999586
-1.681441 -1.644767 9.909978
-1.637137 -1.653823 9.819516
-1.594461 -1.662434 9.728232
-1.553428 -1.670593 9.636156
-1.514055 -1.678291 9.543319
-1.476356 -1.685518 9.449752
-1.440350 -1.692266 9.355486
-1.406055 -1.698525 9.260550
-1.373488 -1.704287 9.164976
-1.342671 -1.709541 9.068794
-1.313622 -1.714277 8.972037
-1.286365 -1.718485 8.874736
-1.260919 -1.722155 8.776924
-1.237309 -1.725277 8.678634
-1.215557 -1.727839 8.579900
-1.195688 -1.729830 8.480756
-1.177726 -1.731239 8.381240
-1.161697 -1.732056 8.281387
-1.147626 -1.732268 8.181237
-1.135540 -1.731865 8.080828
-1.125465 -1.730834 7.980202
-1.117420 -1.729167 7.879403
-1.111337 -1.726899 7.778477
-1.107081 -1.724095 7.677471
-1.104513 -1.720819 7.576422
-1.103492 -1.717139 7.475359
-1.103875 -1.713121 7.374304
-1.105521 -1.708830 7.273273
-1.108287 -1.704332 7.172275
-1.112031 -1.699692 7.071316
-1.116613 -1.694974 6.970394
-1.121893 -1.690242 6.869507
-1.127733 -1.685560 6.768648
-1.133993 -1.680990 6.667810
-1.140539 -1.676595 6.566982
-1.147232 -1.672439 6.466153
-1.153937 -1.668584 6.365313
-1.160520 -1.665086 6.264453
-1.166886 -1.661915 6.163567
-1.172960 -1.658993 6.062656
-1.178668 -1.656237 5.961719
-1.183936 -1.653568 5.860756
-1.188689 -1.650905 5.759767
-1.192851 -1.648165 5.658754
-1.196348 -1.645268 5.557720
-1.199102 -1.642132 5.456670
-1.201037 -1.638674 5.355612
-1.202077 -1.634813 5.254556
-1.202142 -1.630465 5.153514
-1.201156 -1.625549 5.052503
-1.199042 -1.619980 4.951543
-1.195722 -1.613678 4.850659
-1.191120 -1.606559 4.749880
-1.185171 -1.598554 4.649238
-1.177913 -1.589678 4.548755
-1.169434 -1.579993 4.448443
-1.159823 -1.569562 4.348307
-1.149168 -1.558447 4.248350
-1.137559 -1.546708 4.148572
-1.125082 -1.534407 4.048965
-1.111826 -1.521603 3.949523
-1.097875 -1.508356 3.850234
-1.083315 -1.494725 3.751084
-1.068231 -1.480768 3.652058
-1.052707 -1.466542 3.553139
-1.036825 -1.452105 3.454306
-1.020669 -1.437513 3.355541
-1.004319 -1.422823 3.256823
-0.987859 -1.408091 3.158128
-0.971363 -1.393368 3.059439
-0.954850 -1.378666 2.960750
-0.938322 -1.363983 2.862059
-0.921780 -1.349319 2.763369
-0.905225 -1.334672 2.664678
-0.888658 -1.320040 2.565987
-0.872080 -1.305423 2.467296
-0.855492 -1.290818 2.368604
-0.838896 -1.276225 2.269912
-0.822292 -1.261642 2.171220
-0.805682 -1.247068 2.072527
-0.789066 -1.232500 1.973835
-0.772446 -1.217939 1.875143
-0.755822 -1.203382 1.776450
-0.739196 -1.188828 1.677757
-0.722569 -1.174275 1.579064
-0.705942 -1.159722 1.480372
-0.689316 -1.145169 1.381679
-0.672692 -1.130612 1.282986
-0.656071 -1.116051 1.184294
-0.639455 -1.101485 1.085601
-0.622844 -1.086911 0.986909
-0.606239 -1.072330 0.888217
-0.589641 -1.057738 0.789525
-0.573053 -1.043135 0.690833
-0.556473 -1.028520 0.592142
-0.539905 -1.013890 0.493451
-0.523348 -0.999245 0.394760
-0.506804 -0.984584 0.296069
-0.490274 -0.969904 0.197379
-0.473759 -0.955204 0.098689
-0.457260 -0.940484 0.000000
-2.273001 -1.518456 10.841447
-3.874767 -1.470538 10.499839
-4.810493 0.010600 9.956734
-5.651596 1.576409 9.455443
-6.506103 3.138954 8.968597
-7.380453 4.704027 8.528225
-8.454642 6.118394 8.032066
-9.816272 7.222146 7.468735
-11.427112 7.883432 6.870634
-13.158737 8.124899 6.285825
-2.274381 -1.519903 10.841450
-3.873418 -1.471856 10.500505
-3.876115 -1.469219 10.499173
-4.809597 0.008895 9.957273
-4.811390 0.012304 9.956196
-5.650674 1.574720 9.455987
-5.652518 1.578098 9.454899
-6.505230 3.137211 8.969041
-6.506977 3.140697 8.968152
-7.379421 4.702390 8.528727
-7.381486 4.705665 8.527722
-8.453337 6.116991 8.032639
-8.455946 6.119798 8.031493
-9.814638 7.221186 7.469374
-9.817906 7.223106 7.468096
-11.425279 7.882959 6.871281
-11.428944 7.883904 6.869987
-13.156836 8.124819 6.286443
-2.300912 -1.547713 10.841502
-3.847304 -1.497010 10.513245
-3.902031 -1.443886 10.486373
-4.792367 -0.023867 9.967620
-4.828640 0.045051 9.945834
-5.632954 1.542256 9.466446
-5.670255 1.610556 9.444450
-6.488432 3.103719 8.977612
-6.523764 3.174202 8.959612
-7.359578 4.670922 8.538391
-7.401328 4.737132 8.518058
-8.428270 6.090017 8.043654
-8.481293 6.146481 8.020411
-9.783371 7.202503 7.481640
-9.849308 7.241553 7.455810
-11.390063 7.873877 6.883716
-11.464160 7.892987 6.857553
-13.120310 8.123283 6.298307
-2.434066 -1.665023 10.838337
-2.683560 -1.792529 10.817361
-2.956799 -1.846188 10.778283
-3.232105 -1.831185 10.723327
-3.491685 -1.749400 10.653354
-3.719683 -1.607035 10.570256
-4.018139 -1.323533 10.425642
-4.189460 -1.121945 10.328279
-4.340423 -0.901671 10.238208
-4.470320 -0.663824 10.160470
-4.591414 -0.419658 10.088051
-4.713622 -0.176277 10.014863
-4.909478 0.195937 9.897248
-5.038472 0.434454 9.819808
-5.166368 0.673882 9.743366
-5.293645 0.913853 9.667593
-5.421792 1.153245 9.591459
-5.551022 1.391908 9.514866
-5.752404 1.760824 9.396148
-5.882624 1.999116 9.320080
-6.013768 2.236824 9.243774
-6.147567 2.472430 9.165590
-6.281615 2.708185 9.088298
-6.410224 2.949106 9.018104
-6.602022 3.328971 8.919815
-6.729171 3.572078 8.854579
-6.859621 3.812965 8.787627
-6.992627 4.052331 8.720252
-7.128822 4.289680 8.652123
-7.268958 4.524367 8.582785
-7.494719 4.881705 8.472913
-7.646797 5.107798 8.400272
-7.804313 5.329651 8.326170
-7.967674 5.546703 8.250523
-8.137283 5.758326 8.173263
-8.313554 5.963792 8.094323
-8.599960 6.268604 7.968794
-8.793942 6.455606 7.885618
-8.995089 6.634125 7.800850
-9.203284 6.803619 7.714600
-9.418370 6.963546 7.626999
-9.640106 7.113421 7.538207
-9.996025 7.324485 7.398759
-10.233091 7.447124 7.307809
-10.475309 7.558876 7.216392
-10.722253 7.659523 7.124716
-10.973270 7.749470 7.032987
-11.227842 7.828945 6.941383
-11.627992 7.931984 6.800117
-11.889480 7.986090 6.709487
-12.152901 8.031009 6.619432
-12.417889 8.067170 6.530024
-12.684133 8.094906 6.441332
-12.951337 8.114670 6.353396
173 NaN NaN
-2.272656 -1.518094 10.841446
-2.342211 -1.591004 10.841585
-2.419611 -1.655486 10.839185
-2.503625 -1.710915 10.834253
-2.592952 -1.756979 10.826850
-2.686328 -1.793615 10.817071
-2.782592 -1.820926 10.805023
-2.880705 -1.839095 10.790806
-2.979740 -1.848327 10.774507
-3.078853 -1.848801 10.756192
-3.177247 -1.840648 10.735909
-3.274128 -1.823935 10.713688
-3.368668 -1.798673 10.689549
-3.459960 -1.764825 10.663509
-3.547065 -1.722475 10.635626
-3.629591 -1.672663 10.606161
-3.707687 -1.616832 10.575408
-3.781780 -1.556326 10.543590
-3.852471 -1.492333 10.510852
-3.920452 -1.425879 10.477274
-3.986432 -1.357834 10.442898
-4.050629 -1.288384 10.407960
-4.112823 -1.217200 10.372892
-4.172759 -1.143949 10.338152
-4.230157 -1.068327 10.304221
-4.284711 -0.990071 10.271603
-4.336144 -0.909028 10.240771
-4.384681 -0.825579 10.211702
-4.430903 -0.740352 10.184043
-4.475431 -0.653902 10.157413
-4.518899 -0.566721 10.131422
-4.561953 -0.479261 10.105677
-4.605139 -0.391893 10.079840
-4.648612 -0.304723 10.053816
-4.692431 -0.217795 10.027567
-4.736655 -0.131151 10.001055
-4.781339 -0.044837 9.974244
-4.826536 0.041105 9.947099
-4.872195 0.126709 9.919658
-4.918171 0.212079 9.892022
-4.964317 0.297330 9.864296
-5.010484 0.382572 9.836583
-5.056526 0.467920 9.808987
-5.102334 0.553457 9.781585
-5.147947 0.639150 9.754348
-5.193447 0.724938 9.727222
-5.238915 0.810760 9.700148
-5.284432 0.896555 9.673070
-5.330078 0.982262 9.645934
-5.375887 1.067857 9.618715
-5.421847 1.153348 9.591426
-5.467943 1.238747 9.564079
-5.514160 1.324067 9.536688
-5.560483 1.409319 9.509266
-5.606896 1.494516 9.481826
-5.653380 1.579677 9.454390
-5.699911 1.664820 9.426983
-5.746468 1.749966 9.399626
-5.793030 1.835133 9.372343
-5.839576 1.920339 9.345156
-5.886142 2.005553 9.318031
-5.932823 2.090696 9.290877
-5.979716 2.175684 9.263603
-6.026917 2.260432 9.236117
-6.074520 2.344855 9.208326
-6.122557 2.428924 9.180207
-6.170801 2.512847 9.152011
-6.218964 2.596898 9.124055
-6.266754 2.681345 9.096660
-6.313873 2.766448 9.070148
-6.360030 2.852437 9.044834
-6.405222 2.939278 9.020714
-6.449729 3.026715 8.997486
-6.493850 3.114498 8.974831
-6.537887 3.202387 8.952427
-6.582144 3.290148 8.929956
-6.626901 3.377562 8.907122
-6.672214 3.464581 8.883882
-6.718022 3.551253 8.860318
-6.764266 3.637629 8.836517
-6.810885 3.723760 8.812564
-6.857822 3.809699 8.788542
-6.905051 3.895474 8.764502
-6.952606 3.981056 8.740420
-7.000532 4.066411 8.716268
-7.048872 4.151504 8.692015
-7.097668 4.236298 8.667633
-7.146960 4.320760 8.643094
-7.196773 4.404868 8.618390
-7.247122 4.488607 8.593523
-7.298022 4.571964 8.568493
-7.349490 4.654923 8.543304
-7.401541 4.737469 8.517955
-7.454192 4.819584 8.492445
-7.507466 4.901244 8.466769
-7.561385 4.982424 8.440920
-7.615970 5.063100 8.414892
-7.671243 5.143246 8.388678
-7.727225 5.222835 8.362274
-7.783934 5.301843 8.335675
-7.841389 5.380243 8.308878
-7.899606 5.458009 8.281881
-7.958604 5.535113 8.254680
-8.018398 5.611527 8.227274
-8.079004 5.687224 8.199659
-8.140437 5.762173 8.171835
-8.202710 5.836346 8.143798
-8.265837 5.909712 8.115548
-8.329831 5.982239 8.087084
-8.394702 6.053896 8.058404
-8.460459 6.124654 8.029509
-8.527110 6.194483 8.000401
-8.594661 6.263350 7.971080
-8.663119 6.331224 7.941547
-8.732488 6.398074 7.911805
-8.802770 6.463870 7.881857
-8.873964 6.528584 7.851706
-8.946068 6.592188 7.821357
-9.019082 6.654651 7.790813
-9.093002 6.715944 7.760080
-9.167822 6.776041 7.729164
-9.243533 6.834919 7.698070
-9.320124 6.892556 7.666807
-9.397585 6.948927 7.635381
-9.475904 7.004010 7.603799
-9.555070 7.057783 7.572071
-9.635065 7.110232 7.540204
-9.715871 7.161342 7.508207
-9.797469 7.211100 7.476091
-9.879842 7.259490 7.443865
-9.962970 7.306501 7.411537
-10.046833 7.352126 7.379118
-10.131406 7.396361 7.346618
-10.216666 7.439202 7.314046
-10.302590 7.480646 7.281414
-10.389157 7.520689 7.248730
-10.476342 7.559334 7.216004
-10.564119 7.596585 7.183246
-10.652463 7.632449 7.150465
-10.741351 7.666931 7.117670
-10.830758 7.700039 7.084870
-10.920660 7.731780 7.052073
-11.011033 7.762167 7.019288
-11.101853 7.791214 6.986522
-11.193096 7.818934 6.953783
-11.284740 7.845340 6.921077
-11.376763 7.870447 6.888412
-11.469143 7.894272 6.855793
-11.561858 7.916832 6.823227
-11.654887 7.938146 6.790719
-11.748212 7.958232 6.758273
-11.841812 7.977108 6.725895
-11.935669 7.994793 6.693589
-12.029765 8.011307 6.661359
-12.124083 8.026670 6.629208
-12.218607 8.040902 6.597140
-12.313320 8.054023 6.565158
-12.408208 8.066053 6.533264
-12.503255 8.077014 6.501460
-12.598449 8.086924 6.469750
-12.693776 8.095804 6.438134
-12.789223 8.103675 6.406614
-12.884779 8.110557 6.375192
-12.980432 8.116468 6.343868
-13.076172 8.121428 6.312644
-13.171989 8.125456 6.281521
-13.267872 8.128570 6.250498
-13.363813 8.130789 6.219578
-13.459802 8.132133 6.188759
-13.555833 8.132620 6.158042
-13.651897 8.132270 6.127427
-13.747987 8.131100 6.096914
-13.844096 8.129130 6.066502
-1.554577 -1.694519 12.401240
-1.422481 -1.582495 12.444541
-1.294489 -1.466189 12.488824
-1.171514 -1.344993 12.534206
-1.055524 -1.217597 12.580933
-0.947575 -1.083827 12.628982
-0.850251 -0.942634 12.678476
-0.768186 -0.792640 12.729489
-0.704757 -0.634349 12.781622
-0.666886 -0.468232 12.834223
-0.662409 -0.297774 12.885674
-0.692397 -0.129087 12.934061
-0.757951 0.030924 12.977234
-0.852531 0.177376 13.014208
-0.967608 0.309980 13.045523
-1.098539 0.428434 13.071430
-1.240018 0.535038 13.093008
-1.388830 0.631926 13.111133
-1.543525 0.719753 13.126109
-1.553086 -1.693275 12.401722
-1.423944 -1.583768 12.444051
-1.421017 -1.581223 12.445030
-1.295889 -1.467526 12.488320
-1.293089 -1.464853 12.489328
-1.172875 -1.346366 12.533694
-1.170152 -1.343620 12.534717
-1.056790 -1.219053 12.580404
-1.054258 -1.216142 12.581463
-0.948711 -1.085379 12.628433
-0.946439 -1.082275 12.629531
-0.851304 -0.944240 12.677917
-0.849198 -0.941029 12.679035
-0.769022 -0.794363 12.728911
-0.767350 -0.790918 12.730067
-0.705284 -0.636186 12.781032
-0.704230 -0.632512 12.782211
-0.667217 -0.470114 12.833634
-0.666555 -0.466349 12.834812
-0.662275 -0.299688 12.885110
-0.662544 -0.295860 12.886238
-0.691772 -0.130919 12.933558
-0.693022 -0.127255 12.934565
-0.757107 0.029171 12.976770
-0.758796 0.032677 12.977697
-0.851338 0.175817 13.013828
-0.853724 0.178936 13.014588
-0.966181 0.308613 13.045218
-0.969035 0.311348 13.045829
-1.097028 0.427153 13.071157
-1.100051 0.429715 13.071703
-1.238383 0.533908 13.092789
-1.241654 0.536168 13.093227
-1.387111 0.630919 13.110958
-1.390549 0.632933 13.111309
-1.541774 0.718799 13.125952
-1.547312 -1.688457 12.403591
-1.429615 -1.588697 12.442157
-1.415346 -1.576294 12.446924
-1.301313 -1.472705 12.486369
-1.287665 -1.459674 12.491279
-1.178150 -1.351685 12.531711
-1.164993 -1.338199 12.536722
-1.061695 -1.224690 12.578353
-1.049354 -1.210505 12.583514
-0.953113 -1.091391 12.626307
-0.942038 -1.076263 12.631657
-0.855384 -0.950462 12.675752
-0.845125 -0.934803 12.681202
-0.772261 -0.801036 12.726672
-0.764110 -0.784244 12.732307
-0.707326 -0.643303 12.778747
-0.702188 -0.625394 12.784496
-0.668499 -0.477408 12.831353
-0.665273 -0.459056 12.837094
-0.661754 -0.307104 12.882924
-0.663065 -0.288444 12.888424
-0.689349 -0.138016 12.931607
-0.695444 -0.120158 12.936515
-0.753834 0.022381 12.974974
-0.762069 0.039467 12.979494
-0.846716 0.169774 13.012355
-0.858347 0.184978 13.016061
-0.960652 0.303314 13.044035
-0.974564 0.316647 13.047012
-1.091172 0.422190 13.070098
-1.105907 0.434678 13.072761
-1.232047 0.529528 13.091941
-1.247990 0.540548 13.094075
-1.380475 0.626979 13.110264
-1.397209 0.636835 13.111990
-1.534992 0.715101 13.125341
-1.533556 -1.676979 12.408044
-1.515357 -1.661793 12.413936
-1.497157 -1.646608 12.419827
-1.478958 -1.631422 12.425718
-1.461001 -1.615975 12.431670
-1.443126 -1.600439 12.437642
-1.401835 -1.564552 12.451439
-1.384190 -1.548778 12.457465
-1.366681 -1.532865 12.463524
-1.349171 -1.516951 12.469583
-1.331661 -1.501038 12.475642
-1.314235 -1.485042 12.481719
-1.274743 -1.447337 12.495928
-1.257647 -1.431015 12.502080
-1.240591 -1.414655 12.508239
-1.223966 -1.397889 12.514488
-1.207341 -1.381123 12.520738
-1.190716 -1.364358 12.526987
-1.152836 -1.325163 12.541525
-1.136751 -1.307916 12.547879
-1.120667 -1.290669 12.554233
-1.104583 -1.273422 12.560587
-1.088837 -1.255892 12.567001
-1.073379 -1.238122 12.573466
-1.037670 -1.197073 12.588400
-1.022520 -1.179063 12.594915
-1.007790 -1.160725 12.601496
-0.993061 -1.142388 12.608078
-0.978331 -1.124051 12.614659
-0.963602 -1.105713 12.621241
-0.931552 -1.061938 12.636724
-0.917679 -1.042987 12.643426
-0.903806 -1.024036 12.650129
-0.890823 -1.004505 12.656940
-0.877964 -0.984895 12.663766
-0.865104 -0.965284 12.670592
-0.836318 -0.919452 12.686453
-0.824665 -0.899142 12.693400
-0.813012 -0.878832 12.700347
-0.801359 -0.858523 12.707294
-0.790189 -0.837970 12.714278
-0.779979 -0.816935 12.721337
-0.756393 -0.768345 12.737642
-0.746559 -0.747152 12.744720
-0.738074 -0.725394 12.751869
-0.729588 -0.703636 12.759018
-0.721103 -0.681877 12.766167
-0.712617 -0.660119 12.773316
-0.697323 -0.608438 12.789938
-0.690887 -0.586005 12.797139
-0.684451 -0.563571 12.804340
-0.679634 -0.540762 12.811534
-0.675594 -0.517773 12.818726
-0.671553 -0.494784 12.825917
-0.663745 -0.441486 12.842475
-0.662426 -0.418153 12.849570
-0.661107 -0.394819 12.856665
-0.659788 -0.371485 12.863760
-0.658870 -0.348146 12.870827
-0.660512 -0.324772 12.877716
-0.664306 -0.270776 12.893631
-0.666011 -0.247408 12.900514
-0.670701 -0.224356 12.907083
-0.675390 -0.201304 12.913652
-0.680079 -0.178252 12.920221
-0.684768 -0.155200 12.926790
-0.701215 -0.103249 12.941162
-0.708849 -0.080878 12.947311
-0.716484 -0.058508 12.953459
-0.725409 -0.036603 12.959373
-0.735723 -0.015200 12.965034
-0.746038 0.006203 12.970695
-0.770714 0.055225 12.983585
-0.783348 0.075484 12.988732
-0.795982 0.095743 12.993880
-0.808616 0.116002 12.999028
-0.821249 0.136261 13.004175
-0.835704 0.155379 13.008847
-0.869359 0.199374 13.019569
-0.883928 0.218419 13.024211
-0.899800 0.236473 13.028459
-0.915950 0.254316 13.032624
-0.932099 0.272160 13.036789
-0.948249 0.290003 13.040954
-0.987736 0.329270 13.049830
-1.005163 0.345972 13.053558
-1.022590 0.362673 13.057287
-1.040307 0.379077 13.060905
-1.058764 0.394721 13.064241
-1.077221 0.410365 13.067577
-1.119995 0.446344 13.075225
-1.139286 0.461023 13.078210
-1.158577 0.475702 13.081195
-1.177868 0.490381 13.084181
-1.197160 0.505060 13.087166
-1.216952 0.519094 13.089921
-1.263084 0.550982 13.096095
-1.283055 0.564786 13.098768
-1.303372 0.578101 13.101269
-1.323901 0.591115 13.103664
-1.344430 0.604129 13.106059
-1.364959 0.617143 13.108454
-1.413075 0.646132 13.113613
-1.434066 0.658433 13.115760
-1.455058 0.670733 13.117907
-1.476078 0.682984 13.120037
-1.497456 0.694638 13.121962
-1.518834 0.706292 13.123886
31 NaN NaN
-1.554949 -1.694830 12.401119
-1.474371 -1.627595 12.427203
-1.395230 -1.558811 12.453646
-1.317706 -1.488355 12.480471
-1.242013 -1.416089 12.507705
-1.168407 -1.341860 12.535373
-1.097196 -1.265500 12.563506
-1.028756 -1.186826 12.592128
-0.963545 -1.105642 12.621267
-0.902126 -1.021741 12.650941
-0.845196 -0.934925 12.681160
-0.793609 -0.845017 12.711914
-0.748412 -0.751903 12.743159
-0.710853 -0.655594 12.774802
-0.682366 -0.556305 12.806672
-0.664485 -0.454568 12.838498
-0.658648 -0.351316 12.869892
-0.665913 -0.247890 12.900377
-0.686661 -0.145895 12.929442
-0.720442 -0.046908 12.956647
-0.766086 0.047804 12.981699
-0.821999 0.137463 13.004481
-0.886484 0.221760 13.025025
-0.957969 0.300743 13.043461
-1.035113 0.374675 13.059967
-1.116823 0.443931 13.074734
-1.202227 0.508916 13.087950
-1.290642 0.570031 13.099784
-1.381530 0.627648 13.110387
-1.474466 0.682105 13.119892
-1.569114 0.733703 13.128413
-1.656886 -1.649397 9.860619
-1.539372 -1.555580 9.854113
-1.424378 -1.458658 9.848197
-1.312716 -1.357882 9.843040
-1.205090 -1.252770 9.838772
-1.101895 -1.143273 9.835448
-1.005518 -1.027715 9.833516
-0.916295 -0.906556 9.832977
-0.837203 -0.778605 9.834311
-0.771381 -0.643423 9.837951
-0.720844 -0.501917 9.844070
-0.693894 -0.354366 9.853688
-0.690102 -0.204730 9.866402
-0.713324 -0.057229 9.882324
-0.762436 0.083555 9.900910
-0.831319 0.215631 9.921214
-0.918894 0.335986 9.942836
-1.018042 0.446903 9.965080
-1.126714 0.548458 9.987697
-1.242654 0.641636 10.010490
-1.363549 0.728299 10.033331
-1.489065 0.808143 10.056152
-1.655317 -1.648159 9.860531
-1.540916 -1.556849 9.854195
-1.537828 -1.554312 9.854030
-1.425894 -1.459961 9.848273
-1.422862 -1.457356 9.848121
-1.314164 -1.359260 9.843100
-1.311268 -1.356503 9.842979
-1.206496 -1.254192 9.838823
-1.203684 -1.251349 9.838720
-1.103252 -1.144742 9.835489
-1.100585 -1.141763 9.835417
-1.006750 -1.029291 9.833532
-1.004287 -1.026140 9.833500
-0.917445 -0.908192 9.832978
-0.915144 -0.904920 9.832977
-0.838138 -0.780373 9.834273
-0.836268 -0.776837 9.834349
-0.772173 -0.645258 9.837888
-0.770588 -0.641587 9.838013
-0.721465 -0.503815 9.843981
-0.720315 -0.499993 9.844173
-0.694085 -0.356351 9.853537
-0.693703 -0.352381 9.853839
-0.690044 -0.206721 9.866219
-0.690161 -0.202739 9.866585
-0.712765 -0.059135 9.882086
-0.713884 -0.055324 9.882562
-0.761655 0.081732 9.900651
-0.763218 0.085378 9.901169
-0.830348 0.213905 9.920940
-0.832329 0.217333 9.921491
-0.917636 0.334460 9.942543
-0.920153 0.337513 9.943128
-1.016679 0.445471 9.964782
-1.019405 0.448336 9.965378
-1.125197 0.547190 9.987395
-1.128231 0.549725 9.988000
-1.241081 0.640440 10.010186
-1.244228 0.642833 10.010793
-1.361928 0.727167 10.033027
-1.365169 0.729431 10.033634
-1.487373 0.807122 10.055849
-1.650009 -1.643971 9.860233
-1.546141 -1.561142 9.854474
-1.532603 -1.550019 9.853752
-1.431024 -1.464367 9.848529
-1.417731 -1.452950 9.847864
-1.319064 -1.363924 9.843305
-1.306368 -1.351839 9.842774
-1.211254 -1.259002 9.838998
-1.198926 -1.246539 9.838546
-1.107845 -1.149711 9.835629
-1.096187 -1.136619 9.835317
-1.010918 -1.034623 9.833586
-1.000119 -1.020807 9.833446
-0.921338 -0.913728 9.832979
-0.911251 -0.899384 9.832975
-0.841301 -0.786355 9.834143
-0.833105 -0.770855 9.834479
-0.774855 -0.651469 9.837678
-0.767907 -0.635377 9.838223
-0.723569 -0.510241 9.843679
-0.718892 -0.493389 9.844576
-0.694732 -0.363069 9.853026
-0.693057 -0.345663 9.854350
-0.689845 -0.213457 9.865600
-0.690359 -0.196002 9.867203
-0.710871 -0.065582 9.881279
-0.715778 -0.048877 9.883369
-0.759012 0.075563 9.899775
-0.765861 0.091546 9.902045
-0.827060 0.208062 9.920011
-0.836153 0.222834 9.922457
-0.913376 0.329295 9.941552
-0.924413 0.342678 9.944119
-1.012065 0.440623 9.963775
-1.024019 0.453184 9.966385
-1.120063 0.542900 9.986371
-1.133365 0.554015 9.989023
-1.235755 0.636391 10.009160
-1.249553 0.646882 10.011820
-1.356445 0.723335 10.032000
-1.370780 0.733074 10.034661
-1.481645 0.803664 10.054824
-1.637875 -1.634396 9.859551
-1.621869 -1.621768 9.858652
-1.605864 -1.609139 9.857752
-1.589859 -1.596510 9.856853
-1.573854 -1.583881 9.855954
-1.558084 -1.570956 9.855110
-1.520659 -1.540205 9.853115
-1.504905 -1.527260 9.852275
-1.489162 -1.514302 9.851438
-1.473693 -1.501015 9.850664
-1.458223 -1.487728 9.849890
-1.442753 -1.474441 9.849116
-1.406048 -1.442824 9.847288
-1.390902 -1.429165 9.846587
-1.375755 -1.415507 9.845887
-1.360609 -1.401848 9.845186
-1.345462 -1.388190 9.844486
-1.330316 -1.374531 9.843785
-1.295166 -1.341178 9.842305
-1.280390 -1.327115 9.841687
-1.265615 -1.313052 9.841069
-1.250839 -1.298990 9.840450
-1.236478 -1.284501 9.839922
-1.222131 -1.269997 9.839396
-1.188048 -1.235543 9.838148
-1.173736 -1.221007 9.837629
-1.159888 -1.206023 9.837209
-1.146040 -1.191039 9.836789
-1.132192 -1.176055 9.836368
-1.118344 -1.161071 9.835948
-1.086133 -1.124862 9.835089
-1.072871 -1.109354 9.834789
-1.059609 -1.093846 9.834488
-1.046347 -1.078339 9.834187
-1.033085 -1.062831 9.833887
-1.020446 -1.046812 9.833710
-0.990590 -1.008618 9.833322
-0.978023 -0.992541 9.833159
-0.965455 -0.976463 9.832996
-0.953715 -0.959771 9.832992
-0.941977 -0.943078 9.832987
-0.930238 -0.926384 9.832982
-0.902451 -0.886662 9.832990
-0.891709 -0.869312 9.833169
-0.880967 -0.851961 9.833348
-0.870226 -0.834611 9.833526
-0.859484 -0.817260 9.833705
-0.848742 -0.799910 9.833884
-0.825873 -0.757181 9.834775
-0.816335 -0.739144 9.835165
-0.806796 -0.721107 9.835556
-0.797258 -0.703071 9.835946
-0.789069 -0.684393 9.836563
-0.780984 -0.665666 9.837197
-0.761777 -0.621179 9.838704
-0.753747 -0.602432 9.839347
-0.747405 -0.583057 9.840257
-0.741062 -0.563681 9.841168
-0.734720 -0.544306 9.842078
-0.728377 -0.524931 9.842988
-0.715639 -0.478291 9.845498
-0.711349 -0.458377 9.846714
-0.707059 -0.438463 9.847930
-0.702769 -0.418548 9.849146
-0.698479 -0.398634 9.850362
-0.696209 -0.378425 9.851858
-0.691579 -0.330306 9.855518
-0.689630 -0.310051 9.857058
-0.687681 -0.289795 9.858599
-0.688196 -0.269484 9.860454
-0.688794 -0.249171 9.862320
-0.689392 -0.228858 9.864185
-0.691002 -0.180622 9.868640
-0.694209 -0.160585 9.870809
-0.697416 -0.140549 9.872979
-0.700623 -0.120512 9.875149
-0.703830 -0.100475 9.877318
-0.707037 -0.080439 9.879488
-0.720108 -0.034138 9.885213
-0.725818 -0.014697 9.887644
-0.731529 0.004743 9.890076
-0.737240 0.024184 9.892508
-0.744999 0.042862 9.895130
-0.752969 0.061462 9.897772
-0.771904 0.105648 9.904048
-0.779894 0.124237 9.906691
-0.789807 0.141854 9.909491
-0.799720 0.159471 9.912290
-0.809632 0.177089 9.915090
-0.819545 0.194706 9.917889
-0.844892 0.235409 9.924664
-0.856419 0.251995 9.927576
-0.867947 0.268581 9.930487
-0.879474 0.285167 9.933399
-0.891002 0.301753 9.936311
-0.903637 0.317488 9.939286
-0.934152 0.354485 9.946385
-0.946997 0.370058 9.949373
-0.959842 0.385632 9.952361
-0.973693 0.400304 9.955396
-0.987605 0.414922 9.958434
-1.001517 0.429540 9.961472
-1.034606 0.464226 9.968690
-1.049382 0.477963 9.971759
-1.064159 0.491700 9.974828
-1.078935 0.505437 9.977897
-1.093711 0.519174 9.980966
-1.108488 0.532911 9.984035
-1.145101 0.563821 9.991364
-1.160581 0.576756 9.994450
-1.176061 0.589691 9.997537
-1.191541 0.602625 10.000624
-1.207525 0.614926 10.003718
-1.223582 0.627135 10.006813
-1.261727 0.656138 10.014166
-1.277784 0.668346 10.017262
-1.294306 0.679916 10.020359
-1.310841 0.691469 10.023457
-1.327375 0.703023 10.026554
-1.343909 0.714576 10.029652
-1.383618 0.741384 10.037008
-1.400551 0.752346 10.040103
-1.417484 0.763307 10.043199
-1.434417 0.774268 10.046294
-1.451350 0.785229 10.049390
-1.468553 0.795760 10.052481
31 NaN NaN
-1.657278 -1.649706 9.860641
-1.572861 -1.583098 9.855898
-1.489769 -1.514823 9.851468
-1.408177 -1.444743 9.847386
-1.328290 -1.372705 9.843691
-1.250361 -1.298534 9.840430
-1.174692 -1.222041 9.837658
-1.101656 -1.143014 9.835441
-1.031713 -1.061225 9.833856
-0.965432 -0.976433 9.832996
-0.903526 -0.888397 9.832972
-0.846878 -0.796899 9.833915
-0.796579 -0.701787 9.835974
-0.753948 -0.603045 9.839318
-0.720509 -0.500893 9.844118
-0.697892 -0.395912 9.850528
-0.687618 -0.289142 9.858648
-0.690769 -0.182076 9.868482
-0.707673 -0.076469 9.879917
-0.737775 0.026004 9.892736
-0.779791 0.124054 9.906662
-0.832053 0.216935 9.921421
-0.892834 0.304390 9.936773
-0.960568 0.386512 9.952530
-1.033932 0.463600 9.968550
-1.111858 0.536045 9.984735
-1.193498 0.604261 10.001014
-1.278182 0.668650 10.017338
-1.365387 0.729583 10.033675
-1.454695 0.787394 10.050001
-1.545776 0.842380 10.066301
-1.105194 -1.721644 7.614299
-0.861309 -1.332314 7.723842
-0.683950 -0.909585 7.835474
-0.619026 -0.456352 7.944697
-0.718312 -0.007356 8.039227
-0.976521 0.379934 8.106344
-1.334718 0.684148 8.146081
-1.104080 -1.720048 7.614757
-0.862219 -1.334032 7.723372
-0.860399 -1.330596 7.724311
-0.684535 -0.911438 7.835001
-0.683365 -0.907732 7.835947
-0.618935 -0.458301 7.944258
-0.619118 -0.454403 7.945135
-0.717539 -0.009167 8.038876
-0.719085 -0.005545 8.039577
-0.975138 0.378505 8.106133
-0.977915 0.381353 8.106553
-1.333071 0.683020 8.145960
-1.094031 -1.705646 7.618895
-0.870428 -1.349530 7.719137
-0.852190 -1.315098 7.728546
-0.689809 -0.928156 7.830732
-0.678091 -0.891015 7.840217
-0.618107 -0.475884 7.940300
-0.619945 -0.436820 7.949093
-0.710565 -0.025504 8.035718
-0.726060 0.010791 8.042735
-0.963405 0.364965 8.104012
-0.990489 0.394154 8.108434
-1.318214 0.672843 8.144871
-1.066275 -1.665872 7.630324
-1.029827 -1.612311 7.645636
-0.994174 -1.558227 7.661001
-0.959844 -1.503319 7.676445
-0.926170 -1.448019 7.691923
-0.893886 -1.391908 7.707471
-0.829723 -1.272192 7.740250
-0.801670 -1.213891 7.755946
-0.774828 -1.155045 7.771666
-0.749299 -1.095608 7.787411
-0.726240 -1.035185 7.803176
-0.704377 -0.974327 7.818940
-0.666206 -0.844071 7.851961
-0.650885 -0.781222 7.867634
-0.639108 -0.717570 7.883196
-0.629659 -0.653546 7.898648
-0.622400 -0.589171 7.913997
-0.619620 -0.524399 7.929063
-0.622229 -0.388258 7.960024
-0.629663 -0.323676 7.974193
-0.639306 -0.259329 7.988123
-0.653777 -0.195732 8.001479
-0.671420 -0.132918 8.014390
-0.691633 -0.070738 8.026941
-0.747520 0.054937 8.051052
-0.778406 0.112936 8.061754
-0.813095 0.168851 8.071660
-0.849487 0.223743 8.081190
-0.889180 0.276469 8.089948
-0.930999 0.327568 8.098156
-1.025215 0.429511 8.113629
-1.072838 0.475530 8.120189
-1.121881 0.520137 8.126306
-1.172837 0.562615 8.131776
-1.224584 0.604160 8.136966
-1.277786 0.643911 8.141624
29 NaN NaN
-1.105473 -1.722043 7.614184
-1.045665 -1.636337 7.638810
-0.988164 -1.549111 7.663591
-0.933230 -1.460288 7.688523
-0.881163 -1.369796 7.713599
-0.832309 -1.277566 7.738803
-0.787068 -1.183542 7.764117
-0.745897 -1.087689 7.789509
-0.709323 -0.990000 7.814938
-0.677935 -0.890521 7.840343
-0.652391 -0.789360 7.865645
-0.633400 -0.686720 7.890738
-0.621695 -0.582917 7.915489
-0.617989 -0.478408 7.939732
-0.622910 -0.373793 7.963280
-0.636922 -0.269806 7.985923
-0.660253 -0.167269 8.007456
-0.692842 -0.067018 8.027692
-0.734337 0.030179 8.046484
-0.784135 0.123695 8.063739
-0.841465 0.213087 8.079420
-0.905470 0.298107 8.093542
-0.975288 0.378678 8.106160
-1.050106 0.454855 8.117353
-1.129194 0.526789 8.127218
-1.211911 0.594690 8.135856
-1.297710 0.658798 8.143368
-1.386128 0.719363 8.149849
-1.476779 0.776635 8.155390
-1.148088 -1.671389 6.449478
-1.046213 -1.507221 6.500134
-0.954287 -1.337734 6.552204
-0.874467 -1.162687 6.605723
-0.809461 -0.982074 6.660646
-0.762535 -0.796346 6.716784
-0.737371 -0.606701 6.773715
-0.737622 -0.415397 6.830706
-0.767068 -0.226061 6.886611
-0.825628 -0.042984 6.940151
-0.911283 0.130094 6.990249
-1.020398 0.290704 7.036230
-1.148626 0.437887 7.077884
-1.291827 0.571879 7.115351
-1.147046 -1.669758 6.449982
-1.047207 -1.508880 6.499623
-1.045219 -1.505563 6.500645
-0.955166 -1.339451 6.551677
-0.953407 -1.336017 6.552730
-0.875205 -1.164465 6.605180
-0.873729 -1.160909 6.606265
-0.810022 -0.983911 6.660089
-0.808900 -0.980237 6.661203
-0.762877 -0.798232 6.716216
-0.762192 -0.794459 6.717352
-0.737451 -0.608616 6.773143
-0.737292 -0.604786 6.774287
-0.737402 -0.417303 6.830142
-0.737842 -0.413491 6.831270
-0.766691 -0.227945 6.886056
-0.767446 -0.224177 6.887165
-0.824939 -0.044787 6.939626
-0.826316 -0.041182 6.940677
-0.910314 0.128413 6.989765
-0.912252 0.131775 6.990733
-1.019197 0.289166 7.035793
-1.021599 0.292242 7.036668
-1.147245 0.436494 7.077493
-1.150007 0.439279 7.078275
-1.290309 0.570623 7.115003
-1.142619 -1.662835 6.452121
-1.051427 -1.515922 6.497452
-1.040999 -1.498521 6.502815
-0.958901 -1.346742 6.549441
-0.949672 -1.328726 6.554967
-0.878338 -1.172014 6.602878
-0.870596 -1.153359 6.608568
-0.812405 -0.991711 6.657724
-0.806518 -0.972437 6.663567
-0.764332 -0.806243 6.713804
-0.760737 -0.786448 6.719763
-0.737789 -0.616746 6.770715
-0.736953 -0.596656 6.776715
-0.737091 -0.425436 6.827724
-0.738777 -0.405398 6.833666
-0.765087 -0.235944 6.883700
-0.769049 -0.216178 6.889521
-0.822016 -0.052441 6.937396
-0.829240 -0.033527 6.942907
-0.906199 0.121275 6.987709
-0.916367 0.138913 6.992789
-1.014098 0.282635 7.033934
-1.026698 0.298774 7.038527
-1.141380 0.430582 7.075832
-1.155872 0.445192 7.079936
-1.283867 0.565292 7.113525
-1.131815 -1.645937 6.457340
-1.117497 -1.623543 6.464257
-1.103179 -1.601149 6.471174
-1.089023 -1.578662 6.478116
-1.075374 -1.555885 6.485136
-1.061726 -1.533108 6.492155
-1.031150 -1.481094 6.508176
-1.018243 -1.457921 6.515301
-1.005337 -1.434748 6.522426
-0.992431 -1.411574 6.529551
-0.980097 -1.388117 6.536751
-0.968017 -1.364536 6.543983
-0.940608 -1.310909 6.560430
-0.929448 -1.286910 6.567771
-0.918288 -1.262912 6.575112
-0.907128 -1.238914 6.582453
-0.896116 -1.214855 6.589809
-0.885983 -1.190438 6.597257
-0.862951 -1.134935 6.614188
-0.853399 -1.110308 6.621689
-0.844414 -1.085477 6.629240
-0.835428 -1.060646 6.636792
-0.826443 -1.035815 6.644344
-0.818219 -1.010748 6.651953
-0.800703 -0.953401 6.669339
-0.792998 -0.928172 6.676987
-0.786655 -0.902593 6.684716
-0.780373 -0.876998 6.692449
-0.774092 -0.851404 6.700182
-0.767883 -0.825794 6.707918
-0.757187 -0.766897 6.725649
-0.752481 -0.740986 6.733449
-0.748483 -0.714976 6.741267
-0.745509 -0.688823 6.749110
-0.742534 -0.662670 6.756952
-0.739560 -0.636516 6.764795
-0.736127 -0.576815 6.782641
-0.735032 -0.550519 6.790494
-0.733937 -0.524223 6.798347
-0.734571 -0.497913 6.806174
-0.735486 -0.471601 6.813998
-0.736401 -0.445290 6.821821
-0.741058 -0.385646 6.839511
-0.744081 -0.359470 6.847258
-0.747105 -0.333294 6.855005
-0.750803 -0.307212 6.862712
-0.755989 -0.281339 6.870331
-0.761174 -0.255466 6.877951
-0.774422 -0.196976 6.895150
-0.781770 -0.171580 6.902590
-0.789119 -0.146183 6.910031
-0.796467 -0.120787 6.917471
-0.805426 -0.095879 6.924738
-0.814881 -0.071122 6.931952
-0.836628 -0.014946 6.948316
-0.848083 0.009031 6.955263
-0.859538 0.033007 6.962210
-0.870993 0.056983 6.969157
-0.882849 0.080767 6.976040
-0.896157 0.103855 6.982691
-0.926408 0.156334 6.997808
-0.940690 0.178864 7.004275
-0.955681 0.200989 7.010610
-0.970671 0.223114 7.016945
-0.985661 0.245239 7.023280
-1.001655 0.266695 7.029398
-1.039141 0.314713 7.043062
-1.055673 0.335807 7.049064
-1.073487 0.355923 7.054752
-1.091301 0.376039 7.060440
-1.109115 0.396155 7.066128
-1.127067 0.416153 7.071778
-1.170185 0.459621 7.083990
-1.189153 0.478744 7.089362
-1.208604 0.497403 7.094588
-1.228575 0.515565 7.099657
-1.248546 0.533726 7.104726
-1.268516 0.551887 7.109794
27 NaN NaN
-1.148349 -1.671797 6.449352
-1.092345 -1.584205 6.476408
-1.038960 -1.495117 6.503864
-0.988479 -1.404478 6.531733
-0.941228 -1.312243 6.560022
-0.897579 -1.218380 6.588734
-0.857948 -1.122879 6.617865
-0.822805 -1.025761 6.647402
-0.792667 -0.927091 6.677315
-0.768100 -0.826991 6.707558
-0.749698 -0.725657 6.738064
-0.738066 -0.623377 6.768735
-0.733784 -0.520542 6.799446
-0.737362 -0.417648 6.830040
-0.749185 -0.315286 6.860334
-0.769463 -0.214112 6.890129
-0.798199 -0.114800 6.919225
-0.835174 -0.017990 6.947434
-0.879969 0.075771 6.974601
-0.932012 0.166055 7.000608
-0.990635 0.252580 7.025382
-1.055130 0.335194 7.048890
-1.124799 0.413867 7.071136
-1.198986 0.488656 7.092147
-1.277093 0.559687 7.111971
-1.358592 0.627125 7.130667
-1.443022 0.691159 7.148298
-1.201480 -1.635576 5.284345
-1.111211 -1.519469 5.337567
-1.025610 -1.399997 5.391042
-0.946491 -1.276248 5.444740
-0.874489 -1.148274 5.498533
-0.811377 -1.015679 5.552235
-0.759452 -0.878169 5.605531
-0.719861 -0.736342 5.658028
-0.697688 -0.590200 5.708826
-0.692509 -0.441743 5.757356
-0.709987 -0.293053 5.801949
-0.748125 -0.146969 5.842049
-0.807782 -0.006784 5.876446
-0.886325 0.125269 5.904890
-0.979861 0.248345 5.927801
-1.086691 0.361170 5.945071
-1.202290 0.465639 5.958107
-1.326107 0.560764 5.966692
-1.200313 -1.634101 5.285025
-1.112335 -1.520976 5.336885
-1.110086 -1.517962 5.338249
-1.026686 -1.401538 5.390357
-1.024535 -1.398456 5.391726
-0.947449 -1.277864 5.444052
-0.945534 -1.274633 5.445428
-0.875375 -1.149930 5.497845
-0.873603 -1.146618 5.499221
-0.812087 -1.017419 5.551551
-0.810667 -1.013939 5.552918
-0.760055 -0.879952 5.604853
-0.758850 -0.876387 5.606209
-0.720199 -0.738201 5.657372
-0.719524 -0.734483 5.658684
-0.697867 -0.592087 5.708189
-0.697509 -0.588312 5.709463
-0.692513 -0.443647 5.756745
-0.692505 -0.439838 5.757967
-0.709608 -0.294942 5.801411
-0.710366 -0.291165 5.802488
-0.747551 -0.148821 5.841556
-0.748700 -0.145118 5.842541
-0.806849 -0.008510 5.876057
-0.808715 -0.005058 5.876834
-0.885240 0.123623 5.904555
-0.887411 0.126914 5.905226
-0.978531 0.246871 5.927564
-0.981192 0.249820 5.928039
-1.085266 0.359779 5.944877
-1.088116 0.362560 5.945264
-1.200787 0.464328 5.957953
-1.203794 0.466949 5.958261
-1.324484 0.559599 5.966606
-1.196241 -1.628958 5.287395
-1.116255 -1.526231 5.334505
-1.106166 -1.512708 5.340629
-1.030436 -1.406911 5.387969
-1.020784 -1.393082 5.394114
-0.950790 -1.283497 5.441654
-0.942193 -1.268999 5.447826
-0.878466 -1.155703 5.495446
-0.870512 -1.140845 5.501620
-0.814565 -1.023487 5.549166
-0.808189 -1.007871 5.555303
-0.762155 -0.886167 5.602487
-0.756749 -0.870171 5.608575
-0.721595 -0.744628 5.655064
-0.718346 -0.728001 5.660972
-0.698491 -0.598669 5.705967
-0.696885 -0.581731 5.711684
-0.692527 -0.450288 5.754612
-0.692574 -0.433197 5.760085
-0.708285 -0.301527 5.799533
-0.711689 -0.284579 5.804366
-0.745548 -0.155277 5.839840
-0.750702 -0.138661 5.844257
-0.803595 -0.014529 5.874703
-0.811968 0.000960 5.878188
-0.881453 0.117884 5.903385
-0.891198 0.132653 5.906396
-0.973891 0.241730 5.926737
-0.985831 0.254961 5.928866
-1.080298 0.354931 5.944202
-1.093084 0.367408 5.945939
-1.195545 0.459759 5.957416
-1.209248 0.471274 5.958683
-1.318824 0.555534 5.966304
-1.186842 -1.617086 5.292867
-1.174436 -1.601414 5.300090
-1.162030 -1.585743 5.307313
-1.149624 -1.570071 5.314536
-1.137253 -1.554373 5.321761
-1.125306 -1.538361 5.329012
-1.097115 -1.500577 5.346122
-1.085169 -1.484565 5.353373
-1.073382 -1.468440 5.360631
-1.061953 -1.452066 5.367907
-1.050524 -1.435691 5.375182
-1.039095 -1.419317 5.382458
-1.012443 -1.380468 5.399636
-1.001599 -1.363709 5.406932
-0.990755 -1.346949 5.414227
-0.979912 -1.330190 5.421522
-0.969068 -1.313430 5.428817
-0.958501 -1.296502 5.436118
-0.934482 -1.255994 5.453362
-0.924304 -1.238828 5.460670
-0.914126 -1.221662 5.467978
-0.904440 -1.204219 5.475287
-0.895021 -1.186625 5.482598
-0.885602 -1.169032 5.489908
-0.863376 -1.127516 5.507159
-0.854724 -1.109532 5.514458
-0.846175 -1.091495 5.521757
-0.837627 -1.073458 5.529056
-0.829078 -1.055421 5.536354
-0.820529 -1.037384 5.543653
-0.802470 -0.993863 5.560809
-0.794920 -0.975373 5.568075
-0.787371 -0.956883 5.575342
-0.779821 -0.938393 5.582609
-0.773407 -0.919457 5.589818
-0.767005 -0.900517 5.597026
-0.751900 -0.855822 5.614036
-0.745790 -0.836786 5.621223
-0.740705 -0.817415 5.628336
-0.735619 -0.798044 5.635449
-0.730534 -0.778674 5.642562
-0.725448 -0.759303 5.649675
-0.715629 -0.713035 5.666253
-0.712041 -0.693281 5.673224
-0.708454 -0.673527 5.680194
-0.704866 -0.653773 5.687165
-0.701835 -0.633919 5.694070
-0.699933 -0.613863 5.700839
-0.695444 -0.566536 5.716812
-0.693541 -0.546480 5.723582
-0.692688 -0.526323 5.730197
-0.692645 -0.506088 5.736695
-0.692603 -0.485853 5.743192
-0.692560 -0.465618 5.749690
-0.694055 -0.417856 5.764743
-0.696011 -0.397606 5.770892
-0.697966 -0.377356 5.777040
-0.699922 -0.357106 5.783188
-0.701877 -0.336856 5.789337
-0.705231 -0.316730 5.795198
-0.714743 -0.269377 5.808701
-0.718774 -0.249309 5.814423
-0.722804 -0.229242 5.820145
-0.728719 -0.209532 5.825420
-0.734822 -0.189857 5.830649
-0.740925 -0.170182 5.835878
-0.755611 -0.123840 5.848141
-0.763699 -0.104754 5.852830
-0.771787 -0.085668 5.857519
-0.779874 -0.066582 5.862209
-0.787962 -0.047495 5.866898
-0.796084 -0.028423 5.871577
-0.819479 0.014855 5.881314
-0.829394 0.033195 5.885441
-0.839308 0.051535 5.889568
-0.849634 0.069659 5.893552
-0.861173 0.087147 5.897118
-0.872711 0.104635 5.900683
-0.899939 0.145902 5.909097
-0.912164 0.162948 5.912400
-0.925108 0.179530 5.915426
-0.938053 0.196112 5.918452
-0.950997 0.212695 5.921478
-0.963942 0.229277 5.924505
-0.996542 0.266830 5.930776
-1.010680 0.282497 5.933298
-1.024818 0.298164 5.935819
-1.038956 0.313830 5.938340
-1.053690 0.328965 5.940585
-1.068829 0.343739 5.942643
-1.104553 0.378601 5.947498
-1.119692 0.393374 5.949556
-1.135523 0.407442 5.951265
-1.151497 0.421365 5.952902
-1.167470 0.435288 5.954539
-1.183444 0.449211 5.956176
-1.221875 0.481218 5.959636
-1.238543 0.494343 5.960894
-1.255212 0.507469 5.962152
-1.271880 0.520594 5.963410
-1.288548 0.533719 5.964669
-1.305758 0.546151 5.965609
26 NaN NaN
-1.201772 -1.635945 5.284175
-1.138167 -1.555599 5.321207
-1.076918 -1.473507 5.358380
-1.018324 -1.389557 5.395680
-0.962731 -1.303636 5.433081
-0.910549 -1.215630 5.470546
-0.862262 -1.125435 5.508023
-0.818437 -1.032969 5.545439
-0.779735 -0.938182 5.582692
-0.746920 -0.841088 5.619643
-0.720851 -0.741794 5.656105
-0.702463 -0.640540 5.691835
-0.692712 -0.537743 5.726530
-0.692493 -0.434034 5.759831
-0.702515 -0.330254 5.791341
-0.723172 -0.227414 5.820667
-0.754448 -0.126585 5.847466
-0.795897 -0.028770 5.871499
-0.846709 0.065226 5.892648
-0.905849 0.154859 5.910923
-0.972198 0.239854 5.926435
-1.044668 0.320161 5.939359
-1.122273 0.395894 5.949907
-1.204159 0.467267 5.958299
-1.289608 0.534554 5.964749
-1.378026 0.598047 5.969456
-1.134189 -1.543258 4.123988
-1.050763 -1.421770 4.137796
-0.972302 -1.297227 4.153303
-0.900090 -1.169233 4.170854
-0.836124 -1.037298 4.190951
-0.780888 -0.901889 4.213572
-0.737551 -0.762807 4.239373
-0.708388 -0.620768 4.268614
-0.694579 -0.477151 4.301183
-0.701506 -0.334023 4.337605
-0.728213 -0.194082 4.377035
-0.774429 -0.059989 4.418767
-0.841490 0.064481 4.462133
-0.923445 0.179489 4.506032
-1.018507 0.283994 4.549867
-1.124286 0.377957 4.593169
-1.237358 0.463382 4.635776
-1.133048 -1.541625 4.124170
-1.051854 -1.423434 4.137597
-1.049673 -1.420105 4.137995
-0.973336 -1.298925 4.153085
-0.971268 -1.295529 4.153522
-0.900984 -1.171003 4.170592
-0.899196 -1.167463 4.171117
-0.836931 -1.039105 4.190663
-0.835316 -1.035491 4.191239
-0.781596 -0.903733 4.213255
-0.780181 -0.900046 4.213889
-0.738008 -0.764716 4.238992
-0.737093 -0.760898 4.239753
-0.708693 -0.622701 4.268199
-0.708084 -0.618836 4.269030
-0.694712 -0.479095 4.300732
-0.694447 -0.475207 4.301635
-0.701247 -0.335937 4.337086
-0.701765 -0.332109 4.338124
-0.727747 -0.195948 4.376488
-0.728679 -0.192215 4.377581
-0.773573 -0.061699 4.418184
-0.775285 -0.058278 4.419350
-0.840465 0.062869 4.461541
-0.842515 0.066094 4.462725
-0.922274 0.177981 4.505438
-0.924616 0.180998 4.506626
-1.017110 0.282690 4.549279
-1.019905 0.285299 4.550454
-1.122804 0.376747 4.592589
-1.125769 0.379167 4.593750
-1.235805 0.462260 4.635203
-1.129238 -1.536171 4.124778
-1.055498 -1.428995 4.136931
-1.046029 -1.414545 4.138661
-0.976790 -1.304597 4.152356
-0.967814 -1.289856 4.154251
-0.903970 -1.176914 4.169714
-0.896209 -1.161551 4.171994
-0.839629 -1.045141 4.189699
-0.832618 -1.029455 4.192203
-0.783959 -0.909892 4.212198
-0.777817 -0.893887 4.214946
-0.739538 -0.771095 4.237721
-0.735563 -0.754519 4.241024
-0.709711 -0.629156 4.266811
-0.707065 -0.612380 4.270418
-0.695154 -0.485589 4.299225
-0.694180 -0.468718 4.303175
-0.700380 -0.342330 4.335352
-0.702632 -0.325715 4.339858
-0.726191 -0.202183 4.374661
-0.730236 -0.185980 4.379408
-0.771145 -0.067613 4.416268
-0.778145 -0.052563 4.421300
-0.837042 0.057482 4.459565
-0.845938 0.071480 4.464701
-0.918363 0.172941 4.503453
-0.928528 0.186038 4.508611
-1.012441 0.278333 4.547316
-1.024574 0.289656 4.552417
-1.117850 0.372705 4.590649
-1.130723 0.383209 4.595690
-1.230617 0.458510 4.633290
-1.120564 -1.523757 4.126160
-1.109128 -1.507387 4.127983
-1.097692 -1.491018 4.129806
-1.086256 -1.474649 4.131629
-1.074820 -1.458279 4.133452
-1.063791 -1.441651 4.135417
-1.037736 -1.401889 4.140175
-1.026800 -1.385200 4.142172
-1.015865 -1.368512 4.144169
-1.005381 -1.351558 4.146318
-0.995016 -1.334533 4.148507
-0.984651 -1.317509 4.150696
-0.959953 -1.276945 4.155911
-0.950092 -1.259648 4.158263
-0.940379 -1.242271 4.160663
-0.930666 -1.224894 4.163064
-0.920953 -1.207517 4.165464
-0.911240 -1.190140 4.167864
-0.889412 -1.148095 4.173992
-0.880450 -1.130353 4.176625
-0.871487 -1.112610 4.179259
-0.862524 -1.094868 4.181892
-0.853865 -1.076995 4.184616
-0.845769 -1.058880 4.187507
-0.826478 -1.015717 4.194395
-0.818382 -0.997602 4.197286
-0.810617 -0.979365 4.200270
-0.803524 -0.960880 4.203444
-0.796431 -0.942396 4.206617
-0.789338 -0.923911 4.209791
-0.772798 -0.879759 4.217448
-0.766867 -0.860924 4.220931
-0.760936 -0.842089 4.224413
-0.755005 -0.823254 4.227895
-0.749074 -0.804419 4.231377
-0.743143 -0.785584 4.234859
-0.732082 -0.740001 4.243917
-0.727492 -0.720859 4.247732
-0.722902 -0.701716 4.251546
-0.718312 -0.682573 4.255361
-0.715084 -0.663225 4.259487
-0.712029 -0.643850 4.263652
-0.704748 -0.597686 4.273576
-0.701692 -0.578312 4.277742
-0.700140 -0.558837 4.282219
-0.698813 -0.539348 4.286744
-0.697486 -0.519859 4.291269
-0.696160 -0.500370 4.295793
-0.694617 -0.453974 4.306874
-0.695193 -0.434533 4.311751
-0.695769 -0.415093 4.316628
-0.696344 -0.395652 4.321505
-0.696920 -0.376211 4.326382
-0.698407 -0.356883 4.331406
-0.704605 -0.311162 4.343804
-0.707207 -0.291973 4.349008
-0.709808 -0.272784 4.354211
-0.713303 -0.253800 4.359535
-0.717975 -0.235088 4.365019
-0.722647 -0.216375 4.370502
-0.733779 -0.171788 4.383567
-0.739288 -0.153362 4.389140
-0.745983 -0.135341 4.394841
-0.752678 -0.117321 4.400543
-0.759373 -0.099300 4.406244
-0.766068 -0.081280 4.411945
-0.784654 -0.039555 4.425736
-0.793237 -0.022403 4.431586
-0.801820 -0.005252 4.437435
-0.810403 0.011900 4.443285
-0.818985 0.029052 4.449135
-0.829250 0.045223 4.455066
-0.853729 0.083740 4.469200
-0.864003 0.099905 4.475132
-0.874277 0.116071 4.481063
-0.885981 0.131221 4.487020
-0.897721 0.146346 4.492978
-0.909460 0.161471 4.498935
-0.937431 0.197508 4.513129
-0.950357 0.211636 4.519070
-0.963336 0.225719 4.525009
-0.976315 0.239802 4.530948
-0.989294 0.253885 4.536888
-1.002273 0.267967 4.542827
-1.035201 0.299574 4.556885
-1.049213 0.312651 4.562775
-1.063226 0.325728 4.568666
-1.077238 0.338805 4.574557
-1.091708 0.351375 4.580411
-1.106575 0.363506 4.586233
-1.141998 0.392408 4.600106
-1.156864 0.404539 4.605928
-1.172094 0.416217 4.611709
-1.187666 0.427470 4.617451
-1.203237 0.438723 4.623193
-1.218808 0.449976 4.628935
24 NaN NaN
-1.134474 -1.543666 4.123943
-1.072684 -1.455222 4.133793
-1.013600 -1.365056 4.144583
-0.957596 -1.273073 4.156409
-0.905118 -1.179187 4.169377
-0.856695 -1.083328 4.183605
-0.812955 -0.985458 4.199224
-0.774636 -0.885595 4.216370
-0.742595 -0.783843 4.235181
-0.717799 -0.680434 4.255787
-0.701293 -0.575779 4.278286
-0.694127 -0.470511 4.302725
-0.697237 -0.365511 4.329067
-0.711287 -0.261876 4.357169
-0.736519 -0.160815 4.386782
-0.772677 -0.063491 4.417572
-0.819032 0.029144 4.449166
-0.874524 0.116459 4.481206
-0.937935 0.198158 4.513385
-1.008047 0.274232 4.545469
-1.083746 0.344878 4.577293
-1.164063 0.410412 4.608747
-1.248188 0.471208 4.639769
-1.335458 0.527656 4.670327
-0.766773 -1.212734 1.842679
-0.678325 -1.032847 1.798662
-0.605488 -0.844735 1.761163
-0.553985 -0.648293 1.732661
-0.531566 -0.445275 1.716575
-0.546722 -0.241198 1.716763
-0.604458 -0.045930 1.735706
-0.701879 0.130227 1.772470
-0.829692 0.282103 1.823183
-0.977917 0.410338 1.883495
-0.765878 -1.211000 1.842236
-0.679151 -1.034621 1.799076
-0.677499 -1.031074 1.798248
-0.606141 -0.846594 1.761504
-0.604836 -0.842875 1.760821
-0.554395 -0.650236 1.732900
-0.553575 -0.646350 1.732422
-0.531644 -0.447271 1.716671
-0.531489 -0.443278 1.716479
-0.546380 -0.243167 1.716676
-0.547063 -0.239229 1.716850
-0.603679 -0.047750 1.735425
-0.605237 -0.044109 1.735987
-0.700740 0.128644 1.772025
-0.703018 0.131809 1.772915
-0.828307 0.280773 1.822624
-0.831076 0.283434 1.823742
-0.976379 0.409228 1.882862
-0.761995 -1.203474 1.840315
-0.682739 -1.042323 1.800874
-0.673962 -1.023345 1.796471
-0.608974 -0.854669 1.762986
-0.602003 -0.834801 1.759339
-0.556176 -0.658672 1.733937
-0.551794 -0.637913 1.731385
-0.531980 -0.455939 1.717089
-0.531152 -0.434610 1.716062
-0.544897 -0.251716 1.716300
-0.548546 -0.230681 1.717226
-0.600295 -0.055655 1.734204
-0.608621 -0.036205 1.737208
-0.695794 0.121771 1.770094
-0.707964 0.138682 1.774846
-0.822295 0.274995 1.820196
-0.837088 0.289212 1.826170
-0.969697 0.404409 1.880113
-0.752464 -1.185003 1.835601
-0.739829 -1.160514 1.829351
-0.727193 -1.136025 1.823100
-0.714887 -1.111342 1.816987
-0.703215 -1.086283 1.811137
-0.691543 -1.061224 1.805287
-0.666008 -1.003993 1.792413
-0.655463 -0.978336 1.787034
-0.644918 -0.952679 1.781654
-0.634374 -0.927022 1.776275
-0.625144 -0.900756 1.771447
-0.615926 -0.874485 1.766624
-0.595753 -0.814712 1.755998
-0.588104 -0.787831 1.751836
-0.580455 -0.760950 1.747675
-0.572805 -0.734069 1.743514
-0.566343 -0.706825 1.739856
-0.560548 -0.679376 1.736482
-0.547635 -0.617164 1.728930
-0.544018 -0.589247 1.726487
-0.540401 -0.561330 1.724043
-0.536784 -0.533413 1.721599
-0.533900 -0.505413 1.719471
-0.532805 -0.477211 1.718113
-0.530327 -0.413338 1.715038
-0.531361 -0.385136 1.714603
-0.533110 -0.356935 1.714480
-0.534860 -0.328733 1.714356
-0.536609 -0.300531 1.714232
-0.541257 -0.272695 1.715377
-0.552186 -0.209701 1.718149
-0.558276 -0.182222 1.719931
-0.566254 -0.155242 1.722548
-0.574231 -0.128262 1.725166
-0.582209 -0.101282 1.727783
-0.591991 -0.075053 1.731207
-0.616925 -0.016807 1.740205
-0.628083 0.008826 1.744244
-0.641831 0.032955 1.749455
-0.655580 0.057085 1.754666
-0.669328 0.081215 1.759878
-0.683657 0.104906 1.765354
-0.720102 0.155547 1.779585
-0.736194 0.177908 1.785869
-0.753645 0.198990 1.792782
-0.771663 0.219539 1.799958
-0.789680 0.240089 1.807134
-0.807698 0.260638 1.814310
-0.851842 0.303391 1.832129
-0.871402 0.322190 1.840029
-0.891396 0.340408 1.848136
-0.912175 0.357576 1.856616
-0.932954 0.374743 1.865096
-0.953733 0.391911 1.873577
19 NaN NaN
-0.766996 -1.213167 1.842789
-0.718878 -1.119910 1.818987
-0.674430 -1.024484 1.796710
-0.634275 -0.926783 1.776225
-0.599176 -0.826745 1.757860
-0.570052 -0.724391 1.742016
-0.547987 -0.619882 1.729168
-0.534217 -0.513600 1.719865
-0.530052 -0.406243 1.714696
-0.536710 -0.298899 1.714225
-0.555078 -0.193038 1.718882
-0.585439 -0.090357 1.728843
-0.627342 0.007525 1.743963
-0.679672 0.099369 1.763798
-0.740929 0.184486 1.787718
-0.809523 0.262719 1.815037
-0.883995 0.334294 1.845116
-0.963115 0.399662 1.877405
-1.045893 0.459367 1.911460
