-1.234670 0.453119 2.221181
-1.238005 0.466280 2.222153
-1.241339 0.479440 2.223126
-1.391249 1.043373 2.239828
-1.572889 1.500847 2.040807
-1.779627 1.704727 1.541575
-2.025152 1.855508 1.040814
-1.243374 0.487471 2.223720
-1.390791 1.041442 2.239576
-1.391708 1.045303 2.240080
-1.572172 1.499885 2.042407
-1.573606 1.501808 2.039206
-1.778811 1.704134 1.543302
-1.780443 1.705320 1.539848
-2.024298 1.855136 1.042584
-1.251006 0.517592 2.225946
-1.383441 1.011346 2.236372
-1.398848 1.075372 2.244002
-1.561001 1.484911 2.067337
-1.584453 1.514020 2.012724
-1.766095 1.694900 1.570201
-1.793167 1.714537 1.512948
-2.010998 1.849351 1.070154
-1.268133 0.582649 2.228465
-1.287887 0.655397 2.229143
-1.308081 0.728026 2.228139
-1.328225 0.800672 2.227331
-1.347999 0.873409 2.227923
-1.367200 0.946237 2.230646
-1.414656 1.140397 2.251187
-1.433722 1.213265 2.254426
-1.456687 1.283574 2.241305
-1.482097 1.347609 2.213392
-1.509196 1.404145 2.172219
-1.536791 1.451360 2.120325
-1.607737 1.539010 1.954679
-1.633287 1.564345 1.888437
-1.658869 1.590546 1.822546
-1.684745 1.617953 1.757258
-1.711361 1.646344 1.692688
-1.739618 1.673102 1.628122
-1.821963 1.732042 1.454636
-1.854381 1.751622 1.389449
-1.886823 1.771589 1.324395
-1.918881 1.792857 1.259558
-1.950665 1.814001 1.194547
-1.982486 1.833538 1.129069
-2.619990 2.012190 -0.306034
-3.004670 2.141514 -1.730001
-3.777088 2.495353 -2.898521
-4.755171 3.256159 -3.694487
-5.106888 4.331134 -4.647517
-5.477870 5.336167 -5.672060
-5.938536 6.257638 -6.737310
-6.526078 7.033768 -7.853437
-7.247248 7.609275 -9.011219
-8.081387 7.940977 -10.188954
-8.985203 8.049848 -11.357539
-2.026006 1.855879 1.039044
-2.619325 2.012085 -0.304151
-2.620655 2.012296 -0.307918
-3.004281 2.141289 -1.728052
-3.005059 2.141739 -1.731949
-3.775617 2.494593 -2.897399
-3.778558 2.496112 -2.899643
-4.754236 3.254852 -3.693296
-4.756106 3.257465 -3.695678
-5.106428 4.329754 -4.646144
-5.107348 4.332513 -4.648891
-5.477318 5.334856 -5.670655
-5.478423 5.337478 -5.673467
-5.937848 6.256465 -6.735844
-5.939224 6.258812 -6.738776
-6.525187 7.032854 -7.851898
-6.526970 7.034682 -7.854977
-7.246186 7.608670 -9.009637
-7.248311 7.609880 -9.012802
-8.080205 7.940696 -10.187366
-8.082570 7.941257 -10.190542
-8.983952 8.049823 -11.355979
-2.039305 1.861665 1.011473
-2.608796 2.010373 -0.274882
-2.631013 2.013944 -0.337252
-2.998227 2.137788 -1.697694
-3.011789 2.145358 -1.762149
-3.752707 2.482761 -2.879916
-3.801492 2.508006 -2.917050
-4.739677 3.234501 -3.674739
-4.770665 3.277817 -3.714235
-5.099288 4.308193 -4.624823
-5.114516 4.354000 -4.670279
-5.468719 5.314433 -5.648758
-5.487092 5.357837 -5.695395
-5.927129 6.238183 -6.713010
-5.950043 6.276981 -6.761651
-6.511299 7.018618 -7.827920
-6.540857 7.048919 -7.878955
-7.229715 7.599076 -8.984998
-7.264861 7.619303 -9.037456
-8.061848 7.936109 -10.162617
-8.100997 7.945611 -10.215281
-8.964479 8.049432 -11.331665
-2.100649 1.884002 0.884553
-2.198442 1.918763 0.683603
-2.293433 1.949068 0.480643
-2.384685 1.969525 0.274722
-2.474173 1.986564 0.067709
-2.558817 2.001881 -0.141454
-2.677932 2.021360 -0.471855
-2.750211 2.034245 -0.685768
-2.810890 2.052377 -0.902822
-2.863127 2.073126 -1.121897
-2.917216 2.094247 -1.340485
-2.969347 2.121112 -1.558910
-3.047867 2.163353 -1.898973
-3.133852 2.200077 -2.104640
-3.227615 2.239351 -2.306654
-3.346530 2.291194 -2.490754
-3.496976 2.358725 -2.645379
-3.650281 2.431194 -2.795010
-3.907085 2.565204 -2.994201
-4.071547 2.661056 -3.116308
-4.234324 2.766298 -3.232788
-4.390740 2.881049 -3.348981
-4.534716 3.006833 -3.469644
-4.664680 3.144359 -3.593428
-4.822816 3.375546 -3.803823
-4.871939 3.537831 -3.953356
-4.921455 3.700966 -4.101937
-4.971109 3.869932 -4.243796
-5.017806 4.041918 -4.383050
-5.067024 4.207875 -4.528556
-5.147500 4.452557 -4.768120
-5.200640 4.609060 -4.922512
-5.255403 4.764088 -5.077820
-5.311827 4.917657 -5.233982
-5.369714 5.070020 -5.390788
-5.429627 5.220577 -5.548572
-5.526960 5.450985 -5.795935
-5.591983 5.596828 -5.956104
-5.660348 5.739425 -6.117800
-5.729836 5.880918 -6.279987
-5.802996 6.018623 -6.443794
-5.878827 6.153525 -6.608732
-6.001661 6.357903 -6.867294
-6.085225 6.484095 -7.035361
-6.169741 6.609136 -7.203800
-6.260835 6.725966 -7.374688
-6.352383 6.842265 -7.545704
-6.447753 6.953290 -7.718066
-6.603882 7.115037 -7.988639
-6.707366 7.214128 -8.163571
-6.816189 7.304647 -8.339969
-6.924996 7.395140 -8.516390
-7.039264 7.475646 -8.694162
-7.155771 7.551886 -8.872397
-7.341656 7.660344 -9.150550
-7.464893 7.721804 -9.329964
-7.589620 7.779464 -9.509584
-7.717542 7.828854 -9.689433
-7.846730 7.874666 -9.869335
-7.977959 7.914379 -10.049196
-8.185615 7.964919 -10.328600
-8.320822 7.991586 -10.507930
-8.457653 8.012432 -10.686797
-8.595766 8.028473 -10.865179
-8.734753 8.041040 -11.043158
-8.875276 8.047519 -11.220249
195 NaN NaN
-1.233003 0.446539 2.220694
-1.257609 0.543653 2.227872
-1.283780 0.640626 2.229347
-1.310689 0.737407 2.228009
-1.337521 0.834212 2.226971
-1.363456 0.931228 2.229327
-1.387676 1.028327 2.237865
-1.410703 1.125290 2.250515
-1.436080 1.222278 2.254827
-1.467255 1.315012 2.234369
-1.503050 1.393629 2.183777
-1.539758 1.456436 2.114746
-1.575741 1.504670 2.034441
-1.610462 1.541935 1.947886
-1.644429 1.575284 1.859418
-1.678610 1.611410 1.772140
-1.714078 1.649242 1.686099
-1.751975 1.684645 1.600073
-1.792972 1.714418 1.513343
-1.835925 1.740529 1.426363
-1.879311 1.766605 1.339588
-1.922029 1.794946 1.253192
-1.964343 1.823102 1.166537
-2.006806 1.847527 1.078844
-2.049690 1.866182 0.989944
-2.092884 1.881366 0.900524
-2.136335 1.896115 0.811154
-2.179877 1.912014 0.722026
-2.223046 1.927708 0.632681
-2.265338 1.941489 0.542607
-2.306567 1.952610 0.451676
-2.347107 1.961842 0.360223
-2.387392 1.970078 0.268562
-2.427499 1.977851 0.176782
-2.467060 1.985256 0.084736
-2.505686 1.992360 -0.007731
-2.543110 1.999130 -0.100714
-2.579177 2.005447 -0.194264
-2.613765 2.011200 -0.288407
-2.647169 2.016515 -0.383003
-2.679994 2.021684 -0.477810
-2.712723 2.027017 -0.572641
-2.744622 2.032930 -0.667719
-2.774266 2.039903 -0.763449
-2.800485 2.048285 -0.860060
-2.824133 2.057586 -0.957253
-2.846939 2.066978 -1.054640
-2.870355 2.075872 -1.151928
-2.894391 2.084839 -1.249059
-2.918604 2.094820 -1.346046
-2.942482 2.106392 -1.442939
-2.965284 2.118769 -1.539992
-2.986224 2.130846 -1.637500
-3.005746 2.142137 -1.735397
-3.027729 2.153856 -1.832710
-3.056659 2.167500 -1.927900
-3.094154 2.183623 -2.019670
-3.136037 2.200983 -2.109317
-3.177809 2.218264 -2.199030
-3.218659 2.235496 -2.289177
-3.263601 2.254842 -2.376882
-3.317843 2.278528 -2.457937
-3.381306 2.306548 -2.530539
-3.449075 2.336881 -2.598205
-3.517150 2.367925 -2.665245
-3.584646 2.399506 -2.732619
-3.653368 2.432685 -2.797944
-3.724920 2.468411 -2.858711
-3.798794 2.506563 -2.915086
-3.873338 2.546439 -2.969357
-3.947176 2.587496 -3.023714
-4.020140 2.629837 -3.078265
-4.092707 2.673906 -3.131968
-4.165218 2.720065 -3.183962
-4.237218 2.768235 -3.234833
-4.307954 2.818169 -3.285775
-4.376722 2.869730 -3.337777
-4.443096 2.923323 -3.390822
-4.506698 2.979511 -3.444569
-4.567254 3.038563 -3.498764
-4.625046 3.099764 -3.553594
-4.680548 3.162213 -3.609375
-4.733336 3.225639 -3.666658
-4.780273 3.291246 -3.726480
-4.817227 3.360043 -3.789565
-4.842984 3.431488 -3.855272
-4.862741 3.503910 -3.922030
-4.882367 3.576290 -3.988871
-4.904640 3.648480 -4.055089
-4.927993 3.721374 -4.120153
-4.950555 3.795930 -4.183588
-4.971713 3.872108 -4.245567
-4.992262 3.948867 -4.307036
-5.013043 4.025175 -4.368985
-5.034424 4.100335 -4.432119
-5.056374 4.173917 -4.496895
-5.078834 4.245534 -4.563667
-5.101687 4.315542 -4.631996
-5.124800 4.384831 -4.700970
-5.148062 4.454232 -4.769781
-5.171493 4.523832 -4.838332
-5.195182 4.593344 -4.906885
-5.219205 4.662514 -4.975667
-5.243578 4.731314 -5.044697
-5.268290 4.799803 -5.113914
-5.293329 4.868033 -5.183270
-5.318674 4.936023 -5.252751
-5.344297 5.003780 -5.322357
-5.370201 5.071289 -5.392099
-5.396486 5.138458 -5.462027
-5.423272 5.205177 -5.532195
-5.450602 5.271402 -5.602622
-5.478331 5.337262 -5.673234
-5.506287 5.402916 -5.743949
-5.534443 5.468386 -5.814754
-5.563056 5.533426 -5.885773
-5.592407 5.597757 -5.957134
-5.622527 5.661337 -6.028848
-5.653087 5.724486 -6.100756
-5.683739 5.787547 -6.172703
-5.714519 5.850483 -6.244704
-5.745891 5.912819 -6.316971
-5.778310 5.974070 -6.389700
-5.811688 6.034310 -6.462840
-5.845467 6.094126 -6.536145
-5.879133 6.154069 -6.609398
-5.912897 6.213907 -6.682691
-5.947461 6.272863 -6.756325
-5.983421 6.330242 -6.830531
-6.020447 6.386391 -6.905156
-6.057742 6.442233 -6.979877
-6.094683 6.498501 -7.054455
-6.131764 6.554599 -7.129090
-6.169919 6.609392 -7.204150
-6.209790 6.662039 -7.279851
-6.250724 6.713326 -7.355920
-6.291707 6.764564 -7.431996
-6.332128 6.816545 -7.507868
-6.372797 6.868188 -7.583838
-6.414830 6.917977 -7.660297
-6.458760 6.965097 -7.737379
-6.503673 7.010800 -7.814753
-6.548457 7.056710 -7.892077
-6.592680 7.103448 -7.969229
-6.637284 7.149594 -8.046516
-6.683351 7.193468 -8.124262
-6.731137 7.234578 -8.202482
-6.779709 7.274390 -8.280893
-6.828097 7.314524 -8.359253
-6.876155 7.355201 -8.437537
-6.924734 7.394945 -8.515977
-6.974676 7.432226 -8.594764
-7.025956 7.467004 -8.673840
-7.077808 7.500678 -8.753023
-7.129527 7.534610 -8.832183
-7.181190 7.568619 -8.911347
-7.233433 7.601409 -8.990641
-7.286804 7.631795 -9.070140
-7.341124 7.660078 -9.149775
-7.395858 7.687409 -9.229460
-7.450573 7.714760 -9.309152
-7.505427 7.741743 -9.388873
-7.560816 7.767392 -9.468663
-7.617027 7.790952 -9.548521
-7.673875 7.812831 -9.628409
-7.731048 7.833810 -9.708307
-7.788335 7.854442 -9.788213
-7.845855 7.874383 -9.868127
-7.903797 7.893078 -9.948037
-7.962266 7.910178 -10.027920
-8.021162 7.925942 -10.107765
-8.080359 7.940734 -10.187573
-8.139781 7.954776 -10.267351
-8.199449 7.967981 -10.347087
-8.259394 7.980218 -10.426769
-8.319641 7.991390 -10.506380
-8.380202 8.001439 -10.585903
-8.441085 8.010319 -10.665318
-8.502258 8.018121 -10.744624
-8.563642 8.025111 -10.823843
-8.625161 8.031551 -10.903005
-8.686837 8.037359 -10.982092
-8.748782 8.042118 -11.061038
-8.811093 8.045435 -11.139770
-8.873715 8.047484 -11.218299
-8.936490 8.048870 -11.296720
-8.999288 8.050131 -11.375125
-9.062165 8.051052 -11.453472
-9.125283 8.050975 -11.531628
-9.188768 8.049342 -11.609470
-9.252562 8.046348 -11.687019
-9.316538 8.042518 -11.764381
-9.380581 8.038380 -11.841673
-9.444576 8.034460 -11.919015
-9.508407 8.031288 -11.996525
