0.278426 0.278324 0.276795 0.269825 0.258782 0.249506 0.240231 0.230956 0.223905 0.219455 0.218588 0.218530 0.218473 0.217619 0.214065 0.208434 0.204036 0.199638 0.195240 0.191677 0.189427 0.188967 0.188936 0.188906 0.188448 0.186479 0.183358 0.180661 0.177963 0.175266 0.172928 0.171452 0.171147 0.171127 0.171106 0.170805 0.169503 0.167440 0.165634 0.163829 0.162023 0.160423 0.159413 0.159202 0.159188 
0.278447 0.278428 0.278228 0.276795 0.274671 0.270758 0.266845 0.262932 0.258280 0.255142 0.254235 0.254146 0.254057 0.253149 0.249929 0.245157 0.240682 0.236207 0.231732 0.227679 0.224945 0.224214 0.224142 0.224072 0.223353 0.220940 0.217365 0.214340 0.211315 0.208291 0.205693 0.203941 0.203480 0.203435 
0.278504 0.278713 0.282001 0.292785 0.309872 0.315838 0.321804 0.327771 0.314727 0.306495 0.304110 0.303959 0.303792 0.301156 0.288691 0.268939 0.254886 0.240832 0.226779 0.216854 0.210591 0.209416 0.209341 0.209268 0.208112 0.203512 0.196224 0.191263 0.186302 0.181341 0.178051 0.175975 0.175575 0.175550 0.175525 0.175131 0.173474 0.170848 0.168294 0.165741 0.163187 0.159891 0.157811 0.157291 0.157258 0.157225 0.156696 0.153993 0.149711 0.145573 0.141435 0.137298 0.134111 0.132100 0.131723 0.131699 0.131676 0.131309 0.129906 0.127684 0.126240 0.124795 0.123350 0.122329 0.121684 0.121559 0.121551 0.121543 0.121421 0.120927 0.120145 0.119594 0.119044 0.118493 0.118111 0.117870 0.117824 0.117821 0.117818 0.117772 0.117580 0.117274 0.117019 0.116763 0.116508 0.116284 0.116143 0.116113 0.116112 0.116110 0.116080 0.115952 0.115748 0.115568 0.115389 0.115209 0.115063 0.114970 0.114952 0.114951 0.114950 0.114932 0.114859 0.114744 0.114659 0.114575 0.114491 0.114428 0.114388 0.114380 0.114380 0.114379 0.114372 0.114340 0.114290 0.114250 0.114210 0.114170 0.114139 0.114119 0.114115 0.114115 0.114114 0.114111 0.114094 0.114068 0.114047 0.114027 0.114006 0.113990 0.113980 0.113978 0.113978 0.113978 0.113976 0.113967 0.113954 0.113940 0.113926 0.113912 0.113888 0.113873 0.113870 0.113870 
0.171122 0.171101 0.171052 0.170954 0.170826 0.170697 0.170569 0.170441 0.170312 0.170213 0.170163 0.170143 0.170122 0.170072 0.169973 0.169844 0.169714 0.169583 0.169453 0.169320 0.169218 0.169167 0.169145 0.169124 0.169073 0.168971 0.168838 0.168704 0.168569 0.168434 0.168300 0.168198 0.168146 0.168125 0.168104 0.168053 0.167952 0.167819 0.167686 0.167553 0.167420 0.167287 0.167185 0.167134 0.167113 0.167092 0.167041 0.166941 0.166810 0.166678 0.166546 0.166414 0.166280 0.166178 0.166126 0.166105 0.166084 0.166032 0.165929 0.165796 0.165662 0.165529 0.165395 0.165260 0.165156 0.165104 0.165082 0.165061 0.165008 0.164905 0.164769 0.164634 0.164499 0.164364 0.164229 0.164125 0.164073 0.164051 0.164030 0.163977 0.163873 0.163737 0.163603 0.163468 0.163333 0.163200 0.163097 0.163046 0.163024 0.163003 0.162952 0.162849 0.162716 0.162583 0.162449 0.162316 0.162183 0.162081 0.162030 0.162009 0.161988 0.161936 0.161836 0.161704 0.161583 0.161461 0.161340 0.161245 0.161172 0.161137 0.161122 0.161107 0.161072 0.161003 0.160913 0.160833 0.160752 0.160672 0.160595 0.160537 0.160507 0.160495 0.160483 0.160454 0.160396 0.160320 0.160250 0.160180 0.160109 0.160043 0.159992 0.159966 0.159955 0.159945 0.159919 0.159869 0.159803 0.159739 0.159676 0.159613 0.159556 0.159513 0.159491 0.159482 0.159473 0.159452 0.159409 0.159354 0.159298 0.159243 0.159187 0.159136 0.159097 0.159078 0.159070 0.159062 0.159043 0.159005 0.158955 0.158905 0.158855 0.158805 0.158756 0.158718 0.158701 0.158694 0.158687 0.158671 0.158637 0.158593 0.158548 0.158503 0.158459 0.158413 0.158378 0.158361 0.158354 0.158347 0.158330 0.158299 0.158260 0.158220 0.158180 0.158140 0.158100 0.158070 0.158054 0.158048 0.158041 0.158026 0.157997 0.157958 0.157922 0.157886 0.157851 0.157814 0.157786 0.157772 0.157767 0.157761 0.157747 0.157718 0.157682 0.157648 0.157615 0.157582 0.157548 0.157523 0.157510 0.157505 0.157500 0.157487 0.157461 0.157427 0.157395 0.157363 0.157331 0.157300 0.157277 0.157265 0.157260 0.157255 0.157243 0.157220 0.157189 0.157158 0.157127 0.157097 0.157068 0.157046 0.157035 0.157030 0.157026 0.157015 0.156992 0.156963 0.156933 0.156904 0.156874 0.156845 0.156823 0.156813 0.156808 
0.218510 0.218432 0.218071 0.217149 0.215925 0.214665 0.213405 0.212145 0.210868 0.209906 0.209518 0.209434 0.209349 0.208958 0.207990 0.206705 0.205438 0.204171 0.202904 0.201700 0.200792 0.200431 0.200352 0.200274 0.199914 0.199051 0.197905 0.196864 0.195823 0.194782 0.193832 0.193117 0.192833 0.192772 0.192712 0.192436 0.191791 0.190936 0.190197 0.189458 0.188718 0.188055 0.187555 0.187340 0.187293 0.187248 0.187040 0.186559 0.185921 0.185258 0.184596 0.183934 0.183264 0.182759 0.182553 0.182508 0.182463 0.182257 0.181749 0.181075 0.180415 0.179756 0.179096 0.178458 0.177977 0.177790 0.177750 0.177709 0.177524 0.177068 0.176464 0.175937 0.175409 0.174882 0.174432 0.174093 0.173973 0.173947 0.173922 0.173804 0.173521 0.173145 0.172841 0.172537 0.172233 0.171970 0.171772 0.171701 0.171686 0.171671 0.171601 0.171422 0.171186 0.170991 0.170796 0.170601 0.170430 0.170301 0.170254 0.170244 0.170234 0.170187 0.170068 0.169911 0.169776 0.169642 0.169508 0.169387 0.169297 0.169264 0.169257 0.169250 0.169217 0.169136 0.169029 0.168942 0.168855 0.168768 0.168693 0.168637 0.168616 0.168611 
0.254095 0.253892 0.252946 0.250671 0.247652 0.244817 0.241983 0.239148 0.236589 0.234660 0.233900 0.233737 0.233573 0.232813 0.230971 0.228526 0.226218 0.223910 0.221602 0.219463 0.217851 0.217241 0.217110 0.216980 0.216373 0.214932 0.213018 0.211299 0.209580 0.207862 0.206344 0.205201 0.204763 0.204669 0.204579 0.204160 0.203239 0.202017 0.200977 0.199937 0.198898 0.197969 0.197269 0.196979 0.196916 0.196856 0.196578 0.195946 0.195107 0.194318 0.193529 0.192739 0.191956 0.191365 0.191124 0.191072 0.191020 0.190777 0.190161 0.189343 0.188530 0.187716 0.186903 0.186125 0.185538 0.185311 0.185263 0.185214 0.184990 0.184433 0.183693 0.182983 0.182272 0.181562 0.180890 0.180384 0.180195 0.180154 0.180114 0.179926 0.179467 0.178858 0.178348 0.177837 0.177326 0.176915 0.176605 0.176503 0.176481 0.176459 0.176358 0.176110 0.175781 0.175507 0.175233 0.174960 0.174715 0.174530 0.174469 0.174455 0.174442 0.174380 0.174219 0.174006 0.173813 0.173620 0.173428 0.173240 0.173099 0.173048 0.173037 0.173026 0.172975 0.172845 0.172672 0.172519 0.172365 0.172212 0.172065 0.171954 0.171914 0.171906 
0.203414 0.203331 0.203022 0.202318 0.201386 0.200513 0.199641 0.198768 0.197952 0.197335 0.197080 0.197011 0.196943 0.196691 0.196116 0.195356 0.194643 0.193929 0.193216 0.192540 0.192029 0.191816 0.191759 0.191701 0.191490 0.191007 0.190368 0.189764 0.189160 0.188556 0.187978 0.187541 0.187359 0.187310 0.187261 0.187079 0.186661 0.186107 0.185583 0.185059 0.184535 0.184033 0.183653 0.183497 0.183455 0.183414 0.183260 0.182902 0.182430 0.181977 0.181524 0.181071 0.180648 0.180328 0.180194 0.180158 0.180122 0.179989 0.179684 0.179280 0.178912 0.178544 0.178175 0.177822 0.177555 0.177453 0.177426 0.177398 0.177296 0.177084 0.176803 0.176585 0.176368 0.176151 0.175967 0.175827 0.175768 0.175752 0.175736 0.175678 0.175544 0.175367 0.175212 0.175057 0.174902 0.174747 0.174631 0.174588 0.174576 0.174564 0.174521 0.174417 0.174280 0.174145 0.174011 0.173876 0.173747 0.173649 0.173605 0.173594 0.173582 0.173538 0.173435 0.173300 0.173171 0.173042 0.172913 0.172783 0.172684 0.172646 0.172635 0.172625 0.172586 0.172491 0.172367 0.172242 0.172118 0.171993 0.171874 0.171783 0.171744 0.171733 
