0.137910 0.137919 0.138014 0.138382 0.138941 0.139534 0.140126 0.140719 0.141346 0.141761 0.141872 0.141882 0.141893 0.142004 0.142441 0.143102 0.143803 0.144504 0.145204 0.145949 0.146440 0.146571 0.146584 0.146597 0.146729 0.147247 0.148033 0.148871 0.149708 0.150546 0.151443 0.152035 0.152194 0.152209 0.152225 0.152384 0.153011 0.153961 0.154978 0.155995 0.157013 0.158084 0.158791 0.158978 0.158996 0.159015 0.159203 0.159933 0.161040 0.162164 0.163289 0.164414 0.165555 0.166308 0.166505 0.166524 0.166543 0.166740 0.167496 0.168643 0.169814 0.170986 0.172157 0.173363 0.174159 0.174371 0.174391 0.174412 0.174624 0.175452 0.176706 0.178030 0.179355 0.180679 0.182075 0.182997 0.183243 0.183267 0.183291 0.183538 0.184499 0.185956 0.187447 0.188939 0.190430 0.191942 0.192940 0.193202 0.193227 0.193252 0.193514 0.194513 0.196027 0.197517 0.199006 0.200496 0.201909 0.202841 0.203078 0.203101 0.203123 0.203359 0.204226 0.205541 0.206623 0.207704 0.208786 0.209541 0.210040 0.210149 0.210159 0.210169 0.210269 0.210572 0.211031 0.211145 0.211259 0.211373 0.211257 0.211181 0.211148 0.211145 0.211142 0.211106 0.210927 0.210655 0.210272 0.209889 0.209506 0.209035 0.208725 0.208640 0.208632 0.208624 0.208538 0.208190 0.207662 0.207055 0.206447 0.205840 0.205142 0.204682 0.204556 0.204544 0.204531 0.204403 0.203882 0.203092 0.202186 0.201280 0.200374 0.199369 0.198707 0.198527 0.198510 0.198492 0.198311 0.197590 0.196496 0.195315 0.194135 0.192954 0.191702 0.190876 0.190658 0.190637 0.190615 0.190396 0.189544 0.188255 0.186968 0.185682 0.184395 0.183147 0.182323 0.182112 0.182091 0.182071 0.181861 0.181077 0.179890 0.178780 0.177670 0.176560 0.175530 0.174850 0.174677 0.174661 0.174644 0.174472 0.173835 0.172868 0.171965 0.171062 0.170159 0.169307 0.168745 0.168601 0.168587 0.168573 0.168429 0.167889 0.167069 0.166275 0.165482 0.164689 0.163918 0.163409 0.163278 0.163265 0.163252 0.163122 0.162624 0.161870 0.161134 0.160398 0.159661 0.158939 0.158462 0.158338 0.158326 0.158314 0.158191 0.157721 0.157010 0.156310 0.155609 0.154909 0.154225 0.153774 0.153657 0.153646 0.153635 0.153519 0.153080 0.152415 0.151778 0.151141 0.150504 0.149898 0.149497 0.149395 0.149385 0.149375 0.149273 0.148890 0.148311 0.147761 0.147212 0.146663 0.146141 0.145796 0.145708 0.145699 
0.158996 0.158995 0.158991 0.158980 0.158965 0.158942 0.158920 0.158897 0.158867 0.158845 0.158833 0.158829 0.158825 0.158813 0.158786 0.158750 0.158709 0.158668 0.158626 0.158580 0.158544 0.158527 0.158521 0.158514 0.158497 0.158457 0.158405 0.158348 0.158292 0.158235 0.158174 0.158127 0.158104 0.158096 0.158088 0.158066 0.158016 0.157951 0.157882 0.157814 0.157745 0.157674 0.157619 0.157593 0.157584 0.157575 0.157549 0.157491 0.157416 0.157338 0.157260 0.157181 0.157101 0.157039 0.157010 0.157000 0.156989 0.156960 0.156896 0.156812 0.156726 0.156640 0.156554 0.156466 0.156399 0.156367 0.156355 0.156344 0.156312 0.156242 0.156151 0.156058 0.155965 0.155871 0.155776 0.155703 0.155668 0.155655 0.155643 0.155608 0.155533 0.155434 0.155332 0.155231 0.155130 0.155027 0.154948 0.154912 0.154899 0.154886 0.154849 0.154770 0.154665 0.154558 0.154450 0.154342 0.154232 0.154148 0.154108 0.154094 0.154080 0.154040 0.153953 0.153839 0.153722 0.153606 0.153489 0.153451 0.153421 0.153407 0.153402 0.153397 0.153383 0.153353 0.153314 0.153274 0.153234 0.153194 0.153153 0.153122 0.153108 0.153102 0.153097 0.153083 0.153051 0.153009 0.152967 0.152925 0.152883 0.152840 0.152808 0.152793 0.152787 0.152782 0.152767 0.152734 0.152690 0.152648 0.152605 0.152563 0.152521 0.152488 0.152473 0.152468 0.152463 0.152448 0.152416 0.152374 0.152332 0.152291 0.152249 0.152208 0.152177 0.152162 0.152157 0.152151 0.152137 0.152106 0.152066 0.152025 0.151984 0.151944 0.151903 0.151872 0.151858 0.151853 
0.193218 0.193182 0.193042 0.192702 0.192253 0.191789 0.191326 0.190862 0.190387 0.190028 0.189878 0.189840 0.189802 0.189653 0.189293 0.188817 0.188337 0.187858 0.187378 0.186894 0.186528 0.186376 0.186337 0.186299 0.186147 0.185787 0.185311 0.184835 0.184358 0.183882 0.183411 0.183056 0.182907 0.182869 0.182831 0.182681 0.182325 0.181853 0.181387 0.180922 0.180456 0.179993 0.179643 0.179499 0.179462 0.179425 0.179281 0.178937 0.178482 0.178036 0.177589 0.177143 0.176707 0.176378 0.176242 0.176207 0.176173 0.176037 0.175719 0.175297 0.174885 0.174472 0.174060 0.173660 0.173358 0.173233 0.173201 0.173169 0.173044 0.172747 0.172353 0.172026 0.171698 0.171370 0.171212 0.171092 0.171042 0.171030 0.171017 0.170967 0.170846 0.170686 0.170520 0.170354 0.170188 0.170020 0.169892 0.169839 0.169826 0.169812 0.169760 0.169634 0.169468 0.169305 0.169143 0.168980 0.168821 0.168701 0.168652 0.168639 0.168626 0.168577 0.168460 0.168306 0.168156 0.168005 0.167854 0.167709 0.167599 0.167554 0.167542 
0.211123 0.211037 0.210748 0.210102 0.209251 0.208438 0.207625 0.206811 0.206012 0.205405 0.205145 0.205067 0.204989 0.204731 0.204157 0.203400 0.202671 0.201943 0.201214 0.200512 0.199980 0.199752 0.199684 0.199616 0.199390 0.198879 0.198204 0.197557 0.196910 0.196263 0.195632 0.195152 0.194942 0.194880 0.194817 0.194609 0.194142 0.193527 0.192929 0.192331 0.191734 0.191149 0.190705 0.190513 0.190456 0.190399 0.190208 0.189779 0.189214 0.188659 0.188104 0.187549 0.187013 0.186606 0.186430 0.186378 0.186325 0.186150 0.185760 0.185245 0.184751 0.184256 0.183762 0.183290 0.182932 0.182777 0.182731 0.182685 0.182532 0.182191 0.181740 0.181311 0.180883 0.180454 0.180039 0.179725 0.179588 0.179547 0.179507 0.179371 0.179157 0.178876 0.178663 0.178450 0.178236 0.178036 0.177884 0.177817 0.177797 0.177777 0.177710 0.177559 0.177359 0.177161 0.176963 0.176765 0.176570 0.176423 0.176358 0.176339 0.176319 0.176255 0.176111 0.175921 0.175739 0.175558 0.175376 0.175201 0.175067 0.175011 0.174994 0.174977 0.174921 0.174794 0.174628 0.174467 0.174305 0.174144 0.173989 0.173872 0.173821 0.173806 0.173791 0.173740 0.173626 0.173475 0.173333 0.173190 0.173048 0.172908 0.172803 0.172757 0.172743 
0.174654 0.174629 0.174543 0.174342 0.174078 0.173813 0.173548 0.173283 0.173011 0.172806 0.172716 0.172690 0.172665 0.172575 0.172369 0.172097 0.171820 0.171543 0.171266 0.170990 0.170780 0.170689 0.170663 0.170636 0.170545 0.170333 0.170053 0.169774 0.169494 0.169215 0.168933 0.168720 0.168627 0.168601 0.168574 0.168481 0.168266 0.167984 0.167699 0.167414 0.167128 0.166842 0.166625 0.166530 0.166502 0.166475 0.166379 0.166157 0.165864 0.165569 0.165275 0.164980 0.164682 0.164457 0.164358 0.164330 0.164314 0.164261 0.164158 0.164020 0.163882 0.163743 0.163604 0.163464 0.163357 0.163310 0.163297 0.163283 0.163237 0.163129 0.162988 0.162845 0.162702 0.162560 0.162418 0.162310 0.162264 0.162250 0.162237 0.162190 0.162083 0.161942 0.161802 0.161661 0.161521 0.161383 0.161278 0.161233 0.161220 0.161206 0.161161 0.161058 0.160921 0.160788 0.160654 0.160520 0.160388 0.160287 0.160244 0.160232 0.160219 0.160177 0.160079 0.159950 0.159822 0.159695 0.159568 0.159444 0.159350 0.159310 0.159298 0.159287 0.159246 0.159153 0.159031 0.158912 0.158793 0.158674 0.158557 0.158468 0.158430 0.158418 
