158.069523 32.600532 115.681404 0.126424
256.380876 10.557856 326.669989 0.126111
372.699875 -2.995485 767.646263 0.125431
354.916939 -17.037462 530.247180 0.125820
340.170873 112.251454 367.228176 0.125961
119.542034 40.659136 96.754804 0.126439
137.951054 53.143378 163.808334 0.126317
186.349678 99.745070 404.925513 0.125883
292.768475 169.160702 980.458632 0.124942
230.018583 137.602667 598.343693 0.125546
306.061206 145.819028 818.087658 0.125210
254.678031 159.433364 689.531293 0.125387
377.450766 239.831789 975.325133 0.124901
278.848009 177.008304 843.106720 0.125139
344.759277 49.461935 480.144068 0.125838
134.357798 85.246239 210.266951 0.126206
161.064430 171.802425 444.363789 0.125744
173.312620 289.955010 719.683501 0.125202
232.278731 443.953316 1005.237277 0.124428
169.521595 399.464710 926.284240 0.124629
154.545147 447.130307 1029.991614 0.124360
153.722231 452.483167 1069.997301 0.124291
166.021901 245.611997 639.087713 0.125367
177.051978 276.919121 685.514521 0.125267
133.796050 368.831411 814.680493 0.124855
241.805290 167.542987 410.770687 0.125819
410.969819 279.814768 830.906425 0.125066
372.087354 240.349921 636.988235 0.125417
476.178012 232.869968 855.037412 0.125107
443.986914 261.843057 733.118385 0.125247
-12.231813 -155.976684 217.319482 0.126405
-109.041153 -318.117873 448.571984 0.126148
-61.919106 -408.565677 574.868003 0.126031
59.355233 -85.097965 156.748666 0.126452
102.704679 -164.413582 324.900283 0.126256
142.526680 -259.547985 487.264380 0.126084
158.177775 -331.969207 634.890085 0.125911
132.177794 -456.348294 837.415909 0.125687
171.950601 -400.614422 842.470659 0.125638
174.605074 -349.750993 648.434490 0.125908
202.625713 -283.977137 648.347468 0.125853
99.287853 -110.719772 558.993107 0.125819
148.731567 -111.106511 1079.933702 0.125013
123.033595 -98.670856 880.826035 0.125303
154.946758 -110.981152 1179.571140 0.124864
149.073741 -81.224722 1135.242923 0.124905
44.888809 -300.620685 57.213420 0.126842
47.796680 -344.904015 144.876578 0.126733
43.220154 -577.360253 493.537322 0.126346
52.705270 -362.229286 185.932275 0.126679
155.049344 -534.395134 489.460730 0.126346
62.561019 -375.937454 211.109163 0.126651
56.785825 -460.931647 318.378387 0.126546
16.109953 -622.509898 524.667281 0.126361
94.855931 -682.032724 607.573168 0.126307
67.950238 -382.880425 270.280371 0.126556
65.536925 -427.159054 501.044982 0.126203
81.855971 -385.883367 455.647700 0.126245
106.579755 -394.461995 573.818123 0.126059
120.742507 -423.845525 610.514280 0.126029
128.627399 -417.558582 610.338039 0.126025
177.364995 -397.349917 779.425678 0.125738
227.290753 -394.460240 1060.090783 0.125297
257.001168 -403.688095 1041.128666 0.125341
58.247166 -357.910729 141.769886 0.126753
71.470716 -407.256796 223.649814 0.126662
43.965725 -597.426482 485.135671 0.126383
128.919472 -515.972388 459.918918 0.126372
124.703875 -532.468001 442.217716 0.126418
-149.137499 -268.899466 -231.135914 0.127280
-203.212897 -355.787941 -528.913713 0.127926
-260.461185 -432.199470 -896.297932 0.128752
-326.865073 -305.350761 -1027.928388 0.128852
-175.201799 -324.361123 -349.344308 0.127554
-189.086810 -331.810093 -388.164739 0.127633
-208.175992 -361.282859 -490.845135 0.127858
-224.145385 -408.763841 -604.079027 0.128128
-250.316088 -463.725804 -755.888754 0.128515
-295.112784 -571.332175 -903.310990 0.129019
-278.621272 -506.790216 -734.399621 0.128553
-201.323373 -343.860904 -434.139017 0.127731
-283.198421 -488.768367 -675.586834 0.128406
-295.421005 -511.833344 -723.563623 0.128543
-177.461456 -361.823123 -548.919781 0.127979
-127.768764 47.940950 150.281677 0.126283
-143.766672 99.079929 675.688223 0.125394
-175.613070 117.971331 375.290099 0.125805
-189.857903 185.483796 530.497339 0.125400
-193.035456 243.151064 684.790752 0.125041
-216.475364 360.958079 951.931846 0.124391
-251.722606 202.486955 596.634841 0.125192
-355.122532 285.128309 854.051569 0.124545
-311.784902 273.547599 785.999054 0.124707
-109.053474 14.950492 51.483500 0.126488
-226.700682 45.264067 185.606466 0.126195
-349.582479 98.463825 331.900444 0.125687
-369.920466 118.852164 402.936430 0.125514
-527.280586 184.283039 771.355883 0.124685
-446.280284 118.976136 556.812747 0.125196
-546.201111 81.283259 564.136788 0.125155
-397.365040 80.604544 464.290790 0.125460
-129.297348 12.877910 93.158261 0.126414
-209.398633 -51.539079 279.761304 0.126148
-396.946032 -121.499861 739.273935 0.125356
-390.356804 -182.616371 649.613610 0.125579
-131.559344 6.194434 145.626482 0.126333
-148.107664 20.444124 264.910571 0.126117
-173.832579 46.830760 379.773008 0.125900
-281.716657 61.469117 687.682789 0.125283
-444.831893 142.413042 1135.550391 0.124321
-450.179810 145.858132 1136.903088 0.124309
-544.300312 182.721203 1317.561501 0.123914
-500.767385 167.324690 1233.160620 0.124093
-132.093291 -7.460334 257.875286 0.126160
-155.652095 -29.556641 409.569629 0.125929
-218.661599 -99.198841 578.327834 0.125708
-171.764539 -98.099126 583.701563 0.125710
-179.799353 -176.117198 749.829543 0.125515
-152.674216 -202.333126 754.445604 0.125537
-111.070468 -308.427780 945.838597 0.125335
-86.283808 -306.095399 922.388274 0.125375
-134.718681 -15.142604 406.412132 0.125925
-170.931845 -152.326224 706.502080 0.125564
-133.957079 -19.796100 487.767857 0.125799
-146.595211 -35.686827 553.746764 0.125706
-186.876105 -68.211666 694.302633 0.125505
-175.512344 -27.052042 784.944441 0.125332
-207.375120 17.386361 1214.603200 0.124640
-209.135071 80.018296 1197.640510 0.124564
-102.276007 -85.381306 898.065048 0.125223
-167.273161 69.893082 -169.681617 0.126793
-202.627044 74.124906 -430.438555 0.127243
-283.184168 181.609423 -970.519588 0.127951
-270.141448 45.017741 -798.561440 0.127953
-357.434249 34.539687 -1122.805697 0.128527
-346.317988 -74.579371 -1342.838975 0.129229
-196.012084 94.285793 -260.278977 0.126915
-257.667165 153.319659 -385.471961 0.126908
-331.316114 215.098447 -554.765404 0.126935
-358.032590 276.325876 -748.014827 0.127084
-374.417999 264.613065 -681.735544 0.126958
-456.142808 250.960907 -755.606524 0.127000
-301.910482 142.640129 -678.243351 0.127418
-427.857671 229.851652 -1158.500016 0.127981
-470.932553 200.199802 -1207.377489 0.128111
-49.421061 79.399554 -77.749436 0.126656
-42.327295 145.963000 -189.338380 0.126777
-21.769127 226.894888 -354.815201 0.126983
-20.033978 281.867043 -497.523629 0.127164
-29.120183 387.672075 -1074.722066 0.127979
-19.935492 378.443922 -645.595154 0.127143
-13.487520 275.762777 -447.555599 0.127096
-8.379214 306.410710 -526.770846 0.127159
7.298434 400.840635 -797.462514 0.127405
-9.197175 384.614520 -650.802857 0.127146
-0.796387 295.251646 -477.086006 0.127109
9.885507 328.352019 -535.207383 0.127128
68.312841 468.987050 -728.331943 0.127115
-12.764728 367.182477 -495.831999 0.126903
-58.159035 224.489537 -363.176770 0.126989
-33.976940 427.006330 -786.920679 0.127250
-70.477989 370.211174 -746.186498 0.127299
-77.779626 90.357482 -136.911858 0.126738
-174.147104 170.318355 -363.195436 0.126970
-265.288899 265.840496 -556.520159 0.126912
-328.295415 389.672744 -766.737055 0.126837
-370.616777 345.675100 -754.187782 0.126868
-322.626177 317.802894 -654.836761 0.126845
-115.460400 111.522144 -313.229591 0.127014
-150.397133 153.221596 -513.428584 0.127318
-181.628252 282.901320 -999.483969 0.127917
-213.253148 295.708210 -1003.169702 0.127830
-134.123630 120.480499 -563.059579 0.127456
-151.460491 139.419367 -800.079175 0.127884
-141.511322 223.549079 -1295.916374 0.128803
-159.567636 144.711142 -1123.434020 0.128537
-136.326900 115.443601 -753.096201 0.127827
-119.654017 95.961367 -876.397505 0.128100
-140.882996 104.340897 -846.777615 0.128024
196.677803 -235.962525 -441.613009 0.127716
49.168013 -8.985570 -113.706420 0.126839
81.693658 23.748370 -317.795349 0.127176
143.841793 118.333732 -584.998565 0.127581
221.130781 222.272174 -833.637432 0.127963
183.174092 179.308693 -750.188628 0.127839
102.276488 86.948182 -537.293919 0.127516
146.063931 72.747545 -749.146345 0.127948
104.875304 188.393900 -1060.314157 0.128422
50.743401 -17.271710 -171.118705 0.126950
-53.864793 155.558487 -1000.437833 0.128297
45.980562 -42.219306 -313.515549 0.127232
38.745935 -67.314509 -565.368753 0.127728
13.173533 -123.991539 -1082.523835 0.128817
43.202305 -130.101469 -986.909570 0.128634
67.029108 -118.454658 -653.886478 0.127964
103.635152 -175.474638 -966.071429 0.128656
86.880106 -168.107056 -876.345358 0.128464
94.391735 -189.942386 -1004.097716 0.128748
92.505471 -199.664375 -993.376239 0.128738
-2.062068 59.189122 118.622097 0.126355
0.203915 65.722161 214.735856 0.126189
-35.796222 102.876185 551.541656 0.125603
-102.321191 206.111735 912.542552 0.124872
-98.228993 140.442536 861.099171 0.125083
-121.815100 152.285757 962.527884 0.124879
-204.588738 199.655908 1131.917184 0.124458
-135.714442 160.115499 1011.123715 0.124776
-190.882612 157.215432 1204.647462 0.124442
-163.504360 177.203627 1107.529352 0.124575
-138.978839 106.187782 1124.982339 0.124700
34.498976 112.186375 600.362115 0.125530
91.085735 169.544641 1123.002288 0.124699
73.282789 227.327525 1142.250350 0.124617
4.257663 83.810188 208.175120 0.126182
-0.707665 135.313452 377.411015 0.125853
-65.532862 237.991449 798.373398 0.125019
-110.012905 306.679103 1106.340795 0.124379
-114.470071 302.655638 1114.149803 0.124372
-5.786704 226.579862 569.489234 0.125460
-18.025877 343.948370 763.335757 0.124883
-34.677358 470.168704 977.276959 0.124273
-33.087951 411.981747 876.500075 0.124547
-26.456661 361.948924 806.623219 0.124769
-28.117241 466.726671 1022.471672 0.124222
-42.060725 427.930499 956.754829 0.124390
13.235450 124.649825 321.935367 0.125956
34.222707 202.364827 640.309341 0.125382
56.255487 270.705609 962.372927 0.124822
53.372019 294.260820 1007.634107 0.124696
100.177270 325.753665 1186.996189 0.124394
67.618250 330.587819 1183.012083 0.124367
29.973713 155.337417 379.705601 0.125836
139.622275 310.985815 692.383426 0.125196
43.233180 192.416327 440.680446 0.125704
70.858037 240.162672 537.620693 0.125510
174.572993 337.688925 899.377926 0.124825
106.260787 303.219328 676.296824 0.125221
128.321511 332.555605 670.653424 0.125165
136.754566 36.033702 -96.362361 0.126781
260.670945 61.102473 -284.723809 0.127117
336.145810 62.902693 -380.718291 0.127305
386.558012 42.060541 -496.358846 0.127549
437.399213 44.506968 -536.291660 0.127627
494.708388 60.667145 -626.870745 0.127788
273.116888 72.330778 -460.664555 0.127430
123.494454 9.776168 -179.634841 0.126953
299.935269 44.910315 -862.600281 0.128232
221.351651 -46.207666 -599.284418 0.127809
