-1.448454 0.726030 16.088181
-1.453802 0.729656 16.074182
-1.459149 0.733282 16.060184
-1.676254 0.880447 15.492512
-1.890959 1.025963 14.931437
-2.109207 1.173094 14.372341
-2.437237 1.363867 14.008584
-1.462343 0.735448 16.051822
-1.675560 0.879977 15.494328
-1.676947 0.880917 15.490695
-1.890273 1.025496 14.933257
-1.891645 1.026429 14.929618
-2.108557 1.172644 14.374178
-2.109858 1.173545 14.370504
-2.435474 1.362963 14.008313
-1.473869 0.743263 16.021650
-1.664042 0.872165 15.524504
-1.688465 0.888729 15.460520
-1.878876 1.017740 14.963493
-1.903009 1.034170 14.899365
-2.097751 1.165161 14.404699
-2.119183 1.180337 14.339376
-2.406135 1.347976 14.003969
-1.498889 0.760224 15.956213
-1.526916 0.779220 15.882959
-1.554953 0.798221 15.809709
-1.582992 0.817222 15.736461
-1.611023 0.836220 15.663209
-1.639037 0.855211 15.589948
-1.713444 0.905671 15.395062
-1.741440 0.924653 15.321792
-1.769500 0.943664 15.248554
-1.797649 0.962716 15.175362
-1.825875 0.981804 15.102207
-1.853980 1.000836 15.028992
-1.927350 1.050819 14.833593
-1.954832 1.069564 14.760068
-1.982997 1.088623 14.686887
-2.012246 1.108180 14.614267
-2.042961 1.128408 14.542434
-2.073206 1.148421 14.470342
-2.137104 1.193996 14.270907
-2.155587 1.208542 14.193713
-2.179152 1.225462 14.118555
-2.215734 1.248198 14.052426
-2.271152 1.278978 14.005784
-2.342488 1.315460 13.996146
-3.958078 1.734414 14.074070
-5.431610 2.226832 14.034834
-6.039295 3.677757 13.936935
-6.743798 5.095049 13.857222
-7.737156 6.322364 13.764034
-9.049842 7.196568 13.660315
-10.558786 7.663532 13.556073
-12.133676 7.810999 13.457008
-2.438965 1.364796 14.008972
-3.956096 1.734146 14.074080
-3.960060 1.734681 14.074060
-5.430147 2.225473 14.034934
-5.433073 2.228192 14.034735
-6.038547 3.675905 13.937028
-6.040044 3.679610 13.936842
-6.742770 5.093337 13.857330
-6.744826 5.096761 13.857115
-7.735702 6.320997 13.764159
-7.738611 6.323732 13.763908
-9.048033 7.195724 13.660448
-9.051650 7.197413 13.660182
-10.556824 7.663167 13.556202
-10.560748 7.663897 13.555944
-12.131681 7.810952 13.457129
-2.467682 1.380225 14.015418
-3.923165 1.729697 14.074239
-3.992983 1.739185 14.073864
-5.405835 2.202878 14.036583
-5.457385 2.250787 14.033086
-6.026180 3.645100 13.938581
-6.052475 3.710388 13.935293
-6.725690 5.064887 13.859116
-6.762345 5.124940 13.855307
-7.711540 6.298279 13.766245
-7.762821 6.346396 13.761821
-9.017988 7.181700 13.662658
-9.081695 7.211437 13.657972
-10.524322 7.656599 13.558347
-10.593351 7.669959 13.553807
-12.098521 7.810159 13.459150
-2.598965 1.453270 14.043067
-2.816502 1.554624 14.068368
-3.053721 1.600874 14.073075
-3.292830 1.638636 14.075131
-3.531715 1.677830 14.076488
-3.771689 1.709785 14.074952
-4.144195 1.760943 14.072047
-4.384097 1.792953 14.066774
-4.624856 1.817122 14.060978
-4.856313 1.884201 14.054751
-5.071720 1.994369 14.048598
-5.282259 2.113539 14.042277
-5.547994 2.372374 14.022978
-5.632962 2.597436 14.001932
-5.711768 2.825381 13.981765
-5.798326 3.050999 13.967268
-5.881976 3.277952 13.956897
-5.969760 3.503301 13.945782
-6.110822 3.851405 13.928134
-6.209436 4.072194 13.916426
-6.310033 4.292088 13.904591
-6.415280 4.509754 13.892532
-6.530029 4.722551 13.879991
-6.648381 4.933367 13.867271
-6.844491 5.253477 13.846921
-6.982278 5.452052 13.833281
-7.124782 5.647278 13.819427
-7.273247 5.837939 13.805312
-7.436195 6.016347 13.790602
-7.603301 6.190896 13.775730
-7.878232 6.446017 13.752091
-8.066974 6.596807 13.736499
-8.260790 6.741015 13.720773
-8.460498 6.876865 13.704907
-8.669548 6.997809 13.688881
-8.882442 7.111962 13.672809
-9.222062 7.270834 13.647820
-9.447852 7.356694 13.631763
-9.675290 7.438075 13.615736
-9.906097 7.509304 13.599796
-10.139972 7.569757 13.583979
-10.375363 7.624129 13.568247
-10.743741 7.694963 13.544036
-10.983241 7.726859 13.528701
-11.222933 7.757268 13.513397
-11.463550 7.779131 13.498281
-11.704728 7.794004 13.483331
-11.946097 7.805479 13.468465
166 NaN NaN
-1.445780 0.724217 16.095181
-1.480758 0.747934 16.003618
-1.515772 0.771668 15.912073
-1.550807 0.795411 15.820539
-1.585846 0.819156 15.729007
-1.620872 0.842896 15.637468
-1.655869 0.866622 15.545915
-1.690824 0.890328 15.454340
-1.725769 0.914031 15.362761
-1.760786 0.937766 15.271218
-1.795956 0.961571 15.179752
-1.831227 0.985423 15.088337
-1.866311 1.009189 14.996827
-1.900898 1.032726 14.905070
-1.934953 1.056018 14.813051
-1.969405 1.079493 14.721227
-2.005432 1.103693 14.630203
-2.043814 1.128969 14.540440
-2.081590 1.153969 14.450348
-2.114372 1.176671 14.357753
-2.139438 1.195775 14.261991
-2.162272 1.213828 14.165446
-2.195461 1.236704 14.073246
-2.259636 1.273088 14.007340
-2.348131 1.318346 13.995383
-2.437103 1.363795 14.008554
-2.524246 1.410616 14.028116
-2.610527 1.459870 14.045381
-2.698353 1.507593 14.058602
-2.790505 1.547443 14.067237
-2.887550 1.574250 14.071458
-2.986851 1.591666 14.072863
-3.086752 1.605422 14.073180
-3.186476 1.620376 14.073846
-3.285864 1.637410 14.075050
-3.385178 1.654878 14.076192
-3.484710 1.671077 14.076653
-3.584529 1.685418 14.076302
-3.684504 1.698611 14.075557
-3.784528 1.711430 14.074862
-3.884525 1.724476 14.074427
-3.984460 1.737978 14.073942
-4.084305 1.752114 14.073026
-4.184059 1.766819 14.071396
-4.283888 1.780920 14.069215
-4.383981 1.792942 14.066777
-4.484397 1.801882 14.064351
-4.584793 1.811035 14.061964
-4.684431 1.826173 14.059512
-4.781509 1.853031 14.056914
-4.874524 1.891789 14.054224
-4.964495 1.937244 14.051579
-5.053453 1.984677 14.049086
-5.142509 2.031932 14.046707
-5.230507 2.081109 14.044141
-5.315905 2.134624 14.041066
-5.396875 2.194551 14.037191
-5.470599 2.263068 14.032189
-5.532574 2.342175 14.025705
-5.578228 2.431582 14.017632
-5.611649 2.526270 14.008683
-5.640463 2.622478 13.999556
-5.671664 2.717963 13.990790
-5.706620 2.812210 13.982757
-5.743241 2.905905 13.975705
-5.779405 2.999859 13.969855
-5.814358 3.094331 13.965076
-5.848924 3.188973 13.960853
-5.884009 3.283424 13.956653
-5.920137 3.377467 13.952145
-5.957007 3.471211 13.947423
-5.994209 3.564822 13.942637
-6.031480 3.658407 13.937908
-6.069205 3.751811 13.933210
-6.107944 3.844798 13.928479
-6.148169 3.937146 13.923658
-6.189608 4.028952 13.918757
-6.231590 4.120510 13.913821
-6.273472 4.212114 13.908891
-6.315351 4.303720 13.903966
-6.358080 4.394929 13.899000
-6.402536 4.485302 13.893945
-6.449082 4.574612 13.888784
-6.497108 4.663131 13.883549
-6.545913 4.751221 13.878274
-6.594990 4.839160 13.872987
-6.644579 4.926809 13.867674
-6.695095 5.013924 13.862317
-6.746926 5.100258 13.856895
-6.800277 5.185656 13.851401
-6.855266 5.270004 13.845829
-6.911987 5.353192 13.840178
-6.970178 5.435354 13.834460
-7.029253 5.516881 13.828702
-7.088634 5.598185 13.822930
-7.148328 5.679257 13.817144
-7.209361 5.759320 13.811299
-7.272824 5.837458 13.805351
-7.339310 5.913032 13.799278
-7.407894 5.986704 13.793122
-7.477401 6.059506 13.786931
-7.546881 6.132334 13.780741
-7.616716 6.204821 13.774539
-7.687861 6.276014 13.768288
-7.761181 6.344954 13.761960
-7.836748 6.411419 13.755557
-7.914032 6.475876 13.749100
-7.992535 6.538842 13.742608
-8.071935 6.600670 13.736092
-8.152150 6.661434 13.729555
-8.233123 6.721184 13.722998
-8.314912 6.779808 13.716420
-8.397923 6.836683 13.709813
-8.482591 6.891051 13.703175
-8.569174 6.942312 13.696505
-8.657151 6.991145 13.689818
-8.745781 7.038784 13.683124
-8.834430 7.086389 13.676429
-8.923239 7.133693 13.669733
-9.012913 7.179331 13.663031
-9.104084 7.221888 13.656325
-9.196809 7.260952 13.649623
-9.290512 7.297618 13.642930
-9.384662 7.333125 13.636243
-9.478941 7.368290 13.629559
-9.573486 7.402731 13.622879
-9.668501 7.435855 13.616208
-9.764139 7.467134 13.609553
-9.860406 7.496426 13.602916
-9.957258 7.523723 13.596301
-10.054648 7.549046 13.589711
-10.152438 7.572783 13.583142
-10.250453 7.595582 13.576587
-10.348537 7.618082 13.570036
-10.446706 7.640213 13.563490
-10.545168 7.661000 13.556966
-10.644104 7.679397 13.550481
-10.743535 7.694935 13.544049
-10.843246 7.708585 13.537654
-10.943051 7.721545 13.531273
-11.042825 7.734737 13.524887
-11.142627 7.747716 13.518506
-11.242566 7.759604 13.512148
-11.342714 7.769599 13.505831
-11.443033 7.777735 13.499557
-11.543452 7.784564 13.493314
-11.643921 7.790635 13.487089
-11.744421 7.796202 13.480877
-11.844952 7.801179 13.474680
-11.945516 7.805459 13.468500
-12.046113 7.808905 13.462342
-12.146742 7.811312 13.456212
-12.247396 7.812462 13.450115
-12.348058 7.812255 13.444056
-12.448715 7.811107 13.438024
-12.549369 7.809577 13.432002
-12.650023 7.808144 13.425978
-12.750675 7.806510 13.419960
-12.851309 7.803945 13.413969
-12.951889 7.799743 13.408026
-13.052387 7.793833 13.402136
-13.152817 7.786817 13.396281
-13.253214 7.779323 13.390441
-13.353621 7.771982 13.384596
-13.454080 7.765420 13.378726
-13.554619 7.760270 13.372813
