0.010432
13
0.009331
10
0.004666
26
0.010432
15
0.002195
9
A7
0.002003
11
A6
0.001919
14
A4
0.001465
20
A3
0.002737
13
A2
0.003530
10
A1
0.003574
10
D2
0.001691
20
D4
0.002333
14
D5
0.001808
17
D7
0.002576
13
D10
0.001793
19
D13
0.001531
18
D24
