-2.334690 -1.305856 6.183886
-1.699070 -1.334987 7.329798
-1.063450 -1.364118 8.475710
-2.333720 -1.305900 6.185634
-1.700040 -1.334942 7.328049
-1.698100 -1.335031 7.331547
-1.064420 -1.364073 8.473962
-2.320280 -1.306516 6.209864
-1.713480 -1.334326 7.303820
-1.684660 -1.335647 7.355776
-1.077860 -1.363457 8.449732
-2.259120 -1.309319 6.320125
-2.162224 -1.313760 6.494812
-2.065328 -1.318201 6.669499
-1.968432 -1.322642 6.844185
-1.871536 -1.327082 7.018872
-1.774640 -1.331523 7.193558
-1.623500 -1.338450 7.466038
-1.526604 -1.342891 7.640724
-1.429708 -1.347332 7.815411
-1.332812 -1.351772 7.990098
-1.235916 -1.356213 8.164784
-1.139020 -1.360654 8.339471
30 NaN NaN
-2.334932 -1.305845 6.183448
-2.284885 -1.308138 6.273674
-2.234839 -1.310432 6.363900
-2.184792 -1.312726 6.454126
-2.134745 -1.315019 6.544352
-2.084698 -1.317313 6.634578
-2.034651 -1.319607 6.724804
-1.984604 -1.321900 6.815030
-1.934557 -1.324194 6.905256
-1.884510 -1.326488 6.995482
-1.834463 -1.328781 7.085708
-1.784416 -1.331075 7.175934
-1.734369 -1.333369 7.266159
-1.684323 -1.335662 7.356385
-1.634276 -1.337956 7.446611
-1.584229 -1.340250 7.536837
-1.534182 -1.342544 7.627063
-1.484135 -1.344837 7.717289
-1.434088 -1.347131 7.807515
-1.384041 -1.349425 7.897741
-1.333994 -1.351718 7.987967
-1.283947 -1.354012 8.078193
-1.233900 -1.356306 8.168419
-1.183853 -1.358599 8.258645
-1.133806 -1.360893 8.348870
-1.083760 -1.363187 8.439096
-1.033713 -1.365480 8.529322
-0.983666 -1.367774 8.619548
-0.933619 -1.370068 8.709774
-0.883572 -1.372362 8.800000
-2.334642 -1.305856 6.183042
-2.002170 -1.318950 5.720880
-1.675830 -1.331561 5.254383
-1.372787 -1.342355 4.772484
-1.113151 -1.349842 4.266014
-0.920044 -1.352429 3.730844
-0.793278 -1.350295 3.175844
-0.690882 -1.346466 2.615665
-0.576494 -1.343467 2.057826
-0.449651 -1.341335 1.502663
-0.319574 -1.339429 0.948244
-0.195361 -1.337113 0.392493
-2.333481 -1.305901 6.181414
-2.003337 -1.318904 5.722503
-2.001002 -1.318996 5.719257
-1.676943 -1.331519 5.256045
-1.674718 -1.331602 5.252722
-1.373799 -1.342321 4.774208
-1.371774 -1.342389 4.770759
-1.113963 -1.349823 4.267841
-1.112339 -1.349861 4.264186
-0.920573 -1.352430 3.732773
-0.919516 -1.352427 3.728915
-0.793659 -1.350307 3.177807
-0.792897 -1.350283 3.173881
-0.691252 -1.346479 2.617630
-0.690512 -1.346453 2.613699
-0.576926 -1.343476 2.059778
-0.576062 -1.343459 2.055873
-0.450107 -1.341342 1.504611
-0.449195 -1.341328 1.500716
-0.320026 -1.339436 0.950193
-0.319123 -1.339422 0.946296
-0.195771 -1.337123 0.394450
-2.322207 -1.306343 6.165612
-2.014671 -1.318458 5.738263
-1.989668 -1.319442 5.703497
-1.687743 -1.331115 5.272175
-1.663917 -1.332007 5.236591
-1.383625 -1.341992 4.790952
-1.362130 -1.342704 4.753910
-1.121849 -1.349640 4.285584
-1.104454 -1.350044 4.246443
-0.925730 -1.352444 3.751492
-0.914384 -1.352411 3.710189
-0.797356 -1.350423 3.196868
-0.789237 -1.350164 3.154812
-0.694843 -1.346602 2.636711
-0.686921 -1.346330 2.594618
-0.581081 -1.343560 2.078745
-0.571869 -1.343377 2.036914
-0.454534 -1.341407 1.523516
-0.444768 -1.341263 1.481811
-0.324409 -1.339505 0.969108
-0.314739 -1.339353 0.927381
-0.199841 -1.337214 0.413435
-2.288055 -1.307681 6.117743
-2.240396 -1.309554 6.051285
-2.192619 -1.311436 5.984913
-2.144765 -1.313325 5.918596
-2.096879 -1.315216 5.852302
-2.049023 -1.317104 5.785987
-1.955436 -1.320786 5.655686
-1.907952 -1.322646 5.589103
-1.860673 -1.324489 5.522374
-1.813704 -1.326307 5.455425
-1.767081 -1.328099 5.388236
-1.720818 -1.329862 5.320796
-1.631262 -1.333227 5.187686
-1.586409 -1.334880 5.119298
-1.542186 -1.336484 5.050500
-1.498577 -1.338040 4.981311
-1.455629 -1.339545 4.911709
-1.413390 -1.340996 4.841673
-1.333154 -1.343640 4.702734
-1.293635 -1.344883 4.631126
-1.255076 -1.346053 4.558995
-1.217534 -1.347146 4.486328
-1.181148 -1.348152 4.413071
-1.146206 -1.349051 4.339114
-1.081342 -1.350541 4.192363
-1.050269 -1.351154 4.116700
-1.020692 -1.351657 4.040434
-0.993060 -1.352020 3.963442
-0.967039 -1.352266 3.885896
-0.942587 -1.352400 3.807842
-0.898839 -1.352362 3.653462
-0.878833 -1.352181 3.574145
-0.859913 -1.351924 3.494565
-0.841967 -1.351599 3.414759
-0.824885 -1.351213 3.334763
-0.808558 -1.350775 3.254608
-0.778456 -1.349782 3.096992
-0.763673 -1.349238 3.016540
-0.749116 -1.348677 2.936046
-0.734678 -1.348109 2.855530
-0.720214 -1.347542 2.775019
-0.705553 -1.346988 2.694544
-0.675866 -1.345967 2.536850
-0.660167 -1.345486 2.456570
-0.644033 -1.345034 2.376377
-0.627513 -1.344610 2.296262
-0.610679 -1.344207 2.216212
-0.593552 -1.343824 2.136225
-0.559167 -1.343129 1.979485
-0.541253 -1.342801 1.899670
-0.523151 -1.342487 1.819897
-0.504885 -1.342184 1.740161
-0.486475 -1.341891 1.660459
-0.467939 -1.341606 1.580785
-0.431308 -1.341068 1.424554
-0.412570 -1.340798 1.344928
-0.393817 -1.340529 1.265305
-0.375072 -1.340259 1.185681
-0.356378 -1.339986 1.106045
-0.337753 -1.339708 1.026392
-0.301503 -1.339142 0.870072
-0.283212 -1.338841 0.790342
-0.265138 -1.338525 0.710563
-0.247262 -1.338194 0.630739
-0.229605 -1.337849 0.550867
-0.212190 -1.337486 0.470941
67 NaN NaN
-2.334932 -1.305845 6.183448
-2.276295 -1.308141 6.101261
-2.217394 -1.310459 6.019263
-2.158334 -1.312789 5.937380
-2.099215 -1.315123 5.855540
-2.040135 -1.317455 5.773671
-1.981189 -1.319776 5.691706
-1.922470 -1.322079 5.609577
-1.864072 -1.324357 5.527219
-1.806088 -1.326602 5.444569
-1.748611 -1.328807 5.361563
-1.691738 -1.330965 5.278142
-1.635565 -1.333068 5.194247
-1.580192 -1.335109 5.109819
-1.525723 -1.337079 5.024805
-1.472263 -1.338971 4.939151
-1.419923 -1.340777 4.852805
-1.368818 -1.342488 4.765722
-1.319068 -1.344095 4.677856
-1.270797 -1.345590 4.589166
-1.224135 -1.346963 4.499618
-1.179217 -1.348206 4.409182
-1.136181 -1.349307 4.317833
-1.095171 -1.350259 4.225555
-1.056334 -1.351050 4.132340
-1.019822 -1.351672 4.038190
-0.985783 -1.352114 3.943117
-0.954347 -1.352369 3.847151
-0.925404 -1.352445 3.750403
-0.898715 -1.352362 3.653009
-0.874029 -1.352138 3.555088
-0.851091 -1.351791 3.456742
-0.829645 -1.351339 3.358061
-0.809433 -1.350803 3.259119
-0.790200 -1.350198 3.159983
-0.771692 -1.349543 3.060709
-0.753653 -1.348856 2.961348
-0.735831 -1.348154 2.861949
-0.717975 -1.347454 2.762556
-0.699831 -1.346774 2.663214
-0.681153 -1.346131 2.563972
-0.661833 -1.345532 2.464852
-0.641915 -1.344975 2.365851
-0.621448 -1.344456 2.266961
-0.600484 -1.343971 2.168176
-0.579073 -1.343518 2.069486
-0.557265 -1.343092 1.970883
-0.535111 -1.342690 1.872356
-0.512664 -1.342308 1.773897
-0.489972 -1.341944 1.675493
-0.467089 -1.341593 1.577133
-0.444064 -1.341252 1.478807
-0.420950 -1.340918 1.380501
-0.397796 -1.340586 1.282205
-0.374655 -1.340253 1.183906
-0.351577 -1.339916 1.085592
-0.328613 -1.339570 0.987251
-0.305816 -1.339214 0.888872
-0.283235 -1.338842 0.790443
-0.260921 -1.338451 0.691952
-0.238927 -1.338038 0.593391
-0.217303 -1.337599 0.494747
-0.196099 -1.337131 0.396013
-0.175367 -1.336630 0.297178
-0.155157 -1.336093 0.198236
-0.135519 -1.335517 0.099178
-0.116504 -1.334897 0.000000
-2.335288 -1.306185 6.183536
-3.448909 -1.363239 5.705095
-4.094446 -0.463345 4.876553
-4.657320 0.644716 4.258777
-5.215862 1.759336 3.646098
-5.771146 2.878235 3.038447
-6.389477 3.975402 2.452496
-7.075770 5.013803 1.836763
-7.868800 5.941448 1.175561
-8.790277 6.695198 0.463301
-9.829991 7.220003 -0.289896
-10.948193 7.498527 -1.062406
-12.101248 7.556040 -1.832823
-2.336712 -1.307545 6.183888
-3.447784 -1.364331 5.706336
-3.450033 -1.362146 5.703853
-4.093722 -0.464841 4.877666
-4.095170 -0.461850 4.875439
-4.656516 0.643117 4.259670
-4.658125 0.646314 4.257884
-5.215062 1.757728 3.646977
-5.216662 1.760945 3.645219
-5.770287 2.876634 3.039282
-5.772006 2.879836 3.037613
-6.388550 3.973852 2.453355
-6.390403 3.976952 2.451637
-7.074715 5.012372 1.837678
-7.076825 5.015235 1.835847
-7.867567 5.940223 1.176550
-7.870032 5.942674 1.174571
-8.788856 6.694273 0.464362
-8.791699 6.696123 0.462241
-9.828423 7.219437 -0.288791
-9.831559 7.220569 -0.291001
-10.946550 7.498285 -1.061291
-10.949835 7.498768 -1.063521
-12.099578 7.556091 -1.831723
-2.357556 -1.327458 6.189036
-3.431321 -1.380326 5.724520
-3.466101 -1.345691 5.685739
-4.083121 -0.486735 4.893969
-4.105771 -0.439956 4.859136
-4.644738 0.619710 4.272744
-4.669902 0.669721 4.244811
-5.203349 1.734176 3.659846
-5.228373 1.784497 3.632349
-5.757871 2.853147 3.051599
-5.784594 2.903282 3.025390
-6.374986 3.951153 2.465937
-6.404031 3.999598 2.439028
-7.059269 4.991413 1.851081
-7.092272 5.036194 1.822445
-7.849522 5.922277 1.191034
-7.888078 5.960620 1.160087
-8.768059 6.680701 0.479879
-8.812510 6.709667 0.446719
-9.805552 7.210868 -0.272636
-9.854519 7.228855 -0.307177
-10.922500 7.494746 -1.044964
-10.973923 7.502058 -1.079845
-12.075139 7.556847 -1.815609
-2.458288 -1.413148 6.205576
-2.642321 -1.514518 6.192551
-2.838623 -1.566768 6.135901
-3.029992 -1.571292 6.046560
-3.204447 -1.531137 5.934227
-3.352227 -1.449066 5.807429
-3.536863 -1.267203 5.603845
-3.649576 -1.139347 5.478077
-3.763880 -1.009702 5.355602
-3.869948 -0.875249 5.231020
-3.958892 -0.733708 5.101046
-4.035713 -0.584870 4.971389
-4.156435 -0.337541 4.789744
-4.240620 -0.171112 4.689374
-4.327698 -0.001361 4.597332
-4.415828 0.170041 4.509417
-4.503824 0.341762 4.421989
-4.590658 0.512569 4.331669
-4.723557 0.776505 4.184857
-4.808603 0.945859 4.090189
-4.894003 1.115758 3.996829
-4.979495 1.285993 3.904165
-5.064789 1.456320 3.811488
-5.149805 1.626655 3.718572
-5.281798 1.892048 3.573570
-5.366110 2.062549 3.480316
-5.449681 2.233259 3.386779
-5.532472 2.404210 3.292990
-5.615883 2.575169 3.199766
-5.701782 2.745787 3.108201
-5.842415 3.010219 2.969738
-5.935243 3.179127 2.881826
-6.028462 3.347446 2.793202
-6.122158 3.515051 2.703735
-6.216979 3.681722 2.613706
-6.313338 3.847290 2.523279
-6.466635 4.102667 2.381291
-6.567171 4.264790 2.289185
-6.669540 4.425285 2.196253
-6.773915 4.583974 2.102455
-6.880448 4.740673 2.007742
-6.989281 4.895176 1.912042
-7.163728 5.130937 1.760851
-7.278995 5.278895 1.662386
-7.396968 5.423923 1.562775
-7.517745 5.565796 1.461988
-7.641410 5.704284 1.360003
-7.768035 5.839150 1.256804
-7.971327 6.041407 1.093613
-8.105794 6.165843 0.987281
-8.243332 6.285819 0.879758
-8.383924 6.401114 0.771073
-8.527540 6.511510 0.661263
-8.674116 6.616823 0.550376
-8.908114 6.770362 0.375645
-9.061875 6.861877 0.262265
-9.218269 6.947678 0.148024
-9.377112 7.027761 0.033015
-9.538245 7.102074 -0.082678
-9.701506 7.170576 -0.198972
-9.959641 7.265728 -0.381105
-10.127562 7.319427 -0.498538
-10.297002 7.367412 -0.616266
-10.467804 7.409709 -0.734207
-10.639804 7.446416 -0.852281
-10.812830 7.477720 -0.970410
-11.084049 7.516042 -1.154360
-11.259058 7.534177 -1.272322
-11.434621 7.547429 -1.390113
-11.610628 7.555956 -1.507681
-11.786977 7.559922 -1.624979
-11.963581 7.559424 -1.741960
176 NaN NaN
-2.334932 -1.305845 6.183448
-2.406472 -1.374191 6.201117
-2.486609 -1.434439 6.208014
-2.573470 -1.484806 6.203794
-2.664729 -1.524189 6.188892
-2.758078 -1.552226 6.164320
-2.851536 -1.569100 6.131345
-2.943524 -1.575252 6.091233
-3.032780 -1.571165 6.045120
-3.118225 -1.557221 5.993981
-3.198812 -1.533643 5.938663
-3.273394 -1.500482 5.879950
-3.341044 -1.458124 5.818788
-3.402390 -1.408434 5.756473
-3.458944 -1.353489 5.694011
-3.512541 -1.295093 5.632060
-3.565123 -1.234797 5.571062
-3.618565 -1.173967 5.511355
-3.673143 -1.113037 5.452787
-3.727783 -1.051646 5.394760
-3.781352 -0.989399 5.336648
-3.832669 -0.925926 5.277841
-3.880489 -0.860919 5.217781
-3.923852 -0.794220 5.156215
-3.963429 -0.725873 5.093902
-4.000419 -0.655892 5.031810
-4.036032 -0.584228 4.970843
-4.071465 -0.510808 4.911895
-4.107883 -0.435594 4.855888
-4.145811 -0.358736 4.803214
-4.185008 -0.280539 4.753518
-4.225199 -0.201282 4.706360
-4.266131 -0.121201 4.661273
-4.307568 -0.040501 4.617777
-4.349298 0.040639 4.575394
-4.391180 0.122070 4.533724
-4.433098 0.203653 4.492386
-4.474937 0.285250 4.450998
-4.516583 0.366724 4.409176
-4.557917 0.447935 4.366541
-4.598882 0.528804 4.322910
-4.639550 0.609399 4.278503
-4.680014 0.689816 4.233587
-4.720367 0.770151 4.188427
-4.760706 0.850504 4.143285
-4.801120 0.930970 4.098413
-4.841633 1.011577 4.053886
-4.882212 1.092298 4.009626
-4.922823 1.173104 3.965548
-4.963431 1.253965 3.921571
-5.004002 1.334854 3.877610
-5.044507 1.415747 3.833595
-5.084944 1.496639 3.789518
-5.125322 1.577534 3.745391
-5.165645 1.658434 3.701222
-5.205920 1.739341 3.657024
-5.246154 1.820259 3.612807
-5.286338 1.901192 3.568572
-5.326434 1.982150 3.524305
-5.366404 2.063145 3.479990
-5.406210 2.144186 3.435612
-5.445812 2.225284 3.391156
-5.485186 2.306446 3.346613
-5.524449 2.387652 3.302054
-5.563804 2.468869 3.257596
-5.603456 2.550060 3.213355
-5.643607 2.631189 3.169450
-5.684458 2.712213 3.126002
-5.726190 2.793090 3.083121
-5.768766 2.873801 3.040759
-5.812013 2.954349 2.998768
-5.855759 3.034742 2.956996
-5.899832 3.114989 2.915289
-5.944063 3.195102 2.873491
-5.988316 3.275089 2.831476
-6.032617 3.354935 2.789241
-6.077032 3.434616 2.746818
-6.121628 3.514114 2.704240
-6.166473 3.593404 2.661537
-6.211633 3.672465 2.618742
-6.257148 3.751278 2.575866
-6.303023 3.829829 2.532891
-6.349260 3.908104 2.489800
-6.395861 3.986087 2.446574
-6.442829 4.063764 2.403193
-6.490165 4.141120 2.359641
-6.537886 4.218139 2.315910
-6.586010 4.294800 2.271993
-6.634556 4.371087 2.227888
-6.683543 4.446978 2.183591
-6.732989 4.522455 2.139096
-6.782913 4.597498 2.094400
-6.833327 4.672087 2.049496
-6.884246 4.746202 2.004376
-6.935683 4.819821 1.959034
-6.987652 4.892925 1.913463
-7.040164 4.965491 1.867657
-7.093233 5.037497 1.821611
-7.146872 5.108922 1.775319
-7.201094 5.179741 1.728778
-7.255911 5.249933 1.681983
-7.311335 5.319472 1.634930
-7.367378 5.388334 1.587616
-7.424051 5.456496 1.540038
-7.481362 5.523933 1.492192
-7.539320 5.590620 1.444077
-7.597935 5.656533 1.395690
-7.657215 5.721644 1.347029
-7.717167 5.785929 1.298093
-7.777796 5.849362 1.248881
-7.839107 5.911920 1.199394
-7.901105 5.973575 1.149631
-7.963793 6.034302 1.099593
-8.027176 6.094075 1.049281
-8.091253 6.152869 0.998697
-8.156026 6.210661 0.947843
-8.221491 6.267426 0.896722
-8.287649 6.323142 0.845336
-8.354496 6.377782 0.793691
-8.422030 6.431324 0.741788
-8.490244 6.483746 0.689633
-8.559132 6.535029 0.637232
-8.628686 6.585153 0.584590
-8.698898 6.634099 0.531712
-8.769759 6.681846 0.478605
-8.841260 6.728376 0.425275
-8.913388 6.773674 0.371731
-8.986129 6.817728 0.317978
-9.059470 6.860526 0.264026
-9.133398 6.902053 0.209882
-9.207899 6.942296 0.155554
-9.282957 6.981247 0.101051
-9.358554 7.018899 0.046381
-9.434674 7.055248 -0.008445
-9.511299 7.090288 -0.063420
-9.588411 7.124016 -0.118533
-9.665995 7.156426 -0.173777
-9.744029 7.187519 -0.229141
-9.822497 7.217298 -0.284616
-9.901378 7.245767 -0.340192
-9.980654 7.272928 -0.395861
-10.060307 7.298785 -0.451613
-10.140318 7.323342 -0.507439
-10.220669 7.346609 -0.563329
-10.301342 7.368595 -0.619276
-10.382317 7.389311 -0.675269
-10.463578 7.408766 -0.731301
-10.545108 7.426970 -0.787363
-10.626889 7.443937 -0.843447
-10.708905 7.459679 -0.899545
-10.791140 7.474211 -0.955649
-10.873579 7.487548 -1.011752
-10.956205 7.499706 -1.067846
-11.039005 7.510698 -1.123924
-11.121965 7.520540 -1.179980
-11.205071 7.529251 -1.236007
-11.288310 7.536846 -1.291999
-11.371669 7.543344 -1.347949
-11.455136 7.548760 -1.403854
-11.538701 7.553113 -1.459706
-11.622352 7.556419 -1.515501
-11.706078 7.558698 -1.571234
-11.789870 7.559966 -1.626901
-11.873718 7.560241 -1.682497
-11.957613 7.559542 -1.738018
-12.041547 7.557886 -1.793461
-12.125511 7.555289 -1.848821
-12.209498 7.551770 -1.904096
-12.293501 7.547345 -1.959282
-12.377512 7.542030 -2.014376
-12.461526 7.535844 -2.069376
-12.545535 7.528803 -2.124279
-12.629535 7.520924 -2.179083
-12.713519 7.512225 -2.233787
-12.797483 7.502721 -2.288387
-12.881422 7.492429 -2.342884
-1.698677 -1.334738 7.329614
-1.520430 -1.218909 7.246223
-1.347553 -1.093845 7.164933
-1.182310 -0.957119 7.086680
-1.028588 -0.805311 7.013090
-0.893537 -0.633744 6.947208
-0.790830 -0.437435 6.894985
-0.743472 -0.217463 6.866737
-0.771431 0.007162 6.871999
-0.866075 0.210580 6.907747
-1.001969 0.384977 6.962865
-1.160704 0.534925 7.028978
-1.332641 0.666339 7.101589
-1.697106 -1.333743 7.328880
-1.521961 -1.219978 7.246941
-1.518900 -1.217840 7.245504
-1.349025 -1.095005 7.165628
-1.346080 -1.092684 7.164237
-1.183699 -0.958397 7.087342
-1.180920 -0.955842 7.086018
-1.029847 -0.806740 7.013699
-1.027328 -0.803881 7.012481
-0.894580 -0.635370 6.947727
-0.892493 -0.632119 6.946689
-0.791498 -0.439286 6.895343
-0.790162 -0.435584 6.894627
-0.743546 -0.219459 6.866834
-0.743399 -0.215466 6.866640
-0.770850 0.005259 6.871800
-0.772013 0.009065 6.872198
-0.865034 0.208923 6.907335
-0.867117 0.212236 6.908159
-1.000667 0.383557 6.962329
-1.003272 0.386397 6.963401
-1.159254 0.533689 7.028370
-1.162154 0.536160 7.029587
-1.331101 0.665243 7.100936
-1.689646 -1.329019 7.325394
-1.529273 -1.224965 7.250370
-1.511637 -1.212767 7.242095
-1.356016 -1.100514 7.168930
-1.339089 -1.087176 7.160936
-1.190292 -0.964460 7.090484
-1.174327 -0.949779 7.082876
-1.035825 -0.813524 7.016589
-1.021350 -0.797097 7.009591
-0.899533 -0.643084 6.950189
-0.887540 -0.624404 6.944227
-0.794668 -0.448070 6.897043
-0.786992 -0.426799 6.892927
-0.743893 -0.228934 6.867294
-0.743052 -0.205991 6.866179
-0.768088 -0.003774 6.870857
-0.774775 0.018098 6.873141
-0.860090 0.201059 6.905379
-0.872061 0.220100 6.910116
-0.994487 0.376816 6.959784
-1.009452 0.393138 6.965946
-1.152372 0.527823 7.025483
-1.169037 0.542026 7.032474
-1.323791 0.660040 7.097836
-1.670962 -1.317189 7.316663
-1.646157 -1.301482 7.305071
-1.621352 -1.285775 7.293480
-1.596734 -1.269727 7.281961
-1.572232 -1.253469 7.270486
-1.547729 -1.237211 7.259012
-1.493447 -1.200060 7.233556
-1.469296 -1.183191 7.222219
-1.445146 -1.166321 7.210883
-1.421337 -1.148888 7.199681
-1.397600 -1.131336 7.188507
-1.373863 -1.113784 7.177333
-1.321581 -1.073379 7.152667
-1.298336 -1.055061 7.141688
-1.275111 -1.036717 7.130717
-1.252459 -1.017535 7.119976
-1.229808 -0.998354 7.109235
-1.207157 -0.979173 7.098494
-1.157813 -0.934593 7.075006
-1.135887 -0.914431 7.064558
-1.114178 -0.894003 7.054198
-1.093156 -0.872723 7.044117
-1.072134 -0.851443 7.034037
-1.051112 -0.830163 7.023957
-1.006378 -0.780106 7.002352
-0.986500 -0.757548 6.992742
-0.967279 -0.734340 6.983405
-0.948876 -0.710326 6.974406
-0.930473 -0.686311 6.965408
-0.912070 -0.662296 6.956410
-0.875134 -0.605083 6.938061
-0.858663 -0.579430 6.929874
-0.843867 -0.552615 6.922397
-0.829954 -0.525185 6.915296
-0.816042 -0.497755 6.908195
-0.802609 -0.470072 6.901300
-0.779052 -0.404797 6.888670
-0.768510 -0.375586 6.883018
-0.761687 -0.345078 6.878987
-0.755443 -0.314368 6.875207
-0.749198 -0.283659 6.871427
-0.744763 -0.252666 6.868447
-0.742182 -0.182260 6.865026
-0.741462 -0.150772 6.863691
-0.745679 -0.119502 6.864569
-0.749896 -0.088232 6.865446
-0.754114 -0.056962 6.866324
-0.761171 -0.026398 6.868494
-0.781692 0.040722 6.875504
-0.792091 0.070210 6.879202
-0.805376 0.098399 6.884232
-0.818661 0.126587 6.889261
-0.831945 0.154776 6.894291
-0.847707 0.181363 6.900479
-0.884444 0.239796 6.915015
-0.902079 0.264949 6.922087
-0.920875 0.289136 6.929709
-0.939671 0.313322 6.937330
-0.958467 0.337509 6.944952
-0.979008 0.359933 6.953410
-1.024931 0.410021 6.972320
-1.046427 0.431322 6.981242
-1.068300 0.452181 6.990345
-1.090172 0.473040 6.999449
-1.112249 0.493625 7.008653
-1.135134 0.513131 7.018252
-1.186274 0.556718 7.039704
-1.209890 0.575138 7.049666
-1.233567 0.593467 7.059657
-1.257243 0.611796 7.069648
-1.281177 0.629705 7.079768
-1.305483 0.647007 7.090074
27 NaN NaN
-1.699070 -1.334987 7.329798
-1.611902 -1.279791 7.289063
-1.525797 -1.222658 7.248742
-1.440930 -1.163376 7.208904
-1.357517 -1.101697 7.169639
-1.275834 -1.037329 7.131060
-1.196238 -0.969927 7.093317
-1.119195 -0.899081 7.056603
-1.045329 -0.824308 7.021183
-0.975484 -0.745048 6.987416
-0.910828 -0.660675 6.955803
-0.852968 -0.570560 6.927043
-0.804106 -0.474221 6.902103
-0.767092 -0.371655 6.882258
-0.745173 -0.263864 6.868991
-0.741121 -0.153303 6.863620
-0.755919 -0.043572 6.866700
-0.788155 0.061857 6.877712
-0.834800 0.160834 6.895371
-0.892541 0.252676 6.918220
-0.958570 0.337641 6.944993
-1.030772 0.416392 6.974726
-1.107623 0.489682 7.006712
-1.188037 0.558221 7.040444
-1.271235 0.622628 7.075553
-1.356646 0.683428 7.111767
-1.443848 0.741062 7.148883
-1.372423 -1.342016 4.772538
-1.252373 -1.228328 4.790947
-1.136909 -1.110293 4.811185
-1.028640 -0.986105 4.834097
-0.928298 -0.855961 4.859715
-0.840780 -0.717694 4.889271
-0.768586 -0.571825 4.922920
-0.721350 -0.417478 4.962096
-0.703895 -0.258562 5.006253
-0.727080 -0.101689 5.054794
-0.786588 0.044728 5.104740
-0.878773 0.173895 5.153664
-0.991682 0.286465 5.200293
-1.119614 0.383188 5.244146
-1.256718 0.467682 5.285560
-1.400497 0.541592 5.324709
-1.370967 -1.340662 4.772754
-1.253791 -1.229719 4.790716
-1.250954 -1.226938 4.791179
-1.138233 -1.111768 4.810918
-1.135585 -1.108818 4.811453
-1.029902 -0.987629 4.833808
-1.027378 -0.984581 4.834387
-0.929394 -0.857599 4.859372
-0.927203 -0.854323 4.860058
-0.841761 -0.719396 4.888896
-0.839799 -0.715992 4.889647
-0.769242 -0.573658 4.922466
-0.767929 -0.569991 4.923374
-0.721782 -0.419366 4.961599
-0.720918 -0.415590 4.962593
-0.703749 -0.260472 5.005678
-0.704041 -0.256652 5.006827
-0.726614 -0.103541 5.054197
-0.727545 -0.099838 5.055390
-0.785568 0.043114 5.104144
-0.787608 0.046342 5.105335
-0.877550 0.172422 5.153085
-0.879996 0.175367 5.154243
-0.990184 0.285252 5.199756
-0.993179 0.287677 5.200829
-1.118027 0.382086 5.243630
-1.121201 0.384291 5.244662
-1.255009 0.466759 5.285082
-1.258426 0.468604 5.286038
-1.398746 0.540742 5.324247
-1.365636 -1.335704 4.773545
-1.258986 -1.234811 4.789869
-1.245759 -1.221846 4.792025
-1.143232 -1.117038 4.809995
-1.130739 -1.103416 4.812432
-1.034523 -0.993211 4.832748
-1.022757 -0.978999 4.835446
-0.933541 -0.863508 4.858159
-0.923193 -0.848326 4.861314
-0.845352 -0.725628 4.887520
-0.836208 -0.709760 4.891022
-0.771648 -0.580373 4.920805
-0.765524 -0.563276 4.925035
-0.723364 -0.426281 4.959778
-0.719337 -0.408675 4.964414
-0.703213 -0.267466 5.003575
-0.704577 -0.249657 5.008930
-0.724910 -0.110320 5.052013
-0.729250 -0.093059 5.057574
-0.781833 0.037204 5.101965
-0.791342 0.052253 5.107514
-0.873071 0.167030 5.150965
-0.884475 0.180759 5.156362
-0.984702 0.280813 5.197791
-0.998662 0.292116 5.202794
-1.112217 0.378048 5.241742
-1.127012 0.388328 5.246550
-1.248753 0.463380 5.283331
-1.264683 0.471984 5.287789
-1.392336 0.537631 5.322556
-1.353143 -1.324083 4.775400
-1.336633 -1.308726 4.777851
-1.320124 -1.293369 4.780301
-1.303614 -1.278012 4.782752
-1.287249 -1.262514 4.785262
-1.271161 -1.246744 4.787884
-1.233585 -1.209912 4.794010
-1.217497 -1.194142 4.796633
-1.201818 -1.177994 4.799416
-1.186223 -1.161768 4.802232
-1.170628 -1.145543 4.805048
-1.155033 -1.129317 4.807864
-1.119379 -1.090757 4.814729
-1.104368 -1.074027 4.817763
-1.089357 -1.057298 4.820797
-1.074346 -1.040569 4.823831
-1.059665 -1.023578 4.826982
-1.045353 -1.006292 4.830264
-1.011927 -0.965918 4.837930
-0.997616 -0.948632 4.841212
-0.984118 -0.930757 4.844766
-0.970655 -0.912856 4.848331
-0.957192 -0.894955 4.851896
-0.943729 -0.877054 4.855461
-0.913794 -0.834270 4.864257
-0.901374 -0.815695 4.868147
-0.888954 -0.797121 4.872036
-0.876534 -0.778546 4.875925
-0.864893 -0.759535 4.880037
-0.853770 -0.740234 4.884297
-0.827791 -0.695154 4.894246
-0.816813 -0.675786 4.898543
-0.807318 -0.655727 4.903223
-0.797823 -0.635669 4.907903
-0.788328 -0.615610 4.912583
-0.778833 -0.595552 4.917263
-0.759889 -0.547539 4.928929
-0.752442 -0.526743 4.934075
-0.744995 -0.505948 4.939220
-0.737548 -0.485152 4.944366
-0.731969 -0.463902 4.949873
-0.727070 -0.442487 4.955511
-0.715630 -0.392469 4.968681
-0.711420 -0.370976 4.974426
-0.709594 -0.349212 4.980543
-0.707768 -0.327449 4.986659
-0.705942 -0.305685 4.992776
-0.704115 -0.283921 4.998892
-0.705833 -0.233265 5.013860
-0.707493 -0.211604 5.020373
-0.709152 -0.189943 5.026887
-0.710812 -0.168281 5.033401
-0.715635 -0.147202 5.040132
-0.720914 -0.126207 5.046896
-0.733246 -0.077171 5.062692
-0.739770 -0.056611 5.069481
-0.748442 -0.036799 5.076315
-0.757114 -0.016988 5.083149
-0.765787 0.002823 5.089983
-0.774459 0.022634 5.096817
-0.800095 0.066105 5.112622
-0.811661 0.084409 5.119372
-0.823227 0.102714 5.126121
-0.834828 0.120994 5.132868
-0.848701 0.137694 5.139433
-0.862573 0.154393 5.145998
-0.894973 0.193396 5.161330
-0.909740 0.209314 5.167777
-0.925382 0.224468 5.174108
-0.941024 0.239622 5.180439
-0.956665 0.254777 5.186771
-0.972307 0.269931 5.193102
-1.011512 0.302520 5.207400
-1.028493 0.316268 5.213486
-1.045474 0.330016 5.219571
-1.062606 0.343579 5.225622
-1.080602 0.356083 5.231469
-1.098598 0.368586 5.237317
-1.140630 0.397790 5.250975
-1.159122 0.409600 5.256681
-1.177895 0.421015 5.262307
-1.196669 0.432430 5.267933
-1.215442 0.443845 5.273559
-1.234216 0.455261 5.279185
-1.279346 0.479903 5.291893
-1.298723 0.490369 5.297317
-1.318100 0.500834 5.302740
-1.337609 0.511069 5.308112
-1.357461 0.520704 5.313351
-1.377313 0.530339 5.318591
24 NaN NaN
-1.372787 -1.342355 4.772484
-1.292754 -1.267910 4.784364
-1.214764 -1.191463 4.797078
-1.139166 -1.112808 4.810729
-1.066400 -1.031714 4.825437
-0.997027 -0.947921 4.841347
-0.931768 -0.861151 4.858629
-0.871568 -0.771119 4.877480
-0.817658 -0.677572 4.898127
-0.771644 -0.580365 4.920807
-0.735559 -0.479600 4.945740
-0.711829 -0.375853 4.973056
-0.702985 -0.270444 5.002680
-0.711022 -0.165546 5.034223
-0.736588 -0.063880 5.066973
-0.778588 0.032068 5.100071
-0.834616 0.120739 5.132768
-0.901830 0.201650 5.164575
-0.977630 0.275088 5.195257
-1.059929 0.341719 5.224752
-1.147155 0.402324 5.253095
-1.238154 0.457655 5.280365
-1.332081 0.508386 5.306653
-1.428314 0.555093 5.332051
-0.919811 -1.351988 3.730801
-0.838368 -1.192774 3.716397
-0.766263 -1.028846 3.706199
-0.706477 -0.859794 3.701427
-0.663771 -0.685678 3.703953
-0.641086 -0.508237 3.714742
-0.645962 -0.330441 3.736438
-0.681733 -0.158289 3.769686
-0.747617 0.002394 3.813531
-0.843814 0.143734 3.867177
-0.960011 0.266446 3.926637
-1.091429 0.370679 3.990042
-1.233512 0.458161 4.055790
-0.918880 -1.350227 3.730630
-0.839239 -1.194569 3.716540
-0.837497 -1.190979 3.716253
-0.766982 -1.030711 3.706275
-0.765545 -1.026981 3.706123
-0.707099 -0.861695 3.701461
-0.705855 -0.857894 3.701393
-0.664146 -0.687641 3.703882
-0.663395 -0.683715 3.704023
-0.641125 -0.510226 3.714536
-0.641047 -0.506248 3.714948
-0.645799 -0.332414 3.736154
-0.646125 -0.328467 3.736721
-0.681131 -0.160143 3.769242
-0.682335 -0.156434 3.770130
-0.746774 0.000660 3.813006
-0.748625 0.004022 3.814110
-0.842641 0.142242 3.866549
-0.844988 0.145227 3.867806
-0.958593 0.265219 3.925941
-0.961429 0.267672 3.927332
-1.089924 0.369573 3.989326
-1.092933 0.371786 3.990759
-1.231887 0.457262 4.055049
-0.915258 -1.343373 3.729964
-0.842626 -1.201551 3.717099
-0.834110 -1.183997 3.715694
-0.769776 -1.037966 3.706570
-0.762750 -1.019725 3.705828
-0.709519 -0.869088 3.701593
-0.703435 -0.850500 3.701261
-0.665605 -0.695279 3.703609
-0.661936 -0.676077 3.704297
-0.641277 -0.517964 3.713736
-0.640895 -0.498510 3.715749
-0.645166 -0.340089 3.735051
-0.646758 -0.320792 3.737825
-0.678787 -0.167359 3.767516
-0.684679 -0.149218 3.771856
-0.743601 -0.006154 3.810997
-0.752548 0.010352 3.816361
-0.838075 0.136435 3.864103
-0.849553 0.151033 3.870252
-0.953075 0.260446 3.923235
-0.966946 0.272445 3.930038
-1.084072 0.365269 3.986540
-1.098785 0.376090 3.993545
-1.225562 0.453765 4.052167
-0.906618 -1.327027 3.728375
-0.895186 -1.305399 3.726273
-0.883754 -1.283770 3.724171
-0.872322 -1.262142 3.722069
-0.861392 -1.240240 3.720196
-0.850704 -1.218205 3.718432
-0.826032 -1.167343 3.714361
-0.815761 -1.145103 3.712785
-0.805935 -1.122643 3.711409
-0.796109 -1.100184 3.710032
-0.786283 -1.077724 3.708656
-0.776457 -1.055264 3.707280
-0.756085 -1.002421 3.705124
-0.747266 -0.979524 3.704194
-0.738446 -0.956628 3.703263
-0.730566 -0.933386 3.702740
-0.722929 -0.910054 3.702324
-0.715291 -0.886722 3.701908
-0.698503 -0.832617 3.701306
-0.692257 -0.808871 3.701484
-0.686012 -0.785126 3.701662
-0.679767 -0.761380 3.701841
-0.673694 -0.737597 3.702091
-0.669087 -0.713495 3.702955
-0.658454 -0.657861 3.704950
-0.653847 -0.633759 3.705814
-0.650995 -0.609430 3.707396
-0.648306 -0.585080 3.709043
-0.645617 -0.560729 3.710691
-0.642927 -0.536379 3.712339
-0.640532 -0.480055 3.717658
-0.640052 -0.455636 3.720185
-0.639572 -0.431218 3.722711
-0.639657 -0.406843 3.725455
-0.641656 -0.382620 3.728937
-0.643655 -0.358397 3.732419
-0.648373 -0.302505 3.740495
-0.653042 -0.278818 3.744970
-0.657711 -0.255132 3.749445
-0.662380 -0.231445 3.753920
-0.667049 -0.207758 3.758395
-0.673197 -0.184569 3.763398
-0.690269 -0.132009 3.775974
-0.697665 -0.109238 3.781422
-0.705987 -0.086916 3.787186
-0.716002 -0.065413 3.793526
-0.726017 -0.043909 3.799866
-0.736032 -0.022406 3.806206
-0.761905 0.025452 3.821729
-0.774286 0.045431 3.828832
-0.786666 0.065410 3.835935
-0.799046 0.085389 3.843038
-0.812781 0.104262 3.850552
-0.827187 0.122586 3.858270
-0.860441 0.164883 3.876085
-0.875646 0.182408 3.884029
-0.891720 0.199064 3.892218
-0.907794 0.215721 3.900408
-0.923868 0.232377 3.908598
-0.939941 0.249034 3.916788
-0.980105 0.283827 3.936492
-0.997516 0.298888 3.945032
-1.014927 0.313948 3.953571
-1.033175 0.327839 3.962311
-1.051644 0.341421 3.971103
-1.070113 0.355004 3.979895
-1.113244 0.385549 4.000297
-1.132546 0.397789 4.009269
-1.151848 0.410030 4.018240
-1.171150 0.422271 4.027212
-1.190519 0.434388 4.036196
-1.210478 0.445424 4.045292
21 NaN NaN
-0.920044 -1.352429 3.730844
-0.868609 -1.255118 3.721387
-0.820520 -1.155979 3.713452
-0.776311 -1.054930 3.707259
-0.736633 -0.951920 3.703071
-0.702273 -0.846953 3.701198
-0.674178 -0.740131 3.702000
-0.653456 -0.631712 3.705888
-0.641360 -0.522185 3.713299
-0.639202 -0.412362 3.724662
-0.648191 -0.303428 3.740320
-0.669187 -0.196916 3.760444
-0.702443 -0.094527 3.784942
-0.747476 0.002167 3.813451
-0.803151 0.092013 3.845393
-0.867944 0.174426 3.880104
-0.940242 0.249346 3.916941
-1.018562 0.317092 3.955354
-1.101646 0.378194 3.994907
-1.188482 0.433262 4.035267
-1.278276 0.482913 4.076192
-0.793058 -1.349847 3.175885
-0.729281 -1.216299 3.188211
-0.672329 -1.079833 3.201776
-0.624035 -0.940235 3.216830
-0.587400 -0.797362 3.233747
-0.563143 -0.652125 3.252476
-0.555459 -0.505430 3.273379
-0.567244 -0.359375 3.296485
-0.598734 -0.216591 3.321432
-0.653814 -0.081507 3.348018
-0.728875 0.043417 3.375453
-0.820433 0.156841 3.403125
-0.927567 0.255855 3.430494
-1.044308 0.343512 3.457309
-1.168667 0.420279 3.483404
-0.792181 -1.348057 3.176047
-0.730090 -1.218120 3.188035
-0.728472 -1.214479 3.188386
-0.673059 -1.081685 3.201587
-0.671598 -1.077981 3.201965
-0.624570 -0.942150 3.216608
-0.623501 -0.938321 3.217051
-0.587812 -0.799305 3.233506
-0.586988 -0.795420 3.233987
-0.563414 -0.654090 3.252216
-0.562873 -0.650161 3.252736
-0.555383 -0.507406 3.273076
-0.555536 -0.503455 3.273682
-0.566964 -0.361329 3.296162
-0.567524 -0.357421 3.296809
-0.598239 -0.218499 3.321090
-0.599229 -0.214684 3.321774
-0.652893 -0.083244 3.347651
-0.654736 -0.079770 3.348385
-0.727764 0.041796 3.375081
-0.729986 0.045038 3.375825
-0.819108 0.155393 3.402753
-0.821846 0.158208 3.403495
-0.926043 0.254612 3.430129
-0.929091 0.257097 3.430859
-1.042694 0.342385 3.456951
-1.045921 0.344638 3.457667
-1.166926 0.419356 3.483061
-0.789243 -1.342062 3.176592
-0.732800 -1.224218 3.187449
-0.725763 -1.208381 3.188973
-0.675506 -1.087889 3.200954
-0.669152 -1.071777 3.202599
-0.626360 -0.948562 3.215866
-0.621711 -0.931908 3.217793
-0.589192 -0.805810 3.232702
-0.585607 -0.788915 3.234791
-0.564319 -0.660669 3.251345
-0.561967 -0.643581 3.253608
-0.555125 -0.514022 3.272062
-0.555793 -0.496839 3.274696
-0.566027 -0.367872 3.295078
-0.568460 -0.350878 3.297892
-0.596581 -0.224887 3.319944
-0.600887 -0.208296 3.322919
-0.649807 -0.089060 3.346422
-0.657822 -0.073953 3.349614
-0.724044 0.036368 3.373834
-0.733707 0.050467 3.377071
-0.814837 0.150386 3.401505
-0.826576 0.162786 3.404734
-0.920939 0.250449 3.428908
-0.934194 0.261260 3.432080
-1.037291 0.338611 3.455752
-1.051324 0.348412 3.458865
-1.161096 0.416265 3.481913
-0.782550 -1.328404 3.177832
-0.773725 -1.310395 3.179468
-0.764899 -1.292385 3.181103
-0.756073 -1.274376 3.182739
-0.747248 -1.256366 3.184375
-0.738972 -1.238109 3.186112
-0.719590 -1.194489 3.190309
-0.711451 -1.176171 3.192072
-0.703311 -1.157853 3.193834
-0.695780 -1.139291 3.195705
-0.688430 -1.120656 3.197608
-0.681080 -1.102020 3.199511
-0.663578 -1.057645 3.204042
-0.656901 -1.038775 3.206059
-0.650465 -1.019822 3.208117
-0.644028 -1.000868 3.210175
-0.637591 -0.981914 3.212233
-0.631154 -0.962961 3.214291
-0.617633 -0.917301 3.219484
-0.612256 -0.898039 3.221713
-0.606878 -0.878777 3.223942
-0.601501 -0.859515 3.226171
-0.596483 -0.840171 3.228454
-0.592337 -0.820629 3.230870
-0.582463 -0.774096 3.236623
-0.578316 -0.754554 3.239039
-0.574542 -0.734954 3.241507
-0.571822 -0.715189 3.244125
-0.569102 -0.695423 3.246742
-0.566382 -0.675658 3.249360
-0.560281 -0.628563 3.255641
-0.559200 -0.608670 3.258471
-0.558120 -0.588777 3.261302
-0.557039 -0.568884 3.264132
-0.555958 -0.548991 3.266962
-0.554877 -0.529098 3.269792
-0.556380 -0.481766 3.277006
-0.557152 -0.461891 3.280052
-0.557925 -0.442015 3.283099
-0.558698 -0.422140 3.286145
-0.561078 -0.402436 3.289355
-0.563893 -0.382779 3.292610
-0.570595 -0.335971 3.300361
-0.573409 -0.316314 3.303615
-0.577864 -0.297011 3.307011
-0.582844 -0.277820 3.310452
-0.587824 -0.258630 3.313893
-0.592804 -0.239440 3.317334
-0.606257 -0.194277 3.325637
-0.613428 -0.175822 3.329228
-0.620599 -0.157367 3.332818
-0.627770 -0.138911 3.336409
-0.634941 -0.120456 3.339999
-0.642777 -0.102312 3.343622
-0.664852 -0.060702 3.352414
-0.674122 -0.043228 3.356107
-0.683393 -0.025754 3.359799
-0.693211 -0.008615 3.363506
-0.704389 0.007693 3.367251
-0.715567 0.024001 3.370995
-0.742184 0.062834 3.379911
-0.753787 0.078816 3.383657
-0.766617 0.093857 3.387408
-0.779447 0.108898 3.391158
-0.792277 0.123939 3.394909
-0.805108 0.138979 3.398660
-0.837351 0.173216 3.407557
-0.851561 0.186969 3.411279
-0.865770 0.200722 3.415002
-0.879980 0.214475 3.418724
-0.894189 0.228228 3.422446
-0.909313 0.240965 3.426125
-0.945821 0.270744 3.434863
-0.961153 0.283250 3.438532
-0.976484 0.295755 3.442201
-0.992521 0.307344 3.445817
-1.008752 0.318680 3.449419
-1.024983 0.330015 3.453021
-1.063633 0.357008 3.461597
-1.080402 0.367535 3.465141
-1.097349 0.377796 3.468668
-1.114295 0.388057 3.472194
-1.131242 0.398318 3.475720
-1.148189 0.408579 3.479246
21 NaN NaN
-0.793278 -1.350295 3.175844
-0.745500 -1.252799 3.184699
-0.701437 -1.153634 3.194240
-0.661649 -1.052755 3.204541
-0.626805 -0.950155 3.215682
-0.597697 -0.845888 3.227747
-0.575252 -0.740113 3.240824
-0.560530 -0.633134 3.254991
-0.554680 -0.525471 3.270308
-0.558863 -0.417911 3.286793
-0.574092 -0.311542 3.304405
-0.601040 -0.207705 3.323025
-0.639840 -0.107847 3.342452
-0.690002 -0.013298 3.362431
-0.750487 0.074948 3.382692
-0.819920 0.156344 3.402991
-0.896822 0.230777 3.423136
-0.979803 0.298462 3.442996
-1.067658 0.359819 3.462490
-1.159391 0.415361 3.481577
-1.254207 0.465627 3.500244
-0.690701 -1.346001 2.615704
-0.616165 -1.141898 2.633847
-0.560361 -0.932244 2.655212
-0.528253 -0.718149 2.680299
-0.525521 -0.502285 2.709489
-0.557370 -0.289472 2.742806
-0.626398 -0.086339 2.779686
-0.730844 0.100586 2.819001
-0.865102 0.267221 2.859457
-1.022131 0.412706 2.900011
-0.689977 -1.344144 2.615863
-0.616733 -1.143806 2.633661
-0.615597 -1.139989 2.634034
-0.560733 -0.934197 2.654993
-0.559990 -0.930291 2.655430
-0.528380 -0.720129 2.680044
-0.528126 -0.716169 2.680553
-0.525353 -0.504256 2.709197
-0.525688 -0.500313 2.709781
-0.556874 -0.291381 2.742480
-0.557867 -0.287562 2.743133
-0.625571 -0.088125 2.779332
-0.627224 -0.084552 2.780039
-0.729725 0.098970 2.818633
-0.731963 0.102202 2.819369
-0.863750 0.265795 2.859084
-0.866454 0.268647 2.859830
-1.020608 0.411465 2.899641
-0.686671 -1.335661 2.616590
-0.619519 -1.152463 2.632842
-0.613003 -1.131273 2.634886
-0.562430 -0.943115 2.653995
-0.558293 -0.921372 2.656428
-0.528958 -0.729170 2.678883
-0.527548 -0.707129 2.681715
-0.524588 -0.513259 2.707864
-0.526453 -0.491310 2.711114
-0.554607 -0.300102 2.740988
-0.560134 -0.278841 2.744625
-0.621797 -0.096284 2.777719
-0.630999 -0.076393 2.781652
-0.724614 0.091589 2.816951
-0.737073 0.109583 2.821051
-0.857577 0.259282 2.857382
-0.872627 0.275160 2.861533
-1.013648 0.405797 2.897951
-0.678463 -1.314595 2.618395
-0.667571 -1.286644 2.620790
-0.656679 -1.258692 2.623184
-0.646468 -1.230501 2.625701
-0.636682 -1.202162 2.628294
-0.626895 -1.173822 2.630887
-0.606563 -1.109630 2.637002
-0.598017 -1.080911 2.639810
-0.589471 -1.052193 2.642618
-0.582059 -1.023186 2.645615
-0.574906 -0.994113 2.648654
-0.567753 -0.965040 2.651694
-0.554080 -0.899224 2.658906
-0.548490 -0.869837 2.662194
-0.542921 -0.840448 2.665485
-0.539076 -0.810812 2.669037
-0.535232 -0.781177 2.672588
-0.531388 -0.751541 2.676140
-0.526111 -0.684678 2.684599
-0.524204 -0.654889 2.688426
-0.522746 -0.625096 2.692313
-0.522967 -0.595285 2.696423
-0.523188 -0.565474 2.700532
-0.523409 -0.535662 2.704642
-0.528353 -0.468953 2.714424
-0.530874 -0.439288 2.718816
-0.534394 -0.409767 2.723320
-0.539350 -0.380453 2.727984
-0.544306 -0.351138 2.732648
-0.549262 -0.321824 2.737312
-0.565764 -0.257185 2.748329
-0.573234 -0.228450 2.753245
-0.582242 -0.200213 2.758294
-0.592232 -0.172294 2.763429
-0.602222 -0.144375 2.768564
-0.612424 -0.116545 2.773714
-0.640372 -0.056132 2.785657
-0.652809 -0.029248 2.790972
-0.667109 -0.003351 2.796396
-0.681847 0.022315 2.801847
-0.696585 0.047981 2.807297
-0.711924 0.073261 2.812774
-0.749764 0.127910 2.825228
-0.766620 0.152215 2.830771
-0.785329 0.175114 2.836364
-0.804038 0.198012 2.841958
-0.822747 0.220911 2.847551
-0.842248 0.243110 2.853153
-0.887956 0.291332 2.865762
-0.908588 0.312494 2.871370
-0.930328 0.332535 2.876971
-0.952069 0.352576 2.882572
-0.973810 0.372616 2.888173
-0.996365 0.391722 2.893753
21 NaN NaN
-0.690882 -1.346466 2.615665
-0.652493 -1.247948 2.624105
-0.617999 -1.148062 2.633244
-0.587879 -1.046845 2.643141
-0.562670 -0.944378 2.653854
-0.542968 -0.840809 2.665442
-0.529419 -0.736366 2.677958
-0.522700 -0.631386 2.691446
-0.523478 -0.526331 2.705929
-0.532360 -0.421796 2.721406
-0.549824 -0.318499 2.737841
-0.576147 -0.217246 2.755161
-0.611349 -0.118869 2.773255
-0.655172 -0.024139 2.791982
-0.707104 0.066301 2.811188
-0.766442 0.151996 2.830717
-0.832371 0.232690 2.850429
-0.904051 0.308312 2.870201
-0.980670 0.378940 2.889940
-1.061488 0.444758 2.909572
-1.145855 0.506016 2.929046
-0.576421 -1.342972 2.057829
-0.559774 -1.227066 2.058679
-0.547860 -1.110602 2.060852
-0.541013 -0.993770 2.064429
-0.539562 -0.876809 2.069490
-0.543817 -0.760000 2.076105
-0.554056 -0.643672 2.084337
-0.570510 -0.528194 2.094231
-0.593343 -0.413967 2.105813
-0.622642 -0.301413 2.119088
-0.658407 -0.190954 2.134034
-0.700542 -0.082998 2.150609
-0.748863 0.022084 2.168743
-0.803106 0.123973 2.188350
-0.862940 0.222412 2.209326
-0.928172 0.317067 2.231604
-0.998281 0.407876 2.255038
-0.576132 -1.340994 2.057842
-0.559988 -1.229054 2.058645
-0.559560 -1.225078 2.058713
-0.547994 -1.112596 2.060795
-0.547726 -1.108607 2.060908
-0.541062 -0.995768 2.064349
-0.540965 -0.991773 2.064509
-0.539521 -0.878806 2.069385
-0.539604 -0.874812 2.069594
-0.543681 -0.761991 2.075975
-0.543953 -0.758009 2.076235
-0.553822 -0.645652 2.084181
-0.554291 -0.641692 2.084494
-0.570174 -0.530157 2.094047
-0.570846 -0.526231 2.094414
-0.592903 -0.415907 2.105602
-0.593782 -0.412027 2.106024
-0.622099 -0.303323 2.118850
-0.623186 -0.299503 2.119325
-0.657760 -0.192828 2.133770
-0.659054 -0.189080 2.134299
-0.699793 -0.084830 2.150319
-0.701290 -0.081166 2.150899
-0.748016 0.020300 2.168428
-0.749710 0.023868 2.169058
-0.802165 0.122241 2.188011
-0.804047 0.125705 2.188688
-0.861910 0.220736 2.208966
-0.863969 0.224088 2.209686
-0.926982 0.315510 2.231206
-0.929362 0.318625 2.232002
-0.997020 0.406379 2.254623
-0.575321 -1.335454 2.057878
-0.560588 -1.234620 2.058550
-0.558960 -1.219512 2.058809
-0.548369 -1.118180 2.060637
-0.547351 -1.103023 2.061066
-0.541198 -1.001361 2.064125
-0.540829 -0.986180 2.064733
-0.539404 -0.884396 2.069092
-0.539720 -0.869223 2.069887
-0.543300 -0.767565 2.075611
-0.544335 -0.752436 2.076600
-0.553165 -0.651195 2.083742
-0.554948 -0.636149 2.084932
-0.569233 -0.535652 2.093533
-0.571786 -0.520736 2.094928
-0.591674 -0.421337 2.105012
-0.595012 -0.406597 2.106614
-0.620578 -0.308670 2.118184
-0.624706 -0.294156 2.119991
-0.655949 -0.198074 2.133029
-0.660864 -0.183835 2.135040
-0.697699 -0.089958 2.149506
-0.703385 -0.076039 2.151712
-0.745646 0.015305 2.167546
-0.752080 0.028863 2.169940
-0.799531 0.117392 2.187064
-0.806680 0.130554 2.189635
-0.859027 0.216043 2.207958
-0.867052 0.228640 2.210743
-0.923759 0.311066 2.230116
-0.932693 0.322984 2.233118
-0.993491 0.402191 2.253461
-0.573598 -1.323672 2.057956
-0.571337 -1.308218 2.058058
-0.569076 -1.292765 2.058160
-0.566815 -1.277311 2.058263
-0.564554 -1.261858 2.058365
-0.562293 -1.246405 2.058467
-0.557685 -1.207675 2.059012
-0.556012 -1.192149 2.059279
-0.554339 -1.176623 2.059545
-0.552666 -1.161096 2.059811
-0.550993 -1.145570 2.060078
-0.549320 -1.130044 2.060344
-0.546554 -1.091147 2.061402
-0.545509 -1.075570 2.061843
-0.544463 -1.059993 2.062283
-0.543418 -1.044416 2.062724
-0.542372 -1.028838 2.063165
-0.541487 -1.013256 2.063649
-0.540540 -0.974285 2.065209
-0.540161 -0.958684 2.065833
-0.539782 -0.943083 2.066457
-0.539403 -0.927482 2.067081
-0.539024 -0.911880 2.067706
-0.539156 -0.896285 2.068470
-0.539968 -0.857334 2.070510
-0.540293 -0.841740 2.071326
-0.540619 -0.826147 2.072143
-0.540944 -0.810553 2.072960
-0.541425 -0.794969 2.073818
-0.542489 -0.779420 2.074835
-0.545146 -0.740581 2.077375
-0.546209 -0.725032 2.078392
-0.547273 -0.709483 2.079409
-0.548337 -0.693934 2.080426
-0.549936 -0.678446 2.081586
-0.551768 -0.662984 2.082809
-0.556344 -0.624361 2.085865
-0.558176 -0.608898 2.087088
-0.560009 -0.593436 2.088311
-0.561985 -0.577998 2.089573
-0.564609 -0.562669 2.091006
-0.567233 -0.547339 2.092440
-0.573786 -0.509048 2.096021
-0.576410 -0.493719 2.097455
-0.579034 -0.478389 2.098889
-0.582197 -0.463181 2.100465
-0.585628 -0.448033 2.102111
-0.589058 -0.432886 2.103757
-0.597627 -0.395048 2.107869
-0.601058 -0.379901 2.109515
-0.604614 -0.364789 2.111194
-0.608857 -0.349873 2.113052
-0.613100 -0.334957 2.114909
-0.617343 -0.320042 2.116767
-0.627941 -0.282784 2.121408
-0.632185 -0.267868 2.123266
-0.636945 -0.253133 2.125257
-0.641996 -0.238499 2.127323
-0.647047 -0.223865 2.129388
-0.652098 -0.209231 2.131454
-0.664715 -0.172677 2.136615
-0.669867 -0.158085 2.138706
-0.675711 -0.143780 2.140974
-0.681555 -0.129475 2.143241
-0.687399 -0.115170 2.145509
-0.693243 -0.100865 2.147777
-0.707841 -0.065132 2.153441
-0.714155 -0.051054 2.155827
-0.720768 -0.037120 2.158288
-0.727380 -0.023186 2.160748
-0.733992 -0.009252 2.163209
-0.740605 0.004681 2.165670
-0.757194 0.039447 2.171834
-0.764541 0.052973 2.174477
-0.771888 0.066500 2.177120
-0.779235 0.080026 2.179763
-0.786582 0.093553 2.182406
-0.793930 0.107079 2.185049
-0.812688 0.140612 2.191750
-0.820730 0.153702 2.194562
-0.828771 0.166792 2.197375
-0.836813 0.179883 2.200188
-0.844854 0.192973 2.203000
-0.852896 0.206063 2.205813
-0.873678 0.238271 2.213006
-0.882369 0.250904 2.215975
-0.891060 0.263536 2.218945
-0.899751 0.276169 2.221914
-0.908442 0.288802 2.224883
-0.917133 0.301434 2.227852
-0.939777 0.332257 2.235490
-0.949069 0.344418 2.238602
-0.958362 0.356580 2.241714
-0.967654 0.368742 2.244826
-0.976946 0.380903 2.247937
-0.986238 0.393065 2.251049
19 NaN NaN
-0.576494 -1.343467 2.057826
-0.560640 -1.235101 2.058541
-0.548909 -1.126226 2.060410
-0.541577 -1.016995 2.063500
-0.538920 -0.907596 2.067877
-0.541200 -0.798251 2.073604
-0.548659 -0.689221 2.080734
-0.561506 -0.580800 2.089311
-0.579903 -0.473310 2.099364
-0.603958 -0.367095 2.110907
-0.633709 -0.262508 2.123933
-0.669127 -0.159897 2.138419
-0.710105 -0.059590 2.154320
-0.756470 0.038113 2.171574
-0.807987 0.132961 2.190106
-0.864376 0.224749 2.209828
-0.925317 0.313330 2.230648
-0.990474 0.398610 2.252468
-1.059503 0.480543 2.275192
-0.319531 -1.338935 0.948308
-0.304390 -1.012312 0.994350
-0.332559 -0.688730 1.053021
-0.411263 -0.376568 1.125208
-0.543626 -0.086621 1.210183
-0.726128 0.171238 1.305351
-0.949832 0.391542 1.407161
-0.319357 -1.336959 0.948561
-0.304334 -1.014284 0.994027
-0.304447 -1.010339 0.994673
-0.332228 -0.690661 1.052622
-0.332889 -0.686798 1.053420
-0.410627 -0.378404 1.124731
-0.411898 -0.374733 1.125685
-0.542685 -0.088300 1.209638
-0.544567 -0.084943 1.210728
-0.724918 0.169761 1.304756
-0.727339 0.172714 1.305946
-0.948351 0.390355 1.406529
-0.318219 -1.324050 0.950218
-0.303967 -1.027173 0.991919
-0.304813 -0.997450 0.996781
-0.330070 -0.703279 1.050013
-0.335047 -0.674180 1.056029
-0.406476 -0.390394 1.121617
-0.416049 -0.362743 1.128798
-0.536539 -0.099265 1.206079
-0.550713 -0.073977 1.214286
-0.717009 0.160117 1.300869
-0.735373 0.182243 1.309853
-0.938926 0.382296 1.402429
-0.315203 -1.289801 0.954614
-0.311182 -1.244158 0.960472
-0.308545 -1.198475 0.966754
-0.306181 -1.152784 0.973121
-0.304850 -1.107104 0.979798
-0.304258 -1.061434 0.986697
-0.305787 -0.963258 1.002375
-0.307549 -0.917735 1.009963
-0.310852 -0.872366 1.017994
-0.314154 -0.826996 1.026025
-0.319529 -0.781933 1.034634
-0.324946 -0.736877 1.043256
-0.340774 -0.640703 1.062949
-0.349849 -0.596456 1.072552
-0.359777 -0.552426 1.082379
-0.370593 -0.508674 1.092432
-0.382879 -0.465382 1.102857
-0.395463 -0.422203 1.113356
-0.427124 -0.330961 1.137074
-0.444195 -0.289627 1.148644
-0.461266 -0.248293 1.160214
-0.480165 -0.207896 1.172191
-0.499599 -0.167774 1.184288
-0.520232 -0.128357 1.196638
-0.567952 -0.045507 1.223913
-0.591888 -0.008207 1.236934
-0.616180 0.028825 1.250022
-0.642200 0.064560 1.263431
-0.668220 0.100294 1.276839
-0.696026 0.134528 1.290556
-0.757700 0.206575 1.320378
-0.787457 0.239004 1.334404
-0.818142 0.270474 1.348563
-0.849533 0.301215 1.362823
-0.881392 0.331426 1.377142
-0.914262 0.360488 1.391589
21 NaN NaN
-0.319574 -1.339429 0.948244
-0.310520 -1.236634 0.961437
-0.305195 -1.133733 0.975775
-0.303862 -1.030877 0.991313
-0.306784 -0.928252 1.008102
-0.314221 -0.826078 1.026187
-0.326421 -0.724609 1.045604
-0.343607 -0.624136 1.066374
-0.365966 -0.524981 1.088505
-0.393633 -0.427490 1.111983
-0.426685 -0.332023 1.136777
-0.465128 -0.238941 1.162831
-0.508891 -0.148589 1.190072
-0.557831 -0.061279 1.218407
-0.611734 0.022718 1.247730
-0.670329 0.103191 1.277926
-0.733303 0.179987 1.308877
-0.800315 0.253016 1.340465
-0.871009 0.322246 1.372579
-0.945034 0.387696 1.405114
-1.022048 0.449430 1.437977
-0.195394 -1.336623 0.392403
-0.226885 -1.018534 0.343940
-0.289192 -0.701917 0.325984
-0.386099 -0.394253 0.344099
-0.518290 -0.105152 0.401350
-0.682199 0.156436 0.496476
-0.871112 0.385347 0.624202
-0.195529 -1.334659 0.392046
-0.226574 -1.020501 0.344127
-0.227195 -1.016567 0.343753
-0.288680 -0.703850 0.325965
-0.289704 -0.699984 0.326003
-0.385372 -0.396099 0.343848
-0.386826 -0.392407 0.344350
-0.517359 -0.106854 0.400862
-0.519222 -0.103451 0.401837
-0.681096 0.154922 0.495775
-0.683302 0.157950 0.497178
-0.869881 0.384036 0.623325
-0.196395 -1.322073 0.389756
-0.224761 -1.033117 0.345497
-0.229184 -1.003957 0.342557
-0.285397 -0.716244 0.325843
-0.292987 -0.687590 0.326126
-0.380711 -0.407935 0.342239
-0.391487 -0.380571 0.345960
-0.511385 -0.117761 0.397738
-0.525195 -0.092544 0.404961
-0.674025 0.145218 0.491277
-0.690373 0.167655 0.501675
-0.861995 0.375632 0.617705
-0.198685 -1.288775 0.383698
-0.201736 -1.244406 0.375626
-0.205743 -1.199961 0.368471
-0.210040 -1.155495 0.361594
-0.214926 -1.111013 0.355288
-0.220545 -1.066513 0.349695
-0.234447 -0.970595 0.339391
-0.241460 -0.926142 0.335173
-0.249874 -0.881822 0.332358
-0.258349 -0.837509 0.329605
-0.267793 -0.793354 0.327839
-0.277792 -0.749290 0.326639
-0.301673 -0.654800 0.326450
-0.313485 -0.611184 0.327134
-0.326666 -0.568001 0.329266
-0.339848 -0.524818 0.331398
-0.354375 -0.482176 0.334980
-0.369183 -0.439647 0.338866
-0.403819 -0.349257 0.350218
-0.420793 -0.307857 0.356503
-0.438821 -0.267087 0.363976
-0.456877 -0.226337 0.371482
-0.476455 -0.186663 0.380743
-0.496032 -0.146989 0.390005
-0.540999 -0.063688 0.413227
-0.562795 -0.025947 0.425141
-0.585246 0.011168 0.437850
-0.607966 0.047987 0.450897
-0.631709 0.083681 0.465224
-0.655452 0.119375 0.479552
-0.709080 0.193329 0.513574
-0.734778 0.226443 0.530457
-0.760775 0.259133 0.547738
-0.787155 0.291209 0.565545
-0.814109 0.322363 0.584145
-0.841129 0.353399 0.602838
20 NaN NaN
-0.195361 -1.337113 0.392493
-0.202446 -1.234083 0.373748
-0.212425 -1.130826 0.357778
-0.225471 -1.027494 0.344790
-0.241755 -0.924270 0.334995
-0.261435 -0.821373 0.328603
-0.284653 -0.719055 0.325815
-0.311525 -0.617603 0.326817
-0.342133 -0.517334 0.331768
-0.376517 -0.418584 0.340791
-0.414670 -0.321703 0.353965
-0.456531 -0.227038 0.371318
-0.501989 -0.134918 0.392823
-0.550883 -0.045641 0.418397
-0.603012 0.040539 0.447907
-0.658142 0.123419 0.481175
-0.716021 0.202856 0.517989
-0.776386 0.278762 0.558115
-0.838975 0.351104 0.601303
-0.903534 0.419895 0.647304
