-2.322178 -1.459504 10.612019
-1.744986 -1.896448 12.200309
-1.332054 -1.810485 13.898087
-1.077067 -1.349438 15.570077
-0.828361 -0.786989 17.213555
-0.709908 -0.552604 18.941860
-0.689722 -0.515594 20.696282
-0.636147 -0.412141 22.447538
-2.321448 -1.460318 10.613694
-1.745555 -1.896277 12.198399
-1.744417 -1.896619 12.202219
-1.332425 -1.810824 13.896151
-1.331682 -1.810146 13.900023
-1.077326 -1.350090 15.568204
-1.076808 -1.348786 15.571950
-0.828626 -0.787528 17.211648
-0.828096 -0.786450 17.215463
-0.709932 -0.552649 18.939860
-0.709884 -0.552559 18.943859
-0.689773 -0.515692 20.694285
-0.689671 -0.515497 20.698279
-0.636206 -0.412255 22.445542
-2.308100 -1.475221 10.644345
-1.755968 -1.893129 12.163451
-1.734007 -1.899754 12.237170
-1.339225 -1.817025 13.860724
-1.324959 -1.803782 13.935435
-1.082032 -1.361919 15.533887
-1.072076 -1.336855 15.606229
-0.833478 -0.797396 17.176735
-0.823245 -0.776582 17.250375
-0.710378 -0.553469 18.903270
-0.709510 -0.551882 18.980454
-0.690681 -0.517434 20.657735
-0.688740 -0.513709 20.734827
-0.637284 -0.414333 22.409014
-2.246845 -1.541856 10.787144
-2.152057 -1.635683 11.019502
-2.060245 -1.715723 11.258121
-1.971652 -1.782227 11.502066
-1.886683 -1.834821 11.750654
-1.805365 -1.874483 12.002833
-1.686971 -1.911020 12.399173
-1.615626 -1.919426 12.657291
-1.548435 -1.916197 12.916641
-1.485340 -1.902160 13.176657
-1.426327 -1.877927 13.436886
-1.371611 -1.843538 13.696913
-1.295044 -1.771963 14.098773
-1.251091 -1.714427 14.356743
-1.210842 -1.649041 14.613449
-1.173524 -1.576662 14.868723
-1.138121 -1.498586 15.122588
-1.103687 -1.415978 15.375152
-1.050006 -1.281315 15.764394
-1.013734 -1.191890 16.014368
-0.975325 -1.101830 16.263794
-0.935551 -1.012775 16.513368
-0.895621 -0.926651 16.763940
-0.856830 -0.845385 17.016303
-0.801987 -0.733701 17.412533
-0.772087 -0.674104 17.672027
-0.748245 -0.627076 17.934703
-0.731207 -0.593651 18.199980
-0.719824 -0.571481 18.466749
-0.712973 -0.558329 18.734281
-0.708183 -0.549546 19.149512
-0.707017 -0.547707 19.417458
-0.705906 -0.545978 19.685405
-0.703694 -0.542060 19.953321
-0.699850 -0.534893 20.221150
-0.694614 -0.524955 20.488868
-0.684238 -0.505056 20.903625
-0.676480 -0.490099 21.171050
-0.668161 -0.474027 21.438393
-0.659549 -0.457371 21.705691
-0.650881 -0.440605 21.972981
-0.642416 -0.424242 22.240302
135 NaN NaN
-2.322360 -1.459300 10.611601
-2.285512 -1.500442 10.696216
-2.249022 -1.539613 10.781915
-2.212911 -1.576807 10.868649
-2.177196 -1.612019 10.956369
-2.141895 -1.645250 11.045024
-2.107026 -1.676502 11.134565
-2.072604 -1.705781 11.224943
-2.038644 -1.733098 11.316106
-2.005160 -1.758462 11.408007
-1.972165 -1.781888 11.500596
-1.939670 -1.803392 11.593826
-1.907686 -1.822993 11.687651
-1.876224 -1.840710 11.782026
-1.845292 -1.856567 11.876905
-1.814898 -1.870585 11.972246
-1.785050 -1.882789 12.068009
-1.755755 -1.893205 12.164153
-1.727017 -1.901859 12.260639
-1.698843 -1.908778 12.357431
-1.671237 -1.913991 12.454493
-1.644203 -1.917523 12.551792
-1.617744 -1.919405 12.649294
-1.591865 -1.919664 12.746970
-1.566567 -1.918327 12.844789
-1.541853 -1.915424 12.942724
-1.517725 -1.910982 13.040747
-1.494186 -1.905028 13.138833
-1.471237 -1.897589 13.236957
-1.448879 -1.888693 13.335097
-1.427116 -1.878364 13.433230
-1.405947 -1.866629 13.531335
-1.385375 -1.853512 13.629392
-1.365401 -1.839038 13.727381
-1.346027 -1.823229 13.825285
-1.327256 -1.806109 13.923086
-1.309088 -1.787700 14.020767
-1.291527 -1.768022 14.118311
-1.274574 -1.747096 14.215702
-1.258221 -1.724951 14.312927
-1.242428 -1.701642 14.409972
-1.227147 -1.677229 14.506828
-1.212330 -1.651772 14.603486
-1.197927 -1.625332 14.699944
-1.183888 -1.597971 14.796198
-1.170162 -1.569750 14.892248
-1.156699 -1.540729 14.988097
-1.143447 -1.510969 15.083750
-1.130355 -1.480532 15.179210
-1.117372 -1.449476 15.274486
-1.104445 -1.417861 15.369586
-1.091523 -1.385746 15.464519
-1.078556 -1.353191 15.559296
-1.065490 -1.320252 15.653926
-1.052276 -1.286989 15.748423
-1.038863 -1.253458 15.842796
-1.025199 -1.219718 15.937059
-1.011235 -1.185824 16.031223
-0.996933 -1.151838 16.125303
-0.982335 -1.117851 16.219337
-0.967508 -1.083964 16.313371
-0.952519 -1.050275 16.407450
-0.937433 -1.016885 16.501621
-0.922319 -0.983894 16.595928
-0.907243 -0.951404 16.690415
-0.892273 -0.919520 16.785124
-0.877477 -0.888344 16.880096
-0.862925 -0.857986 16.975370
-0.848687 -0.828553 17.070981
-0.834836 -0.800159 17.166963
-0.821443 -0.772917 17.263342
-0.808585 -0.746945 17.360144
-0.796338 -0.722362 17.457386
-0.784777 -0.699291 17.555081
-0.773983 -0.677854 17.653236
-0.764033 -0.658177 17.751846
-0.755008 -0.640384 17.850903
-0.746979 -0.624586 17.950382
-0.739936 -0.610750 18.050228
-0.733812 -0.598745 18.150371
-0.728541 -0.588437 18.250752
-0.724054 -0.579689 18.351319
-0.720281 -0.572363 18.452029
-0.717154 -0.566322 18.552846
-0.714603 -0.561427 18.653743
-0.712560 -0.557544 18.754694
-0.710957 -0.554537 18.855684
-0.709727 -0.552271 18.956699
-0.708804 -0.550615 19.057728
-0.708121 -0.549438 19.158767
-0.707613 -0.548609 19.259809
-0.707215 -0.547999 19.360854
-0.706862 -0.547479 19.461900
-0.706490 -0.546920 19.562945
-0.706034 -0.546195 19.663989
-0.705429 -0.545173 19.765030
-0.704611 -0.543728 19.866064
-0.703550 -0.541797 19.967087
-0.702255 -0.539402 20.068098
-0.700739 -0.536568 20.169094
-0.699015 -0.533319 20.270075
-0.697095 -0.529681 20.371039
-0.694994 -0.525680 20.471985
-0.692722 -0.521342 20.572914
-0.690294 -0.516693 20.673825
-0.687723 -0.511758 20.774719
-0.685022 -0.506564 20.875597
-0.682203 -0.501137 20.976459
-0.679281 -0.495504 21.077308
-0.676268 -0.489690 21.178143
-0.673178 -0.483723 21.278967
-0.670024 -0.477629 21.379781
-0.666820 -0.471434 21.480588
-0.663578 -0.465165 21.581388
-0.660313 -0.458849 21.682185
-0.657037 -0.452511 21.782981
-0.653763 -0.446180 21.883777
-0.650507 -0.439881 21.984575
-0.647279 -0.433640 22.085378
-0.644095 -0.427485 22.186188
-0.640967 -0.421443 22.287006
-0.637909 -0.415539 22.387835
-0.634934 -0.409800 22.488675
-0.632054 -0.404252 22.589529
-0.629285 -0.398923 22.690398
-0.626638 -0.393837 22.791283
-0.624127 -0.389022 22.892185
-0.621765 -0.384504 22.993104
-0.619565 -0.380308 23.094040
-0.617540 -0.376461 23.194994
-0.615704 -0.372988 23.295965
-0.614068 -0.369915 23.396952
-0.612646 -0.367267 23.497955
-0.611450 -0.365069 23.598972
-0.610493 -0.363347 23.700000
-2.322031 -1.459330 10.611226
-1.678621 -1.498017 9.620584
-1.321859 -1.477740 8.491692
-1.177380 -1.422146 7.316113
-1.137206 -1.344320 6.132663
-1.085229 -1.264955 4.949813
-0.982650 -1.258282 3.767867
-0.853819 -1.295974 2.588725
-0.724796 -1.331830 1.409543
-0.595588 -1.368337 0.230401
-2.320713 -1.459450 10.609726
-1.679460 -1.498005 9.622399
-1.677781 -1.498028 9.618769
-1.322256 -1.477810 8.493651
-1.321462 -1.477669 8.489733
-1.177494 -1.422260 7.318107
-1.177266 -1.422033 7.314120
-1.137261 -1.344468 6.134657
-1.137151 -1.344172 6.130670
-1.085354 -1.265048 4.951807
-1.085104 -1.264863 4.947819
-0.982858 -1.258232 3.769856
-0.982442 -1.258332 3.765879
-0.854038 -1.295911 2.590712
-0.853601 -1.296037 2.586738
-0.725013 -1.331771 1.411530
-0.724578 -1.331890 1.407556
-0.595807 -1.368273 0.232388
-2.304082 -1.460959 10.590806
-1.690050 -1.497860 9.645305
-1.667232 -1.498165 9.595845
-1.327266 -1.478700 8.518367
-1.316452 -1.476779 8.465016
-1.178959 -1.423689 7.343259
-1.175826 -1.420598 7.288966
-1.137953 -1.346338 6.159814
-1.136410 -1.342274 6.105517
-1.086931 -1.266214 4.976965
-1.083527 -1.263697 4.922660
-0.985486 -1.257599 3.794946
-0.979814 -1.258964 3.740789
-0.856790 -1.295118 2.615784
-0.850850 -1.296828 2.561666
-0.727753 -1.331021 1.436605
-0.721838 -1.332641 1.382481
-0.598566 -1.367454 0.257459
-2.229722 -1.467573 10.504484
-2.117370 -1.476721 10.363157
-2.011986 -1.484214 10.216454
-1.914070 -1.489994 10.064589
-1.823212 -1.494207 9.908359
-1.739352 -1.496914 9.748231
-1.622044 -1.498272 9.491039
-1.555621 -1.497418 9.322892
-1.495808 -1.495288 9.152295
-1.442019 -1.492032 8.979724
-1.393964 -1.487737 8.805490
-1.351345 -1.482491 8.629869
-1.295145 -1.472536 8.352968
-1.265370 -1.465189 8.174791
-1.239906 -1.457195 7.995975
-1.218464 -1.448629 7.816658
-1.200749 -1.439556 7.636957
-1.186511 -1.429977 7.456971
-1.169767 -1.414012 7.175182
-1.161838 -1.403170 6.994879
-1.155486 -1.391832 6.814544
-1.150230 -1.379994 6.634205
-1.145591 -1.367618 6.453886
-1.141015 -1.354731 6.273600
-1.132980 -1.333674 5.991756
-1.126982 -1.320027 5.811568
-1.120179 -1.306650 5.631389
-1.112427 -1.293943 5.451200
-1.103666 -1.282238 5.270989
-1.093796 -1.271878 5.090754
-1.075875 -1.259239 4.808867
-1.062651 -1.254012 4.628626
-1.047977 -1.251311 4.448441
-1.032062 -1.250789 4.268342
-1.015075 -1.252139 4.088345
-0.997187 -1.255055 3.908453
-0.967780 -1.262074 3.627331
-0.948346 -1.267613 3.447660
-0.928636 -1.273579 3.268033
-0.908815 -1.279672 3.088423
-0.889010 -1.285657 2.908807
-0.869248 -1.291495 2.729182
-0.838410 -1.300386 2.448265
-0.818725 -1.305947 2.268622
-0.799062 -1.311434 2.088975
-0.779414 -1.316865 1.909324
-0.759777 -1.322256 1.729671
-0.740146 -1.327630 1.550017
-0.709443 -1.336041 1.269070
-0.689800 -1.341453 1.089418
-0.670144 -1.346913 0.909769
-0.650468 -1.352443 0.730125
-0.630768 -1.358059 0.550486
-0.611039 -1.363779 0.370853
109 NaN NaN
-2.322360 -1.459300 10.611601
-2.255769 -1.465343 10.535842
-2.191301 -1.470862 10.458229
-2.128993 -1.475856 10.378837
-2.068880 -1.480328 10.297740
-2.010982 -1.484282 10.215020
-1.955316 -1.487725 10.130760
-1.901887 -1.490664 10.045044
-1.850695 -1.493108 9.957959
-1.801730 -1.495067 9.869590
-1.754976 -1.496554 9.780023
-1.710411 -1.497581 9.689340
-1.668005 -1.498162 9.597624
-1.627724 -1.498312 9.504952
-1.589531 -1.498045 9.411401
-1.553381 -1.497377 9.317044
-1.519229 -1.496323 9.221948
-1.487026 -1.494900 9.126180
-1.456721 -1.493124 9.029800
-1.428261 -1.491010 8.932865
-1.401591 -1.488576 8.835431
-1.376657 -1.485835 8.737545
-1.353403 -1.482805 8.639256
-1.331774 -1.479501 8.540605
-1.311713 -1.475937 8.441632
-1.293165 -1.472129 8.342373
-1.276076 -1.468092 8.242862
-1.260391 -1.463839 8.143129
-1.246057 -1.459385 8.043201
-1.233020 -1.454743 7.943104
-1.221230 -1.449928 7.842861
-1.210635 -1.444951 7.742493
-1.201172 -1.439822 7.642018
-1.192761 -1.434541 7.541459
-1.185317 -1.429106 7.440831
-1.178756 -1.423517 7.340150
-1.172991 -1.417774 7.239429
-1.167935 -1.411875 7.138678
-1.163502 -1.405821 7.037908
-1.159604 -1.399611 6.937125
-1.156154 -1.393243 6.836335
-1.153063 -1.386717 6.735544
-1.150244 -1.380032 6.634756
-1.147609 -1.373186 6.533973
-1.145070 -1.366180 6.433198
-1.142539 -1.359012 6.332435
-1.139929 -1.351681 6.231686
-1.137159 -1.344193 6.130952
-1.134194 -1.336595 6.030232
-1.131017 -1.328950 5.929523
-1.127608 -1.321321 5.828819
-1.123950 -1.313769 5.728119
-1.120025 -1.306358 5.627418
-1.115813 -1.299149 5.526714
-1.111297 -1.292206 5.426005
-1.106458 -1.285592 5.325288
-1.101278 -1.279370 5.224564
-1.095739 -1.273601 5.123831
-1.089821 -1.268351 5.023092
-1.083508 -1.263682 4.922348
-1.076780 -1.259658 4.821604
-1.069620 -1.256343 4.720863
-1.062009 -1.253797 4.620133
-1.053952 -1.252036 4.519421
-1.045477 -1.251008 4.418733
-1.036616 -1.250656 4.318073
-1.027401 -1.250925 4.217446
-1.017862 -1.251758 4.116851
-1.008031 -1.253101 4.016290
-0.997938 -1.254895 3.915762
-0.987614 -1.257087 3.815265
-0.977091 -1.259620 3.714797
-0.966399 -1.262438 3.614354
-0.955567 -1.265486 3.513933
-0.944627 -1.268708 3.413529
-0.933608 -1.272049 3.313138
-0.922542 -1.275454 3.212754
-0.911457 -1.278867 3.112372
-0.900381 -1.282240 3.011988
-0.889318 -1.285566 2.911601
-0.878268 -1.288847 2.811211
-0.867229 -1.292087 2.710819
-0.856201 -1.295289 2.610424
-0.845183 -1.298457 2.510027
-0.834173 -1.301593 2.409628
-0.823172 -1.304700 2.309227
-0.812177 -1.307783 2.208825
-0.801189 -1.310845 2.108421
-0.790206 -1.313888 2.008017
-0.779227 -1.316916 1.907611
-0.768251 -1.319933 1.807205
-0.757277 -1.322941 1.706798
-0.746305 -1.325945 1.606391
-0.735334 -1.328946 1.505983
-0.724362 -1.331949 1.405576
-0.713389 -1.334957 1.305169
-0.702413 -1.337973 1.204763
-0.691434 -1.341000 1.104357
-0.680452 -1.344042 1.003952
-0.669463 -1.347103 0.903549
-0.658469 -1.350184 0.803146
-0.647468 -1.353290 0.702745
-0.636460 -1.356424 0.602346
-0.625442 -1.359589 0.501949
-0.614415 -1.362789 0.401554
-0.603377 -1.366027 0.301161
-0.592327 -1.369305 0.200771
-0.581265 -1.372628 0.100384
-0.570190 -1.375998 0.000000
-2.322706 -1.459661 10.611614
-3.915411 -1.303183 10.241525
-4.818378 0.251259 9.724969
-5.656519 1.864170 9.246216
-6.499518 3.479705 8.786052
-7.417224 5.054942 8.331812
-8.559488 6.453633 7.822254
-9.999458 7.507891 7.251582
-11.673023 8.105726 6.655775
-13.448205 8.292114 6.075812
-2.324091 -1.461103 10.611667
-3.914117 -1.304547 10.242208
-3.916705 -1.301820 10.240842
-4.817479 0.249549 9.725486
-4.819277 0.252970 9.724451
-5.655623 1.862455 9.246723
-5.657415 1.865884 9.245709
-6.498620 3.477978 8.786512
-6.500416 3.481432 8.785593
-7.416149 5.053334 8.332320
-7.418300 5.056550 8.331303
-8.558110 6.452305 7.822833
-8.560866 6.454962 7.821675
-9.997782 7.506997 7.252211
-10.001133 7.508784 7.250953
-11.671167 8.105328 6.656406
-11.674879 8.106124 6.655145
-13.446298 8.292099 6.076413
-2.351151 -1.489298 10.612710
-3.888825 -1.331200 10.255559
-3.941796 -1.274997 10.227460
-4.799916 0.216119 9.735599
-4.836846 0.286396 9.714335
-5.638098 1.828951 9.256657
-5.674934 1.899398 9.235797
-6.481064 3.444223 8.795493
-6.518036 3.515144 8.776573
-7.395133 5.021904 8.342261
-7.439315 5.087980 8.321363
-8.531421 6.426054 7.834096
-8.587807 6.480933 7.810359
-9.965036 7.489540 7.264507
-10.034030 7.525942 7.238641
-11.634892 8.097545 6.668729
-11.711154 8.113907 6.642822
-13.409021 8.291621 6.088180
-2.488160 -1.606882 10.612844
-2.746056 -1.728116 10.591999
-3.025999 -1.768163 10.548460
-3.302645 -1.730932 10.485746
-3.553494 -1.618980 10.406512
-3.767499 -1.451236 10.316075
-4.053623 -1.146842 10.165262
-4.213751 -0.927758 10.072227
-4.350044 -0.688066 9.992970
-4.472874 -0.438404 9.922462
-4.594562 -0.187838 9.853132
-4.719236 0.060729 9.781953
-4.918268 0.441243 9.667463
-5.046064 0.687603 9.594163
-5.172812 0.934768 9.521754
-5.300155 1.181546 9.449070
-5.428315 1.427776 9.375963
-5.556901 1.673752 9.302749
-5.756103 2.054680 9.189934
-5.885239 2.300443 9.116978
-6.015838 2.545057 9.042771
-6.146401 2.789996 8.969594
-6.274152 3.037830 8.901388
-6.400477 3.287314 8.836596
-6.600426 3.670819 8.734369
-6.733336 3.916079 8.666688
-6.869071 4.159645 8.598503
-7.008289 4.400990 8.529456
-7.151585 4.639602 8.459272
-7.299389 4.875095 8.387911
-7.538224 5.232422 8.274922
-7.699609 5.457722 8.200171
-7.867058 5.678044 8.123944
-8.040937 5.892779 8.046190
-8.221560 6.101285 7.966872
-8.409251 6.302819 7.885963
-8.714115 6.599535 7.757622
-8.920213 6.780430 7.672849
-9.133502 6.952107 7.586699
-9.353888 7.113895 7.499285
-9.581053 7.265374 7.410769
-9.814592 7.406241 7.321331
-10.187660 7.602967 7.181479
-10.435431 7.715775 7.090535
-10.687844 7.817544 6.999341
-10.944350 7.908433 6.908074
-11.204414 7.988676 6.816894
-11.467531 8.058566 6.725944
-11.879843 8.147118 6.585866
-12.148694 8.192235 6.496013
-12.419083 8.228429 6.406737
-12.690682 8.256140 6.318093
-12.963202 8.275812 6.230123
-13.236395 8.287849 6.142860
173 NaN NaN
-2.322360 -1.459300 10.611601
-2.391944 -1.531801 10.614281
-2.469881 -1.595296 10.613674
-2.554734 -1.649074 10.609818
-2.644995 -1.692804 10.602834
-2.739222 -1.726445 10.592895
-2.836112 -1.750134 10.580186
-2.934510 -1.764080 10.564881
-3.033388 -1.768493 10.547134
-3.131797 -1.763531 10.527068
-3.228812 -1.749281 10.504786
-3.323477 -1.725755 10.480374
-3.414750 -1.692899 10.453914
-3.501540 -1.650798 10.425532
-3.583401 -1.600664 10.395564
-3.660544 -1.544178 10.364366
-3.733515 -1.482885 10.332194
-3.803054 -1.418124 10.299210
-3.869999 -1.351038 10.265498
-3.935078 -1.282458 10.231142
-3.998271 -1.212275 10.196506
-4.059307 -1.140123 10.162054
-4.117890 -1.065655 10.128278
-4.173690 -0.988568 10.095695
-4.226358 -0.908621 10.064842
-4.275818 -0.825925 10.035986
-4.322586 -0.741108 10.008834
-4.367281 -0.654770 9.983011
-4.410551 -0.567434 9.958125
-4.453051 -0.479569 9.933779
-4.495414 -0.391594 9.909592
-4.537933 -0.303704 9.885369
-4.580703 -0.215970 9.861024
-4.623815 -0.128460 9.836475
-4.667361 -0.041247 9.811638
-4.711429 0.045597 9.786433
-4.756030 0.132055 9.760839
-4.801017 0.218229 9.734965
-4.846225 0.304240 9.708934
-4.891489 0.390211 9.682869
-4.936646 0.476265 9.656890
-4.981550 0.562510 9.631109
-5.026200 0.648946 9.605525
-5.070681 0.735510 9.580081
-5.115074 0.822142 9.554717
-5.159465 0.908781 9.529372
-5.203937 0.995368 9.503988
-5.248541 1.081864 9.478528
-5.293266 1.168277 9.453001
-5.338094 1.254621 9.427419
-5.383008 1.340909 9.401797
-5.427989 1.427153 9.376148
-5.473021 1.513367 9.350486
-5.518088 1.599562 9.324824
-5.563178 1.685751 9.299178
-5.608278 1.771944 9.273564
-5.653373 1.858152 9.247996
-5.698453 1.944388 9.222489
-5.743526 2.030641 9.197032
-5.788641 2.116871 9.171570
-5.833852 2.203031 9.146044
-5.879211 2.289078 9.120396
-5.924768 2.374965 9.094566
-5.970557 2.460665 9.068524
-6.016486 2.546265 9.042402
-6.062415 2.631903 9.016400
-6.108203 2.717711 8.990717
-6.153708 2.803823 8.965553
-6.198789 2.890364 8.941107
-6.243425 2.977343 8.917413
-6.287765 3.064627 8.894289
-6.331969 3.152077 8.871536
-6.376200 3.239559 8.848954
-6.420620 3.326936 8.826344
-6.465387 3.414080 8.803513
-6.510561 3.500938 8.780403
-6.556124 3.587532 8.757060
-6.602055 3.673881 8.733535
-6.648335 3.760008 8.709879
-6.694944 3.845935 8.686142
-6.741872 3.931675 8.662362
-6.789145 4.017212 8.638529
-6.836794 4.102519 8.614622
-6.884850 4.187571 8.590622
-6.933346 4.272341 8.566509
-6.982312 4.356803 8.542264
-7.031772 4.440935 8.517877
-7.081745 4.524722 8.493347
-7.132249 4.608147 8.468673
-7.183301 4.691195 8.443854
-7.234919 4.773848 8.418890
-7.287121 4.856090 8.393780
-7.339927 4.937898 8.368518
-7.393359 5.019250 8.343101
-7.447436 5.100124 8.317521
-7.502178 5.180496 8.291776
-7.557606 5.260342 8.265859
-7.613737 5.339637 8.239768
-7.670589 5.418358 8.213499
-7.728180 5.496479 8.187049
-7.786526 5.573974 8.160416
-7.845645 5.650818 8.133598
-7.905550 5.726984 8.106591
-7.966257 5.802444 8.079396
-8.027780 5.877171 8.052009
-8.090131 5.951136 8.024430
-8.153323 6.024311 7.996658
-8.217368 6.096666 7.968691
-8.282275 6.168173 7.940530
-8.348052 6.238802 7.912175
-8.414707 6.308525 7.883627
-8.482245 6.377313 7.854887
-8.550673 6.445135 7.825957
-8.619994 6.511962 7.796839
-8.690209 6.577766 7.767535
-8.761318 6.642521 7.738048
-8.833320 6.706198 7.708383
-8.906212 6.768771 7.678543
-8.979993 6.830211 7.648533
-9.054656 6.890494 7.618357
-9.130191 6.949597 7.588020
-9.206590 7.007499 7.557530
-9.283842 7.064178 7.526892
-9.361939 7.119609 7.496112
-9.440866 7.173774 7.465197
-9.520608 7.226657 7.434156
-9.601149 7.278245 7.402994
-9.682470 7.328523 7.371721
-9.764556 7.377477 7.340343
-9.847388 7.425094 7.308870
-9.930945 7.471365 7.277308
-10.015207 7.516287 7.245668
-10.100150 7.559855 7.213957
-10.185753 7.602064 7.182183
-10.271995 7.642910 7.150354
-10.358853 7.682392 7.118480
-10.446302 7.720514 7.086568
-10.534319 7.757281 7.054626
-10.622880 7.792698 7.022662
-10.711963 7.826768 6.990683
-10.801543 7.859499 6.958697
-10.891599 7.890900 6.926712
-10.982106 7.920982 6.894734
-11.073042 7.949759 6.862769
-11.164383 7.977242 6.830824
-11.256110 8.003442 6.798905
-11.348201 8.028376 6.767018
-11.440634 8.052057 6.735167
-11.533389 8.074504 6.703359
-11.626447 8.095733 6.671598
-11.719788 8.115760 6.639889
-11.813394 8.134602 6.608235
-11.907248 8.152279 6.576640
-12.001331 8.168809 6.545109
-12.095628 8.184210 6.513644
-12.190123 8.198501 6.482249
-12.284800 8.211701 6.450925
-12.379646 8.223830 6.419677
-12.474645 8.234907 6.388506
-12.569785 8.244951 6.357414
-12.665053 8.253981 6.326403
-12.760436 8.262016 6.295475
-12.855925 8.269077 6.264632
-12.951506 8.275180 6.233873
-13.047171 8.280345 6.203202
-13.142910 8.284589 6.172618
-13.238712 8.287930 6.142122
-13.334569 8.290386 6.111716
-13.430473 8.291977 6.081399
-13.526416 8.292719 6.051172
-13.622390 8.292632 6.021035
-13.718388 8.291733 5.990989
-13.814403 8.290040 5.961033
-0.689586 -0.515114 20.696313
-0.639153 -0.293242 20.712663
-0.641114 -0.066969 20.738243
-0.708605 0.147317 20.773417
-0.836355 0.330958 20.815221
-1.004680 0.478093 20.859720
-1.196179 0.593806 20.904577
-0.689044 -0.513193 20.696437
-0.639293 -0.295227 20.712465
-0.639013 -0.291257 20.712861
-0.640713 -0.068908 20.737960
-0.641515 -0.065030 20.738526
-0.707647 0.145598 20.773065
-0.709564 0.149037 20.773768
-0.834985 0.329553 20.814836
-0.837725 0.332363 20.815607
-1.003065 0.476980 20.859326
-1.006294 0.479206 20.860113
-1.194427 0.592924 20.904186
-0.686468 -0.504072 20.697025
-0.640451 -0.304598 20.711612
-0.638349 -0.281831 20.713802
-0.638809 -0.078113 20.736615
-0.643419 -0.055825 20.739871
-0.703093 0.137434 20.771394
-0.714117 0.157201 20.775439
-0.828479 0.322882 20.813006
-0.844230 0.339035 20.817436
-0.995400 0.471695 20.857458
-1.013959 0.484490 20.861982
-1.186109 0.588734 20.902331
-0.680016 -0.481226 20.698499
-0.671450 -0.450895 20.700455
-0.662884 -0.420563 20.702412
-0.656101 -0.389842 20.704709
-0.650417 -0.358880 20.707216
-0.644732 -0.327919 20.709723
-0.636686 -0.258221 20.716160
-0.634478 -0.226876 20.719290
-0.632269 -0.195530 20.722420
-0.633414 -0.164227 20.726104
-0.635265 -0.132933 20.729906
-0.637116 -0.101639 20.733707
-0.648188 -0.032768 20.743240
-0.654520 -0.002155 20.747713
-0.661015 0.028407 20.752207
-0.671914 0.057607 20.757284
-0.682812 0.086807 20.762361
-0.693711 0.116008 20.767438
-0.725522 0.177650 20.779624
-0.740663 0.204799 20.785179
-0.756691 0.231351 20.790816
-0.775446 0.256066 20.796703
-0.794200 0.280781 20.802589
-0.812954 0.305496 20.808476
-0.860525 0.355744 20.822019
-0.882159 0.377929 20.828104
-0.904791 0.399018 20.834233
-0.928628 0.418787 20.840415
-0.952464 0.438556 20.846597
-0.976301 0.458325 20.852780
-1.033159 0.497727 20.866661
-1.058649 0.515301 20.872875
-1.084956 0.531594 20.879081
-1.111684 0.547225 20.885284
-1.138413 0.562856 20.891487
-1.165275 0.578241 20.897685
14 NaN NaN
-0.689722 -0.515594 20.696282
-0.659618 -0.408997 20.703157
-0.639644 -0.300201 20.711968
-0.631885 -0.190075 20.722964
-0.638388 -0.080148 20.736317
-0.660627 0.027367 20.752026
-0.698903 0.129920 20.769856
-0.752084 0.225279 20.789370
-0.817968 0.312103 20.810050
-0.893981 0.390052 20.831429
-0.977746 0.459524 20.853155
-1.067334 0.521288 20.874992
-1.161280 0.576229 20.896794
-1.258505 0.625197 20.918477
-0.828163 -0.786594 17.213322
-0.751667 -0.621607 17.119408
-0.698574 -0.443535 17.034045
-0.680582 -0.252811 16.963724
-0.711040 -0.056839 16.918040
-0.794377 0.128369 16.904484
-0.919243 0.288986 16.921282
-1.069114 0.422636 16.960218
-1.232690 0.533307 17.013890
-1.403434 0.627007 17.076843
-0.827370 -0.785013 17.212389
-0.752361 -0.623254 17.120307
-0.750974 -0.619961 17.118509
-0.698986 -0.445324 17.034838
-0.698161 -0.441745 17.033253
-0.680562 -0.254720 16.964319
-0.680602 -0.250902 16.963128
-0.710452 -0.058729 16.918321
-0.711629 -0.054948 16.917759
-0.793277 0.126700 16.904416
-0.795477 0.130038 16.904551
-0.917829 0.287611 16.920951
-0.920656 0.290362 16.921612
-1.067606 0.421393 16.959794
-1.070626 0.423872 16.960647
-1.231065 0.532283 17.013333
-1.234315 0.534331 17.014448
-1.401746 0.626148 17.076199
-0.823931 -0.778160 17.208347
-0.755365 -0.630389 17.124204
-0.747969 -0.612826 17.114612
-0.700775 -0.453079 17.038271
-0.696372 -0.433991 17.029820
-0.680475 -0.262994 16.966899
-0.680689 -0.242628 16.960549
-0.707901 -0.066923 16.919538
-0.714179 -0.046754 16.916543
-0.788509 0.119468 16.904124
-0.800244 0.137270 16.904843
-0.911704 0.281649 16.919518
-0.926781 0.296324 16.923045
-1.061069 0.416006 16.957955
-1.077457 0.428750 16.962806
-1.224022 0.527845 17.010919
-1.241358 0.538768 17.016862
-1.394434 0.622424 17.073411
-0.815498 -0.761352 17.198432
-0.804317 -0.739069 17.185286
-0.793136 -0.716786 17.172141
-0.782279 -0.694292 17.159105
-0.772507 -0.671090 17.146433
-0.762736 -0.647889 17.133762
-0.741607 -0.594756 17.105421
-0.733591 -0.570563 17.093388
-0.725574 -0.546371 17.081354
-0.717557 -0.522178 17.069321
-0.710981 -0.497315 17.057856
-0.705163 -0.472099 17.046692
-0.691986 -0.414970 17.021399
-0.688915 -0.388791 17.011421
-0.685845 -0.362612 17.001442
-0.682774 -0.336433 16.991463
-0.679978 -0.310194 16.981615
-0.680261 -0.283289 16.973226
-0.680903 -0.222334 16.954221
-0.682855 -0.195327 16.946707
-0.687024 -0.168187 16.940353
-0.691193 -0.141046 16.934000
-0.695361 -0.113906 16.927646
-0.701645 -0.087020 16.922522
-0.720435 -0.026657 16.913558
-0.728729 -0.000013 16.909602
-0.740391 0.025529 16.907824
-0.752593 0.050895 16.906395
-0.764795 0.076261 16.904967
-0.776996 0.101627 16.903538
-0.811938 0.155010 16.905560
-0.827441 0.178528 16.906510
-0.843691 0.201436 16.908059
-0.861743 0.222872 16.911054
-0.879795 0.244307 16.914050
-0.897847 0.265743 16.917045
-0.941806 0.310948 16.926559
-0.961725 0.330336 16.931218
-0.981643 0.349724 16.935877
-1.002525 0.367763 16.941487
-1.023781 0.385279 16.947466
-1.045036 0.402794 16.953445
-1.094211 0.440717 16.968103
-1.116422 0.456581 16.975125
-1.138634 0.472446 16.982148
-1.160946 0.488101 16.989291
-1.183847 0.502531 16.997143
-1.206748 0.516961 17.004996
-1.258879 0.549043 17.023113
-1.282285 0.562231 17.031634
-1.305691 0.575419 17.040154
-1.329097 0.588606 17.048675
-1.352716 0.601180 17.057506
-1.376496 0.613290 17.066573
19 NaN NaN
-0.828361 -0.786989 17.213555
-0.784524 -0.699623 17.162016
-0.746215 -0.608662 17.112338
-0.714789 -0.513824 17.065165
-0.691988 -0.414986 17.021406
-0.679955 -0.312396 16.982301
-0.681064 -0.206986 16.949436
-0.697393 -0.100683 16.924551
-0.729873 0.003664 16.909056
-0.777664 0.103014 16.903460
-0.838397 0.195150 16.907181
-0.909137 0.279150 16.918918
-0.987208 0.355141 16.937178
-1.070531 0.423804 16.960617
-1.157611 0.486000 16.988147
-1.247400 0.542575 17.018934
-1.339171 0.594282 17.052342
-1.432413 0.641765 17.087891
-1.526763 0.685561 17.125211
-1.076797 -1.349073 15.569868
-0.977530 -1.211031 15.492407
-0.886280 -1.066226 15.417559
-0.805414 -0.913683 15.346303
-0.738734 -0.752190 15.280284
-0.692622 -0.580794 15.222483
-0.672863 -0.401312 15.176148
-0.686321 -0.217999 15.145559
-0.738855 -0.039424 15.135373
-0.826453 0.124728 15.145566
-0.939468 0.270651 15.172110
-1.069970 0.398362 15.211059
-1.212485 0.508976 15.259462
-1.362210 0.606347 15.314145
-1.075715 -1.347612 15.569033
-0.978567 -1.212532 15.493228
-0.976493 -1.209531 15.491586
-0.887205 -1.067817 15.418343
-0.885356 -1.064635 15.416776
-0.806182 -0.915380 15.347030
-0.804646 -0.911986 15.345575
-0.739401 -0.753946 15.280972
-0.738068 -0.750435 15.279595
-0.693019 -0.582667 15.223061
-0.692225 -0.578921 15.221904
-0.672882 -0.403270 15.176555
-0.672844 -0.399354 15.175740
-0.685874 -0.219941 15.145731
-0.686768 -0.216058 15.145386
-0.738173 -0.041303 15.135417
-0.739537 -0.037544 15.135330
-0.825377 0.123054 15.145371
-0.827530 0.126402 15.145761
-0.938127 0.269215 15.171736
-0.940808 0.272087 15.172485
-1.068469 0.397138 15.210561
-1.071471 0.399587 15.211557
-1.210930 0.507842 15.258919
-1.214041 0.510110 15.260005
-1.360578 0.605367 15.313532
-1.071368 -1.341741 15.565676
-0.982735 -1.218563 15.496529
-0.972325 -1.203499 15.488286
-0.890921 -1.074214 15.421492
-0.881639 -1.058239 15.413626
-0.809270 -0.922204 15.349954
-0.801558 -0.905162 15.342651
-0.742080 -0.761003 15.283741
-0.735513 -0.743317 15.276877
-0.694615 -0.590196 15.225387
-0.690629 -0.571392 15.219579
-0.672958 -0.411141 15.178194
-0.672767 -0.391483 15.174101
-0.684077 -0.227747 15.146425
-0.688566 -0.208252 15.144693
-0.735433 -0.048860 15.135590
-0.742277 -0.029987 15.135156
-0.821048 0.116324 15.144586
-0.831859 0.133132 15.146546
-0.932738 0.263442 15.170229
-0.946197 0.277860 15.173992
-1.062624 0.391943 15.208710
-1.077505 0.404509 15.213557
-1.204676 0.503285 15.256735
-1.220294 0.514667 15.262189
-1.354017 0.601426 15.311069
-1.060906 -1.327611 15.557598
-1.047054 -1.308903 15.546902
-1.033203 -1.290196 15.536206
-1.019352 -1.271489 15.525510
-1.006044 -1.252296 15.514986
-0.992765 -1.233079 15.504471
-0.962315 -1.188968 15.480350
-0.949699 -1.169194 15.470052
-0.937082 -1.149420 15.459754
-0.924466 -1.129646 15.449455
-0.911850 -1.109872 15.439157
-0.899865 -1.089606 15.429072
-0.872696 -1.042846 15.406046
-0.860855 -1.022467 15.396010
-0.849831 -1.001503 15.386261
-0.838905 -0.980467 15.376547
-0.827979 -0.959432 15.366833
-0.817052 -0.938397 15.357119
-0.794127 -0.888742 15.335615
-0.784289 -0.867001 15.326298
-0.774451 -0.845261 15.316982
-0.765597 -0.822958 15.308041
-0.757062 -0.800472 15.299222
-0.748526 -0.777987 15.290402
-0.730250 -0.725757 15.270687
-0.723282 -0.702508 15.262491
-0.716313 -0.679260 15.254296
-0.709345 -0.656011 15.246101
-0.703543 -0.632303 15.238392
-0.698457 -0.608315 15.230983
-0.686787 -0.553273 15.213982
-0.683267 -0.528833 15.207260
-0.680420 -0.504199 15.200834
-0.677573 -0.479565 15.194407
-0.674726 -0.454932 15.187980
-0.673142 -0.430082 15.182138
-0.672583 -0.372542 15.170157
-0.672340 -0.347464 15.164935
-0.673742 -0.322320 15.160519
-0.676405 -0.297127 15.156720
-0.679069 -0.271934 15.152921
-0.681733 -0.246741 15.149122
-0.692891 -0.189467 15.143024
-0.698618 -0.164596 15.140815
-0.704345 -0.139725 15.138606
-0.711378 -0.115200 15.137116
-0.720108 -0.091123 15.136562
-0.728839 -0.067046 15.136009
-0.750282 -0.012417 15.135565
-0.761745 0.010468 15.136614
-0.773208 0.033353 15.137662
-0.784671 0.056238 15.138710
-0.796840 0.078686 15.140198
-0.810631 0.100128 15.142698
-0.842275 0.149328 15.148434
-0.856792 0.170181 15.151415
-0.872473 0.190087 15.155167
-0.888154 0.209993 15.158920
-0.903835 0.229898 15.162672
-0.919769 0.249548 15.166603
-0.959166 0.291754 15.177618
-0.976337 0.310148 15.182419
-0.993796 0.328189 15.187436
-1.012124 0.345166 15.193101
-1.030452 0.362143 15.198766
-1.048780 0.379120 15.204431
-1.092026 0.416355 15.218372
-1.111251 0.432039 15.224747
-1.130477 0.447723 15.231121
-1.149781 0.463275 15.237562
-1.169704 0.477796 15.244520
-1.189628 0.492317 15.251479
-1.235447 0.525436 15.267538
-1.255919 0.538918 15.274980
-1.276390 0.552400 15.282422
-1.296861 0.565882 15.289864
-1.317332 0.579365 15.297306
-1.338227 0.591942 15.305143
25 NaN NaN
-1.077067 -1.349438 15.570077
-1.018670 -1.270568 15.524984
-0.962685 -1.189548 15.480653
-0.909497 -1.106184 15.437236
-0.859578 -1.020269 15.394928
-0.813517 -0.931591 15.353976
-0.772044 -0.839943 15.314703
-0.736065 -0.745159 15.277526
-0.706694 -0.647164 15.242982
-0.685258 -0.546060 15.211755
-0.673261 -0.442250 15.184672
-0.672234 -0.336582 15.162669
-0.683456 -0.230442 15.146664
-0.707582 -0.125667 15.137357
-0.744363 -0.024235 15.135024
-0.792660 0.072187 15.139440
-0.850774 0.162541 15.149974
-0.916860 0.246432 15.165789
-0.989231 0.323961 15.186025
-1.066488 0.395522 15.209905
-1.147531 0.461635 15.236776
-1.231521 0.522850 15.266110
-1.317823 0.579688 15.297485
-1.405955 0.632620 15.330564
-1.495551 0.682066 15.365080
-1.331728 -1.810114 13.898010
-1.202390 -1.659665 13.867251
-1.079888 -1.503262 13.838341
-0.965970 -1.340133 13.811737
-0.863047 -1.169455 13.788073
-0.774457 -0.990503 13.768214
-0.704768 -0.802980 13.753337
-0.659909 -0.607685 13.744949
-0.646738 -0.407567 13.744760
-0.671982 -0.208913 13.754395
-0.735145 -0.019730 13.773600
-0.831431 0.153863 13.801046
-0.953394 0.309388 13.834788
-1.093924 0.447356 13.873009
-1.247546 0.569697 13.914337
-1.410427 0.678657 13.957825
-1.330424 -1.808629 13.897699
-1.203661 -1.661179 13.867553
-1.201119 -1.658151 13.866950
-1.081081 -1.504843 13.838621
-1.078695 -1.501682 13.838060
-0.967063 -1.341789 13.811991
-0.964877 -1.338477 13.811484
-0.864008 -1.171195 13.788291
-0.862086 -1.167715 13.787854
-0.775241 -0.992335 13.768386
-0.773673 -0.988671 13.768042
-0.705313 -0.804901 13.753446
-0.704222 -0.801058 13.753228
-0.660139 -0.609672 13.744976
-0.659680 -0.605699 13.744921
-0.646781 -0.409566 13.744739
-0.646786 -0.405570 13.744804
-0.671618 -0.210876 13.754270
-0.672346 -0.206950 13.754520
-0.734384 -0.021566 13.773375
-0.735906 -0.017894 13.773824
-0.830346 0.152210 13.800742
-0.832516 0.155515 13.801351
-0.952073 0.307931 13.834426
-0.954715 0.310846 13.835150
-1.092440 0.446076 13.872608
-1.095408 0.448635 13.873409
-1.245950 0.568569 13.913910
-1.249141 0.570824 13.914764
-1.408753 0.677656 13.957380
-1.324866 -1.802299 13.896375
-1.209080 -1.667637 13.868839
-1.195700 -1.651693 13.865663
-1.086168 -1.511581 13.839818
-1.073608 -1.494943 13.836863
-0.971722 -1.348848 13.813073
-0.960217 -1.331418 13.810402
-0.868105 -1.178616 13.789223
-0.857988 -1.160295 13.786922
-0.778585 -1.000145 13.769119
-0.770330 -0.980861 13.767310
-0.707638 -0.813092 13.753912
-0.701897 -0.792867 13.752762
-0.661118 -0.618142 13.745092
-0.658701 -0.597229 13.744805
-0.646966 -0.418091 13.744651
-0.647456 -0.397075 13.745111
-0.670065 -0.219244 13.753739
-0.673899 -0.198582 13.755051
-0.731141 -0.029395 13.772419
-0.739149 -0.010066 13.774780
-0.825718 0.145166 13.799444
-0.837144 0.162559 13.802649
-0.946439 0.301718 13.832883
-0.960348 0.317059 13.836693
-1.086113 0.440620 13.870899
-1.101735 0.454091 13.875118
-1.239147 0.563760 13.912089
-1.255944 0.575633 13.916584
-1.401618 0.673389 13.955483
-1.311287 -1.786834 13.893140
-1.293288 -1.766337 13.888853
-1.275290 -1.745839 13.884566
-1.257415 -1.725230 13.880312
-1.239867 -1.704321 13.876147
-1.222319 -1.683413 13.871982
-1.182794 -1.635627 13.862611
-1.165752 -1.614278 13.858583
-1.148709 -1.592929 13.854554
-1.131667 -1.571579 13.850526
-1.115069 -1.549864 13.846617
-1.098596 -1.528044 13.842742
-1.061288 -1.478396 13.833969
-1.045462 -1.456074 13.830268
-1.029636 -1.433751 13.826566
-1.013811 -1.411429 13.822865
-0.998195 -1.388953 13.819220
-0.983107 -1.366095 13.815717
-0.948833 -1.314171 13.807758
-0.934315 -1.290929 13.804407
-0.920072 -1.267502 13.801129
-0.905829 -1.244074 13.797851
-0.891586 -1.220647 13.794573
-0.878116 -1.196744 13.791501
-0.847978 -1.142166 13.784645
-0.834915 -1.118026 13.781680
-0.822776 -1.093374 13.778962
-0.810638 -1.068722 13.776243
-0.798499 -1.044070 13.773524
-0.786753 -1.019227 13.770909
-0.762161 -0.961779 13.765520
-0.751335 -0.936489 13.763147
-0.741560 -0.910762 13.761051
-0.732260 -0.884837 13.759080
-0.722960 -0.858913 13.757109
-0.713660 -0.832988 13.755138
-0.696217 -0.772855 13.751625
-0.688689 -0.746332 13.750117
-0.681561 -0.719706 13.748715
-0.676073 -0.692662 13.747739
-0.670585 -0.665618 13.746763
-0.665097 -0.638574 13.745786
-0.656308 -0.576535 13.744522
-0.653138 -0.549107 13.744146
-0.649967 -0.521680 13.743770
-0.648612 -0.494128 13.743861
-0.648014 -0.466523 13.744148
-0.647417 -0.438919 13.744434
-0.649092 -0.376319 13.745861
-0.651262 -0.348810 13.746855
-0.653431 -0.321301 13.747850
-0.656217 -0.293881 13.749000
-0.661244 -0.266784 13.750721
-0.666272 -0.239688 13.752441
-0.679402 -0.178583 13.756780
-0.687249 -0.152221 13.759212
-0.695096 -0.125859 13.761643
-0.702943 -0.099497 13.764074
-0.712716 -0.073870 13.766988
-0.723218 -0.048521 13.770084
-0.747351 0.008919 13.777185
-0.760248 0.033054 13.780875
-0.773144 0.057189 13.784566
-0.786041 0.081325 13.788256
-0.799429 0.105148 13.792067
-0.814413 0.127957 13.796271
-0.848449 0.179768 13.805821
-0.864543 0.201727 13.810297
-0.881300 0.223178 13.814934
-0.898058 0.244629 13.819571
-0.914815 0.266079 13.824209
-0.932677 0.286538 13.829113
-0.974111 0.332238 13.840462
-0.992516 0.352187 13.845498
-1.011987 0.371038 13.850789
-1.031458 0.389888 13.856081
-1.050928 0.408739 13.861372
-1.070655 0.427291 13.866724
-1.117193 0.467420 13.879293
-1.137680 0.485087 13.884826
-1.158708 0.502052 13.890486
-1.180037 0.518625 13.896218
-1.201366 0.535198 13.901949
-1.222695 0.551771 13.907681
-1.272565 0.587381 13.921032
-1.294593 0.602952 13.926927
-1.316709 0.618386 13.932841
-1.339321 0.633041 13.938871
-1.361934 0.647695 13.944901
-1.384547 0.662350 13.950931
30 NaN NaN
-1.332054 -1.810485 13.898087
-1.262177 -1.730906 13.881443
-1.194050 -1.649728 13.865272
-1.127886 -1.566842 13.849632
-1.063934 -1.482129 13.834588
-1.002493 -1.395465 13.820218
-0.943915 -1.306721 13.806616
-0.888621 -1.215769 13.793891
-0.837113 -1.122491 13.782173
-0.789991 -1.026790 13.771618
-0.747964 -0.928613 13.762409
-0.711863 -0.827979 13.754758
-0.682641 -0.725024 13.748907
-0.661339 -0.620055 13.745118
-0.649034 -0.513606 13.743659
-0.646714 -0.406476 13.744771
-0.655133 -0.299722 13.748630
-0.674643 -0.194572 13.755306
-0.705094 -0.092270 13.764741
-0.745848 0.006106 13.776755
-0.795900 0.099775 13.791077
-0.854056 0.188304 13.807395
-0.919102 0.271566 13.825395
-0.989908 0.349661 13.844789
-1.065491 0.422838 13.865330
-1.145024 0.491420 13.886810
-1.227827 0.555759 13.909060
-1.313347 0.616208 13.931945
-1.401136 0.673101 13.955355
-1.490833 0.726747 13.979202
-1.744601 -1.896130 12.200288
-1.617273 -1.789612 12.193506
-1.492590 -1.679992 12.187132
-1.371618 -1.566261 12.181319
-1.254593 -1.448457 12.176088
-1.142942 -1.325520 12.171628
-1.037584 -1.197146 12.168043
-0.940594 -1.062319 12.165581
-0.854442 -0.920364 12.164512
-0.782338 -0.770793 12.165168
-0.729931 -0.613399 12.168097
-0.701243 -0.450087 12.173587
-0.704697 -0.284625 12.182253
-0.738869 -0.122784 12.193667
-0.806421 0.028010 12.207709
-0.896735 0.166328 12.223295
-1.007375 0.288984 12.240031
-1.129977 0.399626 12.257304
-1.262589 0.498078 12.274917
-1.401495 0.587409 12.292671
-1.545558 0.668197 12.310487
-1.743061 -1.894856 12.200205
-1.618792 -1.790911 12.193585
-1.615755 -1.788314 12.193426
-1.494058 -1.681348 12.187203
-1.491122 -1.678636 12.187060
-1.373056 -1.567650 12.181386
-1.370180 -1.564873 12.181251
-1.255958 -1.449918 12.176144
-1.253229 -1.446995 12.176031
-1.144260 -1.327023 12.171678
-1.141623 -1.324017 12.171578
-1.038787 -1.198743 12.168077
-1.036381 -1.195549 12.168008
-0.941723 -1.063969 12.165606
-0.939464 -1.060669 12.165556
-0.855377 -0.922132 12.164513
-0.853506 -0.918596 12.164512
-0.783146 -0.772623 12.165153
-0.781530 -0.768964 12.165183
-0.730400 -0.615342 12.168044
-0.729462 -0.611455 12.168150
-0.701497 -0.452069 12.173512
-0.700990 -0.448104 12.173663
-0.704447 -0.286606 12.182129
-0.704947 -0.282645 12.182377
-0.738359 -0.124713 12.193521
-0.739380 -0.120856 12.193813
-0.805454 0.026268 12.207529
-0.807387 0.029751 12.207889
-0.895445 0.164813 12.223096
-0.898025 0.167843 12.223495
-1.005969 0.287577 12.239826
-1.008781 0.290392 12.240236
-1.128404 0.398407 12.257092
-1.131549 0.400844 12.257515
-1.260957 0.496941 12.274704
-1.264220 0.499215 12.275130
-1.399775 0.586411 12.292457
-1.403214 0.588408 12.292885
-1.543806 0.667256 12.310272
-1.737427 -1.890200 12.199903
-1.624347 -1.795662 12.193876
-1.610199 -1.783563 12.193135
-1.499448 -1.686287 12.187469
-1.485752 -1.673675 12.186797
-1.378315 -1.572728 12.181632
-1.364921 -1.559794 12.181006
-1.260947 -1.455264 12.176351
-1.248240 -1.441649 12.175825
-1.149083 -1.332520 12.171861
-1.136801 -1.318519 12.171395
-1.043188 -1.204585 12.168203
-1.031980 -1.189707 12.167883
-0.945855 -1.070006 12.165696
-0.935333 -1.054632 12.165466
-0.858799 -0.928597 12.164513
-0.850084 -0.912131 12.164511
-0.786100 -0.779315 12.165098
-0.778576 -0.762272 12.165238
-0.732116 -0.622451 12.167849
-0.727746 -0.604347 12.168345
-0.702423 -0.459320 12.173235
-0.700063 -0.440853 12.173940
-0.703533 -0.293850 12.181677
-0.705862 -0.275401 12.182829
-0.736492 -0.131766 12.192988
-0.741738 -0.113971 12.194385
-0.801919 0.019897 12.206871
-0.810922 0.036122 12.208548
-0.891238 0.158871 12.222395
-0.902743 0.173386 12.224224
-1.000828 0.282428 12.239076
-1.013923 0.295541 12.240986
-1.122654 0.393952 12.256319
-1.137299 0.405299 12.258288
-1.254989 0.492783 12.273925
-1.270188 0.503374 12.275909
-1.393486 0.582757 12.291673
-1.409503 0.592062 12.293670
-1.537397 0.663817 12.309488
-1.724228 -1.879289 12.199193
-1.706787 -1.864871 12.198255
-1.689346 -1.850454 12.197317
-1.671905 -1.836036 12.196379
-1.654562 -1.821500 12.195457
-1.637363 -1.806792 12.194557
-1.597184 -1.772433 12.192454
-1.579985 -1.757725 12.191554
-1.563045 -1.742716 12.190694
-1.546117 -1.727695 12.189836
-1.529188 -1.712675 12.188977
-1.512259 -1.697654 12.188118
-1.473171 -1.662052 12.186182
-1.456545 -1.646694 12.185370
-1.439920 -1.631336 12.184557
-1.423294 -1.615978 12.183745
-1.406920 -1.600351 12.182970
-1.390637 -1.584628 12.182208
-1.352599 -1.547895 12.180429
-1.336428 -1.532057 12.179684
-1.320535 -1.515937 12.178980
-1.304642 -1.499817 12.178276
-1.288750 -1.483697 12.177571
-1.272857 -1.467576 12.176867
-1.236551 -1.429124 12.175340
-1.221105 -1.412572 12.174700
-1.205659 -1.396021 12.174060
-1.190243 -1.379442 12.173425
-1.175312 -1.362421 12.172858
-1.160382 -1.345401 12.172290
-1.125502 -1.305639 12.170966
-1.110940 -1.288305 12.170449
-1.096609 -1.270773 12.169965
-1.082279 -1.253242 12.169481
-1.067949 -1.235711 12.168997
-1.053618 -1.218179 12.168513
-1.021669 -1.176019 12.167589
-1.008044 -1.157932 12.167200
-0.994418 -1.139845 12.166811
-0.981115 -1.121526 12.166464
-0.968324 -1.102837 12.166186
-0.955534 -1.084149 12.165907
-0.925654 -1.040489 12.165255
-0.913801 -1.021193 12.165096
-0.902007 -1.001858 12.164945
-0.890214 -0.982524 12.164794
-0.878420 -0.963189 12.164643
-0.866817 -0.943746 12.164515
-0.842067 -0.896982 12.164510
-0.831472 -0.876965 12.164507
-0.820878 -0.856947 12.164505
-0.811316 -0.836430 12.164626
-0.802169 -0.815712 12.164797
-0.793022 -0.794994 12.164968
-0.772122 -0.746410 12.165422
-0.764721 -0.725008 12.165794
-0.757321 -0.703606 12.166166
-0.749920 -0.682204 12.166538
-0.742520 -0.660803 12.166910
-0.736137 -0.639105 12.167394
-0.723725 -0.587692 12.168800
-0.718412 -0.565684 12.169402
-0.713205 -0.543657 12.170015
-0.710335 -0.521207 12.170872
-0.707465 -0.498758 12.171729
-0.704595 -0.476309 12.172586
-0.699544 -0.423762 12.174751
-0.699430 -0.401142 12.175880
-0.699315 -0.378522 12.177009
-0.699201 -0.355903 12.178137
-0.699086 -0.333283 12.179266
-0.701390 -0.310821 12.180618
-0.708004 -0.258429 12.183888
-0.710836 -0.236002 12.185288
-0.714782 -0.213799 12.186783
-0.720561 -0.191963 12.188435
-0.726340 -0.170127 12.190086
-0.732119 -0.148290 12.191738
-0.748194 -0.098157 12.195797
-0.756724 -0.077260 12.197664
-0.765254 -0.056363 12.199531
-0.773785 -0.035465 12.201398
-0.782693 -0.014752 12.203291
-0.793637 0.004971 12.205329
-0.819204 0.051048 12.210090
-0.830148 0.070771 12.212128
-0.842533 0.089583 12.214257
-0.855497 0.108026 12.216423
-0.868462 0.126470 12.218589
-0.881427 0.144914 12.220756
-0.913796 0.186373 12.225933
-0.928402 0.203535 12.228191
-0.943008 0.220696 12.230449
-0.957614 0.237857 12.232708
-0.972861 0.254423 12.234997
-0.988780 0.270364 12.237319
-1.025970 0.307605 12.242744
-1.041935 0.323498 12.245068
-1.058901 0.338313 12.247433
-1.075867 0.353128 12.249798
-1.092833 0.367943 12.252163
-1.109800 0.382759 12.254529
-1.150771 0.415738 12.260099
-1.168574 0.429532 12.262493
-1.186377 0.443326 12.264887
-1.204180 0.457120 12.267280
-1.222532 0.470164 12.269688
-1.241007 0.483039 12.272100
-1.284170 0.513117 12.277734
-1.302848 0.525687 12.280149
-1.321870 0.537739 12.282571
-1.340892 0.549790 12.284993
-1.359914 0.561841 12.287416
-1.378937 0.573892 12.289838
-1.424237 0.600623 12.295507
-1.443707 0.611935 12.297934
-1.463177 0.623247 12.300362
-1.482700 0.634464 12.302790
-1.502541 0.645112 12.305220
-1.522382 0.655759 12.307649
32 NaN NaN
-1.744986 -1.896448 12.200309
-1.661578 -1.827500 12.195824
-1.579328 -1.757163 12.191520
-1.498371 -1.685331 12.187414
-1.418864 -1.611885 12.183528
-1.340998 -1.536692 12.179887
-1.264995 -1.459603 12.176519
-1.191129 -1.380452 12.173458
-1.119730 -1.299059 12.170746
-1.051203 -1.215224 12.168431
-0.986047 -1.128733 12.166572
-0.924886 -1.039367 12.165238
-0.868494 -0.946915 12.164516
-0.817838 -0.851203 12.164504
-0.774106 -0.752147 12.165322
-0.738726 -0.649832 12.167101
-0.713329 -0.544630 12.169977
-0.699613 -0.437333 12.174074
-0.699066 -0.329231 12.179468
-0.712596 -0.222060 12.186159
-0.740213 -0.117708 12.194051
-0.780981 -0.017838 12.202972
-0.833291 0.076436 12.212713
-0.895267 0.164602 12.223068
-0.965095 0.246647 12.233864
-1.041210 0.322865 12.244967
-1.122334 0.393704 12.256276
-1.207462 0.459663 12.267722
-1.295811 0.521230 12.279253
-1.386774 0.578857 12.290836
-1.479882 0.632951 12.302445
-1.574763 0.683870 12.314063
-1.177113 -1.421751 7.316262
-1.104438 -1.312278 7.357572
-1.036734 -1.200081 7.399974
-0.974708 -1.085071 7.443507
-0.919959 -0.966911 7.488317
-0.873477 -0.845736 7.534361
-0.835813 -0.721956 7.581486
-0.808377 -0.595882 7.629587
-0.794055 -0.467981 7.678511
-0.792184 -0.339464 7.727788
-0.803481 -0.211400 7.777014
-0.829942 -0.085355 7.825608
-0.870355 0.037375 7.873061
-0.923170 0.155900 7.919017
-0.987739 0.269231 7.963090
-1.063490 0.376356 8.004888
-1.147600 0.477881 8.044616
-1.238866 0.573885 8.082294
-1.336959 0.663836 8.117713
-1.176045 -1.420169 7.316859
-1.105450 -1.313892 7.356963
-1.103426 -1.310664 7.358182
-1.037683 -1.201728 7.399351
-1.035786 -1.198434 7.400597
-0.975586 -1.086752 7.442871
-0.973830 -1.083391 7.444144
-0.920669 -0.968659 7.487653
-0.919249 -0.965163 7.488981
-0.874088 -0.847516 7.533684
-0.872866 -0.843956 7.535038
-0.836314 -0.723765 7.580796
-0.835313 -0.720146 7.582175
-0.808621 -0.597736 7.628878
-0.808132 -0.594028 7.630295
-0.794155 -0.469847 7.677796
-0.793955 -0.466116 7.679225
-0.792132 -0.341330 7.727071
-0.792237 -0.337597 7.728504
-0.803270 -0.213256 7.776300
-0.803692 -0.209544 7.777728
-0.829413 -0.087154 7.824913
-0.830471 -0.083556 7.826303
-0.869674 0.035622 7.872382
-0.871036 0.039129 7.873740
-0.922347 0.154201 7.918357
-0.923993 0.157600 7.919676
-0.986669 0.267657 7.962477
-0.988810 0.270805 7.963704
-1.062315 0.374848 8.004299
-1.064665 0.377863 8.005477
-1.146334 0.476440 8.044052
-1.148867 0.479322 8.045181
-1.237519 0.572508 8.081753
-1.240212 0.575261 8.082834
-1.335482 0.662581 8.117218
-1.172669 -1.415168 7.318746
-1.108647 -1.318993 7.355036
-1.100229 -1.305563 7.360109
-1.040681 -1.206933 7.397383
-1.032788 -1.193228 7.402565
-0.978361 -1.092064 7.440859
-0.971056 -1.078079 7.446155
-0.922913 -0.974184 7.485555
-0.917005 -0.959639 7.491079
-0.876018 -0.853142 7.531544
-0.870936 -0.838329 7.537178
-0.837895 -0.729485 7.578617
-0.833732 -0.714427 7.584354
-0.809688 -0.603554 7.626656
-0.807360 -0.588168 7.632536
-0.794472 -0.475742 7.675538
-0.793638 -0.460220 7.681484
-0.791966 -0.347230 7.724807
-0.792403 -0.331698 7.730769
-0.802603 -0.219123 7.774043
-0.804359 -0.203677 7.779985
-0.827740 -0.092841 7.822716
-0.832144 -0.077870 7.828500
-0.867522 0.030079 7.870236
-0.873189 0.044672 7.875886
-0.919745 0.148830 7.916273
-0.926594 0.162971 7.921761
-0.983333 0.262656 7.960527
-0.992194 0.275779 7.965644
-1.058602 0.370084 8.002437
-1.068379 0.382628 8.007340
-1.142330 0.471885 8.042267
-1.152870 0.483877 8.046966
-1.233262 0.568158 8.080045
-1.244540 0.579547 8.084519
-1.330814 0.658617 8.115654
-1.165134 -1.404006 7.322957
-1.155213 -1.389310 7.328501
-1.145292 -1.374614 7.334045
-1.135371 -1.359918 7.339589
-1.125449 -1.345221 7.345133
-1.115784 -1.330381 7.350735
-1.093092 -1.294175 7.364410
-1.083696 -1.279183 7.370073
-1.074299 -1.264190 7.375735
-1.064993 -1.249150 7.381417
-1.056183 -1.233851 7.387203
-1.047372 -1.218553 7.392988
-1.026096 -1.181608 7.406960
-1.017286 -1.166310 7.412745
-1.009016 -1.150754 7.418635
-1.000862 -1.135143 7.424546
-0.992708 -1.119532 7.430458
-0.984554 -1.103921 7.436369
-0.965224 -1.066067 7.450708
-0.957806 -1.050141 7.456747
-0.950387 -1.034215 7.462786
-0.942969 -1.018289 7.468826
-0.935550 -1.002363 7.474865
-0.928132 -0.986437 7.480904
-0.911997 -0.947306 7.495762
-0.905402 -0.931070 7.501928
-0.898808 -0.914833 7.508095
-0.892214 -0.898596 7.514261
-0.886000 -0.882236 7.520478
-0.880327 -0.865701 7.526767
-0.866627 -0.825771 7.541954
-0.860954 -0.809236 7.548244
-0.855365 -0.792678 7.554542
-0.850718 -0.775869 7.560946
-0.846071 -0.759061 7.567350
-0.841424 -0.742252 7.573754
-0.830202 -0.701660 7.589218
-0.826406 -0.684675 7.595697
-0.822894 -0.667631 7.602202
-0.819381 -0.650587 7.608707
-0.815869 -0.633543 7.615211
-0.812356 -0.616499 7.621716
-0.805635 -0.575087 7.637537
-0.803364 -0.557864 7.644122
-0.801092 -0.540641 7.650707
-0.798821 -0.523418 7.657292
-0.796550 -0.506195 7.663877
-0.795180 -0.488902 7.670497
-0.792930 -0.447060 7.686525
-0.791998 -0.429733 7.693162
-0.791067 -0.412406 7.699799
-0.790620 -0.395075 7.706443
-0.791108 -0.377737 7.713098
-0.791595 -0.360399 7.719752
-0.792773 -0.318529 7.735823
-0.793277 -0.301192 7.742478
-0.795236 -0.283949 7.749110
-0.797196 -0.266706 7.755742
-0.799155 -0.249463 7.762374
-0.801115 -0.232220 7.769006
-0.806859 -0.190723 7.784977
-0.810308 -0.173689 7.791543
-0.813757 -0.156656 7.798108
-0.817205 -0.139622 7.804674
-0.820654 -0.122589 7.811240
-0.824102 -0.105555 7.817805
-0.835878 -0.065176 7.833403
-0.840794 -0.048464 7.839859
-0.845710 -0.031752 7.846316
-0.850626 -0.015040 7.852772
-0.856393 0.001417 7.859138
-0.862718 0.017707 7.865445
-0.877993 0.057044 7.880677
-0.884318 0.073334 7.886984
-0.891003 0.089486 7.893242
-0.898648 0.105271 7.899368
-0.906293 0.121056 7.905494
-0.913939 0.136841 7.911620
-0.932401 0.174960 7.926414
-0.941186 0.190213 7.932347
-0.950041 0.205434 7.938267
-0.958897 0.220654 7.944188
-0.967752 0.235875 7.950109
-0.976608 0.251096 7.956030
-0.999748 0.286883 7.969974
-1.009693 0.301503 7.975674
-1.019639 0.316123 7.981375
-1.029584 0.330742 7.987075
-1.039530 0.345362 7.992776
-1.050312 0.359448 7.998280
-1.076668 0.393263 8.011497
-1.087582 0.407266 8.016970
-1.098496 0.421269 8.022443
-1.109863 0.434943 8.027794
-1.121629 0.448330 8.033039
-1.133394 0.461717 8.038284
-1.161806 0.494045 8.050949
-1.173722 0.507310 8.056149
-1.186232 0.520095 8.061169
-1.198741 0.532879 8.066190
-1.211251 0.545664 8.071211
-1.223761 0.558448 8.076231
-1.254534 0.588816 8.088167
-1.267692 0.601020 8.092972
-1.280849 0.613224 8.097776
-1.294007 0.625428 8.102580
-1.307165 0.637632 8.107384
-1.320392 0.649768 8.112162
25 NaN NaN
-1.177380 -1.422146 7.316113
-1.120364 -1.337688 7.347975
-1.066362 -1.251526 7.380518
-1.015730 -1.163607 7.413767
-0.968870 -1.073894 7.447740
-0.926238 -0.982372 7.482446
-0.888343 -0.889065 7.517880
-0.855743 -0.794047 7.554021
-0.829040 -0.697457 7.590819
-0.808857 -0.599519 7.628196
-0.795807 -0.500556 7.666032
-0.790453 -0.400998 7.704169
-0.793256 -0.301377 7.742407
-0.804515 -0.202305 7.780513
-0.824329 -0.104436 7.818237
-0.852575 -0.008415 7.855331
-0.888918 0.085181 7.891571
-0.932846 0.175880 7.926771
-0.983730 0.263338 7.960792
-1.040879 0.347345 7.993549
-1.103593 0.427809 8.024999
-1.171203 0.504736 8.055138
-1.243092 0.578203 8.083990
-1.318705 0.648336 8.111597
-1.397558 0.715290 8.138016
