0.199486 0.199460 0.199014 0.197053 0.193946 0.190945 0.187944 0.184943 0.182131 0.180357 0.179986 0.179964 0.179943 0.179573 0.177948 0.175375 0.173171 0.170968 0.168764 0.166899 0.165723 0.165481 0.165467 
0.199494 0.199502 0.199594 0.199759 0.200021 0.199790 0.199558 0.199326 0.199361 0.199384 0.199422 0.199425 0.199428 0.199463 0.199919 0.200641 0.202084 0.203528 0.204971 0.206825 0.207996 0.208270 0.208293 0.208316 0.208589 0.209862 0.211880 0.213887 0.215894 0.217901 0.219635 0.220730 0.220947 0.220965 0.220983 0.221194 0.222000 0.223276 0.223919 0.224561 0.225203 0.225277 0.225323 0.225298 0.225295 0.225293 0.225267 0.225072 0.224761 0.223961 0.223162 0.222362 0.221097 0.220298 0.220096 0.220079 0.220061 0.219857 0.218830 0.217203 0.215152 0.213101 0.211051 0.208719 0.207247 0.206913 0.206884 0.206856 0.206524 0.205016 0.202628 0.200272 0.197915 0.195559 0.193299 0.191873 0.191564 0.191538 0.191512 0.191206 0.189852 0.187708 0.185696 0.183684 0.181671 0.179785 0.178595 0.178337 0.178316 0.178294 0.178038 0.176915 0.175137 0.173470 0.171804 0.170137 0.168579 0.167595 0.167383 0.167365 
0.199496 0.199513 0.199815 0.199776 0.199714 0.198147 0.196581 0.195014 0.192920 0.191598 0.191251 0.191232 0.191213 0.190856 0.188960 0.185955 0.183114 0.180272 0.177431 0.175413 0.174139 0.173889 0.173875 0.173862 0.173615 0.172502 0.170738 0.168047 0.165357 0.162666 0.156679 0.152901 0.151931 0.151879 0.151825 0.150834 0.146246 0.138975 0.134131 0.129287 0.124444 0.122723 0.121637 0.121464 0.121455 0.121446 0.121283 0.120689 0.119746 0.119180 0.118615 0.118049 0.117681 0.117449 0.117405 0.117403 0.117400 0.117357 0.117179 0.116896 0.116673 0.116449 0.116226 0.116042 0.115926 0.115903 0.115902 0.115900 0.115877 0.115776 0.115617 0.115481 0.115346 0.115210 0.115095 0.115023 0.115008 0.115007 0.115007 0.114992 0.114930 0.114830 0.114748 0.114665 0.114583 0.114515 0.114473 0.114464 0.114464 0.114463 0.114455 0.114419 0.114362 0.114317 0.114272 0.114227 0.114193 0.114171 0.114167 0.114167 
0.179959 0.179939 0.179847 0.179602 0.179278 0.178928 0.178578 0.178228 0.177843 0.177554 0.177432 0.177406 0.177379 0.177256 0.176942 0.176526 0.176090 0.175654 0.175218 0.174767 0.174426 0.174292 0.174263 0.174235 0.174101 0.173774 0.173340 0.172921 0.172501 0.172082 0.171690 0.171395 0.171277 0.171252 0.171229 0.171120 0.170917 0.170647 0.170377 0.170106 0.169836 0.169567 0.169364 0.169282 0.169264 0.169246 0.169164 0.168958 0.168685 0.168406 0.168127 0.167848 0.167565 0.167353 0.167265 0.167247 0.167228 0.167141 0.166924 0.166636 0.166335 0.166033 0.165732 0.165423 0.165191 0.165097 0.165076 0.165056 0.164961 0.164725 0.164411 0.164093 0.163775 0.163457 0.163142 0.162905 0.162811 0.162791 0.162771 0.162677 0.162447 0.162143 0.161855 0.161567 0.161280 0.161014 0.160813 0.160737 0.160721 0.160705 0.160629 0.160445 0.160201 0.159991 0.159781 0.159571 0.159388 0.159251 0.159199 0.159188 0.159177 0.159126 0.158999 0.158830 0.158688 0.158546 0.158404 0.158280 0.158187 0.158151 0.158144 0.158136 0.158101 0.158013 0.157896 0.157794 0.157693 0.157591 0.157500 0.157431 0.157405 0.157399 0.157393 0.157366 0.157300 0.157212 0.157132 0.157052 0.156973 0.156900 0.156845 0.156823 0.156818 0.156813 0.156791 0.156738 0.156666 0.156598 0.156530 0.156462 0.156398 0.156349 0.156330 0.156325 0.156321 0.156301 0.156253 0.156188 0.156124 0.156060 0.155997 0.155934 0.155887 0.155867 0.155863 
0.220940 0.220839 0.220459 0.219575 0.218406 0.217289 0.216172 0.215056 0.213993 0.213189 0.212857 0.212768 0.212681 0.212351 0.211591 0.210586 0.209621 0.208656 0.207690 0.206762 0.206059 0.205768 0.205690 0.205613 0.205324 0.204653 0.203766 0.202918 0.202070 0.201222 0.200412 0.199800 0.199546 0.199479 0.199412 0.199160 0.198582 0.197817 0.197092 0.196367 0.195642 0.194958 0.194440 0.194226 0.194169 0.194112 0.193896 0.193395 0.192733 0.192102 0.191471 0.190840 0.190239 0.189784 0.189597 0.189547 0.189498 0.189313 0.188885 0.188320 0.187786 0.187252 0.186717 0.186212 0.185830 0.185669 0.185627 0.185584 0.185424 0.185053 0.184564 0.184098 0.183631 0.183165 0.182721 0.182385 0.182247 0.182211 0.182174 0.182038 0.181718 0.181295 0.180895 0.180495 0.180095 0.179714 0.179426 0.179305 0.179273 0.179241 0.179121 0.178858 0.178509 0.178214 0.177918 0.177622 0.177372 0.177183 0.177104 0.177084 0.177063 0.176985 0.176804 0.176566 0.176360 0.176154 0.175948 0.175746 0.175592 0.175538 0.175524 0.175509 0.175455 0.175324 0.175151 0.174986 0.174822 0.174657 0.174508 0.174396 0.174348 0.174335 0.174322 0.174274 0.174167 0.174026 0.173893 0.173759 0.173626 0.173502 0.173409 0.173372 0.173362 0.173352 0.173314 0.173226 0.173109 0.172999 0.172890 0.172781 0.172674 0.172594 0.172560 0.172551 0.172541 0.172507 0.172436 0.172341 0.172244 0.172147 0.172051 0.171964 0.171898 0.171870 0.171863 0.171855 0.171827 0.171759 0.171670 0.171590 0.171509 0.171429 0.171346 0.171284 0.171260 0.171254 0.171248 0.171224 0.171166 0.171089 0.171013 0.170937 0.170861 0.170786 0.170730 0.170706 0.170699 
