-2.208282 -1.475874 5.605125
-1.749925 -1.496601 6.911870
-1.228565 -1.551860 8.195690
-0.957001 -1.471166 9.547419
-0.923155 -1.258893 10.917673
-0.843731 -1.070815 12.289630
-0.805612 -0.940096 13.669880
-0.805890 -0.850424 15.054135
-0.812290 -0.776904 16.439354
-2.207807 -1.475802 5.607066
-1.750704 -1.496505 6.910030
-1.749146 -1.496696 6.913709
-1.229212 -1.551840 8.193798
-1.227918 -1.551881 8.197583
-0.957113 -1.471429 9.545440
-0.956889 -1.470902 9.549399
-0.923229 -1.259202 10.915698
-0.923082 -1.258585 10.919647
-0.843840 -1.071046 12.287647
-0.843622 -1.070585 12.291614
-0.805624 -0.940247 13.667886
-0.805600 -0.939946 13.671875
-0.805883 -0.850537 15.052138
-0.805897 -0.850311 15.056131
-0.812281 -0.777009 16.437356
-2.200861 -1.474758 5.635454
-1.762101 -1.495106 6.883135
-1.737748 -1.498096 6.940604
-1.238666 -1.551542 8.166126
-1.218464 -1.552179 8.225255
-0.959070 -1.475115 9.516496
-0.955250 -1.467047 9.578341
-0.924302 -1.263712 10.886824
-0.921960 -1.254093 10.948522
-0.845432 -1.074414 12.258641
-0.842029 -1.067216 12.320619
-0.805828 -0.942487 13.638729
-0.805424 -0.937739 13.701034
-0.805781 -0.852184 15.022941
-0.806003 -0.848677 15.085329
-0.812143 -0.778551 16.408154
-2.167836 -1.470693 5.764742
-2.108691 -1.467922 5.967798
-2.042388 -1.469053 6.168654
-1.970301 -1.473376 6.367471
-1.893709 -1.480210 6.564530
-1.813767 -1.488925 6.760181
-1.685305 -1.504714 7.063206
-1.601921 -1.515358 7.257321
-1.519022 -1.525715 7.451659
-1.437636 -1.535198 7.646679
-1.358824 -1.543212 7.842816
-1.283697 -1.549139 8.040465
-1.176784 -1.552720 8.352088
-1.116801 -1.550256 8.554909
-1.065123 -1.543301 8.759891
-1.023157 -1.531188 8.966831
-0.991623 -1.513620 9.175229
-0.969282 -1.491263 9.384365
-0.948629 -1.448979 9.710455
-0.941833 -1.418297 9.919637
-0.938081 -1.385775 10.128622
-0.935730 -1.352151 10.337454
-0.933134 -1.318148 10.546222
-0.928647 -1.284497 10.755013
-0.916090 -1.233904 11.080367
-0.905196 -1.202763 11.289312
-0.892818 -1.172758 11.498341
-0.879588 -1.143956 11.707488
-0.866144 -1.116424 11.916792
-0.853128 -1.090226 12.126293
-0.835240 -1.052238 12.453113
-0.826175 -1.029748 12.663252
-0.819046 -1.008673 12.873613
-0.813626 -0.988914 13.084152
-0.809685 -0.970376 13.294836
-0.806996 -0.952959 13.505634
-0.804760 -0.927828 13.834175
-0.804241 -0.912836 14.045178
-0.804172 -0.898622 14.256234
-0.804367 -0.885100 14.467336
-0.804766 -0.872181 14.678476
-0.805340 -0.859780 14.889646
-0.806518 -0.841303 15.218636
-0.807415 -0.829856 15.429859
-0.808389 -0.818639 15.641094
-0.809413 -0.807570 15.852336
-0.810460 -0.796568 16.063582
-0.811501 -0.785551 16.274828
124 NaN NaN
-2.208401 -1.475892 5.604639
-2.184338 -1.472274 5.702980
-2.158195 -1.469769 5.800823
-2.130136 -1.468296 5.898155
-2.100323 -1.467776 5.994975
-2.068912 -1.468128 6.091289
-2.036059 -1.469274 6.187115
-2.001909 -1.471136 6.282476
-1.966608 -1.473638 6.377401
-1.930291 -1.476707 6.471926
-1.893093 -1.480269 6.566091
-1.855141 -1.484255 6.659937
-1.816560 -1.488594 6.753511
-1.777471 -1.493220 6.846861
-1.737991 -1.498065 6.940034
-1.698237 -1.503065 7.033083
-1.658322 -1.508154 7.126058
-1.618360 -1.513267 7.219011
-1.578461 -1.518342 7.311994
-1.538739 -1.523313 7.405058
-1.499307 -1.528116 7.498254
-1.460280 -1.532686 7.591632
-1.421774 -1.536958 7.685240
-1.383909 -1.540864 7.779125
-1.346806 -1.544337 7.873330
-1.310591 -1.547308 7.967898
-1.275395 -1.549705 8.062866
-1.241352 -1.551457 8.158266
-1.208599 -1.552490 8.254127
-1.177280 -1.552731 8.350472
-1.147542 -1.552102 8.447314
-1.119536 -1.550528 8.544660
-1.093417 -1.547932 8.642508
-1.069341 -1.544239 8.740842
-1.047465 -1.539375 8.839638
-1.027945 -1.533267 8.938857
-1.010900 -1.525865 9.038444
-0.996229 -1.517227 9.138309
-0.983745 -1.507451 9.238367
-0.973254 -1.496637 9.338547
-0.964562 -1.484880 9.438794
-0.957474 -1.472279 9.539064
-0.951795 -1.458925 9.639327
-0.947334 -1.444909 9.739562
-0.943901 -1.430321 9.839756
-0.941309 -1.415246 9.939903
-0.939374 -1.399768 10.040003
-0.937914 -1.383969 10.140062
-0.936750 -1.367928 10.240086
-0.935702 -1.351725 10.340085
-0.934593 -1.335439 10.440070
-0.933243 -1.319149 10.540051
-0.931474 -1.302933 10.640038
-0.929106 -1.286871 10.740037
-0.926039 -1.271019 10.840051
-0.922323 -1.255393 10.940078
-0.918025 -1.239999 11.040118
-0.913214 -1.224847 11.140171
-0.907958 -1.209944 11.240240
-0.902326 -1.195298 11.340326
-0.896388 -1.180917 11.440433
-0.890215 -1.166808 11.540564
-0.883875 -1.152979 11.640724
-0.877441 -1.139437 11.740917
-0.870981 -1.126190 11.841148
-0.864568 -1.113244 11.941421
-0.858273 -1.100606 12.041741
-0.852165 -1.088284 12.142112
-0.846317 -1.076284 12.242537
-0.840799 -1.064615 12.343020
-0.835682 -1.053281 12.443563
-0.831031 -1.042290 12.544166
-0.826856 -1.031637 12.644826
-0.823132 -1.021311 12.745538
-0.819832 -1.011302 12.846297
-0.816933 -1.001599 12.947099
-0.814407 -0.992190 13.047938
-0.812232 -0.983066 13.148811
-0.810380 -0.974215 13.249716
-0.808827 -0.965627 13.350648
-0.807547 -0.957290 13.451605
-0.806517 -0.949195 13.552584
-0.805710 -0.941330 13.653584
-0.805102 -0.933684 13.754602
-0.804668 -0.926248 13.855636
-0.804382 -0.919010 13.956686
-0.804221 -0.911959 14.057749
-0.804160 -0.905086 14.158824
-0.804173 -0.898378 14.259910
-0.804241 -0.891827 14.361007
-0.804359 -0.885423 14.462113
-0.804523 -0.879158 14.563228
-0.804731 -0.873021 14.664350
-0.804980 -0.867005 14.765480
-0.805267 -0.861101 14.866616
-0.805588 -0.855299 14.967758
-0.805941 -0.849590 15.068905
-0.806323 -0.843967 15.170057
-0.806730 -0.838419 15.271213
-0.807160 -0.832938 15.372372
-0.807609 -0.827515 15.473535
-0.808074 -0.822140 15.574700
-0.808554 -0.816805 15.675867
-0.809043 -0.811502 15.777035
-0.809540 -0.806220 15.878205
-0.810041 -0.800950 15.979375
-0.810544 -0.795685 16.080546
-0.811045 -0.790415 16.181716
-0.811541 -0.785130 16.282886
-0.812029 -0.779823 16.384054
-0.812507 -0.774483 16.485221
-0.812970 -0.769102 16.586386
-0.813417 -0.763671 16.687548
-0.813844 -0.758182 16.788707
-0.814248 -0.752624 16.889862
-0.814625 -0.746989 16.991013
-0.814974 -0.741268 17.092160
-0.815291 -0.735453 17.193301
-0.815572 -0.729533 17.294436
-0.815816 -0.723501 17.395565
-0.816018 -0.717348 17.496686
-0.816176 -0.711063 17.597800
-0.816287 -0.704639 17.698905
-0.816348 -0.698067 17.800000
-2.207975 -1.475907 5.604377
-1.682863 -1.485327 5.178030
-1.297472 -1.470685 4.621559
-1.052786 -1.436796 3.990370
-0.931946 -1.388734 3.324684
-0.888621 -1.332861 2.649385
-0.847798 -1.276745 1.973880
-0.788950 -1.222350 1.299536
-0.727976 -1.168161 0.625360
-2.206273 -1.475967 5.603329
-1.684220 -1.485335 5.179499
-1.681506 -1.485318 5.176561
-1.298375 -1.470761 4.623342
-1.296568 -1.470608 4.619776
-1.053333 -1.436917 3.992290
-1.052239 -1.436675 3.988451
-0.932148 -1.388891 3.326667
-0.931743 -1.388577 3.322700
-0.888712 -1.333029 2.651376
-0.888529 -1.332693 2.647394
-0.847951 -1.276907 1.975868
-0.847646 -1.276583 1.971893
-0.789135 -1.222509 1.301522
-0.788765 -1.222191 1.297551
-0.728145 -1.168322 0.627347
-2.189190 -1.476569 5.592803
-1.697841 -1.485417 5.194245
-1.667885 -1.485236 5.161815
-1.307445 -1.471530 4.641234
-1.287499 -1.469839 4.601884
-1.058825 -1.438129 4.011561
-1.046883 -1.435448 3.969144
-0.934180 -1.390471 3.346576
-0.929711 -1.386997 3.302792
-0.889624 -1.334716 2.671359
-0.887610 -1.331007 2.627412
-0.849483 -1.278535 1.995818
-0.846113 -1.274955 1.951943
-0.790990 -1.224106 1.321446
-0.786910 -1.220594 1.277627
-0.729839 -1.169934 0.647285
-2.130991 -1.478621 5.556943
-2.048403 -1.481112 5.501287
-1.968382 -1.483049 5.441984
-1.891077 -1.484431 5.379170
-1.816618 -1.485261 5.313000
-1.745112 -1.485544 5.243647
-1.623120 -1.484682 5.110128
-1.560288 -1.483484 5.032843
-1.500611 -1.481786 4.953104
-1.444094 -1.479604 4.871104
-1.390726 -1.476955 4.787033
-1.340483 -1.473859 4.701070
-1.256935 -1.467175 4.540767
-1.215263 -1.462917 4.450372
-1.176544 -1.458279 4.358689
-1.140721 -1.453280 4.265854
-1.107788 -1.447929 4.171974
-1.077672 -1.442243 4.077173
-1.030061 -1.431104 3.902997
-1.007456 -1.424567 3.806191
-0.987432 -1.417749 3.708838
-0.969938 -1.410663 3.611017
-0.954851 -1.403327 3.512814
-0.941960 -1.395767 3.414314
-0.923328 -1.381564 3.234918
-0.915272 -1.373528 3.135939
-0.908444 -1.365374 3.036877
-0.902585 -1.357128 2.937759
-0.897432 -1.348816 2.838608
-0.892724 -1.340462 2.739437
-0.884478 -1.325264 2.559334
-0.879613 -1.316924 2.460170
-0.874208 -1.308636 2.361030
-0.868208 -1.300404 2.261919
-0.861655 -1.292223 2.162839
-0.854601 -1.284091 2.063790
-0.840672 -1.269430 1.883993
-0.832491 -1.261406 1.785021
-0.824009 -1.253410 1.686073
-0.815276 -1.245439 1.587144
-0.806346 -1.237488 1.488231
-0.797271 -1.229550 1.389330
-0.780590 -1.215155 1.209746
-0.771383 -1.207230 1.110856
-0.762229 -1.199300 1.011962
-0.753181 -1.191359 0.913059
-0.744291 -1.183404 0.814143
-0.735611 -1.175427 0.715210
60 NaN NaN
-2.208401 -1.475892 5.604639
-2.120967 -1.478975 5.550767
-2.036104 -1.481474 5.492901
-1.953996 -1.483383 5.431168
-1.874804 -1.484702 5.365721
-1.798667 -1.485433 5.296735
-1.725698 -1.485584 5.224403
-1.655983 -1.485165 5.148930
-1.589582 -1.484189 5.070529
-1.526533 -1.482672 4.989417
-1.466849 -1.480632 4.905807
-1.410526 -1.478087 4.819911
-1.357542 -1.475059 4.731931
-1.307863 -1.471566 4.642059
-1.261443 -1.467629 4.550480
-1.218227 -1.463269 4.457363
-1.178159 -1.458504 4.362869
-1.141174 -1.453354 4.267146
-1.107211 -1.447835 4.170329
-1.076205 -1.441966 4.072545
-1.048095 -1.435761 3.973910
-1.022822 -1.429235 3.874531
-1.000332 -1.422402 3.774505
-0.980573 -1.415275 3.673925
-0.963490 -1.407866 3.572875
-0.948902 -1.400201 3.471454
-0.936546 -1.392310 3.369754
-0.926145 -1.384225 3.267850
-0.917417 -1.375978 3.165801
-0.910078 -1.367597 3.063654
-0.903841 -1.359111 2.961442
-0.898417 -1.350549 2.859190
-0.893520 -1.341937 2.756915
-0.888862 -1.333304 2.654631
-0.884157 -1.324674 2.552349
-0.879116 -1.316076 2.450080
-0.873481 -1.307534 2.347838
-0.867209 -1.299051 2.245627
-0.860355 -1.290624 2.143450
-0.852977 -1.282247 2.041304
-0.845134 -1.273914 1.939190
-0.836882 -1.265621 1.837105
-0.828279 -1.257361 1.735046
-0.819382 -1.249130 1.633010
-0.810250 -1.240921 1.530993
-0.800939 -1.232730 1.428990
-0.791507 -1.224551 1.326998
-0.782012 -1.216378 1.225011
-0.772510 -1.208205 1.123025
-0.763060 -1.200028 1.021034
-0.753718 -1.191840 0.919034
-0.744543 -1.183636 0.817021
-0.735591 -1.175410 0.714989
-0.726921 -1.167157 0.612935
-0.718589 -1.158871 0.510856
-0.710653 -1.150547 0.408748
-0.703171 -1.142180 0.306610
-0.696200 -1.133763 0.204439
-0.689799 -1.125293 0.102236
-0.684023 -1.116764 0.000000
-2.208756 -1.476236 5.604713
-3.475624 -1.647230 5.257258
-4.267877 -0.717156 4.460595
-4.911524 0.451887 3.858035
-5.568897 1.621096 3.267935
-6.225771 2.787164 2.671537
-6.881065 3.933450 2.036389
-7.619217 4.996919 1.351345
-8.480489 5.906954 0.594846
-9.479707 6.585190 -0.230626
-10.592995 6.984586 -1.091523
-11.772686 7.117686 -1.947607
-2.210176 -1.477613 5.605009
-3.474256 -1.648219 5.258331
-3.476992 -1.646241 5.256185
-4.267038 -0.718673 4.461591
-4.268716 -0.715638 4.459598
-4.910641 0.450293 3.858859
-4.912407 0.453482 3.857211
-5.567991 1.619503 3.268738
-5.569802 1.622688 3.267133
-6.224923 2.785564 2.672386
-6.226620 2.788763 2.670687
-6.880123 3.931930 2.037284
-6.882007 3.934970 2.035494
-7.618137 4.995549 1.352324
-7.620297 4.998289 1.350367
-8.479217 5.905856 0.595930
-8.481761 5.908053 0.593761
-9.478261 6.584439 -0.229467
-9.481153 6.585941 -0.231786
-10.591419 6.984231 -1.090344
-10.594571 6.984940 -1.092702
-11.771050 7.117675 -1.946456
-2.232049 -1.498826 5.609563
-3.453187 -1.663455 5.274857
-3.498061 -1.631005 5.239659
-4.254042 -0.741683 4.477424
-4.281641 -0.692261 4.444248
-4.897037 0.425735 3.871548
-4.926012 0.478039 3.844522
-5.554054 1.594965 3.281099
-5.583745 1.647222 3.254771
-6.211854 2.760926 2.685475
-6.239706 2.813389 2.657591
-6.865619 3.908506 2.051072
-6.896521 3.958386 2.021701
-7.601501 4.974446 1.367393
-7.637037 5.019264 1.335236
-8.459624 5.888942 0.612639
-8.501354 5.924967 0.577052
-9.455983 6.572866 -0.211608
-9.503581 6.597147 -0.249691
-10.567141 6.978771 -1.072180
-10.618848 6.990401 -1.110867
-11.745891 7.117213 -1.928681
-2.337891 -1.590314 5.625274
-2.530262 -1.702726 5.623183
-2.739741 -1.771740 5.590228
-2.953125 -1.798694 5.531376
-3.160015 -1.783499 5.449807
-3.348945 -1.723936 5.347807
-3.587758 -1.554190 5.162579
-3.720991 -1.423181 5.039921
-3.852528 -1.288991 4.918857
-3.979022 -1.150101 4.797758
-4.092732 -1.002415 4.674483
-4.193833 -0.845275 4.551872
-4.340868 -0.583942 4.376003
-4.435522 -0.407385 4.276890
-4.532637 -0.227476 4.186543
-4.632851 -0.046716 4.101407
-4.734253 0.133752 4.017053
-4.834553 0.313128 3.929143
-4.988297 0.590438 3.786305
-5.087569 0.768793 3.695195
-5.187670 0.947440 3.605577
-5.288312 1.126043 3.516476
-5.389240 1.304392 3.427190
-5.490279 1.482566 3.337680
-5.647699 1.759516 3.198183
-5.749807 1.937113 3.108740
-5.853026 2.114235 3.019631
-5.955740 2.291390 2.930009
-6.055677 2.469271 2.838710
-6.151980 2.648031 2.745242
-6.300060 2.925876 2.597540
-6.397246 3.103207 2.502279
-6.496026 3.279412 2.406566
-6.595965 3.454487 2.309988
-6.697137 3.628292 2.212404
-6.799877 3.800600 2.113813
-6.963411 4.065185 1.958284
-7.071189 4.232611 1.856706
-7.181150 4.397779 1.753782
-7.293463 4.560449 1.649429
-7.408287 4.720371 1.543573
-7.525836 4.877203 1.436097
-7.714392 5.114452 1.265542
-7.839346 5.262263 1.153729
-7.967380 5.406039 1.040152
-8.098698 5.545310 0.924726
-8.233230 5.679953 0.807528
-8.371014 5.809678 0.688578
-8.591910 6.001010 0.500122
-8.738150 6.116707 0.376874
-8.887586 6.226562 0.252124
-9.040152 6.330358 0.125984
-9.195754 6.427928 -0.001415
-9.354409 6.518833 -0.129973
-9.606717 6.647353 -0.331808
-9.772183 6.721581 -0.462472
-9.940088 6.789062 -0.593684
-10.110244 6.849828 -0.725276
-10.282423 6.904074 -0.857085
-10.456441 6.951892 -0.988969
-10.730451 7.013578 -1.193986
-10.908405 7.045281 -1.325478
-11.087566 7.071053 -1.456626
-11.267773 7.091073 -1.587347
-11.448892 7.105418 -1.717555
-11.630778 7.114270 -1.847183
172 NaN NaN
-2.208401 -1.475892 5.604639
-2.279865 -1.545196 5.619517
-2.359089 -1.606797 5.627377
-2.444481 -1.660100 5.628400
-2.534505 -1.704834 5.622925
-2.627776 -1.740938 5.611364
-2.723082 -1.768455 5.594129
-2.819359 -1.787446 5.571588
-2.915642 -1.797934 5.544058
-3.011002 -1.799869 5.511794
-3.104485 -1.793110 5.475013
-3.195047 -1.777435 5.433906
-3.281488 -1.752559 5.388686
-3.362420 -1.718219 5.339642
-3.437028 -1.675140 5.287533
-3.505896 -1.625339 5.233513
-3.570204 -1.570754 5.178480
-3.631378 -1.513028 5.123066
-3.690931 -1.453558 5.067722
-3.750322 -1.393541 5.012795
-3.809795 -1.333232 4.958279
-3.868713 -1.272236 4.903926
-3.926390 -1.210145 4.849484
-3.982114 -1.146574 4.794720
-4.035141 -1.081181 4.739429
-4.085011 -1.013773 4.683623
-4.132153 -0.944427 4.627818
-4.177172 -0.873230 4.572591
-4.220672 -0.800243 4.518496
-4.263257 -0.725511 4.466081
-4.305515 -0.649083 4.415896
-4.347822 -0.571129 4.368157
-4.390320 -0.491945 4.322663
-4.433147 -0.411816 4.279178
-4.476453 -0.331010 4.237453
-4.520393 -0.249785 4.197230
-4.565076 -0.168369 4.158229
-4.610348 -0.086890 4.120049
-4.655977 -0.005431 4.082250
-4.701733 0.075926 4.044387
-4.747385 0.157103 4.006015
-4.792706 0.238017 3.966707
-4.837630 0.318651 3.926381
-4.882268 0.399074 3.885323
-4.926747 0.479366 3.843837
-4.971193 0.559609 3.802221
-5.015734 0.639887 3.760775
-5.060470 0.720263 3.719730
-5.105397 0.800720 3.679054
-5.150485 0.881225 3.638653
-5.195705 0.961746 3.598431
-5.241028 1.042250 3.558292
-5.286427 1.122708 3.518144
-5.331880 1.203107 3.477944
-5.377375 1.283459 3.437693
-5.422897 1.363772 3.397395
-5.468432 1.444056 3.357055
-5.513967 1.524319 3.316675
-5.559503 1.604567 3.276264
-5.605091 1.684781 3.235846
-5.650793 1.764942 3.195448
-5.696669 1.845027 3.155099
-5.742780 1.925015 3.114826
-5.789177 2.004887 3.074651
-5.835766 2.084672 3.034525
-5.882337 2.164437 2.994338
-5.928675 2.244250 2.953979
-5.974565 2.324178 2.913336
-6.019790 2.404285 2.872301
-6.064153 2.484620 2.830777
-6.107734 2.565144 2.788791
-6.150778 2.645765 2.746439
-6.193538 2.726396 2.703819
-6.236267 2.806952 2.661024
-6.279217 2.887347 2.618151
-6.322584 2.967513 2.575267
-6.366361 3.047440 2.532355
-6.410497 3.127133 2.489376
-6.454944 3.206597 2.446291
-6.499650 3.285836 2.403062
-6.544570 3.364854 2.359650
-6.589700 3.443643 2.316038
-6.635071 3.522179 2.272223
-6.680719 3.600440 2.228204
-6.726676 3.678403 2.183978
-6.772976 3.756045 2.139545
-6.819647 3.833343 2.094902
-6.866703 3.910280 2.050038
-6.914156 3.986836 2.004942
-6.962015 4.062994 1.959602
-7.010291 4.138736 1.914009
-7.058997 4.214042 1.868150
-7.108144 4.288892 1.822018
-7.157751 4.363264 1.775603
-7.207832 4.437134 1.728900
-7.258403 4.510480 1.681899
-7.309481 4.583279 1.634594
-7.361079 4.655505 1.586979
-7.413210 4.727136 1.539046
-7.465888 4.798146 1.490788
-7.519125 4.868510 1.442199
-7.572932 4.938204 1.393273
-7.627322 5.007200 1.344004
-7.682304 5.075474 1.294387
-7.737891 5.142998 1.244418
-7.794091 5.209745 1.194094
-7.850914 5.275688 1.143411
-7.908369 5.340800 1.092367
-7.966465 5.405052 1.040959
-8.025206 5.468418 0.989187
-8.084600 5.530870 0.937051
-8.144652 5.592382 0.884551
-8.205367 5.652924 0.831688
-8.266749 5.712469 0.778463
-8.328798 5.770992 0.724881
-8.391517 5.828467 0.670946
-8.454907 5.884869 0.616662
-8.518966 5.940171 0.562034
-8.583695 5.994348 0.507069
-8.649090 6.047377 0.451773
-8.715147 6.099236 0.396157
-8.781861 6.149906 0.340230
-8.849228 6.199364 0.284001
-8.917241 6.247589 0.227479
-8.985893 6.294562 0.170678
-9.055175 6.340270 0.113608
-9.125077 6.384698 0.056284
-9.195589 6.427831 -0.001281
-9.266700 6.469654 -0.059074
-9.338400 6.510156 -0.117081
-9.410675 6.549329 -0.175286
-9.483511 6.587166 -0.233676
-9.556894 6.623662 -0.292234
-9.630811 6.658810 -0.350946
-9.705247 6.692604 -0.409796
-9.780186 6.725045 -0.468770
-9.855611 6.756133 -0.527851
-9.931507 6.785872 -0.587025
-10.007857 6.814262 -0.646277
-10.084644 6.841306 -0.705593
-10.161854 6.867009 -0.764958
-10.239466 6.891381 -0.824358
-10.317465 6.914429 -0.883781
-10.395833 6.936163 -0.943213
-10.474553 6.956593 -1.002643
-10.553610 6.975727 -1.062057
-10.632986 6.993581 -1.121444
-10.712664 7.010167 -1.180794
-10.792627 7.025501 -1.240097
-10.872861 7.039597 -1.299343
-10.953348 7.052468 -1.358522
-11.034075 7.064132 -1.417626
-11.115026 7.074606 -1.476647
-11.196185 7.083906 -1.535577
-11.277540 7.092051 -1.594410
-11.359075 7.099058 -1.653139
-11.440778 7.104944 -1.711757
-11.522637 7.109729 -1.770259
-11.604637 7.113431 -1.828641
-11.686767 7.116069 -1.886897
-11.769017 7.117661 -1.945024
-11.851373 7.118227 -2.003017
-11.933827 7.117784 -2.060873
-12.016368 7.116351 -2.118589
-12.098986 7.113947 -2.176163
-12.181671 7.110590 -2.233592
-12.264416 7.106298 -2.290873
-12.347210 7.101090 -2.348005
-12.430048 7.094984 -2.404987
-12.512920 7.087998 -2.461817
-12.595819 7.080151 -2.518494
-12.678739 7.071460 -2.575017
-0.805480 -0.939617 13.669929
-0.762993 -0.771769 13.687364
-0.735400 -0.601198 13.707387
-0.726146 -0.429008 13.730352
-0.740614 -0.257745 13.756697
-0.779089 -0.090824 13.785979
-0.843926 0.067301 13.817919
-0.933880 0.212123 13.851694
-1.043647 0.342420 13.886349
-1.170441 0.456303 13.921202
-1.309227 0.555319 13.955729
-1.456497 0.641551 13.989705
-0.804953 -0.937697 13.670122
-0.763421 -0.773711 13.687152
-0.762565 -0.769827 13.687575
-0.735587 -0.603173 13.707136
-0.735213 -0.599222 13.707639
-0.726190 -0.430989 13.730079
-0.726102 -0.427027 13.730626
-0.740328 -0.259699 13.756378
-0.740900 -0.255792 13.757015
-0.778437 -0.092681 13.785620
-0.779740 -0.088967 13.786338
-0.843093 0.065521 13.817544
-0.844759 0.069080 13.818293
-0.932721 0.210542 13.851299
-0.935039 0.213705 13.852089
-1.042235 0.341060 13.885948
-1.045058 0.343779 13.886749
-1.168933 0.455052 13.920802
-1.171950 0.457553 13.921602
-1.307571 0.554269 13.955336
-1.310883 0.556369 13.956123
-1.454742 0.640672 13.989321
-0.802951 -0.930410 13.670856
-0.765044 -0.781085 13.686351
-0.760942 -0.762453 13.688377
-0.736297 -0.610672 13.706181
-0.734503 -0.591724 13.708593
-0.726357 -0.438508 13.729041
-0.726064 -0.419513 13.731682
-0.739242 -0.267116 13.755169
-0.741985 -0.248375 13.758224
-0.775964 -0.099729 13.784258
-0.782213 -0.081919 13.787700
-0.839932 0.058766 13.816122
-0.847920 0.075835 13.819716
-0.928323 0.204537 13.849800
-0.939437 0.219709 13.853589
-1.036878 0.335900 13.884426
-1.050415 0.348940 13.888271
-1.163205 0.450305 13.919284
-1.177678 0.462300 13.923121
-1.301284 0.550282 13.953842
-1.317169 0.560356 13.957616
-1.448182 0.637147 13.987852
-0.798209 -0.913149 13.672593
-0.791938 -0.890322 13.674892
-0.785668 -0.867495 13.677190
-0.779397 -0.844669 13.679488
-0.773977 -0.821648 13.681940
-0.768890 -0.798550 13.684451
-0.757096 -0.744988 13.690276
-0.752780 -0.721759 13.692920
-0.749038 -0.698432 13.695663
-0.745295 -0.675105 13.698406
-0.741553 -0.651779 13.701149
-0.737979 -0.628434 13.703919
-0.732821 -0.573961 13.710855
-0.730597 -0.550471 13.713845
-0.728373 -0.526981 13.716836
-0.727796 -0.503429 13.720079
-0.727274 -0.479874 13.723331
-0.726752 -0.456320 13.726582
-0.727092 -0.401756 13.734344
-0.728452 -0.378274 13.737864
-0.729812 -0.354791 13.741383
-0.731172 -0.331309 13.744903
-0.733271 -0.307917 13.748520
-0.736671 -0.284684 13.752306
-0.744556 -0.230807 13.761087
-0.748428 -0.207675 13.764929
-0.753980 -0.184904 13.768968
-0.759533 -0.162133 13.773008
-0.765085 -0.139362 13.777047
-0.770637 -0.116591 13.781087
-0.788072 -0.065225 13.790926
-0.795819 -0.043147 13.795192
-0.803567 -0.021069 13.799459
-0.812640 0.000445 13.803841
-0.822542 0.021605 13.808297
-0.832445 0.042766 13.812752
-0.856368 0.091312 13.823153
-0.868302 0.111364 13.827752
-0.880237 0.131416 13.832352
-0.892171 0.151468 13.836951
-0.904125 0.171507 13.841552
-0.917904 0.190315 13.846249
-0.949856 0.233932 13.857140
-0.963634 0.252740 13.861837
-0.978818 0.270407 13.866580
-0.994216 0.287901 13.871330
-1.009613 0.305394 13.876081
-1.025011 0.322887 13.880831
-1.063105 0.361163 13.891876
-1.079886 0.377329 13.896644
-1.096667 0.393494 13.901411
-1.113754 0.409320 13.906176
-1.131696 0.424190 13.910932
-1.149638 0.439061 13.915688
-1.191359 0.473398 13.926713
-1.210262 0.487037 13.931438
-1.229165 0.500676 13.936162
-1.248068 0.514316 13.940886
-1.266971 0.527955 13.945610
-1.286393 0.540839 13.950305
-1.332061 0.569799 13.961154
-1.351754 0.582288 13.965833
-1.371779 0.594231 13.970483
-1.392119 0.605657 13.975107
-1.412460 0.617082 13.979731
-1.432801 0.628507 13.984356
20 NaN NaN
-0.805612 -0.940096 13.669880
-0.777626 -0.838222 13.680137
-0.754928 -0.735143 13.691346
-0.738226 -0.631044 13.703587
-0.728301 -0.526220 13.716933
-0.725971 -0.421113 13.731442
-0.732040 -0.316333 13.747148
-0.747210 -0.212671 13.764043
-0.771983 -0.111074 13.782066
-0.806549 -0.012572 13.801101
-0.850728 0.081836 13.820979
-0.903975 0.171301 13.841501
-0.965452 0.255222 13.862456
-1.034156 0.333278 13.883652
-1.109040 0.405413 13.904926
-1.189105 0.471772 13.926150
-1.273462 0.532638 13.947233
-1.361348 0.588372 13.968112
-1.452127 0.639363 13.988749
-1.545277 0.686002 14.009122
-0.956805 -1.470730 9.547566
-0.896390 -1.331785 9.594136
-0.842701 -1.190345 9.641409
-0.798442 -1.045949 9.689490
-0.763165 -0.899307 9.738156
-0.740104 -0.750432 9.787344
-0.728744 -0.600304 9.836745
-0.732496 -0.449756 9.886025
-0.750395 -0.300085 9.934777
-0.785140 -0.153022 9.982388
-0.834821 -0.009839 10.028473
-0.900546 0.127480 10.072362
-0.979580 0.258342 10.113909
-1.071579 0.381396 10.152675
-1.173829 0.496922 10.188800
-1.285393 0.604430 10.222138
-1.404213 0.704661 10.252967
-1.529361 0.797693 10.281329
-0.956023 -1.468984 9.548151
-0.897113 -1.333553 9.593544
-0.895667 -1.330016 9.594728
-0.843287 -1.192159 9.640805
-0.842115 -1.188531 9.642014
-0.798950 -1.047785 9.688880
-0.797934 -1.044114 9.690101
-0.763494 -0.901179 9.737536
-0.762836 -0.897434 9.738775
-0.740332 -0.752319 9.786722
-0.739877 -0.748545 9.787966
-0.728745 -0.602204 9.836122
-0.728743 -0.598403 9.837367
-0.732374 -0.451653 9.885405
-0.732619 -0.447858 9.886645
-0.750011 -0.301953 9.934172
-0.750779 -0.298218 9.935383
-0.784622 -0.154860 9.981794
-0.785657 -0.151183 9.982982
-0.834043 -0.011594 10.027911
-0.835598 -0.008084 10.029035
-0.899647 0.125778 10.071820
-0.901446 0.129182 10.072905
-0.978461 0.256761 10.113409
-0.980699 0.259923 10.114408
-1.070365 0.379880 10.152199
-1.072793 0.382912 10.153151
-1.172453 0.495537 10.188369
-1.175206 0.498308 10.189230
-1.283949 0.603109 10.221729
-1.286838 0.605752 10.222546
-1.402656 0.703461 10.252600
-1.405770 0.705862 10.253334
-1.527758 0.796549 10.280981
-0.953265 -1.462835 9.550214
-0.899661 -1.339785 9.591458
-0.893118 -1.323785 9.596814
-0.845568 -1.198484 9.638693
-0.840048 -1.182138 9.644144
-0.800740 -1.054254 9.686729
-0.796143 -1.037645 9.692252
-0.764812 -0.907750 9.735360
-0.761677 -0.890833 9.740958
-0.741133 -0.758970 9.784528
-0.739075 -0.741895 9.790160
-0.728797 -0.608900 9.833926
-0.728740 -0.591705 9.839563
-0.731941 -0.458340 9.883221
-0.733052 -0.441171 9.888829
-0.748658 -0.308533 9.932038
-0.752132 -0.291638 9.937516
-0.782799 -0.161339 9.979702
-0.787481 -0.144704 9.985074
-0.831303 -0.017778 10.025930
-0.838338 -0.001899 10.031015
-0.896477 0.119780 10.069908
-0.904616 0.135180 10.074816
-0.974519 0.251190 10.111650
-0.984641 0.265495 10.116167
-1.066086 0.374536 10.150520
-1.077072 0.388256 10.154830
-1.167601 0.490654 10.186851
-1.180057 0.503190 10.190748
-1.278859 0.598451 10.220289
-1.291928 0.610410 10.223986
-1.397169 0.699230 10.251307
-1.411257 0.710092 10.254627
-1.522107 0.792518 10.279756
-0.946877 -1.448590 9.554991
-0.938443 -1.429783 9.561299
-0.930009 -1.410976 9.567607
-0.921575 -1.392169 9.573915
-0.913357 -1.373277 9.580247
-0.905564 -1.354219 9.586626
-0.887216 -1.309350 9.601645
-0.879422 -1.290292 9.608024
-0.872211 -1.271028 9.614461
-0.865120 -1.251721 9.620910
-0.858029 -1.232414 9.627359
-0.850939 -1.213107 9.633808
-0.835261 -1.167330 9.649079
-0.828940 -1.147779 9.655595
-0.822620 -1.128229 9.662110
-0.816300 -1.108678 9.668626
-0.810364 -1.089021 9.675170
-0.804888 -1.069238 9.681748
-0.791995 -1.022661 9.697233
-0.786519 -1.002878 9.703811
-0.781918 -0.982891 9.710440
-0.777365 -0.962893 9.717072
-0.772813 -0.942895 9.723704
-0.768260 -0.922897 9.730337
-0.758992 -0.875544 9.746015
-0.755447 -0.855357 9.752692
-0.751902 -0.835171 9.759369
-0.748357 -0.814985 9.766045
-0.745441 -0.794711 9.772740
-0.742990 -0.774374 9.779448
-0.737219 -0.726491 9.795240
-0.734847 -0.706146 9.801949
-0.733575 -0.685705 9.808670
-0.732303 -0.665264 9.815392
-0.731032 -0.644823 9.822114
-0.729760 -0.624382 9.828835
-0.728732 -0.576191 9.844648
-0.728721 -0.555708 9.851362
-0.728711 -0.535225 9.858076
-0.728700 -0.514742 9.864789
-0.729617 -0.494281 9.871480
-0.730940 -0.473830 9.878161
-0.734053 -0.425681 9.893889
-0.735636 -0.405252 9.900558
-0.738349 -0.384918 9.907177
-0.741061 -0.364584 9.913796
-0.743773 -0.344250 9.920414
-0.746486 -0.323916 9.927033
-0.755267 -0.276397 9.942458
-0.759406 -0.256275 9.948983
-0.763545 -0.236152 9.955508
-0.767684 -0.216029 9.962033
-0.772997 -0.196159 9.968456
-0.778575 -0.176346 9.974855
-0.791705 -0.129698 9.989921
-0.797721 -0.110009 9.996272
-0.804721 -0.090601 10.002514
-0.811721 -0.071193 10.008756
-0.818721 -0.051785 10.014998
-0.825720 -0.032377 10.021240
-0.844686 0.012426 10.035602
-0.853066 0.031339 10.041659
-0.861446 0.050253 10.047715
-0.869827 0.069166 10.053772
-0.879439 0.087545 10.059632
-0.889134 0.105887 10.065479
-0.911958 0.149073 10.079245
-0.922181 0.167145 10.084994
-0.933105 0.184857 10.090614
-0.944029 0.202569 10.096233
-0.954954 0.220281 10.101853
-0.965878 0.237993 10.107472
-0.993773 0.278400 10.120241
-1.005830 0.295439 10.125621
-1.017886 0.312478 10.131000
-1.030003 0.329476 10.136365
-1.043089 0.345818 10.141499
-1.056175 0.362159 10.146632
-1.086983 0.400633 10.158718
-1.100578 0.416585 10.163715
-1.114589 0.432220 10.168601
-1.128600 0.447855 10.173487
-1.142612 0.463489 10.178373
-1.156623 0.479124 10.183259
-1.191294 0.514500 10.194264
-1.206130 0.529432 10.198905
-1.220967 0.544364 10.203547
-1.235933 0.559174 10.208146
-1.251501 0.573418 10.212550
-1.267068 0.587662 10.216954
-1.303719 0.621198 10.227322
-1.319718 0.634996 10.231572
-1.335931 0.648574 10.235746
-1.352144 0.662152 10.239920
-1.368356 0.675729 10.244095
-1.384569 0.689307 10.248269
-1.423967 0.719892 10.257623
-1.440748 0.732830 10.261578
-1.457529 0.745768 10.265533
-1.474458 0.758524 10.269425
-1.491739 0.770852 10.273172
-1.509019 0.783180 10.276918
27 NaN NaN
-0.957001 -1.471166 9.547419
-0.915984 -1.379701 9.578097
-0.878083 -1.287017 9.609121
-0.843599 -1.193123 9.640483
-0.812862 -1.098044 9.672170
-0.786231 -1.001835 9.704157
-0.764091 -0.904583 9.736410
-0.746852 -0.806418 9.768879
-0.734932 -0.707516 9.801499
-0.728748 -0.608115 9.834184
-0.728697 -0.508510 9.866832
-0.735128 -0.409063 9.899318
-0.748317 -0.310187 9.931502
-0.768443 -0.212339 9.963230
-0.795562 -0.115995 9.994347
-0.829599 -0.021623 10.024699
-0.870349 0.070345 10.054149
-0.917490 0.159539 10.082581
-0.970611 0.245666 10.109907
-1.029239 0.328523 10.136066
-1.092874 0.407988 10.161028
-1.161009 0.484019 10.184789
-1.233157 0.556634 10.207361
-1.308863 0.625904 10.228777
-1.387707 0.691935 10.249077
-1.469315 0.754855 10.268310
-1.553354 0.814809 10.286530
-1.228264 -1.551484 8.195558
-1.100444 -1.386587 8.139105
-0.982770 -1.213376 8.085621
-0.878443 -1.030710 8.036148
-0.792031 -0.837625 7.992221
-0.729900 -0.633969 7.956059
-0.700090 -0.421705 7.930620
-0.710425 -0.206537 7.919050
-0.764346 0.002261 7.923209
-0.857971 0.195711 7.942372
-0.982494 0.369256 7.973771
-1.128873 0.522839 8.014243
-1.290203 0.658659 8.061210
-1.227060 -1.549976 8.195030
-1.101561 -1.388168 8.139608
-1.099327 -1.385006 8.138601
-0.983774 -1.215041 8.086090
-0.981766 -1.211711 8.085151
-0.879296 -1.032469 8.036572
-0.877589 -1.028952 8.035725
-0.792682 -0.839482 7.992580
-0.791381 -0.835768 7.991862
-0.730277 -0.635914 7.956329
-0.729523 -0.632023 7.955790
-0.700117 -0.423700 7.930770
-0.700062 -0.419711 7.930470
-0.710053 -0.208503 7.919058
-0.710798 -0.204572 7.919042
-0.763589 0.000415 7.923074
-0.765104 0.004106 7.923345
-0.856900 0.194042 7.942114
-0.859042 0.197381 7.942629
-0.981197 0.367774 7.973421
-0.983790 0.370738 7.974121
-1.127421 0.521529 8.013826
-1.130325 0.524150 8.014659
-1.288644 0.657495 8.060746
-1.221604 -1.543144 8.192635
-1.106825 -1.395168 8.141948
-1.094264 -1.377840 8.136320
-0.988532 -1.222438 8.088281
-0.977215 -1.204165 8.083023
-0.883366 -1.040320 8.038553
-0.873720 -1.020981 8.033806
-0.795799 -0.847823 7.994262
-0.788434 -0.827351 7.990234
-0.732075 -0.644708 7.957580
-0.727814 -0.623204 7.954568
-0.700241 -0.432739 7.931452
-0.699938 -0.410672 7.929788
-0.708365 -0.217410 7.919095
-0.712485 -0.195665 7.919004
-0.760154 -0.007953 7.922461
-0.768539 0.012474 7.923958
-0.852047 0.186474 7.940947
-0.863895 0.204949 7.943796
-0.975319 0.361057 7.971835
-0.989668 0.377455 7.975707
-1.120837 0.515589 8.011938
-1.136908 0.530090 8.016548
-1.281578 0.652221 8.058641
-1.208078 -1.526207 8.186697
-1.190133 -1.503736 8.178819
-1.172188 -1.481265 8.170942
-1.154575 -1.458504 8.163160
-1.137235 -1.435504 8.155457
-1.119895 -1.412504 8.147754
-1.081712 -1.360077 8.130666
-1.065059 -1.336510 8.123164
-1.048406 -1.312942 8.115661
-1.032231 -1.289005 8.108301
-1.016362 -1.264832 8.101031
-1.000493 -1.240659 8.093761
-0.965932 -1.185458 8.077747
-0.950964 -1.160640 8.070747
-0.935995 -1.135821 8.063747
-0.921725 -1.110544 8.056959
-0.907796 -1.085042 8.050275
-0.893866 -1.059541 8.043591
-0.864128 -1.001221 8.029048
-0.851403 -0.975006 8.022736
-0.838678 -0.948791 8.016424
-0.826983 -0.922035 8.010434
-0.815659 -0.895085 8.004561
-0.804334 -0.868136 7.998688
-0.781127 -0.806484 7.986199
-0.771433 -0.778800 7.980846
-0.761739 -0.751116 7.975493
-0.753557 -0.722873 7.970630
-0.745756 -0.694488 7.965891
-0.737955 -0.666103 7.961152
-0.723577 -0.601342 7.951538
-0.717956 -0.572338 7.947520
-0.712334 -0.543333 7.943501
-0.708846 -0.513920 7.940201
-0.705698 -0.484442 7.937016
-0.702549 -0.454964 7.933831
-0.699631 -0.388264 7.928098
-0.699222 -0.358535 7.925855
-0.698814 -0.328806 7.923613
-0.701131 -0.299118 7.922329
-0.703660 -0.269434 7.921119
-0.706189 -0.239749 7.919910
-0.716669 -0.173585 7.918912
-0.722220 -0.144290 7.918789
-0.727771 -0.114995 7.918667
-0.736268 -0.086432 7.919629
-0.744786 -0.057875 7.920598
-0.753303 -0.029317 7.921568
-0.777054 0.033216 7.925478
-0.788351 0.060736 7.927496
-0.799794 0.088182 7.929569
-0.813587 0.114448 7.932550
-0.827381 0.140713 7.935531
-0.841174 0.166979 7.938512
-0.875925 0.223710 7.946689
-0.891886 0.248600 7.950527
-0.908074 0.273317 7.954456
-0.925872 0.296796 7.959038
-0.943670 0.320274 7.963620
-0.961469 0.343753 7.968201
-1.004239 0.394107 7.979640
-1.023571 0.416200 7.984857
-1.043140 0.438046 7.990175
-1.063741 0.458818 7.995930
-1.084343 0.479589 8.001686
-1.104945 0.500361 8.007441
-1.153228 0.544815 8.021229
-1.174879 0.564351 8.027440
-1.196747 0.583602 8.033747
-1.219267 0.601997 8.040343
-1.241787 0.620392 8.046939
-1.264307 0.638786 8.053535
27 NaN NaN
-1.228565 -1.551860 8.195690
-1.164075 -1.471106 8.167380
-1.101760 -1.388450 8.139698
-1.041915 -1.303757 8.112737
-0.984888 -1.216887 8.086611
-0.931096 -1.127699 8.061456
-0.881039 -1.036060 8.037436
-0.835312 -0.941856 8.014754
-0.794620 -0.845017 7.993650
-0.759788 -0.745544 7.974415
-0.731759 -0.643557 7.957388
-0.711562 -0.539350 7.942949
-0.700251 -0.433449 7.931506
-0.698784 -0.326653 7.923451
-0.707870 -0.220023 7.919106
-0.727809 -0.114794 7.918666
-0.758405 -0.012213 7.922149
-0.798987 0.086645 7.929395
-0.848539 0.181003 7.940104
-0.905884 0.270428 7.953892
-0.969832 0.354786 7.970354
-1.039293 0.434168 7.989100
-1.113322 0.508807 8.009782
-1.191124 0.579009 8.032100
-1.272050 0.645110 8.055803
-1.355572 0.707446 8.080681
-1.441264 0.766336 8.106564
-1.749529 -1.496314 6.911764
-1.514086 -1.319270 6.849834
-1.290364 -1.126034 6.793370
-1.085213 -0.911343 6.745166
-0.912229 -0.668053 6.710453
-0.799446 -0.390407 6.699164
-0.793024 -0.092942 6.725362
-0.901122 0.178765 6.787435
-1.083088 0.402878 6.869695
-1.302970 0.586738 6.960810
-1.747944 -1.495169 6.911343
-1.515625 -1.320483 6.850234
-1.512547 -1.318058 6.849435
-1.291804 -1.127377 6.793724
-1.288924 -1.124692 6.793016
-1.086482 -0.912864 6.745446
-1.083944 -0.909823 6.744886
-0.913172 -0.669811 6.710602
-0.911285 -0.666296 6.710305
-0.800007 -0.392327 6.699169
-0.798884 -0.388488 6.699159
-0.792742 -0.094902 6.725081
-0.793306 -0.090982 6.725643
-0.900116 0.177108 6.786940
-0.902127 0.180421 6.787929
-1.081711 0.401551 6.869108
-1.084465 0.404204 6.870282
-1.301413 0.585649 6.960185
-1.738407 -1.488277 6.908808
-1.524889 -1.327784 6.852639
-1.503283 -1.310757 6.847030
-1.300468 -1.135457 6.795854
-1.280260 -1.116611 6.790886
-1.094119 -0.922014 6.747130
-1.076306 -0.900673 6.743202
-0.918850 -0.680387 6.711494
-0.905607 -0.655720 6.709413
-0.803386 -0.403880 6.699199
-0.796971 -0.376619 6.699650
-0.791046 -0.106698 6.723389
-0.795003 -0.079186 6.727335
-0.894063 0.167139 6.783964
-0.908181 0.190391 6.790905
-1.073426 0.393567 6.865574
-1.092750 0.412189 6.873816
-1.292045 0.579092 6.956425
-1.713425 -1.470223 6.902167
-1.680159 -1.446182 6.893324
-1.647129 -1.421780 6.884594
-1.614307 -1.397061 6.875965
-1.581485 -1.372342 6.867335
-1.549155 -1.346905 6.858938
-1.479353 -1.291171 6.840887
-1.447630 -1.264890 6.832774
-1.415909 -1.238608 6.824661
-1.384875 -1.211425 6.816865
-1.353842 -1.184242 6.809069
-1.323162 -1.156623 6.801432
-1.257604 -1.095402 6.785325
-1.228355 -1.066105 6.778327
-1.199105 -1.036808 6.771329
-1.170411 -1.006925 6.764573
-1.142335 -0.976389 6.758086
-1.114259 -0.945853 6.751599
-1.056300 -0.876705 6.738790
-1.030571 -0.844009 6.733294
-1.005711 -0.810566 6.728161
-0.980852 -0.777122 6.723027
-0.958102 -0.742101 6.718751
-0.935475 -0.706987 6.714524
-0.890734 -0.628016 6.707075
-0.870930 -0.591126 6.703962
-0.854636 -0.552475 6.702191
-0.838399 -0.513796 6.700443
-0.824025 -0.474439 6.699383
-0.812238 -0.434142 6.699278
-0.792142 -0.345490 6.701000
-0.785713 -0.304039 6.702798
-0.782073 -0.262424 6.705546
-0.781704 -0.220618 6.709406
-0.781335 -0.178811 6.713267
-0.786602 -0.137597 6.718957
-0.802425 -0.049098 6.732687
-0.814263 -0.009564 6.740416
-0.826101 0.029970 6.748146
-0.842742 0.067393 6.757282
-0.859696 0.104678 6.766510
-0.878207 0.141024 6.776168
-0.924037 0.216505 6.798701
-0.948354 0.248836 6.809921
-0.972738 0.281114 6.821158
-0.998174 0.312430 6.832655
-1.025098 0.342381 6.844521
-1.052023 0.372332 6.856387
-1.114453 0.433104 6.883073
-1.144055 0.460109 6.895554
-1.174506 0.486091 6.908222
-1.204957 0.512073 6.920890
-1.236499 0.536592 6.933784
-1.268182 0.560923 6.946707
28 NaN NaN
-1.749925 -1.496601 6.911870
-1.664547 -1.434899 6.889174
-1.580309 -1.371456 6.867026
-1.497380 -1.306106 6.845497
-1.415965 -1.238657 6.824675
-1.336318 -1.168892 6.804666
-1.258760 -1.096559 6.785601
-1.183694 -1.021372 6.767642
-1.111642 -0.943007 6.750994
-1.043277 -0.861103 6.735918
-0.979485 -0.775284 6.722745
-0.921426 -0.685185 6.711899
-0.870613 -0.590537 6.703912
-0.828961 -0.491314 6.699427
-0.798730 -0.387961 6.699158
-0.782243 -0.281668 6.703769
-0.781297 -0.174482 6.713667
-0.796469 -0.068988 6.728798
-0.826825 0.032386 6.748618
-0.870308 0.128016 6.772285
-0.924471 0.217221 6.798914
-0.987034 0.300038 6.827746
-1.056121 0.376891 6.858193
-1.130283 0.448357 6.889825
-1.208427 0.515034 6.922334
-1.289736 0.577476 6.955498
-1.373594 0.636172 6.989158
-1.459532 0.691549 7.023199
-1.682459 -1.485040 5.178099
-1.528269 -1.373751 5.204975
-1.378673 -1.256831 5.233731
-1.234956 -1.133309 5.264712
-1.099231 -1.001731 5.298443
-0.975252 -0.859978 5.335715
-0.867308 -0.706859 5.377067
-0.782679 -0.541098 5.423185
-0.734241 -0.362933 5.474540
-0.734434 -0.179775 5.529433
-0.784810 -0.003770 5.584288
-0.877628 0.155708 5.635972
-1.001682 0.294398 5.682739
-1.144129 0.415781 5.725091
-1.298532 0.523095 5.763730
-1.680843 -1.483895 5.178374
-1.529861 -1.374928 5.204689
-1.526678 -1.372573 5.205261
-1.380202 -1.258082 5.233420
-1.377144 -1.255579 5.234042
-1.236399 -1.134651 5.264371
-1.233513 -1.131967 5.265054
-1.100619 -1.003126 5.298083
-1.097844 -1.000336 5.298802
-0.976488 -0.861497 5.335312
-0.974016 -0.858458 5.336119
-0.868310 -0.708529 5.376609
-0.866306 -0.705190 5.377525
-0.783308 -0.542924 5.422665
-0.782050 -0.539273 5.423706
-0.734615 -0.364819 5.473991
-0.733866 -0.361047 5.475090
-0.734194 -0.181674 5.528853
-0.734674 -0.177875 5.530012
-0.783984 -0.005505 5.583733
-0.785635 -0.002035 5.584842
-0.876397 0.154213 5.635473
-0.878858 0.157203 5.636472
-1.000314 0.293017 5.682268
-1.003050 0.295779 5.683210
-1.142574 0.414596 5.724671
-1.145685 0.416966 5.725512
-1.296862 0.522062 5.763350
-1.674198 -1.479187 5.179506
-1.536402 -1.379768 5.203513
-1.520137 -1.367733 5.206437
-1.386487 -1.263226 5.232142
-1.370858 -1.250435 5.235319
-1.242332 -1.140167 5.262967
-1.227580 -1.126451 5.266458
-1.106322 -1.008860 5.296604
-1.092204 -0.994546 5.300301
-0.981571 -0.867743 5.333654
-0.968933 -0.852212 5.337777
-0.872428 -0.715391 5.374725
-0.862188 -0.698328 5.379408
-0.785894 -0.550430 5.420524
-0.779465 -0.531767 5.425847
-0.736155 -0.372573 5.471732
-0.732326 -0.353292 5.477349
-0.733207 -0.189481 5.526472
-0.735661 -0.170068 5.532393
-0.780588 -0.012638 5.581453
-0.789031 0.005097 5.587122
-0.871833 0.147729 5.633338
-0.883917 0.163351 5.638527
-0.994691 0.287340 5.680330
-1.008673 0.301456 5.685147
-1.136180 0.409724 5.722943
-1.152078 0.421838 5.727240
-1.289995 0.517819 5.761790
-1.658113 -1.467789 5.182246
-1.636809 -1.452693 5.185876
-1.615505 -1.437597 5.189505
-1.594201 -1.422501 5.193134
-1.573211 -1.407003 5.196897
-1.552237 -1.391485 5.200667
-1.504311 -1.356005 5.209287
-1.483717 -1.340023 5.213211
-1.463124 -1.324041 5.217136
-1.442530 -1.308059 5.221061
-1.421937 -1.292077 5.224985
-1.401702 -1.275679 5.229050
-1.355643 -1.237983 5.238412
-1.335491 -1.221490 5.242508
-1.315798 -1.204494 5.246775
-1.296162 -1.187435 5.251062
-1.276527 -1.170376 5.255350
-1.256892 -1.153318 5.259637
-1.213218 -1.113097 5.269856
-1.194196 -1.095411 5.274357
-1.175173 -1.077724 5.278859
-1.156704 -1.059512 5.283541
-1.138416 -1.041126 5.288282
-1.120129 -1.022741 5.293024
-1.079071 -0.980078 5.304085
-1.061677 -0.960914 5.309097
-1.044282 -0.941751 5.314109
-1.026888 -0.922587 5.319122
-1.010170 -0.902892 5.324322
-0.993874 -0.882864 5.329639
-0.956630 -0.837091 5.341792
-0.941279 -0.816407 5.347345
-0.926352 -0.795429 5.353005
-0.911425 -0.774451 5.358665
-0.896498 -0.753473 5.364324
-0.882397 -0.732003 5.370166
-0.852219 -0.681716 5.383968
-0.839015 -0.659713 5.390007
-0.827020 -0.637123 5.396272
-0.815994 -0.614063 5.402720
-0.804968 -0.591002 5.409167
-0.793942 -0.567942 5.415614
-0.773206 -0.513598 5.431028
-0.764917 -0.489534 5.437891
-0.756627 -0.465469 5.444755
-0.749755 -0.441067 5.451778
-0.744818 -0.416205 5.459021
-0.739882 -0.391344 5.466264
-0.730553 -0.334330 5.482956
-0.729520 -0.309086 5.490478
-0.728487 -0.283841 5.497999
-0.727454 -0.258596 5.505520
-0.727653 -0.233414 5.513075
-0.730818 -0.208381 5.520709
-0.738050 -0.151168 5.538156
-0.742739 -0.126449 5.545760
-0.749996 -0.102258 5.553314
-0.757254 -0.078067 5.560868
-0.764512 -0.053876 5.568421
-0.772370 -0.029904 5.575934
-0.797249 0.022363 5.592641
-0.808135 0.045233 5.599951
-0.819747 0.067722 5.607177
-0.833618 0.089029 5.614144
-0.847489 0.110336 5.621111
-0.861361 0.131642 5.628078
-0.896162 0.178232 5.643500
-0.912382 0.197942 5.650087
-0.928601 0.217651 5.656674
-0.945020 0.237195 5.663219
-0.963049 0.255396 5.669430
-0.981079 0.273598 5.675641
-1.022544 0.314944 5.689771
-1.041965 0.331778 5.695631
-1.061387 0.348613 5.701491
-1.080808 0.365447 5.707351
-1.100230 0.382282 5.713210
-1.120703 0.397931 5.718759
-1.167556 0.433631 5.731424
-1.188098 0.449197 5.736950
-1.209443 0.463747 5.742206
-1.230789 0.478296 5.747462
-1.252134 0.492845 5.752718
-1.273480 0.507394 5.757974
26 NaN NaN
-1.682863 -1.485327 5.178030
-1.593148 -1.421754 5.193314
-1.504824 -1.356403 5.209189
-1.418101 -1.289100 5.225716
-1.333237 -1.219645 5.242966
-1.250552 -1.147809 5.261022
-1.170448 -1.073330 5.279977
-1.093442 -0.995911 5.299944
-1.020198 -0.915216 5.321050
-0.951582 -0.830887 5.343439
-0.888734 -0.742562 5.367268
-0.833144 -0.649931 5.392692
-0.786731 -0.552860 5.419831
-0.751843 -0.451580 5.448716
-0.731071 -0.346968 5.479191
-0.726724 -0.240765 5.510833
-0.740035 -0.135460 5.542947
-0.770569 -0.033688 5.574725
-0.816375 0.062543 5.605484
-0.874756 0.152218 5.634806
-0.943031 0.235187 5.662534
-1.018936 0.311817 5.688683
-1.100709 0.382697 5.713355
-1.187027 0.448467 5.736687
-1.276909 0.509732 5.758818
-1.369624 0.567028 5.779879
-1.052513 -1.436387 3.990464
-0.969948 -1.309778 4.019612
-0.893332 -1.179879 4.050439
-0.825006 -1.045971 4.083431
-0.766242 -0.908173 4.118696
-0.719077 -0.766653 4.156416
-0.687503 -0.621647 4.196972
-0.672095 -0.474749 4.239946
-0.679526 -0.328061 4.285457
-0.708020 -0.184476 4.332422
-0.759908 -0.047836 4.379936
-0.832745 0.079172 4.426904
-0.922380 0.195507 4.472534
-1.027104 0.299458 4.516113
-1.141564 0.393488 4.557779
-1.264781 0.476848 4.597194
-1.051424 -1.434752 3.990838
-0.970981 -1.311446 4.019222
-0.968914 -1.308111 4.020002
-0.894301 -1.181580 4.050031
-0.892362 -1.178178 4.050846
-0.825817 -1.047744 4.082983
-0.824195 -1.044199 4.083878
-0.766955 -0.909982 4.118226
-0.765528 -0.906365 4.119165
-0.719544 -0.768527 4.155898
-0.718609 -0.764779 4.156933
-0.687820 -0.623546 4.196430
-0.687187 -0.619748 4.197514
-0.672240 -0.476662 4.239380
-0.671950 -0.472837 4.240512
-0.679277 -0.329951 4.284853
-0.679776 -0.326171 4.286061
-0.707559 -0.186322 4.331807
-0.708481 -0.182629 4.333037
-0.759044 -0.049531 4.379322
-0.760773 -0.046140 4.380551
-0.831704 0.077575 4.426299
-0.833785 0.080769 4.427508
-0.921058 0.194120 4.471962
-0.923702 0.196894 4.473107
-1.025675 0.298173 4.515559
-1.028533 0.300742 4.516666
-1.140046 0.392299 4.557244
-1.143081 0.394676 4.558313
-1.263132 0.475831 4.596696
-1.047672 -1.429121 3.992125
-0.974541 -1.317188 4.017879
-0.965355 -1.302369 4.021345
-0.897641 -1.187439 4.048628
-0.889023 -1.172319 4.052250
-0.828612 -1.053848 4.081443
-0.821400 -1.038094 4.085418
-0.769412 -0.916211 4.116610
-0.763072 -0.900136 4.120782
-0.721156 -0.774983 4.154116
-0.716997 -0.758323 4.158715
-0.688910 -0.630086 4.194563
-0.686096 -0.613208 4.199382
-0.672739 -0.483250 4.237431
-0.671947 -0.466252 4.242516
-0.678417 -0.336462 4.282773
-0.680635 -0.319661 4.288141
-0.705973 -0.192682 4.329690
-0.710068 -0.176269 4.335154
-0.756066 -0.055371 4.377204
-0.763751 -0.040301 4.382668
-0.828120 0.072073 4.424215
-0.837369 0.086271 4.429592
-0.916503 0.189344 4.469989
-0.928257 0.201671 4.475080
-1.020751 0.293749 4.513651
-1.033457 0.305166 4.518574
-1.134820 0.388207 4.555403
-1.148354 0.398710 4.560142
-1.257453 0.472328 4.594983
-1.039045 -1.416172 3.995085
-1.027660 -1.399085 3.998992
-1.016276 -1.381999 4.002898
-1.004892 -1.364912 4.006804
-0.993525 -1.347815 4.010715
-0.982725 -1.330392 4.014790
-0.957170 -1.289165 4.024433
-0.946370 -1.271742 4.028508
-0.935716 -1.254241 4.032624
-0.925584 -1.236464 4.036882
-0.915452 -1.218687 4.041141
-0.905319 -1.200910 4.045400
-0.881658 -1.158697 4.055559
-0.872293 -1.140552 4.060017
-0.862928 -1.122407 4.064476
-0.853563 -1.104262 4.068934
-0.844197 -1.086117 4.073392
-0.835038 -1.067885 4.077901
-0.814974 -1.024058 4.088960
-0.806494 -1.005536 4.093635
-0.798015 -0.987013 4.098309
-0.789968 -0.968332 4.103080
-0.782514 -0.949433 4.107986
-0.775060 -0.930533 4.112892
-0.757423 -0.885813 4.124500
-0.750697 -0.866692 4.129556
-0.744432 -0.847430 4.134708
-0.738167 -0.828168 4.139859
-0.731902 -0.808906 4.145011
-0.725637 -0.789643 4.150162
-0.713292 -0.743479 4.162813
-0.708403 -0.723891 4.168220
-0.703514 -0.704304 4.173628
-0.698625 -0.684716 4.179035
-0.694726 -0.664968 4.184604
-0.691417 -0.645124 4.190269
-0.683589 -0.598170 4.203675
-0.680281 -0.578326 4.209340
-0.678437 -0.558364 4.215208
-0.676921 -0.538375 4.221122
-0.675404 -0.518387 4.227036
-0.673888 -0.498398 4.232949
-0.672304 -0.451116 4.247166
-0.672775 -0.431142 4.253301
-0.673247 -0.411168 4.259437
-0.673718 -0.391195 4.265572
-0.674190 -0.371221 4.271708
-0.676441 -0.351431 4.277990
-0.682612 -0.304692 4.292924
-0.685220 -0.284939 4.299236
-0.687882 -0.265197 4.305550
-0.692696 -0.245900 4.311974
-0.697510 -0.226603 4.318398
-0.702324 -0.207306 4.324822
-0.714186 -0.161795 4.340030
-0.721176 -0.143188 4.346492
-0.728165 -0.124581 4.352953
-0.735155 -0.105974 4.359415
-0.742145 -0.087368 4.365876
-0.749220 -0.068798 4.372336
-0.770597 -0.026874 4.387536
-0.779632 -0.009156 4.393960
-0.788667 0.008562 4.400384
-0.798130 0.026041 4.406784
-0.809005 0.042733 4.413105
-0.819879 0.059424 4.419425
-0.845610 0.098920 4.434382
-0.857162 0.115147 4.440638
-0.869632 0.130743 4.446807
-0.882103 0.146340 4.452976
-0.894573 0.161936 4.459146
-0.907044 0.177532 4.465315
-0.938729 0.212653 4.479617
-0.952547 0.227146 4.485604
-0.966366 0.241638 4.491590
-0.980184 0.256130 4.497577
-0.994494 0.270153 4.503476
-1.009432 0.283576 4.509264
-1.044776 0.315339 4.522961
-1.059714 0.328762 4.528749
-1.075231 0.341551 4.534410
-1.091088 0.353967 4.539997
-1.106945 0.366383 4.545583
-1.122803 0.378798 4.551170
-1.160942 0.407412 4.564226
-1.177554 0.418894 4.569614
-1.194165 0.430377 4.575002
-1.210776 0.441860 4.580390
-1.227387 0.453342 4.585778
-1.244397 0.464275 4.591044
23 NaN NaN
-1.052786 -1.436796 3.990370
-0.993851 -1.348341 4.010592
-0.937942 -1.258145 4.031688
-0.885489 -1.166120 4.053735
-0.837010 -1.072191 4.076814
-0.793115 -0.976311 4.101009
-0.754531 -0.878481 4.126403
-0.722103 -0.778778 4.153068
-0.696797 -0.677395 4.181056
-0.679675 -0.574692 4.210378
-0.671829 -0.471245 4.240982
-0.674269 -0.367883 4.272733
-0.687764 -0.265669 4.305392
-0.712675 -0.165818 4.338633
-0.748842 -0.069537 4.372068
-0.795594 0.022148 4.405309
-0.851869 0.108527 4.438020
-0.916408 0.189244 4.469947
-0.987928 0.264252 4.500931
-1.065243 0.333731 4.530892
-1.147324 0.397998 4.559808
-1.233311 0.457437 4.587699
-1.322500 0.512450 4.614608
-0.788723 -1.221908 1.299582
-0.562386 -0.581426 1.395656
-0.667277 0.059682 1.589845
-0.787811 -1.220136 1.299763
-0.562633 -0.583365 1.395236
-0.562139 -0.579486 1.396077
-0.666411 0.058013 1.589164
-0.778635 -1.202301 1.301589
-0.565120 -0.602898 1.391000
-0.559651 -0.559954 1.400313
-0.657688 0.041204 1.582306
-0.747037 -1.140887 1.307875
-0.704021 -1.049657 1.318372
-0.664996 -0.956852 1.330451
-0.630525 -0.862512 1.344268
-0.601246 -0.766741 1.359984
-0.577870 -0.669732 1.377760
-0.552663 -0.492673 1.415370
-0.549733 -0.394266 1.439549
-0.555468 -0.296571 1.466109
-0.570732 -0.200574 1.495056
-0.595569 -0.107306 1.526138
-0.629375 -0.017565 1.558976
19 NaN NaN
-0.788950 -1.222350 1.299536
-0.739254 -1.125760 1.309423
-0.693689 -1.027340 1.320997
-0.652881 -0.927090 1.334443
-0.617564 -0.825075 1.349963
-0.588577 -0.721454 1.367763
-0.566855 -0.616525 1.388045
-0.553388 -0.510768 1.410979
-0.549146 -0.404881 1.436674
-0.554957 -0.299786 1.465140
-0.571367 -0.196584 1.496259
-0.598513 -0.096446 1.529773
-0.636070 -0.000452 1.565311
-0.683295 0.090547 1.602437
-0.739161 0.176015 1.640711
-0.802516 0.255734 1.679737
-0.872221 0.329749 1.719189
-0.947234 0.398286 1.758816
-1.026651 0.461679 1.798436
