0.256018 0.256021 0.256050 0.256240 0.256540 0.254414 0.252288 0.250163 0.245336 0.242290 0.241516 0.241459 0.241399 0.240590 0.236599 0.230277 0.224115 0.217953 0.211791 0.207313 0.204486 0.203936 0.203895 0.203855 0.203309 0.201037 0.197439 0.194511 0.191582 0.188653 0.186211 0.184669 0.184345 0.184321 0.184298 0.183982 0.182597 0.180403 0.178437 0.176470 0.174504 0.172718 0.171591 0.171349 0.171332 0.171314 0.171073 0.170006 0.168317 0.166702 0.165088 0.163473 0.161912 0.160927 0.160713 0.160697 0.160681 0.160467 0.159507 0.157986 0.156551 0.155116 0.153680 0.152328 0.151475 0.151294 0.151281 0.151267 0.151087 0.150286 0.149017 0.147846 0.146675 0.145504 0.144425 0.143744 0.143599 0.143588 
0.256008 0.255968 0.255581 0.253640 0.250985 0.247267 0.243549 0.239831 0.235921 0.233063 0.232108 0.232008 0.231910 0.230968 0.228442 0.224985 0.222165 0.219346 0.216526 0.214297 0.212668 0.212161 0.212108 0.212056 0.211557 0.210253 0.208468 0.207075 0.205682 0.204290 0.203202 0.202408 0.202157 0.202130 0.202105 0.201862 0.201231 0.200367 0.199635 0.198903 0.198171 0.197514 0.197034 0.196880 0.196864 0.196849 0.196699 0.196262 0.195665 0.195082 0.194499 0.193916 0.193329 0.192900 0.192752 0.192737 0.192721 0.192573 0.192135 0.191536 0.190919 0.190302 0.189685 0.189027 0.188546 0.188381 0.188364 0.188346 0.188181 0.187690 0.187017 0.186339 0.185660 0.184982 0.184304 0.183809 0.183640 0.183622 0.183604 0.183435 0.182942 0.182267 0.181601 0.180935 0.180270 0.179616 0.179138 0.178979 0.178962 0.178945 0.178786 0.178321 0.177684 0.177069 0.176453 0.175838 0.175241 0.174804 0.174656 0.174641 0.174626 0.174478 0.174053 0.173472 0.172905 0.172339 0.171772 0.171219 0.170816 0.170679 0.170665 0.170651 0.170514 0.170121 0.169582 0.169054 0.168527 0.168000 0.167486 0.167109 0.166982 0.166969 0.166955 0.166828 0.166460 0.165955 0.165460 0.164965 0.164470 0.163985 0.163631 0.163511 0.163498 0.163486 0.163366 0.163017 0.162541 0.162075 0.161608 0.161142 0.160684 0.160350 0.160236 0.160224 0.160212 0.160099 0.159770 0.159319 0.158877 0.158435 0.157992 0.157558 0.157240 0.157132 0.157121 0.157110 0.157003 0.156692 0.156266 0.155849 0.155432 0.155015 0.154606 0.154308 0.154206 0.154195 0.154185 0.154084 0.153793 0.153394 0.153003 0.152613 0.152222 0.151840 0.151561 0.151466 0.151456 0.151446 0.151352 0.151079 0.150705 0.150340 0.149975 0.149609 0.149252 0.148991 0.148903 0.148893 0.148884 0.148796 0.148540 0.148191 0.147848 0.147506 0.147163 0.146828 0.146583 0.146500 0.146491 0.146483 0.146400 0.146159 0.145830 0.145507 0.145184 0.144861 0.144544 0.144313 0.144234 0.144226 
0.256062 0.256255 0.259047 0.270984 0.289896 0.309197 0.328498 0.347798 0.343835 0.341333 0.339188 0.339040 0.338892 0.336759 0.324359 0.304713 0.287587 0.270462 0.253336 0.240772 0.232843 0.231391 0.231291 0.231194 0.229802 0.224518 0.216148 0.210672 0.205197 0.199721 0.195570 0.192950 0.192417 0.192381 0.192344 0.191811 0.189312 0.185353 0.180631 0.175908 0.171186 0.164795 0.160762 0.159795 0.159728 0.159661 0.158692 0.154494 0.147842 0.143013 0.138185 0.133357 0.130420 0.128567 0.128247 0.128224 0.128203 0.127893 0.126749 0.124936 0.123876 0.122816 0.121756 0.121102 0.120689 0.120612 0.120607 0.120602 0.120527 0.120228 0.119754 0.119407 0.119059 0.118712 0.118444 0.118274 0.118240 0.118238 0.118236 0.118202 0.118060 0.117835 0.117647 0.117460 0.117272 0.117113 0.117012 0.116991 0.116990 0.116988 0.116968 0.116880 0.116740 0.116620 0.116500 0.116381 0.116280 0.116216 0.116203 0.116202 0.116201 0.116188 0.116132 0.116045 0.115971 0.115897 0.115823 0.115762 0.115723 0.115715 0.115714 0.115714 0.115706 0.115672 0.115619 0.115573 0.115528 0.115483 0.115444 0.115420 0.115415 0.115414 0.115414 0.115409 0.115387 0.115353 0.115323 0.115293 0.115263 0.115235 0.115218 0.115215 0.115214 
0.151277 0.151265 0.151182 0.150961 0.150667 0.150362 0.150058 0.149754 0.149438 0.149202 0.149112 0.149099 0.149086 0.148996 0.148758 0.148441 0.148124 0.147808 0.147492 0.147179 0.146944 0.146856 0.146843 0.146830 0.146743 0.146524 0.146232 0.145998 0.145764 0.145530 0.145326 0.145174 0.145122 0.145115 0.145107 0.145057 0.144932 0.144765 0.144627 0.144490 0.144353 0.144238 0.144152 0.144123 0.144119 0.144114 0.144084 0.144013 0.143918 0.143838 0.143759 0.143680 0.143617 0.143569 0.143552 0.143550 
0.160693 0.160677 0.160601 0.160407 0.160151 0.159883 0.159616 0.159348 0.159076 0.158871 0.158789 0.158771 0.158754 0.158671 0.158462 0.158185 0.157906 0.157627 0.157348 0.157071 0.156862 0.156778 0.156760 0.156743 0.156659 0.156451 0.156175 0.155901 0.155627 0.155353 0.155086 0.154884 0.154805 0.154789 0.154772 0.154693 0.154499 0.154242 0.154028 0.153814 0.153600 0.153409 0.153266 0.153214 0.153204 0.153193 0.153142 0.153016 0.152849 0.152708 0.152566 0.152425 0.152300 0.152207 0.152174 0.152168 0.152161 0.152129 0.152048 0.151940 0.151850 0.151759 0.151668 0.151585 0.151523 0.151501 0.151496 0.151491 0.151469 0.151412 0.151337 0.151274 0.151212 0.151149 0.151093 0.151051 0.151036 0.151032 0.151029 0.151014 0.150974 0.150922 0.150878 0.150835 0.150792 0.150752 0.150723 0.150712 0.150710 0.150707 0.150696 0.150667 0.150629 0.150596 0.150564 0.150531 0.150500 0.150478 0.150469 0.150467 
0.184313 0.184278 0.184164 0.183911 0.183579 0.183256 0.182933 0.182610 0.182290 0.182047 0.181941 0.181908 0.181876 0.181769 0.181525 0.181203 0.180872 0.180541 0.180210 0.179875 0.179621 0.179509 0.179475 0.179440 0.179328 0.179074 0.178738 0.178404 0.178069 0.177735 0.177405 0.177155 0.177045 0.177011 0.176978 0.176868 0.176618 0.176288 0.175964 0.175640 0.175316 0.174999 0.174757 0.174652 0.174619 0.174587 0.174482 0.174246 0.173935 0.173630 0.173326 0.173021 0.172724 0.172499 0.172400 0.172370 0.172340 0.172242 0.172024 0.171737 0.171461 0.171184 0.170908 0.170639 0.170435 0.170346 0.170319 0.170292 0.170204 0.170013 0.169761 0.169529 0.169298 0.169067 0.168857 0.168697 0.168633 0.168613 0.168594 0.168530 0.168388 0.168201 0.168025 0.167849 0.167673 0.167526 0.167414 0.167366 0.167351 0.167336 0.167288 0.167179 0.167037 0.166917 0.166797 0.166677 0.166568 0.166485 0.166448 0.166437 0.166426 0.166390 0.166317 0.166221 0.166137 0.166053 0.165968 0.165883 0.165817 0.165796 0.165789 0.165783 0.165761 0.165712 0.165647 0.165579 0.165512 0.165445 0.165395 0.165357 0.165340 0.165334 0.165329 0.165312 0.165271 0.165218 0.165171 0.165124 0.165077 0.165035 0.165003 0.164989 0.164984 0.164980 0.164966 0.164936 0.164896 0.164865 0.164834 0.164803 0.164770 0.164746 0.164734 0.164731 0.164729 0.164720 0.164702 0.164678 0.164653 0.164628 0.164602 0.164583 0.164567 0.164561 0.164559 0.164557 0.164551 0.164537 0.164518 0.164500 0.164483 0.164465 0.164451 0.164439 0.164434 0.164433 0.164431 0.164426 0.164414 0.164399 0.164387 0.164376 0.164364 0.164351 0.164342 0.164337 0.164336 0.164335 0.164330 0.164323 0.164314 0.164304 0.164293 0.164283 0.164275 0.164268 0.164266 0.164266 
0.203873 0.203785 0.203420 0.202565 0.201432 0.200417 0.199401 0.198386 0.197652 0.197097 0.196881 0.196829 0.196777 0.196563 0.196049 0.195368 0.194717 0.194066 0.193414 0.192781 0.192303 0.192108 0.192061 0.192015 0.191821 0.191355 0.190739 0.190131 0.189524 0.188916 0.188315 0.187861 0.187674 0.187629 0.187584 0.187395 0.186939 0.186334 0.185728 0.185122 0.184516 0.183911 0.183454 0.183265 0.183220 0.183175 0.182987 0.182538 0.181943 0.181370 0.180796 0.180222 0.179669 0.179252 0.179083 0.179042 0.179002 0.178836 0.178441 0.177917 0.177423 0.176928 0.176433 0.175971 0.175622 0.175482 0.175448 0.175414 0.175275 0.174959 0.174540 0.174149 0.173759 0.173369 0.173025 0.172766 0.172662 0.172636 0.172612 0.172508 0.172275 0.171966 0.171693 0.171420 0.171147 0.170919 0.170746 0.170679 0.170662 0.170646 0.170579 0.170417 0.170203 0.170030 0.169858 0.169686 0.169528 0.169409 0.169366 0.169356 0.169345 0.169303 0.169197 0.169058 0.168939 0.168820 0.168702 0.168590 0.168505 0.168475 0.168467 0.168461 0.168433 0.168365 0.168274 0.168190 0.168106 0.168022 0.167947 0.167891 0.167868 0.167862 0.167856 0.167833 0.167786 0.167724 0.167666 0.167607 0.167549 0.167500 0.167463 0.167447 0.167444 0.167440 0.167424 0.167391 0.167347 0.167307 0.167267 0.167228 0.167193 0.167167 0.167156 0.167154 
0.241412 0.241226 0.240490 0.238761 0.236473 0.234276 0.232078 0.229881 0.227728 0.226101 0.225430 0.225261 0.225091 0.224423 0.222850 0.220768 0.218797 0.216827 0.214857 0.213147 0.211856 0.211375 0.211253 0.211180 0.210895 0.210229 0.209347 0.208519 0.207691 0.206863 0.206069 0.205469 0.205221 0.205159 0.205096 0.204849 0.204264 0.203491 0.202752 0.202013 0.201275 0.200563 0.200026 0.199805 0.199749 0.199694 0.199475 0.198958 0.198273 0.197606 0.196940 0.196273 0.195630 0.195143 0.194941 0.194889 0.194838 0.194637 0.194161 0.193530 0.192912 0.192294 0.191675 0.191068 0.190609 0.190419 0.190371 0.190323 0.190134 0.189678 0.189076 0.188487 0.187898 0.187309 0.186709 0.186255 0.186066 0.186019 0.185971 0.185783 0.185337 0.184747 0.184169 0.183591 0.183013 0.182462 0.182045 0.181877 0.181834 0.181791 0.181624 0.181230 0.180708 0.180218 0.179727 0.179236 0.178778 0.178431 0.178289 0.178254 0.178218 0.178078 0.177773 0.177370 0.176994 0.176619 0.176243 0.175937 0.175705 0.175610 0.175586 0.175562 0.175468 0.175250 0.174960 0.174737 0.174513 0.174289 0.174088 0.173936 0.173886 0.173873 0.173860 0.173810 0.173688 0.173528 0.173388 0.173248 0.173108 0.172987 0.172895 0.172857 0.172847 0.172838 0.172799 0.172727 0.172632 0.172536 0.172441 0.172346 0.172273 0.172219 0.172195 0.172189 0.172183 0.172160 0.172102 0.172025 0.171965 0.171904 0.171844 0.171784 0.171739 0.171724 0.171720 0.171716 0.171701 0.171663 0.171613 0.171565 0.171517 0.171468 0.171423 0.171389 0.171375 0.171372 0.171368 0.171354 0.171325 0.171287 0.171251 0.171215 0.171179 0.171148 0.171124 0.171114 0.171111 
0.231972 0.231829 0.231294 0.230068 0.228448 0.226926 0.225405 0.223883 0.222440 0.221348 0.220899 0.220779 0.220660 0.220218 0.219210 0.217878 0.216643 0.215409 0.214174 0.213038 0.212178 0.211824 0.211729 0.211636 0.211287 0.210503 0.209467 0.208531 0.207595 0.206659 0.205792 0.205136 0.204869 0.204798 0.204727 0.204464 0.203861 0.203064 0.202329 0.201595 0.200860 0.200179 0.199664 0.199453 0.199396 0.199340 0.199130 0.198657 0.198032 0.197469 0.196907 0.196344 0.195824 0.195431 0.195267 0.195223 0.195181 0.195020 0.194649 0.194158 0.193662 0.193166 0.192670 0.192181 0.191811 0.191652 0.191610 0.191567 0.191408 0.191030 0.190529 0.190020 0.189510 0.189001 0.188488 0.188101 0.187937 0.187893 0.187849 0.187686 0.187303 0.186797 0.186304 0.185811 0.185318 0.184840 0.184479 0.184327 0.184286 0.184245 0.184093 0.183739 0.183272 0.182822 0.182372 0.181922 0.181492 0.181167 0.181033 0.180998 0.180962 0.180830 0.180523 0.180117 0.179735 0.179353 0.178971 0.178609 0.178335 0.178221 0.178190 0.178160 0.178046 0.177801 0.177477 0.177174 0.176870 0.176566 0.176310 0.176116 0.176037 0.176016 0.175995 0.175917 0.175736 0.175497 0.175301 0.175105 0.174909 0.174728 0.174591 0.174535 0.174519 0.174508 0.174464 0.174358 0.174218 0.174087 0.173957 0.173826 0.173722 0.173643 0.173609 0.173600 0.173591 0.173557 0.173478 0.173374 0.173291 0.173208 0.173125 0.173042 0.172979 0.172958 0.172952 0.172947 0.172925 0.172873 0.172805 0.172741 0.172676 0.172612 0.172555 0.172513 0.172494 0.172489 0.172484 0.172466 0.172427 0.172376 0.172327 0.172279 0.172230 0.172187 0.172154 0.172141 0.172137 0.172134 0.172121 0.172089 0.172046 0.172010 0.171975 0.171939 0.171905 0.171879 0.171868 0.171865 0.171862 0.171851 0.171830 0.171803 0.171774 0.171744 0.171715 0.171691 0.171673 0.171665 0.171663 
0.212082 0.211978 0.211541 0.210516 0.209158 0.207916 0.206673 0.205430 0.204290 0.203429 0.203090 0.203010 0.202930 0.202596 0.201810 0.200768 0.199814 0.198860 0.197906 0.197031 0.196371 0.196113 0.196051 0.195991 0.195737 0.195141 0.194352 0.193618 0.192884 0.192150 0.191472 0.190960 0.190756 0.190708 0.190660 0.190458 0.189975 0.189334 0.188712 0.188089 0.187467 0.186869 0.186417 0.186236 0.186193 0.186150 0.185969 0.185533 0.184955 0.184398 0.183842 0.183285 0.182749 0.182344 0.182184 0.182146 0.182108 0.181949 0.181568 0.181062 0.180591 0.180119 0.179647 0.179201 0.178865 0.178730 0.178698 0.178669 0.178544 0.178245 0.177848 0.177478 0.177107 0.176736 0.176407 0.176158 0.176059 0.176035 0.176012 0.175914 0.175713 0.175446 0.175208 0.174970 0.174732 0.174543 0.174400 0.174343 0.174329 0.174316 0.174258 0.174139 0.173982 0.173850 0.173718 0.173587 0.173495 0.173426 0.173398 0.173391 0.173385 0.173357 0.173291 0.173203 0.173142 0.173080 0.173018 0.172968 0.172931 0.172919 0.172916 0.172914 0.172902 0.172871 0.172830 0.172805 0.172779 0.172754 0.172732 0.172716 0.172713 0.172713 0.172712 0.172710 0.172701 0.172689 0.172684 0.172678 0.172673 0.172671 0.172670 0.172670 0.172670 0.172671 0.172674 0.172681 0.172690 0.172701 0.172711 0.172721 0.172734 0.172743 0.172746 0.172747 0.172748 0.172752 0.172766 0.172785 0.172804 0.172822 0.172841 0.172863 0.172880 0.172887 0.172889 
0.196851 0.196795 0.196552 0.195964 0.195185 0.194443 0.193702 0.192960 0.192250 0.191714 0.191502 0.191453 0.191406 0.191196 0.190691 0.190021 0.189389 0.188757 0.188125 0.187524 0.187071 0.186890 0.186849 0.186808 0.186630 0.186201 0.185632 0.185093 0.184553 0.184014 0.183504 0.183120 0.182964 0.182929 0.182894 0.182740 0.182377 0.181895 0.181434 0.180973 0.180512 0.180072 0.179740 0.179607 0.179576 0.179546 0.179414 0.179103 0.178691 0.178299 0.177906 0.177514 0.177146 0.176869 0.176757 0.176732 0.176707 0.176597 0.176341 0.176003 0.175687 0.175371 0.175056 0.174771 0.174557 0.174471 0.174452 0.174433 0.174348 0.174159 0.173909 0.173691 0.173473 0.173255 0.173073 0.172936 0.172881 0.172869 0.172856 0.172801 0.172684 0.172529 0.172391 0.172254 0.172116 0.172001 0.171913 0.171878 0.171870 0.171862 0.171827 0.171749 0.171646 0.171553 0.171460 0.171367 0.171290 0.171233 0.171208 0.171202 0.171196 0.171171 0.171116 0.171042 0.170975 0.170908 0.170841 0.170785 0.170743 0.170726 0.170722 0.170718 0.170701 0.170661 0.170609 0.170563 0.170517 0.170471 0.170436 0.170410 0.170399 0.170396 0.170394 0.170382 0.170358 0.170324 0.170298 0.170271 0.170245 0.170225 0.170211 0.170205 0.170203 0.170202 0.170196 0.170182 0.170164 0.170150 0.170136 0.170122 0.170112 0.170105 0.170102 0.170102 
0.192724 0.192673 0.192330 0.191438 0.190250 0.189150 0.188050 0.186950 0.185939 0.185180 0.184910 0.184870 0.184830 0.184559 0.183864 0.182937 0.182092 0.181247 0.180402 0.179625 0.179042 0.178832 0.178801 0.178770 0.178563 0.178029 0.177318 0.176671 0.176025 0.175378 0.174791 0.174350 0.174193 0.174169 0.174146 0.173990 0.173602 0.173086 0.172638 0.172190 0.171741 0.171395 0.171135 0.171045 0.171031 0.171018 0.170929 0.170733 0.170470 0.170272 0.170073 0.169875 0.169734 0.169628 0.169588 0.169582 0.169577 0.169545 0.169463 0.169354 0.169273 0.169192 0.169111 0.169049 0.169003 0.168992 0.168990 0.168989 0.168977 0.168943 0.168899 0.168874 0.168849 0.168824 0.168814 0.168807 0.168807 0.168807 
0.188353 0.188311 0.188165 0.187832 0.187394 0.186961 0.186529 0.186097 0.185676 0.185358 0.185221 0.185182 0.185142 0.185007 0.184698 0.184292 0.183898 0.183504 0.183110 0.182729 0.182440 0.182316 0.182280 0.182244 0.182121 0.181843 0.181477 0.181123 0.180768 0.180414 0.180073 0.179815 0.179705 0.179673 0.179641 0.179531 0.179283 0.178956 0.178640 0.178325 0.178010 0.177703 0.177470 0.177370 0.177341 0.177313 0.177213 0.176990 0.176695 0.176414 0.176133 0.175852 0.175581 0.175375 0.175290 0.175265 0.175241 0.175156 0.174963 0.174709 0.174459 0.174209 0.173959 0.173722 0.173542 0.173465 0.173442 0.173420 0.173342 0.173166 0.172933 0.172716 0.172500 0.172284 0.172074 0.171915 0.171846 0.171826 0.171806 0.171738 0.171593 0.171402 0.171214 0.171027 0.170839 0.170669 0.170540 0.170485 0.170470 0.170454 0.170400 0.170279 0.170120 0.169980 0.169840 0.169700 0.169575 0.169480 0.169440 0.169428 0.169417 0.169377 0.169296 0.169188 0.169095 0.169002 0.168909 0.168824 0.168759 0.168735 0.168729 0.168722 0.168698 0.168644 0.168572 0.168506 0.168440 0.168375 0.168321 0.168280 0.168263 0.168258 0.168253 0.168235 0.168196 0.168144 0.168107 0.168069 0.168032 0.167993 0.167963 0.167951 0.167947 0.167945 0.167936 0.167916 0.167889 0.167860 0.167831 0.167802 0.167784 0.167771 0.167765 0.167763 0.167762 0.167756 0.167740 0.167720 0.167708 0.167695 0.167682 0.167670 0.167662 0.167658 0.167657 0.167656 0.167652 0.167649 0.167644 0.167640 0.167636 0.167632 0.167632 0.167631 0.167632 0.167632 0.167632 0.167633 0.167633 0.167634 0.167638 0.167641 0.167645 0.167651 0.167656 0.167657 0.167658 0.167658 0.167660 0.167666 0.167673 0.167683 0.167693 0.167703 0.167712 0.167719 0.167723 0.167725 0.167726 0.167730 0.167740 0.167753 0.167765 0.167777 0.167789 0.167804 0.167815 0.167820 0.167821 
0.178956 0.178929 0.178809 0.178513 0.178121 0.177732 0.177343 0.176954 0.176568 0.176278 0.176162 0.176136 0.176111 0.175997 0.175717 0.175345 0.174981 0.174617 0.174252 0.173896 0.173627 0.173519 0.173496 0.173472 0.173366 0.173107 0.172764 0.172434 0.172105 0.171775 0.171456 0.171216 0.171122 0.171102 0.171081 0.170989 0.170763 0.170463 0.170175 0.169886 0.169598 0.169319 0.169108 0.169027 0.169009 0.168991 0.168911 0.168715 0.168453 0.168204 0.167955 0.167706 0.167466 0.167286 0.167217 0.167202 0.167188 0.167120 0.166956 0.166737 0.166534 0.166330 0.166127 0.165937 0.165793 0.165742 0.165730 0.165719 0.165669 0.165552 0.165397 0.165274 0.165151 0.165028 0.164927 0.164851 0.164827 0.164822 0.164817 0.164794 0.164737 0.164662 0.164604 0.164545 0.164486 0.164437 0.164400 0.164392 0.164390 0.164388 0.164379 0.164356 0.164325 0.164303 0.164281 0.164259 0.164241 0.164227 0.164226 0.164226 0.164225 0.164224 0.164218 0.164211 0.164211 0.164210 0.164210 0.164215 0.164218 0.164222 0.164222 0.164223 0.164226 0.164233 0.164242 0.164257 0.164271 0.164285 0.164301 0.164313 0.164321 0.164322 0.164324 0.164331 0.164347 0.164368 0.164392 0.164417 0.164441 0.164466 0.164484 0.164493 0.164495 
0.163496 0.163485 0.163395 0.163139 0.162798 0.162436 0.162074 0.161713 0.161348 0.161075 0.160976 0.160964 0.160952 0.160852 0.160577 0.160209 0.159858 0.159507 0.159156 0.158819 0.158566 0.158478 0.158467 0.158456 0.158368 0.158132 0.157817 0.157526 0.157236 0.156945 0.156686 0.156491 0.156427 0.156419 0.156412 0.156347 0.156186 0.155970 0.155857 0.155744 0.155631 0.155573 0.155530 0.155521 0.155520 0.155519 0.155510 0.155494 0.155473 0.155475 0.155478 0.155480 0.155498 0.155512 0.155520 0.155521 0.155522 0.155530 0.155553 0.155583 0.155622 0.155660 0.155699 0.155742 0.155774 0.155787 0.155788 
0.157119 0.157109 0.157066 0.156956 0.156810 0.156661 0.156512 0.156363 0.156212 0.156098 0.156052 0.156042 0.156032 0.155986 0.155870 0.155717 0.155562 0.155408 0.155253 0.155097 0.154979 0.154932 0.154922 0.154911 0.154865 0.154750 0.154597 0.154446 0.154295 0.154144 0.153997 0.153886 0.153842 0.153832 0.153822 0.153779 0.153671 0.153528 0.153389 0.153251 0.153112 0.152978 0.152877 0.152837 0.152828 0.152820 0.152781 0.152685 0.152559 0.152439 0.152319 0.152199 0.152081 0.151993 0.151958 0.151951 0.151943 0.151909 0.151824 0.151712 0.151606 0.151501 0.151396 0.151303 0.151233 0.151208 0.151202 0.151197 0.151171 0.151112 0.151034 0.150968 0.150903 0.150837 0.150780 0.150738 0.150723 0.150720 0.150716 0.150702 0.150667 0.150620 0.150583 0.150547 0.150510 0.150480 0.150457 0.150449 0.150448 0.150446 0.150438 0.150420 0.150396 0.150379 0.150362 0.150345 0.150333 0.150323 0.150321 0.150320 0.150320 0.150317 0.150311 0.150303 0.150300 0.150297 0.150294 0.150294 0.150294 0.150295 0.150295 0.150295 0.150296 0.150298 0.150300 0.150307 0.150314 0.150321 0.150331 0.150338 0.150342 0.150342 0.150343 0.150347 0.150354 0.150365 0.150378 0.150392 0.150406 0.150421 0.150432 0.150437 0.150438 
