0.136659 0.136665 0.136753 0.137161 0.137806 0.138489 0.139172 0.139855 0.140576 0.141031 0.141133 0.141140 0.141147 0.141249 0.141723 0.142473 0.143255 0.144038 0.144821 0.145636 0.146151 0.146265 0.146273 0.146281 0.146395 0.146927 0.147771 0.148651 0.149530 0.150410 0.151327 0.151905 0.152034 0.152042 0.152051 0.152180 0.152773 0.153714 0.154677 0.155640 0.156603 0.157573 0.158185 0.158319 0.158328 0.158337 0.158471 0.159083 0.160051 0.161009 0.161966 0.162924 0.163871 0.164469 0.164599 0.164608 0.164616 0.164746 0.165336 0.166271 0.167170 0.168068 0.168967 0.169809 0.170340 0.170451 0.170459 0.170467 0.170577 0.171066 0.171841 0.172510 0.173178 0.173846 0.174422 0.174786 0.174861 0.174866 0.174871 0.174948 0.175290 0.175831 0.176381 0.176931 0.177480 0.178047 0.178404 0.178481 0.178486 0.178491 0.178570 0.178913 0.179457 0.179907 0.180358 0.180808 0.181102 0.181288 0.181319 0.181321 0.181323 0.181352 0.181433 0.181563 0.181454 0.181345 0.181237 0.180866 0.180632 0.180566 0.180562 0.180557 0.180488 0.180113 0.179517 0.178674 0.177830 0.176986 0.175928 0.175260 0.175104 0.175093 
0.136656 0.136650 0.136592 0.136389 0.136091 0.135802 0.135512 0.135223 0.134944 0.134754 0.134700 0.134694 0.134689 0.134635 0.134451 0.134181 0.133919 0.133657 0.133395 0.133142 0.132970 0.132921 0.132916 0.132912 0.132863 0.132697 0.132454 0.132223 0.131991 0.131760 0.131538 0.131386 0.131343 0.131339 0.131335 0.131292 0.131145 0.130928 0.130715 0.130502 0.130288 0.130077 0.129933 0.129892 0.129887 
0.136657 0.136657 0.136650 0.136500 0.136261 0.135679 0.135097 0.134515 0.133801 0.133350 0.133248 0.133241 0.133234 0.133132 0.132660 0.131912 0.131247 0.130582 0.129916 0.129333 0.128965 0.128890 0.128885 0.128881 0.128807 0.128493 0.127995 0.127593 0.127190 0.126787 0.126441 0.126222 0.126175 0.126172 0.126169 0.126122 0.125903 0.125556 0.125156 0.124757 0.124358 0.123791 0.123434 0.123336 0.123329 0.123323 0.123221 0.122646 0.121735 0.120711 0.119688 0.118664 0.117816 0.117281 0.117178 0.117172 0.117165 0.117064 0.116681 0.116073 0.115749 0.115425 0.115101 0.114905 0.114781 0.114758 0.114756 0.114755 0.114732 0.114635 0.114482 0.114358 0.114235 0.114111 0.114014 0.113953 0.113941 0.113940 0.113940 0.113928 0.113876 0.113793 0.113719 0.113645 0.113572 0.113503 0.113459 0.113450 0.113449 0.113449 0.113440 0.113398 0.113332 0.113270 0.113209 0.113147 0.113093 0.113059 0.113052 0.113052 0.113051 0.113044 0.113015 0.112970 0.112934 0.112898 0.112863 0.112835 0.112818 0.112814 0.112814 0.112814 0.112810 0.112796 0.112774 0.112756 0.112739 0.112722 0.112709 0.112701 0.112699 0.112699 0.112699 0.112697 0.112691 0.112681 0.112674 0.112668 0.112661 0.112657 0.112655 0.112655 0.112655 0.112655 0.112654 0.112653 0.112651 0.112651 0.112652 0.112652 0.112653 0.112653 0.112654 0.112654 
0.174863 0.174850 0.174766 0.174542 0.174243 0.173954 0.173664 0.173375 0.173100 0.172894 0.172822 0.172811 0.172801 0.172729 0.172542 0.172292 0.172096 0.171901 0.171705 0.171549 0.171432 0.171395 0.171390 0.171385 0.171349 0.171262 0.171146 0.171060 0.170974 0.170889 0.170818 0.170765 0.170748 0.170745 0.170743 0.170725 0.170678 0.170616 0.170563 0.170510 0.170456 0.170407 0.170369 0.170356 0.170354 0.170352 0.170339 0.170308 0.170267 0.170230 0.170193 0.170156 0.170123 0.170098 0.170089 0.170088 
0.158327 0.158323 0.158309 0.158275 0.158230 0.158184 0.158137 0.158091 0.158042 0.158004 0.157988 0.157984 0.157979 0.157963 0.157926 0.157877 0.157828 0.157779 0.157730 0.157680 0.157642 0.157625 0.157621 0.157616 0.157599 0.157561 0.157510 0.157461 0.157411 0.157361 0.157310 0.157272 0.157255 0.157250 0.157245 0.157228 0.157189 0.157137 0.157087 0.157037 0.156986 0.156937 0.156899 0.156883 0.156878 0.156874 0.156858 0.156820 0.156771 0.156723 0.156674 0.156625 0.156577 0.156541 0.156525 0.156521 0.156516 0.156501 0.156465 0.156417 0.156371 0.156326 0.156280 0.156234 0.156199 0.156184 0.156180 0.156176 0.156161 0.156128 0.156084 0.156044 0.156005 0.155965 0.155933 0.155908 0.155899 0.155896 0.155893 0.155883 0.155862 0.155834 0.155813 0.155791 0.155769 0.155749 0.155734 0.155728 0.155726 0.155725 0.155719 0.155707 0.155691 0.155676 0.155662 0.155648 0.155637 0.155628 0.155625 0.155624 0.155623 0.155619 0.155611 0.155601 0.155592 0.155584 0.155576 0.155568 0.155562 0.155560 0.155559 0.155559 0.155557 0.155552 0.155546 0.155540 0.155533 0.155526 0.155521 0.155517 0.155515 0.155514 0.155514 0.155512 0.155508 0.155502 0.155497 0.155492 0.155487 0.155481 0.155477 0.155475 0.155475 0.155475 0.155473 0.155469 0.155463 0.155457 0.155451 0.155444 0.155438 0.155434 0.155431 0.155431 0.155430 0.155428 0.155423 0.155416 0.155408 0.155401 0.155394 0.155386 0.155379 0.155376 0.155376 0.155375 0.155372 0.155365 0.155356 0.155346 0.155336 0.155326 0.155316 0.155307 0.155304 0.155302 
0.152041 0.152037 0.152023 0.151992 0.151950 0.151906 0.151863 0.151820 0.151774 0.151739 0.151724 0.151719 0.151715 0.151699 0.151664 0.151619 0.151572 0.151525 0.151479 0.151432 0.151396 0.151381 0.151376 0.151371 0.151356 0.151319 0.151272 0.151224 0.151176 0.151128 0.151080 0.151044 0.151028 0.151023 0.151018 0.151002 0.150966 0.150917 0.150869 0.150820 0.150771 0.150723 0.150686 0.150671 0.150666 0.150661 0.150645 0.150609 0.150562 0.150514 0.150466 0.150418 0.150370 0.150333 0.150317 0.150312 0.150308 0.150292 0.150256 0.150208 0.150161 0.150114 0.150067 0.150020 0.149985 0.149969 0.149964 0.149960 0.149944 0.149908 0.149861 0.149814 0.149767 0.149720 0.149673 0.149638 0.149622 0.149618 0.149613 0.149598 0.149569 0.149531 0.149496 0.149461 0.149426 0.149396 0.149374 0.149365 0.149362 0.149360 0.149351 0.149332 0.149306 0.149283 0.149260 0.149237 0.149217 0.149201 0.149195 0.149193 0.149191 0.149184 0.149171 0.149153 0.149138 0.149123 0.149107 0.149094 0.149083 0.149080 0.149078 0.149077 0.149074 0.149065 0.149054 0.149043 0.149033 0.149023 0.149015 0.149008 0.149006 0.149005 0.149004 0.149001 0.148995 0.148987 0.148980 0.148974 0.148968 0.148962 0.148957 0.148955 0.148954 0.148954 0.148952 0.148949 0.148944 0.148939 0.148934 0.148929 0.148925 0.148923 0.148921 0.148921 0.148921 0.148919 0.148917 0.148913 0.148910 0.148907 0.148904 0.148901 0.148899 0.148898 0.148898 0.148898 0.148897 0.148895 0.148893 0.148891 0.148889 0.148887 0.148885 0.148883 0.148883 0.148883 0.148882 0.148882 0.148881 0.148879 0.148877 0.148875 0.148874 0.148872 0.148870 0.148869 0.148869 
0.146272 0.146267 0.146256 0.146233 0.146203 0.146173 0.146143 0.146112 0.146081 0.146058 0.146046 0.146041 0.146037 0.146025 0.146000 0.145969 0.145937 0.145905 0.145873 0.145841 0.145816 0.145804 0.145799 0.145794 0.145782 0.145757 0.145724 0.145692 0.145659 0.145627 0.145594 0.145569 0.145557 0.145552 0.145547 0.145535 0.145510 0.145477 0.145443 0.145410 0.145376 0.145343 0.145317 0.145305 0.145300 0.145295 0.145283 0.145258 0.145225 0.145192 0.145159 0.145126 0.145093 0.145068 0.145055 0.145050 0.145045 0.145033 0.145007 0.144974 0.144940 0.144907 0.144873 0.144840 0.144815 0.144803 0.144798 0.144793 0.144781 0.144756 0.144723 0.144690 0.144657 0.144624 0.144591 0.144566 0.144554 0.144549 0.144544 0.144531 0.144506 0.144474 0.144441 0.144408 0.144374 0.144341 0.144316 0.144303 0.144299 0.144294 0.144281 0.144256 0.144222 0.144189 0.144155 0.144121 0.144088 0.144062 0.144049 0.144044 0.144039 0.144027 0.144001 0.143967 0.143933 0.143899 0.143865 0.143832 0.143806 0.143794 0.143789 0.143784 0.143771 0.143745 0.143711 0.143678 0.143645 0.143612 0.143579 0.143554 0.143542 0.143537 0.143532 0.143520 0.143495 0.143462 0.143430 0.143398 0.143366 0.143337 0.143314 0.143306 0.143302 0.143299 0.143290 0.143273 0.143252 0.143232 0.143211 0.143191 0.143174 0.143161 0.143155 0.143153 0.143150 0.143144 0.143132 0.143116 0.143102 0.143087 0.143073 0.143063 0.143055 0.143051 0.143050 0.143048 0.143044 0.143037 0.143027 0.143017 0.143007 0.142997 0.142990 0.142984 0.142982 0.142981 0.142979 0.142977 0.142972 0.142965 0.142958 0.142952 0.142946 0.142941 0.142938 0.142937 0.142936 0.142936 0.142935 0.142932 0.142929 0.142926 0.142922 0.142919 0.142917 0.142915 0.142914 0.142914 0.142914 0.142913 0.142912 0.142911 0.142910 0.142909 0.142908 0.142907 0.142906 0.142906 0.142906 0.142907 0.142907 0.142908 0.142908 0.142909 0.142910 0.142910 0.142911 0.142912 0.142912 0.142913 0.142913 0.142914 0.142916 0.142918 0.142921 0.142923 0.142925 0.142928 0.142929 0.142930 0.142931 0.142931 0.142933 0.142936 0.142939 0.142943 0.142947 0.142951 0.142955 0.142958 0.142960 0.142960 0.142961 0.142963 0.142967 0.142972 0.142977 0.142983 0.142988 0.142994 0.142998 0.143000 0.143001 0.143002 0.143004 0.143009 0.143015 0.143022 0.143029 0.143036 0.143043 0.143048 0.143051 0.143052 
0.134695 0.134696 0.134699 0.134703 0.134709 0.134715 0.134721 0.134727 0.134732 0.134737 0.134739 0.134740 0.134741 0.134743 0.134747 0.134753 0.134758 0.134763 0.134768 0.134772 0.134776 0.134777 0.134778 0.134779 0.134781 0.134783 0.134787 0.134791 0.134794 0.134797 0.134800 0.134803 0.134804 0.134804 0.134805 0.134806 0.134808 0.134810 0.134812 0.134814 0.134816 0.134818 0.134819 0.134819 0.134820 0.134820 0.134820 0.134821 0.134822 0.134823 0.134823 0.134824 0.134824 0.134824 0.134824 0.134824 0.134823 0.134823 0.134823 0.134822 0.134821 0.134820 0.134819 0.134818 0.134818 0.134817 0.134817 0.134817 0.134816 0.134815 0.134814 0.134813 0.134812 0.134810 0.134808 0.134807 0.134806 0.134806 0.134806 0.134805 0.134804 0.134803 0.134802 0.134802 0.134801 0.134801 0.134801 0.134801 0.134801 0.134801 0.134801 0.134801 0.134801 0.134801 0.134801 0.134801 0.134801 0.134801 0.134801 0.134801 0.134801 0.134801 0.134802 0.134803 0.134804 0.134804 0.134805 0.134806 0.134807 0.134808 0.134808 0.134808 0.134809 0.134810 0.134812 0.134814 0.134817 0.134819 0.134821 0.134823 0.134824 0.134825 0.134825 0.134826 0.134828 0.134831 0.134834 0.134837 0.134840 0.134843 0.134845 0.134846 0.134847 0.134847 0.134849 0.134851 0.134853 0.134856 0.134858 0.134860 0.134861 0.134862 0.134863 0.134863 0.134863 0.134864 0.134865 0.134867 0.134867 0.134868 0.134869 0.134869 0.134869 0.134869 0.134869 0.134869 0.134870 0.134869 0.134869 0.134869 0.134868 0.134867 0.134866 0.134865 0.134864 0.134864 0.134863 0.134863 0.134861 0.134859 0.134857 0.134855 0.134853 0.134850 0.134848 0.134847 0.134846 0.134845 0.134844 0.134841 0.134838 0.134834 0.134831 0.134827 0.134823 0.134820 0.134818 0.134817 0.134816 0.134814 0.134811 0.134806 0.134801 0.134796 0.134791 0.134785 0.134781 0.134779 0.134778 0.134777 0.134774 0.134770 0.134764 0.134758 0.134752 0.134746 0.134739 0.134734 0.134731 0.134730 0.134729 0.134726 0.134721 0.134714 0.134707 0.134700 0.134693 0.134688 0.134685 0.134684 0.134684 0.134683 0.134683 0.134682 0.134681 0.134680 0.134679 0.134678 0.134677 0.134677 0.134676 0.134676 0.134676 0.134676 0.134676 0.134676 0.134677 0.134677 0.134678 0.134679 0.134680 0.134680 0.134680 0.134680 0.134681 0.134681 0.134682 0.134683 0.134684 0.134685 0.134686 0.134687 0.134688 0.134688 0.134688 0.134689 0.134690 0.134691 0.134692 0.134694 0.134695 0.134696 0.134697 0.134698 0.134698 0.134698 0.134699 0.134700 0.134702 0.134704 0.134705 0.134707 0.134708 0.134709 0.134710 0.134710 0.134711 0.134711 0.134712 0.134714 0.134716 0.134718 0.134719 0.134721 0.134722 0.134723 0.134723 0.134723 0.134724 0.134725 0.134726 0.134728 0.134729 0.134731 0.134733 0.134734 0.134735 0.134735 0.134735 0.134736 0.134738 0.134739 0.134741 0.134743 0.134744 0.134746 0.134747 0.134748 0.134749 0.134749 0.134750 0.134751 0.134753 0.134755 0.134757 0.134759 0.134761 0.134762 0.134763 0.134764 0.134764 0.134765 0.134767 0.134769 0.134771 0.134774 0.134776 0.134778 0.134780 0.134781 0.134782 0.134782 0.134783 0.134785 0.134788 0.134790 0.134793 0.134795 0.134798 0.134800 0.134802 0.134802 
