-2.361874 -1.412373 10.555576
-1.665473 -1.570604 11.915018
-1.042260 -1.678225 13.308818
-0.956939 -1.439182 14.823198
-0.862471 -1.204881 16.341542
-2.361208 -1.412412 10.557461
-1.666474 -1.570330 11.913308
-1.664473 -1.570877 11.916728
-1.042670 -1.678352 13.306865
-1.041849 -1.678097 13.310771
-0.956974 -1.439538 14.821230
-0.956903 -1.438826 14.825166
-0.862637 -1.205160 16.339568
-2.350461 -1.413039 10.587907
-1.682677 -1.565871 11.885733
-1.648324 -1.575296 11.944342
-1.049668 -1.680176 13.275399
-1.035219 -1.676038 13.342309
-0.957546 -1.445286 14.789458
-0.956331 -1.433078 14.856938
-0.865319 -1.209656 16.307702
-2.298764 -1.417513 10.726751
-2.205527 -1.432364 10.941795
-2.101625 -1.454698 11.151261
-1.990634 -1.482116 11.356457
-1.875100 -1.512838 11.558667
-1.757241 -1.545268 11.759268
-1.574578 -1.595297 12.071381
-1.460586 -1.624893 12.274629
-1.352052 -1.650539 12.481358
-1.251453 -1.670535 12.692657
-1.162110 -1.682696 12.909512
-1.087727 -1.684735 13.132227
-1.008631 -1.664166 13.487638
-0.981080 -1.636338 13.719202
-0.966226 -1.600847 13.950904
-0.960048 -1.560219 14.182179
-0.958850 -1.516680 14.413015
-0.958669 -1.472549 14.643744
-0.952584 -1.407349 15.002886
-0.943134 -1.368645 15.234390
-0.930199 -1.332005 15.466062
-0.914464 -1.297033 15.697820
-0.896645 -1.263307 15.929614
-0.877613 -1.230310 16.161416
76 NaN NaN
-2.362040 -1.412363 10.555104
-2.328149 -1.414340 10.651116
-2.291298 -1.418319 10.745969
-2.251833 -1.424091 10.839672
-2.210079 -1.431452 10.932267
-2.166338 -1.440209 11.023818
-2.120889 -1.450177 11.114408
-2.073987 -1.461185 11.204134
-2.025868 -1.473070 11.293101
-1.976751 -1.485680 11.381421
-1.926838 -1.498871 11.469208
-1.876320 -1.512504 11.556582
-1.825379 -1.526450 11.643659
-1.774189 -1.540579 11.730561
-1.722918 -1.554767 11.817406
-1.671734 -1.568890 11.904313
-1.620805 -1.582827 11.991399
-1.570301 -1.596451 12.078781
-1.520396 -1.609636 12.166574
-1.471272 -1.622250 12.254889
-1.423121 -1.634159 12.343836
-1.376146 -1.645219 12.433517
-1.330562 -1.655283 12.524030
-1.286604 -1.664193 12.615462
-1.244518 -1.671787 12.707888
-1.204572 -1.677891 12.801366
-1.167048 -1.682329 12.895936
-1.132246 -1.684919 12.991608
-1.100477 -1.685477 13.088360
-1.072058 -1.683824 13.186136
-1.047302 -1.679790 13.284833
-1.026395 -1.673297 13.384287
-1.009103 -1.664530 13.484260
-0.995085 -1.653732 13.584549
-0.983986 -1.641149 13.684996
-0.975448 -1.627016 13.785489
-0.969117 -1.611562 13.885951
-0.964648 -1.595002 13.986337
-0.961706 -1.577542 14.086629
-0.959967 -1.559377 14.186823
-0.959116 -1.540694 14.286934
-0.958847 -1.521673 14.386984
-0.958859 -1.502488 14.487004
-0.958852 -1.483314 14.587026
-0.958529 -1.464324 14.687082
-0.957587 -1.445694 14.787202
-0.955783 -1.427567 14.887402
-0.953112 -1.409948 14.987673
-0.949629 -1.392806 15.088003
-0.945393 -1.376108 15.188378
-0.940462 -1.359821 15.288789
-0.934896 -1.343912 15.389228
-0.928755 -1.328344 15.489686
-0.922102 -1.313081 15.590159
-0.914999 -1.298087 15.690641
-0.907509 -1.283325 15.791130
-0.899697 -1.268756 15.891622
-0.891625 -1.254342 15.992117
-0.883360 -1.240045 16.092612
-0.874965 -1.225826 16.193107
-0.866506 -1.211646 16.293603
-0.858047 -1.197465 16.394099
-0.849653 -1.183245 16.494594
-0.841390 -1.168947 16.595089
-0.833321 -1.154532 16.695584
-0.825512 -1.139961 16.796076
-0.818027 -1.125196 16.896564
-0.810929 -1.110199 16.997047
-0.804281 -1.094933 17.097519
-0.798147 -1.079361 17.197978
-0.792588 -1.063447 17.298416
-0.787665 -1.047156 17.398827
-0.783437 -1.030453 17.499201
-0.779965 -1.013305 17.599530
-0.777303 -0.995680 17.699801
-0.775510 -0.977547 17.800000
-2.361661 -1.412439 10.554787
-1.724786 -1.529129 9.869641
-1.279985 -1.588303 9.039832
-1.029609 -1.594197 8.129756
-0.960995 -1.553549 7.188531
-0.984268 -1.488286 6.245337
-0.989839 -1.425653 5.301726
-0.950787 -1.384369 4.357791
-0.873618 -1.366711 3.415367
-0.783943 -1.356123 2.473904
-0.692673 -1.345836 1.532591
-0.601469 -1.335539 0.591271
-2.360145 -1.412740 10.553519
-1.725929 -1.528945 9.871272
-1.723643 -1.529313 9.868010
-1.280729 -1.588234 9.041688
-1.279241 -1.588373 9.037977
-1.029921 -1.594241 8.131731
-1.029297 -1.594153 8.127780
-0.960996 -1.553671 7.190527
-0.960994 -1.553426 7.186535
-0.984212 -1.488430 6.247331
-0.984323 -1.488143 6.243343
-0.989874 -1.425767 5.303722
-0.989804 -1.425538 5.299729
-0.950918 -1.384427 4.359786
-0.950657 -1.384312 4.355796
-0.873801 -1.366736 3.417358
-0.873433 -1.366687 3.413376
-0.784135 -1.356145 2.475895
-0.783751 -1.356101 2.471913
-0.692867 -1.345858 1.534581
-0.692480 -1.345814 1.530600
-0.601660 -1.335561 0.593262
-2.344005 -1.415947 10.540021
-1.738092 -1.526991 9.888627
-1.711480 -1.531267 9.850655
-1.288647 -1.587491 9.061429
-1.271324 -1.589116 9.018236
-1.033464 -1.594653 8.152711
-1.025980 -1.593683 8.106763
-0.961003 -1.554977 7.211770
-0.960986 -1.552121 7.165291
-0.983621 -1.489957 6.268551
-0.984873 -1.486622 6.222121
-0.990246 -1.426985 5.324967
-0.989432 -1.424321 5.278484
-0.952306 -1.385041 4.381015
-0.949268 -1.383697 4.334567
-0.875754 -1.367002 3.438550
-0.871454 -1.366435 3.392186
-0.786179 -1.356378 2.497078
-0.781708 -1.355868 2.450730
-0.694926 -1.346088 1.555763
-0.690421 -1.345584 1.509418
-0.603701 -1.335795 0.614446
-2.274950 -1.429633 10.481704
-2.170139 -1.449949 10.386180
-2.069017 -1.469063 10.286516
-1.972542 -1.486694 10.182087
-1.880022 -1.503087 10.073945
-1.792018 -1.518092 9.961905
-1.660382 -1.539322 9.775287
-1.583757 -1.550926 9.654796
-1.512054 -1.561099 9.531186
-1.444626 -1.570047 9.405100
-1.381760 -1.577702 9.276597
-1.323510 -1.584067 9.145864
-1.239285 -1.591767 8.932654
-1.192700 -1.594942 8.797213
-1.150399 -1.596970 8.660350
-1.112443 -1.597847 8.522208
-1.079074 -1.597523 8.382883
-1.049688 -1.596166 8.242668
-1.012297 -1.591524 8.016402
-0.994494 -1.587226 7.874311
-0.980791 -1.581903 7.731801
-0.971265 -1.575537 7.588990
-0.964887 -1.568379 7.446041
-0.961761 -1.560393 7.303026
-0.961571 -1.546349 7.074056
-0.963784 -1.536945 6.931108
-0.967391 -1.527131 6.788215
-0.971728 -1.517070 6.645360
-0.976424 -1.506829 6.502528
-0.980994 -1.496522 6.359698
-0.987044 -1.480111 6.130958
-0.989678 -1.470050 5.988061
-0.991516 -1.460179 5.845139
-0.992406 -1.450589 5.702188
-0.992369 -1.441322 5.559213
-0.991391 -1.432430 5.416218
-0.987633 -1.419191 5.187226
-0.983960 -1.411595 5.044200
-0.979167 -1.404621 4.901176
-0.973238 -1.398323 4.758163
-0.966226 -1.392701 4.615170
-0.958026 -1.387836 4.472213
-0.942972 -1.381268 4.243396
-0.932464 -1.377864 4.100548
-0.921203 -1.374931 3.957746
-0.909363 -1.372358 3.814985
-0.896936 -1.370143 3.672267
-0.884120 -1.368159 3.529580
-0.862943 -1.365358 3.301169
-0.849468 -1.363734 3.158538
-0.835917 -1.362133 3.015914
-0.822304 -1.360542 2.873296
-0.808646 -1.358958 2.730682
-0.794942 -1.357381 2.588072
-0.772922 -1.354868 2.359738
-0.759131 -1.353304 2.217136
-0.745313 -1.351744 2.074538
-0.731477 -1.350188 1.931941
-0.717628 -1.348633 1.789345
-0.703770 -1.347079 1.646750
-0.681577 -1.344592 1.418432
-0.667724 -1.343038 1.275836
-0.653881 -1.341482 1.133240
-0.640055 -1.339924 0.990642
-0.626252 -1.338362 0.848042
-0.612474 -1.336797 0.705439
110 NaN NaN
-2.362040 -1.412363 10.555104
-2.285527 -1.427568 10.491114
-2.210934 -1.442132 10.424751
-2.138319 -1.456046 10.356095
-2.067733 -1.469304 10.285228
-1.999222 -1.481900 10.212236
-1.932825 -1.493831 10.137207
-1.868574 -1.505094 10.060231
-1.806499 -1.515691 9.981397
-1.746621 -1.525620 9.900797
-1.688958 -1.534886 9.818520
-1.633524 -1.543491 9.734655
-1.580326 -1.551439 9.649290
-1.529371 -1.558735 9.562510
-1.480660 -1.565386 9.474399
-1.434194 -1.571396 9.385039
-1.389969 -1.576773 9.294509
-1.347980 -1.581524 9.202885
-1.308223 -1.585655 9.110242
-1.270688 -1.589175 9.016650
-1.235369 -1.592090 8.922180
-1.202257 -1.594408 8.826898
-1.171342 -1.596136 8.730867
-1.142618 -1.597280 8.634150
-1.116076 -1.597848 8.536806
-1.091708 -1.597845 8.438894
-1.069507 -1.597279 8.340470
-1.049469 -1.596154 8.241587
-1.031589 -1.594477 8.142299
-1.015863 -1.592252 8.042657
-1.002290 -1.589483 7.942714
-0.990870 -1.586176 7.842518
-0.981548 -1.582346 7.742123
-0.974179 -1.578029 7.641585
-0.968604 -1.573261 7.540953
-0.964661 -1.568081 7.440263
-0.962186 -1.562528 7.339546
-0.961013 -1.556639 7.238824
-0.960977 -1.550451 7.138113
-0.961911 -1.544003 7.037423
-0.963650 -1.537330 6.936758
-0.966030 -1.530470 6.836119
-0.968887 -1.523458 6.735502
-0.972057 -1.516329 6.634903
-0.975378 -1.509121 6.534314
-0.978687 -1.501867 6.433729
-0.981821 -1.494604 6.333138
-0.984624 -1.487365 6.232536
-0.987025 -1.480179 6.131920
-0.989009 -1.473065 6.031289
-0.990567 -1.466045 5.930645
-0.991684 -1.459140 5.829987
-0.992351 -1.452370 5.729315
-0.992556 -1.445758 5.628631
-0.992285 -1.439323 5.527936
-0.991528 -1.433088 5.427231
-0.990273 -1.427074 5.326517
-0.988509 -1.421301 5.225796
-0.986223 -1.415791 5.125072
-0.983404 -1.410565 5.024346
-0.980041 -1.405645 4.923621
-0.976121 -1.401052 4.822901
-0.971635 -1.396806 4.722189
-0.966578 -1.392923 4.621490
-0.960976 -1.389386 4.520806
-0.954866 -1.386174 4.420142
-0.948282 -1.383261 4.319498
-0.941261 -1.380626 4.218876
-0.933837 -1.378243 4.118277
-0.926046 -1.376091 4.017700
-0.917923 -1.374146 3.917145
-0.909503 -1.372384 3.816611
-0.900821 -1.370782 3.716097
-0.891912 -1.369316 3.615601
-0.882811 -1.367964 3.515120
-0.873552 -1.366702 3.414652
-0.864171 -1.365507 3.314195
-0.854702 -1.364356 3.213746
-0.845179 -1.363224 3.113302
-0.835626 -1.362099 3.012860
-0.826046 -1.360977 2.912421
-0.816440 -1.359860 2.811984
-0.806812 -1.358746 2.711550
-0.797161 -1.357635 2.611117
-0.787491 -1.356527 2.510687
-0.777804 -1.355422 2.410258
-0.768100 -1.354320 2.309830
-0.758383 -1.353219 2.209404
-0.748654 -1.352121 2.108979
-0.738914 -1.351024 2.008555
-0.729166 -1.349928 1.908132
-0.719412 -1.348833 1.807709
-0.709654 -1.347739 1.707287
-0.699893 -1.346645 1.606865
-0.690131 -1.345551 1.506443
-0.680371 -1.344457 1.406021
-0.670614 -1.343363 1.305599
-0.660862 -1.342268 1.205176
-0.651117 -1.341172 1.104753
-0.641380 -1.340074 1.004328
-0.631654 -1.338975 0.903903
-0.621941 -1.337874 0.803477
-0.612243 -1.336770 0.703049
-0.602561 -1.335664 0.602619
-0.592897 -1.334556 0.502188
-0.583253 -1.333444 0.401755
-0.573632 -1.332329 0.301320
-0.564034 -1.331210 0.200882
-0.554463 -1.330087 0.100442
-0.544919 -1.328960 0.000000
-2.362387 -1.412723 10.555124
-3.770651 -1.351231 10.240425
-4.584692 -0.022845 9.773544
-5.298713 1.393913 9.363208
-6.014018 2.809771 8.951920
-6.756159 4.220153 8.571251
-7.612678 5.555509 8.164601
-8.663191 6.726372 7.714521
-9.939935 7.621118 7.222605
-11.392527 8.171778 6.712080
-12.932641 8.402230 6.208775
-2.363774 -1.414162 10.555203
-3.769331 -1.352569 10.241109
-3.771970 -1.349892 10.239741
-4.583838 -0.024588 9.774027
-4.585545 -0.021102 9.773060
-5.297841 1.392184 9.363709
-5.299585 1.395642 9.362706
-6.013141 2.808042 8.952409
-6.014895 2.811501 8.951430
-6.755201 4.218463 8.571726
-6.757117 4.221843 8.570776
-7.611532 5.553955 8.165121
-7.613825 5.557062 8.164081
-8.661763 6.725096 7.715100
-8.664621 6.727644 7.713942
-9.938249 7.620237 7.223223
-9.941621 7.621999 7.221987
-11.390684 8.171312 6.712703
-11.394369 8.172245 6.711457
-12.930738 8.402108 6.209379
-2.387543 -1.438819 10.556558
-3.746550 -1.375353 10.252789
-3.794585 -1.326957 10.228022
-4.569211 -0.054455 9.782321
-4.600173 0.008764 9.764766
-5.282899 1.362557 9.372295
-5.314534 1.425264 9.354114
-5.998116 2.778428 8.960896
-6.029925 2.841141 8.943044
-6.738786 4.189496 8.579862
-6.773533 4.250811 8.562640
-7.591879 5.527326 8.174034
-7.633546 5.583635 8.155152
-8.637552 6.702934 7.724970
-8.689132 6.749448 7.704015
-9.909401 7.605058 7.233811
-9.970508 7.637102 7.211395
-11.359108 8.163326 6.723375
-11.425946 8.180231 6.700784
-12.898129 8.400029 6.219730
-2.505248 -1.543410 10.559043
-2.727454 -1.654494 10.542587
-2.969437 -1.701561 10.505903
-3.212164 -1.684123 10.451769
-3.439141 -1.606765 10.383789
-3.635855 -1.474781 10.305268
-3.895983 -1.219111 10.173323
-4.046046 -1.038718 10.086991
-4.178951 -0.842384 10.007883
-4.293429 -0.630669 9.940178
-4.398453 -0.412028 9.879232
-4.502577 -0.192470 9.820021
-4.668590 0.145519 9.725691
-4.778703 0.360933 9.662247
-4.888809 0.576307 9.598654
-4.997481 0.792724 9.536142
-5.105585 1.009562 9.474109
-5.214143 1.226093 9.411793
-5.383387 1.561654 9.314529
-5.492498 1.777793 9.251819
-5.601543 1.994024 9.189311
-5.710522 2.210332 9.126956
-5.819612 2.426440 9.064107
-5.928974 2.642204 9.000550
-6.099163 2.977825 8.905188
-6.209226 3.194990 8.847929
-6.320243 3.411929 8.791656
-6.432893 3.627739 8.734306
-6.547365 3.842321 8.675964
-6.664017 4.055599 8.617157
-6.849909 4.383693 8.524977
-6.973304 4.592712 8.464667
-7.099997 4.799503 8.403523
-7.230176 5.003867 8.341553
-7.364246 5.205418 8.278675
-7.502404 5.403884 8.214844
-7.725724 5.704865 8.113729
-7.875604 5.893716 8.047241
-8.030569 6.078012 7.979641
-8.190619 6.257497 7.910956
-8.356103 6.431534 7.841143
-8.526872 6.599943 7.770265
-8.802835 6.848832 7.658152
-8.987643 7.000450 7.584640
-9.177607 7.145105 7.510244
-9.372874 7.282050 7.434997
-9.572977 7.411410 7.359032
-9.777890 7.532598 7.282422
-10.104491 7.704692 7.162526
-10.320005 7.804987 7.084806
-10.539072 7.897063 7.006849
-10.761385 7.980878 6.928758
-10.986543 8.056686 6.850634
-11.214266 8.124476 6.772570
-11.571971 8.214541 6.651711
-11.804690 8.263272 6.574146
-12.038940 8.304624 6.496905
-12.274368 8.339416 6.420012
-12.510835 8.367431 6.343535
-12.748074 8.389407 6.267477
173 NaN NaN
-2.362040 -1.412363 10.555104
-2.431766 -1.484693 10.559079
-2.510315 -1.547459 10.559040
-2.596056 -1.599834 10.555057
-2.687270 -1.641455 10.547327
-2.782329 -1.672301 10.536113
-2.879779 -1.692551 10.521695
-2.978347 -1.702457 10.504333
-3.076900 -1.702246 10.484256
-3.174376 -1.692076 10.461658
-3.269719 -1.672011 10.436706
-3.361798 -1.642025 10.409555
-3.449372 -1.602101 10.380381
-3.531714 -1.553258 10.349544
-3.608967 -1.497378 10.317467
-3.681722 -1.436233 10.284458
-3.750814 -1.371348 10.250705
-3.817201 -1.304020 10.216301
-3.881713 -1.235174 10.181335
-3.944327 -1.164693 10.146177
-4.004740 -1.092181 10.111308
-4.062620 -1.017265 10.077233
-4.117597 -0.939623 10.044490
-4.169290 -0.859013 10.013629
-4.217718 -0.775656 9.984829
-4.263465 -0.690221 9.957775
-4.307192 -0.603315 9.932095
-4.349581 -0.515463 9.907403
-4.391325 -0.427137 9.883308
-4.433033 -0.338728 9.859457
-4.474911 -0.250380 9.835674
-4.517051 -0.162173 9.811832
-4.559546 -0.074188 9.787801
-4.602488 0.013492 9.763454
-4.645962 0.100786 9.738669
-4.689931 0.187708 9.713450
-4.734230 0.274374 9.687932
-4.778692 0.360910 9.662254
-4.823149 0.447443 9.636555
-4.867435 0.534097 9.610975
-4.911424 0.620969 9.585617
-4.955158 0.708025 9.560456
-4.998722 0.795207 9.535430
-5.042199 0.882452 9.510476
-5.085674 0.969701 9.485533
-5.129229 1.056897 9.460542
-5.172893 1.144017 9.435479
-5.216647 1.231075 9.410356
-5.260468 1.318085 9.385184
-5.304336 1.405061 9.359976
-5.348229 1.492018 9.334745
-5.392129 1.578968 9.309503
-5.436029 1.665918 9.284262
-5.479925 1.752876 9.259038
-5.523811 1.839846 9.233842
-5.567682 1.926837 9.208690
-5.611535 2.013852 9.183592
-5.655376 2.100882 9.158524
-5.699218 2.187907 9.133439
-5.743074 2.274905 9.108286
-5.786958 2.361855 9.083016
-5.830884 2.448735 9.057580
-5.874861 2.535543 9.031984
-5.918883 2.622324 9.006378
-5.962946 2.709132 8.980930
-6.007043 2.796018 8.955811
-6.051167 2.883033 8.931192
-6.095313 2.970218 8.907223
-6.139506 3.057542 8.883854
-6.183787 3.144936 8.860916
-6.228203 3.232330 8.838240
-6.272796 3.319657 8.815655
-6.317611 3.406850 8.792992
-6.362691 3.493848 8.770105
-6.408054 3.580638 8.746986
-6.453714 3.667220 8.723678
-6.499686 3.753598 8.700223
-6.545983 3.839773 8.676664
-6.592618 3.925749 8.653043
-6.639609 4.011520 8.629380
-6.686978 4.097066 8.605659
-6.734747 4.182369 8.581864
-6.782939 4.267408 8.557978
-6.831575 4.352163 8.533983
-6.880679 4.436612 8.509863
-6.930270 4.520739 8.485612
-6.980368 4.604526 8.461229
-7.030993 4.687957 8.436714
-7.082166 4.771014 8.412065
-7.133905 4.853678 8.387281
-7.186229 4.935933 8.362361
-7.239160 5.017755 8.337299
-7.292715 5.099125 8.312092
-7.346915 5.180020 8.286735
-7.401778 5.260417 8.261222
-7.457323 5.340295 8.235551
-7.513567 5.419628 8.209717
-7.570527 5.498395 8.183718
-7.628222 5.576569 8.157552
-7.686666 5.654127 8.131215
-7.745877 5.731043 8.104707
-7.805868 5.807290 8.078026
-7.866655 5.882844 8.051169
-7.928249 5.957676 8.024135
-7.990664 6.031760 7.996923
-8.053912 6.105068 7.969532
-8.118003 6.177571 7.941962
-8.182948 6.249242 7.914212
-8.248753 6.320053 7.886283
-8.315425 6.389977 7.858176
-8.382971 6.458984 7.829892
-8.451396 6.527047 7.801431
-8.520705 6.594136 7.772797
-8.590897 6.660225 7.743990
-8.661972 6.725288 7.715015
-8.733930 6.789299 7.685873
-8.806768 6.852230 7.656569
-8.880485 6.914055 7.627107
-8.955074 6.974750 7.597489
-9.030527 7.034292 7.567722
-9.106835 7.092660 7.537810
-9.183988 7.149833 7.507759
-9.261977 7.205789 7.477574
-9.340791 7.260506 7.447260
-9.420414 7.313970 7.416825
-9.500829 7.366167 7.386275
-9.582022 7.417082 7.355617
-9.663974 7.466702 7.324857
-9.746670 7.515012 7.294002
-9.830090 7.562003 7.263059
-9.914213 7.607670 7.232037
-9.999017 7.652007 7.200941
-10.084482 7.695010 7.169781
-10.170586 7.736675 7.138561
-10.257308 7.776997 7.107291
-10.344625 7.815979 7.075977
-10.432514 7.853624 7.044626
-10.520952 7.889937 7.013245
-10.609914 7.924922 6.981842
-10.699381 7.958582 6.950423
-10.789329 7.990926 6.918994
-10.879735 8.021964 6.887561
-10.970576 8.051706 6.856132
-11.061830 8.080164 6.824711
-11.153477 8.107350 6.793304
-11.245495 8.133274 6.761918
-11.337864 8.157952 6.730556
-11.430563 8.181399 6.699224
-11.523572 8.203631 6.667926
-11.616873 8.224663 6.636668
-11.710447 8.244512 6.605452
-11.804277 8.263195 6.574283
-11.898345 8.280729 6.543165
-11.992634 8.297131 6.512100
-12.087129 8.312421 6.481093
-12.181815 8.326616 6.450145
-12.276676 8.339735 6.419260
-12.371698 8.351796 6.388441
-12.466869 8.362817 6.357689
-12.562174 8.372818 6.327006
-12.657603 8.381817 6.296395
-12.753142 8.389832 6.265858
-12.848782 8.396883 6.235394
-12.944510 8.402986 6.205007
-13.040318 8.408160 6.174698
-13.136196 8.412422 6.144467
-13.232134 8.415789 6.114315
-13.328124 8.418280 6.084243
-13.424158 8.419911 6.054253
-13.520228 8.420702 6.024344
-13.616327 8.420668 5.994516
-13.712447 8.419829 5.964771
-13.808583 8.418202 5.935108
-1.042033 -1.677822 13.308627
-0.947832 -1.504862 13.228484
-0.863435 -1.325103 13.152522
-0.791459 -1.137884 13.082051
-0.735449 -0.942792 13.018926
-0.700056 -0.740126 12.965721
-0.690877 -0.531705 12.925780
-0.713362 -0.321850 12.902787
-0.770509 -0.117483 12.899529
-0.860727 0.073889 12.916402
-0.978342 0.247211 12.951174
-1.116339 0.401061 13.000275
-1.268634 0.536601 13.060209
-1.430773 0.656056 13.128183
-1.041127 -1.676210 13.307865
-0.948697 -1.506504 13.229229
-0.946967 -1.503220 13.227739
-0.864201 -1.326811 13.153224
-0.862669 -1.323394 13.151819
-0.792099 -1.139665 13.082697
-0.790820 -1.136102 13.081405
-0.735925 -0.944649 13.019495
-0.734973 -0.940935 13.018356
-0.700321 -0.742052 12.966188
-0.699792 -0.738199 12.965255
-0.690873 -0.533677 12.926109
-0.690880 -0.529732 12.925451
-0.713042 -0.323818 12.902943
-0.713683 -0.319882 12.902631
-0.769855 -0.119373 12.899491
-0.771163 -0.115593 12.899567
-0.859772 0.072146 12.916176
-0.861682 0.075632 12.916628
-0.977150 0.245651 12.950789
-0.979533 0.248770 12.951558
-1.114978 0.399686 12.999767
-1.117699 0.402437 13.000782
-1.267157 0.535393 13.059610
-1.270111 0.537809 13.060808
-1.429216 0.654992 13.127517
-1.037073 -1.669005 13.304456
-0.952565 -1.513847 13.232560
-0.943295 -1.495741 13.224491
-0.867626 -1.334452 13.156365
-0.859403 -1.315658 13.148749
-0.794958 -1.147631 13.085585
-0.788048 -1.128093 13.078557
-0.738054 -0.952953 13.022043
-0.732845 -0.932631 13.015808
-0.701502 -0.750668 12.968274
-0.698611 -0.729583 12.963168
-0.690857 -0.542498 12.927580
-0.690896 -0.520911 12.923981
-0.711608 -0.332617 12.903641
-0.715116 -0.311082 12.901933
-0.766932 -0.127822 12.899321
-0.774086 -0.107143 12.899737
-0.855503 0.064353 12.915166
-0.865951 0.083424 12.917638
-0.971824 0.238676 12.949067
-0.984859 0.255745 12.953280
-1.108895 0.393537 12.997496
-1.123782 0.408586 13.003053
-1.260554 0.529990 13.056931
-1.276715 0.543212 13.063486
-1.422256 0.650233 13.124537
-1.027056 -1.651198 13.296032
-1.013769 -1.627579 13.284858
-1.000482 -1.603960 13.273684
-0.987478 -1.580131 13.262629
-0.974800 -1.556062 13.251710
-0.962123 -1.531993 13.240792
-0.934252 -1.477237 13.216479
-0.922257 -1.452692 13.205851
-0.910262 -1.428148 13.195223
-0.898544 -1.403423 13.184716
-0.887317 -1.378378 13.174421
-0.876090 -1.353333 13.164126
-0.851594 -1.296382 13.141277
-0.841235 -1.270813 13.131365
-0.830877 -1.245245 13.121454
-0.820772 -1.219537 13.111657
-0.811398 -1.193427 13.102190
-0.802025 -1.167316 13.092722
-0.781827 -1.107990 13.071808
-0.773574 -1.081325 13.062856
-0.765321 -1.054660 13.053904
-0.757265 -1.027910 13.045044
-0.750289 -1.000692 13.036692
-0.743313 -0.973473 13.028340
-0.728646 -0.911722 13.010022
-0.723125 -0.883969 13.002369
-0.717603 -0.856216 12.994717
-0.712164 -0.828439 12.987106
-0.708292 -0.800199 12.980268
-0.704421 -0.771958 12.973429
-0.696857 -0.708040 12.958603
-0.694843 -0.679397 12.952706
-0.692830 -0.650754 12.946809
-0.690817 -0.622111 12.940912
-0.690763 -0.593211 12.936035
-0.690816 -0.564297 12.931214
-0.692118 -0.499068 12.920980
-0.694424 -0.470070 12.917368
-0.696731 -0.441072 12.913756
-0.699037 -0.412073 12.910144
-0.703368 -0.383206 12.907653
-0.708066 -0.354362 12.905366
-0.719697 -0.289519 12.900803
-0.726852 -0.261106 12.899921
-0.734007 -0.232693 12.899039
-0.741162 -0.204280 12.898157
-0.750125 -0.176400 12.898346
-0.759707 -0.148703 12.898902
-0.782052 -0.086576 12.900611
-0.793939 -0.059854 12.902581
-0.805827 -0.033132 12.904552
-0.817715 -0.006410 12.906523
-0.830958 0.019553 12.909357
-0.844953 0.045096 12.912669
-0.876911 0.102393 12.920406
-0.892767 0.126626 12.924948
-0.908623 0.150858 12.929491
-0.924479 0.175091 12.934033
-0.941204 0.198580 12.939171
-0.958662 0.221441 12.944814
-0.998180 0.272818 12.957647
-1.016992 0.294306 12.964254
-1.035803 0.315794 12.970861
-1.054615 0.337282 12.977468
-1.073922 0.358185 12.984442
-1.093862 0.378341 12.991885
-1.138829 0.423763 13.008675
-1.159704 0.442654 13.016837
-1.180578 0.461546 13.025000
-1.201453 0.480437 13.033162
-1.222587 0.498931 13.041532
-1.244234 0.516640 13.050312
-1.293035 0.556562 13.070106
-1.315264 0.573271 13.079369
-1.337549 0.589883 13.088679
-1.359834 0.606494 13.097990
-1.382242 0.622871 13.107406
-1.405057 0.638471 13.117174
28 NaN NaN
-1.042260 -1.678225 13.308818
-0.993374 -1.591325 13.267707
-0.946730 -1.502770 13.227535
-0.902598 -1.412467 13.188433
-0.861293 -1.320324 13.150558
-0.823184 -1.226257 13.114094
-0.788699 -1.130195 13.079263
-0.758337 -1.032096 13.046328
-0.732674 -0.931963 13.015603
-0.712360 -0.829868 12.987452
-0.698118 -0.725984 12.962297
-0.690713 -0.620622 12.940605
-0.690909 -0.514269 12.922873
-0.699392 -0.407612 12.909589
-0.716673 -0.301528 12.901176
-0.742987 -0.197030 12.897932
-0.778230 -0.095166 12.899977
-0.821952 0.003114 12.907225
-0.873423 0.097063 12.919407
-0.931745 0.186195 12.936115
-0.995965 0.270287 12.956869
-1.065164 0.349333 12.981173
-1.138518 0.423481 13.008553
-1.215312 0.492980 13.038581
-1.294949 0.558128 13.070882
-1.376937 0.619243 13.105135
-1.460872 0.676639 13.141069
-1.546428 0.730615 13.178456
-1.724380 -1.528838 9.869617
-1.538264 -1.392012 9.858578
-1.359074 -1.246193 9.848490
-1.189327 -1.089452 9.839647
-1.032991 -0.919326 9.832490
-0.896548 -0.732902 9.827699
-0.790662 -0.527687 9.826301
-0.732375 -0.304551 9.829755
-0.738604 -0.074508 9.839119
-0.810163 0.143953 9.853755
-0.932045 0.338985 9.871895
-1.086610 0.509458 9.891954
-1.261558 0.659047 9.912995
-1.449568 0.791902 9.934538
-1.722756 -1.527675 9.869519
-1.539838 -1.393243 9.858668
-1.536691 -1.390781 9.858487
-1.360581 -1.247506 9.848571
-1.357567 -1.244881 9.848408
-1.190743 -1.090863 9.839716
-1.187911 -1.088042 9.839577
-1.034278 -0.920856 9.832544
-1.031704 -0.917796 9.832436
-0.897646 -0.734574 9.827731
-0.895450 -0.731231 9.827667
-0.791474 -0.529515 9.826302
-0.789850 -0.525860 9.826300
-0.732509 -0.306545 9.829691
-0.732242 -0.302557 9.829820
-0.738186 -0.076461 9.839008
-0.739022 -0.072555 9.839230
-0.809274 0.142168 9.853609
-0.811051 0.145739 9.853901
-0.930830 0.337405 9.871728
-0.933261 0.340565 9.872062
-1.085185 0.508066 9.891776
-1.088035 0.510851 9.892132
-1.259997 0.657809 9.912811
-1.263119 0.660284 9.913179
-1.447917 0.790789 9.934351
-1.714964 -1.522096 9.869051
-1.547387 -1.399150 9.859102
-1.529142 -1.384874 9.858053
-1.367810 -1.253803 9.848962
-1.350339 -1.238584 9.848017
-1.197536 -1.097631 9.840051
-1.181119 -1.081273 9.839242
-1.040453 -0.928195 9.832803
-1.025529 -0.910457 9.832177
-0.902911 -0.742593 9.827884
-0.890185 -0.723211 9.827513
-0.795368 -0.538284 9.826307
-0.786264 -0.516972 9.826327
-0.733595 -0.316056 9.829421
-0.731602 -0.292988 9.830131
-0.736183 -0.085829 9.838473
-0.741025 -0.063187 9.839765
-0.805012 0.133600 9.852907
-0.815314 0.154307 9.854602
-0.925001 0.329826 9.870928
-0.939090 0.348143 9.872863
-1.078349 0.501388 9.890922
-1.094871 0.517529 9.892986
-1.252511 0.651874 9.911929
-1.270605 0.666220 9.914062
-1.439994 0.785453 9.933453
-1.695404 -1.508088 9.867877
-1.669432 -1.489489 9.866318
-1.643459 -1.470889 9.864758
-1.617779 -1.451887 9.863240
-1.592184 -1.432766 9.861733
-1.566590 -1.413644 9.860227
-1.510192 -1.370046 9.856964
-1.485028 -1.350357 9.855517
-1.460006 -1.330491 9.854089
-1.435337 -1.310181 9.852709
-1.410668 -1.289870 9.851330
-1.385999 -1.269560 9.849950
-1.332192 -1.222776 9.847035
-1.308095 -1.201785 9.845732
-1.284531 -1.180198 9.844498
-1.261101 -1.158460 9.843281
-1.237672 -1.136722 9.842065
-1.214588 -1.114622 9.840892
-1.164067 -1.064283 9.838401
-1.141715 -1.041439 9.837321
-1.120007 -1.017972 9.836322
-1.098299 -0.994504 9.835322
-1.076592 -0.971036 9.834322
-1.055954 -0.946619 9.833453
-1.010027 -0.892033 9.831527
-0.990567 -0.866669 9.830797
-0.971347 -0.841115 9.830095
-0.952126 -0.815560 9.829393
-0.933683 -0.789457 9.828780
-0.916130 -0.762725 9.828269
-0.877660 -0.702659 9.827205
-0.862158 -0.674684 9.826921
-0.846657 -0.646710 9.826638
-0.831155 -0.618735 9.826354
-0.818124 -0.589529 9.826333
-0.805143 -0.560298 9.826318
-0.778798 -0.494073 9.826552
-0.768885 -0.463666 9.826850
-0.758971 -0.433259 9.827148
-0.750864 -0.402381 9.827623
-0.744591 -0.371025 9.828276
-0.738319 -0.339670 9.828929
-0.729996 -0.268968 9.830911
-0.727863 -0.237072 9.831947
-0.725790 -0.205177 9.832989
-0.728080 -0.173307 9.834411
-0.730369 -0.141437 9.835833
-0.732659 -0.109567 9.837255
-0.746053 -0.039669 9.841106
-0.752730 -0.008441 9.842888
-0.761555 0.022167 9.844833
-0.772270 0.052230 9.846923
-0.782986 0.082293 9.849013
-0.794312 0.112092 9.851147
-0.826014 0.175815 9.856363
-0.840362 0.204294 9.858710
-0.857460 0.231205 9.861238
-0.874559 0.258116 9.863765
-0.891657 0.285027 9.866293
-0.910367 0.310800 9.868918
-0.953724 0.367169 9.874872
-0.974207 0.391552 9.877599
-0.995503 0.415253 9.880371
-1.016800 0.438954 9.883143
-1.038402 0.462360 9.885930
-1.061188 0.484622 9.888778
-1.112124 0.534194 9.895134
-1.136109 0.555153 9.898036
-1.160093 0.576111 9.900938
-1.184078 0.597070 9.903840
-1.208760 0.617187 9.906771
-1.233717 0.636973 9.909713
-1.289870 0.680498 9.916295
-1.315622 0.699232 9.919266
-1.341375 0.717966 9.922237
-1.367280 0.736480 9.925214
-1.393691 0.754268 9.928207
-1.420103 0.772057 9.931199
30 NaN NaN
-1.724786 -1.529129 9.869641
-1.637539 -1.466650 9.864403
-1.551564 -1.402419 9.859343
-1.467036 -1.336279 9.854482
-1.384171 -1.268055 9.849848
-1.303227 -1.197545 9.845469
-1.224527 -1.124525 9.841382
-1.148469 -1.048741 9.837632
-1.075554 -0.969914 9.834275
-1.006416 -0.887740 9.831376
-0.941859 -0.801909 9.829018
-0.882908 -0.712128 9.827301
-0.830848 -0.618182 9.826348
-0.787259 -0.520025 9.826297
-0.753975 -0.417933 9.827299
-0.732918 -0.312671 9.829492
-0.725759 -0.205609 9.832969
-0.733444 -0.098639 9.837743
-0.755857 0.006182 9.843722
-0.791829 0.107102 9.850738
-0.839532 0.202988 9.858588
-0.896948 0.293354 9.867075
-0.962205 0.378195 9.876037
-1.033730 0.457796 9.885347
-1.110265 0.532569 9.894910
-1.190826 0.602967 9.904657
-1.274652 0.669428 9.914539
-1.361154 0.732355 9.924520
-1.449873 0.792107 9.934573
-1.540446 0.849000 9.944678
-1.029377 -1.593763 8.129667
-0.914506 -1.365478 8.085688
-0.818263 -1.127681 8.048113
-0.748116 -0.879804 8.019559
-0.710322 -0.624068 8.002263
-0.714551 -0.365181 7.999700
-0.765526 -0.111767 8.013666
-0.863343 0.125934 8.044355
-1.001048 0.340622 8.089435
-1.168386 0.530405 8.145328
-1.357240 0.696116 8.209167
-1.028450 -1.592026 8.129314
-0.915325 -1.367276 8.086004
-0.913688 -1.363681 8.085372
-0.818947 -1.129541 8.048382
-0.817579 -1.125821 8.047843
-0.748532 -0.881752 8.019736
-0.747701 -0.877855 8.019383
-0.710506 -0.626057 8.002359
-0.710138 -0.622079 8.002167
-0.714314 -0.367166 7.999648
-0.714788 -0.363196 7.999752
-0.764986 -0.113686 8.013506
-0.766066 -0.109848 8.013826
-0.862389 0.124204 8.044046
-0.864297 0.127665 8.044663
-0.999876 0.339048 8.089047
-1.002220 0.342195 8.089822
-1.166980 0.529064 8.144855
-1.169793 0.531746 8.145802
-1.355726 0.694914 8.208653
-1.023547 -1.582840 8.127446
-0.919655 -1.376781 8.087676
-0.909357 -1.354176 8.083700
-0.822563 -1.139379 8.049808
-0.814147 -1.115911 8.046481
-0.750731 -0.892057 8.020671
-0.745502 -0.867550 8.018448
-0.711480 -0.636579 8.002867
-0.709163 -0.611558 8.001660
-0.713061 -0.377666 7.999371
-0.716041 -0.352695 8.000029
-0.762128 -0.123837 8.012659
-0.768923 -0.099698 8.014672
-0.857343 0.115051 8.042414
-0.869344 0.136817 8.046295
-0.993678 0.330724 8.086997
-1.008419 0.350519 8.091873
-1.159542 0.521972 8.142349
-1.177231 0.538839 8.148307
-1.347721 0.688555 8.205937
-1.010993 -1.559323 8.122662
-0.994302 -1.528053 8.116301
-0.977783 -1.496683 8.109999
-0.962014 -1.464876 8.103955
-0.946245 -1.433069 8.097910
-0.930742 -1.401119 8.091957
-0.898270 -1.329838 8.079419
-0.884141 -1.297177 8.073938
-0.870547 -1.264253 8.068641
-0.856953 -1.231329 8.063344
-0.844135 -1.198060 8.058315
-0.831823 -1.164569 8.053460
-0.805966 -1.090300 8.043202
-0.795089 -1.056248 8.038843
-0.784212 -1.022196 8.034484
-0.774862 -0.987632 8.030655
-0.765589 -0.953043 8.026852
-0.756360 -0.918442 8.023064
-0.739873 -0.841165 8.016055
-0.732983 -0.805958 8.013080
-0.727482 -0.770455 8.010590
-0.721981 -0.734953 8.008099
-0.717293 -0.699334 8.005893
-0.713975 -0.663517 8.004166
-0.708205 -0.584509 8.000900
-0.707262 -0.548520 8.000005
-0.706320 -0.512532 7.999110
-0.707207 -0.476552 7.998859
-0.708806 -0.440575 7.998859
-0.710406 -0.404599 7.998859
-0.719251 -0.325811 8.000737
-0.723702 -0.290097 8.001744
-0.730702 -0.254823 8.003655
-0.737702 -0.219550 8.005565
-0.745085 -0.184378 8.007612
-0.754812 -0.149824 8.010493
-0.777339 -0.074106 8.017232
-0.789714 -0.040504 8.021059
-0.802089 -0.006903 8.024886
-0.815684 0.026139 8.029152
-0.830559 0.058593 8.033876
-0.845434 0.091047 8.038601
-0.882264 0.160252 8.050474
-0.899444 0.191411 8.056029
-0.918361 0.221408 8.062214
-0.937619 0.251177 8.068522
-0.956877 0.280946 8.074831
-0.977808 0.309413 8.081748
-1.024584 0.371567 8.097230
-1.047298 0.398468 8.104799
-1.070012 0.425369 8.112368
-1.093084 0.451911 8.120068
-1.117197 0.477407 8.128151
-1.141310 0.502904 8.136234
-1.196274 0.556998 8.154722
-1.221595 0.581143 8.163251
-1.247542 0.604513 8.172013
-1.273902 0.627373 8.180927
-1.300261 0.650233 8.189842
-1.327224 0.672274 8.198981
27 NaN NaN
-1.029609 -1.594197 8.129756
-0.980734 -1.502636 8.111131
-0.934562 -1.409504 8.093432
-0.891398 -1.314752 8.076766
-0.851594 -1.218350 8.061256
-0.815545 -1.120286 8.047041
-0.783697 -1.020584 8.034278
-0.756546 -0.919312 8.023143
-0.734631 -0.816599 8.013827
-0.718527 -0.712659 8.006536
-0.708815 -0.607798 8.001479
-0.706056 -0.502440 7.998859
-0.710738 -0.397120 7.998859
-0.723230 -0.292477 8.001615
-0.743722 -0.189218 8.007208
-0.772198 -0.088068 8.015642
-0.808423 0.010298 8.026845
-0.851969 0.105305 8.040677
-0.902263 0.196523 8.056941
-0.958642 0.283675 8.075409
-1.020418 0.366633 8.095842
-1.086919 0.445393 8.118002
-1.157519 0.520043 8.141668
-1.231656 0.590737 8.166640
-1.308836 0.657669 8.192742
-1.388633 0.721052 8.219819
-1.470682 0.781109 8.247741
-0.960762 -1.553107 7.188531
-0.881188 -1.397494 7.188861
-0.810006 -1.237901 7.190246
-0.749496 -1.073976 7.192932
-0.702292 -0.905812 7.197179
-0.669667 -0.734276 7.203069
-0.656928 -0.560237 7.211087
-0.664740 -0.386118 7.221170
-0.695717 -0.214691 7.233433
-0.751619 -0.049942 7.247839
-0.828820 0.105842 7.263902
-0.927027 0.249226 7.281411
-1.040930 0.380327 7.299837
-1.167470 0.499295 7.318883
-1.304430 0.606048 7.338321
-0.959829 -1.551337 7.188532
-0.882063 -1.399293 7.188853
-0.880314 -1.395695 7.188870
-0.810741 -1.239760 7.190220
-0.809271 -1.236041 7.190271
-0.750148 -1.075866 7.192897
-0.748844 -1.072085 7.192968
-0.702746 -0.907759 7.197121
-0.701839 -0.903865 7.197238
-0.669871 -0.736264 7.202983
-0.669463 -0.732288 7.203155
-0.656988 -0.562234 7.210986
-0.656868 -0.558241 7.211187
-0.664478 -0.388096 7.221038
-0.665002 -0.384140 7.221302
-0.695284 -0.216638 7.233285
-0.696151 -0.212744 7.233580
-0.750849 -0.051779 7.247664
-0.752390 -0.048105 7.248014
-0.827751 0.104163 7.263706
-0.829889 0.107521 7.264099
-0.925831 0.247636 7.281206
-0.928223 0.250816 7.281615
-1.039529 0.378917 7.299621
-1.042332 0.381737 7.300053
-1.165987 0.497972 7.318663
-1.168953 0.500619 7.319102
-1.302819 0.604884 7.338097
-0.956276 -1.544598 7.188536
-0.885393 -1.406144 7.188821
-0.876984 -1.388844 7.188902
-0.813541 -1.246845 7.190123
-0.806471 -1.228957 7.190369
-0.752632 -1.083067 7.192761
-0.746360 -1.064885 7.193103
-0.704473 -0.915176 7.196898
-0.700112 -0.896449 7.197461
-0.670967 -0.743793 7.202691
-0.668684 -0.724717 7.203481
-0.657216 -0.569839 7.210603
-0.656640 -0.550636 7.211571
-0.663480 -0.395632 7.220535
-0.666001 -0.376604 7.221805
-0.693635 -0.224054 7.232724
-0.697800 -0.205328 7.234142
-0.747914 -0.058777 7.246995
-0.755325 -0.041107 7.248683
-0.823707 0.097752 7.262958
-0.833961 0.113916 7.264849
-0.921276 0.241580 7.280425
-0.932778 0.256872 7.282396
-1.034189 0.373546 7.298798
-1.047672 0.387107 7.300875
-1.160338 0.492930 7.317827
-1.174603 0.505661 7.319938
-1.296684 0.600449 7.337245
-0.947853 -1.528621 7.188544
-0.936713 -1.507490 7.188555
-0.925572 -1.486358 7.188567
-0.914432 -1.465227 7.188578
-0.903731 -1.443874 7.188645
-0.893288 -1.422389 7.188745
-0.869089 -1.372599 7.188977
-0.858955 -1.350971 7.189116
-0.849296 -1.329124 7.189314
-0.839636 -1.307277 7.189512
-0.829976 -1.285430 7.189710
-0.820317 -1.263583 7.189908
-0.799833 -1.212160 7.190600
-0.791053 -1.189946 7.190906
-0.782273 -1.167732 7.191212
-0.774098 -1.145296 7.191590
-0.766309 -1.122717 7.192015
-0.758521 -1.100139 7.192440
-0.740891 -1.047681 7.193473
-0.734219 -1.024750 7.194029
-0.727547 -1.001819 7.194585
-0.720875 -0.978889 7.195140
-0.714203 -0.955958 7.195696
-0.708568 -0.932759 7.196370
-0.696017 -0.878865 7.197989
-0.690601 -0.855610 7.198688
-0.686019 -0.832189 7.199479
-0.682012 -0.808655 7.200334
-0.678004 -0.785121 7.201189
-0.673997 -0.761587 7.202045
-0.666839 -0.706766 7.204255
-0.664399 -0.683025 7.205278
-0.661959 -0.659284 7.206301
-0.659519 -0.635543 7.207324
-0.658473 -0.611717 7.208492
-0.657757 -0.587870 7.209694
-0.656098 -0.532605 7.212479
-0.656457 -0.508773 7.213788
-0.657609 -0.484953 7.215176
-0.658760 -0.461133 7.216564
-0.659912 -0.437314 7.217951
-0.661113 -0.413499 7.219344
-0.668367 -0.358738 7.222996
-0.671498 -0.335108 7.224572
-0.674628 -0.311478 7.226148
-0.679377 -0.288146 7.227871
-0.684550 -0.264891 7.229632
-0.689723 -0.241637 7.231392
-0.702857 -0.188062 7.235571
-0.710076 -0.165373 7.237507
-0.717295 -0.142684 7.239443
-0.724514 -0.119995 7.241379
-0.731753 -0.097314 7.243316
-0.740956 -0.075370 7.245411
-0.762283 -0.024514 7.250267
-0.771486 -0.002570 7.252362
-0.782138 0.018680 7.254565
-0.793205 0.039732 7.256799
-0.804272 0.060783 7.259034
-0.815339 0.081835 7.261268
-0.843615 0.129077 7.266627
-0.856383 0.149129 7.268979
-0.869151 0.169181 7.271331
-0.881920 0.189233 7.273682
-0.896195 0.208230 7.276128
-0.910477 0.227221 7.278575
-0.943577 0.271232 7.284246
-0.958867 0.289399 7.286750
-0.974473 0.307308 7.289271
-0.990078 0.325218 7.291793
-1.005683 0.343128 7.294315
-1.021529 0.360812 7.296849
-1.060332 0.399841 7.302825
-1.077076 0.416683 7.305404
-1.093820 0.433524 7.307983
-1.111513 0.449357 7.310603
-1.129228 0.465166 7.313224
-1.146943 0.480976 7.315845
-1.188611 0.516885 7.321942
-1.207150 0.531714 7.324594
-1.225689 0.546543 7.327245
-1.244228 0.561373 7.329897
-1.262903 0.576024 7.332552
-1.282139 0.589932 7.335225
25 NaN NaN
-0.960995 -1.553549 7.188531
-0.910293 -1.457375 7.188582
-0.862767 -1.359594 7.189038
-0.818805 -1.260164 7.189939
-0.778848 -1.159065 7.191331
-0.743402 -1.056309 7.193264
-0.713037 -0.951953 7.195793
-0.688392 -0.846122 7.198973
-0.670155 -0.739026 7.202864
-0.659051 -0.630991 7.207521
-0.655795 -0.522479 7.212990
-0.661034 -0.414094 7.219304
-0.675277 -0.306578 7.226475
-0.698814 -0.200770 7.234487
-0.731659 -0.097538 7.243295
-0.773532 0.002309 7.252827
-0.823887 0.098095 7.262994
-0.881985 0.189336 7.273694
-0.946977 0.275752 7.284828
-1.017989 0.357252 7.296303
-1.094185 0.433892 7.308039
-1.174804 0.505840 7.319968
-1.259174 0.573328 7.332034
-1.346721 0.636626 7.344196
-1.436959 0.696016 7.356419
-0.989612 -1.425260 5.301937
-0.914710 -1.292009 5.373349
-0.847509 -1.155277 5.445797
-0.790543 -1.014532 5.519320
-0.745047 -0.870124 5.593642
-0.713154 -0.722346 5.668437
-0.697902 -0.571927 5.743088
-0.699758 -0.420295 5.816858
-0.723343 -0.269448 5.888376
-0.766116 -0.121468 5.956845
-0.830401 0.020746 6.020652
-0.912430 0.155772 6.079427
-1.010679 0.282114 6.132573
-1.122331 0.399224 6.180065
-1.244271 0.507776 6.222499
-1.375269 0.607312 6.259758
-0.988703 -1.423691 5.302780
-0.915560 -1.293606 5.372497
-0.913859 -1.290412 5.374201
-0.848221 -1.156932 5.444928
-0.846797 -1.153621 5.446665
-0.791173 -1.016216 5.518444
-0.789913 -1.012848 5.520195
-0.745485 -0.871863 5.592757
-0.744609 -0.868385 5.594528
-0.713479 -0.724108 5.667550
-0.712829 -0.720583 5.669324
-0.697969 -0.573721 5.742207
-0.697835 -0.570133 5.743968
-0.699680 -0.422094 5.815987
-0.699835 -0.418496 5.817728
-0.722955 -0.271225 5.887543
-0.723730 -0.267671 5.889209
-0.765416 -0.123175 5.956073
-0.766816 -0.119761 5.957617
-0.829554 0.019089 6.019917
-0.831248 0.022402 6.021386
-0.911321 0.154240 6.078776
-0.913538 0.157304 6.080079
-1.009459 0.280650 6.131965
-1.011898 0.283577 6.133182
-1.120929 0.397898 6.179540
-1.123733 0.400550 6.180591
-1.242795 0.506517 6.222012
-1.245746 0.509035 6.222987
-1.373676 0.606177 6.259342
-0.985336 -1.417881 5.305902
-0.918709 -1.299521 5.369343
-0.910711 -1.284497 5.377356
-0.850856 -1.163061 5.441713
-0.844162 -1.147492 5.449880
-0.793506 -1.022453 5.515203
-0.787580 -1.006611 5.523437
-0.747105 -0.878302 5.589477
-0.742988 -0.861945 5.597807
-0.714684 -0.730635 5.664264
-0.711624 -0.714056 5.672610
-0.698217 -0.580366 5.738946
-0.697587 -0.563488 5.747229
-0.699392 -0.428756 5.812764
-0.700535 -0.411850 5.820909
-0.721521 -0.277803 5.884459
-0.725164 -0.261093 5.892293
-0.762825 -0.129496 5.953214
-0.769407 -0.113439 5.960476
-0.826417 0.012957 6.017197
-0.834385 0.028534 6.024106
-0.907217 0.148567 6.076363
-0.917642 0.162976 6.082492
-1.004944 0.275230 6.129711
-1.016413 0.288997 6.135436
-1.115737 0.392989 6.177593
-1.128924 0.405460 6.182538
-1.237331 0.501854 6.220209
-1.251242 0.513666 6.224771
-1.367776 0.601974 6.257800
-0.977419 -1.404217 5.313246
-0.966954 -1.386157 5.322952
-0.956489 -1.368096 5.332657
-0.946024 -1.350036 5.342363
-0.935901 -1.331813 5.352119
-0.926114 -1.313429 5.361925
-0.903306 -1.270589 5.384774
-0.893633 -1.252155 5.394594
-0.884600 -1.233440 5.404496
-0.875567 -1.214725 5.414398
-0.866534 -1.196010 5.424300
-0.857501 -1.177295 5.434202
-0.837964 -1.133079 5.457440
-0.829773 -1.114029 5.467434
-0.821581 -1.094978 5.477427
-0.813498 -1.075889 5.487429
-0.806246 -1.056504 5.497505
-0.798993 -1.037119 5.507580
-0.782093 -0.991945 5.531059
-0.775641 -0.972312 5.541187
-0.769436 -0.952601 5.551331
-0.763231 -0.932891 5.561475
-0.757027 -0.913181 5.571619
-0.750917 -0.893445 5.581766
-0.739177 -0.846802 5.605518
-0.734139 -0.826786 5.615710
-0.729101 -0.806771 5.625903
-0.725006 -0.786557 5.636110
-0.721262 -0.766270 5.646323
-0.717517 -0.745983 5.656537
-0.709328 -0.698625 5.680331
-0.707007 -0.678119 5.690529
-0.704686 -0.657613 5.700727
-0.702365 -0.637106 5.710925
-0.700044 -0.616600 5.721123
-0.698800 -0.595992 5.731277
-0.697004 -0.547862 5.754898
-0.696234 -0.527209 5.765034
-0.696034 -0.506538 5.775130
-0.696928 -0.485832 5.785148
-0.697822 -0.465127 5.795166
-0.698716 -0.444421 5.805185
-0.702539 -0.396232 5.828351
-0.705187 -0.375590 5.838187
-0.707836 -0.354947 5.848024
-0.710484 -0.334304 5.857861
-0.713692 -0.313722 5.867620
-0.718149 -0.293274 5.877206
-0.728536 -0.245622 5.899545
-0.732993 -0.225174 5.909132
-0.739192 -0.205045 5.918413
-0.745468 -0.184930 5.927680
-0.751743 -0.164814 5.936948
-0.758018 -0.144699 5.946215
-0.775501 -0.098575 5.967199
-0.783556 -0.078927 5.976086
-0.791611 -0.059279 5.984972
-0.799666 -0.039631 5.993859
-0.809290 -0.020526 6.002346
-0.819040 -0.001464 6.010801
-0.841762 0.042955 6.030503
-0.852416 0.061626 6.038689
-0.863742 0.080006 6.046676
-0.875068 0.098386 6.054663
-0.886394 0.116766 6.062650
-0.897720 0.135146 6.070637
-0.927294 0.176316 6.088165
-0.940052 0.193949 6.095664
-0.952809 0.211581 6.103164
-0.966256 0.228790 6.110397
-0.980291 0.245637 6.117403
-0.994326 0.262484 6.124410
-1.027243 0.301594 6.140646
-1.042401 0.317643 6.147167
-1.057559 0.333693 6.153688
-1.072718 0.349743 6.160209
-1.087876 0.365793 6.166730
-1.103529 0.381443 6.173014
-1.141132 0.417005 6.187117
-1.157269 0.432265 6.193169
-1.173535 0.447408 6.199152
-1.190518 0.461902 6.204758
-1.207500 0.476395 6.210363
-1.224483 0.490889 6.215968
-1.264642 0.524075 6.228694
-1.282354 0.537834 6.233878
-1.300065 0.551593 6.239063
-1.317777 0.565352 6.244247
-1.335563 0.579029 6.249385
-1.353902 0.592092 6.254176
25 NaN NaN
-0.989839 -1.425653 5.301726
-0.940834 -1.341078 5.347177
-0.895001 -1.254991 5.393094
-0.852701 -1.167352 5.439462
-0.814342 -1.078143 5.486258
-0.780381 -0.987370 5.533437
-0.751327 -0.895074 5.580937
-0.727737 -0.801351 5.628662
-0.710203 -0.706360 5.676485
-0.699336 -0.610345 5.724233
-0.695728 -0.513644 5.771691
-0.699913 -0.416700 5.818597
-0.712312 -0.320054 5.864651
-0.733179 -0.224319 5.909532
-0.762559 -0.130144 5.952921
-0.800271 -0.038157 5.994525
-0.845921 0.051086 6.034109
-0.898949 0.137140 6.071503
-0.958681 0.219696 6.106615
-1.024395 0.298578 6.139421
-1.095371 0.373729 6.169955
-1.170930 0.445185 6.198293
-1.250453 0.513052 6.224540
-1.333390 0.577481 6.248817
-1.419265 0.638650 6.271252
-0.950567 -1.383992 4.358035
-0.882624 -1.264379 4.434937
-0.820992 -1.141285 4.511651
-0.768259 -1.013831 4.587838
-0.725036 -0.882354 4.663158
-0.694022 -0.746659 4.736916
-0.677336 -0.607220 4.808264
-0.676799 -0.465135 4.876146
-0.696143 -0.321947 4.938735
-0.733961 -0.179972 4.995339
-0.793988 -0.042525 5.043282
-0.870776 0.088940 5.083469
-0.964698 0.211498 5.114395
-1.070810 0.325550 5.137698
-1.187306 0.430387 5.153569
-1.311563 0.526795 5.163151
-0.949687 -1.382485 4.359011
-0.883446 -1.265919 4.433962
-0.881802 -1.262838 4.435912
-0.821749 -1.142860 4.510678
-0.820234 -1.139710 4.512623
-0.768859 -1.015479 4.586876
-0.767659 -1.012183 4.588799
-0.725542 -0.884039 4.662207
-0.724531 -0.880669 4.664109
-0.694298 -0.748414 4.735998
-0.693746 -0.744903 4.737833
-0.677476 -0.609004 4.807373
-0.677196 -0.605435 4.809156
-0.676623 -0.466953 4.875331
-0.676975 -0.463317 4.876961
-0.695793 -0.323763 4.937972
-0.696493 -0.320132 4.939498
-0.733254 -0.181733 4.994706
-0.734667 -0.178211 4.995971
-0.793112 -0.044235 5.042724
-0.794864 -0.040816 5.043840
-0.869744 0.087295 5.082987
-0.871807 0.090584 5.083951
-0.963408 0.210006 5.114061
-0.965987 0.212990 5.114728
-1.069419 0.324138 5.137432
-1.072202 0.326962 5.137963
-1.185758 0.429129 5.153423
-1.188854 0.431645 5.153716
-1.309956 0.525609 5.163056
-0.946599 -1.377196 4.362436
-0.886332 -1.271324 4.430542
-0.878916 -1.257434 4.439333
-0.824406 -1.148386 4.507267
-0.817577 -1.134184 4.516035
-0.770965 -1.021260 4.583504
-0.765553 -1.006401 4.592171
-0.727315 -0.889951 4.658870
-0.722758 -0.874757 4.667446
-0.695267 -0.754573 4.732779
-0.692777 -0.738745 4.741053
-0.677966 -0.615266 4.804245
-0.676706 -0.599173 4.812284
-0.676006 -0.473331 4.872472
-0.677593 -0.456939 4.879821
-0.694564 -0.330131 4.935296
-0.697722 -0.313763 4.942174
-0.731345 -0.188025 4.992265
-0.737147 -0.172033 4.998190
-0.790040 -0.050231 5.040765
-0.797937 -0.034820 5.045799
-0.866126 0.081526 5.081296
-0.875426 0.096353 5.085641
-0.958885 0.204771 5.112890
-0.970511 0.218224 5.115899
-1.064538 0.319184 5.136499
-1.077083 0.331916 5.138896
-1.180328 0.424716 5.152909
-1.194285 0.436058 5.154230
-1.304318 0.521445 5.162722
-0.939458 -1.364964 4.370357
-0.930029 -1.348814 4.380815
-0.920601 -1.332665 4.391272
-0.911173 -1.316516 4.401729
-0.901815 -1.300326 4.412185
-0.893005 -1.283824 4.422630
-0.872243 -1.244933 4.447245
-0.863433 -1.228431 4.457689
-0.854891 -1.211786 4.468123
-0.846778 -1.194913 4.478541
-0.838665 -1.178040 4.488958
-0.830552 -1.161167 4.499376
-0.811949 -1.121150 4.523895
-0.804624 -1.103892 4.534265
-0.797300 -1.086633 4.544635
-0.789975 -1.069375 4.555006
-0.782651 -1.052117 4.565376
-0.775836 -1.034633 4.575704
-0.760682 -0.993028 4.599971
-0.754252 -0.975374 4.610268
-0.747822 -0.957720 4.620565
-0.742245 -0.939731 4.630772
-0.736831 -0.921679 4.640962
-0.731416 -0.903626 4.651151
-0.718785 -0.861039 4.675148
-0.714523 -0.842597 4.685186
-0.710261 -0.824154 4.695224
-0.705999 -0.805712 4.705262
-0.701737 -0.787270 4.715300
-0.697508 -0.768818 4.725333
-0.690535 -0.724500 4.748499
-0.687577 -0.705694 4.758329
-0.684618 -0.686888 4.768159
-0.682093 -0.667989 4.777906
-0.680596 -0.648869 4.787458
-0.679099 -0.629749 4.797009
-0.675572 -0.584690 4.819519
-0.674996 -0.565437 4.828865
-0.675119 -0.546083 4.838054
-0.675243 -0.526729 4.847243
-0.675366 -0.507374 4.856432
-0.675489 -0.488020 4.865622
-0.679020 -0.442188 4.886434
-0.680905 -0.422713 4.895165
-0.682790 -0.403238 4.903896
-0.684675 -0.383764 4.912627
-0.687969 -0.364310 4.920936
-0.691722 -0.344862 4.929107
-0.700565 -0.299032 4.948363
-0.704368 -0.279590 4.956517
-0.710039 -0.260344 4.964031
-0.715709 -0.241097 4.971545
-0.721380 -0.221851 4.979059
-0.727050 -0.202604 4.986574
-0.742881 -0.157745 5.003322
-0.750452 -0.138881 5.010097
-0.758022 -0.120018 5.016873
-0.765592 -0.101155 5.023648
-0.773551 -0.082410 5.030253
-0.782933 -0.064100 5.036234
-0.805043 -0.020951 5.050330
-0.814425 -0.002641 5.056311
-0.824617 0.015332 5.061895
-0.835664 0.032948 5.067058
-0.846711 0.050565 5.072221
-0.857758 0.068182 5.077385
-0.884916 0.109099 5.088939
-0.897444 0.125925 5.093292
-0.909973 0.142752 5.097645
-0.922501 0.159578 5.101998
-0.935030 0.176405 5.106352
-0.948422 0.192664 5.110181
-0.980973 0.230331 5.118608
-0.994786 0.246315 5.122183
-1.008598 0.262299 5.125759
-1.023441 0.277473 5.128647
-1.038345 0.292599 5.131495
-1.053249 0.307726 5.134342
-1.088569 0.343192 5.140909
-1.104389 0.357476 5.143087
-1.120209 0.371760 5.145265
-1.136028 0.386045 5.147443
-1.151848 0.400329 5.149621
-1.167767 0.414508 5.151720
-1.206846 0.446266 5.155418
-1.223428 0.459742 5.156988
-1.240010 0.473218 5.158558
-1.256847 0.486389 5.159907
-1.274062 0.499102 5.160928
-1.291278 0.511815 5.161948
23 NaN NaN
-0.950787 -1.384369 4.357791
-0.902832 -1.302230 4.410980
-0.858021 -1.218294 4.464105
-0.816755 -1.132475 4.517090
-0.779501 -1.044697 4.569834
-0.746797 -0.954907 4.622206
-0.719259 -0.863094 4.674030
-0.697584 -0.769301 4.725081
-0.682537 -0.673663 4.775071
-0.674926 -0.576432 4.823645
-0.675553 -0.478013 4.870373
-0.685137 -0.378987 4.914768
-0.704217 -0.280105 4.956316
-0.733048 -0.182245 4.994522
-0.771541 -0.086333 5.028972
-0.819245 0.006765 5.059384
-0.875417 0.096342 5.085638
-0.939125 0.181905 5.107775
-1.009365 0.263186 5.125957
-1.085158 0.340112 5.140439
-1.165612 0.412757 5.151516
-1.249948 0.481294 5.159498
-1.337506 0.545954 5.164689
-0.873384 -1.366275 3.415434
-0.756588 -1.132010 3.451744
-0.665818 -0.886954 3.490500
-0.614085 -0.631436 3.531969
-0.614064 -0.371329 3.575480
-0.679002 -0.119775 3.619162
-0.807792 0.106482 3.660185
-0.985217 0.298296 3.696646
-1.195105 0.455469 3.728112
-0.872446 -1.364529 3.415703
-0.757381 -1.133824 3.451460
-0.755795 -1.130196 3.452028
-0.666420 -0.888838 3.490200
-0.665216 -0.885071 3.490800
-0.614276 -0.633400 3.531645
-0.613894 -0.629471 3.532293
-0.613886 -0.373293 3.575147
-0.614241 -0.369365 3.575813
-0.678206 -0.121581 3.618840
-0.679798 -0.117969 3.619483
-0.806638 0.104876 3.659888
-0.808947 0.108088 3.660482
-0.983697 0.297021 3.696395
-0.986736 0.299572 3.696897
-1.193438 0.454387 3.727889
-0.867404 -1.355141 3.417149
-0.761646 -1.143577 3.449934
-0.751530 -1.120444 3.453554
-0.669655 -0.898965 3.488586
-0.662083 -0.874916 3.492422
-0.615304 -0.643962 3.529904
-0.612867 -0.618910 3.534035
-0.612933 -0.383854 3.573357
-0.615194 -0.358805 3.577603
-0.673925 -0.131293 3.617110
-0.684079 -0.108257 3.621213
-0.800431 0.096241 3.658290
-0.815154 0.116723 3.662080
-0.975526 0.290161 3.695046
-0.994907 0.306432 3.698246
-1.184477 0.448564 3.726694
-0.854456 -1.331031 3.420863
-0.837236 -1.298968 3.425802
-0.820227 -1.266800 3.430764
-0.804243 -1.234123 3.435837
-0.788259 -1.201447 3.440909
-0.772599 -1.168625 3.446013
-0.740577 -1.095396 3.457474
-0.726801 -1.061773 3.462759
-0.713866 -1.027818 3.468120
-0.700931 -0.993863 3.473482
-0.689017 -0.959564 3.478926
-0.677966 -0.924975 3.484439
-0.655408 -0.848458 3.496684
-0.646532 -0.813271 3.502351
-0.637656 -0.778085 3.508018
-0.630927 -0.742458 3.513812
-0.624556 -0.706756 3.519627
-0.618185 -0.671055 3.525442
-0.610228 -0.591784 3.538507
-0.607274 -0.555685 3.544473
-0.606987 -0.519460 3.550526
-0.606700 -0.483235 3.556579
-0.607230 -0.447045 3.562646
-0.610486 -0.410976 3.568760
-0.619481 -0.331947 3.582202
-0.626506 -0.296419 3.588318
-0.633531 -0.260891 3.594434
-0.642660 -0.225895 3.600514
-0.653533 -0.191338 3.606563
-0.664406 -0.156781 3.612611
-0.695074 -0.083315 3.625657
-0.709696 -0.050145 3.631566
-0.727324 -0.018466 3.637300
-0.745428 0.012978 3.643006
-0.763531 0.044421 3.648712
-0.784490 0.074064 3.654188
-0.831572 0.138531 3.666132
-0.855428 0.165972 3.671311
-0.879285 0.193413 3.676489
-0.903670 0.220368 3.681600
-0.929749 0.245764 3.686491
-0.955828 0.271160 3.691382
-1.015891 0.324050 3.701710
-1.043798 0.347480 3.706317
-1.072529 0.369891 3.710774
-1.101926 0.391477 3.715110
-1.131323 0.413064 3.719446
-1.161461 0.433611 3.723626
21 NaN NaN
-0.873618 -1.366711 3.415367
-0.822953 -1.272374 3.429899
-0.775926 -1.176232 3.444823
-0.733069 -1.078227 3.460161
-0.695013 -0.978330 3.475934
-0.662499 -0.876568 3.492156
-0.636387 -0.773055 3.508828
-0.617645 -0.668033 3.525935
-0.607324 -0.561921 3.543431
-0.606479 -0.455371 3.561234
-0.616053 -0.349286 3.579217
-0.636713 -0.244798 3.597205
-0.668689 -0.143170 3.614994
-0.711691 -0.045618 3.632373
-0.764935 0.046859 3.649155
-0.827288 0.133604 3.665203
-0.897461 0.214321 3.680435
-0.974175 0.289027 3.694823
-1.056272 0.357953 3.708377
-1.142756 0.421459 3.721132
-1.232807 0.479964 3.733138
-0.601298 -1.335103 0.591445
-0.459523 -0.842876 0.787959
-0.470720 -0.335627 0.992675
-0.677680 0.132247 1.184254
-0.600613 -1.333357 0.592140
-0.459763 -0.844719 0.787219
-0.459284 -0.841033 0.788699
-0.470301 -0.337438 0.991938
-0.471140 -0.333815 0.993411
-0.676585 0.130700 1.183615
-0.594003 -1.316509 0.598841
-0.462360 -0.862462 0.780101
-0.456969 -0.823253 0.795837
-0.466249 -0.354918 0.984832
-0.475191 -0.316336 1.000517
-0.666019 0.115774 1.177448
-0.574445 -1.266660 0.618670
-0.549356 -1.197463 0.646223
-0.526178 -1.127705 0.674030
-0.505252 -1.057334 0.702115
-0.487541 -0.986227 0.730543
-0.472256 -0.914666 0.759187
-0.450122 -0.770644 0.816956
-0.444542 -0.697916 0.846207
-0.442064 -0.625076 0.875547
-0.442783 -0.552199 0.904946
-0.448108 -0.479491 0.934342
-0.457639 -0.407207 0.963625
-0.487405 -0.264671 1.021523
-0.509616 -0.194849 1.049991
-0.535655 -0.126239 1.078024
-0.565229 -0.058887 1.105600
-0.598476 0.007009 1.132640
-0.636622 0.070555 1.158801
21 NaN NaN
-0.601469 -1.335539 0.591271
-0.564866 -1.242246 0.628381
-0.532136 -1.147741 0.666033
-0.503687 -1.052072 0.704215
-0.479963 -0.955323 0.742899
-0.461444 -0.857628 0.782037
-0.448629 -0.759178 0.821559
-0.442028 -0.660234 0.861368
-0.442128 -0.561136 0.901333
-0.449368 -0.462302 0.941291
-0.464093 -0.364224 0.981049
-0.486522 -0.267448 1.020391
-0.516713 -0.172541 1.059087
-0.554549 -0.080054 1.096914
-0.599742 0.009518 1.133669
-0.651858 0.095770 1.169183
-0.710358 0.178409 1.203328
-0.774641 0.257253 1.236024
-0.844089 0.332228 1.267233
-0.918097 0.403351 1.296951
-0.996099 0.470705 1.325206
