-2.376942 -1.464769 14.630234
-2.034616 -1.498045 15.540016
-1.650195 -1.570327 16.431158
-1.295780 -1.614684 17.336040
-1.051372 -1.561138 18.274560
-0.960628 -1.380089 19.225486
-0.922902 -1.157345 20.172102
-0.855443 -0.957709 21.122164
-0.768866 -0.773107 22.073782
-0.688135 -0.583891 23.024988
-2.376327 -1.464757 14.632137
-2.035389 -1.497913 15.538176
-2.033844 -1.498177 15.541856
-1.650976 -1.570187 16.429322
-1.649414 -1.570467 16.432994
-1.296432 -1.614663 17.334149
-1.295128 -1.614705 17.337930
-1.051692 -1.561403 18.272603
-1.051053 -1.560873 18.276516
-0.960722 -1.380534 19.223538
-0.960534 -1.379644 19.227434
-0.923005 -1.157784 20.170153
-0.922800 -1.156907 20.174051
-0.855612 -0.958096 21.120209
-0.855275 -0.957322 21.124119
-0.769047 -0.773484 22.071827
-0.768686 -0.772730 22.075738
-0.688276 -0.584299 23.023035
-2.369744 -1.464632 14.652492
-2.043652 -1.496500 15.518494
-2.025581 -1.499590 15.561538
-1.659354 -1.568666 16.409697
-1.641058 -1.571967 16.452630
-1.303405 -1.614437 17.313926
-1.288155 -1.614931 17.358154
-1.055112 -1.564237 18.251677
-1.047632 -1.558039 18.297443
-0.961729 -1.385294 19.202706
-0.959591 -1.374835 19.248258
-0.924104 -1.162472 20.149309
-0.921701 -1.152219 20.194895
-0.857375 -0.962264 21.099300
-0.853471 -0.953186 21.145030
-0.770979 -0.777519 22.050907
-0.766754 -0.768695 22.096658
-0.689796 -0.588659 23.002146
-2.340679 -1.464270 14.741651
-2.292536 -1.465806 14.881350
-2.242151 -1.469376 15.020220
-2.189532 -1.474991 15.158192
-2.135351 -1.482048 15.295493
-2.079595 -1.490570 15.432079
-1.989062 -1.506060 15.647673
-1.930976 -1.516767 15.783130
-1.872401 -1.527934 15.918340
-1.813611 -1.539305 16.053439
-1.754829 -1.550668 16.188543
-1.696267 -1.561825 16.323759
-1.604547 -1.578431 16.538769
-1.547741 -1.587934 16.674857
-1.492062 -1.596384 16.811478
-1.437778 -1.603536 16.948733
-1.385084 -1.609221 17.086674
-1.334437 -1.613029 17.225443
-1.258653 -1.614959 17.447172
-1.214478 -1.612942 17.588168
-1.173258 -1.608313 17.729994
-1.135553 -1.600621 17.872658
-1.101646 -1.589661 18.016061
-1.071798 -1.575262 18.160056
-1.033499 -1.544912 18.389211
-1.014157 -1.521843 18.533879
-0.998414 -1.495879 18.678494
-0.985392 -1.467752 18.822977
-0.974880 -1.437649 18.967266
-0.966324 -1.406016 19.111360
-0.955704 -1.353566 19.339511
-0.950284 -1.319506 19.483205
-0.945255 -1.285145 19.626842
-0.940237 -1.250776 19.770477
-0.934841 -1.216698 19.914167
-0.928586 -1.183282 20.057977
-0.916603 -1.131887 20.286302
-0.907859 -1.100400 20.430418
-0.898191 -1.069634 20.574631
-0.887832 -1.039410 20.718910
-0.876718 -1.009777 20.863256
-0.865061 -0.980571 21.007646
-0.845529 -0.935081 21.236703
-0.832707 -0.906794 21.381177
-0.819614 -0.878722 21.525669
-0.806309 -0.850817 21.670174
-0.792904 -0.822993 21.814686
-0.779473 -0.795188 21.959198
-0.758342 -0.750961 22.188361
-0.745260 -0.722880 22.332853
-0.732474 -0.694565 22.477325
-0.720053 -0.665962 22.621772
-0.708123 -0.636971 22.766183
-0.696701 -0.607581 22.910554
94 NaN NaN
-2.377096 -1.464772 14.629758
-2.345825 -1.464176 14.726457
-2.313223 -1.464773 14.822715
-2.279414 -1.466461 14.918543
-2.244515 -1.469140 15.013956
-2.208639 -1.472715 15.108978
-2.171891 -1.477092 15.203632
-2.134375 -1.482180 15.297949
-2.096186 -1.487893 15.391960
-2.057420 -1.494147 15.485699
-2.018164 -1.500858 15.579203
-1.978506 -1.507947 15.672510
-1.938529 -1.515337 15.765656
-1.898315 -1.522951 15.858683
-1.857942 -1.530714 15.951629
-1.817489 -1.538553 16.044533
-1.777034 -1.546395 16.137436
-1.736653 -1.554167 16.230377
-1.696423 -1.561796 16.323396
-1.656420 -1.569210 16.416529
-1.616723 -1.576336 16.509816
-1.577410 -1.583100 16.603293
-1.538563 -1.589429 16.696994
-1.500264 -1.595245 16.790954
-1.462598 -1.600473 16.885203
-1.425652 -1.605033 16.979772
-1.389517 -1.608845 17.074686
-1.354285 -1.611828 17.169968
-1.320055 -1.613898 17.265639
-1.286927 -1.614970 17.361714
-1.255004 -1.614958 17.458201
-1.224394 -1.613773 17.555105
-1.195207 -1.611326 17.652424
-1.167556 -1.607530 17.750146
-1.141558 -1.602296 17.848255
-1.117328 -1.595536 17.946723
-1.094985 -1.587165 18.045512
-1.074645 -1.577103 18.144575
-1.056391 -1.565297 18.243852
-1.040143 -1.551834 18.343267
-1.025758 -1.536846 18.442751
-1.013091 -1.520465 18.542250
-1.001994 -1.502824 18.641720
-0.992317 -1.484050 18.741132
-0.983913 -1.464269 18.840465
-0.976632 -1.443605 18.939707
-0.970328 -1.422176 19.038854
-0.964858 -1.400099 19.137908
-0.960078 -1.377486 19.236877
-0.955848 -1.354449 19.335773
-0.952028 -1.331095 19.434612
-0.948481 -1.307532 19.533411
-0.945070 -1.283864 19.632190
-0.941657 -1.260197 19.730969
-0.938107 -1.236636 19.829769
-0.934282 -1.213287 19.928608
-0.930044 -1.190255 20.027506
-0.925308 -1.167609 20.126469
-0.920088 -1.145337 20.225494
-0.914409 -1.123421 20.324572
-0.908300 -1.101841 20.423698
-0.901787 -1.080576 20.522867
-0.894896 -1.059606 20.622073
-0.887656 -1.038909 20.721312
-0.880095 -1.018465 20.820579
-0.872239 -0.998251 20.919871
-0.864118 -0.978248 21.019183
-0.855758 -0.958431 21.118514
-0.847189 -0.938780 21.217859
-0.838438 -0.919273 21.317217
-0.829534 -0.899886 21.416585
-0.820506 -0.880599 21.515961
-0.811381 -0.861387 21.615343
-0.802188 -0.842229 21.714729
-0.792956 -0.823102 21.814117
-0.783714 -0.803984 21.913506
-0.774489 -0.784851 22.012894
-0.765311 -0.765682 22.112279
-0.756208 -0.746453 22.211659
-0.747208 -0.727143 22.311034
-0.738340 -0.707728 22.410399
-0.729632 -0.688187 22.509754
-0.721112 -0.668496 22.609096
-0.712810 -0.648635 22.708422
-0.704752 -0.628581 22.807730
-0.696968 -0.608312 22.907016
-0.689484 -0.587806 23.006276
-0.682330 -0.567043 23.105507
-0.675531 -0.546000 23.204704
-0.669117 -0.524658 23.303863
-0.663113 -0.502996 23.402978
-0.657547 -0.480993 23.502043
-0.652446 -0.458629 23.601053
-0.647835 -0.435885 23.700000
-2.376687 -1.464823 14.629475
-2.082482 -1.501776 14.400501
-1.826521 -1.533582 14.128880
-1.613961 -1.559596 13.821482
-1.445918 -1.579702 13.487144
-1.318582 -1.594426 13.134949
-1.225955 -1.604566 12.771850
-1.162021 -1.610910 12.402473
-1.121022 -1.614205 12.029782
-1.097140 -1.615215 11.655570
-1.085156 -1.614687 11.280771
-1.079630 -1.613417 10.905814
-1.074728 -1.612249 10.530847
-1.065885 -1.611809 10.155952
-1.053747 -1.611782 9.781147
-1.040892 -1.611508 9.406366
-1.029842 -1.610342 9.031531
-1.022717 -1.607750 8.656608
-1.019245 -1.603882 8.281644
-1.017999 -1.599227 7.906673
-1.017640 -1.594244 7.531705
-1.016925 -1.589356 7.156736
-1.015579 -1.584663 6.781766
-1.013790 -1.580106 6.406797
-1.011750 -1.575627 6.031827
-1.009654 -1.571164 5.656858
-1.007696 -1.566660 5.281889
-1.006067 -1.562054 4.906919
-1.004972 -1.557283 4.531949
-2.375050 -1.465030 14.628345
-2.083968 -1.501590 14.401826
-2.080996 -1.501962 14.399175
-1.827767 -1.533428 14.130437
-1.825275 -1.533736 14.127323
-1.614949 -1.559476 13.823217
-1.612973 -1.559715 13.819747
-1.446720 -1.579608 13.488974
-1.445115 -1.579797 13.485315
-1.319165 -1.594361 13.136861
-1.318000 -1.594492 13.133037
-1.226355 -1.604524 12.773809
-1.225555 -1.604607 12.769891
-1.162310 -1.610883 12.404452
-1.161732 -1.610937 12.400494
-1.121194 -1.614193 12.031774
-1.120851 -1.614216 12.027789
-1.097228 -1.615215 11.657569
-1.097052 -1.615215 11.653572
-1.085194 -1.614693 11.282771
-1.085119 -1.614681 11.278771
-1.079653 -1.613424 10.907813
-1.079607 -1.613410 10.903814
-1.074763 -1.612254 10.532846
-1.074693 -1.612245 10.528847
-1.065945 -1.611809 10.157951
-1.065825 -1.611808 10.153953
-1.053816 -1.611782 9.783146
-1.053679 -1.611782 9.779149
-1.040958 -1.611511 9.408365
-1.040826 -1.611505 9.404367
-1.029890 -1.610352 9.033530
-1.029794 -1.610331 9.029531
-1.022747 -1.607766 8.658608
-1.022688 -1.607733 8.654608
-1.019257 -1.603905 8.283643
-1.019233 -1.603859 8.279644
-1.018002 -1.599254 7.908673
-1.017996 -1.599201 7.904673
-1.017642 -1.594270 7.533705
-1.017638 -1.594217 7.529705
-1.016931 -1.589381 7.158736
-1.016920 -1.589330 7.154736
-1.015587 -1.584687 6.783766
-1.015570 -1.584638 6.779766
-1.013800 -1.580130 6.408796
-1.013779 -1.580082 6.404797
-1.011761 -1.575650 6.033827
-1.011739 -1.575603 6.029827
-1.009665 -1.571188 5.658858
-1.009643 -1.571141 5.654858
-1.007706 -1.566684 5.283888
-1.007687 -1.566635 5.279889
-1.006075 -1.562078 4.908919
-1.006060 -1.562029 4.904919
-1.004977 -1.557309 4.533949
-2.363082 -1.466538 14.620075
-2.094836 -1.500231 14.411518
-2.070128 -1.503321 14.389483
-1.836879 -1.532305 14.141822
-1.816163 -1.534860 14.115939
-1.622335 -1.558582 13.835806
-1.605747 -1.560588 13.807062
-1.452589 -1.578914 13.502352
-1.439247 -1.580491 13.471937
-1.323421 -1.593880 13.150845
-1.313743 -1.594973 13.119053
-1.229281 -1.604219 12.788135
-1.222629 -1.604912 12.755565
-1.164423 -1.610686 12.418922
-1.159772 -1.611113 12.386002
-1.122451 -1.614111 12.046345
-1.119594 -1.614299 12.013218
-1.097869 -1.615213 11.672180
-1.096411 -1.615216 11.638961
-1.085527 -1.614730 11.297392
-1.084845 -1.614637 11.264149
-1.079821 -1.613477 10.922437
-1.079439 -1.613356 10.889190
-1.075017 -1.612286 10.547469
-1.074439 -1.612212 10.514224
-1.066379 -1.611813 10.172570
-1.065387 -1.611805 10.139334
-1.054317 -1.611783 9.797763
-1.053177 -1.611781 9.764532
-1.041442 -1.611534 9.422982
-1.040342 -1.611481 9.389750
-1.030242 -1.610427 9.048151
-1.029442 -1.610256 9.014911
-1.022962 -1.607889 8.673231
-1.022505 -1.607598 8.639985
-1.019344 -1.604073 8.298267
-1.019146 -1.603691 8.265020
-1.018023 -1.599445 7.923297
-1.017975 -1.599010 7.890050
-1.017656 -1.594465 7.548329
-1.017621 -1.594023 7.515081
-1.016970 -1.589568 7.173360
-1.016881 -1.589143 7.140112
-1.015650 -1.584867 6.798390
-1.015507 -1.584458 6.765143
-1.013877 -1.580305 6.423420
-1.013703 -1.579906 6.390173
-1.011843 -1.575824 6.048451
-1.011657 -1.575429 6.015204
-1.009745 -1.571363 5.673482
-1.009562 -1.570966 5.640234
-1.007776 -1.566862 5.298512
-1.007616 -1.566458 5.265265
-1.006132 -1.562260 4.923542
-1.006008 -1.561845 4.890295
-1.005008 -1.557498 4.548573
-2.330827 -1.470602 14.597787
-2.287981 -1.475999 14.567795
-2.246178 -1.481255 14.536332
-2.204671 -1.486471 14.504485
-2.164189 -1.491548 14.471312
-2.124127 -1.496568 14.437640
-2.041588 -1.506884 14.362542
-2.004001 -1.511571 14.326069
-1.967314 -1.516137 14.288692
-1.931283 -1.520615 14.250656
-1.896305 -1.524953 14.211647
-1.861888 -1.529215 14.172121
-1.791605 -1.537889 14.085256
-1.760418 -1.541720 14.043097
-1.729357 -1.545535 14.000840
-1.699983 -1.549125 13.957373
-1.670749 -1.552696 13.913815
-1.643078 -1.556060 13.869228
-1.586270 -1.562942 13.772874
-1.560891 -1.566002 13.726932
-1.536574 -1.568921 13.680400
-1.512968 -1.571746 13.633507
-1.490281 -1.574449 13.586146
-1.468406 -1.577045 13.538408
-1.424532 -1.582214 13.435411
-1.404968 -1.584504 13.386656
-1.386576 -1.586640 13.337445
-1.368492 -1.588735 13.288113
-1.351639 -1.590667 13.238344
-1.334976 -1.592574 13.188506
-1.302459 -1.596243 13.081310
-1.288447 -1.597800 13.030651
-1.274706 -1.599321 12.979920
-1.261923 -1.600716 12.928933
-1.249482 -1.602065 12.877864
-1.237862 -1.603306 12.826595
-1.214743 -1.605733 12.716954
-1.204817 -1.606750 12.665328
-1.195332 -1.607709 12.613616
-1.186479 -1.608584 12.561793
-1.177969 -1.609413 12.509909
-1.170118 -1.610155 12.457922
-1.154718 -1.611559 12.346914
-1.147977 -1.612154 12.294767
-1.142032 -1.612642 12.242523
-1.136143 -1.613123 12.190273
-1.130938 -1.613512 12.137949
-1.125838 -1.613888 12.085615
-1.116434 -1.614491 11.973930
-1.112549 -1.614704 11.921490
-1.108915 -1.614883 11.869033
-1.105611 -1.615018 11.816554
-1.102573 -1.615118 11.764059
-1.099795 -1.615184 11.711549
-1.094682 -1.615220 11.599583
-1.092703 -1.615183 11.547037
-1.090812 -1.615134 11.494487
-1.089231 -1.615047 11.441927
-1.087699 -1.614954 11.389366
-1.086449 -1.614827 11.336798
-1.084105 -1.614519 11.224739
-1.083159 -1.614357 11.172164
-1.082358 -1.614179 11.119587
-1.081595 -1.613999 11.067010
-1.080922 -1.613810 11.014431
-1.080274 -1.613621 10.961851
-1.078992 -1.613216 10.849776
-1.078399 -1.613031 10.797196
-1.077774 -1.612855 10.744616
-1.077133 -1.612684 10.692037
-1.076415 -1.612529 10.639458
-1.075667 -1.612381 10.586880
-1.073755 -1.612125 10.474813
-1.072643 -1.612043 10.422242
-1.071518 -1.611963 10.369670
-1.070225 -1.611911 10.317102
-1.068910 -1.611863 10.264535
-1.067463 -1.611835 10.211972
-1.064207 -1.611796 10.099935
-1.062589 -1.611788 10.047377
-1.060913 -1.611786 9.994820
-1.059199 -1.611785 9.942264
-1.057447 -1.611786 9.889710
-1.055667 -1.611785 9.837156
-1.051809 -1.611772 9.725139
-1.049984 -1.611759 9.672587
-1.048161 -1.611731 9.620035
-1.046338 -1.611702 9.567483
-1.044541 -1.611650 9.514930
-1.042747 -1.611597 9.462377
-1.039054 -1.611411 9.350355
-1.037393 -1.611291 9.297798
-1.035763 -1.611158 9.245239
-1.034209 -1.610994 9.192679
-1.032702 -1.610812 9.140117
-1.031279 -1.610598 9.087554
-1.028495 -1.610053 8.975506
-1.027341 -1.609743 8.922936
-1.026251 -1.609411 8.870365
-1.025278 -1.609039 8.817792
-1.024352 -1.608650 8.765218
-1.023544 -1.608220 8.712642
-1.022026 -1.607232 8.600573
-1.021394 -1.606740 8.547995
-1.020878 -1.606209 8.495417
-1.020376 -1.605671 8.442839
-1.019968 -1.605102 8.390260
-1.019580 -1.604525 8.337681
-1.018944 -1.603227 8.225606
-1.018711 -1.602595 8.173027
-1.018511 -1.601952 8.120448
-1.018344 -1.601297 8.067869
-1.018207 -1.600631 8.015290
-1.018093 -1.599956 7.962710
-1.017918 -1.598494 7.850636
-1.017864 -1.597797 7.798057
-1.017813 -1.597099 7.745478
-1.017772 -1.596397 7.692900
-1.017732 -1.595694 7.640321
-1.017688 -1.594992 7.587742
-1.017575 -1.593501 7.475668
-1.017507 -1.592805 7.423089
-1.017418 -1.592116 7.370510
-1.017320 -1.591430 7.317931
-1.017204 -1.590750 7.265352
-1.017077 -1.590073 7.212773
-1.016759 -1.588644 7.100699
-1.016594 -1.587978 7.048120
-1.016413 -1.587318 6.995541
-1.016225 -1.586659 6.942962
-1.016023 -1.586006 6.890382
-1.015816 -1.585353 6.837803
-1.015338 -1.583974 6.725729
-1.015097 -1.583331 6.673150
-1.014855 -1.582690 6.620571
-1.014600 -1.582052 6.567992
-1.014343 -1.581415 6.515413
-1.014077 -1.580781 6.462834
-1.013496 -1.579433 6.350759
-1.013216 -1.578803 6.298180
-1.012932 -1.578174 6.245601
-1.012645 -1.577547 6.193022
-1.012355 -1.576920 6.140443
-1.012063 -1.576294 6.087864
-1.011435 -1.574960 5.975790
-1.011140 -1.574335 5.923211
-1.010844 -1.573710 5.870632
-1.010549 -1.573085 5.818053
-1.010255 -1.572459 5.765474
-1.009962 -1.571833 5.712895
-1.009347 -1.570496 5.600821
-1.009064 -1.569867 5.548242
-1.008784 -1.569237 5.495663
-1.008508 -1.568605 5.443084
-1.008237 -1.567973 5.390505
-1.007972 -1.567338 5.337926
-1.007426 -1.565979 5.225851
-1.007183 -1.565338 5.173272
-1.006944 -1.564696 5.120693
-1.006717 -1.564049 5.068114
-1.006494 -1.563402 5.015535
-1.006286 -1.562750 4.962956
-1.005869 -1.561351 4.850882
-1.005687 -1.560691 4.798302
-1.005524 -1.560025 4.745723
-1.005365 -1.559358 4.693144
-1.005226 -1.558684 4.640565
-1.005093 -1.558009 4.587986
106 NaN NaN
-2.377096 -1.464772 14.629758
-2.294236 -1.475213 14.572503
-2.213740 -1.485333 14.511917
-2.135787 -1.495109 14.448038
-2.060544 -1.504520 14.380936
-1.988165 -1.513545 14.310704
-1.918783 -1.522169 14.237461
-1.852508 -1.530377 14.161349
-1.789423 -1.538158 14.082530
-1.729585 -1.545507 14.001177
-1.673022 -1.552420 13.917477
-1.619736 -1.558898 13.831619
-1.569703 -1.564944 13.743794
-1.522876 -1.570565 13.654190
-1.479189 -1.575771 13.562990
-1.438557 -1.580572 13.470365
-1.400884 -1.584983 13.376478
-1.366061 -1.589016 13.281481
-1.333974 -1.592689 13.185509
-1.304501 -1.596016 13.088690
-1.277518 -1.599014 12.991137
-1.252901 -1.601700 12.892951
-1.230525 -1.604090 12.794222
-1.210265 -1.606200 12.695030
-1.192000 -1.608046 12.595447
-1.175611 -1.609643 12.495533
-1.160980 -1.611007 12.395343
-1.147995 -1.612152 12.294923
-1.136545 -1.613093 12.194315
-1.126522 -1.613843 12.093552
-1.117821 -1.614415 11.992666
-1.110341 -1.614825 11.891681
-1.103978 -1.615085 11.790618
-1.098629 -1.615212 11.689497
-1.094188 -1.615221 11.588331
-1.090548 -1.615128 11.487134
-1.087599 -1.614948 11.385914
-1.085230 -1.614698 11.284679
-1.083330 -1.614395 11.183434
-1.081789 -1.614053 11.082183
-1.080493 -1.613690 10.980929
-1.079330 -1.613322 10.879673
-1.078187 -1.612965 10.778417
-1.076951 -1.612635 10.677162
-1.075510 -1.612350 10.575909
-1.073752 -1.612124 10.474661
-1.071610 -1.611967 10.373421
-1.069121 -1.611867 10.272189
-1.066335 -1.611812 10.170964
-1.063303 -1.611789 10.069746
-1.060075 -1.611785 9.968534
-1.056701 -1.611787 9.867327
-1.053232 -1.611782 9.766123
-1.049717 -1.611757 9.664921
-1.046207 -1.611700 9.563719
-1.042751 -1.611597 9.462515
-1.039400 -1.611436 9.361307
-1.036202 -1.611204 9.260095
-1.033209 -1.610889 9.158876
-1.030470 -1.610476 9.057651
-1.028036 -1.609954 8.956418
-1.025936 -1.609315 8.855179
-1.024153 -1.608566 8.753934
-1.022659 -1.607717 8.652686
-1.021428 -1.606775 8.551434
-1.020433 -1.605751 8.450181
-1.019647 -1.604654 8.348927
-1.019042 -1.603492 8.247672
-1.018593 -1.602276 8.146417
-1.018272 -1.601014 8.045162
-1.018052 -1.599715 7.943908
-1.017907 -1.598389 7.842653
-1.017809 -1.597045 7.741399
-1.017732 -1.595692 7.640145
-1.017648 -1.594339 7.538891
-1.017531 -1.592996 7.437636
-1.017361 -1.591669 7.336382
-1.017137 -1.590359 7.235128
-1.016864 -1.589063 7.133873
-1.016545 -1.587782 7.032618
-1.016184 -1.586514 6.931364
-1.015785 -1.585258 6.830109
-1.015352 -1.584012 6.728854
-1.014889 -1.582775 6.627600
-1.014399 -1.581547 6.526345
-1.013886 -1.580325 6.425091
-1.013354 -1.579110 6.323836
-1.012808 -1.577899 6.222582
-1.012250 -1.576692 6.121327
-1.011684 -1.575487 6.020073
-1.011115 -1.574283 5.918818
-1.010546 -1.573079 5.817564
-1.009981 -1.571874 5.716309
-1.009424 -1.570666 5.615055
-1.008878 -1.569455 5.513800
-1.008349 -1.568239 5.412546
-1.007838 -1.567017 5.311291
-1.007350 -1.565788 5.210037
-1.006890 -1.564550 5.108782
-1.006460 -1.563303 5.007527
-1.006065 -1.562046 4.906273
-1.005708 -1.560776 4.805018
-1.005393 -1.559494 4.703763
-1.005125 -1.558197 4.602509
-1.004906 -1.556885 4.501254
-1.004741 -1.555556 4.400000
-2.377414 -1.465158 14.629765
-3.367693 -1.733890 14.600453
-4.187347 -1.027656 14.532633
-4.541820 0.008086 14.469712
-4.882460 1.051528 14.412939
-5.218885 2.096356 14.355857
-5.575218 3.134867 14.306306
-5.983506 4.153868 14.255892
-6.484744 5.129834 14.201452
-7.119177 6.023809 14.141517
-7.908963 6.782670 14.076061
-8.839003 7.360592 14.006962
-9.864124 7.746672 13.936985
-10.938443 7.963902 13.868189
-12.031869 8.047048 13.801490
-13.128636 8.027438 13.737069
-2.378685 -1.466702 14.629790
-3.365783 -1.734471 14.600564
-3.369603 -1.733308 14.600342
-4.186260 -1.029330 14.532761
-4.188435 -1.025983 14.532505
-4.541158 0.006201 14.469810
-4.542483 0.009971 14.469615
-4.881840 1.049630 14.413041
-4.883080 1.053427 14.412836
-5.218274 2.094454 14.355960
-5.219495 2.098257 14.355754
-5.574532 3.132990 14.306395
-5.575904 3.136743 14.306217
-5.982687 4.152045 14.255987
-5.984324 4.155690 14.255797
-6.483713 5.128123 14.201556
-6.485775 5.131544 14.201348
-7.117870 6.022299 14.141632
-7.120484 6.025319 14.141403
-7.907398 6.781431 14.076184
-7.910528 6.783909 14.075938
-8.837214 7.359708 14.007089
-8.840793 7.361476 14.006835
-9.862204 7.746128 13.937112
-9.866045 7.747217 13.936858
-10.936465 7.963637 13.868312
-10.940422 7.964166 13.868065
-12.029873 8.046999 13.801609
-12.033865 8.047097 13.801371
-13.126643 8.027553 13.737184
-2.393612 -1.484828 14.630091
-3.343353 -1.741301 14.601871
-3.391440 -1.724866 14.598988
-4.173493 -1.048982 14.534265
-4.200799 -1.006097 14.530997
-4.533383 -0.015927 14.470955
-4.550258 0.032099 14.468470
-4.874558 1.027337 14.414247
-4.890362 1.075720 14.411630
-5.211110 2.072123 14.357169
-5.226660 2.120588 14.354544
-5.566475 3.110958 14.307438
-5.583961 3.158776 14.305174
-5.973082 4.130646 14.257101
-5.993934 4.177088 14.254682
-6.471741 5.107958 14.202773
-6.497877 5.151631 14.200125
-7.102831 6.004314 14.142969
-7.135825 6.043047 14.140054
-7.889020 6.766884 14.077627
-7.929112 6.798190 14.074488
-8.816204 7.349325 14.008584
-8.861851 7.371758 14.005340
-9.839657 7.739735 13.938600
-9.888591 7.753609 13.935370
-10.913234 7.960528 13.869762
-10.963653 7.967275 13.866616
-12.006439 8.046423 13.803010
-12.057299 8.047673 13.799970
-13.103238 8.028908 13.738536
-2.463890 -1.563444 14.631141
-2.595466 -1.666267 14.630714
-2.747092 -1.736234 14.627641
-2.909014 -1.776553 14.622572
-3.075651 -1.787563 14.615815
-3.241387 -1.767863 14.607602
-3.487433 -1.681344 14.592750
-3.629613 -1.593922 14.582498
-3.760766 -1.490603 14.572095
-3.885053 -1.379029 14.561732
-4.003820 -1.261590 14.551423
-4.112606 -1.134971 14.540982
-4.248439 -0.912069 14.524140
-4.306495 -0.755560 14.513368
-4.352528 -0.595007 14.503035
-4.396025 -0.433684 14.493335
-4.444995 -0.273898 14.484463
-4.498523 -0.115545 14.476113
-4.584786 0.131829 14.463247
-4.637496 0.290449 14.454698
-4.688699 0.449552 14.445945
-4.739293 0.608846 14.437116
-4.790287 0.768015 14.428355
-4.841836 0.927011 14.419685
-4.923121 1.176034 14.406212
-4.974849 1.334977 14.397628
-5.026320 1.494001 14.389011
-5.077489 1.653119 14.380324
-5.128328 1.812336 14.371528
-5.179012 1.971601 14.362688
-5.259105 2.221009 14.349206
-5.311314 2.379821 14.341158
-5.364615 2.538294 14.333592
-5.419034 2.696404 14.326370
-5.474388 2.854193 14.319257
-5.530556 3.011691 14.312074
-5.620481 3.257819 14.300447
-5.679336 3.414313 14.292875
-5.739570 3.570281 14.285249
-5.801539 3.725564 14.277585
-5.865194 3.880160 14.269867
-5.930686 4.033985 14.262073
-6.037615 4.273170 14.249647
-6.108635 4.424506 14.241586
-6.182097 4.574667 14.233416
-6.258228 4.723483 14.225132
-6.336977 4.870925 14.216736
-6.418648 5.016762 14.208217
-6.552839 5.241707 14.194604
-6.642428 5.382796 14.185753
-6.735508 5.521597 14.176760
-6.832010 5.658029 14.167633
-6.931889 5.792001 14.158374
-7.035566 5.923047 14.148972
-7.205295 6.122430 14.133973
-7.318180 6.245605 14.124240
-7.435022 6.365022 14.114374
-7.555362 6.480897 14.104395
-7.679206 6.593016 14.094308
-7.806794 6.700842 14.084111
-8.013327 6.861671 14.067953
-8.149265 6.958738 14.057539
-8.288364 7.051206 14.047055
-8.430227 7.139365 14.036516
-8.574851 7.222921 14.025929
-8.722074 7.301798 14.015305
-8.957301 7.416582 13.998607
-9.110153 7.483905 13.987936
-9.264867 7.546825 13.977262
-9.421208 7.605591 13.966593
-9.579159 7.659890 13.955937
-9.738455 7.710100 13.945302
-9.990439 7.780954 13.928685
-10.152612 7.820947 13.918127
-10.315619 7.857391 13.907604
-10.479369 7.890364 13.897122
-10.643824 7.919635 13.886687
-10.808814 7.945730 13.876296
-11.068315 7.980269 13.860110
-11.234389 7.998306 13.849850
-11.400742 8.013584 13.839639
-11.567333 8.026069 13.829482
-11.734109 8.035813 13.819379
-11.901013 8.043118 13.809327
-12.162760 8.049600 13.793684
-12.329829 8.050749 13.783771
-12.496902 8.049793 13.773908
-12.663952 8.046624 13.764101
-12.830954 8.041440 13.754344
-12.997890 8.034384 13.744637
169 NaN NaN
-2.377096 -1.464772 14.629758
-2.441197 -1.542614 14.631048
-2.515491 -1.610808 14.631351
-2.598365 -1.668277 14.630691
-2.688006 -1.714482 14.629128
-2.782637 -1.749319 14.626746
-2.880654 -1.772951 14.623636
-2.980661 -1.785651 14.619884
-3.081430 -1.787679 14.615567
-3.181842 -1.779220 14.610756
-3.280804 -1.760345 14.605514
-3.377158 -1.731008 14.599902
-3.469671 -1.691224 14.593985
-3.557676 -1.642267 14.587863
-3.641265 -1.586091 14.581629
-3.720981 -1.524530 14.575353
-3.797624 -1.459173 14.569078
-3.872125 -1.391374 14.562834
-3.944981 -1.321809 14.556623
-4.015377 -1.249763 14.550402
-4.082123 -1.174335 14.544127
-4.143782 -1.094713 14.537765
-4.198635 -1.010282 14.531303
-4.244874 -0.920858 14.524756
-4.282720 -0.827552 14.518213
-4.314302 -0.731921 14.511777
-4.341899 -0.635045 14.505517
-4.367749 -0.537670 14.499481
-4.394041 -0.440399 14.493715
-4.422598 -0.343752 14.488252
-4.453372 -0.247773 14.483045
-4.485700 -0.152295 14.478017
-4.518910 -0.057115 14.473085
-4.552329 0.037992 14.468165
-4.585280 0.133259 14.463172
-4.617343 0.228822 14.458054
-4.648670 0.324623 14.452836
-4.679489 0.420585 14.447550
-4.710028 0.516635 14.442228
-4.740516 0.612700 14.436902
-4.771176 0.708713 14.431605
-4.802091 0.804646 14.426347
-4.833200 0.900518 14.421123
-4.864437 0.996349 14.415923
-4.895733 1.092163 14.410741
-4.927022 1.187979 14.405567
-4.958241 1.283818 14.400393
-4.989364 1.379687 14.395211
-5.020387 1.475589 14.390014
-5.051302 1.571524 14.384791
-5.082102 1.667494 14.379536
-5.112782 1.763500 14.374240
-5.143355 1.859538 14.368906
-5.173904 1.955584 14.363570
-5.204527 2.051608 14.358281
-5.235321 2.147583 14.353082
-5.266383 2.243479 14.348020
-5.297810 2.339266 14.343140
-5.329663 2.434921 14.338464
-5.361928 2.530446 14.333953
-5.394582 2.625845 14.329563
-5.427600 2.721122 14.325251
-5.460957 2.816283 14.320970
-5.494630 2.911331 14.316677
-5.528597 3.006272 14.312327
-5.562870 3.101100 14.307905
-5.597498 3.195796 14.303421
-5.632531 3.290340 14.298888
-5.668022 3.384711 14.294319
-5.704019 3.478890 14.289727
-5.740571 3.572854 14.285122
-5.777714 3.666585 14.280507
-5.815477 3.760067 14.275875
-5.853889 3.853284 14.271221
-5.892979 3.946217 14.266539
-5.932775 4.038848 14.261825
-5.973307 4.131157 14.257074
-6.014608 4.223123 14.252285
-6.056716 4.314720 14.247457
-6.099665 4.405924 14.242590
-6.143490 4.496708 14.237684
-6.188226 4.587044 14.232738
-6.233906 4.676904 14.227752
-6.280563 4.766259 14.222725
-6.328230 4.855076 14.217655
-6.376938 4.943325 14.212540
-6.426718 5.030970 14.207380
-6.477601 5.117977 14.202174
-6.529614 5.204310 14.196920
-6.582786 5.289931 14.191617
-6.637144 5.374801 14.186266
-6.692712 5.458880 14.180866
-6.749517 5.542126 14.175416
-6.807580 5.624495 14.169917
-6.866920 5.705946 14.164368
-6.927553 5.786436 14.158770
-6.989492 5.865921 14.153121
-7.052752 5.944355 14.147424
-7.117345 6.021692 14.141678
-7.183279 6.097885 14.135884
-7.250555 6.172892 14.130043
-7.319171 6.246671 14.124155
-7.389124 6.319181 14.118222
-7.460409 6.390377 14.112246
-7.533022 6.460216 14.106226
-7.606951 6.528655 14.100166
-7.682177 6.595662 14.094067
-7.758678 6.661207 14.087931
-7.836432 6.725257 14.081759
-7.915417 6.787779 14.075553
-7.995609 6.848742 14.069317
-8.076980 6.908121 14.063051
-8.159492 6.965899 14.056759
-8.243109 7.022063 14.050442
-8.327796 7.076599 14.044103
-8.413517 7.129492 14.037744
-8.500236 7.180730 14.031368
-8.587914 7.230308 14.024977
-8.676506 7.278230 14.018572
-8.765972 7.324501 14.012157
-8.856269 7.369125 14.005734
-8.947360 7.412106 13.999304
-9.039204 7.453453 13.992870
-9.131760 7.493179 13.986433
-9.224988 7.531301 13.979996
-9.318849 7.567839 13.973560
-9.413304 7.602811 13.967127
-9.508318 7.636237 13.960699
-9.603856 7.668137 13.954277
-9.699882 7.698536 13.947863
-9.796364 7.727460 13.941457
-9.893268 7.754935 13.935061
-9.990566 7.780988 13.928677
-10.088227 7.805646 13.922305
-10.186225 7.828935 13.915946
-10.284532 7.850884 13.909600
-10.383124 7.871521 13.903270
-10.481977 7.890874 13.896955
-10.581069 7.908973 13.890656
-10.680377 7.925846 13.884374
-10.779883 7.941520 13.878109
-10.879568 7.956024 13.871862
-10.979413 7.969384 13.865633
-11.079403 7.981627 13.859422
-11.179521 7.992781 13.853229
-11.279753 8.002873 13.847056
-11.380085 8.011929 13.840901
-11.480504 8.019973 13.834766
-11.580999 8.027029 13.828650
-11.681558 8.033121 13.822553
-11.782171 8.038275 13.816476
-11.882828 8.042514 13.810418
-11.983519 8.045860 13.804380
-12.084237 8.048334 13.798361
-12.184974 8.049959 13.792361
-12.285721 8.050754 13.786381
-12.386473 8.050743 13.780420
-12.487222 8.049944 13.774478
-12.587964 8.048375 13.768555
-12.688693 8.046054 13.762651
-12.789402 8.042998 13.756765
-12.890089 8.039224 13.750899
-12.990748 8.034750 13.745051
-13.091376 8.029594 13.739221
-13.191968 8.023772 13.733410
-13.292522 8.017303 13.727616
-13.393034 8.010202 13.721840
-13.493502 8.002488 13.716082
-13.593923 7.994178 13.710341
-0.922677 -1.156922 20.171960
-0.867989 -1.052579 20.137438
-0.818035 -0.945184 20.105229
-0.773667 -0.834611 20.075772
-0.735904 -0.720821 20.049601
-0.705944 -0.603925 20.027350
-0.685139 -0.484273 20.009747
-0.675837 -0.362485 19.998059
-0.679134 -0.239978 19.992940
-0.695407 -0.118469 19.994684
-0.724833 0.000210 20.003487
-0.766836 0.114333 20.019141
-0.820211 0.222571 20.041091
-0.883650 0.323913 20.068706
-0.955733 0.417748 20.101275
-1.034165 0.504883 20.137549
-1.117708 0.585732 20.176855
-1.205357 0.660803 20.218639
-1.296314 0.730621 20.262452
-0.921777 -1.155228 20.171394
-0.868823 -1.054316 20.137973
-0.867154 -1.050842 20.136903
-0.818794 -0.946966 20.105727
-0.817276 -0.943402 20.104731
-0.774338 -0.836440 20.076227
-0.772996 -0.832783 20.075318
-0.736472 -0.722696 20.050004
-0.735335 -0.718946 20.049198
-0.706394 -0.605843 20.027693
-0.705494 -0.602007 20.027006
-0.685453 -0.486229 20.010021
-0.684826 -0.482317 20.009473
-0.675825 -0.364482 19.998164
-0.675850 -0.360487 19.997954
-0.678937 -0.241968 19.992948
-0.679331 -0.237988 19.992932
-0.695020 -0.120429 19.994591
-0.695794 -0.116509 19.994778
-0.724259 -0.001696 20.003292
-0.725407 0.002116 20.003681
-0.766087 0.112502 20.018851
-0.767585 0.116165 20.019432
-0.819305 0.220829 20.040713
-0.821117 0.224313 20.041469
-0.882492 0.322368 20.068185
-0.884808 0.325459 20.069227
-0.954479 0.416301 20.100698
-0.956986 0.419196 20.101851
-1.032833 0.503527 20.136925
-1.035497 0.506238 20.138172
-1.116311 0.584463 20.176193
-1.119105 0.587001 20.177517
-1.203907 0.659614 20.217945
-1.206807 0.661993 20.219333
-1.294820 0.729504 20.261730
-0.919169 -1.150319 20.169751
-0.871242 -1.059351 20.139523
-0.864735 -1.045807 20.135353
-0.820993 -0.952132 20.107169
-0.815077 -0.938236 20.103289
-0.776282 -0.841740 20.077543
-0.771051 -0.827482 20.074002
-0.738121 -0.728129 20.051173
-0.733687 -0.713513 20.048029
-0.707699 -0.611403 20.028688
-0.704189 -0.596447 20.026011
-0.686363 -0.491899 20.010815
-0.684062 -0.476621 20.008754
-0.675788 -0.370271 19.998468
-0.675886 -0.354698 19.997649
-0.678366 -0.247737 19.992971
-0.679901 -0.232219 19.992909
-0.693899 -0.126110 19.994320
-0.696916 -0.110828 19.995049
-0.722596 -0.007220 20.002728
-0.727070 0.007641 20.004245
-0.763915 0.107193 20.018009
-0.769756 0.121474 20.020274
-0.816677 0.215779 20.039617
-0.823744 0.229363 20.042565
-0.879325 0.317726 20.066782
-0.888164 0.329938 20.070737
-0.950846 0.412104 20.099027
-0.960619 0.423393 20.103522
-1.028971 0.499599 20.135119
-1.039359 0.510166 20.139978
-1.112262 0.580785 20.174275
-1.123154 0.590679 20.179436
-1.199703 0.656166 20.215932
-1.211011 0.665440 20.221346
-1.290488 0.726268 20.259639
-0.913538 -1.139723 20.166204
-0.906144 -1.125808 20.161548
-0.898750 -1.111893 20.156891
-0.891356 -1.097979 20.152234
-0.883962 -1.084064 20.147578
-0.876568 -1.070149 20.142921
-0.859514 -1.034939 20.132006
-0.852658 -1.020669 20.127612
-0.845801 -1.006398 20.123217
-0.838945 -0.992127 20.118823
-0.832089 -0.977857 20.114428
-0.825741 -0.963283 20.110283
-0.810329 -0.927085 20.100175
-0.804095 -0.912443 20.096086
-0.797861 -0.897801 20.091997
-0.791627 -0.883159 20.087908
-0.785991 -0.868202 20.084116
-0.780480 -0.853180 20.080384
-0.766854 -0.816042 20.071160
-0.761342 -0.801020 20.067429
-0.755830 -0.785998 20.063698
-0.751024 -0.770658 20.060319
-0.746351 -0.755257 20.057007
-0.741679 -0.739857 20.053695
-0.730128 -0.701785 20.045507
-0.725456 -0.686385 20.042195
-0.721613 -0.670679 20.039301
-0.717914 -0.654921 20.036480
-0.714215 -0.639162 20.033658
-0.710516 -0.623404 20.030837
-0.701372 -0.584447 20.023862
-0.698641 -0.568419 20.021533
-0.696062 -0.552348 20.019282
-0.693484 -0.536278 20.017031
-0.690905 -0.520207 20.014780
-0.688327 -0.504137 20.012529
-0.683066 -0.464207 20.007538
-0.681759 -0.447906 20.005941
-0.680452 -0.431606 20.004344
-0.679145 -0.415305 20.002747
-0.677838 -0.399004 20.001150
-0.676531 -0.382703 19.999553
-0.675965 -0.342203 19.996992
-0.676068 -0.325796 19.996129
-0.676171 -0.309388 19.995266
-0.676275 -0.292980 19.994403
-0.676378 -0.276572 19.993540
-0.677134 -0.260189 19.993020
-0.681133 -0.219767 19.992859
-0.682751 -0.203416 19.992794
-0.684369 -0.187065 19.992729
-0.685987 -0.170715 19.992663
-0.688299 -0.154474 19.992968
-0.691478 -0.138372 19.993736
-0.699337 -0.098566 19.995633
-0.702516 -0.082463 19.996401
-0.705695 -0.066361 19.997168
-0.709577 -0.050462 19.998316
-0.714292 -0.034804 19.999914
-0.719006 -0.019145 20.001512
-0.730660 0.019566 20.005461
-0.735374 0.035224 20.007059
-0.740768 0.050594 20.009030
-0.746922 0.065641 20.011417
-0.753076 0.080688 20.013804
-0.759229 0.095735 20.016191
-0.774442 0.132932 20.022092
-0.781224 0.147623 20.024828
-0.788669 0.161937 20.027934
-0.796115 0.176251 20.031040
-0.803561 0.190564 20.034146
-0.811007 0.204878 20.037252
-0.829973 0.239865 20.045246
-0.838539 0.253379 20.048984
-0.847105 0.266893 20.052722
-0.855670 0.280407 20.056460
-0.864236 0.293921 20.060198
-0.872802 0.307435 20.063936
-0.895407 0.339607 20.073996
-0.904918 0.352303 20.078276
-0.914430 0.364999 20.082556
-0.923941 0.377695 20.086836
-0.933452 0.390391 20.091116
-0.943005 0.403045 20.095419
-0.968461 0.432452 20.107130
-0.978758 0.444347 20.111867
-0.989055 0.456243 20.116604
-0.999353 0.468138 20.121340
-1.009692 0.479985 20.126102
-1.020636 0.491120 20.131221
-1.047693 0.518646 20.143876
-1.058638 0.529780 20.148995
-1.069583 0.540915 20.154114
-1.080568 0.551996 20.159258
-1.092045 0.562421 20.164696
-1.103522 0.572846 20.170134
-1.131894 0.598618 20.183577
-1.143371 0.609044 20.189015
-1.154886 0.619412 20.194476
-1.166800 0.629183 20.200180
-1.178715 0.638954 20.205884
-1.190630 0.648725 20.211588
-1.220084 0.672881 20.225690
-1.232035 0.682593 20.231416
-1.244311 0.691766 20.237343
-1.256587 0.700938 20.243271
-1.268863 0.710111 20.249198
-1.281140 0.719283 20.255125
22 NaN NaN
-0.922902 -1.157345 20.172102
-0.875130 -1.067443 20.142015
-0.830832 -0.975241 20.113623
-0.790556 -0.880643 20.087206
-0.754947 -0.783590 20.063100
-0.724763 -0.684099 20.041704
-0.700868 -0.582300 20.023478
-0.684212 -0.478492 20.008937
-0.675770 -0.373204 19.998623
-0.676437 -0.267231 19.993049
-0.686886 -0.161631 19.992627
-0.707416 -0.057641 19.997584
-0.737862 0.043487 20.007902
-0.777605 0.140667 20.023319
-0.825698 0.233119 20.043380
-0.881026 0.320411 20.067525
-0.942468 0.402425 20.095172
-1.008990 0.479271 20.125774
-1.079698 0.551205 20.158845
-1.153846 0.618559 20.193978
-1.230824 0.681689 20.230831
-1.310140 0.740951 20.269127
-1.649792 -1.570032 16.431142
-1.548012 -1.494818 16.427072
-1.448035 -1.417209 16.423456
-1.350162 -1.336945 16.420354
-1.254773 -1.253726 16.417842
-1.162351 -1.167208 16.416009
-1.073858 -1.076667 16.415043
-0.990208 -0.981645 16.415094
-0.912364 -0.881847 16.416305
-0.841889 -0.776769 16.418907
-0.780856 -0.666006 16.423181
-0.732236 -0.549357 16.429493
-0.701270 -0.427068 16.438421
-0.689723 -0.301796 16.449898
-0.699667 -0.176704 16.463840
-0.731037 -0.055412 16.479870
-0.781593 0.059140 16.497428
-0.849044 0.164549 16.516003
-0.928527 0.261140 16.535066
-1.016689 0.349853 16.554327
-1.111427 0.431532 16.573629
-1.211198 0.507034 16.592880
-1.314984 0.576970 16.612026
-1.422049 0.641830 16.631032
-1.648181 -1.568849 16.431077
-1.549600 -1.496033 16.427131
-1.546425 -1.493603 16.427013
-1.449595 -1.418459 16.423508
-1.446474 -1.415959 16.423403
-1.351691 -1.338233 16.420399
-1.348633 -1.335656 16.420309
-1.256266 -1.255057 16.417878
-1.253280 -1.252396 16.417805
-1.163801 -1.168585 16.416036
-1.160900 -1.165831 16.415983
-1.075197 -1.078153 16.415045
-1.072518 -1.075182 16.415040
-0.991474 -0.983194 16.415082
-0.988943 -0.980097 16.415106
-0.913540 -0.883465 16.416275
-0.911189 -0.880229 16.416334
-0.842952 -0.778462 16.418856
-0.840825 -0.775076 16.418957
-0.781779 -0.667778 16.423107
-0.779932 -0.664233 16.423256
-0.732770 -0.551279 16.429358
-0.731701 -0.547434 16.429627
-0.701548 -0.429041 16.438251
-0.700991 -0.425095 16.438590
-0.689713 -0.303786 16.449693
-0.689733 -0.299807 16.450103
-0.699357 -0.178666 16.463604
-0.699978 -0.174743 16.464077
-0.730440 -0.057302 16.479608
-0.731634 -0.053521 16.480132
-0.780744 0.057351 16.497147
-0.782442 0.060929 16.497709
-0.847823 0.162994 16.515703
-0.850265 0.166105 16.516303
-0.927177 0.259696 16.534763
-0.929877 0.262584 16.535370
-1.015238 0.348511 16.554022
-1.018139 0.351196 16.554632
-1.109897 0.430280 16.573324
-1.112957 0.432784 16.573934
-1.209605 0.505863 16.592576
-1.212790 0.508205 16.593184
-1.313300 0.575935 16.611726
-1.316668 0.578006 16.612327
-1.420330 0.640851 16.630733
-1.643401 -1.565340 16.430883
-1.554309 -1.499636 16.427307
-1.541716 -1.490000 16.426837
-1.454224 -1.422165 16.423664
-1.441846 -1.412252 16.423247
-1.356227 -1.342053 16.420533
-1.344097 -1.331836 16.420176
-1.260695 -1.259002 16.417986
-1.248852 -1.248451 16.417697
-1.168103 -1.172668 16.416116
-1.156599 -1.161748 16.415903
-1.079169 -1.082558 16.415054
-1.068546 -1.070776 16.415031
-0.995228 -0.987786 16.415046
-0.985189 -0.975504 16.415142
-0.917026 -0.888264 16.416187
-0.907703 -0.875431 16.416422
-0.846106 -0.783484 16.418707
-0.837671 -0.770054 16.419106
-0.784518 -0.673035 16.422886
-0.777193 -0.658976 16.423477
-0.734917 -0.556796 16.429042
-0.730116 -0.541732 16.430027
-0.702374 -0.434894 16.437748
-0.700166 -0.419242 16.439093
-0.689683 -0.309686 16.449086
-0.689764 -0.293906 16.450710
-0.698435 -0.184484 16.462902
-0.700900 -0.168925 16.464778
-0.728668 -0.062910 16.478830
-0.733406 -0.047914 16.480911
-0.778227 0.052044 16.496313
-0.785203 0.066098 16.498557
-0.844201 0.158381 16.514812
-0.853886 0.170717 16.517193
-0.923173 0.255413 16.533862
-0.933881 0.266867 16.536271
-1.010935 0.344529 16.553118
-1.022442 0.355178 16.555537
-1.105360 0.426568 16.572420
-1.117494 0.436496 16.574838
-1.204881 0.502390 16.591675
-1.217514 0.511678 16.594085
-1.308356 0.572783 16.610832
-1.321664 0.581078 16.613218
-1.415234 0.637947 16.629847
-1.632989 -1.557697 16.430462
-1.619307 -1.547652 16.429908
-1.605624 -1.537608 16.429354
-1.591941 -1.527564 16.428800
-1.578259 -1.517519 16.428246
-1.564576 -1.507475 16.427692
-1.531457 -1.482150 16.426455
-1.517976 -1.471835 16.425952
-1.504495 -1.461519 16.425449
-1.491013 -1.451203 16.424946
-1.477558 -1.440853 16.424449
-1.464307 -1.430241 16.424003
-1.431762 -1.404177 16.422908
-1.418511 -1.393564 16.422462
-1.405260 -1.382952 16.422016
-1.392081 -1.372252 16.421587
-1.379095 -1.361314 16.421205
-1.366109 -1.350376 16.420823
-1.334215 -1.323513 16.419885
-1.321229 -1.312575 16.419503
-1.308375 -1.301485 16.419152
-1.295697 -1.290189 16.418842
-1.283020 -1.278893 16.418532
-1.270342 -1.267598 16.418222
-1.239205 -1.239855 16.417461
-1.226738 -1.228329 16.417199
-1.214423 -1.216638 16.416972
-1.202107 -1.204947 16.416744
-1.189791 -1.193256 16.416516
-1.177475 -1.181565 16.416289
-1.147544 -1.152528 16.415800
-1.135657 -1.140399 16.415666
-1.123771 -1.128271 16.415533
-1.111884 -1.116142 16.415400
-1.099997 -1.104014 16.415267
-1.088110 -1.091885 16.415133
-1.059893 -1.061178 16.415013
-1.048521 -1.048565 16.414989
-1.037149 -1.035952 16.414964
-1.025777 -1.023339 16.414940
-1.014405 -1.010726 16.414916
-1.003406 -0.997792 16.414968
-0.977011 -0.965498 16.415220
-0.966263 -0.952349 16.415323
-0.955516 -0.939200 16.415426
-0.944769 -0.926050 16.415529
-0.934600 -0.912457 16.415744
-0.924620 -0.898718 16.415995
-0.900108 -0.864976 16.416614
-0.890128 -0.851238 16.416865
-0.880148 -0.837499 16.417117
-0.871035 -0.823179 16.417529
-0.862006 -0.808801 16.417955
-0.852976 -0.794424 16.418382
-0.830801 -0.759113 16.419431
-0.821854 -0.744689 16.419872
-0.814012 -0.729639 16.420505
-0.806170 -0.714588 16.421138
-0.798328 -0.699538 16.421771
-0.790486 -0.684488 16.422404
-0.771563 -0.647370 16.424013
-0.765202 -0.631648 16.424886
-0.758841 -0.615926 16.425759
-0.752479 -0.600204 16.426632
-0.746118 -0.584482 16.427505
-0.739757 -0.568760 16.428377
-0.726663 -0.529309 16.430899
-0.722125 -0.512984 16.432044
-0.717588 -0.496659 16.433189
-0.713050 -0.480334 16.434334
-0.708512 -0.464009 16.435480
-0.704173 -0.447644 16.436652
-0.698367 -0.406492 16.440190
-0.696003 -0.389736 16.441630
-0.693639 -0.372981 16.443070
-0.691276 -0.356225 16.444511
-0.689531 -0.339435 16.446026
-0.689617 -0.322541 16.447764
-0.689829 -0.281051 16.452032
-0.689916 -0.264157 16.453770
-0.690002 -0.247264 16.455507
-0.691147 -0.230469 16.457357
-0.693787 -0.213814 16.459366
-0.696426 -0.197158 16.461374
-0.702909 -0.156251 16.466307
-0.705548 -0.139595 16.468315
-0.709592 -0.123287 16.470450
-0.714664 -0.107233 16.472678
-0.719736 -0.091180 16.474906
-0.724808 -0.075126 16.477134
-0.737266 -0.035698 16.482606
-0.743915 -0.020281 16.484951
-0.751122 -0.005090 16.487338
-0.758329 0.010102 16.489724
-0.765536 0.025293 16.492111
-0.772743 0.040484 16.494497
-0.792027 0.076908 16.500451
-0.800995 0.091113 16.502940
-0.809963 0.105319 16.505429
-0.818932 0.119524 16.507918
-0.827900 0.133729 16.510407
-0.836868 0.147934 16.512896
-0.861776 0.180767 16.519133
-0.872144 0.193974 16.521682
-0.882512 0.207181 16.524230
-0.892880 0.220388 16.526779
-0.903248 0.233594 16.529328
-0.914450 0.246082 16.531900
-0.942604 0.276198 16.538233
-0.954068 0.288460 16.540812
-0.965531 0.300722 16.543391
-0.976994 0.312984 16.545969
-0.989243 0.324454 16.548558
-1.001562 0.335854 16.551147
-1.031816 0.363853 16.557507
-1.044134 0.375253 16.560097
-1.056504 0.386594 16.562686
-1.069494 0.397223 16.565274
-1.082485 0.407852 16.567862
-1.095475 0.418480 16.570450
-1.127379 0.444584 16.576807
-1.140494 0.455053 16.579393
-1.154018 0.464995 16.581973
-1.167542 0.474938 16.584553
-1.181066 0.484881 16.587132
-1.194590 0.494824 16.589712
-1.227973 0.519007 16.596043
-1.241926 0.528341 16.598610
-1.255879 0.537676 16.601177
-1.269832 0.547011 16.603744
-1.283785 0.556345 16.606311
-1.297738 0.565680 16.608878
-1.332548 0.587770 16.615160
-1.346850 0.596564 16.617713
-1.361153 0.605358 16.620265
-1.375455 0.614153 16.622817
-1.389757 0.622947 16.625369
-1.404131 0.631622 16.627917
29 NaN NaN
-1.650195 -1.570327 16.431158
-1.563998 -1.507051 16.427669
-1.479071 -1.442065 16.424500
-1.395594 -1.375211 16.421691
-1.313788 -1.306308 16.419284
-1.233925 -1.235151 16.417332
-1.156341 -1.161504 16.415898
-1.081462 -1.085102 16.415059
-1.009828 -1.005649 16.414906
-0.942131 -0.922822 16.415554
-0.879268 -0.836288 16.417139
-0.822399 -0.745735 16.419828
-0.773012 -0.650952 16.423815
-0.732957 -0.551952 16.429311
-0.704388 -0.449173 16.436520
-0.689509 -0.343702 16.445587
-0.690053 -0.237378 16.456524
-0.706664 -0.132552 16.469164
-0.738590 -0.031504 16.483188
-0.783962 0.064132 16.498212
-0.840430 0.153577 16.513885
-0.905723 0.236747 16.529936
-0.977921 0.313975 16.546178
-1.055510 0.385781 16.562488
-1.137335 0.452730 16.578791
-1.222525 0.515362 16.595041
-1.310420 0.574164 16.611212
-1.400517 0.629563 16.627289
-1.492430 0.681928 16.643266
-2.034169 -1.497833 15.539942
-1.786928 -1.376212 15.499322
-1.545254 -1.243597 15.459719
-1.312278 -1.095879 15.421689
-1.092505 -0.928773 15.386019
-0.896595 -0.733800 15.354565
-0.746141 -0.501900 15.331018
-0.684086 -0.232945 15.322593
-0.741703 0.036637 15.334271
-0.888131 0.270905 15.360601
-1.081550 0.467897 15.394547
-1.298628 0.638061 15.432267
-2.032383 -1.496983 15.539649
-1.788686 -1.377120 15.499611
-1.785169 -1.375304 15.499034
-1.546952 -1.244616 15.459997
-1.543555 -1.242578 15.459441
-1.313916 -1.096996 15.421956
-1.310641 -1.094763 15.421422
-1.093991 -0.930089 15.386259
-1.091018 -0.927457 15.385780
-0.897901 -0.735301 15.354773
-0.895290 -0.732300 15.354357
-0.746897 -0.503748 15.331132
-0.745386 -0.500051 15.330905
-0.684197 -0.234942 15.322597
-0.683974 -0.230949 15.322589
-0.740856 0.034832 15.334115
-0.742550 0.038442 15.334426
-0.886915 0.269332 15.360385
-0.889347 0.272478 15.360817
-1.080051 0.466600 15.394286
-1.083050 0.469194 15.394809
-1.297026 0.636896 15.431989
-2.022336 -1.492202 15.537997
-1.798576 -1.382227 15.501234
-1.775279 -1.370197 15.497411
-1.556560 -1.250248 15.461569
-1.534004 -1.236845 15.457880
-1.323128 -1.103274 15.423456
-1.301429 -1.088484 15.419922
-1.102353 -0.937491 15.387609
-1.082656 -0.920055 15.384430
-0.905243 -0.743743 15.355943
-0.887948 -0.723858 15.353187
-0.751146 -0.514144 15.331768
-0.741137 -0.489656 15.330269
-0.684824 -0.246174 15.322619
-0.683347 -0.219717 15.322567
-0.736093 0.024679 15.333240
-0.747314 0.048594 15.335302
-0.880075 0.260485 15.359171
-0.896187 0.281325 15.362032
-1.071615 0.459305 15.392815
-1.091486 0.476488 15.396279
-1.288016 0.630345 15.430428
-1.996319 -1.479823 15.533719
-1.961701 -1.463352 15.528028
-1.927153 -1.446735 15.522349
-1.892788 -1.429726 15.516704
-1.858424 -1.412718 15.511059
-1.824185 -1.395452 15.505437
-1.749670 -1.356972 15.493208
-1.715856 -1.338865 15.487664
-1.682112 -1.320622 15.482132
-1.648368 -1.302379 15.476600
-1.614991 -1.283453 15.471135
-1.581631 -1.264495 15.465673
-1.509271 -1.222002 15.453836
-1.476361 -1.202252 15.448456
-1.443704 -1.182080 15.443121
-1.411327 -1.161444 15.437837
-1.378950 -1.140807 15.432552
-1.346981 -1.119532 15.427341
-1.277575 -1.072226 15.416036
-1.246606 -1.049474 15.411004
-1.215642 -1.026715 15.405973
-1.184831 -1.003751 15.400969
-1.154822 -0.979711 15.396107
-1.124813 -0.955671 15.391246
-1.061004 -0.900888 15.380936
-1.032193 -0.875385 15.376287
-1.004420 -0.848745 15.371820
-0.977139 -0.821568 15.367440
-0.949857 -0.794391 15.363060
-0.924254 -0.765601 15.358974
-0.869457 -0.701575 15.350246
-0.846778 -0.670351 15.346669
-0.824099 -0.639126 15.343092
-0.802690 -0.607059 15.339735
-0.783485 -0.573527 15.336758
-0.764280 -0.539995 15.333782
-0.730134 -0.462737 15.328621
-0.715494 -0.426919 15.326428
-0.705974 -0.389423 15.325107
-0.697098 -0.351716 15.323897
-0.688608 -0.313952 15.322751
-0.686448 -0.275255 15.322676
-0.684607 -0.190741 15.322994
-0.689409 -0.152298 15.324086
-0.694212 -0.113856 15.325178
-0.702728 -0.076225 15.326887
-0.713892 -0.039174 15.329037
-0.725056 -0.002122 15.331187
-0.759649 0.074883 15.337568
-0.776498 0.109618 15.340656
-0.796983 0.142312 15.344339
-0.817467 0.175006 15.348022
-0.838798 0.207093 15.351842
-0.862364 0.237576 15.356026
-0.915362 0.302971 15.365412
-0.941259 0.331443 15.369973
-0.967155 0.359914 15.374534
-0.994468 0.386972 15.379321
-1.022147 0.413664 15.384168
-1.049826 0.440356 15.389015
-1.113329 0.495376 15.400088
-1.142737 0.520081 15.405210
-1.172898 0.543849 15.410452
-1.203059 0.567618 15.415694
-1.233643 0.590811 15.421002
-1.264686 0.613382 15.426384
31 NaN NaN
-2.034616 -1.498045 15.540016
-1.936505 -1.451364 15.523885
-1.839112 -1.403160 15.507886
-1.742537 -1.353289 15.492037
-1.646902 -1.301586 15.476360
-1.552357 -1.247860 15.460880
-1.459088 -1.191886 15.445632
-1.367329 -1.133401 15.430656
-1.277380 -1.072093 15.416004
-1.189628 -1.007594 15.401746
-1.104585 -0.939467 15.387969
-1.022941 -0.867196 15.374794
-0.945635 -0.790185 15.362382
-0.873960 -0.707775 15.350957
-0.809710 -0.619316 15.340823
-0.755313 -0.524339 15.332392
-0.713858 -0.422916 15.326183
-0.688732 -0.316176 15.322756
-0.682618 -0.206661 15.322542
-0.696211 -0.097853 15.325632
-0.727818 0.007044 15.331719
-0.774299 0.106108 15.340261
-0.832326 0.198722 15.350693
-0.899095 0.285086 15.362548
-0.972474 0.365762 15.375470
-1.050909 0.441401 15.389204
-1.133274 0.512623 15.403566
-1.218748 0.579981 15.418420
-1.306724 0.643947 15.433670
-1.396748 0.704920 15.449242
-1.488469 0.763237 15.465079
-2.082043 -1.501576 14.400631
-1.920279 -1.426723 14.449028
-1.760874 -1.347648 14.498500
-1.604346 -1.263735 14.549177
-1.451863 -1.173548 14.601373
-1.304368 -1.076342 14.655201
-1.163358 -0.970908 14.710850
-1.032157 -0.854601 14.768727
-0.914946 -0.725412 14.828903
-0.817672 -0.581633 14.891091
-0.751962 -0.421427 14.954232
-0.730294 -0.249255 15.015031
-0.755779 -0.075545 15.069546
-0.825101 0.089137 15.114718
-0.926383 0.239061 15.150338
-1.047456 0.375408 15.178556
-1.182249 0.499623 15.200732
-1.326749 0.613290 15.217975
-2.080285 -1.500777 14.401152
-1.922022 -1.427549 14.448500
-1.918536 -1.425897 14.449556
-1.762582 -1.348534 14.497957
-1.759165 -1.346762 14.499043
-1.606009 -1.264694 14.548616
-1.602682 -1.262777 14.549738
-1.453499 -1.174548 14.600802
-1.450228 -1.172547 14.601944
-1.305930 -1.077442 14.654607
-1.302806 -1.075243 14.655794
-1.164813 -0.972133 14.710230
-1.161903 -0.969684 14.711470
-1.033538 -0.855900 14.768093
-1.030775 -0.853301 14.769362
-0.916119 -0.726890 14.828239
-0.913774 -0.723934 14.829567
-0.818502 -0.583319 14.890407
-0.816842 -0.579947 14.891776
-0.752552 -0.423212 14.953549
-0.751373 -0.419642 14.954915
-0.730279 -0.251152 15.014397
-0.730310 -0.247358 15.015664
-0.755156 -0.077372 15.069024
-0.756403 -0.073718 15.070069
-0.824234 0.087394 15.114259
-0.825967 0.090880 15.115177
-0.925172 0.237507 15.149992
-0.927594 0.240615 15.150683
-1.046037 0.374023 15.178296
-1.048876 0.376792 15.178815
-1.180757 0.498310 15.200507
-1.183741 0.500936 15.200957
-1.325152 0.612098 15.217806
-2.073287 -1.497592 14.403228
-1.928964 -1.430839 14.446397
-1.911594 -1.422608 14.451659
-1.769387 -1.352063 14.495794
-1.752360 -1.343234 14.501206
-1.612687 -1.268427 14.546403
-1.596058 -1.258961 14.551971
-1.460010 -1.178531 14.598529
-1.443717 -1.168564 14.604217
-1.312149 -1.081820 14.652244
-1.296587 -1.070865 14.658158
-1.170605 -0.977010 14.707761
-1.156111 -0.964807 14.713939
-1.039039 -0.861076 14.765566
-1.025274 -0.848126 14.771889
-0.920787 -0.732777 14.825594
-0.909106 -0.718048 14.832212
-0.821807 -0.590033 14.887681
-0.813537 -0.573233 14.894501
-0.754899 -0.430320 14.950829
-0.749025 -0.412533 14.957634
-0.730217 -0.258707 15.011876
-0.730372 -0.239803 15.018186
-0.752672 -0.084648 15.066945
-0.758887 -0.066442 15.072148
-0.820784 0.080452 15.112431
-0.829417 0.097822 15.117005
-0.920350 0.231320 15.148614
-0.932416 0.246802 15.152061
-1.040383 0.368509 15.177264
-1.054529 0.382307 15.179847
-1.174815 0.493083 15.199613
-1.189742 0.506098 15.201821
-1.318791 0.607352 15.217133
-2.056487 -1.489946 14.408212
-2.034249 -1.479826 14.414808
-2.012011 -1.469706 14.421404
-1.989774 -1.459585 14.428001
-1.967685 -1.449189 14.434668
-1.945627 -1.438736 14.441350
-1.894930 -1.414711 14.456707
-1.873034 -1.403972 14.463461
-1.851179 -1.393157 14.470235
-1.829325 -1.382341 14.477009
-1.807471 -1.371526 14.483783
-1.785722 -1.360532 14.490601
-1.736025 -1.334764 14.506398
-1.714403 -1.323553 14.513271
-1.692890 -1.312163 14.520189
-1.671534 -1.300517 14.527169
-1.650177 -1.288871 14.534149
-1.628820 -1.277225 14.541130
-1.580157 -1.249801 14.557333
-1.559107 -1.237675 14.564429
-1.538058 -1.225550 14.571526
-1.517021 -1.213407 14.578627
-1.496331 -1.200750 14.585850
-1.475640 -1.188093 14.593073
-1.428086 -1.159002 14.609674
-1.407816 -1.145758 14.617033
-1.387549 -1.132509 14.624393
-1.367282 -1.119260 14.631753
-1.347015 -1.106011 14.639113
-1.327078 -1.092329 14.646571
-1.281658 -1.060356 14.663830
-1.261896 -1.046444 14.671340
-1.242508 -1.032076 14.678948
-1.223355 -1.017420 14.686619
-1.204203 -1.002764 14.694290
-1.185051 -0.988108 14.701961
-1.142206 -0.953100 14.719865
-1.123800 -0.937604 14.727710
-1.105393 -0.922108 14.735554
-1.087205 -0.906389 14.743443
-1.069725 -0.889944 14.751472
-1.052245 -0.873499 14.759501
-1.012297 -0.835493 14.777992
-0.995981 -0.817980 14.786210
-0.979666 -0.800467 14.794429
-0.963350 -0.782954 14.802648
-0.947035 -0.765441 14.810867
-0.931992 -0.746906 14.819245
-0.897901 -0.703918 14.838560
-0.883068 -0.685215 14.846964
-0.869793 -0.665451 14.855499
-0.856861 -0.645453 14.864062
-0.843930 -0.625456 14.872625
-0.830999 -0.605458 14.881189
-0.805604 -0.557116 14.901044
-0.795103 -0.535781 14.909705
-0.784601 -0.514446 14.918366
-0.775452 -0.492555 14.927018
-0.767993 -0.469969 14.935660
-0.760534 -0.447383 14.944301
-0.744872 -0.395078 14.964080
-0.741048 -0.371528 14.972521
-0.737224 -0.347978 14.980961
-0.733399 -0.324428 14.989401
-0.729870 -0.300845 14.997810
-0.730068 -0.276841 15.005823
-0.730521 -0.221669 15.024239
-0.730872 -0.197671 15.032227
-0.735102 -0.173835 15.039602
-0.739333 -0.149999 15.046977
-0.743563 -0.126162 15.054352
-0.747794 -0.102326 15.061727
-0.764849 -0.048976 15.077139
-0.772742 -0.025857 15.083746
-0.780634 -0.002737 15.090352
-0.790576 0.019674 15.096426
-0.801539 0.041731 15.102235
-0.812502 0.063789 15.108043
-0.839242 0.113729 15.120917
-0.852655 0.134586 15.125970
-0.866067 0.155443 15.131023
-0.879480 0.176301 15.136076
-0.893452 0.196807 15.140931
-0.908774 0.216468 15.145308
-0.943991 0.261654 15.155367
-0.959690 0.281030 15.159594
-0.976495 0.299569 15.163382
-0.993300 0.318108 15.167169
-1.010105 0.336647 15.170957
-1.026910 0.355187 15.174744
-1.068100 0.395543 15.182324
-1.086063 0.413065 15.185604
-1.104027 0.430587 15.188884
-1.122793 0.447311 15.191780
-1.141673 0.463922 15.194623
-1.160553 0.480534 15.197465
-1.204559 0.518035 15.203683
-1.224173 0.533836 15.206148
-1.243787 0.549637 15.208613
-1.263401 0.565438 15.211079
-1.283312 0.580880 15.213381
-1.303523 0.595960 15.215518
31 NaN NaN
-2.082482 -1.501776 14.400501
-1.986000 -1.457868 14.429120
-1.890300 -1.412517 14.458110
-1.795483 -1.365593 14.487499
-1.701673 -1.316952 14.517318
-1.609016 -1.266425 14.547603
-1.517693 -1.213818 14.578392
-1.427928 -1.158905 14.609729
-1.340000 -1.101425 14.641661
-1.254263 -1.041072 14.674240
-1.171174 -0.977488 14.707519
-1.091323 -0.910262 14.741551
-1.015492 -0.838924 14.776382
-0.944719 -0.762955 14.812034
-0.880384 -0.681829 14.848485
-0.824302 -0.595103 14.885623
-0.778767 -0.502594 14.923177
-0.746432 -0.404679 14.960639
-0.729856 -0.302610 14.997221
-0.730711 -0.198578 15.031947
-0.749046 -0.095268 15.063910
-0.783260 0.004955 15.092551
-0.830796 0.100596 15.117735
-0.888964 0.191049 15.139649
-0.955423 0.276323 15.158633
-1.028320 0.356742 15.175062
-1.106247 0.432752 15.189289
-1.188150 0.504816 15.201620
-1.273242 0.573366 15.212316
-1.360926 0.638790 15.221589
-1.450745 0.701423 15.229621
-1.826107 -1.533314 14.128963
-1.721053 -1.464753 14.150075
-1.617837 -1.393634 14.171756
-1.516766 -1.319690 14.194063
-1.418223 -1.242614 14.217057
-1.322689 -1.162057 14.240808
-1.230960 -1.077444 14.265428
-1.144191 -0.988049 14.291057
-1.063154 -0.893737 14.317698
-0.989283 -0.794038 14.345415
-0.924413 -0.688577 14.374232
-0.870828 -0.577230 14.404094
-0.832505 -0.460019 14.434845
-0.812101 -0.338574 14.465977
-0.810702 -0.215442 14.496812
-0.828678 -0.093376 14.526648
-0.864793 0.025065 14.554893
-0.916671 0.138085 14.581186
-0.982746 0.244038 14.605175
-1.058778 0.343544 14.627177
-1.142564 0.437032 14.647380
-1.232485 0.525014 14.665976
-1.327295 0.608038 14.683147
-1.824452 -1.532241 14.129294
-1.722684 -1.465860 14.149736
-1.719422 -1.463646 14.150413
-1.619441 -1.394778 14.171409
-1.616234 -1.392490 14.172103
-1.518337 -1.320874 14.193707
-1.515194 -1.318505 14.194419
-1.419757 -1.243844 14.216692
-1.416688 -1.241384 14.217422
-1.324180 -1.163336 14.240431
-1.321198 -1.160778 14.241184
-1.232338 -1.078837 14.265028
-1.229581 -1.076052 14.265828
-1.145496 -0.989507 14.290643
-1.142886 -0.986590 14.291471
-1.064370 -0.895267 14.317270
-1.061939 -0.892208 14.318126
-0.990389 -0.795644 14.344972
-0.988177 -0.792432 14.345858
-0.925385 -0.690263 14.373774
-0.923441 -0.686890 14.374691
-0.871636 -0.578997 14.403622
-0.870019 -0.575462 14.404567
-0.832887 -0.461920 14.434355
-0.832123 -0.458118 14.435335
-0.812228 -0.340509 14.465488
-0.811975 -0.336639 14.466466
-0.810561 -0.217378 14.496334
-0.810844 -0.213505 14.497291
-0.828275 -0.095280 14.526188
-0.829081 -0.091472 14.527109
-0.864151 0.023221 14.554456
-0.865436 0.026908 14.555329
-0.915822 0.136321 14.580777
-0.917557 0.139830 14.581588
-0.981584 0.242450 14.604822
-0.983909 0.245627 14.605529
-1.057501 0.342040 14.626849
-1.060055 0.345048 14.627504
-1.141195 0.435607 14.647076
-1.143934 0.438457 14.647685
-1.231040 0.523661 14.665692
-1.233930 0.526367 14.666260
-1.325788 0.606750 14.682882
-1.819525 -1.529049 14.130278
-1.727539 -1.469154 14.148729
-1.714568 -1.460352 14.151420
-1.624213 -1.398183 14.170378
-1.611462 -1.389084 14.173134
-1.523014 -1.324401 14.192649
-1.510517 -1.314978 14.195477
-1.424324 -1.247503 14.215604
-1.412121 -1.237725 14.218510
-1.328618 -1.167142 14.239312
-1.316761 -1.156972 14.242303
-1.236503 -1.082922 14.263849
-1.225478 -1.071907 14.267020
-1.149380 -0.993846 14.289411
-1.139003 -0.982251 14.292703
-1.067987 -0.899819 14.315995
-1.058322 -0.887655 14.319401
-0.993680 -0.800425 14.343652
-0.984885 -0.787651 14.347178
-0.928278 -0.695283 14.372410
-0.920548 -0.681870 14.376055
-0.874042 -0.584257 14.402216
-0.867662 -0.570184 14.405975
-0.834025 -0.467578 14.432898
-0.830985 -0.452460 14.436792
-0.812604 -0.346269 14.464034
-0.811599 -0.330879 14.467920
-0.810140 -0.223142 14.494908
-0.811265 -0.207741 14.498716
-0.827075 -0.100947 14.524816
-0.830281 -0.085805 14.528480
-0.862240 0.017736 14.553157
-0.867347 0.032393 14.556628
-0.913295 0.131070 14.579560
-0.920598 0.144821 14.582721
-0.978123 0.237722 14.603771
-0.987369 0.250355 14.606580
-1.053701 0.337564 14.625874
-1.063856 0.349524 14.628480
-1.137118 0.431364 14.646170
-1.148010 0.442699 14.648591
-1.226739 0.519633 14.664848
-1.238231 0.530395 14.667104
-1.321303 0.602917 14.682093
-1.808777 -1.522084 14.132426
-1.794651 -1.512930 14.135248
-1.780525 -1.503777 14.138070
-1.766399 -1.494623 14.140893
-1.752274 -1.485469 14.143715
-1.738148 -1.476315 14.146538
-1.703977 -1.453165 14.153617
-1.690058 -1.443720 14.156505
-1.676139 -1.434274 14.159392
-1.662220 -1.424829 14.162280
-1.648306 -1.415376 14.165169
-1.634623 -1.405612 14.168127
-1.601051 -1.381656 14.175385
-1.587368 -1.371892 14.178343
-1.573685 -1.362128 14.181302
-1.560039 -1.352318 14.184270
-1.546629 -1.342207 14.187305
-1.533218 -1.332095 14.190340
-1.500314 -1.307284 14.197786
-1.486903 -1.297173 14.200821
-1.473570 -1.286968 14.203876
-1.460476 -1.276474 14.206995
-1.447381 -1.265981 14.210113
-1.434287 -1.255488 14.213231
-1.402158 -1.229740 14.220883
-1.389195 -1.219098 14.224033
-1.376471 -1.208185 14.227242
-1.363747 -1.197272 14.230452
-1.351023 -1.186359 14.233661
-1.338299 -1.175446 14.236870
-1.307282 -1.148454 14.244791
-1.294996 -1.137079 14.248099
-1.282710 -1.125703 14.251407
-1.270424 -1.114328 14.254716
-1.258137 -1.102952 14.258024
-1.245851 -1.091577 14.261332
-1.216527 -1.062865 14.269619
-1.204763 -1.050980 14.273034
-1.192999 -1.039096 14.276450
-1.181235 -1.027212 14.279866
-1.169471 -1.015328 14.283282
-1.157852 -1.003314 14.286724
-1.130530 -0.972783 14.295390
-1.119395 -0.960340 14.298921
-1.108259 -0.947897 14.302453
-1.097124 -0.935454 14.305985
-1.086250 -0.922802 14.309559
-1.075879 -0.909750 14.313214
-1.050430 -0.877724 14.322182
-1.040058 -0.864672 14.325837
-1.029687 -0.851619 14.329492
-1.019738 -0.838270 14.333206
-1.010300 -0.824562 14.336990
-1.000862 -0.810855 14.340773
-0.977703 -0.777221 14.350057
-0.968265 -0.763514 14.353841
-0.959473 -0.749418 14.357697
-0.951178 -0.735024 14.361609
-0.942884 -0.720630 14.365521
-0.934589 -0.706236 14.369433
-0.914237 -0.670917 14.379032
-0.906887 -0.656058 14.383024
-0.899988 -0.640976 14.387055
-0.893089 -0.625895 14.391087
-0.886190 -0.610813 14.395118
-0.879291 -0.595732 14.399149
-0.863689 -0.558226 14.409115
-0.858468 -0.542509 14.413241
-0.853247 -0.526793 14.417368
-0.848027 -0.511076 14.421494
-0.842806 -0.495359 14.425621
-0.837585 -0.479643 14.429747
-0.828503 -0.440116 14.439972
-0.825241 -0.423892 14.444151
-0.821980 -0.407669 14.448330
-0.818718 -0.391446 14.452509
-0.815456 -0.375223 14.456688
-0.813425 -0.358835 14.460862
-0.810778 -0.318313 14.471092
-0.809699 -0.301798 14.475262
-0.808620 -0.285283 14.479431
-0.807541 -0.268768 14.483601
-0.808014 -0.252244 14.487714
-0.809221 -0.235717 14.491800
-0.812184 -0.195166 14.501825
-0.813391 -0.178639 14.505911
-0.814598 -0.162112 14.509997
-0.817577 -0.145806 14.513961
-0.821017 -0.129558 14.517893
-0.824457 -0.113310 14.521825
-0.832898 -0.073442 14.531472
-0.836339 -0.057194 14.535404
-0.841630 -0.041418 14.539148
-0.847110 -0.025689 14.542873
-0.852590 -0.009960 14.546598
-0.858070 0.005768 14.550323
-0.871555 0.044346 14.559457
-0.878800 0.059400 14.562947
-0.886046 0.074454 14.566436
-0.893291 0.089508 14.569926
-0.900537 0.104562 14.573415
-0.907782 0.119616 14.576905
-0.927231 0.155708 14.585192
-0.935950 0.170017 14.588440
-0.944668 0.184325 14.591687
-0.953386 0.198634 14.594935
-0.962105 0.212943 14.598182
-0.970823 0.227252 14.601430
-0.994918 0.260670 14.608873
-1.004840 0.274226 14.611887
-1.014762 0.287782 14.614901
-1.024684 0.301338 14.617915
-1.034605 0.314895 14.620928
-1.045409 0.327798 14.623746
-1.072147 0.359290 14.630608
-1.083044 0.372125 14.633404
-1.093941 0.384960 14.636201
-1.104851 0.397783 14.638994
-1.116538 0.409947 14.641593
-1.128226 0.422110 14.644192
-1.156903 0.451954 14.650569
-1.168590 0.464117 14.653168
-1.180360 0.476202 14.655744
-1.192692 0.487750 14.658165
-1.205024 0.499298 14.660585
-1.217356 0.510847 14.663006
-1.247614 0.539182 14.668946
-1.260072 0.550597 14.671329
-1.272933 0.561587 14.673590
-1.285794 0.572576 14.675851
-1.298655 0.583566 14.678112
-1.311517 0.594556 14.680373
28 NaN NaN
-1.826521 -1.533582 14.128880
-1.736914 -1.475516 14.146784
-1.648619 -1.415599 14.165101
-1.561824 -1.353664 14.183866
-1.476757 -1.289522 14.203117
-1.393696 -1.222959 14.222898
-1.312985 -1.153734 14.243255
-1.235052 -1.081578 14.264240
-1.160432 -1.006197 14.285906
-1.089803 -0.927273 14.308307
-1.024020 -0.844488 14.331490
-0.964160 -0.757552 14.355486
-0.911558 -0.666269 14.380295
-0.867812 -0.570638 14.405856
-0.834711 -0.470991 14.432019
-0.814033 -0.368144 14.458512
-0.807194 -0.263457 14.484941
-0.814848 -0.158695 14.510842
-0.836656 -0.055696 14.535767
-0.871398 0.044022 14.559382
-0.917340 0.139474 14.581508
-0.972626 0.230211 14.602101
-1.035549 0.316184 14.621215
-1.104662 0.397587 14.638953
-1.178793 0.474735 14.655436
-1.257013 0.547984 14.670791
-1.338593 0.617692 14.685133
-1.422959 0.684193 14.698569
-1.613578 -1.559278 13.821525
-1.507079 -1.470177 13.833786
-1.403216 -1.378128 13.846805
-1.302452 -1.282819 13.860672
-1.205712 -1.183585 13.875578
-1.114054 -1.079832 13.891705
-1.028134 -0.971494 13.909105
-0.949309 -0.858120 13.927948
-0.881021 -0.738455 13.948689
-0.824920 -0.613003 13.971319
-0.783693 -0.482297 13.995882
-0.761540 -0.347449 14.022389
-0.763402 -0.211187 14.050561
-0.787652 -0.077321 14.079520
-0.833148 0.050963 14.108544
-0.898986 0.170325 14.136894
-0.979897 0.280353 14.164184
-1.071788 0.381737 14.190321
-1.172267 0.475006 14.215278
-1.280058 0.560119 14.238973
-1.392609 0.639121 14.261682
-1.508941 0.712730 14.283496
-1.612043 -1.558007 13.821699
-1.508584 -1.471481 13.833603
-1.505574 -1.468872 13.833969
-1.404687 -1.379469 13.846613
-1.401745 -1.376787 13.846997
-1.303884 -1.284200 13.860469
-1.301020 -1.281438 13.860874
-1.207047 -1.185057 13.875351
-1.204378 -1.182112 13.875805
-1.115326 -1.081356 13.891464
-1.112782 -1.078308 13.891946
-1.029332 -0.973075 13.908848
-1.026937 -0.969913 13.909362
-0.950418 -0.859762 13.927673
-0.948201 -0.856478 13.928223
-0.881890 -0.740229 13.948373
-0.880153 -0.736681 13.949005
-0.825629 -0.614842 13.970981
-0.824210 -0.611164 13.971657
-0.784212 -0.484194 13.995521
-0.783174 -0.480400 13.996243
-0.761587 -0.349408 14.021988
-0.761494 -0.345491 14.022790
-0.763184 -0.213131 14.050148
-0.763621 -0.209242 14.050974
-0.787172 -0.079217 14.079102
-0.788133 -0.075425 14.079938
-0.832426 0.049145 14.108128
-0.833870 0.052781 14.108960
-0.897878 0.168708 14.136498
-0.900094 0.171942 14.137291
-0.978646 0.278841 14.163801
-0.981148 0.281866 14.164567
-1.070422 0.380323 14.189952
-1.073154 0.383151 14.190690
-1.170735 0.473767 14.214935
-1.173799 0.476245 14.215621
-1.278466 0.558955 14.238642
-1.281651 0.561284 14.239304
-1.390967 0.638024 14.261362
-1.394250 0.640218 14.262002
-1.507258 0.711693 14.283187
-1.607149 -1.553954 13.822254
-1.513384 -1.475642 13.833021
-1.500774 -1.464712 13.834551
-1.409380 -1.383747 13.846000
-1.397052 -1.372509 13.847609
-1.308453 -1.288605 13.859823
-1.296451 -1.277033 13.861520
-1.211303 -1.189753 13.874627
-1.200121 -1.177416 13.876529
-1.119384 -1.086218 13.890695
-1.108725 -1.073446 13.892716
-1.033152 -0.978117 13.908028
-1.023116 -0.964870 13.910182
-0.953953 -0.864999 13.926797
-0.944863 -0.851123 13.929135
-0.884662 -0.745885 13.947367
-0.877381 -0.731025 13.950011
-0.827893 -0.620707 13.969903
-0.821946 -0.605298 13.972736
-0.785868 -0.490246 13.994369
-0.781518 -0.474348 13.997395
-0.761779 -0.355653 14.020713
-0.761346 -0.339243 14.024068
-0.762488 -0.219334 14.048831
-0.764317 -0.203040 14.052292
-0.785640 -0.085264 14.077769
-0.789664 -0.069377 14.081271
-0.830123 0.043346 14.106802
-0.836173 0.058580 14.110286
-0.894343 0.163551 14.135233
-0.903629 0.177100 14.138555
-0.974656 0.274016 14.162579
-0.985138 0.286691 14.165789
-1.066066 0.375815 14.188774
-1.077510 0.387659 14.191868
-1.166041 0.469599 14.213808
-1.178685 0.480197 14.216714
-1.273388 0.555241 14.237587
-1.286729 0.564997 14.240359
-1.385732 0.634525 14.260342
-1.399486 0.643717 14.263022
-1.501893 0.708387 14.282199
-1.596188 -1.544876 13.823497
-1.581753 -1.532920 13.825134
-1.567318 -1.520965 13.826771
-1.552883 -1.509010 13.828408
-1.538448 -1.497054 13.830044
-1.524134 -1.484961 13.831717
-1.490024 -1.455393 13.835856
-1.475867 -1.443121 13.837573
-1.461709 -1.430849 13.839291
-1.447569 -1.418559 13.841014
-1.433729 -1.405943 13.842821
-1.419889 -1.393327 13.844628
-1.386543 -1.362929 13.848981
-1.372703 -1.350313 13.850788
-1.359108 -1.337446 13.852661
-1.345633 -1.324454 13.854566
-1.332159 -1.311462 13.856472
-1.318684 -1.298470 13.858377
-1.286340 -1.267052 13.862998
-1.273290 -1.253650 13.865012
-1.260239 -1.240248 13.867026
-1.247189 -1.226846 13.869040
-1.234139 -1.213443 13.871054
-1.221089 -1.200041 13.873068
-1.190589 -1.166900 13.878150
-1.178036 -1.153049 13.880284
-1.165482 -1.139199 13.882419
-1.152929 -1.125348 13.884554
-1.140437 -1.111447 13.886703
-1.128470 -1.097107 13.888972
-1.099638 -1.062557 13.894439
-1.087671 -1.048217 13.896708
-1.075705 -1.033877 13.898977
-1.064242 -1.019154 13.901354
-1.052975 -1.004282 13.903773
-1.041708 -0.989410 13.906191
-1.014561 -0.953578 13.912019
-1.003577 -0.938512 13.914494
-0.993150 -0.923066 13.917079
-0.982723 -0.907620 13.919664
-0.972297 -0.892174 13.922249
-0.961870 -0.876728 13.924834
-0.937718 -0.838932 13.931237
-0.928309 -0.822876 13.934006
-0.918899 -0.806821 13.936774
-0.909490 -0.790765 13.939543
-0.900080 -0.774710 13.942312
-0.890869 -0.758554 13.945113
-0.871174 -0.718356 13.952266
-0.863000 -0.701672 13.955234
-0.854826 -0.684989 13.958203
-0.846652 -0.668305 13.961172
-0.839641 -0.651143 13.964306
-0.832964 -0.633843 13.967487
-0.816876 -0.592162 13.975152
-0.810198 -0.574863 13.978333
-0.804228 -0.557346 13.981599
-0.799344 -0.539497 13.984996
-0.794460 -0.521648 13.988393
-0.789576 -0.503799 13.991790
-0.777835 -0.460790 13.999977
-0.775047 -0.442535 14.003577
-0.772259 -0.424280 14.007178
-0.769472 -0.406025 14.010778
-0.766684 -0.387770 14.014379
-0.763896 -0.369515 14.017979
-0.761015 -0.325250 14.026931
-0.760579 -0.306823 14.030702
-0.760142 -0.288395 14.034472
-0.759706 -0.269968 14.038243
-0.759270 -0.251540 14.042013
-0.760928 -0.233225 14.045880
-0.765877 -0.189149 14.055242
-0.767931 -0.170855 14.059127
-0.769985 -0.152561 14.063013
-0.773174 -0.134478 14.066919
-0.777692 -0.116642 14.070851
-0.782210 -0.098807 14.074783
-0.793095 -0.055834 14.084257
-0.797794 -0.038057 14.088187
-0.804587 -0.020953 14.092098
-0.811380 -0.003849 14.096010
-0.818172 0.013254 14.099921
-0.824965 0.030358 14.103832
-0.842715 0.070933 14.113204
-0.851488 0.087128 14.117042
-0.860261 0.103324 14.120879
-0.869033 0.119519 14.124717
-0.877806 0.135714 14.128554
-0.886579 0.151910 14.132392
-0.911545 0.188650 14.141387
-0.921970 0.203862 14.145116
-0.932395 0.219073 14.148845
-0.942820 0.234285 14.152575
-0.953951 0.248981 14.156238
-0.965720 0.263211 14.159842
-0.994074 0.297496 14.168525
-1.005843 0.311726 14.172129
-1.017765 0.325823 14.175715
-1.030613 0.339121 14.179189
-1.043461 0.352419 14.182662
-1.056310 0.365717 14.186136
-1.087266 0.397757 14.194506
-1.100771 0.410403 14.197883
-1.114485 0.422841 14.201229
-1.128199 0.435279 14.204575
-1.141913 0.447717 14.207921
-1.155627 0.460155 14.211267
-1.189629 0.489049 14.219163
-1.204040 0.500706 14.222388
-1.218452 0.512363 14.225614
-1.232863 0.524020 14.228839
-1.247275 0.535677 14.232064
-1.262015 0.546925 14.235224
-1.298102 0.573314 14.242723
-1.313079 0.584267 14.245835
-1.328057 0.595220 14.248948
-1.343125 0.606048 14.252040
-1.358566 0.616368 14.255049
-1.374007 0.626688 14.258058
-1.411210 0.651553 14.265307
-1.426651 0.661873 14.268315
-1.442404 0.671731 14.271247
-1.458228 0.681481 14.274160
-1.474053 0.691232 14.277073
-1.489877 0.700983 14.279987
28 NaN NaN
-1.613961 -1.559596 13.821482
-1.530324 -1.490327 13.830965
-1.448297 -1.419224 13.840919
-1.368110 -1.346125 13.851388
-1.290040 -1.270852 13.862427
-1.214429 -1.193202 13.874096
-1.141697 -1.112957 13.886464
-1.072366 -1.029877 13.899610
-1.007090 -0.943716 13.913623
-0.946685 -0.854232 13.928598
-0.892177 -0.761224 13.944638
-0.844828 -0.664582 13.961834
-0.806153 -0.564383 13.980260
-0.777869 -0.461013 13.999933
-0.761726 -0.355305 14.020782
-0.759200 -0.248609 14.042613
-0.771093 -0.142693 14.065108
-0.797251 -0.039425 14.087874
-0.836583 0.059615 14.110522
-0.887390 0.153405 14.132746
-0.947771 0.241509 14.154346
-1.015941 0.323936 14.175222
-1.090370 0.400969 14.195345
-1.169819 0.473026 14.214730
-1.253312 0.540560 14.233415
-1.340086 0.604017 14.251448
-1.429548 0.663809 14.268880
-1.521231 0.720304 14.285759
-1.318262 -1.594043 13.134979
-1.256087 -1.519672 13.140858
-1.195650 -1.443931 13.147303
-1.137152 -1.366742 13.154362
-1.080834 -1.288016 13.162092
-1.026982 -1.207664 13.170557
-0.975931 -1.125595 13.179830
-0.928075 -1.041729 13.189990
-0.883877 -0.955999 13.201126
-0.843879 -0.868362 13.213331
-0.808988 -0.778733 13.226768
-0.780313 -0.687151 13.241605
-0.758303 -0.594009 13.257829
-0.743854 -0.499700 13.275500
-0.737832 -0.404804 13.294632
-0.740968 -0.310094 13.315178
-0.753755 -0.216497 13.337018
-0.776346 -0.125015 13.359967
-0.808510 -0.036616 13.383782
-0.849643 0.047885 13.408194
-0.899515 0.127455 13.432949
-0.956408 0.202098 13.457775
-1.019039 0.271998 13.482507
-1.086499 0.337322 13.507037
-1.158000 0.398321 13.531292
-1.232870 0.455289 13.555229
-1.310551 0.508535 13.578823
-1.390584 0.558363 13.602067
-1.472593 0.605061 13.624962
-1.556292 0.648849 13.647510
-1.316982 -1.592512 13.135100
-1.257367 -1.521204 13.140737
-1.254806 -1.518140 13.140979
-1.196890 -1.445494 13.147169
-1.194410 -1.442368 13.147437
-1.138346 -1.368339 13.154213
-1.135957 -1.365145 13.154510
-1.081976 -1.289650 13.161927
-1.079692 -1.286382 13.162256
-1.028063 -1.209336 13.170375
-1.025901 -1.205991 13.170740
-0.976942 -1.127309 13.179628
-0.974920 -1.123881 13.180033
-0.929003 -1.043487 13.189766
-0.927146 -1.039972 13.190215
-0.884709 -0.957801 13.200877
-0.883044 -0.954198 13.201375
-0.844598 -0.870208 13.213055
-0.843161 -0.866516 13.213608
-0.809706 -0.780578 13.226492
-0.808269 -0.776887 13.227045
-0.780898 -0.689039 13.241298
-0.779728 -0.685263 13.241912
-0.758732 -0.595933 13.257490
-0.757874 -0.592085 13.258169
-0.744102 -0.501649 13.275127
-0.743606 -0.497750 13.275874
-0.737876 -0.406761 13.294225
-0.737787 -0.402846 13.295039
-0.740792 -0.312037 13.314738
-0.741145 -0.308151 13.315617
-0.753349 -0.218399 13.336551
-0.754161 -0.214595 13.337485
-0.775714 -0.126848 13.359479
-0.776978 -0.123181 13.360455
-0.807668 -0.038359 13.383279
-0.809351 -0.034872 13.384284
-0.848616 0.046247 13.407684
-0.850670 0.049524 13.408704
-0.898488 0.125817 13.432439
-0.900542 0.129094 13.433459
-0.955222 0.200570 13.457264
-0.957593 0.203626 13.458286
-1.017722 0.270581 13.481998
-1.020355 0.273415 13.483016
-1.085076 0.336011 13.506534
-1.087923 0.338634 13.507541
-1.156490 0.397108 13.530796
-1.159510 0.399535 13.531789
-1.231289 0.454166 13.554740
-1.234450 0.456413 13.555717
-1.308913 0.507493 13.578343
-1.312189 0.509578 13.579304
-1.388899 0.557395 13.601595
-1.392269 0.559331 13.602540
-1.470869 0.604159 13.624498
-1.474316 0.605962 13.625427
-1.554569 0.647947 13.647045
-1.313845 -1.588760 13.135397
-1.260504 -1.524955 13.140441
-1.251670 -1.514389 13.141276
-1.199928 -1.449324 13.146840
-1.191372 -1.438538 13.147766
-1.141271 -1.372252 13.153849
-1.133032 -1.361232 13.154874
-1.084772 -1.293652 13.161523
-1.076895 -1.282380 13.162660
-1.030711 -1.213434 13.169927
-1.023253 -1.201894 13.171187
-0.979417 -1.131507 13.179132
-0.972444 -1.119683 13.180528
-0.931278 -1.047791 13.189216
-0.924871 -1.035668 13.190765
-0.886747 -0.962213 13.200266
-0.881006 -0.949785 13.201986
-0.846358 -0.874730 13.212377
-0.841401 -0.861995 13.214286
-0.811466 -0.785100 13.225814
-0.806697 -0.772306 13.227765
-0.782331 -0.693663 13.240547
-0.778295 -0.680639 13.242663
-0.759781 -0.600646 13.256659
-0.756825 -0.587373 13.259000
-0.744710 -0.506423 13.274213
-0.742999 -0.492976 13.276788
-0.737986 -0.411556 13.293227
-0.737678 -0.398051 13.296037
-0.740359 -0.316797 13.313662
-0.741577 -0.303391 13.316693
-0.752354 -0.223057 13.335408
-0.755156 -0.209936 13.338629
-0.774167 -0.131340 13.358282
-0.778525 -0.118689 13.361652
-0.805607 -0.042630 13.382048
-0.811412 -0.030602 13.385515
-0.846465 0.042027 13.406450
-0.853186 0.053538 13.409953
-0.895972 0.121803 13.431191
-0.903058 0.133108 13.434708
-0.952319 0.196828 13.456011
-0.960496 0.207368 13.459539
-1.014498 0.267109 13.480752
-1.023579 0.276887 13.484262
-1.081590 0.332797 13.505300
-1.091409 0.341847 13.508774
-1.152790 0.394135 13.529580
-1.163209 0.402508 13.533005
-1.227417 0.451413 13.553543
-1.238322 0.459166 13.556914
-1.304901 0.504940 13.577166
-1.316201 0.512130 13.580481
-1.384772 0.555023 13.600438
-1.396397 0.561704 13.603697
-1.466647 0.601950 13.623361
-1.478539 0.608171 13.626564
-1.550346 0.645738 13.645908
-1.307587 -1.581274 13.135989
-1.299422 -1.571507 13.136761
-1.291257 -1.561741 13.137533
-1.283092 -1.551974 13.138305
-1.274927 -1.542208 13.139077
-1.266762 -1.532442 13.139849
-1.245529 -1.506809 13.141906
-1.237621 -1.496840 13.142762
-1.229714 -1.486872 13.143617
-1.221806 -1.476903 13.144473
-1.213898 -1.466934 13.145329
-1.205990 -1.456965 13.146184
-1.185311 -1.430897 13.148422
-1.177570 -1.420803 13.149330
-1.169955 -1.410617 13.150278
-1.162340 -1.400432 13.151226
-1.154724 -1.390246 13.152174
-1.147109 -1.380060 13.153122
-1.127194 -1.353424 13.155601
-1.119579 -1.343238 13.156549
-1.112194 -1.332893 13.157567
-1.104914 -1.322474 13.158618
-1.097633 -1.312056 13.159668
-1.090353 -1.301638 13.160718
-1.071315 -1.274395 13.163465
-1.064035 -1.263976 13.164515
-1.056754 -1.253558 13.165565
-1.049783 -1.242941 13.166707
-1.042890 -1.232275 13.167871
-1.035996 -1.221609 13.169035
-1.017968 -1.193718 13.172079
-1.011074 -1.183052 13.173243
-1.004180 -1.172386 13.174407
-0.997287 -1.161720 13.175571
-0.990803 -1.150813 13.176851
-0.984358 -1.139884 13.178142
-0.967504 -1.111306 13.181518
-0.961058 -1.100377 13.182809
-0.954613 -1.089448 13.184100
-0.948168 -1.078520 13.185391
-0.941738 -1.067583 13.186685
-0.935817 -1.056379 13.188118
-0.920333 -1.027080 13.191863
-0.914411 -1.015876 13.193295
-0.908490 -1.004672 13.194728
-0.902569 -0.993468 13.196160
-0.896648 -0.982264 13.197592
-0.890814 -0.971019 13.199047
-0.876939 -0.940979 13.203205
-0.871633 -0.929492 13.204794
-0.866326 -0.918004 13.206384
-0.861020 -0.906517 13.207974
-0.855714 -0.895029 13.209564
-0.850408 -0.883542 13.211154
-0.837889 -0.852973 13.215638
-0.833307 -0.841203 13.217403
-0.828725 -0.829433 13.219168
-0.824143 -0.817662 13.220932
-0.819561 -0.805892 13.222697
-0.814979 -0.794122 13.224461
-0.803838 -0.763079 13.229265
-0.800109 -0.751041 13.231221
-0.796379 -0.739004 13.233178
-0.792649 -0.726966 13.235134
-0.788919 -0.714928 13.237091
-0.785190 -0.702890 13.239047
-0.775539 -0.671388 13.244184
-0.772806 -0.659120 13.246348
-0.770074 -0.646853 13.248511
-0.767341 -0.634585 13.250674
-0.764608 -0.622317 13.252838
-0.761876 -0.610049 13.255001
-0.754730 -0.577969 13.260658
-0.752249 -0.565666 13.262868
-0.750668 -0.553237 13.265248
-0.749086 -0.540808 13.267628
-0.747504 -0.528379 13.270008
-0.745922 -0.515950 13.272388
-0.741786 -0.483449 13.278612
-0.740205 -0.471020 13.280992
-0.739058 -0.458573 13.283445
-0.738773 -0.446090 13.286042
-0.738489 -0.433607 13.288639
-0.738204 -0.421125 13.291236
-0.737460 -0.388482 13.298028
-0.737175 -0.376000 13.300625
-0.736890 -0.363517 13.303222
-0.737244 -0.351076 13.305912
-0.738370 -0.338685 13.308713
-0.739496 -0.326294 13.311515
-0.742440 -0.293893 13.318841
-0.743566 -0.281502 13.321642
-0.744692 -0.269111 13.324443
-0.745818 -0.256721 13.327245
-0.747780 -0.244480 13.330147
-0.750369 -0.232353 13.333125
-0.757141 -0.200640 13.340912
-0.759730 -0.188513 13.343890
-0.762320 -0.176386 13.346868
-0.764909 -0.164258 13.349846
-0.767499 -0.152131 13.352824
-0.771080 -0.140303 13.355895
-0.781612 -0.109726 13.364039
-0.785640 -0.098034 13.367153
-0.789668 -0.086341 13.370267
-0.793696 -0.074648 13.373381
-0.797724 -0.062955 13.376495
-0.801752 -0.051262 13.379609
-0.815525 -0.022080 13.387971
-0.820890 -0.010963 13.391176
-0.826256 0.000154 13.394380
-0.831621 0.011271 13.397585
-0.836987 0.022388 13.400789
-0.842352 0.033505 13.403994
-0.858206 0.061548 13.412445
-0.864755 0.071997 13.415695
-0.871304 0.082446 13.418946
-0.877854 0.092895 13.422197
-0.884403 0.103344 13.425448
-0.890952 0.113793 13.428699
-0.908740 0.140653 13.437206
-0.916298 0.150394 13.440467
-0.923855 0.160136 13.443728
-0.931412 0.169878 13.446989
-0.938969 0.179619 13.450250
-0.946527 0.189361 13.453511
-0.966289 0.214835 13.462039
-0.974492 0.224032 13.465287
-0.982885 0.233070 13.468531
-0.991278 0.242107 13.471776
-0.999671 0.251145 13.475021
-1.008065 0.260182 13.478265
-1.030012 0.283814 13.486749
-1.038406 0.292852 13.489994
-1.047405 0.301291 13.493208
-1.056481 0.309656 13.496419
-1.065557 0.318021 13.499629
-1.074633 0.326386 13.502839
-1.098366 0.348259 13.511235
-1.107442 0.356624 13.514445
-1.116520 0.364986 13.517655
-1.126149 0.372725 13.520821
-1.135779 0.380464 13.523987
-1.145409 0.388203 13.527153
-1.170591 0.408440 13.535432
-1.180220 0.416179 13.538597
-1.189850 0.423918 13.541763
-1.199533 0.431589 13.544923
-1.209612 0.438754 13.548039
-1.219691 0.445920 13.551155
-1.246048 0.464659 13.559303
-1.256127 0.471824 13.562418
-1.266206 0.478990 13.565534
-1.276285 0.486156 13.568650
-1.286450 0.493201 13.571754
-1.296895 0.499846 13.574818
-1.324208 0.517224 13.582829
-1.334653 0.523870 13.585893
-1.345097 0.530515 13.588957
-1.355542 0.537161 13.592020
-1.365987 0.543807 13.595084
-1.376536 0.550289 13.598130
-1.404632 0.566437 13.606005
-1.415377 0.572612 13.609017
-1.426121 0.578787 13.612029
-1.436866 0.584963 13.615040
-1.447610 0.591138 13.618052
-1.458355 0.597313 13.621064
-1.486964 0.612579 13.628834
-1.497955 0.618329 13.631795
-1.508947 0.624080 13.634756
-1.519938 0.629830 13.637717
-1.530930 0.635580 13.640677
-1.541921 0.641330 13.643638
27 NaN NaN
-1.318582 -1.594426 13.134949
-1.249169 -1.511397 13.141512
-1.181940 -1.426647 13.148786
-1.117198 -1.340054 13.156845
-1.055306 -1.251486 13.165774
-0.996700 -1.160812 13.175670
-0.941909 -1.067907 13.186644
-0.891574 -0.972663 13.198820
-0.846469 -0.875013 13.212334
-0.807521 -0.774965 13.227333
-0.775820 -0.672649 13.243962
-0.752595 -0.568385 13.262348
-0.739153 -0.462760 13.282574
-0.736735 -0.356687 13.304643
-0.746301 -0.251403 13.328447
-0.768304 -0.148361 13.353749
-0.802528 -0.049009 13.380209
-0.848120 0.045457 13.407438
-0.903776 0.134254 13.435064
-0.968003 0.217046 13.462779
-1.039340 0.293858 13.490355
-1.116484 0.364957 13.517644
-1.198341 0.430741 13.544555
-1.284020 0.491655 13.571041
-1.372811 0.548148 13.597086
-1.464151 0.600644 13.622688
-1.557592 0.649529 13.647860
-1.161754 -1.610488 12.402488
-1.015226 -1.365114 12.412163
-0.891288 -1.107837 12.425312
-0.798447 -0.838098 12.442852
-0.750353 -0.557527 12.466003
-0.758701 -0.273848 12.495175
-0.832966 -0.000602 12.529976
-0.970328 0.246510 12.568552
-1.154470 0.461053 12.608610
-1.371125 0.643073 12.648710
-1.160685 -1.608798 12.402549
-1.016190 -1.366864 12.412085
-1.014262 -1.363363 12.412240
-0.892040 -1.109687 12.425203
-0.890536 -1.105987 12.425421
-0.799006 -0.840013 12.442718
-0.797887 -0.836183 12.442987
-0.750524 -0.559512 12.465822
-0.750183 -0.555543 12.466184
-0.758368 -0.275806 12.494946
-0.759034 -0.271889 12.495404
-0.832279 -0.002463 12.529721
-0.833653 0.001259 12.530231
-0.969189 0.244890 12.568275
-0.971466 0.248131 12.568829
-1.153025 0.459699 12.608328
-1.155915 0.462407 12.608891
-1.369545 0.641879 12.648431
-1.154532 -1.599075 12.402897
-1.021740 -1.376940 12.411641
-1.008712 -1.353288 12.412684
-0.896367 -1.120335 12.424578
-0.886208 -1.095338 12.426046
-0.802227 -0.851038 12.441943
-0.795108 -0.825047 12.443818
-0.751505 -0.570934 12.464781
-0.749202 -0.544121 12.467225
-0.756451 -0.287080 12.493626
-0.760951 -0.260615 12.496724
-0.828327 -0.013175 12.528251
-0.837728 0.011917 12.531708
-0.962634 0.235562 12.566680
-0.978021 0.257459 12.570424
-1.144710 0.451905 12.606709
-1.164231 0.470200 12.610511
-1.360452 0.635006 12.646825
-1.138536 -1.573798 12.403802
-1.117246 -1.540154 12.405007
-1.096339 -1.506278 12.406275
-1.076033 -1.472038 12.407639
-1.055727 -1.437797 12.409003
-1.036168 -1.403134 12.410485
-0.994465 -1.326999 12.413868
-0.976503 -1.291488 12.415596
-0.958541 -1.255978 12.417325
-0.941185 -1.220180 12.419143
-0.924624 -1.184006 12.421079
-0.908064 -1.147831 12.423016
-0.874956 -1.067654 12.427672
-0.860318 -1.030683 12.429882
-0.847138 -0.993171 12.432294
-0.833959 -0.955660 12.434707
-0.821746 -0.917847 12.437247
-0.810601 -0.879699 12.439928
-0.788461 -0.795953 12.446051
-0.779615 -0.757229 12.449022
-0.771365 -0.718396 12.452065
-0.765099 -0.679196 12.455345
-0.758834 -0.639997 12.458626
-0.754057 -0.600629 12.462073
-0.746650 -0.514425 12.469932
-0.746356 -0.474790 12.473860
-0.746103 -0.435153 12.477793
-0.746775 -0.395559 12.481815
-0.749890 -0.356077 12.486072
-0.753006 -0.316596 12.490330
-0.765935 -0.231306 12.500155
-0.772681 -0.192322 12.504731
-0.782874 -0.154122 12.509577
-0.793068 -0.115922 12.514423
-0.804375 -0.078086 12.519345
-0.818051 -0.041022 12.524430
-0.850479 0.038701 12.535673
-0.867449 0.074349 12.540950
-0.884650 0.109872 12.546238
-0.904638 0.143898 12.551658
-0.924626 0.177923 12.557078
-0.945594 0.211311 12.562534
-0.995061 0.281710 12.574570
-1.019699 0.312489 12.580137
-1.044730 0.342968 12.585713
-1.070004 0.373232 12.591293
-1.097057 0.401927 12.596896
-1.124109 0.430621 12.602499
-1.185850 0.490462 12.614722
-1.214624 0.517429 12.620327
-1.244677 0.542957 12.625917
-1.274910 0.568282 12.631505
-1.305345 0.593354 12.637089
-1.336811 0.617137 12.642648
27 NaN NaN
-1.162021 -1.610910 12.402473
-1.104262 -1.519637 12.405742
-1.049172 -1.426745 12.409444
-0.997076 -1.332162 12.413617
-0.948348 -1.235826 12.418305
-0.903421 -1.137690 12.423559
-0.862795 -1.037734 12.429429
-0.827042 -0.935975 12.435972
-0.796810 -0.832494 12.443246
-0.772812 -0.727453 12.451307
-0.755818 -0.621125 12.460205
-0.746607 -0.513923 12.469978
-0.745919 -0.406417 12.480644
-0.754367 -0.299337 12.492191
-0.772357 -0.193538 12.504576
-0.800001 -0.089938 12.517719
-0.837093 0.010582 12.531510
-0.883118 0.107265 12.545822
-0.937330 0.199550 12.560524
-0.998846 0.287096 12.575491
-1.066740 0.369770 12.590617
-1.140122 0.447606 12.605815
-1.218178 0.520759 12.621019
-1.300191 0.589459 12.636178
-1.385551 0.653977 12.651259
-1.473739 0.714599 12.666237
-1.564325 0.771611 12.681096
-1.040627 -1.611091 9.406447
-0.867236 -1.316799 9.463451
-0.729062 -1.005270 9.524010
-0.643901 -0.676287 9.588253
-0.638739 -0.337492 9.654805
-0.736176 -0.013027 9.719032
-0.928541 0.267928 9.775161
-1.185374 0.494854 9.820981
-1.479475 0.673685 9.857528
-1.039568 -1.609426 9.406769
-0.868137 -1.318551 9.463111
-0.866335 -1.315046 9.463791
-0.729735 -1.007118 9.523650
-0.728389 -1.003421 9.524370
-0.644238 -0.678221 9.587874
-0.643563 -0.674352 9.588631
-0.638420 -0.339430 9.654423
-0.639057 -0.335555 9.655187
-0.735304 -0.014792 9.718681
-0.737048 -0.011261 9.719383
-0.927235 0.266444 9.774863
-0.929848 0.269413 9.775459
-1.183786 0.493663 9.820740
-1.187016 0.495974 9.821209
-1.477702 0.672778 9.857341
-1.032351 -1.598079 9.408964
-0.874277 -1.330492 9.460794
-0.860195 -1.303105 9.466108
-0.734320 -1.019712 9.521197
-0.723804 -0.990827 9.526823
-0.646536 -0.691401 9.585295
-0.641325 -0.661164 9.591212
-0.636277 -0.352630 9.651819
-0.641226 -0.322358 9.657791
-0.729367 -0.026820 9.716289
-0.742985 0.000767 9.721775
-0.918331 0.256331 9.772834
-0.938752 0.279525 9.777489
-1.173028 0.485469 9.819078
-1.198199 0.503601 9.822761
-1.465624 0.666602 9.856070
-1.013086 -1.567792 9.414824
-0.987402 -1.527412 9.422637
-0.962747 -1.486422 9.430574
-0.938196 -1.445369 9.438524
-0.914577 -1.403799 9.446580
-0.891298 -1.362041 9.454675
-0.843807 -1.271231 9.472294
-0.822810 -1.228334 9.480623
-0.802577 -1.185076 9.489027
-0.782989 -1.141543 9.497488
-0.764589 -1.097506 9.506054
-0.746558 -1.053330 9.514649
-0.711915 -0.957097 9.533395
-0.697972 -0.911514 9.542286
-0.684029 -0.865932 9.551177
-0.672712 -0.819658 9.560216
-0.661470 -0.773365 9.569260
-0.652671 -0.726583 9.578411
-0.637777 -0.625643 9.598175
-0.633046 -0.578286 9.607459
-0.630587 -0.530802 9.616779
-0.629688 -0.483230 9.626123
-0.630538 -0.435701 9.635467
-0.633817 -0.388233 9.644810
-0.647016 -0.287131 9.664741
-0.655714 -0.240369 9.673972
-0.668000 -0.194353 9.683073
-0.680468 -0.148393 9.692165
-0.697281 -0.103781 9.701012
-0.714095 -0.059168 9.709859
-0.758835 0.032873 9.728160
-0.783285 0.073906 9.736340
-0.808384 0.114593 9.744455
-0.835819 0.153750 9.752281
-0.864447 0.192127 9.759959
-0.894566 0.229338 9.767416
-0.963707 0.305432 9.782699
-0.997991 0.339048 9.789469
-1.032894 0.372015 9.796114
-1.069360 0.403342 9.802444
-1.106024 0.434434 9.808729
-1.144311 0.463595 9.814642
-1.228051 0.523959 9.826904
-1.267851 0.551102 9.832428
-1.308787 0.576558 9.837626
-1.349845 0.601833 9.842789
-1.391667 0.625856 9.847710
-1.433774 0.649412 9.852540
29 NaN NaN
-1.040892 -1.611508 9.406366
-0.985028 -1.523681 9.423359
-0.931632 -1.434391 9.440650
-0.880999 -1.343567 9.458256
-0.833478 -1.251141 9.476192
-0.789472 -1.157058 9.494471
-0.749453 -1.061281 9.513101
-0.713967 -0.963804 9.532087
-0.683643 -0.864671 9.551423
-0.659194 -0.763995 9.571090
-0.641408 -0.661992 9.591050
-0.631120 -0.559011 9.611238
-0.629166 -0.455568 9.631556
-0.636296 -0.352356 9.651873
-0.653078 -0.250240 9.672020
-0.679790 -0.150191 9.691808
-0.716346 -0.053194 9.711044
-0.762292 0.039874 9.729552
-0.816865 0.128341 9.747197
-0.879114 0.211788 9.763893
-0.948014 0.290045 9.779600
-1.022570 0.363147 9.794322
-1.101875 0.431273 9.808088
-1.185140 0.494695 9.820949
-1.271699 0.553726 9.832962
-1.360995 0.608697 9.844191
-1.452575 0.659931 9.854696
-1.546066 0.707734 9.864537
-1.641162 0.752391 9.873767
-1.018993 -1.603451 8.281666
-0.870819 -1.331884 8.297199
-0.751983 -1.046794 8.319252
-0.672544 -0.749177 8.349256
-0.644402 -0.443671 8.388412
-0.677597 -0.140160 8.436882
-0.774337 0.148084 8.493119
-0.926688 0.410336 8.554353
-1.121727 0.642196 8.617934
-1.017983 -1.601727 8.281753
-0.871715 -1.333669 8.297085
-0.869923 -1.330100 8.297313
-0.752656 -1.048670 8.319090
-0.751309 -1.044917 8.319414
-0.672915 -0.751130 8.349035
-0.672172 -0.747225 8.349476
-0.644387 -0.445651 8.388127
-0.644417 -0.441692 8.388696
-0.677146 -0.142077 8.436538
-0.678049 -0.138242 8.437226
-0.773477 0.146320 8.492733
-0.775197 0.149848 8.493506
-0.925508 0.408773 8.553946
-0.927867 0.411899 8.554761
-1.120388 0.640768 8.617521
-1.011750 -1.591084 8.282296
-0.877245 -1.344684 8.296380
-0.864394 -1.319085 8.298019
-0.756814 -1.060251 8.318089
-0.747152 -1.033337 8.320415
-0.675211 -0.763183 8.347676
-0.669877 -0.735171 8.350835
-0.644293 -0.457870 8.386370
-0.644511 -0.429473 8.390453
-0.674358 -0.153914 8.434414
-0.680836 -0.126405 8.439350
-0.768171 0.135431 8.490350
-0.780503 0.160736 8.495889
-0.918723 0.398768 8.551458
-0.935147 0.421547 8.557276
-1.112126 0.631956 8.614972
-0.995358 -1.563094 8.283721
-0.973524 -1.525812 8.285620
-0.952379 -1.488150 8.287681
-0.931713 -1.450223 8.289855
-0.911159 -1.412240 8.292054
-0.891788 -1.373653 8.294525
-0.850924 -1.289617 8.300112
-0.832991 -1.250363 8.302903
-0.815446 -1.210947 8.305777
-0.799109 -1.171028 8.308913
-0.782773 -1.131109 8.312048
-0.767747 -1.090709 8.315457
-0.737006 -1.002631 8.323205
-0.724409 -0.961444 8.327106
-0.711811 -0.920258 8.331007
-0.701161 -0.878568 8.335285
-0.690736 -0.836820 8.339606
-0.681247 -0.794885 8.344100
-0.663981 -0.703451 8.354435
-0.658539 -0.660867 8.359656
-0.653097 -0.618283 8.364876
-0.649195 -0.575586 8.370353
-0.646552 -0.532797 8.376040
-0.644047 -0.490007 8.381750
-0.644757 -0.397336 8.395074
-0.647280 -0.354676 8.401551
-0.650707 -0.312075 8.408162
-0.654783 -0.269565 8.414861
-0.661379 -0.227409 8.421904
-0.667974 -0.185253 8.428947
-0.688167 -0.095272 8.444936
-0.699054 -0.054138 8.452505
-0.711915 -0.013590 8.460299
-0.724775 0.026957 8.468093
-0.740179 0.066541 8.476148
-0.755999 0.105967 8.484245
-0.794460 0.189374 8.502156
-0.813093 0.227494 8.510507
-0.834229 0.264243 8.519054
-0.855365 0.300992 8.527602
-0.877684 0.336990 8.536227
-0.901124 0.372276 8.544926
-0.954293 0.446921 8.563890
-0.979796 0.480718 8.572700
-1.006524 0.513522 8.581560
-1.033855 0.545839 8.590444
-1.061455 0.577913 8.599337
-1.090397 0.608781 8.608267
26 NaN NaN
-1.019245 -1.603882 8.281644
-0.964573 -1.510529 8.286399
-0.912826 -1.415561 8.291842
-0.864322 -1.318943 8.298028
-0.819418 -1.220654 8.305015
-0.778513 -1.120701 8.312866
-0.742049 -1.019121 8.321643
-0.710508 -0.915997 8.331411
-0.684405 -0.811470 8.342230
-0.664275 -0.705751 8.354153
-0.650650 -0.599136 8.367223
-0.644032 -0.492009 8.381462
-0.644853 -0.384844 8.396870
-0.653433 -0.278193 8.413419
-0.669945 -0.172655 8.431051
-0.694390 -0.068842 8.449679
-0.726587 0.032669 8.469191
-0.766193 0.131373 8.489462
-0.812734 0.226871 8.510362
-0.865651 0.318876 8.531761
-0.924338 0.407222 8.553542
-0.988190 0.491843 8.575599
-1.056620 0.572757 8.597845
-1.129087 0.650045 8.620205
-1.205100 0.723835 8.642621
-1.284222 0.794280 8.665047
-1.016691 -1.588916 7.156699
-0.913885 -1.387112 7.141265
-0.825767 -1.178189 7.131108
-0.756328 -0.962185 7.127495
-0.710593 -0.740046 7.131942
-0.694286 -0.514328 7.146049
-0.712626 -0.289800 7.171070
-0.768256 -0.073101 7.207275
-0.859607 0.129136 7.253601
-0.981393 0.312576 7.307994
-1.126912 0.475925 7.368216
-1.290148 0.619943 7.432418
-1.015754 -1.587155 7.156552
-0.914707 -1.388932 7.141371
-0.913062 -1.385292 7.141159
-0.826446 -1.180069 7.131163
-0.825088 -1.176308 7.131053
-0.756825 -0.964122 7.127488
-0.755830 -0.960248 7.127503
-0.710864 -0.742026 7.131859
-0.710321 -0.738067 7.132025
-0.694285 -0.516321 7.145879
-0.694286 -0.512336 7.146220
-0.712317 -0.291759 7.170804
-0.712934 -0.287842 7.171335
-0.767633 -0.074968 7.206918
-0.768879 -0.071235 7.207633
-0.858697 0.127410 7.253164
-0.860517 0.130863 7.254038
-0.980245 0.311015 7.307496
-0.982540 0.314136 7.308493
-1.125534 0.474586 7.367664
-1.128314 0.477238 7.368774
-1.288631 0.618777 7.431836
-1.011328 -1.578838 7.155855
-0.918595 -1.397527 7.141872
-0.909177 -1.376696 7.140658
-0.829652 -1.188952 7.131423
-0.821882 -1.167426 7.130793
-0.759176 -0.973272 7.127453
-0.753480 -0.951099 7.127537
-0.712148 -0.751377 7.131468
-0.709038 -0.728716 7.132416
-0.694282 -0.525733 7.145073
-0.694289 -0.502923 7.147025
-0.710862 -0.301008 7.169551
-0.714390 -0.278593 7.172588
-0.764691 -0.083785 7.205229
-0.771821 -0.062418 7.209322
-0.854398 0.119255 7.251100
-0.864817 0.139017 7.256101
-0.974827 0.303643 7.305144
-0.988051 0.321427 7.310868
-1.119255 0.468008 7.365105
-1.134936 0.483438 7.371409
-1.281462 0.613273 7.429086
-1.000254 -1.558031 7.154113
-0.985553 -1.530407 7.151801
-0.970852 -1.502784 7.149488
-0.956735 -1.474844 7.147389
-0.942882 -1.446762 7.145385
-0.929030 -1.418680 7.143381
-0.899457 -1.355188 7.139407
-0.886552 -1.326636 7.137745
-0.873685 -1.298066 7.136096
-0.861844 -1.269038 7.134813
-0.850003 -1.240009 7.133529
-0.838161 -1.210981 7.132246
-0.813861 -1.145203 7.130143
-0.803213 -1.115701 7.129279
-0.793076 -1.086023 7.128593
-0.783768 -1.056061 7.128195
-0.774459 -1.026099 7.127796
-0.765150 -0.996137 7.127398
-0.747600 -0.928207 7.127625
-0.739794 -0.897816 7.127740
-0.733210 -0.867153 7.128268
-0.727083 -0.836387 7.128950
-0.720956 -0.805622 7.129632
-0.715358 -0.774773 7.130489
-0.705827 -0.705320 7.133395
-0.701719 -0.674247 7.134745
-0.699507 -0.643010 7.136711
-0.697295 -0.611773 7.138678
-0.695083 -0.580536 7.140644
-0.694274 -0.549283 7.143058
-0.694298 -0.479374 7.149041
-0.695309 -0.448180 7.152028
-0.697685 -0.417080 7.155442
-0.700061 -0.385979 7.158855
-0.702437 -0.354879 7.162268
-0.707220 -0.324150 7.166415
-0.718032 -0.255451 7.175724
-0.724786 -0.225198 7.180457
-0.732110 -0.195084 7.185359
-0.739434 -0.164970 7.190261
-0.747558 -0.135128 7.195394
-0.757330 -0.105843 7.201004
-0.779460 -0.040481 7.213625
-0.791569 -0.012221 7.219890
-0.803678 0.016040 7.226155
-0.815787 0.044300 7.232419
-0.829361 0.071767 7.239082
-0.843641 0.098853 7.245937
-0.876492 0.158825 7.261506
-0.892740 0.184635 7.268877
-0.908988 0.210446 7.276248
-0.925275 0.236227 7.283629
-0.943273 0.260713 7.291444
-0.961270 0.285199 7.299258
-1.002762 0.338869 7.317035
-1.022290 0.362023 7.325222
-1.041819 0.385178 7.333409
-1.061837 0.407850 7.341711
-1.082692 0.429700 7.350208
-1.103546 0.451550 7.358705
-1.151505 0.498951 7.378002
-1.173500 0.519546 7.386755
-1.195495 0.540140 7.395507
-1.218191 0.559881 7.404409
-1.241164 0.579283 7.413371
-1.264137 0.598686 7.422332
25 NaN NaN
-1.016925 -1.589356 7.156736
-0.966280 -1.494194 7.148769
-0.918558 -1.397452 7.141867
-0.874103 -1.299091 7.136141
-0.833311 -1.199091 7.131720
-0.796630 -1.097461 7.128745
-0.764564 -0.994249 7.127373
-0.737674 -0.889564 7.127772
-0.716568 -0.783589 7.130120
-0.701886 -0.676606 7.134596
-0.694267 -0.569014 7.141370
-0.694304 -0.461336 7.150584
-0.702487 -0.354221 7.162341
-0.719139 -0.248413 7.176678
-0.744365 -0.144699 7.193561
-0.778020 -0.043841 7.212880
-0.819725 0.053491 7.234457
-0.868909 0.146779 7.258066
-0.924873 0.235680 7.283455
-0.986864 0.320020 7.310370
-1.054131 0.399777 7.338571
-1.125968 0.475041 7.367840
-1.201736 0.545983 7.397990
-1.280873 0.612821 7.428860
-1.362895 0.675798 7.460318
-1.004692 -1.556870 4.531983
-0.891359 -1.385606 4.546192
-0.787296 -1.208692 4.561765
-0.695552 -1.025278 4.579019
-0.620793 -0.834590 4.598377
-0.570255 -0.636527 4.620348
-0.554707 -0.433339 4.645383
-0.587137 -0.232875 4.673369
-0.674909 -0.050004 4.702900
-0.810485 0.101538 4.731693
-0.977504 0.218502 4.758207
-1.161473 0.307314 4.782270
-1.354675 0.374610 4.804203
-1.003572 -1.555219 4.532118
-0.892438 -1.387284 4.546051
-0.890280 -1.383928 4.546333
-0.788272 -1.210431 4.561608
-0.786320 -1.206954 4.561921
-0.696387 -1.027087 4.578844
-0.694718 -1.023469 4.579194
-0.621426 -0.836477 4.598178
-0.620159 -0.832703 4.598576
-0.570590 -0.638486 4.620119
-0.569919 -0.634569 4.620576
-0.554607 -0.435319 4.645122
-0.554808 -0.431359 4.645645
-0.586472 -0.234740 4.673083
-0.587802 -0.231010 4.673654
-0.673704 -0.051575 4.702615
-0.676113 -0.048433 4.703184
-0.808917 0.100323 4.731430
-0.812052 0.102752 4.731957
-0.975822 0.217450 4.757956
-0.979186 0.219554 4.758458
-1.159647 0.306530 4.782043
-1.163299 0.308098 4.782496
-1.352773 0.374027 4.803997
-0.998693 -1.548033 4.532706
-0.897135 -1.394588 4.545435
-0.885583 -1.376624 4.546949
-0.792520 -1.218000 4.560928
-0.782072 -1.199385 4.562601
-0.700020 -1.034962 4.578083
-0.691085 -1.015595 4.579956
-0.624182 -0.844689 4.597313
-0.617403 -0.824491 4.599441
-0.572052 -0.647010 4.619125
-0.568457 -0.626045 4.621571
-0.554169 -0.443939 4.643985
-0.555245 -0.422739 4.646782
-0.583578 -0.242856 4.671842
-0.590696 -0.222895 4.674896
-0.668461 -0.058413 4.701376
-0.681356 -0.041595 4.704424
-0.802770 0.094278 4.730230
-0.818873 0.108038 4.733105
-0.968499 0.212870 4.756864
-0.986546 0.224070 4.759544
-1.151699 0.303117 4.781058
-1.171247 0.311511 4.783481
-1.344495 0.371488 4.803101
-0.986715 -1.530386 4.534149
-0.970833 -1.506990 4.536063
-0.954951 -1.483594 4.537976
-0.939250 -1.460081 4.539917
-0.923959 -1.436302 4.541921
-0.908668 -1.412523 4.543924
-0.874542 -1.358389 4.548532
-0.859928 -1.334196 4.550635
-0.845314 -1.310004 4.552738
-0.830701 -1.285811 4.554842
-0.816779 -1.261224 4.557043
-0.802950 -1.236584 4.559258
-0.771920 -1.180655 4.564309
-0.759008 -1.155534 4.566649
-0.746096 -1.130413 4.568988
-0.733184 -1.105291 4.571328
-0.720770 -1.079934 4.573732
-0.708942 -1.054298 4.576212
-0.682163 -0.996259 4.581827
-0.671473 -0.970146 4.584447
-0.660938 -0.943967 4.587086
-0.650404 -0.917788 4.589724
-0.639926 -0.891589 4.592370
-0.630951 -0.864854 4.595187
-0.610634 -0.804326 4.601567
-0.602527 -0.777343 4.604476
-0.595450 -0.750065 4.607494
-0.588373 -0.722787 4.610511
-0.581296 -0.695509 4.613529
-0.575642 -0.667941 4.616682
-0.564867 -0.605114 4.624013
-0.560207 -0.577352 4.627259
-0.558267 -0.549290 4.630731
-0.556326 -0.521229 4.634203
-0.554385 -0.493167 4.637675
-0.553095 -0.465105 4.641191
-0.556320 -0.401573 4.649576
-0.557744 -0.373510 4.653279
-0.561547 -0.345751 4.657107
-0.566831 -0.318181 4.661012
-0.572115 -0.290611 4.664918
-0.577398 -0.263041 4.668823
-0.597803 -0.202966 4.677945
-0.607225 -0.176543 4.681988
-0.617458 -0.150486 4.686039
-0.630934 -0.125890 4.690126
-0.644410 -0.101294 4.694213
-0.657886 -0.076698 4.698300
-0.694231 -0.024804 4.707466
-0.711300 -0.002541 4.711500
-0.728370 0.019721 4.715535
-0.747724 0.039986 4.719469
-0.767710 0.059698 4.723376
-0.787696 0.079410 4.727283
-0.835623 0.121017 4.735925
-0.857830 0.138225 4.739663
-0.880037 0.155434 4.743401
-0.902839 0.171805 4.747073
-0.926679 0.186715 4.750628
-0.950518 0.201625 4.754183
-1.005418 0.233783 4.762090
-1.030439 0.246660 4.765465
-1.055460 0.259537 4.768840
-1.080481 0.272414 4.772216
-1.106307 0.283626 4.775432
-1.132183 0.294737 4.778639
-1.190989 0.319336 4.785844
-1.217486 0.328921 4.788898
-1.243982 0.338505 4.791951
-1.270479 0.348090 4.795005
-1.297213 0.356989 4.797987
-1.324166 0.365254 4.800902
25 NaN NaN
-1.004972 -1.557283 4.531949
-0.943927 -1.467354 4.539305
-0.885152 -1.375955 4.547005
-0.828982 -1.282965 4.555089
-0.775828 -1.188259 4.563601
-0.726200 -1.091703 4.572593
-0.680738 -0.993171 4.582126
-0.640250 -0.892556 4.592268
-0.605760 -0.789806 4.603097
-0.578565 -0.684981 4.614694
-0.560276 -0.578347 4.627136
-0.552819 -0.470537 4.640475
-0.558291 -0.362743 4.654700
-0.578583 -0.256862 4.669699
-0.614764 -0.155403 4.685222
-0.666512 -0.060956 4.700915
-0.732066 0.024542 4.716408
-0.808837 0.100261 4.731416
-0.894156 0.166374 4.745778
-0.985760 0.223666 4.759438
-1.081913 0.273152 4.772409
-1.181357 0.315852 4.784734
-1.283194 0.352690 4.796470
-1.386787 0.384458 4.807676
-1.491681 0.411824 4.818406
