0.153681 0.153669 0.153496 0.152713 0.151473 0.150351 0.149230 0.148109 0.147105 0.146472 0.146337 0.146328 0.146318 0.146184 0.145593 0.144658 0.143800 0.142943 0.142086 0.141292 0.140791 0.140683 0.140676 0.140669 0.140562 0.140082 0.139323 0.138587 0.137850 0.137114 0.136398 0.135946 0.135848 0.135841 0.135835 0.135737 0.135298 0.134602 0.133938 0.133275 0.132612 0.131982 0.131585 0.131500 0.131494 0.131488 0.131404 0.131027 0.130429 0.129871 0.129314 0.128756 0.128240 0.127914 0.127845 0.127840 0.127835 0.127766 0.127461 0.126978 0.126534 0.126090 0.125645 0.125236 0.124978 0.124923 0.124919 0.124915 0.124861 0.124619 0.124235 0.123881 0.123526 0.123171 0.122842 0.122634 0.122590 0.122587 
0.153685 0.153690 0.153736 0.153886 0.154104 0.154321 0.154537 0.154754 0.155005 0.155177 0.155234 0.155239 0.155245 0.155301 0.155525 0.155851 0.156266 0.156681 0.157096 0.157586 0.157922 0.158028 0.158039 0.158049 0.158156 0.158530 0.159076 0.159667 0.160259 0.160850 0.161481 0.161914 0.162044 0.162056 0.162069 0.162200 0.162653 0.163312 0.164005 0.164697 0.165390 0.166115 0.166613 0.166762 0.166777 0.166792 0.166941 0.167459 0.168212 0.168996 0.169780 0.170564 0.171369 0.171922 0.172087 0.172103 0.172120 0.172285 0.172857 0.173690 0.174555 0.175420 0.176284 0.177170 0.177779 0.177960 0.177978 0.177996 0.178178 0.178803 0.179712 0.180651 0.181589 0.182528 0.183491 0.184153 0.184349 0.184369 0.184388 0.184586 0.185269 0.186264 0.187297 0.188331 0.189364 0.190438 0.191176 0.191397 0.191419 0.191441 0.191664 0.192436 0.193560 0.194747 0.195934 0.197121 0.198369 0.199226 0.199484 0.199509 0.199535 0.199793 0.200693 0.202004 0.203366 0.204729 0.206092 0.207511 0.208486 0.208777 0.208806 0.208835 0.209127 0.210117 0.211558 0.213015 0.214472 0.215928 0.217371 0.218361 0.218650 0.218679 0.218708 0.218996 0.219960 0.221363 0.222680 0.223997 0.225314 0.226518 0.227345 0.227581 0.227604 0.227627 0.227854 0.228601 0.229687 0.230612 0.231538 0.232463 0.233202 0.233710 0.233838 0.233850 0.233863 0.233988 0.234348 0.234872 0.235180 0.235488 0.235797 0.235875 0.235928 0.235926 0.235926 0.235925 0.235919 0.235833 0.235708 0.235330 0.234951 0.234573 0.233942 0.233509 0.233370 0.233356 
0.153685 0.153687 0.153718 0.153655 0.153555 0.152872 0.152189 0.151506 0.150696 0.150185 0.150079 0.150072 0.150066 0.149966 0.149529 0.148837 0.148272 0.147708 0.147143 0.146710 0.146437 0.146380 0.146377 0.146373 0.146316 0.146054 0.145638 0.145159 0.144680 0.144201 0.143505 0.143065 0.142947 0.142939 0.142931 0.142811 0.142067 0.140888 0.138748 0.136608 0.134469 0.131919 0.130311 0.129957 0.129934 0.129911 0.129561 0.128086 0.125748 0.124107 0.122467 0.120826 0.119919 0.119347 0.119247 0.119241 0.119235 0.119136 0.118771 0.118194 0.117837 0.117481 0.117124 0.116891 0.116743 0.116715 0.116713 0.116711 0.116684 0.116571 0.116391 0.116250 0.116110 0.115970 0.115855 0.115782 0.115767 0.115766 0.115765 0.115751 0.115689 0.115590 0.115506 0.115422 0.115337 0.115267 0.115222 0.115213 0.115212 0.115212 0.115203 0.115164 0.115103 0.115051 0.115000 0.114949 0.114906 0.114879 0.114873 0.114873 0.114872 0.114867 0.114844 0.114807 0.114775 0.114744 0.114713 0.114687 0.114670 0.114666 0.114666 0.114666 0.114663 0.114648 0.114624 0.114603 0.114582 0.114561 0.114540 0.114528 0.114525 0.114525 
0.127839 0.127836 0.127825 0.127801 0.127768 0.127736 0.127703 0.127671 0.127637 0.127611 0.127599 0.127596 0.127593 0.127581 0.127555 0.127520 0.127484 0.127448 0.127413 0.127376 0.127348 0.127336 0.127333 0.127329 0.127317 0.127289 0.127251 0.127213 0.127174 0.127136 0.127097 0.127067 0.127054 0.127050 0.127046 0.127033 0.127003 0.126963 0.126923 0.126882 0.126842 0.126801 0.126770 0.126756 0.126752 0.126748 0.126734 0.126703 0.126661 0.126618 0.126575 0.126532 0.126489 0.126456 0.126441 0.126437 0.126433 0.126418 0.126384 0.126339 0.126294 0.126249 0.126204 0.126167 0.126138 0.126126 0.126123 0.126119 0.126108 0.126081 0.126046 0.126013 0.125979 0.125946 0.125913 0.125888 0.125877 0.125874 0.125871 0.125860 0.125836 0.125805 0.125774 0.125743 0.125712 0.125683 0.125660 0.125651 0.125648 0.125646 0.125636 0.125615 0.125587 0.125560 0.125533 0.125506 0.125481 0.125462 0.125453 0.125451 0.125448 0.125440 0.125421 0.125395 0.125372 0.125349 0.125326 0.125303 0.125285 0.125278 0.125276 0.125274 0.125267 0.125251 0.125230 0.125210 0.125189 0.125168 0.125150 0.125136 0.125129 0.125128 0.125126 0.125120 0.125106 0.125087 0.125070 0.125053 0.125035 0.125019 0.125006 0.125001 0.124999 0.124997 0.124992 0.124980 0.124965 0.124950 0.124935 0.124920 0.124905 0.124895 0.124890 0.124889 
0.135841 0.135837 0.135824 0.135789 0.135743 0.135694 0.135646 0.135597 0.135546 0.135507 0.135491 0.135487 0.135484 0.135468 0.135426 0.135371 0.135312 0.135254 0.135196 0.135134 0.135086 0.135067 0.135062 0.135058 0.135038 0.134988 0.134921 0.134850 0.134780 0.134710 0.134635 0.134579 0.134555 0.134550 0.134544 0.134521 0.134462 0.134384 0.134303 0.134222 0.134141 0.134056 0.133992 0.133970 0.133965 0.133961 0.133942 0.133897 0.133837 0.133779 0.133721 0.133663 0.133607 0.133565 0.133548 0.133544 0.133540 0.133523 0.133481 0.133427 0.133375 0.133323 0.133271 0.133220 0.133182 0.133167 0.133164 0.133160 0.133145 0.133108 0.133059 0.133012 0.132966 0.132919 0.132873 0.132839 0.132826 0.132823 0.132819 0.132806 0.132773 0.132730 0.132689 0.132648 0.132606 0.132566 0.132535 0.132524 0.132521 0.132518 0.132507 0.132478 0.132441 0.132405 0.132369 0.132333 0.132298 0.132272 0.132262 0.132259 0.132257 0.132247 0.132223 0.132191 0.132160 0.132129 0.132098 0.132068 0.132045 0.132036 0.132034 
0.140675 0.140672 0.140660 0.140628 0.140585 0.140539 0.140492 0.140445 0.140395 0.140356 0.140341 0.140337 0.140333 0.140317 0.140276 0.140223 0.140174 0.140125 0.140076 0.140026 0.139989 0.139973 0.139970 0.139966 0.139951 0.139910 0.139857 0.139801 0.139745 0.139689 0.139627 0.139580 0.139560 0.139556 0.139551 0.139532 0.139479 0.139409 0.139334 0.139259 0.139184 0.139103 0.139041 0.139016 0.139010 0.139004 0.138978 0.138912 0.138823 0.138730 0.138637 0.138545 0.138444 0.138369 0.138338 0.138331 0.138324 0.138293 0.138213 0.138108 0.138000 0.137891 0.137782 0.137702 0.137642 0.137617 0.137612 0.137606 0.137582 0.137524 0.137447 0.137373 0.137300 0.137226 0.137158 0.137106 0.137086 0.137081 0.137076 0.137055 0.137005 0.136939 0.136876 0.136814 0.136751 0.136693 0.136650 0.136632 0.136628 0.136624 0.136606 0.136563 0.136506 0.136453 0.136400 0.136347 0.136298 0.136260 0.136245 0.136242 0.136238 0.136224 0.136187 0.136138 0.136094 0.136049 0.136005 0.135963 0.135931 0.135919 0.135916 0.135913 0.135901 0.135870 0.135829 0.135791 0.135752 0.135714 0.135677 0.135649 0.135638 0.135636 0.135633 0.135622 0.135595 0.135559 0.135524 0.135490 0.135455 0.135420 0.135394 0.135384 0.135382 
0.146327 0.146325 0.146315 0.146284 0.146242 0.146183 0.146124 0.146065 0.145987 0.145929 0.145904 0.145899 0.145894 0.145870 0.145807 0.145724 0.145634 0.145545 0.145455 0.145360 0.145289 0.145259 0.145253 0.145247 0.145218 0.145149 0.145058 0.144984 0.144909 0.144834 0.144756 0.144697 0.144673 0.144669 0.144664 0.144640 0.144578 0.144496 0.144409 0.144322 0.144235 0.144141 0.144070 0.144041 0.144035 0.144029 0.144000 0.143924 0.143822 0.143715 0.143607 0.143499 0.143394 0.143314 0.143282 0.143275 0.143269 0.143236 0.143146 0.143028 0.142899 0.142771 0.142643 0.142505 0.142401 0.142359 0.142351 0.142342 0.142301 0.142190 0.142042 0.141912 0.141781 0.141651 0.141524 0.141428 0.141391 0.141383 0.141375 0.141339 0.141248 0.141128 0.141014 0.140901 0.140788 0.140681 0.140600 0.140570 0.140564 0.140558 0.140528 0.140454 0.140355 0.140265 0.140174 0.140083 0.139999 0.139935 0.139911 0.139906 0.139901 0.139877 0.139817 0.139736 0.139663 0.139589 0.139516 0.139448 0.139396 0.139377 0.139372 0.139368 0.139348 0.139299 0.139234 0.139172 0.139111 0.139049 0.138992 0.138949 0.138932 0.138928 0.138925 0.138908 0.138865 0.138809 0.138755 0.138700 0.138646 0.138593 0.138553 0.138537 0.138534 0.138531 0.138515 0.138476 0.138424 0.138372 0.138320 0.138268 0.138216 0.138177 0.138161 0.138158 
0.155237 0.155228 0.155189 0.155090 0.154958 0.154822 0.154686 0.154550 0.154411 0.154307 0.154264 0.154255 0.154245 0.154201 0.154094 0.153951 0.153808 0.153664 0.153520 0.153376 0.153266 0.153222 0.153212 0.153202 0.153157 0.153046 0.152898 0.152753 0.152607 0.152462 0.152315 0.152204 0.152160 0.152150 0.152140 0.152097 0.151990 0.151848 0.151717 0.151586 0.151454 0.151329 0.151234 0.151195 0.151186 0.151178 0.151139 0.151043 0.150915 0.150783 0.150650 0.150518 0.150379 0.150275 0.150232 0.150223 0.150213 0.150170 0.150060 0.149913 0.149760 0.149606 0.149452 0.149289 0.149167 0.149117 0.149106 0.149094 0.149044 0.148916 0.148746 0.148572 0.148398 0.148223 0.148042 0.147906 0.147851 0.147839 0.147826 0.147771 0.147632 0.147448 0.147261 0.147075 0.146889 0.146703 0.146563 0.146517 0.146506 0.146496 0.146449 0.146340 0.146194 0.146058 0.145921 0.145784 0.145659 0.145564 0.145526 0.145517 0.145509 0.145471 0.145382 0.145265 0.145156 0.145047 0.144937 0.144839 0.144765 0.144735 0.144728 0.144721 0.144691 0.144620 0.144526 0.144439 0.144351 0.144263 0.144184 0.144124 0.144099 0.144094 0.144088 0.144064 0.144006 0.143930 0.143858 0.143786 0.143715 0.143650 0.143602 0.143582 0.143578 0.143573 0.143554 0.143506 0.143444 0.143385 0.143325 0.143266 0.143212 0.143171 0.143154 0.143150 0.143146 0.143130 0.143089 0.143035 0.142983 0.142932 0.142880 0.142831 0.142794 0.142778 0.142775 0.142772 0.142756 0.142719 0.142669 0.142621 0.142573 0.142525 0.142478 0.142443 0.142428 0.142425 
0.158036 0.158026 0.157986 0.157888 0.157758 0.157625 0.157491 0.157358 0.157221 0.157117 0.157073 0.157062 0.157051 0.157008 0.156901 0.156759 0.156617 0.156476 0.156335 0.156192 0.156083 0.156038 0.156027 0.156016 0.155970 0.155863 0.155720 0.155580 0.155441 0.155301 0.155164 0.155061 0.155016 0.155005 0.154993 0.154949 0.154842 0.154700 0.154555 0.154410 0.154265 0.154116 0.154002 0.153955 0.153943 0.153931 0.153883 0.153765 0.153608 0.153447 0.153287 0.153126 0.152958 0.152832 0.152779 0.152765 0.152752 0.152699 0.152572 0.152403 0.152230 0.152057 0.151885 0.151711 0.151580 0.151525 0.151512 0.151500 0.151456 0.151351 0.151211 0.151080 0.150948 0.150817 0.150693 0.150599 0.150561 0.150551 0.150542 0.150504 0.150419 0.150306 0.150198 0.150091 0.149984 0.149886 0.149813 0.149783 0.149775 0.149768 0.149738 0.149668 0.149575 0.149491 0.149408 0.149324 0.149245 0.149185 0.149162 0.149156 0.149150 0.149127 0.149071 0.148998 0.148930 0.148862 0.148794 0.148728 0.148678 0.148657 0.148652 0.148648 0.148629 0.148585 0.148527 0.148471 0.148414 0.148358 0.148307 0.148268 0.148251 0.148247 0.148243 0.148227 0.148190 0.148141 0.148094 0.148048 0.148002 0.147959 0.147926 0.147913 0.147910 0.147907 0.147894 0.147862 0.147820 0.147782 0.147743 0.147704 0.147666 0.147637 0.147625 0.147622 0.147619 0.147608 0.147582 0.147546 0.147511 0.147475 0.147440 0.147406 0.147380 0.147369 0.147366 
0.166773 0.166758 0.166597 0.165874 0.164742 0.163544 0.162346 0.161147 0.159879 0.159070 0.158880 0.158862 0.158844 0.158655 0.157904 0.156728 0.156084 0.155440 0.154796 0.154367 0.154093 0.154039 0.154034 
0.184362 0.184334 0.184255 0.184086 0.183865 0.183639 0.183413 0.183187 0.182956 0.182781 0.182696 0.182666 0.182636 0.182552 0.182374 0.182141 0.181908 0.181675 0.181442 0.181209 0.181032 0.180948 0.180918 0.180889 0.180805 0.180625 0.180390 0.180156 0.179921 0.179686 0.179448 0.179266 0.179180 0.179150 0.179120 0.179034 0.178855 0.178619 0.178389 0.178159 0.177928 0.177697 0.177521 0.177440 0.177411 0.177382 0.177300 0.177128 0.176903 0.176681 0.176459 0.176237 0.176015 0.175846 0.175767 0.175738 0.175710 0.175631 0.175464 0.175245 0.175030 0.174814 0.174599 0.174387 0.174225 0.174150 0.174124 0.174097 0.174023 0.173866 0.173660 0.173455 0.173250 0.173045 0.172841 0.172685 0.172612 0.172587 0.172561 0.172488 0.172333 0.172130 0.171928 0.171726 0.171523 0.171323 0.171170 0.171099 0.171073 0.171048 0.170977 0.170826 0.170627 0.170431 0.170235 0.170039 0.169845 0.169696 0.169627 0.169603 0.169578 0.169509 0.169379 0.169209 0.169047 0.168885 0.168724 0.168568 0.168449 0.168395 0.168375 0.168356 0.168302 0.168192 0.168048 0.167910 0.167771 0.167633 0.167499 0.167397 0.167350 0.167334 0.167318 0.167273 0.167181 0.167060 0.166942 0.166824 0.166706 0.166590 0.166503 0.166465 0.166451 0.166438 0.166400 0.166321 0.166216 0.166114 0.166011 0.165909 0.165811 0.165736 0.165703 0.165692 0.165680 0.165647 0.165577 0.165486 0.165395 0.165304 0.165213 0.165129 0.165064 0.165035 0.165024 0.165014 0.164985 0.164922 0.164840 0.164759 0.164677 0.164596 0.164521 0.164464 0.164438 0.164428 0.164419 0.164392 0.164335 0.164260 0.164187 0.164113 0.164039 0.163970 0.163918 0.163893 0.163884 0.163876 0.163851 0.163798 0.163729 0.163662 0.163595 0.163529 0.163465 0.163416 0.163393 0.163385 0.163377 0.163354 0.163304 0.163240 0.163178 0.163116 0.163054 0.162994 0.162948 0.162926 0.162918 0.162911 0.162889 0.162842 0.162781 0.162723 0.162665 0.162607 0.162549 0.162505 0.162484 0.162477 0.162469 0.162449 0.162404 0.162346 0.162291 0.162236 0.162180 0.162124 0.162081 0.162061 0.162054 0.162046 0.162026 0.161984 0.161928 0.161874 0.161819 0.161765 0.161709 0.161667 0.161647 0.161640 0.161633 0.161613 0.161572 0.161518 0.161464 0.161409 0.161355 0.161300 0.161258 0.161238 0.161231 
0.227573 0.227451 0.226818 0.225264 0.223198 0.221285 0.219373 0.217460 0.215679 0.214339 0.213830 0.213731 0.213634 0.213130 0.211906 0.210279 0.208765 0.207252 0.205738 0.204341 0.203290 0.202890 0.202813 0.202737 0.202342 0.201371 0.200080 0.198899 0.197718 0.196537 0.195443 0.194621 0.194309 0.194248 0.194189 0.193883 0.193130 0.192128 0.191202 0.190276 0.189349 0.188489 0.187842 0.187599 0.187552 0.187505 0.187264 0.186665 0.185869 0.185140 0.184411 0.183681 0.183016 0.182516 0.182323 0.182286 0.182249 0.182057 0.181599 0.180990 0.180446 0.179903 0.179360 0.178971 0.178677 0.178567 0.178546 0.178527 0.178430 0.178188 0.177866 0.177585 0.177305 0.177024 0.176781 0.176598 0.176533 0.176521 0.176508 0.176443 0.176276 0.176055 0.175862 0.175669 0.175476 0.175309 0.175183 0.175133 0.175124 0.175114 0.175064 0.174947 0.174793 0.174646 0.174500 0.174353 0.174216 0.174113 0.174073 0.174065 0.174058 0.174023 0.173931 0.173809 0.173693 0.173578 0.173462 0.173353 0.173271 0.173241 0.173236 0.173230 0.173199 0.173119 0.173013 0.172913 0.172812 0.172712 0.172615 0.172542 0.172513 0.172507 
