0.013594
11
0.012159
8
0.006079
20
0.013594
13
0.003732
7
A5
0.003499
9
A3
0.003347
11
A2
0.001015
37
A1
0.002678
15
D1
0.001941
18
D2
0.002194
15
D3
0.002056
15
D5
0.002471
12
D9
0.002282
12
D12
0.002590
11
D17
