-89.743106 97.987256 186.930939 0.148085
-140.074313 185.056583 400.117254 0.147028
-169.144125 246.121339 626.582118 0.145768
-166.574230 278.475108 720.042161 0.145197
-142.550095 311.789890 776.065687 0.144789
-161.090658 320.835696 795.518824 0.144636
-169.425991 269.262328 732.897812 0.145199
-180.798921 319.562157 869.221424 0.144331
-193.619314 360.249292 1053.805125 0.143306
-194.713129 403.169153 1042.493951 0.143081
-166.063054 357.568771 1043.347589 0.143400
-217.014723 257.507062 632.775706 0.145615
-367.963552 371.763460 958.988045 0.143433
-279.020001 274.109165 869.450637 0.144476
-316.342777 292.907776 1325.351037 0.142309
-336.889568 282.370137 1100.302742 0.143353
-137.317814 155.626171 315.588830 0.147438
-264.734001 244.498719 553.610229 0.145943
-224.428893 209.799946 452.640543 0.146578
-460.438709 156.495936 918.167106 0.144681
-290.856529 257.519563 574.941326 0.145760
-349.360483 285.149153 661.164499 0.145217
-327.972211 302.168294 669.437927 0.145105
-76.681352 165.514339 51.902569 0.148386
-63.998832 159.962121 98.986889 0.148220
-61.857216 197.916870 172.730738 0.147824
-89.803839 250.738195 286.260184 0.147193
-102.896126 169.717368 225.650392 0.147723
-143.423500 156.263432 455.827126 0.146900
-124.637561 160.641935 392.332207 0.147124
-246.610160 164.916292 697.452599 0.145803
-160.227608 182.883226 512.415300 0.146595
-60.229338 152.592548 63.836860 0.148375
-66.944548 155.468217 146.625277 0.148054
-266.115723 230.121457 429.425281 0.146509
-264.624470 243.335345 435.713469 0.146414
-54.746560 196.716880 207.594925 0.147693
-17.724446 374.402268 536.354546 0.145394
56.930829 529.887389 837.456962 0.143196
57.487223 652.724364 1206.506116 0.140979
-78.160507 265.143366 334.272030 0.146915
-133.114159 353.500077 467.882103 0.145742
-104.352517 314.850357 424.148685 0.146193
-116.111796 500.526028 743.231041 0.143728
-261.218041 507.545939 817.144661 0.143324
250.070771 -189.844806 0.706433 0.149526
408.577753 -210.992044 -318.356117 0.150749
286.908949 -218.038297 -80.706424 0.149917
436.675604 -187.464954 -321.520401 0.150656
422.174302 -274.124167 -295.268561 0.150860
586.980120 -360.867306 -543.887302 0.152010
704.135906 -430.044972 -750.102526 0.152968
-145.477908 -372.511238 -588.410930 0.152753
80.836271 -144.006496 27.947867 0.149368
130.940180 -206.124431 -138.233326 0.150204
171.112366 -263.685546 -317.123637 0.151098
193.439356 -243.508958 -435.037205 0.151494
245.368501 -172.178955 -703.330956 0.152295
226.691925 -232.355370 -507.712290 0.151729
176.730652 -266.239693 -403.690761 0.151457
156.824153 -391.035059 -593.193171 0.152718
174.743985 -264.459859 -463.986702 0.151699
296.512024 -315.827805 -715.958639 0.152850
143.091168 -274.767750 -558.664293 0.152145
224.967357 -349.123491 -454.531978 0.151936
377.324644 -480.032177 -971.562619 0.154545
354.474193 -475.163822 -930.091747 0.154364
105.684965 -183.504719 -68.144032 0.149863
152.682186 -359.406020 -350.486889 0.151584
206.249946 -517.219800 -646.357366 0.153413
234.075733 -581.219190 -783.228143 0.154268
385.571934 -672.953242 -1013.074990 0.155600
173.968131 -499.852457 -620.277125 0.153248
223.530339 -501.910235 -760.847654 0.153840
204.064577 -631.742892 -961.501140 0.155319
144.409878 -260.414487 -165.353457 0.150486
146.820668 -331.599853 -314.173922 0.151337
109.200379 -409.793920 -481.551112 0.152341
129.963080 -383.968934 -458.698554 0.152138
190.540123 -425.230847 -672.182771 0.153167
32.734019 -510.553422 -1016.785975 0.155112
194.098825 -365.836545 -290.803444 0.151334
228.182506 -562.245426 -518.912286 0.153025
243.208839 -469.795947 -458.481111 0.152393
288.793577 -483.570741 -596.314010 0.153007
246.826612 -491.569186 -551.246263 0.152873
384.365862 -655.695918 -955.764961 0.155258
235.954983 -660.695925 -867.356404 0.154999
142.137760 -164.137947 -125.632621 0.150010
176.245575 -204.623720 -342.686829 0.150995
229.242813 -252.660078 -589.252942 0.152135
226.609187 -271.333531 -604.833075 0.152270
311.821858 -317.731493 -899.225093 0.153615
274.044312 -402.169527 -1132.131960 0.155000
146.686224 -223.836014 -273.374692 0.150798
139.654753 -285.602828 -409.922075 0.151573
152.409729 -264.440067 -389.251398 0.151406
295.446982 -532.949279 -1023.264305 0.155083
159.812113 -271.297444 -423.829605 0.151568
160.262075 -274.653629 -474.755112 0.151788
190.575291 -293.760836 -546.380667 0.152135
238.554021 -445.907410 -1086.150602 0.155019
223.215851 -256.137069 -1009.101869 0.153898
185.519969 -156.961424 181.894828 0.148745
234.486347 -159.987029 327.602710 0.148152
429.544681 -248.667270 688.650146 0.146870
265.428664 -163.553884 392.293089 0.147891
326.247846 -183.215352 522.622301 0.147400
395.932756 -218.050260 638.703582 0.147000
484.566938 -244.696628 892.785848 0.146029
620.187449 -245.881224 1252.541239 0.144561
637.933647 -231.339153 1252.707964 0.144509
453.504019 -122.506405 683.445552 0.146520
263.253125 -205.680026 404.442184 0.147969
300.884210 -239.703468 501.057714 0.147665
306.882844 -258.662055 509.645881 0.147683
314.087882 -291.659276 559.062397 0.147581
260.406290 -365.488811 882.535361 0.146542
149.911327 -130.190474 66.515705 0.149137
215.765917 -142.234468 167.301594 0.148740
292.848556 -124.886537 310.192256 0.148081
361.860472 -72.500303 444.062364 0.147367
479.383522 -24.373533 609.543414 0.146521
723.534205 19.536965 928.790239 0.145005
568.499668 41.461511 762.967733 0.145707
499.661316 -61.771160 775.934446 0.145972
321.797506 -97.901031 486.809066 0.147299
283.576184 -171.623086 263.504143 0.148409
417.302267 -166.882853 425.164105 0.147670
542.875921 -110.008718 587.941403 0.146781
698.553502 -260.617102 884.448884 0.145924
379.327789 -214.865272 386.127855 0.147992
565.383831 -294.280806 646.838898 0.147057
699.074340 -349.949136 944.137326 0.145948
175.927001 -109.433485 118.750891 0.148853
450.297899 -282.237657 702.132436 0.146899
249.625105 -40.765847 235.817072 0.148150
354.502380 8.264530 369.254624 0.147432
409.023375 35.180027 479.665793 0.146903
449.233303 49.339234 554.983806 0.146555
498.118685 207.602646 783.025095 0.145105
414.855097 9.655133 438.045618 0.147126
558.935718 37.496225 704.282468 0.145944
431.509903 21.364669 475.303275 0.146941
444.762177 29.175798 527.547794 0.146714
451.925970 48.975505 523.721360 0.146672
497.387999 123.865310 635.171181 0.146038
608.403558 28.538283 1057.695992 0.144613
330.747177 20.721808 345.833023 0.147502
514.011658 197.980413 664.010360 0.145577
385.641849 33.729787 419.284308 0.147152
465.003441 52.574960 559.514376 0.146520
479.687865 115.663360 620.248531 0.146125
25.015464 -133.216435 -12.105210 0.149521
32.548139 -233.842896 203.432831 0.148973
24.443320 -332.588826 466.491122 0.148218
-29.490604 -423.571908 867.503095 0.146869
-2.338913 -606.177536 979.481493 0.146915
59.774098 -356.630804 631.914394 0.147605
101.064987 -430.010239 879.144787 0.146803
96.376482 -355.241580 1189.484468 0.145351
84.252065 -236.324722 121.552021 0.149284
149.804308 -326.613911 253.255947 0.149004
202.549976 -374.643434 347.970323 0.148742
247.791763 -409.754423 434.860917 0.148476
436.116608 -528.415429 842.441967 0.147092
197.360307 -431.270788 484.245903 0.148368
189.548247 -295.537238 306.190876 0.148673
264.944562 -287.317737 404.430123 0.148213
518.809849 -425.649941 736.754617 0.147136
-13.270829 -132.239020 -69.329458 0.149762
-66.204969 -142.571972 -132.115973 0.150069
-95.356677 -148.610277 -179.241972 0.150288
-150.520353 -161.205765 -251.641128 0.150641
-400.934470 -218.044871 -715.164785 0.152806
-198.264566 -159.912242 -313.402575 0.150902
-70.470396 -187.993180 -157.947567 0.150321
-119.093511 -251.792010 -359.621975 0.151368
-287.957473 -534.112823 -760.359747 0.154128
36.085964 34.996894 153.714994 0.148350
32.726054 111.413129 308.974017 0.147528
70.835261 109.814855 462.914129 0.146929
7.430293 239.585466 715.209961 0.145623
161.959713 364.586174 845.997962 0.144272
-7.061946 169.430188 430.643087 0.146911
-73.954427 245.257518 677.827227 0.145699
-101.871877 297.829610 879.697431 0.144513
-188.643998 351.115128 1177.852339 0.142835
-83.807596 230.852899 579.713425 0.146172
-107.873527 262.753285 692.766632 0.145478
-169.699129 328.641789 904.230692 0.144148
-130.421130 323.666660 819.867287 0.144552
-186.016411 346.224517 856.299754 0.144214
35.144945 108.962046 330.235407 0.147453
219.256082 325.957818 791.772801 0.144705
8.178198 299.832525 898.412616 0.144530
-11.381369 510.206518 1440.097572 0.140967
-52.344607 536.992729 1450.533046 0.140702
63.526146 25.087530 132.018804 0.148451
93.112572 50.564272 253.655903 0.147893
123.012961 45.267496 323.161913 0.147628
155.492105 4.004541 451.029243 0.147237
185.631056 17.634826 421.139798 0.147300
305.643923 -191.082382 826.045566 0.146249
233.433852 -8.034286 491.961796 0.147076
315.940431 -39.379397 747.089358 0.146137
325.900378 -11.488153 592.044876 0.146651
490.283955 32.684644 854.922300 0.145441
415.219548 -4.593725 726.198753 0.146070
104.919474 68.081237 370.180926 0.147389
60.336884 172.759022 648.364425 0.146045
129.032181 85.415754 505.858766 0.146810
184.961555 238.466657 1013.261182 0.144457
155.882535 112.036331 605.993501 0.146342
161.197835 133.891658 677.400041 0.146010
267.469437 231.168642 981.720868 0.144579
104.397426 69.486761 262.039858 0.147800
174.481508 100.200950 397.895822 0.147163
308.161099 111.496286 616.703694 0.146240
249.975896 263.802925 664.802889 0.145577
134.466556 89.607405 329.430348 0.147471
167.287403 221.979703 680.179435 0.145760
155.362490 85.285842 370.740053 0.147316
162.962218 96.058784 414.821183 0.147114
285.343697 373.721641 826.556493 0.144181
282.418057 323.809198 749.052482 0.144808
191.132918 403.200979 934.106573 0.143665
65.854254 -29.852390 -81.307834 0.149446
39.655215 24.295059 -165.461368 0.149613
-87.175599 103.731298 -371.619138 0.150192
-6.458634 80.819155 -314.816061 0.150022
59.752953 -12.913112 -135.417582 0.149606
35.367219 17.996131 -216.019857 0.149830
56.791167 -3.816202 -175.852518 0.149735
94.377497 -17.490102 -378.811144 0.150551
183.062047 -17.841937 -651.164659 0.151573
242.489835 42.797647 -1057.671105 0.152917
274.188022 15.888928 -839.643787 0.152138
334.636055 32.486040 -962.636757 0.152519
361.496297 44.441271 -982.696319 0.152535
150.114859 -30.786324 -565.165456 0.151297
178.140189 -35.874610 -608.666371 0.151471
165.249313 -65.531537 -648.520648 0.151741
162.317107 -99.900764 -861.107553 0.152718
233.520863 -158.238054 -924.533270 0.153152
47.526382 29.820540 -267.832608 0.149986
32.963923 57.883907 -387.348625 0.150360
43.275523 65.551174 -388.937896 0.150336
39.458510 72.537038 -466.008491 0.150611
54.665311 72.109334 -460.929612 0.150586
94.647808 71.223686 -735.343924 0.151630
114.058402 160.288784 -921.531537 0.152018
-62.644612 -120.383603 133.194929 0.148948
-88.106093 -203.223273 242.851428 0.148776
-307.599289 -365.954659 620.888988 0.147806
-98.604998 -212.238916 278.224834 0.148667
-61.372847 -276.651416 388.888623 0.148400
-92.478710 -466.954206 580.984281 0.148182
-101.840554 -198.883182 249.816532 0.148742
-324.483595 -431.067774 715.987222 0.147596
-126.336371 -345.901778 733.918898 0.147225
-42.722977 -51.995861 50.523666 0.149052
-44.512854 -48.850320 248.801566 0.148269
-79.460277 33.293562 561.096527 0.146827
-121.403663 227.591778 891.168320 0.144882
-152.383214 152.395331 822.858311 0.145496
-211.834113 275.305100 1041.323558 0.143838
-190.025235 316.948174 1164.625044 0.143099
-67.745420 -35.657870 460.836710 0.147412
-96.673668 -5.486368 552.518796 0.146979
-123.255795 -19.435250 572.502181 0.146952
-176.561706 4.810325 727.182850 0.146297
-365.842550 72.369456 1174.726494 0.144073
-76.415684 -69.175099 98.035236 0.148935
-139.412472 -55.111810 202.980626 0.148510
-226.183657 -4.376076 327.124256 0.147914
-306.687615 80.275330 562.244233 0.146664
-110.842901 -103.688691 160.019287 0.148813
-147.051612 -131.180836 227.801969 0.148645
-208.268189 -141.777175 335.204227 0.148280
-279.955717 -69.100895 514.649012 0.147394
-259.496730 -142.273547 413.692495 0.147994
-188.159415 -158.409254 295.297813 0.148478
-220.484033 -182.706135 348.811645 0.148351
-418.936855 -188.313750 708.685410 0.146981
-322.010106 -480.067650 735.092312 0.147662
-403.364343 -426.050811 903.950709 0.146924
-130.660970 -117.431467 202.968147 0.148695
-174.260340 -130.155418 266.439847 0.148502
-266.601099 -93.289994 417.656396 0.147840
-425.160387 50.982517 673.752972 0.146236
-478.922691 22.877490 919.389326 0.145278
-267.613986 -146.991501 380.124467 0.148145
-385.833705 -109.836275 575.935218 0.147271
-400.320590 -148.035891 531.833640 0.147575
-493.620692 -217.258941 680.258295 0.147203
-605.555959 -251.939107 931.843752 0.146262
-161.040195 -115.455171 246.971304 0.148529
-249.688962 -186.063463 391.074168 0.148206
-367.543534 -296.440931 577.550068 0.147817
-390.128015 -451.219404 823.851508 0.147322
-215.278379 -102.591452 332.143110 0.148180
-264.336478 -86.350409 416.296018 0.147824
-404.183712 -271.509478 766.742277 0.147004
-315.881901 -89.928176 570.979410 0.147247
-362.042038 -85.219410 714.059741 0.146636
-473.882535 -106.727933 859.082216 0.146060
-417.839438 -58.926878 856.288258 0.145923
-552.747409 -1.920897 1082.365750 0.144596
-624.292896 23.846888 1302.838145 0.143353
-374.507205 -99.642617 772.711357 0.146441
-302.419801 -40.179529 488.333359 0.147427
-439.686515 48.725869 757.548171 0.145892
-533.439755 89.002349 975.113884 0.144679
-611.427357 96.170447 1164.376267 0.143663
-375.639436 6.251549 599.017040 0.146761
-408.727245 -25.692859 685.614624 0.146508
-575.045026 35.882204 851.094664 0.145442
125.195315 19.531582 47.761575 0.148764
182.927867 50.750736 132.287729 0.148316
368.677694 160.342731 427.291719 0.146797
227.607462 141.079012 254.033331 0.147571
230.284909 232.663356 375.138246 0.146863
217.983596 270.609036 453.723217 0.146362
248.809131 333.786964 692.192385 0.144990
242.018589 208.299686 337.810247 0.147064
267.219835 237.854849 392.095590 0.146763
309.121910 270.533410 678.112185 0.145399
298.219548 259.658187 446.669785 0.146354
347.050632 281.646732 568.152964 0.145673
316.956588 264.969969 473.529431 0.146187
347.608037 334.098558 594.310174 0.145217
415.520158 517.501041 927.366148 0.142726
259.024111 419.218268 622.463640 0.144640
159.656520 34.843621 123.917006 0.148406
180.869559 56.342565 186.146307 0.148094
220.346289 160.846441 310.084093 0.147307
349.150432 367.811315 847.954252 0.144069
349.361998 357.105007 775.607145 0.144402
144.841681 146.276145 361.032056 0.147186
94.711242 412.039171 737.219977 0.144373
138.512219 289.635146 616.993865 0.145681
177.073994 72.483978 213.580176 0.147944
202.492818 96.315881 318.057843 0.147465
225.346683 96.281249 386.232234 0.147195
509.967911 197.769559 802.856583 0.145073
230.547547 93.084267 420.957258 0.147069
250.899166 92.128919 468.577664 0.146881
270.197565 102.994064 500.133272 0.146722
256.071635 105.712556 517.705465 0.146655
166.720334 282.885031 1016.840130 0.144188
298.657083 33.125154 490.370813 0.146934
191.440706 116.833481 307.780302 0.147451
310.800304 334.898759 814.847470 0.144455
179.327346 119.594853 438.797097 0.146950
145.128462 122.892976 554.733758 0.146512
131.167386 106.191619 581.332624 0.146462
