-1.688261 0.642190 15.337781
-1.692313 0.646468 15.329034
-1.696364 0.650745 15.320287
-1.893719 0.858455 14.896605
-2.090129 1.064510 14.477446
-2.320567 1.279007 14.095693
-2.768401 1.498931 14.147332
-1.698967 0.653492 15.314669
-1.892950 0.857643 14.898263
-1.894488 0.859266 14.894946
-2.089342 1.063692 14.479093
-2.090917 1.065327 14.475799
-2.318899 1.278027 14.096197
-2.322236 1.279988 14.095188
-2.766567 1.498137 14.147252
-1.709520 0.664632 15.291888
-1.882389 0.846501 14.921039
-1.905050 0.870409 14.872170
-2.078526 1.052469 14.501709
-2.101732 1.076550 14.453183
-2.295984 1.264558 14.103120
-2.345151 1.293457 14.088265
-2.741382 1.487231 14.146152
-1.732199 0.688551 15.243012
-1.757651 0.715341 15.188361
-1.783145 0.742145 15.133737
-1.808653 0.768953 15.079121
-1.834164 0.795762 15.024507
-1.859642 0.822560 14.969873
-1.927678 0.894311 14.823262
-1.952927 0.921037 14.768486
-1.978220 0.947776 14.713737
-2.003613 0.974547 14.659050
-2.029226 1.001388 14.604500
-2.055215 1.028349 14.550188
-2.124515 1.100502 14.404374
-2.149401 1.127110 14.349375
-2.173062 1.153324 14.293654
-2.197479 1.179822 14.238416
-2.223688 1.206973 14.184304
-2.259087 1.236907 14.137717
-2.396220 1.320540 14.085027
-2.455203 1.349074 14.092706
-2.513532 1.376215 14.107233
-2.571750 1.403941 14.121097
-2.629863 1.432526 14.133666
-2.688465 1.461843 14.141133
-4.046893 1.707088 14.136779
-5.274154 2.063659 14.095660
-5.890713 3.143124 14.018041
-6.394490 4.337520 13.956318
-7.051303 5.453267 13.886588
-7.921721 6.408186 13.807190
-9.004773 7.112484 13.721125
-10.226412 7.536040 13.634635
-11.506868 7.726281 13.551521
-12.801911 7.748530 13.472484
-2.770235 1.499725 14.147412
-4.044911 1.706820 14.136821
-4.048874 1.707356 14.136737
-5.272342 2.062814 14.095706
-5.275965 2.064505 14.095613
-5.890029 3.141247 14.018132
-5.891397 3.145001 14.017951
-6.393624 4.335720 13.956418
-6.395356 4.339320 13.956218
-7.050132 5.451649 13.886703
-7.052483 5.454877 13.886472
-7.920183 6.406915 13.807320
-7.923260 6.409457 13.807061
-9.002977 7.111614 13.721260
-9.006569 7.113354 13.720991
-10.224470 7.535581 13.634766
-10.228354 7.536499 13.634504
-11.504879 7.726115 13.551646
-11.508857 7.726447 13.551395
-12.799915 7.748579 13.472603
-2.795420 1.510631 14.148511
-4.017698 1.703138 14.137398
-4.076087 1.711038 14.136160
-5.247496 2.051129 14.096355
-5.300849 2.076116 14.094971
-5.880661 3.115457 14.019382
-5.900792 3.170782 14.016711
-6.381840 4.310947 13.957785
-6.407255 4.364038 13.954844
-7.034055 5.429435 13.888284
-7.068721 5.476973 13.884883
-7.899056 6.389453 13.809101
-7.944453 6.426838 13.805278
-8.978311 7.099672 13.723105
-9.031368 7.125009 13.719146
-10.197798 7.529275 13.636567
-10.255027 7.542805 13.632703
-11.477561 7.723834 13.553366
-11.536175 7.728728 13.549675
-12.772506 7.749258 13.474243
-2.914286 1.548493 14.150147
-3.110044 1.577157 14.148815
-3.305918 1.605312 14.147740
-3.501207 1.637372 14.146337
-3.697423 1.662951 14.142901
-3.893838 1.687017 14.139495
-4.199826 1.727898 14.132956
-4.396232 1.751322 14.126518
-4.593018 1.771200 14.119777
-4.785937 1.813408 14.113172
-4.967826 1.890360 14.106636
-5.138728 1.989826 14.100010
-5.413230 2.130567 14.091827
-5.557408 2.261325 14.082300
-5.630472 2.443673 14.066901
-5.695843 2.629692 14.050423
-5.768837 2.813083 14.036064
-5.838163 2.998131 14.025246
-5.944092 3.287824 14.011076
-6.016284 3.471868 14.001956
-6.090971 3.654910 13.992635
-6.165681 3.837943 13.983325
-6.244679 4.019139 13.973790
-6.328442 4.198182 13.963996
-6.462149 4.476074 13.948556
-6.553721 4.651217 13.938353
-6.649884 4.823876 13.927915
-6.749336 4.994653 13.917312
-6.852529 5.163179 13.906521
-6.961692 5.327862 13.895441
-7.142587 5.577460 13.877656
-7.261937 5.734890 13.866100
-7.390496 5.884803 13.854146
-7.525266 6.029221 13.841933
-7.660725 6.172983 13.829694
-7.803902 6.308927 13.817170
-8.041064 6.505618 13.797165
-8.196342 6.627618 13.784252
-8.357688 6.741419 13.771180
-8.524363 6.847287 13.757998
-8.694464 6.947571 13.744764
-8.867167 7.043290 13.731496
-9.145557 7.174961 13.710757
-9.327665 7.251313 13.697474
-9.510467 7.325943 13.684198
-9.697533 7.389007 13.671006
-9.887335 7.443526 13.657901
-10.077114 7.498123 13.644795
-10.377087 7.568114 13.624566
-10.571002 7.605551 13.611722
-10.765403 7.640360 13.598927
-10.960758 7.669369 13.586247
-11.156855 7.692952 13.573684
-11.353378 7.712747 13.561208
-11.660547 7.737460 13.541891
-11.857875 7.746386 13.529687
-12.055321 7.752519 13.517557
-12.252793 7.757735 13.505453
-12.450334 7.756820 13.493523
-12.647835 7.751963 13.481710
158 NaN NaN
-1.686235 0.640052 15.342155
-1.724896 0.680864 15.258693
-1.763719 0.721728 15.175332
-1.802626 0.762619 15.092023
-1.841540 0.803513 15.008718
-1.880382 0.844383 14.925368
-1.919075 0.885206 14.841926
-1.957588 0.925971 14.758372
-1.996185 0.966763 14.674870
-2.035253 1.007705 14.591662
-2.075073 1.048886 14.508930
-2.114697 1.090004 14.426072
-2.152655 1.130589 14.342182
-2.188467 1.170485 14.257024
-2.228420 1.211876 14.174533
-2.285188 1.258213 14.106381
-2.368019 1.306898 14.081356
-2.457818 1.350339 14.093046
-2.546740 1.391639 14.115688
-2.635350 1.435225 14.134853
-2.724791 1.480047 14.145428
-2.817018 1.519984 14.149454
-2.913472 1.548353 14.150151
-3.012612 1.565422 14.149682
-3.112514 1.577454 14.148793
-3.212308 1.590334 14.148094
-3.311670 1.606233 14.147718
-3.410868 1.623142 14.147250
-3.510264 1.638798 14.146245
-3.609973 1.652262 14.144595
-3.709840 1.664469 14.142661
-3.809733 1.676482 14.140833
-3.909570 1.688987 14.139244
-4.009339 1.702007 14.137575
-4.109038 1.715496 14.135461
-4.208703 1.729111 14.132711
-4.308470 1.741853 14.129511
-4.408459 1.752641 14.126101
-4.508619 1.761713 14.122666
-4.608553 1.772947 14.119245
-4.707485 1.790846 14.115864
-4.804100 1.818631 14.112549
-4.897622 1.855539 14.109252
-4.987697 1.900216 14.105896
-5.074560 1.950885 14.102460
-5.160541 2.003063 14.099177
-5.248559 2.051716 14.096320
-5.339717 2.094253 14.093968
-5.429878 2.138791 14.091343
-5.511185 2.197475 14.087301
-5.569810 2.278458 14.080958
-5.607821 2.371202 14.073199
-5.637737 2.466917 14.064880
-5.669748 2.561929 14.056396
-5.705788 2.655515 14.048147
-5.743433 2.748530 14.040571
-5.780205 2.841970 14.034048
-5.815516 2.936036 14.028491
-5.849954 3.030459 14.023556
-5.884109 3.125001 14.018913
-5.918529 3.219451 14.014370
-5.953733 3.313612 14.009833
-5.990208 3.407283 14.005219
-6.027841 3.500492 14.000510
-6.065955 3.593502 13.995760
-6.103877 3.686592 13.991022
-6.141623 3.779754 13.986302
-6.180028 3.872645 13.981550
-6.219956 3.964885 13.976715
-6.261633 4.056344 13.971785
-6.304356 4.147317 13.966797
-6.347368 4.238153 13.961794
-6.390383 4.328988 13.956792
-6.433974 4.419545 13.951759
-6.478804 4.509491 13.946662
-6.525253 4.598607 13.941480
-6.573077 4.686989 13.936227
-6.621954 4.774790 13.930921
-6.671649 4.862128 13.925573
-6.722165 4.948991 13.920184
-6.773547 5.035343 13.914752
-6.825910 5.121099 13.909270
-6.879624 5.206011 13.903723
-6.935111 5.289768 13.898090
-6.992602 5.372156 13.892362
-7.051501 5.453541 13.886568
-7.110993 5.534492 13.880747
-7.170505 5.615428 13.874924
-7.230847 5.695743 13.869063
-7.293317 5.774401 13.863108
-7.358920 5.850454 13.857020
-7.426892 5.924396 13.850833
-7.495740 5.997523 13.844610
-7.564198 6.071015 13.838403
-7.632772 6.144399 13.832192
-7.702988 6.216201 13.825917
-7.776189 6.284941 13.819534
-7.852116 6.350656 13.813057
-7.929517 6.414630 13.806533
-8.007267 6.478180 13.800000
-8.085226 6.541471 13.793462
-8.164113 6.603597 13.786898
-8.244619 6.663601 13.780289
-8.326925 6.721108 13.773635
-8.410714 6.776429 13.766949
-8.495679 6.829927 13.760242
-8.581575 6.881913 13.753521
-8.668227 6.932630 13.746790
-8.755475 6.982314 13.740051
-8.843375 7.030833 13.733303
-8.932320 7.077404 13.726546
-9.022682 7.121155 13.719785
-9.114455 7.161870 13.713027
-9.206994 7.200818 13.706273
-9.299652 7.239484 13.699520
-9.392146 7.278542 13.692765
-9.485092 7.316506 13.686014
-9.579192 7.351502 13.679281
-9.674733 7.382357 13.672583
-9.771123 7.410472 13.665915
-9.867734 7.437826 13.659256
-9.964148 7.465863 13.652589
-10.060624 7.493688 13.645924
-10.157584 7.519768 13.639283
-10.255299 7.542869 13.632684
-10.353569 7.563508 13.626126
-10.452113 7.582811 13.619590
-10.550727 7.601756 13.613061
-10.649431 7.620229 13.606541
-10.748328 7.637639 13.600041
-10.847496 7.653445 13.593572
-10.946916 7.667601 13.587137
-11.046531 7.680325 13.580733
-11.146295 7.691840 13.574356
-11.246171 7.702358 13.568002
-11.346128 7.712086 13.561666
-11.446143 7.721211 13.555345
-11.546226 7.729567 13.549042
-11.646406 7.736692 13.542770
-11.746693 7.742139 13.536540
-11.847055 7.746049 13.530352
-11.947446 7.749178 13.524184
-12.047838 7.752285 13.518017
-12.148229 7.755418 13.511850
-12.248644 7.757712 13.505705
-12.349085 7.758254 13.499610
-12.449522 7.756840 13.493572
-12.549942 7.754386 13.487565
-12.650361 7.751900 13.481559
-12.750788 7.749795 13.475542
-12.851207 7.747309 13.469536
-12.951587 7.743545 13.463569
-13.051889 7.738008 13.457658
-13.152116 7.731209 13.451787
-13.252302 7.723807 13.445937
-13.352492 7.716458 13.440084
-13.452729 7.709820 13.434209
-13.553045 7.704554 13.428289
