-1.556933 0.781257 10.429574
-1.562554 0.787764 10.425996
-1.568175 0.794271 10.422418
-1.860585 1.117166 10.241278
-2.163742 1.422205 10.062964
-2.531858 1.653046 9.891089
-2.945096 1.799521 9.728853
-1.571891 0.798573 10.420053
-1.859355 1.115788 10.242046
-1.861814 1.118544 10.240510
-2.162194 1.421179 10.063705
-2.165290 1.423232 10.062223
-2.530137 1.652315 9.891799
-2.533579 1.653776 9.890380
-2.943320 1.798916 9.729544
-1.587250 0.816353 10.410278
-1.843708 1.098260 10.251819
-1.877070 1.136410 10.230735
-2.142493 1.408117 10.073132
-2.184991 1.436293 10.052796
-2.508637 1.642283 9.900913
-2.555479 1.663072 9.881348
-2.920714 1.791225 9.738342
-1.620203 0.854199 10.389401
-1.657965 0.895754 10.366054
-1.695952 0.937106 10.342711
-1.734180 0.978239 10.319374
-1.772305 1.019466 10.296034
-1.810289 1.060820 10.272691
-1.909354 1.174829 10.209855
-1.945309 1.217950 10.186494
-1.981125 1.261187 10.163134
-2.019195 1.302452 10.139796
-2.058697 1.342291 10.116529
-2.102013 1.378218 10.093486
-2.227638 1.463406 10.032797
-2.275649 1.493329 10.010492
-2.322626 1.524756 9.988061
-2.369541 1.556267 9.965609
-2.416429 1.587792 9.943123
-2.464738 1.617147 9.920793
-2.602280 1.682868 9.862067
-2.656285 1.701291 9.841045
-2.710375 1.719514 9.820067
-2.764615 1.737378 9.799167
-2.818578 1.755949 9.778171
-2.872430 1.774799 9.757134
-4.038342 2.060525 9.316896
-5.148933 2.327235 8.961873
-6.068632 2.982409 8.681203
-6.607664 4.013527 8.399056
-7.201923 5.011378 8.109134
-7.882644 5.945313 7.798872
-8.676025 6.775669 7.464476
-9.591503 7.457643 7.108023
-10.612984 7.957961 6.738323
-11.705578 8.272799 6.366727
-12.834913 8.423921 6.001512
-2.946873 1.800125 9.728161
-4.036516 2.060088 9.317583
-4.040169 2.060962 9.316209
-5.147105 2.326588 8.962361
-5.150762 2.327882 8.961384
-6.067742 2.980684 8.681683
-6.069521 2.984135 8.680722
-6.606722 4.011827 8.399528
-6.608606 4.015226 8.398584
-7.200875 5.009749 8.109632
-7.202971 5.013007 8.108636
-7.881438 5.943809 7.799405
-7.883850 5.946816 7.798338
-8.674608 6.774380 7.465053
-8.677441 6.776958 7.463900
-9.589907 7.456601 7.108628
-9.593099 7.458686 7.107417
-10.611213 7.957271 6.738945
-10.614755 7.958651 6.737701
-11.703708 8.272444 6.367343
-11.707447 8.273154 6.366111
-12.833007 8.423817 6.002112
-2.969629 1.807392 9.719405
-4.013273 2.054527 9.326326
-4.063412 2.066523 9.307466
-5.123842 2.318358 8.968580
-5.174024 2.336113 8.955165
-6.056427 2.958724 8.687792
-6.080837 3.006095 8.674613
-6.594734 3.990197 8.405533
-6.620593 4.036856 8.392580
-7.187530 4.989028 8.115967
-7.216311 5.033732 8.102302
-7.866086 5.924685 7.806199
-7.899199 5.965943 7.791545
-8.656898 6.757618 7.472329
-8.695465 6.793357 7.456565
-9.569600 7.443342 7.116335
-9.613808 7.471267 7.099659
-10.588676 7.948492 6.746857
-10.637379 7.967191 6.729788
-11.679922 8.267929 6.375179
-11.731233 8.277669 6.358275
-12.808767 8.422499 6.009743
-3.073824 1.836727 9.680153
-3.241491 1.874788 9.619190
-3.409550 1.911946 9.558723
-3.576607 1.950801 9.496572
-3.742629 1.990184 9.432022
-3.908342 2.029530 9.366659
-4.168996 2.092041 9.269212
-4.336034 2.132718 9.208183
-4.503125 2.173269 9.147230
-4.673134 2.213253 9.094630
-4.845326 2.249895 9.046833
-5.017192 2.286652 8.998061
-5.278947 2.375145 8.928157
-5.448280 2.428210 8.885913
-5.608536 2.501464 8.842335
-5.741134 2.618427 8.799730
-5.870645 2.739919 8.758212
-5.996321 2.864617 8.715507
-6.129464 3.106750 8.646965
-6.209437 3.264708 8.603009
-6.291813 3.421631 8.559762
-6.374077 3.578857 8.517405
-6.456428 3.736094 8.475261
-6.540562 3.892264 8.432685
-6.674671 4.134847 8.365451
-6.761209 4.289527 8.322259
-6.850700 4.442309 8.278338
-6.941072 4.594512 8.234198
-7.031877 4.746425 8.189954
-7.126719 4.895556 8.144736
-7.276816 5.127424 8.073605
-7.375551 5.273706 8.027469
-7.478222 5.416973 7.980419
-7.580754 5.560353 7.933400
-7.686011 5.701519 7.885765
-7.796437 5.838291 7.836982
-7.969444 6.051802 7.760633
-8.085791 6.183062 7.710590
-8.205044 6.311494 7.659941
-8.323701 6.440522 7.609415
-8.448510 6.563063 7.557667
-8.576644 6.681881 7.505281
-8.778166 6.866176 7.423166
-8.914296 6.975029 7.369365
-9.050756 7.083461 7.315504
-9.188662 7.189897 7.261411
-9.333159 7.286634 7.206317
-9.478139 7.382641 7.151151
-9.708822 7.525926 7.064395
-9.861922 7.607711 7.008249
-10.013867 7.691705 6.952222
-10.169555 7.768160 6.895853
-10.328909 7.836557 6.839221
-10.487581 7.906559 6.782626
-10.741004 8.002415 6.693963
-10.905321 8.057730 6.637215
-11.069478 8.113499 6.580467
-11.236703 8.159316 6.523850
-11.404843 8.201882 6.467303
-11.572841 8.244954 6.410744
-11.839175 8.296603 6.322882
-12.009828 8.328318 6.266734
-12.181175 8.356276 6.210777
-12.353740 8.376711 6.155260
-12.526314 8.397121 6.099742
-12.699176 8.415268 6.044379
160 NaN NaN
-1.554122 0.778003 10.431363
-1.614937 0.848405 10.392656
-1.677511 0.917263 10.353970
-1.740855 0.985423 10.315298
-1.803995 1.053769 10.276622
-1.865951 1.123177 10.237926
-1.925800 1.194400 10.199218
-1.985149 1.266043 10.160509
-2.048684 1.333986 10.121856
-2.120407 1.393474 10.083700
-2.198403 1.445185 10.046378
-2.277959 1.494768 10.009419
-2.355712 1.546969 9.972240
-2.433404 1.599206 9.934983
-2.514756 1.645786 9.898142
-2.601438 1.682580 9.862395
-2.690921 1.713107 9.827563
-2.780798 1.742708 9.792931
-2.870021 1.773979 9.758072
-2.959532 1.804432 9.723235
-3.050386 1.831063 9.688772
-3.142613 1.853350 9.654856
-3.235485 1.873485 9.621343
-3.328416 1.893657 9.588018
-3.421132 1.914556 9.554541
-3.513532 1.935951 9.520507
-3.605540 1.957612 9.485593
-3.697236 1.979388 9.449936
-3.788755 2.001154 9.413820
-3.880250 2.022857 9.377607
-3.971919 2.044633 9.341881
-4.063953 2.066652 9.307262
-4.156336 2.088963 9.273774
-4.248748 2.111428 9.240471
-4.340875 2.133899 9.206393
-4.432917 2.156313 9.172047
-4.525548 2.178685 9.139303
-4.619301 2.200958 9.109860
-4.714000 2.222587 9.083069
-4.809212 2.242802 9.057004
-4.904516 2.261520 9.030162
-4.999421 2.281774 9.003039
-5.093207 2.307518 8.976770
-5.185312 2.340107 8.952147
-5.277051 2.374521 8.928629
-5.370183 2.405144 8.905412
-5.464163 2.432902 8.881947
-5.555493 2.467830 8.857931
-5.637898 2.520082 8.833702
-5.709827 2.586536 8.810176
-5.778564 2.656554 8.787240
-5.851050 2.722684 8.764377
-5.924681 2.787447 8.741209
-5.992102 2.858324 8.717386
-6.046509 2.939477 8.693146
-6.091306 3.026413 8.668961
-6.133274 3.114771 8.644769
-6.176966 3.202254 8.620456
-6.222084 3.289032 8.596214
-6.267677 3.375644 8.572268
-6.313204 3.462389 8.548679
-6.358633 3.549249 8.525325
-6.403979 3.636178 8.502071
-6.449475 3.723024 8.478796
-6.495506 3.809552 8.455393
-6.542366 3.895576 8.431775
-6.589779 3.981257 8.408015
-6.637246 4.066903 8.384239
-6.684496 4.152685 8.360518
-6.732021 4.238297 8.336730
-6.780466 4.323326 8.312713
-6.830028 4.407629 8.288420
-6.880085 4.491606 8.264006
-6.929959 4.575703 8.239636
-6.979699 4.659891 8.215299
-7.030120 4.743622 8.190796
-7.081972 4.826371 8.165948
-7.134968 4.908310 8.140826
-7.188210 4.990073 8.115645
-7.241031 5.072137 8.090565
-7.294055 5.154057 8.065436
-7.348334 5.235055 8.040012
-7.404409 5.314687 8.014170
-7.461409 5.393592 7.988116
-7.518243 5.472628 7.962099
-7.574677 5.551981 7.936174
-7.631847 5.630749 7.910081
-7.690928 5.707943 7.883558
-7.751794 5.783602 7.856641
-7.813180 5.858801 7.829610
-7.873982 5.934518 7.802705
-7.934758 6.010257 7.775807
-7.996939 6.084733 7.748605
-8.061494 6.156970 7.720901
-8.127461 6.227810 7.692906
-8.193384 6.298695 7.664919
-8.258603 6.370284 7.637077
-8.324408 6.441285 7.609114
-8.392331 6.510083 7.580729
-8.462573 6.576325 7.551894
-8.533646 6.641608 7.522903
-8.604105 6.707603 7.494026
-8.674203 6.774011 7.465218
-8.745568 6.838945 7.436174
-8.819506 6.900710 7.406670
-8.895222 6.960143 7.376864
-8.971100 7.019357 7.347031
-9.046102 7.079747 7.317343
-9.121360 7.139796 7.287613
-9.198507 7.197226 7.257579
-9.278098 7.251021 7.227177
-9.358727 7.303171 7.196631
-9.438894 7.356061 7.166147
-9.518439 7.409936 7.135751
-9.598846 7.462438 7.105236
-9.681469 7.511190 7.074439
-9.765877 7.556664 7.043444
-9.850625 7.601481 7.012413
-9.934597 7.647787 6.981462
-10.018480 7.694261 6.950520
-10.103666 7.738196 6.919450
-10.190869 7.777853 6.888219
-10.279081 7.815180 6.856928
-10.367107 7.852945 6.825647
-10.454522 7.892139 6.794400
-10.542322 7.930435 6.763131
-10.631553 7.965195 6.731804
-10.722148 7.996229 6.700458
-10.813144 8.026083 6.669116
-10.903722 8.057170 6.637769
-10.994096 8.088852 6.606422
-11.085118 8.118612 6.575082
-11.177343 8.144459 6.543795
-11.270281 8.167719 6.512568
-11.363243 8.190885 6.481343
-11.455857 8.215367 6.450084
-11.548585 8.239420 6.418836
-11.642004 8.260731 6.387671
-11.736189 8.278609 6.356642
-11.830660 8.295054 6.325680
-11.924990 8.312215 6.294683
-12.019178 8.330092 6.263653
-12.113618 8.346685 6.232684
-12.208604 8.360170 6.201883
-12.303958 8.371201 6.171234
-12.399377 8.381763 6.140615
-12.494660 8.393315 6.109932
-12.589956 8.404774 6.079254
-12.685501 8.414313 6.048707
-12.781357 8.421008 6.018371
-12.877343 8.426228 5.988155
-12.973312 8.431669 5.957920
-13.069225 8.437763 5.927631
-13.165196 8.443164 5.897400
-13.261317 8.446467 5.867348
-13.357553 8.447577 5.837498
-13.453832 8.447472 5.807766
-13.550117 8.447156 5.778054
-13.646378 8.447632 5.748265
-13.742558 8.449908 5.718306
