0.152592 0.152603 0.152750 0.153400 0.154430 0.155348 0.156266 0.157184 0.158006 0.158525 0.158636 0.158644 0.158652 0.158763 0.159258 0.160044 0.160840 0.161637 0.162434 0.163231 0.163735 0.163843 0.163851 
0.152587 0.152577 0.152476 0.152179 0.151766 0.151379 0.150991 0.150603 0.150233 0.149966 0.149879 0.149871 0.149862 0.149776 0.149519 0.149162 0.148810 0.148457 0.148105 0.147758 0.147508 0.147427 0.147419 0.147410 0.147329 0.147085 0.146745 0.146413 0.146081 0.145749 0.145425 0.145192 0.145116 0.145109 0.145101 0.145025 0.144798 0.144483 0.144173 0.143864 0.143554 0.143249 0.143030 0.142958 0.142950 0.142943 0.142871 0.142653 0.142350 0.142049 0.141748 0.141447 0.141148 0.140934 0.140863 0.140856 0.140848 0.140778 0.140565 0.140270 0.139978 0.139686 0.139394 0.139107 0.138900 0.138832 0.138826 0.138819 0.138751 0.138548 0.138265 0.137988 0.137711 0.137434 0.137163 0.136968 0.136905 0.136898 0.136891 0.136828 0.136637 0.136372 0.136112 0.135853 0.135593 0.135340 0.135158 0.135098 0.135092 0.135086 0.135027 0.134848 0.134600 0.134358 0.134116 0.133874 0.133637 0.133467 0.133411 0.133406 0.133400 0.133344 0.133178 0.132947 0.132720 0.132494 0.132267 0.132046 0.131886 0.131834 0.131829 0.131823 0.131771 0.131615 0.131397 0.131184 0.130971 0.130758 0.130550 0.130400 0.130351 0.130345 
0.152592 0.152599 0.152707 0.152888 0.153174 0.152404 0.151633 0.150863 0.149859 0.149225 0.149085 0.149075 0.149065 0.148925 0.148314 0.147345 0.146411 0.145476 0.144542 0.143623 0.143043 0.142924 0.142916 0.142907 0.142788 0.142301 0.141529 0.140863 0.140197 0.139530 0.138822 0.138375 0.138273 0.138266 0.138258 0.138153 0.137628 0.136796 0.135752 0.134709 0.133665 0.132473 0.131720 0.131500 0.131485 0.131469 0.131235 0.129947 0.127907 0.125959 0.124010 0.122062 0.120764 0.119946 0.119807 0.119797 0.119788 0.119654 0.119152 0.118357 0.117866 0.117375 0.116885 0.116563 0.116359 0.116321 0.116319 0.116316 0.116279 0.116126 0.115883 0.115702 0.115521 0.115339 0.115199 0.115110 0.115092 0.115091 0.115090 0.115072 0.114997 0.114879 0.114778 0.114678 0.114577 0.114490 0.114435 0.114424 0.114423 0.114422 0.114411 0.114362 0.114283 0.114215 0.114146 0.114077 0.114018 0.113980 0.113973 0.113972 0.113972 0.113964 0.113931 0.113878 0.113834 0.113790 0.113746 0.113708 0.113685 0.113680 0.113679 0.113679 0.113674 0.113654 0.113622 0.113596 0.113569 0.113543 0.113521 0.113507 0.113505 0.113504 0.113504 0.113501 0.113490 0.113472 0.113458 0.113444 0.113430 0.113421 0.113415 0.113413 0.113413 
0.158640 0.158626 0.158555 0.158377 0.158140 0.157897 0.157653 0.157410 0.157165 0.156980 0.156906 0.156890 0.156874 0.156799 0.156611 0.156360 0.156112 0.155864 0.155617 0.155378 0.155198 0.155128 0.155113 0.155099 0.155029 0.154859 0.154633 0.154420 0.154208 0.153995 0.153821 0.153690 0.153643 0.153633 0.153623 0.153576 0.153457 0.153300 0.153143 0.152986 0.152829 0.152672 0.152554 0.152506 0.152497 0.152487 0.152439 0.152319 0.152160 0.152001 0.151841 0.151681 0.151520 0.151399 0.151351 0.151341 0.151331 0.151282 0.151160 0.150998 0.150834 0.150670 0.150506 0.150344 0.150222 0.150174 0.150164 0.150154 0.150107 0.149988 0.149829 0.149687 0.149544 0.149401 0.149280 0.149188 0.149155 0.149148 0.149141 0.149107 0.149027 0.148919 0.148840 0.148760 0.148680 0.148624 0.148581 0.148566 0.148563 0.148560 0.148545 0.148512 0.148468 0.148442 0.148417 0.148391 0.148381 0.148374 0.148371 0.148371 0.148370 0.148368 0.148365 0.148361 0.148366 0.148370 0.148375 0.148390 0.148401 0.148405 0.148406 0.148407 0.148412 0.148425 0.148443 0.148466 0.148489 0.148512 0.148541 0.148562 0.148571 0.148573 0.148575 0.148583 0.148607 0.148638 0.148671 0.148705 0.148738 0.148775 0.148803 0.148814 0.148816 
0.145107 0.145103 0.145087 0.145049 0.144999 0.144948 0.144896 0.144845 0.144791 0.144751 0.144733 0.144728 0.144724 0.144706 0.144666 0.144612 0.144558 0.144504 0.144449 0.144396 0.144355 0.144338 0.144333 0.144328 0.144311 0.144271 0.144218 0.144167 0.144115 0.144064 0.144014 0.143977 0.143961 0.143957 0.143953 0.143938 0.143903 0.143857 0.143811 0.143765 0.143719 0.143677 0.143645 0.143631 0.143628 0.143624 0.143611 0.143580 0.143539 0.143497 0.143455 0.143412 0.143370 0.143338 0.143323 0.143320 0.143316 0.143302 0.143267 0.143222 0.143176 0.143130 0.143083 0.143035 0.142999 0.142984 0.142979 0.142975 0.142960 0.142923 0.142874 0.142825 0.142776 0.142727 0.142679 0.142642 0.142626 0.142622 0.142618 0.142602 0.142565 0.142516 0.142473 0.142430 0.142387 0.142351 0.142324 0.142314 0.142312 0.142309 0.142300 0.142281 0.142255 0.142234 0.142212 0.142191 0.142177 0.142166 0.142162 0.142161 0.142160 0.142155 0.142147 0.142137 0.142134 0.142130 0.142127 0.142125 0.142123 0.142125 0.142125 0.142125 0.142127 0.142130 0.142133 0.142139 0.142145 0.142151 0.142160 0.142167 0.142170 0.142171 0.142172 0.142175 0.142182 0.142193 0.142206 0.142218 0.142231 0.142245 0.142256 0.142261 0.142262 0.142264 0.142269 0.142281 0.142298 0.142315 0.142332 0.142349 0.142368 0.142382 0.142389 0.142390 0.142392 0.142398 0.142413 0.142433 0.142454 0.142476 0.142497 0.142519 0.142536 0.142544 0.142546 0.142548 0.142555 0.142573 0.142597 0.142621 0.142645 0.142670 0.142695 0.142714 0.142723 0.142725 
0.140854 0.140850 0.140831 0.140787 0.140728 0.140669 0.140609 0.140550 0.140489 0.140443 0.140424 0.140419 0.140414 0.140395 0.140349 0.140288 0.140228 0.140167 0.140106 0.140046 0.140000 0.139981 0.139976 0.139971 0.139952 0.139906 0.139845 0.139786 0.139726 0.139666 0.139607 0.139562 0.139544 0.139539 0.139534 0.139516 0.139472 0.139414 0.139357 0.139299 0.139241 0.139184 0.139142 0.139124 0.139119 0.139115 0.139097 0.139054 0.138997 0.138942 0.138888 0.138834 0.138779 0.138737 0.138721 0.138717 0.138713 0.138696 0.138657 0.138605 0.138555 0.138504 0.138453 0.138405 0.138369 0.138354 0.138350 0.138346 0.138331 0.138297 0.138252 0.138228 0.138205 0.138181 0.138165 0.138153 0.138148 0.138147 0.138146 0.138142 0.138132 0.138120 0.138114 0.138109 0.138104 0.138100 0.138097 0.138095 0.138095 0.138095 0.138096 0.138099 0.138102 0.138107 0.138112 0.138117 0.138126 0.138134 0.138137 0.138137 0.138138 0.138141 0.138149 0.138160 0.138175 0.138190 0.138205 0.138221 0.138234 0.138240 0.138242 0.138243 0.138250 0.138265 0.138284 0.138307 0.138330 0.138352 0.138377 0.138396 0.138403 0.138405 0.138408 0.138415 0.138437 0.138465 0.138494 0.138523 0.138552 0.138585 0.138610 0.138621 0.138624 
0.138825 0.138822 0.138812 0.138790 0.138761 0.138730 0.138700 0.138669 0.138638 0.138614 0.138603 0.138600 0.138597 0.138586 0.138562 0.138529 0.138496 0.138464 0.138431 0.138397 0.138372 0.138360 0.138357 0.138354 0.138342 0.138316 0.138282 0.138247 0.138212 0.138178 0.138143 0.138116 0.138104 0.138101 0.138097 0.138086 0.138059 0.138024 0.137988 0.137952 0.137917 0.137881 0.137854 0.137842 0.137838 0.137835 0.137822 0.137795 0.137758 0.137722 0.137686 0.137650 0.137613 0.137585 0.137573 0.137570 0.137566 0.137554 0.137526 0.137490 0.137454 0.137418 0.137381 0.137345 0.137318 0.137306 0.137302 0.137299 0.137287 0.137260 0.137225 0.137189 0.137154 0.137119 0.137085 0.137059 0.137048 0.137044 0.137041 0.137030 0.137004 0.136969 0.136937 0.136906 0.136874 0.136849 0.136830 0.136826 0.136824 0.136823 0.136818 0.136812 0.136802 0.136793 0.136784 0.136774 0.136768 0.136763 0.136762 0.136761 0.136761 0.136759 0.136756 0.136751 0.136748 0.136744 0.136741 0.136739 0.136738 0.136737 0.136737 0.136737 0.136736 0.136735 0.136733 0.136734 0.136734 0.136735 0.136736 0.136737 0.136737 0.136738 0.136738 0.136739 0.136742 0.136746 0.136749 0.136752 0.136756 0.136761 0.136766 0.136768 0.136768 0.136769 0.136771 0.136775 0.136781 0.136789 0.136797 0.136804 0.136813 0.136820 0.136823 0.136823 0.136824 0.136827 0.136835 0.136845 0.136857 0.136868 0.136880 0.136892 0.136901 0.136906 0.136907 
0.136897 0.136895 0.136884 0.136856 0.136819 0.136780 0.136741 0.136702 0.136661 0.136630 0.136618 0.136615 0.136612 0.136600 0.136568 0.136525 0.136482 0.136438 0.136394 0.136349 0.136315 0.136302 0.136299 0.136296 0.136282 0.136247 0.136201 0.136155 0.136108 0.136062 0.136015 0.135980 0.135966 0.135963 0.135959 0.135945 0.135910 0.135863 0.135816 0.135769 0.135722 0.135675 0.135640 0.135626 0.135623 0.135620 0.135606 0.135571 0.135525 0.135479 0.135434 0.135389 0.135345 0.135312 0.135299 0.135296 0.135293 0.135280 0.135250 0.135210 0.135197 0.135183 0.135170 0.135160 0.135152 0.135150 0.135149 0.135148 0.135146 0.135139 0.135130 0.135124 0.135118 0.135112 0.135108 0.135104 0.135103 0.135103 0.135103 0.135102 0.135099 0.135095 0.135094 0.135093 0.135092 0.135092 0.135093 0.135093 0.135093 0.135094 0.135094 0.135096 0.135097 0.135102 0.135107 0.135112 0.135119 0.135125 0.135127 0.135128 
0.135092 0.135089 0.135083 0.135068 0.135050 0.135030 0.135011 0.134991 0.134971 0.134955 0.134948 0.134946 0.134943 0.134936 0.134920 0.134900 0.134879 0.134858 0.134838 0.134817 0.134801 0.134793 0.134790 0.134788 0.134780 0.134764 0.134743 0.134721 0.134700 0.134678 0.134656 0.134640 0.134632 0.134629 0.134626 0.134618 0.134602 0.134580 0.134558 0.134535 0.134513 0.134491 0.134474 0.134466 0.134464 0.134461 0.134453 0.134436 0.134413 0.134390 0.134368 0.134345 0.134323 0.134306 0.134298 0.134295 0.134292 0.134284 0.134267 0.134244 0.134222 0.134200 0.134178 0.134156 0.134139 0.134131 0.134128 0.134126 0.134118 0.134101 0.134079 0.134057 0.134035 0.134013 0.133991 0.133975 0.133967 0.133964 0.133961 0.133953 0.133937 0.133915 0.133893 0.133872 0.133850 0.133829 0.133813 0.133805 0.133802 0.133799 0.133792 0.133775 0.133754 0.133733 0.133712 0.133691 0.133671 0.133655 0.133647 0.133645 0.133643 0.133637 0.133629 0.133617 0.133608 0.133599 0.133590 0.133582 0.133575 0.133572 0.133571 0.133570 0.133567 0.133561 0.133552 0.133545 0.133539 0.133532 0.133525 0.133520 0.133517 0.133517 0.133516 0.133513 0.133509 0.133502 0.133497 0.133492 0.133487 0.133482 0.133477 0.133475 0.133475 0.133474 0.133472 0.133468 0.133463 0.133459 0.133454 0.133450 0.133445 0.133441 0.133440 0.133439 0.133438 0.133437 0.133434 0.133430 0.133426 0.133422 0.133419 0.133415 0.133412 0.133410 0.133410 0.133410 0.133408 0.133407 0.133404 0.133402 0.133399 0.133396 0.133394 0.133392 0.133391 0.133391 0.133391 0.133390 0.133389 0.133388 0.133387 0.133385 0.133384 0.133383 0.133382 0.133382 0.133382 
0.131828 0.131828 0.131823 0.131808 0.131789 0.131765 0.131742 0.131718 0.131691 0.131671 0.131663 0.131662 0.131661 0.131653 0.131630 0.131601 0.131570 0.131539 0.131508 0.131475 0.131451 0.131442 0.131440 0.131439 0.131430 0.131405 0.131372 0.131339 0.131306 0.131273 0.131241 0.131217 0.131207 0.131206 0.131205 0.131195 0.131172 0.131140 0.131122 0.131104 0.131087 0.131094 0.131099 0.131101 0.131101 0.131101 0.131103 0.131110 0.131118 0.131127 0.131137 0.131146 0.131156 0.131164 0.131167 0.131167 0.131167 0.131170 0.131178 0.131189 0.131203 0.131216 0.131230 0.131246 0.131258 0.131263 0.131264 
0.130345 0.130343 0.130332 0.130300 0.130257 0.130213 0.130169 0.130126 0.130081 0.130047 0.130035 0.130033 0.130031 0.130018 0.129984 0.129939 0.129895 0.129851 0.129807 0.129764 0.129731 0.129719 0.129718 0.129716 0.129704 0.129672 0.129630 0.129591 0.129552 0.129512 0.129475 0.129446 0.129436 0.129435 0.129433 0.129423 0.129397 0.129361 0.129337 0.129314 0.129290 0.129291 0.129292 0.129294 0.129294 0.129294 0.129295 0.129299 0.129304 0.129313 0.129322 0.129330 0.129341 0.129349 0.129353 0.129354 0.129354 0.129358 0.129368 0.129382 0.129399 0.129415 0.129432 0.129452 0.129467 0.129474 0.129475 
