-1.016856 0.426468 0.088094
-1.020610 0.433478 0.096739
-1.024365 0.440488 0.105384
-1.199402 0.766502 0.503397
-1.374399 1.091360 0.894810
-1.587805 1.444309 1.104678
-1.775620 1.627120 0.640502
-1.026721 0.444889 0.110811
-1.198765 0.765311 0.501922
-1.200039 0.767693 0.504872
-1.373871 1.090307 0.893194
-1.374928 1.092413 0.896426
-1.586867 1.443099 1.105965
-1.588742 1.445519 1.103391
-1.774856 1.626475 0.642234
-1.036018 0.462250 0.132221
-1.189499 0.747989 0.480468
-1.209306 0.785016 0.526327
-1.364792 1.073221 0.871484
-1.382616 1.107732 0.919931
-1.573229 1.425498 1.124685
-1.602381 1.463120 1.084671
-1.763739 1.617089 0.667425
-1.056126 0.499746 0.178208
-1.078750 0.541859 0.229505
-1.101470 0.584091 0.280662
-1.124185 0.626318 0.331826
-1.146881 0.668521 0.383018
-1.169459 0.710578 0.434382
-1.229146 0.822178 0.572700
-1.251534 0.863997 0.624339
-1.274157 0.906110 0.675636
-1.297699 0.949358 0.725558
-1.321434 0.992844 0.775180
-1.345035 1.036164 0.824992
-1.399173 1.140723 0.970553
-1.417107 1.176874 1.027896
-1.438628 1.217534 1.080309
-1.464532 1.263499 1.125447
-1.500752 1.320465 1.144416
-1.539057 1.377099 1.141401
-1.626671 1.491957 1.036003
-1.649306 1.516029 0.974192
-1.669087 1.534010 0.909368
-1.690775 1.553405 0.845599
-1.714169 1.574116 0.782851
-1.740015 1.596849 0.721761
-2.255384 1.867735 -0.626971
-2.598849 1.936906 -1.960253
-3.247283 2.166506 -3.120008
-4.290386 2.696741 -3.840553
-4.980312 3.545949 -4.638723
-5.281756 4.501816 -5.586439
-5.633521 5.410437 -6.562613
-6.061088 6.231970 -7.584153
-6.589228 6.922303 -8.653764
-7.226643 7.447061 -9.757012
-7.969713 7.779307 -10.869063
-8.795069 7.921380 -11.963826
-1.776384 1.627766 0.638770
-2.254754 1.867555 -0.625081
-2.256015 1.867916 -0.628860
-2.598306 1.936760 -1.958333
-2.599392 1.937052 -1.962172
-3.245882 2.165965 -3.118688
-3.248685 2.167046 -3.121328
-4.288963 2.695741 -3.839566
-4.291809 2.697742 -3.841540
-4.979957 3.544560 -4.637329
-4.980668 3.547338 -4.640118
-5.281288 4.500454 -5.585052
-5.282224 4.503179 -5.587826
-5.632966 5.409169 -6.561169
-5.634075 5.411706 -6.564056
-6.060389 6.230878 -7.582631
-6.061787 6.233062 -7.585676
-6.588384 6.921413 -8.652184
-6.590071 6.923193 -8.655345
-7.225648 7.446419 -9.755400
-7.227638 7.447703 -9.758624
-7.968574 7.778957 -10.867457
-7.970853 7.779656 -10.870669
-8.793819 7.921327 -11.962266
-1.787407 1.636892 0.613448
-2.245584 1.864927 -0.597599
-2.265184 1.870544 -0.656342
-2.590475 1.934706 -1.930392
-2.607284 1.939172 -1.990091
-3.225492 2.158101 -3.099487
-3.269043 2.174975 -3.140536
-4.268264 2.681192 -3.825207
-4.312507 2.712290 -3.855898
-4.974783 3.524360 -4.617045
-4.985841 3.567538 -4.660402
-5.274574 4.480543 -5.564934
-5.289031 4.522995 -5.608007
-5.624901 5.390721 -6.540172
-5.642159 5.430133 -6.585064
-6.050219 6.214990 -7.560485
-6.071957 6.248950 -7.607821
-6.576058 6.908560 -8.629182
-6.602338 6.936135 -8.678328
-7.211179 7.437082 -9.731954
-7.242231 7.456815 -9.782080
-7.951995 7.773873 -10.844099
-7.987431 7.784740 -10.894026
-8.775659 7.920476 -11.939557
-1.836184 1.674154 0.495740
-1.911357 1.723276 0.305550
-1.986678 1.764185 0.113455
-2.061797 1.800610 -0.079620
-2.133330 1.829236 -0.275329
-2.202343 1.851743 -0.472764
-2.304480 1.880642 -0.782751
-2.361809 1.892707 -0.984785
-2.418096 1.903756 -1.187170
-2.468284 1.912845 -1.391229
-2.511629 1.919245 -1.596968
-2.556451 1.926573 -1.802334
-2.641523 1.948075 -2.118052
-2.695707 1.962062 -2.320768
-2.784012 1.991965 -2.508845
-2.885712 2.028201 -2.689350
-2.991448 2.066431 -2.866691
-3.131582 2.121432 -3.013104
-3.363000 2.212669 -3.226381
-3.520917 2.283244 -3.345709
-3.684582 2.358218 -3.454531
-3.847201 2.436630 -3.562431
-4.007469 2.527604 -3.663798
-4.169487 2.619455 -3.761594
-4.402395 2.783493 -3.922792
-4.545784 2.896894 -4.026833
-4.677689 3.016775 -4.137566
-4.776519 3.152861 -4.263632
-4.873078 3.290470 -4.390058
-4.947506 3.432320 -4.525419
-5.011682 3.659615 -4.752489
-5.057557 3.805683 -4.896746
-5.103155 3.952695 -5.040133
-5.148857 4.099601 -5.183593
-5.195856 4.245193 -5.327970
-5.244004 4.389590 -5.473168
-5.320395 4.613120 -5.700319
-5.371410 4.754519 -5.847474
-5.423342 4.894946 -5.995238
-5.476701 5.033839 -6.143940
-5.531807 5.170828 -6.293767
-5.588420 5.306151 -6.444543
-5.679819 5.513363 -6.681409
-5.741274 5.643167 -6.835111
-5.804023 5.771448 -6.989569
-5.869021 5.897043 -7.145289
-5.936834 6.019206 -7.302540
-6.005399 6.140427 -7.460196
-6.119013 6.320616 -7.709199
-6.193543 6.434186 -7.869817
-6.270977 6.543869 -8.031725
-6.352608 6.647769 -8.195407
-6.434079 6.751890 -8.359027
-6.519787 6.849917 -8.524195
-6.658362 6.995158 -8.783236
-6.750050 7.084194 -8.950289
-6.845911 7.166615 -9.118417
-6.942402 7.248031 -9.286677
-7.042481 7.323467 -9.455609
-7.145512 7.393808 -9.624983
-7.309689 7.496839 -9.889199
-7.418843 7.555973 -10.059014
-7.529907 7.611414 -10.228838
-7.643206 7.662388 -10.398582
-7.758981 7.708206 -10.568125
-7.876824 7.749547 -10.737399
-8.063935 7.805968 -11.000438
-8.187016 7.835069 -11.168526
-8.311062 7.861775 -11.336305
-8.437137 7.883144 -11.503313
-8.565143 7.899233 -11.669464
-8.693622 7.913978 -11.835373
192 NaN NaN
-1.014979 0.422962 0.083771
-1.047145 0.483027 0.157843
-1.079617 0.543473 0.231471
-1.112232 0.604096 0.304889
-1.144825 0.664691 0.378340
-1.177231 0.725055 0.452064
-1.209290 0.784986 0.526290
-1.241162 0.844685 0.600785
-1.273602 0.905089 0.674458
-1.307389 0.967161 0.746108
-1.341650 1.029814 0.817026
-1.373378 1.089326 0.891689
-1.399963 1.142298 0.972970
-1.425658 1.194121 1.055294
-1.461099 1.258100 1.123649
-1.512466 1.338888 1.150550
-1.568409 1.419277 1.131301
-1.615054 1.479475 1.067275
-1.647807 1.514666 0.979106
-1.676197 1.540474 0.886067
-1.708852 1.569440 0.795418
-1.745947 1.602066 0.707740
-1.784407 1.634540 0.620591
-1.821699 1.663774 0.531809
-1.857934 1.689739 0.441580
-1.893766 1.712973 0.350450
-1.929668 1.734000 0.258810
-1.965699 1.753444 0.166871
-2.001863 1.771958 0.074793
-2.037972 1.789692 -0.017461
-2.073517 1.805981 -0.110197
-2.107964 1.820108 -0.203698
-2.141319 1.832111 -0.297890
-2.174219 1.842881 -0.392392
-2.207282 1.853299 -0.486878
-2.240197 1.863382 -0.581451
-2.271919 1.872474 -0.676528
-2.301506 1.879983 -0.772428
-2.329315 1.886143 -0.868956
-2.356430 1.891639 -0.965722
-2.383724 1.897058 -1.062442
-2.410715 1.902352 -1.159254
-2.436410 1.907241 -1.256438
-2.460051 1.911492 -1.354171
-2.481863 1.915078 -1.452356
-2.502324 1.918030 -1.550853
-2.522224 1.920629 -1.649476
-2.543189 1.923840 -1.747857
-2.566964 1.928739 -1.845522
-2.593771 1.935542 -1.942288
-2.621076 1.942876 -2.038879
-2.646190 1.949261 -2.136124
-2.670080 1.955025 -2.233719
-2.698409 1.962804 -2.329948
-2.736813 1.975286 -2.422043
-2.784209 1.992035 -2.509208
-2.834262 2.010050 -2.594644
-2.881700 2.026793 -2.681802
-2.928308 2.043140 -2.769488
-2.980405 2.062163 -2.853405
-3.042798 2.086279 -2.928475
-3.112357 2.113853 -2.995751
-3.184060 2.142122 -3.060470
-3.254600 2.169328 -3.126898
-3.324985 2.196849 -3.193360
-3.397457 2.227009 -3.256311
-3.473137 2.261026 -3.313236
-3.550826 2.297151 -3.366036
-3.629292 2.333282 -3.417675
-3.707697 2.368643 -3.469938
-3.785712 2.405085 -3.522038
-3.863015 2.444743 -3.572820
-3.939610 2.487985 -3.621725
-4.016232 2.532720 -3.669231
-4.093691 2.576828 -3.715959
-4.171367 2.620512 -3.762726
-4.247131 2.666338 -3.810547
-4.318726 2.716661 -3.860212
-4.386723 2.770706 -3.911043
-4.454153 2.825724 -3.961593
-4.523543 2.879483 -4.010822
-4.592483 2.933449 -4.060448
-4.655816 2.990843 -4.113495
-4.708704 3.053546 -4.171698
-4.754153 3.119371 -4.232760
-4.798512 3.185793 -4.293990
-4.845795 3.251341 -4.353961
-4.891692 3.317166 -4.414685
-4.929617 3.384769 -4.478776
-4.955709 3.454126 -4.546808
-4.974693 3.524008 -4.616692
-4.992591 3.593894 -4.686867
-5.012855 3.663653 -4.756522
-5.034682 3.733427 -4.825691
-5.056850 3.803417 -4.894532
-5.078748 3.873678 -4.963183
-5.100493 3.944078 -5.031741
-5.122242 4.014476 -5.100299
-5.144141 4.084730 -5.168957
-5.166328 4.154696 -5.237817
-5.188917 4.224246 -5.306967
-5.211842 4.293447 -5.376356
-5.234927 4.362480 -5.445859
-5.258034 4.431492 -5.515376
-5.281263 4.500379 -5.584975
-5.304810 4.568936 -5.654794
-5.328820 4.637007 -5.724930
-5.353208 4.704677 -5.795322
-5.377830 4.772100 -5.865870
-5.402600 4.839367 -5.936516
-5.427609 4.906379 -6.007319
-5.452978 4.973005 -6.078358
-5.478777 5.039163 -6.149679
-5.504980 5.104880 -6.221259
-5.531546 5.170199 -6.293070
-5.558448 5.235148 -6.365092
-5.585672 5.299739 -6.437314
-5.613208 5.363977 -6.509732
-5.641112 5.427800 -6.582375
-5.669500 5.491073 -6.655312
-5.698477 5.553670 -6.728600
-5.727970 5.615669 -6.802189
-5.757783 5.677291 -6.875967
-5.787762 5.738715 -6.949841
-5.818078 5.799741 -7.023908
-5.849056 5.859977 -7.098346
-5.880922 5.919137 -7.173271
-5.913410 5.977531 -7.248528
-5.946093 6.035680 -7.323892
-5.978741 6.093871 -7.399239
-6.011781 6.151573 -7.474789
-6.045784 6.208061 -7.550827
-6.080968 6.263026 -7.627442
-6.116758 6.317192 -7.704346
-6.152483 6.371440 -7.781223
-6.188012 6.425945 -7.858009
-6.224097 6.479718 -7.935049
-6.261533 6.531676 -8.012686
-6.300326 6.581757 -8.090890
-6.339614 6.631138 -8.169294
-6.378563 6.680991 -8.247567
-6.417328 6.731107 -8.325765
-6.456856 6.780150 -8.404257
-6.497985 6.826885 -8.483330
-6.540404 6.871698 -8.562838
-6.583197 6.915940 -8.642465
-6.625638 6.960718 -8.721982
-6.668124 7.005432 -8.801509
-6.711491 7.048812 -8.881298
-6.756305 7.089934 -8.961481
-6.802104 7.129472 -9.041906
-6.848189 7.168547 -9.122395
-6.894167 7.207800 -9.202858
-6.940479 7.246516 -9.283390
-6.987698 7.283730 -9.364100
-7.036053 7.319017 -9.445005
-7.085151 7.353013 -9.526015
-7.134552 7.386480 -9.607063
-7.184134 7.419631 -9.688130
-7.234193 7.451932 -9.769245
-7.285032 7.482818 -9.850426
-7.336686 7.512191 -9.931654
-7.388949 7.540411 -10.012903
-7.441626 7.567833 -10.094157
-7.494695 7.594495 -10.175409
-7.548237 7.620222 -10.256652
-7.602328 7.644849 -10.337872
-7.656992 7.668303 -10.419056
-7.712228 7.690557 -10.500190
-7.768021 7.711619 -10.581261
-7.824281 7.731665 -10.662268
-7.880894 7.750932 -10.743218
-7.937810 7.769523 -10.824113
-7.995165 7.787112 -10.904922
-8.053128 7.803275 -10.985594
-8.111737 7.817881 -11.066096
-8.170764 7.831456 -11.146474
-8.229961 7.844615 -11.226797
-8.289283 7.857461 -11.307078
-8.349000 7.869290 -11.387221
-8.409383 7.879356 -11.467104
-8.470400 7.887684 -11.546707
-8.531722 7.895157 -11.626161
-8.593044 7.902636 -11.705614
-8.654413 7.909981 -11.785043
-8.716144 7.916273 -11.864281
-8.778503 7.920677 -11.943153
-8.841416 7.923347 -12.021663
-8.904652 7.924979 -12.099942
-8.967992 7.926271 -12.178144
-9.031222 7.927921 -12.256428
-9.094124 7.930628 -12.334945
