-2.434365 -1.326591 10.648651
-1.850741 -1.484604 11.687973
-1.267117 -1.642616 12.727296
-2.433395 -1.326854 10.650379
-1.851712 -1.484341 11.686245
-1.849770 -1.484866 11.689702
-1.268088 -1.642354 12.725567
-2.420994 -1.330211 10.672462
-1.864113 -1.480983 11.664162
-1.837370 -1.488224 11.711785
-1.280488 -1.638996 12.703484
-2.364860 -1.345409 10.772426
-2.275937 -1.369484 10.930781
-2.187015 -1.393560 11.089135
-2.098092 -1.417635 11.247489
-2.009169 -1.441710 11.405844
-1.920246 -1.465785 11.564198
-1.781236 -1.503422 11.811749
-1.692313 -1.527497 11.970103
-1.603390 -1.551572 12.128458
-1.514468 -1.575648 12.286812
-1.425545 -1.599723 12.445166
-1.336622 -1.623798 12.603521
28 NaN NaN
-2.434608 -1.326525 10.648219
-2.383616 -1.340331 10.739025
-2.332624 -1.354137 10.829832
-2.281633 -1.367942 10.920639
-2.230641 -1.381748 11.011445
-2.179649 -1.395554 11.102252
-2.128657 -1.409360 11.193059
-2.077665 -1.423165 11.283866
-2.026673 -1.436971 11.374672
-1.975681 -1.450777 11.465479
-1.924689 -1.464583 11.556286
-1.873698 -1.478388 11.647092
-1.822706 -1.492194 11.737899
-1.771714 -1.506000 11.828706
-1.720722 -1.519806 11.919513
-1.669730 -1.533611 12.010319
-1.618738 -1.547417 12.101126
-1.567746 -1.561223 12.191933
-1.516755 -1.575028 12.282740
-1.465763 -1.588834 12.373546
-1.414771 -1.602640 12.464353
-1.363779 -1.616446 12.555160
-1.312787 -1.630251 12.645966
-1.261795 -1.644057 12.736773
-1.210803 -1.657863 12.827580
-1.159812 -1.671669 12.918387
-1.108820 -1.685474 13.009193
-1.057828 -1.699280 13.100000
-2.434254 -1.326676 10.647899
-2.111114 -1.459803 10.329447
-1.817865 -1.569653 9.975189
-1.557315 -1.655689 9.590112
-1.333873 -1.716228 9.177844
-1.152544 -1.749322 8.742503
-1.020124 -1.752101 8.288740
-0.945204 -1.720988 7.823124
-0.923995 -1.659268 7.354822
-0.935668 -1.578485 6.888908
-0.958712 -1.489629 6.424828
-0.974738 -1.402397 5.960159
-0.977934 -1.323110 5.493818
-0.965984 -1.257432 5.025528
-0.936939 -1.210787 4.555726
-0.892399 -1.182773 4.085629
-0.836783 -1.167938 3.616088
-0.774589 -1.160531 3.147183
-0.709388 -1.156003 2.678647
-0.642367 -1.153094 2.210355
-0.574311 -1.151105 1.742207
-0.506018 -1.149325 1.274092
-0.438273 -1.147059 0.805900
-0.371882 -1.143590 0.337522
-2.432840 -1.327278 10.646619
-2.112424 -1.459285 10.330867
-2.109804 -1.460321 10.328027
-1.819034 -1.569241 9.976759
-1.816696 -1.570064 9.973619
-1.558326 -1.655389 9.591811
-1.556303 -1.655990 9.588413
-1.334741 -1.716022 9.179634
-1.333004 -1.716433 9.176054
-1.153208 -1.749247 8.744388
-1.151880 -1.749397 8.740618
-1.020546 -1.752171 8.290694
-1.019702 -1.752030 8.286786
-0.945408 -1.721183 7.825103
-0.944999 -1.720792 7.821144
-0.923998 -1.659579 7.356798
-0.923993 -1.658957 7.352846
-0.935576 -1.578854 6.890872
-0.935760 -1.578116 6.886944
-0.958617 -1.490008 6.426789
-0.958806 -1.489251 6.422866
-0.974696 -1.402753 5.962127
-0.974780 -1.402041 5.958191
-0.977955 -1.323417 5.495795
-0.977912 -1.322804 5.491842
-0.966064 -1.257679 5.027511
-0.965903 -1.257185 5.023544
-0.937097 -1.210942 4.557714
-0.936780 -1.210633 4.553738
-0.892617 -1.182856 4.087616
-0.892181 -1.182690 4.083643
-0.837033 -1.167984 3.618072
-0.836533 -1.167893 3.614104
-0.774860 -1.160554 3.149164
-0.774318 -1.160507 3.145202
-0.709669 -1.156018 2.680627
-0.709108 -1.155989 2.676667
-0.642653 -1.153104 2.212334
-0.642082 -1.153083 2.208375
-0.574600 -1.151112 1.744186
-0.574022 -1.151097 1.740228
-0.506306 -1.149334 1.276071
-0.505730 -1.149317 1.272113
-0.438558 -1.147071 0.807880
-0.437988 -1.147048 0.803921
-0.372159 -1.143608 0.339503
-2.420069 -1.332716 10.635069
-2.124251 -1.454609 10.343686
-2.097976 -1.464997 10.315209
-1.829585 -1.565525 9.990934
-1.806145 -1.573780 9.959444
-1.567714 -1.652496 9.606962
-1.547174 -1.658704 9.573071
-1.342586 -1.714166 9.195792
-1.325159 -1.718289 9.159896
-1.159204 -1.748567 8.761407
-1.145884 -1.750077 8.723598
-1.024661 -1.752630 8.308268
-1.015892 -1.751391 8.269147
-0.947252 -1.722953 7.842979
-0.943155 -1.719022 7.803268
-0.924019 -1.662384 7.374636
-0.923972 -1.656152 7.335008
-0.934787 -1.582153 6.908607
-0.936592 -1.574787 6.869216
-0.957767 -1.493426 6.444500
-0.959657 -1.485833 6.405155
-0.974318 -1.405965 5.979892
-0.975159 -1.398829 5.940426
-0.978123 -1.326206 5.513634
-0.977716 -1.320040 5.473998
-0.966789 -1.259907 5.045416
-0.965151 -1.254988 5.005637
-0.938527 -1.212336 4.575660
-0.935350 -1.209238 4.535791
-0.894584 -1.183605 4.105550
-0.890213 -1.181943 4.065709
-0.839289 -1.168395 3.635983
-0.834256 -1.167505 3.596195
-0.777303 -1.160768 3.167055
-0.771875 -1.160294 3.127311
-0.712202 -1.156152 2.698506
-0.706575 -1.155855 2.658788
-0.645233 -1.153196 2.230206
-0.639497 -1.152996 2.190504
-0.577207 -1.151180 1.762054
-0.571415 -1.151029 1.722359
-0.508907 -1.149407 1.293941
-0.503130 -1.149244 1.254244
-0.441128 -1.147171 0.825753
-0.435428 -1.146939 0.786046
-0.374660 -1.143770 0.357386
-2.384794 -1.347735 10.603164
-2.338123 -1.367421 10.559869
-2.291862 -1.386767 10.515976
-2.246445 -1.405426 10.470919
-2.201471 -1.423730 10.425283
-2.156931 -1.441687 10.379081
-2.065824 -1.477511 10.279192
-2.023132 -1.494026 10.230763
-1.981312 -1.509875 10.181357
-1.939998 -1.525345 10.131415
-1.899138 -1.540473 10.080992
-1.859218 -1.554903 10.029620
-1.777083 -1.583984 9.920214
-1.739143 -1.596977 9.866991
-1.701783 -1.609555 9.813266
-1.664919 -1.621780 9.759114
-1.629051 -1.633305 9.704145
-1.593756 -1.644430 9.648730
-1.521959 -1.666202 9.530694
-1.488947 -1.675758 9.473605
-1.456486 -1.684941 9.416136
-1.425096 -1.693403 9.357963
-1.394384 -1.701415 9.299372
-1.364254 -1.709040 9.240424
-1.304294 -1.722894 9.114829
-1.276769 -1.728817 9.054431
-1.250415 -1.733987 8.993442
-1.224871 -1.738642 8.932073
-1.199988 -1.742876 8.870399
-1.176405 -1.746291 8.808165
-1.129538 -1.751822 8.676510
-1.108918 -1.753401 8.613160
-1.089272 -1.754386 8.549495
-1.070385 -1.754909 8.485592
-1.052936 -1.754565 8.421278
-1.036473 -1.753632 8.356717
-1.005371 -1.749627 8.220423
-0.992480 -1.746588 8.155120
-0.980457 -1.743044 8.089673
-0.970016 -1.738587 8.024006
-0.960735 -1.733468 7.958222
-0.952345 -1.727839 7.892355
-0.939184 -1.713500 7.753858
-0.934265 -1.705902 7.687838
-0.930585 -1.697603 7.621818
-0.927784 -1.688805 7.555825
-0.925613 -1.679649 7.489854
-0.924480 -1.669902 7.423940
-0.924095 -1.648297 7.285754
-0.924926 -1.637414 7.220013
-0.926282 -1.626219 7.154335
-0.927985 -1.614816 7.088700
-0.930211 -1.603092 7.023137
-0.932755 -1.591164 6.957623
-0.938888 -1.565592 6.820247
-0.942112 -1.553177 6.754852
-0.945416 -1.540688 6.689476
-0.948787 -1.528108 6.624121
-0.952125 -1.515494 6.558770
-0.955417 -1.502867 6.493420
-0.961782 -1.476450 6.356214
-0.964544 -1.463941 6.290817
-0.967044 -1.451523 6.225391
-0.969293 -1.439214 6.159936
-0.971368 -1.426986 6.094460
-0.973148 -1.414909 6.028947
-0.976103 -1.390024 5.891341
-0.977105 -1.378429 5.825724
-0.977804 -1.367052 5.760066
-0.978301 -1.355825 5.694381
-0.978468 -1.344854 5.628650
-0.978326 -1.334143 5.562876
-0.977174 -1.312405 5.424711
-0.976090 -1.302543 5.358814
-0.974777 -1.292903 5.292888
-0.973105 -1.283618 5.226919
-0.971069 -1.274711 5.160908
-0.968790 -1.266060 5.094872
-0.962759 -1.249274 4.956145
-0.959411 -1.241815 4.890009
-0.955681 -1.234803 4.823844
-0.951537 -1.228288 4.757653
-0.947136 -1.222082 4.691449
-0.942347 -1.216345 4.625229
-0.931256 -1.205560 4.486219
-0.925521 -1.200966 4.419985
-0.919445 -1.196783 4.353754
-0.913170 -1.192838 4.287528
-0.906610 -1.189237 4.221309
-0.899769 -1.185972 4.155101
-0.884775 -1.179878 4.016171
-0.877253 -1.177422 3.950002
-0.869592 -1.175132 3.883844
-0.861739 -1.173067 3.817700
-0.853687 -1.171234 3.751573
-0.845521 -1.169532 3.685457
-0.827879 -1.166532 3.546736
-0.819303 -1.165294 3.480661
-0.810619 -1.164176 3.414599
-0.801820 -1.163177 3.348549
-0.792965 -1.162237 3.282506
-0.784033 -1.161373 3.216473
-0.765098 -1.159730 3.077899
-0.756006 -1.159010 3.011886
-0.746853 -1.158345 2.945880
-0.737667 -1.157708 2.879879
-0.728438 -1.157110 2.813883
-0.719158 -1.156556 2.747894
-0.699580 -1.155485 2.609405
-0.690188 -1.155031 2.543431
-0.680774 -1.154597 2.477460
-0.671331 -1.154189 2.411493
-0.661853 -1.153812 2.345531
-0.652358 -1.153451 2.279572
-0.632349 -1.152762 2.141141
-0.622789 -1.152458 2.075191
-0.613213 -1.152167 2.009243
-0.603620 -1.151893 1.943297
-0.594018 -1.151626 1.877352
-0.584407 -1.151368 1.811409
-0.564211 -1.150845 1.673005
-0.554585 -1.150600 1.607064
-0.544958 -1.150355 1.541123
-0.535333 -1.150109 1.475181
-0.525711 -1.149859 1.409240
-0.516099 -1.149602 1.343297
-0.495948 -1.149040 1.204886
-0.486370 -1.148751 1.138938
-0.476805 -1.148451 1.072988
-0.467255 -1.148139 1.007037
-0.457732 -1.147801 0.941081
-0.448226 -1.147449 0.875123
-0.428360 -1.146634 0.736672
-0.418937 -1.146208 0.670703
-0.409539 -1.145760 0.604730
-0.400189 -1.145269 0.538750
-0.390865 -1.144755 0.472767
-0.381574 -1.144211 0.406780
112 NaN NaN
-2.434608 -1.326525 10.648219
-2.363110 -1.356968 10.583552
-2.292900 -1.386341 10.517005
-2.224000 -1.414647 10.448653
-2.156430 -1.441889 10.378561
-2.090212 -1.468066 10.306794
-2.025370 -1.493178 10.233407
-1.961928 -1.517221 10.158456
-1.899913 -1.540192 10.081990
-1.839353 -1.562085 10.004055
-1.780278 -1.582891 9.924696
-1.722720 -1.602600 9.843953
-1.666716 -1.621203 9.761868
-1.612302 -1.638686 9.678476
-1.559519 -1.655034 9.593816
-1.508410 -1.670230 9.507924
-1.459021 -1.684257 9.420834
-1.411402 -1.697095 9.332583
-1.365605 -1.708720 9.243207
-1.321686 -1.719111 9.152743
-1.279706 -1.728241 9.061229
-1.239726 -1.736084 8.968705
-1.201813 -1.742611 8.875214
-1.166036 -1.747793 8.780802
-1.132469 -1.751598 8.685517
-1.101188 -1.753993 8.589412
-1.072271 -1.754947 8.492544
-1.045801 -1.754424 8.394977
-1.021859 -1.752392 8.296778
-1.000533 -1.748816 8.198022
-0.981907 -1.743663 8.098792
-0.966068 -1.736902 7.999174
-0.953059 -1.728524 7.899270
-0.942735 -1.718619 7.799192
-0.934890 -1.707310 7.699037
-0.929307 -1.694719 7.598882
-0.925767 -1.680970 7.498787
-0.924048 -1.666183 7.398791
-0.923928 -1.650477 7.298920
-0.925189 -1.633966 7.199187
-0.927615 -1.616764 7.099592
-0.930992 -1.598977 7.000127
-0.935112 -1.580714 6.900777
-0.939767 -1.562075 6.801519
-0.944753 -1.543163 6.702330
-0.949867 -1.524077 6.603180
-0.954907 -1.504916 6.504041
-0.959670 -1.485780 6.404883
-0.963976 -1.466762 6.305682
-0.967768 -1.447924 6.206426
-0.971025 -1.429317 6.107107
-0.973724 -1.410996 6.007719
-0.975845 -1.393013 5.908254
-0.977365 -1.375422 5.808709
-0.978263 -1.358278 5.709078
-0.978518 -1.341634 5.609358
-0.978106 -1.325547 5.509548
-0.977008 -1.310071 5.409646
-0.975202 -1.295263 5.309654
-0.972665 -1.281177 5.209573
-0.969379 -1.267869 5.109408
-0.965321 -1.255396 5.009164
-0.960473 -1.243812 4.908848
-0.954815 -1.233173 4.808470
-0.948336 -1.223519 4.708041
-0.941071 -1.214817 4.607580
-0.933064 -1.207009 4.507102
-0.924364 -1.200039 4.406619
-0.915015 -1.193851 4.306144
-0.905062 -1.188387 4.205684
-0.894553 -1.183591 4.105247
-0.883531 -1.179406 4.004838
-0.872040 -1.175775 3.904459
-0.860126 -1.172643 3.804113
-0.847831 -1.169953 3.703800
-0.835200 -1.167650 3.603520
-0.822275 -1.165677 3.503269
-0.809100 -1.163980 3.403046
-0.795716 -1.162504 3.302848
-0.782166 -1.161192 3.202669
-0.768488 -1.159998 3.102506
-0.754694 -1.158906 3.002358
-0.740792 -1.157910 2.902224
-0.726790 -1.157003 2.802103
-0.712696 -1.156178 2.701994
-0.698516 -1.155429 2.601897
-0.684260 -1.154748 2.501810
-0.669934 -1.154129 2.401732
-0.655546 -1.153564 2.301663
-0.641104 -1.153048 2.201602
-0.626616 -1.152574 2.101547
-0.612089 -1.152133 2.001498
-0.597531 -1.151721 1.901453
-0.582949 -1.151328 1.801411
-0.568353 -1.150950 1.701372
-0.553748 -1.150579 1.601334
-0.539143 -1.150207 1.501295
-0.524547 -1.149829 1.401256
-0.509965 -1.149437 1.301214
-0.495407 -1.149025 1.201169
-0.480879 -1.148585 1.101120
-0.466390 -1.148110 1.001065
-0.451948 -1.147595 0.901004
-0.437559 -1.147031 0.800935
-0.423232 -1.146413 0.700858
-0.408975 -1.145733 0.600771
-0.394795 -1.144984 0.500674
-0.380699 -1.144160 0.400565
-0.366696 -1.143254 0.300444
-0.352793 -1.142259 0.200310
-0.338998 -1.141169 0.100163
-0.325318 -1.139976 0.000000
-2.434956 -1.326883 10.648245
-3.562133 -1.373152 10.388676
-4.254084 -0.382647 9.962080
-4.791070 0.747248 9.635671
-5.326220 1.876637 9.304041
-5.853047 3.009566 8.971249
-6.434917 4.125461 8.674945
-7.080137 5.202162 8.366047
-7.828626 6.202485 8.036077
-8.710292 7.077101 7.681267
-9.729757 7.774205 7.304592
-10.860196 8.262166 6.915477
-12.058604 8.544936 6.525074
-13.287906 8.651551 6.141419
-2.436349 -1.328315 10.648349
-3.560683 -1.374333 10.389386
-3.563583 -1.371970 10.387967
-4.253287 -0.384411 9.962581
-4.254880 -0.380882 9.961578
-4.790238 0.745504 9.636186
-4.791903 0.748992 9.635157
-5.325396 1.874889 9.304556
-5.327044 1.878386 9.303526
-5.852197 3.007820 8.971728
-5.853897 3.011312 8.970770
-6.433982 4.123756 8.675411
-6.435852 4.127167 8.674479
-7.079070 5.200543 8.366539
-7.081203 5.203780 8.365555
-7.827369 6.201022 8.036607
-7.829882 6.203948 8.035547
-8.708814 7.075880 7.681836
-8.711770 7.078323 7.680699
-9.728077 7.773297 7.305188
-9.731436 7.775113 7.303996
-10.858386 8.261566 6.916082
-10.862005 8.262765 6.914871
-12.056719 8.544641 6.525675
-12.060489 8.545231 6.524474
-13.285994 8.651505 6.142005
-2.455399 -1.347902 10.649781
-3.540851 -1.390491 10.399091
-3.582941 -1.355307 10.378200
-4.242389 -0.408552 9.969440
-4.265779 -0.356741 9.954720
-4.778843 0.721646 9.643223
-4.803297 0.772851 9.628119
-5.314126 1.850973 9.311599
-5.338312 1.902303 9.296485
-5.840834 2.983875 8.978518
-5.865523 3.035196 8.964214
-6.421194 4.100424 8.681788
-6.448689 4.150471 8.668099
-7.064481 5.178398 8.373271
-7.095793 5.225925 8.358822
-7.810177 6.181009 8.043852
-7.847074 6.223961 8.028302
-8.688647 7.059100 7.689600
-8.731991 7.095034 7.672926
-9.705282 7.760537 7.313320
-9.754410 7.787536 7.295843
-10.833632 8.253369 6.924365
-10.886809 8.270808 6.906588
-12.030934 8.540607 6.533886
-12.086274 8.549264 6.516262
-13.259841 8.650875 6.150017
-2.547199 -1.431247 10.653199
-2.717619 -1.527372 10.641139
-2.905154 -1.576262 10.610173
-3.096147 -1.579690 10.564441
-3.279971 -1.540086 10.507551
-3.446838 -1.459160 10.442624
-3.666501 -1.274919 10.333180
-3.791010 -1.140567 10.260502
-3.907928 -0.999640 10.187698
-4.014754 -0.849295 10.118420
-4.108774 -0.687675 10.056349
-4.192396 -0.517883 10.001447
-4.315549 -0.246870 9.924248
-4.395319 -0.073008 9.876757
-4.476543 0.100035 9.828747
-4.559412 0.271732 9.778758
-4.643185 0.442533 9.727227
-4.726694 0.613402 9.675489
-4.854924 0.881465 9.596259
-4.936391 1.053764 9.546033
-5.017976 1.225978 9.495703
-5.099714 1.398056 9.445160
-5.181387 1.570117 9.394455
-5.262828 1.742262 9.343658
-5.389529 2.011076 9.264508
-5.470584 2.183492 9.214015
-5.551262 2.356069 9.163470
-5.631112 2.528886 9.112433
-5.710077 2.701934 9.060804
-5.789560 2.874913 9.009746
-5.918882 3.143666 8.934824
-6.005744 3.314840 8.890103
-6.094303 3.485374 8.846262
-6.183385 3.655487 8.801851
-6.272883 3.825149 8.756557
-6.363345 3.994166 8.710771
-6.507521 4.256169 8.639048
-6.602049 4.422825 8.592825
-6.698296 4.588389 8.546229
-6.796372 4.752750 8.499188
-6.896450 4.915769 8.451701
-6.998703 5.077303 8.403771
-7.162969 5.326011 8.328041
-7.271426 5.483059 8.278862
-7.382530 5.638075 8.229146
-7.496402 5.790888 8.178876
-7.613196 5.941287 8.128032
-7.732983 6.089112 8.076611
-7.926036 6.314222 7.995211
-8.053870 6.454585 7.942279
-8.184954 6.591688 7.888757
-8.319329 6.725329 7.834651
-8.457019 6.855313 7.779972
-8.598019 6.981454 7.724735
-8.824578 7.170187 7.637479
-8.973937 7.285664 7.580908
-9.126453 7.396696 7.523866
-9.282045 7.503139 7.466385
-9.440603 7.604880 7.408502
-9.602010 7.701822 7.350254
-9.859241 7.843303 7.258735
-10.027320 7.927635 7.199740
-10.197734 8.006981 7.140529
-10.370323 8.081342 7.081145
-10.544921 8.150743 7.021628
-10.721368 8.215216 6.962020
-11.000007 8.306083 6.868920
-11.180462 8.358230 6.809251
-11.362213 8.405716 6.749621
-11.545117 8.448648 6.690060
-11.729040 8.487135 6.630599
-11.913856 8.521297 6.571262
-12.203749 8.566204 6.478982
-12.390336 8.589859 6.420067
-12.577435 8.609643 6.361349
-12.764960 8.625687 6.302844
-12.952832 8.638087 6.244566
-13.140974 8.646995 6.186526
173 NaN NaN
-2.434608 -1.326525 10.648219
-2.504862 -1.398759 10.653498
-2.584911 -1.460187 10.652934
-2.672678 -1.509591 10.646684
-2.765910 -1.546479 10.635181
-2.862493 -1.570907 10.618993
-2.960604 -1.583222 10.598708
-3.058692 -1.583843 10.574868
-3.155391 -1.573121 10.547950
-3.249402 -1.551270 10.518372
-3.339358 -1.518358 10.486528
-3.423863 -1.474603 10.452845
-3.502469 -1.421764 10.417874
-3.575664 -1.362127 10.382055
-3.644398 -1.297714 10.345643
-3.709846 -1.230219 10.308740
-3.773205 -1.161005 10.271368
-3.834787 -1.090318 10.233788
-3.894237 -1.017688 10.196482
-3.951146 -0.942663 10.159969
-4.005064 -0.864841 10.124804
-4.055512 -0.783909 10.091568
-4.102443 -0.700040 10.060528
-4.146524 -0.613953 10.031429
-4.188526 -0.526308 10.003940
-4.229242 -0.437674 9.977713
-4.269474 -0.348555 9.952394
-4.309860 -0.259341 9.927659
-4.350535 -0.170165 9.903266
-4.391544 -0.081112 9.878983
-4.432932 0.007733 9.854580
-4.474743 0.096282 9.829825
-4.517013 0.184451 9.804500
-4.559671 0.272265 9.778601
-4.602564 0.359846 9.752300
-4.645536 0.447320 9.725775
-4.688435 0.534816 9.699202
-4.731105 0.622461 9.672755
-4.773445 0.710341 9.646558
-4.815508 0.798418 9.620577
-4.857376 0.886632 9.594746
-4.899135 0.974923 9.569000
-4.940866 1.063233 9.543275
-4.982649 1.151506 9.517507
-5.024499 1.239729 9.491677
-5.066387 1.327918 9.465791
-5.108282 1.416088 9.439856
-5.150155 1.504258 9.413880
-5.191975 1.592442 9.387870
-5.233723 1.680654 9.361837
-5.275409 1.768894 9.335799
-5.317044 1.857161 9.309775
-5.358642 1.945455 9.283782
-5.400214 2.033777 9.257840
-5.441769 2.122125 9.231962
-5.483269 2.210508 9.206115
-5.524654 2.298936 9.180237
-5.565862 2.387421 9.154270
-5.606831 2.475972 9.128151
-5.647500 2.564599 9.101824
-5.687918 2.653289 9.075322
-5.728325 2.741992 9.048848
-5.768985 2.830654 9.022620
-5.810155 2.919215 8.996858
-5.852096 3.007613 8.971785
-5.895016 3.095782 8.947583
-5.938843 3.183714 8.924152
-5.983388 3.271432 8.901278
-6.028468 3.358964 8.878744
-6.073903 3.446344 8.856330
-6.119513 3.533607 8.833819
-6.165160 3.620780 8.811037
-6.210880 3.707847 8.787994
-6.256750 3.794780 8.764746
-6.302847 3.881553 8.741349
-6.349248 3.968139 8.717860
-6.396030 4.054510 8.694335
-6.443238 4.140645 8.670796
-6.490879 4.226532 8.647225
-6.538959 4.312160 8.623600
-6.587482 4.397517 8.599903
-6.636453 4.482591 8.576111
-6.685879 4.567371 8.552206
-6.735779 4.651838 8.528184
-6.786178 4.735976 8.504044
-6.837098 4.819764 8.479787
-6.888564 4.903185 8.455413
-6.940599 4.986218 8.430923
-6.993224 5.068844 8.406316
-7.046458 5.151042 8.381588
-7.100318 5.232793 8.356734
-7.154821 5.314077 8.331751
-7.209985 5.394873 8.306634
-7.265826 5.475158 8.281378
-7.322361 5.554912 8.255981
-7.379607 5.634111 8.230441
-7.437580 5.712731 8.204755
-7.496296 5.790750 8.178922
-7.555771 5.868142 8.152940
-7.616019 5.944882 8.126808
-7.677054 6.020946 8.100524
-7.738887 6.096309 8.074087
-7.801531 6.170944 8.047495
-7.864997 6.244826 8.020749
-7.929295 6.317927 7.993847
-7.994435 6.390222 7.966789
-8.060424 6.461683 7.939576
-8.127267 6.532286 7.912208
-8.194971 6.602003 7.884685
-8.263540 6.670807 7.857009
-8.332980 6.738671 7.829181
-8.403292 6.805568 7.801202
-8.474474 6.871475 7.773075
-8.546526 6.936366 7.744801
-8.619446 7.000217 7.716384
-8.693232 7.063001 7.687826
-8.767879 7.124694 7.659130
-8.843381 7.185275 7.630299
-8.919728 7.244722 7.601338
-8.996912 7.303017 7.572250
-9.074923 7.360138 7.543039
-9.153751 7.416064 7.513709
-9.233383 7.470776 7.484266
-9.313806 7.524262 7.454714
-9.395001 7.576506 7.425058
-9.476954 7.627498 7.395304
-9.559649 7.677222 7.365456
-9.643068 7.725665 7.335520
-9.727194 7.772819 7.305501
-9.812005 7.818678 7.275406
-9.897481 7.863238 7.245239
-9.983601 7.906494 7.215007
-10.070346 7.948441 7.184716
-10.157694 7.989075 7.154370
-10.245624 8.028397 7.123976
-10.334113 8.066411 7.093539
-10.423139 8.103120 7.063066
-10.512679 8.138528 7.032561
-10.602713 8.172638 7.002031
-10.693219 8.205456 6.971479
-10.784175 8.236991 6.940913
-10.875559 8.267253 6.910336
-10.967350 8.296252 6.879754
-11.059527 8.323999 6.849172
-11.152070 8.350504 6.818594
-11.244960 8.375780 6.788025
-11.338176 8.399841 6.757470
-11.431699 8.422701 6.726931
-11.525511 8.444375 6.696414
-11.619595 8.464879 6.665923
-11.713932 8.484227 6.635460
-11.808506 8.502435 6.605030
-11.903300 8.519521 6.574635
-11.998300 8.535501 6.544279
-12.093490 8.550393 6.513964
-12.188855 8.564214 6.483695
-12.284382 8.576980 6.453472
-12.380058 8.588710 6.423298
-12.475869 8.599421 6.393177
-12.571803 8.609131 6.363109
-12.667850 8.617858 6.333097
-12.763998 8.625619 6.303143
-12.860235 8.632432 6.273247
-12.956553 8.638314 6.243413
-13.052942 8.643281 6.213641
-13.149392 8.647350 6.183933
-13.245896 8.650539 6.154289
-13.342444 8.652864 6.124711
-13.439030 8.654342 6.095200
-13.535645 8.654989 6.065756
-13.632283 8.654824 6.036380
-13.728937 8.653863 6.007073
-13.825602 8.652121 5.977836
-1.850317 -1.484375 11.688108
-1.706893 -1.405997 11.733912
-1.565712 -1.324089 11.780485
-1.427519 -1.237747 11.827999
-1.293057 -1.146272 11.876563
-1.163085 -1.049084 11.926243
-1.039919 -0.944114 11.977343
-0.924891 -0.830952 12.029791
-0.822778 -0.706714 12.083781
-0.738884 -0.570192 12.138899
-0.681259 -0.420776 12.194140
-0.663805 -0.261053 12.246630
-0.688140 -0.100397 12.293199
-0.756231 0.050169 12.330112
-0.852680 0.186483 12.358357
-0.969080 0.308091 12.379043
-1.098489 0.416785 12.393761
-1.235915 0.515789 12.404260
-1.379771 0.605601 12.410932
-1.527547 0.688971 12.415009
-1.848621 -1.483462 11.688645
-1.708573 -1.406937 11.733369
-1.705214 -1.405057 11.734455
-1.567352 -1.325090 11.779929
-1.564072 -1.323089 11.781041
-1.429135 -1.238783 11.827436
-1.425903 -1.236712 11.828563
-1.294612 -1.147388 11.875983
-1.291503 -1.145155 11.877142
-1.164601 -1.050248 11.925654
-1.161570 -1.047919 11.926832
-1.041331 -0.945393 11.976733
-1.038507 -0.942835 11.977952
-0.926145 -0.832377 12.029160
-0.923638 -0.829527 12.030423
-0.823919 -0.708225 12.083139
-0.821637 -0.705202 12.084423
-0.739696 -0.571900 12.138245
-0.738073 -0.568485 12.139553
-0.681833 -0.422579 12.193492
-0.680684 -0.418974 12.194789
-0.663759 -0.262964 12.246040
-0.663851 -0.259143 12.247220
-0.687445 -0.102214 12.292735
-0.688836 -0.098580 12.293663
-0.755277 0.048456 12.329719
-0.757185 0.051882 12.330505
-0.851370 0.184996 12.358088
-0.853991 0.187970 12.358627
-0.967654 0.306707 12.378823
-0.970507 0.309475 12.379264
-1.096905 0.415573 12.393618
-1.100074 0.417997 12.393904
-1.234252 0.514684 12.404162
-1.237597 0.516868 12.404347
-1.378054 0.604577 12.410868
-1.381488 0.606625 12.410997
-1.525778 0.688039 12.414981
-1.842311 -1.480062 11.690645
-1.714822 -1.410435 11.731347
-1.698965 -1.401560 11.736477
-1.573454 -1.328812 11.777859
-1.557971 -1.319367 11.783111
-1.435146 -1.242635 11.825339
-1.419892 -1.232860 11.830660
-1.300396 -1.151543 11.873825
-1.285719 -1.141001 11.879300
-1.170239 -1.054581 11.923462
-1.156014 -1.043491 11.929041
-1.046583 -0.950151 11.974466
-1.033255 -0.938077 11.980219
-0.930807 -0.837679 12.026811
-0.918975 -0.824225 12.032772
-0.828165 -0.713850 12.080751
-0.817391 -0.699577 12.086811
-0.742714 -0.578251 12.135812
-0.735055 -0.562134 12.141985
-0.683971 -0.429286 12.191079
-0.678547 -0.412267 12.197201
-0.663588 -0.270072 12.243845
-0.664022 -0.252035 12.249415
-0.685205 -0.109054 12.290931
-0.691423 -0.091821 12.295390
-0.751728 0.042081 12.328255
-0.760734 0.058257 12.331969
-0.846495 0.179464 12.357084
-0.858865 0.193501 12.359630
-0.962345 0.301558 12.378004
-0.975816 0.314625 12.380083
-1.091010 0.411064 12.393086
-1.105969 0.422506 12.394436
-1.228156 0.510438 12.403742
-1.243854 0.520882 12.404671
-1.371667 0.600767 12.410627
-1.387875 0.610434 12.411237
-1.519194 0.684574 12.414877
-1.827452 -1.472058 11.695355
-1.807810 -1.461476 11.701580
-1.788167 -1.450895 11.707805
-1.768525 -1.440314 11.714030
-1.748991 -1.429558 11.720294
-1.729538 -1.418671 11.726587
-1.684249 -1.393324 11.741237
-1.664857 -1.382341 11.747550
-1.645619 -1.371120 11.753915
-1.626380 -1.359899 11.760280
-1.607142 -1.348678 11.766645
-1.587903 -1.337457 11.773011
-1.543602 -1.310601 11.787985
-1.524608 -1.299014 11.794428
-1.505614 -1.287427 11.800871
-1.486728 -1.275685 11.807347
-1.468015 -1.263695 11.813874
-1.449302 -1.251705 11.820401
-1.405768 -1.223747 11.835606
-1.387381 -1.211310 11.842224
-1.368994 -1.198874 11.848843
-1.350607 -1.186438 11.855461
-1.332219 -1.174002 11.862079
-1.314017 -1.161326 11.868744
-1.272098 -1.131218 11.884381
-1.254093 -1.118285 11.891097
-1.236177 -1.105244 11.897834
-1.218624 -1.091757 11.904657
-1.201071 -1.078270 11.911479
-1.183518 -1.064783 11.918301
-1.143147 -1.032817 11.934288
-1.126136 -1.018707 11.941225
-1.109126 -1.004597 11.948161
-1.092116 -0.990487 11.955097
-1.075302 -0.976169 11.962069
-1.058952 -0.961357 11.969127
-1.020886 -0.926871 11.985558
-1.004545 -0.912051 11.992617
-0.989009 -0.896444 11.999802
-0.973474 -0.880837 12.006986
-0.957939 -0.865230 12.014171
-0.942403 -0.849623 12.021356
-0.907996 -0.811740 12.038304
-0.893481 -0.795236 12.045618
-0.878967 -0.778732 12.052931
-0.864596 -0.762116 12.060258
-0.851379 -0.744606 12.067692
-0.838163 -0.727096 12.075127
-0.807393 -0.686331 12.092435
-0.795554 -0.667910 12.099949
-0.784006 -0.649296 12.107481
-0.772459 -0.630682 12.115012
-0.760911 -0.612068 12.122543
-0.749821 -0.593208 12.130083
-0.727948 -0.547177 12.147714
-0.718553 -0.527405 12.155287
-0.709158 -0.507633 12.162860
-0.702309 -0.486834 12.170375
-0.695656 -0.465957 12.177886
-0.689003 -0.445079 12.185397
-0.675685 -0.395915 12.202735
-0.672392 -0.374174 12.210016
-0.669099 -0.352433 12.217297
-0.665806 -0.330692 12.224578
-0.662652 -0.308936 12.231843
-0.663185 -0.286810 12.238676
-0.664425 -0.235297 12.254584
-0.664958 -0.213171 12.261416
-0.668457 -0.191233 12.267749
-0.672916 -0.169357 12.273920
-0.677374 -0.147480 12.280091
-0.681833 -0.125603 12.286263
-0.697516 -0.075903 12.299457
-0.705570 -0.054860 12.304833
-0.713625 -0.033818 12.310209
-0.721679 -0.012776 12.315585
-0.732323 0.007228 12.320252
-0.743371 0.027071 12.324808
-0.769092 0.073267 12.335416
-0.781503 0.092337 12.339528
-0.794895 0.110853 12.343321
-0.808287 0.129368 12.347115
-0.821678 0.147884 12.350908
-0.835070 0.166399 12.354701
-0.870345 0.206527 12.361993
-0.885520 0.223747 12.365117
-0.900695 0.240966 12.368240
-0.916794 0.257371 12.370971
-0.933319 0.273401 12.373523
-0.949844 0.289431 12.376074
-0.988728 0.326328 12.381820
-1.006283 0.341298 12.383887
-1.023837 0.356268 12.385954
-1.041392 0.371238 12.388021
-1.058947 0.386208 12.390087
-1.077127 0.400445 12.391832
-1.119852 0.433124 12.395690
-1.138203 0.447161 12.397347
-1.156867 0.460788 12.398829
-1.175845 0.474005 12.400137
-1.194822 0.487222 12.401445
-1.213799 0.500439 12.402753
-1.258589 0.530335 12.405434
-1.278066 0.542831 12.406442
-1.297544 0.555327 12.407450
-1.317022 0.567823 12.408459
-1.336742 0.579937 12.409312
-1.356626 0.591796 12.410060
-1.402917 0.619405 12.411804
-1.422905 0.631087 12.412482
-1.443122 0.642381 12.413005
-1.463339 0.653674 12.413527
-1.483556 0.664967 12.414050
-1.503773 0.676260 12.414572
32 NaN NaN
-1.850741 -1.484604 11.687973
-1.760101 -1.435776 11.716700
-1.670335 -1.385537 11.745738
-1.581559 -1.333757 11.775109
-1.493912 -1.280288 11.804841
-1.407562 -1.224960 11.834961
-1.322716 -1.167574 11.865499
-1.239632 -1.107899 11.896491
-1.158637 -1.045666 11.927972
-1.080147 -0.980559 11.959978
-1.004705 -0.912212 11.992543
-0.933025 -0.840201 12.025693
-0.866059 -0.764054 12.059435
-0.805086 -0.683274 12.093733
-0.751818 -0.597412 12.128473
-0.708489 -0.506225 12.163400
-0.677813 -0.409963 12.198030
-0.662633 -0.309743 12.231594
-0.665088 -0.207767 12.263085
-0.685637 -0.106938 12.291528
-0.722767 -0.009934 12.316311
-0.773711 0.081563 12.337321
-0.835476 0.166961 12.354816
-0.905479 0.246395 12.369225
-0.981717 0.320349 12.380994
-1.062712 0.389419 12.390531
-1.147386 0.454185 12.398176
-1.234952 0.515171 12.404211
-1.324828 0.572831 12.408863
-1.416577 0.627553 12.412319
-1.509867 0.679664 12.414730
-1.604442 0.729445 12.416222
-2.110681 -1.459623 10.329620
-1.871175 -1.356508 10.426523
-1.637182 -1.243472 10.525762
-1.411403 -1.117165 10.627922
-1.197383 -0.974290 10.733359
-1.002762 -0.808540 10.842547
-0.841418 -0.612523 10.954837
-0.740425 -0.379863 11.065973
-0.735459 -0.121628 11.163115
-0.828647 0.129236 11.233504
-0.988775 0.351716 11.276972
-1.184258 0.547713 11.301952
-1.400718 0.721898 11.313697
-2.108948 -1.458903 10.330312
-1.872880 -1.357281 10.425819
-1.869470 -1.355735 10.427227
-1.638829 -1.244344 10.525036
-1.635535 -1.242600 10.526489
-1.412994 -1.118121 10.627177
-1.409811 -1.116209 10.628666
-1.198846 -0.975413 10.732584
-1.195920 -0.973168 10.734133
-1.004085 -0.809812 10.841751
-1.001440 -0.807268 10.843343
-0.842361 -0.614089 10.954024
-0.840476 -0.610957 10.955649
-0.740922 -0.381636 11.065193
-0.739927 -0.378090 11.066753
-0.735062 -0.123496 11.162519
-0.735855 -0.119761 11.163712
-0.827760 0.127495 11.233075
-0.829534 0.130976 11.233934
-0.987461 0.350226 11.276740
-0.990088 0.353206 11.277205
-1.182790 0.546362 11.301809
-1.185726 0.549063 11.302095
-1.399112 0.720707 11.313648
-2.099210 -1.454858 10.334197
-1.882459 -1.361623 10.421862
-1.859891 -1.351393 10.431184
-1.648125 -1.249169 10.520968
-1.626282 -1.237703 10.530572
-1.421935 -1.123491 10.622995
-1.400870 -1.110839 10.632848
-1.207064 -0.981720 10.728230
-1.187702 -0.966861 10.738487
-1.011514 -0.816959 10.837278
-0.994010 -0.800122 10.847815
-0.847656 -0.622887 10.949461
-0.835181 -0.602159 10.960213
-0.743715 -0.391598 11.060809
-0.737134 -0.368127 11.071138
-0.732835 -0.133987 11.159166
-0.738082 -0.109269 11.167064
-0.822776 0.117717 11.230662
-0.834519 0.140754 11.236347
-0.980080 0.341854 11.275436
-0.997469 0.361579 11.278509
-1.174542 0.538773 11.301008
-1.194194 0.556417 11.302754
-1.390088 0.714017 11.313370
-2.074002 -1.444385 10.344255
-2.040460 -1.430449 10.357638
-2.006989 -1.416378 10.371054
-1.973703 -1.401953 10.384557
-1.940416 -1.387527 10.398059
-1.907259 -1.372864 10.411619
-1.835091 -1.340152 10.441427
-1.802355 -1.324728 10.455166
-1.769683 -1.309190 10.468931
-1.737011 -1.293653 10.482697
-1.704701 -1.277496 10.496604
-1.672401 -1.261323 10.510514
-1.602328 -1.225024 10.541143
-1.570454 -1.208153 10.555208
-1.538829 -1.190894 10.569357
-1.507451 -1.173252 10.583587
-1.476072 -1.155611 10.597818
-1.445083 -1.137392 10.612167
-1.377743 -1.096908 10.643682
-1.347627 -1.077456 10.658276
-1.317511 -1.058003 10.672871
-1.287559 -1.038336 10.687505
-1.258261 -1.017813 10.702296
-1.228962 -0.997291 10.717088
-1.166426 -0.950533 10.749758
-1.138116 -0.928807 10.764755
-1.110690 -0.906091 10.779904
-1.083591 -0.883007 10.795109
-1.056493 -0.859923 10.810314
-1.030749 -0.835459 10.825700
-0.975263 -0.781178 10.859439
-0.951562 -0.754838 10.875023
-0.927860 -0.728498 10.890606
-0.905188 -0.701340 10.906241
-0.883888 -0.673091 10.921947
-0.862589 -0.644841 10.937652
-0.821473 -0.579382 10.972028
-0.803233 -0.549074 10.987749
-0.788698 -0.516760 11.003309
-0.774324 -0.484359 11.018862
-0.760570 -0.451707 11.034356
-0.750947 -0.417389 11.049459
-0.732615 -0.341636 11.082084
-0.728526 -0.305890 11.096363
-0.724438 -0.270144 11.110642
-0.724296 -0.233970 11.124114
-0.726157 -0.197580 11.137177
-0.728018 -0.161189 11.150240
-0.743849 -0.082108 11.175743
-0.752541 -0.046164 11.186969
-0.765397 -0.011023 11.196877
-0.778253 0.024119 11.206786
-0.792702 0.058721 11.216105
-0.809872 0.092404 11.224416
-0.849930 0.164870 11.241535
-0.870543 0.196908 11.248393
-0.891156 0.228947 11.255251
-0.914198 0.259504 11.260964
-0.937510 0.289896 11.266551
-0.960972 0.320179 11.272059
-1.016577 0.383254 11.281886
-1.042714 0.411486 11.285978
-1.069803 0.438907 11.289537
-1.096891 0.466329 11.293096
-1.124773 0.492984 11.296175
-1.153187 0.519126 11.298935
-1.216353 0.575202 11.304311
-1.245837 0.600198 11.306383
-1.275432 0.625063 11.308379
-1.305792 0.649032 11.309854
-1.336151 0.673001 11.311330
-1.366726 0.696695 11.312652
33 NaN NaN
-2.111114 -1.459803 10.329447
-2.016202 -1.420371 10.367317
-1.922014 -1.379552 10.405524
-1.828641 -1.337228 10.444091
-1.736191 -1.293263 10.483042
-1.644793 -1.247500 10.522404
-1.554603 -1.199763 10.562203
-1.465814 -1.149843 10.602470
-1.378663 -1.097502 10.643236
-1.293449 -1.042461 10.684531
-1.210548 -0.984393 10.726385
-1.130446 -0.922921 10.768818
-1.053776 -0.857608 10.811838
-0.981367 -0.787961 10.855426
-0.914314 -0.713444 10.899512
-0.854062 -0.633532 10.943939
-0.802473 -0.547811 10.988404
-0.761825 -0.456184 11.032386
-0.734619 -0.359157 11.075085
-0.723062 -0.258111 11.115449
-0.728322 -0.155245 11.152374
-0.750012 -0.053076 11.185020
-0.786364 0.046288 11.213037
-0.834922 0.141545 11.236542
-0.893228 0.232167 11.255940
-0.959178 0.318143 11.271742
-1.031108 0.399737 11.284453
-1.107749 0.477320 11.294522
-1.188143 0.551287 11.302329
-1.271567 0.622011 11.308191
-1.357469 0.689832 11.312367
-1.445426 0.755047 11.315073
-1.535103 0.817917 11.316486
-1.817446 -1.569381 9.975219
-1.562150 -1.396831 9.994711
-1.318975 -1.207972 10.017081
-1.094592 -0.997735 10.043308
-0.901792 -0.759203 10.074829
-0.765852 -0.485963 10.113364
-0.727295 -0.185254 10.158946
-0.809141 0.106688 10.206608
-0.981855 0.357859 10.250537
-1.203769 0.568470 10.289576
-1.452073 0.748368 10.324600
-1.815772 -1.568294 9.975340
-1.563779 -1.397983 9.994579
-1.560520 -1.395679 9.994844
-1.320509 -1.209247 10.016927
-1.317442 -1.206698 10.017235
-1.095969 -0.999174 10.043124
-1.093214 -0.996297 10.043492
-0.902889 -0.760860 10.074603
-0.900695 -0.757546 10.075055
-0.766422 -0.487859 10.113086
-0.765281 -0.484066 10.113642
-0.727051 -0.187214 10.158635
-0.727539 -0.183293 10.159257
-0.808174 0.104962 10.206312
-0.810107 0.108413 10.206903
-0.980590 0.356334 10.250264
-0.983121 0.359383 10.250810
-1.202246 0.567197 10.289334
-1.205292 0.569744 10.289817
-1.450411 0.747278 10.324383
-1.805468 -1.561604 9.976084
-1.573807 -1.405072 9.993765
-1.550492 -1.388589 9.995658
-1.329947 -1.217089 10.015980
-1.308003 -1.198856 10.018183
-1.104444 -1.008027 10.041991
-1.084739 -0.987444 10.044624
-0.909639 -0.771057 10.073213
-0.893944 -0.747349 10.076445
-0.769932 -0.499531 10.111374
-0.761772 -0.472394 10.115354
-0.725552 -0.199279 10.156719
-0.729038 -0.171228 10.161173
-0.803272 0.093840 10.204445
-0.816056 0.119034 10.208722
-0.972803 0.346952 10.248585
-0.991093 0.368604 10.252469
-1.192871 0.559361 10.287850
-1.214666 0.577580 10.291301
-1.440181 0.740565 10.323049
-1.778379 -1.544019 9.978040
-1.742300 -1.520597 9.980645
-1.706488 -1.496779 9.983320
-1.670862 -1.472686 9.986042
-1.635280 -1.448532 9.988775
-1.600169 -1.423709 9.991625
-1.524571 -1.369357 9.997903
-1.490050 -1.343736 10.000894
-1.455694 -1.317904 10.003922
-1.421853 -1.291408 10.007068
-1.388013 -1.264912 10.010215
-1.354758 -1.237705 10.013488
-1.283564 -1.177816 10.020751
-1.251451 -1.149294 10.024261
-1.219337 -1.120772 10.027772
-1.188215 -1.091200 10.031473
-1.157210 -1.061503 10.035197
-1.126723 -1.031299 10.039015
-1.062542 -0.964099 10.047614
-1.034482 -0.931667 10.051847
-1.006422 -0.899235 10.056080
-0.979444 -0.865944 10.060477
-0.953363 -0.831940 10.065011
-0.927385 -0.797863 10.069559
-0.876198 -0.720543 10.080099
-0.854698 -0.683584 10.085223
-0.834096 -0.646097 10.090454
-0.814245 -0.608254 10.095761
-0.797393 -0.568991 10.101375
-0.780541 -0.529728 10.106989
-0.752545 -0.441711 10.119853
-0.742187 -0.400414 10.125969
-0.735267 -0.358353 10.132301
-0.728346 -0.316293 10.138633
-0.726549 -0.273789 10.145180
-0.725607 -0.231211 10.151763
-0.732978 -0.139512 10.166210
-0.738332 -0.097288 10.172918
-0.749496 -0.056208 10.179614
-0.760660 -0.015128 10.186311
-0.774530 0.025035 10.192942
-0.790946 0.064335 10.199513
-0.831693 0.146952 10.213503
-0.852521 0.184137 10.219871
-0.875763 0.219837 10.226078
-0.900171 0.254820 10.232206
-0.925066 0.289439 10.238292
-0.952332 0.322289 10.244171
-1.013272 0.391778 10.256701
-1.042812 0.422644 10.262337
-1.072949 0.452917 10.267898
-1.104306 0.481978 10.273305
-1.135664 0.511039 10.278713
-1.168228 0.538762 10.283948
-1.239889 0.597472 10.295110
-1.273905 0.623452 10.300116
-1.307921 0.649432 10.305121
-1.342901 0.674131 10.309955
-1.377900 0.698805 10.314786
-1.413289 0.722921 10.319541
30 NaN NaN
-1.817865 -1.569653 9.975189
-1.727504 -1.510991 9.981714
-1.638277 -1.450650 9.988532
-1.550340 -1.388481 9.995670
-1.463881 -1.324314 10.003161
-1.379129 -1.257955 10.011041
-1.296364 -1.189184 10.019352
-1.215938 -1.117753 10.028143
-1.138289 -1.043380 10.037470
-1.063974 -0.965754 10.047398
-0.993704 -0.884536 10.057998
-0.928393 -0.799385 10.069351
-0.869208 -0.709984 10.081539
-0.817624 -0.616127 10.094636
-0.775436 -0.517835 10.108690
-0.744677 -0.415542 10.123691
-0.727356 -0.310277 10.139538
-0.724999 -0.203730 10.156012
-0.738134 -0.098018 10.172799
-0.766074 0.004793 10.189558
-0.807165 0.103159 10.206003
-0.859305 0.196249 10.221945
-0.920415 0.283836 10.237289
-0.988688 0.366090 10.252010
-1.062661 0.443383 10.266124
-1.141188 0.516159 10.279666
-1.223387 0.584869 10.292682
-1.308577 0.649933 10.305217
-1.396230 0.711728 10.317316
-1.485935 0.770586 10.329017
-1.152249 -1.748921 8.742547
-1.007099 -1.543778 8.765788
-0.875481 -1.330174 8.792765
-0.761742 -1.107171 8.824296
-0.672684 -0.874126 8.861484
-0.614903 -0.632583 8.904940
-0.598594 -0.386219 8.955325
-0.631873 -0.143095 9.012070
-0.714674 0.086841 9.073037
-0.842858 0.294556 9.135705
-1.004818 0.477506 9.197879
-1.190331 0.637327 9.258455
-1.393004 0.775788 9.316902
-1.151069 -1.747315 8.742722
-1.008195 -1.545439 8.765589
-1.006003 -1.542117 8.765988
-0.876472 -1.331896 8.792538
-0.874489 -1.328452 8.792992
-0.762522 -1.108991 8.824017
-0.760963 -1.105350 8.824574
-0.673273 -0.876010 8.861165
-0.672095 -0.872241 8.861804
-0.615250 -0.634518 8.904575
-0.614556 -0.630647 8.905305
-0.598481 -0.388168 8.954892
-0.598708 -0.384270 8.955758
-0.631414 -0.144984 9.011601
-0.632332 -0.141206 9.012539
-0.713884 0.085071 9.072546
-0.715465 0.088611 9.073528
-0.841667 0.293028 9.135209
-0.844049 0.296084 9.136201
-1.003437 0.476144 9.197391
-1.006199 0.478868 9.198367
-1.188811 0.636117 9.257980
-1.191851 0.638536 9.258930
-1.391342 0.774771 9.316448
-1.144972 -1.739021 8.743630
-1.013858 -1.554022 8.764558
-1.000340 -1.533534 8.767019
-0.881594 -1.340795 8.791362
-0.869367 -1.319553 8.794168
-0.766679 -1.118345 8.822607
-0.756934 -1.095943 8.826014
-0.676315 -0.885748 8.859514
-0.669053 -0.862503 8.863454
-0.617042 -0.644520 8.902690
-0.612763 -0.620645 8.907189
-0.597893 -0.398240 8.952654
-0.599296 -0.374198 8.957997
-0.629041 -0.154745 9.009175
-0.634705 -0.131444 9.014965
-0.709797 0.075924 9.070008
-0.719578 0.097744 9.076067
-0.835512 0.285132 9.132644
-0.850203 0.303981 9.138766
-0.996301 0.469106 9.194871
-1.013334 0.485905 9.200887
-1.180956 0.629865 9.255525
-1.199953 0.644476 9.261353
-1.382758 0.769517 9.314103
-1.129432 -1.717878 8.745942
-1.108776 -1.689775 8.749017
-1.088165 -1.661642 8.752104
-1.068205 -1.633062 8.755379
-1.048245 -1.604483 8.758654
-1.028292 -1.575899 8.761931
-0.985906 -1.511657 8.769646
-0.966862 -1.482492 8.773176
-0.948540 -1.452889 8.776904
-0.930218 -1.423287 8.780631
-0.912002 -1.393624 8.784386
-0.894649 -1.363476 8.788367
-0.856600 -1.296723 8.797236
-0.840335 -1.266011 8.801493
-0.824071 -1.235298 8.805750
-0.808064 -1.204465 8.810070
-0.793028 -1.173175 8.814625
-0.777991 -1.141885 8.819180
-0.746666 -1.071965 8.829683
-0.733017 -1.040093 8.834560
-0.719854 -1.008043 8.839544
-0.707775 -0.975598 8.844767
-0.695695 -0.943153 8.849990
-0.684068 -0.910568 8.855308
-0.661300 -0.837683 8.867661
-0.651813 -0.804490 8.873413
-0.643504 -0.771008 8.879394
-0.635196 -0.737525 8.885376
-0.627684 -0.703899 8.891501
-0.621611 -0.670013 8.897886
-0.609461 -0.595013 8.912203
-0.605864 -0.560855 8.918999
-0.602268 -0.526696 8.925795
-0.599907 -0.492495 8.932776
-0.599012 -0.458242 8.939976
-0.598117 -0.423989 8.947177
-0.600795 -0.348526 8.963702
-0.602786 -0.314402 8.971285
-0.606459 -0.280496 8.979061
-0.611458 -0.246761 8.986989
-0.616457 -0.213025 8.994917
-0.622992 -0.179626 9.002992
-0.640754 -0.106564 9.021148
-0.650762 -0.074106 9.029516
-0.661781 -0.041963 9.037959
-0.672801 -0.009819 9.046403
-0.685535 0.021623 9.054940
-0.699381 0.052611 9.063539
-0.731953 0.120060 9.082601
-0.748403 0.149723 9.091287
-0.764853 0.179385 9.099972
-0.782960 0.208033 9.108676
-0.801749 0.236264 9.117388
-0.820539 0.264495 9.126100
-0.865889 0.324107 9.145303
-0.886738 0.350859 9.153991
-0.909036 0.376418 9.162630
-0.931675 0.401696 9.171258
-0.954313 0.426974 9.179886
-0.978113 0.451168 9.188446
-1.031523 0.503843 9.207312
-1.056895 0.526439 9.215754
-1.082385 0.548912 9.224187
-1.107875 0.571385 9.232620
-1.134325 0.592751 9.240953
-1.160936 0.613931 9.249269
-1.220692 0.659500 9.267517
-1.248260 0.679470 9.275710
-1.275827 0.699440 9.283903
-1.304176 0.718334 9.291977
-1.332561 0.737178 9.300045
-1.360945 0.756023 9.308114
30 NaN NaN
-1.152544 -1.749322 8.742503
-1.089447 -1.663477 8.751893
-1.028476 -1.576178 8.761897
-0.969870 -1.487352 8.772565
-0.913904 -1.396928 8.783949
-0.860897 -1.304838 8.796111
-0.811217 -1.211025 8.809114
-0.765288 -1.115450 8.823029
-0.723598 -1.018099 8.837926
-0.686702 -0.918998 8.853879
-0.655223 -0.818233 8.870958
-0.629847 -0.715969 8.889226
-0.611300 -0.612478 8.908728
-0.600316 -0.508159 8.929483
-0.597583 -0.403554 8.951473
-0.603665 -0.299348 8.974631
-0.618931 -0.196330 8.998841
-0.643483 -0.095340 9.023938
-0.677132 0.002817 9.049722
-0.719414 0.097448 9.075980
-0.769649 0.188034 9.102504
-0.827032 0.274250 9.129110
-0.890710 0.355955 9.155646
-0.959853 0.433159 9.181997
-1.033693 0.505984 9.208078
-1.111550 0.574625 9.233836
-1.192833 0.639318 9.259237
-1.277038 0.700317 9.284263
-1.363740 0.757878 9.308908
-1.452582 0.812250 9.333176
-0.958493 -1.489182 6.424785
-0.869951 -1.299695 6.407639
-0.795612 -1.103990 6.393264
-0.739008 -0.902244 6.382351
-0.704437 -0.695430 6.375736
-0.696623 -0.485830 6.374339
-0.719721 -0.277445 6.378967
-0.775760 -0.075681 6.390013
-0.863460 0.114024 6.407223
-0.978568 0.287894 6.429768
-1.115510 0.444529 6.456558
-1.268968 0.584422 6.486558
-0.957619 -1.487391 6.424616
-0.870760 -1.301517 6.407795
-0.869205 -1.297845 6.407494
-0.796283 -1.105870 6.393394
-0.795016 -1.102084 6.393149
-0.739500 -0.904181 6.382446
-0.738590 -0.900291 6.382271
-0.704708 -0.697410 6.375788
-0.704234 -0.693441 6.375698
-0.696627 -0.487830 6.374338
-0.696672 -0.483832 6.374350
-0.719422 -0.279421 6.378907
-0.720052 -0.275475 6.379033
-0.775145 -0.077580 6.389892
-0.776381 -0.073784 6.390135
-0.862550 0.112252 6.407045
-0.864369 0.115796 6.407402
-0.977410 0.286279 6.429541
-0.979727 0.289509 6.429995
-1.114158 0.443079 6.456293
-1.116863 0.445978 6.456823
-1.267470 0.583129 6.486265
-0.953753 -1.479470 6.423867
-0.874359 -1.309568 6.408492
-0.865905 -1.289662 6.406856
-0.799249 -1.114184 6.393967
-0.792423 -1.093642 6.392649
-0.741676 -0.912745 6.382865
-0.736878 -0.891618 6.381942
-0.705904 -0.706172 6.376016
-0.703603 -0.684619 6.375580
-0.696643 -0.496676 6.374336
-0.697312 -0.475010 6.374480
-0.718096 -0.288164 6.378644
-0.722077 -0.266873 6.379433
-0.772424 -0.085980 6.389356
-0.779774 -0.065642 6.390801
-0.858525 0.104414 6.406256
-0.868956 0.123305 6.408300
-0.972286 0.279139 6.428538
-0.985278 0.296308 6.431081
-1.108175 0.436669 6.455123
-1.123154 0.452072 6.458053
-1.260844 0.577413 6.484970
-0.944223 -1.459945 6.422021
-0.931585 -1.434051 6.419573
-0.918947 -1.408158 6.417125
-0.906756 -1.382048 6.414764
-0.894992 -1.355730 6.412487
-0.883229 -1.329412 6.410209
-0.857771 -1.269493 6.405282
-0.846984 -1.242745 6.403195
-0.836196 -1.215996 6.401109
-0.825952 -1.189034 6.399128
-0.816256 -1.161855 6.397254
-0.806560 -1.134677 6.395380
-0.786031 -1.072832 6.391415
-0.777555 -1.045233 6.389780
-0.769079 -1.017635 6.388144
-0.761265 -0.989844 6.386637
-0.754152 -0.961849 6.385267
-0.747039 -0.933854 6.383898
-0.732660 -0.870241 6.381133
-0.727066 -0.841891 6.380059
-0.721472 -0.813540 6.378986
-0.716675 -0.785052 6.378068
-0.712764 -0.756411 6.377323
-0.708853 -0.727769 6.376577
-0.702049 -0.662872 6.375290
-0.699988 -0.634031 6.374906
-0.697927 -0.605190 6.374521
-0.696791 -0.576314 6.374317
-0.696738 -0.547397 6.374324
-0.696684 -0.518480 6.374331
-0.698888 -0.453265 6.374800
-0.700978 -0.424427 6.375225
-0.703067 -0.395588 6.375649
-0.706166 -0.366867 6.376271
-0.710498 -0.338290 6.377132
-0.714830 -0.309712 6.377994
-0.727069 -0.245670 6.380418
-0.733690 -0.217552 6.381726
-0.740310 -0.189434 6.383034
-0.747929 -0.161604 6.384535
-0.756823 -0.134145 6.386286
-0.765718 -0.106686 6.388036
-0.788137 -0.045572 6.392444
-0.799228 -0.018955 6.394622
-0.810319 0.007661 6.396800
-0.822293 0.033852 6.399150
-0.835449 0.059473 6.401730
-0.848605 0.085095 6.404310
-0.880304 0.141791 6.410524
-0.895353 0.166307 6.413472
-0.910402 0.190822 6.416421
-0.926159 0.214850 6.419507
-0.942908 0.238193 6.422786
-0.959657 0.261537 6.426065
-0.999039 0.313006 6.433773
-1.017288 0.335151 6.437344
-1.035537 0.357296 6.440915
-1.054315 0.378960 6.444589
-1.073872 0.399914 6.448414
-1.093428 0.420869 6.452239
-1.138753 0.466998 6.461103
-1.159440 0.486794 6.465147
-1.180127 0.506590 6.469192
-1.201195 0.525951 6.473311
-1.222854 0.544637 6.477544
-1.244513 0.563323 6.481778
24 NaN NaN
-0.958712 -1.489629 6.424828
-0.912765 -1.395492 6.415927
-0.869999 -1.299813 6.407648
-0.830782 -1.202571 6.400061
-0.795532 -1.103766 6.393249
-0.764718 -1.003436 6.387302
-0.738861 -0.901665 6.382323
-0.718525 -0.798606 6.378420
-0.704309 -0.694490 6.375712
-0.696816 -0.589654 6.374314
-0.696621 -0.484544 6.374339
-0.704217 -0.379723 6.375883
-0.719963 -0.275851 6.379015
-0.744027 -0.173650 6.383768
-0.776355 -0.073845 6.390130
-0.816668 0.022897 6.398047
-0.864487 0.116025 6.407425
-0.919189 0.205136 6.418142
-0.980071 0.289988 6.430062
-1.046408 0.370488 6.443042
-1.117501 0.446661 6.456947
-1.192703 0.518625 6.471651
-1.271440 0.586555 6.487041
-1.353208 0.650664 6.503020
