0.177410 0.177389 0.177150 0.176123 0.174496 0.173040 0.171584 0.170127 0.168788 0.167942 0.167757 0.167740 0.167724 0.167540 0.166743 0.165480 0.164300 0.163119 0.161938 0.160852 0.160167 0.160018 0.160005 0.159992 0.159844 0.159209 0.158205 0.157271 0.156338 0.155405 0.154523 0.153967 0.153844 0.153833 0.153822 0.153700 0.153162 0.152310 0.151488 0.150666 0.149844 0.149055 0.148557 0.148448 0.148438 0.148429 0.148320 0.147841 0.147081 0.146357 0.145632 0.144908 0.144219 0.143784 0.143691 0.143683 0.143675 0.143582 0.143173 0.142524 0.141919 0.141314 0.140709 0.140148 0.139793 0.139716 0.139709 0.139702 0.139625 0.139290 0.138759 0.138260 0.137761 0.137261 0.136791 0.136494 0.136429 0.136424 0.136418 0.136353 0.136070 0.135621 0.135192 0.134763 0.134335 0.133925 0.133667 0.133610 0.133605 0.133600 0.133543 0.133295 0.132901 0.132522 0.132143 0.131764 0.131398 0.131167 0.131116 0.131112 0.131107 0.131057 0.130832 0.130478 0.130135 0.129793 0.129451 0.129121 0.128913 0.128867 0.128863 0.128859 0.128814 0.128612 0.128293 0.127986 0.127680 0.127373 0.127079 0.126893 0.126853 0.126849 
0.177423 0.177452 0.177674 0.178232 0.178976 0.179623 0.180270 0.180917 0.181462 0.181870 0.182014 0.182032 0.182051 0.182193 0.182563 0.183056 0.183506 0.183956 0.184405 0.184825 0.185139 0.185252 0.185267 0.185282 0.185394 0.185693 0.186092 0.186482 0.186872 0.187262 0.187643 0.187928 0.188033 0.188047 0.188061 0.188166 0.188457 0.188846 0.189241 0.189636 0.190031 0.190427 0.190724 0.190834 0.190848 0.190863 0.190973 0.191279 0.191689 0.192104 0.192520 0.192936 0.193360 0.193678 0.193796 0.193811 0.193827 0.193944 0.194269 0.194702 0.195130 0.195558 0.195986 0.196415 0.196737 0.196858 0.196874 0.196889 0.197010 0.197337 0.197773 0.198206 0.198640 0.199074 0.199508 0.199834 0.199957 0.199973 0.199989 0.200111 0.200439 0.200876 0.201303 0.201729 0.202155 0.202570 0.202881 0.202993 0.203007 0.203022 0.203135 0.203428 0.203820 0.204189 0.204557 0.204926 0.205259 0.205508 0.205596 0.205608 0.205619 0.205706 0.205925 0.206217 0.206457 0.206696 0.206935 0.207116 0.207251 0.207294 0.207300 0.207305 0.207347 0.207440 0.207565 0.207624 0.207683 0.207742 0.207746 0.207750 0.207745 0.207744 0.207743 0.207736 0.207696 0.207643 0.207529 0.207416 0.207302 0.207129 0.207000 0.206946 0.206939 0.206931 0.206873 0.206713 0.206500 0.206241 0.205982 0.205724 0.205418 0.205188 0.205100 0.205089 0.205077 0.204988 0.204738 0.204404 0.204037 0.203670 0.203304 0.202911 0.202616 0.202504 0.202490 0.202475 0.202362 0.202048 0.201629 0.201185 0.200741 0.200297 0.199834 0.199487 0.199358 0.199342 0.199325 0.199196 0.198839 0.198363 0.197874 0.197385 0.196896 0.196399 0.196027 0.195890 0.195872 
0.177414 0.177408 0.177332 0.176675 0.175634 0.174740 0.173845 0.172951 0.172716 0.172568 0.172534 0.172531 0.172528 0.172496 0.172382 0.172201 0.171897 0.171594 0.171291 0.170860 0.170589 0.170517 0.170511 0.170506 0.170446 0.170213 0.169844 0.169215 0.168586 0.167957 0.167091 0.166545 0.166420 0.166410 0.166400 0.166276 0.165724 0.164851 0.163950 0.163050 0.162149 0.161022 0.160311 0.160134 0.160120 0.160105 0.159926 0.159000 0.157534 0.155600 0.153667 0.151733 0.149326 0.147806 0.147426 0.147395 0.147363 0.146973 0.145091 0.142110 0.139188 0.136265 0.133343 0.130992 0.129509 0.129219 0.129195 0.129172 0.128889 0.127784 0.126035 0.124832 0.123629 0.122426 0.121602 0.121082 0.120980 0.120972 0.120964 0.120863 0.120469 0.119844 0.119385 0.118927 0.118468 0.118125 0.117908 0.117865 0.117862 0.117858 0.117816 0.117641 0.117364 0.117146 0.116927 0.116708 0.116532 0.116420 0.116397 0.116396 0.116394 0.116371 0.116275 0.116124 0.115995 0.115866 0.115737 0.115627 0.115557 0.115542 0.115541 0.115540 0.115525 0.115463 0.115364 0.115278 0.115192 0.115106 0.115031 0.114984 0.114974 0.114973 0.114972 0.114962 0.114920 0.114853 0.114795 0.114737 0.114678 0.114627 0.114595 0.114588 0.114588 0.114587 0.114580 0.114551 0.114505 0.114465 0.114425 0.114384 0.114349 0.114326 0.114321 0.114321 0.114321 0.114316 0.114296 0.114264 0.114236 0.114208 0.114180 0.114156 0.114141 0.114138 0.114138 0.114137 0.114134 0.114121 0.114101 0.114080 0.114060 0.114039 0.114002 0.113979 0.113971 0.113971 
0.136422 0.136415 0.136384 0.136303 0.136197 0.136088 0.135980 0.135871 0.135759 0.135676 0.135641 0.135634 0.135627 0.135593 0.135507 0.135393 0.135276 0.135160 0.135043 0.134924 0.134835 0.134799 0.134791 0.134784 0.134748 0.134658 0.134537 0.134427 0.134316 0.134206 0.134111 0.134041 0.134013 0.134007 0.134002 0.133974 0.133907 0.133818 0.133735 0.133652 0.133568 0.133491 0.133432 0.133409 0.133405 0.133400 0.133377 0.133323 0.133252 0.133185 0.133118 0.133051 0.132989 0.132942 0.132923 0.132919 0.132916 0.132899 0.132858 0.132803 0.132752 0.132701 0.132650 0.132603 0.132567 0.132555 0.132552 0.132550 0.132537 0.132506 0.132464 0.132427 0.132390 0.132353 0.132319 0.132294 0.132285 0.132283 0.132281 0.132272 0.132248 0.132217 0.132190 0.132163 0.132136 0.132113 0.132095 0.132088 0.132086 0.132085 0.132078 0.132061 0.132038 0.132017 0.131997 0.131976 0.131957 0.131943 0.131938 0.131936 
0.148436 0.148426 0.148400 0.148350 0.148285 0.148219 0.148153 0.148087 0.148021 0.147971 0.147945 0.147935 0.147925 0.147899 0.147848 0.147780 0.147714 0.147647 0.147580 0.147514 0.147463 0.147438 0.147427 0.147417 0.147391 0.147340 0.147273 0.147206 0.147139 0.147072 0.147005 0.146954 0.146928 0.146918 0.146907 0.146882 0.146830 0.146764 0.146696 0.146628 0.146561 0.146493 0.146441 0.146415 0.146404 0.146393 0.146367 0.146316 0.146249 0.146181 0.146113 0.146045 0.145977 0.145925 0.145899 0.145889 0.145878 0.145852 0.145801 0.145734 0.145666 0.145598 0.145530 0.145462 0.145409 0.145383 0.145372 0.145361 0.145335 0.145283 0.145214 0.145145 0.145076 0.145007 0.144937 0.144884 0.144857 0.144846 0.144835 0.144808 0.144755 0.144685 0.144615 0.144545 0.144475 0.144404 0.144350 0.144323 0.144311 0.144300 0.144273 0.144219 0.144148 0.144077 0.144006 0.143934 0.143863 0.143808 0.143780 0.143769 0.143758 0.143730 0.143675 0.143604 0.143532 0.143460 0.143389 0.143327 0.143280 0.143258 0.143250 0.143241 0.143220 0.143178 0.143124 0.143070 0.143017 0.142963 0.142912 0.142872 0.142853 0.142845 0.142837 0.142818 0.142780 0.142731 0.142683 0.142635 0.142587 0.142540 0.142504 0.142486 0.142479 0.142472 0.142455 0.142422 0.142378 0.142335 0.142292 0.142249 0.142206 0.142173 0.142157 0.142150 0.142144 0.142128 0.142097 0.142058 0.142019 0.141980 0.141940 0.141902 0.141872 0.141857 0.141851 0.141845 0.141830 0.141802 0.141766 0.141730 0.141695 0.141659 0.141624 0.141597 0.141584 0.141578 0.141573 0.141559 0.141533 0.141499 0.141467 0.141435 0.141402 0.141370 0.141346 0.141333 0.141328 0.141323 0.141311 0.141286 0.141254 0.141224 0.141195 0.141165 0.141136 0.141113 0.141102 0.141098 0.141093 0.141082 0.141059 0.141030 0.141003 0.140975 0.140948 0.140921 0.140900 0.140890 0.140886 0.140881 0.140871 0.140851 0.140824 0.140798 0.140772 0.140747 0.140722 0.140703 0.140694 0.140690 0.140686 0.140677 0.140658 0.140633 0.140609 0.140584 0.140560 0.140538 0.140520 0.140512 0.140508 0.140504 0.140496 0.140478 0.140455 0.140433 0.140410 0.140387 0.140366 0.140349 0.140341 0.140338 0.140335 0.140326 0.140310 0.140289 0.140267 0.140245 0.140224 0.140203 0.140188 0.140180 0.140177 0.140174 0.140166 0.140150 0.140130 0.140110 0.140089 0.140069 0.140049 0.140033 0.140026 0.140023 0.140020 0.140013 0.139998 0.139978 0.139959 0.139939 0.139919 0.139899 0.139884 0.139876 0.139873 0.139871 0.139863 0.139849 0.139830 0.139810 0.139791 0.139772 0.139752 0.139737 0.139729 0.139726 0.139723 0.139716 0.139702 0.139683 0.139664 0.139645 0.139626 0.139606 0.139591 0.139584 0.139580 
0.153831 0.153821 0.153747 0.153537 0.153256 0.152953 0.152649 0.152346 0.152031 0.151795 0.151710 0.151699 0.151688 0.151602 0.151366 0.151052 0.150736 0.150421 0.150105 0.149776 0.149530 0.149438 0.149427 0.149415 0.149323 0.149062 0.148715 0.148416 0.148118 0.147819 0.147576 0.147394 0.147332 0.147324 0.147316 0.147254 0.147100 0.146895 0.146721 0.146547 0.146374 0.146223 0.146110 0.146072 0.146067 0.146062 0.146024 0.145926 0.145795 0.145678 0.145561 0.145444 0.145338 0.145259 0.145231 0.145228 0.145224 0.145196 0.145123 0.145024 0.144930 0.144835 0.144741 0.144649 0.144579 0.144555 0.144551 
0.160003 0.159996 0.159970 0.159909 0.159828 0.159739 0.159651 0.159562 0.159462 0.159387 0.159352 0.159342 0.159332 0.159298 0.159217 0.159111 0.158998 0.158885 0.158772 0.158653 0.158564 0.158525 0.158513 0.158502 0.158462 0.158368 0.158244 0.158119 0.157994 0.157869 0.157745 0.157652 0.157610 0.157598 0.157586 0.157545 0.157453 0.157332 0.157210 0.157087 0.156965 0.156850 0.156762 0.156726 0.156715 0.156704 0.156668 0.156590 0.156487 0.156392 0.156298 0.156203 0.156106 0.156032 0.155999 0.155989 0.155979 0.155945 0.155865 0.155760 0.155651 0.155543 0.155434 0.155320 0.155233 0.155194 0.155183 0.155172 0.155134 0.155045 0.154927 0.154802 0.154677 0.154552 0.154422 0.154324 0.154280 0.154268 0.154255 0.154212 0.154111 0.153979 0.153847 0.153715 0.153583 0.153452 0.153353 0.153310 0.153298 0.153285 0.153242 0.153145 0.153017 0.152896 0.152776 0.152655 0.152540 0.152453 0.152415 0.152404 0.152394 0.152356 0.152274 0.152166 0.152065 0.151964 0.151863 0.151768 0.151696 0.151667 0.151658 0.151649 0.151620 0.151554 0.151467 0.151384 0.151301 0.151218 0.151143 0.151086 0.151061 0.151054 0.151047 0.151022 0.150966 0.150892 0.150826 0.150759 0.150693 0.150627 0.150577 0.150555 0.150548 0.150542 0.150522 0.150477 0.150418 0.150360 0.150301 0.150243 0.150188 0.150147 0.150129 0.150124 0.150119 0.150101 0.150060 0.150006 0.149955 0.149904 0.149853 0.149802 0.149764 0.149748 0.149743 0.149738 0.149721 0.149685 0.149638 0.149591 0.149544 0.149497 0.149451 0.149416 0.149401 0.149397 0.149392 0.149378 0.149344 0.149299 0.149255 0.149210 0.149166 0.149122 0.149089 0.149075 0.149070 0.149066 0.149051 0.149018 0.148973 0.148930 0.148886 0.148843 0.148798 0.148765 0.148750 0.148746 
0.167740 0.167738 0.167732 0.167709 0.167677 0.167617 0.167556 0.167496 0.167402 0.167331 0.167297 0.167288 0.167279 0.167243 0.167146 0.167016 0.166851 0.166687 0.166522 0.166325 0.166177 0.166110 0.166093 0.166076 0.166009 0.165836 0.165608 0.165342 0.165076 0.164810 0.164537 0.164331 0.164248 0.164227 0.164205 0.164119 0.163977 0.163790 0.163660 0.163529 0.163399 0.163262 0.163159 0.163116 0.163105 0.163094 0.163050 0.162943 0.162802 0.162655 0.162507 0.162360 0.162206 0.162089 0.162039 0.162026 0.162014 0.161963 0.161842 0.161681 0.161511 0.161342 0.161172 0.160997 0.160865 0.160809 0.160795 0.160781 0.160724 0.160583 0.160396 0.160206 0.160015 0.159824 0.159623 0.159470 0.159406 0.159390 0.159374 0.159309 0.159153 0.158946 0.158737 0.158528 0.158318 0.158108 0.157950 0.157884 0.157867 0.157850 0.157784 0.157627 0.157419 0.157219 0.157020 0.156821 0.156631 0.156487 0.156428 0.156413 0.156399 0.156341 0.156210 0.156036 0.155871 0.155707 0.155542 0.155394 0.155283 0.155237 0.155226 0.155214 0.155169 0.155063 0.154924 0.154798 0.154673 0.154547 0.154429 0.154340 0.154305 0.154296 0.154288 0.154253 0.154171 0.154062 0.153961 0.153860 0.153759 0.153662 0.153588 0.153558 0.153550 0.153542 0.153512 0.153446 0.153358 0.153270 0.153182 0.153095 0.153013 0.152952 0.152926 0.152919 0.152913 0.152887 0.152826 0.152744 0.152668 0.152591 0.152514 0.152438 0.152381 0.152358 0.152352 0.152346 0.152323 0.152267 0.152194 0.152120 0.152047 0.151974 0.151901 0.151846 0.151823 0.151817 
0.182028 0.182011 0.181922 0.181683 0.181364 0.181003 0.180641 0.180279 0.179873 0.179567 0.179440 0.179416 0.179391 0.179264 0.178929 0.178484 0.177998 0.177513 0.177028 0.176491 0.176088 0.175924 0.175893 0.175861 0.175695 0.175254 0.174668 0.174058 0.173448 0.172838 0.172232 0.171776 0.171608 0.171576 0.171544 0.171377 0.171066 0.170654 0.170311 0.169968 0.169625 0.169285 0.169029 0.168927 0.168908 0.168888 0.168787 0.168530 0.168187 0.167839 0.167490 0.167142 0.166784 0.166515 0.166410 0.166389 0.166369 0.166264 0.165990 0.165627 0.165250 0.164873 0.164495 0.164109 0.163819 0.163705 0.163683 0.163661 0.163544 0.163247 0.162853 0.162456 0.162060 0.161664 0.161277 0.160986 0.160875 0.160854 0.160833 0.160723 0.160449 0.160085 0.159762 0.159439 0.159115 0.158841 0.158635 0.158557 0.158541 0.158526 0.158448 0.158268 0.158028 0.157821 0.157615 0.157408 0.157228 0.157093 0.157040 0.157029 0.157020 0.156974 0.156859 0.156707 0.156570 0.156434 0.156297 0.156173 0.156079 0.156046 0.156039 0.156033 0.155999 0.155912 0.155797 0.155696 0.155595 0.155493 0.155402 0.155333 0.155305 0.155300 0.155295 0.155268 0.155202 0.155114 0.155030 0.154946 0.154862 0.154781 0.154720 0.154696 0.154692 
0.185262 0.185239 0.185165 0.184989 0.184756 0.184506 0.184255 0.184004 0.183731 0.183524 0.183430 0.183402 0.183374 0.183280 0.183058 0.182765 0.182450 0.182134 0.181819 0.181486 0.181233 0.181121 0.181087 0.181053 0.180939 0.180675 0.180327 0.179958 0.179590 0.179221 0.178822 0.178519 0.178381 0.178340 0.178300 0.178167 0.177864 0.177465 0.177098 0.176730 0.176363 0.176012 0.175747 0.175633 0.175599 0.175565 0.175453 0.175292 0.175079 0.174877 0.174675 0.174473 0.174269 0.174115 0.174047 0.174027 0.174007 0.173939 0.173786 0.173583 0.173374 0.173165 0.172955 0.172744 0.172583 0.172513 0.172492 0.172470 0.172399 0.172232 0.172011 0.171790 0.171568 0.171347 0.171116 0.170942 0.170864 0.170840 0.170817 0.170739 0.170560 0.170325 0.170081 0.169838 0.169594 0.169343 0.169152 0.169069 0.169044 0.169019 0.168936 0.168745 0.168494 0.168234 0.167974 0.167713 0.167453 0.167256 0.167169 0.167143 0.167117 0.167031 0.166833 0.166573 0.166318 0.166064 0.165809 0.165563 0.165376 0.165296 0.165273 0.165249 0.165169 0.164992 0.164759 0.164540 0.164322 0.164103 0.163903 0.163751 0.163685 0.163666 0.163646 0.163581 0.163436 0.163246 0.163083 0.162920 0.162757 0.162599 0.162478 0.162426 0.162411 0.162395 0.162344 0.162243 0.162110 0.161982 0.161854 0.161727 0.161610 0.161521 0.161486 0.161476 0.161465 0.161430 0.161350 0.161245 0.161144 0.161044 0.160944 0.160855 0.160787 0.160757 0.160748 0.160739 0.160709 0.160640 0.160549 0.160471 0.160393 0.160315 0.160237 0.160178 0.160153 0.160145 0.160137 0.160111 0.160059 0.159990 0.159921 0.159853 0.159785 0.159719 0.159669 0.159649 0.159643 0.159637 0.159617 0.159572 0.159511 0.159452 0.159393 0.159334 0.159279 0.159238 0.159220 0.159215 0.159209 0.159191 0.159149 0.159094 0.159043 0.158991 0.158940 0.158888 0.158849 0.158832 0.158827 
0.193798 0.193743 0.193337 0.192253 0.190807 0.189420 0.188032 0.186645 0.185365 0.184405 0.184064 0.184018 0.183973 0.183640 0.182781 0.181635 0.180590 0.179544 0.178499 0.177501 0.176753 0.176476 0.176439 0.176402 0.176127 0.175394 0.174415 0.173471 0.172526 0.171581 0.170693 0.170027 0.169787 0.169755 0.169723 0.169485 0.168945 0.168225 0.167714 0.167203 0.166691 0.166306 0.166018 0.165927 0.165914 0.165902 0.165810 0.165586 0.165288 0.165047 0.164806 0.164565 0.164381 0.164243 0.164192 0.164185 0.164180 0.164138 0.164028 0.163882 0.163774 0.163665 0.163557 0.163475 0.163413 0.163394 0.163392 
0.202988 0.202909 0.202607 0.201899 0.200961 0.200052 0.199143 0.198235 0.197364 0.196706 0.196436 0.196366 0.196297 0.196030 0.195407 0.194583 0.193797 0.193010 0.192224 0.191480 0.190917 0.190686 0.190626 0.190567 0.190339 0.189811 0.189112 0.188446 0.187779 0.187113 0.186479 0.186000 0.185804 0.185753 0.185703 0.185508 0.185054 0.184454 0.183878 0.183302 0.182726 0.182180 0.181767 0.181597 0.181552 0.181508 0.181339 0.180940 0.180412 0.179911 0.179409 0.178908 0.178424 0.178059 0.177913 0.177876 0.177838 0.177693 0.177352 0.176902 0.176486 0.176071 0.175655 0.175308 0.175045 0.174939 0.174911 0.174884 0.174778 0.174550 0.174247 0.173970 0.173693 0.173416 0.173181 0.173004 0.172931 0.172913 0.172894 0.172821 0.172650 0.172423 0.172223 0.172024 0.171824 0.171629 0.171481 0.171423 0.171408 0.171395 0.171342 0.171216 0.171050 0.170892 0.170733 0.170575 0.170431 0.170323 0.170277 0.170265 0.170253 0.170207 0.170103 0.169966 0.169843 0.169720 0.169598 0.169485 0.169400 0.169367 0.169358 0.169350 0.169317 0.169239 0.169136 0.169047 0.168958 0.168868 0.168784 0.168720 0.168694 0.168688 
0.202467 0.202379 0.201982 0.201030 0.199768 0.198614 0.197461 0.196307 0.195236 0.194428 0.194113 0.194043 0.193975 0.193666 0.192928 0.191949 0.191050 0.190152 0.189253 0.188429 0.187807 0.187568 0.187514 0.187462 0.187226 0.186656 0.185900 0.185201 0.184502 0.183804 0.183158 0.182670 0.182485 0.182444 0.182404 0.182223 0.181781 0.181196 0.180661 0.180126 0.179591 0.179094 0.178720 0.178582 0.178551 0.178521 0.178386 0.178058 0.177624 0.177285 0.176947 0.176608 0.176362 0.176176 0.176114 0.176100 0.176086 0.176023 0.175864 0.175653 0.175458 0.175263 0.175068 0.174881 0.174739 0.174692 0.174682 0.174671 0.174624 0.174500 0.174335 0.174176 0.174017 0.173857 0.173695 0.173573 0.173529 0.173519 0.173509 0.173464 0.173346 0.173190 0.173047 0.172904 0.172761 0.172620 0.172514 0.172476 0.172468 
