0.010419
14
0.009319
8
0.004660
26
0.010419
15
0.001785
16
A5
0.002802
13
A2
0.002981
13
D1
0.004220
8
D3
0.001671
19
D7
0.002058
14
D8
0.003257
9
D9
0.001712
17
D10
0.003868
7
D12
0.001483
18
D13
0.003199
9
D15
0.002637
11
D17
0.001286
21
D21
0.003693
7
D24
