-2.112376 -1.346102 1.065680
-1.700910 -1.379473 2.351268
-1.248747 -1.470397 3.622100
-0.957177 -1.341565 4.931920
-0.793282 -1.049709 6.242175
-0.631850 -0.754823 7.552137
-2.111893 -1.345978 1.067617
-1.701600 -1.379306 2.349398
-1.700219 -1.379639 2.353137
-1.249343 -1.470365 3.620191
-1.248150 -1.470428 3.624008
-0.957465 -1.341941 4.929977
-0.956889 -1.341189 4.933863
-0.793518 -1.050148 6.240238
-0.793045 -1.049271 6.244112
-0.632089 -0.755259 7.550200
-2.104997 -1.344205 1.095263
-1.711456 -1.376937 2.322710
-1.690357 -1.382016 2.379822
-1.257864 -1.469911 3.592948
-1.239629 -1.470882 3.651251
-0.961574 -1.347303 4.902240
-0.952863 -1.335724 4.961592
-0.796892 -1.056414 6.212591
-0.789665 -1.043012 6.271760
-0.635503 -0.761475 7.522547
-2.072716 -1.337257 1.221145
-2.017092 -1.332331 1.419618
-1.956740 -1.333943 1.616768
-1.892555 -1.340953 1.812591
-1.825381 -1.352234 2.007212
-1.756010 -1.366692 2.200854
-1.645267 -1.393047 2.501413
-1.573606 -1.410853 2.693942
-1.502300 -1.428136 2.886650
-1.432053 -1.443869 3.079878
-1.363596 -1.457001 3.273939
-1.297694 -1.466454 3.469094
-1.202089 -1.471127 3.775864
-1.146606 -1.466007 3.974378
-1.096799 -1.453207 4.174041
-1.053061 -1.432382 4.374451
-1.014722 -1.404567 4.575124
-0.980930 -1.370976 4.775736
-0.935281 -1.309854 5.087926
-0.909162 -1.266731 5.287868
-0.884519 -1.221806 5.487603
-0.860505 -1.176115 5.687241
-0.836457 -1.130465 5.886885
-0.812246 -1.085014 6.086554
-0.774239 -1.014501 6.397808
-0.749716 -0.969429 6.597525
-0.725114 -0.924453 6.797254
-0.700458 -0.879543 6.996991
-0.675772 -0.834670 7.196733
-0.651080 -0.789804 7.396476
80 NaN NaN
-2.112497 -1.346133 1.065196
-2.087880 -1.339804 1.163886
-2.061814 -1.335425 1.262309
-2.034413 -1.332864 1.360434
-2.005790 -1.331983 1.458239
-1.976057 -1.332645 1.555715
-1.945322 -1.334711 1.652860
-1.913690 -1.338044 1.749682
-1.881265 -1.342507 1.846195
-1.848146 -1.347966 1.942421
-1.814428 -1.354288 2.038386
-1.780204 -1.361342 2.134121
-1.745566 -1.369001 2.229661
-1.710601 -1.377136 2.325042
-1.675397 -1.385623 2.420304
-1.640039 -1.394336 2.515489
-1.604610 -1.403152 2.610638
-1.569195 -1.411948 2.705794
-1.533878 -1.420600 2.800999
-1.498743 -1.428985 2.896296
-1.463876 -1.436977 2.991725
-1.429365 -1.444451 3.087325
-1.395298 -1.451279 3.183132
-1.361766 -1.457331 3.279180
-1.328865 -1.462477 3.375498
-1.296690 -1.466583 3.472111
-1.265342 -1.469513 3.569038
-1.234925 -1.471132 3.666291
-1.205546 -1.471301 3.763876
-1.177313 -1.469882 3.861788
-1.150339 -1.466737 3.960014
-1.124737 -1.461731 4.058529
-1.100621 -1.454733 4.157298
-1.078029 -1.445716 4.256263
-1.056876 -1.434815 4.355356
-1.037063 -1.422177 4.454521
-1.018488 -1.407950 4.553710
-1.001047 -1.392281 4.652888
-0.984636 -1.375313 4.752029
-0.969148 -1.357188 4.851113
-0.954479 -1.338044 4.950131
-0.940524 -1.318017 5.049077
-0.927179 -1.297240 5.147953
-0.914339 -1.275842 5.246763
-0.901902 -1.253952 5.345518
-0.889766 -1.231695 5.444227
-0.877829 -1.209197 5.542907
-0.865987 -1.186582 5.641571
-0.854143 -1.163970 5.740235
-0.842257 -1.141410 5.838906
-0.830328 -1.118900 5.937584
-0.818361 -1.096437 6.036268
-0.806359 -1.074018 6.134957
-0.794324 -1.051639 6.233652
-0.782258 -1.029296 6.332351
-0.770165 -1.006986 6.431054
-0.758049 -0.984706 6.529761
-0.745911 -0.962452 6.628471
-0.733754 -0.940220 6.727184
-0.721582 -0.918007 6.825899
-0.709398 -0.895809 6.924616
-0.697204 -0.873623 7.023335
-0.685004 -0.851444 7.122054
-0.672800 -0.829270 7.220774
-0.660595 -0.807097 7.319494
-0.648393 -0.784920 7.418214
-0.636196 -0.762737 7.516933
-0.624008 -0.740544 7.615651
-0.611831 -0.718337 7.714367
-0.599668 -0.696113 7.813081
-0.587523 -0.673868 7.911792
-0.575397 -0.651598 8.010500
-0.563295 -0.629300 8.109205
-0.551219 -0.606971 8.207905
-0.539172 -0.584606 8.306602
-0.527156 -0.562202 8.405293
-0.515175 -0.539757 8.503979
-0.503232 -0.517265 8.602659
-0.491329 -0.494725 8.701333
-0.479469 -0.472133 8.800000
-2.112086 -1.346080 1.064915
-1.608187 -1.281415 0.720277
-1.104287 -1.216751 0.375639
-0.600388 -1.152086 0.031000
-2.110445 -1.345869 1.063792
-1.609829 -1.281626 0.721400
-1.606545 -1.281205 0.719154
-1.105929 -1.216961 0.376761
-1.102646 -1.216540 0.374516
-0.602030 -1.152297 0.032123
-2.094288 -1.343796 1.052742
-1.625985 -1.283699 0.732450
-1.590389 -1.279131 0.708104
-1.122086 -1.219035 0.387811
-1.086489 -1.214467 0.363466
-0.618186 -1.154370 0.043173
-2.042825 -1.337192 1.017544
-1.969750 -1.327814 0.967565
-1.896674 -1.318437 0.917586
-1.823599 -1.309059 0.867606
-1.750523 -1.299681 0.817627
-1.677448 -1.290304 0.767647
-1.538926 -1.272527 0.672906
-1.465850 -1.263150 0.622927
-1.392775 -1.253772 0.572947
-1.319699 -1.244394 0.522968
-1.246624 -1.235017 0.472989
-1.173549 -1.225639 0.423009
-1.035026 -1.207863 0.328268
-0.961951 -1.198485 0.278289
-0.888875 -1.189107 0.228309
-0.815800 -1.179730 0.178330
-0.742725 -1.170352 0.128350
-0.669649 -1.160974 0.078371
19 NaN NaN
-2.112497 -1.346133 1.065196
-2.025973 -1.335029 1.006018
-1.939448 -1.323926 0.946841
-1.852924 -1.312822 0.887663
-1.766400 -1.301719 0.828486
-1.679876 -1.290615 0.769308
-1.593352 -1.279512 0.710130
-1.506828 -1.268408 0.650953
-1.420304 -1.257305 0.591775
-1.333779 -1.246201 0.532598
-1.247255 -1.235098 0.473420
-1.160731 -1.223994 0.414243
-1.074207 -1.212891 0.355065
-0.987683 -1.201787 0.295888
-0.901159 -1.190684 0.236710
-0.814635 -1.179580 0.177533
-0.728110 -1.168477 0.118355
-0.641586 -1.157373 0.059178
-0.555062 -1.146270 0.000000
-2.112923 -1.346391 1.065157
-3.203702 -1.469636 0.343901
-3.694177 -0.768302 -0.781784
-3.995651 0.248046 -1.722237
-4.291328 1.267688 -2.663382
-4.585014 2.294083 -3.597831
-4.877902 3.323439 -4.529255
-5.182452 4.317696 -5.494354
-5.531304 5.264976 -6.490904
-5.955145 6.127864 -7.533450
-6.480717 6.863196 -8.625646
-7.124726 7.428636 -9.754463
-7.884663 7.794039 -10.893470
-8.735942 7.954779 -12.015352
-2.114630 -1.347422 1.065001
-3.202763 -1.470398 0.345494
-3.204640 -1.468874 0.342308
-3.693630 -0.769566 -0.780334
-3.694723 -0.767039 -0.783235
-3.995241 0.246613 -1.720903
-3.996061 0.249479 -1.723571
-4.290917 1.266240 -2.662065
-4.291740 1.269136 -2.664699
-4.584599 2.292634 -3.596516
-4.585428 2.295532 -3.599145
-4.877488 3.322004 -4.527926
-4.878316 3.324875 -4.530585
-5.182000 4.316319 -5.492976
-5.182905 4.319073 -5.495732
-5.530769 5.263688 -6.489471
-5.531840 5.266264 -6.492337
-5.954485 6.126722 -7.531947
-5.955804 6.129006 -7.534954
-6.479900 6.862262 -8.624077
-6.481538 6.864124 -8.627216
-7.123728 7.427984 -9.752857
-7.125723 7.429288 -9.756069
-7.883517 7.793677 -10.891872
-7.885809 7.794401 -10.895069
-8.734692 7.954692 -12.013793
-2.140121 -1.362828 1.062676
-3.187829 -1.480915 0.369121
-3.218663 -1.457488 0.318511
-3.685347 -0.788136 -0.758452
-3.702885 -0.748165 -0.804908
-3.989127 0.225202 -1.700986
-4.002179 0.270886 -1.743492
-4.284773 1.244611 -2.642394
-4.297883 1.290766 -2.684370
-4.578402 2.270988 -3.576879
-4.591625 2.317178 -3.618782
-4.871308 3.300557 -4.508066
-4.884496 3.346322 -4.550444
-5.175244 4.295748 -5.472391
-5.189663 4.339641 -5.516319
-5.522770 5.244449 -6.468060
-5.539880 5.285457 -6.513774
-5.944629 6.109665 -7.509486
-5.965766 6.145930 -7.557468
-6.467705 6.848307 -8.600645
-6.493912 6.877825 -8.650705
-7.108960 7.418002 -9.728882
-7.140629 7.439034 -9.780056
-7.866458 7.788134 -10.867981
-7.902931 7.799805 -10.918948
-8.716029 7.953364 -11.990502
-2.258088 -1.429198 1.046093
-2.449416 -1.511295 0.989093
-2.638634 -1.563663 0.899028
-2.817741 -1.584037 0.780004
-2.978994 -1.571133 0.637058
-3.114926 -1.524422 0.475977
-3.279938 -1.402825 0.209441
-3.365627 -1.306079 0.035966
-3.441519 -1.202240 -0.138023
-3.512605 -1.096625 -0.312984
-3.580925 -0.987671 -0.486980
-3.646117 -0.869338 -0.655924
-3.739096 -0.659635 -0.902358
-3.791032 -0.510161 -1.049876
-3.836401 -0.352167 -1.190563
-3.878249 -0.190961 -1.328697
-3.919581 -0.030931 -1.468342
-3.961798 0.126715 -1.610413
-4.030455 0.368491 -1.834726
-4.076058 0.522679 -1.979524
-4.121760 0.677352 -2.123772
-4.167084 0.832953 -2.267138
-4.212035 0.989187 -2.409933
-4.256680 1.145740 -2.552475
-4.325989 1.389614 -2.774310
-4.370642 1.546116 -2.916905
-4.415416 1.702539 -3.059549
-4.460266 1.858968 -3.202161
-4.505158 2.015466 -3.344685
-4.550066 2.172076 -3.487082
-4.619930 2.416148 -3.708525
-4.664695 2.573005 -3.850693
-4.709347 2.729945 -3.992807
-4.753927 2.887148 -4.134651
-4.798487 3.044725 -4.276086
-4.843094 3.202011 -4.417830
-4.912818 3.443601 -4.642010
-4.957952 3.596383 -4.788436
-5.003560 3.748322 -4.935590
-5.049799 3.900007 -5.082809
-5.096771 4.051192 -5.230311
-5.144571 4.201482 -5.378459
-5.220940 4.433250 -5.610707
-5.271383 4.580658 -5.760861
-5.323052 4.726801 -5.911831
-5.376055 4.871533 -6.063696
-5.430498 5.014707 -6.216525
-5.486533 5.156143 -6.370393
-5.577143 5.372621 -6.612079
-5.637641 5.509081 -6.768724
-5.700065 5.643335 -6.926515
-5.764514 5.775231 -7.085476
-5.831117 5.904579 -7.245639
-5.899978 6.031204 -7.407017
-6.011814 6.222653 -7.660632
-6.086733 6.341734 -7.825025
-6.164163 6.457584 -7.990559
-6.244183 6.570034 -8.157203
-6.326926 6.678833 -8.324936
-6.412372 6.783935 -8.493668
-6.550877 6.939874 -8.758196
-6.643406 7.034888 -8.929158
-6.738756 7.125712 -9.100847
-6.837000 7.212123 -9.273181
-6.938091 7.294066 -9.446049
-7.041984 7.371479 -9.619341
-7.209214 7.482803 -9.889737
-7.320074 7.548275 -10.063636
-7.433583 7.608901 -10.237583
-7.549675 7.664607 -10.411470
-7.668201 7.715475 -10.585197
-7.789058 7.761504 -10.758666
-7.981582 7.823618 -11.028019
-8.107877 7.857406 -11.200430
-8.236145 7.886351 -11.372265
-8.366200 7.910677 -11.543472
-8.497922 7.930467 -11.713985
-8.631195 7.945824 -11.883750
189 NaN NaN
-2.112497 -1.346133 1.065196
-2.198324 -1.398003 1.057368
-2.286279 -1.443912 1.040775
-2.375326 -1.483613 1.015991
-2.464545 -1.516948 0.983601
-2.553112 -1.543797 0.944158
-2.640267 -1.564042 0.898166
-2.725273 -1.577541 0.846082
-2.807383 -1.584114 0.788327
-2.885800 -1.583537 0.725313
-2.959653 -1.575556 0.657477
-3.027991 -1.559930 0.585332
-3.090337 -1.537037 0.509769
-3.147010 -1.507962 0.431886
-3.198604 -1.473775 0.352552
-3.245833 -1.435426 0.272399
-3.289457 -1.393726 0.191870
-3.330106 -1.349353 0.111211
-3.368220 -1.302919 0.030472
-3.404273 -1.255027 -0.050364
-3.438773 -1.206264 -0.131358
-3.472251 -1.157206 -0.212603
-3.505112 -1.108136 -0.294093
-3.537396 -1.058539 -0.375494
-3.569070 -1.007767 -0.456407
-3.600092 -0.955182 -0.536410
-3.630404 -0.900173 -0.615039
-3.659924 -0.842244 -0.691850
-3.688511 -0.781403 -0.766740
-3.716005 -0.717829 -0.839745
-3.742250 -0.651689 -0.910907
-3.767090 -0.583140 -0.980272
-3.790378 -0.512341 -1.047893
-3.812190 -0.439658 -1.113993
-3.832834 -0.365640 -1.178980
-3.852638 -0.290818 -1.243304
-3.871935 -0.215696 -1.307434
-3.891062 -0.140770 -1.371843
-3.910275 -0.066386 -1.436852
-3.929656 0.007451 -1.502432
-3.949262 0.080786 -1.568507
-3.969153 0.153663 -1.635001
-3.989386 0.226129 -1.701841
-4.009998 0.298241 -1.768949
-4.030923 0.370098 -1.836231
-4.052068 0.441817 -1.903593
-4.073338 0.513513 -1.970939
-4.094640 0.585304 -2.038175
-4.115884 0.657296 -2.105213
-4.137039 0.729512 -2.172039
-4.158108 0.801916 -2.238688
-4.179093 0.874473 -2.305197
-4.199999 0.947147 -2.371602
-4.220830 1.019905 -2.437940
-4.241597 1.092717 -2.504238
-4.262319 1.165565 -2.570511
-4.283018 1.238430 -2.636772
-4.303714 1.311293 -2.703037
-4.324427 1.384135 -2.769319
-4.345174 1.456943 -2.835628
-4.365954 1.529723 -2.901958
-4.386760 1.602483 -2.968300
-4.407590 1.675233 -3.034647
-4.428438 1.747981 -3.100990
-4.449300 1.820736 -3.167321
-4.470172 1.893504 -3.233634
-4.491052 1.966290 -3.299926
-4.511937 2.039097 -3.366193
-4.532824 2.111929 -3.432431
-4.553711 2.184792 -3.498636
-4.574594 2.257684 -3.564810
-4.595467 2.330601 -3.630959
-4.616327 2.403536 -3.697092
-4.637167 2.476485 -3.763217
-4.657982 2.549443 -3.829340
-4.678770 2.622408 -3.895463
-4.699535 2.695399 -3.961565
-4.720281 2.768438 -4.027620
-4.741015 2.841545 -4.093603
-4.761740 2.914742 -4.159489
-4.782463 2.988040 -4.225263
-4.803191 3.061366 -4.291005
-4.823931 3.134601 -4.356844
-4.844690 3.207626 -4.422909
-4.865476 3.280322 -4.489329
-4.886296 3.352567 -4.556228
-4.907159 3.424308 -4.623654
-4.928081 3.495626 -4.691509
-4.949080 3.566620 -4.759680
-4.970175 3.637388 -4.828055
-4.991383 3.708032 -4.896523
-5.012723 3.778640 -4.964988
-5.034207 3.849209 -5.033448
-5.055843 3.919698 -5.101943
-5.077642 3.990065 -5.170511
-5.099612 4.060269 -5.239191
-5.121762 4.130270 -5.308022
-5.144104 4.200040 -5.377024
-5.166648 4.269574 -5.446198
-5.189406 4.338869 -5.515542
-5.212391 4.407920 -5.585054
-5.235613 4.476723 -5.654733
-5.259085 4.545273 -5.724578
-5.282818 4.613556 -5.794595
-5.306822 4.681558 -5.864794
-5.331110 4.749262 -5.935182
-5.355691 4.816655 -6.005768
-5.380577 4.883719 -6.076559
-5.405778 4.950441 -6.147562
-5.431306 5.016808 -6.218780
-5.457173 5.082806 -6.290219
-5.483387 5.148422 -6.361882
-5.509962 5.213641 -6.433774
-5.536907 5.278451 -6.505899
-5.564232 5.342835 -6.578261
-5.591950 5.406780 -6.650863
-5.620070 5.470270 -6.723709
-5.648602 5.533290 -6.796803
-5.677557 5.595824 -6.870147
-5.706945 5.657857 -6.943744
-5.736776 5.719373 -7.017597
-5.767060 5.780357 -7.091705
-5.797806 5.840794 -7.166072
-5.829025 5.900666 -7.240697
-5.860725 5.959958 -7.315582
-5.892916 6.018655 -7.390727
-5.925606 6.076741 -7.466130
-5.958805 6.134199 -7.541792
-5.992520 6.191012 -7.617711
-6.026761 6.247166 -7.693886
-6.061535 6.302644 -7.770314
-6.096850 6.357430 -7.846992
-6.132713 6.411508 -7.923918
-6.169132 6.464863 -8.001088
-6.206113 6.517478 -8.078498
-6.243664 6.569338 -8.156143
-6.281789 6.620427 -8.234018
-6.320496 6.670731 -8.312118
-6.359788 6.720234 -8.390436
-6.399672 6.768921 -8.468967
-6.440152 6.816777 -8.547703
-6.481233 6.863787 -8.626638
-6.522917 6.909938 -8.705762
-6.565208 6.955217 -8.785069
-6.608108 6.999608 -8.864550
-6.651621 7.043099 -8.944195
-6.695748 7.085675 -9.023997
-6.740489 7.127326 -9.103945
-6.785845 7.168040 -9.184029
-6.831814 7.207803 -9.264240
-6.878398 7.246606 -9.344568
-6.925596 7.284435 -9.425001
-6.973403 7.321283 -9.505530
-7.021817 7.357139 -9.586144
-7.070834 7.391995 -9.666833
-7.120451 7.425841 -9.747584
-7.170663 7.458669 -9.828388
-7.221464 7.490473 -9.909233
-7.272848 7.521246 -9.990109
-7.324807 7.550984 -10.071005
-7.377333 7.579681 -10.151910
-7.430420 7.607332 -10.232814
-7.484059 7.633934 -10.313705
-7.538239 7.659486 -10.394574
-7.592951 7.683986 -10.475411
-7.648185 7.707434 -10.556205
-7.703929 7.729829 -10.636946
-7.760174 7.751172 -10.717626
-7.816907 7.771465 -10.798234
-7.874118 7.790711 -10.878763
-7.931793 7.808914 -10.959202
-7.989920 7.826080 -11.039543
-8.048488 7.842211 -11.119779
-8.107485 7.857313 -11.199901
-8.166897 7.871394 -11.279901
-8.226713 7.884462 -11.359773
-8.286920 7.896523 -11.439510
-8.347505 7.907587 -11.519104
-8.408457 7.917661 -11.598550
-8.469763 7.926755 -11.677841
-8.531412 7.934881 -11.756971
-8.593391 7.942049 -11.835936
-8.655689 7.948270 -11.914729
-8.718296 7.953556 -11.993347
-8.781198 7.957917 -12.071785
-8.844386 7.961364 -12.150039
-8.907850 7.963909 -12.228104
-8.971578 7.965562 -12.305977
-9.035561 7.966334 -12.383654
-0.793102 -1.049267 6.242323
-0.714410 -0.835776 6.313557
-0.663074 -0.614803 6.386526
-0.647280 -0.388868 6.460204
-0.675154 -0.163742 6.532515
-0.752437 0.050995 6.600207
-0.874796 0.246136 6.660402
-1.032168 0.417319 6.711940
-1.214435 0.564664 6.755118
-0.792383 -1.047497 6.242915
-0.714942 -0.837606 6.312950
-0.713879 -0.833946 6.314164
-0.663364 -0.616683 6.385909
-0.662784 -0.612922 6.387143
-0.647269 -0.390770 6.459587
-0.647291 -0.386965 6.460821
-0.674791 -0.165615 6.531917
-0.675517 -0.161868 6.533114
-0.751534 0.049291 6.599677
-0.753340 0.052699 6.600737
-0.873593 0.244607 6.659936
-0.875998 0.247665 6.660867
-1.030739 0.415977 6.711541
-1.033596 0.418660 6.712339
-1.212846 0.563497 6.754779
-0.788843 -1.038781 6.245832
-0.717558 -0.846619 6.309961
-0.711263 -0.824934 6.317153
-0.664794 -0.625941 6.382870
-0.661354 -0.603664 6.390182
-0.647215 -0.400139 6.456550
-0.647345 -0.377597 6.463858
-0.673003 -0.174841 6.528970
-0.677648 -0.152716 6.536028
-0.747086 0.040900 6.597068
-0.757788 0.061090 6.603346
-0.867671 0.237079 6.657644
-0.881920 0.255194 6.663159
-1.023705 0.409369 6.709576
-1.040630 0.425268 6.714305
-1.205023 0.557750 6.753114
-0.779907 -1.016780 6.253194
-0.768037 -0.987556 6.262973
-0.756167 -0.958331 6.272752
-0.745583 -0.928657 6.282644
-0.735163 -0.898926 6.292550
-0.724743 -0.869196 6.302456
-0.704658 -0.802184 6.324699
-0.695886 -0.771965 6.334722
-0.688291 -0.741463 6.344807
-0.681387 -0.710795 6.354928
-0.674482 -0.680128 6.365050
-0.668403 -0.649312 6.375198
-0.657745 -0.580293 6.397853
-0.653837 -0.549148 6.408054
-0.651406 -0.517838 6.418270
-0.648975 -0.486527 6.428487
-0.646898 -0.455203 6.438699
-0.647079 -0.423789 6.448883
-0.647820 -0.353960 6.471512
-0.650830 -0.322655 6.481589
-0.653841 -0.291350 6.491667
-0.656851 -0.260045 6.501744
-0.662492 -0.229065 6.511649
-0.668488 -0.198130 6.521531
-0.684461 -0.129922 6.543249
-0.693510 -0.099645 6.552840
-0.702559 -0.069367 6.562431
-0.713492 -0.039680 6.571783
-0.725550 -0.010347 6.580991
-0.737608 0.018986 6.590200
-0.769016 0.082272 6.609931
-0.783931 0.110408 6.618680
-0.799818 0.138028 6.627236
-0.817350 0.164777 6.635468
-0.834882 0.191526 6.643700
-0.852723 0.218075 6.651859
-0.896869 0.274198 6.668945
-0.916961 0.299261 6.676565
-0.938832 0.322955 6.683697
-0.960703 0.346650 6.690828
-0.982574 0.370344 6.697960
-1.005950 0.392689 6.704615
-1.058386 0.441948 6.719265
-1.083213 0.462827 6.725409
-1.108240 0.483501 6.731481
-1.133268 0.504174 6.737552
-1.159044 0.523975 6.743322
-1.185275 0.543244 6.748908
21 NaN NaN
-0.793282 -1.049709 6.242175
-0.754825 -0.955026 6.273857
-0.721067 -0.858707 6.305951
-0.692646 -0.760807 6.338423
-0.670279 -0.661457 6.371212
-0.654748 -0.560888 6.404223
-0.646874 -0.459465 6.437317
-0.647460 -0.357708 6.470306
-0.657210 -0.256311 6.502946
-0.676633 -0.156114 6.534952
-0.705941 -0.058049 6.566016
-0.744995 0.036956 6.595842
-0.793302 0.128086 6.624176
-0.850088 0.214725 6.650839
-0.914407 0.296495 6.675733
-0.985255 0.373248 6.698834
-1.061659 0.445024 6.720180
-1.142737 0.511996 6.739850
-1.227720 0.574423 6.757947
-1.315955 0.632603 6.774584
-1.406901 0.686848 6.789876
-0.956966 -1.341169 4.931700
-0.811341 -1.033060 4.771239
-0.714987 -0.696497 4.633383
-0.707583 -0.332950 4.542159
-0.827000 0.020784 4.528948
-1.057446 0.308298 4.597799
-1.342483 0.523126 4.716577
-0.956123 -1.339584 4.930818
-0.812004 -1.034767 4.772042
-0.810677 -1.031353 4.770435
-0.715360 -0.698347 4.634048
-0.714613 -0.694648 4.632719
-0.707285 -0.334906 4.542448
-0.707882 -0.330993 4.541870
-0.826083 0.019011 4.528825
-0.827917 0.022558 4.529072
-1.056022 0.307001 4.597258
-1.058870 0.309594 4.598339
-1.340902 0.522124 4.715873
-0.949923 -1.327944 4.924339
-0.816879 -1.047308 4.777946
-0.805802 -1.018811 4.764532
-0.718101 -0.711933 4.638927
-0.712449 -0.680868 4.628137
-0.705093 -0.349279 4.544572
-0.710073 -0.316620 4.539746
-0.819347 0.005984 4.527916
-0.834684 0.035564 4.530005
-1.045560 0.297478 4.593290
-1.069332 0.319117 4.602307
-1.329286 0.514760 4.710700
-0.933205 -1.296552 4.906868
-0.910920 -1.254658 4.883568
-0.889977 -1.211773 4.860832
-0.869034 -1.168888 4.838096
-0.849591 -1.124973 4.816009
-0.830221 -1.081007 4.793953
-0.792656 -0.984989 4.748612
-0.777186 -0.938690 4.728326
-0.761795 -0.892347 4.708077
-0.748689 -0.844860 4.688918
-0.735831 -0.797249 4.669878
-0.725495 -0.748571 4.652087
-0.707708 -0.643335 4.616346
-0.701383 -0.593263 4.600617
-0.698593 -0.542343 4.586793
-0.696414 -0.491276 4.573300
-0.698012 -0.439719 4.561942
-0.700599 -0.388034 4.551145
-0.715983 -0.277859 4.534017
-0.728376 -0.226761 4.529210
-0.741869 -0.175814 4.525096
-0.759511 -0.126089 4.523749
-0.778576 -0.076784 4.523352
-0.801183 -0.029148 4.525467
-0.856214 0.068453 4.534998
-0.884937 0.112331 4.541659
-0.916238 0.153942 4.550400
-0.948660 0.194569 4.560044
-0.982952 0.233117 4.571301
-1.018310 0.270483 4.583477
-1.097547 0.344800 4.613010
-1.136325 0.377211 4.628409
-1.175723 0.408614 4.644418
-1.215914 0.438497 4.661264
-1.256663 0.467312 4.678698
-1.297961 0.494903 4.696751
22 NaN NaN
-0.957177 -1.341565 4.931920
-0.911216 -1.255264 4.883890
-0.868060 -1.166894 4.837039
-0.828146 -1.076297 4.791591
-0.792007 -0.983321 4.747827
-0.760295 -0.887829 4.706103
-0.733800 -0.789732 4.666871
-0.713479 -0.689026 4.630700
-0.700450 -0.585871 4.598294
-0.695962 -0.480676 4.570499
-0.701290 -0.374220 4.548259
-0.717529 -0.267721 4.532518
-0.745314 -0.162804 4.524045
-0.784574 -0.061270 4.523227
-0.834481 0.035253 4.529957
-0.893639 0.125624 4.543677
-0.960422 0.209308 4.563543
-1.033263 0.286284 4.588625
-1.110812 0.356875 4.618042
-1.191987 0.421578 4.651027
-1.275949 0.480949 4.686949
-1.362061 0.535537 4.725296
-1.248430 -1.470020 3.622011
-1.131723 -1.327696 3.589369
-1.022253 -1.179231 3.559262
-0.922115 -1.023739 3.532391
-0.835733 -0.859525 3.510235
-0.767915 -0.686278 3.494350
-0.725072 -0.504837 3.486765
-0.717774 -0.318482 3.490765
-0.753669 -0.136613 3.508486
-0.829438 0.030844 3.538523
-0.937984 0.177350 3.578375
-1.069596 0.301396 3.624871
-1.214781 0.407631 3.675121
-1.247164 -1.468513 3.621656
-1.132947 -1.329240 3.589710
-1.130498 -1.326151 3.589029
-1.023372 -1.180862 3.559566
-1.021135 -1.177601 3.558958
-0.923084 -1.025470 3.532643
-0.921146 -1.022008 3.532138
-0.836604 -0.861312 3.510454
-0.834863 -0.857737 3.510017
-0.768517 -0.688181 3.494478
-0.767313 -0.684375 3.494221
-0.725276 -0.506826 3.486763
-0.724869 -0.502847 3.486768
-0.717727 -0.320480 3.490682
-0.717821 -0.316484 3.490848
-0.753073 -0.138505 3.508230
-0.754265 -0.134721 3.508741
-0.828372 0.029199 3.538125
-0.830504 0.032488 3.538921
-0.936744 0.175847 3.577926
-0.939224 0.178854 3.578825
-1.068115 0.300155 3.624354
-1.071076 0.302638 3.625389
-1.213159 0.406601 3.674565
-1.242074 -1.462451 3.620227
-1.137869 -1.335452 3.591080
-1.125576 -1.319939 3.587659
-1.027869 -1.187417 3.560787
-1.016637 -1.171046 3.557737
-0.927034 -1.032399 3.533676
-0.917248 -1.015046 3.531124
-0.840104 -0.868500 3.511334
-0.831363 -0.850549 3.509137
-0.770936 -0.695834 3.494995
-0.764894 -0.676721 3.493705
-0.726096 -0.514827 3.486754
-0.724049 -0.494846 3.486777
-0.717537 -0.328514 3.490347
-0.718011 -0.308450 3.491183
-0.750677 -0.146114 3.507201
-0.756661 -0.127112 3.509770
-0.824086 0.022584 3.536523
-0.834791 0.039103 3.540523
-0.931757 0.169801 3.576118
-0.944340 0.184771 3.580669
-1.062163 0.295162 3.622272
-1.077028 0.307631 3.627471
-1.206638 0.402458 3.672329
-1.229824 -1.447863 3.616789
-1.213604 -1.428548 3.612236
-1.197384 -1.409233 3.607684
-1.181165 -1.389919 3.603132
-1.165402 -1.370195 3.598740
-1.149716 -1.350402 3.594376
-1.113729 -1.304989 3.584363
-1.098564 -1.284759 3.580180
-1.083500 -1.264442 3.576034
-1.068437 -1.244126 3.571887
-1.053374 -1.223809 3.567740
-1.038694 -1.203193 3.563727
-1.005812 -1.155270 3.554797
-0.991481 -1.134382 3.550905
-0.977589 -1.113178 3.547164
-0.964127 -1.091667 3.543573
-0.950664 -1.070157 3.539981
-0.937202 -1.048646 3.536389
-0.907868 -0.998289 3.528681
-0.895449 -0.976105 3.525447
-0.883030 -0.953920 3.522214
-0.870835 -0.931608 3.519056
-0.859682 -0.908704 3.516253
-0.848528 -0.885800 3.513451
-0.823185 -0.833131 3.507103
-0.813578 -0.809480 3.504823
-0.803971 -0.785829 3.502542
-0.794364 -0.762179 3.500261
-0.784757 -0.738528 3.497981
-0.776760 -0.714253 3.496238
-0.759070 -0.658302 3.492461
-0.751360 -0.633916 3.490815
-0.745578 -0.608986 3.489806
-0.740185 -0.583946 3.488926
-0.734792 -0.558906 3.488047
-0.729399 -0.533866 3.487167
-0.722076 -0.475589 3.486799
-0.719465 -0.450093 3.486828
-0.716853 -0.424597 3.486857
-0.715870 -0.399049 3.487411
-0.716475 -0.373449 3.488476
-0.717080 -0.347849 3.489542
-0.720191 -0.289309 3.492534
-0.724301 -0.264106 3.494712
-0.728410 -0.238902 3.496890
-0.732520 -0.213699 3.499068
-0.737275 -0.188671 3.501448
-0.744910 -0.164426 3.504725
-0.762428 -0.108800 3.512246
-0.770613 -0.084799 3.515692
-0.781499 -0.061993 3.519965
-0.792385 -0.039188 3.524238
-0.803271 -0.016382 3.528510
-0.814157 0.006423 3.532783
-0.845107 0.055022 3.544379
-0.858766 0.076099 3.549484
-0.872425 0.097176 3.554588
-0.887970 0.116722 3.560247
-0.903862 0.135986 3.566007
-0.919754 0.155251 3.571767
-0.957656 0.198001 3.585397
-0.975287 0.215517 3.591656
-0.992918 0.233034 3.597916
-1.010549 0.250550 3.604175
-1.028872 0.267235 3.610628
-1.047838 0.283145 3.617262
-1.091353 0.319648 3.632481
-1.110832 0.334838 3.639255
-1.130822 0.349310 3.646168
-1.150812 0.363783 3.653082
-1.170802 0.378255 3.659995
-1.190942 0.392487 3.666949
22 NaN NaN
-1.248747 -1.470397 3.622100
-1.178803 -1.387107 3.602469
-1.111165 -1.301754 3.583649
-1.046209 -1.214146 3.565768
-0.984409 -1.124075 3.548984
-0.926359 -1.031321 3.533496
-0.872810 -0.935663 3.519552
-0.824720 -0.836908 3.507468
-0.783301 -0.734942 3.497635
-0.750063 -0.629814 3.490538
-0.726819 -0.521883 3.486746
-0.715563 -0.412006 3.486871
-0.718171 -0.301699 3.491464
-0.735877 -0.193111 3.500847
-0.768773 -0.088653 3.514969
-0.815680 0.009613 3.533381
-0.874544 0.100447 3.555380
-0.943044 0.183484 3.580209
-1.019050 0.258996 3.607193
-1.100820 0.327590 3.635792
-1.187011 0.389990 3.665601
-1.276614 0.446912 3.696319
-1.700487 -1.379206 2.351252
-1.540457 -1.276290 2.345836
-1.384429 -1.167324 2.343335
-1.233663 -1.051185 2.344413
-1.090396 -0.926049 2.350199
-0.958420 -0.789565 2.362362
-0.842641 -0.640164 2.382592
-0.751365 -0.476388 2.413361
-0.700487 -0.299108 2.458219
-0.700341 -0.118918 2.516244
-0.749763 0.051397 2.583036
-0.838672 0.203818 2.653582
-0.954763 0.336760 2.724402
-1.086841 0.454518 2.794185
-1.698796 -1.378139 2.351188
-1.542125 -1.277391 2.345884
-1.538788 -1.275188 2.345789
-1.386042 -1.168507 2.343343
-1.382816 -1.166141 2.343327
-1.235196 -1.052469 2.344369
-1.232130 -1.049902 2.344458
-1.091875 -0.927393 2.350122
-1.088916 -0.924706 2.350275
-0.959748 -0.791052 2.362203
-0.957092 -0.788078 2.362521
-0.843720 -0.641825 2.382317
-0.841562 -0.638502 2.382868
-0.752029 -0.478224 2.412929
-0.750702 -0.474551 2.413793
-0.700866 -0.301002 2.457700
-0.700108 -0.297214 2.458738
-0.700070 -0.120784 2.515578
-0.700613 -0.117052 2.516911
-0.748939 0.049730 2.582300
-0.750587 0.053064 2.583772
-0.837649 0.202270 2.652836
-0.839696 0.205366 2.654327
-0.953467 0.335429 2.723661
-0.956060 0.338090 2.725144
-1.085380 0.453361 2.793460
-1.691897 -1.373786 2.350927
-1.548936 -1.281886 2.346077
-1.531978 -1.270693 2.345596
-1.392624 -1.173333 2.343374
-1.376234 -1.161315 2.343296
-1.241453 -1.057708 2.344190
-1.225873 -1.044663 2.344637
-1.097913 -0.932877 2.349811
-1.082879 -0.919222 2.350586
-0.965168 -0.797121 2.361554
-0.951672 -0.782009 2.363170
-0.848123 -0.648606 2.381194
-0.837159 -0.631722 2.383991
-0.755176 -0.485563 2.411323
-0.747994 -0.467055 2.415555
-0.702412 -0.308732 2.455582
-0.698561 -0.289485 2.460856
-0.698961 -0.128399 2.512856
-0.701722 -0.109437 2.519632
-0.745575 0.042926 2.579297
-0.753950 0.059868 2.586775
-0.833472 0.195952 2.649793
-0.844236 0.211416 2.657371
-0.948175 0.330000 2.720636
-0.961351 0.343519 2.728168
-1.079417 0.448637 2.790500
-1.675226 -1.363268 2.350298
-1.653148 -1.349339 2.349464
-1.631071 -1.335411 2.348630
-1.608993 -1.321482 2.347796
-1.587182 -1.307130 2.347163
-1.565390 -1.292747 2.346544
-1.515523 -1.259833 2.345129
-1.494061 -1.244955 2.344749
-1.472603 -1.230069 2.344373
-1.451146 -1.215184 2.343997
-1.429689 -1.200299 2.343620
-1.408529 -1.184994 2.343451
-1.360329 -1.149654 2.343219
-1.339267 -1.134211 2.343118
-1.318585 -1.118265 2.343270
-1.297995 -1.102200 2.343483
-1.277404 -1.086134 2.343697
-1.256813 -1.070068 2.343910
-1.210757 -1.032005 2.345072
-1.190737 -1.015242 2.345647
-1.170717 -0.998478 2.346223
-1.151138 -0.981222 2.347063
-1.131819 -0.963675 2.348061
-1.112500 -0.946127 2.349058
-1.068888 -0.905368 2.351678
-1.050443 -0.886938 2.353170
-1.031997 -0.868509 2.354662
-1.013551 -0.850079 2.356153
-0.995603 -0.831203 2.357909
-0.978262 -0.811784 2.359986
-0.938578 -0.767346 2.364738
-0.921955 -0.747372 2.367167
-0.906030 -0.726857 2.369939
-0.890106 -0.706342 2.372710
-0.874181 -0.685828 2.375482
-0.858761 -0.664988 2.378479
-0.826521 -0.615339 2.386705
-0.812433 -0.593643 2.390300
-0.799134 -0.571548 2.394214
-0.787428 -0.548650 2.398770
-0.775722 -0.525752 2.403326
-0.764015 -0.502853 2.407883
-0.741451 -0.448945 2.419813
-0.732785 -0.424961 2.425453
-0.724120 -0.400977 2.431092
-0.716046 -0.376873 2.436912
-0.711097 -0.352140 2.443689
-0.706149 -0.327408 2.450465
-0.695744 -0.270772 2.466206
-0.695002 -0.245872 2.474050
-0.694260 -0.220971 2.481895
-0.693517 -0.196070 2.489739
-0.692775 -0.171170 2.497584
-0.696282 -0.146798 2.506282
-0.704401 -0.091038 2.526206
-0.708146 -0.066727 2.534942
-0.715619 -0.043490 2.544231
-0.723093 -0.020252 2.553521
-0.730566 0.002985 2.562810
-0.738040 0.026223 2.572099
-0.762075 0.076308 2.594031
-0.772836 0.098079 2.603640
-0.783597 0.119850 2.613249
-0.796646 0.140256 2.622970
-0.810013 0.160471 2.632706
-0.823379 0.180687 2.642442
-0.855850 0.225556 2.664727
-0.871230 0.244283 2.674468
-0.886610 0.263009 2.684210
-0.901990 0.281736 2.693951
-0.918460 0.299510 2.703649
-0.935391 0.316882 2.713328
-0.974135 0.356637 2.735477
-0.991979 0.373097 2.745082
-1.010113 0.389268 2.754664
-1.028246 0.405439 2.764246
-1.046380 0.421609 2.773827
-1.065011 0.437224 2.783350
24 NaN NaN
-1.700910 -1.379473 2.351268
-1.607448 -1.320506 2.347738
-1.515197 -1.259617 2.345119
-1.424362 -1.196603 2.343527
-1.335199 -1.131228 2.343098
-1.248034 -1.063218 2.344000
-1.163287 -0.992257 2.346436
-1.081510 -0.917978 2.350657
-1.003430 -0.839967 2.356972
-0.930030 -0.757774 2.365762
-0.862633 -0.670950 2.377491
-0.803014 -0.579138 2.392703
-0.753486 -0.482258 2.411981
-0.716833 -0.380807 2.435834
-0.695906 -0.276215 2.464491
-0.692768 -0.170927 2.497660
-0.707772 -0.067891 2.534477
-0.739381 0.030393 2.573766
-0.784906 0.122498 2.614418
-0.841464 0.208041 2.655615
-0.906555 0.287294 2.696842
-0.978214 0.360823 2.737809
-1.054970 0.429270 2.778367
-1.135732 0.493249 2.818450
-1.607762 -1.281199 0.720428
-1.473574 -1.211880 0.768784
-1.341752 -1.139175 0.818647
-1.213436 -1.061802 0.870563
-1.089014 -0.979646 0.924556
-0.970152 -0.891304 0.981182
-0.858366 -0.795941 1.040725
-0.756386 -0.692198 1.103619
-0.668808 -0.578264 1.170349
-0.600152 -0.454062 1.240523
-0.561421 -0.319081 1.313347
-0.554463 -0.178721 1.385879
-0.588888 -0.039982 1.453615
-0.652163 0.091494 1.514865
-0.740925 0.211493 1.567796
-0.845233 0.321445 1.614093
-0.961193 0.421738 1.654327
-1.606063 -1.280335 0.721034
-1.475252 -1.212775 0.768165
-1.471896 -1.210984 0.769404
-1.343406 -1.140105 0.818012
-1.340099 -1.138245 0.819281
-1.215028 -1.062811 0.869894
-1.211845 -1.060792 0.871233
-1.090566 -0.980702 0.923866
-1.087462 -0.978589 0.925245
-0.971597 -0.892473 0.980445
-0.968706 -0.890135 0.981919
-0.859739 -0.797177 1.039961
-0.856992 -0.794704 1.041490
-0.757554 -0.693594 1.102792
-0.755217 -0.690801 1.104446
-0.669829 -0.579752 1.169489
-0.667786 -0.576775 1.171210
-0.600748 -0.455738 1.239608
-0.599556 -0.452387 1.241438
-0.561730 -0.320827 1.312423
-0.561112 -0.317334 1.314271
-0.554448 -0.180502 1.384969
-0.554804 -0.176954 1.386752
-0.588248 -0.041693 1.452800
-0.589528 -0.038271 1.454429
-0.651271 0.089868 1.514118
-0.653055 0.093121 1.515613
-0.739677 0.210057 1.567181
-0.742173 0.212929 1.568412
-0.843865 0.320097 1.613534
-0.846600 0.322793 1.614652
-0.959660 0.420541 1.653861
-1.600074 -1.277288 0.723168
-1.481166 -1.215932 0.765982
-1.465982 -1.207827 0.771587
-1.349234 -1.143382 0.815776
-1.334271 -1.134968 0.821518
-1.220638 -1.066370 0.867534
-1.206234 -1.057233 0.873593
-1.096036 -0.984427 0.921434
-1.081992 -0.974864 0.927677
-0.976694 -0.896594 0.977846
-0.963609 -0.886014 0.984518
-0.864582 -0.801535 1.037265
-0.852149 -0.790346 1.044186
-0.761674 -0.698517 1.099876
-0.751097 -0.685878 1.107361
-0.673431 -0.585001 1.166457
-0.664184 -0.571526 1.174242
-0.602848 -0.461645 1.236382
-0.597456 -0.446479 1.244664
-0.562820 -0.326985 1.309166
-0.560023 -0.311176 1.317528
-0.554402 -0.186779 1.381759
-0.556003 -0.170723 1.389827
-0.585991 -0.047724 1.449928
-0.591785 -0.032240 1.457301
-0.648125 0.084134 1.511484
-0.656201 0.098855 1.518247
-0.735277 0.204993 1.565010
-0.746573 0.217993 1.570583
-0.839043 0.315345 1.611563
-0.851422 0.327545 1.616623
-0.954255 0.416321 1.652219
-1.586200 -1.270228 0.728113
-1.567881 -1.260908 0.734641
-1.549563 -1.251587 0.741169
-1.531244 -1.242267 0.747697
-1.512958 -1.232899 0.754247
-1.494868 -1.223244 0.760924
-1.452281 -1.200515 0.776645
-1.434191 -1.190860 0.783322
-1.416216 -1.181044 0.790071
-1.398389 -1.171021 0.796912
-1.380562 -1.160997 0.803753
-1.362736 -1.150974 0.810594
-1.320993 -1.127078 0.826831
-1.303473 -1.116646 0.833851
-1.285953 -1.106215 0.840872
-1.268433 -1.095783 0.847892
-1.250913 -1.085352 0.854913
-1.233635 -1.074615 0.862067
-1.193238 -1.048989 0.879060
-1.176078 -1.038104 0.886278
-1.158918 -1.027218 0.893497
-1.142173 -1.015841 0.900927
-1.125441 -1.004449 0.908364
-1.108709 -0.993056 0.915801
-1.069456 -0.966085 0.933374
-1.053239 -0.954123 0.941053
-1.037022 -0.942160 0.948733
-1.020805 -0.930198 0.956412
-1.004589 -0.918235 0.964092
-0.988501 -0.906141 0.971826
-0.951802 -0.876467 0.990538
-0.936213 -0.863863 0.998486
-0.920625 -0.851258 1.006434
-0.905425 -0.838290 1.014531
-0.890613 -0.824960 1.022775
-0.875801 -0.811631 1.031020
-0.840930 -0.780250 1.050430
-0.826894 -0.766270 1.058934
-0.813056 -0.752123 1.067504
-0.799218 -0.737977 1.076073
-0.785379 -0.723831 1.084643
-0.771541 -0.709684 1.093212
-0.741553 -0.674473 1.114116
-0.728951 -0.659415 1.123033
-0.716350 -0.644357 1.131951
-0.703806 -0.629264 1.140882
-0.692790 -0.613211 1.150157
-0.681774 -0.597159 1.159432
-0.655841 -0.559368 1.181267
-0.645502 -0.542971 1.190654
-0.636518 -0.525883 1.200264
-0.627533 -0.508796 1.209874
-0.618549 -0.491708 1.219484
-0.609565 -0.474621 1.229094
-0.592590 -0.432795 1.252137
-0.586166 -0.414728 1.262003
-0.579741 -0.396660 1.271870
-0.573317 -0.378593 1.281736
-0.568675 -0.360083 1.291658
-0.565343 -0.341250 1.301621
-0.557499 -0.296912 1.325074
-0.554168 -0.278078 1.335036
-0.553879 -0.258923 1.344871
-0.554018 -0.239722 1.354689
-0.554158 -0.220522 1.364506
-0.554297 -0.201322 1.374324
-0.558782 -0.156290 1.396950
-0.562451 -0.137234 1.406355
-0.566120 -0.118178 1.415760
-0.569789 -0.099122 1.425166
-0.573860 -0.080141 1.434493
-0.580763 -0.061695 1.443276
-0.597014 -0.018269 1.463953
-0.603917 0.000178 1.472736
-0.611973 0.018238 1.481211
-0.621595 0.035776 1.489268
-0.631216 0.053313 1.497325
-0.640838 0.070851 1.505382
-0.665051 0.111395 1.523819
-0.676835 0.127905 1.531142
-0.688618 0.144414 1.538466
-0.700402 0.160924 1.545790
-0.712185 0.177434 1.553113
-0.725084 0.193263 1.559981
-0.756766 0.229723 1.575612
-0.770223 0.245211 1.582251
-0.783681 0.260698 1.588891
-0.798380 0.275268 1.594941
-0.813127 0.289802 1.600969
-0.827874 0.304337 1.606997
-0.862850 0.338330 1.621049
-0.878596 0.352004 1.626541
-0.894342 0.365678 1.632033
-0.910087 0.379352 1.637524
-0.925833 0.393026 1.643016
-0.941736 0.406545 1.648413
25 NaN NaN
-1.608187 -1.281415 0.720277
-1.515516 -1.234265 0.753302
-1.424001 -1.185422 0.787083
-1.333820 -1.134715 0.821691
-1.245190 -1.081944 0.857206
-1.158382 -1.026878 0.893722
-1.073741 -0.969247 0.931344
-0.991707 -0.908733 0.970192
-0.912852 -0.844973 1.010397
-0.837928 -0.777548 1.052101
-0.767933 -0.705997 1.095446
-0.704201 -0.629840 1.140549
-0.648495 -0.548663 1.187452
-0.603070 -0.462268 1.236042
-0.570595 -0.370938 1.285916
-0.553757 -0.275758 1.336263
-0.554461 -0.178735 1.385872
-0.573001 -0.082438 1.433400
-0.607891 0.010797 1.477792
-0.656533 0.099459 1.518524
-0.716116 0.182942 1.555556
-0.784176 0.261268 1.589135
-0.858763 0.334781 1.619624
-0.938407 0.403945 1.647401
-1.022018 0.469237 1.672816
-1.103910 -1.216423 0.375625
-0.731101 -0.846198 0.370390
-0.483676 -0.388690 0.403869
-0.574380 0.102343 0.506529
-1.102400 -1.215113 0.375571
-0.732396 -0.847722 0.370367
-0.729806 -0.844674 0.370414
-0.484176 -0.390611 0.403627
-0.483176 -0.386769 0.404110
-0.573297 0.100733 0.506045
-1.087939 -1.202559 0.375052
-0.744799 -0.862320 0.370143
-0.717514 -0.829987 0.370674
-0.488967 -0.409015 0.401313
-0.478386 -0.368365 0.406424
-0.562916 0.085313 0.501411
-1.046391 -1.166493 0.373563
-0.990787 -1.116560 0.371860
-0.936008 -1.065707 0.370472
-0.882802 -1.013192 0.369669
-0.830989 -0.959318 0.369363
-0.780434 -0.904260 0.369500
-0.684340 -0.786095 0.372118
-0.640604 -0.725558 0.374488
-0.599816 -0.662989 0.377765
-0.563749 -0.597708 0.382399
-0.531348 -0.530686 0.388023
-0.503332 -0.461705 0.394811
-0.470572 -0.314612 0.414339
-0.464178 -0.241104 0.425966
-0.470140 -0.167887 0.439857
-0.484086 -0.096320 0.454956
-0.505024 -0.026523 0.471055
-0.536059 0.039258 0.488345
20 NaN NaN
-1.104287 -1.216751 0.375639
-1.021946 -1.145273 0.372687
-0.941747 -1.071371 0.370559
-0.864121 -0.994754 0.369387
-0.789628 -0.915082 0.369334
-0.719012 -0.831969 0.370608
-0.653274 -0.744992 0.373470
-0.593776 -0.653725 0.378250
-0.542371 -0.557827 0.385353
-0.501519 -0.457241 0.395250
-0.474268 -0.352544 0.408413
-0.463828 -0.245396 0.425152
-0.472516 -0.138719 0.445391
-0.500539 -0.036031 0.468556
-0.545772 0.059845 0.493756
-0.604832 0.147579 0.520125
-0.674347 0.227147 0.547028
-0.751579 0.299222 0.574069
-0.834513 0.364712 0.601029
-0.921712 0.424506 0.627794
