0.280473 0.280458 0.280251 0.278352 0.275343 0.268859 0.262374 0.255889 0.248277 0.243473 0.242436 0.242363 0.242290 0.241260 0.236848 0.229858 0.224230 0.218603 0.212975 0.208419 0.205543 0.204955 0.204913 0.204871 0.204289 0.201815 0.197895 0.194528 0.191162 0.187796 0.184868 0.183021 0.182636 0.182609 0.182582 0.182199 0.180540 0.177912 0.175560 0.173208 0.170855 0.168724 0.167378 0.167091 0.167070 0.167050 0.166764 0.165503 0.163504 0.161664 0.159823 0.157982 0.156298 0.155235 0.155009 0.154993 0.154977 0.154753 0.153773 0.152221 0.150822 0.149424 0.148026 0.146762 0.145963 0.145795 0.145783 0.145771 0.145604 0.144870 0.143708 0.142653 0.141597 0.140542 0.139580 0.138974 0.138845 0.138836 
0.280429 0.280239 0.278382 0.272899 0.265197 0.258500 0.251804 0.245107 0.239882 0.236163 0.235064 0.234952 0.234842 0.233774 0.230828 0.226688 0.223587 0.220485 0.217384 0.215022 0.213341 0.212855 0.212805 0.212756 0.212277 0.210955 0.209097 0.207597 0.206097 0.204597 0.203370 0.202497 0.202235 0.202208 0.202181 0.201920 0.201167 0.200109 0.199176 0.198243 0.197310 0.196469 0.195870 0.195682 0.195662 0.195643 0.195456 0.194893 0.194101 0.193340 0.192578 0.191816 0.191072 0.190542 0.190373 0.190356 0.190338 0.190168 0.189635 0.188886 0.188138 0.187391 0.186643 0.185881 0.185338 0.185164 0.185146 0.185128 0.184954 0.184410 0.183647 0.182893 0.182140 0.181387 0.180643 0.180115 0.179946 0.179929 0.179912 0.179744 0.179226 0.178499 0.177797 0.177095 0.176392 0.175709 0.175222 0.175067 0.175052 0.175036 0.174881 0.174405 0.173736 0.173097 0.172459 0.171820 0.171204 0.170766 0.170626 0.170611 0.170597 0.170458 0.170032 0.169433 0.168857 0.168281 0.167705 0.167143 0.166742 0.166615 0.166602 0.166589 0.166462 0.166074 0.165530 0.164999 0.164468 0.163937 0.163420 0.163053 0.162935 0.162923 0.162911 0.162794 0.162436 0.161932 0.161439 0.160946 0.160453 0.159969 0.159625 0.159515 0.159503 0.159492 0.159383 0.159045 0.158571 0.158107 0.157643 0.157179 0.156727 0.156405 0.156302 0.156291 0.156281 0.156178 0.155862 0.155418 0.154983 0.154548 0.154113 0.153688 0.153386 0.153290 0.153280 0.153270 0.153174 0.152878 0.152462 0.152056 0.151650 0.151245 0.150848 0.150565 0.150475 0.150466 0.150457 0.150367 0.150090 0.149701 0.149319 0.148938 0.148556 0.148181 0.147914 0.147829 0.147820 0.147811 0.147726 0.147463 0.147094 0.146730 0.146366 0.146002 0.145643 0.145388 0.145306 0.145297 0.145289 0.145207 0.144955 0.144600 0.144252 0.143903 0.143555 0.143211 0.142967 0.142888 0.142880 0.142872 0.142794 0.142554 0.142216 0.141884 0.141551 0.141219 0.140892 0.140660 0.140585 0.140578 0.140570 0.140496 0.140268 0.139948 0.139634 0.139319 0.139005 0.138698 0.138478 0.138408 0.138401 0.138394 0.138324 0.138110 0.137808 0.137513 0.137219 0.136924 0.136636 0.136432 0.136366 0.136360 0.136353 0.136288 0.136088 0.135807 0.135534 0.135261 0.134987 0.134721 0.134532 0.134472 0.134466 0.134459 0.134399 0.134214 0.133954 0.133702 0.133449 0.133197 0.132952 0.132778 0.132722 0.132716 0.132711 0.132655 0.132486 0.132247 0.132016 0.131784 0.131552 0.131327 0.131167 0.131116 0.131111 0.131105 0.131054 0.130898 0.130679 0.130465 0.130252 0.130038 0.129831 0.129683 0.129636 0.129631 
0.280564 0.280929 0.286321 0.305258 0.335262 0.405157 0.475051 0.544946 0.558775 0.567503 0.564237 0.564016 0.563660 0.558396 0.513622 0.442680 0.393509 0.344337 0.295166 0.273019 0.259041 0.256543 0.256374 0.256216 0.253891 0.246255 0.234158 0.226527 0.218896 0.211265 0.206274 0.203123 0.202531 0.202491 0.202451 0.201867 0.199287 0.195198 0.189591 0.183984 0.178377 0.169483 0.163869 0.162803 0.162731 0.162656 0.161548 0.156775 0.149214 0.143710 0.138207 0.132703 0.129916 0.128158 0.127861 0.127841 0.127822 0.127547 0.126494 0.124826 0.123830 0.122835 0.121839 0.121200 0.120797 0.120718 0.120713 0.120708 0.120633 0.120339 0.119874 0.119525 0.119176 0.118827 0.118556 0.118385 0.118350 0.118348 0.118346 0.118312 0.118168 0.117942 0.117754 0.117566 0.117378 0.117223 0.117125 0.117105 0.117104 0.117102 0.117082 0.116997 0.116863 0.116750 0.116637 0.116523 0.116428 0.116368 0.116355 0.116354 0.116354 0.116342 0.116290 0.116207 0.116137 0.116066 0.115996 0.115936 0.115898 0.115890 0.115889 0.115889 0.115881 0.115847 0.115794 0.115748 0.115701 0.115655 0.115613 0.115587 0.115581 0.115581 0.115580 0.115575 0.115550 0.115511 0.115470 0.115430 0.115389 0.115341 0.115310 0.115303 0.115302 
0.145783 0.145784 0.145788 0.145794 0.145802 0.145807 0.145811 0.145816 0.145815 0.145814 0.145813 0.145812 0.145812 0.145811 0.145806 0.145801 0.145790 0.145779 0.145768 0.145751 0.145739 0.145733 0.145731 0.145729 0.145723 0.145707 0.145686 0.145659 0.145632 0.145605 0.145576 0.145554 0.145544 0.145541 0.145538 0.145526 0.145499 0.145462 0.145424 0.145386 0.145348 0.145304 0.145270 0.145254 0.145249 0.145244 0.145228 0.145191 0.145143 0.145090 0.145037 0.144984 0.144935 0.144899 0.144886 0.144883 0.144879 0.144867 0.144838 0.144801 0.144762 0.144723 0.144684 0.144646 0.144616 0.144604 0.144600 0.144596 0.144583 0.144553 0.144514 0.144476 0.144438 0.144400 0.144362 0.144333 0.144320 0.144316 0.144313 0.144300 0.144271 0.144234 0.144195 0.144155 0.144116 0.144076 0.144045 0.144031 0.144027 0.144023 0.144009 0.143978 0.143937 0.143894 0.143851 0.143808 0.143764 0.143731 0.143716 0.143712 0.143707 0.143692 0.143659 0.143614 0.143569 0.143523 0.143478 0.143432 0.143397 0.143381 0.143377 0.143372 0.143357 0.143322 0.143275 0.143229 0.143183 0.143137 0.143090 0.143055 0.143040 0.143035 0.143030 0.143015 0.142980 0.142933 0.142887 0.142840 0.142794 0.142747 0.142712 0.142696 0.142691 
0.182601 0.182570 0.182402 0.181963 0.181377 0.180795 0.180212 0.179629 0.179042 0.178601 0.178429 0.178397 0.178365 0.178192 0.177753 0.177168 0.176598 0.176028 0.175458 0.174898 0.174476 0.174313 0.174283 0.174253 0.174091 0.173683 0.173140 0.172616 0.172092 0.171568 0.171060 0.170679 0.170533 0.170506 0.170479 0.170334 0.169967 0.169479 0.169013 0.168548 0.168083 0.167643 0.167312 0.167185 0.167162 0.167139 0.167013 0.166706 0.166297 0.165925 0.165553 0.165181 0.164880 0.164654 0.164571 0.164556 0.164541 0.164459 0.164256 0.163987 0.163750 0.163513 0.163277 0.163066 0.162907 0.162846 0.162834 0.162823 0.162762 0.162620 0.162432 0.162258 0.162084 0.161910 0.161749 0.161628 0.161584 0.161576 0.161568 0.161524 0.161413 0.161266 0.161134 0.161002 0.160870 0.160752 0.160663 0.160628 0.160622 0.160616 0.160581 0.160502 0.160397 0.160301 0.160205 0.160109 0.160022 0.159957 0.159934 0.159930 
0.204897 0.204831 0.204696 0.204455 0.204143 0.203833 0.203523 0.203213 0.202904 0.202665 0.202532 0.202468 0.202403 0.202271 0.202033 0.201726 0.201420 0.201115 0.200809 0.200506 0.200271 0.200141 0.200078 0.200015 0.199885 0.199653 0.199353 0.199057 0.198760 0.198464 0.198172 0.197945 0.197819 0.197758 0.197697 0.197571 0.197347 0.197057 0.196769 0.196482 0.196195 0.195910 0.195690 0.195568 0.195509 0.195449 0.195328 0.195110 0.194829 0.194554 0.194279 0.194004 0.193732 0.193523 0.193406 0.193350 0.193294 0.193178 0.192972 0.192706 0.192443 0.192180 0.191918 0.191659 0.191458 0.191347 0.191293 0.191239 0.191128 0.190931 0.190675 0.190424 0.190173 0.189922 0.189674 0.189483 0.189377 0.189325 0.189274 0.189169 0.188981 0.188739 0.188500 0.188262 0.188024 0.187790 0.187609 0.187508 0.187460 0.187411 0.187311 0.187133 0.186903 0.186676 0.186449 0.186222 0.185997 0.185824 0.185728 0.185681 0.185635 0.185539 0.185369 0.185148 0.184930 0.184712 0.184494 0.184279 0.184112 0.184020 0.183975 0.183931 0.183839 0.183676 0.183465 0.183256 0.183048 0.182839 0.182632 0.182472 0.182384 0.182340 0.182298 0.182209 0.182051 0.181847 0.181645 0.181443 0.181241 0.181042 0.180887 0.180802 0.180760 0.180719 0.180634 0.180482 0.180286 0.180092 0.179898 0.179704 0.179512 0.179364 0.179281 0.179241 0.179201 0.179119 0.178973 0.178785 0.178599 0.178413 0.178227 0.178043 0.177901 0.177822 0.177783 0.177745 0.177667 0.177526 0.177345 0.177167 0.176989 0.176811 0.176637 0.176503 0.176428 0.176392 0.176356 0.176282 0.176149 0.175978 0.175810 0.175641 0.175472 0.175306 0.175176 0.175105 0.175070 0.175036 0.174965 0.174841 0.174681 0.174523 0.174365 0.174206 0.174050 0.173929 0.173862 0.173829 0.173797 0.173730 0.173611 0.173457 0.173307 0.173158 0.173009 0.172864 0.172753 0.172691 0.172661 0.172631 0.172569 0.172460 0.172318 0.172178 0.172039 0.171899 0.171761 0.171655 0.171598 0.171570 0.171543 0.171488 0.171389 0.171263 0.171138 0.171013 0.170888 0.170765 0.170670 0.170617 0.170592 0.170567 0.170514 0.170421 0.170301 0.170190 0.170079 0.169967 0.169861 0.169778 0.169733 0.169711 0.169692 0.169652 0.169580 0.169488 0.169397 0.169307 0.169216 0.169129 0.169062 0.169030 0.169014 0.168998 0.168966 0.168909 0.168836 0.168764 0.168692 0.168620 0.168549 0.168494 0.168464 0.168449 0.168434 0.168404 0.168350 0.168280 0.168223 0.168165 0.168108 0.168052 0.168008 0.167984 0.167973 0.167961 0.167937 0.167894 0.167838 0.167782 0.167726 0.167671 0.167622 0.167584 0.167565 0.167556 0.167547 0.167528 0.167495 0.167452 0.167408 0.167364 0.167320 0.167275 0.167241 0.167221 0.167211 0.167202 0.167183 0.167151 0.167109 0.167075 0.167041 0.167007 0.166973 0.166946 0.166931 0.166924 0.166916 0.166901 0.166873 0.166838 0.166801 0.166765 0.166729 0.166700 0.166678 0.166666 0.166660 0.166654 0.166642 0.166620 0.166592 0.166563 0.166534 0.166505 0.166476 0.166453 0.166440 0.166434 0.166427 0.166415 0.166395 0.166369 0.166346 0.166323 0.166300 0.166277 0.166259 0.166248 0.166243 0.166238 0.166227 0.166208 0.166183 0.166158 0.166134 0.166110 0.166092 0.166077 0.166069 0.166065 0.166062 0.166053 0.166039 0.166020 0.166001 0.165982 0.165962 0.165943 0.165928 0.165919 0.165915 0.165911 0.165903 0.165891 0.165877 0.165862 0.165848 0.165833 0.165818 0.165807 0.165800 0.165797 0.165794 0.165787 0.165775 0.165760 0.165746 0.165733 0.165719 0.165708 0.165700 0.165695 0.165693 0.165690 0.165686 0.165677 0.165666 0.165654 0.165643 0.165632 0.165620 0.165611 0.165606 0.165604 0.165602 0.165598 0.165592 0.165584 0.165576 0.165567 0.165559 0.165551 0.165544 0.165540 0.165539 0.165537 0.165533 0.165526 0.165517 0.165510 0.165502 0.165495 0.165489 0.165484 0.165481 0.165480 0.165478 0.165475 0.165470 0.165463 0.165456 0.165449 0.165442 0.165434 0.165428 0.165426 0.165425 0.165424 0.165422 0.165419 0.165414 0.165409 0.165404 0.165399 0.165394 0.165391 0.165388 0.165387 0.165386 0.165384 0.165380 0.165375 0.165372 0.165369 0.165365 0.165363 0.165360 0.165359 0.165358 
0.242322 0.242160 0.240972 0.237812 0.233596 0.229859 0.226122 0.222385 0.219156 0.216736 0.215892 0.215776 0.215663 0.214837 0.212785 0.210046 0.207733 0.205419 0.203106 0.201167 0.199713 0.199214 0.199146 0.199080 0.198597 0.197402 0.195807 0.194380 0.192953 0.191526 0.190159 0.189135 0.188759 0.188707 0.188656 0.188282 0.187291 0.185968 0.184733 0.183498 0.182262 0.181124 0.180270 0.179965 0.179924 0.179882 0.179580 0.178811 0.177785 0.176886 0.175987 0.175088 0.174338 0.173775 0.173604 0.173580 0.173558 0.173399 0.172999 0.172464 0.172093 0.171721 0.171350 0.171081 0.170880 0.170817 0.170808 0.170799 0.170735 0.170584 0.170384 0.170218 0.170052 0.169886 0.169757 0.169661 0.169622 0.169617 0.169613 0.169579 0.169499 0.169391 0.169305 0.169220 0.169134 0.169058 0.169001 0.168983 0.168981 
0.234912 0.234758 0.233719 0.231113 0.227640 0.224653 0.221666 0.218679 0.216153 0.214258 0.213589 0.213490 0.213392 0.212740 0.211115 0.208950 0.207126 0.205303 0.203480 0.201921 0.200751 0.200340 0.200278 0.200219 0.199820 0.198849 0.197554 0.196428 0.195303 0.194177 0.193080 0.192256 0.191947 0.191901 0.191856 0.191549 0.190738 0.189656 0.188583 0.187510 0.186437 0.185418 0.184653 0.184374 0.184332 0.184291 0.184013 0.183302 0.182355 0.181493 0.180632 0.179771 0.179017 0.178451 0.178246 0.178216 0.178185 0.177983 0.177510 0.176880 0.176375 0.175869 0.175364 0.174991 0.174711 0.174608 0.174593 0.174581 0.174502 0.174294 0.174017 0.173811 0.173606 0.173400 0.173232 0.173105 0.173069 0.173064 0.173058 0.173020 0.172919 0.172783 0.172679 0.172576 0.172472 0.172385 0.172319 0.172298 0.172295 0.172292 0.172271 0.172217 0.172146 0.172088 0.172030 0.171973 0.171924 0.171888 0.171876 0.171874 
0.212779 0.212677 0.212390 0.211798 0.211021 0.210284 0.209547 0.208810 0.208111 0.207578 0.207330 0.207242 0.207154 0.206910 0.206402 0.205736 0.205104 0.204471 0.203839 0.203238 0.202780 0.202570 0.202494 0.202420 0.202211 0.201779 0.201212 0.200676 0.200140 0.199604 0.199089 0.198697 0.198517 0.198452 0.198388 0.198210 0.197840 0.197354 0.196894 0.196433 0.195973 0.195532 0.195196 0.195042 0.194986 0.194932 0.194779 0.194462 0.194047 0.193641 0.193235 0.192829 0.192436 0.192137 0.191998 0.191948 0.191898 0.191760 0.191470 0.191089 0.190722 0.190355 0.189989 0.189627 0.189351 0.189221 0.189174 0.189127 0.188997 0.188719 0.188355 0.188001 0.187647 0.187293 0.186945 0.186680 0.186556 0.186512 0.186468 0.186345 0.186085 0.185744 0.185414 0.185084 0.184753 0.184428 0.184179 0.184063 0.184021 0.183979 0.183863 0.183620 0.183300 0.182991 0.182683 0.182374 0.182071 0.181840 0.181732 0.181693 0.181654 0.181547 0.181327 0.181038 0.180756 0.180475 0.180193 0.179917 0.179707 0.179608 0.179573 0.179539 0.179445 0.179250 0.178994 0.178743 0.178492 0.178241 0.177995 0.177808 0.177727 0.177698 0.177670 0.177589 0.177420 0.177198 0.176982 0.176765 0.176549 0.176347 0.176193 0.176126 0.176102 0.176079 0.176012 0.175877 0.175699 0.175528 0.175357 0.175186 0.175043 0.174934 0.174885 0.174868 0.174850 0.174802 0.174700 0.174567 0.174441 0.174314 0.174188 0.174089 0.174014 0.173978 0.173966 0.173953 0.173918 0.173843 0.173745 0.173657 0.173569 0.173481 0.173411 0.173357 0.173331 0.173322 0.173313 0.173288 0.173234 0.173163 0.173103 0.173043 0.172984 0.172933 0.172894 0.172875 0.172868 0.172862 0.172843 0.172803 0.172750 0.172710 0.172670 0.172630 0.172592 0.172563 0.172549 0.172544 0.172539 0.172525 0.172494 0.172453 0.172425 0.172397 0.172369 0.172338 0.172314 0.172303 0.172299 0.172295 0.172283 0.172262 0.172234 0.172213 0.172193 0.172172 0.172149 0.172132 0.172124 0.172121 0.172118 0.172109 0.172097 0.172080 0.172065 0.172049 0.172034 0.172016 0.172003 0.171996 0.171993 0.171991 0.171985 0.171977 0.171967 0.171956 0.171945 0.171933 0.171921 0.171912 0.171910 0.171909 0.171908 0.171906 0.171902 0.171896 0.171889 0.171882 0.171874 0.171868 0.171863 0.171862 0.171862 0.171862 0.171861 0.171858 0.171855 0.171851 0.171846 0.171842 0.171841 0.171839 0.171839 0.171839 0.171839 0.171839 0.171838 0.171837 0.171835 0.171833 0.171830 0.171831 0.171832 0.171832 0.171832 
0.202189 0.202116 0.201637 0.200435 0.198832 0.197416 0.196000 0.194584 0.193334 0.192396 0.192063 0.192013 0.191963 0.191637 0.190807 0.189701 0.188690 0.187680 0.186670 0.185737 0.185038 0.184785 0.184746 0.184708 0.184456 0.183799 0.182923 0.182115 0.181306 0.180498 0.179759 0.179204 0.179010 0.178980 0.178951 0.178757 0.178267 0.177613 0.177054 0.176495 0.175935 0.175470 0.175121 0.175007 0.174989 0.174972 0.174859 0.174593 0.174239 0.173970 0.173701 0.173432 0.173233 0.173084 0.173035 0.173027 0.173020 0.172971 0.172857 0.172706 0.172591 0.172475 0.172360 0.172275 0.172211 0.172189 0.172186 0.172182 0.172160 0.172113 0.172049 0.172003 0.171956 0.171910 0.171884 0.171865 0.171859 0.171858 0.171857 0.171851 0.171842 0.171830 0.171824 0.171819 0.171814 0.171818 0.171820 0.171821 0.171821 
0.195647 0.195585 0.195375 0.194903 0.194280 0.193690 0.193099 0.192509 0.191944 0.191516 0.191333 0.191279 0.191226 0.191045 0.190636 0.190097 0.189583 0.189069 0.188555 0.188071 0.187704 0.187549 0.187504 0.187459 0.187306 0.186962 0.186508 0.186069 0.185631 0.185193 0.184772 0.184453 0.184316 0.184276 0.184236 0.184100 0.183795 0.183392 0.183005 0.182618 0.182231 0.181857 0.181574 0.181452 0.181416 0.181381 0.181259 0.180984 0.180621 0.180275 0.179929 0.179582 0.179244 0.178988 0.178878 0.178846 0.178815 0.178709 0.178468 0.178150 0.177838 0.177526 0.177213 0.176925 0.176706 0.176612 0.176584 0.176557 0.176463 0.176250 0.175969 0.175710 0.175450 0.175190 0.174944 0.174756 0.174676 0.174652 0.174629 0.174549 0.174381 0.174159 0.173949 0.173740 0.173531 0.173345 0.173204 0.173149 0.173134 0.173118 0.173064 0.172942 0.172781 0.172639 0.172497 0.172355 0.172239 0.172152 0.172115 0.172104 0.172093 0.172055 0.171973 0.171864 0.171784 0.171705 0.171626 0.171548 0.171488 0.171464 0.171458 0.171453 0.171437 0.171398 0.171348 0.171296 0.171243 0.171191 0.171160 0.171137 0.171127 0.171124 0.171121 0.171110 0.171086 0.171053 0.171033 0.171014 0.170994 0.170978 0.170965 0.170959 0.170958 0.170956 0.170950 0.170944 0.170937 0.170932 0.170927 0.170922 0.170922 0.170922 0.170925 0.170925 0.170926 0.170929 0.170934 0.170940 0.170949 0.170957 0.170966 0.170980 0.170991 0.170996 0.170997 0.170998 0.171002 0.171012 0.171025 0.171046 0.171066 0.171086 0.171104 0.171118 0.171125 0.171127 0.171129 0.171138 0.171157 0.171181 0.171204 0.171227 0.171250 0.171279 0.171301 0.171310 0.171313 0.171315 0.171325 0.171345 0.171373 0.171404 0.171435 0.171467 0.171498 0.171521 0.171531 0.171534 
0.179922 0.179894 0.179794 0.179567 0.179267 0.178973 0.178680 0.178387 0.178101 0.177884 0.177791 0.177764 0.177738 0.177645 0.177433 0.177152 0.176880 0.176608 0.176335 0.176069 0.175867 0.175780 0.175755 0.175730 0.175644 0.175451 0.175196 0.174952 0.174708 0.174464 0.174227 0.174048 0.173971 0.173949 0.173927 0.173851 0.173676 0.173445 0.173223 0.173001 0.172779 0.172563 0.172399 0.172329 0.172309 0.172289 0.172220 0.172066 0.171862 0.171659 0.171455 0.171252 0.171058 0.170911 0.170848 0.170830 0.170812 0.170749 0.170604 0.170413 0.170233 0.170053 0.169872 0.169696 0.169563 0.169506 0.169489 0.169473 0.169418 0.169295 0.169133 0.168974 0.168815 0.168656 0.168513 0.168404 0.168357 0.168344 0.168330 0.168283 0.168178 0.168040 0.167918 0.167797 0.167675 0.167566 0.167483 0.167448 0.167438 0.167429 0.167396 0.167330 0.167243 0.167158 0.167074 0.166990 0.166923 0.166873 0.166851 0.166845 0.166839 0.166819 0.166771 0.166707 0.166657 0.166606 0.166556 0.166509 0.166473 0.166459 0.166455 0.166450 0.166436 0.166412 0.166380 0.166346 0.166312 0.166278 0.166254 0.166235 0.166227 0.166225 0.166223 0.166215 0.166198 0.166175 0.166159 0.166144 0.166128 0.166114 0.166104 0.166099 0.166098 0.166097 0.166092 0.166087 0.166081 0.166073 0.166066 0.166058 0.166056 0.166055 0.166054 0.166054 0.166054 0.166053 0.166052 0.166050 0.166051 0.166053 0.166055 0.166057 0.166059 0.166060 0.166060 0.166060 0.166061 0.166066 0.166073 0.166080 0.166087 0.166094 0.166105 0.166112 0.166116 0.166117 0.166118 0.166122 0.166129 0.166139 0.166151 0.166163 0.166175 0.166188 0.166197 0.166202 0.166203 
0.170605 0.170582 0.170496 0.170298 0.170037 0.169777 0.169517 0.169257 0.169004 0.168813 0.168731 0.168709 0.168686 0.168605 0.168416 0.168167 0.167925 0.167684 0.167442 0.167207 0.167029 0.166954 0.166933 0.166912 0.166837 0.166667 0.166441 0.166223 0.166004 0.165786 0.165576 0.165417 0.165349 0.165330 0.165312 0.165244 0.165089 0.164885 0.164688 0.164492 0.164296 0.164108 0.163965 0.163905 0.163888 0.163871 0.163811 0.163675 0.163496 0.163319 0.163143 0.162967 0.162799 0.162673 0.162618 0.162603 0.162588 0.162534 0.162409 0.162243 0.162086 0.161930 0.161773 0.161620 0.161505 0.161456 0.161442 0.161428 0.161379 0.161273 0.161133 0.160998 0.160863 0.160728 0.160612 0.160524 0.160488 0.160479 0.160469 0.160433 0.160352 0.160246 0.160152 0.160059 0.159966 0.159880 0.159815 0.159788 0.159780 0.159773 0.159746 0.159693 0.159624 0.159558 0.159493 0.159427 0.159373 0.159332 0.159315 0.159311 0.159306 0.159290 0.159252 0.159202 0.159161 0.159120 0.159079 0.159042 0.159015 0.159003 0.159000 0.158996 0.158985 0.158964 0.158936 0.158910 0.158884 0.158858 0.158838 0.158823 0.158817 0.158816 0.158814 0.158809 0.158795 0.158778 0.158765 0.158752 0.158739 0.158729 0.158721 0.158718 0.158717 0.158716 0.158712 0.158709 0.158704 0.158699 0.158695 0.158691 0.158690 0.158689 0.158690 0.158690 0.158690 0.158690 0.158691 0.158691 0.158694 0.158698 0.158701 0.158705 0.158709 0.158711 0.158711 0.158711 0.158713 0.158718 0.158725 0.158732 0.158740 0.158748 0.158756 0.158762 0.158766 0.158767 
0.150464 0.150459 0.150442 0.150405 0.150357 0.150308 0.150258 0.150209 0.150159 0.150121 0.150103 0.150097 0.150091 0.150073 0.150034 0.149983 0.149930 0.149878 0.149826 0.149773 0.149733 0.149715 0.149709 0.149703 0.149685 0.149645 0.149593 0.149541 0.149489 0.149437 0.149385 0.149346 0.149328 0.149322 0.149316 0.149298 0.149258 0.149206 0.149153 0.149100 0.149046 0.148994 0.148954 0.148936 0.148930 0.148924 0.148906 0.148867 0.148815 0.148764 0.148713 0.148662 0.148612 0.148574 0.148557 0.148551 0.148545 0.148528 0.148490 0.148441 0.148391 0.148341 0.148292 0.148242 0.148205 0.148188 0.148182 0.148176 0.148159 0.148122 0.148073 0.148024 0.147975 0.147925 0.147877 0.147840 0.147823 0.147817 0.147812 0.147795 0.147758 0.147710 0.147663 0.147616 0.147568 0.147522 0.147487 0.147471 0.147466 0.147461 0.147445 0.147410 0.147365 0.147329 0.147292 0.147256 0.147223 0.147197 0.147186 0.147182 0.147179 0.147167 0.147143 0.147112 0.147086 0.147060 0.147033 0.147009 0.146991 0.146982 0.146980 0.146977 0.146969 0.146952 0.146931 0.146912 0.146894 0.146875 0.146857 0.146843 0.146837 0.146835 0.146834 0.146828 0.146818 0.146804 0.146791 0.146778 0.146765 0.146753 0.146744 0.146740 0.146739 0.146738 0.146734 0.146727 0.146717 0.146708 0.146698 0.146689 0.146682 0.146677 0.146675 0.146674 0.146673 0.146671 0.146666 0.146660 0.146655 0.146649 0.146643 0.146639 0.146636 0.146634 0.146634 0.146633 0.146632 0.146628 0.146624 0.146621 0.146619 0.146616 0.146614 0.146612 0.146612 0.146611 0.146611 0.146610 0.146609 0.146607 0.146607 0.146607 0.146606 0.146606 0.146606 0.146605 0.146605 0.146605 0.146605 0.146606 0.146607 0.146608 0.146609 0.146610 0.146612 0.146612 0.146613 0.146613 
