0.261979 0.261996 0.262210 0.262829 0.263810 0.261939 0.260068 0.258197 0.253186 0.250022 0.249217 0.249152 0.249088 0.248288 0.244702 0.239022 0.233897 0.228772 0.223646 0.219286 0.216533 0.215960 0.215913 0.215867 0.215296 0.212849 0.208971 0.205511 0.202051 0.198591 0.195481 0.193518 0.193102 0.193069 0.193035 0.192621 0.190813 0.187950 0.185360 0.182770 0.180180 0.177852 0.176383 0.176071 0.176046 0.176021 0.175712 0.174367 0.172237 0.170295 0.168354 0.166413 0.164626 0.163499 0.163258 0.163239 0.163219 0.162980 0.161931 0.160269 0.158742 0.157214 0.155686 0.154285 0.153400 0.153211 0.153196 0.153181 0.152993 0.152178 0.150888 0.149700 0.148513 0.147325 0.146241 0.145556 0.145409 0.145397 0.145385 0.145239 0.144603 0.143595 0.142665 0.141735 0.140806 0.139948 0.139406 0.139289 0.139280 
0.261976 0.261982 0.262033 0.262149 0.262303 0.261956 0.261608 0.261261 0.260406 0.259766 0.259427 0.259387 0.259344 0.258977 0.257873 0.256398 0.254676 0.252954 0.251231 0.249367 0.247971 0.247451 0.247390 0.247328 0.246804 0.245410 0.243549 0.241673 0.239797 0.237922 0.236098 0.234732 0.234267 0.234213 0.234159 0.233703 0.232501 0.230895 0.229335 0.227775 0.226215 0.224777 0.223701 0.223323 0.223279 0.223235 0.222860 0.221878 0.220567 0.219326 0.218085 0.216845 0.215685 0.214817 0.214509 0.214473 0.214437 0.214133 0.213310 0.212211 0.211165 0.210119 0.209073 0.208084 0.207344 0.207078 0.207047 0.207016 0.206752 0.206036 0.205080 0.204160 0.203239 0.202319 0.201442 0.200785 0.200551 0.200524 0.200496 0.200262 0.199623 0.198770 0.197950 0.197131 0.196311 0.195516 0.194921 0.194707 0.194682 0.194658 0.194445 0.193870 0.193103 0.192359 0.191615 0.190871 0.190147 0.189606 0.189411 0.189388 0.189365 0.189171 0.188643 0.187937 0.187238 0.186539 0.185840 0.185171 0.184671 0.184490 0.184468 0.184447 0.184266 0.183774 0.183116 0.182480 0.181844 0.181207 0.180587 0.180122 0.179955 0.179935 0.179916 0.179749 0.179298 0.178694 0.178107 0.177520 0.176933 0.176364 0.175939 0.175786 0.175768 0.175750 0.175598 0.175187 0.174637 0.174103 0.173569 0.173036 0.172517 0.172128 0.171989 0.171972 0.171956 0.171817 0.171439 0.170935 0.170446 0.169957 0.169467 0.168992 0.168637 0.168509 0.168494 0.168479 0.168351 0.168006 0.167544 0.167093 0.166643 0.166192 0.165753 0.165423 0.165304 0.165290 0.165276 0.165158 0.164835 0.164405 0.163982 0.163560 0.163137 0.162724 0.162415 0.162303 0.162290 0.162277 0.162165 0.161863 0.161459 0.161062 0.160664 0.160266 0.159875 0.159583 0.159477 0.159465 0.159452 0.159347 0.159059 0.158675 0.158297 0.157920 0.157542 0.157171 0.156894 0.156793 0.156781 0.156770 0.156670 0.156397 0.156033 0.155676 0.155318 0.154960 0.154610 0.154347 0.154252 0.154241 0.154230 0.154135 0.153878 0.153534 0.153197 0.152860 0.152524 0.152194 0.151946 0.151857 0.151846 0.151836 0.151747 0.151505 0.151181 0.150864 0.150546 0.150229 0.149919 0.149687 0.149604 0.149594 0.149584 0.149501 0.149273 0.148969 0.148671 0.148373 0.148076 0.147784 0.147565 0.147486 0.147477 0.147468 0.147389 0.147175 0.146890 0.146610 0.146330 0.146050 0.145775 0.145570 0.145495 0.145487 0.145478 0.145404 0.145202 0.144932 0.144667 0.144403 0.144138 0.143878 0.143684 0.143613 0.143605 
0.262034 0.262279 0.265494 0.280814 0.305084 0.312354 0.319625 0.326895 0.318844 0.313762 0.311701 0.311544 0.311395 0.309442 0.300221 0.285613 0.273180 0.260747 0.248313 0.237361 0.230447 0.229105 0.229002 0.228902 0.227589 0.222661 0.214855 0.209786 0.204717 0.199647 0.195773 0.193328 0.192836 0.192798 0.192762 0.192280 0.190191 0.186881 0.183692 0.180502 0.177313 0.171401 0.167669 0.166702 0.166629 0.166557 0.165615 0.161493 0.154964 0.149846 0.144727 0.139609 0.136115 0.133909 0.133495 0.133463 0.133433 0.133026 0.131445 0.128941 0.127395 0.125849 0.124303 0.123348 0.122745 0.122632 0.122623 0.122615 0.122504 0.122061 0.121360 0.120865 0.120369 0.119873 0.119507 0.119275 0.119229 0.119226 0.119222 0.119177 0.118987 0.118687 0.118446 0.118205 0.117964 0.117767 0.117642 0.117616 0.117614 0.117612 0.117587 0.117479 0.117308 0.117163 0.117019 0.116874 0.116750 0.116671 0.116655 0.116654 0.116652 0.116636 0.116567 0.116457 0.116362 0.116267 0.116172 0.116091 0.116039 0.116028 0.116028 0.116027 0.116016 0.115971 0.115899 0.115838 0.115776 0.115715 0.115663 0.115630 0.115623 0.115623 0.115622 0.115615 0.115587 0.115541 0.115502 0.115463 0.115424 0.115390 0.115369 0.115364 0.115364 0.115363 0.115359 0.115340 0.115311 0.115285 0.115259 0.115233 0.115211 0.115198 0.115195 0.115195 
0.145397 0.145394 0.145383 0.145352 0.145312 0.145258 0.145205 0.145152 0.145087 0.145039 0.145016 0.145012 0.145007 0.144985 0.144926 0.144848 0.144756 0.144665 0.144574 0.144502 0.144447 0.144428 0.144424 0.144420 0.144400 0.144351 0.144285 0.144215 0.144145 0.144075 0.144002 0.143946 0.143925 0.143921 0.143916 0.143895 0.143838 0.143763 0.143683 0.143602 0.143522 0.143435 0.143370 0.143344 0.143339 0.143334 0.143308 0.143239 0.143148 0.143054 0.142960 0.142867 0.142770 0.142698 0.142668 0.142662 0.142657 0.142627 0.142553 0.142454 0.142354 0.142254 0.142154 0.142054 0.141978 0.141948 0.141942 
0.176039 0.176012 0.175916 0.175691 0.175394 0.175094 0.174794 0.174493 0.174191 0.173962 0.173863 0.173835 0.173807 0.173708 0.173478 0.173175 0.172875 0.172574 0.172274 0.171975 0.171749 0.171652 0.171625 0.171598 0.171502 0.171278 0.170983 0.170690 0.170397 0.170104 0.169814 0.169593 0.169499 0.169473 0.169447 0.169353 0.169135 0.168848 0.168566 0.168284 0.168002 0.167723 0.167512 0.167421 0.167396 0.167371 0.167281 0.167075 0.166802 0.166532 0.166262 0.165992 0.165730 0.165531 0.165447 0.165423 0.165399 0.165315 0.165120 0.164863 0.164613 0.164364 0.164115 0.163869 0.163683 0.163604 0.163582 0.163560 0.163482 0.163304 0.163069 0.162838 0.162606 0.162374 0.162153 0.161985 0.161914 0.161894 0.161874 0.161802 0.161637 0.161420 0.161214 0.161008 0.160802 0.160601 0.160449 0.160384 0.160366 0.160348 0.160285 0.160144 0.159956 0.159772 0.159588 0.159404 0.159242 0.159119 0.159075 0.159063 0.159051 0.159007 0.158907 0.158775 0.158656 0.158536 0.158416 0.158301 0.158213 0.158176 0.158166 0.158156 0.158120 0.158043 0.157942 0.157840 0.157739 0.157638 0.157547 0.157477 0.157448 0.157439 0.157431 0.157401 0.157332 0.157240 0.157157 0.157073 0.156989 0.156906 0.156844 0.156816 0.156809 0.156801 0.156775 0.156718 0.156642 0.156563 0.156484 0.156405 0.156334 0.156281 0.156258 0.156251 0.156245 0.156221 0.156167 0.156096 0.156031 0.155965 0.155899 0.155835 0.155786 0.155764 0.155758 0.155753 0.155732 0.155688 0.155629 0.155571 0.155512 0.155453 0.155400 0.155359 0.155342 0.155337 0.155332 0.155315 0.155275 0.155222 0.155173 0.155124 0.155075 0.155027 0.154990 0.154975 0.154970 
0.215893 0.215809 0.215608 0.215205 0.214680 0.214164 0.213648 0.213131 0.212615 0.212220 0.212021 0.211939 0.211857 0.211658 0.211262 0.210747 0.210232 0.209718 0.209203 0.208692 0.208299 0.208104 0.208023 0.207943 0.207749 0.207367 0.206869 0.206383 0.205896 0.205409 0.204932 0.204567 0.204385 0.204309 0.204234 0.204053 0.203696 0.203230 0.202772 0.202313 0.201855 0.201403 0.201057 0.200884 0.200813 0.200742 0.200570 0.200231 0.199790 0.199356 0.198922 0.198489 0.198061 0.197734 0.197570 0.197503 0.197436 0.197273 0.196961 0.196553 0.196157 0.195761 0.195365 0.194978 0.194680 0.194532 0.194471 0.194411 0.194264 0.193977 0.193604 0.193240 0.192876 0.192512 0.192158 0.191886 0.191751 0.191695 0.191639 0.191505 0.191241 0.190897 0.190563 0.190229 0.189895 0.189572 0.189324 0.189201 0.189150 0.189099 0.188975 0.188732 0.188415 0.188103 0.187791 0.187479 0.187171 0.186936 0.186818 0.186769 0.186721 0.186604 0.186374 0.186073 0.185780 0.185487 0.185193 0.184906 0.184686 0.184574 0.184528 0.184482 0.184371 0.184149 0.183861 0.183578 0.183294 0.183011 0.182734 0.182521 0.182415 0.182371 0.182327 0.182222 0.182013 0.181742 0.181476 0.181211 0.180945 0.180686 0.180487 0.180387 0.180346 0.180305 0.180206 0.180010 0.179755 0.179505 0.179255 0.179005 0.178762 0.178576 0.178483 0.178445 0.178407 0.178314 0.178132 0.177894 0.177660 0.177426 0.177192 0.176968 0.176797 0.176711 0.176676 0.176641 0.176556 0.176389 0.176171 0.175957 0.175744 0.175530 0.175324 0.175165 0.175089 0.175058 0.175027 0.174952 0.174804 0.174610 0.174420 0.174230 0.174040 0.173854 0.173710 0.173639 0.173610 0.173582 0.173515 0.173386 0.173217 0.173057 0.172896 0.172735 0.172584 0.172469 0.172411 0.172387 0.172364 0.172306 0.172203 0.172067 0.171942 0.171817 0.171692 0.171569 0.171475 0.171428 0.171409 0.171389 0.171343 0.171251 0.171131 0.171032 0.170934 0.170835 0.170738 0.170663 0.170626 0.170610 0.170595 0.170557 0.170484 0.170387 0.170303 0.170219 0.170134 0.170058 0.169999 0.169969 0.169957 0.169945 0.169915 0.169857 0.169781 0.169709 0.169637 0.169565 0.169505 0.169459 0.169435 0.169426 0.169416 0.169392 0.169345 0.169284 0.169223 0.169161 0.169100 0.169049 0.169011 0.168992 0.168984 0.168976 0.168957 0.168918 0.168868 0.168817 0.168766 0.168714 0.168664 0.168626 0.168610 0.168604 0.168597 0.168582 0.168550 0.168509 0.168467 0.168426 0.168384 0.168341 0.168309 0.168292 0.168285 0.168279 0.168265 0.168239 0.168206 0.168172 0.168137 0.168103 0.168068 0.168042 0.168028 0.168023 0.168017 0.168003 0.167978 0.167947 0.167918 0.167889 0.167860 0.167830 0.167808 0.167797 0.167792 0.167787 0.167776 0.167753 0.167724 0.167700 0.167677 0.167653 0.167629 0.167611 0.167602 0.167598 0.167594 0.167585 0.167567 0.167542 0.167521 0.167500 0.167478 0.167458 0.167443 0.167436 0.167432 0.167429 0.167421 0.167405 0.167385 0.167365 0.167344 0.167324 0.167307 0.167294 0.167288 0.167285 0.167282 0.167276 0.167263 0.167246 0.167229 0.167212 0.167196 0.167182 0.167171 0.167166 0.167163 0.167161 0.167156 0.167146 0.167132 0.167119 0.167105 0.167091 0.167078 0.167067 0.167063 0.167061 0.167059 0.167055 0.167047 0.167035 0.167025 0.167014 0.167003 0.166993 0.166985 0.166980 0.166979 
0.249105 0.248916 0.248449 0.247519 0.246305 0.245107 0.243909 0.242711 0.241548 0.240657 0.240216 0.240037 0.239859 0.239421 0.238547 0.237406 0.236288 0.235169 0.234051 0.232957 0.232118 0.231704 0.231536 0.231369 0.230956 0.230138 0.229070 0.228024 0.226978 0.225933 0.224916 0.224137 0.223749 0.223592 0.223436 0.223049 0.222282 0.221281 0.220343 0.219406 0.218468 0.217591 0.216918 0.216592 0.216459 0.216329 0.216008 0.215388 0.214579 0.213814 0.213049 0.212284 0.211564 0.211013 0.210746 0.210638 0.210532 0.210270 0.209759 0.209091 0.208463 0.207836 0.207208 0.206622 0.206173 0.205955 0.205866 0.205779 0.205564 0.205144 0.204596 0.204163 0.203729 0.203296 0.202906 0.202607 0.202460 0.202400 0.202340 0.202194 0.201903 0.201524 0.201153 0.200783 0.200412 0.200050 0.199772 0.199635 0.199579 0.199523 0.199387 0.199116 0.198763 0.198418 0.198072 0.197726 0.197387 0.197126 0.196997 0.196945 0.196893 0.196764 0.196508 0.196174 0.195847 0.195520 0.195192 0.194868 0.194620 0.194497 0.194447 0.194398 0.194275 0.194028 0.193707 0.193389 0.193072 0.192755 0.192441 0.192200 0.192081 0.192033 0.191984 0.191865 0.191620 0.191300 0.190981 0.190662 0.190343 0.190027 0.189784 0.189664 0.189615 0.189566 0.189446 0.189207 0.188894 0.188582 0.188269 0.187957 0.187647 0.187409 0.187291 0.187243 0.187195 0.187075 0.186833 0.186516 0.186202 0.185889 0.185575 0.185263 0.185025 0.184908 0.184860 0.184813 0.184697 0.184465 0.184162 0.183864 0.183566 0.183269 0.182980 0.182758 0.182649 0.182605 0.182560 0.182452 0.182236 0.181954 0.181679 0.181403 0.181128 0.180867 0.180667 0.180568 0.180528 0.180488 0.180390 0.180194 0.179938 0.179688 0.179438 0.179189 0.178952 0.178770 0.178684 0.178649 0.178614 0.178528 0.178358 0.178136 0.177919 0.177702 0.177485 0.177275 0.177114 0.177040 0.177010 0.176981 0.176910 0.176770 0.176587 0.176409 0.176231 0.176053 0.175881 0.175749 0.175683 0.175657 0.175631 0.175567 0.175458 0.175316 0.175177 0.175037 0.174898 0.174762 0.174659 0.174607 0.174586 0.174566 0.174515 0.174424 0.174306 0.174202 0.174099 0.173996 0.173894 0.173815 0.173776 0.173760 0.173745 0.173706 0.173628 0.173527 0.173448 0.173370 0.173291 0.173213 0.173153 0.173123 0.173110 0.173098 0.173068 0.173007 0.172928 0.172862 0.172795 0.172728 0.172667 0.172621 0.172597 0.172588 0.172578 0.172555 0.172508 0.172447 0.172391 0.172336 0.172280 0.172233 0.172197 0.172179 0.172171 0.172163 0.172145 0.172107 0.172057 0.172008 0.171959 0.171910 0.171871 0.171842 0.171827 0.171821 0.171815 0.171800 0.171769 0.171728 0.171687 0.171646 0.171605 0.171570 0.171543 0.171531 0.171526 0.171521 0.171509 0.171484 0.171451 0.171417 0.171384 0.171350 0.171317 0.171291 0.171281 0.171277 0.171272 0.171262 0.171241 0.171214 0.171186 0.171158 0.171130 0.171101 0.171079 0.171068 0.171063 0.171059 0.171049 0.171031 0.171007 0.170983 0.170959 0.170935 0.170911 0.170894 0.170885 0.170881 0.170877 0.170868 0.170851 0.170830 0.170810 0.170790 0.170769 0.170749 0.170733 0.170725 0.170722 0.170718 0.170710 0.170694 0.170673 0.170655 0.170637 0.170619 0.170601 0.170587 0.170580 0.170577 0.170574 0.170567 0.170553 0.170534 0.170517 0.170500 0.170483 0.170467 0.170454 0.170448 0.170445 
0.259332 0.259112 0.258493 0.257206 0.255518 0.253930 0.252341 0.250753 0.249210 0.248034 0.247485 0.247290 0.247096 0.246552 0.245411 0.243915 0.242477 0.241039 0.239602 0.238235 0.237193 0.236714 0.236544 0.236375 0.235902 0.234923 0.233640 0.232384 0.231129 0.229873 0.228645 0.227709 0.227275 0.227120 0.226967 0.226535 0.225635 0.224454 0.223346 0.222238 0.221129 0.220081 0.219282 0.218912 0.218780 0.218650 0.218284 0.217530 0.216540 0.215617 0.214695 0.213772 0.212924 0.212277 0.211987 0.211884 0.211783 0.211498 0.210918 0.210156 0.209443 0.208729 0.208015 0.207336 0.206819 0.206583 0.206499 0.206416 0.206184 0.205704 0.205075 0.204479 0.203884 0.203288 0.202733 0.202310 0.202153 0.202097 0.202041 0.201884 0.201555 0.201124 0.200706 0.200288 0.199871 0.199461 0.199149 0.199004 0.198953 0.198901 0.198757 0.198454 0.198055 0.197661 0.197267 0.196872 0.196487 0.196193 0.196056 0.196007 0.195959 0.195822 0.195532 0.195151 0.194775 0.194398 0.194022 0.193651 0.193369 0.193238 0.193191 0.193144 0.193014 0.192736 0.192373 0.192016 0.191659 0.191303 0.190946 0.190674 0.190546 0.190500 0.190454 0.190327 0.190054 0.189697 0.189319 0.188941 0.188562 0.188180 0.187888 0.187752 0.187704 0.187656 0.187523 0.187240 0.186869 0.186506 0.186142 0.185778 0.185421 0.185149 0.185025 0.184981 0.184937 0.184813 0.184552 0.184210 0.183874 0.183538 0.183201 0.182876 0.182628 0.182515 0.182475 0.182435 0.182323 0.182086 0.181776 0.181475 0.181174 0.180873 0.180587 0.180369 0.180268 0.180232 0.180197 0.180097 0.179886 0.179610 0.179342 0.179075 0.178807 0.178570 0.178390 0.178306 0.178276 0.178247 0.178164 0.177991 0.177763 0.177549 0.177335 0.177121 0.176935 0.176793 0.176727 0.176704 0.176681 0.176615 0.176478 0.176297 0.176134 0.175970 0.175806 0.175663 0.175554 0.175504 0.175486 0.175468 0.175418 0.175312 0.175173 0.175053 0.174934 0.174814 0.174706 0.174624 0.174585 0.174572 0.174558 0.174520 0.174438 0.174330 0.174239 0.174148 0.174058 0.173975 0.173913 0.173883 0.173872 0.173862 0.173832 0.173767 0.173683 0.173613 0.173543 0.173473 0.173401 0.173346 0.173320 0.173311 0.173302 0.173276 0.173225 0.173157 0.173100 0.173043 0.172985 0.172928 0.172884 0.172863 0.172855 0.172848 0.172827 0.172789 0.172738 0.172691 0.172644 0.172597 0.172550 0.172514 0.172496 0.172490 0.172484 0.172467 0.172437 0.172397 0.172357 0.172317 0.172277 0.172236 0.172204 0.172189 0.172184 0.172180 0.172167 0.172142 0.172108 0.172074 0.172040 0.172006 0.171971 0.171945 0.171935 0.171931 0.171928 0.171917 0.171895 0.171867 0.171837 0.171807 0.171776 0.171748 0.171726 0.171717 0.171714 0.171711 0.171702 0.171683 0.171657 0.171632 0.171606 0.171581 0.171558 0.171540 0.171533 0.171530 
0.234173 0.234017 0.233350 0.231783 0.229706 0.227770 0.225833 0.223896 0.222121 0.220782 0.220256 0.220132 0.220011 0.219493 0.218281 0.216673 0.215192 0.213711 0.212229 0.210860 0.209826 0.209419 0.209323 0.209229 0.208826 0.207878 0.206621 0.205468 0.204315 0.203162 0.202103 0.201304 0.200987 0.200913 0.200839 0.200526 0.199784 0.198801 0.197889 0.196978 0.196066 0.195236 0.194609 0.194360 0.194302 0.194244 0.193997 0.193416 0.192646 0.191921 0.191197 0.190472 0.189795 0.189284 0.189081 0.189033 0.188986 0.188784 0.188299 0.187656 0.187043 0.186429 0.185816 0.185229 0.184786 0.184611 0.184571 0.184530 0.184358 0.183945 0.183397 0.182873 0.182349 0.181824 0.181328 0.180954 0.180804 0.180768 0.180734 0.180585 0.180246 0.179797 0.179374 0.178951 0.178528 0.178146 0.177857 0.177741 0.177714 0.177687 0.177572 0.177316 0.176977 0.176667 0.176357 0.176047 0.175795 0.175604 0.175529 0.175511 0.175493 0.175418 0.175248 0.175024 0.174834 0.174644 0.174454 0.174303 0.174188 0.174144 0.174134 0.174124 0.174080 0.173973 0.173831 0.173722 0.173614 0.173505 0.173410 0.173338 0.173313 0.173307 0.173301 0.173276 0.173211 0.173125 0.173054 0.172983 0.172912 0.172847 0.172798 0.172783 0.172779 0.172776 0.172761 0.172722 0.172672 0.172629 0.172585 0.172542 0.172502 0.172471 0.172459 0.172456 0.172454 0.172445 0.172425 0.172397 0.172372 0.172347 0.172321 0.172301 0.172286 0.172280 0.172278 0.172277 0.172270 0.172261 0.172248 0.172236 0.172225 0.172213 0.172206 0.172201 0.172199 0.172198 
0.200512 0.200463 0.200232 0.199652 0.198882 0.198122 0.197361 0.196601 0.195851 0.195287 0.195064 0.195018 0.194972 0.194750 0.194193 0.193454 0.192734 0.192015 0.191296 0.190599 0.190074 0.189868 0.189825 0.189782 0.189577 0.189070 0.188397 0.187756 0.187114 0.186472 0.185859 0.185398 0.185217 0.185180 0.185142 0.184963 0.184523 0.183939 0.183383 0.182828 0.182273 0.181751 0.181358 0.181205 0.181173 0.181141 0.180988 0.180617 0.180123 0.179657 0.179191 0.178725 0.178287 0.177957 0.177828 0.177801 0.177774 0.177646 0.177341 0.176936 0.176560 0.176184 0.175807 0.175455 0.175191 0.175087 0.175065 0.175045 0.174949 0.174713 0.174399 0.174113 0.173828 0.173542 0.173283 0.173088 0.173020 0.173006 0.172992 0.172924 0.172759 0.172539 0.172365 0.172190 0.172016 0.171876 0.171771 0.171734 0.171727 0.171720 0.171684 0.171593 0.171473 0.171382 0.171290 0.171199 0.171126 0.171072 0.171052 0.171048 0.171043 0.171023 0.170974 0.170909 0.170853 0.170797 0.170742 0.170701 0.170669 0.170657 0.170654 0.170651 0.170638 0.170612 0.170578 0.170546 0.170514 0.170483 0.170457 0.170438 0.170431 0.170429 0.170427 0.170420 0.170409 0.170395 0.170382 0.170369 0.170356 0.170348 0.170342 0.170339 0.170338 0.170338 0.170338 0.170337 0.170336 0.170337 0.170338 0.170339 0.170342 0.170345 0.170348 0.170348 
0.189378 0.189340 0.189191 0.188830 0.188352 0.187875 0.187397 0.186920 0.186452 0.186098 0.185951 0.185914 0.185877 0.185730 0.185383 0.184923 0.184470 0.184016 0.183562 0.183115 0.182778 0.182637 0.182602 0.182566 0.182426 0.182093 0.181653 0.181227 0.180800 0.180374 0.179958 0.179643 0.179515 0.179482 0.179450 0.179322 0.179020 0.178620 0.178231 0.177843 0.177454 0.177078 0.176794 0.176676 0.176646 0.176617 0.176501 0.176231 0.175874 0.175529 0.175183 0.174837 0.174509 0.174261 0.174159 0.174133 0.174107 0.174005 0.173765 0.173446 0.173149 0.172851 0.172553 0.172269 0.172054 0.171969 0.171947 0.171926 0.171841 0.171642 0.171378 0.171126 0.170875 0.170623 0.170385 0.170205 0.170130 0.170111 0.170093 0.170019 0.169853 0.169633 0.169423 0.169214 0.169004 0.168816 0.168674 0.168615 0.168600 0.168585 0.168527 0.168390 0.168209 0.168051 0.167893 0.167735 0.167594 0.167486 0.167447 0.167437 0.167426 0.167387 0.167298 0.167180 0.167079 0.166978 0.166878 0.166787 0.166719 0.166691 0.166684 0.166677 0.166649 0.166596 0.166526 0.166458 0.166391 0.166323 0.166270 0.166229 0.166213 0.166209 0.166205 0.166188 0.166151 0.166101 0.166059 0.166017 0.165975 0.165939 0.165912 0.165903 0.165901 0.165898 0.165889 0.165866 0.165836 0.165813 0.165790 0.165767 0.165746 0.165730 0.165724 0.165722 0.165721 0.165717 0.165708 0.165695 0.165684 0.165673 0.165661 0.165656 0.165651 0.165649 0.165649 0.165648 0.165646 0.165643 0.165639 0.165639 0.165638 0.165638 0.165641 0.165644 0.165646 0.165646 0.165647 0.165649 0.165652 0.165657 0.165666 0.165675 0.165685 0.165693 0.165699 0.165703 0.165704 
0.165287 0.165274 0.165164 0.164850 0.164432 0.163993 0.163555 0.163116 0.162676 0.162346 0.162226 0.162212 0.162198 0.162078 0.161749 0.161309 0.160892 0.160475 0.160058 0.159668 0.159376 0.159275 0.159263 0.159251 0.159151 0.158885 0.158530 0.158209 0.157888 0.157567 0.157281 0.157068 0.156996 0.156987 0.156979 0.156907 0.156733 0.156500 0.156347 0.156194 0.156041 0.155944 0.155871 0.155851 0.155848 0.155846 0.155826 0.155784 0.155728 0.155699 0.155670 0.155642 0.155635 0.155630 0.155630 0.155630 0.155630 0.155630 0.155637 0.155646 0.155668 0.155690 0.155712 0.155742 0.155765 0.155773 0.155774 
0.147476 0.147471 0.147444 0.147371 0.147275 0.147175 0.147074 0.146974 0.146871 0.146794 0.146764 0.146759 0.146753 0.146723 0.146645 0.146541 0.146437 0.146334 0.146231 0.146128 0.146051 0.146022 0.146017 0.146012 0.145982 0.145906 0.145803 0.145701 0.145599 0.145497 0.145396 0.145321 0.145292 0.145286 0.145281 0.145252 0.145175 0.145074 0.144973 0.144872 0.144771 0.144673 0.144600 0.144572 0.144567 0.144562 0.144534 0.144471 0.144387 0.144329 0.144270 0.144212 0.144167 0.144133 0.144123 0.144121 0.144119 0.144110 0.144088 0.144058 0.144038 0.144017 0.143997 0.143985 0.143976 0.143973 0.143973 0.143972 0.143969 0.143964 0.143957 0.143956 0.143955 0.143954 0.143956 0.143957 0.143959 0.143959 0.143959 0.143961 0.143965 0.143971 0.143982 0.143993 0.144004 0.144018 0.144029 0.144033 0.144034 
