-38.305285 141.129483 -21.164470 0.172496
-16.259039 208.586359 -136.571740 0.172034
67.750936 334.772060 -371.183655 0.171003
33.130768 336.082502 -328.281552 0.171079
100.464047 440.326538 -499.719860 0.170223
74.185385 584.869580 -762.785964 0.168491
-49.229707 169.478377 -60.835599 0.172362
-123.445897 256.447690 -214.033538 0.172113
-182.337965 364.842894 -397.457150 0.171649
-196.228550 342.235550 -358.912869 0.171839
-208.781061 366.784305 -401.197115 0.171683
-294.322702 479.788072 -555.672668 0.170708
-341.767003 629.506207 -743.125591 0.169284
-349.831568 622.480059 -746.202152 0.169407
-42.962261 241.351048 -144.404323 0.171884
-118.642063 402.940227 -457.731008 0.171187
-32.973832 321.518993 -230.664462 0.171329
-31.906785 358.624583 -287.364141 0.171099
-33.460534 397.954358 -348.026460 0.170862
-60.444136 542.719942 -540.304687 0.169409
-23.351436 367.595104 -316.500279 0.171028
-16.338830 498.615388 -513.377080 0.170018
-22.028141 408.162417 -385.743080 0.170776
-22.103494 414.700093 -400.071495 0.170739
-24.066441 426.556615 -421.645138 0.170677
-85.448505 526.237796 -585.179000 0.169739
132.224337 526.787474 -685.722177 0.169206
36.150974 71.620740 -2.242439 0.172770
77.866525 86.919052 109.984223 0.172360
161.320714 80.369690 458.225499 0.171559
146.599534 86.166405 247.681518 0.171929
208.464451 82.156206 357.169794 0.171562
327.180756 73.602122 590.114822 0.170756
327.792357 -0.822159 654.816181 0.171212
187.170452 91.847074 309.587813 0.171643
315.691246 125.584079 538.644134 0.170502
201.049578 110.597895 342.499650 0.171391
290.781988 224.158804 593.806441 0.169762
236.845992 151.615294 418.556187 0.170816
434.136939 191.191497 715.872695 0.169201
398.110847 266.643416 727.788263 0.168796
57.835551 94.457268 67.399037 0.172426
64.959263 131.888459 123.902503 0.172032
108.212622 156.039494 187.123019 0.171609
166.997817 248.426433 352.518562 0.170458
161.287195 189.195956 285.394606 0.171021
262.519721 389.268925 636.701035 0.168647
180.293537 191.706653 309.116397 0.170899
195.498105 187.588947 361.940424 0.170789
203.445049 223.715823 370.132258 0.170483
320.345558 223.714840 638.994081 0.169568
313.584058 444.296752 776.769172 0.167821
8.613668 -123.964002 71.170580 0.174382
-12.298370 -222.306231 224.607017 0.175056
-81.545894 -316.908462 454.453445 0.175609
-102.064881 -445.824071 757.555076 0.176477
7.140914 -185.496215 157.500664 0.174790
-35.833971 -435.474811 463.822984 0.176516
38.492137 -261.235078 262.158719 0.175204
46.389540 -313.845379 371.925231 0.175459
102.477640 -377.856827 558.870749 0.175547
88.636908 178.675387 104.792405 0.171619
168.994597 371.968279 383.513490 0.169528
157.638238 560.136135 576.554425 0.167036
72.351627 62.695238 -15.886883 0.172735
197.262668 91.306740 334.505401 0.171569
120.394843 76.597788 43.354950 0.172383
248.723093 122.329885 240.559181 0.171285
156.659587 94.202934 92.188679 0.172052
228.657031 137.726342 214.421532 0.171279
297.159204 205.740860 385.889357 0.170248
314.684320 215.182200 368.814494 0.170143
346.106350 301.018109 490.098555 0.169221
481.143345 415.428354 688.246675 0.167290
181.577408 106.481293 149.427785 0.171790
229.035780 81.970232 234.129154 0.171685
261.893569 69.385642 307.045414 0.171549
381.051128 -70.276620 492.431740 0.171902
392.303877 88.862157 428.470803 0.170679
-69.224224 -52.218496 278.611416 0.173684
-120.352238 -16.220479 70.747894 0.173881
-376.157539 2.374584 404.103082 0.173976
-421.789445 -288.449568 625.385103 0.177311
35.258624 -11.228221 98.138536 0.173312
-130.537187 53.255874 690.259017 0.172182
24.055755 1.340187 299.676466 0.172927
30.856963 -53.477197 595.509696 0.172771
11.288882 6.480121 464.439715 0.172620
4.006661 11.351040 509.569008 0.172512
12.830508 12.041921 584.754478 0.172322
5.054578 6.453864 631.357522 0.172288
-56.944375 203.658867 897.837243 0.170346
54.231299 -27.235353 109.725884 0.173366
104.531935 -87.040661 226.338628 0.173525
159.336674 -137.582284 318.182022 0.173629
191.324123 -181.735758 382.165530 0.173809
262.818480 -314.149317 615.572648 0.174363
246.224231 -244.267251 482.842131 0.174016
256.138816 -301.250329 557.063806 0.174382
254.869309 -250.272521 511.616295 0.173986
267.155045 -276.527651 560.565374 0.174095
279.978904 -353.078131 653.521004 0.174621
299.683000 -325.867425 641.412633 0.174302
292.584592 -283.247025 585.063175 0.174021
353.035478 -362.283812 706.009019 0.174337
337.092151 -326.846348 670.186398 0.174113
411.287715 -419.612530 906.251947 0.174225
351.877764 -334.860921 699.609652 0.174071
389.455517 -309.215031 769.985060 0.173492
384.916973 -359.067484 752.762478 0.174065
78.449133 -46.795009 199.009679 0.173317
237.441546 95.219911 565.183343 0.170969
113.343338 -73.164946 323.321132 0.173214
119.000823 -148.237692 526.077838 0.173454
168.371510 -96.408319 503.083645 0.172898
228.781321 -147.325330 749.418476 0.172597
400.780325 -36.377761 1006.931705 0.170375
11.065981 -748.258224 236.137537 0.182703
139.506915 -971.331632 -168.634241 0.186598
-2.860657 -260.002230 84.389514 0.175583
1.208506 -387.772968 253.307843 0.176452
-7.023929 -309.031509 145.957012 0.175939
-17.766549 -322.152288 172.648569 0.176039
-6.114698 -349.192545 214.154053 0.176187
4.090488 -424.910356 341.429325 0.176617
-15.833775 -393.871668 308.741918 0.176437
-73.828372 -428.299330 416.070049 0.176623
-35.212879 -464.507959 400.780891 0.176990
-106.535892 -607.049316 602.810422 0.180211
-128.488053 -641.774644 708.732569 0.180927
18.165609 -71.140373 34.339206 0.173955
38.818112 -100.623942 190.491766 0.173912
70.316132 -177.027073 512.942117 0.173876
74.922447 -133.214902 313.947396 0.173870
87.818086 -134.826050 347.429244 0.173783
283.964572 -181.199978 818.548335 0.172545
37.947448 -150.794407 170.990323 0.174378
99.747310 -285.856661 354.562334 0.175096
157.587144 -380.499848 505.062118 0.175585
130.375668 -341.574464 460.043656 0.175348
136.561567 -383.738767 553.762468 0.175557
-17.061006 -407.589234 875.785548 0.175196
56.614505 -255.396365 306.114538 0.175025
162.672014 -412.146846 651.476094 0.175566
57.569664 -360.623852 464.508349 0.175683
79.602783 -473.387995 639.271995 0.176323
56.129558 -544.777246 791.691017 0.177001
-13.809777 58.910072 -23.249454 0.173062
-36.378957 134.583271 94.420383 0.172385
-74.406137 375.073738 416.150834 0.170193
-55.214008 206.439314 206.428712 0.171727
-41.632745 306.321577 358.324522 0.170691
-66.569365 228.856336 257.577471 0.171514
-105.156770 267.165710 322.484708 0.171242
-71.097498 264.922426 360.830235 0.171085
-104.206159 330.511418 510.254353 0.170429
-75.846999 292.979937 474.197734 0.170686
-83.186753 316.459309 512.879321 0.170463
-103.209829 377.042604 652.561477 0.169796
-120.386341 350.276010 934.139973 0.169392
-81.175870 300.918871 546.675893 0.170500
-118.705268 293.528207 815.650266 0.170074
-174.670016 346.439814 877.548656 0.169572
-48.263474 86.459416 52.134829 0.172858
-106.377090 103.531870 281.318236 0.172554
-165.521218 111.384858 597.565769 0.172050
-287.402704 -20.085037 851.339486 0.172764
-86.881495 126.161977 125.107616 0.172568
-324.636564 294.593390 514.794203 0.171089
-557.195101 388.153729 830.360620 0.170259
-575.500018 379.826827 858.840106 0.170358
-110.831044 150.837568 184.490657 0.172363
-199.344584 170.859684 299.006056 0.172294
-302.490347 200.788216 446.247174 0.172079
-390.506670 214.755102 646.476057 0.171701
-157.594544 243.323975 347.657264 0.171535
-202.670758 338.016224 499.240611 0.170569
-230.533332 398.805004 567.097320 0.169748
-274.117390 504.297784 742.034054 0.168226
-389.357821 368.136376 937.893501 0.169473
-102.664856 -24.229730 -55.026684 0.174060
-154.251829 -3.979194 32.197833 0.173943
-228.354285 36.401437 235.137410 0.173529
-290.883616 154.660589 316.310259 0.172663
-117.420033 -33.461157 -25.476811 0.174144
-154.789326 -32.363716 27.871461 0.174179
-372.074189 103.585836 393.561094 0.173170
-212.282942 -25.411548 95.268710 0.174198
-295.523103 4.451328 224.999917 0.173992
-245.968334 -27.808618 134.889788 0.174255
-482.417804 -160.109322 535.397235 0.176259
-362.579337 -9.502093 512.762860 0.173751
-123.782106 -59.166094 25.588815 0.174305
-249.267425 -343.438813 453.920304 0.176666
-143.571061 -102.476058 125.324798 0.174572
-170.249259 -164.505572 252.766283 0.174950
-217.274669 -213.741135 379.840680 0.175244
-253.651224 -253.415908 461.136535 0.175497
-334.567295 -262.551836 549.514623 0.176151
-405.860943 -221.528614 659.058953 0.176057
-162.377486 -142.691773 204.973457 0.174833
-173.685486 -278.485094 499.038039 0.175413
-174.905051 -155.556805 229.159347 0.174933
-100.661217 -408.581741 602.588909 0.176090
-207.994991 -233.447522 336.414679 0.175469
-184.379131 -432.920191 650.269046 0.177282
-299.877428 -455.070093 685.595080 0.178836
-143.237358 114.911143 -137.585279 0.173187
-210.591988 127.052494 -246.976726 0.173436
-314.322546 160.846594 -411.957338 0.173678
-419.106264 212.408123 -565.418144 0.173848
-534.483644 145.082192 -830.218909 0.175274
-381.088749 256.585758 -567.242749 0.173285
-260.163496 167.302158 -295.226642 0.173342
-381.754097 209.480956 -493.752491 0.173653
-333.158503 214.476856 -431.283376 0.173356
-398.233552 263.854774 -535.543869 0.173286
-338.139386 219.914569 -464.550658 0.173356
-462.054043 350.838553 -793.513134 0.172940
-354.170700 229.769554 -495.643497 0.173359
-395.155701 234.768159 -561.527733 0.173533
-365.215402 234.814958 -512.916044 0.173372
-384.749614 241.482406 -535.474519 0.173415
-459.369285 317.788568 -708.415316 0.173191
-97.162180 108.690300 -89.440598 0.173027
-161.468414 216.906278 -270.368766 0.172594
-227.172496 334.068617 -450.651100 0.172066
-283.266488 492.668438 -747.013516 0.170647
-103.091718 157.748968 -185.930346 0.172770
-102.630303 194.017665 -346.496013 0.172629
-46.089469 257.293262 -683.916887 0.172113
-98.832304 186.782763 -444.224244 0.172736
-107.222721 206.931930 -507.579356 0.172646
-121.648045 200.816722 -522.788298 0.172751
-196.114472 279.873084 -818.582943 0.172498
-202.831362 178.470510 -744.880861 0.173287
-72.584352 250.929759 -360.047369 0.172102
-31.273885 326.653256 -512.812989 0.171486
-14.490116 364.765195 -641.246700 0.171197
100.654975 456.165684 -845.394290 0.170189
-6.281797 332.669292 -502.558629 0.171351
95.399756 428.720544 -657.417418 0.170379
29.473941 375.879548 -568.258335 0.170944
49.888142 393.419595 -599.720487 0.170761
43.958619 538.170009 -825.909718 0.169400
75.077632 610.044458 -1116.978137 0.168135
89.783468 612.959428 -1106.196817 0.168030
9.612536 19.833974 -155.130740 0.173447
-36.056970 -135.721964 -516.472875 0.175150
-29.244166 23.239487 -297.381152 0.173681
-61.484725 -5.043820 -449.561826 0.174123
-87.164841 -33.499295 -611.660347 0.174507
-100.720913 -64.233337 -808.569922 0.174823
-60.471318 24.928123 -421.472388 0.173862
-61.169022 30.267360 -522.995967 0.173873
-40.533476 54.866594 -617.792461 0.173636
-55.959399 38.644508 -931.392149 0.173820
-83.537972 20.010764 -526.031112 0.174034
-118.163813 14.952606 -682.111094 0.174242
-234.776046 122.126806 -853.657873 0.173838
24.353752 17.793685 -108.544453 0.173367
40.823443 9.627670 -139.782993 0.173410
67.733050 7.546028 -180.259322 0.173373
224.558102 100.438260 -451.046675 0.172228
104.566065 54.553494 -287.764695 0.172950
212.149602 145.129219 -680.417948 0.171996
173.105782 181.835293 -563.391090 0.171845
57.729873 -2.857093 -171.363737 0.173485
99.993139 -107.837490 -299.985998 0.174329
237.326417 -243.356091 -534.294084 0.175170
158.560171 -219.326254 -455.997602 0.175206
170.304765 -246.472271 -521.626730 0.175440
164.605338 -262.916276 -564.035507 0.175626
168.127928 -278.450485 -617.094266 0.175769
178.212384 -243.342735 -509.571907 0.175379
249.731206 -377.921619 -690.890362 0.176478
203.145245 -260.445065 -553.140276 0.175464
213.204532 -339.298464 -672.154286 0.176213
221.363258 -278.271638 -602.742476 0.175580
248.823385 -302.879770 -658.775928 0.175721
304.071971 -338.162402 -776.485696 0.175827
92.764229 37.601479 -379.306970 0.173193
227.851500 82.770852 -805.045372 0.172409
125.744603 63.820814 -633.910369 0.172956
148.657158 107.628427 -886.441492 0.172519
213.323572 0.431694 -981.548341 0.173072
26.702149 19.273836 -138.946261 0.173378
41.787909 9.231092 -217.130661 0.173482
112.588215 -1.829899 -387.439240 0.173446
31.196399 53.070120 -907.669661 0.173388
36.444324 18.336896 -176.417096 0.173389
17.291118 37.988039 -338.737685 0.173433
-12.801413 130.146120 -620.051185 0.172945
-11.379100 60.508825 -494.043998 0.173442
-19.089997 69.248365 -564.520109 0.173429
-46.206103 93.421859 -691.849247 0.173368
22.850946 35.215787 -995.701585 0.173531
-20.487538 61.091588 -514.225104 0.173479
-82.359447 75.774522 -593.062974 0.173612
-48.488142 108.037777 -733.329497 0.173267
51.093560 30.034771 -230.321540 0.173292
79.473055 98.749349 -364.778489 0.172744
160.370643 207.424798 -609.147404 0.171714
174.440926 273.680715 -895.609372 0.171187
58.812646 75.138996 -412.226857 0.173033
61.079590 107.099646 -659.017819 0.172862
66.818139 108.000586 -854.730951 0.172836
116.916402 145.488166 -966.911463 0.172332
70.668099 93.119751 -572.166664 0.172916
96.363310 111.192147 -633.319470 0.172693
129.046989 107.499524 -914.000665 0.172590
