0.295966 0.295843 0.294080 0.285604 0.272176 0.261059 0.249942 0.238825 0.230408 0.225095 0.224064 0.223992 0.223922 0.222917 0.218876 0.212474 0.207864 0.203255 0.198645 0.195203 0.193031 0.192600 0.192570 0.192540 0.192114 0.190334 0.187514 0.185180 0.182847 0.180514 0.178497 0.177223 0.176956 0.176937 0.176919 0.176653 0.175474 0.173606 0.171862 0.170118 0.168375 0.166723 0.165681 0.165459 0.165443 0.165427 0.165206 0.164233 0.162690 0.161318 0.159945 0.158572 0.157389 0.156643 0.156491 0.156481 0.156470 0.156320 0.155682 0.154670 0.153796 0.152922 0.152049 0.151258 0.150758 0.150651 0.150644 0.150636 0.150529 0.150047 0.149283 0.148524 0.147764 0.147004 0.146248 0.145770 0.145666 0.145658 0.145651 0.145547 0.145073 0.144322 0.143581 0.142840 0.142099 0.141374 0.140916 0.140817 0.140810 
0.296000 0.296009 0.296097 0.295493 0.294634 0.292200 0.289766 0.287331 0.283758 0.281242 0.280364 0.280274 0.280183 0.279281 0.276290 0.272041 0.268050 0.264060 0.260069 0.256294 0.253636 0.252843 0.252762 0.252684 0.251912 0.249590 0.246291 0.243214 0.240137 0.237060 0.234439 0.232595 0.232045 0.231990 0.231936 0.231404 0.229791 0.227499 0.225522 0.223544 0.221567 0.219848 0.218639 0.218276 0.218239 0.218203 0.217856 0.216794 0.215284 0.213959 0.212634 0.211309 0.210092 0.209235 0.208976 0.208949 0.208924 0.208672 0.207869 0.206727 0.205619 0.204511 0.203403 0.202303 0.201528 0.201286 0.201261 0.201236 0.200992 0.200207 0.199091 0.197954 0.196817 0.195681 0.194536 0.193731 0.193478 0.193452 0.193426 0.193172 0.192363 0.191214 0.190087 0.188960 0.187833 0.186722 0.185939 0.185694 0.185669 0.185644 0.185399 0.184630 0.183537 0.182476 0.181416 0.180355 0.179332 0.178612 0.178389 0.178366 0.178343 0.178121 0.177419 0.176423 0.175457 0.174490 0.173524 0.172591 0.171934 0.171729 0.171709 
0.296066 0.296340 0.300431 0.311932 0.330156 0.339569 0.348983 0.358397 0.337403 0.324153 0.321233 0.321038 0.320824 0.317638 0.304753 0.284338 0.268776 0.253213 0.237651 0.227030 0.220327 0.219110 0.219028 0.218948 0.217743 0.213119 0.205794 0.200757 0.195721 0.190685 0.187147 0.184915 0.184480 0.184451 0.184423 0.183997 0.182163 0.179257 0.176123 0.172989 0.169856 0.164867 0.161718 0.161000 0.160952 0.160906 0.160217 0.156616 0.150909 0.146031 0.141153 0.136275 0.132551 0.130201 0.129743 0.129712 0.129686 0.129304 0.127876 0.125613 0.124274 0.122935 0.121596 0.120772 0.120251 0.120155 0.120148 0.120142 0.120049 0.119678 0.119090 0.118667 0.118244 0.117821 0.117509 0.117313 0.117274 0.117271 0.117269 0.117231 0.117073 0.116823 0.116623 0.116423 0.116223 0.116060 0.115957 0.115937 0.115935 0.115934 0.115913 0.115824 0.115684 0.115564 0.115445 0.115325 0.115222 0.115158 0.115144 0.115143 0.115143 0.115129 0.115072 0.114982 0.114904 0.114826 0.114748 0.114682 0.114640 0.114631 0.114630 0.114630 0.114621 0.114584 0.114526 0.114476 0.114425 0.114375 0.114333 0.114306 0.114300 0.114300 0.114299 0.114294 0.114270 0.114233 0.114200 0.114167 0.114135 0.114104 0.114084 0.114079 0.114079 
0.150640 0.150626 0.150558 0.150388 0.150162 0.149937 0.149712 0.149486 0.149262 0.149093 0.149025 0.149011 0.148997 0.148930 0.148761 0.148538 0.148325 0.148112 0.147899 0.147728 0.147600 0.147551 0.147541 0.147531 0.147482 0.147363 0.147204 0.147057 0.146909 0.146762 0.146624 0.146520 0.146481 0.146473 0.146465 0.146426 0.146329 0.146199 0.146082 0.145965 0.145848 0.145740 0.145659 0.145628 0.145622 0.145615 0.145584 0.145507 0.145405 0.145314 0.145224 0.145133 0.145052 0.144991 0.144968 0.144963 0.144958 0.144934 0.144877 0.144801 0.144734 0.144666 0.144598 0.144540 0.144497 0.144479 0.144476 0.144472 0.144454 0.144413 0.144359 0.144310 0.144261 0.144212 0.144170 0.144139 0.144126 0.144123 0.144120 0.144108 0.144079 0.144040 0.144005 0.143969 0.143934 0.143902 0.143878 0.143868 0.143866 
0.165439 0.165425 0.165359 0.165197 0.164982 0.164762 0.164543 0.164324 0.164098 0.163928 0.163859 0.163844 0.163829 0.163759 0.163582 0.163348 0.163111 0.162875 0.162638 0.162398 0.162217 0.162147 0.162132 0.162119 0.162061 0.161922 0.161738 0.161565 0.161391 0.161217 0.161056 0.160934 0.160886 0.160876 0.160865 0.160818 0.160707 0.160559 0.160421 0.160284 0.160146 0.160019 0.159923 0.159885 0.159876 0.159868 0.159829 0.159740 0.159621 0.159506 0.159391 0.159276 0.159168 0.159087 0.159054 0.159047 0.159040 0.159007 0.158928 0.158824 0.158723 0.158623 0.158523 0.158428 0.158356 0.158327 0.158321 0.158314 0.158285 0.158214 0.158120 0.158029 0.157938 0.157847 0.157759 0.157693 0.157666 0.157660 0.157654 0.157627 0.157560 0.157471 0.157385 0.157299 0.157213 0.157127 0.157063 0.157037 0.157031 0.157025 0.156999 0.156934 0.156847 0.156762 0.156676 0.156591 0.156504 0.156439 0.156413 0.156407 
0.176931 0.176905 0.176741 0.176314 0.175746 0.175186 0.174625 0.174065 0.173527 0.173124 0.172973 0.172950 0.172926 0.172773 0.172375 0.171844 0.171321 0.170799 0.170277 0.169767 0.169385 0.169246 0.169224 0.169205 0.169083 0.168776 0.168367 0.168014 0.167660 0.167306 0.166997 0.166766 0.166682 0.166669 0.166657 0.166577 0.166371 0.166098 0.165854 0.165611 0.165367 0.165145 0.164978 0.164917 0.164908 0.164898 0.164839 0.164685 0.164480 0.164289 0.164099 0.163908 0.163728 0.163593 0.163543 0.163535 0.163528 0.163480 0.163351 0.163180 0.163017 0.162854 0.162691 0.162532 0.162413 0.162369 0.162362 
0.192559 0.192517 0.192226 0.191467 0.190455 0.189487 0.188519 0.187551 0.186658 0.185988 0.185746 0.185711 0.185676 0.185435 0.184815 0.183987 0.183207 0.182428 0.181648 0.180890 0.180321 0.180110 0.180080 0.180049 0.179839 0.179279 0.178533 0.177830 0.177127 0.176425 0.175819 0.175365 0.175209 0.175187 0.175164 0.175012 0.174641 0.174146 0.173725 0.173304 0.172884 0.172536 0.172276 0.172182 0.172169 0.172155 0.172062 0.171839 0.171541 0.171276 0.171011 0.170746 0.170515 0.170342 0.170276 0.170267 0.170257 0.170195 0.170037 0.169826 0.169629 0.169431 0.169233 0.169046 0.168905 0.168855 0.168848 
0.223967 0.223865 0.223339 0.221995 0.220208 0.218426 0.216644 0.214861 0.213138 0.211841 0.211339 0.211242 0.211145 0.210646 0.209411 0.207769 0.206278 0.204787 0.203296 0.201954 0.200944 0.200577 0.200506 0.200436 0.200076 0.199195 0.198025 0.197185 0.196346 0.195506 0.194724 0.194136 0.193906 0.193862 0.193817 0.193587 0.193000 0.192220 0.191446 0.190672 0.189897 0.189127 0.188547 0.188321 0.188278 0.188234 0.188009 0.187433 0.186668 0.185910 0.185153 0.184395 0.183665 0.183116 0.182904 0.182863 0.182823 0.182613 0.182106 0.181432 0.180837 0.180242 0.179647 0.179120 0.178723 0.178587 0.178561 0.178535 0.178402 0.178072 0.177633 0.177272 0.176911 0.176551 0.176249 0.176022 0.175939 0.175922 0.175906 0.175823 0.175624 0.175359 0.175136 0.174912 0.174689 0.174497 0.174353 0.174295 0.174284 0.174273 0.174214 0.174089 0.173923 0.173766 0.173609 0.173452 0.173305 0.173194 0.173156 0.173148 0.173141 0.173102 0.173000 0.172865 0.172739 0.172614 0.172488 0.172369 0.172280 0.172245 0.172238 0.172231 0.172195 0.172106 0.171987 0.171869 0.171751 0.171633 0.171514 0.171424 0.171387 0.171380 
0.280207 0.279940 0.278815 0.276155 0.272632 0.269337 0.266043 0.262748 0.259817 0.257605 0.256725 0.256515 0.256309 0.255442 0.253416 0.250732 0.248209 0.245687 0.243164 0.240781 0.238981 0.238264 0.238093 0.237925 0.237217 0.235558 0.233358 0.231324 0.229290 0.227255 0.225355 0.223921 0.223352 0.223216 0.223083 0.222521 0.221205 0.219460 0.217879 0.216298 0.214717 0.213316 0.212258 0.211837 0.211737 0.211640 0.211229 0.210303 0.209075 0.207975 0.206874 0.205774 0.204795 0.204056 0.203763 0.203694 0.203624 0.203330 0.202675 0.201807 0.201044 0.200281 0.199517 0.198809 0.198275 0.198062 0.198012 0.197962 0.197752 0.197240 0.196563 0.195882 0.195201 0.194521 0.193841 0.193328 0.193118 0.193068 0.193018 0.192808 0.192299 0.191624 0.190956 0.190288 0.189620 0.188987 0.188510 0.188316 0.188270 0.188223 0.188026 0.187554 0.186928 0.186338 0.185748 0.185158 0.184597 0.184173 0.184008 0.183969 0.183930 0.183768 0.183383 0.182874 0.182431 0.181989 0.181547 0.181150 0.180852 0.180741 0.180714 0.180690 0.180587 0.180343 0.180019 0.179734 0.179449 0.179165 0.178916 0.178728 0.178651 0.178633 0.178615 0.178538 0.178382 0.178175 0.177981 0.177787 0.177593 0.177428 0.177304 0.177252 0.177240 0.177228 0.177176 0.177059 0.176904 0.176762 0.176619 0.176476 0.176353 0.176259 0.176222 0.176213 0.176204 0.176166 0.176071 0.175945 0.175834 0.175723 0.175612 0.175505 0.175425 0.175394 0.175387 0.175379 0.175349 0.175272 0.175170 0.175075 0.174980 0.174885 0.174790 0.174718 0.174692 0.174685 0.174679 0.174653 0.174587 0.174499 0.174412 0.174325 0.174237 0.174150 0.174085 0.174057 0.174050 
0.252707 0.252488 0.251423 0.248872 0.245483 0.242425 0.239367 0.236309 0.233535 0.231445 0.230647 0.230484 0.230323 0.229538 0.227659 0.225164 0.222937 0.220710 0.218483 0.216497 0.215002 0.214438 0.214322 0.214208 0.213656 0.212351 0.210619 0.209098 0.207578 0.206058 0.204755 0.203774 0.203409 0.203334 0.203261 0.202903 0.202051 0.200919 0.199920 0.198921 0.197921 0.197014 0.196330 0.196062 0.196007 0.195952 0.195683 0.195000 0.194092 0.193230 0.192368 0.191506 0.190666 0.190034 0.189785 0.189734 0.189684 0.189438 0.188836 0.188037 0.187282 0.186527 0.185773 0.185062 0.184528 0.184334 0.184294 0.184254 0.184062 0.183592 0.182969 0.182448 0.181927 0.181406 0.180974 0.180649 0.180540 0.180517 0.180495 0.180388 0.180127 0.179782 0.179508 0.179235 0.178962 0.178745 0.178581 0.178521 0.178509 0.178497 0.178436 0.178294 0.178105 0.177950 0.177796 0.177641 0.177515 0.177420 0.177381 0.177373 0.177365 0.177328 0.177245 0.177134 0.177036 0.176937 0.176838 0.176753 0.176689 0.176663 0.176658 0.176652 0.176626 0.176576 0.176509 0.176447 0.176385 0.176324 0.176267 0.176224 0.176207 0.176204 
0.231950 0.231794 0.231512 0.231058 0.230477 0.229911 0.229344 0.228778 0.228224 0.227792 0.227529 0.227383 0.227239 0.226978 0.226559 0.226023 0.225499 0.224976 0.224452 0.223939 0.223538 0.223293 0.223158 0.223025 0.222782 0.222393 0.221896 0.221411 0.220926 0.220440 0.219966 0.219595 0.219370 0.219245 0.219122 0.218898 0.218539 0.218080 0.217630 0.217180 0.216730 0.216288 0.215943 0.215733 0.215618 0.215503 0.215295 0.214961 0.214534 0.214118 0.213702 0.213285 0.212880 0.212562 0.212370 0.212264 0.212158 0.211968 0.211662 0.211271 0.210888 0.210505 0.210122 0.209747 0.209455 0.209277 0.209179 0.209081 0.208905 0.208623 0.208262 0.207909 0.207557 0.207205 0.206862 0.206593 0.206431 0.206341 0.206252 0.206091 0.205829 0.205495 0.205170 0.204844 0.204519 0.204202 0.203954 0.203804 0.203721 0.203639 0.203490 0.203251 0.202946 0.202649 0.202352 0.202056 0.201766 0.201540 0.201401 0.201325 0.201249 0.201111 0.200891 0.200610 0.200337 0.200065 0.199792 0.199529 0.199324 0.199199 0.199131 0.199062 0.198938 0.198739 0.198483 0.198232 0.197980 0.197729 0.197480 0.197286 0.197168 0.197102 0.197038 0.196920 0.196734 0.196496 0.196262 0.196028 0.195795 0.195564 0.195384 0.195273 0.195212 0.195152 0.195042 0.194865 0.194639 0.194417 0.194195 0.193972 0.193754 0.193584 0.193480 0.193423 0.193366 0.193263 0.193097 0.192885 0.192677 0.192469 0.192260 0.192053 0.191891 0.191792 0.191738 0.191683 0.191584 0.191425 0.191222 0.191020 0.190818 0.190616 0.190416 0.190260 0.190164 0.190112 0.190059 0.189964 0.189810 0.189613 0.189418 0.189223 0.189028 0.188835 0.188684 0.188592 0.188542 0.188492 0.188402 0.188256 0.188069 0.187884 0.187699 0.187514 0.187330 0.187187 0.187099 0.187051 0.187002 0.186915 0.186773 0.186593 0.186413 0.186234 0.186055 0.185883 0.185748 0.185666 0.185621 0.185576 0.185494 0.185362 0.185192 0.185025 0.184857 0.184690 0.184524 0.184394 0.184315 0.184271 0.184227 0.184148 0.184020 0.183856 0.183699 0.183541 0.183384 0.183233 0.183115 0.183043 0.183003 0.182963 0.182891 0.182775 0.182627 0.182480 0.182333 0.182186 0.182040 0.181926 0.181857 0.181818 0.181780 0.181710 0.181600 0.181460 0.181332 0.181204 0.181076 0.180950 0.180851 0.180790 0.180757 0.180724 0.180664 0.180567 0.180443 0.180330 0.180216 0.180103 0.179992 0.179906 0.179853 0.179825 0.179799 0.179752 0.179684 0.179597 0.179512 0.179427 0.179341 0.179257 0.179191 0.179151 0.179129 0.179107 0.179067 0.179003 0.178921 0.178840 0.178759 0.178678 0.178607 0.178552 0.178523 0.178507 0.178491 0.178462 0.178414 0.178353 0.178293 0.178233 0.178173 0.178115 0.178069 0.178042 0.178027 0.178012 0.177984 0.177940 0.177883 0.177830 0.177778 0.177725 0.177684 0.177653 0.177633 0.177622 0.177611 0.177592 0.177559 0.177518 0.177476 0.177434 0.177392 0.177350 0.177317 0.177296 0.177285 0.177273 0.177253 0.177219 0.177176 0.177144 0.177113 0.177082 0.177052 0.177028 0.177014 0.177006 0.176998 0.176984 0.176960 0.176930 0.176899 0.176869 0.176838 0.176807 0.176783 0.176768 0.176760 0.176751 0.176736 0.176719 0.176698 0.176677 0.176657 0.176637 0.176616 0.176599 0.176589 0.176583 0.176577 0.176567 0.176550 0.176528 0.176505 0.176483 0.176460 0.176437 0.176419 0.176413 0.176409 0.176405 0.176398 0.176387 0.176373 0.176357 0.176342 0.176327 0.176313 0.176301 0.176294 0.176290 0.176286 0.176279 0.176267 0.176251 0.176236 0.176221 0.176206 0.176198 0.176192 0.176188 0.176186 0.176184 0.176180 0.176174 0.176165 0.176156 0.176148 0.176139 0.176129 0.176122 0.176117 0.176115 0.176112 0.176108 0.176100 0.176091 0.176085 0.176080 0.176075 0.176071 0.176069 0.176067 0.176066 0.176065 0.176063 0.176061 0.176057 0.176053 0.176049 0.176045 0.176041 0.176037 0.176035 0.176034 0.176033 0.176030 0.176029 0.176026 0.176026 0.176027 0.176027 0.176027 0.176027 0.176027 0.176027 0.176027 0.176027 0.176027 0.176027 0.176027 0.176027 0.176026 0.176026 0.176026 0.176027 0.176027 0.176028 0.176030 0.176034 0.176038 0.176043 0.176048 0.176052 0.176057 0.176061 0.176063 0.176065 
0.201243 0.201173 0.200816 0.199923 0.198737 0.197599 0.196461 0.195323 0.194249 0.193440 0.193132 0.193071 0.193011 0.192705 0.191948 0.190942 0.189994 0.189046 0.188098 0.187217 0.186555 0.186302 0.186252 0.186203 0.185953 0.185340 0.184525 0.183764 0.183003 0.182243 0.181543 0.181017 0.180817 0.180777 0.180738 0.180537 0.180051 0.179405 0.178808 0.178212 0.177615 0.177063 0.176648 0.176487 0.176456 0.176426 0.176275 0.175897 0.175395 0.174936 0.174477 0.174018 0.173603 0.173290 0.173195 0.173176 0.173157 0.173063 0.172832 0.172525 0.172282 0.172040 0.171797 0.171592 0.171438 0.171379 0.171368 0.171357 0.171301 0.171169 0.170993 0.170841 0.170690 0.170538 0.170413 0.170318 0.170280 0.170272 0.170264 0.170225 0.170143 0.170034 0.169940 0.169846 0.169752 0.169672 0.169613 0.169589 0.169585 
0.171705 0.171688 0.171606 0.171388 0.171098 0.170795 0.170493 0.170190 0.169882 0.169650 0.169559 0.169541 0.169523 0.169431 0.169194 0.168879 0.168561 0.168242 0.167924 0.167604 0.167364 0.167269 0.167251 0.167232 0.167139 0.166902 0.166587 0.166282 0.165976 0.165670 0.165373 0.165150 0.165062 0.165045 0.165028 0.164941 0.164726 0.164441 0.164167 0.163892 0.163618 0.163355 0.163157 0.163082 0.163068 0.163053 0.162980 0.162795 0.162549 0.162318 0.162087 0.161855 0.161639 0.161476 0.161415 0.161403 0.161391 0.161330 0.161176 0.160973 0.160787 0.160602 0.160416 0.160344 0.160289 0.160271 0.160267 0.160264 0.160245 0.160204 0.160149 0.160098 0.160047 0.159996 0.159949 0.159913 0.159898 0.159895 0.159892 0.159877 0.159846 0.159804 0.159757 0.159710 0.159663 0.159612 0.159574 0.159561 0.159559 0.159556 0.159543 0.159506 0.159457 0.159411 0.159364 0.159317 0.159273 0.159240 0.159228 0.159225 
