0.145545 0.145540 0.145461 0.145083 0.144483 0.143808 0.143132 0.142457 0.141719 0.141253 0.141150 0.141144 0.141137 0.141035 0.140567 0.139825 0.139086 0.138346 0.137607 0.136872 0.136409 0.136308 0.136302 0.136295 0.136194 0.135736 0.135011 0.134304 0.133598 0.132892 0.132215 0.131788 0.131696 0.131690 0.131685 0.131593 0.131185 0.130539 0.129936 0.129332 0.128729 0.128173 0.127823 0.127749 0.127744 0.127739 0.127665 0.127340 0.126825 0.126356 0.125886 0.125417 0.124988 0.124718 0.124661 0.124657 
0.145550 0.145564 0.145712 0.146285 0.147159 0.147969 0.148778 0.149588 0.150314 0.150790 0.150907 0.150919 0.150930 0.151047 0.151496 0.152182 0.152864 0.153547 0.154229 0.154927 0.155385 0.155504 0.155516 0.155527 0.155647 0.156121 0.156846 0.157601 0.158356 0.159111 0.159901 0.160419 0.160553 0.160566 0.160579 0.160714 0.161252 0.162071 0.162924 0.163777 0.164630 0.165513 0.166092 0.166242 0.166256 0.166271 0.166421 0.167015 0.167922 0.168851 0.169781 0.170711 0.171659 0.172281 0.172440 0.172456 0.172471 0.172630 0.173263 0.174228 0.175198 0.176168 0.177138 0.178109 0.178745 0.178907 0.178923 0.178939 0.179101 0.179730 0.180690 0.181637 0.182584 0.183531 0.184472 0.185088 0.185248 0.185263 0.185278 0.185436 0.186057 0.187003 0.187980 0.188956 0.189933 0.190975 0.191658 0.191837 0.191854 0.191871 0.192050 0.192785 0.193907 0.195176 0.196446 0.197716 0.199152 0.200093 0.200342 0.200366 0.200391 0.200645 0.201668 0.203229 0.204937 0.206645 0.208353 0.210161 0.211347 0.211655 0.211684 0.211714 0.212024 0.213249 0.215118 0.216952 0.218786 0.220620 0.222357 0.223496 0.223781 0.223808 0.223835 0.224121 0.225157 0.226737 0.228018 0.229299 0.230580 0.231441 0.232006 0.232117 0.232127 0.232138 0.232243 0.232499 0.232890 0.232676 0.232463 0.232249 0.231416 0.230870 0.230691 0.230674 0.230656 0.230471 0.229575 0.228208 0.226438 0.224668 0.222898 0.220810 0.219442 0.219083 0.219049 0.219014 0.218644 0.217175 0.214934 0.212613 0.210292 0.207972 0.205641 0.204113 0.203724 0.203687 0.203649 0.203261 0.201768 0.199492 0.197310 0.195128 0.192946 0.190892 0.189546 0.189208 0.189176 0.189144 0.188808 0.187538 0.185601 0.183811 0.182022 0.180233 0.178583 0.177502 0.177236 0.177210 0.177185 0.176920 0.175923 0.174402 0.173006 0.171611 0.170215 0.168936 0.168097 0.167889 0.167869 0.167849 0.167642 0.166861 0.165669 0.164572 0.163475 0.162377 0.161363 0.160699 0.160533 0.160517 
0.145545 0.145540 0.145464 0.145023 0.144325 0.143882 0.143440 0.142997 0.142626 0.142392 0.142341 0.142338 0.142335 0.142285 0.142088 0.141775 0.141508 0.141240 0.140973 0.140708 0.140540 0.140503 0.140500 0.140498 0.140460 0.140265 0.139956 0.139420 0.138883 0.138347 0.137312 0.136659 0.136485 0.136475 0.136464 0.136286 0.135299 0.133735 0.130965 0.128195 0.125425 0.123406 0.122132 0.121905 0.121892 0.121878 0.121654 0.120898 0.119700 0.119087 0.118474 0.117861 0.117497 0.117267 0.117225 0.117223 0.117220 0.117179 0.117014 0.116751 0.116555 0.116360 0.116164 0.116009 0.115911 0.115892 0.115890 0.115889 0.115870 0.115787 0.115656 0.115548 0.115440 0.115333 0.115245 0.115189 0.115178 0.115178 0.115177 0.115166 0.115120 0.115046 0.114986 0.114926 0.114867 0.114818 0.114787 0.114781 0.114781 0.114780 0.114774 0.114748 0.114707 0.114673 0.114639 0.114605 0.114578 0.114560 0.114557 0.114557 0.114556 0.114553 0.114538 0.114514 0.114495 0.114476 0.114456 0.114440 0.114430 0.114428 0.114428 
0.127744 0.127745 0.127750 0.127762 0.127778 0.127790 0.127803 0.127816 0.127825 0.127832 0.127835 0.127836 0.127836 0.127838 0.127842 0.127847 0.127847 0.127848 0.127849 0.127845 0.127842 0.127840 0.127840 0.127840 0.127838 0.127831 0.127821 0.127808 0.127794 0.127781 0.127762 0.127748 0.127741 0.127740 0.127739 0.127732 0.127713 0.127688 0.127659 0.127630 0.127601 0.127566 0.127539 0.127528 0.127526 0.127524 0.127512 0.127488 0.127455 0.127433 0.127411 0.127389 0.127366 0.127349 0.127341 0.127340 0.127338 0.127331 0.127313 0.127288 0.127262 0.127236 0.127210 0.127182 0.127161 0.127152 0.127150 0.127148 0.127140 0.127117 0.127088 0.127057 0.127027 0.126996 0.126964 0.126940 0.126930 0.126928 0.126926 0.126916 0.126892 0.126860 0.126827 0.126794 0.126762 0.126729 0.126705 0.126695 0.126693 0.126690 0.126680 0.126656 0.126623 0.126590 0.126557 0.126525 0.126492 0.126468 0.126458 0.126456 
0.141144 0.141142 0.141137 0.141124 0.141107 0.141085 0.141062 0.141040 0.141014 0.140993 0.140984 0.140982 0.140979 0.140970 0.140946 0.140915 0.140880 0.140844 0.140809 0.140771 0.140741 0.140729 0.140725 0.140722 0.140709 0.140677 0.140635 0.140590 0.140545 0.140500 0.140453 0.140418 0.140403 0.140399 0.140395 0.140380 0.140342 0.140293 0.140246 0.140200 0.140154 0.140111 0.140078 0.140065 0.140061 0.140058 0.140044 0.140011 0.139967 0.139920 0.139874 0.139827 0.139779 0.139742 0.139726 0.139722 0.139717 0.139701 0.139660 0.139607 0.139548 0.139490 0.139431 0.139368 0.139321 0.139301 0.139296 0.139290 0.139270 0.139218 0.139148 0.139077 0.139005 0.138933 0.138855 0.138795 0.138770 0.138764 0.138758 0.138733 0.138672 0.138592 0.138506 0.138420 0.138333 0.138244 0.138176 0.138147 0.138139 0.138132 0.138102 0.138031 0.137936 0.137839 0.137742 0.137645 0.137554 0.137485 0.137462 0.137456 0.137450 0.137428 0.137375 0.137306 0.137239 0.137172 0.137104 0.137043 0.136996 0.136977 0.136972 0.136967 0.136947 0.136901 0.136840 0.136784 0.136727 0.136671 0.136615 0.136573 0.136557 0.136553 0.136549 0.136532 0.136494 0.136442 0.136393 0.136344 0.136294 0.136247 0.136212 0.136197 0.136193 0.136189 0.136174 0.136141 0.136097 0.136054 0.136010 0.135967 0.135927 0.135897 0.135884 0.135881 0.135878 0.135865 0.135835 0.135796 0.135759 0.135723 0.135687 0.135650 0.135623 0.135612 0.135610 0.135607 0.135597 0.135571 0.135538 0.135505 0.135472 0.135440 0.135408 0.135385 0.135375 0.135372 0.135369 0.135359 0.135336 0.135306 0.135276 0.135246 0.135216 0.135186 0.135164 0.135155 0.135153 
0.150918 0.150913 0.150903 0.150882 0.150855 0.150826 0.150798 0.150770 0.150741 0.150719 0.150707 0.150702 0.150697 0.150685 0.150662 0.150632 0.150601 0.150569 0.150538 0.150505 0.150480 0.150466 0.150461 0.150455 0.150441 0.150414 0.150379 0.150342 0.150306 0.150269 0.150231 0.150203 0.150187 0.150181 0.150175 0.150159 0.150130 0.150091 0.150051 0.150012 0.149972 0.149931 0.149900 0.149884 0.149877 0.149870 0.149854 0.149822 0.149780 0.149738 0.149695 0.149653 0.149610 0.149577 0.149559 0.149552 0.149544 0.149527 0.149493 0.149448 0.149404 0.149360 0.149316 0.149273 0.149240 0.149222 0.149215 0.149208 0.149191 0.149157 0.149113 0.149068 0.149024 0.148980 0.148935 0.148901 0.148884 0.148876 0.148869 0.148851 0.148817 0.148773 0.148727 0.148682 0.148637 0.148593 0.148558 0.148540 0.148533 0.148525 0.148508 0.148473 0.148429 0.148384 0.148339 0.148295 0.148249 0.148215 0.148197 0.148189 0.148182 0.148164 0.148130 0.148085 0.148041 0.147998 0.147954 0.147910 0.147875 0.147858 0.147850 0.147843 0.147825 0.147791 0.147746 0.147703 0.147660 0.147618 0.147576 0.147544 0.147528 0.147521 0.147514 0.147497 0.147465 0.147424 0.147384 0.147344 0.147304 0.147266 0.147237 0.147222 0.147216 0.147210 0.147195 0.147167 0.147130 0.147091 0.147052 0.147012 0.146973 0.146943 0.146929 0.146923 0.146917 0.146903 0.146875 0.146839 0.146800 0.146762 0.146723 0.146683 0.146653 0.146636 0.146630 0.146623 0.146607 0.146575 0.146534 0.146493 0.146451 0.146409 0.146365 0.146331 0.146314 0.146307 0.146299 0.146282 0.146248 0.146203 0.146159 0.146114 0.146070 0.146024 0.145989 0.145970 0.145962 0.145954 0.145935 0.145898 0.145849 0.145801 0.145752 0.145703 0.145653 0.145615 0.145595 0.145587 0.145578 0.145559 0.145518 0.145465 0.145411 0.145358 0.145304 0.145251 0.145210 0.145188 0.145179 0.145170 0.145149 0.145107 0.145053 0.144996 0.144939 0.144881 0.144824 0.144780 0.144757 0.144747 0.144737 0.144715 0.144670 0.144612 0.144553 0.144493 0.144434 0.144373 0.144326 0.144301 0.144291 0.144281 0.144257 0.144210 0.144148 0.144087 0.144026 0.143964 0.143901 0.143852 0.143826 0.143815 0.143805 0.143779 0.143730 0.143665 0.143601 0.143537 0.143473 0.143408 0.143359 0.143333 0.143322 0.143311 0.143285 0.143234 0.143168 0.143102 0.143036 0.142970 0.142904 0.142853 0.142827 0.142816 0.142805 0.142779 0.142728 0.142662 0.142595 0.142529 0.142463 0.142415 0.142378 0.142360 0.142352 0.142345 0.142326 0.142292 0.142246 0.142205 0.142163 0.142122 0.142082 0.142052 0.142036 0.142030 0.142023 0.142007 0.141977 0.141938 0.141900 0.141862 0.141824 0.141790 0.141764 0.141751 0.141745 0.141739 0.141726 0.141699 0.141665 0.141631 0.141598 0.141564 0.141532 0.141508 0.141497 0.141492 0.141487 0.141476 0.141453 0.141424 0.141395 0.141366 0.141337 0.141308 0.141285 0.141273 0.141268 0.141264 0.141253 0.141233 0.141208 0.141182 0.141157 0.141131 0.141105 0.141086 0.141075 0.141071 0.141067 0.141056 0.141037 0.141012 0.140990 0.140968 0.140946 0.140923 0.140906 0.140897 0.140893 0.140890 0.140881 0.140863 0.140841 0.140820 0.140799 0.140778 0.140758 0.140743 0.140735 0.140732 0.140728 0.140720 0.140705 0.140685 0.140665 0.140644 0.140624 0.140607 0.140593 0.140586 0.140583 0.140580 0.140573 0.140559 0.140542 0.140524 0.140506 0.140488 0.140470 0.140456 0.140450 0.140447 0.140444 0.140438 0.140426 0.140410 0.140394 0.140378 0.140362 0.140346 0.140333 0.140327 0.140324 0.140321 0.140315 0.140303 0.140288 0.140273 0.140258 0.140244 0.140228 0.140217 0.140211 0.140208 0.140206 0.140200 0.140188 0.140173 0.140159 0.140145 0.140131 0.140116 0.140106 0.140100 0.140098 0.140095 0.140090 0.140079 0.140064 0.140050 0.140036 0.140022 0.140009 0.139998 0.139993 0.139991 0.139988 0.139983 0.139972 0.139959 0.139945 0.139930 0.139916 0.139903 0.139892 0.139887 0.139885 0.139882 0.139877 0.139867 0.139853 0.139839 0.139825 0.139811 0.139796 0.139785 0.139780 0.139777 
0.155514 0.155509 0.155491 0.155451 0.155399 0.155343 0.155288 0.155232 0.155173 0.155128 0.155108 0.155101 0.155094 0.155073 0.155025 0.154963 0.154898 0.154834 0.154769 0.154701 0.154650 0.154626 0.154619 0.154611 0.154588 0.154535 0.154465 0.154392 0.154319 0.154246 0.154172 0.154116 0.154091 0.154082 0.154074 0.154049 0.153992 0.153916 0.153838 0.153759 0.153681 0.153602 0.153543 0.153516 0.153507 0.153499 0.153472 0.153410 0.153328 0.153247 0.153165 0.153084 0.153001 0.152938 0.152909 0.152899 0.152890 0.152861 0.152797 0.152712 0.152631 0.152550 0.152470 0.152390 0.152329 0.152302 0.152294 0.152285 0.152259 0.152202 0.152126 0.152048 0.151969 0.151891 0.151811 0.151751 0.151724 0.151716 0.151708 0.151681 0.151623 0.151546 0.151464 0.151383 0.151301 0.151218 0.151155 0.151127 0.151118 0.151108 0.151080 0.151012 0.150924 0.150833 0.150743 0.150652 0.150560 0.150489 0.150456 0.150446 0.150435 0.150402 0.150328 0.150231 0.150131 0.150032 0.149933 0.149828 0.149748 0.149712 0.149700 0.149689 0.149653 0.149572 0.149466 0.149358 0.149250 0.149142 0.149031 0.148947 0.148909 0.148897 0.148884 0.148847 0.148762 0.148651 0.148538 0.148425 0.148312 0.148203 0.148120 0.148090 0.148080 0.148070 0.148039 0.147974 0.147888 0.147806 0.147723 0.147641 0.147561 0.147500 0.147475 0.147467 0.147459 0.147434 0.147378 0.147306 0.147235 0.147164 0.147093 0.147028 0.146979 0.146958 0.146951 0.146944 0.146923 0.146876 0.146813 0.146754 0.146695 0.146636 0.146581 0.146540 0.146521 0.146515 0.146509 0.146491 0.146450 0.146396 0.146348 0.146299 0.146251 0.146203 0.146167 0.146151 0.146146 0.146140 0.146124 0.146090 0.146046 0.146004 0.145962 0.145921 0.145879 0.145847 0.145833 0.145828 0.145824 0.145812 0.145783 0.145746 0.145709 0.145672 0.145634 0.145600 0.145573 0.145562 0.145559 0.145555 0.145544 0.145519 0.145486 0.145453 0.145421 0.145389 0.145359 0.145337 0.145327 0.145324 0.145320 0.145310 0.145288 0.145258 0.145231 0.145203 0.145175 0.145148 0.145128 0.145119 0.145116 0.145113 0.145103 0.145083 0.145057 0.145032 0.145007 0.144982 0.144957 0.144938 0.144929 0.144926 0.144924 0.144915 0.144898 0.144874 0.144851 0.144827 0.144803 0.144780 0.144762 0.144754 0.144751 
0.160565 0.160558 0.160510 0.160374 0.160192 0.159981 0.159770 0.159558 0.159323 0.159147 0.159078 0.159068 0.159058 0.158989 0.158797 0.158541 0.158273 0.158005 0.157737 0.157463 0.157257 0.157180 0.157169 0.157158 0.157081 0.156872 0.156593 0.156306 0.156018 0.155730 0.155422 0.155192 0.155104 0.155091 0.155078 0.154988 0.154743 0.154416 0.154073 0.153730 0.153387 0.153036 0.152774 0.152675 0.152661 0.152647 0.152548 0.152350 0.152084 0.151861 0.151638 0.151415 0.151227 0.151085 0.151035 0.151028 0.151021 0.150972 0.150851 0.150689 0.150548 0.150406 0.150265 0.150142 0.150050 0.150016 0.150011 0.150007 0.149975 0.149893 0.149784 0.149687 0.149590 0.149493 0.149403 0.149336 0.149313 0.149310 0.149307 0.149284 0.149223 0.149142 0.149067 0.148991 0.148916 0.148845 0.148791 0.148771 0.148769 
0.178917 0.178892 0.178785 0.178519 0.178166 0.177804 0.177441 0.177078 0.176709 0.176431 0.176317 0.176291 0.176264 0.176151 0.175870 0.175498 0.175127 0.174756 0.174386 0.174012 0.173731 0.173617 0.173590 0.173563 0.173449 0.173175 0.172812 0.172455 0.172099 0.171742 0.171388 0.171121 0.171014 0.170989 0.170964 0.170858 0.170597 0.170251 0.169909 0.169567 0.169225 0.168887 0.168632 0.168528 0.168504 0.168480 0.168377 0.168124 0.167788 0.167456 0.167124 0.166793 0.166464 0.166217 0.166116 0.166093 0.166070 0.165969 0.165725 0.165401 0.165083 0.164766 0.164449 0.164142 0.163911 0.163833 0.163815 0.163797 0.163720 0.163537 0.163295 0.163078 0.162862 0.162645 0.162443 0.162291 0.162233 0.162220 0.162207 0.162152 0.162019 0.161842 0.161679 0.161516 0.161353 0.161202 0.161088 0.161042 0.161032 0.161021 0.160976 0.160876 0.160743 0.160616 0.160489 0.160361 0.160242 0.160152 0.160115 0.160107 0.160098 0.160062 0.159979 0.159870 0.159766 0.159661 0.159557 0.159462 0.159390 0.159361 0.159354 0.159347 0.159317 0.159248 0.159155 0.159066 0.158978 0.158889 0.158807 0.158746 0.158720 0.158714 0.158709 0.158683 0.158621 0.158539 0.158461 0.158383 0.158306 0.158230 0.158172 0.158149 0.158144 0.158139 0.158115 0.158058 0.157982 0.157909 0.157836 0.157762 0.157689 0.157633 0.157611 0.157606 
0.211663 0.211579 0.211101 0.209887 0.208272 0.206736 0.205201 0.203666 0.202216 0.201127 0.200728 0.200658 0.200589 0.200199 0.199222 0.197923 0.196730 0.195538 0.194345 0.193256 0.192437 0.192132 0.192078 0.192025 0.191723 0.190968 0.189963 0.189045 0.188127 0.187208 0.186353 0.185710 0.185467 0.185425 0.185383 0.185146 0.184542 0.183739 0.182993 0.182247 0.181501 0.180848 0.180358 0.180184 0.180154 0.180124 0.179952 0.179545 0.179004 0.178538 0.178072 0.177605 0.177214 0.176920 0.176818 0.176800 0.176782 0.176682 0.176432 0.176099 0.175807 0.175515 0.175224 0.174962 0.174765 0.174694 0.174681 0.174670 0.174604 0.174434 0.174208 0.174001 0.173793 0.173586 0.173403 0.173265 0.173211 0.173202 0.173192 0.173138 0.173010 0.172839 0.172678 0.172518 0.172357 0.172206 0.172092 0.172050 0.172043 
