0.131675 0.131671 0.131617 0.131386 0.131019 0.130689 0.130359 0.130029 0.129732 0.129544 0.129503 0.129499 0.129496 0.129455 0.129273 0.128985 0.128703 0.128421 0.128139 0.127863 0.127688 0.127649 0.127646 0.127643 0.127604 0.127431 0.127156 0.126880 0.126605 0.126329 0.126051 0.125876 0.125837 0.125833 0.125830 0.125791 0.125615 0.125336 0.125058 0.124781 0.124504 0.124232 0.124060 0.124022 0.124019 0.124016 0.123978 0.123811 0.123547 0.123291 0.123036 0.122780 0.122534 0.122380 0.122346 0.122343 0.122340 0.122307 0.122159 0.121925 0.121704 0.121483 0.121262 0.121055 0.120924 0.120895 0.120893 0.120891 0.120862 0.120739 0.120544 0.120361 0.120177 0.119994 0.119822 0.119714 0.119690 0.119688 0.119686 0.119663 0.119560 0.119397 0.119244 0.119091 0.118938 0.118793 0.118702 0.118682 0.118681 
0.131678 0.131684 0.131737 0.131874 0.132056 0.132214 0.132373 0.132531 0.132673 0.132780 0.132818 0.132822 0.132827 0.132865 0.132966 0.133101 0.133232 0.133363 0.133493 0.133624 0.133722 0.133758 0.133763 0.133767 0.133803 0.133902 0.134036 0.134173 0.134310 0.134448 0.134591 0.134698 0.134738 0.134743 0.134747 0.134787 0.134899 0.135048 0.135202 0.135357 0.135512 0.135672 0.135793 0.135837 0.135843 0.135848 0.135893 0.136017 0.136182 0.136354 0.136525 0.136696 0.136872 0.137004 0.137053 0.137059 0.137065 0.137114 0.137249 0.137430 0.137615 0.137800 0.137985 0.138174 0.138315 0.138367 0.138374 0.138380 0.138432 0.138577 0.138769 0.138966 0.139162 0.139358 0.139559 0.139709 0.139764 0.139771 0.139778 0.139834 0.139986 0.140190 0.140398 0.140606 0.140814 0.141026 0.141185 0.141243 0.141251 0.141258 0.141316 0.141478 0.141695 0.141914 0.142133 0.142352 0.142574 0.142741 0.142802 0.142809 0.142817 0.142878 0.143049 0.143276 0.143507 0.143739 0.143970 0.144205 0.144382 0.144447 0.144455 0.144463 0.144528 0.144707 0.144946 0.145189 0.145431 0.145674 0.145920 0.146105 0.146173 0.146181 0.146190 0.146258 0.146446 0.146697 0.146954 0.147211 0.147468 0.147728 0.147923 0.147995 0.148004 0.148013 0.148085 0.148285 0.148552 0.148825 0.149098 0.149371 0.149651 0.149861 0.149938 0.149948 0.149957 0.150035 0.150251 0.150539 0.150835 0.151131 0.151427 0.151732 0.151961 0.152046 0.152056 0.152067 0.152152 0.152388 0.152704 0.153031 0.153359 0.153686 0.154024 0.154278 0.154372 0.154384 0.154395 0.154490 0.154753 0.155105 0.155469 0.155833 0.156197 0.156575 0.156859 0.156964 0.156977 0.156990 0.157095 0.157388 0.157779 0.158182 0.158586 0.158990 0.159410 0.159724 0.159841 0.159855 0.159869 0.159987 0.160311 0.160745 0.161195 0.161645 0.162095 0.162558 0.162905 0.163034 0.163050 0.163066 0.163195 0.163554 0.164033 0.164529 0.165025 0.165521 0.166032 0.166415 0.166557 0.166574 0.166592 0.166734 0.167129 0.167656 0.168202 0.168748 0.169293 0.169854 0.170273 0.170429 0.170448 0.170467 0.170624 0.171058 0.171637 0.172234 0.172830 0.173427 0.174043 0.174504 0.174677 0.174698 0.174719 0.174892 0.175372 0.176012 0.176673 0.177333 0.177993 0.178670 0.179177 0.179365 0.179389 0.179412 0.179601 0.180127 0.180830 0.181558 0.182287 0.183016 0.183777 0.184347 0.184559 0.184585 0.184611 0.184822 0.185408 0.186190 0.187003 0.187816 0.188629 0.189477 0.190112 0.190348 0.190377 0.190406 0.190642 0.191302 0.192182 0.193102 0.194022 0.194941 0.195900 0.196618 0.196886 0.196918 
0.131676 0.131674 0.131652 0.131491 0.131235 0.130942 0.130649 0.130356 0.130153 0.130025 0.129998 0.129996 0.129994 0.129966 0.129850 0.129667 0.129516 0.129366 0.129215 0.129081 0.128996 0.128978 0.128977 0.128976 0.128958 0.128878 0.128750 0.128608 0.128465 0.128323 0.128137 0.128020 0.127992 0.127990 0.127987 0.127957 0.127799 0.127548 0.127173 0.126797 0.126422 0.125961 0.125670 0.125604 0.125599 0.125594 0.125527 0.125108 0.124445 0.123401 0.122356 0.121312 0.120391 0.119810 0.119695 0.119686 0.119677 0.119564 0.119110 0.118391 0.117888 0.117385 0.116882 0.116552 0.116344 0.116305 0.116301 0.116298 0.116260 0.116111 0.115874 0.115710 0.115547 0.115383 0.115264 0.115189 0.115174 0.115173 0.115172 0.115157 0.115098 0.115004 0.114928 0.114852 0.114776 0.114714 0.114674 0.114666 0.114665 0.114665 0.114656 0.114622 0.114568 0.114521 0.114475 0.114429 0.114389 0.114364 0.114359 0.114359 0.114358 0.114353 0.114332 0.114297 0.114267 0.114238 0.114208 0.114183 0.114167 0.114164 0.114164 0.114164 0.114161 0.114147 0.114125 0.114107 0.114088 0.114070 0.114055 0.114045 0.114043 0.114043 0.114043 0.114041 0.114033 0.114020 0.114009 0.113999 0.113988 0.113980 0.113975 0.113974 0.113974 0.113973 0.113972 0.113968 0.113961 0.113956 0.113951 0.113946 0.113942 0.113940 0.113939 0.113939 0.113939 0.113939 0.113937 0.113934 0.113933 0.113932 0.113931 0.113931 0.113931 0.113931 0.113931 
0.120893 0.120892 0.120889 0.120884 0.120877 0.120870 0.120862 0.120855 0.120848 0.120843 0.120840 0.120839 0.120838 0.120835 0.120829 0.120821 0.120813 0.120805 0.120797 0.120788 0.120782 0.120779 0.120778 0.120777 0.120774 0.120767 0.120758 0.120749 0.120740 0.120731 0.120722 0.120715 0.120712 0.120710 0.120709 0.120706 0.120698 0.120688 0.120678 0.120668 0.120658 0.120648 0.120640 0.120636 0.120634 0.120633 0.120629 0.120621 0.120610 0.120599 0.120588 0.120577 0.120565 0.120556 0.120552 0.120551 0.120549 0.120545 0.120536 0.120524 0.120512 0.120500 0.120488 0.120476 0.120466 0.120461 0.120460 0.120458 0.120453 0.120444 0.120431 0.120418 0.120405 0.120392 0.120378 0.120368 0.120363 0.120361 0.120359 0.120354 0.120343 0.120330 0.120315 0.120301 0.120287 0.120272 0.120261 0.120255 0.120253 0.120251 0.120246 0.120234 0.120220 0.120205 0.120190 0.120175 0.120163 0.120153 0.120149 0.120148 0.120147 0.120143 0.120135 0.120124 0.120114 0.120104 0.120094 0.120084 0.120076 0.120072 0.120071 0.120070 0.120066 0.120058 0.120048 0.120039 0.120029 0.120019 0.120010 0.120003 0.119999 0.119998 0.119997 0.119993 0.119986 0.119977 0.119968 0.119959 0.119950 0.119941 0.119934 0.119931 0.119930 0.119928 0.119925 0.119918 0.119909 0.119901 0.119893 0.119885 0.119877 0.119870 0.119867 0.119866 0.119865 0.119862 0.119856 0.119847 0.119840 0.119832 0.119824 0.119817 0.119811 0.119808 0.119807 0.119806 0.119803 0.119797 0.119790 0.119783 0.119776 0.119769 0.119762 0.119757 0.119754 0.119753 0.119752 0.119750 0.119745 0.119738 0.119732 0.119725 0.119719 0.119713 0.119708 0.119705 0.119705 0.119704 0.119701 0.119697 0.119691 0.119685 0.119679 0.119674 0.119668 0.119663 0.119661 0.119660 0.119660 0.119658 0.119654 0.119648 0.119643 0.119638 0.119632 0.119627 0.119623 0.119621 0.119620 0.119620 0.119618 0.119614 0.119609 0.119604 0.119599 0.119594 0.119589 0.119585 0.119584 0.119583 
0.125833 0.125832 0.125830 0.125824 0.125816 0.125808 0.125799 0.125790 0.125780 0.125773 0.125770 0.125769 0.125768 0.125764 0.125756 0.125746 0.125734 0.125722 0.125711 0.125698 0.125689 0.125685 0.125683 0.125682 0.125678 0.125668 0.125654 0.125640 0.125626 0.125611 0.125596 0.125585 0.125579 0.125578 0.125576 0.125571 0.125558 0.125542 0.125525 0.125508 0.125490 0.125472 0.125458 0.125452 0.125450 0.125448 0.125442 0.125427 0.125408 0.125387 0.125366 0.125345 0.125323 0.125307 0.125299 0.125297 0.125295 0.125287 0.125269 0.125246 0.125222 0.125198 0.125173 0.125147 0.125128 0.125119 0.125116 0.125114 0.125105 0.125085 0.125058 0.125030 0.125002 0.124973 0.124944 0.124922 0.124913 0.124910 0.124907 0.124897 0.124874 0.124844 0.124813 0.124782 0.124750 0.124718 0.124694 0.124683 0.124680 0.124676 0.124665 0.124640 0.124607 0.124581 0.124555 0.124529 0.124508 0.124492 0.124485 0.124483 0.124481 0.124474 0.124458 0.124438 0.124418 0.124398 0.124378 0.124358 0.124342 0.124336 0.124334 0.124332 0.124326 0.124311 0.124292 0.124273 0.124253 0.124234 0.124216 0.124202 0.124196 0.124194 0.124192 0.124186 0.124172 0.124153 0.124135 0.124117 0.124099 0.124081 0.124067 0.124061 0.124059 0.124058 0.124052 0.124039 0.124021 0.124004 0.123987 0.123970 0.123954 0.123941 0.123936 0.123934 0.123933 0.123927 0.123915 0.123899 0.123884 0.123868 0.123852 0.123837 0.123826 0.123821 0.123819 0.123818 0.123813 0.123802 0.123787 0.123773 0.123759 0.123745 0.123731 0.123721 0.123716 0.123715 0.123714 0.123709 0.123699 0.123686 0.123673 0.123660 0.123647 0.123635 0.123625 0.123621 0.123620 0.123619 0.123615 0.123605 0.123593 0.123581 0.123569 0.123557 0.123546 0.123537 0.123533 0.123532 0.123530 0.123526 0.123518 0.123507 0.123495 0.123484 0.123473 0.123462 0.123454 0.123450 0.123449 
0.127646 0.127648 0.127655 0.127672 0.127696 0.127714 0.127732 0.127750 0.127764 0.127775 0.127779 0.127779 0.127780 0.127783 0.127790 0.127799 0.127805 0.127810 0.127815 0.127819 0.127823 0.127824 0.127824 0.127825 0.127825 0.127827 0.127829 0.127830 0.127831 0.127832 0.127828 0.127825 0.127824 0.127823 0.127823 0.127821 0.127814 0.127805 0.127789 0.127773 0.127756 0.127733 0.127715 0.127708 0.127707 0.127706 0.127698 0.127674 0.127642 0.127602 0.127563 0.127524 0.127476 0.127441 0.127426 0.127423 0.127420 0.127404 0.127367 0.127317 0.127282 0.127247 0.127212 0.127176 0.127149 0.127138 0.127136 0.127134 0.127124 0.127096 0.127059 0.127020 0.126982 0.126944 0.126905 0.126876 0.126864 0.126862 0.126860 0.126848 0.126818 0.126778 0.126739 0.126699 0.126659 0.126620 0.126591 0.126579 0.126577 0.126575 0.126563 0.126534 0.126496 0.126457 0.126419 0.126380 0.126342 0.126314 0.126303 0.126301 0.126299 0.126288 0.126259 0.126221 0.126183 0.126146 0.126108 0.126070 0.126042 0.126031 0.126029 
0.129500 0.129501 0.129506 0.129517 0.129531 0.129541 0.129551 0.129561 0.129567 0.129571 0.129572 0.129572 0.129573 0.129574 0.129575 0.129576 0.129573 0.129569 0.129566 0.129559 0.129554 0.129551 0.129550 0.129549 0.129546 0.129538 0.129528 0.129516 0.129504 0.129492 0.129479 0.129468 0.129464 0.129462 0.129461 0.129457 0.129445 0.129429 0.129417 0.129404 0.129392 0.129381 0.129373 0.129369 0.129368 0.129367 0.129364 0.129355 0.129343 0.129330 0.129317 0.129304 0.129290 0.129280 0.129275 0.129274 0.129273 0.129268 0.129256 0.129241 0.129224 0.129207 0.129190 0.129171 0.129157 0.129151 0.129149 0.129148 0.129141 0.129126 0.129106 0.129083 0.129060 0.129037 0.129019 0.129005 0.128999 0.128997 0.128995 0.128988 0.128971 0.128948 0.128923 0.128898 0.128873 0.128843 0.128821 0.128811 0.128808 0.128806 0.128796 0.128773 0.128742 0.128706 0.128670 0.128634 0.128597 0.128569 0.128555 0.128552 0.128548 0.128535 0.128503 0.128460 0.128425 0.128390 0.128355 0.128320 0.128294 0.128283 0.128280 0.128277 0.128266 0.128240 0.128206 0.128173 0.128140 0.128107 0.128074 0.128050 0.128040 0.128037 0.128034 0.128024 0.128000 0.127968 0.127938 0.127907 0.127877 0.127847 0.127824 0.127815 0.127812 0.127810 0.127800 0.127779 0.127750 0.127722 0.127694 0.127666 0.127639 0.127619 0.127611 0.127609 0.127606 0.127598 0.127578 0.127551 0.127526 0.127501 0.127475 0.127450 0.127431 0.127423 0.127421 0.127419 0.127412 0.127394 0.127371 0.127348 0.127324 0.127301 0.127279 0.127262 0.127255 0.127253 0.127251 0.127244 0.127227 0.127205 0.127183 0.127162 0.127140 0.127119 0.127103 0.127096 0.127094 0.127093 0.127086 0.127070 0.127049 0.127028 0.127007 0.126987 0.126966 0.126950 0.126944 0.126942 0.126940 0.126934 0.126918 0.126897 0.126877 0.126856 0.126835 0.126814 0.126798 0.126791 0.126790 
0.132822 0.132822 0.132819 0.132809 0.132796 0.132773 0.132750 0.132727 0.132691 0.132665 0.132653 0.132651 0.132649 0.132636 0.132599 0.132548 0.132494 0.132439 0.132385 0.132346 0.132316 0.132306 0.132304 0.132302 0.132291 0.132262 0.132222 0.132181 0.132140 0.132098 0.132054 0.132021 0.132008 0.132006 0.132004 0.131991 0.131955 0.131908 0.131856 0.131804 0.131752 0.131694 0.131651 0.131634 0.131631 0.131628 0.131611 0.131574 0.131526 0.131465 0.131404 0.131343 0.131270 0.131215 0.131193 0.131189 0.131185 0.131163 0.131098 0.131013 0.130915 0.130817 0.130719 0.130610 0.130529 0.130496 0.130490 0.130485 0.130454 0.130391 0.130308 0.130232 0.130156 0.130079 0.130010 0.129957 0.129940 0.129937 0.129934 0.129916 0.129870 0.129808 0.129753 0.129698 0.129644 0.129593 0.129555 0.129542 0.129540 0.129538 0.129525 0.129490 0.129445 0.129403 0.129361 0.129320 0.129281 0.129251 0.129240 0.129238 0.129237 0.129226 0.129198 0.129161 0.129125 0.129089 0.129053 0.129018 0.128991 0.128981 0.128979 
0.134742 0.134740 0.134734 0.134722 0.134705 0.134689 0.134672 0.134655 0.134638 0.134625 0.134619 0.134616 0.134614 0.134607 0.134593 0.134575 0.134556 0.134537 0.134518 0.134499 0.134485 0.134478 0.134475 0.134472 0.134465 0.134450 0.134429 0.134409 0.134388 0.134368 0.134347 0.134331 0.134323 0.134320 0.134317 0.134309 0.134293 0.134271 0.134249 0.134227 0.134205 0.134183 0.134166 0.134158 0.134155 0.134152 0.134144 0.134127 0.134104 0.134082 0.134060 0.134038 0.134017 0.134001 0.133993 0.133990 0.133987 0.133979 0.133964 0.133943 0.133924 0.133905 0.133886 0.133867 0.133853 0.133847 0.133844 0.133842 0.133835 0.133821 0.133804 0.133786 0.133768 0.133750 0.133731 0.133717 0.133710 0.133707 0.133705 0.133698 0.133683 0.133663 0.133643 0.133623 0.133603 0.133581 0.133564 0.133555 0.133552 0.133549 0.133540 0.133522 0.133497 0.133473 0.133448 0.133423 0.133396 0.133375 0.133364 0.133361 0.133357 0.133347 0.133325 0.133296 0.133267 0.133238 0.133209 0.133176 0.133152 0.133140 0.133136 0.133131 0.133119 0.133094 0.133061 0.133028 0.132994 0.132961 0.132924 0.132896 0.132882 0.132878 0.132873 0.132859 0.132831 0.132794 0.132756 0.132718 0.132680 0.132639 0.132608 0.132593 0.132588 0.132582 0.132567 0.132536 0.132494 0.132453 0.132411 0.132369 0.132330 0.132301 0.132289 0.132285 0.132280 0.132269 0.132244 0.132212 0.132181 0.132150 0.132119 0.132089 0.132066 0.132055 0.132051 0.132047 0.132036 0.132014 0.131984 0.131956 0.131928 0.131899 0.131873 0.131852 0.131843 0.131839 0.131836 0.131826 0.131806 0.131779 0.131754 0.131728 0.131703 0.131679 0.131661 0.131652 0.131649 0.131646 0.131637 0.131619 0.131595 0.131572 0.131550 0.131527 0.131506 0.131490 0.131482 0.131479 0.131476 0.131468 0.131452 0.131431 0.131411 0.131391 0.131371 0.131352 0.131338 0.131331 0.131328 0.131326 0.131319 0.131305 0.131286 0.131268 0.131250 0.131232 0.131215 0.131202 0.131196 0.131194 0.131192 0.131186 0.131172 0.131155 0.131139 0.131124 0.131108 0.131092 0.131081 0.131075 0.131073 0.131071 0.131065 0.131054 0.131038 0.131024 0.131009 0.130995 0.130981 0.130970 0.130965 0.130963 0.130961 0.130956 0.130945 0.130931 0.130918 0.130904 0.130891 0.130878 0.130868 0.130863 0.130861 0.130859 0.130854 0.130844 0.130831 0.130818 0.130806 0.130793 0.130780 0.130771 0.130766 0.130765 0.130763 0.130758 0.130748 0.130736 0.130724 0.130712 0.130700 0.130688 0.130678 0.130674 0.130672 0.130671 0.130666 0.130657 0.130645 0.130633 0.130621 0.130610 0.130598 0.130589 0.130584 0.130583 0.130581 0.130577 0.130568 0.130556 0.130545 0.130533 0.130522 0.130510 0.130502 0.130497 0.130496 
0.138373 0.138369 0.138346 0.138285 0.138203 0.138117 0.138031 0.137945 0.137853 0.137783 0.137757 0.137752 0.137747 0.137721 0.137650 0.137556 0.137459 0.137362 0.137265 0.137167 0.137093 0.137064 0.137058 0.137053 0.137023 0.136946 0.136842 0.136732 0.136622 0.136512 0.136395 0.136307 0.136273 0.136267 0.136261 0.136226 0.136132 0.136007 0.135877 0.135748 0.135618 0.135483 0.135382 0.135342 0.135335 0.135329 0.135289 0.135208 0.135100 0.135005 0.134909 0.134814 0.134726 0.134659 0.134635 0.134631 0.134627 0.134603 0.134541 0.134459 0.134383 0.134307 0.134231 0.134161 0.134108 0.134088 0.134085 0.134081 0.134061 0.134012 0.133946 0.133884 0.133821 0.133759 0.133701 0.133657 0.133640 0.133638 0.133635 0.133619 0.133577 0.133523 0.133472 0.133421 0.133370 0.133322 0.133285 0.133271 0.133269 0.133267 0.133254 0.133219 0.133174 0.133130 0.133087 0.133043 0.133001 0.132969 0.132957 0.132955 
0.141250 0.141246 0.141217 0.141133 0.141020 0.140889 0.140758 0.140627 0.140482 0.140372 0.140332 0.140327 0.140322 0.140280 0.140161 0.140003 0.139830 0.139657 0.139483 0.139291 0.139147 0.139092 0.139085 0.139078 0.139023 0.138865 0.138655 0.138453 0.138251 0.138049 0.137905 0.137798 0.137761 0.137757 0.137753 0.137717 0.137623 0.137498 0.137385 0.137273 0.137160 0.137058 0.136982 0.136955 0.136952 0.136949 0.136922 0.136852 0.136757 0.136670 0.136583 0.136495 0.136413 0.136352 0.136330 0.136327 0.136325 0.136303 0.136244 0.136165 0.136087 0.136009 0.135931 0.135853 0.135794 0.135773 0.135770 
0.152054 0.152044 0.151984 0.151818 0.151597 0.151359 0.151121 0.150882 0.150631 0.150441 0.150369 0.150357 0.150346 0.150270 0.150075 0.149816 0.149552 0.149289 0.149026 0.148760 0.148560 0.148484 0.148472 0.148461 0.148386 0.148190 0.147929 0.147667 0.147404 0.147141 0.146876 0.146677 0.146601 0.146589 0.146577 0.146501 0.146298 0.146027 0.145807 0.145588 0.145368 0.145172 0.145025 0.144973 0.144965 0.144957 0.144905 0.144774 0.144599 0.144442 0.144285 0.144129 0.143987 0.143880 0.143842 0.143836 0.143830 0.143792 0.143695 0.143566 0.143449 0.143332 0.143214 0.143106 0.143024 0.142995 0.142991 0.142986 0.142957 0.142882 0.142782 0.142689 0.142596 0.142503 0.142415 0.142349 0.142325 0.142321 
0.170445 0.170432 0.170397 0.170322 0.170223 0.170121 0.170018 0.169915 0.169808 0.169726 0.169685 0.169670 0.169654 0.169613 0.169525 0.169411 0.169293 0.169175 0.169058 0.168936 0.168843 0.168796 0.168779 0.168761 0.168714 0.168616 0.168487 0.168354 0.168221 0.168088 0.167950 0.167844 0.167792 0.167773 0.167753 0.167700 0.167592 0.167450 0.167307 0.167165 0.167022 0.166878 0.166768 0.166714 0.166694 0.166673 0.166619 0.166507 0.166360 0.166211 0.166062 0.165914 0.165763 0.165647 0.165591 0.165569 0.165548 0.165491 0.165373 0.165219 0.165063 0.164907 0.164752 0.164597 0.164479 0.164422 0.164401 0.164379 0.164322 0.164204 0.164050 0.163896 0.163743 0.163590 0.163435 0.163317 0.163260 0.163239 0.163218 0.163161 0.163043 0.162889 0.162736 0.162582 0.162428 0.162275 0.162157 0.162102 0.162081 0.162060 0.162004 0.161889 0.161738 0.161589 0.161439 0.161290 0.161140 0.161026 0.160971 0.160950 0.160930 0.160875 0.160762 0.160613 0.160466 0.160319 0.160172 0.160026 0.159914 0.159860 0.159840 0.159819 0.159765 0.159652 0.159505 0.159360 0.159216 0.159072 0.158928 0.158818 0.158765 0.158745 0.158726 0.158673 0.158563 0.158420 0.158278 0.158135 0.157993 0.157852 0.157745 0.157695 0.157676 0.157660 0.157619 0.157533 0.157421 0.157314 0.157206 0.157099 0.156998 0.156921 0.156885 0.156871 0.156858 0.156822 0.156748 0.156652 0.156560 0.156469 0.156377 0.156290 0.156223 0.156191 0.156179 0.156167 0.156135 0.156070 0.155984 0.155902 0.155820 0.155738 0.155659 0.155599 0.155571 0.155560 0.155549 0.155520 0.155462 0.155385 0.155312 0.155239 0.155166 0.155096 0.155042 0.155016 0.155006 0.154997 0.154971 0.154917 0.154848 0.154781 0.154714 0.154648 0.154582 0.154533 0.154509 0.154500 0.154491 0.154467 0.154418 0.154353 0.154292 0.154230 0.154169 0.154109 0.154063 0.154041 0.154033 0.154024 0.154002 0.153957 0.153897 0.153840 0.153784 0.153727 0.153670 0.153627 0.153606 0.153598 0.153590 0.153569 0.153526 0.153469 0.153416 0.153362 0.153309 0.153256 0.153215 0.153195 0.153187 0.153180 0.153160 0.153119 0.153066 0.153015 0.152964 0.152914 0.152863 0.152824 0.152805 0.152798 0.152791 0.152773 0.152734 0.152684 0.152635 0.152587 0.152539 0.152491 0.152454 0.152436 0.152429 0.152422 0.152404 0.152368 0.152320 0.152273 0.152227 0.152180 0.152133 0.152097 0.152079 0.152073 0.152066 0.152049 0.152013 0.151967 0.151921 0.151876 0.151830 0.151784 0.151749 0.151732 0.151726 
