0.150825 0.150816 0.150685 0.150100 0.149174 0.148303 0.147433 0.146563 0.145746 0.145230 0.145121 0.145113 0.145106 0.144997 0.144509 0.143737 0.143016 0.142294 0.141572 0.140884 0.140450 0.140356 0.140349 0.140343 0.140249 0.139823 0.139147 0.138480 0.137812 0.137144 0.136492 0.136081 0.135992 0.135986 0.135980 0.135891 0.135491 0.134858 0.134248 0.133638 0.133028 0.132445 0.132078 0.131999 0.131994 0.131988 0.131910 0.131557 0.130998 0.130471 0.129945 0.129418 0.128923 0.128610 0.128543 0.128538 0.128534 0.128467 0.128169 0.127697 0.127251 0.126806 0.126360 0.125941 0.125676 0.125620 0.125616 
0.150827 0.150830 0.150852 0.150914 0.151007 0.151090 0.151174 0.151257 0.151375 0.151453 0.151484 0.151487 0.151490 0.151521 0.151666 0.151881 0.152252 0.152623 0.152994 0.153505 0.153849 0.153951 0.153962 0.153972 0.154074 0.154473 0.155066 0.155712 0.156357 0.157003 0.157691 0.158154 0.158284 0.158297 0.158310 0.158441 0.158927 0.159650 0.160418 0.161186 0.161955 0.162770 0.163318 0.163474 0.163489 0.163504 0.163661 0.164240 0.165101 0.166012 0.166923 0.167834 0.168792 0.169436 0.169617 0.169635 0.169653 0.169835 0.170508 0.171510 0.172572 0.173634 0.174696 0.175813 0.176564 0.176776 0.176797 0.176818 0.177036 0.177837 0.179030 0.180310 0.181589 0.182869 0.184228 0.185141 0.185399 0.185424 0.185449 0.185709 0.186668 0.188096 0.189574 0.191053 0.192531 0.194027 0.195033 0.195308 0.195335 0.195362 0.195639 0.196610 0.198056 0.199393 0.200730 0.202067 0.203243 0.204033 0.204239 0.204259 0.204279 0.204483 0.205161 0.206170 0.206963 0.207757 0.208550 0.209158 0.209566 0.209660 0.209669 0.209678 0.209767 0.210057 0.210488 0.210742 0.210996 0.211251 0.211321 0.211368 0.211368 0.211368 0.211368 0.211365 0.211301 0.211206 0.210894 0.210581 0.210269 0.209779 0.209449 0.209352 0.209342 0.209332 0.209231 0.208815 0.208195 0.207384 0.206573 0.205762 0.204803 0.204158 0.203971 0.203952 0.203934 0.203743 0.203028 0.201964 0.200783 0.199601 0.198420 0.197149 0.196295 0.196054 0.196030 
0.150827 0.150829 0.150853 0.150791 0.150694 0.150098 0.149502 0.148906 0.148407 0.148093 0.148028 0.148023 0.148019 0.147953 0.147662 0.147201 0.146719 0.146238 0.145757 0.145301 0.145014 0.144954 0.144950 0.144947 0.144888 0.144627 0.144214 0.143764 0.143314 0.142864 0.142152 0.141702 0.141576 0.141568 0.141560 0.141425 0.140531 0.139113 0.136733 0.134352 0.131971 0.129438 0.127840 0.127494 0.127472 0.127451 0.127107 0.125662 0.123371 0.121984 0.120597 0.119210 0.118507 0.118063 0.117988 0.117983 0.117978 0.117905 0.117631 0.117196 0.116923 0.116650 0.116377 0.116193 0.116077 0.116054 0.116053 0.116052 0.116030 0.115938 0.115794 0.115677 0.115560 0.115444 0.115345 0.115283 0.115270 0.115269 0.115269 0.115256 0.115200 0.115112 0.115035 0.114957 0.114879 0.114810 0.114766 0.114757 0.114757 0.114756 0.114747 0.114708 0.114646 0.114592 0.114537 0.114483 0.114436 0.114406 0.114400 0.114400 0.114400 0.114394 0.114368 0.114327 0.114292 0.114258 0.114224 0.114195 0.114178 0.114174 0.114174 0.114174 0.114170 0.114155 0.114131 0.114111 0.114091 0.114071 0.114049 0.114035 0.114032 0.114031 
0.131993 0.131992 0.131989 0.131981 0.131971 0.131959 0.131948 0.131937 0.131924 0.131914 0.131910 0.131908 0.131907 0.131903 0.131892 0.131878 0.131862 0.131846 0.131830 0.131813 0.131800 0.131795 0.131793 0.131791 0.131786 0.131771 0.131752 0.131732 0.131712 0.131692 0.131669 0.131651 0.131643 0.131641 0.131639 0.131631 0.131612 0.131587 0.131559 0.131532 0.131504 0.131475 0.131452 0.131442 0.131439 0.131436 0.131426 0.131401 0.131369 0.131334 0.131299 0.131264 0.131227 0.131199 0.131187 0.131183 0.131179 0.131166 0.131136 0.131096 0.131055 0.131013 0.130972 0.130927 0.130894 0.130879 0.130875 0.130871 0.130857 0.130835 0.130808 0.130780 0.130753 0.130725 0.130698 0.130678 0.130669 0.130666 0.130664 0.130655 0.130635 0.130608 0.130581 0.130555 0.130529 0.130503 0.130483 0.130474 0.130472 0.130469 0.130461 0.130441 0.130415 0.130389 0.130364 0.130338 0.130312 0.130292 0.130284 0.130281 0.130279 0.130270 0.130251 0.130226 0.130200 0.130175 0.130149 0.130124 0.130105 0.130097 0.130094 0.130092 0.130083 0.130064 0.130039 0.130014 0.129990 0.129965 0.129940 0.129922 0.129914 0.129911 0.129909 0.129901 0.129883 0.129859 0.129835 0.129811 0.129787 0.129763 0.129745 0.129738 0.129735 0.129733 0.129726 0.129708 0.129684 0.129661 0.129637 0.129614 0.129591 0.129573 0.129566 0.129563 0.129561 0.129553 0.129536 0.129512 0.129489 0.129466 0.129443 0.129419 0.129402 0.129394 0.129392 0.129389 0.129382 0.129364 0.129341 0.129317 0.129293 0.129270 0.129246 0.129228 0.129220 0.129218 
0.145112 0.145109 0.145096 0.145060 0.145012 0.144958 0.144905 0.144852 0.144792 0.144747 0.144728 0.144724 0.144719 0.144700 0.144650 0.144584 0.144510 0.144436 0.144362 0.144281 0.144221 0.144195 0.144189 0.144183 0.144157 0.144091 0.144004 0.143913 0.143822 0.143731 0.143636 0.143565 0.143535 0.143529 0.143522 0.143493 0.143421 0.143325 0.143229 0.143133 0.143036 0.142939 0.142865 0.142835 0.142828 0.142822 0.142792 0.142720 0.142625 0.142532 0.142439 0.142346 0.142259 0.142193 0.142170 0.142165 0.142159 0.142136 0.142078 0.142002 0.141921 0.141840 0.141760 0.141676 0.141613 0.141587 0.141581 0.141575 0.141549 0.141489 0.141411 0.141325 0.141239 0.141153 0.141062 0.140993 0.140963 0.140956 0.140949 0.140919 0.140845 0.140746 0.140641 0.140535 0.140429 0.140320 0.140237 0.140201 0.140193 0.140184 0.140149 0.140061 0.139944 0.139832 0.139721 0.139609 0.139507 0.139430 0.139399 0.139392 0.139385 0.139356 0.139284 0.139188 0.139099 0.139010 0.138920 0.138837 0.138774 0.138749 0.138743 0.138737 0.138714 0.138659 0.138586 0.138518 0.138449 0.138381 0.138318 0.138271 0.138251 0.138247 0.138242 0.138223 0.138181 0.138126 0.138074 0.138021 0.137968 0.137920 0.137884 0.137869 0.137866 0.137862 0.137848 0.137814 0.137770 0.137727 0.137685 0.137643 0.137604 0.137575 0.137563 0.137560 0.137557 0.137545 0.137517 0.137480 0.137444 0.137408 0.137372 0.137339 0.137314 0.137304 0.137302 0.137299 0.137289 0.137264 0.137231 0.137198 0.137166 0.137134 0.137103 0.137079 0.137070 0.137067 0.137065 0.137056 0.137031 0.137000 0.136969 0.136938 0.136907 0.136876 0.136852 0.136842 0.136840 
0.151486 0.151479 0.151428 0.151281 0.151085 0.150862 0.150639 0.150417 0.150173 0.149991 0.149922 0.149912 0.149903 0.149833 0.149638 0.149378 0.149118 0.148859 0.148599 0.148344 0.148152 0.148084 0.148074 0.148065 0.147993 0.147809 0.147564 0.147326 0.147088 0.146849 0.146601 0.146415 0.146344 0.146334 0.146325 0.146253 0.146051 0.145781 0.145492 0.145203 0.144915 0.144629 0.144414 0.144343 0.144334 0.144325 0.144257 0.144082 0.143848 0.143652 0.143455 0.143259 0.143092 0.142967 0.142925 0.142920 0.142914 0.142872 0.142767 0.142628 0.142508 0.142388 0.142268 0.142166 0.142090 0.142061 0.142057 0.142054 0.142029 0.141960 0.141869 0.141789 0.141709 0.141628 0.141553 0.141496 0.141476 0.141473 0.141471 0.141451 0.141397 0.141327 0.141257 0.141188 0.141118 0.141049 0.140998 0.140978 0.140975 
0.158295 0.158286 0.158227 0.158062 0.157841 0.157592 0.157343 0.157093 0.156821 0.156616 0.156536 0.156523 0.156511 0.156429 0.156206 0.155909 0.155604 0.155298 0.154993 0.154677 0.154439 0.154348 0.154334 0.154319 0.154229 0.153990 0.153672 0.153351 0.153030 0.152709 0.152385 0.152142 0.152050 0.152036 0.152022 0.151930 0.151686 0.151360 0.151085 0.150810 0.150535 0.150317 0.150153 0.150095 0.150086 0.150077 0.150019 0.149873 0.149678 0.149501 0.149323 0.149146 0.148981 0.148858 0.148813 0.148806 0.148799 0.148754 0.148638 0.148484 0.148340 0.148195 0.148051 0.147914 0.147811 0.147773 0.147767 0.147761 0.147723 0.147625 0.147493 0.147367 0.147241 0.147114 0.146992 0.146901 0.146867 0.146861 0.146856 0.146821 0.146732 0.146613 0.146494 0.146376 0.146257 0.146139 0.146050 0.146016 0.146011 
0.163486 0.163474 0.163414 0.163258 0.163050 0.162826 0.162601 0.162377 0.162134 0.161952 0.161877 0.161862 0.161847 0.161771 0.161576 0.161318 0.161050 0.160783 0.160515 0.160242 0.160036 0.159954 0.159937 0.159921 0.159839 0.159624 0.159338 0.159053 0.158768 0.158483 0.158199 0.157985 0.157901 0.157884 0.157868 0.157784 0.157570 0.157286 0.157003 0.156719 0.156435 0.156150 0.155935 0.155850 0.155833 0.155816 0.155731 0.155516 0.155230 0.154946 0.154662 0.154378 0.154097 0.153886 0.153819 0.153806 0.153794 0.153735 0.153589 0.153396 0.153223 0.153050 0.152877 0.152723 0.152607 0.152564 0.152555 0.152547 0.152504 0.152400 0.152262 0.152136 0.152011 0.151885 0.151769 0.151682 0.151647 0.151641 0.151634 0.151599 0.151518 0.151410 0.151309 0.151208 0.151107 0.151011 0.150938 0.150910 0.150904 0.150899 0.150872 0.150805 0.150717 0.150632 0.150546 0.150461 0.150379 0.150317 0.150294 0.150289 0.150285 0.150262 0.150202 0.150123 0.150047 0.149971 0.149895 0.149821 0.149765 0.149744 0.149739 
0.169631 0.169613 0.169565 0.169463 0.169329 0.169192 0.169055 0.168918 0.168777 0.168670 0.168617 0.168598 0.168578 0.168525 0.168414 0.168269 0.168121 0.167972 0.167824 0.167672 0.167557 0.167501 0.167480 0.167459 0.167403 0.167285 0.167130 0.166974 0.166818 0.166662 0.166506 0.166387 0.166329 0.166308 0.166287 0.166230 0.166110 0.165953 0.165796 0.165638 0.165481 0.165321 0.165198 0.165139 0.165117 0.165095 0.165036 0.164912 0.164750 0.164589 0.164429 0.164268 0.164108 0.163985 0.163927 0.163905 0.163883 0.163825 0.163703 0.163543 0.163385 0.163227 0.163069 0.162909 0.162787 0.162729 0.162707 0.162686 0.162627 0.162506 0.162347 0.162189 0.162031 0.161873 0.161716 0.161597 0.161540 0.161519 0.161497 0.161441 0.161322 0.161167 0.161013 0.160859 0.160705 0.160551 0.160434 0.160378 0.160357 0.160336 0.160280 0.160163 0.160009 0.159856 0.159703 0.159550 0.159397 0.159281 0.159225 0.159204 0.159183 0.159128 0.159013 0.158863 0.158714 0.158564 0.158415 0.158266 0.158152 0.158098 0.158078 0.158057 0.158003 0.157890 0.157742 0.157595 0.157449 0.157303 0.157158 0.157048 0.156995 0.156975 0.156956 0.156903 0.156799 0.156663 0.156557 0.156450 0.156344 0.156244 0.156168 0.156132 0.156119 0.156106 0.156071 0.155998 0.155902 0.155816 0.155729 0.155642 0.155557 0.155493 0.155462 0.155451 0.155439 0.155409 0.155345 0.155262 0.155188 0.155114 0.155039 0.154966 0.154910 0.154883 0.154873 0.154863 0.154836 0.154782 0.154712 0.154648 0.154584 0.154520 0.154456 0.154407 0.154384 0.154375 0.154366 0.154343 0.154297 0.154236 0.154179 0.154122 0.154065 0.154008 0.153964 0.153943 0.153936 0.153928 0.153907 0.153866 0.153814 0.153763 0.153712 0.153661 0.153610 0.153572 0.153553 0.153546 0.153539 0.153520 0.153485 0.153439 0.153393 0.153347 0.153301 0.153255 0.153220 0.153202 0.153196 0.153190 0.153173 0.153142 0.153100 0.153058 0.153017 0.152975 0.152932 0.152900 0.152884 0.152879 0.152873 0.152860 0.152830 0.152792 0.152753 0.152715 0.152676 0.152637 0.152607 0.152594 0.152589 0.152584 0.152571 0.152544 0.152509 0.152473 0.152437 0.152401 0.152365 0.152338 0.152326 0.152321 0.152317 0.152304 0.152279 0.152246 0.152211 0.152177 0.152143 0.152109 0.152084 0.152072 0.152068 0.152063 0.152051 0.152026 0.151994 0.151961 0.151927 0.151894 0.151862 0.151837 0.151826 0.151821 
0.176791 0.176766 0.176661 0.176402 0.176057 0.175700 0.175343 0.174986 0.174615 0.174335 0.174219 0.174193 0.174165 0.174049 0.173762 0.173380 0.172994 0.172609 0.172223 0.171835 0.171543 0.171424 0.171396 0.171369 0.171250 0.170958 0.170570 0.170189 0.169807 0.169426 0.169043 0.168755 0.168638 0.168612 0.168585 0.168469 0.168188 0.167815 0.167450 0.167086 0.166721 0.166364 0.166094 0.165985 0.165960 0.165934 0.165826 0.165560 0.165208 0.164860 0.164512 0.164163 0.163818 0.163558 0.163453 0.163428 0.163404 0.163298 0.163042 0.162702 0.162373 0.162044 0.161714 0.161391 0.161148 0.161051 0.161028 0.161005 0.160908 0.160691 0.160404 0.160177 0.159951 0.159724 0.159519 0.159364 0.159307 0.159294 0.159280 0.159223 0.159086 0.158904 0.158738 0.158571 0.158405 0.158249 0.158131 0.158085 0.158075 0.158065 0.158023 0.157920 0.157784 0.157654 0.157524 0.157394 0.157273 0.157182 0.157144 0.157136 0.157127 0.157090 0.157009 0.156901 0.156796 0.156691 0.156587 0.156489 0.156415 0.156384 0.156377 0.156370 0.156340 0.156272 0.156181 0.156093 0.156005 0.155918 0.155837 0.155776 0.155751 0.155746 0.155740 0.155715 0.155656 0.155578 0.155503 0.155428 0.155353 0.155281 0.155228 0.155206 0.155201 
0.185415 0.185380 0.185237 0.184884 0.184416 0.183945 0.183475 0.183004 0.182527 0.182167 0.182017 0.181980 0.181943 0.181793 0.181426 0.180940 0.180452 0.179964 0.179477 0.178991 0.178624 0.178472 0.178435 0.178397 0.178245 0.177881 0.177398 0.176927 0.176456 0.175985 0.175526 0.175179 0.175037 0.175002 0.174967 0.174826 0.174490 0.174046 0.173612 0.173178 0.172744 0.172323 0.172006 0.171875 0.171843 0.171812 0.171682 0.171375 0.170969 0.170578 0.170188 0.169797 0.169419 0.169134 0.169016 0.168987 0.168958 0.168841 0.168561 0.168191 0.167828 0.167465 0.167102 0.166748 0.166481 0.166371 0.166344 0.166317 0.166208 0.165950 0.165609 0.165316 0.165023 0.164730 0.164473 0.164279 0.164201 0.164181 0.164162 0.164084 0.163902 0.163661 0.163445 0.163229 0.163013 0.162819 0.162672 0.162615 0.162601 0.162587 0.162530 0.162394 0.162214 0.162054 0.161894 0.161734 0.161583 0.161468 0.161426 0.161416 0.161405 0.161363 0.161261 0.161125 0.160999 0.160872 0.160745 0.160627 0.160537 0.160500 0.160491 0.160482 0.160447 0.160368 0.160264 0.160163 0.160061 0.159959 0.159866 0.159796 0.159767 0.159760 0.159753 0.159724 0.159659 0.159573 0.159492 0.159410 0.159329 0.159257 0.159203 0.159181 0.159175 
0.195325 0.195283 0.195108 0.194673 0.194097 0.193502 0.192906 0.192311 0.191698 0.191235 0.191042 0.190995 0.190949 0.190756 0.190288 0.189669 0.189043 0.188417 0.187791 0.187168 0.186698 0.186506 0.186460 0.186414 0.186223 0.185763 0.185152 0.184553 0.183954 0.183355 0.182776 0.182340 0.182163 0.182120 0.182078 0.181903 0.181487 0.180936 0.180402 0.179867 0.179333 0.178825 0.178442 0.178286 0.178248 0.178211 0.178055 0.177685 0.177195 0.176716 0.176238 0.175760 0.175295 0.174944 0.174801 0.174767 0.174733 0.174591 0.174248 0.173794 0.173353 0.172912 0.172471 0.172043 0.171719 0.171587 0.171556 0.171524 0.171393 0.171105 0.170724 0.170381 0.170039 0.169697 0.169391 0.169160 0.169068 0.169046 0.169024 0.168932 0.168724 0.168447 0.168195 0.167942 0.167689 0.167467 0.167299 0.167231 0.167215 0.167199 0.167131 0.166970 0.166757 0.166565 0.166373 0.166181 0.166003 0.165868 0.165816 0.165803 0.165791 0.165739 0.165613 0.165446 0.165292 0.165137 0.164983 0.164836 0.164725 0.164684 0.164674 0.164664 0.164622 0.164522 0.164389 0.164264 0.164139 0.164015 0.163897 0.163808 0.163772 0.163763 0.163755 0.163720 0.163640 0.163534 0.163432 0.163330 0.163228 0.163135 0.163065 0.163037 0.163030 
0.204244 0.204182 0.203930 0.203320 0.202513 0.201704 0.200894 0.200085 0.199279 0.198670 0.198421 0.198360 0.198299 0.198051 0.197453 0.196661 0.195883 0.195105 0.194328 0.193570 0.192997 0.192766 0.192709 0.192652 0.192422 0.191875 0.191149 0.190442 0.189735 0.189029 0.188346 0.187831 0.187621 0.187570 0.187518 0.187309 0.186813 0.186157 0.185529 0.184901 0.184273 0.183669 0.183213 0.183027 0.182981 0.182935 0.182750 0.182305 0.181717 0.181149 0.180581 0.180013 0.179464 0.179050 0.178881 0.178839 0.178798 0.178630 0.178232 0.177705 0.177197 0.176689 0.176180 0.175699 0.175335 0.175188 0.175152 0.175116 0.174970 0.174621 0.174159 0.173734 0.173309 0.172884 0.172477 0.172170 0.172055 0.172027 0.171999 0.171884 0.171676 0.171400 0.171177 0.170954 0.170731 0.170533 0.170384 0.170322 0.170307 0.170292 0.170231 0.170113 0.169958 0.169803 0.169648 0.169492 0.169364 0.169266 0.169225 0.169215 0.169205 0.169163 0.169065 0.168935 0.168826 0.168717 0.168608 0.168509 0.168434 0.168406 0.168399 0.168392 0.168364 0.168294 0.168202 0.168122 0.168043 0.167963 0.167887 0.167829 0.167809 0.167804 0.167799 0.167781 0.167738 0.167680 0.167629 0.167578 0.167527 0.167485 0.167454 0.167440 0.167437 
0.211344 0.211250 0.210763 0.209559 0.207958 0.206457 0.204955 0.203453 0.202047 0.200989 0.200586 0.200508 0.200430 0.200031 0.199047 0.197740 0.196533 0.195327 0.194120 0.193000 0.192157 0.191837 0.191774 0.191713 0.191395 0.190612 0.189571 0.188604 0.187637 0.186669 0.185780 0.185110 0.184857 0.184807 0.184759 0.184511 0.183894 0.183074 0.182321 0.181569 0.180816 0.180129 0.179612 0.179420 0.179383 0.179346 0.179156 0.178688 0.178067 0.177540 0.177013 0.176485 0.176165 0.175923 0.175831 0.175813 0.175795 0.175702 0.175499 0.175229 0.174991 0.174753 0.174515 0.174291 0.174123 0.174065 0.174054 0.174044 0.173989 0.173843 0.173648 0.173467 0.173287 0.173106 0.172938 0.172812 0.172767 0.172758 0.172749 0.172703 0.172590 0.172440 0.172313 0.172185 0.172058 0.171951 0.171871 0.171839 0.171833 
0.203930 0.203840 0.203338 0.202077 0.200401 0.198879 0.197357 0.195836 0.194457 0.193421 0.193038 0.192970 0.192902 0.192524 0.191595 0.190359 0.189235 0.188110 0.186985 0.185959 0.185187 0.184906 0.184855 0.184806 0.184528 0.183838 0.182919 0.182093 0.181267 0.180441 0.179710 0.179160 0.178955 0.178918 0.178881 0.178678 0.178197 0.177558 0.176999 0.176440 0.175880 0.175500 0.175213 0.175140 0.175127 0.175114 0.175041 0.174859 0.174617 0.174405 0.174194 0.173982 0.173785 0.173637 0.173577 0.173566 0.173557 0.173509 0.173375 0.173198 0.173015 0.172832 0.172649 0.172471 0.172337 0.172284 0.172275 
