-1.464789 0.612632 11.654710
-1.468641 0.616948 11.643870
-1.472493 0.621265 11.633029
-1.646342 0.815991 11.144194
-1.818561 1.008797 10.660412
-1.993266 1.202708 10.178007
-2.228336 1.416315 9.761520
-1.474889 0.623950 11.626286
-1.645715 0.815288 11.145958
-1.646969 0.816694 11.142429
-1.817939 1.008096 10.662179
-1.819184 1.009497 10.658645
-1.992625 1.201999 10.179764
-1.993907 1.203417 10.176250
-2.226666 1.415313 9.761975
-1.484179 0.634359 11.600146
-1.636426 0.804879 11.172099
-1.656255 0.827101 11.116287
-1.808703 0.997712 10.688348
-1.828405 1.019876 10.632468
-1.983125 1.191496 10.205791
-2.003241 1.213845 10.150138
-2.202915 1.400462 9.771134
-1.504213 0.656803 11.543793
-1.526646 0.681928 11.480723
-1.549086 0.707057 11.417657
-1.571526 0.732185 11.354591
-1.593964 0.757313 11.291524
-1.616396 0.782437 11.228454
-1.676268 0.849536 11.059923
-1.698680 0.874651 10.996842
-1.721113 0.899777 10.933772
-1.743589 0.924921 10.870726
-1.766118 0.950089 10.807707
-1.788626 0.975248 10.744678
-1.848216 1.042220 10.575997
-1.870243 1.067162 10.512712
-1.892494 1.092206 10.449546
-1.915183 1.117446 10.386616
-1.938368 1.142907 10.323955
-1.962318 1.168707 10.261721
-2.020968 1.235241 10.092616
-2.039421 1.258542 10.027605
-2.057322 1.281579 9.962355
-2.079246 1.306452 9.899007
-2.112069 1.335807 9.843331
-2.154638 1.368430 9.798043
-3.480100 1.866753 9.338602
-4.783857 2.162615 8.903889
-5.996475 2.743328 8.602030
-6.667461 3.924397 8.258368
-7.368836 5.093492 7.914206
-8.197684 6.164259 7.538418
-9.190441 7.068599 7.127416
-10.344022 7.738664 6.691257
-11.610826 8.152587 6.249024
-12.935121 8.334422 5.815935
-2.230006 1.417317 9.761065
-3.478251 1.866345 9.339246
-3.481949 1.867160 9.337958
-4.781953 2.162225 8.904363
-4.785760 2.163005 8.903415
-5.995072 2.741968 8.602455
-5.997879 2.744687 8.601604
-6.666523 3.922695 8.258842
-6.668398 3.926099 8.257894
-7.367750 5.091893 7.914719
-7.369922 5.095091 7.913694
-8.196370 6.162861 7.538984
-8.198999 6.165656 7.537853
-9.188892 7.067490 7.128024
-9.191989 7.069709 7.126807
-10.342284 7.737900 6.691887
-10.345760 7.739428 6.690628
-11.608970 8.152178 6.249649
-11.612681 8.152995 6.248400
-12.933220 8.334288 5.816542
-2.254749 1.432163 9.754328
-3.450798 1.860407 9.348682
-3.509346 1.873195 9.328421
-4.753769 2.156385 8.911399
-4.813959 2.168786 8.896388
-5.973715 2.722351 8.608495
-6.018672 2.764832 8.595296
-6.652702 3.897440 8.265851
-6.682289 3.951313 8.250875
-7.351917 5.068005 7.922242
-7.386015 5.118786 7.906106
-8.177081 6.141971 7.547318
-8.218468 6.186364 7.529479
-9.166163 7.050740 7.137011
-9.214933 7.086146 7.117787
-10.316469 7.726741 6.701214
-10.371509 7.750742 6.681303
-11.581541 8.145873 6.258915
-11.640170 8.159053 6.239144
-12.905067 8.332204 5.825542
-2.368872 1.499279 9.726142
-2.547979 1.599356 9.664194
-2.734935 1.676065 9.592818
-2.930054 1.734500 9.525596
-3.126369 1.788156 9.457867
-3.325010 1.833765 9.391055
-3.634242 1.901142 9.284290
-3.831395 1.945732 9.212506
-4.028899 1.990551 9.141846
-4.227156 2.036891 9.074341
-4.424984 2.083798 9.005977
-4.625343 2.129159 8.944444
-4.942588 2.195477 8.863678
-5.144647 2.245903 8.812530
-5.343186 2.313079 8.767043
-5.539747 2.386145 8.722186
-5.719758 2.491811 8.677109
-5.874976 2.633590 8.634898
-6.105420 2.863645 8.564302
-6.203755 3.045217 8.507776
-6.296290 3.229989 8.450417
-6.395445 3.412579 8.397158
-6.492243 3.597481 8.347646
-6.589989 3.781789 8.297786
-6.746084 4.066315 8.218739
-6.848696 4.247551 8.167413
-6.953016 4.427671 8.115600
-7.059496 4.606355 8.063224
-7.169275 4.782776 8.009994
-7.280655 4.958068 7.956347
-7.460476 5.226322 7.871202
-7.580154 5.395386 7.815478
-7.700685 5.563766 7.759545
-7.828337 5.726208 7.701914
-7.958475 5.886475 7.643698
-8.090241 6.045246 7.585116
-8.307512 6.280884 7.491202
-8.449751 6.429443 7.430315
-8.597219 6.572331 7.368348
-8.749325 6.709877 7.305469
-8.904432 6.843761 7.242032
-9.063337 6.972764 7.177908
-9.320168 7.160642 7.076511
-9.488186 7.276732 7.010916
-9.660825 7.385391 6.944697
-9.838290 7.485663 6.877901
-10.015965 7.585534 6.811080
-10.198678 7.675388 6.743825
-10.489139 7.802473 6.638700
-10.677784 7.878912 6.571131
-10.870337 7.944953 6.503544
-11.063697 8.008648 6.435979
-11.258972 8.066263 6.368527
-11.456390 8.116375 6.301280
-11.765955 8.185889 6.196893
-11.966288 8.223617 6.130186
-12.167833 8.255015 6.063840
-12.369965 8.282954 5.997716
-12.572745 8.306482 5.931904
-12.776422 8.322799 5.866651
171 NaN NaN
-1.462862 0.610474 11.660130
-1.494393 0.645804 11.571404
-1.525946 0.681144 11.482690
-1.557510 0.716490 11.393982
-1.589074 0.751835 11.305274
-1.620626 0.787175 11.216560
-1.652156 0.822505 11.127834
-1.683663 0.857825 11.039096
-1.715195 0.893157 10.950371
-1.746810 0.928525 10.861690
-1.778512 0.963932 10.773056
-1.810121 0.999297 10.684372
-1.841420 1.034524 10.595523
-1.872402 1.069608 10.506507
-1.903736 1.104850 10.417677
-1.936241 1.140616 10.329481
-1.969929 1.176907 10.241943
-2.002172 1.212555 10.153608
-2.030075 1.246233 10.063065
-2.054374 1.278235 9.970870
-2.085181 1.313185 9.881859
-2.136696 1.356525 9.808044
-2.212356 1.406726 9.765871
-2.296294 1.457091 9.743016
-2.381532 1.506638 9.723199
-2.465497 1.554983 9.696327
-2.549260 1.600045 9.663695
-2.635100 1.639596 9.629382
-2.724196 1.672688 9.596549
-2.815259 1.701327 9.564912
-2.907034 1.727942 9.533550
-2.998823 1.754091 9.501837
-3.090846 1.779234 9.469994
-3.183443 1.802490 9.438384
-3.276702 1.823530 9.407167
-3.370236 1.843347 9.375971
-3.463631 1.863125 9.344335
-3.556621 1.883608 9.311963
-3.649278 1.904539 9.278929
-3.741731 1.925521 9.245360
-3.834117 1.946345 9.211509
-3.926587 1.967200 9.177910
-4.019290 1.988326 9.145131
-4.112246 2.009854 9.113345
-4.205239 2.031689 9.081879
-4.298035 2.053712 9.049964
-4.390661 2.075754 9.017573
-4.483675 2.097554 8.986147
-4.577642 2.118828 8.957315
-4.672682 2.139412 8.931671
-4.768299 2.159426 8.907766
-4.864011 2.179046 8.883915
-4.959466 2.199007 8.859331
-5.054483 2.221058 8.834849
-5.148783 2.247042 8.811506
-5.242159 2.277390 8.789750
-5.334934 2.310137 8.768894
-5.427620 2.343184 8.748112
-5.519852 2.377219 8.726939
-5.609470 2.417427 8.705529
-5.692889 2.469254 8.684362
-5.768286 2.532551 8.664009
-5.839597 2.600693 8.644369
-5.911866 2.667892 8.625023
-5.985873 2.733056 8.605246
-6.056424 2.801408 8.583843
-6.116750 2.878036 8.559783
-6.164598 2.962437 8.533495
-6.205999 3.049960 8.506302
-6.247667 3.137348 8.479086
-6.292617 3.223275 8.452443
-6.339276 3.308569 8.426703
-6.385797 3.394280 8.402133
-6.431404 3.480777 8.378618
-6.476612 3.567616 8.355599
-6.522003 3.654339 8.332504
-6.567878 3.740717 8.309075
-6.614212 3.826788 8.285417
-6.660963 3.912603 8.261651
-6.708112 3.998183 8.237828
-6.755670 4.083514 8.213920
-6.803644 4.168579 8.189897
-6.852022 4.253381 8.165753
-6.900766 4.337942 8.141505
-6.949844 4.422285 8.117167
-6.999342 4.506350 8.092720
-7.049466 4.589996 8.068112
-7.100409 4.673082 8.043290
-7.152097 4.755649 8.018276
-7.204197 4.837924 7.993155
-7.256396 4.920128 7.968008
-7.308844 5.002155 7.942796
-7.362109 5.083587 7.917379
-7.416729 5.164009 7.891622
-7.472544 5.243511 7.865570
-7.528809 5.322658 7.839405
-7.584825 5.402002 7.813301
-7.640816 5.481365 7.787203
-7.697775 5.559957 7.760870
-7.756626 5.636983 7.734085
-7.817177 5.712541 7.706899
-7.878393 5.787506 7.679557
-7.939317 5.862732 7.652284
-8.000112 5.938075 7.625041
-8.061793 6.012617 7.597595
-8.125296 6.085454 7.569739
-8.190506 6.156623 7.541506
-8.256588 6.226908 7.513084
-8.322787 6.297074 7.484638
-8.389160 6.367060 7.456157
-8.456328 6.436214 7.427509
-8.524856 6.503899 7.398580
-8.594742 6.570061 7.369375
-8.665635 6.635055 7.339973
-8.737214 6.699235 7.310442
-8.809406 6.762671 7.280798
-8.882290 6.825248 7.251025
-8.955953 6.886839 7.221108
-9.030536 6.947228 7.191027
-9.106215 7.006144 7.160760
-9.183114 7.063351 7.130296
-9.260990 7.119142 7.099680
-9.339402 7.174130 7.068981
-9.417997 7.228841 7.038253
-9.497080 7.282801 7.007452
-9.577294 7.334969 6.976496
-9.659129 7.384424 6.945336
-9.742159 7.431764 6.914038
-9.825556 7.478428 6.882699
-9.908652 7.525643 6.851390
-9.991862 7.572651 6.820069
-10.076116 7.617681 6.788647
-10.162110 7.659179 6.757084
-10.249383 7.697863 6.725441
-10.337062 7.735605 6.693778
-10.424458 7.774008 6.662128
-10.511834 7.812460 6.630480
-10.599877 7.849329 6.598807
-10.689102 7.883210 6.567110
-10.779245 7.914581 6.535417
-10.869795 7.944772 6.503733
-10.960362 7.974915 6.472051
-11.051050 8.004693 6.440373
-11.142158 8.033183 6.408716
-11.233901 8.059600 6.377101
-11.326187 8.084126 6.345538
-11.418830 8.107327 6.314017
-11.511688 8.129697 6.282528
-11.604751 8.151248 6.251070
-11.698051 8.171808 6.219654
-11.791616 8.191210 6.188291
-11.885463 8.209311 6.156992
-11.979601 8.225973 6.125770
-12.074022 8.241134 6.094636
-12.168646 8.255136 6.063573
-12.263382 8.268461 6.032555
-12.358174 8.281442 6.001560
-12.453090 8.293616 5.970620
-12.548224 8.304264 5.939790
-12.643613 8.312893 5.909115
-12.739154 8.320134 5.878554
-12.834737 8.326968 5.848027
-12.930292 8.334082 5.817477
-13.025885 8.340815 5.786959
-13.121606 8.346113 5.756567
-13.217490 8.349199 5.726381
-13.313468 8.350542 5.696367
-13.409485 8.350959 5.666448
-13.505507 8.351263 5.636540
-13.601500 8.352268 5.606560
-13.697417 8.354789 5.576429
