0.131357 0.131351 0.131239 0.130718 0.129892 0.129162 0.128433 0.127703 0.127116 0.126746 0.126670 0.126666 0.126662 0.126586 0.126252 0.125721 0.125239 0.124758 0.124276 0.123839 0.123563 0.123505 0.123502 
0.131360 0.131366 0.131444 0.131761 0.132263 0.132762 0.133261 0.133760 0.134310 0.134657 0.134736 0.134742 0.134749 0.134829 0.135204 0.135798 0.136436 0.137074 0.137712 0.138385 0.138811 0.138906 0.138914 0.138922 0.139018 0.139459 0.140158 0.140891 0.141624 0.142357 0.143126 0.143611 0.143721 0.143729 0.143738 0.143848 0.144353 0.145154 0.145989 0.146824 0.147659 0.148525 0.149071 0.149193 0.149203 0.149212 0.149334 0.149895 0.150783 0.151695 0.152606 0.153518 0.154465 0.155064 0.155199 0.155209 0.155220 0.155357 0.155980 0.156967 0.158022 0.159076 0.160131 0.161271 0.161990 0.162154 0.162167 0.162180 0.162345 0.163115 0.164334 0.165649 0.166964 0.168278 0.169680 0.170565 0.170767 0.170783 0.170799 0.171000 0.171928 0.173398 0.174945 0.176492 0.178040 0.179661 0.180685 0.180915 0.180934 0.180952 0.181183 0.182234 0.183898 0.185641 0.187383 0.189125 0.190943 0.192090 0.192347 0.192368 0.192388 0.192646 0.193828 0.195701 0.197616 0.199531 0.201446 0.203338 0.204532 0.204794 0.204815 0.204835 0.205096 0.206248 0.208073 0.209684 0.211294 0.212905 0.214146 0.214929 0.215080 0.215092 0.215104 0.215252 0.215801 0.216670 0.217045 0.217420 0.217794 0.217633 0.217531 0.217485 0.217482 0.217478 0.217428 0.217074 0.216513 0.215558 0.214602 0.213647 0.212326 0.211491 0.211289 0.211273 
0.131358 0.131356 0.131317 0.131003 0.130505 0.130087 0.129668 0.129250 0.128960 0.128778 0.128743 0.128741 0.128739 0.128704 0.128557 0.128324 0.128107 0.127890 0.127673 0.127390 0.127211 0.127166 0.127163 0.127161 0.127113 0.126833 0.126389 0.125654 0.124918 0.124182 0.123381 0.122875 0.122778 0.122773 0.122768 0.122674 0.122117 0.121234 0.120391 0.119548 0.118705 0.118148 0.117797 0.117733 0.117730 0.117727 0.117665 0.117413 0.117014 0.116712 0.116410 0.116107 0.115873 0.115725 0.115696 0.115694 0.115693 0.115664 0.115546 0.115358 0.115219 0.115080 0.114941 0.114840 0.114776 0.114764 0.114764 0.114763 0.114751 0.114701 0.114621 0.114560 0.114498 0.114436 0.114387 0.114356 0.114350 0.114350 0.114349 0.114343 0.114317 0.114275 0.114241 0.114207 0.114173 0.114145 0.114127 0.114123 0.114123 0.114123 0.114119 0.114104 0.114080 0.114059 0.114039 0.114019 0.114001 0.113991 0.113989 0.113988 
0.126666 0.126667 0.126669 0.126672 0.126677 0.126680 0.126684 0.126688 0.126691 0.126693 0.126694 0.126695 0.126695 0.126696 0.126698 0.126700 0.126702 0.126703 0.126705 0.126706 0.126707 0.126707 0.126707 0.126707 0.126707 0.126707 0.126707 0.126707 0.126706 0.126706 0.126704 0.126703 0.126703 0.126702 0.126702 0.126701 0.126700 0.126698 0.126695 0.126692 0.126689 0.126686 0.126683 0.126682 0.126681 0.126681 0.126679 0.126676 0.126672 0.126667 0.126662 0.126658 0.126652 0.126648 0.126646 0.126645 0.126644 0.126642 0.126637 0.126631 0.126624 0.126617 0.126611 0.126604 0.126598 0.126595 0.126594 0.126593 0.126590 0.126584 0.126577 0.126569 0.126561 0.126553 0.126545 0.126538 0.126535 0.126534 0.126532 0.126529 0.126522 0.126514 0.126505 0.126496 0.126487 0.126478 0.126471 0.126467 0.126466 0.126464 0.126461 0.126453 0.126444 0.126434 0.126424 0.126414 0.126404 0.126396 0.126392 0.126391 0.126389 0.126385 0.126377 0.126367 0.126357 0.126346 0.126335 0.126325 0.126317 0.126313 0.126311 0.126310 0.126306 0.126298 0.126287 0.126276 0.126266 0.126255 0.126244 0.126236 0.126232 0.126230 0.126228 0.126224 0.126215 0.126204 0.126193 0.126181 0.126170 0.126158 0.126149 0.126144 0.126142 0.126141 0.126136 0.126127 0.126115 0.126102 0.126090 0.126077 0.126064 0.126054 0.126049 0.126047 0.126045 0.126040 0.126030 0.126017 0.126004 0.125991 0.125978 0.125964 0.125953 0.125948 0.125945 0.125943 0.125938 0.125927 0.125912 0.125898 0.125883 0.125869 0.125854 0.125843 0.125837 0.125834 0.125832 0.125826 0.125814 0.125798 0.125783 0.125767 0.125751 0.125735 0.125723 0.125717 0.125714 0.125712 0.125705 0.125692 0.125675 0.125658 0.125641 0.125624 0.125607 0.125593 0.125586 0.125584 0.125581 0.125574 0.125560 0.125542 0.125524 0.125506 0.125487 0.125469 0.125454 0.125447 0.125444 0.125441 0.125434 0.125420 0.125401 0.125381 0.125361 0.125342 0.125322 0.125306 0.125299 0.125295 0.125292 0.125285 0.125269 0.125249 0.125228 0.125207 0.125186 0.125165 0.125148 0.125140 0.125137 0.125133 0.125125 0.125109 0.125087 0.125066 0.125044 0.125023 0.125001 0.124984 0.124975 0.124972 0.124968 0.124960 0.124943 0.124921 0.124898 0.124876 0.124854 0.124831 0.124814 0.124805 0.124801 0.124798 0.124789 0.124772 0.124749 0.124726 0.124703 0.124680 0.124658 0.124640 0.124631 0.124628 0.124624 0.124616 0.124601 0.124583 0.124567 0.124551 0.124535 0.124519 0.124506 0.124500 0.124498 0.124496 0.124490 0.124479 0.124464 0.124450 0.124435 0.124421 0.124406 0.124395 0.124390 0.124387 0.124385 0.124380 0.124369 0.124355 0.124342 0.124329 0.124315 0.124302 0.124292 0.124287 0.124285 0.124283 0.124278 0.124267 0.124254 0.124242 0.124229 0.124217 0.124205 0.124196 0.124191 0.124189 0.124187 0.124182 0.124173 0.124161 0.124149 0.124137 0.124126 0.124115 0.124106 0.124102 0.124100 0.124098 0.124094 0.124085 0.124074 0.124063 0.124052 0.124041 0.124030 0.124023 0.124019 0.124017 0.124015 0.124011 0.124003 0.123993 0.123983 0.123972 0.123962 0.123952 0.123944 0.123941 0.123939 0.123938 0.123934 0.123927 0.123917 0.123907 0.123898 0.123888 0.123879 0.123871 0.123868 0.123867 0.123865 0.123862 0.123855 0.123846 0.123837 0.123829 0.123820 0.123811 0.123804 0.123801 0.123799 0.123798 0.123795 0.123788 0.123780 0.123772 0.123764 0.123755 0.123747 0.123741 0.123738 0.123736 0.123735 0.123732 0.123726 0.123718 0.123710 0.123703 0.123695 0.123687 0.123681 0.123678 0.123677 
0.134741 0.134738 0.134721 0.134679 0.134623 0.134567 0.134510 0.134453 0.134396 0.134352 0.134335 0.134331 0.134327 0.134309 0.134265 0.134206 0.134146 0.134086 0.134026 0.133966 0.133920 0.133902 0.133898 0.133894 0.133875 0.133828 0.133766 0.133704 0.133641 0.133578 0.133515 0.133468 0.133448 0.133444 0.133440 0.133420 0.133372 0.133308 0.133244 0.133180 0.133115 0.133051 0.133002 0.132982 0.132978 0.132974 0.132953 0.132903 0.132836 0.132768 0.132700 0.132632 0.132563 0.132511 0.132489 0.132484 0.132480 0.132458 0.132404 0.132333 0.132260 0.132187 0.132114 0.132039 0.131983 0.131960 0.131955 0.131950 0.131927 0.131869 0.131793 0.131715 0.131637 0.131559 0.131479 0.131420 0.131395 0.131390 0.131384 0.131360 0.131298 0.131217 0.131134 0.131051 0.130968 0.130884 0.130821 0.130795 0.130789 0.130784 0.130758 0.130694 0.130609 0.130523 0.130437 0.130351 0.130265 0.130200 0.130173 0.130168 0.130162 0.130136 0.130070 0.129984 0.129913 0.129842 0.129771 0.129714 0.129671 0.129655 0.129652 0.129648 0.129632 0.129592 0.129539 0.129490 0.129440 0.129391 0.129344 0.129308 0.129295 0.129292 0.129289 0.129276 0.129242 0.129198 0.129156 0.129114 0.129073 0.129032 0.129002 0.128991 0.128988 0.128986 0.128974 0.128946 0.128908 0.128873 0.128837 0.128802 0.128767 0.128742 0.128732 0.128730 0.128728 0.128718 0.128694 0.128661 0.128631 0.128600 0.128570 0.128541 0.128519 0.128510 0.128508 
0.138914 0.138913 0.138907 0.138893 0.138873 0.138848 0.138824 0.138800 0.138771 0.138749 0.138740 0.138738 0.138735 0.138725 0.138699 0.138663 0.138624 0.138586 0.138547 0.138504 0.138471 0.138457 0.138454 0.138451 0.138437 0.138400 0.138351 0.138297 0.138244 0.138190 0.138132 0.138088 0.138070 0.138066 0.138062 0.138043 0.137993 0.137928 0.137857 0.137787 0.137716 0.137640 0.137583 0.137560 0.137554 0.137549 0.137525 0.137462 0.137379 0.137291 0.137203 0.137115 0.137022 0.136951 0.136923 0.136916 0.136910 0.136881 0.136806 0.136706 0.136603 0.136499 0.136396 0.136289 0.136208 0.136175 0.136168 0.136161 0.136127 0.136075 0.136005 0.135940 0.135876 0.135812 0.135750 0.135704 0.135685 0.135681 0.135677 0.135659 0.135615 0.135557 0.135501 0.135444 0.135388 0.135332 0.135291 0.135274 0.135271 0.135267 0.135251 0.135212 0.135160 0.135110 0.135059 0.135008 0.134959 0.134922 0.134908 0.134904 0.134901 0.134886 0.134852 0.134807 0.134762 0.134718 0.134674 0.134631 0.134599 0.134586 0.134583 0.134580 0.134567 0.134537 0.134498 0.134459 0.134420 0.134380 0.134342 0.134314 0.134302 0.134300 0.134297 0.134286 0.134259 0.134223 0.134187 0.134151 0.134116 0.134081 0.134055 0.134044 0.134042 
0.143728 0.143723 0.143699 0.143634 0.143548 0.143455 0.143362 0.143269 0.143169 0.143094 0.143063 0.143057 0.143051 0.143021 0.142941 0.142836 0.142724 0.142613 0.142501 0.142383 0.142294 0.142259 0.142252 0.142245 0.142209 0.142117 0.141994 0.141865 0.141736 0.141607 0.141472 0.141370 0.141330 0.141322 0.141314 0.141273 0.141166 0.141024 0.140877 0.140729 0.140582 0.140429 0.140314 0.140268 0.140259 0.140250 0.140204 0.140086 0.139929 0.139768 0.139607 0.139445 0.139290 0.139172 0.139138 0.139131 0.139125 0.139091 0.139007 0.138896 0.138791 0.138685 0.138580 0.138480 0.138405 0.138376 0.138370 0.138365 0.138337 0.138266 0.138173 0.138084 0.137995 0.137905 0.137820 0.137756 0.137732 0.137727 0.137722 0.137698 0.137637 0.137555 0.137479 0.137402 0.137326 0.137254 0.137200 0.137179 0.137175 0.137171 0.137150 0.137099 0.137031 0.136966 0.136901 0.136837 0.136775 0.136729 0.136711 0.136707 0.136704 0.136686 0.136643 0.136586 0.136530 0.136474 0.136418 0.136364 0.136323 0.136308 0.136305 
0.149201 0.149194 0.149156 0.149057 0.148927 0.148791 0.148655 0.148519 0.148377 0.148270 0.148227 0.148219 0.148211 0.148167 0.148056 0.147907 0.147753 0.147598 0.147443 0.147281 0.147160 0.147112 0.147103 0.147094 0.147047 0.146922 0.146757 0.146586 0.146414 0.146243 0.146064 0.145929 0.145875 0.145865 0.145854 0.145800 0.145661 0.145475 0.145283 0.145092 0.144900 0.144704 0.144556 0.144498 0.144487 0.144476 0.144418 0.144268 0.144069 0.143868 0.143667 0.143466 0.143317 0.143204 0.143164 0.143156 0.143149 0.143111 0.143015 0.142887 0.142768 0.142648 0.142529 0.142419 0.142336 0.142305 0.142299 0.142293 0.142262 0.142184 0.142079 0.141983 0.141887 0.141791 0.141702 0.141635 0.141608 0.141603 0.141598 0.141572 0.141510 0.141428 0.141350 0.141271 0.141193 0.141119 0.141063 0.141043 0.141039 0.141035 0.141015 0.140963 0.140894 0.140829 0.140764 0.140699 0.140637 0.140591 0.140573 0.140570 0.140566 0.140548 0.140504 0.140444 0.140386 0.140328 0.140269 0.140211 0.140168 0.140150 0.140147 
0.155207 0.155199 0.155168 0.155093 0.154994 0.154890 0.154785 0.154681 0.154572 0.154489 0.154454 0.154445 0.154436 0.154402 0.154318 0.154206 0.154093 0.153980 0.153866 0.153749 0.153660 0.153623 0.153613 0.153603 0.153566 0.153475 0.153355 0.153231 0.153107 0.152983 0.152856 0.152761 0.152720 0.152709 0.152698 0.152656 0.152556 0.152423 0.152286 0.152150 0.152013 0.151871 0.151765 0.151720 0.151708 0.151697 0.151651 0.151541 0.151396 0.151247 0.151098 0.150949 0.150797 0.150681 0.150632 0.150620 0.150608 0.150559 0.150442 0.150287 0.150130 0.149972 0.149815 0.149657 0.149538 0.149488 0.149476 0.149463 0.149413 0.149304 0.149159 0.149054 0.148950 0.148845 0.148748 0.148675 0.148645 0.148637 0.148629 0.148599 0.148532 0.148443 0.148359 0.148274 0.148190 0.148114 0.148056 0.148032 0.148026 0.148020 0.147996 0.147939 0.147863 0.147796 0.147728 0.147661 0.147594 0.147544 0.147525 0.147521 0.147516 0.147497 0.147451 0.147390 0.147332 0.147274 0.147216 0.147161 0.147119 0.147101 0.147097 0.147092 0.147075 0.147037 0.146986 0.146937 0.146887 0.146837 0.146793 0.146759 0.146745 0.146741 0.146737 0.146723 0.146689 0.146644 0.146603 0.146561 0.146520 0.146479 0.146449 0.146437 0.146434 0.146430 0.146418 0.146389 0.146350 0.146313 0.146275 0.146237 0.146200 0.146172 0.146160 0.146157 0.146154 0.146143 0.146116 0.146081 0.146046 0.146011 0.145976 0.145941 0.145916 0.145905 0.145902 
0.162164 0.162149 0.162102 0.161993 0.161849 0.161703 0.161558 0.161413 0.161264 0.161151 0.161101 0.161087 0.161072 0.161023 0.160911 0.160764 0.160616 0.160468 0.160320 0.160172 0.160059 0.160010 0.159995 0.159981 0.159931 0.159817 0.159666 0.159516 0.159366 0.159216 0.159067 0.158953 0.158902 0.158887 0.158872 0.158822 0.158706 0.158554 0.158400 0.158245 0.158090 0.157935 0.157818 0.157766 0.157751 0.157735 0.157684 0.157566 0.157410 0.157252 0.157093 0.156934 0.156775 0.156654 0.156600 0.156585 0.156569 0.156515 0.156392 0.156231 0.156069 0.155908 0.155746 0.155584 0.155461 0.155407 0.155391 0.155375 0.155321 0.155199 0.155037 0.154876 0.154715 0.154555 0.154395 0.154274 0.154221 0.154206 0.154190 0.154137 0.154040 0.153912 0.153798 0.153685 0.153572 0.153465 0.153384 0.153351 0.153341 0.153331 0.153298 0.153224 0.153127 0.153034 0.152941 0.152848 0.152764 0.152700 0.152673 0.152665 0.152657 0.152629 0.152567 0.152484 0.152411 0.152338 0.152265 0.152192 0.152137 0.152113 0.152106 0.152099 0.152077 0.152028 0.151964 0.151900 0.151836 0.151773 0.151716 0.151673 0.151655 0.151649 0.151644 0.151625 0.151583 0.151526 0.151474 0.151423 0.151371 0.151321 0.151283 0.151267 0.151262 0.151257 0.151240 0.151205 0.151158 0.151115 0.151071 0.151027 0.150984 0.150952 0.150939 0.150935 0.150931 0.150918 0.150889 0.150850 0.150812 0.150774 0.150736 0.150702 0.150676 0.150664 0.150660 0.150657 0.150645 0.150619 0.150584 0.150552 0.150521 0.150490 0.150458 0.150434 0.150423 0.150420 0.150417 0.150407 0.150385 0.150356 0.150327 0.150297 0.150268 0.150240 0.150220 0.150211 0.150208 0.150205 0.150196 0.150175 0.150148 0.150121 0.150095 0.150069 0.150042 0.150023 0.150014 0.150011 
0.170780 0.170769 0.170720 0.170598 0.170437 0.170269 0.170101 0.169934 0.169758 0.169625 0.169570 0.169557 0.169544 0.169489 0.169348 0.169161 0.168968 0.168775 0.168582 0.168378 0.168224 0.168162 0.168148 0.168134 0.168072 0.167920 0.167719 0.167514 0.167308 0.167103 0.166888 0.166725 0.166659 0.166643 0.166627 0.166560 0.166396 0.166178 0.165952 0.165726 0.165499 0.165269 0.165095 0.165023 0.165006 0.164989 0.164917 0.164740 0.164505 0.164265 0.164024 0.163784 0.163543 0.163361 0.163285 0.163267 0.163250 0.163174 0.162990 0.162746 0.162523 0.162299 0.162076 0.161900 0.161768 0.161715 0.161703 0.161691 0.161641 0.161520 0.161360 0.161210 0.161061 0.160911 0.160773 0.160669 0.160627 0.160617 0.160607 0.160566 0.160470 0.160344 0.160222 0.160101 0.159979 0.159866 0.159782 0.159747 0.159738 0.159730 0.159695 0.159612 0.159502 0.159396 0.159289 0.159182 0.159083 0.159007 0.158977 0.158969 0.158962 0.158931 0.158856 0.158757 0.158662 0.158567 0.158472 0.158379 0.158309 0.158281 0.158274 0.158268 0.158240 0.158170 0.158078 0.157989 0.157900 0.157811 0.157722 0.157655 0.157628 0.157622 0.157615 0.157589 0.157523 0.157435 0.157349 0.157262 0.157175 0.157088 0.157022 0.156995 0.156989 0.156983 0.156957 0.156892 0.156806 0.156719 0.156632 0.156545 0.156458 0.156392 0.156364 0.156358 
0.192356 0.192308 0.192065 0.191452 0.190638 0.189837 0.189037 0.188236 0.187464 0.186884 0.186659 0.186615 0.186571 0.186348 0.185790 0.185049 0.184334 0.183620 0.182905 0.182224 0.181711 0.181514 0.181475 0.181436 0.181240 0.180751 0.180100 0.179478 0.178855 0.178232 0.177635 0.177186 0.177012 0.176977 0.176944 0.176772 0.176345 0.175777 0.175234 0.174691 0.174148 0.173625 0.173231 0.173080 0.173050 0.173020 0.172869 0.172491 0.171989 0.171514 0.171039 0.170564 0.170131 0.169805 0.169697 0.169675 0.169654 0.169546 0.169299 0.168970 0.168676 0.168382 0.168089 0.167824 0.167625 0.167551 0.167537 0.167523 0.167454 0.167283 0.167055 0.166849 0.166644 0.166438 0.166250 0.166110 0.166057 0.166047 0.166037 0.165984 0.165854 0.165682 0.165526 0.165371 0.165215 0.165073 0.164966 0.164924 0.164916 0.164907 0.164865 0.164767 0.164636 0.164513 0.164389 0.164266 0.164148 0.164059 0.164027 0.164021 0.164014 0.163983 0.163902 0.163794 0.163691 0.163588 0.163486 0.163388 0.163315 0.163286 0.163281 0.163275 0.163247 0.163175 0.163079 0.162986 0.162893 0.162800 0.162709 0.162641 0.162613 0.162607 
0.215067 0.214967 0.214095 0.211828 0.208799 0.206196 0.203592 0.200989 0.198796 0.197155 0.196600 0.196536 0.196473 0.195929 0.194545 0.192697 0.191123 0.189550 0.187977 0.186603 0.185575 0.185225 0.185185 0.185145 0.184798 0.183914 0.182733 0.181826 0.180920 0.180013 0.179314 0.178791 0.178621 0.178602 0.178582 0.178415 0.178005 0.177458 0.177013 0.176568 0.176123 0.175755 0.175480 0.175384 0.175372 0.175361 0.175265 0.175031 0.174720 0.174454 0.174187 0.173921 0.173682 0.173503 0.173438 0.173430 
