0.277371 0.277313 0.276663 0.272876 0.266877 0.259437 0.251996 0.244555 0.237571 0.233161 0.232250 0.232169 0.232089 0.231196 0.227506 0.221663 0.217139 0.212615 0.208091 0.204496 0.202226 0.201759 0.201717 0.201676 0.201216 0.199279 0.196213 0.193552 0.190891 0.188230 0.185890 0.184413 0.184098 0.184070 0.184042 0.183728 0.182384 0.180255 0.178335 0.176415 0.174494 0.172757 0.171660 0.171423 0.171402 0.171381 0.171146 0.170119 0.168494 0.166986 0.165477 0.163968 0.162545 0.161646 0.161450 0.161432 0.161415 0.161219 0.160365 0.159013 0.157736 0.156459 0.155182 0.153986 0.153230 0.153066 0.153052 0.153037 0.152874 0.152162 0.151033 0.149986 0.148939 0.147891 0.146919 0.146305 0.146172 0.146160 0.146148 0.146015 0.145438 0.144524 0.143674 0.142824 0.141974 0.141183 0.140684 0.140576 0.140566 
0.277373 0.277321 0.276924 0.275628 0.273899 0.271823 0.269748 0.267673 0.265533 0.263929 0.263351 0.263276 0.263201 0.262626 0.261058 0.258966 0.256899 0.254832 0.252765 0.250805 0.249337 0.248817 0.248750 0.248683 0.248166 0.246777 0.244922 0.243160 0.241397 0.239635 0.237945 0.236678 0.236214 0.236154 0.236094 0.235631 0.234429 0.232825 0.231324 0.229823 0.228322 0.226932 0.225890 0.225513 0.225464 0.225415 0.225039 0.224045 0.222719 0.221476 0.220233 0.218990 0.217830 0.216961 0.216650 0.216609 0.216569 0.216259 0.215440 0.214346 0.213324 0.212302 0.211279 0.210312 0.209588 0.209325 0.209291 0.209257 0.208997 0.208312 0.207398 0.206536 0.205675 0.204813 0.203987 0.203368 0.203144 0.203115 0.203086 0.202863 0.202273 0.201485 0.200731 0.199978 0.199224 0.198502 0.197961 0.197766 0.197740 0.197715 0.197520 0.197001 0.196308 0.195639 0.194970 0.194300 0.193653 0.193167 0.192994 0.192972 0.192949 0.192776 0.192311 0.191690 0.191070 0.190450 0.189829 0.189225 0.188771 0.188605 0.188584 0.188562 0.188396 0.187950 0.187355 0.186773 0.186191 0.185610 0.185038 0.184609 0.184451 0.184430 0.184410 0.184252 0.183826 0.183258 0.182699 0.182140 0.181581 0.181027 0.180611 0.180459 0.180440 0.180420 0.180269 0.179864 0.179324 0.178794 0.178263 0.177733 0.177217 0.176831 0.176690 0.176672 0.176653 0.176513 0.176135 0.175631 0.175139 0.174648 0.174156 0.173681 0.173325 0.173195 0.173179 0.173162 0.173033 0.172689 0.172228 0.171784 0.171339 0.170894 0.170463 0.170139 0.170022 0.170006 0.169991 0.169875 0.169564 0.169149 0.168750 0.168350 0.167950 0.167564 0.167275 0.167169 0.167155 0.167142 0.167037 0.166757 0.166383 0.166022 0.165660 0.165299 0.164948 0.164685 0.164589 0.164577 0.164564 0.164469 0.164212 0.163869 0.163535 0.163200 0.162866 0.162539 0.162294 0.162204 0.162193 0.162181 0.162091 0.161849 0.161526 0.161208 0.160891 0.160574 0.160262 0.160028 0.159943 0.159932 0.159921 0.159835 0.159604 0.159296 0.158991 0.158686 0.158381 0.158079 0.157853 0.157770 0.157759 0.157748 0.157665 0.157441 0.157143 0.156848 0.156553 0.156259 0.155967 0.155748 0.155667 0.155657 0.155647 0.155566 0.155350 0.155061 0.154777 0.154493 0.154210 0.153931 0.153722 0.153645 0.153635 0.153625 0.153549 0.153342 0.153065 0.152793 0.152521 0.152250 0.151983 0.151782 0.151709 0.151700 0.151690 0.151617 0.151419 0.151155 0.150896 0.150637 0.150378 0.150123 0.149932 0.149863 0.149854 0.149845 0.149775 0.149587 0.149337 0.149090 0.148843 0.148596 0.148352 0.148170 0.148103 0.148094 0.148086 0.148019 0.147839 0.147600 0.147364 0.147128 0.146891 0.146658 0.146484 0.146420 0.146412 0.146403 0.146340 0.146168 0.145938 0.145711 0.145485 0.145258 0.145034 0.144866 0.144805 0.144797 
0.277456 0.277744 0.281290 0.296078 0.319502 0.330545 0.341589 0.352633 0.348270 0.345515 0.343758 0.343616 0.343495 0.341997 0.332597 0.317707 0.302742 0.287777 0.272812 0.260808 0.253229 0.251723 0.251601 0.251473 0.249887 0.243676 0.233838 0.227075 0.220313 0.213550 0.208782 0.205772 0.205179 0.205131 0.205083 0.204492 0.202000 0.198053 0.194472 0.190892 0.187312 0.183663 0.181359 0.180832 0.180790 0.180747 0.180215 0.177729 0.173792 0.168420 0.163048 0.157676 0.152187 0.148721 0.148026 0.147970 0.147914 0.147231 0.144512 0.140204 0.137164 0.134124 0.131085 0.129073 0.127803 0.127567 0.127548 0.127529 0.127301 0.126426 0.125039 0.124112 0.123185 0.122258 0.121627 0.121229 0.121153 0.121147 0.121140 0.121065 0.120761 0.120277 0.119915 0.119552 0.119189 0.118907 0.118729 0.118692 0.118689 0.118686 0.118650 0.118500 0.118262 0.118066 0.117869 0.117673 0.117508 0.117405 0.117384 0.117382 0.117380 0.117359 0.117270 0.117128 0.117007 0.116886 0.116766 0.116663 0.116598 0.116584 0.116583 0.116582 0.116568 0.116511 0.116421 0.116342 0.116264 0.116186 0.116118 0.116075 0.116067 0.116066 0.116065 0.116056 0.116018 0.115958 0.115906 0.115854 0.115801 0.115756 0.115727 0.115721 0.115720 0.115720 0.115714 0.115688 0.115647 0.115611 0.115575 0.115539 0.115507 0.115487 0.115482 0.115482 0.115482 0.115477 0.115459 0.115430 0.115403 0.115376 0.115349 0.115324 0.115308 0.115305 0.115305 
0.153049 0.153038 0.152972 0.152800 0.152571 0.152328 0.152086 0.151843 0.151590 0.151400 0.151327 0.151314 0.151302 0.151229 0.151034 0.150776 0.150514 0.150253 0.149992 0.149731 0.149535 0.149460 0.149447 0.149434 0.149360 0.149165 0.148905 0.148698 0.148491 0.148284 0.148103 0.147968 0.147919 0.147911 0.147903 0.147857 0.147738 0.147580 0.147438 0.147297 0.147155 0.147031 0.146937 0.146901 0.146895 0.146888 0.146852 0.146764 0.146646 0.146535 0.146424 0.146313 0.146211 0.146134 0.146106 0.146101 0.146097 0.146068 0.145997 0.145903 0.145816 0.145730 0.145643 0.145561 0.145500 0.145478 0.145474 
0.161428 0.161412 0.161349 0.161200 0.161003 0.160805 0.160606 0.160407 0.160206 0.160054 0.159990 0.159973 0.159956 0.159892 0.159738 0.159534 0.159327 0.159121 0.158915 0.158709 0.158554 0.158488 0.158471 0.158454 0.158389 0.158234 0.158030 0.157827 0.157624 0.157421 0.157220 0.157067 0.157003 0.156986 0.156970 0.156906 0.156755 0.156557 0.156359 0.156162 0.155964 0.155773 0.155629 0.155569 0.155553 0.155537 0.155477 0.155335 0.155148 0.154969 0.154790 0.154611 0.154443 0.154316 0.154274 0.154263 0.154252 0.154211 0.154115 0.153988 0.153870 0.153752 0.153633 0.153527 0.153446 0.153413 0.153404 0.153396 0.153362 0.153290 0.153194 0.153107 0.153019 0.152931 0.152852 0.152792 0.152768 0.152761 0.152755 0.152731 0.152675 0.152600 0.152530 0.152461 0.152391 0.152322 0.152270 0.152247 0.152242 0.152236 0.152215 0.152170 0.152110 0.152050 0.151990 0.151929 0.151876 0.151836 0.151819 0.151814 0.151810 0.151792 0.151751 0.151697 0.151649 0.151602 0.151554 0.151506 0.151470 0.151457 0.151453 0.151450 0.151436 0.151404 0.151361 0.151321 0.151280 0.151240 0.151202 0.151173 0.151160 0.151157 0.151154 0.151141 0.151114 0.151078 0.151042 0.151006 0.150970 0.150935 0.150910 0.150899 0.150896 
0.184062 0.184028 0.183918 0.183672 0.183347 0.183022 0.182697 0.182373 0.182047 0.181801 0.181693 0.181660 0.181627 0.181520 0.181277 0.180958 0.180640 0.180323 0.180006 0.179691 0.179453 0.179348 0.179316 0.179285 0.179180 0.178945 0.178634 0.178326 0.178017 0.177709 0.177403 0.177171 0.177069 0.177038 0.177007 0.176904 0.176674 0.176370 0.176069 0.175769 0.175468 0.175169 0.174941 0.174842 0.174811 0.174781 0.174681 0.174458 0.174163 0.173873 0.173583 0.173294 0.173009 0.172792 0.172698 0.172669 0.172640 0.172546 0.172334 0.172054 0.171782 0.171509 0.171236 0.170968 0.170764 0.170675 0.170648 0.170621 0.170534 0.170338 0.170080 0.169827 0.169575 0.169322 0.169082 0.168899 0.168820 0.168796 0.168772 0.168694 0.168517 0.168285 0.168064 0.167843 0.167621 0.167412 0.167252 0.167183 0.167162 0.167141 0.167073 0.166921 0.166722 0.166569 0.166415 0.166262 0.166114 0.166002 0.165954 0.165939 0.165926 0.165884 0.165791 0.165669 0.165549 0.165429 0.165309 0.165206 0.165129 0.165096 0.165086 0.165076 0.165043 0.164968 0.164871 0.164783 0.164695 0.164607 0.164526 0.164465 0.164438 0.164429 0.164421 0.164394 0.164334 0.164255 0.164186 0.164117 0.164049 0.163978 0.163924 0.163900 0.163893 0.163887 0.163868 0.163823 0.163764 0.163704 0.163643 0.163583 0.163530 0.163490 0.163473 0.163467 0.163462 0.163444 0.163404 0.163351 0.163302 0.163253 0.163204 0.163158 0.163124 0.163109 0.163104 0.163099 0.163084 0.163050 0.163006 0.162968 0.162930 0.162892 0.162854 0.162825 0.162812 0.162808 0.162805 0.162794 0.162770 0.162738 0.162706 0.162673 0.162641 0.162613 0.162592 0.162583 0.162580 0.162577 0.162568 0.162547 0.162519 0.162493 0.162468 0.162443 0.162419 0.162401 0.162393 0.162391 
0.201702 0.201639 0.201141 0.199826 0.198071 0.196442 0.194814 0.193185 0.191735 0.190648 0.190278 0.190231 0.190186 0.189825 0.188894 0.187652 0.186485 0.185319 0.184152 0.182998 0.182133 0.181818 0.181778 0.181738 0.181425 0.180591 0.179477 0.178444 0.177411 0.176378 0.175446 0.174748 0.174512 0.174482 0.174452 0.174219 0.173630 0.172845 0.172231 0.171618 0.171004 0.170541 0.170194 0.170075 0.170060 0.170046 0.169934 0.169674 0.169329 0.169063 0.168797 0.168531 0.168318 0.168158 0.168105 0.168099 0.168092 0.168039 0.167911 0.167740 0.167603 0.167466 0.167329 0.167221 0.167140 0.167114 0.167111 
0.232137 0.232009 0.231500 0.230267 0.228634 0.226999 0.225363 0.223727 0.222103 0.220876 0.220374 0.220248 0.220124 0.219630 0.218445 0.216878 0.215399 0.213920 0.212441 0.211094 0.210077 0.209675 0.209574 0.209476 0.209082 0.208195 0.207021 0.205952 0.204882 0.203812 0.202852 0.202126 0.201831 0.201757 0.201684 0.201393 0.200858 0.200150 0.199500 0.198850 0.198199 0.197571 0.197097 0.196903 0.196854 0.196806 0.196613 0.196155 0.195549 0.194958 0.194366 0.193775 0.193186 0.192742 0.192558 0.192512 0.192466 0.192283 0.191847 0.191271 0.190690 0.190109 0.189528 0.188943 0.188502 0.188317 0.188271 0.188225 0.188041 0.187585 0.186981 0.186383 0.185785 0.185186 0.184596 0.184151 0.183968 0.183922 0.183877 0.183695 0.183267 0.182700 0.182154 0.181609 0.181063 0.180545 0.180153 0.179993 0.179953 0.179913 0.179755 0.179383 0.178891 0.178431 0.177971 0.177511 0.177084 0.176761 0.176634 0.176603 0.176571 0.176446 0.176153 0.175766 0.175424 0.175082 0.174740 0.174432 0.174198 0.174103 0.174079 0.174058 0.173972 0.173783 0.173534 0.173305 0.173076 0.172847 0.172659 0.172516 0.172457 0.172442 0.172428 0.172369 0.172242 0.172073 0.171927 0.171781 0.171634 0.171509 0.171415 0.171378 0.171369 0.171360 0.171324 0.171234 0.171116 0.171013 0.170910 0.170807 0.170706 0.170629 0.170601 0.170594 0.170587 0.170561 0.170498 0.170415 0.170334 0.170253 0.170172 0.170099 0.170044 0.170021 0.170015 0.170009 0.169986 0.169937 0.169871 0.169809 0.169747 0.169685 0.169631 0.169589 0.169573 0.169568 0.169564 0.169547 0.169506 0.169452 0.169404 0.169356 0.169308 0.169259 0.169222 0.169208 0.169205 0.169201 0.169187 0.169153 0.169107 0.169063 0.169019 0.168974 0.168931 0.168898 0.168884 0.168881 
0.263218 0.262989 0.262145 0.260198 0.257626 0.255161 0.252696 0.250232 0.247870 0.246083 0.245344 0.245145 0.244948 0.244219 0.242565 0.240378 0.238293 0.236208 0.234123 0.232107 0.230581 0.229951 0.229780 0.229612 0.228988 0.227573 0.225702 0.223922 0.222142 0.220363 0.218776 0.217576 0.217107 0.216981 0.216851 0.216373 0.215299 0.213879 0.212642 0.211406 0.210170 0.209099 0.208288 0.207954 0.207864 0.207775 0.207447 0.206760 0.205853 0.205146 0.204439 0.203732 0.203053 0.202540 0.202326 0.202268 0.202211 0.201998 0.201504 0.200850 0.200223 0.199596 0.198969 0.198372 0.197921 0.197729 0.197677 0.197626 0.197436 0.196991 0.196402 0.195826 0.195249 0.194672 0.194107 0.193680 0.193500 0.193452 0.193404 0.193225 0.192809 0.192260 0.191722 0.191185 0.190648 0.190075 0.189642 0.189460 0.189411 0.189363 0.189184 0.188739 0.188152 0.187583 0.187014 0.186445 0.185891 0.185473 0.185297 0.185249 0.185202 0.185027 0.184622 0.184086 0.183568 0.183049 0.182531 0.182032 0.181654 0.181498 0.181456 0.181414 0.181259 0.180902 0.180429 0.179982 0.179536 0.179089 0.178670 0.178352 0.178219 0.178183 0.178147 0.178015 0.177724 0.177339 0.176990 0.176641 0.176291 0.175993 0.175767 0.175684 0.175661 0.175639 0.175556 0.175366 0.175114 0.174911 0.174708 0.174504 0.174339 0.174215 0.174162 0.174148 0.174134 0.174081 0.173989 0.173868 0.173767 0.173667 0.173566 0.173492 0.173436 0.173417 0.173412 0.173407 0.173387 0.173338 0.173274 0.173225 0.173176 0.173127 0.173086 0.173055 0.173041 0.173037 0.173034 0.173019 0.173000 0.172974 0.172947 0.172920 0.172893 0.172873 0.172858 0.172853 0.172852 0.172850 0.172844 0.172828 0.172807 0.172792 0.172777 0.172762 0.172747 0.172736 0.172730 0.172728 0.172727 0.172721 0.172715 0.172706 0.172696 0.172685 0.172674 0.172666 0.172661 0.172658 0.172657 0.172656 0.172654 0.172645 0.172634 0.172625 0.172616 0.172607 0.172599 0.172594 0.172591 0.172590 0.172590 0.172587 0.172585 0.172583 0.172579 0.172575 0.172571 0.172569 0.172568 0.172567 0.172567 
0.225428 0.225287 0.224869 0.223981 0.222814 0.221710 0.220605 0.219501 0.218457 0.217664 0.217308 0.217188 0.217069 0.216717 0.215971 0.214992 0.214072 0.213152 0.212233 0.211370 0.210713 0.210421 0.210322 0.210223 0.209930 0.209308 0.208491 0.207716 0.206941 0.206166 0.205433 0.204874 0.204625 0.204540 0.204457 0.204210 0.203688 0.203002 0.202354 0.201706 0.201058 0.200445 0.199978 0.199769 0.199698 0.199628 0.199421 0.198981 0.198402 0.197854 0.197306 0.196758 0.196241 0.195847 0.195672 0.195612 0.195553 0.195380 0.195010 0.194525 0.194060 0.193594 0.193129 0.192682 0.192341 0.192188 0.192136 0.192085 0.191933 0.191607 0.191178 0.190765 0.190352 0.189939 0.189537 0.189231 0.189090 0.189042 0.188995 0.188854 0.188549 0.188148 0.187756 0.187365 0.186973 0.186593 0.186304 0.186172 0.186128 0.186083 0.185952 0.185670 0.185299 0.184940 0.184582 0.184224 0.183870 0.183601 0.183478 0.183437 0.183395 0.183272 0.183007 0.182659 0.182328 0.181998 0.181668 0.181346 0.181101 0.180989 0.180952 0.180914 0.180804 0.180572 0.180269 0.179975 0.179682 0.179389 0.179102 0.178884 0.178788 0.178755 0.178724 0.178632 0.178434 0.178174 0.177920 0.177667 0.177413 0.177178 0.176999 0.176922 0.176896 0.176870 0.176794 0.176629 0.176412 0.176206 0.176001 0.175795 0.175625 0.175495 0.175437 0.175417 0.175397 0.175339 0.175214 0.175050 0.174906 0.174761 0.174617 0.174492 0.174397 0.174354 0.174339 0.174325 0.174282 0.174190 0.174068 0.173974 0.173879 0.173784 0.173696 0.173629 0.173598 0.173588 0.173578 0.173547 0.173489 0.173413 0.173350 0.173286 0.173222 0.173159 0.173110 0.173088 0.173080 0.173074 0.173054 0.173021 0.172978 0.172932 0.172886 0.172840 0.172796 0.172762 0.172751 0.172747 0.172743 0.172732 0.172706 0.172673 0.172637 0.172602 0.172567 0.172544 0.172527 0.172519 0.172516 0.172514 0.172506 0.172488 0.172464 0.172443 0.172422 0.172401 0.172386 0.172375 0.172370 0.172368 0.172366 0.172360 0.172348 0.172331 0.172319 0.172308 0.172296 0.172286 0.172279 0.172275 0.172274 0.172272 0.172269 0.172261 0.172252 0.172248 0.172244 0.172241 0.172236 0.172232 0.172230 0.172229 0.172229 0.172226 0.172226 0.172225 0.172224 0.172224 0.172223 0.172221 0.172220 0.172221 0.172221 0.172222 0.172223 0.172225 0.172228 0.172230 0.172232 0.172233 0.172237 0.172240 0.172241 0.172242 0.172243 0.172244 0.172247 0.172252 0.172255 0.172259 0.172263 0.172269 0.172273 0.172275 0.172276 
0.184422 0.184386 0.184255 0.183949 0.183544 0.183148 0.182752 0.182357 0.181974 0.181684 0.181563 0.181529 0.181497 0.181375 0.181096 0.180726 0.180369 0.180011 0.179654 0.179306 0.179042 0.178931 0.178901 0.178870 0.178760 0.178503 0.178163 0.177832 0.177501 0.177171 0.176859 0.176623 0.176523 0.176496 0.176469 0.176369 0.176140 0.175837 0.175544 0.175251 0.174958 0.174669 0.174451 0.174360 0.174335 0.174310 0.174219 0.174011 0.173736 0.173468 0.173200 0.172932 0.172674 0.172479 0.172397 0.172375 0.172352 0.172270 0.172081 0.171831 0.171592 0.171352 0.171113 0.170880 0.170704 0.170632 0.170613 0.170593 0.170522 0.170356 0.170136 0.169927 0.169718 0.169509 0.169313 0.169164 0.169102 0.169085 0.169068 0.169005 0.168867 0.168685 0.168517 0.168349 0.168181 0.168037 0.167928 0.167888 0.167877 0.167866 0.167827 0.167736 0.167616 0.167515 0.167414 0.167313 0.167230 0.167166 0.167140 0.167133 0.167126 0.167100 0.167051 0.166986 0.166930 0.166874 0.166818 0.166776 0.166745 0.166733 0.166730 0.166727 0.166716 0.166690 0.166656 0.166633 0.166610 0.166587 0.166567 0.166553 0.166546 0.166544 0.166542 0.166535 0.166528 0.166519 0.166510 0.166502 0.166493 0.166494 0.166494 0.166495 0.166495 0.166496 0.166496 0.166497 0.166498 0.166505 0.166512 0.166519 0.166526 0.166532 0.166534 0.166535 0.166535 0.166537 0.166548 0.166563 0.166575 0.166587 0.166600 0.166619 0.166633 0.166639 0.166641 0.166642 0.166648 0.166661 0.166679 0.166700 0.166722 0.166744 0.166764 0.166780 0.166787 0.166788 0.166791 0.166798 0.166817 0.166842 0.166866 0.166889 0.166913 0.166939 0.166959 0.166967 0.166969 
0.167150 0.167130 0.167068 0.166933 0.166755 0.166579 0.166403 0.166227 0.166053 0.165921 0.165861 0.165841 0.165822 0.165762 0.165632 0.165461 0.165293 0.165126 0.164958 0.164794 0.164670 0.164613 0.164595 0.164576 0.164520 0.164398 0.164238 0.164083 0.163927 0.163772 0.163620 0.163504 0.163451 0.163434 0.163417 0.163366 0.163254 0.163108 0.162967 0.162825 0.162683 0.162546 0.162442 0.162395 0.162380 0.162364 0.162318 0.162217 0.162084 0.161954 0.161824 0.161695 0.161568 0.161472 0.161429 0.161415 0.161400 0.161357 0.161263 0.161140 0.161017 0.160894 0.160771 0.160651 0.160560 0.160519 0.160505 0.160492 0.160450 0.160360 0.160241 0.160125 0.160010 0.159894 0.159782 0.159697 0.159657 0.159644 0.159631 0.159591 0.159503 0.159388 0.159281 0.159175 0.159068 0.158965 0.158886 0.158851 0.158839 0.158828 0.158793 0.158721 0.158628 0.158540 0.158452 0.158364 0.158280 0.158216 0.158190 0.158181 0.158173 0.158147 0.158091 0.158018 0.157947 0.157876 0.157805 0.157744 0.157698 0.157678 0.157671 0.157664 0.157644 0.157601 0.157544 0.157493 0.157441 0.157390 0.157345 0.157311 0.157296 0.157291 0.157286 0.157270 0.157237 0.157192 0.157156 0.157120 0.157083 0.157049 0.157022 0.157010 0.157006 0.157003 0.156991 0.156968 0.156939 0.156913 0.156888 0.156862 0.156835 0.156815 0.156807 0.156804 0.156802 0.156795 0.156780 0.156760 0.156740 0.156719 0.156699 0.156682 0.156670 0.156665 0.156663 0.156662 0.156657 0.156645 0.156631 0.156617 0.156604 0.156590 0.156580 0.156573 0.156569 0.156568 0.156567 0.156564 0.156556 0.156545 0.156538 0.156530 0.156523 0.156516 0.156511 0.156508 0.156507 0.156506 0.156504 0.156499 0.156493 0.156489 0.156485 0.156481 0.156476 0.156473 0.156471 0.156470 0.156470 0.156469 0.156467 0.156465 0.156463 0.156460 0.156457 0.156454 0.156452 0.156452 0.156452 
0.155654 0.155644 0.155596 0.155480 0.155325 0.155171 0.155016 0.154862 0.154709 0.154594 0.154547 0.154536 0.154526 0.154478 0.154364 0.154211 0.154063 0.153914 0.153766 0.153620 0.153511 0.153466 0.153456 0.153446 0.153402 0.153293 0.153150 0.153009 0.152868 0.152727 0.152589 0.152485 0.152443 0.152434 0.152424 0.152382 0.152280 0.152145 0.152012 0.151879 0.151746 0.151614 0.151515 0.151475 0.151466 0.151456 0.151416 0.151319 0.151190 0.151064 0.150938 0.150812 0.150691 0.150599 0.150562 0.150553 0.150545 0.150508 0.150421 0.150306 0.150202 0.150099 0.149995 0.149921 0.149865 0.149844 0.149839 0.149834 0.149812 0.149767 0.149708 0.149659 0.149611 0.149563 0.149530 0.149505 0.149496 0.149494 0.149491 0.149482 0.149464 0.149440 0.149423 0.149406 0.149389 0.149383 0.149379 0.149377 0.149376 0.149376 0.149373 0.149371 0.149368 0.149371 0.149373 0.149376 0.149386 0.149393 0.149396 0.149397 0.149398 0.149400 0.149408 0.149419 0.149434 0.149449 0.149465 0.149484 0.149499 0.149505 0.149506 0.149508 0.149514 0.149529 0.149549 0.149573 0.149597 0.149620 0.149646 0.149666 0.149674 0.149676 
0.146410 0.146405 0.146387 0.146347 0.146295 0.146242 0.146189 0.146136 0.146082 0.146041 0.146022 0.146016 0.146010 0.145991 0.145950 0.145895 0.145840 0.145785 0.145729 0.145674 0.145632 0.145613 0.145607 0.145601 0.145582 0.145540 0.145485 0.145429 0.145374 0.145318 0.145263 0.145221 0.145202 0.145196 0.145190 0.145172 0.145131 0.145076 0.145022 0.144968 0.144914 0.144859 0.144817 0.144799 0.144793 0.144787 0.144768 0.144728 0.144676 0.144624 0.144573 0.144522 0.144472 0.144434 0.144418 0.144412 0.144407 0.144390 0.144352 0.144303 0.144255 0.144206 0.144157 0.144109 0.144072 0.144056 0.144051 0.144045 0.144029 0.143992 0.143945 0.143899 0.143853 0.143807 0.143761 0.143726 0.143710 0.143705 0.143700 0.143685 0.143651 0.143607 0.143563 0.143518 0.143474 0.143431 0.143398 0.143384 0.143379 0.143375 0.143361 0.143334 0.143298 0.143264 0.143231 0.143197 0.143169 0.143148 0.143138 0.143135 0.143132 0.143123 0.143102 0.143075 0.143053 0.143031 0.143008 0.142988 0.142972 0.142965 0.142963 0.142961 0.142954 0.142941 0.142925 0.142911 0.142897 0.142883 0.142868 0.142857 0.142854 0.142853 0.142852 0.142849 0.142843 0.142834 0.142826 0.142817 0.142809 0.142804 0.142801 0.142800 0.142799 0.142799 0.142798 0.142795 0.142791 0.142789 0.142787 0.142785 0.142785 0.142784 0.142784 0.142784 0.142784 0.142784 0.142784 0.142784 0.142787 0.142790 0.142794 0.142797 0.142799 0.142800 0.142800 0.142801 0.142802 0.142806 0.142812 0.142818 0.142824 0.142830 0.142838 0.142843 0.142846 0.142847 0.142848 0.142851 0.142858 0.142867 0.142876 0.142886 0.142896 0.142907 0.142916 0.142920 0.142921 0.142922 0.142926 0.142935 0.142947 0.142960 0.142974 0.142988 0.143002 0.143013 0.143018 0.143019 
