0.131647 0.131643 0.131590 0.131359 0.130994 0.130667 0.130341 0.130014 0.129716 0.129528 0.129488 0.129484 0.129480 0.129440 0.129258 0.128971 0.128690 0.128409 0.128127 0.127851 0.127677 0.127639 0.127636 0.127632 0.127594 0.127422 0.127150 0.126880 0.126610 0.126340 0.126071 0.125902 0.125864 0.125861 0.125858 0.125820 0.125651 0.125382 0.125117 0.124851 0.124586 0.124324 0.124159 0.124123 0.124120 0.124117 0.124080 0.123919 0.123664 0.123417 0.123170 0.122924 0.122686 0.122536 0.122503 0.122500 0.122497 0.122464 0.122320 0.122091 0.121875 0.121658 0.121442 0.121238 0.121109 0.121081 0.121078 0.121076 0.121048 0.120925 0.120732 0.120550 0.120369 0.120187 0.120017 0.119909 0.119886 0.119884 0.119882 0.119858 0.119756 0.119595 0.119442 0.119290 0.119138 0.118995 0.118904 0.118885 0.118883 
0.131650 0.131656 0.131706 0.131833 0.132002 0.132156 0.132310 0.132464 0.132606 0.132712 0.132750 0.132755 0.132759 0.132797 0.132898 0.133033 0.133165 0.133298 0.133430 0.133563 0.133662 0.133699 0.133704 0.133708 0.133746 0.133847 0.133982 0.134120 0.134259 0.134397 0.134541 0.134648 0.134688 0.134693 0.134699 0.134739 0.134850 0.134998 0.135150 0.135303 0.135456 0.135614 0.135732 0.135776 0.135781 0.135787 0.135831 0.135952 0.136115 0.136282 0.136449 0.136616 0.136787 0.136916 0.136963 0.136969 0.136976 0.137024 0.137155 0.137332 0.137512 0.137692 0.137872 0.138055 0.138193 0.138244 0.138251 0.138257 0.138308 0.138449 0.138637 0.138828 0.139020 0.139212 0.139407 0.139553 0.139607 0.139614 0.139621 0.139676 0.139825 0.140024 0.140227 0.140430 0.140633 0.140840 0.140995 0.141052 0.141060 0.141067 0.141125 0.141283 0.141493 0.141708 0.141922 0.142137 0.142355 0.142518 0.142579 0.142587 0.142594 0.142655 0.142822 0.143044 0.143271 0.143499 0.143727 0.143957 0.144129 0.144194 0.144202 0.144210 0.144274 0.144450 0.144685 0.144925 0.145165 0.145405 0.145650 0.145834 0.145902 0.145910 0.145919 0.145987 0.146174 0.146424 0.146679 0.146934 0.147189 0.147449 0.147644 0.147717 0.147726 0.147735 0.147807 0.148006 0.148271 0.148542 0.148813 0.149084 0.149359 0.149565 0.149642 0.149651 0.149661 0.149738 0.149948 0.150228 0.150515 0.150802 0.151089 0.151381 0.151600 0.151681 0.151691 0.151701 0.151783 0.152006 0.152304 0.152609 0.152913 0.153218 0.153529 0.153761 0.153848 0.153859 0.153870 0.153956 0.154195 0.154513 0.154838 0.155163 0.155488 0.155821 0.156070 0.156162 0.156174 0.156186 0.156279 0.156535 0.156877 0.157227 0.157577 0.157927 0.158287 0.158557 0.158657 0.158669 0.158682 0.158782 0.159058 0.159426 0.159805 0.160183 0.160562 0.160951 0.161243 0.161351 0.161365 0.161378 0.161487 0.161786 0.162185 0.162594 0.163004 0.163413 0.163834 0.164149 0.164265 0.164280 0.164295 0.164412 0.164736 0.165168 0.165611 0.166054 0.166497 0.166949 0.167287 0.167413 0.167429 0.167445 0.167571 0.167917 0.168379 0.168848 0.169318 0.169787 0.170265 0.170623 0.170756 0.170772 0.170789 0.170924 0.171291 0.171782 0.172281 0.172780 0.173280 0.173787 0.174168 0.174308 0.174325 0.174343 0.174484 0.174867 0.175378 0.175897 0.176416 0.176936 0.177466 0.177863 0.178010 0.178028 0.178047 0.178193 0.178596 0.179133 0.179672 0.180212 0.180751 0.181300 0.181711 0.181863 0.181882 0.181901 0.182053 0.182469 0.183024 0.183584 0.184144 0.184703 0.185267 0.185689 0.185845 0.185865 0.185885 0.186041 0.186466 0.187034 0.187604 0.188175 0.188745 0.189319 0.189749 0.189906 0.189926 
0.131648 0.131647 0.131631 0.131543 0.131405 0.131150 0.130894 0.130639 0.130416 0.130275 0.130241 0.130239 0.130236 0.130204 0.130063 0.129839 0.129660 0.129480 0.129301 0.129160 0.129071 0.129052 0.129051 0.129050 0.129031 0.128954 0.128831 0.128710 0.128588 0.128466 0.128323 0.128232 0.128210 0.128208 0.128207 0.128185 0.128067 0.127881 0.127591 0.127301 0.127012 0.126536 0.126236 0.126162 0.126156 0.126150 0.126076 0.125696 0.125095 0.124323 0.123551 0.122779 0.121843 0.121252 0.121122 0.121112 0.121102 0.120972 0.120427 0.119564 0.118918 0.118272 0.117627 0.117195 0.116923 0.116872 0.116868 0.116864 0.116814 0.116618 0.116307 0.116098 0.115888 0.115679 0.115533 0.115442 0.115423 0.115422 0.115420 0.115403 0.115332 0.115220 0.115132 0.115044 0.114957 0.114886 0.114842 0.114833 0.114832 0.114831 0.114822 0.114784 0.114724 0.114672 0.114621 0.114570 0.114526 0.114498 0.114493 0.114492 0.114492 0.114486 0.114462 0.114423 0.114391 0.114358 0.114325 0.114297 0.114279 0.114276 0.114275 0.114275 0.114272 0.114256 0.114232 0.114211 0.114191 0.114170 0.114153 0.114142 0.114139 0.114139 0.114139 0.114137 0.114127 0.114112 0.114100 0.114088 0.114075 0.114065 0.114058 0.114057 0.114057 0.114057 0.114056 0.114050 0.114041 0.114034 0.114027 0.114020 0.114014 0.114011 0.114010 0.114010 0.114010 0.114009 0.114006 0.114001 0.113996 0.113992 0.113988 0.113983 0.113981 0.113980 0.113980 
0.119884 0.119884 0.119885 0.119886 0.119887 0.119888 0.119889 0.119890 0.119890 0.119889 0.119889 0.119889 0.119889 0.119889 0.119887 0.119885 0.119882 0.119879 0.119876 0.119871 0.119867 0.119866 0.119865 0.119865 0.119863 0.119859 0.119853 0.119845 0.119837 0.119829 0.119820 0.119813 0.119809 0.119809 0.119808 0.119804 0.119796 0.119785 0.119772 0.119759 0.119747 0.119733 0.119722 0.119717 0.119716 0.119715 0.119711 0.119698 0.119682 0.119671 0.119660 0.119650 0.119639 0.119631 0.119628 0.119627 0.119626 0.119623 0.119615 0.119604 0.119593 0.119582 0.119571 0.119560 0.119551 0.119548 0.119547 0.119546 0.119543 0.119534 0.119522 0.119510 0.119499 0.119487 0.119475 0.119466 0.119462 0.119461 0.119460 0.119457 0.119448 0.119436 0.119424 0.119413 0.119401 0.119390 0.119381 0.119378 0.119377 0.119376 0.119372 0.119364 0.119353 0.119342 0.119331 0.119320 0.119309 0.119301 0.119298 0.119297 0.119297 0.119293 0.119286 0.119275 0.119265 0.119255 0.119245 0.119235 0.119227 0.119224 0.119224 
0.124120 0.124120 0.124119 0.124117 0.124114 0.124110 0.124106 0.124102 0.124097 0.124093 0.124091 0.124090 0.124090 0.124088 0.124083 0.124077 0.124069 0.124061 0.124054 0.124044 0.124037 0.124034 0.124033 0.124032 0.124029 0.124021 0.124010 0.123997 0.123985 0.123972 0.123959 0.123948 0.123944 0.123942 0.123941 0.123937 0.123925 0.123908 0.123891 0.123874 0.123857 0.123837 0.123822 0.123816 0.123814 0.123813 0.123806 0.123791 0.123770 0.123747 0.123724 0.123700 0.123676 0.123657 0.123649 0.123647 0.123645 0.123636 0.123616 0.123590 0.123562 0.123533 0.123505 0.123482 0.123464 0.123459 0.123457 0.123456 0.123450 0.123437 0.123420 0.123403 0.123385 0.123368 0.123351 0.123338 0.123333 0.123331 0.123330 0.123324 0.123311 0.123294 0.123277 0.123260 0.123243 0.123226 0.123213 0.123208 0.123206 0.123205 0.123200 0.123187 0.123170 0.123153 0.123136 0.123119 0.123103 0.123090 0.123085 0.123083 0.123082 0.123077 0.123064 0.123048 0.123032 0.123015 0.122999 0.122983 0.122971 0.122966 0.122965 0.122964 0.122959 0.122947 0.122931 0.122916 0.122901 0.122886 0.122871 0.122859 0.122855 0.122853 0.122852 0.122847 0.122837 0.122822 0.122808 0.122793 0.122779 0.122765 0.122755 0.122750 0.122749 
0.127636 0.127636 0.127637 0.127640 0.127643 0.127646 0.127648 0.127651 0.127651 0.127652 0.127652 0.127652 0.127652 0.127652 0.127651 0.127650 0.127649 0.127647 0.127645 0.127642 0.127640 0.127638 0.127638 0.127638 0.127636 0.127633 0.127629 0.127623 0.127617 0.127612 0.127605 0.127601 0.127599 0.127598 0.127597 0.127595 0.127590 0.127584 0.127579 0.127573 0.127568 0.127562 0.127557 0.127555 0.127554 0.127554 0.127552 0.127547 0.127540 0.127533 0.127526 0.127519 0.127511 0.127505 0.127502 0.127501 0.127500 0.127497 0.127490 0.127480 0.127469 0.127458 0.127446 0.127434 0.127424 0.127419 0.127418 0.127416 0.127411 0.127400 0.127384 0.127368 0.127351 0.127335 0.127315 0.127301 0.127294 0.127292 0.127290 0.127284 0.127268 0.127248 0.127225 0.127202 0.127178 0.127154 0.127136 0.127127 0.127125 0.127122 0.127114 0.127093 0.127066 0.127037 0.127009 0.126980 0.126950 0.126927 0.126916 0.126913 0.126910 0.126900 0.126884 0.126863 0.126842 0.126821 0.126801 0.126780 0.126764 0.126757 0.126755 0.126753 0.126746 0.126730 0.126710 0.126689 0.126669 0.126649 0.126628 0.126613 0.126606 0.126604 0.126602 0.126595 0.126580 0.126560 0.126540 0.126520 0.126500 0.126480 0.126465 0.126458 0.126456 0.126454 0.126448 0.126433 0.126413 0.126394 0.126374 0.126355 0.126335 0.126321 0.126314 0.126312 0.126310 0.126304 0.126289 0.126270 0.126251 0.126232 0.126213 0.126194 0.126180 0.126174 0.126172 0.126170 0.126164 0.126150 0.126132 0.126114 0.126096 0.126078 0.126060 0.126047 0.126041 0.126039 0.126037 0.126032 0.126018 0.126001 0.125984 0.125967 0.125949 0.125933 0.125920 0.125914 0.125913 0.125911 0.125905 0.125892 0.125876 0.125859 0.125843 0.125827 0.125810 0.125797 0.125792 0.125790 0.125789 0.125783 0.125771 0.125755 0.125739 0.125722 0.125706 0.125690 0.125678 0.125672 0.125671 0.125669 0.125664 0.125651 0.125635 0.125619 0.125603 0.125587 0.125570 0.125558 0.125553 0.125551 
0.129484 0.129486 0.129492 0.129505 0.129522 0.129530 0.129537 0.129545 0.129544 0.129543 0.129541 0.129540 0.129540 0.129538 0.129530 0.129519 0.129503 0.129486 0.129469 0.129448 0.129432 0.129426 0.129424 0.129423 0.129416 0.129396 0.129370 0.129352 0.129333 0.129315 0.129296 0.129282 0.129276 0.129275 0.129274 0.129268 0.129251 0.129229 0.129204 0.129179 0.129154 0.129126 0.129105 0.129096 0.129094 0.129092 0.129083 0.129058 0.129025 0.128990 0.128955 0.128919 0.128882 0.128854 0.128843 0.128840 0.128838 0.128826 0.128793 0.128750 0.128699 0.128648 0.128597 0.128540 0.128498 0.128483 0.128480 0.128477 0.128462 0.128424 0.128373 0.128322 0.128272 0.128221 0.128172 0.128135 0.128120 0.128118 0.128115 0.128101 0.128065 0.128017 0.127972 0.127926 0.127881 0.127837 0.127805 0.127792 0.127790 0.127788 0.127775 0.127744 0.127702 0.127662 0.127623 0.127583 0.127546 0.127519 0.127508 0.127506 0.127503 0.127493 0.127466 0.127430 0.127396 0.127362 0.127328 0.127296 0.127271 0.127262 0.127260 0.127258 0.127249 0.127225 0.127194 0.127164 0.127133 0.127103 0.127073 0.127050 0.127041 0.127039 0.127038 0.127029 0.127007 0.126977 0.126947 0.126918 0.126888 0.126858 0.126835 0.126826 0.126825 
0.133703 0.133702 0.133697 0.133684 0.133666 0.133646 0.133625 0.133604 0.133580 0.133562 0.133555 0.133553 0.133551 0.133543 0.133523 0.133496 0.133467 0.133438 0.133410 0.133379 0.133356 0.133346 0.133343 0.133341 0.133331 0.133307 0.133274 0.133240 0.133206 0.133171 0.133136 0.133109 0.133098 0.133096 0.133093 0.133082 0.133054 0.133017 0.132985 0.132953 0.132920 0.132892 0.132871 0.132861 0.132859 0.132857 0.132848 0.132825 0.132794 0.132762 0.132730 0.132698 0.132663 0.132637 0.132626 0.132623 0.132621 0.132609 0.132583 0.132549 0.132515 0.132482 0.132448 0.132411 0.132382 0.132370 0.132367 0.132364 0.132351 0.132319 0.132276 0.132230 0.132183 0.132136 0.132084 0.132045 0.132029 0.132024 0.132020 0.132003 0.131962 0.131907 0.131847 0.131786 0.131726 0.131663 0.131616 0.131595 0.131590 0.131585 0.131564 0.131513 0.131445 0.131391 0.131336 0.131282 0.131228 0.131188 0.131172 0.131168 0.131164 0.131148 0.131109 0.131059 0.131010 0.130961 0.130912 0.130865 0.130829 0.130814 0.130811 0.130807 0.130793 0.130759 0.130714 0.130671 0.130628 0.130584 0.130544 0.130514 0.130501 0.130498 0.130495 0.130482 0.130451 0.130411 0.130373 0.130336 0.130298 0.130262 0.130234 0.130224 0.130221 0.130218 0.130207 0.130181 0.130146 0.130113 0.130080 0.130047 0.130015 0.129990 0.129980 0.129978 0.129976 0.129966 0.129943 0.129913 0.129884 0.129854 0.129824 0.129796 0.129774 0.129765 0.129763 0.129760 0.129751 0.129731 0.129703 0.129675 0.129648 0.129620 0.129594 0.129573 0.129565 0.129563 0.129561 0.129552 0.129532 0.129505 0.129478 0.129452 0.129425 0.129398 0.129378 0.129370 0.129368 
0.134693 0.134692 0.134689 0.134682 0.134671 0.134660 0.134648 0.134637 0.134623 0.134613 0.134608 0.134607 0.134606 0.134601 0.134589 0.134574 0.134558 0.134541 0.134525 0.134507 0.134493 0.134487 0.134485 0.134483 0.134477 0.134462 0.134443 0.134422 0.134401 0.134380 0.134359 0.134342 0.134334 0.134332 0.134330 0.134322 0.134305 0.134282 0.134259 0.134235 0.134212 0.134189 0.134171 0.134163 0.134161 0.134159 0.134152 0.134136 0.134115 0.134094 0.134074 0.134053 0.134035 0.134021 0.134015 0.134013 0.134011 0.134005 0.133990 0.133971 0.133952 0.133932 0.133913 0.133891 0.133873 0.133865 0.133863 0.133861 0.133853 0.133834 0.133809 0.133781 0.133753 0.133725 0.133694 0.133671 0.133661 0.133658 0.133655 0.133644 0.133618 0.133583 0.133546 0.133509 0.133471 0.133432 0.133401 0.133387 0.133383 0.133379 0.133365 0.133332 0.133289 0.133243 0.133197 0.133151 0.133101 0.133064 0.133047 0.133042 0.133038 0.133021 0.132986 0.132940 0.132902 0.132863 0.132824 0.132786 0.132757 0.132745 0.132741 0.132738 0.132726 0.132698 0.132661 0.132625 0.132590 0.132554 0.132520 0.132495 0.132484 0.132480 0.132477 0.132466 0.132441 0.132408 0.132377 0.132346 0.132314 0.132284 0.132261 0.132251 0.132248 0.132245 0.132235 0.132213 0.132185 0.132157 0.132129 0.132102 0.132075 0.132055 0.132047 0.132044 0.132042 0.132033 0.132014 0.131989 0.131964 0.131939 0.131915 0.131891 0.131873 0.131866 0.131863 0.131861 0.131853 0.131836 0.131813 0.131791 0.131770 0.131748 0.131727 0.131710 0.131703 0.131701 0.131699 0.131692 0.131677 0.131657 0.131637 0.131616 0.131596 0.131577 0.131563 0.131556 0.131554 0.131552 0.131546 0.131531 0.131512 0.131493 0.131474 0.131455 0.131437 0.131423 0.131416 0.131414 0.131413 0.131406 0.131393 0.131374 0.131356 0.131338 0.131320 0.131302 0.131288 0.131283 0.131281 0.131279 0.131273 0.131260 0.131242 0.131225 0.131207 0.131190 0.131172 0.131159 0.131154 0.131152 
0.136969 0.136967 0.136960 0.136939 0.136912 0.136880 0.136849 0.136817 0.136782 0.136755 0.136744 0.136741 0.136739 0.136727 0.136696 0.136656 0.136613 0.136570 0.136527 0.136482 0.136447 0.136433 0.136430 0.136427 0.136412 0.136377 0.136330 0.136281 0.136232 0.136183 0.136132 0.136093 0.136077 0.136074 0.136070 0.136054 0.136013 0.135959 0.135898 0.135836 0.135775 0.135708 0.135658 0.135637 0.135632 0.135628 0.135606 0.135552 0.135479 0.135398 0.135318 0.135238 0.135152 0.135087 0.135061 0.135055 0.135050 0.135023 0.134955 0.134864 0.134783 0.134702 0.134621 0.134556 0.134508 0.134489 0.134485 0.134481 0.134462 0.134416 0.134355 0.134298 0.134240 0.134183 0.134129 0.134088 0.134072 0.134068 0.134065 0.134049 0.134010 0.133959 0.133910 0.133861 0.133812 0.133766 0.133730 0.133716 0.133713 0.133711 0.133696 0.133663 0.133619 0.133576 0.133533 0.133490 0.133449 0.133417 0.133405 0.133403 0.133400 0.133388 0.133359 0.133320 0.133282 0.133245 0.133207 0.133170 0.133142 0.133132 0.133129 0.133127 0.133117 0.133090 0.133055 0.133021 0.132986 0.132952 0.132918 0.132892 0.132882 0.132880 0.132878 0.132868 0.132843 0.132809 0.132776 0.132743 0.132710 0.132677 0.132653 0.132643 0.132641 
0.139614 0.139611 0.139585 0.139510 0.139408 0.139286 0.139164 0.139041 0.138902 0.138798 0.138758 0.138754 0.138749 0.138710 0.138596 0.138444 0.138273 0.138103 0.137933 0.137742 0.137599 0.137545 0.137539 0.137533 0.137478 0.137319 0.137106 0.136875 0.136644 0.136412 0.136227 0.136089 0.136046 0.136041 0.136037 0.135996 0.135891 0.135749 0.135624 0.135498 0.135373 0.135260 0.135176 0.135147 0.135144 0.135141 0.135112 0.135035 0.134933 0.134839 0.134745 0.134651 0.134565 0.134501 0.134478 0.134475 0.134473 0.134450 0.134389 0.134308 0.134231 0.134153 0.134075 0.133999 0.133942 0.133921 0.133918 
0.141059 0.141057 0.141046 0.141020 0.140985 0.140944 0.140903 0.140862 0.140816 0.140782 0.140767 0.140764 0.140760 0.140745 0.140706 0.140655 0.140599 0.140542 0.140486 0.140426 0.140382 0.140363 0.140359 0.140355 0.140335 0.140287 0.140223 0.140155 0.140088 0.140020 0.139949 0.139896 0.139874 0.139869 0.139864 0.139841 0.139785 0.139710 0.139633 0.139555 0.139477 0.139396 0.139334 0.139309 0.139303 0.139297 0.139270 0.139204 0.139116 0.139024 0.138932 0.138840 0.138744 0.138672 0.138643 0.138636 0.138629 0.138598 0.138523 0.138422 0.138318 0.138213 0.138109 0.138014 0.137942 0.137919 0.137914 0.137909 0.137886 0.137832 0.137759 0.137690 0.137622 0.137553 0.137488 0.137438 0.137419 0.137414 0.137410 0.137391 0.137345 0.137283 0.137224 0.137165 0.137105 0.137048 0.137004 0.136987 0.136983 0.136979 0.136962 0.136921 0.136865 0.136811 0.136757 0.136704 0.136651 0.136611 0.136595 0.136591 0.136588 0.136572 0.136534 0.136483 0.136433 0.136383 0.136333 0.136284 0.136247 0.136232 0.136229 0.136226 0.136211 0.136175 0.136128 0.136082 0.136035 0.135988 0.135942 0.135908 0.135894 0.135891 0.135888 0.135874 0.135840 0.135795 0.135750 0.135706 0.135661 0.135616 0.135582 0.135569 0.135566 
0.142586 0.142583 0.142575 0.142560 0.142539 0.142518 0.142496 0.142475 0.142452 0.142435 0.142426 0.142423 0.142419 0.142411 0.142392 0.142367 0.142341 0.142316 0.142290 0.142263 0.142243 0.142233 0.142229 0.142224 0.142214 0.142192 0.142164 0.142135 0.142106 0.142077 0.142048 0.142026 0.142015 0.142010 0.142006 0.141995 0.141972 0.141942 0.141910 0.141879 0.141848 0.141816 0.141792 0.141780 0.141775 0.141770 0.141758 0.141733 0.141701 0.141667 0.141633 0.141599 0.141564 0.141538 0.141525 0.141519 0.141514 0.141501 0.141474 0.141439 0.141402 0.141366 0.141329 0.141293 0.141265 0.141250 0.141245 0.141239 0.141225 0.141196 0.141159 0.141121 0.141083 0.141045 0.141007 0.140977 0.140962 0.140956 0.140950 0.140935 0.140905 0.140866 0.140826 0.140786 0.140746 0.140704 0.140673 0.140657 0.140650 0.140644 0.140628 0.140596 0.140555 0.140512 0.140470 0.140427 0.140384 0.140350 0.140333 0.140326 0.140320 0.140303 0.140269 0.140224 0.140179 0.140134 0.140089 0.140042 0.140007 0.139989 0.139981 0.139974 0.139956 0.139920 0.139873 0.139824 0.139776 0.139728 0.139678 0.139641 0.139622 0.139614 0.139606 0.139588 0.139549 0.139499 0.139449 0.139399 0.139349 0.139298 0.139259 0.139240 0.139232 0.139224 0.139204 0.139164 0.139112 0.139060 0.139008 0.138956 0.138903 0.138862 0.138846 0.138840 0.138834 0.138821 0.138793 0.138758 0.138723 0.138688 0.138653 0.138620 0.138594 0.138582 0.138577 0.138572 0.138560 0.138536 0.138504 0.138473 0.138442 0.138411 0.138381 0.138358 0.138346 0.138342 0.138337 0.138326 0.138305 0.138276 0.138248 0.138220 0.138192 0.138164 0.138143 0.138133 0.138128 0.138124 0.138114 0.138094 0.138067 0.138041 0.138015 0.137990 0.137964 0.137944 0.137934 0.137930 0.137926 0.137916 0.137897 0.137873 0.137849 0.137825 0.137801 0.137777 0.137758 0.137749 0.137746 0.137742 0.137733 0.137715 0.137692 0.137670 0.137647 0.137625 0.137603 0.137585 0.137577 0.137573 0.137570 0.137562 0.137544 0.137522 0.137501 0.137480 0.137459 0.137437 0.137421 0.137413 0.137410 0.137407 0.137399 0.137383 0.137362 0.137342 0.137321 0.137301 0.137282 0.137266 0.137259 0.137256 0.137253 0.137245 0.137230 0.137210 0.137191 0.137171 0.137152 0.137133 0.137119 0.137112 0.137109 0.137106 0.137099 0.137084 0.137065 0.137046 0.137028 0.137009 0.136991 0.136977 0.136970 0.136968 0.136965 0.136958 0.136944 0.136926 0.136908 0.136889 0.136871 0.136854 0.136840 0.136834 0.136831 0.136828 0.136822 0.136808 0.136790 0.136772 0.136754 0.136737 0.136719 0.136706 0.136699 0.136697 0.136694 0.136687 0.136674 0.136656 0.136639 0.136621 0.136603 0.136585 0.136572 0.136565 0.136563 0.136560 0.136554 0.136540 0.136523 0.136505 0.136487 0.136470 0.136452 0.136439 0.136432 0.136429 0.136427 0.136420 0.136407 0.136389 0.136371 0.136354 0.136336 0.136318 0.136304 0.136297 0.136295 
0.153857 0.153851 0.153826 0.153762 0.153679 0.153587 0.153496 0.153404 0.153304 0.153229 0.153196 0.153188 0.153180 0.153147 0.153065 0.152956 0.152841 0.152726 0.152612 0.152490 0.152398 0.152359 0.152350 0.152340 0.152300 0.152204 0.152077 0.151943 0.151809 0.151676 0.151539 0.151435 0.151391 0.151380 0.151369 0.151325 0.151219 0.151078 0.150933 0.150788 0.150644 0.150498 0.150389 0.150342 0.150331 0.150319 0.150272 0.150159 0.150010 0.149861 0.149711 0.149562 0.149411 0.149297 0.149249 0.149238 0.149226 0.149179 0.149064 0.148912 0.148759 0.148607 0.148455 0.148301 0.148184 0.148136 0.148124 0.148112 0.148064 0.147948 0.147795 0.147640 0.147484 0.147328 0.147171 0.147053 0.147004 0.146991 0.146979 0.146930 0.146811 0.146654 0.146501 0.146348 0.146196 0.146078 0.145989 0.145953 0.145944 0.145936 0.145902 0.145822 0.145716 0.145616 0.145516 0.145416 0.145323 0.145252 0.145224 0.145216 0.145209 0.145180 0.145116 0.145030 0.144948 0.144867 0.144785 0.144711 0.144655 0.144632 0.144626 0.144620 0.144597 0.144542 0.144469 0.144402 0.144336 0.144270 0.144206 0.144158 0.144139 0.144134 0.144130 0.144111 0.144066 0.144005 0.143949 0.143893 0.143836 0.143781 0.143739 0.143722 0.143718 0.143714 0.143698 0.143660 0.143609 0.143560 0.143511 0.143461 0.143415 0.143379 0.143364 0.143361 0.143357 0.143342 0.143308 0.143263 0.143219 0.143175 0.143130 0.143089 0.143058 0.143045 0.143042 0.143039 0.143026 0.142994 0.142952 0.142913 0.142874 0.142834 0.142795 0.142765 0.142753 0.142750 
0.158668 0.158660 0.158625 0.158528 0.158401 0.158256 0.158111 0.157966 0.157805 0.157683 0.157632 0.157621 0.157611 0.157559 0.157422 0.157240 0.157041 0.156842 0.156643 0.156435 0.156279 0.156215 0.156202 0.156190 0.156126 0.155962 0.155744 0.155517 0.155289 0.155061 0.154827 0.154650 0.154581 0.154567 0.154553 0.154483 0.154307 0.154072 0.153837 0.153602 0.153367 0.153133 0.152956 0.152887 0.152873 0.152859 0.152789 0.152613 0.152379 0.152146 0.151913 0.151680 0.151447 0.151271 0.151201 0.151187 0.151172 0.151102 0.150926 0.150691 0.150492 0.150292 0.150093 0.149916 0.149783 0.149733 0.149722 0.149712 0.149663 0.149542 0.149381 0.149233 0.149084 0.148936 0.148798 0.148694 0.148654 0.148646 0.148638 0.148599 0.148501 0.148372 0.148251 0.148130 0.148008 0.147894 0.147808 0.147774 0.147767 0.147760 0.147727 0.147645 0.147536 0.147432 0.147328 0.147223 0.147122 0.147046 0.147016 0.147010 0.147004 0.146975 0.146904 0.146808 0.146715 0.146622 0.146529 0.146437 0.146368 0.146342 0.146337 0.146331 0.146305 0.146238 0.146149 0.146063 0.145976 0.145889 0.145803 0.145739 0.145713 0.145708 
0.170768 0.170750 0.170667 0.170457 0.170178 0.169881 0.169584 0.169287 0.168974 0.168738 0.168641 0.168620 0.168598 0.168499 0.168249 0.167917 0.167584 0.167250 0.166917 0.166578 0.166323 0.166220 0.166197 0.166175 0.166070 0.165809 0.165463 0.165115 0.164768 0.164421 0.164079 0.163822 0.163718 0.163696 0.163673 0.163569 0.163312 0.162971 0.162634 0.162296 0.161958 0.161628 0.161379 0.161279 0.161257 0.161236 0.161136 0.160890 0.160564 0.160242 0.159919 0.159596 0.159278 0.159038 0.158943 0.158922 0.158902 0.158807 0.158571 0.158259 0.157952 0.157646 0.157339 0.157070 0.156867 0.156798 0.156783 0.156769 0.156701 0.156538 0.156321 0.156126 0.155931 0.155736 0.155553 0.155415 0.155364 0.155353 0.155342 0.155291 0.155167 0.155001 0.154849 0.154696 0.154544 0.154399 0.154289 0.154249 0.154240 0.154231 0.154191 0.154091 0.153958 0.153833 0.153709 0.153584 0.153464 0.153373 0.153340 0.153332 0.153325 0.153292 0.153208 0.153098 0.152992 0.152886 0.152781 0.152678 0.152601 0.152572 0.152566 0.152559 0.152530 0.152458 0.152361 0.152269 0.152177 0.152085 0.151994 0.151925 0.151900 0.151894 
0.181874 0.181842 0.181741 0.181514 0.181216 0.180914 0.180611 0.180309 0.180002 0.179768 0.179662 0.179628 0.179594 0.179487 0.179249 0.178937 0.178626 0.178314 0.178003 0.177692 0.177455 0.177349 0.177315 0.177281 0.177175 0.176941 0.176632 0.176322 0.176013 0.175704 0.175394 0.175159 0.175053 0.175019 0.174986 0.174880 0.174648 0.174343 0.174041 0.173739 0.173437 0.173142 0.172917 0.172817 0.172785 0.172753 0.172654 0.172434 0.172145 0.171860 0.171575 0.171290 0.171008 0.170794 0.170697 0.170667 0.170636 0.170540 0.170328 0.170049 0.169777 0.169506 0.169235 0.168970 0.168770 0.168680 0.168652 0.168623 0.168534 0.168338 0.168080 0.167824 0.167568 0.167312 0.167059 0.166867 0.166781 0.166754 0.166726 0.166641 0.166452 0.166203 0.165961 0.165719 0.165478 0.165240 0.165059 0.164978 0.164952 0.164926 0.164845 0.164671 0.164441 0.164216 0.163992 0.163767 0.163571 0.163423 0.163365 0.163346 0.163327 0.163270 0.163144 0.162979 0.162820 0.162662 0.162503 0.162362 0.162255 0.162208 0.162193 0.162178 0.162132 0.162031 0.161897 0.161774 0.161650 0.161526 0.161412 0.161325 0.161286 0.161273 0.161261 0.161222 0.161136 0.161023 0.160922 0.160822 0.160721 0.160623 0.160549 0.160516 0.160505 0.160495 0.160461 0.160393 0.160303 0.160216 0.160130 0.160044 0.159958 0.159892 0.159864 0.159855 0.159847 0.159821 0.159764 0.159688 0.159613 0.159537 0.159461 0.159392 0.159339 0.159317 0.159309 0.159302 0.159279 0.159229 0.159162 0.159097 0.159033 0.158968 0.158909 0.158864 0.158843 0.158837 0.158830 0.158810 0.158765 0.158706 0.158652 0.158598 0.158544 0.158491 0.158452 0.158434 0.158428 0.158422 0.158404 0.158365 0.158314 0.158267 0.158220 0.158173 0.158125 0.158089 0.158073 0.158067 0.158062 0.158047 0.158015 0.157972 0.157929 0.157885 0.157842 0.157799 0.157767 0.157753 0.157749 
