-2.088184 -1.388649 1.721545
-1.561838 -1.562701 3.120878
-1.059553 -1.691339 4.531093
-0.848007 -1.319949 5.975392
-0.630347 -0.956581 7.423960
-2.087634 -1.388599 1.723467
-1.562603 -1.562337 3.119066
-1.561074 -1.563064 3.122689
-1.060031 -1.691513 4.529159
-1.059075 -1.691165 4.533027
-0.848240 -1.320515 5.973488
-0.847774 -1.319384 5.977296
-0.630660 -0.957024 7.422035
-2.078927 -1.387819 1.753929
-1.574723 -1.556572 3.090356
-1.548982 -1.568772 3.151422
-1.067605 -1.694269 4.498510
-1.051995 -1.687574 4.563703
-0.851934 -1.329479 5.943316
-0.843987 -1.310561 6.007497
-0.635618 -0.964052 7.391533
-2.037614 -1.386727 1.893245
-1.965490 -1.397234 2.111653
-1.886874 -1.420120 2.326875
-1.803856 -1.451699 2.539339
-1.717913 -1.489202 2.749677
-1.630302 -1.530138 2.958689
-1.493678 -1.594632 3.283319
-1.407262 -1.633103 3.493291
-1.323613 -1.665949 3.705319
-1.244046 -1.690695 3.919985
-1.170185 -1.704466 4.137635
-1.104152 -1.703782 4.358191
-1.021621 -1.667617 4.704401
-0.980851 -1.624053 4.926781
-0.947570 -1.568720 5.147818
-0.919188 -1.505902 5.367549
-0.893510 -1.439023 5.586420
-0.868448 -1.371225 5.805083
-0.825998 -1.271031 6.146196
-0.795624 -1.211231 6.366509
-0.763207 -1.154556 6.587358
-0.729222 -1.100302 6.808580
-0.694128 -1.047766 7.030043
-0.658352 -0.996294 7.251648
75 NaN NaN
-2.088321 -1.388661 1.721064
-2.060575 -1.386174 1.818133
-2.031053 -1.386885 1.914707
-1.999950 -1.390502 2.010720
-1.967453 -1.396735 2.106135
-1.933734 -1.405300 2.200944
-1.898957 -1.415919 2.295162
-1.863272 -1.428327 2.388821
-1.826817 -1.442270 2.481967
-1.789722 -1.457504 2.574656
-1.752107 -1.473797 2.666956
-1.714085 -1.490926 2.758937
-1.675762 -1.508676 2.850676
-1.637241 -1.526837 2.942251
-1.598621 -1.545205 3.033743
-1.560000 -1.563575 3.125233
-1.521473 -1.581747 3.216804
-1.483141 -1.599517 3.308535
-1.445103 -1.616678 3.400503
-1.407465 -1.633020 3.492785
-1.370336 -1.648323 3.585450
-1.333832 -1.662364 3.678561
-1.298079 -1.674907 3.772176
-1.263209 -1.685708 3.866339
-1.229365 -1.694514 3.961082
-1.196701 -1.701062 4.056420
-1.165382 -1.705082 4.152346
-1.135582 -1.706300 4.248830
-1.107483 -1.704443 4.345812
-1.081273 -1.699244 4.443200
-1.057138 -1.690460 4.540865
-1.035118 -1.678105 4.638644
-1.015056 -1.662516 4.736384
-0.996771 -1.644053 4.833973
-0.980069 -1.623071 4.931338
-0.964756 -1.599915 5.028438
-0.950635 -1.574916 5.125263
-0.937513 -1.548391 5.221822
-0.925198 -1.520643 5.318144
-0.913505 -1.491961 5.414270
-0.902248 -1.462627 5.510251
-0.891247 -1.432911 5.606145
-0.880322 -1.403083 5.702012
-0.869293 -1.373408 5.797916
-0.857981 -1.344156 5.893916
-0.846211 -1.315589 5.990067
-0.833921 -1.287803 6.086381
-0.821144 -1.260755 6.182842
-0.807913 -1.234394 6.279432
-0.794266 -1.208670 6.376136
-0.780236 -1.183530 6.472939
-0.765862 -1.158920 6.569828
-0.751179 -1.134785 6.666789
-0.736225 -1.111070 6.763813
-0.721038 -1.087718 6.860889
-0.705653 -1.064672 6.958007
-0.690110 -1.041873 7.055157
-0.674445 -1.019263 7.152333
-0.658697 -0.996783 7.249525
-0.642903 -0.974375 7.346726
-0.627101 -0.951980 7.443929
-0.611328 -0.929537 7.541126
-0.595624 -0.906990 7.638310
-0.580025 -0.884277 7.735472
-0.564569 -0.861342 7.832605
-0.549294 -0.838125 7.929699
-0.534237 -0.814569 8.026746
-0.519436 -0.790618 8.123735
-0.504928 -0.766214 8.220656
-0.490749 -0.741304 8.317496
-0.476937 -0.715831 8.414243
-0.463527 -0.689744 8.510883
-0.450555 -0.662991 8.607400
-0.438056 -0.635520 8.703779
-0.426065 -0.607285 8.800000
-2.087962 -1.388602 1.720721
-1.447585 -1.284114 1.108506
-0.807207 -1.179625 0.496292
-2.086527 -1.388368 1.719348
-1.449020 -1.284348 1.109879
-1.446149 -1.283880 1.107134
-0.808643 -1.179860 0.497664
-2.071403 -1.385900 1.704890
-1.464144 -1.286816 1.124338
-1.431025 -1.281412 1.092675
-0.823767 -1.182327 0.512123
-2.009092 -1.375733 1.645319
-1.912565 -1.359983 1.553037
-1.816037 -1.344233 1.460755
-1.719510 -1.328483 1.368472
-1.622982 -1.312733 1.276190
-1.526455 -1.296983 1.183908
-1.368714 -1.271245 1.033105
-1.272187 -1.255495 0.940822
-1.175660 -1.239745 0.848540
-1.079132 -1.223995 0.756258
-0.982605 -1.208245 0.663976
-0.886078 -1.192494 0.571693
25 NaN NaN
-2.088321 -1.388661 1.721064
-2.013311 -1.376422 1.649353
-1.938302 -1.364183 1.577642
-1.863292 -1.351944 1.505931
-1.788282 -1.339704 1.434220
-1.713272 -1.327465 1.362509
-1.638262 -1.315226 1.290798
-1.563252 -1.302987 1.219087
-1.488243 -1.290748 1.147376
-1.413233 -1.278509 1.075665
-1.338223 -1.266270 1.003954
-1.263213 -1.254031 0.932243
-1.188203 -1.241791 0.860532
-1.113193 -1.229552 0.788821
-1.038184 -1.217313 0.717110
-0.963174 -1.205074 0.645399
-0.888164 -1.192835 0.573688
-0.813154 -1.180596 0.501977
-0.738144 -1.168357 0.430266
-0.663134 -1.156118 0.358555
-0.588125 -1.143878 0.286844
-0.513115 -1.131639 0.215133
-0.438105 -1.119400 0.143422
-0.363095 -1.107161 0.071711
-0.288085 -1.094922 0.000000
-2.088741 -1.388924 1.720995
-3.321312 -1.437734 0.909307
-3.830729 -0.581437 -0.342640
-4.156623 0.556643 -1.425740
-4.490670 1.682156 -2.520275
-4.826035 2.805450 -3.616703
-5.165649 3.929674 -4.710833
-5.544037 5.024462 -5.821584
-6.012674 6.022435 -6.986930
-6.611638 6.854262 -8.219863
-7.356721 7.450676 -9.507500
-8.230061 7.780162 -10.810654
-9.198162 7.862029 -12.086380
-2.090418 -1.389978 1.720721
-3.320344 -1.438624 0.910814
-3.322246 -1.436822 0.907793
-3.830283 -0.582719 -0.341171
-3.831176 -0.580156 -0.344110
-4.156199 0.555250 -1.424369
-4.157046 0.558037 -1.427110
-4.490254 1.680753 -2.518911
-4.491087 1.683559 -2.521638
-4.825618 2.804049 -3.615337
-4.826453 2.806850 -3.618068
-5.165217 3.928269 -4.709477
-5.166081 3.931079 -4.712190
-5.543521 5.023143 -5.820172
-5.544552 5.025781 -5.822996
-6.012019 6.021275 -6.985438
-6.013329 6.023595 -6.988421
-6.610804 6.853354 -8.218288
-6.612472 6.855170 -8.221437
-7.355710 7.450092 -9.505877
-7.357733 7.451260 -9.509124
-8.228909 7.779908 -10.809039
-8.231213 7.780416 -10.812268
-9.196912 7.862060 -12.084819
-2.118604 -1.407683 1.716118
-3.304091 -1.453591 0.936131
-3.337205 -1.421018 0.882188
-3.822779 -0.604249 -0.316488
-3.838364 -0.557957 -0.368289
-4.149083 0.531834 -1.401343
-4.164156 0.581421 -1.450171
-4.483254 1.657186 -2.496005
-4.498093 1.707112 -2.544557
-4.818610 2.780518 -3.592397
-4.833462 2.830380 -3.641010
-5.157959 3.904667 -4.686687
-5.173389 3.954621 -4.735026
-5.534858 5.000976 -5.796451
-5.553292 5.047868 -5.846765
-6.001015 6.001786 -6.960374
-6.024433 6.042958 -7.013539
-6.596790 6.838100 -8.191829
-6.626587 6.870262 -8.247935
-7.338712 7.440285 -9.478600
-7.374807 7.460906 -9.536410
-8.209547 7.775643 -10.781908
-8.250623 7.784555 -10.839384
-9.175910 7.862583 -12.058593
-2.250443 -1.483402 1.689122
-2.466609 -1.571424 1.616491
-2.682454 -1.621895 1.513388
-2.888500 -1.631944 1.382360
-3.073086 -1.597357 1.226210
-3.225154 -1.519204 1.051622
-3.403247 -1.346932 0.763712
-3.494921 -1.224329 0.572543
-3.576445 -1.099215 0.378389
-3.652868 -0.973741 0.182392
-3.723886 -0.843223 -0.012312
-3.787182 -0.701260 -0.201547
-3.870691 -0.454029 -0.478035
-3.919020 -0.280775 -0.644271
-3.966138 -0.102146 -0.805118
-4.014511 0.076053 -0.966068
-4.064882 0.251260 -1.129668
-4.116367 0.423918 -1.295616
-4.196817 0.688973 -1.556285
-4.248127 0.859931 -1.724041
-4.298908 1.031808 -1.891017
-4.349517 1.204142 -2.057573
-4.400225 1.376520 -2.224054
-4.451077 1.548712 -2.390684
-4.530339 1.815417 -2.650030
-4.581496 1.986900 -2.817297
-4.632689 2.158295 -2.984642
-4.683912 2.329628 -3.152042
-4.735153 2.500930 -3.319468
-4.786353 2.672294 -3.486843
-4.865731 2.938590 -3.746575
-4.917108 3.109692 -3.914163
-4.968935 3.280198 -4.082219
-5.020943 3.450961 -4.249959
-5.072795 3.623025 -4.416412
-5.124760 3.795871 -4.582018
-5.207262 4.062617 -4.840306
-5.261967 4.232644 -5.007934
-5.317972 4.401433 -5.176382
-5.375391 4.568891 -5.345680
-5.434498 4.734664 -5.516051
-5.495372 4.898622 -5.687553
-5.593970 5.148969 -5.956391
-5.660260 5.307216 -6.131216
-5.728973 5.462808 -6.307481
-5.800190 5.615585 -6.485209
-5.874196 5.765145 -6.664525
-5.950962 5.911432 -6.845375
-6.076240 6.131116 -7.129462
-6.160899 6.267507 -7.314472
-6.248870 6.399496 -7.501122
-6.340111 6.526978 -7.689327
-6.434881 6.649413 -7.879133
-6.532998 6.766868 -8.070379
-6.692369 6.938309 -8.370147
-6.799383 7.041539 -8.564796
-6.909879 7.138768 -8.760587
-7.023653 7.230104 -8.957335
-7.140842 7.315036 -9.154946
-7.261133 7.393901 -9.353207
-7.454120 7.503647 -9.662014
-7.582115 7.566346 -9.861219
-7.712965 7.622637 -10.060484
-7.846408 7.672896 -10.259643
-7.982505 7.716769 -10.458516
-8.120947 7.754804 -10.656971
-8.340498 7.802033 -10.963926
-8.484571 7.825241 -11.160655
-8.630677 7.842774 -11.356471
-8.778588 7.855090 -11.551328
-8.928311 7.861976 -11.745065
-9.079615 7.863950 -11.937683
194 NaN NaN
-2.088321 -1.388661 1.721064
-2.172551 -1.441569 1.707307
-2.259206 -1.488108 1.687076
-2.347423 -1.528292 1.660850
-2.436459 -1.562134 1.629029
-2.525648 -1.589614 1.591939
-2.614363 -1.610655 1.549839
-2.701978 -1.625118 1.502937
-2.787830 -1.632793 1.451404
-2.871185 -1.633409 1.395404
-2.951209 -1.626639 1.335121
-3.026942 -1.612137 1.270802
-3.097302 -1.589600 1.202809
-3.161617 -1.559461 1.131824
-3.220097 -1.523117 1.058715
-3.273284 -1.481959 0.984119
-3.321867 -1.437222 0.908442
-3.366582 -1.389981 0.831901
-3.408158 -1.341166 0.754578
-3.447101 -1.291318 0.676546
-3.483773 -1.240706 0.597905
-3.518569 -1.189588 0.518741
-3.551913 -1.138213 0.439118
-3.584241 -1.086821 0.359089
-3.615924 -1.035550 0.278723
-3.646922 -0.984048 0.198240
-3.677062 -0.931806 0.117908
-3.706165 -0.878323 0.038011
-3.734039 -0.823114 -0.041144
-3.760486 -0.765714 -0.119221
-3.785429 -0.705878 -0.195953
-3.809025 -0.643713 -0.271246
-3.831457 -0.579350 -0.345034
-3.852909 -0.512910 -0.417257
-3.873566 -0.444509 -0.487861
-3.893615 -0.374275 -0.556824
-3.913228 -0.302553 -0.624367
-3.932580 -0.229791 -0.690867
-3.951849 -0.156419 -0.756717
-3.971217 -0.082853 -0.822323
-3.990867 -0.009510 -0.888092
-4.010915 0.063315 -0.954317
-4.031321 0.135611 -1.021009
-4.052019 0.207412 -1.088146
-4.072947 0.278752 -1.155701
-4.094041 0.349666 -1.223652
-4.115239 0.420191 -1.291973
-4.136493 0.490403 -1.360600
-4.157765 0.560403 -1.429437
-4.179019 0.630298 -1.498387
-4.200219 0.700191 -1.567355
-4.221328 0.770190 -1.636244
-4.242320 0.840376 -1.704978
-4.263212 0.910735 -1.773565
-4.284029 0.981232 -1.842033
-4.304799 1.051832 -1.910410
-4.325547 1.122498 -1.978725
-4.346301 1.193196 -2.047005
-4.367076 1.263900 -2.115272
-4.387873 1.334594 -2.183543
-4.408694 1.405265 -2.251830
-4.429541 1.475898 -2.320150
-4.450415 1.546477 -2.388516
-4.471316 1.616992 -2.456940
-4.492242 1.687447 -2.525418
-4.513189 1.757852 -2.593942
-4.534152 1.828217 -2.662502
-4.555128 1.898551 -2.731089
-4.576111 1.968865 -2.799694
-4.597101 2.039165 -2.868312
-4.618095 2.109454 -2.936940
-4.639095 2.179731 -3.005579
-4.660099 2.249998 -3.074226
-4.681109 2.320256 -3.142881
-4.702123 2.390506 -3.211543
-4.723138 2.460754 -3.280206
-4.744148 2.531009 -3.348864
-4.765150 2.601278 -3.417510
-4.786137 2.671570 -3.486137
-4.807105 2.741891 -3.554740
-4.828057 2.812238 -3.623321
-4.849014 2.882580 -3.691907
-4.869996 2.952882 -3.760525
-4.891026 3.023111 -3.829203
-4.912126 3.093234 -3.897968
-4.933313 3.163224 -3.966842
-4.954578 3.233123 -4.035784
-4.975892 3.303011 -4.104722
-4.997228 3.372970 -4.173581
-5.018558 3.443081 -4.242287
-5.039854 3.513425 -4.310766
-5.061103 3.584044 -4.378976
-5.082344 3.654859 -4.446984
-5.103625 3.725764 -4.514885
-5.124997 3.796657 -4.582771
-5.146509 3.867433 -4.650735
-5.168207 3.937992 -4.718865
-5.190114 4.008297 -4.787191
-5.212232 4.078359 -4.855699
-5.234560 4.148191 -4.924371
-5.257103 4.217807 -4.993194
-5.279859 4.287219 -5.062152
-5.302835 4.356433 -5.131236
-5.326044 4.425432 -5.200457
-5.349500 4.494196 -5.269828
-5.373217 4.562706 -5.339362
-5.397210 4.630941 -5.409071
-5.421492 4.698882 -5.478967
-5.446075 4.766514 -5.549058
-5.470971 4.833823 -5.619349
-5.496191 4.900797 -5.689843
-5.521745 4.967424 -5.760546
-5.547644 5.033691 -5.831461
-5.573899 5.099584 -5.902594
-5.600521 5.165087 -5.973950
-5.627522 5.230184 -6.045534
-5.654914 5.294859 -6.117353
-5.682707 5.359094 -6.189412
-5.710913 5.422873 -6.261715
-5.739543 5.486180 -6.334266
-5.768607 5.548996 -6.407070
-5.798115 5.611306 -6.480130
-5.828078 5.673092 -6.553450
-5.858507 5.734335 -6.627032
-5.889410 5.795019 -6.700880
-5.920798 5.855126 -6.774995
-5.952679 5.914636 -6.849380
-5.985063 5.973532 -6.924037
-6.017958 6.031794 -6.998966
-6.051374 6.089404 -7.074169
-6.085317 6.146343 -7.149647
-6.119795 6.202592 -7.225398
-6.154816 6.258133 -7.301423
-6.190385 6.312946 -7.377721
-6.226510 6.367011 -7.454291
-6.263197 6.420311 -7.531130
-6.300449 6.472826 -7.608237
-6.338271 6.524540 -7.685607
-6.376667 6.575432 -7.763239
-6.415642 6.625486 -7.841127
-6.455198 6.674681 -7.919269
-6.495337 6.723002 -7.997658
-6.536060 6.770433 -8.076290
-6.577368 6.816958 -8.155158
-6.619261 6.862559 -8.234255
-6.661740 6.907222 -8.313576
-6.704804 6.950930 -8.393113
-6.748450 6.993672 -8.472857
-6.792675 7.035435 -8.552800
-6.837478 7.076207 -8.632933
-6.882855 7.115976 -8.713248
-6.928802 7.154728 -8.793734
-6.975314 7.192457 -8.874382
-7.022386 7.229155 -8.955181
-7.070012 7.264815 -9.036120
-7.118186 7.299428 -9.117189
-7.166903 7.332989 -9.198376
-7.216155 7.365491 -9.279670
-7.265936 7.396935 -9.361059
-7.316236 7.427317 -9.442532
-7.367050 7.456635 -9.524075
-7.418369 7.484889 -9.605679
-7.470186 7.512076 -9.687330
-7.522491 7.538200 -9.769016
-7.575276 7.563264 -9.850725
-7.628534 7.587270 -9.932446
-7.682255 7.610222 -10.014167
-7.736431 7.632123 -10.095875
-7.791054 7.652979 -10.177560
-7.846114 7.672796 -10.259210
-7.901603 7.691581 -10.340813
-7.957512 7.709340 -10.422359
-8.013833 7.726081 -10.503837
-8.070557 7.741811 -10.585237
-8.127675 7.756539 -10.666549
-8.185179 7.770274 -10.747762
-8.243060 7.783026 -10.828868
-8.301309 7.794803 -10.909858
-8.359919 7.805616 -10.990722
-8.418881 7.815473 -11.071452
-8.478185 7.824386 -11.152041
-8.537824 7.832366 -11.232480
-8.597790 7.839422 -11.312763
-8.658074 7.845566 -11.392883
-8.718668 7.850808 -11.472832
-8.779563 7.855160 -11.552605
-8.840752 7.858632 -11.632197
-8.902226 7.861237 -11.711603
-8.963977 7.862986 -11.790816
-9.025997 7.863890 -11.869833
-9.088280 7.863960 -11.948648
-9.150817 7.863208 -12.027259
-9.213602 7.861644 -12.105659
-9.276627 7.859281 -12.183847
-0.847870 -1.319549 5.975126
-0.723135 -0.772314 5.665182
-0.796244 -0.163184 5.499785
-1.126309 0.373093 5.579317
-0.847322 -1.317945 5.974063
-0.723324 -0.774122 5.666017
-0.722946 -0.770506 5.664347
-0.795626 -0.165078 5.499968
-0.796861 -0.161291 5.499602
-1.125017 0.371675 5.578752
-0.841882 -1.302025 5.963512
-0.725199 -0.792071 5.674305
-0.721532 -0.752381 5.656384
-0.789493 -0.183878 5.501788
-0.802994 -0.142491 5.497782
-1.112190 0.357592 5.573138
-0.824006 -1.249713 5.928839
-0.800268 -1.173156 5.880151
-0.778862 -1.095059 5.832864
-0.760045 -1.015367 5.787174
-0.744104 -0.934039 5.743312
-0.731360 -0.851051 5.701540
-0.718790 -0.692094 5.631560
-0.718309 -0.604417 5.598428
-0.722749 -0.515551 5.569023
-0.732513 -0.425827 5.543808
-0.747953 -0.335681 5.523246
-0.769661 -0.245708 5.508060
-0.827705 -0.082142 5.496196
-0.866849 0.002938 5.497612
-0.911194 0.085184 5.504491
-0.960222 0.164166 5.516558
-1.013445 0.239506 5.533538
-1.070653 0.310499 5.555518
22 NaN NaN
-0.848007 -1.319949 5.975392
-0.818021 -1.232197 5.917230
-0.791010 -1.142366 5.860814
-0.767381 -1.050348 5.806447
-0.747606 -0.956054 5.754496
-0.732237 -0.859437 5.705412
-0.721902 -0.760512 5.659732
-0.717303 -0.659399 5.618097
-0.719188 -0.556369 5.581240
-0.728302 -0.451896 5.549970
-0.745296 -0.346696 5.525106
-0.770621 -0.241731 5.507389
-0.804412 -0.138146 5.497361
-0.846423 -0.037137 5.495261
-0.896045 0.060217 5.500972
-0.952403 0.153097 5.514063
-1.014501 0.241001 5.533875
-1.081347 0.323734 5.559640
-1.152044 0.401344 5.590579
-1.225822 0.474036 5.625966
-1.302051 0.542108 5.665154
-1.380226 0.605899 5.707588
-1.561446 -1.562390 3.120887
-1.476139 -1.494851 3.122853
-1.392243 -1.425586 3.125398
-1.309961 -1.354437 3.128584
-1.229552 -1.281214 3.132492
-1.151334 -1.205703 3.137214
-1.075709 -1.127656 3.142861
-1.003192 -1.046799 3.149569
-0.934442 -0.962824 3.157501
-0.870321 -0.875410 3.166853
-0.811956 -0.784244 3.177856
-0.760821 -0.689088 3.190781
-0.718802 -0.589901 3.205911
-0.688186 -0.487040 3.223507
-0.671460 -0.381534 3.243714
-0.670776 -0.275258 3.266445
-0.687182 -0.170766 3.291306
-0.720121 -0.070637 3.317661
-0.767628 0.023255 3.344817
-0.827076 0.110047 3.372204
-0.895887 0.189716 3.399438
-0.971892 0.262728 3.426299
-1.053408 0.329750 3.452683
-1.139177 0.391476 3.478555
-1.228265 0.448551 3.503916
-1.559879 -1.561149 3.120923
-1.477707 -1.496093 3.122817
-1.474590 -1.493587 3.122897
-1.393784 -1.426860 3.125351
-1.390707 -1.424307 3.125447
-1.311473 -1.355745 3.128526
-1.308449 -1.353129 3.128643
-1.231028 -1.282561 3.132420
-1.228075 -1.279868 3.132564
-1.152770 -1.207092 3.137126
-1.149897 -1.204313 3.137301
-1.077097 -1.129093 3.142757
-1.074322 -1.126220 3.142966
-1.004522 -1.048287 3.149445
-1.001862 -1.045310 3.149694
-0.935701 -0.964371 3.157354
-0.933183 -0.961277 3.157648
-0.871493 -0.877021 3.166679
-0.869149 -0.873799 3.167026
-0.813020 -0.785925 3.177652
-0.810892 -0.782562 3.178061
-0.761748 -0.690844 3.190540
-0.759894 -0.687332 3.191021
-0.719556 -0.591731 3.205629
-0.718047 -0.588070 3.206193
-0.688725 -0.488938 3.223179
-0.687647 -0.485143 3.223836
-0.671736 -0.383478 3.243337
-0.671185 -0.379589 3.244092
-0.670749 -0.277213 3.266022
-0.670802 -0.273304 3.266869
-0.686837 -0.172681 3.290844
-0.687528 -0.168851 3.291769
-0.719472 -0.072464 3.317173
-0.720771 -0.068809 3.318149
-0.766714 0.021548 3.344316
-0.768542 0.024962 3.345318
-0.825949 0.108474 3.371700
-0.828204 0.111620 3.372708
-0.894594 0.188275 3.398938
-0.897180 0.191157 3.399937
-0.970472 0.261409 3.425806
-0.973312 0.264048 3.426791
-1.051892 0.328539 3.452200
-1.054925 0.330961 3.453166
-1.137586 0.390361 3.478082
-1.140768 0.392591 3.479029
-1.226616 0.447520 3.503452
-1.555717 -1.557854 3.121019
-1.481868 -1.499388 3.122721
-1.470497 -1.490208 3.123021
-1.397877 -1.430239 3.125226
-1.386694 -1.420834 3.125603
-1.315486 -1.359217 3.128370
-1.304517 -1.349567 3.128830
-1.234949 -1.286136 3.132228
-1.224227 -1.276217 3.132783
-1.156582 -1.210779 3.136895
-1.146146 -1.200566 3.137554
-1.080781 -1.132906 3.142479
-1.070681 -1.122369 3.143258
-1.008051 -1.052239 3.149115
-0.998347 -1.041346 3.150029
-0.939043 -0.968478 3.156963
-0.929841 -0.957171 3.158039
-0.874604 -0.881298 3.166217
-0.866037 -0.869522 3.167488
-0.815843 -0.790388 3.177108
-0.808069 -0.778100 3.178605
-0.764210 -0.695504 3.189900
-0.757433 -0.682672 3.191661
-0.721560 -0.596590 3.204879
-0.716043 -0.583211 3.206943
-0.690155 -0.493976 3.222307
-0.686217 -0.480105 3.224708
-0.672469 -0.388640 3.242336
-0.670452 -0.374427 3.245093
-0.670679 -0.282401 3.264897
-0.670872 -0.268116 3.267994
-0.685920 -0.177764 3.289617
-0.688445 -0.163768 3.292995
-0.717747 -0.077315 3.315877
-0.722496 -0.063958 3.319445
-0.764288 0.017017 3.342986
-0.770968 0.029493 3.346648
-0.822956 0.104298 3.370363
-0.831197 0.115796 3.374045
-0.891161 0.184449 3.397611
-0.900613 0.194983 3.401264
-0.966703 0.257906 3.424500
-0.977081 0.267551 3.428098
-1.047866 0.325325 3.450918
-1.058951 0.334175 3.454449
-1.133362 0.387401 3.476825
-1.144992 0.395551 3.480286
-1.222237 0.444783 3.502220
-1.547075 -1.551012 3.121218
-1.535762 -1.542056 3.121479
-1.524449 -1.533099 3.121739
-1.513136 -1.524143 3.122000
-1.501823 -1.515186 3.122261
-1.490510 -1.506230 3.122522
-1.461999 -1.483190 3.123279
-1.450874 -1.474003 3.123617
-1.439749 -1.464817 3.123955
-1.428625 -1.455630 3.124293
-1.417500 -1.446444 3.124631
-1.406375 -1.437257 3.124968
-1.378361 -1.413624 3.125926
-1.367452 -1.404185 3.126350
-1.356544 -1.394745 3.126774
-1.345636 -1.385306 3.127198
-1.334727 -1.375867 3.127622
-1.323819 -1.366428 3.128046
-1.296376 -1.342144 3.129228
-1.285719 -1.332427 3.129748
-1.275062 -1.322710 3.130269
-1.264404 -1.312993 3.130790
-1.253747 -1.303276 3.131310
-1.243090 -1.293559 3.131831
-1.216311 -1.268559 3.133264
-1.205948 -1.258535 3.133894
-1.195586 -1.248510 3.134524
-1.185223 -1.238486 3.135154
-1.174861 -1.228462 3.135784
-1.164498 -1.218437 3.136413
-1.138497 -1.192648 3.138131
-1.128484 -1.182283 3.138885
-1.118470 -1.171918 3.139640
-1.108457 -1.161554 3.140394
-1.098444 -1.151189 3.141148
-1.088430 -1.140824 3.141903
-1.063351 -1.114162 3.143943
-1.053757 -1.103419 3.144840
-1.044163 -1.092676 3.145738
-1.034569 -1.081933 3.146635
-1.024974 -1.071189 3.147532
-1.015380 -1.060446 3.148430
-0.991407 -1.032818 3.150840
-0.982322 -1.021656 3.151902
-0.973238 -1.010493 3.152965
-0.964153 -0.999330 3.154027
-0.955068 -0.988168 3.155089
-0.945983 -0.977005 3.156152
-0.923352 -0.948310 3.158989
-0.914895 -0.936684 3.160243
-0.906437 -0.925058 3.161497
-0.897980 -0.913432 3.162751
-0.889522 -0.901806 3.164005
-0.881065 -0.890179 3.165259
-0.860083 -0.860313 3.168591
-0.852408 -0.848182 3.170068
-0.844732 -0.836050 3.171546
-0.837057 -0.823919 3.173024
-0.829382 -0.811787 3.174501
-0.821707 -0.799655 3.175979
-0.802772 -0.768523 3.179883
-0.796082 -0.755855 3.181621
-0.789392 -0.743187 3.183359
-0.782701 -0.730518 3.185097
-0.776011 -0.717850 3.186835
-0.769321 -0.705182 3.188573
-0.752950 -0.672722 3.193139
-0.747504 -0.659514 3.195176
-0.742058 -0.646305 3.197213
-0.736612 -0.633097 3.199250
-0.731166 -0.619889 3.201286
-0.725720 -0.606680 3.203323
-0.712560 -0.572910 3.208643
-0.708673 -0.559215 3.211014
-0.704786 -0.545521 3.213384
-0.700899 -0.531826 3.215755
-0.697011 -0.518132 3.218125
-0.693124 -0.504438 3.220496
-0.683942 -0.469520 3.226647
-0.681951 -0.455488 3.229369
-0.679961 -0.441456 3.232091
-0.677970 -0.427424 3.234813
-0.675980 -0.413392 3.237535
-0.673989 -0.399360 3.240257
-0.669584 -0.363687 3.247273
-0.669774 -0.349584 3.250330
-0.669964 -0.335482 3.253388
-0.670154 -0.321379 3.256446
-0.670344 -0.307276 3.259503
-0.670534 -0.293174 3.262561
-0.671555 -0.257409 3.270395
-0.674047 -0.243591 3.273730
-0.676539 -0.229773 3.277065
-0.679032 -0.215956 3.280400
-0.681524 -0.202138 3.283735
-0.684016 -0.188320 3.287070
-0.690719 -0.153318 3.295575
-0.695408 -0.140132 3.299097
-0.700097 -0.126946 3.302619
-0.704786 -0.113760 3.306142
-0.709475 -0.100574 3.309664
-0.714164 -0.087388 3.313186
-0.726274 -0.053974 3.322145
-0.732869 -0.041658 3.325761
-0.739464 -0.029341 3.329377
-0.746059 -0.017025 3.332992
-0.752654 -0.004708 3.336608
-0.759250 0.007608 3.340224
-0.776060 0.038868 3.349411
-0.784196 0.050220 3.353046
-0.792332 0.061571 3.356681
-0.800468 0.072923 3.360316
-0.808604 0.084275 3.363951
-0.816740 0.095626 3.367586
-0.837412 0.124468 3.376822
-0.846703 0.134901 3.380430
-0.856035 0.145302 3.384036
-0.865367 0.155702 3.387643
-0.874699 0.166103 3.391249
-0.884032 0.176503 3.394856
-0.907742 0.202929 3.404019
-0.917892 0.212543 3.407577
-0.928138 0.222065 3.411129
-0.938384 0.231587 3.414682
-0.948630 0.241110 3.418234
-0.958876 0.250632 3.421786
-0.984908 0.274825 3.430811
-0.995729 0.283701 3.434309
-1.006673 0.292438 3.437796
-1.017617 0.301176 3.441282
-1.028561 0.309913 3.444768
-1.039505 0.318650 3.448254
-1.067311 0.340850 3.457112
-1.078660 0.349068 3.460546
-1.090142 0.357115 3.463963
-1.101625 0.365161 3.467380
-1.113107 0.373207 3.470797
-1.124590 0.381254 3.474214
-1.153764 0.401698 3.482896
-1.165532 0.409334 3.486267
-1.177435 0.416775 3.489616
-1.189338 0.424216 3.492964
-1.201241 0.431657 3.496313
-1.213144 0.439098 3.499662
25 NaN NaN
-1.561838 -1.562701 3.120878
-1.475700 -1.494504 3.122863
-1.390995 -1.424556 3.125435
-1.307938 -1.352686 3.128663
-1.226794 -1.278700 3.132627
-1.147894 -1.202375 3.137423
-1.071653 -1.123458 3.143167
-0.998606 -1.041663 3.149998
-0.929439 -0.956677 3.158086
-0.865051 -0.868166 3.167634
-0.806622 -0.775813 3.178883
-0.755696 -0.679383 3.192112
-0.714248 -0.578857 3.207614
-0.684670 -0.474653 3.225652
-0.669527 -0.367903 3.246359
-0.670973 -0.260636 3.269616
-0.689929 -0.155538 3.294982
-0.725599 -0.055235 3.321775
-0.775778 0.038474 3.349285
-0.837694 0.124860 3.376948
-0.908724 0.204022 3.404399
-0.986718 0.276508 3.431439
-1.070035 0.343024 3.457980
-1.157454 0.404284 3.483994
-1.248079 0.460938 3.509491
-1.447220 -1.283901 1.108774
-1.261672 -1.170627 1.247862
-1.086829 -1.045411 1.390479
-0.927520 -0.904933 1.536926
-0.792002 -0.744817 1.686900
-0.691502 -0.562050 1.838155
-0.646167 -0.355212 1.984168
-0.670982 -0.134390 2.113117
-0.763119 0.083026 2.215172
-0.907825 0.283635 2.287378
-1.083256 0.466010 2.336880
-1.445760 -1.283050 1.109843
-1.263069 -1.171551 1.246770
-1.260275 -1.169702 1.248955
-1.088143 -1.046424 1.389363
-1.085515 -1.044399 1.391596
-0.928647 -0.906115 1.535772
-0.926392 -0.903751 1.538080
-0.792937 -0.746141 1.685728
-0.791067 -0.743493 1.688072
-0.692158 -0.563534 1.836985
-0.690846 -0.560566 1.839324
-0.646203 -0.356901 1.983098
-0.646130 -0.353522 1.985238
-0.670538 -0.136113 2.112204
-0.671427 -0.132668 2.114031
-0.762245 0.081375 2.214461
-0.764144 0.084626 2.215795
-0.906554 0.282159 2.286923
-0.909095 0.285111 2.287834
-1.081824 0.464652 2.336558
-1.438070 -1.278566 1.115476
-1.270429 -1.176421 1.241018
-1.252915 -1.164832 1.254707
-1.095065 -1.051759 1.383481
-1.078593 -1.039064 1.397478
-0.934586 -0.912341 1.529694
-0.920454 -0.897525 1.544158
-0.797861 -0.753114 1.679556
-0.786142 -0.736520 1.694243
-0.695614 -0.571351 1.830826
-0.687391 -0.552749 1.845483
-0.646397 -0.365799 1.977463
-0.645936 -0.344624 1.990873
-0.668194 -0.145186 2.107392
-0.673771 -0.123594 2.118842
-0.757709 0.072653 2.210676
-0.769546 0.093054 2.219078
-0.899862 0.274386 2.284524
-0.915788 0.292884 2.290232
-1.074279 0.457499 2.334860
-1.418396 -1.267095 1.129886
-1.392239 -1.251845 1.149044
-1.366125 -1.236543 1.168219
-1.340493 -1.220666 1.187577
-1.314861 -1.204788 1.206934
-1.289257 -1.188878 1.226302
-1.234087 -1.152375 1.269423
-1.209203 -1.135649 1.289036
-1.184859 -1.118333 1.308819
-1.160516 -1.101017 1.328602
-1.136318 -1.083550 1.348426
-1.112774 -1.065406 1.368433
-1.061213 -1.025096 1.412606
-1.038604 -1.006038 1.432840
-1.015994 -0.986981 1.453074
-0.993734 -0.967603 1.473380
-0.972226 -0.947538 1.493839
-0.950718 -0.927472 1.514299
-0.905261 -0.881597 1.559706
-0.885062 -0.860421 1.580379
-0.865570 -0.838693 1.601135
-0.846937 -0.816298 1.621994
-0.828304 -0.793903 1.642852
-0.810458 -0.770954 1.663767
-0.773545 -0.718680 1.710033
-0.758131 -0.694132 1.731053
-0.743652 -0.669002 1.752093
-0.729174 -0.643872 1.773133
-0.716206 -0.617934 1.794122
-0.704453 -0.591348 1.815071
-0.680891 -0.531720 1.861024
-0.672367 -0.503708 1.881675
-0.663843 -0.475696 1.902327
-0.657897 -0.446803 1.922581
-0.653101 -0.417515 1.942658
-0.648306 -0.388228 1.962735
-0.645440 -0.321861 2.005289
-0.644780 -0.291595 2.024457
-0.647725 -0.260876 2.042582
-0.651411 -0.230063 2.060493
-0.655096 -0.199251 2.078405
-0.662198 -0.168399 2.095083
-0.679767 -0.100382 2.131151
-0.691584 -0.069926 2.145848
-0.703527 -0.039483 2.160490
-0.715470 -0.009040 2.175133
-0.730675 0.020676 2.188120
-0.746104 0.050341 2.200994
-0.783363 0.114613 2.227476
-0.801735 0.143278 2.238641
-0.820282 0.171862 2.249691
-0.841076 0.199422 2.259276
-0.861870 0.226983 2.268860
-0.882740 0.254500 2.278388
-0.932909 0.312771 2.296369
-0.956007 0.338984 2.304262
-0.980369 0.364338 2.311154
-1.004730 0.389692 2.318046
-1.029319 0.414867 2.324743
-1.054979 0.439199 2.330517
25 NaN NaN
-1.447585 -1.284114 1.108506
-1.368211 -1.237835 1.166644
-1.290430 -1.189654 1.225385
-1.214467 -1.139393 1.284758
-1.140597 -1.086848 1.344789
-1.069154 -1.031790 1.405499
-1.000548 -0.973961 1.466898
-0.935285 -0.913074 1.528979
-0.873995 -0.848819 1.591705
-0.817459 -0.780868 1.654992
-0.766642 -0.708905 1.718684
-0.722718 -0.632666 1.782515
-0.687066 -0.552015 1.846062
-0.661212 -0.467049 1.908702
-0.646668 -0.378225 1.969593
-0.644668 -0.286442 2.027721
-0.655843 -0.193002 2.082037
-0.680018 -0.099410 2.131667
-0.716239 -0.007080 2.176075
-0.763039 0.082901 2.215123
-0.818768 0.169855 2.248994
-0.881852 0.253468 2.278070
-0.950917 0.333686 2.302822
-1.024833 0.410614 2.323733
-1.102694 0.484442 2.341254
-0.806913 -1.179230 0.496378
-0.616086 -0.894101 0.559368
-0.482093 -0.580763 0.630899
-0.450011 -0.244912 0.710971
-0.561859 0.072664 0.791025
-0.791344 0.324806 0.858875
-0.805738 -1.177649 0.496724
-0.617025 -0.895824 0.558981
-0.615148 -0.892377 0.559755
-0.482619 -0.582642 0.630461
-0.481568 -0.578883 0.631336
-0.449849 -0.246849 0.710499
-0.450173 -0.242975 0.711444
-0.560911 0.070959 0.790584
-0.562807 0.074369 0.791465
-0.789787 0.323597 0.858536
-0.797678 -1.166803 0.499096
-0.623463 -0.907644 0.556324
-0.608709 -0.880557 0.562411
-0.486226 -0.595535 0.627460
-0.477961 -0.565991 0.634338
-0.448737 -0.260134 0.707259
-0.451285 -0.229690 0.714684
-0.554408 0.059262 0.787563
-0.570149 0.085555 0.794388
-0.779110 0.315301 0.856208
-0.776141 -1.137823 0.505432
-0.747426 -1.099184 0.513881
-0.720106 -1.059609 0.522598
-0.692993 -1.019895 0.531356
-0.667134 -0.979417 0.540335
-0.641923 -0.938544 0.549430
-0.591506 -0.848973 0.569509
-0.569610 -0.806372 0.579122
-0.549415 -0.762967 0.588981
-0.529780 -0.719344 0.598909
-0.512908 -0.674637 0.609184
-0.496035 -0.629930 0.619458
-0.468323 -0.531543 0.642357
-0.459765 -0.484729 0.653393
-0.451738 -0.437806 0.664473
-0.447549 -0.390510 0.675759
-0.445169 -0.343037 0.687143
-0.445765 -0.295631 0.698602
-0.456952 -0.194609 0.723323
-0.467610 -0.148315 0.734820
-0.479532 -0.102396 0.746266
-0.496749 -0.058051 0.757493
-0.513967 -0.013707 0.768720
-0.537032 0.028009 0.779491
-0.591313 0.114498 0.802019
-0.619531 0.153088 0.812193
-0.650636 0.189437 0.821914
-0.682944 0.224853 0.831446
-0.716847 0.258758 0.840663
-0.752376 0.291123 0.849558
19 NaN NaN
-0.807207 -1.179625 0.496292
-0.743704 -1.094176 0.514976
-0.683747 -1.006352 0.534342
-0.627996 -0.915966 0.554454
-0.577276 -0.822847 0.575380
-0.532622 -0.726873 0.597179
-0.495316 -0.628025 0.619896
-0.466908 -0.526485 0.643534
-0.449165 -0.422761 0.668025
-0.443907 -0.317837 0.693186
-0.452662 -0.213245 0.718695
-0.476213 -0.110945 0.744101
-0.514260 -0.012951 0.768911
-0.565461 0.079143 0.792698
-0.627834 0.164442 0.815186
-0.699257 0.242735 0.836260
-0.777811 0.314292 0.855925
-0.861917 0.379635 0.874260
-0.950341 0.439380 0.891376
