0.181852 0.181832 0.181546 0.180296 0.178316 0.176525 0.174735 0.172944 0.171284 0.170236 0.170015 0.170000 0.169985 0.169765 0.168787 0.167239 0.165763 0.164288 0.162813 0.161367 0.160455 0.160256 0.160243 0.160229 0.160031 0.159125 0.157689 0.156296 0.154903 0.153510 0.152181 0.151342 0.151163 0.151151 0.151139 0.150960 0.150166 0.148908 0.147754 0.146599 0.145445 0.144397 0.143736 0.143595 0.143586 0.143577 0.143437 0.142817 0.141835 0.140917 0.139998 0.139080 0.138216 0.137670 0.137553 0.137546 
0.181863 0.181889 0.182155 0.183004 0.184255 0.185285 0.186315 0.187346 0.188281 0.188916 0.189095 0.189113 0.189130 0.189311 0.189938 0.190863 0.191822 0.192781 0.193740 0.194730 0.195401 0.195594 0.195613 0.195632 0.195826 0.196510 0.197519 0.198546 0.199573 0.200599 0.201639 0.202343 0.202545 0.202565 0.202585 0.202786 0.203495 0.204541 0.205602 0.206662 0.207723 0.208805 0.209539 0.209745 0.209766 0.209786 0.209995 0.210737 0.211830 0.212953 0.214076 0.215199 0.216326 0.217091 0.217308 0.217329 0.217350 0.217563 0.218314 0.219422 0.220464 0.221506 0.222549 0.223471 0.224097 0.224263 0.224279 0.224295 0.224457 0.224987 0.225768 0.226335 0.226902 0.227469 0.227789 0.228005 0.228046 0.228050 0.228053 0.228087 0.228118 0.228163 0.227880 0.227598 0.227315 0.226760 0.226383 0.226256 0.226243 0.226230 0.226096 0.225536 0.224711 0.223655 0.222600 0.221544 0.220282 0.219426 0.219172 0.219146 0.219121 0.218864 0.217923 0.216535 0.215063 0.213592 0.212120 0.210592 0.209555 0.209262 0.209233 0.209204 0.208909 0.207864 0.206324 0.204793 0.203262 0.201731 0.200231 0.199213 0.198927 0.198899 0.198871 0.198585 0.197588 0.196118 0.194695 0.193272 0.191849 0.190475 0.189543 0.189283 0.189257 0.189232 0.188973 0.188071 0.186742 0.185476 0.184210 0.182944 0.181726 0.180901 0.180669 0.180647 0.180624 0.180394 0.179600 0.178431 0.177318 0.176206 0.175093 0.174029 0.173306 0.173105 0.173085 0.173066 0.172865 0.172169 0.171141 0.170159 0.169177 0.168194 0.167256 0.166620 0.166442 0.166425 
0.181857 0.181860 0.181895 0.181711 0.181418 0.180377 0.179337 0.178296 0.177201 0.176510 0.176375 0.176367 0.176358 0.176223 0.175628 0.174685 0.173774 0.172863 0.171952 0.170943 0.170306 0.170171 0.170162 0.170153 0.170018 0.169416 0.168463 0.167455 0.166447 0.165439 0.163956 0.163019 0.162778 0.162763 0.162747 0.162498 0.161038 0.158726 0.155276 0.151826 0.148377 0.144598 0.142213 0.141681 0.141647 0.141614 0.141086 0.138687 0.134886 0.132021 0.129156 0.126291 0.124541 0.123437 0.123243 0.123231 0.123219 0.123030 0.122322 0.121201 0.120499 0.119798 0.119096 0.118637 0.118347 0.118292 0.118288 0.118285 0.118231 0.118010 0.117661 0.117393 0.117125 0.116858 0.116645 0.116511 0.116484 0.116482 0.116480 0.116453 0.116340 0.116161 0.116012 0.115864 0.115716 0.115594 0.115516 0.115501 0.115500 0.115499 0.115483 0.115417 0.115311 0.115223 0.115134 0.115045 0.114971 0.114923 0.114914 0.114913 0.114913 0.114903 0.114862 0.114797 0.114741 0.114686 0.114630 0.114583 0.114554 0.114548 0.114547 0.114547 0.114541 0.114515 0.114474 0.114440 0.114406 0.114371 0.114341 0.114323 0.114319 0.114318 
0.151148 0.151139 0.151092 0.150974 0.150818 0.150658 0.150499 0.150339 0.150177 0.150055 0.150006 0.149996 0.149986 0.149936 0.149810 0.149642 0.149470 0.149299 0.149127 0.148952 0.148821 0.148768 0.148758 0.148747 0.148694 0.148562 0.148385 0.148202 0.148019 0.147836 0.147647 0.147505 0.147448 0.147437 0.147426 0.147369 0.147224 0.147031 0.146834 0.146637 0.146440 0.146241 0.146091 0.146031 0.146019 0.146007 0.145948 0.145797 0.145597 0.145401 0.145204 0.145008 0.144864 0.144755 0.144712 0.144704 0.144695 0.144654 0.144555 0.144424 0.144300 0.144177 0.144053 0.143936 0.143848 0.143816 0.143809 0.143803 0.143771 0.143690 0.143582 0.143482 0.143382 0.143282 0.143187 0.143116 0.143089 0.143084 0.143078 0.143052 0.142984 0.142894 0.142813 0.142731 0.142649 0.142573 0.142516 0.142494 0.142489 0.142485 0.142463 0.142408 0.142335 0.142267 0.142199 0.142131 0.142068 0.142021 0.142002 0.141999 0.141995 0.141976 0.141931 0.141871 0.141812 0.141754 0.141695 0.141639 0.141597 0.141579 0.141576 
0.169998 0.169992 0.169953 0.169829 0.169663 0.169435 0.169207 0.168978 0.168694 0.168482 0.168396 0.168384 0.168371 0.168285 0.168043 0.167722 0.167378 0.167034 0.166690 0.166335 0.166068 0.165969 0.165955 0.165941 0.165842 0.165575 0.165219 0.164896 0.164573 0.164250 0.163956 0.163735 0.163655 0.163643 0.163632 0.163551 0.163321 0.163014 0.162664 0.162315 0.161965 0.161580 0.161292 0.161182 0.161166 0.161149 0.161035 0.160726 0.160316 0.159911 0.159507 0.159102 0.158755 0.158494 0.158405 0.158391 0.158379 0.158290 0.158067 0.157770 0.157522 0.157275 0.157027 0.156818 0.156661 0.156606 0.156598 0.156590 0.156536 0.156402 0.156224 0.156066 0.155908 0.155750 0.155610 0.155506 0.155467 0.155462 0.155456 0.155418 0.155323 0.155196 0.155076 0.154956 0.154835 0.154722 0.154638 0.154606 0.154601 0.154597 0.154567 0.154484 0.154374 0.154267 0.154160 0.154053 0.153945 0.153864 0.153835 0.153830 
0.189107 0.189086 0.189013 0.188844 0.188622 0.188384 0.188147 0.187910 0.187657 0.187465 0.187379 0.187353 0.187327 0.187240 0.187038 0.186771 0.186488 0.186205 0.185922 0.185626 0.185402 0.185302 0.185272 0.185242 0.185142 0.184910 0.184604 0.184287 0.183971 0.183654 0.183330 0.183084 0.182973 0.182940 0.182906 0.182795 0.182540 0.182204 0.181866 0.181528 0.181191 0.180852 0.180595 0.180483 0.180449 0.180415 0.180302 0.180050 0.179719 0.179386 0.179054 0.178721 0.178399 0.178155 0.178050 0.178019 0.177987 0.177883 0.177646 0.177333 0.177031 0.176728 0.176426 0.176136 0.175915 0.175819 0.175790 0.175762 0.175668 0.175501 0.175282 0.175072 0.174863 0.174653 0.174439 0.174277 0.174205 0.174184 0.174162 0.174090 0.173926 0.173711 0.173490 0.173270 0.173049 0.172825 0.172654 0.172579 0.172556 0.172534 0.172458 0.172284 0.172053 0.171822 0.171590 0.171359 0.171124 0.170947 0.170868 0.170844 0.170820 0.170741 0.170563 0.170329 0.170086 0.169843 0.169599 0.169357 0.169173 0.169093 0.169069 0.169045 0.168965 0.168785 0.168546 0.168314 0.168081 0.167848 0.167620 0.167448 0.167373 0.167350 0.167328 0.167254 0.167091 0.166876 0.166667 0.166459 0.166250 0.166056 0.165909 0.165847 0.165828 0.165809 0.165747 0.165609 0.165427 0.165259 0.165092 0.164924 0.164768 0.164649 0.164598 0.164582 0.164567 0.164516 0.164403 0.164255 0.164120 0.163984 0.163849 0.163717 0.163618 0.163576 0.163564 0.163552 0.163513 0.163425 0.163310 0.163196 0.163081 0.162967 0.162866 0.162790 0.162756 0.162746 0.162736 0.162702 0.162625 0.162524 0.162431 0.162337 0.162244 0.162154 0.162086 0.162057 0.162048 0.162039 0.162009 0.161945 0.161860 0.161780 0.161699 0.161618 0.161538 0.161477 0.161452 0.161445 0.161437 0.161413 0.161356 0.161282 0.161208 0.161134 0.161060 0.160992 0.160940 0.160917 0.160910 0.160903 0.160880 0.160827 0.160757 0.160691 0.160625 0.160559 0.160493 0.160443 0.160421 0.160414 0.160408 0.160385 0.160337 0.160274 0.160211 0.160147 0.160084 0.160021 0.159973 0.159952 0.159946 0.159940 0.159920 0.159872 0.159810 0.159747 0.159684 0.159621 0.159559 0.159512 0.159491 0.159485 
0.202553 0.202503 0.202297 0.201791 0.201121 0.200443 0.199765 0.199087 0.198405 0.197890 0.197678 0.197627 0.197576 0.197364 0.196852 0.196173 0.195496 0.194820 0.194143 0.193475 0.192970 0.192763 0.192713 0.192663 0.192456 0.191959 0.191300 0.190651 0.190001 0.189352 0.188722 0.188246 0.188053 0.188006 0.187960 0.187767 0.187308 0.186699 0.186106 0.185514 0.184922 0.184354 0.183924 0.183749 0.183706 0.183664 0.183489 0.183075 0.182527 0.182005 0.181483 0.180960 0.180464 0.180089 0.179938 0.179901 0.179865 0.179714 0.179354 0.178878 0.178420 0.177962 0.177504 0.177068 0.176738 0.176604 0.176572 0.176539 0.176405 0.176088 0.175669 0.175261 0.174853 0.174445 0.174055 0.173760 0.173640 0.173611 0.173582 0.173462 0.173176 0.172796 0.172470 0.172144 0.171818 0.171523 0.171301 0.171214 0.171193 0.171172 0.171087 0.170885 0.170617 0.170375 0.170134 0.169892 0.169664 0.169492 0.169428 0.169412 0.169396 0.169333 0.169180 0.168977 0.168790 0.168602 0.168415 0.168241 0.168110 0.168056 0.168043 0.168030 0.167977 0.167860 0.167705 0.167555 0.167405 0.167255 0.167118 0.167015 0.166973 0.166963 0.166952 0.166910 0.166811 0.166681 0.166557 0.166434 0.166311 0.166198 0.166112 0.166077 0.166069 0.166060 0.166026 0.165941 0.165829 0.165727 0.165625 0.165523 0.165423 0.165347 0.165317 0.165310 0.165303 0.165274 0.165202 0.165107 0.165016 0.164925 0.164835 0.164745 0.164677 0.164650 0.164643 0.164637 0.164611 0.164548 0.164464 0.164380 0.164295 0.164211 0.164128 0.164065 0.164039 0.164033 
0.209751 0.209690 0.209096 0.207179 0.204444 0.201760 0.199075 0.196390 0.193920 0.192189 0.191671 0.191619 0.191567 0.191054 0.189519 0.187329 0.185450 0.183572 0.181693 0.180107 0.178995 0.178674 0.178641 0.178609 0.178289 0.177362 0.176039 0.175180 0.174320 0.173460 0.172826 0.172381 0.172259 0.172246 0.172234 0.172110 0.171746 0.171225 0.170798 0.170371 0.169944 0.169568 0.169304 0.169230 0.169223 
0.217308 0.217227 0.216469 0.214410 0.211659 0.209114 0.206569 0.204024 0.201650 0.199874 0.199269 0.199204 0.199139 0.198543 0.196988 0.194911 0.193091 0.191271 0.189450 0.187921 0.186776 0.186402 0.186362 0.186322 0.185954 0.184962 0.183636 0.182506 0.181375 0.180245 0.179356 0.178691 0.178470 0.178446 0.178423 0.178206 0.177682 0.176982 0.176412 0.175841 0.175271 0.174787 0.174425 0.174306 0.174293 0.174280 0.174158 0.173842 0.173420 0.173048 0.172677 0.172305 0.171969 0.171717 0.171627 0.171618 
0.224251 0.224139 0.223601 0.222287 0.220541 0.218894 0.217247 0.215601 0.214051 0.212883 0.212432 0.212338 0.212245 0.211799 0.210706 0.209254 0.207912 0.206571 0.205229 0.203973 0.203026 0.202661 0.202584 0.202508 0.202146 0.201264 0.200094 0.199021 0.197948 0.196875 0.195875 0.195122 0.194831 0.194770 0.194710 0.194422 0.193736 0.192826 0.191984 0.191143 0.190302 0.189511 0.188915 0.188682 0.188633 0.188585 0.188358 0.187812 0.187088 0.186414 0.185739 0.185065 0.184436 0.183962 0.183776 0.183737 0.183699 0.183517 0.183087 0.182517 0.181999 0.181480 0.180962 0.180528 0.180201 0.180092 0.180069 0.180046 0.179938 0.179673 0.179320 0.179009 0.178698 0.178387 0.178108 0.177898 0.177824 0.177809 0.177793 0.177720 0.177535 0.177289 0.177073 0.176858 0.176642 0.176447 0.176300 0.176245 0.176233 0.176221 0.176166 0.176030 0.175850 0.175689 0.175528 0.175367 0.175224 0.175116 0.175073 0.175064 0.175055 0.175012 0.174909 0.174772 0.174644 0.174517 0.174389 0.174272 0.174185 0.174149 0.174141 0.174134 0.174098 0.174018 0.173911 0.173806 0.173701 0.173597 0.173493 0.173415 0.173384 0.173378 
0.228015 0.227878 0.227363 0.226184 0.224626 0.223172 0.221719 0.220265 0.218904 0.217875 0.217452 0.217339 0.217227 0.216808 0.215852 0.214587 0.213389 0.212191 0.210993 0.209864 0.209010 0.208660 0.208566 0.208474 0.208128 0.207339 0.206296 0.205329 0.204361 0.203394 0.202499 0.201822 0.201541 0.201466 0.201392 0.201114 0.200470 0.199620 0.198816 0.198013 0.197210 0.196467 0.195904 0.195674 0.195613 0.195552 0.195325 0.194808 0.194125 0.193487 0.192850 0.192213 0.191595 0.191127 0.190934 0.190882 0.190831 0.190641 0.190197 0.189611 0.189051 0.188492 0.187932 0.187410 0.187014 0.186850 0.186806 0.186762 0.186599 0.186225 0.185731 0.185265 0.184799 0.184333 0.183894 0.183562 0.183429 0.183394 0.183358 0.183226 0.182926 0.182530 0.182191 0.181852 0.181513 0.181213 0.180986 0.180892 0.180867 0.180842 0.180748 0.180557 0.180303 0.180060 0.179817 0.179575 0.179372 0.179218 0.179153 0.179136 0.179119 0.179054 0.178904 0.178705 0.178539 0.178373 0.178207 0.178040 0.177915 0.177870 0.177857 0.177845 0.177800 0.177692 0.177550 0.177417 0.177284 0.177151 0.177033 0.176944 0.176905 0.176895 0.176884 0.176846 0.176760 0.176646 0.176540 0.176433 0.176327 0.176230 0.176157 0.176128 0.176120 0.176113 0.176084 0.176015 0.175924 0.175839 0.175755 0.175671 0.175590 0.175529 0.175503 0.175496 0.175489 0.175463 0.175410 0.175341 0.175270 0.175198 0.175126 0.175063 0.175014 0.174993 0.174988 
0.226208 0.226069 0.225407 0.223817 0.221707 0.219794 0.217881 0.215968 0.214235 0.212930 0.212432 0.212327 0.212223 0.211732 0.210560 0.209004 0.207599 0.206194 0.204789 0.203524 0.202571 0.202205 0.202128 0.202052 0.201690 0.200829 0.199685 0.198651 0.197618 0.196584 0.195617 0.194888 0.194608 0.194549 0.194490 0.194213 0.193540 0.192648 0.191829 0.191009 0.190190 0.189406 0.188816 0.188589 0.188541 0.188493 0.188267 0.187709 0.186968 0.186288 0.185608 0.184929 0.184308 0.183840 0.183666 0.183629 0.183593 0.183419 0.182990 0.182421 0.181976 0.181531 0.181087 0.180713 0.180432 0.180331 0.180310 0.180289 0.180189 0.179947 0.179626 0.179381 0.179136 0.178891 0.178690 0.178539 0.178482 0.178470 0.178458 0.178401 0.178262 0.178076 0.177924 0.177772 0.177621 0.177500 0.177409 0.177374 0.177367 0.177359 0.177323 0.177237 0.177123 0.177026 0.176929 0.176832 0.176757 0.176700 0.176677 0.176672 0.176668 0.176644 0.176593 0.176525 0.176468 0.176411 0.176354 0.176310 0.176278 0.176264 0.176261 
0.219116 0.218996 0.218495 0.217322 0.215768 0.214334 0.212901 0.211467 0.210148 0.209153 0.208759 0.208665 0.208571 0.208183 0.207271 0.206063 0.204961 0.203859 0.202757 0.201751 0.200992 0.200692 0.200620 0.200550 0.200255 0.199570 0.198663 0.197827 0.196992 0.196157 0.195381 0.194795 0.194562 0.194506 0.194451 0.194220 0.193675 0.192952 0.192268 0.191583 0.190899 0.190236 0.189735 0.189537 0.189489 0.189441 0.189244 0.188771 0.188144 0.187552 0.186959 0.186366 0.185799 0.185371 0.185198 0.185156 0.185117 0.184954 0.184565 0.184049 0.183566 0.183082 0.182599 0.182171 0.181849 0.181721 0.181690 0.181660 0.181534 0.181265 0.180909 0.180593 0.180277 0.179961 0.179702 0.179506 0.179427 0.179408 0.179389 0.179310 0.179133 0.178897 0.178702 0.178507 0.178312 0.178146 0.178021 0.177973 0.177961 0.177949 0.177901 0.177781 0.177622 0.177495 0.177368 0.177242 0.177119 0.177026 0.176994 0.176987 0.176980 0.176948 0.176872 0.176771 0.176684 0.176598 0.176511 0.176432 0.176371 0.176346 0.176340 0.176336 0.176318 0.176272 0.176210 0.176156 0.176101 0.176047 0.176003 0.175971 0.175957 0.175954 
0.209209 0.209116 0.208749 0.207893 0.206761 0.205707 0.204652 0.203597 0.202613 0.201870 0.201569 0.201493 0.201418 0.201120 0.200432 0.199521 0.198677 0.197832 0.196987 0.196207 0.195617 0.195380 0.195320 0.195261 0.195029 0.194495 0.193788 0.193120 0.192453 0.191786 0.191155 0.190679 0.190484 0.190435 0.190386 0.190194 0.189745 0.189150 0.188577 0.188003 0.187430 0.186890 0.186481 0.186312 0.186269 0.186227 0.186058 0.185660 0.185134 0.184635 0.184135 0.183636 0.183160 0.182801 0.182658 0.182622 0.182586 0.182444 0.182108 0.181664 0.181255 0.180845 0.180436 0.180055 0.179767 0.179655 0.179627 0.179599 0.179489 0.179271 0.178982 0.178719 0.178457 0.178194 0.177995 0.177845 0.177782 0.177766 0.177750 0.177688 0.177542 0.177349 0.177210 0.177070 0.176930 0.176799 0.176701 0.176671 0.176663 0.176655 0.176625 0.176551 0.176453 0.176368 0.176282 0.176197 0.176128 0.176076 0.176054 0.176048 0.176043 0.176020 0.175985 0.175939 0.175895 0.175851 0.175807 0.175785 0.175769 0.175762 0.175760 0.175759 0.175751 0.175733 0.175709 0.175705 0.175701 0.175697 0.175693 0.175691 0.175696 0.175697 0.175698 0.175702 0.175712 0.175724 0.175745 0.175765 0.175786 0.175815 0.175837 0.175847 0.175849 
0.189244 0.189191 0.188925 0.188268 0.187396 0.186581 0.185765 0.184950 0.184186 0.183611 0.183395 0.183352 0.183309 0.183094 0.182560 0.181850 0.181190 0.180531 0.179871 0.179257 0.178794 0.178618 0.178583 0.178548 0.178373 0.177940 0.177365 0.176827 0.176289 0.175750 0.175255 0.174883 0.174737 0.174708 0.174680 0.174535 0.174188 0.173727 0.173306 0.172885 0.172465 0.172086 0.171801 0.171701 0.171681 0.171663 0.171575 0.171399 0.171165 0.170978 0.170791 0.170604 0.170441 0.170317 0.170285 0.170278 0.170272 0.170239 0.170151 0.170035 0.169945 0.169854 0.169764 0.169695 0.169643 0.169627 0.169623 0.169620 0.169603 0.169559 0.169500 0.169470 0.169440 0.169410 0.169402 0.169396 0.169395 0.169394 0.169394 0.169392 0.169395 0.169399 0.169420 0.169441 0.169462 0.169501 0.169530 0.169542 0.169544 
0.173077 0.173046 0.172929 0.172653 0.172289 0.171931 0.171573 0.171216 0.170875 0.170618 0.170510 0.170482 0.170453 0.170346 0.170096 0.169766 0.169448 0.169131 0.168813 0.168504 0.168270 0.168174 0.168148 0.168123 0.168027 0.167803 0.167508 0.167227 0.166947 0.166667 0.166398 0.166195 0.166109 0.166087 0.166064 0.165979 0.165786 0.165530 0.165283 0.165037 0.164790 0.164560 0.164386 0.164314 0.164295 0.164276 0.164204 0.164036 0.163813 0.163608 0.163402 0.163197 0.162998 0.162847 0.162784 0.162767 0.162752 0.162694 0.162560 0.162383 0.162278 0.162172 0.162067 0.161983 0.161920 0.161893 0.161886 0.161879 0.161852 0.161790 0.161708 0.161641 0.161573 0.161505 0.161440 0.161391 0.161374 0.161370 0.161366 0.161349 0.161310 0.161259 0.161210 0.161162 0.161114 0.161069 0.161034 0.161019 0.161015 0.161011 0.160995 0.160965 0.160924 0.160885 0.160845 0.160806 0.160777 0.160755 0.160746 0.160744 0.160741 0.160732 0.160708 0.160677 0.160654 0.160631 0.160608 0.160586 0.160569 0.160562 0.160560 
