0.134702 0.134709 0.134812 0.135280 0.136021 0.136737 0.137452 0.138167 0.138876 0.139323 0.139422 0.139428 0.139435 0.139534 0.139994 0.140724 0.141491 0.142257 0.143023 0.143821 0.144324 0.144435 0.144442 0.144450 0.144560 0.145064 0.145861 0.146635 0.147408 0.148181 0.148945 0.149427 0.149533 0.149540 0.149547 0.149654 0.150146 0.150926 0.151727 0.152528 0.153330 0.154140 0.154652 0.154763 0.154771 0.154778 0.154890 0.155394 0.156192 0.156967 0.157741 0.158516 0.159258 0.159727 0.159829 0.159835 
0.134699 0.134695 0.134651 0.134489 0.134249 0.134011 0.133773 0.133535 0.133303 0.133147 0.133105 0.133101 0.133096 0.133054 0.132900 0.132672 0.132449 0.132225 0.132002 0.131784 0.131637 0.131598 0.131594 0.131590 0.131550 0.131407 0.131194 0.130983 0.130772 0.130561 0.130352 0.130211 0.130172 0.130169 
0.134700 0.134700 0.134691 0.134518 0.134244 0.133608 0.132972 0.132336 0.131637 0.131196 0.131101 0.131095 0.131089 0.130993 0.130576 0.129915 0.129330 0.128745 0.128160 0.127645 0.127320 0.127253 0.127249 0.127245 0.127180 0.126904 0.126466 0.126097 0.125728 0.125360 0.124992 0.124759 0.124707 0.124703 0.124700 0.124647 0.124390 0.123983 0.123471 0.122959 0.122447 0.121760 0.121326 0.121221 0.121214 0.121207 0.121102 0.120594 0.119790 0.119071 0.118352 0.117633 0.117111 0.116782 0.116718 0.116714 0.116710 0.116647 0.116378 0.115953 0.115622 0.115291 0.114961 0.114734 0.114591 0.114564 0.114563 0.114561 0.114535 0.114431 0.114266 0.114148 0.114030 0.113911 0.113818 0.113759 0.113746 0.113746 0.113745 0.113733 0.113680 0.113597 0.113521 0.113445 0.113369 0.113299 0.113255 0.113245 0.113245 0.113244 0.113235 0.113194 0.113129 0.113073 0.113017 0.112960 0.112915 0.112887 0.112881 0.112881 0.112881 0.112875 0.112852 0.112816 0.112789 0.112761 0.112733 0.112711 0.112698 0.112695 0.112695 0.112694 0.112692 0.112681 0.112663 0.112649 0.112636 0.112622 0.112612 0.112606 0.112605 0.112605 0.112605 0.112604 0.112599 0.112592 0.112588 0.112585 0.112581 0.112580 0.112580 0.112580 0.112580 
0.149539 0.149536 0.149519 0.149477 0.149420 0.149362 0.149304 0.149246 0.149188 0.149144 0.149127 0.149123 0.149119 0.149102 0.149057 0.148998 0.148938 0.148877 0.148816 0.148754 0.148707 0.148688 0.148684 0.148680 0.148662 0.148616 0.148555 0.148496 0.148437 0.148378 0.148319 0.148274 0.148256 0.148252 0.148248 0.148230 0.148185 0.148125 0.148066 0.148007 0.147948 0.147890 0.147847 0.147829 0.147826 0.147822 0.147805 0.147762 0.147705 0.147650 0.147595 0.147541 0.147492 0.147455 0.147444 0.147442 0.147440 0.147430 0.147407 0.147376 0.147355 0.147335 0.147314 0.147302 0.147292 0.147289 0.147288 0.147287 0.147284 0.147278 0.147271 0.147268 0.147265 0.147262 0.147265 0.147267 0.147268 0.147268 0.147268 0.147269 0.147272 0.147277 0.147284 0.147291 0.147299 0.147309 0.147316 0.147319 0.147319 0.147320 0.147323 0.147332 0.147344 0.147356 0.147369 0.147382 0.147396 0.147407 0.147411 0.147412 0.147413 0.147417 0.147429 0.147445 0.147462 0.147479 0.147495 0.147513 0.147526 0.147531 0.147533 
0.144440 0.144433 0.144390 0.144277 0.144127 0.143975 0.143824 0.143672 0.143520 0.143405 0.143361 0.143353 0.143345 0.143300 0.143186 0.143033 0.142881 0.142728 0.142576 0.142425 0.142312 0.142268 0.142261 0.142253 0.142210 0.142098 0.141950 0.141805 0.141660 0.141515 0.141374 0.141268 0.141227 0.141220 0.141213 0.141172 0.141070 0.140935 0.140803 0.140672 0.140540 0.140415 0.140321 0.140286 0.140279 0.140273 0.140238 0.140149 0.140030 0.139920 0.139810 0.139700 0.139612 0.139545 0.139527 0.139524 0.139521 0.139504 0.139462 0.139406 0.139368 0.139330 0.139292 0.139273 0.139258 0.139253 0.139252 0.139251 0.139246 0.139241 0.139235 0.139239 0.139243 0.139247 0.139261 0.139271 0.139278 0.139279 0.139280 0.139286 0.139303 0.139326 0.139360 0.139393 0.139426 0.139467 0.139498 0.139510 0.139512 
0.139427 0.139423 0.139406 0.139367 0.139314 0.139259 0.139204 0.139149 0.139092 0.139049 0.139031 0.139026 0.139021 0.139003 0.138958 0.138899 0.138838 0.138777 0.138717 0.138655 0.138608 0.138588 0.138583 0.138578 0.138558 0.138511 0.138448 0.138384 0.138320 0.138257 0.138193 0.138146 0.138125 0.138120 0.138115 0.138095 0.138048 0.137985 0.137923 0.137861 0.137800 0.137739 0.137693 0.137674 0.137669 0.137664 0.137645 0.137601 0.137542 0.137485 0.137428 0.137371 0.137316 0.137274 0.137257 0.137253 0.137248 0.137231 0.137191 0.137138 0.137085 0.137032 0.136978 0.136926 0.136886 0.136869 0.136864 0.136860 0.136843 0.136802 0.136748 0.136693 0.136639 0.136584 0.136529 0.136487 0.136470 0.136466 0.136461 0.136444 0.136402 0.136347 0.136292 0.136236 0.136181 0.136127 0.136086 0.136069 0.136065 0.136060 0.136043 0.136003 0.135951 0.135905 0.135859 0.135812 0.135781 0.135757 0.135749 0.135747 0.135745 0.135738 0.135720 0.135696 0.135680 0.135663 0.135647 0.135636 0.135628 0.135625 0.135624 0.135623 0.135619 0.135617 0.135614 0.135612 0.135610 0.135608 0.135613 0.135617 0.135619 0.135619 0.135620 0.135622 0.135626 0.135631 0.135642 0.135652 0.135662 0.135674 0.135682 0.135686 0.135687 0.135688 0.135693 0.135706 0.135722 0.135739 0.135756 0.135773 0.135793 0.135809 0.135815 0.135817 0.135819 0.135825 0.135842 0.135863 0.135888 0.135912 0.135937 0.135962 0.135982 0.135991 0.135993 
0.133101 0.133101 0.133101 0.133100 0.133100 0.133098 0.133096 0.133094 0.133090 0.133088 0.133087 0.133086 0.133086 0.133085 0.133080 0.133074 0.133065 0.133056 0.133047 0.133036 0.133027 0.133024 0.133023 0.133022 0.133018 0.133008 0.132995 0.132980 0.132965 0.132949 0.132933 0.132921 0.132916 0.132915 0.132913 0.132908 0.132896 0.132880 0.132864 0.132849 0.132833 0.132819 0.132808 0.132804 0.132803 0.132802 0.132798 0.132790 0.132778 0.132768 0.132759 0.132750 0.132741 0.132734 0.132731 0.132731 0.132730 0.132728 0.132721 0.132711 0.132700 0.132689 0.132678 0.132665 0.132655 0.132651 0.132650 0.132649 0.132644 0.132633 0.132618 0.132600 0.132583 0.132566 0.132547 0.132532 0.132526 0.132525 0.132523 0.132517 0.132502 0.132481 0.132460 0.132438 0.132417 0.132395 0.132378 0.132374 0.132373 0.132373 0.132370 0.132364 0.132356 0.132352 0.132348 0.132344 0.132342 0.132341 0.132340 0.132340 0.132340 0.132340 0.132342 0.132344 0.132346 0.132348 0.132351 0.132355 0.132358 0.132359 0.132359 0.132360 0.132361 0.132364 0.132368 0.132374 0.132379 0.132384 0.132391 0.132395 0.132397 0.132397 0.132398 0.132400 0.132404 0.132410 0.132417 0.132425 0.132433 0.132441 0.132447 0.132450 0.132450 
0.130169 0.130170 0.130173 0.130182 0.130193 0.130201 0.130209 0.130217 0.130222 0.130227 0.130228 0.130228 0.130228 0.130230 0.130232 0.130235 0.130235 0.130235 0.130236 0.130234 0.130232 0.130231 0.130231 0.130231 0.130230 0.130226 0.130222 0.130216 0.130210 0.130204 0.130196 0.130190 0.130188 0.130187 0.130187 0.130184 0.130177 0.130167 0.130156 0.130145 0.130134 0.130122 0.130113 0.130109 0.130108 0.130107 0.130103 0.130093 0.130079 0.130064 0.130049 0.130035 0.130019 0.130007 0.130002 0.130001 0.130000 0.129994 0.129982 0.129965 0.129947 0.129929 0.129912 0.129893 0.129878 0.129873 0.129871 0.129870 0.129864 0.129853 0.129839 0.129840 0.129840 0.129841 0.129843 0.129844 0.129844 0.129844 0.129844 0.129844 0.129846 0.129847 0.129848 0.129849 0.129851 0.129851 0.129852 0.129852 0.129852 0.129852 0.129852 0.129853 0.129853 0.129853 0.129853 0.129852 0.129852 0.129852 0.129851 0.129851 0.129851 0.129851 0.129851 0.129850 0.129850 0.129849 0.129849 0.129849 0.129849 0.129849 0.129849 
