-1.277676 0.676801 6.514345
-1.284546 0.682643 6.511293
-1.291417 0.688484 6.508242
-1.635801 0.979954 6.350245
-1.976152 1.266367 6.188270
-2.284478 1.481501 5.905055
-2.593517 1.651894 5.591779
-1.295935 0.692325 6.506235
-1.634360 0.978733 6.350904
-1.637242 0.981176 6.349591
-1.974740 1.265225 6.189108
-1.977564 1.267509 6.187432
-2.283288 1.480700 5.906449
-2.285668 1.482302 5.903661
-2.592002 1.651461 5.593012
-1.314528 0.708133 6.497976
-1.615795 0.963014 6.359394
-1.655840 0.996996 6.341365
-1.956549 1.250514 6.199902
-1.995755 1.282219 6.176638
-2.267961 1.470381 5.924405
-2.300995 1.492621 5.885705
-2.572899 1.645184 5.609109
-1.354261 0.741886 6.480223
-1.398655 0.779463 6.459870
-1.443029 0.816979 6.439361
-1.487385 0.854442 6.418717
-1.531742 0.891911 6.398087
-1.576111 0.929413 6.377543
-1.695594 1.030814 6.323780
-1.740115 1.068788 6.304471
-1.784651 1.106809 6.285286
-1.829098 1.144547 6.265351
-1.873409 1.181900 6.244450
-1.917532 1.218717 6.222208
-2.033872 1.311570 6.149849
-2.076173 1.343521 6.118542
-2.117356 1.372650 6.083151
-2.157452 1.399638 6.045054
-2.196744 1.425042 6.004956
-2.234502 1.448933 5.962529
-2.333769 1.515215 5.847652
-2.370456 1.541371 5.805617
-2.408436 1.566738 5.764263
-2.447223 1.591418 5.723263
-2.489102 1.612384 5.683217
-2.532513 1.630993 5.643761
-3.521117 1.880154 4.845106
-4.447825 2.079520 4.087971
-5.421395 2.346889 3.421262
-6.030643 3.210295 2.857536
-6.582394 4.157928 2.338746
-7.193156 5.052634 1.793471
-7.887143 5.858257 1.211381
-8.678824 6.531560 0.588578
-9.563699 7.034083 -0.068862
-10.518239 7.347487 -0.746396
-11.512008 7.480882 -1.427577
-12.520633 7.461235 -2.100235
-2.595031 1.652326 5.590547
-3.519589 1.879832 4.846356
-3.522645 1.880476 4.843857
-4.446247 2.079199 4.089158
-4.449403 2.079840 4.086785
-5.419956 2.346033 3.422357
-5.422833 2.347745 3.420167
-6.029767 3.208701 2.858367
-6.031520 3.211890 2.856705
-6.581445 4.156400 2.339619
-6.583344 4.159457 2.337873
-7.192092 5.051215 1.794395
-7.194220 5.054053 1.792546
-7.885933 5.857008 1.212369
-7.888354 5.859505 1.210393
-8.677447 6.530566 0.589633
-8.680202 6.532555 0.587523
-9.562178 7.033398 -0.067758
-9.565219 7.034767 -0.069966
-10.516625 7.347125 -0.745272
-10.519853 7.347848 -0.747520
-11.510351 7.480811 -1.426459
-11.513665 7.480952 -1.428694
-12.518968 7.461400 -2.099140
-2.614543 1.657898 5.574670
-3.499858 1.875699 4.862399
-3.542329 1.884625 4.827759
-4.426004 2.075051 4.104546
-4.469728 2.083965 4.071498
-5.401346 2.335155 3.436451
-5.441362 2.358767 3.406061
-6.018478 3.188164 2.869072
-6.042808 3.232427 2.845999
-6.569214 4.136709 2.350866
-6.595575 4.179147 2.326626
-7.178386 5.032936 1.806304
-7.207926 5.072332 1.780637
-7.870339 5.840926 1.225098
-7.903947 5.875587 1.197663
-8.659700 6.517756 0.603227
-8.697948 6.545365 0.573930
-9.542589 7.024577 -0.053536
-9.584808 7.043588 -0.084189
-10.495831 7.342468 -0.730790
-10.540647 7.352506 -0.762002
-11.489003 7.479904 -1.412063
-11.535013 7.481859 -1.443091
-12.497510 7.463517 -2.085037
-2.702860 1.683346 5.502766
-2.841152 1.726796 5.388058
-2.980292 1.767359 5.273355
-3.122951 1.799142 5.160183
-3.266833 1.828036 5.047769
-3.410109 1.857102 4.934629
-3.631286 1.903467 4.754620
-3.771590 1.933521 4.638063
-3.911955 1.963754 4.521627
-4.052746 1.994236 4.405770
-4.193787 2.025087 4.290317
-4.335565 2.055895 4.175760
-4.562823 2.102343 4.003593
-4.713498 2.130492 3.900270
-4.864628 2.159259 3.797780
-5.014377 2.195549 3.695740
-5.162410 2.245328 3.596881
-5.310167 2.298162 3.499156
-5.518366 2.418284 3.342393
-5.621192 2.535753 3.243728
-5.721869 2.656914 3.147023
-5.816414 2.788908 3.059324
-5.893512 2.940435 2.986970
-5.968411 3.093939 2.916313
-6.094159 3.325111 2.797106
-6.176213 3.471053 2.718738
-6.259071 3.616401 2.640111
-6.342835 3.761082 2.561214
-6.427730 3.904807 2.481781
-6.514079 4.047297 2.401693
-6.651200 4.268133 2.275585
-6.740773 4.407792 2.194070
-6.832486 4.545481 2.111586
-6.925132 4.682297 2.028690
-7.019067 4.817871 1.945214
-7.116184 4.950274 1.860302
-7.270117 5.155008 1.726648
-7.371174 5.283249 1.639987
-7.475937 5.407353 1.551696
-7.580920 5.531214 1.463319
-7.687485 5.653187 1.374248
-7.799118 5.768872 1.283006
-7.974612 5.948373 1.139989
-8.090249 6.058630 1.047074
-8.210446 6.162285 0.952315
-8.330479 6.266202 0.857623
-8.452363 6.367189 0.762183
-8.579038 6.460239 0.664897
-8.778591 6.602905 0.512256
-8.909474 6.688127 0.413406
-9.043505 6.766986 0.313462
-9.178098 6.844633 0.213316
-9.314605 6.917930 0.112526
-9.453976 6.984318 0.010844
-9.673909 7.082505 -0.148718
-9.816855 7.138965 -0.251425
-9.961511 7.190080 -0.354547
-10.107110 7.237971 -0.457889
-10.253858 7.281663 -0.561456
-10.401858 7.320400 -0.665219
-10.635080 7.372390 -0.827612
-10.785227 7.401072 -0.931565
-10.936187 7.425155 -1.035497
-11.087896 7.444415 -1.139350
-11.239957 7.461150 -1.243132
-11.392425 7.474564 -1.346785
-11.631771 7.485149 -1.508244
-11.785077 7.489996 -1.611431
-11.938678 7.490324 -1.714270
-12.092530 7.485249 -1.816625
-12.246397 7.479722 -1.918938
-12.400317 7.471849 -2.020999
169 NaN NaN
-1.274241 0.673881 6.515871
-1.346890 0.735647 6.483602
-1.419416 0.797036 6.450351
-1.491880 0.858239 6.416625
-1.564348 0.919452 6.382923
-1.636884 0.980871 6.349749
-1.709549 1.042685 6.317608
-1.782315 1.104826 6.286334
-1.854925 1.166476 6.253767
-1.927001 1.226618 6.217435
-1.998061 1.284084 6.175270
-2.067620 1.337472 6.125892
-2.134864 1.385034 6.068105
-2.199038 1.426525 6.002615
-2.260566 1.465402 5.933070
-2.320449 1.505718 5.862914
-2.380384 1.548449 5.794242
-2.443204 1.589406 5.727106
-2.511585 1.623639 5.661718
-2.585388 1.649573 5.598394
-2.661623 1.671341 5.536360
-2.737754 1.693504 5.474339
-2.812814 1.717693 5.411769
-2.887779 1.741775 5.349043
-2.963734 1.763400 5.286622
-3.040961 1.781863 5.224745
-3.118974 1.798342 5.163290
-3.197320 1.814098 5.102069
-3.275681 1.829810 5.040857
-3.353848 1.845585 4.979412
-3.431620 1.861505 4.917506
-3.508934 1.877587 4.855070
-3.585846 1.893795 4.792171
-3.662422 1.910095 4.728889
-3.738790 1.926463 4.665371
-3.815119 1.942887 4.601822
-3.891574 1.959356 4.538436
-3.968183 1.975888 4.475253
-4.044889 1.992520 4.412214
-4.121644 2.009281 4.349268
-4.198499 2.026120 4.286467
-4.275566 2.042944 4.223920
-4.352983 2.059655 4.161779
-4.431146 2.076135 4.100516
-4.510560 2.092251 4.040786
-4.591582 2.107896 3.983127
-4.673754 2.123189 3.927020
-4.756316 2.138360 3.871452
-4.838613 2.153810 3.815571
-4.920493 2.170960 3.759577
-5.001915 2.191628 3.704116
-5.082748 2.217066 3.649788
-5.163168 2.245597 3.596377
-5.243615 2.274654 3.543291
-5.324097 2.303082 3.489917
-5.402412 2.335598 3.435713
-5.474734 2.378617 3.380655
-5.537163 2.435373 3.325910
-5.592496 2.500077 3.272223
-5.646065 2.566674 3.219031
-5.701430 2.631955 3.166047
-5.756363 2.699036 3.114916
-5.807160 2.772102 3.067965
-5.851418 2.852479 3.026639
-5.891688 2.936572 2.988692
-5.931549 3.021000 2.951051
-5.973337 3.103684 2.911672
-6.016654 3.184846 2.870802
-6.060762 3.265090 2.828973
-6.105164 3.344889 2.786606
-6.149805 3.424386 2.743923
-6.194680 3.503688 2.701126
-6.239795 3.582850 2.658319
-6.285171 3.661832 2.615456
-6.330829 3.740589 2.572478
-6.376808 3.819071 2.529340
-6.423169 3.897228 2.486022
-6.469973 3.975009 2.442504
-6.517208 4.052424 2.398799
-6.564771 4.129557 2.354951
-6.612561 4.206494 2.311006
-6.660634 4.283182 2.266936
-6.709214 4.359418 2.222636
-6.758519 4.434992 2.178007
-6.808498 4.509941 2.133072
-6.858850 4.584540 2.087972
-6.909292 4.659056 2.042835
-6.959943 4.733373 1.997605
-7.011257 4.807048 1.952074
-7.063648 4.879654 1.906056
-7.116962 4.951320 1.859624
-7.170642 5.022609 1.813033
-7.224196 5.094031 1.766501
-7.277880 5.165317 1.719911
-7.332424 5.235690 1.672935
-7.388443 5.304443 1.625304
-7.445598 5.371907 1.577177
-7.503049 5.439030 1.528925
-7.560104 5.506615 1.480849
-7.617226 5.574122 1.432743
-7.675427 5.640351 1.384162
-7.735488 5.704288 1.334781
-7.796833 5.766570 1.284862
-7.858378 5.828591 1.234863
-7.919306 5.891426 1.185125
-7.980275 5.954204 1.135367
-8.042477 6.015331 1.085086
-8.106728 6.073567 1.033962
-8.172304 6.129834 0.982310
-8.238081 6.185798 0.930582
-8.303291 6.242625 0.879079
-8.368615 6.299275 0.827525
-8.435112 6.354094 0.775500
-8.503414 6.405943 0.722775
-8.572844 6.455837 0.669630
-8.642495 6.505337 0.616405
-8.711836 6.555389 0.563292
-8.781451 6.604941 0.510070
-8.852123 6.652524 0.456454
-8.924234 6.697290 0.402327
-8.997236 6.740212 0.347897
-9.070487 6.782600 0.293382
-9.143678 6.825111 0.238881
-9.217228 6.866827 0.184253
-9.291641 6.906588 0.129338
-9.367096 6.943855 0.074097
-9.443225 6.979419 0.018656
-9.519636 7.014241 -0.036871
-9.596176 7.048707 -0.092442
-9.673081 7.082166 -0.148122
-9.750608 7.113856 -0.203972
-9.828818 7.143500 -0.259994
-9.907520 7.171581 -0.316133
-9.986526 7.198650 -0.372345
-10.065767 7.224902 -0.428612
-10.145318 7.250048 -0.484946
-10.225255 7.273769 -0.541351
-10.305591 7.295941 -0.597820
-10.386277 7.316668 -0.654338
-10.467265 7.336070 -0.710896
-10.548513 7.354268 -0.767480
-10.629985 7.371383 -0.824081
-10.711651 7.387528 -0.880689
-10.793519 7.402599 -0.937298
-10.875631 7.416298 -0.993903
-10.958014 7.428348 -1.050490
-11.040619 7.438919 -1.107048
-11.123359 7.448539 -1.163580
-11.206162 7.457692 -1.220098
-11.289052 7.466173 -1.276593
-11.372105 7.473302 -1.333033
-11.455366 7.478474 -1.389379
-11.538778 7.482019 -1.445630
-11.622250 7.484826 -1.501833
-11.705721 7.487658 -1.558038
-11.789220 7.490118 -1.614218
-11.872815 7.491203 -1.670296
-11.956532 7.490086 -1.726190
-12.040316 7.487303 -1.781928
-12.124116 7.484006 -1.837615
-12.207904 7.481117 -1.893344
-12.291696 7.478081 -1.949057
-12.375520 7.473768 -2.004636
-12.459368 7.467280 -2.059966
-12.543207 7.459008 -2.115072
-12.627031 7.449774 -2.170051
-12.710852 7.440395 -2.225010
-12.794685 7.431690 -2.280059
-12.878533 7.424479 -2.335301
