-0.879973 0.446794 1.542352
-0.884855 0.454373 1.542989
-0.889737 0.461952 1.543627
-1.138830 0.850477 1.586065
-1.384428 1.234805 1.634861
-1.584224 1.504968 1.424031
-1.748007 1.671281 1.029186
-0.892988 0.467000 1.544051
-1.137754 0.848800 1.585891
-1.139906 0.852154 1.586240
-1.383391 1.233145 1.634451
-1.385466 1.236465 1.635271
-1.583636 1.504344 1.425837
-1.584832 1.505646 1.422250
-1.747231 1.670720 1.030941
-0.906504 0.487986 1.545817
-1.124290 0.827819 1.583709
-1.153403 0.873137 1.588155
-1.370413 1.212374 1.629317
-1.398444 1.257236 1.640405
-1.576472 1.497056 1.448680
-1.592432 1.514129 1.399968
-1.737511 1.663691 1.052903
-0.935324 0.532756 1.549725
-0.967420 0.582827 1.555239
-0.999482 0.632890 1.561000
-1.031500 0.682944 1.567091
-1.063527 0.733000 1.573109
-1.095565 0.783058 1.579054
-1.182296 0.917911 1.591457
-1.214652 0.968000 1.594872
-1.247058 1.018086 1.597846
-1.279231 1.068158 1.602711
-1.311290 1.118218 1.608482
-1.342542 1.167954 1.619308
-1.426651 1.301726 1.647912
-1.459114 1.351807 1.650286
-1.490411 1.396247 1.631047
-1.520849 1.437394 1.600678
-1.541672 1.460446 1.549662
-1.561186 1.481509 1.497414
-1.608647 1.532226 1.352429
-1.628445 1.555274 1.301069
-1.649025 1.579645 1.250570
-1.671317 1.604040 1.200815
-1.693837 1.627140 1.150590
-1.716844 1.647408 1.099331
-2.206654 1.912714 -0.024372
-2.580104 1.998154 -1.135312
-2.876590 2.097905 -2.267489
-3.575848 2.391244 -3.143832
-4.434127 2.914330 -3.749274
-4.923345 3.679709 -4.472044
-5.179412 4.506864 -5.267785
-5.476368 5.295323 -6.088284
-5.828123 6.028541 -6.937523
-6.251545 6.680154 -7.819646
-6.757351 7.221769 -8.731974
-7.345282 7.629182 -9.664503
-8.003352 7.891034 -10.602410
-8.713814 8.013128 -11.530790
-1.748784 1.671843 1.027430
-2.205924 1.912503 -0.022523
-2.207385 1.912925 -0.026222
-2.579599 1.998037 -1.133380
-2.580602 1.998270 -1.137246
-2.875852 2.097623 -2.265651
-2.877329 2.098186 -2.269326
-3.574362 2.390541 -3.142693
-3.577334 2.391947 -3.144971
-4.432825 2.913222 -3.748237
-4.435430 2.915439 -3.750311
-4.922911 3.678269 -4.470727
-4.923780 3.681150 -4.473362
-5.178948 4.505485 -5.266414
-5.179875 4.508244 -5.269157
-5.475834 5.294010 -6.086873
-5.476903 5.296635 -6.089696
-5.827486 6.027336 -6.936059
-5.828761 6.029746 -6.938986
-6.250769 6.679115 -7.818124
-6.252320 6.681193 -7.821169
-6.756422 7.220952 -8.730403
-6.758280 7.222585 -8.733546
-7.344223 7.628601 -9.662909
-7.346348 7.629746 -9.666098
-8.002184 7.890711 -10.600820
-8.004521 7.891356 -10.604001
-8.712571 8.013030 -11.529226
-1.758504 1.678872 1.005468
-2.196785 1.909865 0.000624
-2.216524 1.915562 -0.049369
-2.573290 1.996582 -1.109208
-2.586469 1.999715 -1.161530
-2.866618 2.094100 -2.242661
-2.886563 2.101710 -2.292316
-3.555764 2.381745 -3.128446
-3.595932 2.400744 -3.159218
-4.416332 2.899602 -3.735249
-4.451726 2.929308 -3.763285
-4.917471 3.660243 -4.454242
-4.929099 3.699205 -4.489851
-5.173150 4.488224 -5.249247
-5.185674 4.525504 -5.286324
-5.469150 5.277585 -6.069216
-5.483590 5.313057 -6.107354
-5.819511 6.012259 -6.917747
-5.836819 6.044729 -6.957338
-6.241068 6.666110 -7.799072
-6.262022 6.694198 -7.840221
-6.744798 7.210734 -8.710738
-6.769905 7.232803 -8.753210
-7.330980 7.621330 -9.642960
-7.359708 7.636778 -9.686055
-7.987561 7.886674 -10.580917
-8.019144 7.895393 -10.623903
-8.697018 8.011809 -11.509660
-1.802668 1.709135 0.905823
-1.873181 1.759570 0.749003
-1.943783 1.803477 0.590338
-2.014278 1.836932 0.429053
-2.085205 1.867969 0.267454
-2.154678 1.895899 0.104676
-2.257813 1.927006 -0.154058
-2.322491 1.943720 -0.320325
-2.383351 1.958172 -0.488225
-2.439735 1.970072 -0.657889
-2.493699 1.980151 -0.828459
-2.544064 1.990060 -1.000129
-2.612409 2.006221 -1.271438
-2.651140 2.016783 -1.446070
-2.691456 2.029094 -1.620225
-2.733356 2.043383 -1.793858
-2.776463 2.059511 -1.967024
-2.827698 2.079213 -2.137527
-2.932810 2.119334 -2.394018
-3.016319 2.151675 -2.549156
-3.113048 2.190532 -2.694770
-3.223692 2.235755 -2.828041
-3.345926 2.286832 -2.948589
-3.473339 2.343352 -3.061168
-3.681074 2.441555 -3.221493
-3.816975 2.510489 -3.315736
-3.951179 2.584999 -3.408154
-4.084925 2.663872 -3.497574
-4.216741 2.747691 -3.585334
-4.340971 2.838976 -3.676601
-4.524181 2.992894 -3.822442
-4.629092 3.099204 -3.921166
-4.716079 3.212743 -4.028912
-4.785436 3.331500 -4.143688
-4.842439 3.453821 -4.261516
-4.891143 3.579350 -4.379703
-4.951340 3.781205 -4.564531
-4.987008 3.909975 -4.683916
-5.025848 4.036320 -4.804896
-5.065317 4.161838 -4.926533
-5.105514 4.286526 -5.048783
-5.146893 4.410234 -5.171634
-5.212115 4.603314 -5.364056
-5.255534 4.725158 -5.488057
-5.300047 4.845991 -5.612661
-5.344521 4.966862 -5.737242
-5.390650 5.086150 -5.862738
-5.438906 5.203369 -5.989385
-5.514269 5.386839 -6.187419
-5.565514 5.501032 -6.315633
-5.618224 5.613719 -6.444597
-5.670468 5.726891 -6.573325
-5.725729 5.836848 -6.703555
-5.783334 5.944249 -6.834913
-5.873815 6.111817 -7.040557
-5.935435 6.214623 -7.173745
-5.998524 6.315705 -7.307575
-6.061972 6.416349 -7.441562
-6.128614 6.513064 -7.576869
-6.197471 6.606987 -7.713051
-6.306798 6.751766 -7.926687
-6.380718 6.838906 -8.064707
-6.455928 6.924239 -8.203162
-6.532363 7.007797 -8.342020
-6.611653 7.087146 -8.481742
-6.692960 7.163409 -8.622031
-6.823054 7.278006 -8.842243
-6.909290 7.346199 -8.983731
-6.997119 7.411610 -9.125558
-7.086488 7.474241 -9.267676
-7.178003 7.532903 -9.410121
-7.271303 7.588076 -9.552802
-7.420287 7.668168 -9.776279
-7.517539 7.715126 -9.919258
-7.616570 7.758091 -10.062275
-7.716960 7.797897 -10.205262
-7.818455 7.835051 -10.348177
-7.921649 7.867926 -10.490919
-8.085401 7.913219 -10.713837
-8.191288 7.938881 -10.856089
-8.298958 7.959400 -10.997836
-8.407311 7.977869 -11.139352
-8.516198 7.994687 -11.280657
-8.626692 8.006360 -11.421227
192 NaN NaN
-0.877533 0.443004 1.542033
-0.931827 0.527301 1.549124
-0.985843 0.611567 1.558405
-1.039727 0.695805 1.568656
-1.093634 0.780049 1.578741
-1.147718 0.864326 1.587506
-1.202116 0.948624 1.593722
-1.256653 1.032916 1.598726
-1.310624 1.117158 1.608252
-1.363202 1.200834 1.626464
-1.415328 1.284258 1.647085
-1.469729 1.368184 1.651062
-1.520233 1.436712 1.602186
-1.555176 1.475396 1.516577
-1.583954 1.504667 1.424822
-1.614469 1.538723 1.335362
-1.649099 1.579732 1.250390
-1.686621 1.620784 1.166666
-1.725330 1.654883 1.080425
-1.764372 1.683115 0.992209
-1.803649 1.709802 0.903609
-1.843152 1.738075 0.815606
-1.882789 1.766448 0.727694
-1.922431 1.792070 0.638952
-1.961950 1.813183 0.548975
-2.001456 1.831336 0.458342
-2.041164 1.848666 0.367636
-2.081041 1.866206 0.277044
-2.120523 1.882916 0.186123
-2.158983 1.897535 0.094411
-2.196293 1.909723 0.001871
-2.233003 1.920319 -0.091106
-2.269683 1.930205 -0.184174
-2.306181 1.939671 -0.277357
-2.341717 1.948494 -0.370972
-2.375563 1.956456 -0.465288
-2.407801 1.963559 -0.560234
-2.438995 1.969932 -0.655580
-2.469615 1.975727 -0.751150
-2.499469 1.981211 -0.846980
-2.528117 1.986695 -0.943177
-2.555177 1.992405 -1.039819
-2.580522 1.998250 -1.136916
-2.604090 2.004057 -1.234463
-2.626118 2.009787 -1.332374
-2.647605 2.015738 -1.430392
-2.669666 2.022257 -1.528247
-2.692778 2.029509 -1.625806
-2.716365 2.037362 -1.723206
-2.739789 2.045663 -1.820608
-2.763476 2.054521 -1.917897
-2.789042 2.064344 -2.014612
-2.818074 2.075526 -2.110190
-2.851186 2.088211 -2.204242
-2.888277 2.102364 -2.296583
-2.929254 2.117969 -2.387029
-2.974158 2.135200 -2.475287
-3.023071 2.154314 -2.560987
-3.076080 2.175515 -2.643708
-3.133415 2.198806 -2.722902
-3.195335 2.224113 -2.797911
-3.261644 2.251336 -2.868366
-3.330992 2.280359 -2.935086
-3.401975 2.311126 -2.999266
-3.473842 2.343579 -3.061604
-3.546922 2.377563 -3.121672
-3.621623 2.412895 -3.178900
-3.697702 2.449571 -3.233406
-3.774168 2.487845 -3.286250
-3.850062 2.527992 -3.338526
-3.925210 2.569951 -3.390457
-4.000130 2.613366 -3.441512
-4.075266 2.657930 -3.491242
-4.150025 2.703915 -3.540241
-4.223192 2.751923 -3.589694
-4.293685 2.802402 -3.640548
-4.361772 2.855064 -3.692461
-4.428323 2.909391 -3.744653
-4.493782 2.965100 -3.796768
-4.556735 3.022660 -3.849937
-4.615169 3.082609 -3.905545
-4.667563 3.145059 -3.964328
-4.714080 3.209531 -4.025817
-4.755197 3.275565 -4.089464
-4.791569 3.342844 -4.154685
-4.824146 3.411211 -4.220778
-4.853936 3.480603 -4.287122
-4.881332 3.551016 -4.353422
-4.906065 3.622448 -4.419677
-4.927915 3.694851 -4.485892
-4.947744 3.767755 -4.552198
-4.967177 3.840446 -4.618854
-4.987672 3.912303 -4.686094
-5.009270 3.983355 -4.753841
-5.031369 4.053958 -4.821897
-5.053484 4.124407 -4.890107
-5.075695 4.194667 -4.958481
-5.098249 4.264599 -5.027078
-5.121287 4.334138 -5.095914
-5.144608 4.403451 -5.164882
-5.167951 4.472749 -5.233857
-5.191244 4.542084 -5.302813
-5.214795 4.611178 -5.371922
-5.238952 4.679717 -5.441374
-5.263747 4.747666 -5.511180
-5.288799 4.815376 -5.581126
-5.313721 4.883211 -5.650998
-5.338595 4.951089 -5.720845
-5.363934 5.018526 -5.790951
-5.390205 5.085066 -5.861569
-5.417213 5.150887 -5.932583
-5.444362 5.216569 -6.003671
-5.471179 5.282579 -6.074581
-5.498040 5.348545 -6.145515
-5.525672 5.413744 -6.216861
-5.554556 5.477669 -6.288860
-5.584180 5.540827 -6.361235
-5.613774 5.604017 -6.433595
-5.642953 5.667640 -6.505744
-5.672378 5.731005 -6.578019
-5.702878 5.793233 -6.650832
-5.734719 5.854007 -6.724298
-5.767181 5.914096 -6.798056
-5.799472 5.974375 -6.871734
-5.831507 6.034938 -6.945292
-5.864055 6.094927 -7.019092
-5.897881 6.153463 -7.093481
-5.932911 6.210597 -7.168402
-5.968400 6.267188 -7.243520
-6.003687 6.324019 -7.318553
-6.039009 6.380805 -7.393602
-6.075098 6.436666 -7.468978
-6.112523 6.490880 -7.544903
-6.150939 6.543842 -7.621218
-6.189686 6.596379 -7.697659
-6.228335 6.649040 -7.774065
-6.267305 6.701280 -7.850596
-6.307207 6.752289 -7.927475
-6.348338 6.801639 -8.004788
-6.390262 6.849891 -8.082368
-6.432455 6.897764 -8.160040
-6.474755 6.945475 -8.237751
-6.517582 6.992429 -8.315634
-6.561379 7.037965 -8.393818
-6.606194 7.081980 -8.472296
-6.651657 7.125000 -8.550955
-6.697414 7.167551 -8.629697
-6.743492 7.209587 -8.708530
-6.790187 7.250630 -8.787521
-6.837754 7.290250 -8.866718
-6.886118 7.328534 -8.946089
-6.935050 7.365838 -9.025580
-6.984371 7.402444 -9.105155
-7.034147 7.438231 -9.184819
-7.084513 7.472946 -9.264586
-7.135561 7.506406 -9.344455
-7.187239 7.538670 -9.424412
-7.239467 7.569851 -9.504441
-7.292189 7.600033 -9.584529
-7.345388 7.629240 -9.664663
-7.399053 7.657487 -9.744831
-7.453200 7.684723 -9.825024
-7.507882 7.710798 -9.905239
-7.563149 7.735565 -9.985469
-7.618952 7.759096 -10.065700
-7.675160 7.781684 -10.145919
-7.731655 7.803598 -10.226124
-7.788494 7.824687 -10.306307
-7.845840 7.844523 -10.386447
-7.903813 7.862760 -10.466517
-7.962282 7.879695 -10.546512
-8.021021 7.895912 -10.626459
-8.079880 7.911807 -10.706382
-8.139023 7.926928 -10.786245
-8.198691 7.940574 -10.865982
-8.258991 7.952390 -10.945535
-8.319684 7.963035 -11.024957
-8.380484 7.973347 -11.104341
-8.441304 7.983600 -11.183717
-8.502406 7.992986 -11.262983
-8.564070 8.000593 -11.342002
-8.626301 8.006330 -11.420735
-8.688799 8.011163 -11.499319
-8.751273 8.016070 -11.577917
-8.813744 8.020988 -11.656517
-8.876491 8.024954 -11.734950
-8.939758 8.027069 -11.813034
-9.003491 8.027446 -11.890768
-9.067492 8.026793 -11.968281
-9.131573 8.025823 -12.045724
-9.195553 8.025248 -12.123254
-9.259245 8.025782 -12.201020
