0.010476
14
0.009370
5
0.004685
38
0.010476
16
0.002304
15
A3
0.001456
25
A1
0.001804
18
D5
0.003090
11
D6
0.003045
11
D7
0.002124
15
D9
0.001063
30
D11
0.002398
13
D14
0.001473
20
D16
0.003684
9
D18
0.001663
18
D22
0.001269
23
D24
0.002347
13
D27
0.004025
7
D34
