-1.509047 0.627934 16.849892
-1.512972 0.632235 16.839780
-1.516898 0.636535 16.829667
-1.698624 0.836062 16.359666
-1.877834 1.033361 15.893904
-2.056798 1.230491 15.428355
-2.340214 1.452672 15.079958
-1.519365 0.639238 16.823311
-1.697952 0.835325 16.361400
-1.699296 0.836798 16.357933
-1.877167 1.032626 15.895641
-1.878500 1.034096 15.892168
-2.056304 1.229821 15.430173
-2.057292 1.231161 15.426536
-2.338521 1.451706 15.080405
-1.529126 0.649932 16.798166
-1.688206 0.824637 16.386554
-1.709041 0.847486 16.332779
-1.867635 1.022016 15.920909
-1.888175 1.044759 15.866976
-2.049136 1.220099 15.456556
-2.064459 1.240884 15.400154
-2.313957 1.437696 15.086904
-1.550118 0.672949 16.744005
-1.573572 0.698696 16.683366
-1.596989 0.724429 16.622706
-1.620400 0.750160 16.562044
-1.643809 0.775891 16.501380
-1.667241 0.801629 16.440729
-1.730100 0.870528 16.278654
-1.753678 0.896319 16.218082
-1.777263 0.922113 16.157514
-1.800712 0.947857 16.096871
-1.823992 0.973541 16.036139
-1.847121 0.999171 15.975325
-1.909007 1.067718 15.812729
-1.933229 1.093740 15.752511
-1.958034 1.119967 15.692623
-1.983299 1.146356 15.632996
-2.007788 1.172473 15.572927
-2.030351 1.197892 15.511838
-2.080138 1.261914 15.343448
-2.097978 1.285564 15.280103
-2.124384 1.312350 15.221153
-2.160599 1.341971 15.170473
-2.206052 1.374017 15.128816
-2.262018 1.407585 15.103692
-3.610523 1.868158 14.827823
-4.945030 2.136038 14.646247
-5.596836 3.287643 14.574303
-6.135453 4.551290 14.509984
-6.846502 5.724686 14.438721
-7.787815 6.718866 14.358968
-8.949288 7.443054 14.273191
-10.249785 7.874422 14.186279
-11.609004 8.060122 14.101671
-12.981742 8.068495 14.020427
-2.341907 1.453638 15.079510
-3.608572 1.867813 14.828091
-3.612475 1.868503 14.827555
-4.943251 2.135184 14.646576
-4.946808 2.136891 14.645918
-5.596148 3.285767 14.574391
-5.597525 3.289519 14.574214
-6.134584 4.549492 14.510081
-6.136321 4.553089 14.509888
-6.845317 5.723079 14.438831
-6.847688 5.726293 14.438612
-7.786275 6.717596 14.359089
-7.789355 6.720136 14.358846
-8.947470 7.442230 14.273318
-8.951105 7.443879 14.273064
-10.247826 7.874039 14.186404
-10.251744 7.874805 14.186154
-11.607011 8.059992 14.101792
-11.610997 8.060231 14.101551
-12.979747 8.068584 14.020542
-2.366459 1.467695 15.073068
-3.580256 1.862806 14.831977
-3.640790 1.873510 14.823669
-4.916762 2.124341 14.651174
-4.972613 2.149272 14.641146
-5.586161 3.258554 14.575673
-5.607577 3.316706 14.572900
-6.121978 4.523395 14.511485
-6.148927 4.579186 14.508483
-6.828153 5.699738 14.440420
-6.864888 5.749607 14.437021
-7.763933 6.699167 14.360850
-7.811635 6.738642 14.357087
-8.921101 7.430263 14.275157
-8.977475 7.455845 14.271226
-10.219407 7.868474 14.188212
-10.280165 7.880364 14.184346
-11.578111 8.058084 14.103543
-11.639917 8.061812 14.099806
-12.950809 8.069875 14.022220
-2.477408 1.533891 15.044198
-2.652693 1.635498 14.990195
-2.842944 1.710308 14.945219
-3.043656 1.760586 14.911164
-3.247128 1.801054 14.880042
-3.451247 1.839204 14.850190
-3.770159 1.895724 14.806279
-3.975326 1.930205 14.779282
-4.180442 1.964936 14.752226
-4.385853 1.997991 14.725306
-4.590867 2.033517 14.698637
-4.792998 2.081893 14.670982
-5.086212 2.213460 14.619959
-5.235907 2.356649 14.595641
-5.338714 2.538593 14.586893
-5.406494 2.737004 14.587420
-5.469396 2.937110 14.586967
-5.540564 3.134363 14.581119
-5.654270 3.440453 14.566708
-5.731542 3.635248 14.557053
-5.809923 3.829612 14.547543
-5.889707 4.023389 14.537872
-5.976018 4.214324 14.527919
-6.065415 4.403844 14.517851
-6.208595 4.697205 14.501984
-6.308647 4.881288 14.491456
-6.411987 5.063545 14.480791
-6.518864 5.243733 14.469980
-6.631424 5.420404 14.458941
-6.750518 5.592721 14.447645
-6.943932 5.855585 14.429744
-7.074969 6.018952 14.418000
-7.215654 6.174085 14.405915
-7.357651 6.328034 14.393787
-7.503642 6.478110 14.381526
-7.661765 6.615326 14.368891
-7.913694 6.822611 14.349047
-8.081311 6.947985 14.336155
-8.256531 7.062569 14.323089
-8.434184 7.173371 14.309972
-8.615357 7.278275 14.296791
-8.801497 7.374084 14.283541
-9.098552 7.508777 14.262831
-9.291865 7.589154 14.249528
-9.488420 7.661149 14.236233
-9.688178 7.723821 14.222969
-9.888406 7.785012 14.209712
-10.090332 7.840181 14.196496
-10.409846 7.905806 14.176093
-10.615242 7.946449 14.163013
-10.821958 7.979648 14.150029
-11.029750 8.005465 14.137155
-11.237809 8.029072 14.124317
-11.446286 8.048606 14.111549
-11.771921 8.068423 14.091857
-11.981183 8.076351 14.079315
-12.190518 8.082102 14.066820
-12.399929 8.082810 14.054440
-12.609317 8.078701 14.042174
-12.818701 8.074323 14.029915
166 NaN NaN
-1.507084 0.625784 16.854948
-1.540876 0.662804 16.767898
-1.574567 0.699788 16.680794
-1.608201 0.736751 16.593659
-1.641825 0.773711 16.506518
-1.675482 0.810682 16.419395
-1.709220 0.847683 16.332316
-1.743077 0.884726 16.245302
-1.776959 0.921779 16.158300
-1.810642 0.958759 16.071192
-1.843904 0.995588 15.983857
-1.876885 1.032316 15.896374
-1.910377 1.069228 15.809162
-1.945251 1.106634 15.722709
-1.981623 1.144570 15.637105
-2.016799 1.182082 15.550824
-2.047593 1.218005 15.462238
-2.072403 1.251658 15.370916
-2.098023 1.285624 15.279944
-2.135899 1.324024 15.195474
-2.198328 1.369384 15.132284
-2.278547 1.417499 15.096272
-2.363565 1.465991 15.073780
-2.448223 1.515870 15.052960
-2.531029 1.566999 15.028100
-2.614378 1.616254 15.001354
-2.701215 1.659867 14.976062
-2.792763 1.695193 14.954776
-2.887367 1.723688 14.936759
-2.983603 1.747526 14.920664
-3.080604 1.768621 14.905320
-3.178026 1.788003 14.890380
-3.275681 1.806446 14.875771
-3.373408 1.824703 14.861417
-3.471181 1.842918 14.847315
-3.569052 1.860825 14.833514
-3.667076 1.878157 14.820062
-3.765245 1.894900 14.806927
-3.863486 1.911366 14.793978
-3.961724 1.927888 14.781076
-4.059920 1.944618 14.768129
-4.158129 1.961260 14.755164
-4.256416 1.977454 14.742224
-4.354812 1.993028 14.729348
-4.453191 2.008760 14.716536
-4.551371 2.025723 14.703782
-4.649121 2.045014 14.691048
-4.746010 2.068007 14.677931
-4.841370 2.096188 14.663827
-4.934307 2.130893 14.648230
-5.023600 2.173735 14.631717
-5.107309 2.226845 14.615997
-5.182406 2.292106 14.603052
-5.246196 2.369062 14.594216
-5.298952 2.454302 14.589015
-5.341776 2.545084 14.586730
-5.376333 2.639377 14.586580
-5.405997 2.735339 14.587410
-5.434722 2.831591 14.587966
-5.465857 2.927085 14.587192
-5.499288 3.021782 14.585065
-5.533838 3.116048 14.581885
-5.568440 3.210267 14.577946
-5.603013 3.304475 14.573510
-5.638088 3.398484 14.568819
-5.674185 3.492104 14.564110
-5.711331 3.585319 14.559498
-5.748982 3.678333 14.554943
-5.786568 3.771375 14.550400
-5.823918 3.864510 14.545831
-5.861754 3.957446 14.541214
-5.900914 4.049827 14.536532
-5.941978 4.141374 14.531776
-5.984404 4.232297 14.526969
-6.027349 4.322975 14.522143
-6.070080 4.413754 14.517325
-6.112857 4.504511 14.512502
-6.156495 4.594855 14.507640
-6.201780 4.684380 14.502708
-6.248854 4.772973 14.497702
-6.297198 4.860877 14.492643
-6.346277 4.948373 14.487554
-6.395819 5.035605 14.482444
-6.446065 5.122432 14.477306
-6.497316 5.208667 14.472126
-6.549834 5.294132 14.466896
-6.603763 5.378710 14.461609
-6.659216 5.462294 14.456261
-6.716257 5.544797 14.450851
-6.774589 5.626391 14.445392
-6.833742 5.707390 14.439901
-6.893286 5.788100 14.434396
-6.953489 5.868319 14.428867
-7.015255 5.947332 14.423279
-7.079475 6.024356 14.417602
-7.146250 6.099170 14.411835
-7.214400 6.172735 14.406022
-7.282667 6.246191 14.400205
-7.350351 6.320187 14.394409
-7.418658 6.393604 14.388591
-7.489185 6.464876 14.382699
-7.563138 6.532573 14.376700
-7.639706 6.597302 14.370626
-7.717347 6.660742 14.364522
-7.794694 6.724540 14.358425
-7.871754 6.788687 14.352337
-7.949705 6.851740 14.346223
-8.029701 6.912166 14.340055
-8.112060 6.969326 14.333832
-8.195979 7.024173 14.327575
-8.280645 7.077860 14.321303
-8.365546 7.131175 14.315025
-8.450949 7.183678 14.308737
-8.537259 7.234675 14.302433
-8.624789 7.283541 14.296110
-8.713499 7.330232 14.289771
-8.803222 7.374944 14.283419
-8.893808 7.417879 14.277060
-8.985096 7.459303 14.270694
-9.076914 7.499538 14.264326
-9.169109 7.538902 14.257957
-9.261713 7.577292 14.251587
-9.354999 7.613990 14.245217
-9.449221 7.648211 14.238851
-9.544415 7.679630 14.232493
-9.640184 7.709260 14.226144
-9.736115 7.738364 14.219797
-9.831917 7.767889 14.213449
-9.927854 7.796969 14.207102
-10.024362 7.824090 14.200769
-10.121752 7.847844 14.194462
-10.219838 7.868565 14.188185
-10.318227 7.887808 14.181924
-10.416601 7.907133 14.175663
-10.514880 7.926934 14.169396
-10.613283 7.946105 14.163137
-10.712027 7.963435 14.156900
-10.811182 7.978245 14.150699
-10.910601 7.991197 14.144525
-11.010144 8.003164 14.138367
-11.109722 8.014849 14.132213
-11.209349 8.026103 14.126067
-11.309069 8.036508 14.119935
-11.408911 8.045675 14.113824
-11.508869 8.053513 14.107738
-11.608917 8.060117 14.101676
-11.709034 8.065589 14.095636
-11.809201 8.070103 14.089616
-11.909398 8.073922 14.083611
-12.009611 8.077313 14.077614
-12.109836 8.080326 14.071626
-12.210083 8.082533 14.065655
-12.310351 8.083440 14.059714
-12.410623 8.082735 14.053810
-12.510884 8.080904 14.047934
-12.611136 8.078661 14.042068
-12.711393 8.076624 14.036197
-12.811649 8.074528 14.030327
-12.911885 8.071613 14.024477
-13.012065 8.067141 14.018668
-13.112161 8.061017 14.012903
-13.212187 8.053821 14.007168
-13.312181 8.046163 14.001445
-13.412185 8.038651 13.995718
-13.512241 8.031895 13.989971
-13.612378 8.026505 13.984186
