-1.628492 0.750311 10.539346
-1.634582 0.756867 10.543225
-1.640672 0.763423 10.547103
-1.953638 1.090365 10.721103
-2.283749 1.380814 10.757060
-2.631714 1.566197 10.485578
-3.044265 1.692708 10.274179
-1.644654 0.767709 10.549639
-1.952410 1.089023 10.720272
-1.954866 1.091707 10.721934
-2.282302 1.380012 10.758184
-2.285196 1.381615 10.755937
-2.630071 1.565548 10.486515
-2.633358 1.566846 10.484642
-3.042513 1.692236 10.275021
-1.660965 0.785268 10.560027
-1.935820 1.071437 10.710397
-1.970911 1.109229 10.732789
-2.263400 1.369543 10.772861
-2.303393 1.391307 10.739966
-2.608606 1.557069 10.498750
-2.654822 1.575324 10.472407
-3.019630 1.686077 10.286008
-1.696137 0.822861 10.581745
-1.736583 0.865029 10.604017
-1.777418 0.907215 10.625520
-1.818526 0.949415 10.646482
-1.859480 0.991608 10.667753
-1.900076 1.033780 10.689719
-2.005238 1.146719 10.756014
-2.043725 1.188702 10.781825
-2.083370 1.230746 10.805227
-2.126779 1.272970 10.820808
-2.173884 1.311416 10.818318
-2.222960 1.347143 10.804263
-2.341147 1.410739 10.703631
-2.383553 1.433965 10.664017
-2.426110 1.458563 10.625367
-2.470480 1.485412 10.590462
-2.516006 1.511973 10.556892
-2.563779 1.537379 10.525549
-2.702300 1.590644 10.447255
-2.755779 1.607155 10.419377
-2.809712 1.622919 10.391940
-2.863532 1.639091 10.364520
-2.917261 1.655585 10.337113
-2.971210 1.671884 10.310023
-4.147740 1.930597 9.783421
-5.273757 2.182978 9.359298
-6.226531 2.857373 9.057446
-6.806797 3.911906 8.803890
-7.419645 4.935712 8.502754
-8.127253 5.887795 8.177325
-8.958087 6.721911 7.822898
-9.919912 7.386138 7.442624
-10.988149 7.850072 7.049190
-12.122005 8.120020 6.657072
-13.286969 8.223498 6.275411
-3.046017 1.693180 10.273338
-4.145942 1.930204 9.784204
-4.149538 1.930989 9.782638
-5.271928 2.182398 9.359861
-5.275587 2.183557 9.358735
-6.225441 2.855742 9.057838
-6.227621 2.859003 9.057055
-6.805846 3.910213 8.804368
-6.807749 3.913599 8.803413
-7.418565 4.934108 8.503266
-7.420724 4.937316 8.502243
-8.126011 5.886328 8.177876
-8.128494 5.889263 8.176774
-8.956634 6.720675 7.823496
-8.959541 6.723148 7.822299
-9.918253 7.385217 7.443257
-9.921571 7.387059 7.441991
-10.986353 7.849469 7.049832
-10.989944 7.850676 7.048549
-12.120136 8.119692 6.657704
-12.123874 8.120349 6.656439
-13.285064 8.223453 6.276019
-3.068899 1.699339 10.262350
-4.122460 1.925077 9.794430
-4.173021 1.936117 9.772413
-5.248033 2.174830 9.367213
-5.299429 2.191454 9.351566
-6.209954 2.835498 9.063291
-6.241857 2.880298 9.051940
-6.793419 3.888100 8.810603
-6.820175 3.935712 8.797177
-7.404465 4.913158 8.509942
-7.434824 4.958266 8.495566
-8.109793 5.867159 8.185077
-8.144671 5.908470 8.169583
-8.937757 6.704388 7.831286
-8.978524 6.739300 7.814488
-9.896590 7.373187 7.451519
-9.943234 7.399089 7.433728
-10.962903 7.841586 7.058213
-11.013395 7.858558 7.040168
-12.095731 8.115396 6.665963
-12.148314 8.124460 6.648192
-13.260218 8.222434 6.284011
-3.173962 1.724384 10.213841
-3.342759 1.758580 10.139499
-3.511783 1.792341 10.065464
-3.680321 1.827717 9.991077
-3.848333 1.864510 9.916188
-4.016199 1.901713 9.841174
-4.279588 1.959164 9.726210
-4.448276 1.995314 9.652535
-4.618244 2.031821 9.582075
-4.790851 2.068232 9.518303
-4.965242 2.102393 9.458222
-5.139322 2.142498 9.401181
-5.407404 2.228132 9.319657
-5.576877 2.291731 9.270635
-5.738488 2.373376 9.222368
-5.881731 2.484822 9.176315
-6.005275 2.619338 9.133642
-6.132525 2.750035 9.089968
-6.301883 2.979874 9.030158
-6.388758 3.143223 8.999258
-6.479515 3.304039 8.966308
-6.567583 3.464721 8.926230
-6.652327 3.626183 8.882202
-6.737884 3.787317 8.838548
-6.876574 4.035911 8.768862
-6.965354 4.195011 8.724192
-7.056549 4.352552 8.678905
-7.150829 4.508030 8.632774
-7.244583 4.663866 8.586782
-7.340978 4.817858 8.540099
-7.498130 5.053702 8.465456
-7.598866 5.204550 8.417642
-7.705376 5.350884 8.368363
-7.813394 5.495992 8.318707
-7.922055 5.640554 8.268892
-8.036223 5.780307 8.217733
-8.218154 5.995402 8.136948
-8.338278 6.129519 8.084380
-8.463347 6.258606 8.030678
-8.588969 6.387105 7.976852
-8.718446 6.511321 7.922182
-8.852499 6.630155 7.866540
-9.065338 6.811545 7.778924
-9.206667 6.920869 7.721850
-9.350755 7.026286 7.664271
-9.496920 7.128589 7.606336
-9.646642 7.225258 7.547814
-9.799208 7.317120 7.488870
-10.042054 7.452450 7.396194
-10.200813 7.532558 7.336490
-10.361972 7.607557 7.276576
-10.524860 7.678626 7.216532
-10.689616 7.745137 7.156393
-10.856719 7.805479 7.096206
-11.120078 7.893169 7.002184
-11.290856 7.942281 6.942119
-11.463120 7.986150 6.882198
-11.635741 8.028647 6.822321
-11.809853 8.064899 6.762726
-11.985099 8.095881 6.703407
-12.259442 8.141258 6.610926
-12.436465 8.161700 6.552342
-12.613637 8.181113 6.493836
-12.791062 8.198535 6.435499
-12.969317 8.208119 6.377878
-13.147644 8.216937 6.320330
161 NaN NaN
-1.625446 0.747033 10.537407
-1.688240 0.814628 10.577397
-1.753287 0.882444 10.613215
-1.819401 0.950313 10.646928
-1.885262 1.018173 10.681149
-1.949579 1.085932 10.718356
-2.011345 1.153388 10.760145
-2.073251 1.220904 10.801595
-2.142780 1.288534 10.826552
-2.220879 1.345990 10.805878
-2.293496 1.386212 10.749492
-2.361432 1.421179 10.684108
-2.429850 1.460725 10.621970
-2.501475 1.504245 10.566426
-2.578278 1.545090 10.516037
-2.660887 1.577720 10.468950
-2.746745 1.604515 10.423973
-2.833486 1.629868 10.379847
-2.919899 1.656395 10.335767
-3.006684 1.682592 10.292224
-3.094780 1.706306 10.249924
-3.184377 1.726762 10.209095
-3.274823 1.745217 10.169183
-3.365517 1.763056 10.129555
-3.456163 1.781049 10.089887
-3.546694 1.799429 10.050134
-3.637057 1.818381 10.010267
-3.727250 1.837845 9.970261
-3.817300 1.857633 9.930094
-3.907255 1.877567 9.889784
-3.997239 1.897530 9.849556
-4.087403 1.917422 9.809695
-4.177815 1.937164 9.770325
-4.268332 1.956746 9.731119
-4.358781 1.976171 9.691676
-4.449203 1.995512 9.652130
-4.539985 2.014957 9.613473
-4.631507 2.034679 9.576753
-4.723849 2.054435 9.542165
-4.816854 2.073586 9.509043
-4.910360 2.091657 9.476732
-5.004057 2.109987 9.445130
-5.097504 2.130978 9.414474
-5.190197 2.156512 9.385009
-5.282192 2.185649 9.356703
-5.373914 2.216538 9.329372
-5.465567 2.248266 9.302785
-5.556373 2.282660 9.276633
-5.645203 2.321960 9.250646
-5.730711 2.368096 9.224810
-5.811202 2.422741 9.199534
-5.884437 2.487205 9.175424
-5.951251 2.558760 9.152474
-6.016455 2.631874 9.129745
-6.084567 2.702045 9.106322
-6.153675 2.771198 9.082757
-6.218225 2.844948 9.060430
-6.272999 2.926881 9.040753
-6.320398 3.013843 9.023367
-6.366027 3.101967 9.007058
-6.413906 3.188865 8.990629
-6.463038 3.274831 8.973034
-6.511485 3.360708 8.953256
-6.558212 3.446950 8.931063
-6.603822 3.533439 8.907541
-6.649104 3.620058 8.883858
-6.694648 3.706616 8.860460
-6.740837 3.792828 8.837051
-6.787986 3.878433 8.813329
-6.835832 3.963571 8.789321
-6.883750 4.048652 8.765259
-6.931274 4.133990 8.741323
-6.978902 4.219269 8.717382
-7.027488 4.303932 8.693188
-7.077519 4.387635 8.668599
-7.128279 4.470839 8.643809
-7.178819 4.554193 8.619077
-7.228848 4.637897 8.594482
-7.279364 4.721269 8.569760
-7.331473 4.803526 8.544620
-7.385232 4.884581 8.519050
-7.439519 4.965242 8.493343
-7.493263 5.046309 8.467776
-7.546752 5.127565 8.442275
-7.601247 5.208067 8.416517
-7.657764 5.286991 8.390244
-7.715711 5.364753 8.363614
-7.773856 5.442350 8.336934
-7.831411 5.520437 8.310401
-7.889253 5.598285 8.283796
-7.948646 5.674820 8.256809
-8.010110 5.749520 8.229319
-8.072636 5.823241 8.201575
-8.135076 5.897042 8.173851
-8.197251 5.971091 8.146191
-8.260250 6.044364 8.118335
-8.325140 6.115791 8.090038
-8.391782 6.185426 8.061340
-8.459147 6.254295 8.032479
-8.526373 6.323313 8.003649
-8.593842 6.392072 7.974766
-8.662513 6.459512 7.945617
-8.733035 6.524834 7.916070
-8.804870 6.588585 7.886246
-8.877206 6.651719 7.856318
-8.949644 6.714727 7.826372
-9.022732 6.776915 7.796295
-9.097135 6.837391 7.765958
-9.173011 6.895862 7.735339
-9.249857 6.952959 7.704540
-9.327173 7.009374 7.673659
-9.404929 7.065139 7.642703
-9.483487 7.119688 7.611609
-9.563161 7.172483 7.580330
-9.643877 7.223570 7.548885
-9.725382 7.273317 7.517324
-9.807480 7.322028 7.485682
-9.890191 7.369634 7.453960
-9.973597 7.415950 7.422147
-10.057754 7.460822 7.390241
-10.142668 7.504183 7.358252
-10.228332 7.545987 7.326191
-10.314688 7.586298 7.294073
-10.401595 7.625372 7.261914
-10.488923 7.663472 7.229723
-10.576704 7.700488 7.197503
-10.665117 7.735944 7.165256
-10.754296 7.769408 7.132993
-10.844095 7.801168 7.100725
-10.934236 7.831951 7.068458
-11.024523 7.862299 7.036191
-11.115133 7.891678 7.003931
-11.206340 7.919177 6.971703
-11.298249 7.944302 6.939531
-11.390576 7.967917 6.907405
-11.483004 7.991148 6.875289
-11.575444 8.014328 6.843173
-11.668182 8.036351 6.811102
-11.761487 8.055993 6.779140
-11.855305 8.073269 6.747301
-11.949319 8.089556 6.715519
-12.043270 8.106163 6.683716
-12.137234 8.122701 6.651918
-12.231494 8.137664 6.620220
-12.326219 8.149844 6.588719
-12.421223 8.160098 6.557367
-12.516263 8.170088 6.526035
-12.611198 8.180847 6.494641
-12.706191 8.191187 6.463281
-12.801443 8.199433 6.432101
-12.896978 8.204938 6.401174
-12.992622 8.209144 6.370374
-13.088237 8.213708 6.339538
-13.183801 8.218902 6.308640
-13.279427 8.223322 6.277820
-13.375201 8.225558 6.247227
-13.471080 8.225587 6.216879
-13.566997 8.224406 6.186671
-13.662919 8.223030 6.156486
-13.758818 8.222476 6.126205
-13.854643 8.223763 6.095716
