-2.108527 -1.352739 2.318451
-1.560814 -1.326780 3.402709
-1.083446 -1.293401 4.517889
-0.896947 -1.232297 5.714155
-0.788325 -1.164385 6.922398
-0.641145 -1.099704 8.126910
-2.107695 -1.352688 2.320270
-1.561730 -1.326821 3.400932
-1.559898 -1.326739 3.404487
-1.084039 -1.293476 4.515981
-1.082853 -1.293327 4.519798
-0.897085 -1.232412 5.712163
-0.896808 -1.232182 5.716147
-0.788558 -1.164492 6.920414
-0.788091 -1.164277 6.924381
-0.641369 -1.099812 8.124925
-2.096967 -1.352040 2.343729
-1.573549 -1.327352 3.378000
-1.548155 -1.326200 3.427457
-1.091694 -1.294437 4.491357
-1.075267 -1.292359 4.544442
-0.898872 -1.233897 5.686464
-0.895021 -1.230697 5.741846
-0.791573 -1.165875 6.894824
-0.785077 -1.162894 6.949971
-0.644258 -1.101205 8.099321
-2.047863 -1.349155 2.449758
-1.967233 -1.344890 2.616386
-1.883933 -1.340916 2.781705
-1.798866 -1.337135 2.946128
-1.713030 -1.333440 3.110153
-1.627274 -1.329736 3.274220
-1.495375 -1.323712 3.531718
-1.413595 -1.319572 3.697789
-1.334983 -1.315091 3.865373
-1.260557 -1.310165 4.034842
-1.191191 -1.304712 4.206422
-1.127918 -1.298640 4.380314
-1.043973 -1.287680 4.656957
-1.001499 -1.279604 4.836982
-0.968495 -1.270670 5.018946
-0.942912 -1.261086 5.202068
-0.923091 -1.251010 5.385882
-0.907379 -1.240591 5.570080
-0.887185 -1.223948 5.858273
-0.874491 -1.213281 6.042693
-0.860061 -1.202755 6.226992
-0.843465 -1.192409 6.411119
-0.824981 -1.182221 6.595075
-0.804927 -1.172164 6.778874
-0.771174 -1.156651 7.065859
-0.748565 -1.146811 7.249374
-0.725589 -1.137003 7.432845
-0.702570 -1.127197 7.616311
-0.679836 -1.117368 7.799811
-0.657721 -1.107486 7.983383
67 NaN NaN
-2.108734 -1.352751 2.317997
-2.066190 -1.350178 2.411028
-2.022433 -1.347735 2.503500
-1.977651 -1.345402 2.595481
-1.932018 -1.343161 2.687047
-1.885702 -1.340995 2.778271
-1.838862 -1.338887 2.869228
-1.791654 -1.336820 2.959996
-1.744224 -1.334776 3.050649
-1.696721 -1.332741 3.141263
-1.649286 -1.330699 3.231913
-1.602063 -1.328633 3.322673
-1.555194 -1.326528 3.413615
-1.508821 -1.324368 3.504810
-1.463089 -1.322138 3.596327
-1.418148 -1.319823 3.688232
-1.374149 -1.317405 3.780589
-1.331248 -1.314870 3.873458
-1.289608 -1.312201 3.966895
-1.249394 -1.309382 4.060950
-1.210782 -1.306397 4.155668
-1.173950 -1.303229 4.251087
-1.139084 -1.299862 4.347234
-1.106376 -1.296281 4.444129
-1.076020 -1.292469 4.541777
-1.048216 -1.288412 4.640171
-1.023163 -1.284095 4.739291
-1.001032 -1.279508 4.839091
-0.981719 -1.274665 4.939463
-0.964945 -1.269598 5.040281
-0.950423 -1.264334 5.141437
-0.937861 -1.258901 5.242848
-0.926967 -1.253328 5.344444
-0.917452 -1.247638 5.446172
-0.909030 -1.241859 5.547992
-0.901416 -1.236012 5.649872
-0.894330 -1.230122 5.751787
-0.887491 -1.224212 5.853718
-0.880622 -1.218305 5.955648
-0.873444 -1.212423 6.057557
-0.865682 -1.206588 6.159426
-0.857211 -1.200812 6.261242
-0.848075 -1.195092 6.363004
-0.838331 -1.189422 6.464712
-0.828032 -1.183798 6.566368
-0.817235 -1.178216 6.667975
-0.805996 -1.172671 6.769536
-0.794372 -1.167159 6.871055
-0.782419 -1.161675 6.972538
-0.770194 -1.156214 7.073989
-0.757754 -1.150771 7.175416
-0.745155 -1.145342 7.276823
-0.732455 -1.139921 7.378218
-0.719711 -1.134504 7.479608
-0.706979 -1.129086 7.581000
-0.694318 -1.123662 7.682400
-0.681783 -1.118227 7.783815
-0.669433 -1.112777 7.885252
-0.657323 -1.107306 7.986716
-0.645511 -1.101810 8.088215
-0.634054 -1.096284 8.189752
-0.623007 -1.090723 8.291333
-0.612428 -1.085122 8.392962
-0.602372 -1.079478 8.494641
-0.592895 -1.073786 8.596373
-0.584052 -1.068041 8.698160
-0.575897 -1.062239 8.800000
-2.108452 -1.352681 2.317590
-1.836133 -1.285358 1.926254
-1.563815 -1.218034 1.534918
-1.291496 -1.150710 1.143582
-1.019178 -1.083386 0.752246
-0.746859 -1.016062 0.360910
-2.107320 -1.352402 2.315965
-1.837264 -1.285637 1.927880
-1.835002 -1.285078 1.924629
-1.564946 -1.218313 1.536544
-1.562684 -1.217754 1.533293
-1.292627 -1.150990 1.145208
-1.290365 -1.150430 1.141957
-1.020309 -1.083666 0.753872
-1.018047 -1.083107 0.750621
-0.747990 -1.016342 0.362536
-2.096941 -1.349836 2.301049
-1.847644 -1.288203 1.942796
-1.824623 -1.282512 1.909713
-1.575325 -1.220879 1.551460
-1.552304 -1.215188 1.518377
-1.303007 -1.153556 1.160124
-1.279986 -1.147864 1.127041
-1.030688 -1.086232 0.768788
-1.007667 -1.080541 0.735705
-0.758370 -1.018908 0.377452
-2.068224 -1.342736 2.259781
-2.029851 -1.333249 2.204637
-1.991479 -1.323763 2.149494
-1.953106 -1.314276 2.094351
-1.914734 -1.304790 2.039208
-1.876361 -1.295303 1.984064
-1.795905 -1.275412 1.868445
-1.757533 -1.265926 1.813301
-1.719160 -1.256439 1.758158
-1.680788 -1.246952 1.703015
-1.642415 -1.237466 1.647871
-1.604043 -1.227979 1.592728
-1.523587 -1.208088 1.477109
-1.485214 -1.198602 1.421965
-1.446842 -1.189115 1.366822
-1.408469 -1.179629 1.311679
-1.370097 -1.170142 1.256535
-1.331724 -1.160655 1.201392
-1.251268 -1.140765 1.085773
-1.212896 -1.131278 1.030629
-1.174523 -1.121791 0.975486
-1.136151 -1.112305 0.920343
-1.097778 -1.102818 0.865199
-1.059406 -1.093332 0.810056
-0.978950 -1.073441 0.694437
-0.940577 -1.063954 0.639293
-0.902205 -1.054468 0.584150
-0.863832 -1.044981 0.529007
-0.825460 -1.035494 0.473863
-0.787087 -1.026008 0.418720
29 NaN NaN
-2.108734 -1.352751 2.317997
-2.051127 -1.338509 2.235211
-1.993519 -1.324267 2.152426
-1.935911 -1.310025 2.069640
-1.878303 -1.295783 1.986854
-1.820695 -1.281541 1.904069
-1.763087 -1.267299 1.821283
-1.705479 -1.253057 1.738498
-1.647871 -1.238815 1.655712
-1.590263 -1.224573 1.572926
-1.532655 -1.210330 1.490141
-1.475048 -1.196088 1.407355
-1.417440 -1.181846 1.324570
-1.359832 -1.167604 1.241784
-1.302224 -1.153362 1.158998
-1.244616 -1.139120 1.076213
-1.187008 -1.124878 0.993427
-1.129400 -1.110636 0.910642
-1.071792 -1.096394 0.827856
-1.014184 -1.082152 0.745070
-0.956576 -1.067910 0.662285
-0.898969 -1.053668 0.579499
-0.841361 -1.039425 0.496714
-0.783753 -1.025183 0.413928
-0.726145 -1.010941 0.331142
-0.668537 -0.996699 0.248357
-0.610929 -0.982457 0.165571
-0.553321 -0.968215 0.082786
-0.495713 -0.953973 0.000000
-2.109148 -1.353018 2.317909
-3.177930 -1.505324 1.708166
-3.671004 -0.849547 0.695085
-3.929157 -0.033450 -0.289411
-4.194783 0.885696 -1.183127
-4.452913 1.786961 -2.097417
-4.711271 2.681979 -3.017759
-4.966786 3.571425 -3.944260
-5.253150 4.484715 -4.837747
-5.586708 5.364215 -5.748494
-5.992286 6.172506 -6.694859
-6.492810 6.869014 -7.683119
-7.097975 7.409606 -8.709200
-7.795101 7.764314 -9.757754
-8.557738 7.935865 -10.807083
-9.365072 7.950903 -11.837124
-2.110804 -1.354084 2.317559
-3.176684 -1.505981 1.709585
-3.179054 -1.504543 1.706707
-3.670431 -0.850596 0.696689
-3.671562 -0.848492 0.693481
-3.928799 -0.034885 -0.288064
-3.929518 -0.032012 -0.290754
-4.194380 0.884328 -1.181725
-4.195186 0.887064 -1.184530
-4.452516 1.785586 -2.096020
-4.453310 1.788335 -2.098815
-4.710880 2.680616 -3.016349
-4.711663 2.683341 -3.019170
-4.966391 3.570073 -3.942841
-4.967182 3.572778 -3.945679
-5.252685 4.483335 -4.836376
-5.253614 4.486094 -4.839119
-5.586154 5.362913 -5.747081
-5.587263 5.365516 -5.749908
-5.991603 6.171340 -6.693384
-5.992968 6.173672 -6.696334
-6.491971 6.868051 -7.681580
-6.493649 6.869977 -7.684658
-7.096979 7.408910 -8.707611
-7.098971 7.410303 -8.710788
-7.793982 7.763909 -9.756146
-7.796219 7.764720 -9.759361
-8.556537 7.935723 -10.805490
-8.558939 7.936006 -10.808676
-9.363813 7.950979 -11.835572
-2.133722 -1.368848 2.312705
-3.159334 -1.514980 1.729199
-3.194615 -1.493737 1.686512
-3.662497 -0.865113 0.718894
-3.679176 -0.833829 0.671260
-3.923848 -0.054752 -0.269423
-3.934632 -0.012027 -0.309225
-4.188806 0.865395 -1.162303
-4.200710 0.906015 -1.203948
-4.447023 1.766556 -2.076669
-4.458803 1.807342 -2.118188
-4.705459 2.661747 -2.996820
-4.717077 2.702209 -3.038700
-4.960913 3.551345 -3.923193
-4.972732 3.591620 -3.965196
-5.246251 4.464235 -4.817388
-5.260117 4.505153 -4.858125
-5.578483 5.344891 -5.727507
-5.595033 5.383443 -5.769530
-5.982156 6.155197 -6.672966
-6.002541 6.189669 -6.716808
-6.480351 6.854717 -7.660274
-6.505404 6.883112 -7.706012
-7.083189 7.399264 -8.685622
-7.112874 7.419720 -8.732805
-7.778498 7.758292 -9.733887
-7.811779 7.770121 -9.781621
-8.539913 7.933758 -10.783432
-8.575612 7.937797 -10.830711
-9.346384 7.952024 -11.814080
-2.239515 -1.432136 2.287340
-2.413386 -1.510325 2.229402
-2.589604 -1.561925 2.151914
-2.762840 -1.586954 2.056621
-2.927546 -1.584235 1.944549
-3.076759 -1.551596 1.816793
-3.262259 -1.441827 1.593866
-3.353446 -1.347192 1.443788
-3.431266 -1.244987 1.291033
-3.501223 -1.140670 1.135893
-3.565496 -1.035753 0.978702
-3.625911 -0.931089 0.819816
-3.713039 -0.766618 0.570206
-3.761289 -0.656371 0.410968
-3.801519 -0.539485 0.254271
-3.835828 -0.415210 0.101900
-3.868125 -0.283419 -0.044475
-3.901628 -0.144693 -0.184023
-3.958234 0.078934 -0.393165
-3.997594 0.222357 -0.526319
-4.038796 0.364088 -0.660724
-4.080744 0.504041 -0.796752
-4.122398 0.642248 -0.934642
-4.163336 0.779213 -1.073980
-4.225759 0.992332 -1.292260
-4.265007 1.129513 -1.431873
-4.304012 1.267060 -1.571192
-4.343120 1.404756 -1.710337
-4.382488 1.542418 -1.849442
-4.422028 1.679912 -1.988663
-4.483794 1.893790 -2.206387
-4.523358 2.030533 -2.346341
-4.562858 2.167076 -2.486507
-4.602270 2.303478 -2.626835
-4.641580 2.439746 -2.767321
-4.680777 2.575878 -2.907971
-4.741704 2.788076 -3.127567
-4.780669 2.924208 -3.268282
-4.819587 3.060465 -3.408888
-4.858451 3.196486 -3.549738
-4.897247 3.331766 -3.691317
-4.936110 3.466281 -3.833606
-4.998211 3.677756 -4.053559
-5.039866 3.816531 -4.190869
-5.082968 3.957389 -4.325596
-5.127045 4.098531 -4.459710
-5.171738 4.238509 -4.594837
-5.217130 4.377197 -4.731056
-5.289901 4.591761 -4.944664
-5.338046 4.728312 -5.082091
-5.387434 4.863841 -5.220087
-5.438128 4.998144 -5.358807
-5.490224 5.131105 -5.498297
-5.543827 5.262642 -5.638564
-5.630692 5.464721 -5.858967
-5.688600 5.592084 -6.001358
-5.748348 5.717570 -6.144653
-5.810026 5.841037 -6.288879
-5.873721 5.962344 -6.434059
-5.939513 6.081342 -6.580210
-6.046515 6.261980 -6.810158
-6.118015 6.374354 -6.958848
-6.191855 6.483854 -7.108535
-6.268086 6.590316 -7.259211
-6.346750 6.693575 -7.410862
-6.427872 6.793470 -7.563469
-6.559363 6.942181 -7.803356
-6.646825 7.032741 -7.958267
-6.736739 7.119393 -8.114006
-6.829076 7.202005 -8.270522
-6.923781 7.280464 -8.427757
-7.020795 7.354665 -8.585651
-7.176560 7.461702 -8.833095
-7.279119 7.524675 -8.992355
-7.383676 7.583186 -9.152018
-7.490127 7.637237 -9.312000
-7.598367 7.686839 -9.472224
-7.708291 7.732025 -9.632609
-7.882882 7.793821 -9.882908
-7.996661 7.827994 -10.043329
-8.111783 7.858017 -10.203622
-8.228168 7.883989 -10.363712
-8.345741 7.906015 -10.523524
-8.464438 7.924207 -10.682989
-8.651695 7.945181 -10.930878
-8.773010 7.954066 -11.089159
-8.895260 7.959514 -11.246875
-9.018403 7.961630 -11.403976
-9.142397 7.960517 -11.560417
-9.267203 7.956275 -11.716157
198 NaN NaN
-2.108734 -1.352751 2.317997
-2.192125 -1.406471 2.300337
-2.278258 -1.453118 2.276714
-2.366169 -1.492836 2.247594
-2.455042 -1.525753 2.213354
-2.544162 -1.551946 2.174288
-2.632863 -1.571424 2.130615
-2.720486 -1.584116 2.082495
-2.806337 -1.589868 2.030049
-2.889645 -1.588450 1.973381
-2.969527 -1.579566 1.912614
-3.044953 -1.562889 1.847928
-3.114736 -1.538111 1.779616
-3.177868 -1.505367 1.708247
-3.234495 -1.466042 1.634757
-3.285332 -1.421704 1.559885
-3.331290 -1.373742 1.484087
-3.373344 -1.323349 1.407596
-3.412472 -1.271561 1.330483
-3.449512 -1.219189 1.252733
-3.484780 -1.166486 1.174385
-3.518483 -1.113573 1.095490
-3.550849 -1.060569 1.016099
-3.582121 -1.007587 0.936255
-3.612554 -0.954740 0.855999
-3.642311 -0.902048 0.775388
-3.671192 -0.849203 0.694559
-3.698909 -0.795827 0.613672
-3.725167 -0.741548 0.532899
-3.749661 -0.686009 0.452432
-3.772081 -0.628865 0.372486
-3.792308 -0.569873 0.293301
-3.810760 -0.508999 0.215113
-3.827946 -0.446234 0.138140
-3.844376 -0.381561 0.062594
-3.860561 -0.314961 -0.011311
-3.876995 -0.246428 -0.083371
-3.893930 -0.176200 -0.153663
-3.911396 -0.104714 -0.222544
-3.929421 -0.032393 -0.290402
-3.948036 0.040358 -0.357640
-3.967277 0.113141 -0.424666
-3.987162 0.185596 -0.491860
-4.007596 0.257609 -0.559363
-4.028436 0.329174 -0.627217
-4.049537 0.400288 -0.695465
-4.070754 0.470946 -0.764147
-4.091943 0.541145 -0.833308
-4.112977 0.610895 -0.902969
-4.133824 0.680275 -0.973055
-4.154483 0.749393 -1.043453
-4.174958 0.818359 -1.114055
-4.195249 0.887281 -1.184753
-4.215359 0.956269 -1.255438
-4.235297 1.025404 -1.326027
-4.255105 1.094677 -1.396520
-4.274827 1.164057 -1.466930
-4.294510 1.233516 -1.537272
-4.314200 1.303027 -1.607562
-4.333943 1.372560 -1.677816
-4.353762 1.442091 -1.748049
-4.373646 1.511604 -1.818283
-4.393581 1.581081 -1.888537
-4.413552 1.650506 -1.958833
-4.433543 1.719862 -2.029190
-4.453541 1.789135 -2.099628
-4.473536 1.858321 -2.170152
-4.493524 1.927430 -2.240754
-4.513502 1.996473 -2.311422
-4.533465 2.065460 -2.382150
-4.553411 2.134402 -2.452927
-4.573334 2.203308 -2.523744
-4.593234 2.272180 -2.594601
-4.613109 2.341019 -2.665498
-4.632957 2.409823 -2.736436
-4.652776 2.478592 -2.807416
-4.672565 2.547326 -2.878438
-4.692324 2.616027 -2.949501
-4.712056 2.684711 -3.020588
-4.731765 2.753394 -3.091682
-4.751454 2.822094 -3.162765
-4.771127 2.890827 -3.233820
-4.790789 2.959610 -3.304831
-4.810440 3.028426 -3.375812
-4.830078 3.097212 -3.446825
-4.849702 3.165904 -3.517934
-4.869309 3.234434 -3.589203
-4.888896 3.302738 -3.660695
-4.908467 3.370764 -3.732456
-4.928075 3.438628 -3.804360
-4.947807 3.506539 -3.876184
-4.967747 3.574710 -3.947706
-4.987980 3.643347 -4.018696
-5.008588 3.712656 -4.088921
-5.029635 3.782775 -4.158205
-5.051086 3.853552 -4.226693
-5.072875 3.924744 -4.294642
-5.094941 3.996113 -4.362315
-5.117221 4.067428 -4.429975
-5.139656 4.138459 -4.497883
-5.162226 4.209102 -4.566149
-5.184962 4.279394 -4.634721
-5.207894 4.349385 -4.703537
-5.231054 4.419119 -4.772536
-5.254474 4.488646 -4.841656
-5.278183 4.558001 -4.910850
-5.302191 4.627169 -4.980129
-5.326506 4.696120 -5.049517
-5.351135 4.764825 -5.119038
-5.376084 4.833253 -5.188718
-5.401361 4.901375 -5.258579
-5.426976 4.969171 -5.328634
-5.452942 5.036629 -5.398886
-5.479273 5.103739 -5.469334
-5.505984 5.170491 -5.539981
-5.533087 5.236873 -5.610825
-5.560595 5.302873 -5.681870
-5.588522 5.368474 -5.753121
-5.616878 5.433660 -5.824583
-5.645676 5.498412 -5.896263
-5.674926 5.562712 -5.968166
-5.704640 5.626541 -6.040297
-5.734831 5.689882 -6.112661
-5.765508 5.752716 -6.185262
-5.796683 5.815026 -6.258102
-5.828368 5.876792 -6.331185
-5.860574 5.937997 -6.404512
-5.893310 5.998622 -6.478085
-5.926588 6.058646 -6.551908
-5.960417 6.118050 -6.625981
-5.994806 6.176813 -6.700307
-6.029765 6.234916 -6.774886
-6.065302 6.292336 -6.849720
-6.101426 6.349055 -6.924807
-6.138143 6.405050 -7.000150
-6.175461 6.460301 -7.075746
-6.213385 6.514786 -7.151595
-6.251923 6.568485 -7.227696
-6.291081 6.621375 -7.304046
-6.330861 6.673436 -7.380644
-6.371266 6.724648 -7.457486
-6.412300 6.774989 -7.534571
-6.453965 6.824439 -7.611893
-6.496263 6.872976 -7.689450
-6.539194 6.920581 -7.767237
-6.582757 6.967234 -7.845248
-6.626949 7.012919 -7.923479
-6.671767 7.057615 -8.001923
-6.717210 7.101305 -8.080575
-6.763273 7.143970 -8.159429
-6.809951 7.185596 -8.238476
-6.857236 7.226168 -8.317710
-6.905121 7.265673 -8.397123
-6.953597 7.304098 -8.476707
-7.002658 7.341428 -8.556454
-7.052293 7.377653 -8.636355
-7.102491 7.412765 -8.716400
-7.153240 7.446758 -8.796581
-7.204529 7.479625 -8.876888
-7.256345 7.511361 -8.957312
-7.308678 7.541957 -9.037842
-7.361512 7.571415 -9.118469
-7.414836 7.599735 -9.199183
-7.468634 7.626918 -9.279971
-7.522893 7.652967 -9.360826
-7.577600 7.677881 -9.441736
-7.632742 7.701666 -9.522691
-7.688304 7.724329 -9.603679
-7.744275 7.745879 -9.684691
-7.800640 7.766323 -9.765716
-7.857387 7.785671 -9.846744
-7.914504 7.803931 -9.927764
-7.971980 7.821114 -10.008766
-8.029802 7.837233 -10.089740
-8.087961 7.852302 -10.170675
-8.146446 7.866333 -10.251562
-8.205246 7.879338 -10.332392
-8.264353 7.891331 -10.413154
-8.323757 7.902328 -10.493840
-8.383451 7.912341 -10.574441
-8.443426 7.921385 -10.654947
-8.503674 7.929476 -10.735350
-8.564189 7.936627 -10.815643
-8.624964 7.942853 -10.895816
-8.685991 7.948168 -10.975863
-8.747266 7.952586 -11.055775
-8.808781 7.956122 -11.135546
-8.870532 7.958790 -11.215169
-8.932512 7.960604 -11.294638
-8.994716 7.961576 -11.373946
-9.057139 7.961720 -11.453087
-9.119776 7.961048 -11.532057
-9.182622 7.959574 -11.610850
-9.245672 7.957310 -11.689461
-9.308921 7.954270 -11.767885
-9.372366 7.950466 -11.846118
-9.436002 7.945911 -11.924155
-9.499824 7.940619 -12.001993
-0.896744 -1.231950 5.714452
-0.819841 -1.093693 5.831463
-0.755070 -0.949200 5.948234
-0.705147 -0.798194 6.063982
-0.673347 -0.640782 6.177483
-0.663288 -0.477772 6.286929
-0.678393 -0.311011 6.389911
-0.720952 -0.143510 6.483661
-0.791856 0.020739 6.565275
-0.888093 0.178054 6.633423
-1.005275 0.326132 6.688161
-1.139003 0.463982 6.730404
-1.285352 0.591653 6.761570
-0.895935 -1.230560 5.715641
-0.820590 -1.095116 5.830274
-0.819091 -1.092271 5.832652
-0.755678 -0.950692 5.947049
-0.754462 -0.947707 5.949418
-0.705579 -0.799759 6.062813
-0.704716 -0.796630 6.065151
-0.673560 -0.642415 6.176347
-0.673133 -0.639150 6.178618
-0.663240 -0.479457 6.285851
-0.663336 -0.476088 6.288006
-0.678050 -0.312716 6.388924
-0.678736 -0.309305 6.390897
-0.720303 -0.145193 6.482798
-0.721602 -0.141827 6.484525
-0.791060 0.019084 6.564482
-0.792652 0.022393 6.566068
-0.887033 0.176485 6.632778
-0.889152 0.179624 6.634068
-1.004004 0.324670 6.687661
-1.006546 0.327593 6.688661
-1.137572 0.462634 6.730035
-1.140434 0.465330 6.730773
-1.283803 0.590414 6.761313
-0.892540 -1.224732 5.720628
-0.823733 -1.101083 5.825286
-0.815948 -1.086304 5.837640
-0.758228 -0.956951 5.942081
-0.751912 -0.941448 5.954386
-0.707390 -0.806320 6.057911
-0.702905 -0.790069 6.070054
-0.674457 -0.649260 6.171583
-0.672236 -0.632305 6.183382
-0.663041 -0.486521 6.281333
-0.663535 -0.469023 6.292524
-0.676609 -0.319869 6.384787
-0.680177 -0.302152 6.395034
-0.718051 -0.152305 6.478975
-0.724326 -0.134769 6.488147
-0.787720 0.012146 6.561155
-0.795993 0.029331 6.569393
-0.882590 0.169904 6.630075
-0.893595 0.186205 6.636771
-0.998675 0.318541 6.685565
-1.011876 0.333722 6.690757
-1.131571 0.456982 6.728486
-1.146435 0.470982 6.732322
-1.277307 0.585217 6.760235
-0.884280 -1.210551 5.732761
-0.873336 -1.191762 5.748837
-0.862392 -1.172973 5.764914
-0.851649 -1.154072 5.780991
-0.841515 -1.134836 5.797070
-0.831381 -1.115601 5.813150
-0.808858 -1.071499 5.849764
-0.799628 -1.051799 5.865826
-0.790398 -1.032099 5.881888
-0.781168 -1.012399 5.897949
-0.772653 -0.992359 5.913978
-0.764432 -0.972181 5.929994
-0.745795 -0.926181 5.966467
-0.738701 -0.905515 5.982400
-0.731607 -0.884850 5.998334
-0.724513 -0.864184 6.014267
-0.717632 -0.843436 6.030178
-0.711795 -0.822284 6.045983
-0.698500 -0.774105 6.081982
-0.693417 -0.752698 6.097685
-0.688978 -0.731072 6.113303
-0.684540 -0.709447 6.128920
-0.680102 -0.687821 6.144538
-0.676639 -0.665916 6.159992
-0.670054 -0.615649 6.194974
-0.667163 -0.593580 6.210332
-0.665969 -0.571119 6.225344
-0.664775 -0.548659 6.240356
-0.663580 -0.526199 6.255368
-0.662555 -0.503709 6.270340
-0.664021 -0.451835 6.303518
-0.664665 -0.429060 6.318084
-0.666212 -0.406190 6.332393
-0.668813 -0.383206 6.346402
-0.671415 -0.360223 6.360412
-0.674016 -0.337239 6.374421
-0.683682 -0.284747 6.405100
-0.688325 -0.261686 6.418438
-0.692969 -0.238625 6.431775
-0.699533 -0.215631 6.444390
-0.706255 -0.192643 6.456945
-0.712978 -0.169655 6.469499
-0.730954 -0.117595 6.496958
-0.739736 -0.094839 6.508634
-0.748518 -0.072083 6.520309
-0.758065 -0.049476 6.531617
-0.768830 -0.027107 6.542340
-0.779595 -0.004737 6.553063
-0.805521 0.045820 6.576733
-0.818145 0.067667 6.586459
-0.830769 0.089515 6.596186
-0.843393 0.111362 6.605912
-0.857457 0.132674 6.614781
-0.871780 0.153891 6.623497
-0.904736 0.202064 6.643132
-0.920579 0.222574 6.650851
-0.936423 0.243084 6.658569
-0.952267 0.263594 6.666288
-0.968525 0.283871 6.673709
-0.985707 0.303629 6.680466
-1.024843 0.348634 6.695856
-1.042815 0.367869 6.701994
-1.061160 0.386857 6.707839
-1.079506 0.405845 6.713685
-1.097851 0.424833 6.719530
-1.116969 0.443230 6.724718
-1.161037 0.484734 6.736090
-1.180505 0.502850 6.740972
-1.200712 0.520323 6.745174
-1.220919 0.537795 6.749376
-1.241126 0.555268 6.753579
-1.261502 0.572574 6.757612
25 NaN NaN
-0.896947 -1.232297 5.714155
-0.854168 -1.158855 5.776993
-0.814559 -1.083668 5.839843
-0.778483 -1.006667 5.902622
-0.746350 -0.927797 5.965221
-0.718622 -0.847025 6.027497
-0.695809 -0.764353 6.089268
-0.678462 -0.679833 6.150306
-0.667163 -0.593583 6.210330
-0.662496 -0.505804 6.269000
-0.665011 -0.416801 6.325925
-0.675177 -0.326984 6.380672
-0.693323 -0.236866 6.432793
-0.719593 -0.147034 6.481854
-0.753910 -0.058109 6.527479
-0.795979 0.029307 6.569382
-0.845312 0.114683 6.607390
-0.901286 0.197598 6.641451
-0.963205 0.277754 6.671617
-1.030356 0.354973 6.698024
-1.102055 0.429185 6.720870
-1.177673 0.500401 6.740383
-1.256652 0.568693 6.756808
-1.338503 0.634171 6.770388
-1.422811 0.696970 6.781360
-1.083188 -1.292979 4.517816
-1.010730 -1.171881 4.497400
-0.944160 -1.047139 4.479076
-0.884684 -0.918531 4.463255
-0.835789 -0.785179 4.451134
-0.798155 -0.647977 4.442913
-0.774060 -0.507572 4.439335
-0.769331 -0.365243 4.442313
-0.783820 -0.223930 4.451703
-0.818157 -0.086656 4.467620
-0.874677 0.041997 4.490699
-0.948078 0.160684 4.519119
-1.034871 0.268879 4.551695
-1.133487 0.365209 4.587855
-1.239963 0.451812 4.626338
-1.352176 0.530054 4.666478
-1.082157 -1.291291 4.517524
-1.011699 -1.173609 4.497670
-1.009760 -1.170153 4.497131
-0.945058 -1.048910 4.479320
-0.943263 -1.045368 4.478832
-0.885496 -0.920346 4.463469
-0.883898 -0.916704 4.463050
-0.836384 -0.787083 4.451272
-0.835194 -0.783274 4.450995
-0.798611 -0.649922 4.443003
-0.797699 -0.646032 4.442822
-0.774354 -0.509550 4.439370
-0.773766 -0.505594 4.439300
-0.769232 -0.367238 4.442215
-0.769430 -0.363248 4.442410
-0.783499 -0.225897 4.451532
-0.784141 -0.221963 4.451873
-0.817612 -0.088565 4.467376
-0.818702 -0.084747 4.467864
-0.873724 0.040279 4.490324
-0.875630 0.043715 4.491074
-0.946958 0.159083 4.518693
-0.949197 0.162285 4.519546
-1.033613 0.267397 4.551225
-1.036129 0.270361 4.552164
-1.132026 0.363951 4.587324
-1.134948 0.366468 4.588385
-1.238429 0.450653 4.625787
-1.241496 0.452972 4.626890
-1.350585 0.528984 4.665910
-1.078808 -1.285811 4.516577
-1.014846 -1.179219 4.498545
-1.006613 -1.164543 4.496255
-0.947969 -1.054657 4.480112
-0.940352 -1.039621 4.478040
-0.888133 -0.926237 4.464164
-0.881586 -0.910666 4.462468
-0.838314 -0.793265 4.451721
-0.833264 -0.777093 4.450546
-0.800091 -0.656236 4.443297
-0.796218 -0.639719 4.442528
-0.775309 -0.515969 4.439484
-0.773288 -0.499125 4.439347
-0.768910 -0.373714 4.441900
-0.769751 -0.356772 4.442725
-0.782459 -0.232280 4.450979
-0.785181 -0.215580 4.452427
-0.815843 -0.094760 4.466584
-0.820831 -0.078695 4.468772
-0.870631 0.034703 4.489108
-0.878724 0.049291 4.492290
-0.943324 0.153886 4.517307
-0.952831 0.167483 4.520932
-1.029530 0.262586 4.549702
-1.040300 0.275082 4.553714
-1.127284 0.359865 4.585603
-1.139690 0.370553 4.590106
-1.233452 0.446889 4.623997
-1.246474 0.456735 4.628679
-1.345419 0.525513 4.664066
-1.071262 -1.273463 4.514442
-1.061319 -1.257193 4.511630
-1.051376 -1.240922 4.508817
-1.041433 -1.224652 4.506004
-1.031490 -1.208382 4.503192
-1.021937 -1.191861 4.500518
-0.999522 -1.151901 4.494282
-0.990178 -1.135245 4.491683
-0.980835 -1.118589 4.489084
-0.971823 -1.101738 4.486602
-0.963177 -1.084673 4.484250
-0.954531 -1.067609 4.481898
-0.933790 -1.026669 4.476255
-0.925388 -1.009477 4.473989
-0.917560 -0.991986 4.471924
-0.909731 -0.974494 4.469860
-0.901903 -0.957003 4.467795
-0.894074 -0.939512 4.465731
-0.876374 -0.897061 4.461156
-0.869507 -0.879134 4.459429
-0.862641 -0.861208 4.457701
-0.855774 -0.843282 4.455973
-0.848908 -0.825355 4.454245
-0.842664 -0.807194 4.452733
-0.828913 -0.763163 4.449534
-0.823182 -0.744809 4.448200
-0.817450 -0.726456 4.446867
-0.812218 -0.707955 4.445705
-0.807822 -0.689209 4.444833
-0.803427 -0.670463 4.443960
-0.792882 -0.625491 4.441866
-0.788798 -0.606682 4.441099
-0.785963 -0.587621 4.440760
-0.783129 -0.568559 4.440420
-0.780294 -0.549498 4.440081
-0.777460 -0.530436 4.439742
-0.772496 -0.484520 4.439549
-0.771454 -0.465276 4.439817
-0.770411 -0.446032 4.440084
-0.769368 -0.426788 4.440352
-0.768325 -0.407544 4.440619
-0.768186 -0.388307 4.441189
-0.770476 -0.342179 4.443436
-0.771430 -0.322952 4.444373
-0.772385 -0.303724 4.445310
-0.773935 -0.284573 4.446443
-0.777025 -0.265619 4.448087
-0.780114 -0.246665 4.449731
-0.787526 -0.201194 4.453675
-0.790845 -0.182300 4.455393
-0.796097 -0.163905 4.457745
-0.801350 -0.145510 4.460096
-0.806603 -0.127116 4.462448
-0.811856 -0.108721 4.464799
-0.826387 -0.065358 4.471062
-0.833706 -0.047785 4.474080
-0.841026 -0.030212 4.477099
-0.848346 -0.012640 4.480117
-0.855666 0.004933 4.483135
-0.863659 0.022138 4.486367
-0.885695 0.061856 4.495031
-0.894881 0.078411 4.498642
-0.904066 0.094966 4.502253
-0.913553 0.111311 4.505958
-0.924343 0.126742 4.510072
-0.935134 0.142174 4.514185
-0.961021 0.179195 4.524054
-0.971830 0.194610 4.528173
-0.983955 0.208894 4.532697
-0.996079 0.223178 4.537221
-1.008203 0.237461 4.541744
-1.020328 0.251745 4.546268
-1.050325 0.285079 4.557397
-1.063533 0.298250 4.562248
-1.076742 0.311422 4.567100
-1.089950 0.324593 4.571952
-1.103158 0.337765 4.576804
-1.116598 0.350659 4.581724
-1.150377 0.379759 4.593985
-1.164457 0.391889 4.599096
-1.178537 0.404018 4.604206
-1.192679 0.416062 4.609335
-1.207458 0.427235 4.614650
-1.222236 0.438409 4.619964
-1.257690 0.465215 4.632713
-1.272468 0.476389 4.638027
-1.287759 0.486770 4.643488
-1.303098 0.497077 4.648962
-1.318438 0.507384 4.654437
-1.333777 0.517691 4.659911
21 NaN NaN
-1.083446 -1.293401 4.517889
-1.028015 -1.202695 4.502209
-0.975926 -1.109838 4.487718
-0.927728 -1.014705 4.474606
-0.884087 -0.917197 4.463097
-0.845810 -0.817268 4.453465
-0.813861 -0.714962 4.446032
-0.789362 -0.610477 4.441166
-0.773565 -0.504242 4.439275
-0.767754 -0.396999 4.440766
-0.773074 -0.289858 4.445985
-0.790288 -0.184249 4.455144
-0.819556 -0.081756 4.468246
-0.860342 0.016160 4.485063
-0.911527 0.108414 4.505186
-0.971663 0.194414 4.528110
-1.039239 0.274024 4.553325
-1.112862 0.347441 4.580368
-1.191347 0.415054 4.608856
-1.273729 0.477342 4.638480
-1.359240 0.534800 4.668999
-1.560398 -1.326505 3.402677
-1.415292 -1.228963 3.391583
-1.273291 -1.126890 3.381204
-1.135949 -1.018544 3.371861
-1.004424 -0.903155 3.363754
-0.881558 -0.778506 3.357398
-0.771870 -0.642182 3.353532
-0.682342 -0.491896 3.353195
-0.629662 -0.325805 3.358606
-0.626402 -0.152086 3.370746
-0.687571 0.009843 3.390088
-0.789336 0.149827 3.412920
-0.919026 0.264738 3.437431
-1.062001 0.362618 3.462374
-1.213842 0.446261 3.487396
-1.558734 -1.325403 3.402548
-1.416933 -1.230099 3.391706
-1.413650 -1.227828 3.391460
-1.274875 -1.128106 3.381314
-1.271708 -1.125674 3.381094
-1.137495 -1.019809 3.371963
-1.134403 -1.017279 3.371759
-1.005863 -0.904542 3.363834
-1.002984 -0.901769 3.363674
-0.882921 -0.779968 3.357462
-0.880194 -0.777045 3.357333
-0.772996 -0.643835 3.353554
-0.770743 -0.640530 3.353511
-0.683279 -0.493663 3.353185
-0.681406 -0.490129 3.353206
-0.629972 -0.327778 3.358502
-0.629351 -0.323832 3.358710
-0.626271 -0.154075 3.370586
-0.626534 -0.150097 3.370906
-0.686607 0.008108 3.389842
-0.688535 0.011577 3.390334
-0.787906 0.148456 3.412642
-0.790765 0.151198 3.413197
-0.917468 0.263516 3.437148
-0.920584 0.265959 3.437714
-1.060289 0.361624 3.462088
-1.063712 0.363613 3.462659
-1.212083 0.445353 3.487111
-1.552382 -1.321201 3.402058
-1.423199 -1.234431 3.392176
-1.407384 -1.223496 3.390989
-1.280920 -1.132747 3.381735
-1.265663 -1.121033 3.380674
-1.143394 -1.024636 3.372352
-1.128505 -1.012451 3.371371
-1.011357 -0.909831 3.364138
-0.997491 -0.896480 3.363369
-0.888124 -0.785546 3.357710
-0.874991 -0.771467 3.357085
-0.777295 -0.650140 3.353636
-0.766444 -0.634224 3.353429
-0.686855 -0.500406 3.353145
-0.677830 -0.483386 3.353246
-0.631157 -0.335308 3.358107
-0.628167 -0.316303 3.359105
-0.625769 -0.161666 3.369975
-0.628204 -0.142733 3.371646
-0.682928 0.001487 3.388904
-0.692214 0.018198 3.391272
-0.782670 0.143021 3.411595
-0.796220 0.156429 3.414257
-0.911523 0.258854 3.436068
-0.926530 0.270621 3.438794
-1.053758 0.357829 3.460997
-1.070243 0.367408 3.463750
-1.205371 0.441886 3.486021
-1.537314 -1.311231 3.400895
-1.517385 -1.298044 3.399356
-1.497456 -1.284858 3.397817
-1.477528 -1.271672 3.396278
-1.457722 -1.258300 3.394768
-1.438063 -1.244707 3.393292
-1.392520 -1.213219 3.389873
-1.372878 -1.199602 3.388401
-1.353536 -1.185555 3.386998
-1.334194 -1.171508 3.385595
-1.314852 -1.157461 3.384192
-1.295510 -1.143414 3.382788
-1.251325 -1.110023 3.379677
-1.232361 -1.095462 3.378358
-1.213396 -1.080901 3.377039
-1.194432 -1.066340 3.375720
-1.175893 -1.051235 3.374493
-1.157386 -1.036088 3.373274
-1.114512 -1.001000 3.370448
-1.096301 -0.985500 3.369292
-1.078358 -0.969682 3.368191
-1.060414 -0.953864 3.367090
-1.042470 -0.938046 3.365990
-1.024526 -0.922227 3.364889
-0.984459 -0.883932 3.362646
-0.967223 -0.867337 3.361690
-0.949987 -0.850741 3.360734
-0.933117 -0.833781 3.359851
-0.916792 -0.816280 3.359074
-0.900467 -0.798779 3.358297
-0.862648 -0.758234 3.356498
-0.847525 -0.739677 3.355948
-0.832403 -0.721118 3.355398
-0.817281 -0.702559 3.354848
-0.802160 -0.683999 3.354298
-0.787494 -0.665099 3.353830
-0.756246 -0.619266 3.353234
-0.742758 -0.599482 3.352977
-0.729270 -0.579698 3.352720
-0.717772 -0.558712 3.352798
-0.706554 -0.537556 3.352924
-0.695336 -0.516401 3.353050
-0.670862 -0.466728 3.353578
-0.662826 -0.444180 3.354202
-0.654790 -0.421631 3.354826
-0.646754 -0.399083 3.355450
-0.638718 -0.376534 3.356074
-0.633967 -0.353169 3.357168
-0.625357 -0.298442 3.360044
-0.621640 -0.274819 3.361286
-0.619854 -0.251125 3.362774
-0.621429 -0.227308 3.364691
-0.623004 -0.203491 3.366608
-0.624578 -0.179674 3.368525
-0.633492 -0.125523 3.373551
-0.640487 -0.102760 3.376069
-0.647481 -0.079997 3.378587
-0.654476 -0.057235 3.381106
-0.662657 -0.034991 3.383735
-0.674200 -0.014219 3.386678
-0.700942 0.033904 3.393497
-0.712485 0.054676 3.396440
-0.726886 0.073495 3.399600
-0.741738 0.092005 3.402793
-0.756590 0.110516 3.405987
-0.771441 0.129026 3.409180
-0.809160 0.168841 3.416771
-0.826274 0.185256 3.420096
-0.843388 0.201671 3.423421
-0.860502 0.218086 3.426746
-0.878765 0.233168 3.430118
-0.897419 0.247795 3.433507
-0.940634 0.281681 3.441356
-0.959655 0.295798 3.444754
-0.979380 0.308939 3.448168
-0.999104 0.322079 3.451583
-1.018829 0.335220 3.454998
-1.038554 0.348361 3.458413
-1.085737 0.376412 3.466337
-1.106228 0.388319 3.469759
-1.126720 0.400227 3.473180
-1.147336 0.411908 3.476601
-1.168393 0.422785 3.480019
-1.189450 0.433662 3.483437
23 NaN NaN
-1.560814 -1.326780 3.402709
-1.466736 -1.264532 3.395445
-1.373932 -1.200368 3.388478
-1.282625 -1.134056 3.381853
-1.193103 -1.065319 3.375627
-1.105740 -0.993821 3.369870
-1.021037 -0.919152 3.364675
-0.939679 -0.840816 3.360163
-0.862624 -0.758208 3.356497
-0.791256 -0.670617 3.353902
-0.727606 -0.577258 3.352688
-0.674686 -0.477456 3.353281
-0.636793 -0.371133 3.356224
-0.619280 -0.259816 3.362074
-0.626696 -0.147639 3.371104
-0.659646 -0.040410 3.382967
-0.714057 0.057506 3.396841
-0.784106 0.144810 3.411903
-0.864855 0.222261 3.427592
-0.952889 0.291291 3.443582
-1.045987 0.353313 3.459700
-1.142711 0.409520 3.475851
-1.242110 0.460863 3.491984
-1.835689 -1.285146 1.926343
-1.720099 -1.229519 1.949586
-1.606091 -1.171207 1.974008
-1.493974 -1.109884 1.999753
-1.384142 -1.045167 2.026991
-1.277144 -0.976560 2.055941
-1.174235 -0.902881 2.087127
-1.076039 -0.824003 2.120610
-0.983955 -0.739178 2.156726
-0.899909 -0.647624 2.195829
-0.826747 -0.548538 2.238290
-0.770083 -0.440852 2.284620
-0.732500 -0.326550 2.333977
-0.717342 -0.208109 2.385310
-0.725868 -0.089126 2.437069
-0.757087 0.026686 2.487631
-0.808738 0.136203 2.535622
-0.874373 0.239194 2.580889
-0.950724 0.335787 2.623463
-1.035270 0.426494 2.663544
-1.833912 -1.284298 1.926697
-1.721856 -1.230401 1.949217
-1.718342 -1.228637 1.949955
-1.607825 -1.172126 1.973622
-1.604358 -1.170287 1.974393
-1.495680 -1.110845 1.999349
-1.492267 -1.108923 2.000157
-1.385816 -1.046175 2.026566
-1.382467 -1.044159 2.027415
-1.278747 -0.977661 2.055476
-1.275555 -0.975441 2.056414
-1.175766 -0.904066 2.086625
-1.172704 -0.901697 2.087630
-1.077499 -0.825261 2.120075
-1.074580 -0.822744 2.121146
-0.985324 -0.740519 2.156154
-0.982587 -0.737836 2.157298
-0.901162 -0.649057 2.195216
-0.898657 -0.646190 2.196441
-0.827660 -0.550173 2.237587
-0.825833 -0.546904 2.238993
-0.770759 -0.442580 2.283875
-0.769406 -0.439124 2.285366
-0.732895 -0.328350 2.333198
-0.732105 -0.324751 2.334755
-0.717426 -0.209942 2.384515
-0.717257 -0.206276 2.386106
-0.725641 -0.090948 2.436276
-0.726095 -0.087304 2.437862
-0.756334 0.024989 2.486888
-0.757841 0.028383 2.488374
-0.807788 0.134591 2.534914
-0.809688 0.137814 2.536329
-0.873267 0.237668 2.580217
-0.875479 0.240719 2.581560
-0.949495 0.334344 2.622826
-0.951953 0.337231 2.624100
-1.033944 0.425125 2.662939
-1.828526 -1.281729 1.927770
-1.727182 -1.233074 1.948098
-1.713017 -1.225964 1.951073
-1.613081 -1.174914 1.972453
-1.599102 -1.167500 1.975562
-1.500854 -1.113760 1.998124
-1.487094 -1.106008 2.001381
-1.390892 -1.049230 2.025279
-1.377391 -1.041103 2.028702
-1.283706 -0.980874 2.054119
-1.270738 -0.972051 2.057849
-1.180409 -0.907656 2.085102
-1.168062 -0.898107 2.089152
-1.081923 -0.829077 2.118453
-1.070156 -0.818929 2.122768
-0.989472 -0.744587 2.154420
-0.978438 -0.733769 2.159032
-0.904958 -0.653404 2.193358
-0.894860 -0.641843 2.198299
-0.830969 -0.554840 2.235586
-0.823064 -0.541949 2.241123
-0.772810 -0.447819 2.281615
-0.767356 -0.433885 2.287625
-0.734092 -0.333804 2.330838
-0.730907 -0.319296 2.337115
-0.717683 -0.215499 2.382103
-0.717000 -0.200720 2.388518
-0.724954 -0.096471 2.433871
-0.726782 -0.081781 2.440267
-0.754563 0.019685 2.484570
-0.760125 0.033527 2.490627
-0.804908 0.129706 2.532769
-0.812568 0.142699 2.538475
-0.869915 0.233044 2.578182
-0.878830 0.245343 2.583596
-0.945771 0.329967 2.620894
-0.955677 0.341608 2.626031
-1.029924 0.420974 2.661104
-1.816691 -1.276084 1.930128
-1.801128 -1.268660 1.933229
-1.785565 -1.261236 1.936330
-1.770001 -1.253812 1.939431
-1.754438 -1.246388 1.942531
-1.738885 -1.238947 1.945640
-1.701314 -1.220091 1.953532
-1.685924 -1.212367 1.956764
-1.670535 -1.204643 1.959997
-1.655145 -1.196919 1.963229
-1.639817 -1.189094 1.966506
-1.624630 -1.181039 1.969884
-1.587553 -1.161375 1.978131
-1.572365 -1.153320 1.981509
-1.557178 -1.145265 1.984887
-1.542122 -1.137007 1.988354
-1.527172 -1.128585 1.991893
-1.512223 -1.120164 1.995433
-1.475725 -1.099604 2.004073
-1.460775 -1.091183 2.007612
-1.446051 -1.082434 2.011295
-1.431383 -1.073604 2.015014
-1.416715 -1.064775 2.018733
-1.402047 -1.055945 2.022451
-1.366254 -1.034366 2.031540
-1.351924 -1.025080 2.035460
-1.337594 -1.015794 2.039379
-1.323264 -1.006508 2.043299
-1.308934 -0.997222 2.047219
-1.294604 -0.987936 2.051138
-1.260153 -0.964599 2.061001
-1.246233 -0.954801 2.065147
-1.232314 -0.945003 2.069292
-1.218394 -0.935204 2.073438
-1.204475 -0.925406 2.077583
-1.190609 -0.915546 2.081756
-1.157861 -0.890217 2.092498
-1.144446 -0.879842 2.096899
-1.131032 -0.869467 2.101299
-1.117618 -0.859091 2.105699
-1.104428 -0.848485 2.110201
-1.091644 -0.837460 2.114889
-1.060434 -0.810545 2.126332
-1.047650 -0.799521 2.131020
-1.034866 -0.788496 2.135707
-1.022564 -0.777030 2.140590
-1.010576 -0.765277 2.145600
-0.998589 -0.753524 2.150610
-0.969322 -0.724831 2.162842
-0.957334 -0.713078 2.167852
-0.946216 -0.700635 2.173169
-0.935245 -0.688075 2.178538
-0.924273 -0.675515 2.183906
-0.913302 -0.662955 2.189275
-0.886655 -0.632200 2.202423
-0.876988 -0.618771 2.208180
-0.867321 -0.605341 2.213937
-0.857654 -0.591912 2.219694
-0.847987 -0.578482 2.225451
-0.838320 -0.565053 2.231208
-0.816979 -0.531061 2.245805
-0.808977 -0.516742 2.251961
-0.800975 -0.502424 2.258118
-0.792973 -0.488106 2.264274
-0.784971 -0.473788 2.270431
-0.777317 -0.459332 2.276650
-0.762849 -0.422372 2.292591
-0.756923 -0.407233 2.299120
-0.750997 -0.392094 2.305650
-0.745070 -0.376955 2.312179
-0.740183 -0.361554 2.318831
-0.736723 -0.345791 2.325651
-0.728276 -0.307309 2.342302
-0.724816 -0.291547 2.349122
-0.721356 -0.275784 2.355942
-0.719733 -0.259823 2.362863
-0.718990 -0.243766 2.369833
-0.718248 -0.227709 2.376803
-0.716435 -0.188509 2.393818
-0.715693 -0.172453 2.400788
-0.717489 -0.156486 2.407738
-0.719474 -0.140527 2.414688
-0.721460 -0.124567 2.421637
-0.723445 -0.108607 2.428586
-0.728753 -0.069725 2.445520
-0.733234 -0.054204 2.452299
-0.737714 -0.038682 2.459078
-0.742195 -0.023161 2.465857
-0.746675 -0.007639 2.472636
-0.751156 0.007882 2.479415
-0.765145 0.044831 2.495579
-0.771746 0.059697 2.502089
-0.778348 0.074562 2.508600
-0.784949 0.089427 2.515111
-0.791550 0.104293 2.521622
-0.798580 0.118972 2.528055
-0.818896 0.153434 2.543189
-0.827217 0.167551 2.549388
-0.835539 0.181667 2.555587
-0.843860 0.195783 2.561786
-0.852864 0.209522 2.567827
-0.862550 0.222884 2.573709
-0.886196 0.255504 2.588069
-0.895882 0.268865 2.593951
-0.905568 0.282227 2.599833
-0.916061 0.295053 2.605489
-0.926824 0.307701 2.611070
-0.937587 0.320349 2.616650
-0.963862 0.351226 2.630275
-0.974624 0.363874 2.635855
-0.986241 0.375869 2.641159
-0.997857 0.387864 2.646463
-1.009474 0.399858 2.651767
-1.021090 0.411853 2.657070
25 NaN NaN
-1.836133 -1.285358 1.926254
-1.739753 -1.239383 1.945457
-1.644450 -1.191551 1.965476
-1.550399 -1.141669 1.986395
-1.457820 -1.089518 2.008312
-1.366986 -1.034839 2.031340
-1.278246 -0.977336 2.055613
-1.192051 -0.916661 2.081284
-1.108986 -0.852415 2.108530
-1.029828 -0.784151 2.137554
-0.955603 -0.711381 2.168575
-0.887679 -0.633622 2.201814
-0.827838 -0.550490 2.237451
-0.778311 -0.461872 2.275554
-0.741640 -0.368193 2.315959
-0.720234 -0.270673 2.358154
-0.715642 -0.171339 2.401271
-0.727924 -0.072598 2.444266
-0.755650 0.023450 2.486214
-0.796507 0.115455 2.526511
-0.848020 0.202840 2.564885
-0.907986 0.285563 2.601302
-0.974624 0.363874 2.635855
-1.046553 0.438145 2.668696
-1.122723 0.508775 2.699988
-1.291099 -1.150408 1.143609
-1.025477 -0.934014 1.166234
-0.790488 -0.687332 1.206024
-0.621145 -0.398568 1.274426
-0.592113 -0.079066 1.382793
-0.735439 0.200853 1.512570
-0.975200 0.411416 1.637428
-1.289510 -1.149198 1.143714
-1.026939 -0.935367 1.166051
-1.024016 -0.932661 1.166416
-0.791705 -0.688889 1.205718
-0.789271 -0.685775 1.206330
-0.621830 -0.400377 1.273920
-0.620459 -0.396758 1.274932
-0.591818 -0.080908 1.382073
-0.592407 -0.077223 1.383513
-0.734319 0.199380 1.511811
-0.736559 0.202326 1.513328
-0.973635 0.410381 1.636734
-1.278765 -1.141017 1.144424
-1.036821 -0.944515 1.164817
-1.014133 -0.923513 1.167651
-0.799937 -0.699416 1.203648
-0.781039 -0.675247 1.208399
-0.626467 -0.412611 1.270498
-0.615822 -0.384525 1.278354
-0.589829 -0.093366 1.377203
-0.594396 -0.064765 1.388383
-0.726743 0.189421 1.506683
-0.744899 0.211667 1.518393
-0.963104 0.403323 1.632034
-1.250115 -1.119205 1.146317
-1.211921 -1.090125 1.148842
-1.174430 -1.060191 1.151817
-1.137072 -1.030095 1.154879
-1.100314 -0.999317 1.158308
-1.063961 -0.968081 1.161984
-0.987783 -0.899120 1.170943
-0.953046 -0.866227 1.175546
-0.919433 -0.832260 1.180765
-0.885850 -0.798269 1.186000
-0.854145 -0.762671 1.192197
-0.822441 -0.727073 1.198394
-0.759090 -0.647175 1.213916
-0.731979 -0.608399 1.222199
-0.705894 -0.568975 1.230926
-0.681620 -0.528642 1.240351
-0.659702 -0.487127 1.250687
-0.638831 -0.445231 1.261374
-0.604128 -0.351763 1.287667
-0.594518 -0.306823 1.301768
-0.584907 -0.261883 1.315870
-0.582243 -0.216606 1.331526
-0.580738 -0.171271 1.347442
-0.584525 -0.126585 1.364218
-0.603885 -0.032794 1.401785
-0.618953 0.009109 1.419894
-0.635910 0.050117 1.438072
-0.657653 0.088861 1.456428
-0.679614 0.127464 1.474779
-0.706543 0.162866 1.493009
-0.768022 0.235856 1.531824
-0.798848 0.268104 1.549730
-0.831724 0.298370 1.567349
-0.865462 0.327803 1.584848
-0.900215 0.356104 1.602152
-0.936149 0.383084 1.619226
21 NaN NaN
-1.291496 -1.150710 1.143582
-1.205831 -1.085489 1.149244
-1.122042 -1.017987 1.156110
-1.040509 -0.947929 1.164356
-0.961723 -0.874996 1.174199
-0.886339 -0.798819 1.185904
-0.815239 -0.718987 1.199802
-0.749624 -0.635068 1.216295
-0.691139 -0.546674 1.235862
-0.642005 -0.453606 1.259032
-0.605065 -0.356144 1.286292
-0.583534 -0.255460 1.317885
-0.580162 -0.153916 1.353535
-0.595999 -0.054724 1.392308
-0.629757 0.039154 1.432878
-0.678486 0.125981 1.474015
-0.738853 0.205341 1.514881
-0.807969 0.277645 1.555028
-0.883623 0.343646 1.594268
-0.964209 0.404152 1.632559
-1.048575 0.459906 1.669930
-0.746643 -1.015612 0.360889
-0.651732 -0.803051 0.354803
-0.584161 -0.580612 0.365248
-0.554701 -0.352248 0.397108
-0.573403 -0.127815 0.453658
-0.642439 0.079112 0.533226
-0.753449 0.259221 0.629450
-0.894002 0.411309 0.735497
-0.745775 -1.013812 0.360804
-0.652397 -0.804937 0.354763
-0.651067 -0.801165 0.354842
-0.584542 -0.582565 0.365044
-0.583780 -0.578660 0.365452
-0.554708 -0.354207 0.396705
-0.554694 -0.350289 0.397512
-0.572984 -0.129674 0.453050
-0.573822 -0.125957 0.454266
-0.641630 0.077454 0.532453
-0.643248 0.080770 0.533999
-0.752348 0.257801 0.628572
-0.754551 0.260641 0.630329
-0.892704 0.410110 0.734560
-0.741588 -1.005122 0.360393
-0.655736 -0.813991 0.354649
-0.647858 -0.792061 0.355035
-0.586382 -0.591992 0.364059
-0.581940 -0.569233 0.366436
-0.554741 -0.363663 0.394757
-0.554662 -0.340832 0.399460
-0.570960 -0.138646 0.450113
-0.575846 -0.116984 0.457203
-0.637725 0.069451 0.528722
-0.647153 0.088773 0.537731
-0.747031 0.250947 0.624332
-0.759867 0.267494 0.634569
-0.886436 0.404323 0.730038
-0.731064 -0.983276 0.359359
-0.717087 -0.954266 0.357987
-0.703111 -0.925255 0.356614
-0.690107 -0.895788 0.355852
-0.677622 -0.866076 0.355415
-0.665137 -0.836365 0.354978
-0.639791 -0.769175 0.355519
-0.629079 -0.738783 0.356163
-0.618366 -0.708391 0.356806
-0.609597 -0.677435 0.358595
-0.600985 -0.646433 0.360478
-0.592373 -0.615431 0.362360
-0.577314 -0.545536 0.368912
-0.571171 -0.514067 0.372199
-0.565594 -0.482553 0.375795
-0.562299 -0.450859 0.380637
-0.559004 -0.419164 0.385479
-0.555709 -0.387470 0.390322
-0.554579 -0.317061 0.404357
-0.554470 -0.285493 0.410860
-0.555978 -0.254196 0.418163
-0.559279 -0.223198 0.426354
-0.562579 -0.192200 0.434544
-0.565880 -0.161203 0.442735
-0.580934 -0.094430 0.464585
-0.587691 -0.064479 0.474388
-0.596924 -0.035630 0.485274
-0.606980 -0.007148 0.496519
-0.617037 0.021334 0.507765
-0.627909 0.049333 0.519342
-0.656969 0.108891 0.547111
-0.670072 0.135557 0.559592
-0.685677 0.160361 0.573011
-0.701281 0.185165 0.586431
-0.716886 0.209969 0.599850
-0.733666 0.233718 0.613673
-0.773232 0.284724 0.645228
-0.791506 0.307049 0.659546
-0.811008 0.328084 0.674246
-0.830510 0.349118 0.688945
-0.850011 0.370152 0.703645
-0.870681 0.389776 0.718670
16 NaN NaN
-0.746859 -1.016062 0.360910
-0.698244 -0.915154 0.356136
-0.654820 -0.811812 0.354617
-0.617562 -0.706109 0.356854
-0.587612 -0.598291 0.363401
-0.566250 -0.488860 0.374832
-0.554793 -0.378655 0.391668
-0.554412 -0.268899 0.414278
-0.565887 -0.161132 0.442753
-0.589377 -0.057004 0.476835
-0.624341 0.042022 0.515933
-0.669667 0.134914 0.559244
-0.723931 0.221167 0.605908
-0.785653 0.300736 0.655134
-0.853478 0.373892 0.706258
-0.926251 0.441084 0.758764
