0.148956 0.148946 0.148819 0.148255 0.147363 0.146564 0.145765 0.144966 0.144247 0.143793 0.143696 0.143689 0.143682 0.143584 0.143147 0.142453 0.141779 0.141105 0.140431 0.139765 0.139345 0.139253 0.139247 0.139240 0.139148 0.138729 0.138066 0.137407 0.136748 0.136089 0.135441 0.135032 0.134943 0.134936 0.134930 0.134841 0.134444 0.133814 0.133209 0.132604 0.131999 0.131424 0.131061 0.130982 0.130976 0.130970 0.130892 0.130545 0.129995 0.129481 0.128968 0.128454 0.127977 0.127676 0.127612 0.127607 0.127603 0.127539 0.127258 0.126814 0.126403 0.125992 0.125581 0.125201 0.124961 0.124910 0.124906 0.124902 0.124851 0.124626 0.124269 0.123937 0.123605 0.123273 0.122963 0.122767 0.122725 0.122722 
0.148962 0.148976 0.149115 0.149496 0.150023 0.150458 0.150893 0.151328 0.151703 0.151973 0.152061 0.152070 0.152079 0.152165 0.152419 0.152769 0.153115 0.153460 0.153805 0.154161 0.154419 0.154507 0.154516 0.154525 0.154614 0.154886 0.155262 0.155660 0.156058 0.156456 0.156875 0.157177 0.157280 0.157291 0.157302 0.157405 0.157720 0.158155 0.158608 0.159061 0.159513 0.159981 0.160320 0.160434 0.160446 0.160457 0.160572 0.160919 0.161398 0.161889 0.162379 0.162870 0.163369 0.163730 0.163852 0.163865 0.163878 0.164000 0.164369 0.164879 0.165399 0.165919 0.166439 0.166971 0.167355 0.167483 0.167496 0.167510 0.167638 0.168028 0.168566 0.169108 0.169650 0.170191 0.170741 0.171139 0.171271 0.171285 0.171298 0.171431 0.171834 0.172391 0.172944 0.173498 0.174051 0.174601 0.174998 0.175131 0.175145 0.175159 0.175292 0.175689 0.176238 0.176781 0.177323 0.177866 0.178393 0.178775 0.178902 0.178915 0.178929 0.179056 0.179444 0.179980 0.180509 0.181038 0.181568 0.182100 0.182485 0.182616 0.182629 0.182643 0.182774 0.183180 0.183741 0.184336 0.184930 0.185524 0.186154 0.186610 0.186765 0.186781 0.186797 0.186952 0.187441 0.188119 0.188854 0.189590 0.190326 0.191116 0.191686 0.191884 0.191904 0.191925 0.192124 0.192730 0.193569 0.194462 0.195355 0.196249 0.197189 0.197868 0.198097 0.198121 0.198145 0.198373 0.199066 0.200024 0.201022 0.202019 0.203016 0.204007 0.204723 0.204959 0.204984 0.205008 0.205238 0.205933 0.206894 0.207842 0.208789 0.209737 0.210680 0.211362 0.211586 0.211610 0.211632 0.211848 0.212476 0.213345 0.214150 0.214955 0.215761 0.216507 0.217046 0.217221 0.217239 0.217257 0.217429 0.217919 0.218595 0.219190 0.219784 0.220378 0.220890 0.221259 0.221372 0.221384 0.221395 0.221505 0.221798 0.222205 0.222509 0.222812 0.223116 0.223315 0.223459 0.223494 0.223497 0.223501 0.223534 0.223607 0.223707 0.223678 0.223648 0.223619 0.223486 0.223389 0.223345 0.223340 
0.148957 0.148953 0.148888 0.148367 0.147540 0.146958 0.146376 0.145794 0.145411 0.145169 0.145117 0.145114 0.145110 0.145058 0.144833 0.144476 0.144142 0.143807 0.143472 0.143139 0.142928 0.142882 0.142879 0.142875 0.142829 0.142608 0.142258 0.141813 0.141367 0.140921 0.140254 0.139833 0.139722 0.139714 0.139706 0.139592 0.139035 0.138152 0.136332 0.134513 0.132694 0.130135 0.128520 0.128187 0.128164 0.128142 0.127820 0.126560 0.124564 0.123206 0.121848 0.120489 0.119692 0.119189 0.119097 0.119090 0.119084 0.118994 0.118664 0.118141 0.117800 0.117458 0.117116 0.116878 0.116728 0.116699 0.116697 0.116695 0.116666 0.116549 0.116363 0.116215 0.116067 0.115919 0.115797 0.115721 0.115705 0.115704 0.115703 0.115688 0.115622 0.115519 0.115431 0.115344 0.115256 0.115183 0.115137 0.115127 0.115126 0.115126 0.115116 0.115076 0.115011 0.114957 0.114903 0.114848 0.114803 0.114774 0.114768 0.114768 0.114767 0.114761 0.114736 0.114697 0.114664 0.114631 0.114598 0.114570 0.114553 0.114550 0.114549 0.114549 0.114546 0.114531 0.114507 0.114487 0.114468 0.114448 0.114432 0.114422 0.114420 0.114419 0.114419 0.114417 0.114408 0.114394 0.114384 0.114373 0.114362 0.114354 0.114350 0.114349 0.114349 
0.127607 0.127606 0.127600 0.127580 0.127555 0.127522 0.127489 0.127457 0.127416 0.127385 0.127373 0.127371 0.127369 0.127355 0.127318 0.127268 0.127209 0.127150 0.127091 0.127025 0.126975 0.126955 0.126952 0.126948 0.126928 0.126872 0.126798 0.126716 0.126634 0.126552 0.126492 0.126447 0.126430 0.126427 0.126425 0.126408 0.126364 0.126305 0.126247 0.126189 0.126131 0.126074 0.126031 0.126015 0.126012 0.126010 0.125994 0.125952 0.125896 0.125842 0.125788 0.125734 0.125682 0.125643 0.125629 0.125627 0.125625 0.125611 0.125573 0.125524 0.125477 0.125431 0.125384 0.125340 0.125306 0.125294 0.125292 
0.134936 0.134936 0.134936 0.134934 0.134931 0.134918 0.134905 0.134892 0.134868 0.134851 0.134843 0.134842 0.134841 0.134833 0.134809 0.134776 0.134734 0.134692 0.134650 0.134598 0.134559 0.134544 0.134541 0.134538 0.134522 0.134476 0.134415 0.134343 0.134272 0.134200 0.134119 0.134057 0.134033 0.134029 0.134024 0.133999 0.133930 0.133839 0.133737 0.133636 0.133534 0.133425 0.133343 0.133311 0.133305 0.133300 0.133267 0.133180 0.133063 0.132989 0.132914 0.132840 0.132769 0.132716 0.132696 0.132693 0.132690 0.132670 0.132618 0.132549 0.132481 0.132413 0.132346 0.132279 0.132230 0.132211 0.132207 0.132204 0.132185 0.132137 0.132072 0.132008 0.131944 0.131880 0.131819 0.131772 0.131755 0.131752 0.131749 0.131732 0.131688 0.131629 0.131572 0.131515 0.131458 0.131403 0.131362 0.131346 0.131344 
0.139247 0.139250 0.139264 0.139298 0.139344 0.139380 0.139415 0.139451 0.139476 0.139495 0.139502 0.139503 0.139504 0.139510 0.139522 0.139537 0.139544 0.139551 0.139558 0.139556 0.139555 0.139554 0.139553 0.139553 0.139551 0.139544 0.139534 0.139516 0.139498 0.139479 0.139452 0.139432 0.139422 0.139420 0.139419 0.139408 0.139378 0.139338 0.139285 0.139232 0.139178 0.139110 0.139059 0.139038 0.139034 0.139031 0.139010 0.138947 0.138864 0.138767 0.138671 0.138574 0.138462 0.138378 0.138344 0.138339 0.138333 0.138299 0.138205 0.138079 0.137965 0.137850 0.137736 0.137660 0.137604 0.137583 0.137579 0.137575 0.137554 0.137499 0.137425 0.137353 0.137281 0.137209 0.137137 0.137082 0.137061 0.137058 0.137054 0.137034 0.136980 0.136908 0.136837 0.136765 0.136694 0.136624 0.136572 0.136552 0.136548 0.136545 0.136525 0.136473 0.136405 0.136339 0.136272 0.136206 0.136141 0.136091 0.136073 0.136070 0.136067 0.136048 0.135999 0.135935 0.135871 0.135807 0.135743 0.135678 0.135630 0.135611 0.135608 
0.143690 0.143693 0.143699 0.143712 0.143728 0.143742 0.143757 0.143771 0.143783 0.143793 0.143797 0.143799 0.143801 0.143805 0.143813 0.143823 0.143831 0.143838 0.143846 0.143852 0.143856 0.143857 0.143858 0.143859 0.143860 0.143863 0.143866 0.143867 0.143868 0.143869 0.143867 0.143866 0.143865 0.143865 0.143865 0.143863 0.143861 0.143857 0.143852 0.143847 0.143842 0.143835 0.143830 0.143826 0.143825 0.143823 0.143820 0.143813 0.143805 0.143795 0.143786 0.143776 0.143765 0.143757 0.143753 0.143751 0.143749 0.143744 0.143735 0.143722 0.143709 0.143696 0.143683 0.143669 0.143658 0.143653 0.143650 0.143648 0.143642 0.143630 0.143615 0.143599 0.143582 0.143566 0.143549 0.143536 0.143530 0.143527 0.143524 0.143517 0.143504 0.143486 0.143467 0.143448 0.143429 0.143409 0.143394 0.143386 0.143383 0.143379 0.143371 0.143356 0.143336 0.143323 0.143310 0.143296 0.143284 0.143274 0.143269 0.143267 0.143265 0.143260 0.143250 0.143236 0.143223 0.143210 0.143196 0.143182 0.143172 0.143166 0.143163 0.143161 0.143154 0.143142 0.143127 0.143110 0.143094 0.143078 0.143061 0.143048 0.143041 0.143039 0.143036 0.143029 0.143015 0.142997 0.142979 0.142962 0.142944 0.142931 0.142920 0.142915 0.142912 0.142910 0.142905 0.142893 0.142879 0.142861 0.142844 0.142826 0.142807 0.142792 0.142784 0.142781 0.142777 0.142769 0.142754 0.142733 0.142712 0.142691 0.142670 0.142645 0.142626 0.142616 0.142612 0.142607 0.142597 0.142577 0.142551 0.142524 0.142497 0.142470 0.142442 0.142421 0.142409 0.142404 0.142398 0.142386 0.142361 0.142330 0.142297 0.142265 0.142232 0.142199 0.142174 0.142161 0.142155 0.142150 0.142136 0.142109 0.142074 0.142036 0.141998 0.141960 0.141922 0.141892 0.141877 0.141870 0.141864 0.141848 0.141818 0.141779 0.141737 0.141695 0.141653 0.141609 0.141575 0.141557 0.141550 0.141542 0.141525 0.141490 0.141446 0.141401 0.141357 0.141312 0.141263 0.141225 0.141206 0.141197 0.141189 0.141169 0.141131 0.141082 0.141033 0.140984 0.140936 0.140898 0.140870 0.140855 0.140848 0.140842 0.140827 0.140799 0.140762 0.140725 0.140689 0.140653 0.140617 0.140589 0.140575 0.140569 0.140563 0.140549 0.140522 0.140487 0.140453 0.140419 0.140385 0.140352 0.140326 0.140313 0.140307 0.140301 0.140288 0.140263 0.140230 0.140198 0.140166 0.140134 0.140104 0.140080 0.140068 0.140063 0.140057 0.140045 0.140022 0.139991 0.139960 0.139930 0.139899 0.139871 0.139850 0.139838 0.139834 0.139829 0.139817 0.139796 0.139767 0.139739 0.139711 0.139682 0.139654 0.139632 0.139622 0.139617 0.139613 0.139602 0.139582 0.139556 0.139530 0.139504 0.139477 0.139451 0.139430 0.139420 0.139415 0.139411 0.139400 0.139380 0.139355 0.139331 0.139306 0.139281 0.139257 0.139238 0.139228 0.139224 0.139220 0.139210 0.139191 0.139166 0.139142 0.139119 0.139095 0.139072 0.139055 0.139046 0.139042 0.139038 0.139028 0.139011 0.138988 0.138965 0.138942 0.138919 0.138898 0.138881 0.138873 0.138869 0.138865 0.138857 0.138840 0.138818 0.138797 0.138775 0.138753 0.138732 0.138715 0.138707 0.138704 0.138700 0.138692 0.138676 0.138656 0.138635 0.138614 0.138593 0.138572 0.138556 0.138548 0.138544 0.138540 0.138532 0.138516 0.138496 0.138476 0.138456 0.138436 0.138416 0.138401 0.138393 0.138389 0.138386 0.138378 0.138362 0.138342 0.138322 0.138302 0.138282 0.138263 0.138248 0.138240 0.138236 0.138233 0.138225 0.138210 0.138190 0.138170 0.138150 0.138129 0.138110 0.138095 0.138087 0.138084 0.138080 0.138073 0.138057 0.138038 0.138018 0.137998 0.137978 0.137958 0.137943 0.137935 0.137932 0.137928 0.137921 0.137905 0.137886 0.137866 0.137846 0.137827 0.137807 0.137791 0.137783 0.137780 
0.152069 0.152064 0.152043 0.151986 0.151909 0.151819 0.151729 0.151639 0.151535 0.151456 0.151422 0.151414 0.151407 0.151373 0.151279 0.151154 0.151021 0.150888 0.150755 0.150617 0.150514 0.150474 0.150466 0.150457 0.150418 0.150321 0.150192 0.150087 0.149981 0.149876 0.149777 0.149703 0.149673 0.149667 0.149661 0.149631 0.149555 0.149455 0.149353 0.149250 0.149148 0.149043 0.148964 0.148932 0.148925 0.148919 0.148887 0.148805 0.148697 0.148585 0.148472 0.148360 0.148241 0.148151 0.148116 0.148108 0.148101 0.148064 0.147979 0.147866 0.147752 0.147639 0.147525 0.147400 0.147305 0.147264 0.147256 0.147247 0.147206 0.147101 0.146962 0.146811 0.146659 0.146508 0.146346 0.146225 0.146174 0.146164 0.146153 0.146102 0.145974 0.145804 0.145623 0.145442 0.145260 0.145072 0.144930 0.144873 0.144861 0.144849 0.144792 0.144651 0.144463 0.144323 0.144182 0.144041 0.143916 0.143822 0.143785 0.143777 0.143770 0.143733 0.143647 0.143533 0.143430 0.143326 0.143222 0.143129 0.143058 0.143030 0.143024 0.143019 0.142990 0.142928 0.142845 0.142766 0.142687 0.142608 0.142533 0.142477 0.142456 0.142452 0.142448 0.142428 0.142378 0.142312 0.142249 0.142187 0.142124 0.142064 0.142020 0.142003 0.142000 0.141996 0.141980 0.141937 0.141881 0.141828 0.141775 0.141722 0.141671 0.141633 0.141618 0.141615 0.141612 0.141597 0.141559 0.141508 0.141458 0.141409 0.141359 0.141311 0.141274 0.141259 0.141256 
0.154514 0.154508 0.154486 0.154431 0.154359 0.154281 0.154203 0.154125 0.154042 0.153979 0.153953 0.153946 0.153938 0.153912 0.153848 0.153763 0.153673 0.153584 0.153495 0.153404 0.153336 0.153306 0.153298 0.153290 0.153260 0.153189 0.153095 0.152998 0.152901 0.152805 0.152706 0.152632 0.152601 0.152592 0.152584 0.152553 0.152494 0.152417 0.152347 0.152278 0.152208 0.152134 0.152078 0.152054 0.152047 0.152041 0.152016 0.151958 0.151881 0.151799 0.151717 0.151635 0.151549 0.151483 0.151455 0.151447 0.151440 0.151411 0.151341 0.151247 0.151150 0.151053 0.150956 0.150860 0.150788 0.150757 0.150748 0.150740 0.150708 0.150630 0.150526 0.150412 0.150298 0.150184 0.150065 0.149976 0.149937 0.149926 0.149915 0.149874 0.149776 0.149647 0.149515 0.149383 0.149251 0.149125 0.149030 0.148991 0.148981 0.148970 0.148931 0.148840 0.148720 0.148603 0.148485 0.148367 0.148254 0.148168 0.148133 0.148124 0.148114 0.148079 0.147998 0.147890 0.147788 0.147687 0.147585 0.147490 0.147417 0.147387 0.147379 0.147371 0.147340 0.147273 0.147183 0.147099 0.147014 0.146929 0.146850 0.146791 0.146767 0.146760 0.146754 0.146730 0.146673 0.146598 0.146529 0.146460 0.146390 0.146323 0.146273 0.146251 0.146246 0.146240 0.146218 0.146173 0.146112 0.146051 0.145991 0.145930 0.145875 0.145833 0.145816 0.145811 0.145806 0.145788 0.145746 0.145691 0.145640 0.145589 0.145538 0.145487 0.145449 0.145433 0.145429 0.145425 0.145410 0.145374 0.145327 0.145280 0.145232 0.145185 0.145140 0.145106 0.145092 0.145088 0.145084 0.145069 0.145035 0.144990 0.144947 0.144904 0.144861 0.144817 0.144784 0.144771 0.144767 0.144764 0.144750 0.144718 0.144676 0.144634 0.144592 0.144550 0.144508 0.144477 0.144463 0.144459 
0.157289 0.157283 0.157257 0.157191 0.157105 0.157012 0.156920 0.156827 0.156728 0.156653 0.156621 0.156614 0.156606 0.156575 0.156496 0.156392 0.156284 0.156175 0.156066 0.155954 0.155869 0.155835 0.155827 0.155819 0.155784 0.155700 0.155588 0.155477 0.155366 0.155254 0.155146 0.155064 0.155031 0.155023 0.155015 0.154982 0.154908 0.154809 0.154703 0.154597 0.154491 0.154379 0.154295 0.154258 0.154249 0.154240 0.154202 0.154111 0.153990 0.153858 0.153726 0.153594 0.153455 0.153350 0.153304 0.153293 0.153282 0.153235 0.153121 0.152970 0.152813 0.152657 0.152500 0.152337 0.152215 0.152164 0.152152 0.152139 0.152089 0.151969 0.151810 0.151674 0.151538 0.151402 0.151272 0.151174 0.151134 0.151124 0.151115 0.151075 0.150983 0.150860 0.150745 0.150630 0.150515 0.150410 0.150331 0.150299 0.150291 0.150283 0.150251 0.150175 0.150074 0.149982 0.149890 0.149799 0.149713 0.149648 0.149622 0.149616 0.149610 0.149585 0.149523 0.149441 0.149366 0.149290 0.149215 0.149141 0.149085 0.149064 0.149059 0.149054 0.149033 0.148982 0.148914 0.148850 0.148786 0.148721 0.148659 0.148613 0.148593 0.148588 0.148584 0.148565 0.148522 0.148465 0.148408 0.148352 0.148295 0.148242 0.148201 0.148185 0.148181 0.148176 0.148160 0.148121 0.148069 0.148019 0.147968 0.147918 0.147869 0.147833 0.147818 0.147814 0.147810 0.147795 0.147758 0.147709 0.147662 0.147614 0.147567 0.147520 0.147484 0.147470 0.147466 
0.163862 0.163850 0.163803 0.163690 0.163540 0.163386 0.163232 0.163077 0.162916 0.162795 0.162743 0.162730 0.162717 0.162665 0.162539 0.162373 0.162206 0.162039 0.161872 0.161703 0.161576 0.161522 0.161508 0.161495 0.161441 0.161312 0.161141 0.160965 0.160789 0.160613 0.160439 0.160307 0.160251 0.160236 0.160221 0.160164 0.160027 0.159846 0.159665 0.159484 0.159303 0.159118 0.158978 0.158920 0.158904 0.158889 0.158831 0.158688 0.158500 0.158309 0.158117 0.157926 0.157732 0.157585 0.157524 0.157508 0.157492 0.157431 0.157284 0.157090 0.156895 0.156700 0.156505 0.156310 0.156163 0.156102 0.156086 0.156070 0.156009 0.155898 0.155750 0.155614 0.155478 0.155342 0.155215 0.155118 0.155079 0.155069 0.155059 0.155019 0.154930 0.154812 0.154702 0.154592 0.154482 0.154382 0.154306 0.154275 0.154267 0.154259 0.154228 0.154155 0.154058 0.153969 0.153880 0.153791 0.153704 0.153638 0.153613 0.153606 0.153600 0.153575 0.153514 0.153434 0.153356 0.153279 0.153202 0.153129 0.153074 0.153051 0.153045 0.153039 0.153016 0.152964 0.152894 0.152826 0.152758 0.152689 0.152626 0.152579 0.152559 0.152554 0.152549 0.152529 0.152481 0.152419 0.152360 0.152302 0.152244 0.152186 0.152143 0.152125 0.152121 0.152117 0.152099 0.152058 0.152003 0.151950 0.151897 0.151844 0.151792 0.151752 0.151736 0.151731 0.151727 0.151710 0.151672 0.151622 0.151571 0.151520 0.151470 0.151421 0.151384 0.151368 0.151364 
0.178907 0.178873 0.178719 0.178342 0.177841 0.177349 0.176858 0.176367 0.175891 0.175532 0.175390 0.175359 0.175327 0.175185 0.174839 0.174380 0.173944 0.173508 0.173072 0.172656 0.172342 0.172215 0.172188 0.172160 0.172033 0.171720 0.171305 0.170905 0.170506 0.170106 0.169714 0.169418 0.169300 0.169273 0.169247 0.169129 0.168836 0.168448 0.168066 0.167685 0.167303 0.166929 0.166647 0.166535 0.166511 0.166486 0.166375 0.166106 0.165748 0.165444 0.165141 0.164837 0.164555 0.164343 0.164262 0.164245 0.164227 0.164148 0.163955 0.163700 0.163472 0.163244 0.163016 0.162806 0.162647 0.162587 0.162574 0.162561 0.162502 0.162356 0.162162 0.161988 0.161815 0.161642 0.161482 0.161362 0.161317 0.161307 0.161297 0.161252 0.161140 0.160991 0.160856 0.160721 0.160586 0.160461 0.160367 0.160331 0.160323 0.160315 0.160280 0.160191 0.160073 0.159966 0.159860 0.159754 0.159653 0.159578 0.159549 0.159542 0.159536 0.159506 0.159433 0.159336 0.159248 0.159159 0.159070 0.158986 0.158923 0.158898 0.158893 0.158887 0.158862 0.158799 0.158716 0.158638 0.158559 0.158480 0.158404 0.158347 0.158324 0.158319 
0.191890 0.191835 0.191600 0.191041 0.190299 0.189601 0.188902 0.188203 0.187545 0.187048 0.186851 0.186805 0.186759 0.186565 0.186098 0.185480 0.184902 0.184325 0.183747 0.183202 0.182790 0.182627 0.182589 0.182551 0.182389 0.182002 0.181488 0.180986 0.180484 0.179981 0.179493 0.179125 0.178977 0.178942 0.178907 0.178759 0.178401 0.177926 0.177464 0.177002 0.176541 0.176099 0.175766 0.175635 0.175604 0.175574 0.175444 0.175137 0.174731 0.174364 0.173996 0.173628 0.173289 0.173033 0.172938 0.172915 0.172893 0.172800 0.172577 0.172282 0.172013 0.171745 0.171476 0.171231 0.171047 0.170973 0.170956 0.170939 0.170867 0.170711 0.170503 0.170306 0.170108 0.169911 0.169734 0.169600 0.169545 0.169532 0.169520 0.169466 0.169346 0.169188 0.169040 0.168892 0.168744 0.168614 0.168516 0.168475 0.168466 0.168456 0.168415 0.168318 0.168189 0.168074 0.167959 0.167843 0.167737 0.167658 0.167627 0.167619 0.167612 0.167581 0.167503 0.167401 0.167308 0.167215 0.167122 0.167030 0.166961 0.166935 0.166929 0.166923 0.166897 0.166833 0.166747 0.166665 0.166582 0.166500 0.166417 0.166355 0.166330 0.166324 
0.221353 0.221230 0.220649 0.219253 0.217399 0.215696 0.213992 0.212289 0.210733 0.209561 0.209111 0.209016 0.208923 0.208481 0.207423 0.206020 0.204738 0.203457 0.202175 0.201010 0.200132 0.199794 0.199723 0.199653 0.199320 0.198521 0.197461 0.196499 0.195537 0.194575 0.193685 0.193015 0.192757 0.192703 0.192649 0.192395 0.191773 0.190947 0.190169 0.189391 0.188613 0.187887 0.187340 0.187127 0.187081 0.187037 0.186825 0.186314 0.185637 0.185017 0.184398 0.183779 0.183242 0.182838 0.182684 0.182652 0.182620 0.182468 0.182129 0.181678 0.181297 0.180916 0.180535 0.180229 0.179999 0.179908 0.179889 0.179870 0.179779 0.179587 0.179331 0.179111 0.178891 0.178671 0.178483 0.178341 0.178283 0.178271 0.178259 0.178203 0.178091 0.177941 0.177804 0.177667 0.177530 0.177409 0.177318 0.177284 0.177277 0.177271 0.177244 0.177172 0.177077 0.176993 0.176909 0.176825 0.176750 0.176693 0.176676 0.176672 0.176668 0.176651 0.176606 0.176546 0.176496 0.176445 0.176394 0.176348 0.176313 0.176302 0.176299 
