-2.200107 -1.486709 6.048497
-1.721685 -1.376040 7.084144
-1.243263 -1.265371 8.119791
-2.199272 -1.486516 6.050304
-1.722520 -1.376233 7.082336
-1.720850 -1.375847 7.085951
-1.244098 -1.265564 8.117984
-2.189078 -1.484158 6.072372
-1.732715 -1.378591 7.060268
-1.710656 -1.373489 7.108019
-1.254293 -1.267922 8.095915
-2.143074 -1.473516 6.171957
-2.070203 -1.456659 6.329703
-1.997332 -1.439803 6.487448
-1.924461 -1.422946 6.645193
-1.851590 -1.406089 6.802938
-1.778719 -1.389233 6.960683
-1.664652 -1.362847 7.207605
-1.591781 -1.345990 7.365350
-1.518910 -1.329134 7.523095
-1.446039 -1.312277 7.680840
-1.373168 -1.295420 7.838585
-1.300297 -1.278564 7.996330
30 NaN NaN
-2.200316 -1.486757 6.048045
-2.156479 -1.476617 6.142940
-2.112641 -1.466476 6.237835
-2.068804 -1.456336 6.332730
-2.024967 -1.446195 6.427625
-1.981130 -1.436055 6.522520
-1.937293 -1.425914 6.617415
-1.893456 -1.415774 6.712310
-1.849618 -1.405633 6.807205
-1.805781 -1.395493 6.902100
-1.761944 -1.385353 6.996995
-1.718107 -1.375212 7.091890
-1.674270 -1.365072 7.186785
-1.630432 -1.354931 7.281680
-1.586595 -1.344791 7.376575
-1.542758 -1.334650 7.471470
-1.498921 -1.324510 7.566365
-1.455084 -1.314369 7.661260
-1.411247 -1.304229 7.756155
-1.367409 -1.294088 7.851050
-1.323572 -1.283948 7.945945
-1.279735 -1.273807 8.040840
-1.235898 -1.263667 8.135735
-1.192061 -1.253527 8.230630
-1.148224 -1.243386 8.325525
-1.104386 -1.233246 8.420420
-1.060549 -1.223105 8.515315
-1.016712 -1.212965 8.610210
-0.972875 -1.202824 8.705105
-0.929038 -1.192684 8.800000
-2.200011 -1.486766 6.047648
-1.939252 -1.492907 5.696894
-1.694925 -1.494335 5.334478
-1.471441 -1.489994 4.958901
-1.274372 -1.478643 4.568993
-1.110349 -1.458945 4.164450
-0.986592 -1.429636 3.746460
-0.904137 -1.391029 3.319040
-0.846338 -1.347128 2.887989
-0.792721 -1.302348 2.456472
-0.730217 -1.259438 2.025966
-0.660578 -1.218046 1.596401
-0.587855 -1.177316 1.167282
-0.516116 -1.136374 0.738018
-0.449353 -1.094368 0.308059
-2.198793 -1.486802 6.046063
-1.940407 -1.492890 5.698527
-1.938097 -1.492924 5.695261
-1.696001 -1.494340 5.336164
-1.693850 -1.494329 5.332792
-1.472417 -1.490026 4.960646
-1.470465 -1.489962 4.957156
-1.275191 -1.478716 4.570817
-1.273554 -1.478570 4.567170
-1.111010 -1.459057 4.166334
-1.109688 -1.458833 4.162565
-0.987064 -1.429792 3.748398
-0.986120 -1.429480 3.744523
-0.904455 -1.391219 3.321006
-0.903819 -1.390840 3.317075
-0.846577 -1.347334 2.889964
-0.846099 -1.346922 2.886014
-0.792985 -1.302549 2.458444
-0.792458 -1.302147 2.454499
-0.730520 -1.259631 2.027934
-0.729913 -1.259245 2.023999
-0.660908 -1.218233 1.598365
-0.660248 -1.217859 1.594438
-0.588189 -1.177502 1.169245
-0.587522 -1.177129 1.165319
-0.516436 -1.136563 0.739983
-0.515795 -1.136185 0.736053
-0.449644 -1.094563 0.310028
-2.188559 -1.487100 6.032743
-1.950110 -1.492746 5.712241
-1.928395 -1.493067 5.681547
-1.705033 -1.494385 5.350329
-1.684817 -1.494284 5.318627
-1.480617 -1.490298 4.975307
-1.462312 -1.489677 4.942470
-1.282165 -1.479307 4.586088
-1.266677 -1.477955 4.551854
-1.116560 -1.459997 4.182163
-1.104138 -1.457892 4.146737
-0.991030 -1.431100 3.764670
-0.982155 -1.428172 3.728250
-0.907126 -1.392811 3.337515
-0.901356 -1.389204 3.300537
-0.848582 -1.349067 2.906554
-0.844095 -1.345189 2.869425
-0.795197 -1.304238 2.475012
-0.790246 -1.300458 2.437931
-0.733065 -1.261250 2.044460
-0.727368 -1.257627 2.007472
-0.663665 -1.219807 1.614862
-0.657476 -1.216289 1.577943
-0.590990 -1.179066 1.185736
-0.584721 -1.175565 1.148828
-0.519130 -1.138150 0.756490
-0.513101 -1.134598 0.719547
-0.452096 -1.096202 0.326567
-2.160510 -1.487917 5.996236
-2.123231 -1.488956 5.947348
-2.086217 -1.489917 5.898255
-2.049552 -1.490775 5.848900
-2.013051 -1.491587 5.799423
-1.977009 -1.492264 5.749608
-1.901804 -1.493460 5.643959
-1.866781 -1.493846 5.593420
-1.831955 -1.494175 5.542744
-1.797601 -1.494371 5.491746
-1.763591 -1.494470 5.440520
-1.729865 -1.494489 5.389104
-1.660296 -1.494094 5.279656
-1.627937 -1.493734 5.227371
-1.596077 -1.493238 5.174782
-1.564470 -1.492672 5.122040
-1.533634 -1.491897 5.068847
-1.503090 -1.491044 5.015488
-1.440491 -1.488758 4.901935
-1.411479 -1.487497 4.847735
-1.383255 -1.486030 4.793125
-1.355496 -1.484441 4.738283
-1.328238 -1.482722 4.683191
-1.301815 -1.480789 4.627704
-1.247829 -1.476269 4.509877
-1.223345 -1.473846 4.453528
-1.199302 -1.471312 4.396990
-1.176380 -1.468501 4.340002
-1.153877 -1.465588 4.282855
-1.132259 -1.462458 4.225376
-1.089028 -1.455289 4.103321
-1.070078 -1.451523 4.044945
-1.051718 -1.447618 3.986395
-1.034194 -1.443518 3.927598
-1.017792 -1.439160 3.868500
-1.001899 -1.434685 3.809270
-0.972052 -1.424417 3.683488
-0.958950 -1.419314 3.623627
-0.946962 -1.413966 3.563556
-0.935369 -1.408533 3.503415
-0.924640 -1.402911 3.443130
-0.914445 -1.397174 3.382765
-0.894634 -1.384713 3.255208
-0.885880 -1.378669 3.194645
-0.877545 -1.372537 3.134032
-0.869545 -1.366334 3.073382
-0.861706 -1.360097 3.012713
-0.854189 -1.353792 2.952011
-0.838600 -1.340441 2.823956
-0.831281 -1.334095 2.763234
-0.823948 -1.327752 2.702513
-0.816505 -1.321432 2.641803
-0.808922 -1.315142 2.581108
-0.801197 -1.308881 2.520427
-0.784084 -1.295849 2.392534
-0.775637 -1.289740 2.331934
-0.766991 -1.283673 2.271359
-0.758223 -1.277632 2.210797
-0.749177 -1.271649 2.150271
-0.740041 -1.265686 2.089757
-0.720221 -1.253227 1.962198
-0.710659 -1.247354 1.901741
-0.700917 -1.241520 1.841308
-0.691105 -1.235702 1.780886
-0.681197 -1.229903 1.720477
-0.671186 -1.224127 1.660083
-0.649878 -1.211986 1.532733
-0.639690 -1.206247 1.472365
-0.629470 -1.200516 1.412002
-0.619213 -1.194792 1.351644
-0.608949 -1.189071 1.291288
-0.598676 -1.183351 1.230932
-0.577045 -1.171279 1.103630
-0.566844 -1.165543 1.043264
-0.556672 -1.159801 0.982894
-0.546553 -1.154048 0.922516
-0.536514 -1.148278 0.862126
-0.526514 -1.142499 0.801730
-0.505802 -1.130230 0.674294
-0.496117 -1.124384 0.613854
-0.486602 -1.118502 0.553390
-0.477163 -1.112603 0.492916
-0.467921 -1.106663 0.432415
-0.458815 -1.100693 0.371897
64 NaN NaN
-2.200316 -1.486757 6.048045
-2.138113 -1.488569 5.967086
-2.076647 -1.490165 5.885563
-2.015964 -1.491532 5.803451
-1.956113 -1.492657 5.720727
-1.897143 -1.493529 5.637370
-1.839106 -1.494134 5.553358
-1.782056 -1.494459 5.468671
-1.726051 -1.494491 5.383289
-1.671150 -1.494215 5.297194
-1.617414 -1.493617 5.210369
-1.564909 -1.492683 5.122796
-1.513702 -1.491396 5.034463
-1.463865 -1.489743 4.945356
-1.415474 -1.487705 4.855463
-1.368605 -1.485268 4.764778
-1.323340 -1.482414 4.673293
-1.279766 -1.479126 4.581006
-1.237970 -1.475387 4.487917
-1.198043 -1.471179 4.394031
-1.160083 -1.466486 4.299357
-1.124185 -1.461289 4.203907
-1.090450 -1.455572 4.107701
-1.058981 -1.449317 4.010764
-1.029881 -1.442509 3.913126
-1.003253 -1.435131 3.814827
-0.979150 -1.427182 3.715923
-0.957395 -1.418708 3.616519
-0.937736 -1.409773 3.516718
-0.919920 -1.400438 3.416609
-0.903688 -1.390762 3.316262
-0.888781 -1.380803 3.215737
-0.874939 -1.370619 3.115082
-0.861907 -1.360265 3.014337
-0.849425 -1.349796 2.913533
-0.837239 -1.339265 2.812700
-0.825094 -1.328725 2.711862
-0.812734 -1.318231 2.611047
-0.799905 -1.307834 2.510279
-0.786460 -1.297567 2.409579
-0.772432 -1.287422 2.308946
-0.757872 -1.277390 2.208377
-0.742831 -1.267460 2.107868
-0.727360 -1.257621 2.007417
-0.711510 -1.247863 1.907016
-0.695332 -1.238176 1.806660
-0.678879 -1.228547 1.706344
-0.662202 -1.218966 1.606060
-0.645351 -1.209422 1.505802
-0.628380 -1.199904 1.405562
-0.611339 -1.190402 1.305332
-0.594280 -1.180903 1.205104
-0.577255 -1.171397 1.104872
-0.560314 -1.161872 1.004627
-0.543511 -1.152318 0.904361
-0.526896 -1.142724 0.804068
-0.510521 -1.133079 0.703741
-0.494437 -1.123371 0.603373
-0.478696 -1.113589 0.502957
-0.463350 -1.103724 0.402488
-0.448449 -1.093764 0.301962
-0.434045 -1.083699 0.201374
-0.420188 -1.073519 0.100721
-0.406929 -1.063212 0.000000
-2.200669 -1.487108 6.048095
-3.289424 -1.760822 5.811480
-4.050797 -1.085863 5.144564
-4.577344 -0.182476 4.509713
-5.119666 0.787446 3.991745
-5.666979 1.749789 3.464550
-6.217729 2.710579 2.938331
-6.758932 3.677335 2.413217
-7.352355 4.594809 1.857488
-8.023732 5.425377 1.256576
-8.790880 6.121301 0.602700
-9.652924 6.637931 -0.097020
-10.589105 6.955008 -0.820223
-11.570624 7.083763 -1.542023
-12.572727 7.054024 -2.246838
-2.202080 -1.488510 6.048298
-3.287779 -1.761460 5.812423
-3.291068 -1.760185 5.810537
-4.049775 -1.087161 5.145690
-4.051819 -1.084564 5.143437
-4.576464 -0.184059 4.510561
-4.578225 -0.180893 4.508865
-5.118785 0.785876 3.992615
-5.120548 0.789016 3.990875
-5.666082 1.748223 3.465411
-5.667876 1.751355 3.463689
-6.216875 2.708977 2.939171
-6.218582 2.712181 2.937491
-6.758012 3.675791 2.414096
-6.759852 3.678878 2.412339
-7.351329 4.593373 1.858429
-7.353382 4.596244 1.856548
-8.022562 5.424118 1.257598
-8.024902 5.426636 1.255553
-8.789551 6.120298 0.603807
-8.792210 6.122305 0.601593
-9.651454 6.637241 -0.095853
-9.654395 6.638621 -0.098186
-10.587530 6.954662 -0.819039
-10.590679 6.955352 -0.821408
-11.569000 7.083698 -1.540858
-11.572248 7.083828 -1.543188
-12.571086 7.054186 -2.245707
-2.220449 -1.506756 6.050929
-3.265902 -1.768895 5.824323
-3.312465 -1.751889 5.798264
-4.036476 -1.104059 5.160349
-4.065118 -1.067667 5.128779
-4.565005 -0.204657 4.521593
-4.589684 -0.160296 4.497834
-5.107316 0.765443 4.003940
-5.132016 0.809449 3.979550
-5.654409 1.727841 3.476618
-5.679565 1.771725 3.452477
-6.205716 2.688169 2.950115
-6.229681 2.733030 2.926564
-6.746072 3.655679 2.425506
-6.771823 3.698961 2.400910
-7.337974 4.574689 1.870669
-7.366737 4.614928 1.844308
-8.007336 5.407737 1.270906
-8.040128 5.443016 1.242245
-8.772250 6.107244 0.618213
-8.809511 6.135358 0.587187
-9.632319 6.628259 -0.080673
-9.673595 6.647425 -0.113387
-10.567121 6.949844 -0.803628
-10.611167 6.959839 -0.836815
-11.547879 7.082752 -1.525683
-11.593381 7.084675 -1.558352
-12.549728 7.056296 -2.230987
-2.307213 -1.585798 6.060109
-2.463091 -1.687741 6.058181
-2.633973 -1.759208 6.036919
-2.811803 -1.800521 5.998283
-2.989898 -1.811684 5.943558
-3.162326 -1.794157 5.874541
-3.405676 -1.708938 5.740488
-3.536543 -1.620262 5.641467
-3.651693 -1.515772 5.538016
-3.759503 -1.404505 5.433572
-3.867089 -1.292356 5.329833
-3.972841 -1.178360 5.226231
-4.122613 -0.989330 5.061959
-4.205065 -0.859500 4.955912
-4.281482 -0.724296 4.852048
-4.356706 -0.584996 4.752829
-4.433987 -0.442548 4.659859
-4.513602 -0.297467 4.573125
-4.642049 -0.066514 4.449102
-4.725741 0.082728 4.374027
-4.809315 0.231738 4.298364
-4.891936 0.379615 4.219510
-4.973773 0.526466 4.137956
-5.055489 0.672915 4.055562
-5.184212 0.902144 3.928604
-5.267269 1.049060 3.848409
-5.350652 1.195875 3.768367
-5.434210 1.342496 3.688154
-5.517862 1.488992 3.607810
-5.601541 1.635437 3.527400
-5.732671 1.863957 3.401631
-5.817377 2.009655 3.320942
-5.902947 2.154745 3.240068
-5.988534 2.299892 3.159313
-6.072875 2.446064 3.079104
-6.154942 2.594007 2.999792
-6.279987 2.827517 2.877027
-6.360115 2.976823 2.798282
-6.441536 3.125075 2.718874
-6.524184 3.272295 2.638816
-6.607814 3.418645 2.558185
-6.692278 3.564224 2.477029
-6.826310 3.789768 2.348973
-6.913708 3.932601 2.266065
-7.002502 4.074090 2.182341
-7.092766 4.214129 2.097755
-7.184575 4.352605 2.012261
-7.278070 4.489326 1.925778
-7.427701 4.699132 1.788582
-7.525881 4.830720 1.699375
-7.626025 4.960034 1.609035
-7.728206 5.086910 1.517525
-7.832490 5.211176 1.424815
-7.938936 5.332659 1.330880
-8.109776 5.516368 1.181576
-8.222085 5.629733 1.084377
-8.336692 5.739663 0.985926
-8.453607 5.845984 0.886238
-8.572827 5.948536 0.785338
-8.694338 6.047155 0.683258
-8.888748 6.192960 0.521494
-9.015993 6.280825 0.416611
-9.145459 6.364113 0.310715
-9.276985 6.442909 0.203930
-9.410494 6.517137 0.096337
-9.545901 6.586738 -0.011973
-9.761056 6.686120 -0.182417
-9.900893 6.743739 -0.292130
-10.042273 6.796700 -0.402216
-10.185143 6.844851 -0.512588
-10.329341 6.888409 -0.623137
-10.474756 6.927452 -0.733777
-10.704159 6.979582 -0.906633
-10.852234 7.007394 -1.017139
-11.001171 7.031001 -1.127467
-11.150879 7.050506 -1.237557
-11.301288 7.065888 -1.347344
-11.452296 7.077367 -1.456785
-11.689241 7.087845 -1.627001
-11.841426 7.089927 -1.735388
-11.993948 7.088561 -1.843312
-12.146747 7.083862 -1.950750
-12.299767 7.075945 -2.057686
-12.452960 7.064841 -2.164090
174 NaN NaN
-2.200316 -1.486757 6.048045
-2.271401 -1.557370 6.058228
-2.350218 -1.619934 6.062368
-2.435287 -1.673828 6.060531
-2.525110 -1.718773 6.052939
-2.618294 -1.754745 6.039904
-2.713599 -1.781870 6.021759
-2.809939 -1.800329 5.998814
-2.906350 -1.810293 5.971340
-3.001935 -1.811884 5.939556
-3.095815 -1.805152 5.903635
-3.187071 -1.790067 5.863717
-3.274690 -1.766535 5.819931
-3.357510 -1.734425 5.772427
-3.434323 -1.693779 5.721491
-3.505016 -1.645909 5.668000
-3.570466 -1.592665 5.612916
-3.631920 -1.535692 5.556947
-3.690780 -1.476396 5.500594
-3.748498 -1.415995 5.444230
-3.806412 -1.355527 5.388139
-3.864548 -1.295044 5.332293
-3.922189 -1.234051 5.276491
-3.978584 -1.172046 5.220533
-4.032944 -1.108546 5.164242
-4.084442 -1.043115 5.107479
-4.132443 -0.975479 5.050238
-4.177377 -0.905840 4.992905
-4.220015 -0.834477 4.935937
-4.261142 -0.761624 4.879747
-4.301543 -0.687481 4.824729
-4.342002 -0.612236 4.771273
-4.383127 -0.536052 4.719689
-4.424983 -0.459017 4.669989
-4.467528 -0.381201 4.622125
-4.510722 -0.302672 4.576041
-4.554527 -0.223492 4.531680
-4.598901 -0.143727 4.488960
-4.643723 -0.063519 4.447556
-4.688820 0.016945 4.406956
-4.734026 0.097490 4.366638
-4.779176 0.177946 4.326080
-4.824106 0.258137 4.284761
-4.868689 0.337925 4.242303
-4.912980 0.417355 4.198878
-4.957088 0.496525 4.154794
-5.001120 0.575539 4.110357
-5.045188 0.654504 4.065869
-5.089402 0.733526 4.021629
-5.133814 0.812652 3.977775
-5.178402 0.891852 3.934231
-5.223136 0.971090 3.890908
-5.267989 1.050332 3.847716
-5.312933 1.129544 3.804564
-5.357943 1.208697 3.761371
-5.403001 1.287790 3.718120
-5.448096 1.366837 3.674822
-5.493214 1.445851 3.631489
-5.538345 1.524845 3.588132
-5.583476 1.603831 3.544761
-5.628616 1.682807 3.501381
-5.673821 1.761735 3.457981
-5.719149 1.840574 3.414548
-5.764661 1.919281 3.371069
-5.810417 1.997816 3.327533
-5.856463 2.076143 3.283930
-5.902706 2.154337 3.240295
-5.948954 2.232546 3.196694
-5.995016 2.310920 3.153192
-6.040698 2.389607 3.109853
-6.085806 2.468751 3.066748
-6.130162 2.548477 3.023935
-6.173834 2.628719 2.981385
-6.217047 2.709298 2.939002
-6.260030 2.790036 2.896688
-6.303013 2.870758 2.854344
-6.346226 2.951289 2.811870
-6.389849 3.031490 2.769190
-6.433880 3.111355 2.726303
-6.478275 3.190916 2.683223
-6.522991 3.270200 2.639967
-6.567985 3.349238 2.596548
-6.613216 3.428059 2.552982
-6.658682 3.506662 2.509266
-6.704414 3.585018 2.465384
-6.750444 3.663096 2.421321
-6.796804 3.740868 2.377060
-6.843526 3.818300 2.332586
-6.890636 3.895366 2.287885
-6.938150 3.972046 2.242949
-6.986078 4.048324 2.197771
-7.034434 4.124183 2.152342
-7.083227 4.199606 2.106656
-7.132470 4.274575 2.060706
-7.182176 4.349069 2.014483
-7.232363 4.423064 1.967979
-7.283045 4.496537 1.921185
-7.334238 4.569463 1.874092
-7.385957 4.641816 1.826693
-7.438218 4.713572 1.778981
-7.491033 4.784705 1.730947
-7.544414 4.855191 1.682585
-7.598374 4.925002 1.633890
-7.652925 4.994114 1.584855
-7.708077 5.062498 1.535475
-7.763842 5.130127 1.485745
-7.820229 5.196975 1.435661
-7.877248 5.263013 1.385219
-7.934907 5.328213 1.334416
-7.993215 5.392545 1.283248
-8.052178 5.455980 1.231713
-8.111802 5.518492 1.179812
-8.172092 5.580052 1.127543
-8.233052 5.640632 1.074907
-8.294685 5.700202 1.021905
-8.356994 5.758735 0.968538
-8.419979 5.816203 0.914809
-8.483640 5.872581 0.860723
-8.547974 5.927845 0.806284
-8.612980 5.981966 0.751498
-8.678656 6.034919 0.696369
-8.744997 6.086681 0.640906
-8.811995 6.137233 0.585118
-8.879643 6.186552 0.529014
-8.947935 6.234620 0.472603
-9.016862 6.281415 0.415896
-9.086416 6.326919 0.358903
-9.156583 6.371120 0.301637
-9.227352 6.414005 0.244112
-9.298710 6.455561 0.186341
-9.370646 6.495777 0.128338
-9.443146 6.534640 0.070115
-9.516196 6.572147 0.011690
-9.589778 6.608292 -0.046924
-9.663879 6.643073 -0.105711
-9.738482 6.676487 -0.164654
-9.813572 6.708530 -0.223740
-9.889133 6.739205 -0.282952
-9.965148 6.768515 -0.342275
-10.041598 6.796467 -0.401694
-10.118468 6.823065 -0.461193
-10.195740 6.848314 -0.520757
-10.273400 6.872222 -0.580371
-10.351428 6.894800 -0.640023
-10.429809 6.916059 -0.699697
-10.508525 6.936012 -0.759381
-10.587560 6.954669 -0.819062
-10.666899 6.972045 -0.878727
-10.746526 6.988152 -0.938365
-10.826425 7.003008 -0.997964
-10.906579 7.016629 -1.057514
-10.986976 7.029030 -1.117005
-11.067599 7.040228 -1.176427
-11.148436 7.050240 -1.235771
-11.229471 7.059084 -1.295029
-11.310692 7.066779 -1.354194
-11.392086 7.073343 -1.413258
-11.473640 7.078794 -1.472215
-11.555341 7.083150 -1.531057
-11.637179 7.086431 -1.589780
-11.719142 7.088656 -1.648378
-11.801218 7.089844 -1.706847
-11.883398 7.090013 -1.765182
-11.965672 7.089183 -1.823379
-12.048029 7.087371 -1.881435
-12.130462 7.084597 -1.939347
-12.212960 7.080877 -1.997112
-12.295515 7.076231 -2.054728
-12.378120 7.070677 -2.112193
-12.460767 7.064233 -2.169504
-12.543448 7.056916 -2.226660
-12.626158 7.048745 -2.283660
-12.708888 7.039738 -2.340503
-12.791634 7.029913 -2.397188
-1.721262 -1.375778 7.084097
-1.523840 -1.250099 7.062460
-1.333220 -1.114197 7.041883
-1.152352 -0.965433 7.022788
-0.986280 -0.800201 7.005875
-0.844111 -0.613949 6.992366
-0.742324 -0.403000 6.984375
-0.705526 -0.171935 6.984838
-0.751416 0.057207 6.995462
-0.862783 0.262539 7.013649
-1.014618 0.440040 7.036227
-1.189927 0.594332 7.061198
-1.379440 0.730704 7.087534
-1.719568 -1.374731 7.083911
-1.525485 -1.251222 7.062638
-1.522195 -1.248975 7.062281
-1.334799 -1.115413 7.042051
-1.331642 -1.112980 7.041714
-1.153835 -0.966767 7.022942
-1.150870 -0.964100 7.022634
-0.987616 -0.801683 7.006008
-0.984943 -0.798719 7.005742
-0.845213 -0.615615 6.992466
-0.843009 -0.612283 6.992267
-0.743038 -0.404867 6.984423
-0.741610 -0.401132 6.984328
-0.705496 -0.173927 6.984791
-0.705726 -0.169946 6.984906
-0.750626 0.055375 6.995325
-0.752207 0.059039 6.995599
-0.861601 0.260936 7.013468
-0.863966 0.264142 7.013830
-1.013202 0.438642 7.036022
-1.016034 0.441437 7.036432
-1.188369 0.593097 7.060979
-1.191485 0.595567 7.061417
-1.377791 0.729596 7.087306
-1.711332 -1.369637 7.083005
-1.533486 -1.256684 7.063507
-1.514193 -1.243513 7.061412
-1.342476 -1.121329 7.042870
-1.323964 -1.107065 7.040895
-1.161045 -0.973252 7.023691
-1.143659 -0.957615 7.021884
-0.994117 -0.808889 7.006654
-0.978443 -0.791512 7.005096
-0.850570 -0.623719 6.992952
-0.837652 -0.604179 6.991781
-0.746510 -0.413950 6.984655
-0.738138 -0.392049 6.984096
-0.706135 -0.183632 6.984660
-0.706702 -0.160274 6.985236
-0.746783 0.046464 6.994658
-0.756050 0.067949 6.996266
-0.855851 0.253140 7.012590
-0.869715 0.271938 7.014708
-1.006316 0.431845 7.035025
-1.022920 0.448234 7.037428
-1.180792 0.587091 7.059914
-1.199062 0.601572 7.062482
-1.369769 0.724207 7.086200
-1.690594 -1.356813 7.080724
-1.663053 -1.339780 7.077694
-1.635511 -1.322748 7.074665
-1.608245 -1.305273 7.071679
-1.581068 -1.287655 7.068708
-1.553891 -1.270037 7.065736
-1.494049 -1.229761 7.059224
-1.467295 -1.211497 7.056319
-1.440659 -1.193062 7.053431
-1.414400 -1.174080 7.050603
-1.388142 -1.155098 7.047774
-1.361884 -1.136116 7.044945
-1.304635 -1.092170 7.038833
-1.278965 -1.072388 7.036094
-1.253801 -1.051962 7.033431
-1.228835 -1.031284 7.030799
-1.203868 -1.010607 7.028166
-1.179199 -0.989579 7.025577
-1.125505 -0.941288 7.019998
-1.101608 -0.919373 7.017524
-1.078553 -0.896554 7.015174
-1.055498 -0.873734 7.012823
-1.032442 -0.850914 7.010472
-1.010483 -0.827034 7.008280
-0.962077 -0.773368 7.003470
-0.941488 -0.748291 7.001472
-0.921426 -0.722764 6.999550
-0.901364 -0.697237 6.997627
-0.881974 -0.671218 6.995798
-0.864059 -0.644122 6.994174
-0.824630 -0.583497 6.990622
-0.809483 -0.554743 6.989376
-0.794336 -0.525988 6.988130
-0.779189 -0.497233 6.986883
-0.766863 -0.467189 6.986013
-0.755253 -0.436818 6.985238
-0.732262 -0.368306 6.983885
-0.725030 -0.336596 6.983679
-0.717799 -0.304887 6.983474
-0.712019 -0.272967 6.983452
-0.709882 -0.240516 6.983891
-0.707744 -0.208065 6.984330
-0.709160 -0.135923 6.986066
-0.712424 -0.103582 6.987169
-0.715687 -0.071241 6.988272
-0.722935 -0.039651 6.989851
-0.731342 -0.008279 6.991567
-0.739749 0.023093 6.993284
-0.765726 0.090383 6.997946
-0.778577 0.120177 7.000177
-0.792368 0.149485 7.002513
-0.808805 0.177426 7.005146
-0.825241 0.205368 7.007779
-0.841677 0.233309 7.010412
-0.884192 0.291566 7.016919
-0.903418 0.317634 7.019856
-0.924246 0.342390 7.022962
-0.945617 0.366703 7.026125
-0.966988 0.391015 7.029288
-0.988980 0.414733 7.032515
-1.040257 0.465347 7.039938
-1.063579 0.487751 7.043301
-1.087894 0.509072 7.046762
-1.112209 0.530394 7.050224
-1.136525 0.551715 7.053686
-1.161715 0.571972 7.057233
-1.218138 0.616692 7.065163
-1.244058 0.635992 7.068779
-1.270213 0.654979 7.072417
-1.296368 0.673965 7.076055
-1.322750 0.692622 7.079714
-1.349573 0.710641 7.083414
27 NaN NaN
-1.721685 -1.376040 7.084144
-1.628799 -1.318597 7.073927
-1.537143 -1.259180 7.063904
-1.446913 -1.197583 7.054105
-1.358356 -1.133566 7.044565
-1.271781 -1.066853 7.035327
-1.187583 -0.997120 7.026449
-1.106274 -0.923991 7.018000
-1.028526 -0.847037 7.010073
-0.955230 -0.765777 7.002789
-0.887584 -0.679704 6.996306
-0.827185 -0.588347 6.990832
-0.776125 -0.491417 6.986631
-0.736995 -0.389060 6.984020
-0.712629 -0.282219 6.983327
-0.705428 -0.172900 6.984805
-0.716423 -0.063953 6.988521
-0.744748 0.041746 6.994304
-0.788056 0.142154 7.001822
-0.843460 0.236339 7.010698
-0.908279 0.324225 7.020598
-0.980337 0.406201 7.031264
-1.057979 0.482840 7.042503
-1.139975 0.554741 7.054177
-1.225416 0.622460 7.066186
-1.313622 0.686491 7.078455
-1.404082 0.747257 7.090932
-1.274049 -1.478272 4.569079
-1.104239 -1.274539 4.616912
-0.951123 -1.059385 4.670500
-0.824399 -0.829814 4.731975
-0.735223 -0.585910 4.802618
-0.706440 -0.331469 4.883844
-0.753352 -0.082478 4.972132
-0.878743 0.138002 5.060141
-1.058072 0.320973 5.142002
-1.270712 0.468642 5.216030
-1.272754 -1.476786 4.569421
-1.105444 -1.276091 4.616537
-1.103034 -1.272987 4.617287
-0.952209 -1.061013 4.670086
-0.950038 -1.057757 4.670914
-0.825214 -0.831574 4.731485
-0.823583 -0.828055 4.732464
-0.735763 -0.587755 4.802067
-0.734683 -0.584064 4.803168
-0.706368 -0.333363 4.883206
-0.706512 -0.329575 4.884482
-0.752788 -0.084278 4.971468
-0.753917 -0.080678 4.972797
-0.877561 0.136518 5.059509
-0.879926 0.139486 5.060773
-1.056630 0.319718 5.141415
-1.059515 0.322228 5.142588
-1.269044 0.467668 5.215510
-1.265679 -1.468662 4.571293
-1.112031 -1.284575 4.614489
-1.096448 -1.264503 4.619336
-0.958143 -1.069914 4.667822
-0.944453 -1.048662 4.673283
-0.829673 -0.841193 4.728810
-0.819124 -0.818436 4.735140
-0.738714 -0.597845 4.799059
-0.732191 -0.573888 4.806259
-0.705976 -0.343719 4.879717
-0.706904 -0.319220 4.887971
-0.749699 -0.094118 4.967834
-0.757159 -0.070897 4.976429
-0.871095 0.128404 5.056053
-0.886391 0.147599 5.064229
-1.048742 0.312858 5.138210
-1.067403 0.329089 5.145794
-1.259924 0.462345 5.212671
-1.247450 -1.447733 4.576115
-1.223203 -1.419895 4.582528
-1.199121 -1.391931 4.589003
-1.175654 -1.363498 4.595706
-1.152188 -1.335064 4.602409
-1.129000 -1.306432 4.609210
-1.079479 -1.242646 4.624614
-1.057532 -1.213155 4.631846
-1.035994 -1.183392 4.639217
-1.014456 -1.153630 4.646588
-0.993766 -1.123346 4.654232
-0.973431 -1.092845 4.661990
-0.930225 -1.025140 4.679436
-0.911301 -0.993853 4.687620
-0.892542 -0.962483 4.695852
-0.875283 -0.930370 4.704506
-0.858024 -0.898256 4.713160
-0.841161 -0.865973 4.721917
-0.807637 -0.793655 4.742032
-0.793523 -0.760278 4.751476
-0.780602 -0.726477 4.761200
-0.767681 -0.692676 4.770924
-0.756431 -0.658414 4.780997
-0.746317 -0.623838 4.791307
-0.727079 -0.547427 4.814458
-0.720280 -0.512230 4.825364
-0.713480 -0.477032 4.836270
-0.710487 -0.441487 4.847738
-0.707526 -0.405939 4.859210
-0.704966 -0.370397 4.870728
-0.707914 -0.292541 4.896960
-0.711047 -0.257286 4.909050
-0.716993 -0.222395 4.921348
-0.722938 -0.187503 4.933647
-0.731161 -0.153187 4.946020
-0.741743 -0.119467 4.958473
-0.768408 -0.046814 4.985756
-0.783371 -0.014778 4.998161
-0.798333 0.017257 5.010567
-0.816757 0.047483 5.022777
-0.835614 0.077483 5.034963
-0.854470 0.107482 5.047148
-0.903048 0.168500 5.073131
-0.925975 0.195674 5.084854
-0.950833 0.221277 5.096281
-0.975692 0.246880 5.107708
-1.001390 0.271674 5.118965
-1.028420 0.295184 5.129951
-1.088905 0.345445 5.153753
-1.117668 0.367021 5.164299
-1.146431 0.388597 5.174845
-1.176273 0.408801 5.185061
-1.206417 0.428623 5.195186
-1.236561 0.448444 5.205310
25 NaN NaN
-1.274372 -1.478643 4.568993
-1.204060 -1.397916 4.587592
-1.136012 -1.315464 4.607029
-1.070559 -1.231157 4.627388
-1.008104 -1.144852 4.648762
-0.949138 -1.056407 4.671257
-0.894262 -0.965684 4.694989
-0.844219 -0.872570 4.720082
-0.799915 -0.776998 4.746666
-0.762452 -0.679000 4.774858
-0.733133 -0.578764 4.804749
-0.713423 -0.476735 4.836362
-0.704841 -0.373701 4.869615
-0.708735 -0.270856 4.904267
-0.725965 -0.169740 4.939907
-0.756633 -0.072023 4.975993
-0.799996 0.020818 5.011946
-0.854651 0.107769 5.047265
-0.918874 0.188359 5.081589
-0.990938 0.262583 5.114717
-1.069305 0.330743 5.146567
-1.152700 0.393301 5.177144
-1.240104 0.450773 5.206500
-1.330717 0.503673 5.234712
-1.423919 0.552474 5.261864
-0.986323 -1.429217 3.746419
-0.816330 -1.144372 3.722839
-0.683980 -0.839616 3.714477
-0.614417 -0.515494 3.729831
-0.643957 -0.189522 3.779159
-0.787676 0.096724 3.862588
-1.012310 0.318113 3.965760
-0.985243 -1.427541 3.746253
-0.817276 -1.146130 3.722949
-0.815441 -1.142582 3.722752
-0.684655 -0.841498 3.714480
-0.683405 -0.837701 3.714512
-0.614633 -0.517473 3.729666
-0.614364 -0.513507 3.730052
-0.643488 -0.191424 3.778771
-0.644606 -0.187683 3.779602
-0.786560 0.095167 3.862020
-0.788904 0.098186 3.863182
-1.010823 0.316944 3.965113
-0.978151 -1.416528 3.745164
-0.823600 -1.157627 3.723718
-0.809602 -1.130820 3.722180
-0.689243 -0.853816 3.714559
-0.679629 -0.825113 3.714742
-0.616303 -0.530473 3.728669
-0.614015 -0.500447 3.731507
-0.640786 -0.204054 3.776329
-0.648877 -0.175597 3.782513
-0.779549 0.084665 3.858367
-0.796980 0.107793 3.867090
-1.001216 0.309030 3.960888
-0.959317 -1.387283 3.742273
-0.934216 -1.348306 3.738420
-0.909997 -1.308746 3.734938
-0.886153 -1.268939 3.731612
-0.862774 -1.228851 3.728479
-0.840393 -1.188159 3.725759
-0.794095 -1.099585 3.720662
-0.773429 -1.057956 3.718638
-0.754181 -1.015644 3.717180
-0.735539 -0.973039 3.715964
-0.717659 -0.930121 3.715044
-0.701424 -0.886526 3.714767
-0.669601 -0.791685 3.715354
-0.656236 -0.747133 3.716169
-0.645262 -0.701990 3.717870
-0.635316 -0.656593 3.719951
-0.626644 -0.611002 3.722490
-0.620736 -0.564994 3.726020
-0.613090 -0.465769 3.735369
-0.611857 -0.419551 3.740517
-0.614289 -0.373601 3.746880
-0.618286 -0.327767 3.753763
-0.624050 -0.282292 3.761204
-0.633612 -0.237592 3.769846
-0.660218 -0.143503 3.790241
-0.675333 -0.100729 3.800541
-0.694087 -0.059780 3.811861
-0.714376 -0.019600 3.823612
-0.736115 0.019615 3.835739
-0.760930 0.056780 3.848667
-0.818423 0.133305 3.877466
-0.847003 0.167306 3.891295
-0.877718 0.199125 3.905589
-0.909327 0.230031 3.920077
-0.941704 0.260006 3.934714
-0.975705 0.288015 3.949668
22 NaN NaN
-0.986592 -1.429636 3.746460
-0.926738 -1.336694 3.737272
-0.869883 -1.241776 3.729343
-0.816516 -1.144748 3.722857
-0.767239 -1.045489 3.718032
-0.722792 -0.943905 3.715132
-0.684085 -0.839966 3.714470
-0.652221 -0.733752 3.716414
-0.628510 -0.625531 3.721375
-0.614426 -0.515864 3.729790
-0.611488 -0.405710 3.742059
-0.621015 -0.296482 3.758461
-0.643800 -0.189967 3.779052
-0.679817 -0.088040 3.803597
-0.728167 0.007711 3.831598
-0.787309 0.096288 3.862410
-0.855432 0.177334 3.895374
-0.930782 0.251009 3.929911
-1.011842 0.317783 3.965561
-1.097382 0.378268 4.001979
-1.186441 0.433107 4.038916
-1.278276 0.482913 4.076192
-0.903896 -1.390600 3.318956
-0.853667 -1.301252 3.301355
-0.806006 -1.210289 3.284936
-0.761296 -1.117613 3.269868
-0.720017 -1.023128 3.256361
-0.682761 -0.926754 3.244676
-0.650253 -0.828456 3.235125
-0.623380 -0.728278 3.228091
-0.603211 -0.626398 3.224025
-0.590987 -0.523215 3.223445
-0.588062 -0.419448 3.226903
-0.595750 -0.316224 3.234913
-0.615061 -0.215085 3.247841
-0.646408 -0.117826 3.265783
-0.689415 -0.026180 3.288499
-0.742963 0.058541 3.315447
-0.805469 0.135647 3.345912
-0.875231 0.205059 3.379156
-0.950686 0.267135 3.414522
-1.030531 0.322476 3.451475
-1.113743 0.371764 3.489605
-1.199540 0.415674 3.528605
-0.902930 -1.388882 3.318617
-0.854633 -1.302970 3.301694
-0.852701 -1.299534 3.301017
-0.806921 -1.212039 3.285251
-0.805091 -1.208539 3.284621
-0.762151 -1.119398 3.270155
-0.760440 -1.115829 3.269580
-0.720803 -1.024949 3.256617
-0.719231 -1.021307 3.256105
-0.683465 -0.928613 3.244895
-0.682057 -0.924895 3.244457
-0.650859 -0.830354 3.235301
-0.649646 -0.826559 3.234950
-0.623870 -0.730213 3.228214
-0.622890 -0.726343 3.227968
-0.603561 -0.628366 3.224087
-0.602860 -0.624430 3.223964
-0.591171 -0.525206 3.223434
-0.590803 -0.521223 3.223457
-0.588051 -0.421445 3.226807
-0.588074 -0.417450 3.226999
-0.595517 -0.318201 3.234722
-0.595983 -0.314247 3.235103
-0.614588 -0.217006 3.247549
-0.615533 -0.213163 3.248132
-0.645694 -0.119653 3.265392
-0.647122 -0.115999 3.266174
-0.688475 -0.027878 3.288017
-0.690354 -0.024481 3.288982
-0.741828 0.056992 3.314887
-0.744097 0.060090 3.316007
-0.804176 0.134254 3.345290
-0.806763 0.137041 3.346533
-0.873813 0.203817 3.378488
-0.876649 0.206301 3.379824
-0.949172 0.266033 3.413819
-0.952199 0.268238 3.415224
-1.028945 0.321498 3.450747
-1.032116 0.323454 3.452203
-1.112103 0.370897 3.488858
-1.115383 0.372631 3.490352
-1.197858 0.414905 3.527845
-0.900447 -1.384466 3.317747
-0.857115 -1.307386 3.302564
-0.850310 -1.295060 3.300189
-0.809272 -1.216538 3.286061
-0.802740 -1.204040 3.283812
-0.764350 -1.123985 3.270895
-0.758242 -1.111242 3.268840
-0.722823 -1.029629 3.257276
-0.717211 -1.016626 3.255447
-0.685274 -0.933391 3.245458
-0.680247 -0.920117 3.243893
-0.652418 -0.835231 3.235751
-0.648087 -0.821682 3.234499
-0.625130 -0.735186 3.228532
-0.621631 -0.721370 3.227651
-0.604462 -0.633424 3.224245
-0.601960 -0.619372 3.223805
-0.591644 -0.530324 3.223406
-0.590330 -0.516105 3.223485
-0.588023 -0.426579 3.226562
-0.588102 -0.412316 3.227245
-0.594918 -0.323283 3.234233
-0.596581 -0.309165 3.235592
-0.613374 -0.221944 3.246801
-0.616747 -0.208225 3.248880
-0.643859 -0.124348 3.264387
-0.648957 -0.111304 3.267179
-0.686061 -0.032243 3.286777
-0.692768 -0.020116 3.290221
-0.738913 0.053011 3.313449
-0.747013 0.064071 3.317445
-0.800851 0.130674 3.343694
-0.810087 0.140621 3.348130
-0.870169 0.200624 3.376771
-0.880293 0.209494 3.381541
-0.945284 0.263198 3.412013
-0.956088 0.271073 3.417031
-1.024871 0.318985 3.448875
-1.036191 0.325967 3.454075
-1.107887 0.368669 3.486938
-1.119599 0.374859 3.492271
-1.193535 0.412928 3.525890
-0.895371 -1.375437 3.315969
-0.888735 -1.363632 3.313643
-0.882099 -1.351828 3.311318
-0.875463 -1.340024 3.308993
-0.868827 -1.328220 3.306668
-0.862191 -1.316415 3.304342
-0.845502 -1.285862 3.298534
-0.839218 -1.273837 3.296370
-0.832933 -1.261812 3.294207
-0.826648 -1.249786 3.292043
-0.820364 -1.237761 3.289879
-0.814079 -1.225736 3.287716
-0.798230 -1.194669 3.282293
-0.792353 -1.182408 3.280316
-0.786476 -1.170147 3.278339
-0.780599 -1.157886 3.276362
-0.774722 -1.145625 3.274384
-0.768845 -1.133364 3.272407
-0.753954 -1.101754 3.267422
-0.748554 -1.089243 3.265662
-0.743154 -1.076732 3.263902
-0.737754 -1.064221 3.262142
-0.732354 -1.051710 3.260382
-0.726954 -1.039199 3.258622
-0.713159 -1.007020 3.254136
-0.708322 -0.994248 3.252631
-0.703485 -0.981476 3.251125
-0.698648 -0.968704 3.249620
-0.693811 -0.955932 3.248115
-0.688974 -0.943160 3.246609
-0.676547 -0.910348 3.242742
-0.672276 -0.897352 3.241491
-0.668109 -0.884315 3.240286
-0.663941 -0.871277 3.239082
-0.659774 -0.858240 3.237877
-0.655606 -0.845203 3.236673
-0.644899 -0.811709 3.233578
-0.641173 -0.798531 3.232570
-0.637806 -0.785237 3.231723
-0.634439 -0.771943 3.230875
-0.631072 -0.758649 3.230027
-0.627705 -0.745355 3.229180
-0.619055 -0.711201 3.227002
-0.615935 -0.697849 3.226264
-0.613527 -0.684328 3.225840
-0.611119 -0.670807 3.225417
-0.608712 -0.657287 3.224993
-0.606304 -0.643766 3.224569
-0.600118 -0.609030 3.223481
-0.597710 -0.595509 3.223058
-0.596404 -0.581833 3.223116
-0.595140 -0.568152 3.223193
-0.593876 -0.554471 3.223270
-0.592611 -0.540789 3.223347
-0.589363 -0.505640 3.223544
-0.588098 -0.491959 3.223621
-0.587734 -0.478249 3.224087
-0.587811 -0.464525 3.224745
-0.587887 -0.450801 3.225402
-0.587964 -0.437077 3.226059
-0.588161 -0.401818 3.227747
-0.588237 -0.388094 3.228404
-0.588893 -0.374424 3.229309
-0.590493 -0.360840 3.230617
-0.592094 -0.347257 3.231925
-0.593694 -0.333673 3.233232
-0.597805 -0.298775 3.236593
-0.599406 -0.285192 3.237901
-0.601154 -0.271642 3.239271
-0.604399 -0.258442 3.241271
-0.607645 -0.245242 3.243271
-0.610891 -0.232042 3.245271
-0.619230 -0.198128 3.250410
-0.622476 -0.184928 3.252410
-0.625722 -0.171728 3.254410
-0.630296 -0.159048 3.256960
-0.635201 -0.146498 3.259646
-0.640107 -0.133948 3.262332
-0.652710 -0.101705 3.269234
-0.657615 -0.089155 3.271921
-0.662521 -0.076605 3.274607
-0.668217 -0.064505 3.277614
-0.674671 -0.052837 3.280928
-0.681124 -0.041168 3.284242
-0.697705 -0.011191 3.292756
-0.704159 0.000478 3.296071
-0.710613 0.012146 3.299385
-0.717363 0.023587 3.302816
-0.725157 0.034229 3.306662
-0.732951 0.044871 3.310507
-0.752975 0.072212 3.320387
-0.760769 0.082853 3.324232
-0.768563 0.093495 3.328077
-0.776357 0.104137 3.331923
-0.785167 0.113782 3.336161
-0.794054 0.123353 3.340429
-0.816885 0.147942 3.351394
-0.825771 0.157513 3.355662
-0.834657 0.167083 3.359930
-0.843544 0.176654 3.364198
-0.852976 0.185563 3.368671
-0.862718 0.194097 3.373260
-0.887745 0.216021 3.385051
-0.897486 0.224555 3.389641
-0.907227 0.233089 3.394230
-0.916969 0.241623 3.398820
-0.926936 0.249826 3.403492
-0.937332 0.257403 3.408320
-0.964039 0.276868 3.420724
-0.974435 0.284445 3.425552
-0.984831 0.292022 3.430380
-0.995226 0.299598 3.435208
-1.005647 0.307130 3.440045
-1.016539 0.313847 3.445048
-1.044522 0.331105 3.457902
-1.055414 0.337822 3.462905
-1.066306 0.344539 3.467908
-1.077198 0.351256 3.472911
-1.088090 0.357973 3.477914
-1.099267 0.364113 3.483014
-1.128218 0.379415 3.496196
-1.139487 0.385371 3.501327
-1.150756 0.391327 3.506458
-1.162024 0.397283 3.511589
-1.173293 0.403239 3.516720
-1.184695 0.408884 3.521894
22 NaN NaN
-0.904137 -1.391029 3.319040
-0.851948 -1.298195 3.300753
-0.802523 -1.203624 3.283737
-0.756304 -1.107199 3.268188
-0.713838 -1.008811 3.254347
-0.675800 -0.908374 3.242509
-0.643028 -0.805856 3.233037
-0.616554 -0.701324 3.226373
-0.597623 -0.595019 3.223042
-0.587683 -0.487462 3.223646
-0.588285 -0.379584 3.228812
-0.600863 -0.272826 3.239091
-0.626371 -0.169090 3.254810
-0.664920 -0.070466 3.275921
-0.715639 0.021234 3.301966
-0.776899 0.104877 3.332190
-0.846755 0.180113 3.365740
-0.923341 0.247206 3.401822
-1.005079 0.306779 3.439784
-1.090725 0.359598 3.479124
-1.179339 0.406434 3.519472
-1.270218 0.448002 3.560558
-0.846104 -1.346691 2.887927
-0.741464 -1.139427 2.860006
-0.656395 -0.922872 2.837245
-0.598102 -0.697155 2.821550
-0.576154 -0.464777 2.815451
-0.600645 -0.232759 2.821626
-0.678259 -0.013645 2.841858
-0.802470 0.181228 2.874436
-0.960796 0.347770 2.916067
-1.141738 0.487783 2.963709
-0.845168 -1.344941 2.887677
-0.742263 -1.141248 2.860219
-0.740666 -1.137606 2.859792
-0.657010 -0.924768 2.837410
-0.655780 -0.920976 2.837080
-0.598472 -0.699118 2.821650
-0.597733 -0.695191 2.821450
-0.576202 -0.466776 2.815466
-0.576107 -0.462778 2.815436
-0.600302 -0.234727 2.821538
-0.600988 -0.230791 2.821715
-0.677321 -0.015394 2.841613
-0.679198 -0.011896 2.842104
-0.801222 0.179699 2.874109
-0.803717 0.182756 2.874764
-0.959333 0.346463 2.915682
-0.962260 0.349078 2.916452
-1.140130 0.486671 2.963285
-0.840633 -1.336466 2.886468
-0.746130 -1.150070 2.861252
-0.736799 -1.128784 2.858759
-0.659988 -0.933952 2.838209
-0.652802 -0.911793 2.836281
-0.600259 -0.708626 2.822134
-0.595945 -0.685683 2.820965
-0.576429 -0.476461 2.815539
-0.575880 -0.453093 2.815364
-0.598638 -0.244261 2.821111
-0.603366 -0.221432 2.822331
-0.672774 -0.023865 2.840422
-0.683744 -0.003425 2.843295
-0.795181 0.172295 2.872521
-0.809759 0.190161 2.876351
-0.952243 0.340131 2.913816
-0.969350 0.355410 2.918318
-1.132344 0.481284 2.961234
-0.829227 -1.315148 2.883426
-0.814078 -1.286837 2.879386
-0.798929 -1.258525 2.875346
-0.784641 -1.229742 2.871533
-0.770530 -1.200862 2.867766
-0.756420 -1.171982 2.864000
-0.727072 -1.106592 2.856160
-0.714154 -1.077121 2.852708
-0.701862 -1.047375 2.849421
-0.690319 -1.017298 2.846332
-0.678777 -0.987222 2.843243
-0.667481 -0.957053 2.840219
-0.645309 -0.888692 2.834272
-0.635511 -0.857965 2.831642
-0.627405 -0.826710 2.829460
-0.619300 -0.795455 2.827278
-0.611195 -0.764199 2.825096
-0.604757 -0.732545 2.823354
-0.591448 -0.661764 2.819746
-0.587211 -0.629722 2.818585
-0.583684 -0.597566 2.817611
-0.580158 -0.565411 2.816638
-0.577763 -0.533175 2.815964
-0.577002 -0.500822 2.815721
-0.576338 -0.428758 2.815454
-0.578631 -0.396481 2.816018
-0.580925 -0.364205 2.816583
-0.583342 -0.331944 2.817180
-0.588898 -0.300094 2.818608
-0.594454 -0.268244 2.820036
-0.610066 -0.198067 2.824072
-0.618964 -0.167038 2.826384
-0.627861 -0.136008 2.828696
-0.638935 -0.105784 2.831583
-0.651094 -0.075960 2.834759
-0.663253 -0.046137 2.837934
-0.695180 0.017884 2.846290
-0.710368 0.046184 2.850268
-0.726354 0.073969 2.854457
-0.744233 0.100533 2.859148
-0.762112 0.127098 2.863839
-0.779990 0.153663 2.868530
-0.824957 0.208786 2.880344
-0.845140 0.233522 2.885647
-0.867103 0.256569 2.891422
-0.889209 0.279478 2.897235
-0.911316 0.302388 2.903048
-0.934408 0.324201 2.909123
-0.987184 0.371339 2.923011
-1.011579 0.391586 2.929432
-1.036548 0.411097 2.936006
-1.061516 0.430608 2.942580
-1.086748 0.449738 2.949224
-1.112758 0.467734 2.956076
21 NaN NaN
-0.846338 -1.347128 2.887989
-0.796333 -1.253674 2.874654
-0.749756 -1.158344 2.862222
-0.707116 -1.061064 2.850827
-0.669017 -0.961791 2.840631
-0.636175 -0.860529 2.831821
-0.609424 -0.757371 2.824619
-0.589713 -0.652533 2.819275
-0.578075 -0.546416 2.816063
-0.575564 -0.439655 2.815263
-0.583131 -0.333153 2.817126
-0.601464 -0.228063 2.821837
-0.630822 -0.125684 2.829465
-0.670939 -0.027284 2.839941
-0.721053 0.066092 2.853066
-0.780049 0.153751 2.868546
-0.846656 0.235379 2.886045
-0.919613 0.310987 2.905230
-0.997784 0.380807 2.925800
-1.080196 0.445205 2.947498
-1.166050 0.504604 2.970113
-0.730033 -1.258974 2.025937
-0.657823 -1.065053 2.015039
-0.603470 -0.865208 2.009804
-0.571626 -0.660581 2.011561
-0.567455 -0.453876 2.021702
-0.595374 -0.249813 2.041288
-0.657149 -0.054583 2.070507
-0.750675 0.126018 2.108409
-0.870764 0.288521 2.153252
-1.011240 0.432244 2.203155
-0.729298 -1.257118 2.025819
-0.658478 -1.066940 2.015131
-0.657167 -1.063166 2.014947
-0.603934 -0.867153 2.009836
-0.603006 -0.863263 2.009773
-0.571847 -0.662568 2.011517
-0.571405 -0.658594 2.011604
-0.567379 -0.455870 2.021569
-0.567531 -0.451882 2.021835
-0.594961 -0.251756 2.041058
-0.595787 -0.247870 2.041519
-0.656398 -0.056408 2.070182
-0.657900 -0.052758 2.070832
-0.749627 0.124363 2.108004
-0.751724 0.127672 2.108813
-0.869483 0.287057 2.152789
-0.872045 0.289985 2.153716
-1.009788 0.430964 2.202650
-0.726080 -1.248992 2.025305
-0.661348 -1.075201 2.015534
-0.654420 -1.054864 2.014583
-0.605966 -0.875667 2.009974
-0.600974 -0.854748 2.009635
-0.572815 -0.671267 2.011327
-0.570438 -0.649895 2.011794
-0.567044 -0.464599 2.020988
-0.567866 -0.443153 2.022415
-0.593153 -0.260262 2.040049
-0.597594 -0.239363 2.042528
-0.653109 -0.064395 2.068759
-0.661188 -0.044770 2.072255
-0.745038 0.117121 2.106234
-0.756312 0.134914 2.110584
-0.863874 0.280648 2.150760
-0.877653 0.296393 2.155745
-1.003435 0.425360 2.200443
-0.718170 -1.229013 2.024042
-0.707680 -1.202522 2.022366
-0.697191 -1.176031 2.020691
-0.687119 -1.149377 2.019149
-0.677762 -1.122445 2.017836
-0.668405 -1.095512 2.016523
-0.648330 -1.034229 2.013900
-0.640256 -1.006869 2.012994
-0.632181 -0.979508 2.012088
-0.624208 -0.952120 2.011214
-0.617585 -0.924361 2.010764
-0.610961 -0.896602 2.010314
-0.596882 -0.833624 2.009575
-0.591894 -0.805522 2.009633
-0.586907 -0.777419 2.009691
-0.581920 -0.749317 2.009748
-0.578347 -0.721015 2.010240
-0.575193 -0.692655 2.010860
-0.568575 -0.628473 2.012417
-0.567451 -0.599981 2.013652
-0.566328 -0.571488 2.014886
-0.565205 -0.542995 2.016120
-0.565132 -0.514519 2.017667
-0.566222 -0.486061 2.019560
-0.568688 -0.421691 2.023844
-0.572035 -0.393466 2.026399
-0.575484 -0.365252 2.028984
-0.578933 -0.337038 2.031569
-0.582815 -0.308909 2.034279
-0.588709 -0.281177 2.037568
-0.602039 -0.218449 2.045008
-0.609551 -0.191198 2.048755
-0.617896 -0.164196 2.052736
-0.626241 -0.137194 2.056718
-0.634587 -0.110191 2.060700
-0.645024 -0.084035 2.065260
-0.669274 -0.025131 2.075753
-0.680802 0.000494 2.080610
-0.693746 0.025386 2.085850
-0.706690 0.050278 2.091090
-0.719634 0.075170 2.096330
-0.733756 0.099314 2.101881
-0.767595 0.152721 2.114937
-0.782674 0.176243 2.120739
-0.799416 0.198503 2.126969
-0.816158 0.220763 2.133199
-0.832900 0.243023 2.139430
-0.850085 0.264891 2.145770
-0.891443 0.312150 2.160735
-0.909727 0.333044 2.167350
-0.929024 0.352907 2.174212
-0.948625 0.372461 2.181147
-0.968225 0.392014 2.188082
-0.987826 0.411568 2.195018
19 NaN NaN
-0.730217 -1.259438 2.025966
-0.690563 -1.159293 2.019632
-0.655192 -1.057482 2.014670
-0.624670 -0.954054 2.011246
-0.599632 -0.849124 2.009544
-0.580781 -0.742899 2.009762
-0.568860 -0.635704 2.012104
-0.564615 -0.528011 2.016769
-0.568736 -0.420455 2.023926
-0.581771 -0.313824 2.033696
-0.604043 -0.209017 2.046127
-0.635582 -0.106970 2.061175
-0.676099 -0.008551 2.078706
-0.725019 0.085525 2.098510
-0.781562 0.174764 2.120325
-0.844842 0.258900 2.143873
-0.913954 0.337873 2.168879
-0.988043 0.411784 2.195095
-1.066342 0.480844 2.222301
-0.515987 -1.135893 0.738064
-0.491553 -1.044458 0.746782
-0.470567 -0.952343 0.757025
-0.453363 -0.859658 0.768904
-0.440317 -0.766549 0.782541
-0.431830 -0.673213 0.798058
-0.428315 -0.579901 0.815570
-0.430186 -0.486926 0.835180
-0.438953 -0.394925 0.857365
-0.454097 -0.304384 0.881819
-0.475689 -0.215832 0.908463
-0.503790 -0.129821 0.937209
-0.538328 -0.046882 0.967922
-0.579098 0.032510 1.000421
-0.625766 0.107959 1.034493
-0.678654 0.178464 1.070063
-0.736420 0.244412 1.106671
-0.798341 0.305977 1.144061
-0.863907 0.363254 1.182048
-0.932646 0.416394 1.220471
-0.515473 -1.133969 0.738248
-0.492067 -1.046382 0.746598
-0.491039 -1.042534 0.746965
-0.470995 -0.954284 0.756803
-0.470140 -0.950402 0.757246
-0.453693 -0.861613 0.768640
-0.453032 -0.857703 0.769167
-0.440538 -0.768513 0.782232
-0.440096 -0.764586 0.782850
-0.431929 -0.675178 0.797699
-0.431732 -0.671248 0.798417
-0.428278 -0.581858 0.815158
-0.428352 -0.577944 0.815981
-0.430030 -0.488866 0.834723
-0.430371 -0.484990 0.835646
-0.438768 -0.396861 0.856898
-0.439137 -0.392989 0.857832
-0.453755 -0.306284 0.881296
-0.454439 -0.302484 0.882342
-0.475183 -0.217679 0.907885
-0.476194 -0.213985 0.909041
-0.503120 -0.131598 0.936580
-0.504459 -0.128045 0.937839
-0.537499 -0.048572 0.967246
-0.539157 -0.045192 0.968598
-0.578120 0.030919 0.999705
-0.580076 0.034101 1.001137
-0.624653 0.106475 1.033744
-0.626879 0.109442 1.035241
-0.677541 0.176980 1.069314
-0.679767 0.179948 1.070811
-0.735189 0.243039 1.105897
-0.737652 0.245785 1.107445
-0.797007 0.304714 1.143269
-0.799674 0.307239 1.144853
-0.862488 0.362099 1.181242
-0.865327 0.364410 1.182853
-0.931154 0.415339 1.219657
-0.514232 -1.129326 0.738690
-0.493308 -1.051026 0.746156
-0.489798 -1.037891 0.747408
-0.472028 -0.958968 0.756268
-0.469107 -0.945718 0.757781
-0.454491 -0.866330 0.768004
-0.452235 -0.852985 0.769803
-0.441072 -0.773251 0.781485
-0.439563 -0.759847 0.783597
-0.432167 -0.679921 0.796833
-0.431494 -0.666506 0.799283
-0.428189 -0.586580 0.814164
-0.428441 -0.573222 0.816975
-0.429941 -0.493589 0.833730
-0.430816 -0.480318 0.836773
-0.438323 -0.401533 0.855771
-0.439583 -0.388317 0.858958
-0.452930 -0.310869 0.880035
-0.455264 -0.297899 0.883604
-0.473964 -0.222135 0.906491
-0.477414 -0.209528 0.910435
-0.501504 -0.135884 0.935060
-0.506075 -0.123758 0.939358
-0.535499 -0.052650 0.965614
-0.541158 -0.041114 0.970230
-0.575760 0.027080 0.997977
-0.582436 0.037940 1.002865
-0.622236 0.102681 1.032002
-0.629565 0.113023 1.037047
-0.674855 0.173400 1.067508
-0.682453 0.183528 1.072618
-0.732217 0.239726 1.104030
-0.740624 0.249098 1.109312
-0.793789 0.301668 1.141356
-0.802893 0.310286 1.146766
-0.859062 0.359309 1.179299
-0.868753 0.367199 1.184797
-0.927554 0.412794 1.217693
-0.511776 -1.120134 0.739567
-0.508573 -1.108151 0.740709
-0.505371 -1.096167 0.741852
-0.502169 -1.084184 0.742994
-0.498967 -1.072201 0.744137
-0.495764 -1.060217 0.745279
-0.487394 -1.028689 0.748308
-0.484730 -1.016599 0.749688
-0.482065 -1.004510 0.751068
-0.479401 -0.992421 0.752449
-0.476736 -0.980331 0.753829
-0.474072 -0.968242 0.755209
-0.467063 -0.936444 0.758840
-0.464399 -0.924355 0.760220
-0.462244 -0.912194 0.761820
-0.460186 -0.900019 0.763462
-0.458128 -0.887844 0.765103
-0.456070 -0.875669 0.766745
-0.450656 -0.843647 0.771062
-0.448598 -0.831472 0.772704
-0.446540 -0.819297 0.774345
-0.444880 -0.807090 0.776153
-0.443503 -0.794861 0.778080
-0.442127 -0.782632 0.780007
-0.438507 -0.750467 0.785075
-0.437131 -0.738238 0.787002
-0.435755 -0.726009 0.788929
-0.434379 -0.713779 0.790855
-0.433252 -0.701547 0.792883
-0.432638 -0.689308 0.795118
-0.431023 -0.657118 0.800998
-0.430409 -0.644880 0.803233
-0.429795 -0.632641 0.805468
-0.429181 -0.620402 0.807704
-0.428567 -0.608164 0.809939
-0.428013 -0.595929 0.812198
-0.428617 -0.563874 0.818942
-0.428847 -0.551686 0.821506
-0.429076 -0.539499 0.824070
-0.429306 -0.527312 0.826634
-0.429536 -0.515124 0.829199
-0.429765 -0.502937 0.831763
-0.431697 -0.471069 0.839003
-0.432846 -0.459012 0.841911
-0.433995 -0.446954 0.844818
-0.435144 -0.434897 0.847726
-0.436293 -0.422839 0.850634
-0.437442 -0.410782 0.853541
-0.440649 -0.379110 0.861255
-0.442779 -0.367277 0.864511
-0.444908 -0.355444 0.867767
-0.447038 -0.343611 0.871024
-0.449167 -0.331778 0.874280
-0.451297 -0.319945 0.877537
-0.456898 -0.288822 0.886102
-0.459027 -0.276989 0.889358
-0.462107 -0.265465 0.892934
-0.465255 -0.253963 0.896533
-0.468402 -0.242461 0.900132
-0.471550 -0.230958 0.903730
-0.479828 -0.200705 0.913196
-0.482975 -0.189203 0.916794
-0.486123 -0.177701 0.920393
-0.489965 -0.166497 0.924211
-0.494135 -0.155433 0.928132
-0.498305 -0.144370 0.932053
-0.509274 -0.115272 0.942366
-0.513445 -0.104209 0.946287
-0.517615 -0.093146 0.950208
-0.521785 -0.082083 0.954129
-0.526376 -0.071248 0.958173
-0.531539 -0.060723 0.962384
-0.545118 -0.033040 0.973460
-0.550280 -0.022516 0.977671
-0.555443 -0.011991 0.981882
-0.560605 -0.001466 0.986093
-0.565768 0.009059 0.990304
-0.571087 0.019480 0.994556
-0.587108 0.045540 1.006285
-0.593199 0.055449 1.010745
-0.599290 0.065357 1.015204
-0.605382 0.075265 1.019663
-0.611473 0.085173 1.024122
-0.617564 0.095081 1.028582
-0.634882 0.120110 1.040623
-0.641813 0.129351 1.045285
-0.648744 0.138591 1.049947
-0.655676 0.147831 1.054609
-0.662607 0.157072 1.059270
-0.669538 0.166312 1.063932
-0.687982 0.190417 1.076239
-0.695653 0.198967 1.081058
-0.703323 0.207517 1.085877
-0.710993 0.216067 1.090696
-0.718663 0.224617 1.095515
-0.726333 0.233167 1.100334
-0.746507 0.255656 1.113008
-0.754198 0.264184 1.117831
-0.762503 0.272047 1.122766
-0.770808 0.279910 1.127701
-0.779114 0.287773 1.132636
-0.787419 0.295636 1.137571
-0.809263 0.316318 1.150551
-0.817568 0.324181 1.155486
-0.825873 0.332044 1.160421
-0.834595 0.339391 1.165419
-0.843437 0.346589 1.170435
-0.852279 0.353788 1.175451
-0.875536 0.372721 1.188644
-0.884378 0.379919 1.193660
-0.893220 0.387118 1.198676
-0.902062 0.394316 1.203693
-0.911137 0.401187 1.208736
-0.920428 0.407756 1.213805
18 NaN NaN
-0.516116 -1.136374 0.738018
-0.487655 -1.029871 0.748173
-0.463974 -0.922428 0.760440
-0.445683 -0.814227 0.775029
-0.433452 -0.705548 0.792152
-0.427997 -0.596788 0.812017
-0.430038 -0.488489 0.834803
-0.440247 -0.381347 0.860639
-0.459168 -0.276206 0.889574
-0.487134 -0.174005 0.921549
-0.524188 -0.075709 0.956388
-0.570059 0.017807 0.993803
-0.624180 0.105844 1.033426
-0.685770 0.187951 1.074849
-0.753928 0.263928 1.117670
-0.827731 0.333803 1.161525
-0.906308 0.397773 1.206102
-0.988876 0.456148 1.251149
-0.449243 -1.093910 0.307893
-0.401674 -0.869814 0.231956
-0.377177 -0.636798 0.174772
-0.385069 -0.397910 0.144933
-0.435358 -0.162837 0.152658
-0.531580 0.051572 0.203623
-0.665276 0.231050 0.292641
-0.822825 0.372288 0.408341
-0.448803 -1.092076 0.307227
-0.401957 -0.871719 0.232496
-0.401392 -0.867909 0.231417
-0.377243 -0.638765 0.175131
-0.377112 -0.634832 0.174412
-0.384843 -0.399895 0.145040
-0.385296 -0.395926 0.144826
-0.434776 -0.164738 0.152444
-0.435939 -0.160935 0.152873
-0.530656 0.049885 0.203076
-0.532505 0.053259 0.204170
-0.664057 0.229721 0.291781
-0.666541 0.232303 0.293552
-0.821445 0.371293 0.407290
-0.446615 -1.082950 0.303916
-0.403364 -0.881198 0.235180
-0.399985 -0.858430 0.228733
-0.377571 -0.648548 0.176921
-0.376784 -0.625048 0.172622
-0.383714 -0.409768 0.145574
-0.386425 -0.386053 0.144293
-0.431884 -0.174200 0.151376
-0.438831 -0.151473 0.153941
-0.526056 0.041490 0.200354
-0.537104 0.061654 0.206891
-0.658197 0.222768 0.287739
-0.672837 0.238537 0.298084
-0.814578 0.366338 0.402062
-0.441080 -1.059865 0.295540
-0.433727 -1.029195 0.284412
-0.426373 -0.998525 0.273284
-0.419978 -0.967384 0.262919
-0.413833 -0.936120 0.252753
-0.407687 -0.904856 0.242588
-0.396426 -0.834451 0.221943
-0.391698 -0.802595 0.212923
-0.387551 -0.770545 0.204378
-0.384490 -0.738132 0.196726
-0.381429 -0.705719 0.189074
-0.378400 -0.673298 0.181449
-0.375955 -0.600299 0.168095
-0.374853 -0.567418 0.162079
-0.375817 -0.534271 0.157825
-0.376999 -0.501096 0.153756
-0.378181 -0.467921 0.149687
-0.380859 -0.434743 0.146923
-0.389280 -0.361078 0.142944
-0.394407 -0.328092 0.142345
-0.401088 -0.295331 0.143136
-0.407769 -0.262570 0.143927
-0.414850 -0.229935 0.145086
-0.424569 -0.198136 0.148675
-0.446210 -0.127570 0.156702
-0.458924 -0.097314 0.163140
-0.471638 -0.067058 0.169578
-0.484352 -0.036801 0.176016
-0.498962 -0.007957 0.184324
-0.514420 0.020255 0.193470
-0.550101 0.081516 0.215174
-0.567905 0.107363 0.226729
-0.585709 0.133210 0.238283
-0.603984 0.158438 0.250345
-0.623679 0.181808 0.263930
-0.643373 0.205177 0.277514
-0.688761 0.254307 0.309549
-0.709917 0.275258 0.324780
-0.731074 0.296209 0.340012
-0.753120 0.315340 0.356299
-0.775378 0.334036 0.372839
-0.797637 0.352732 0.389378
17 NaN NaN
-0.449353 -1.094368 0.308059
-0.424848 -0.992163 0.270976
-0.404371 -0.887981 0.237101
-0.388616 -0.781829 0.207042
-0.378418 -0.673828 0.181546
-0.374748 -0.564277 0.161505
-0.378685 -0.453756 0.147950
-0.391320 -0.343231 0.141980
-0.413572 -0.234115 0.144614
-0.445940 -0.128212 0.156566
-0.488281 -0.027449 0.178005
-0.539766 0.066511 0.208466
-0.599066 0.152602 0.246953
-0.664672 0.230451 0.292205
-0.735156 0.300251 0.342951
-0.809319 0.362544 0.398059
-0.886219 0.418027 0.456601
