0.118250 0.118251 0.118267 0.118327 0.118419 0.118515 0.118611 0.118707 0.118808 0.118875 0.118892 0.118894 0.118896 0.118913 0.118983 0.119088 0.119199 0.119309 0.119420 0.119536 0.119612 0.119632 0.119634 0.119636 0.119656 0.119736 0.119857 0.119984 0.120112 0.120239 0.120373 0.120461 0.120484 0.120487 0.120489 0.120512 0.120605 0.120746 0.120895 0.121044 0.121194 0.121351 0.121455 0.121482 0.121485 0.121487 0.121515 0.121622 0.121786 0.121954 0.122122 0.122289 0.122461 0.122574 0.122603 0.122606 0.122609 0.122638 0.122752 0.122925 0.123101 0.123276 0.123451 0.123630 0.123747 0.123778 0.123781 0.123784 0.123815 0.123935 0.124118 0.124307 0.124496 0.124685 0.124882 0.125012 0.125046 0.125049 0.125052 0.125087 0.125221 0.125425 0.125637 0.125848 0.126060 0.126278 0.126422 0.126460 0.126464 0.126467 0.126505 0.126654 0.126879 0.127114 0.127348 0.127583 0.127828 0.127990 0.128032 0.128036 0.128040 0.128083 0.128252 0.128508 0.128777 0.129045 0.129313 0.129592 0.129776 0.129824 0.129828 0.129833 0.129881 0.130067 0.130350 0.130635 0.130920 0.131205 0.131491 0.131680 0.131729 0.131733 0.131738 0.131787 0.131976 0.132264 0.132555 0.132846 0.133138 0.133434 0.133630 0.133681 0.133686 0.133691 0.133742 0.133942 0.134246 0.134560 0.134875 0.135190 0.135517 0.135733 0.135789 0.135795 0.135800 0.135857 0.136080 0.136419 0.136772 0.137125 0.137478 0.137847 0.138089 0.138153 0.138159 0.138166 0.138230 0.138482 0.138865 0.139266 0.139666 0.140066 0.140482 0.140756 0.140828 0.140834 0.140841 0.140913 0.141194 0.141620 0.142055 0.142491 0.142927 0.143372 0.143665 0.143742 0.143749 0.143756 0.143833 0.144131 0.144584 0.145050 0.145516 0.145982 0.146465 0.146782 0.146866 0.146874 0.146882 0.146966 0.147295 0.147796 0.148321 0.148847 0.149372 0.149926 0.150291 0.150388 0.150397 0.150406 0.150503 0.150885 0.151466 0.152080 0.152694 0.153309 0.153958 0.154386 0.154499 0.154510 0.154521 0.154635 0.155086 0.155772 0.156497 0.157223 0.157948 0.158717 0.159223 0.159357 0.159370 0.159383 0.159517 0.160045 0.160847 0.161681 0.162515 0.163349 0.164212 0.164780 0.164928 0.164942 0.164956 0.165105 0.165684 0.166564 0.167461 0.168358 0.169255 0.170175 0.170780 0.170939 0.170954 0.170969 0.171128 0.171745 0.172682 0.173640 0.174598 0.175557 0.176544 0.177193 0.177363 0.177380 
0.122606 0.122608 0.122618 0.122642 0.122674 0.122700 0.122726 0.122752 0.122773 0.122789 0.122794 0.122794 0.122795 0.122800 0.122811 0.122827 0.122836 0.122846 0.122855 0.122859 0.122862 0.122863 0.122863 0.122863 0.122863 0.122862 0.122861 0.122854 0.122847 0.122841 0.122828 0.122819 0.122815 0.122814 0.122814 0.122809 0.122795 0.122776 0.122767 0.122759 0.122750 0.122746 0.122743 0.122742 0.122741 0.122741 0.122740 0.122736 0.122731 0.122724 0.122718 0.122712 0.122706 0.122700 0.122698 0.122698 
0.126464 0.126466 0.126474 0.126492 0.126516 0.126538 0.126560 0.126582 0.126602 0.126617 0.126623 0.126624 0.126626 0.126631 0.126645 0.126662 0.126677 0.126693 0.126708 0.126721 0.126730 0.126734 0.126735 0.126736 0.126739 0.126747 0.126757 0.126764 0.126772 0.126780 0.126784 0.126788 0.126789 0.126789 0.126790 0.126791 0.126792 0.126795 0.126794 0.126794 0.126794 0.126791 0.126789 0.126788 0.126788 0.126787 0.126786 0.126782 0.126777 0.126770 0.126763 0.126756 0.126747 0.126740 0.126736 0.126736 0.126735 0.126732 0.126723 0.126712 0.126698 0.126685 0.126671 0.126655 0.126643 0.126637 0.126636 0.126635 0.126629 0.126615 0.126595 0.126582 0.126569 0.126557 0.126553 0.126550 0.126549 0.126548 0.126548 0.126547 0.126543 0.126539 0.126534 0.126529 0.126525 0.126519 0.126515 0.126514 0.126513 0.126513 0.126511 0.126507 0.126501 0.126495 0.126489 0.126483 0.126476 0.126472 0.126470 0.126469 0.126469 0.126467 0.126461 0.126454 0.126447 0.126439 0.126432 0.126424 0.126419 0.126416 0.126416 
0.131733 0.131734 0.131736 0.131739 0.131743 0.131744 0.131746 0.131747 0.131746 0.131744 0.131743 0.131743 0.131743 0.131742 0.131738 0.131733 0.131725 0.131718 0.131710 0.131699 0.131691 0.131687 0.131686 0.131685 0.131681 0.131671 0.131657 0.131640 0.131622 0.131605 0.131584 0.131569 0.131562 0.131560 0.131559 0.131552 0.131534 0.131510 0.131483 0.131456 0.131429 0.131399 0.131377 0.131367 0.131365 0.131363 0.131353 0.131329 0.131298 0.131264 0.131231 0.131197 0.131162 0.131136 0.131125 0.131122 0.131119 0.131108 0.131080 0.131044 0.131016 0.130987 0.130959 0.130940 0.130926 0.130920 0.130919 0.130918 0.130912 0.130900 0.130883 0.130866 0.130849 0.130832 0.130816 0.130803 0.130798 0.130797 0.130795 0.130790 0.130778 0.130762 0.130746 0.130730 0.130714 0.130699 0.130687 0.130682 0.130681 0.130680 0.130675 0.130664 0.130649 0.130635 0.130620 0.130606 0.130591 0.130581 0.130576 0.130575 
0.143748 0.143744 0.143732 0.143703 0.143664 0.143623 0.143582 0.143541 0.143497 0.143463 0.143448 0.143443 0.143439 0.143423 0.143388 0.143341 0.143292 0.143242 0.143192 0.143140 0.143100 0.143082 0.143077 0.143071 0.143053 0.143010 0.142954 0.142894 0.142834 0.142774 0.142711 0.142663 0.142641 0.142635 0.142628 0.142606 0.142554 0.142487 0.142415 0.142342 0.142270 0.142193 0.142135 0.142108 0.142100 0.142092 0.142065 0.142003 0.141922 0.141850 0.141778 0.141706 0.141670 0.141643 0.141630 0.141627 0.141623 0.141610 0.141582 0.141544 0.141505 0.141467 0.141428 0.141389 0.141359 0.141345 0.141341 0.141337 0.141324 0.141294 0.141254 0.141214 0.141174 0.141134 0.141094 0.141064 0.141051 0.141047 0.141042 0.141029 0.140999 0.140959 0.140919 0.140880 0.140840 0.140801 0.140771 0.140758 0.140754 0.140751 0.140738 0.140708 0.140670 0.140632 0.140593 0.140555 0.140517 0.140489 0.140476 0.140472 0.140469 0.140456 0.140428 0.140390 0.140353 0.140316 0.140280 0.140243 0.140216 0.140204 0.140200 0.140196 0.140184 0.140157 0.140121 0.140086 0.140051 0.140015 0.139980 0.139953 0.139942 0.139938 
