0.293009 0.292992 0.292767 0.290657 0.287313 0.280885 0.274458 0.268030 0.260166 0.255202 0.254104 0.254021 0.253938 0.252837 0.248082 0.240548 0.234340 0.228131 0.221923 0.217096 0.214049 0.213441 0.213395 0.213350 0.212751 0.210260 0.206315 0.203087 0.199859 0.196631 0.193916 0.192203 0.191846 0.191820 0.191793 0.191439 0.189919 0.187512 0.185373 0.183234 0.181095 0.179162 0.177942 0.177682 0.177662 0.177642 0.177384 0.176254 0.174463 0.172816 0.171168 0.169521 0.167999 0.167038 0.166832 0.166817 0.166801 0.166596 0.165696 0.164271 0.162953 0.161635 0.160316 0.159091 0.158318 0.158152 0.158140 
0.293029 0.293086 0.293632 0.294118 0.294770 0.293003 0.291237 0.289470 0.286429 0.284162 0.283239 0.283142 0.283042 0.282087 0.279276 0.275506 0.271666 0.267827 0.263987 0.260543 0.257975 0.257150 0.257064 0.256978 0.256160 0.253800 0.250635 0.247818 0.245002 0.242186 0.239681 0.237814 0.237178 0.237111 0.237045 0.236420 0.234749 0.232506 0.230439 0.228372 0.226305 0.224427 0.223027 0.222546 0.222496 0.222446 0.221969 0.220667 0.218921 0.217295 0.215668 0.214042 0.212504 0.211357 0.210956 0.210914 0.210872 0.210475 0.209401 0.207962 0.206600 0.205239 0.203877 0.202575 0.201605 0.201262 0.201226 0.201190 0.200848 0.199916 0.198665 0.197452 0.196239 0.195025 0.193854 0.192980 0.192673 0.192641 0.192609 0.192303 0.191460 0.190328 0.189237 0.188146 0.187055 0.186010 0.185231 0.184957 0.184928 0.184900 0.184627 0.183876 0.182869 0.181902 0.180935 0.179968 0.179048 0.178362 0.178121 0.178096 0.178071 0.177833 0.177175 0.176293 0.175447 0.174601 0.173755 0.172946 0.172343 0.172132 0.172109 0.172087 0.171877 0.171298 0.170523 0.169782 0.169040 0.168299 0.167586 0.167054 0.166868 0.166848 0.166829 0.166643 0.166133 0.165448 0.164789 0.164131 0.163472 0.162840 0.162369 0.162204 0.162186 
0.293095 0.293424 0.298116 0.315253 0.342404 0.348888 0.355372 0.361856 0.340359 0.326792 0.323134 0.322878 0.322635 0.319174 0.304566 0.281422 0.265781 0.250141 0.234500 0.223883 0.217182 0.215938 0.215850 0.215765 0.214544 0.209711 0.202055 0.196885 0.191716 0.186546 0.182851 0.180518 0.180038 0.180004 0.179972 0.179519 0.177543 0.174413 0.171196 0.167978 0.164761 0.160977 0.158589 0.158029 0.157990 0.157950 0.157381 0.154791 0.150687 0.146611 0.142535 0.138459 0.134921 0.132688 0.132256 0.132226 0.132196 0.131777 0.130144 0.127557 0.125921 0.124285 0.122648 0.121641 0.121004 0.120886 0.120878 0.120870 0.120756 0.120304 0.119587 0.119091 0.118596 0.118101 0.117750 0.117528 0.117485 0.117482 0.117479 0.117436 0.117263 0.116988 0.116773 0.116558 0.116343 0.116168 0.116057 0.116035 0.116033 0.116032 0.116009 0.115913 0.115760 0.115628 0.115496 0.115363 0.115249 0.115176 0.115161 0.115160 0.115159 0.115144 0.115080 0.114978 0.114892 0.114805 0.114718 0.114645 0.114599 0.114589 0.114589 0.114588 0.114579 0.114538 0.114475 0.114421 0.114367 0.114314 0.114268 0.114240 0.114234 0.114234 0.114233 0.114227 0.114203 0.114164 0.114132 0.114100 0.114068 0.114042 0.114026 0.114023 0.114022 
0.166811 0.166788 0.166635 0.166232 0.165694 0.165169 0.164645 0.164120 0.163609 0.163226 0.163083 0.163061 0.163040 0.162897 0.162519 0.162015 0.161522 0.161028 0.160535 0.160053 0.159692 0.159558 0.159538 0.159518 0.159385 0.159060 0.158626 0.158275 0.157925 0.157574 0.157268 0.157039 0.156956 0.156944 0.156932 0.156850 0.156653 0.156390 0.156160 0.155930 0.155700 0.155505 0.155358 0.155303 0.155295 0.155288 0.155239 0.155112 0.154942 0.154799 0.154656 0.154513 0.154389 0.154296 0.154266 0.154262 0.154257 0.154227 0.154148 0.154043 0.153955 0.153868 0.153780 0.153703 0.153645 0.153625 0.153622 
0.177654 0.177621 0.177432 0.176959 0.176329 0.175722 0.175114 0.174507 0.173920 0.173479 0.173312 0.173282 0.173253 0.173087 0.172662 0.172096 0.171551 0.171006 0.170462 0.169930 0.169531 0.169378 0.169351 0.169325 0.169173 0.168783 0.168263 0.167762 0.167260 0.166758 0.166278 0.165918 0.165801 0.165781 0.165760 0.165646 0.165371 0.165006 0.164687 0.164369 0.164050 0.163771 0.163562 0.163487 0.163474 0.163461 0.163386 0.163199 0.162950 0.162731 0.162513 0.162294 0.162096 0.161947 0.161889 0.161879 0.161870 0.161819 0.161687 0.161513 0.161354 0.161195 0.161036 0.160893 0.160786 0.160746 0.160739 0.160731 0.160691 0.160591 0.160458 0.160336 0.160213 0.160091 0.159975 0.159887 0.159857 0.159851 0.159846 0.159815 0.159733 0.159624 0.159522 0.159419 0.159316 0.159218 0.159144 0.159115 0.159109 
0.191807 0.191755 0.191553 0.191077 0.190447 0.189836 0.189226 0.188615 0.188026 0.187581 0.187398 0.187352 0.187306 0.187125 0.186698 0.186133 0.185588 0.185043 0.184497 0.183973 0.183576 0.183413 0.183372 0.183331 0.183169 0.182790 0.182288 0.181806 0.181325 0.180844 0.180384 0.180036 0.179893 0.179857 0.179821 0.179678 0.179343 0.178900 0.178471 0.178042 0.177613 0.177199 0.176886 0.176757 0.176724 0.176691 0.176562 0.176259 0.175857 0.175465 0.175073 0.174681 0.174300 0.174012 0.173892 0.173862 0.173832 0.173713 0.173433 0.173063 0.172708 0.172353 0.171998 0.171689 0.171455 0.171361 0.171337 0.171314 0.171220 0.171006 0.170723 0.170470 0.170217 0.169964 0.169724 0.169543 0.169474 0.169457 0.169440 0.169372 0.169212 0.169001 0.168805 0.168609 0.168413 0.168234 0.168099 0.168043 0.168029 0.168015 0.167959 0.167839 0.167679 0.167526 0.167373 0.167221 0.167087 0.166986 0.166943 0.166933 0.166922 0.166880 0.166781 0.166651 0.166535 0.166418 0.166302 0.166190 0.166106 0.166074 0.166065 0.166057 0.166024 0.165946 0.165842 0.165748 0.165653 0.165559 0.165467 0.165398 0.165369 0.165362 0.165355 0.165330 0.165268 0.165187 0.165108 0.165028 0.164949 0.164874 0.164818 0.164794 0.164788 0.164782 0.164758 0.164705 0.164634 0.164565 0.164496 0.164428 0.164364 0.164316 0.164296 0.164291 
0.283070 0.282784 0.280158 0.273616 0.264875 0.257974 0.251074 0.244173 0.238513 0.234277 0.232856 0.232702 0.232551 0.231163 0.227639 0.222930 0.219160 0.215389 0.211619 0.208685 0.206490 0.205781 0.205703 0.205628 0.204933 0.203275 0.201058 0.199226 0.197394 0.195562 0.193877 0.192615 0.192165 0.192116 0.192068 0.191622 0.190439 0.188859 0.187458 0.186057 0.184656 0.183502 0.182638 0.182356 0.182325 0.182298 0.182047 0.181432 0.180609 0.180001 0.179392 0.178784 0.178321 0.177974 0.177863 0.177851 0.177839 0.177728 0.177447 0.177072 0.176758 0.176444 0.176130 0.175856 0.175651 0.175579 0.175571 
