0.155456 0.155468 0.155645 0.156406 0.157612 0.158649 0.159685 0.160722 0.161718 0.162347 0.162486 0.162495 0.162505 0.162644 0.163295 0.164326 0.165433 0.166540 0.167647 0.168845 0.169601 0.169772 0.169783 0.169795 0.169967 0.170765 0.172028 0.173298 0.174568 0.175838 0.177093 0.177884 0.178053 0.178065 0.178076 0.178246 0.179006 0.180211 0.181317 0.182424 0.183531 0.184479 0.185078 0.185198 0.185206 
0.155450 0.155438 0.155313 0.154897 0.154291 0.153732 0.153174 0.152615 0.152107 0.151758 0.151660 0.151650 0.151640 0.151543 0.151217 0.150743 0.150291 0.149839 0.149387 0.148955 0.148660 0.148574 0.148566 0.148557 0.148472 0.148182 0.147760 0.147348 0.146936 0.146524 0.146118 0.145839 0.145758 0.145750 0.145742 0.145661 0.145385 0.144983 0.144580 0.144177 0.143774 0.143370 0.143094 0.143013 0.143005 0.142997 0.142917 0.142641 0.142238 0.141840 0.141442 0.141043 0.140653 0.140385 0.140307 0.140299 0.140292 0.140214 0.139952 0.139568 0.139194 0.138820 0.138446 0.138082 0.137832 0.137760 0.137753 0.137746 0.137674 0.137431 0.137076 0.136732 0.136388 0.136044 0.135711 0.135483 0.135417 0.135410 0.135404 0.135338 0.135117 0.134794 0.134481 0.134169 0.133856 0.133554 0.133347 0.133287 0.133281 0.133275 0.133216 0.133015 0.132722 0.132438 0.132154 0.131870 0.131595 0.131407 0.131353 0.131347 0.131342 0.131288 0.131105 0.130837 0.130578 0.130319 0.130060 0.129809 0.129637 0.129588 0.129583 
0.155455 0.155463 0.155587 0.155735 0.155969 0.155157 0.154345 0.153533 0.152433 0.151739 0.151587 0.151577 0.151567 0.151413 0.150710 0.149596 0.148570 0.147544 0.146518 0.145544 0.144929 0.144800 0.144792 0.144783 0.144657 0.144123 0.143277 0.142554 0.141831 0.141109 0.140351 0.139873 0.139758 0.139751 0.139743 0.139626 0.139022 0.138065 0.136710 0.135354 0.133998 0.132319 0.131259 0.130981 0.130963 0.130944 0.130656 0.129164 0.126799 0.124853 0.122907 0.120961 0.119807 0.119078 0.118953 0.118945 0.118937 0.118815 0.118380 0.117690 0.117282 0.116874 0.116467 0.116201 0.116033 0.116001 0.115999 0.115997 0.115965 0.115837 0.115634 0.115478 0.115322 0.115166 0.115042 0.114963 0.114947 0.114946 0.114945 0.114929 0.114861 0.114754 0.114662 0.114570 0.114478 0.114399 0.114349 0.114338 0.114338 0.114337 0.114327 0.114282 0.114211 0.114150 0.114089 0.114028 0.113976 0.113943 0.113936 0.113936 0.113936 0.113929 0.113900 0.113855 0.113817 0.113779 0.113741 0.113709 0.113689 0.113685 0.113685 0.113685 0.113681 0.113664 0.113637 0.113615 0.113594 0.113572 0.113554 0.113543 0.113541 0.113541 0.113541 0.113539 0.113530 0.113516 0.113504 0.113492 0.113480 0.113464 0.113453 0.113450 0.113449 
0.169778 0.169757 0.169560 0.169012 0.168278 0.167549 0.166821 0.166092 0.165384 0.164854 0.164667 0.164647 0.164627 0.164440 0.163938 0.163266 0.162642 0.162018 0.161394 0.160822 0.160393 0.160247 0.160231 0.160216 0.160070 0.159681 0.159161 0.158694 0.158227 0.157760 0.157363 0.157066 0.156975 0.156965 0.156957 0.156876 0.156676 0.156410 0.156229 0.156048 0.155866 0.155749 0.155661 0.155634 0.155631 0.155628 0.155601 0.155544 0.155467 0.155423 0.155379 0.155335 0.155316 0.155302 0.155300 0.155300 
0.162492 0.162478 0.162422 0.162283 0.162099 0.161908 0.161717 0.161527 0.161331 0.161183 0.161122 0.161107 0.161092 0.161030 0.160878 0.160677 0.160474 0.160270 0.160067 0.159861 0.159706 0.159642 0.159626 0.159611 0.159547 0.159391 0.159186 0.158983 0.158779 0.158576 0.158376 0.158225 0.158163 0.158148 0.158133 0.158071 0.157926 0.157733 0.157544 0.157356 0.157167 0.156984 0.156846 0.156790 0.156777 0.156763 0.156708 0.156579 0.156408 0.156245 0.156083 0.155921 0.155768 0.155653 0.155603 0.155591 0.155579 0.155529 0.155417 0.155269 0.155123 0.154977 0.154831 0.154685 0.154575 0.154530 0.154519 0.154508 0.154462 0.154352 0.154205 0.154057 0.153908 0.153760 0.153612 0.153500 0.153454 0.153443 0.153432 0.153385 0.153275 0.153128 0.152987 0.152846 0.152705 0.152575 0.152476 0.152438 0.152428 0.152419 0.152380 0.152288 0.152165 0.152061 0.151956 0.151852 0.151758 0.151688 0.151663 0.151657 0.151651 0.151626 0.151568 0.151491 0.151429 0.151367 0.151305 0.151251 0.151211 0.151195 0.151192 0.151189 0.151176 0.151146 0.151107 0.151073 0.151039 0.151005 0.150979 0.150959 0.150951 0.150949 0.150947 0.150939 0.150926 0.150909 0.150895 0.150880 0.150866 0.150858 0.150852 0.150850 0.150849 0.150849 0.150846 0.150842 0.150836 0.150834 0.150832 0.150831 0.150833 0.150835 0.150836 0.150836 0.150837 0.150838 0.150840 0.150843 0.150850 0.150858 0.150865 0.150873 0.150879 0.150882 0.150883 
0.151649 0.151647 0.151641 0.151628 0.151612 0.151595 0.151578 0.151562 0.151544 0.151530 0.151523 0.151520 0.151517 0.151509 0.151495 0.151476 0.151457 0.151438 0.151419 0.151399 0.151383 0.151375 0.151372 0.151369 0.151360 0.151344 0.151324 0.151301 0.151279 0.151257 0.151233 0.151215 0.151206 0.151202 0.151198 0.151188 0.151170 0.151145 0.151119 0.151093 0.151067 0.151039 0.151017 0.151005 0.151001 0.150996 0.150984 0.150962 0.150933 0.150902 0.150872 0.150842 0.150811 0.150787 0.150775 0.150770 0.150764 0.150752 0.150727 0.150694 0.150660 0.150626 0.150592 0.150557 0.150529 0.150515 0.150509 0.150503 0.150488 0.150459 0.150422 0.150383 0.150344 0.150305 0.150265 0.150234 0.150218 0.150211 0.150204 0.150188 0.150156 0.150114 0.150075 0.150036 0.149997 0.149961 0.149934 0.149920 0.149914 0.149908 0.149894 0.149867 0.149833 0.149799 0.149766 0.149732 0.149699 0.149673 0.149660 0.149655 0.149651 0.149641 0.149629 0.149614 0.149598 0.149583 0.149567 0.149552 0.149540 0.149534 0.149531 0.149529 0.149522 0.149510 0.149495 0.149479 0.149463 0.149447 0.149431 0.149418 0.149412 0.149409 0.149406 0.149400 0.149387 0.149371 0.149355 0.149339 0.149322 0.149305 0.149292 0.149286 0.149283 0.149280 0.149273 0.149260 0.149242 0.149224 0.149206 0.149188 0.149169 0.149155 0.149148 0.149145 0.149141 0.149134 0.149119 0.149100 0.149081 0.149062 0.149043 0.149023 0.149007 0.148999 0.148996 0.148992 0.148984 0.148969 0.148948 0.148928 0.148907 0.148886 0.148865 0.148848 0.148840 0.148836 0.148832 0.148824 0.148807 0.148785 0.148762 0.148739 0.148717 0.148693 0.148675 0.148666 0.148662 0.148658 0.148649 0.148630 0.148606 0.148582 0.148559 0.148535 0.148510 0.148491 0.148481 0.148476 0.148472 0.148462 0.148443 0.148418 0.148393 0.148368 0.148343 0.148317 0.148298 0.148288 0.148283 0.148279 0.148269 0.148249 0.148223 0.148199 0.148175 0.148151 0.148127 0.148109 0.148100 0.148096 0.148092 0.148082 0.148064 0.148041 0.148018 0.147996 0.147974 0.147953 0.147938 0.147930 0.147927 0.147923 0.147915 0.147901 0.147881 0.147863 0.147844 0.147825 0.147809 0.147797 0.147791 0.147788 0.147786 0.147780 0.147770 0.147756 0.147742 0.147729 0.147716 0.147703 0.147693 0.147688 0.147686 0.147684 0.147680 0.147674 0.147665 0.147657 0.147649 0.147641 0.147633 0.147627 0.147624 0.147623 0.147621 0.147618 0.147613 0.147607 0.147603 0.147599 0.147594 0.147591 0.147588 0.147586 0.147586 0.147585 0.147583 0.147581 0.147577 0.147576 0.147574 0.147572 0.147572 0.147571 0.147571 0.147571 0.147571 0.147571 0.147571 0.147570 0.147570 0.147569 0.147569 0.147571 0.147572 0.147573 0.147573 0.147573 0.147574 0.147575 0.147577 0.147578 0.147580 0.147582 0.147583 0.147585 0.147586 0.147587 0.147587 0.147589 0.147592 0.147595 0.147599 0.147602 0.147606 0.147609 0.147612 0.147613 0.147613 0.147614 0.147615 0.147618 0.147623 0.147627 0.147632 0.147636 0.147641 0.147644 0.147646 0.147647 0.147648 0.147649 0.147653 0.147657 0.147663 0.147668 0.147674 0.147679 0.147683 0.147686 0.147686 0.147687 0.147690 0.147694 0.147699 0.147705 0.147711 0.147717 0.147723 0.147728 0.147730 0.147731 0.147732 0.147735 0.147739 0.147746 0.147752 0.147758 0.147764 0.147771 0.147776 0.147779 0.147780 0.147781 0.147784 0.147789 0.147796 0.147803 0.147809 0.147816 0.147823 0.147828 0.147830 0.147831 0.147833 0.147835 0.147841 0.147848 0.147855 0.147863 0.147870 0.147877 0.147882 0.147885 0.147886 
0.148565 0.148561 0.148540 0.148483 0.148407 0.148325 0.148242 0.148159 0.148069 0.148001 0.147974 0.147969 0.147964 0.147936 0.147863 0.147766 0.147663 0.147561 0.147458 0.147355 0.147278 0.147248 0.147243 0.147237 0.147207 0.147131 0.147030 0.146932 0.146834 0.146736 0.146645 0.146576 0.146552 0.146547 0.146543 0.146519 0.146458 0.146376 0.146300 0.146223 0.146146 0.146066 0.146006 0.145981 0.145977 0.145972 0.145947 0.145880 0.145792 0.145696 0.145600 0.145505 0.145404 0.145329 0.145299 0.145294 0.145289 0.145259 0.145184 0.145083 0.144997 0.144911 0.144825 0.144754 0.144700 0.144683 0.144680 0.144677 0.144660 0.144620 0.144567 0.144531 0.144494 0.144458 0.144434 0.144416 0.144409 0.144408 0.144407 0.144400 0.144390 0.144376 0.144366 0.144356 0.144347 0.144343 0.144340 0.144339 0.144339 0.144339 0.144339 0.144339 0.144338 0.144342 0.144346 0.144350 0.144357 0.144362 0.144364 0.144364 
0.143005 0.143002 0.142994 0.142977 0.142955 0.142932 0.142908 0.142885 0.142860 0.142842 0.142833 0.142830 0.142827 0.142818 0.142798 0.142772 0.142745 0.142718 0.142692 0.142664 0.142643 0.142634 0.142630 0.142627 0.142617 0.142595 0.142567 0.142538 0.142509 0.142480 0.142450 0.142428 0.142417 0.142413 0.142410 0.142399 0.142376 0.142345 0.142315 0.142284 0.142254 0.142223 0.142199 0.142188 0.142184 0.142180 0.142169 0.142145 0.142114 0.142082 0.142050 0.142019 0.141987 0.141963 0.141951 0.141948 0.141944 0.141932 0.141908 0.141877 0.141845 0.141814 0.141783 0.141751 0.141728 0.141716 0.141713 0.141709 0.141697 0.141673 0.141642 0.141610 0.141578 0.141547 0.141515 0.141491 0.141480 0.141476 0.141472 0.141461 0.141438 0.141406 0.141375 0.141344 0.141313 0.141282 0.141258 0.141247 0.141243 0.141239 0.141228 0.141204 0.141173 0.141142 0.141111 0.141080 0.141049 0.141025 0.141014 0.141010 0.141006 0.140995 0.140973 0.140942 0.140912 0.140882 0.140851 0.140820 0.140797 0.140787 0.140783 0.140780 0.140769 0.140747 0.140718 0.140689 0.140660 0.140631 0.140603 0.140582 0.140572 0.140569 0.140566 0.140556 0.140536 0.140510 0.140489 0.140468 0.140447 0.140435 0.140426 0.140422 0.140420 0.140419 0.140415 0.140408 0.140397 0.140388 0.140379 0.140370 0.140365 0.140362 0.140360 0.140360 0.140359 0.140358 0.140354 0.140350 0.140348 0.140345 0.140343 0.140343 0.140344 0.140344 0.140344 0.140344 0.140344 0.140344 0.140345 0.140347 0.140349 0.140352 0.140355 0.140358 0.140359 0.140360 0.140360 0.140361 0.140364 0.140368 0.140374 0.140380 0.140386 0.140393 0.140398 0.140400 0.140401 0.140402 0.140404 0.140409 0.140416 0.140425 0.140434 0.140443 0.140452 0.140459 0.140462 0.140463 0.140465 0.140468 0.140476 0.140486 0.140497 0.140508 0.140519 0.140530 0.140539 0.140543 0.140544 0.140546 0.140550 0.140560 0.140573 0.140587 0.140600 0.140613 0.140627 0.140637 0.140642 0.140644 0.140646 0.140651 0.140663 0.140678 0.140694 0.140709 0.140725 0.140741 0.140754 0.140760 0.140762 
0.135410 0.135410 0.135408 0.135404 0.135398 0.135392 0.135386 0.135379 0.135372 0.135367 0.135365 0.135364 0.135363 0.135360 0.135355 0.135347 0.135339 0.135330 0.135322 0.135313 0.135306 0.135303 0.135302 0.135301 0.135297 0.135290 0.135280 0.135270 0.135261 0.135251 0.135241 0.135233 0.135229 0.135228 0.135227 0.135223 0.135215 0.135204 0.135193 0.135182 0.135171 0.135159 0.135151 0.135147 0.135145 0.135144 0.135140 0.135131 0.135120 0.135108 0.135096 0.135084 0.135072 0.135063 0.135059 0.135058 0.135057 0.135053 0.135043 0.135032 0.135019 0.135006 0.134994 0.134981 0.134971 0.134967 0.134965 0.134964 0.134960 0.134950 0.134937 0.134924 0.134912 0.134899 0.134886 0.134876 0.134872 0.134870 0.134869 0.134864 0.134854 0.134841 0.134828 0.134815 0.134802 0.134789 0.134779 0.134774 0.134772 0.134771 0.134766 0.134756 0.134743 0.134730 0.134717 0.134704 0.134690 0.134680 0.134676 0.134675 0.134673 0.134669 0.134661 0.134650 0.134647 0.134645 0.134643 0.134644 0.134644 0.134645 0.134645 0.134645 0.134645 0.134647 0.134648 0.134651 0.134653 0.134656 0.134660 0.134663 0.134664 0.134664 0.134665 0.134666 0.134669 0.134672 0.134677 0.134682 0.134687 0.134692 0.134696 0.134698 0.134699 0.134699 0.134701 0.134706 0.134712 0.134719 0.134726 0.134733 0.134739 0.134745 0.134747 0.134748 0.134749 0.134751 0.134757 0.134765 0.134773 0.134781 0.134789 0.134798 0.134805 0.134808 0.134809 0.134810 0.134813 0.134820 0.134830 0.134839 0.134849 0.134858 0.134869 0.134877 0.134881 0.134882 0.134884 0.134887 0.134896 0.134907 0.134919 0.134930 0.134942 0.134955 0.134964 0.134968 0.134970 0.134971 0.134976 0.134985 0.134998 0.135012 0.135026 0.135039 0.135054 0.135064 0.135070 0.135071 
0.131347 0.131346 0.131333 0.131295 0.131245 0.131188 0.131132 0.131075 0.131013 0.130967 0.130949 0.130947 0.130945 0.130928 0.130879 0.130813 0.130744 0.130675 0.130606 0.130534 0.130481 0.130462 0.130460 0.130457 0.130438 0.130384 0.130313 0.130270 0.130227 0.130185 0.130168 0.130156 0.130154 0.130153 0.130153 0.130150 0.130142 0.130132 0.130125 0.130117 0.130110 0.130106 0.130103 0.130103 0.130103 
