-1.202410 0.677812 9.225013
-1.214077 0.685598 9.231585
-1.225745 0.693384 9.238157
-1.696705 1.008077 9.506944
-2.173761 1.321890 9.730385
-2.699048 1.598102 9.571268
-3.265511 1.754843 9.377210
-1.232709 0.698031 9.242079
-1.695192 1.007069 9.506110
-1.698218 1.009084 9.507779
-2.172065 1.320838 9.730263
-2.175457 1.322942 9.730507
-2.697256 1.597460 9.571882
-2.700839 1.598745 9.570654
-3.263642 1.754469 9.377819
-1.257801 0.714776 9.256213
-1.669991 0.990288 9.492213
-1.723418 1.025866 9.521676
-2.143808 1.303309 9.728234
-2.203665 1.340472 9.730291
-2.667413 1.586752 9.582106
-2.730814 1.609008 9.560358
-3.232528 1.748278 9.387987
-1.312044 0.751035 9.287292
-1.372640 0.791584 9.322376
-1.433161 0.832106 9.357618
-1.493706 0.872637 9.392811
-1.554426 0.913229 9.427627
-1.615395 0.953907 9.461904
-1.777550 1.062086 9.552992
-1.837271 1.102320 9.589858
-1.896385 1.142333 9.627956
-1.955748 1.182432 9.665504
-2.017564 1.223394 9.697873
-2.083338 1.265427 9.718748
-2.264712 1.378507 9.723247
-2.331544 1.420641 9.706294
-2.397673 1.461182 9.683539
-2.464154 1.499102 9.657402
-2.532143 1.533492 9.630236
-2.602914 1.563023 9.604424
-2.795857 1.631186 9.537985
-2.868555 1.655685 9.512263
-2.941629 1.678827 9.486359
-3.015372 1.699850 9.460590
-3.089868 1.718479 9.435136
-3.165035 1.734871 9.410076
-4.744360 2.073574 8.887151
-6.112228 2.731259 8.564355
-6.869530 4.072267 8.173781
-7.692516 5.372210 7.773527
-8.696140 6.519191 7.327552
-9.914856 7.409907 6.838124
-11.310512 7.970005 6.330604
-12.797859 8.219503 5.832620
-3.267379 1.755216 9.376602
-4.742458 2.073187 8.887635
-4.746261 2.073960 8.886668
-6.110892 2.729834 8.564783
-6.113564 2.732684 8.563927
-6.868585 4.070571 8.174259
-6.870475 4.073964 8.173302
-7.691404 5.370632 7.774051
-7.693627 5.373788 7.773003
-8.694737 6.517896 7.328145
-8.697544 6.520486 7.326960
-9.913188 7.409005 6.838758
-9.916524 7.410810 6.837489
-11.308686 7.969495 6.331241
-11.312338 7.970515 6.329967
-12.795958 8.219387 5.833231
-3.298499 1.761431 9.366466
-4.710780 2.066747 8.895688
-4.778043 2.080235 8.878900
-6.088633 2.706095 8.571911
-6.134713 2.757254 8.556484
-6.852839 4.042314 8.182225
-6.886220 4.102220 8.165336
-7.672890 5.344348 7.782780
-7.712142 5.400071 7.764275
-8.671351 6.496322 7.338020
-8.720926 6.542064 7.317086
-9.885639 7.393526 6.849305
-9.944309 7.425846 6.826919
-11.278270 7.961000 6.341848
-11.342768 7.978960 6.319361
-12.764297 8.217448 5.843410
-3.441389 1.790657 9.319637
-3.666331 1.838703 9.242097
-3.890293 1.886888 9.161838
-4.114822 1.935814 9.083653
-4.339962 1.986505 9.008389
-4.565867 2.036588 8.935078
-4.924205 2.108708 8.842972
-5.153911 2.162685 8.786541
-5.379844 2.236606 8.737537
-5.606429 2.308371 8.689016
-5.799012 2.446149 8.642934
-5.977764 2.604882 8.601452
-6.219156 2.879200 8.518645
-6.335791 3.081823 8.453523
-6.447321 3.288062 8.390717
-6.557739 3.496342 8.332864
-6.668086 3.705005 8.276257
-6.781091 3.911975 8.218681
-6.960240 4.231098 8.128240
-7.079247 4.434185 8.068952
-7.200352 4.635845 8.009082
-7.326491 4.833981 7.947826
-7.453542 5.031452 7.886318
-7.587292 5.223859 7.823034
-7.799197 5.519370 7.723650
-7.944623 5.702061 7.657387
-8.090555 5.884314 7.590993
-8.244390 6.059154 7.522713
-8.402517 6.229787 7.453420
-8.564421 6.396426 7.383301
-8.828549 6.641156 7.271666
-9.004651 6.791319 7.198607
-9.186721 6.933690 7.124434
-9.372332 7.071055 7.049676
-9.564227 7.198934 6.973935
-9.759840 7.320755 6.897700
-10.072758 7.493645 6.778258
-10.279417 7.594774 6.700913
-10.489262 7.688937 6.623380
-10.703174 7.773364 6.545748
-10.919268 7.852081 6.468118
-11.138476 7.921718 6.390630
-11.483020 8.016630 6.270634
-11.707847 8.066281 6.193866
-11.933770 8.111268 6.117336
-12.161023 8.149561 6.041226
-12.389856 8.178878 5.965746
-12.618907 8.206638 5.890391
162 NaN NaN
-1.196576 0.673919 9.221727
-1.272300 0.724451 9.264380
-1.347659 0.774857 9.307824
-1.422850 0.825204 9.351625
-1.498076 0.875563 9.395351
-1.573539 0.926005 9.438573
-1.649425 0.976592 9.480871
-1.725474 1.027235 9.522810
-1.800744 1.077609 9.566435
-1.874279 1.127356 9.613589
-1.947568 1.177011 9.661220
-2.024321 1.227871 9.701411
-2.106515 1.280176 9.725557
-2.191688 1.333010 9.731673
-2.276529 1.385869 9.721883
-2.359127 1.438074 9.698477
-2.440936 1.487117 9.666773
-2.525003 1.530512 9.632840
-2.612918 1.567198 9.600775
-2.702975 1.599511 9.569923
-2.793460 1.630378 9.538833
-2.883787 1.660818 9.506873
-2.974701 1.689124 9.474630
-3.066900 1.713440 9.442802
-3.160258 1.733922 9.411640
-3.254146 1.752573 9.380911
-3.348059 1.771330 9.350325
-3.441766 1.790736 9.319513
-3.535180 1.810538 9.288067
-3.628237 1.830495 9.255679
-3.721040 1.850492 9.222592
-3.813756 1.870456 9.189240
-3.906530 1.890374 9.156024
-3.999429 1.910425 9.123240
-4.092497 1.930825 9.091158
-4.185723 1.951657 9.059821
-4.278999 1.972724 9.028793
-4.372217 1.993797 8.997594
-4.465522 2.014681 8.966528
-4.559373 2.035216 8.936916
-4.654163 2.055238 8.910080
-4.749759 2.074671 8.885779
-4.845708 2.093544 8.862445
-4.941613 2.112071 8.838654
-5.037179 2.131986 8.814634
-5.132054 2.155829 8.791506
-5.225792 2.185231 8.770212
-5.319012 2.217149 8.750257
-5.412916 2.247184 8.730622
-5.507705 2.274038 8.710601
-5.600958 2.305494 8.690277
-5.687981 2.351255 8.670214
-5.764735 2.413252 8.651387
-5.836143 2.481786 8.633776
-5.909339 2.548552 8.616816
-5.985813 2.611508 8.599644
-6.060511 2.676103 8.580916
-6.127634 2.747689 8.559421
-6.185680 2.826111 8.535336
-6.237495 2.908283 8.509501
-6.286081 2.992059 8.482526
-6.332990 3.076659 8.455155
-6.379168 3.161808 8.428244
-6.425383 3.247288 8.402467
-6.471553 3.333100 8.377739
-6.517374 3.419315 8.353770
-6.562746 3.505896 8.330271
-6.608097 3.592533 8.306940
-6.653936 3.678877 8.283476
-6.700457 3.764780 8.259741
-6.747355 3.850438 8.235856
-6.794298 3.936066 8.211957
-6.841323 4.021648 8.188051
-6.888839 4.106920 8.164011
-6.937225 4.191630 8.139721
-6.986341 4.275858 8.115218
-7.035722 4.359907 8.090637
-7.085009 4.444020 8.066081
-7.134548 4.527963 8.041456
-7.184969 4.611307 8.016587
-7.236660 4.693762 7.991369
-7.289111 4.775674 7.965942
-7.341603 4.857554 7.940502
-7.393866 4.939601 7.915123
-7.446673 5.021251 7.889598
-7.500926 5.101824 7.863689
-7.556751 5.181181 7.837366
-7.613190 5.260049 7.810880
-7.669267 5.339206 7.784487
-7.725141 5.418524 7.758147
-7.782028 5.497029 7.731547
-7.841011 5.573783 7.704416
-7.901629 5.649109 7.676876
-7.962560 5.724152 7.649257
-8.022794 5.799820 7.621808
-8.083122 5.875403 7.594338
-8.144995 5.949584 7.566495
-8.209274 6.021466 7.538080
-8.274947 6.091950 7.509340
-8.340656 6.162398 7.480591
-8.405828 6.233393 7.451966
-8.471557 6.303821 7.423218
-8.539104 6.372331 7.394067
-8.608700 6.438567 7.364472
-8.679294 6.503645 7.334667
-8.749856 6.568761 7.304869
-8.820419 6.633878 7.275075
-8.891917 6.697877 7.245095
-8.965164 6.759698 7.214774
-9.039912 6.819556 7.184171
-9.115398 6.878413 7.153435
-9.191049 6.937045 7.122674
-9.267158 6.995041 7.091838
-9.344288 7.051577 7.060833
-9.422774 7.106090 7.029609
-9.502318 7.158956 6.998227
-9.582527 7.210752 6.966754
-9.663211 7.261770 6.935221
-9.744532 7.311715 6.903610
-9.826678 7.360223 6.871896
-9.909713 7.407124 6.840080
-9.993562 7.452498 6.808183
-10.078145 7.496444 6.776223
-10.163373 7.539088 6.744215
-10.249153 7.580581 6.712168
-10.335416 7.621036 6.680088
-10.422249 7.660224 6.647977
-10.509808 7.697740 6.615839
-10.598168 7.733314 6.583687
-10.687117 7.767386 6.551532
-10.776384 7.800622 6.519377
-10.865840 7.833344 6.487224
-10.955729 7.864868 6.455081
-11.046327 7.894321 6.422972
-11.137657 7.921487 6.390916
-11.229380 7.947347 6.358898
-11.321169 7.972981 6.326887
-11.413019 7.998404 6.294882
-11.505263 8.022421 6.262930
-11.598174 8.043869 6.231088
-11.691613 8.063086 6.199360
-11.785228 8.081509 6.167676
-11.878752 8.100350 6.135968
-11.972334 8.118921 6.104276
-12.066294 8.135672 6.072692
-12.160788 8.149531 6.041304
-12.255575 8.161596 6.010048
-12.350376 8.173567 5.978800
-12.445058 8.186304 5.947493
-12.539832 8.198450 5.916232
-12.634929 8.208297 5.885155
-12.730355 8.215369 5.854323
-12.825902 8.221221 5.823605
-12.921405 8.227533 5.792843
-13.016850 8.234439 5.762026
-13.112379 8.240468 5.731291
-13.208097 8.244192 5.700783
-13.303952 8.245660 5.670512
-13.399863 8.245902 5.640376
-13.495780 8.245966 5.610260
-13.591661 8.246895 5.580047
-13.687438 8.249738 5.549630
