0.191696 0.191674 0.191380 0.190077 0.188012 0.186008 0.184004 0.182000 0.180086 0.178878 0.178619 0.178599 0.178580 0.178322 0.177180 0.175372 0.173707 0.172043 0.170379 0.168861 0.167902 0.167698 0.167683 0.167667 0.167464 0.166568 0.165148 0.163815 0.162481 0.161148 0.159880 0.159080 0.158906 0.158893 0.158880 0.158707 0.157930 0.156700 0.155508 0.154316 0.153123 0.151979 0.151256 0.151099 0.151088 0.151076 0.150920 0.150226 0.149125 0.148085 0.147044 0.146004 0.145035 0.144423 0.144293 0.144283 0.144273 0.144143 0.143567 0.142654 0.141804 0.140953 0.140103 0.139315 0.138818 0.138713 0.138705 0.138697 0.138591 0.138129 0.137396 0.136734 0.136071 0.135409 0.134815 0.134439 0.134359 0.134353 0.134347 0.134268 0.133919 0.133367 0.132850 0.132334 0.131817 0.131328 0.131019 0.130952 0.130947 0.130942 0.130875 0.130576 0.130102 0.129646 0.129190 0.128735 0.128299 0.128025 0.127965 0.127961 0.127956 0.127897 0.127634 0.127218 0.126825 0.126432 0.126039 0.125669 0.125435 0.125385 0.125381 0.125377 0.125327 0.125106 0.124755 0.124427 0.124100 0.123772 0.123466 0.123273 0.123231 0.123228 
0.191708 0.191734 0.191985 0.192681 0.193621 0.194489 0.195358 0.196226 0.197056 0.197672 0.197889 0.197911 0.197935 0.198159 0.198791 0.199643 0.200501 0.201360 0.202219 0.203110 0.203771 0.204006 0.204031 0.204057 0.204300 0.204995 0.205932 0.206912 0.207892 0.208871 0.209890 0.210645 0.210913 0.210941 0.210969 0.211242 0.212018 0.213066 0.214137 0.215208 0.216279 0.217363 0.218168 0.218452 0.218482 0.218512 0.218800 0.219606 0.220693 0.221770 0.222847 0.223924 0.224959 0.225727 0.225994 0.226022 0.226051 0.226318 0.227056 0.228051 0.228971 0.229891 0.230812 0.231636 0.232248 0.232453 0.232475 0.232496 0.232698 0.233200 0.233878 0.234395 0.234912 0.235429 0.235765 0.236014 0.236079 0.236085 0.236091 0.236149 0.236245 0.236374 0.236303 0.236231 0.236160 0.235922 0.235746 0.235658 0.235649 0.235639 0.235541 0.235227 0.234803 0.234202 0.233602 0.233002 0.232285 0.231753 0.231553 0.231532 0.231510 0.231304 0.230685 0.229850 0.228947 0.228044 0.227141 0.226159 0.225430 0.225166 0.225138 0.225110 0.224845 0.224082 0.223053 0.221975 0.220898 0.219820 0.218715 0.217896 0.217606 0.217575 
0.191705 0.191717 0.191900 0.191458 0.190759 0.189628 0.188498 0.187367 0.186537 0.186014 0.185889 0.185880 0.185871 0.185737 0.185079 0.184037 0.182496 0.180955 0.179414 0.177683 0.176591 0.176361 0.176345 0.176329 0.176100 0.175125 0.173580 0.172244 0.170908 0.169571 0.168158 0.167265 0.167053 0.167039 0.167024 0.166808 0.165696 0.163933 0.161457 0.158981 0.156506 0.152716 0.150325 0.149663 0.149617 0.149570 0.148899 0.145840 0.140993 0.137047 0.133102 0.129156 0.126900 0.125476 0.125231 0.125214 0.125197 0.124961 0.124067 0.122651 0.121772 0.120893 0.120013 0.119450 0.119095 0.119026 0.119021 0.119017 0.118951 0.118689 0.118274 0.117968 0.117663 0.117357 0.117122 0.116973 0.116943 0.116941 0.116939 0.116910 0.116785 0.116587 0.116422 0.116256 0.116091 0.115950 0.115861 0.115842 0.115841 0.115840 0.115821 0.115743 0.115618 0.115509 0.115401 0.115293 0.115199 0.115139 0.115127 0.115126 0.115125 0.115113 0.115060 0.114977 0.114905 0.114833 0.114760 0.114698 0.114659 0.114651 0.114650 0.114650 0.114642 0.114607 0.114552 0.114505 0.114459 0.114412 0.114373 0.114348 0.114343 0.114342 0.114342 0.114337 0.114316 0.114282 0.114254 0.114227 0.114199 0.114178 0.114164 0.114162 0.114162 
0.125380 0.125377 0.125361 0.125323 0.125271 0.125219 0.125166 0.125114 0.125067 0.125032 0.125020 0.125017 0.125015 0.125003 0.124973 0.124933 0.124895 0.124857 0.124818 0.124781 0.124753 0.124742 0.124740 0.124738 0.124727 0.124701 0.124667 0.124634 0.124601 0.124568 0.124537 0.124512 0.124503 0.124501 0.124499 0.124491 0.124469 0.124441 0.124414 0.124388 0.124361 0.124336 0.124317 0.124310 0.124309 0.124307 0.124301 0.124285 0.124263 0.124244 0.124224 0.124204 0.124186 0.124172 0.124167 0.124166 
0.134352 0.134345 0.134296 0.134168 0.133997 0.133823 0.133649 0.133475 0.133299 0.133167 0.133117 0.133110 0.133103 0.133053 0.132921 0.132746 0.132602 0.132458 0.132313 0.132178 0.132077 0.132041 0.132035 0.132030 0.131994 0.131902 0.131780 0.131671 0.131562 0.131453 0.131361 0.131292 0.131267 0.131263 0.131260 0.131235 0.131178 0.131102 0.131039 0.130976 0.130913 0.130861 0.130822 0.130811 0.130809 0.130807 0.130796 0.130765 0.130725 0.130694 0.130662 0.130631 0.130607 0.130589 0.130583 0.130582 
0.138703 0.138695 0.138667 0.138602 0.138517 0.138430 0.138343 0.138256 0.138167 0.138099 0.138070 0.138062 0.138054 0.138024 0.137956 0.137866 0.137799 0.137731 0.137664 0.137605 0.137560 0.137541 0.137535 0.137530 0.137511 0.137468 0.137411 0.137356 0.137301 0.137245 0.137192 0.137151 0.137134 0.137129 0.137124 0.137107 0.137067 0.137015 0.136964 0.136913 0.136862 0.136813 0.136775 0.136759 0.136755 0.136750 0.136734 0.136697 0.136649 0.136602 0.136555 0.136508 0.136462 0.136427 0.136413 0.136409 0.136405 0.136390 0.136357 0.136313 0.136270 0.136226 0.136183 0.136142 0.136111 0.136098 0.136094 0.136090 0.136077 0.136045 0.136004 0.135967 0.135929 0.135891 0.135853 0.135824 0.135812 0.135809 0.135805 0.135794 0.135768 0.135733 0.135698 0.135663 0.135628 0.135596 0.135572 0.135561 0.135558 0.135556 0.135545 0.135521 0.135488 0.135458 0.135427 0.135397 0.135367 0.135344 0.135334 0.135331 0.135329 0.135319 0.135297 0.135268 0.135240 0.135212 0.135184 0.135157 0.135136 0.135128 0.135125 
0.144281 0.144273 0.144243 0.144175 0.144084 0.143993 0.143901 0.143809 0.143715 0.143643 0.143612 0.143603 0.143594 0.143563 0.143491 0.143395 0.143296 0.143196 0.143097 0.142997 0.142921 0.142888 0.142878 0.142869 0.142836 0.142757 0.142654 0.142550 0.142445 0.142341 0.142234 0.142153 0.142118 0.142108 0.142098 0.142063 0.141981 0.141873 0.141764 0.141655 0.141545 0.141435 0.141352 0.141316 0.141306 0.141296 0.141260 0.141198 0.141116 0.141037 0.140958 0.140878 0.140804 0.140747 0.140723 0.140717 0.140710 0.140686 0.140631 0.140559 0.140491 0.140423 0.140355 0.140289 0.140239 0.140218 0.140212 0.140206 0.140184 0.140138 0.140078 0.140019 0.139959 0.139900 0.139845 0.139803 0.139786 0.139781 0.139776 0.139758 0.139718 0.139665 0.139615 0.139566 0.139516 0.139468 0.139432 0.139417 0.139412 0.139408 0.139392 0.139359 0.139315 0.139273 0.139231 0.139189 0.139150 0.139121 0.139109 0.139105 0.139102 0.139090 0.139062 0.139026 0.138991 0.138957 0.138923 0.138891 0.138867 0.138856 0.138853 0.138850 0.138840 0.138817 0.138787 0.138758 0.138730 0.138701 0.138673 0.138652 0.138644 0.138642 0.138639 0.138631 0.138612 0.138586 0.138561 0.138536 0.138511 0.138487 0.138469 0.138462 0.138459 0.138457 0.138449 0.138432 0.138408 0.138386 0.138364 0.138342 0.138319 0.138302 0.138295 0.138293 
0.151087 0.151083 0.151075 0.151056 0.151032 0.151007 0.150982 0.150957 0.150931 0.150912 0.150902 0.150898 0.150894 0.150884 0.150863 0.150834 0.150805 0.150776 0.150747 0.150717 0.150695 0.150683 0.150678 0.150673 0.150660 0.150633 0.150598 0.150563 0.150528 0.150492 0.150457 0.150430 0.150417 0.150412 0.150407 0.150393 0.150365 0.150327 0.150289 0.150252 0.150214 0.150177 0.150148 0.150134 0.150128 0.150122 0.150108 0.150076 0.150034 0.149990 0.149947 0.149904 0.149860 0.149826 0.149810 0.149803 0.149797 0.149780 0.149743 0.149695 0.149646 0.149596 0.149547 0.149497 0.149458 0.149439 0.149432 0.149425 0.149406 0.149364 0.149310 0.149255 0.149200 0.149144 0.149088 0.149045 0.149024 0.149016 0.149008 0.148987 0.148941 0.148881 0.148820 0.148758 0.148697 0.148635 0.148588 0.148565 0.148556 0.148547 0.148524 0.148474 0.148409 0.148343 0.148278 0.148212 0.148145 0.148095 0.148070 0.148060 0.148050 0.148026 0.147973 0.147903 0.147833 0.147763 0.147693 0.147622 0.147569 0.147542 0.147532 0.147522 0.147496 0.147441 0.147369 0.147318 0.147266 0.147215 0.147169 0.147134 0.147117 0.147110 0.147104 0.147087 0.147053 0.147009 0.146966 0.146923 0.146879 0.146837 0.146805 0.146789 0.146783 0.146777 0.146761 0.146730 0.146689 0.146650 0.146610 0.146571 0.146532 0.146502 0.146488 0.146482 0.146476 0.146462 0.146433 0.146395 0.146358 0.146321 0.146283 0.146247 0.146218 0.146204 0.146199 0.146194 0.146180 0.146152 0.146116 0.146081 0.146046 0.146011 0.145976 0.145949 0.145935 0.145930 0.145925 0.145912 0.145886 0.145851 0.145817 0.145784 0.145750 0.145716 0.145690 0.145678 0.145673 0.145668 0.145655 0.145630 0.145596 0.145564 0.145532 0.145500 0.145468 0.145443 0.145431 0.145426 0.145422 0.145410 0.145385 0.145353 0.145322 0.145292 0.145261 0.145230 0.145207 0.145195 0.145191 0.145186 0.145175 0.145151 0.145120 0.145090 0.145061 0.145031 0.145002 0.144979 0.144968 0.144963 0.144959 0.144948 0.144925 0.144895 0.144867 0.144838 0.144810 0.144781 0.144759 0.144748 0.144744 0.144740 0.144729 0.144707 0.144678 0.144650 0.144622 0.144594 0.144565 0.144543 0.144533 0.144529 0.144525 0.144514 0.144492 0.144463 0.144435 0.144407 0.144379 0.144351 0.144330 0.144319 0.144315 0.144311 0.144300 0.144279 0.144250 0.144222 0.144194 0.144166 0.144138 0.144117 0.144106 0.144102 0.144098 0.144087 0.144065 0.144037 0.144008 0.143980 0.143952 0.143923 0.143901 0.143890 0.143886 
0.158892 0.158886 0.158874 0.158851 0.158822 0.158791 0.158761 0.158730 0.158699 0.158674 0.158661 0.158654 0.158648 0.158635 0.158609 0.158577 0.158542 0.158507 0.158472 0.158436 0.158409 0.158393 0.158386 0.158379 0.158364 0.158335 0.158298 0.158260 0.158223 0.158185 0.158145 0.158115 0.158098 0.158090 0.158082 0.158066 0.158034 0.157994 0.157952 0.157911 0.157870 0.157828 0.157796 0.157778 0.157770 0.157762 0.157744 0.157710 0.157666 0.157622 0.157577 0.157532 0.157487 0.157452 0.157433 0.157425 0.157416 0.157397 0.157362 0.157316 0.157270 0.157223 0.157176 0.157129 0.157092 0.157072 0.157063 0.157054 0.157034 0.156997 0.156950 0.156903 0.156856 0.156808 0.156760 0.156722 0.156701 0.156692 0.156682 0.156661 0.156623 0.156573 0.156524 0.156474 0.156425 0.156377 0.156339 0.156318 0.156308 0.156298 0.156276 0.156237 0.156186 0.156135 0.156083 0.156031 0.155979 0.155939 0.155917 0.155907 0.155897 0.155875 0.155834 0.155782 0.155729 0.155675 0.155622 0.155567 0.155525 0.155502 0.155491 0.155480 0.155458 0.155415 0.155361 0.155305 0.155249 0.155193 0.155136 0.155092 0.155067 0.155056 0.155044 0.155020 0.154974 0.154916 0.154857 0.154798 0.154738 0.154679 0.154633 0.154608 0.154596 0.154585 0.154559 0.154513 0.154452 0.154389 0.154327 0.154265 0.154202 0.154154 0.154128 0.154115 0.154103 0.154077 0.154028 0.153965 0.153901 0.153837 0.153773 0.153707 0.153657 0.153630 0.153617 0.153604 0.153577 0.153526 0.153461 0.153395 0.153329 0.153264 0.153198 0.153147 0.153119 0.153106 0.153093 0.153065 0.153013 0.152946 0.152879 0.152811 0.152744 0.152677 0.152625 0.152597 0.152584 0.152571 0.152542 0.152490 0.152423 0.152363 0.152302 0.152242 0.152193 0.152156 0.152135 0.152126 0.152116 0.152096 0.152059 0.152012 0.151965 0.151919 0.151872 0.151828 0.151795 0.151777 0.151768 0.151760 0.151742 0.151708 0.151666 0.151624 0.151581 0.151539 0.151498 0.151467 0.151450 0.151442 0.151434 0.151418 0.151389 0.151351 0.151313 0.151276 0.151238 0.151201 0.151173 0.151157 0.151150 0.151143 0.151127 0.151099 0.151063 0.151028 0.150994 0.150960 0.150927 0.150901 0.150887 0.150881 0.150874 0.150860 0.150835 0.150801 0.150769 0.150736 0.150703 0.150673 0.150649 0.150636 0.150631 0.150625 0.150612 0.150589 0.150559 0.150529 0.150499 0.150469 0.150439 0.150416 0.150404 0.150398 0.150392 0.150380 0.150358 0.150331 0.150304 0.150276 0.150249 0.150221 0.150200 0.150188 0.150183 0.150178 0.150166 0.150145 0.150117 0.150091 0.150065 0.150039 0.150014 0.149994 0.149984 0.149979 0.149974 0.149963 0.149943 0.149918 0.149893 0.149867 0.149842 0.149818 0.149799 0.149789 0.149785 0.149780 0.149770 0.149752 0.149729 0.149706 0.149682 0.149659 0.149635 0.149617 0.149607 0.149602 0.149598 0.149588 0.149571 0.149549 0.149527 0.149505 0.149483 0.149462 0.149445 0.149436 0.149432 0.149427 0.149418 0.149401 0.149380 0.149359 0.149338 0.149316 0.149296 0.149281 0.149272 0.149268 0.149264 0.149256 0.149240 0.149219 0.149199 0.149178 0.149158 0.149138 0.149122 0.149114 0.149111 0.149107 0.149099 0.149084 0.149065 0.149046 0.149027 0.149008 0.148989 0.148974 0.148966 0.148962 0.148959 0.148950 0.148936 0.148917 0.148899 0.148881 0.148862 0.148844 0.148830 0.148822 0.148818 0.148815 0.148807 0.148793 0.148774 0.148756 0.148737 0.148719 0.148701 0.148688 0.148680 0.148677 0.148673 0.148666 0.148652 0.148634 0.148616 0.148598 0.148580 0.148561 0.148547 0.148540 0.148537 0.148533 0.148526 0.148513 0.148495 0.148478 0.148460 0.148443 0.148425 0.148411 0.148404 0.148400 
0.178596 0.178584 0.178534 0.178409 0.178242 0.178050 0.177858 0.177666 0.177449 0.177285 0.177213 0.177194 0.177175 0.177101 0.176918 0.176675 0.176411 0.176147 0.175883 0.175597 0.175381 0.175287 0.175263 0.175238 0.175143 0.174911 0.174603 0.174281 0.173960 0.173638 0.173312 0.173065 0.172963 0.172937 0.172911 0.172809 0.172568 0.172248 0.171941 0.171634 0.171327 0.171032 0.170809 0.170719 0.170696 0.170673 0.170583 0.170403 0.170165 0.169969 0.169774 0.169578 0.169383 0.169235 0.169173 0.169157 0.169141 0.169078 0.168930 0.168734 0.168536 0.168339 0.168142 0.167942 0.167791 0.167727 0.167711 0.167694 0.167631 0.167476 0.167270 0.167064 0.166857 0.166650 0.166437 0.166275 0.166207 0.166190 0.166172 0.166104 0.165938 0.165718 0.165488 0.165258 0.165028 0.164798 0.164623 0.164550 0.164531 0.164512 0.164438 0.164261 0.164026 0.163786 0.163545 0.163305 0.163056 0.162868 0.162790 0.162769 0.162749 0.162671 0.162480 0.162228 0.161988 0.161748 0.161509 0.161280 0.161108 0.161038 0.161020 0.161002 0.160932 0.160768 0.160552 0.160355 0.160159 0.159962 0.159777 0.159637 0.159580 0.159565 0.159552 0.159501 0.159383 0.159226 0.159080 0.158934 0.158788 0.158661 0.158564 0.158524 0.158513 0.158503 0.158463 0.158372 0.158252 0.158146 0.158040 0.157934 0.157837 0.157763 0.157735 0.157728 0.157721 0.157693 0.157626 0.157537 0.157455 0.157373 0.157291 0.157213 0.157154 0.157129 0.157123 0.157117 0.157092 0.157040 0.156972 0.156904 0.156835 0.156766 0.156704 0.156658 0.156638 0.156633 0.156627 0.156608 0.156560 0.156497 0.156440 0.156383 0.156326 0.156268 0.156225 0.156208 0.156204 0.156199 0.156182 0.156141 0.156087 0.156033 0.155980 0.155927 0.155874 0.155834 0.155817 0.155813 0.155809 0.155792 0.155753 0.155701 0.155649 0.155596 0.155544 0.155493 0.155455 0.155439 0.155435 
0.197906 0.197884 0.197832 0.197727 0.197591 0.197450 0.197308 0.197167 0.197021 0.196909 0.196850 0.196826 0.196801 0.196743 0.196624 0.196470 0.196310 0.196150 0.195990 0.195824 0.195697 0.195632 0.195604 0.195576 0.195510 0.195378 0.195206 0.195024 0.194842 0.194660 0.194473 0.194329 0.194255 0.194224 0.194192 0.194118 0.193970 0.193776 0.193575 0.193374 0.193173 0.192964 0.192804 0.192722 0.192687 0.192653 0.192570 0.192406 0.192193 0.191976 0.191759 0.191542 0.191317 0.191145 0.191056 0.191019 0.190981 0.190892 0.190716 0.190487 0.190254 0.190020 0.189787 0.189547 0.189362 0.189268 0.189228 0.189188 0.189092 0.188904 0.188659 0.188417 0.188174 0.187932 0.187688 0.187502 0.187405 0.187365 0.187322 0.187223 0.187028 0.186775 0.186528 0.186280 0.186033 0.185790 0.185604 0.185510 0.185470 0.185431 0.185338 0.185152 0.184909 0.184670 0.184430 0.184190 0.183956 0.183776 0.183686 0.183648 0.183610 0.183521 0.183349 0.183124 0.182899 0.182673 0.182448 0.182230 0.182063 0.181980 0.181945 0.181910 0.181827 0.181669 0.181462 0.181258 0.181054 0.180850 0.180667 0.180526 0.180469 0.180445 0.180421 0.180364 0.180252 0.180106 0.179960 0.179814 0.179668 0.179519 0.179405 0.179347 0.179323 0.179298 0.179240 0.179126 0.178978 0.178830 0.178682 0.178534 0.178384 0.178270 0.178210 0.178186 0.178161 0.178101 0.177986 0.177835 0.177685 0.177535 0.177385 0.177235 0.177121 0.177061 0.177036 0.177011 0.176950 0.176832 0.176678 0.176524 0.176369 0.176215 0.176061 0.175942 0.175882 0.175856 0.175831 0.175770 0.175649 0.175492 0.175330 0.175169 0.175008 0.174846 0.174721 0.174658 0.174631 0.174604 0.174540 0.174415 0.174252 0.174087 0.173921 0.173755 0.173589 0.173462 0.173397 0.173370 0.173342 0.173278 0.173150 0.172985 0.172818 0.172652 0.172486 0.172320 0.172192 0.172128 0.172101 0.172074 0.172010 0.171885 0.171722 0.171559 0.171397 0.171234 0.171075 0.170953 0.170892 0.170866 0.170840 0.170778 0.170659 0.170504 0.170352 0.170199 0.170047 0.169903 0.169792 0.169737 0.169714 0.169691 0.169636 0.169530 0.169392 0.169258 0.169123 0.168989 0.168858 0.168758 0.168711 0.168691 0.168672 0.168625 0.168535 0.168418 0.168304 0.168190 0.168075 0.167964 0.167879 0.167836 0.167818 0.167800 0.167757 0.167682 0.167584 0.167489 0.167395 0.167300 0.167207 0.167136 0.167100 0.167085 0.167070 0.167034 0.166966 0.166878 0.166800 0.166721 0.166643 0.166565 0.166505 0.166475 0.166462 0.166449 0.166419 0.166360 0.166282 0.166213 0.166143 0.166074 0.166007 0.165956 0.165930 0.165919 0.165909 0.165883 0.165832 0.165766 0.165704 0.165641 0.165578 0.165521 0.165478 0.165456 0.165446 0.165437 0.165415 0.165371 0.165314 0.165257 0.165200 0.165142 0.165090 0.165050 0.165030 0.165022 0.165013 0.164993 0.164954 0.164903 0.164852 0.164801 0.164750 0.164699 0.164660 0.164642 0.164635 0.164627 0.164610 0.164575 0.164529 0.164483 0.164437 0.164391 0.164344 0.164309 0.164291 0.164283 0.164275 0.164257 0.164225 0.164183 0.164141 0.164098 0.164056 0.164013 0.163980 0.163963 0.163956 0.163949 0.163932 0.163900 0.163858 0.163818 0.163778 0.163739 0.163698 0.163667 0.163652 0.163645 0.163638 0.163622 0.163591 0.163551 0.163512 0.163474 0.163436 0.163398 0.163369 0.163354 0.163347 0.163341 0.163326 0.163296 0.163258 0.163220 0.163181 0.163143 0.163107 0.163078 0.163064 0.163058 0.163052 0.163037 0.163008 0.162971 0.162933 0.162895 0.162857 0.162820 0.162792 0.162778 0.162772 0.162766 0.162751 0.162723 0.162686 0.162648 0.162611 0.162573 0.162535 0.162506 0.162491 0.162485 0.162479 0.162465 0.162436 0.162399 0.162362 0.162324 0.162286 0.162247 0.162218 0.162202 0.162196 
0.236050 0.235908 0.235310 0.233883 0.231992 0.230208 0.228424 0.226640 0.224954 0.223682 0.223175 0.223055 0.222935 0.222433 0.221240 0.219660 0.218182 0.216704 0.215226 0.213833 0.212782 0.212364 0.212265 0.212167 0.211753 0.210773 0.209474 0.208269 0.207063 0.205858 0.204742 0.203899 0.203561 0.203481 0.203401 0.203066 0.202270 0.201215 0.200252 0.199289 0.198326 0.197424 0.196744 0.196473 0.196408 0.196345 0.196077 0.195442 0.194601 0.193822 0.193042 0.192262 0.191527 0.190972 0.190750 0.190698 0.190646 0.190425 0.189898 0.189199 0.188542 0.187885 0.187228 0.186604 0.186133 0.185949 0.185905 0.185862 0.185679 0.185237 0.184652 0.184102 0.183552 0.183002 0.182483 0.182091 0.181933 0.181895 0.181860 0.181714 0.181376 0.180928 0.180554 0.180180 0.179806 0.179481 0.179235 0.179137 0.179114 0.179091 0.178993 0.178788 0.178516 0.178266 0.178016 0.177766 0.177551 0.177389 0.177322 0.177306 0.177291 0.177224 0.177078 0.176885 0.176704 0.176524 0.176344 0.176189 0.176072 0.176024 0.176013 0.176002 0.175954 0.175842 0.175693 0.175561 0.175428 0.175295 0.175172 0.175080 0.175043 0.175034 0.175025 0.174988 0.174896 0.174775 0.174671 0.174567 0.174463 0.174362 0.174286 0.174257 0.174251 0.174244 0.174215 0.174144 0.174050 0.173962 0.173875 0.173788 0.173701 0.173635 0.173611 0.173605 
