-2.275400 -1.385604 6.281091
-1.795039 -1.388119 7.340038
-1.262654 -1.431228 8.375306
-0.972177 -1.295014 9.488300
-0.876157 -1.027803 10.618641
-0.728181 -0.793728 11.750746
-0.584297 -0.557020 12.882793
-2.274776 -1.385456 6.282986
-1.795990 -1.388015 7.338282
-1.794088 -1.388223 7.341794
-1.263464 -1.431237 8.373477
-1.261845 -1.431219 8.377135
-0.972392 -1.295441 9.486358
-0.971962 -1.294587 9.490242
-0.876358 -1.028239 10.616700
-0.875955 -1.027368 10.620583
-0.728457 -0.794115 11.748803
-0.727905 -0.793341 11.752689
-0.584493 -0.557459 12.880851
-2.267037 -1.383620 6.306488
-1.807789 -1.386723 7.316493
-1.782289 -1.389515 7.363583
-1.273505 -1.431345 8.350789
-1.252184 -1.430817 8.399984
-0.975054 -1.300737 9.462265
-0.969300 -1.289290 9.514335
-0.878860 -1.033638 10.592612
-0.873370 -1.022022 10.644673
-0.731881 -0.798921 11.724704
-0.724482 -0.788535 11.776788
-0.586932 -0.562898 12.856766
-2.231039 -1.376082 6.412355
-2.167745 -1.368788 6.578053
-2.097611 -1.366685 6.741140
-2.022172 -1.368711 6.901845
-1.942851 -1.373819 7.060604
-1.860703 -1.381203 7.217835
-1.728774 -1.395527 7.461887
-1.643820 -1.405201 7.617498
-1.559454 -1.414392 7.773458
-1.476553 -1.422387 7.930264
-1.396246 -1.428284 8.088505
-1.319585 -1.431276 8.248617
-1.209579 -1.428211 8.503617
-1.147524 -1.419989 8.669744
-1.094162 -1.405391 8.838428
-1.050420 -1.383980 9.009118
-1.015750 -1.356343 9.181005
-0.988705 -1.323623 9.353392
-0.958330 -1.264689 9.623136
-0.943718 -1.223970 9.795335
-0.931006 -1.182061 9.967403
-0.918774 -1.139851 10.139433
-0.905389 -1.098361 10.311551
-0.889816 -1.058248 10.483810
-0.861233 -0.998164 10.753518
-0.840699 -0.961209 10.925965
-0.818672 -0.925215 11.098432
-0.795577 -0.889913 11.270902
-0.771707 -0.855113 11.443368
-0.747357 -0.820625 11.615831
-0.709066 -0.766792 11.885662
-0.684965 -0.732142 12.058127
-0.661510 -0.697072 12.230596
-0.639021 -0.661377 12.403065
-0.617883 -0.624811 12.575522
-0.598323 -0.587232 12.747946
72 NaN NaN
-2.275556 -1.385641 6.280618
-2.243847 -1.378117 6.376907
-2.209353 -1.372637 6.472375
-2.172367 -1.369017 6.566995
-2.133172 -1.367074 6.660773
-2.092038 -1.366624 6.753736
-2.049220 -1.367487 6.845934
-2.004958 -1.369490 6.937429
-1.959477 -1.372466 7.028299
-1.912989 -1.376251 7.118628
-1.865695 -1.380689 7.208507
-1.817785 -1.385628 7.298034
-1.769442 -1.390922 7.387308
-1.720844 -1.396425 7.476431
-1.672164 -1.401995 7.565505
-1.623576 -1.407490 7.654633
-1.575251 -1.412769 7.743917
-1.527367 -1.417687 7.833459
-1.480105 -1.422100 7.923357
-1.433651 -1.425857 8.013704
-1.388202 -1.428806 8.104591
-1.343966 -1.430789 8.196100
-1.301160 -1.431643 8.288303
-1.260018 -1.431199 8.381263
-1.220783 -1.429286 8.475025
-1.183715 -1.425728 8.569616
-1.149084 -1.420349 8.665039
-1.117168 -1.412976 8.761272
-1.088250 -1.403442 8.858259
-1.062589 -1.391605 8.955906
-1.040145 -1.377541 9.054049
-1.020629 -1.361486 9.152514
-1.003736 -1.343679 9.251164
-0.989151 -1.324353 9.349896
-0.976559 -1.303732 9.448642
-0.965651 -1.282030 9.547357
-0.956119 -1.259452 9.646018
-0.947665 -1.236193 9.744620
-0.939996 -1.212442 9.843169
-0.932824 -1.188379 9.941680
-0.925863 -1.164185 10.040174
-0.918831 -1.140035 10.138674
-0.911443 -1.116107 10.237202
-0.903417 -1.092580 10.335776
-0.894604 -1.069547 10.434399
-0.885045 -1.046986 10.533063
-0.874794 -1.024864 10.631756
-0.863909 -1.003147 10.730471
-0.852445 -0.981800 10.829202
-0.840459 -0.960788 10.927942
-0.828010 -0.940074 11.026689
-0.815157 -0.919622 11.125438
-0.801957 -0.899394 11.224187
-0.788470 -0.879352 11.322936
-0.774756 -0.859458 11.421683
-0.760874 -0.839672 11.520429
-0.746884 -0.819958 11.619173
-0.732845 -0.800274 11.717917
-0.718818 -0.780584 11.816661
-0.704862 -0.760847 11.915406
-0.691037 -0.741024 12.014152
-0.677403 -0.721078 12.112900
-0.664019 -0.700969 12.211649
-0.650944 -0.680660 12.310399
-0.638239 -0.660112 12.409147
-0.625960 -0.639288 12.507891
-0.614167 -0.618153 12.606629
-0.602918 -0.596668 12.705354
-0.592269 -0.574800 12.804062
-0.582276 -0.552514 12.902745
-0.572996 -0.529777 13.001394
-0.564483 -0.506555 13.100000
-2.275291 -1.385642 6.280193
-2.030768 -1.387059 5.903849
-1.778153 -1.388913 5.532849
-1.531257 -1.390457 5.158043
-1.303850 -1.390965 4.771187
-1.111635 -1.389674 4.365847
-0.975364 -1.385689 3.938708
-0.904263 -1.378779 3.495916
-0.872942 -1.370189 3.048310
-0.850013 -1.361255 2.600150
-0.813702 -1.352870 2.152879
-0.765741 -1.344969 1.706684
-0.712435 -1.337294 1.261085
-0.660061 -1.329579 0.815377
-0.615050 -1.321556 0.368881
-2.274232 -1.385647 6.278497
-2.031888 -1.387051 5.905506
-2.029648 -1.387067 5.902192
-1.779278 -1.388905 5.534503
-1.777029 -1.388921 5.531195
-1.532318 -1.390452 5.159738
-1.530196 -1.390462 5.156347
-1.304799 -1.390966 4.772947
-1.302900 -1.390964 4.769426
-1.112407 -1.389684 4.367692
-1.110863 -1.389664 4.364002
-0.975804 -1.385714 3.940659
-0.974925 -1.385663 3.936757
-0.904475 -1.378815 3.497905
-0.904051 -1.378744 3.493928
-0.873037 -1.370229 3.050307
-0.872847 -1.370149 3.046313
-0.850141 -1.361294 2.602145
-0.849886 -1.361216 2.598154
-0.813890 -1.352906 2.154870
-0.813514 -1.352833 2.150888
-0.765973 -1.345004 1.708670
-0.765509 -1.344935 1.704698
-0.712675 -1.337328 1.263070
-0.712195 -1.337260 1.259100
-0.660286 -1.329614 0.817365
-0.659843 -1.329544 0.813390
-0.615224 -1.321592 0.370873
-2.265121 -1.385687 6.263897
-2.041522 -1.386983 5.919766
-2.020014 -1.387135 5.887932
-1.788952 -1.388834 5.548736
-1.767355 -1.388992 5.516962
-1.541475 -1.390410 5.174309
-1.521068 -1.390503 5.141759
-1.312971 -1.390975 4.788093
-1.294729 -1.390955 4.754281
-1.119048 -1.389769 4.383569
-1.104554 -1.389562 4.347993
-0.979588 -1.385933 3.957446
-0.971141 -1.385444 3.919970
-0.906295 -1.379118 3.515015
-0.902231 -1.378440 3.476818
-0.873902 -1.370573 3.067492
-0.872032 -1.369804 3.029126
-0.851242 -1.361627 2.619316
-0.848785 -1.360882 2.580983
-0.815510 -1.353218 2.172000
-0.811872 -1.352522 2.133760
-0.767967 -1.345300 1.725761
-0.763515 -1.344639 1.687607
-0.714743 -1.337621 1.280153
-0.710127 -1.336967 1.242018
-0.662224 -1.329913 0.834462
-0.657969 -1.329243 0.796285
-0.616720 -1.321910 0.388014
-2.240084 -1.385797 6.223775
-2.206345 -1.385960 6.170374
-2.172229 -1.386144 6.117213
-2.137673 -1.386351 6.064337
-2.102938 -1.386567 6.011578
-2.067872 -1.386802 5.959038
-1.993527 -1.387323 5.848752
-1.957978 -1.387584 5.796538
-1.922391 -1.387847 5.744350
-1.886757 -1.388112 5.692194
-1.851134 -1.388377 5.640030
-1.815537 -1.388641 5.587849
-1.740911 -1.389178 5.477753
-1.705629 -1.389424 5.425359
-1.670628 -1.389655 5.372775
-1.635805 -1.389876 5.320075
-1.601203 -1.390086 5.267228
-1.567010 -1.390273 5.214116
-1.495982 -1.390616 5.101667
-1.462961 -1.390741 5.047820
-1.430214 -1.390851 4.993803
-1.398230 -1.390921 4.939332
-1.366662 -1.390969 4.884621
-1.335611 -1.390991 4.829613
-1.272642 -1.390911 4.712465
-1.243838 -1.390817 4.656247
-1.215949 -1.390677 4.599574
-1.188575 -1.390510 4.542648
-1.162571 -1.390276 4.485082
-1.137298 -1.390005 4.427198
-1.087641 -1.389262 4.303829
-1.065664 -1.388831 4.244617
-1.045027 -1.388337 4.184918
-1.025858 -1.387775 4.124741
-1.007505 -1.387174 4.064304
-0.991272 -1.386476 4.003263
-0.960744 -1.384843 3.873838
-0.948878 -1.383950 3.811804
-0.937756 -1.383025 3.749637
-0.927950 -1.382043 3.687243
-0.919314 -1.381011 3.624682
-0.911298 -1.379953 3.562035
-0.897900 -1.377578 3.429733
-0.892419 -1.376413 3.366814
-0.887845 -1.375211 3.303825
-0.883563 -1.373996 3.240815
-0.879782 -1.372762 3.177773
-0.876354 -1.371512 3.114712
-0.869791 -1.368855 2.981895
-0.866830 -1.367587 2.918810
-0.863895 -1.366318 2.855724
-0.860807 -1.365055 2.792645
-0.857584 -1.363797 2.729572
-0.854099 -1.362550 2.666514
-0.845662 -1.359970 2.533802
-0.841081 -1.358768 2.470813
-0.836219 -1.357578 2.407845
-0.831139 -1.356396 2.344893
-0.825630 -1.355233 2.281977
-0.819962 -1.354076 2.219075
-0.807147 -1.351676 2.086711
-0.800775 -1.350548 2.023876
-0.794142 -1.349432 1.961068
-0.787354 -1.348321 1.898276
-0.780447 -1.347216 1.835498
-0.773323 -1.346120 1.772743
-0.758035 -1.343824 1.640639
-0.750605 -1.342741 1.577920
-0.743132 -1.341659 1.515205
-0.735586 -1.340581 1.452500
-0.728014 -1.339504 1.389797
-0.720424 -1.338427 1.327096
-0.704467 -1.336160 1.195071
-0.696928 -1.335081 1.132365
-0.689466 -1.333999 1.069649
-0.682049 -1.332915 1.006928
-0.674747 -1.331827 0.944194
-0.667551 -1.330734 0.881447
-0.652817 -1.328414 0.749281
-0.646057 -1.327303 0.686486
-0.639455 -1.326185 0.623675
-0.633119 -1.325056 0.560836
-0.626914 -1.323921 0.497985
-0.621008 -1.322774 0.435105
66 NaN NaN
-2.275556 -1.385641 6.280618
-2.221358 -1.385880 6.193768
-2.166067 -1.386177 6.107610
-2.109905 -1.386521 6.022017
-2.053075 -1.386901 5.936866
-1.995764 -1.387307 5.852038
-1.938150 -1.387730 5.767416
-1.880398 -1.388160 5.682887
-1.822670 -1.388589 5.598343
-1.765121 -1.389008 5.513676
-1.707908 -1.389409 5.428782
-1.651183 -1.389783 5.343561
-1.595104 -1.390123 5.257914
-1.539830 -1.390419 5.171744
-1.485528 -1.390663 5.084960
-1.432368 -1.390846 4.997471
-1.380531 -1.390960 4.909192
-1.330208 -1.390994 4.820041
-1.281599 -1.390940 4.729945
-1.234917 -1.390788 4.638836
-1.190386 -1.390527 4.546658
-1.148244 -1.390146 4.453364
-1.108739 -1.389636 4.358924
-1.072131 -1.388986 4.263325
-1.038687 -1.388186 4.166576
-1.008677 -1.387225 4.068710
-0.982369 -1.386094 3.969787
-0.959863 -1.384792 3.869931
-0.940855 -1.383336 3.769352
-0.924963 -1.381744 3.668235
-0.911798 -1.380036 3.566728
-0.900968 -1.378230 3.464946
-0.892085 -1.376342 3.362976
-0.884767 -1.374390 3.260883
-0.878639 -1.372388 3.158713
-0.873331 -1.370354 3.056496
-0.868479 -1.368300 2.954258
-0.863723 -1.366243 2.852014
-0.858701 -1.364197 2.749784
-0.853053 -1.362176 2.647586
-0.846508 -1.360192 2.545440
-0.839085 -1.358244 2.443354
-0.830852 -1.356329 2.341330
-0.821881 -1.354445 2.239367
-0.812244 -1.352589 2.137464
-0.802015 -1.350757 2.035619
-0.791266 -1.348947 1.933826
-0.780071 -1.347156 1.832082
-0.768505 -1.345380 1.730378
-0.756643 -1.343617 1.628709
-0.744559 -1.341863 1.527065
-0.732329 -1.340116 1.425439
-0.720027 -1.338371 1.323822
-0.707730 -1.336626 1.222204
-0.695511 -1.334878 1.120576
-0.683446 -1.333124 1.018930
-0.671611 -1.331359 0.917258
-0.660080 -1.329582 0.815550
-0.648928 -1.327789 0.713801
-0.638229 -1.325977 0.612004
-0.628057 -1.324143 0.510152
-0.618485 -1.322284 0.408244
-0.609587 -1.320397 0.306274
-0.601434 -1.318479 0.204243
-0.594098 -1.316527 0.102151
-0.587648 -1.314539 0.000000
-2.275909 -1.385990 6.280678
-3.349300 -1.581625 5.955403
-4.035460 -0.845119 5.228939
-4.532860 0.096212 4.588722
-5.056017 1.085168 4.040432
-5.578219 2.071253 3.485720
-6.106701 3.060599 2.943238
-6.668854 4.036256 2.409859
-7.291404 4.956762 1.846982
-8.001500 5.781646 1.242078
-8.814473 6.462670 0.590480
-9.724332 6.956924 -0.099846
-10.704054 7.248378 -0.810025
-11.721473 7.352205 -1.520149
-12.752351 7.299614 -2.217029
-2.277323 -1.387383 6.280920
-3.347873 -1.582462 5.956527
-3.350726 -1.580787 5.954279
-4.034599 -0.846468 5.230138
-4.036320 -0.843770 5.227739
-4.532004 0.094606 4.589552
-4.533717 0.097817 4.587892
-5.055178 1.083585 4.041321
-5.056855 1.086752 4.039543
-5.577383 2.069672 3.486615
-5.579055 2.072834 3.484825
-6.105830 3.059004 2.944071
-6.107573 3.062195 2.942405
-6.667913 4.034723 2.410733
-6.669795 4.037789 2.408984
-7.290336 4.955354 1.847919
-7.292472 4.958170 1.846045
-8.000280 5.780424 1.243087
-8.002721 5.782868 1.241069
-8.813091 6.461709 0.591559
-8.815856 6.463632 0.589401
-9.722805 6.956300 -0.098716
-9.725859 6.957548 -0.100977
-10.702444 7.248064 -0.808880
-10.705663 7.248692 -0.811169
-11.719823 7.352182 -1.519018
-11.723122 7.352228 -1.521279
-12.750694 7.299807 -2.215925
-2.296004 -1.405794 6.284114
-3.329027 -1.593524 5.971379
-3.369573 -1.569725 5.939428
-4.023229 -0.864295 5.245984
-4.047466 -0.825821 5.211878
-4.520693 0.073425 4.600576
-4.545035 0.119023 4.576923
-5.044098 1.062669 4.053062
-5.067935 1.107668 4.027802
-5.566337 2.048786 3.498442
-5.590098 2.093707 3.472970
-6.094314 3.037923 2.955076
-6.119088 3.083276 2.931401
-6.655480 4.014474 2.422289
-6.682230 4.058036 2.397427
-7.276331 4.936645 1.860244
-7.306576 4.976773 1.833672
-7.984154 5.764283 1.256412
-8.018846 5.799008 1.227744
-8.794825 6.449007 0.605812
-8.834229 6.476127 0.575105
-9.702632 6.948039 -0.083785
-9.746037 6.965794 -0.115909
-10.681175 7.243919 -0.793761
-10.726932 7.252837 -0.826289
-11.698051 7.351640 -1.504059
-11.744914 7.352529 -1.536217
-12.728809 7.302352 -2.201342
-2.384712 -1.485280 6.294741
-2.545271 -1.584910 6.288555
-2.720401 -1.648647 6.255597
-2.899275 -1.676842 6.199888
-3.073582 -1.671574 6.125460
-3.235999 -1.633728 6.035180
-3.449484 -1.513321 5.870320
-3.560929 -1.408566 5.757946
-3.664239 -1.295271 5.645923
-3.768494 -1.180567 5.536218
-3.872187 -1.064405 5.427526
-3.968845 -0.943819 5.317260
-4.094680 -0.742459 5.139841
-4.165072 -0.606248 5.027820
-4.235681 -0.465374 4.921877
-4.310704 -0.320597 4.824578
-4.389116 -0.172733 4.734883
-4.469483 -0.022386 4.651242
-4.596347 0.215265 4.527183
-4.677165 0.367393 4.447261
-4.756923 0.518316 4.364066
-4.835896 0.668244 4.278349
-4.914711 0.817881 4.191978
-4.993900 0.967829 4.106496
-5.118248 1.202596 3.974633
-5.197980 1.352962 3.890397
-5.277651 1.503247 3.805959
-5.357250 1.653497 3.721392
-5.436771 1.803760 3.636773
-5.516218 1.954004 3.552051
-5.640192 2.188361 3.419112
-5.719589 2.338180 3.333595
-5.799258 2.488161 3.248617
-5.879479 2.638726 3.165209
-5.960492 2.790171 3.084192
-6.042310 2.942086 3.004881
-6.171479 3.178720 2.881250
-6.255078 3.329168 2.801005
-6.339525 3.478756 2.720044
-6.424975 3.627530 2.638635
-6.511555 3.775442 2.556853
-6.599362 3.922348 2.474566
-6.739190 4.149393 2.344713
-6.830584 4.293052 2.260619
-6.923576 4.435214 2.175739
-7.018303 4.575722 2.090026
-7.114822 4.714467 2.003447
-7.213230 4.851297 1.915952
-7.370909 5.060800 1.777368
-7.474559 5.191996 1.687338
-7.580396 5.320703 1.596264
-7.688486 5.446748 1.504123
-7.798890 5.569957 1.410893
-7.911660 5.690149 1.316562
-8.092672 5.871311 1.166987
-8.211737 5.982828 1.069782
-8.333252 6.090684 0.971489
-8.457205 6.194718 0.872127
-8.583580 6.294762 0.771725
-8.712338 6.390667 0.670321
-8.918092 6.531830 0.510043
-9.052706 6.616524 0.406284
-9.189464 6.696662 0.301713
-9.328274 6.772165 0.196394
-9.469084 6.842842 0.090383
-9.611737 6.908754 -0.016228
-9.837914 7.002206 -0.183745
-9.984734 7.055916 -0.291537
-10.132960 7.104910 -0.399649
-10.282474 7.149227 -0.508007
-10.433155 7.188932 -0.616537
-10.584888 7.224101 -0.725167
-10.823719 7.270091 -0.894872
-10.977652 7.294035 -1.003466
-11.132279 7.313684 -1.111938
-11.287490 7.329239 -1.220238
-11.443197 7.340843 -1.328320
-11.599321 7.348616 -1.436143
-11.843819 7.353375 -1.603939
-12.000693 7.351875 -1.710942
-12.157750 7.346976 -1.817575
-12.314937 7.338797 -1.923815
-12.472205 7.327452 -2.029645
-12.629511 7.313023 -2.135043
176 NaN NaN
-2.275556 -1.385641 6.280618
-2.346621 -1.455678 6.292767
-2.425918 -1.517304 6.296877
-2.511790 -1.569399 6.292898
-2.602377 -1.611364 6.281149
-2.695879 -1.643061 6.262192
-2.790702 -1.664662 6.236689
-2.885486 -1.676489 6.205295
-2.979070 -1.678886 6.168600
-3.070413 -1.672139 6.127109
-3.158513 -1.656440 6.081256
-3.242318 -1.631876 6.031422
-3.320647 -1.598443 5.977982
-3.392367 -1.556346 5.921465
-3.457702 -1.507131 5.862961
-3.517852 -1.452717 5.803483
-3.574367 -1.394792 5.743740
-3.628929 -1.334792 5.684220
-3.683254 -1.273990 5.625300
-3.738546 -1.213282 5.567188
-3.794239 -1.152445 5.509595
-3.849379 -1.091005 5.452112
-3.902979 -1.028492 5.394333
-3.954003 -0.964469 5.335884
-4.001367 -0.898572 5.276452
-4.044652 -0.830707 5.216128
-4.084743 -0.761095 5.155581
-4.122693 -0.689921 5.095470
-4.159561 -0.617311 5.036410
-4.196397 -0.543374 4.979001
-4.234214 -0.468228 4.923849
-4.273390 -0.392005 4.871175
-4.313719 -0.314827 4.820813
-4.354981 -0.236796 4.772564
-4.396965 -0.158000 4.726218
-4.439467 -0.078513 4.681554
-4.482298 0.001576 4.638301
-4.525321 0.082086 4.596028
-4.568412 0.162826 4.554267
-4.611449 0.243614 4.512542
-4.654312 0.324267 4.470381
-4.696880 0.404598 4.427316
-4.739105 0.484519 4.383166
-4.781069 0.564114 4.338183
-4.822863 0.643487 4.292653
-4.864586 0.722745 4.246859
-4.906334 0.802001 4.201082
-4.948199 0.881357 4.155588
-4.990201 0.960838 4.110440
-5.032309 1.040412 4.065556
-5.074493 1.120048 4.020852
-5.116721 1.199715 3.976245
-5.158963 1.279381 3.931650
-5.201193 1.359022 3.886999
-5.243405 1.438639 3.842288
-5.285598 1.518239 3.797529
-5.327770 1.597831 3.752736
-5.369920 1.677422 3.707921
-5.412048 1.757021 3.663097
-5.454154 1.836624 3.618263
-5.496240 1.916218 3.573391
-5.538308 1.995784 3.528454
-5.580362 2.075305 3.483426
-5.622403 2.154765 3.438277
-5.664437 2.234151 3.392991
-5.706492 2.313499 3.347658
-5.748612 2.392874 3.302432
-5.790838 2.472340 3.257468
-5.833214 2.551962 3.212921
-5.875780 2.631801 3.168949
-5.918574 2.711909 3.125692
-5.961602 2.792244 3.083093
-6.004851 2.872706 3.040961
-6.048310 2.953198 2.999102
-6.091966 3.033624 2.957321
-6.135809 3.113886 2.915421
-6.179833 3.193904 2.873247
-6.224056 3.273667 2.830797
-6.268501 3.353182 2.788114
-6.313191 3.432457 2.745242
-6.358150 3.511500 2.702223
-6.403401 3.590319 2.659098
-6.448965 3.668907 2.615882
-6.494855 3.747243 2.572553
-6.541086 3.825304 2.529090
-6.587671 3.903066 2.485471
-6.634624 3.980506 2.441674
-6.681959 4.057600 2.397678
-6.729692 4.134330 2.353476
-6.777838 4.210679 2.309062
-6.826415 4.286628 2.264433
-6.875438 4.362160 2.219585
-6.924923 4.437257 2.174513
-6.974885 4.511899 2.129213
-7.025339 4.586065 2.083676
-7.076299 4.659732 2.037894
-7.127780 4.732878 1.991860
-7.179796 4.805479 1.945567
-7.232360 4.877513 1.899007
-7.285486 4.948956 1.852174
-7.339186 5.019784 1.805063
-7.393472 5.089973 1.757669
-7.448358 5.159498 1.709987
-7.503855 5.228334 1.662013
-7.559973 5.296454 1.613743
-7.616723 5.363835 1.565173
-7.674114 5.430449 1.516301
-7.732154 5.496271 1.467122
-7.790853 5.561272 1.417635
-7.850218 5.625426 1.367838
-7.910255 5.688706 1.317729
-7.970968 5.751085 1.267308
-8.032363 5.812538 1.216574
-8.094444 5.873037 1.165530
-8.157212 5.932555 1.114174
-8.220671 5.991065 1.062509
-8.284820 6.048541 1.010537
-8.349657 6.104960 0.958262
-8.415181 6.160296 0.905687
-8.481388 6.214526 0.852815
-8.548277 6.267622 0.799653
-8.615842 6.319563 0.746204
-8.684074 6.370330 0.692476
-8.752967 6.419902 0.638475
-8.822510 6.468259 0.584208
-8.892697 6.515382 0.529684
-8.963517 6.561250 0.474910
-9.034957 6.605851 0.419894
-9.107004 6.649172 0.364648
-9.179644 6.691201 0.309180
-9.252863 6.731925 0.253502
-9.326648 6.771331 0.197621
-9.400982 6.809412 0.141551
-9.475848 6.846162 0.085301
-9.551230 6.881579 0.028884
-9.627109 6.915659 -0.027689
-9.703469 6.948398 -0.084407
-9.780293 6.979793 -0.141259
-9.857561 7.009848 -0.198231
-9.935256 7.038566 -0.255313
-10.013359 7.065953 -0.312493
-10.091852 7.092014 -0.369759
-10.170716 7.116753 -0.427100
-10.249934 7.140178 -0.484505
-10.329489 7.162300 -0.541963
-10.409361 7.183130 -0.599463
-10.489534 7.202679 -0.656993
-10.569991 7.220959 -0.714545
-10.650715 7.237983 -0.772107
-10.731690 7.253764 -0.829671
-10.812901 7.268318 -0.887228
-10.894331 7.281661 -0.944767
-10.975965 7.293808 -1.002281
-11.057791 7.304777 -1.059762
-11.139792 7.314582 -1.117201
-11.221957 7.323242 -1.174592
-11.304271 7.330774 -1.231927
-11.386723 7.337197 -1.289199
-11.469300 7.342528 -1.346403
-11.551992 7.346786 -1.403532
-11.634786 7.349988 -1.460580
-11.717672 7.352153 -1.517544
-11.800641 7.353299 -1.574417
-11.883683 7.353445 -1.631195
-11.966788 7.352608 -1.687875
-12.049948 7.350808 -1.744451
-12.133154 7.348062 -1.800922
-12.216399 7.344387 -1.857282
-12.299674 7.339801 -1.913530
-12.382974 7.334320 -1.969663
-12.466291 7.327964 -2.025678
-12.549618 7.320748 -2.081572
-12.632950 7.312690 -2.137345
-12.716281 7.303808 -2.192994
-12.799606 7.294119 -2.248517
-12.882919 7.283639 -2.303914
-1.262324 -1.430884 8.375458
-1.106683 -1.262430 8.449021
-0.964322 -1.082937 8.523234
-0.840146 -0.890593 8.597720
-0.741439 -0.683871 8.671602
-0.680791 -0.462282 8.742776
-0.669108 -0.231345 8.807802
-0.714028 -0.001887 8.862370
-0.812368 0.213501 8.903615
-0.953465 0.406401 8.931136
-1.122170 0.577243 8.947740
-1.309109 0.728758 8.955838
-1.261004 -1.429511 8.376067
-1.107915 -1.263881 8.448407
-1.105452 -1.260979 8.449635
-0.965437 -1.084478 8.522616
-0.963207 -1.081397 8.523852
-0.841105 -0.892236 8.597102
-0.839188 -0.888950 8.598338
-0.742183 -0.685624 8.670992
-0.740786 -0.682081 8.672206
-0.681065 -0.464180 8.742210
-0.680517 -0.460383 8.743342
-0.668973 -0.233276 8.807299
-0.669244 -0.229414 8.808304
-0.713463 -0.003761 8.861960
-0.714592 -0.000013 8.862781
-0.811429 0.211762 8.903308
-0.813344 0.215220 8.903910
-0.952138 0.404914 8.930966
-0.954791 0.407889 8.931306
-1.120681 0.575911 8.947642
-1.123659 0.578575 8.947839
-1.307509 0.727559 8.955795
-1.254446 -1.422692 8.379090
-1.114033 -1.271086 8.445356
-1.099334 -1.253774 8.452686
-0.970976 -1.092129 8.519547
-0.957668 -1.073745 8.526922
-0.845864 -0.900395 8.594033
-0.834429 -0.880791 8.601408
-0.745876 -0.694332 8.667963
-0.737763 -0.673103 8.675190
-0.682427 -0.473608 8.739398
-0.679156 -0.450956 8.746154
-0.668301 -0.242866 8.804805
-0.669916 -0.219824 8.810799
-0.710659 -0.013068 8.859921
-0.717397 0.009294 8.864820
-0.806770 0.203125 8.901781
-0.818760 0.223446 8.905191
-0.945552 0.397529 8.930123
-0.961377 0.415274 8.932149
-1.113289 0.569297 8.947152
-1.131051 0.585190 8.948329
-1.299561 0.721607 8.955584
-1.237865 -1.405450 8.386736
-1.215837 -1.382544 8.396892
-1.193810 -1.359638 8.407048
-1.172412 -1.336162 8.417248
-1.151075 -1.312632 8.427452
-1.129738 -1.289101 8.437656
-1.083866 -1.235556 8.460399
-1.063317 -1.211353 8.470647
-1.043405 -1.186639 8.480920
-1.023759 -1.161712 8.491204
-1.004112 -1.136786 8.501488
-0.984980 -1.111477 8.511786
-0.943664 -1.054398 8.534683
-0.925665 -1.028280 8.544999
-0.908269 -1.001749 8.555321
-0.890874 -0.975217 8.565643
-0.873883 -0.948433 8.575962
-0.857897 -0.921025 8.586272
-0.822883 -0.859890 8.609156
-0.808545 -0.831569 8.619422
-0.794208 -0.803247 8.629689
-0.780029 -0.774849 8.639948
-0.767622 -0.745599 8.650125
-0.755215 -0.716349 8.660302
-0.730120 -0.650403 8.682735
-0.719967 -0.620245 8.692759
-0.709814 -0.590087 8.702784
-0.701951 -0.559199 8.712600
-0.694407 -0.528209 8.722387
-0.686862 -0.497219 8.732175
-0.675713 -0.427118 8.753264
-0.671140 -0.395448 8.762709
-0.668791 -0.363484 8.771839
-0.667516 -0.331377 8.780817
-0.666241 -0.299271 8.789795
-0.666600 -0.267114 8.798497
-0.671617 -0.195576 8.817106
-0.675583 -0.163494 8.825147
-0.681465 -0.131559 8.832807
-0.687347 -0.099625 8.840467
-0.694148 -0.067865 8.847917
-0.703568 -0.036601 8.854766
-0.725372 0.032557 8.869744
-0.738086 0.062815 8.875734
-0.750799 0.093073 8.881724
-0.763680 0.123261 8.887665
-0.779333 0.152274 8.892793
-0.794987 0.181286 8.897921
-0.832454 0.244246 8.908428
-0.850648 0.271879 8.912729
-0.868841 0.299512 8.917030
-0.888863 0.325931 8.920675
-0.909202 0.352141 8.924207
-0.929540 0.378351 8.927739
-0.978032 0.433949 8.934282
-1.000158 0.458758 8.937114
-1.023244 0.482700 8.939540
-1.046850 0.506172 8.941745
-1.070457 0.529644 8.943951
-1.094597 0.552571 8.945912
-1.149742 0.601915 8.949568
-1.175025 0.623622 8.950995
-1.200875 0.644683 8.952144
-1.226724 0.665744 8.953294
-1.252768 0.686560 8.954342
-1.279465 0.706556 8.955051
27 NaN NaN
-1.262654 -1.431228 8.375306
-1.191873 -1.357624 8.407941
-1.123312 -1.282015 8.440729
-1.057283 -1.204246 8.473656
-0.994155 -1.124153 8.506700
-0.934377 -1.041567 8.539830
-0.878483 -0.956320 8.572995
-0.827119 -0.868258 8.606122
-0.781054 -0.777265 8.639108
-0.741194 -0.683293 8.671803
-0.708576 -0.586409 8.704006
-0.684340 -0.486860 8.735446
-0.669651 -0.385135 8.765784
-0.665556 -0.282012 8.794622
-0.672810 -0.178549 8.821536
-0.691701 -0.075986 8.846138
-0.721956 0.024426 8.868135
-0.762791 0.121613 8.887374
-0.813072 0.214806 8.903846
-0.871515 0.303574 8.917662
-0.936853 0.387776 8.929009
-1.007938 0.467481 8.938110
-1.083783 0.542895 8.945196
-1.163569 0.614287 8.950485
-1.246624 0.681958 8.954179
-1.332406 0.746207 8.956456
-1.420475 0.807319 8.957472
-1.794602 -1.387877 7.340051
-1.639404 -1.300549 7.344784
-1.486975 -1.208541 7.350400
-1.338057 -1.111014 7.357069
-1.194279 -1.006180 7.365161
-1.056813 -0.893372 7.374846
-0.928365 -0.770578 7.386588
-0.814326 -0.634698 7.401174
-0.720423 -0.484790 7.419074
-0.658421 -0.319710 7.441132
-0.642836 -0.145094 7.467296
-0.675106 0.026869 7.495761
-0.751172 0.184917 7.524552
-0.856498 0.325493 7.552294
-0.979871 0.451052 7.578733
-1.116041 0.563061 7.603798
-1.260265 0.664774 7.627724
-1.792853 -1.386909 7.340102
-1.641136 -1.301548 7.344728
-1.637673 -1.299550 7.344841
-1.488663 -1.209612 7.350329
-1.485287 -1.207470 7.350470
-1.339717 -1.112127 7.356990
-1.336397 -1.109902 7.357147
-1.195868 -1.007391 7.365063
-1.192691 -1.004968 7.365259
-1.058295 -0.894709 7.374723
-1.055331 -0.892034 7.374969
-0.929774 -0.771991 7.386449
-0.926956 -0.769165 7.386727
-0.815520 -0.636292 7.400995
-0.813131 -0.633104 7.401354
-0.721254 -0.486594 7.418842
-0.719591 -0.482986 7.419307
-0.658991 -0.321609 7.440870
-0.657852 -0.317811 7.441394
-0.642742 -0.147068 7.466985
-0.642930 -0.143121 7.467607
-0.674371 0.025038 7.495435
-0.675841 0.028700 7.496086
-0.750195 0.183202 7.524231
-0.752150 0.186632 7.524873
-0.855191 0.324009 7.551990
-0.857804 0.326976 7.552598
-0.978372 0.449759 7.578447
-0.981369 0.452346 7.579018
-1.114477 0.561846 7.603521
-1.117605 0.564277 7.604075
-1.258606 0.663687 7.627462
-1.786087 -1.383165 7.340298
-1.647833 -1.305412 7.344509
-1.630975 -1.295686 7.345060
-1.495190 -1.213753 7.350058
-1.478759 -1.203329 7.350741
-1.346138 -1.116430 7.356688
-1.330054 -1.105489 7.357471
-1.202011 -1.012076 7.364686
-1.186547 -1.000283 7.365636
-1.064028 -0.899880 7.374246
-1.049598 -0.886863 7.375445
-0.935223 -0.777455 7.385912
-0.921508 -0.763701 7.387265
-0.820140 -0.642457 7.400302
-0.808511 -0.626939 7.402047
-0.724471 -0.493571 7.417943
-0.716375 -0.476008 7.420205
-0.661195 -0.328954 7.439857
-0.655648 -0.310466 7.442406
-0.642379 -0.154700 7.465782
-0.643294 -0.135488 7.468810
-0.671527 0.017955 7.494177
-0.678685 0.035783 7.497344
-0.746415 0.176569 7.522989
-0.755930 0.193266 7.526114
-0.850138 0.318272 7.550815
-0.862858 0.332713 7.553773
-0.972576 0.444756 7.577344
-0.987165 0.457348 7.580121
-1.108428 0.557146 7.602450
-1.123655 0.568977 7.605145
-1.252192 0.659485 7.626448
-1.769976 -1.374249 7.340767
-1.748662 -1.362453 7.341386
-1.727348 -1.350658 7.342005
-1.706034 -1.338862 7.342625
-1.684880 -1.326786 7.343297
-1.663781 -1.314613 7.343987
-1.615027 -1.286485 7.345582
-1.594083 -1.274053 7.346321
-1.573232 -1.261465 7.347089
-1.552381 -1.248878 7.347857
-1.531530 -1.236290 7.348626
-1.510734 -1.223614 7.349411
-1.463216 -1.193468 7.351388
-1.442652 -1.180422 7.352244
-1.422112 -1.167340 7.353106
-1.401884 -1.153785 7.354060
-1.381656 -1.140230 7.355013
-1.361428 -1.126675 7.355967
-1.315065 -1.094814 7.358275
-1.295235 -1.080691 7.359339
-1.275405 -1.066569 7.360403
-1.255575 -1.052446 7.361467
-1.235993 -1.037992 7.362597
-1.216639 -1.023233 7.363786
-1.171919 -0.989127 7.366535
-1.152797 -0.974080 7.367783
-1.134023 -0.958602 7.369116
-1.115249 -0.943124 7.370450
-1.096475 -0.927646 7.371784
-1.077702 -0.912168 7.373118
-1.035947 -0.874549 7.376579
-1.017888 -0.858257 7.378079
-0.999828 -0.841966 7.379580
-0.982527 -0.824893 7.381244
-0.965362 -0.807680 7.382938
-0.948197 -0.790466 7.384631
-0.909362 -0.749931 7.388710
-0.893336 -0.731675 7.390630
-0.877310 -0.713418 7.392550
-0.861284 -0.695162 7.394469
-0.845695 -0.676560 7.396468
-0.831141 -0.657138 7.398651
-0.797510 -0.612258 7.403698
-0.783296 -0.592612 7.405935
-0.770662 -0.571923 7.408424
-0.758028 -0.551235 7.410913
-0.745394 -0.530547 7.413401
-0.732760 -0.509859 7.415890
-0.708717 -0.459394 7.422345
-0.698585 -0.437413 7.425175
-0.688453 -0.415433 7.428006
-0.680330 -0.392723 7.431064
-0.673387 -0.369584 7.434254
-0.666443 -0.346444 7.437445
-0.652376 -0.292579 7.444992
-0.649281 -0.268667 7.448520
-0.646187 -0.244755 7.452049
-0.643092 -0.220843 7.455577
-0.640368 -0.196919 7.459129
-0.641513 -0.172875 7.462918
-0.644159 -0.117314 7.471674
-0.645305 -0.093269 7.475463
-0.650496 -0.069797 7.479393
-0.655802 -0.046341 7.483327
-0.661108 -0.022886 7.487261
-0.666415 0.000570 7.491195
-0.685456 0.052649 7.500340
-0.694414 0.074961 7.504304
-0.703372 0.097274 7.508268
-0.713596 0.118979 7.512209
-0.725505 0.139876 7.516121
-0.737413 0.160773 7.520032
-0.765640 0.208608 7.529041
-0.779828 0.228050 7.532856
-0.794015 0.247491 7.536672
-0.808203 0.266933 7.540487
-0.822390 0.286374 7.544302
-0.838104 0.304610 7.548017
-0.874891 0.346375 7.556571
-0.890811 0.364449 7.560272
-0.907736 0.381586 7.563886
-0.924976 0.398430 7.567472
-0.942216 0.415274 7.571057
-0.959456 0.432119 7.574643
-1.000966 0.469260 7.582748
-1.019225 0.485019 7.586224
-1.037484 0.500778 7.589699
-1.055910 0.516337 7.593153
-1.074967 0.531145 7.596527
-1.094024 0.545953 7.599900
-1.138117 0.580095 7.607687
-1.157809 0.594068 7.610967
-1.177501 0.608041 7.614247
-1.197194 0.622015 7.617527
-1.216886 0.635988 7.620808
-1.236918 0.649478 7.624032
29 NaN NaN
-1.795039 -1.388119 7.340038
-1.700586 -1.335848 7.342783
-1.607088 -1.281904 7.345841
-1.514687 -1.226122 7.349247
-1.423560 -1.168310 7.353038
-1.333922 -1.108243 7.357264
-1.246048 -1.045661 7.361979
-1.160288 -0.980256 7.367250
-1.077097 -0.911670 7.373161
-0.997073 -0.839481 7.379808
-0.921017 -0.763209 7.387314
-0.850013 -0.682322 7.395820
-0.785536 -0.596279 7.405494
-0.729573 -0.504641 7.416518
-0.684704 -0.407301 7.429053
-0.653965 -0.304858 7.443180
-0.640268 -0.199019 7.458798
-0.645336 -0.092604 7.475568
-0.668824 0.011221 7.492981
-0.708486 0.110012 7.510531
-0.761227 0.202560 7.527854
-0.824073 0.288680 7.544755
-0.894602 0.368753 7.561154
-0.970987 0.443385 7.577042
-1.051891 0.513213 7.592442
-1.136333 0.578829 7.607390
-1.223595 0.640749 7.621925
-1.313138 0.699415 7.636086
-1.404556 0.755204 7.649907
-2.030324 -1.386859 5.903964
-1.737424 -1.248072 5.982307
-1.455700 -1.091190 6.067024
-1.192289 -0.909532 6.160233
-0.962223 -0.692859 6.264862
-0.799105 -0.429253 6.383068
-0.760016 -0.126083 6.507460
-0.864373 0.168224 6.617143
-1.060907 0.422253 6.703530
-1.303808 0.639889 6.771743
-2.028550 -1.386058 5.904422
-1.739144 -1.248967 5.981815
-1.735704 -1.247178 5.982799
-1.457335 -1.092211 6.066488
-1.454065 -1.090170 6.067559
-1.193779 -0.910726 6.159639
-1.190799 -0.908337 6.160827
-0.963440 -0.694297 6.264192
-0.961005 -0.691421 6.265533
-0.799778 -0.430983 6.382324
-0.798433 -0.427523 6.383813
-0.759823 -0.127936 6.506734
-0.760210 -0.124230 6.508187
-0.863445 0.166556 6.616547
-0.865301 0.169893 6.617738
-1.059585 0.420827 6.703062
-1.062229 0.423679 6.703998
-1.302283 0.638651 6.771366
-2.016863 -1.380786 5.907442
-1.750510 -1.254794 5.978598
-1.724378 -1.241285 5.986039
-1.468101 -1.098931 6.062960
-1.443299 -1.083450 6.071087
-1.203594 -0.918592 6.155727
-1.180984 -0.900471 6.164739
-0.971461 -0.703768 6.259777
-0.952985 -0.681951 6.269948
-0.804205 -0.442378 6.377418
-0.794005 -0.416128 6.388719
-0.758550 -0.140142 6.501947
-0.761482 -0.112024 6.512974
-0.857333 0.155567 6.612624
-0.871412 0.180882 6.621662
-1.050875 0.411438 6.699982
-1.070939 0.433068 6.707079
-1.292239 0.630498 6.768884
-1.985818 -1.366780 5.915464
-1.944442 -1.348114 5.926155
-1.903354 -1.328926 5.937032
-1.862349 -1.309592 5.947962
-1.821543 -1.289912 5.959014
-1.780959 -1.269848 5.970203
-1.694292 -1.225632 5.994645
-1.654200 -1.204758 6.006120
-1.614661 -1.183017 6.017899
-1.575122 -1.161275 6.029678
-1.536045 -1.138847 6.041696
-1.497160 -1.116134 6.053813
-1.414702 -1.065599 6.080457
-1.376811 -1.041514 6.093046
-1.339613 -1.016520 6.105945
-1.302415 -0.991526 6.118844
-1.266254 -0.965270 6.132167
-1.230160 -0.938931 6.145518
-1.154912 -0.879577 6.175131
-1.120958 -0.850921 6.189243
-1.087871 -0.821379 6.203643
-1.055140 -0.791513 6.218144
-1.024128 -0.760078 6.233139
-0.993117 -0.728643 6.248135
-0.931681 -0.656794 6.281675
-0.905647 -0.621655 6.297765
-0.880574 -0.585863 6.314043
-0.857201 -0.549124 6.330567
-0.836323 -0.510996 6.347453
-0.815967 -0.472646 6.364388
-0.782244 -0.385861 6.401749
-0.772435 -0.343824 6.419339
-0.762955 -0.301693 6.436940
-0.757915 -0.258900 6.454461
-0.755344 -0.215741 6.471936
-0.755169 -0.172563 6.489233
-0.766094 -0.079765 6.525527
-0.777231 -0.037431 6.541606
-0.788369 0.004904 6.557684
-0.804578 0.045879 6.572824
-0.821472 0.086670 6.587837
-0.841099 0.126376 6.602203
-0.889250 0.209240 6.631624
-0.914684 0.246171 6.644428
-0.940470 0.282879 6.657114
-0.968914 0.317898 6.668918
-0.997359 0.352917 6.680722
-1.027741 0.386496 6.691799
-1.095327 0.456950 6.714740
-1.128073 0.488577 6.724851
-1.161360 0.519694 6.734716
-1.195652 0.549865 6.744125
-1.230000 0.579978 6.753506
-1.265559 0.608842 6.762292
30 NaN NaN
-2.030768 -1.387059 5.903849
-1.935340 -1.344008 5.928506
-1.840767 -1.299416 5.953714
-1.747169 -1.253142 5.979519
-1.654688 -1.205027 6.005975
-1.563500 -1.154884 6.033141
-1.473820 -1.102501 6.061086
-1.385916 -1.047631 6.089889
-1.300129 -0.989990 6.119637
-1.216890 -0.929247 6.150427
-1.136756 -0.865026 6.182368
-1.060456 -0.796902 6.215573
-0.988945 -0.724415 6.250152
-0.923476 -0.647104 6.286192
-0.865668 -0.564586 6.323720
-0.817540 -0.476696 6.362644
-0.781413 -0.383721 6.402670
-0.759567 -0.286636 6.443231
-0.753643 -0.187192 6.483496
-0.764027 -0.087623 6.522543
-0.789693 0.009938 6.559596
-0.828633 0.103960 6.594201
-0.878514 0.193652 6.626220
-0.937157 0.278801 6.655740
-1.002747 0.359550 6.682958
-1.073850 0.436207 6.708109
-1.149365 0.509141 6.731426
-1.228450 0.578720 6.753122
-1.310457 0.645286 6.773386
-1.394887 0.709145 6.792377
-1.777731 -1.388646 5.532845
-1.626668 -1.291434 5.531910
-1.478895 -1.189309 5.532582
-1.335411 -1.081268 5.535240
-1.198231 -0.965454 5.540608
-1.068990 -0.841077 5.549112
-0.951781 -0.705665 5.561930
-0.853673 -0.556682 5.580706
-0.782783 -0.394227 5.606647
-0.755704 -0.220810 5.641699
-0.780402 -0.049170 5.684194
-0.850261 0.109054 5.730501
-0.955689 0.246391 5.777480
-1.080886 0.366390 5.823540
-1.218966 0.472105 5.868326
-1.366201 0.565381 5.911690
-1.776041 -1.387576 5.532831
-1.628337 -1.292536 5.531914
-1.624999 -1.290332 5.531906
-1.480511 -1.190487 5.532561
-1.477278 -1.188131 5.532603
-1.336994 -1.082490 5.535204
-1.333829 -1.080046 5.535276
-1.199724 -0.966783 5.540534
-1.196738 -0.964125 5.540682
-1.070345 -0.842543 5.548986
-1.067635 -0.839612 5.549237
-0.953038 -0.707212 5.561771
-0.950524 -0.704117 5.562089
-0.854634 -0.558419 5.580459
-0.852712 -0.554945 5.580952
-0.783242 -0.396139 5.606284
-0.782325 -0.392314 5.607009
-0.755825 -0.222761 5.641277
-0.755583 -0.218859 5.642121
-0.779815 -0.051015 5.683688
-0.780989 -0.047326 5.684699
-0.849158 0.107470 5.729976
-0.851363 0.110638 5.731025
-0.954416 0.244938 5.776959
-0.956961 0.247843 5.778001
-1.079392 0.365160 5.823036
-1.082380 0.367620 5.824044
-1.217399 0.470965 5.867831
-1.220534 0.473245 5.868820
-1.364533 0.564387 5.911213
-1.769460 -1.383412 5.532774
-1.634836 -1.296827 5.531930
-1.618500 -1.286041 5.531890
-1.486805 -1.195073 5.532479
-1.470984 -1.183545 5.532685
-1.343156 -1.087250 5.535063
-1.327693 -1.075254 5.535429
-1.205537 -0.971957 5.540247
-1.190925 -0.958951 5.540969
-1.075622 -0.848249 5.548497
-1.062357 -0.833906 5.549726
-0.957933 -0.713238 5.561152
-0.945629 -0.698092 5.562708
-0.858376 -0.565181 5.579499
-0.848970 -0.548184 5.581912
-0.785027 -0.403587 5.604873
-0.780540 -0.384866 5.608420
-0.756296 -0.230359 5.639633
-0.755113 -0.211261 5.643765
-0.777531 -0.058195 5.681721
-0.783273 -0.040146 5.686666
-0.845406 0.100976 5.727941
-0.855657 0.116806 5.733068
-0.949461 0.239283 5.774932
-0.961916 0.253499 5.780028
-1.073573 0.360371 5.821073
-1.088199 0.372409 5.826007
-1.211297 0.466527 5.865904
-1.226805 0.477451 5.870720
-1.358035 0.560517 5.909355
-1.753761 -1.373477 5.532639
-1.732989 -1.360331 5.532460
-1.712216 -1.347185 5.532282
-1.691444 -1.334040 5.532103
-1.670856 -1.320608 5.532017
-1.650341 -1.307064 5.531967
-1.602995 -1.275805 5.531853
-1.582649 -1.262010 5.531885
-1.562432 -1.248024 5.531980
-1.542215 -1.234038 5.532075
-1.521999 -1.220053 5.532171
-1.501820 -1.206013 5.532284
-1.455969 -1.172605 5.532881
-1.436102 -1.158129 5.533140
-1.416235 -1.143653 5.533399
-1.396765 -1.128652 5.533836
-1.377312 -1.113628 5.534281
-1.357859 -1.098604 5.534726
-1.313366 -1.063434 5.535927
-1.294410 -1.047795 5.536587
-1.275455 -1.032156 5.537246
-1.256499 -1.016518 5.537906
-1.237756 -1.000635 5.538652
-1.219406 -0.984301 5.539560
-1.177056 -0.946607 5.541656
-1.158857 -0.930115 5.542622
-1.141256 -0.912995 5.543822
-1.123655 -0.895875 5.545021
-1.106054 -0.878755 5.546220
-1.088453 -0.861635 5.547419
-1.049767 -0.820292 5.550893
-1.033109 -0.802280 5.552436
-1.016451 -0.784267 5.553980
-1.000512 -0.765655 5.555767
-0.985061 -0.746634 5.557721
-0.969610 -0.727613 5.559675
-0.934654 -0.683216 5.564404
-0.920774 -0.663073 5.566849
-0.906895 -0.642931 5.569295
-0.893015 -0.622789 5.571740
-0.879136 -0.602646 5.574185
-0.867304 -0.581313 5.577209
-0.840042 -0.532051 5.584202
-0.828230 -0.510706 5.587232
-0.818703 -0.488359 5.590834
-0.809604 -0.465826 5.594544
-0.800504 -0.443292 5.598253
-0.791405 -0.420758 5.601962
-0.776282 -0.367097 5.611787
-0.770648 -0.343587 5.616242
-0.765014 -0.320076 5.620697
-0.760389 -0.296451 5.625330
-0.758903 -0.272468 5.630520
-0.757418 -0.248485 5.635710
-0.754434 -0.193163 5.647749
-0.757416 -0.169462 5.653552
-0.760397 -0.145760 5.659355
-0.763379 -0.122059 5.665158
-0.766360 -0.098357 5.670961
-0.772082 -0.075326 5.677028
-0.788722 -0.023015 5.691360
-0.795933 -0.000348 5.697570
-0.804938 0.021553 5.703879
-0.815712 0.042700 5.710286
-0.826487 0.063847 5.716692
-0.837262 0.084993 5.723099
-0.865901 0.131520 5.737942
-0.879454 0.150989 5.744391
-0.893008 0.170458 5.750840
-0.906562 0.189926 5.757289
-0.921999 0.207937 5.763694
-0.937640 0.225790 5.770095
-0.973737 0.266991 5.784865
-0.990552 0.283745 5.791195
-1.007750 0.300140 5.797502
-1.024947 0.316535 5.803809
-1.042145 0.332930 5.810116
-1.059691 0.348945 5.816390
-1.102082 0.383835 5.830689
-1.120450 0.398953 5.836885
-1.138950 0.413907 5.843064
-1.158213 0.427917 5.849145
-1.177476 0.441928 5.855227
-1.196739 0.455938 5.861308
-1.241889 0.487314 5.875232
-1.261848 0.500365 5.881202
-1.281807 0.513417 5.887173
-1.301766 0.526468 5.893143
-1.322023 0.539067 5.899056
-1.342534 0.551284 5.904922
26 NaN NaN
-1.778153 -1.388913 5.532849
-1.685556 -1.330313 5.532052
-1.594105 -1.269935 5.531831
-1.503985 -1.207591 5.532255
-1.415423 -1.143061 5.533409
-1.328708 -1.076092 5.535394
-1.244212 -1.006381 5.538333
-1.162416 -0.933576 5.542380
-1.083962 -0.857266 5.547725
-1.009713 -0.776982 5.554604
-0.940852 -0.692211 5.563312
-0.879001 -0.602450 5.574209
-0.826371 -0.507347 5.587709
-0.785838 -0.406974 5.604231
-0.760750 -0.302284 5.624068
-0.754138 -0.195519 5.647172
-0.767410 -0.090011 5.673005
-0.799515 0.010910 5.700654
-0.847505 0.105095 5.729189
-0.907889 0.191833 5.757921
-0.977587 0.271386 5.786441
-1.054232 0.344452 5.814549
-1.136100 0.411833 5.842164
-1.221959 0.474282 5.869271
-1.310925 0.532457 5.895882
-1.402351 0.586912 5.922028
-1.111357 -1.389269 4.365942
-1.027701 -1.264870 4.394968
-0.949828 -1.136999 4.424939
-0.879807 -1.004953 4.456060
-0.819710 -0.868414 4.488443
-0.770790 -0.727771 4.522015
-0.739164 -0.582648 4.556967
-0.725792 -0.435009 4.592837
-0.735928 -0.287320 4.629107
-0.773117 -0.143892 4.664783
-0.834211 -0.008463 4.698899
-0.920254 0.113486 4.730133
-1.023104 0.222495 4.758481
-1.139100 0.318313 4.783822
-1.265056 0.401565 4.806255
-1.397209 0.475273 4.826459
-1.110246 -1.387650 4.366319
-1.028757 -1.266523 4.394581
-1.026645 -1.263216 4.395355
-0.950820 -1.138689 4.424542
-0.948836 -1.135308 4.425335
-0.880637 -1.006724 4.455641
-0.878977 -1.003182 4.456479
-0.820437 -0.870226 4.488012
-0.818983 -0.866601 4.488874
-0.771394 -0.729626 4.521571
-0.770186 -0.725917 4.522458
-0.739450 -0.584572 4.556502
-0.738879 -0.580724 4.557433
-0.725877 -0.436950 4.592364
-0.725707 -0.433068 4.593310
-0.735541 -0.289225 4.628635
-0.736315 -0.285416 4.629579
-0.772480 -0.145731 4.664323
-0.773754 -0.142053 4.665243
-0.833336 -0.010206 4.698459
-0.835087 -0.006720 4.699340
-0.918985 0.111989 4.729746
-0.921523 0.114983 4.730520
-1.021688 0.221128 4.758123
-1.024519 0.223862 4.758838
-1.137478 0.317184 4.783519
-1.140723 0.319443 4.784125
-1.263362 0.400538 4.805976
-1.266749 0.402592 4.806534
-1.395460 0.474338 4.826201
-1.106442 -1.382107 4.367611
-1.032372 -1.272183 4.393257
-1.023030 -1.257556 4.396679
-0.954217 -1.144475 4.423184
-0.945440 -1.129523 4.426694
-0.883479 -1.012783 4.454206
-0.876135 -0.997123 4.457913
-0.822925 -0.876430 4.486537
-0.816496 -0.860397 4.490350
-0.773461 -0.735972 4.520054
-0.768588 -0.719446 4.524013
-0.740427 -0.591157 4.554908
-0.737901 -0.574139 4.559026
-0.726168 -0.443595 4.590744
-0.725416 -0.426423 4.594929
-0.734217 -0.295743 4.627020
-0.737639 -0.278897 4.631194
-0.770300 -0.152026 4.662748
-0.775934 -0.135758 4.666818
-0.830339 -0.016173 4.696951
-0.838495 -0.000980 4.700799
-0.914643 0.106866 4.728422
-0.925866 0.120106 4.731844
-1.016845 0.216448 4.756899
-1.029362 0.228542 4.760062
-1.131926 0.313317 4.782482
-1.146275 0.323310 4.785162
-1.257566 0.397024 4.805022
-1.272545 0.406106 4.807489
-1.389472 0.471140 4.825320
-1.097714 -1.369391 4.370575
-1.086199 -1.352612 4.374486
-1.074684 -1.335834 4.378397
-1.063168 -1.319056 4.382309
-1.051653 -1.302278 4.386220
-1.040666 -1.285170 4.390220
-1.014735 -1.244569 4.399716
-1.003792 -1.227435 4.403724
-0.992855 -1.210297 4.407732
-0.982573 -1.192781 4.411844
-0.972291 -1.175266 4.415956
-0.962010 -1.157751 4.420067
-0.937720 -1.116209 4.429821
-0.928210 -1.098288 4.434044
-0.918700 -1.080368 4.438267
-0.909191 -1.062448 4.442491
-0.899681 -1.044528 4.446714
-0.890171 -1.026607 4.450938
-0.869614 -0.983218 4.461204
-0.861011 -0.964873 4.465546
-0.852408 -0.946528 4.469889
-0.843805 -0.928183 4.474231
-0.836163 -0.909447 4.478685
-0.828633 -0.890665 4.483151
-0.810788 -0.846162 4.493735
-0.803257 -0.827380 4.498202
-0.796977 -0.808175 4.502793
-0.790719 -0.788961 4.507386
-0.784461 -0.769748 4.511979
-0.778204 -0.750535 4.516573
-0.764992 -0.704581 4.527588
-0.760247 -0.684969 4.532303
-0.755502 -0.665356 4.537019
-0.750756 -0.645744 4.541735
-0.746011 -0.626131 4.546451
-0.742669 -0.606266 4.551252
-0.735659 -0.559030 4.562683
-0.732700 -0.539096 4.567507
-0.729742 -0.519161 4.572331
-0.728596 -0.499069 4.577223
-0.727715 -0.478955 4.582126
-0.726835 -0.458840 4.587028
-0.724749 -0.411178 4.598645
-0.726123 -0.391103 4.603575
-0.727591 -0.371029 4.608506
-0.729059 -0.350956 4.613438
-0.730527 -0.330883 4.618369
-0.731996 -0.310810 4.623300
-0.740677 -0.263940 4.634901
-0.744686 -0.244206 4.639791
-0.748694 -0.224472 4.644681
-0.752702 -0.204739 4.649572
-0.758698 -0.185525 4.654368
-0.765298 -0.166469 4.659135
-0.780936 -0.121315 4.670432
-0.787535 -0.102259 4.675199
-0.796250 -0.084053 4.679794
-0.805321 -0.065990 4.684359
-0.814392 -0.047927 4.688925
-0.823464 -0.029864 4.693490
-0.847044 0.011785 4.704061
-0.858323 0.028627 4.708365
-0.869603 0.045469 4.712668
-0.880883 0.062311 4.716972
-0.892162 0.079153 4.721276
-0.904679 0.095112 4.725384
-0.935830 0.131860 4.734882
-0.948976 0.147369 4.738890
-0.962122 0.162877 4.742899
-0.976406 0.177379 4.746680
-0.991069 0.191545 4.750385
-1.005732 0.205711 4.754091
-1.040476 0.239279 4.762871
-1.056145 0.252373 4.766331
-1.072011 0.265260 4.769743
-1.087876 0.278146 4.773156
-1.103741 0.291032 4.776568
-1.119607 0.303918 4.779980
-1.159015 0.332182 4.787541
-1.175823 0.343888 4.790681
-1.192632 0.355594 4.793820
-1.209440 0.367300 4.796960
-1.226721 0.378322 4.799940
-1.244267 0.388961 4.802831
-1.285844 0.414169 4.809680
-1.303390 0.424808 4.812571
-1.321357 0.434753 4.815299
-1.339483 0.444435 4.817966
-1.357609 0.454118 4.820632
-1.375734 0.463801 4.823299
22 NaN NaN
-1.111635 -1.389674 4.365847
-1.050784 -1.301012 4.386515
-0.992955 -1.210468 4.407692
-0.938625 -1.117913 4.429419
-0.888374 -1.023221 4.451736
-0.842916 -0.926286 4.474680
-0.803124 -0.827050 4.498280
-0.770062 -0.725536 4.522549
-0.744993 -0.621921 4.547463
-0.729364 -0.516615 4.572947
-0.724713 -0.410369 4.598842
-0.732468 -0.304354 4.624886
-0.753637 -0.200140 4.650711
-0.788488 -0.099509 4.675887
-0.836394 -0.004117 4.699998
-0.895967 0.084835 4.722727
-0.965407 0.166753 4.743900
-1.042866 0.241588 4.763475
-1.126686 0.309668 4.781503
-1.215494 0.371516 4.798090
-1.308206 0.427727 4.813364
-1.403981 0.478891 4.827455
-0.849800 -1.360803 2.600175
-0.777598 -1.202503 2.609932
-0.715120 -1.040404 2.623161
-0.665129 -0.874421 2.640660
-0.631496 -0.705057 2.663426
-0.616063 -0.533935 2.691671
-0.624696 -0.363576 2.726573
-0.658748 -0.198022 2.767744
-0.718166 -0.041204 2.814420
-0.803788 0.101388 2.865792
-0.908533 0.229482 2.919806
-1.029417 0.341887 2.975392
-1.162216 0.439610 3.031548
-0.848946 -1.358998 2.600278
-0.778386 -1.204337 2.609805
-0.776811 -1.200669 2.610059
-0.715747 -1.042295 2.622978
-0.714494 -1.038514 2.623344
-0.665657 -0.876338 2.640443
-0.664602 -0.872504 2.640876
-0.631782 -0.707015 2.663134
-0.631210 -0.703100 2.663718
-0.616043 -0.535898 2.691291
-0.616084 -0.531971 2.692051
-0.624499 -0.365520 2.726147
-0.624892 -0.361632 2.726999
-0.658176 -0.199868 2.767231
-0.659320 -0.196176 2.768258
-0.717409 -0.042972 2.813869
-0.718923 -0.039437 2.814971
-0.802702 0.099822 2.865186
-0.804875 0.102954 2.866397
-0.907195 0.228138 2.919172
-0.909871 0.230826 2.920440
-1.027983 0.340650 2.974751
-1.030852 0.343124 2.976033
-1.160636 0.438568 3.030903
-0.845701 -1.352136 2.600668
-0.781380 -1.211306 2.609324
-0.773817 -1.193700 2.610541
-0.718126 -1.049479 2.622282
-0.712114 -1.031329 2.624041
-0.667662 -0.883623 2.639622
-0.662597 -0.865219 2.641697
-0.632870 -0.714455 2.662023
-0.630122 -0.695660 2.664828
-0.615965 -0.543359 2.689848
-0.616162 -0.524510 2.693495
-0.623753 -0.372908 2.724528
-0.625639 -0.354243 2.728618
-0.656004 -0.206885 2.765280
-0.661493 -0.189159 2.770209
-0.714533 -0.049688 2.811777
-0.722291 -0.032991 2.817151
-0.798574 0.093869 2.862886
-0.809003 0.108906 2.868698
-0.902110 0.223029 2.916761
-0.914955 0.235935 2.922851
-1.022531 0.335949 2.972314
-1.036304 0.347826 2.978470
-1.154630 0.434608 3.028451
-0.838011 -1.335879 2.601593
-0.827842 -1.314379 2.602815
-0.817672 -1.292879 2.604038
-0.807503 -1.271379 2.605260
-0.797855 -1.249656 2.606672
-0.788474 -1.227819 2.608182
-0.766723 -1.177188 2.611682
-0.757756 -1.155194 2.613339
-0.749273 -1.133016 2.615167
-0.740790 -1.110838 2.616995
-0.732307 -1.088660 2.618824
-0.723824 -1.066482 2.620652
-0.706476 -1.014307 2.625691
-0.699019 -0.991795 2.627873
-0.691562 -0.969283 2.630055
-0.684977 -0.946537 2.632528
-0.678695 -0.923710 2.635102
-0.672412 -0.900883 2.637676
-0.658575 -0.847809 2.643878
-0.653636 -0.824706 2.646884
-0.648697 -0.801604 2.649890
-0.643758 -0.778501 2.652897
-0.638856 -0.755394 2.655914
-0.635447 -0.732082 2.659393
-0.627545 -0.678033 2.667458
-0.624136 -0.654721 2.670937
-0.622153 -0.631321 2.674835
-0.620474 -0.607902 2.678823
-0.618794 -0.584484 2.682811
-0.617114 -0.561065 2.686798
-0.616347 -0.506831 2.696916
-0.616591 -0.483451 2.701440
-0.616835 -0.460070 2.705964
-0.617305 -0.436715 2.710548
-0.619645 -0.413564 2.715620
-0.621984 -0.390414 2.720693
-0.627408 -0.336738 2.732454
-0.631759 -0.314004 2.738016
-0.636312 -0.291311 2.743627
-0.640866 -0.268619 2.749238
-0.645419 -0.245927 2.754849
-0.650855 -0.223511 2.760657
-0.666641 -0.172533 2.774832
-0.673449 -0.150546 2.780946
-0.680683 -0.128741 2.787146
-0.689695 -0.107695 2.793703
-0.698707 -0.086649 2.800261
-0.707719 -0.065602 2.806818
-0.730666 -0.017933 2.822388
-0.741742 0.001979 2.829313
-0.752818 0.021892 2.836238
-0.763894 0.041805 2.843163
-0.775858 0.061116 2.850224
-0.788793 0.079767 2.857434
-0.818784 0.123009 2.874150
-0.832170 0.141292 2.881418
-0.846725 0.158621 2.888834
-0.861281 0.175950 2.896250
-0.875837 0.193279 2.903666
-0.890392 0.210608 2.911082
-0.927003 0.248039 2.928562
-0.942935 0.264047 2.936116
-0.958868 0.280055 2.943670
-0.975447 0.295347 2.951269
-0.992530 0.310078 2.958905
-1.009613 0.324810 2.966541
-1.049566 0.358529 2.984258
-1.067601 0.372057 2.991933
-1.085636 0.385584 2.999609
-1.103670 0.399112 3.007284
-1.121705 0.412639 3.014959
-1.140401 0.425224 3.022641
21 NaN NaN
-0.850013 -1.361255 2.600150
-0.804060 -1.264100 2.605674
-0.761669 -1.165422 2.612496
-0.723336 -1.065208 2.620757
-0.689642 -0.963485 2.630617
-0.661255 -0.860343 2.642247
-0.638939 -0.755959 2.655830
-0.623539 -0.650634 2.671547
-0.615950 -0.544831 2.689563
-0.617053 -0.439209 2.710001
-0.627621 -0.334628 2.732916
-0.648189 -0.232123 2.758262
-0.678942 -0.132806 2.785879
-0.719650 -0.037737 2.815500
-0.769684 0.052214 2.846782
-0.828119 0.136469 2.879354
-0.893876 0.214757 2.912857
-0.965860 0.287080 2.946984
-1.043046 0.353639 2.981484
-1.124535 0.414761 3.016163
-1.209565 0.470834 3.050881
-0.614873 -1.321091 0.368936
-0.526396 -1.063047 0.401397
-0.469162 -0.797418 0.440999
-0.452070 -0.527614 0.488728
-0.483615 -0.260884 0.544769
-0.565039 -0.006538 0.607595
-0.694390 0.225938 0.675062
-0.861342 0.432489 0.744516
-0.614163 -1.319235 0.369156
-0.526948 -1.064952 0.401139
-0.525843 -1.061143 0.401655
-0.469414 -0.799376 0.440676
-0.468911 -0.795461 0.441322
-0.452074 -0.529580 0.488358
-0.452066 -0.525649 0.489097
-0.483200 -0.262792 0.544334
-0.484029 -0.258976 0.545204
-0.564211 -0.008293 0.607113
-0.565868 -0.004782 0.608078
-0.693324 0.224321 0.674562
-0.695456 0.227555 0.675561
-0.860002 0.431094 0.744008
-0.610217 -1.308911 0.370380
-0.530020 -1.075543 0.399704
-0.522772 -1.050552 0.403089
-0.470810 -0.810261 0.438880
-0.467515 -0.784576 0.443119
-0.452099 -0.540508 0.486303
-0.452041 -0.514720 0.491153
-0.480898 -0.273398 0.541913
-0.486331 -0.248370 0.547624
-0.559753 -0.018120 0.604446
-0.570474 0.004977 0.610759
-0.687399 0.215330 0.671784
-0.701381 0.236545 0.678339
-0.852550 0.423338 0.741184
-0.600018 -1.282233 0.373544
-0.586450 -1.246741 0.377753
-0.573400 -1.211077 0.382089
-0.561260 -1.175113 0.386648
-0.549120 -1.139150 0.391207
-0.537958 -1.102910 0.395997
-0.514945 -1.023159 0.406821
-0.506129 -0.986343 0.412149
-0.497312 -0.949527 0.417476
-0.489108 -0.912600 0.422936
-0.482209 -0.875439 0.428679
-0.475310 -0.838278 0.434422
-0.463906 -0.756448 0.447760
-0.459151 -0.719024 0.453945
-0.456625 -0.681456 0.460564
-0.454100 -0.643888 0.467183
-0.452247 -0.606320 0.473925
-0.452163 -0.568748 0.480992
-0.453839 -0.486602 0.496781
-0.456336 -0.449199 0.504287
-0.458833 -0.411797 0.511794
-0.463951 -0.374750 0.519712
-0.469132 -0.337711 0.527640
-0.474949 -0.300806 0.535660
-0.492280 -0.220962 0.553878
-0.502045 -0.185029 0.562436
-0.512687 -0.149348 0.571107
-0.523329 -0.113668 0.579777
-0.536455 -0.078903 0.588730
-0.549755 -0.044202 0.597702
-0.582376 0.030197 0.617689
-0.598210 0.063750 0.626908
-0.615549 0.096491 0.636249
-0.633751 0.128766 0.645660
-0.651952 0.161041 0.655071
-0.672087 0.192098 0.664606
-0.717352 0.259302 0.685548
-0.739682 0.288797 0.695190
-0.762011 0.318292 0.704832
-0.785375 0.346943 0.714504
-0.809452 0.375013 0.724196
-0.833528 0.403083 0.733889
20 NaN NaN
-0.615050 -1.321556 0.368881
-0.577811 -1.224142 0.380433
-0.544492 -1.125438 0.392946
-0.515508 -1.025509 0.406481
-0.491311 -0.924467 0.421102
-0.472378 -0.822480 0.436863
-0.459202 -0.719782 0.453811
-0.452271 -0.616683 0.471976
-0.452038 -0.513578 0.491367
-0.458890 -0.410937 0.511966
-0.473106 -0.309297 0.533723
-0.494826 -0.209233 0.556554
-0.524029 -0.111321 0.580348
-0.560528 -0.016097 0.604969
-0.603982 0.075979 0.630268
-0.653931 0.164549 0.656094
-0.709835 0.249372 0.682302
-0.771115 0.330317 0.708763
-0.837190 0.407353 0.735363
-0.907502 0.480528 0.762010
