0.180359 0.180344 0.180102 0.178855 0.176880 0.174646 0.172413 0.170180 0.168078 0.166752 0.166482 0.166465 0.166448 0.166181 0.165045 0.163246 0.161703 0.160160 0.158618 0.157244 0.156378 0.156196 0.156184 0.156173 0.155991 0.155177 0.153887 0.152681 0.151474 0.150267 0.149126 0.148406 0.148254 0.148244 0.148234 0.148082 0.147397 0.146310 0.145286 0.144261 0.143236 0.142278 0.141674 0.141546 0.141538 0.141530 0.141402 0.140834 0.139933 0.139095 0.138256 0.137418 0.136639 0.136147 0.136043 0.136037 0.136030 0.135927 0.135466 0.134734 0.134051 0.133368 0.132684 0.132040 0.131634 0.131547 0.131542 0.131536 0.131450 0.131061 0.130446 0.129864 0.129283 0.128701 0.128156 0.127812 0.127739 0.127734 0.127730 0.127657 0.127333 0.126820 0.126347 0.125873 0.125399 0.124964 0.124689 0.124631 0.124627 
0.180369 0.180395 0.180665 0.181711 0.183323 0.184614 0.185905 0.187196 0.188227 0.188896 0.189052 0.189066 0.189081 0.189235 0.189830 0.190746 0.191613 0.192480 0.193347 0.194203 0.194759 0.194899 0.194912 0.194926 0.195066 0.195632 0.196505 0.197413 0.198322 0.199231 0.200245 0.200904 0.201077 0.201094 0.201110 0.201282 0.202052 0.203239 0.204639 0.206040 0.207440 0.209009 0.210027 0.210284 0.210309 0.210333 0.210583 0.211634 0.213253 0.214828 0.216403 0.217978 0.219268 0.220106 0.220293 0.220311 0.220328 0.220508 0.221173 0.222197 0.222818 0.223438 0.224058 0.224318 0.224486 0.224504 0.224506 0.224507 0.224520 0.224477 0.224412 0.224048 0.223684 0.223321 0.222708 0.222310 0.222200 0.222190 
0.180364 0.180367 0.180428 0.180326 0.180165 0.179090 0.178016 0.176941 0.175771 0.175033 0.174887 0.174878 0.174870 0.174723 0.174101 0.173116 0.172195 0.171273 0.170352 0.169408 0.168812 0.168689 0.168681 0.168674 0.168551 0.168000 0.167127 0.166076 0.165024 0.163972 0.162192 0.161069 0.160743 0.160723 0.160702 0.160348 0.158219 0.154845 0.150557 0.146269 0.141981 0.137839 0.135226 0.134688 0.134656 0.134625 0.134104 0.131975 0.128602 0.126623 0.124643 0.122664 0.121573 0.120884 0.120761 0.120753 0.120746 0.120628 0.120177 0.119464 0.118989 0.118515 0.118041 0.117702 0.117488 0.117446 0.117444 0.117441 0.117400 0.117228 0.116956 0.116737 0.116518 0.116300 0.116123 0.116012 0.115990 0.115988 0.115987 0.115965 0.115871 0.115723 0.115601 0.115480 0.115358 0.115259 0.115196 0.115183 0.115182 0.115181 0.115169 0.115115 0.115029 0.114957 0.114885 0.114812 0.114752 0.114714 0.114706 0.114705 0.114705 0.114697 0.114664 0.114611 0.114567 0.114523 0.114479 0.114442 0.114419 0.114414 0.114414 
0.127734 0.127731 0.127724 0.127711 0.127693 0.127675 0.127657 0.127639 0.127621 0.127607 0.127600 0.127597 0.127594 0.127587 0.127572 0.127553 0.127533 0.127513 0.127494 0.127474 0.127458 0.127451 0.127448 0.127445 0.127437 0.127421 0.127400 0.127379 0.127357 0.127336 0.127314 0.127298 0.127290 0.127286 0.127283 0.127275 0.127258 0.127235 0.127212 0.127190 0.127167 0.127144 0.127126 0.127117 0.127114 0.127111 0.127102 0.127084 0.127060 0.127036 0.127012 0.126988 0.126963 0.126945 0.126936 0.126932 0.126928 0.126919 0.126900 0.126875 0.126850 0.126824 0.126798 0.126772 0.126752 0.126743 0.126739 0.126735 0.126725 0.126705 0.126678 0.126651 0.126624 0.126597 0.126571 0.126550 0.126540 0.126536 0.126532 0.126522 0.126506 0.126485 0.126466 0.126446 0.126427 0.126407 0.126392 0.126385 0.126382 0.126379 0.126372 0.126357 0.126338 0.126319 0.126301 0.126283 0.126264 0.126250 0.126244 0.126241 0.126238 0.126231 0.126218 0.126200 0.126182 0.126165 0.126148 0.126131 0.126118 0.126112 0.126109 0.126107 0.126100 0.126087 0.126070 0.126054 0.126038 0.126021 0.126006 0.125993 0.125987 0.125985 0.125983 0.125977 0.125964 0.125948 0.125933 0.125918 0.125903 0.125889 0.125878 0.125872 0.125870 0.125868 0.125863 0.125851 0.125837 0.125823 0.125808 0.125794 0.125781 0.125770 0.125765 0.125763 0.125761 0.125756 0.125745 0.125732 0.125719 0.125705 0.125692 0.125680 0.125671 0.125666 0.125664 0.125662 0.125658 0.125648 0.125636 0.125624 0.125612 0.125599 0.125588 0.125580 0.125576 0.125574 0.125572 0.125568 0.125559 0.125548 0.125537 0.125526 0.125515 0.125505 0.125497 0.125493 0.125492 0.125490 0.125486 0.125478 0.125468 0.125458 0.125448 0.125438 0.125429 0.125421 0.125418 0.125417 0.125415 0.125412 0.125405 0.125395 0.125386 0.125377 0.125367 0.125359 0.125352 0.125349 0.125348 
0.141536 0.141528 0.141501 0.141436 0.141350 0.141263 0.141176 0.141089 0.141000 0.140933 0.140904 0.140896 0.140888 0.140859 0.140792 0.140702 0.140611 0.140519 0.140427 0.140335 0.140266 0.140235 0.140227 0.140218 0.140188 0.140117 0.140022 0.139927 0.139832 0.139737 0.139640 0.139567 0.139535 0.139527 0.139518 0.139487 0.139413 0.139315 0.139216 0.139116 0.139017 0.138917 0.138841 0.138808 0.138799 0.138790 0.138758 0.138681 0.138579 0.138477 0.138374 0.138272 0.138168 0.138090 0.138056 0.138047 0.138038 0.138004 0.137926 0.137822 0.137717 0.137613 0.137508 0.137403 0.137324 0.137290 0.137280 0.137271 0.137237 0.137173 0.137087 0.137014 0.136941 0.136868 0.136798 0.136745 0.136722 0.136716 0.136710 0.136688 0.136639 0.136575 0.136511 0.136448 0.136384 0.136327 0.136283 0.136265 0.136260 0.136255 0.136236 0.136193 0.136137 0.136086 0.136035 0.135984 0.135934 0.135896 0.135879 0.135875 0.135871 0.135856 0.135824 0.135781 0.135738 0.135695 0.135652 0.135615 0.135587 0.135575 0.135572 0.135568 0.135556 0.135528 0.135490 0.135458 0.135426 0.135395 0.135363 0.135339 0.135330 0.135328 0.135326 0.135317 0.135297 0.135271 0.135245 0.135220 0.135194 0.135172 0.135155 0.135147 0.135145 0.135143 0.135136 0.135120 0.135098 0.135079 0.135060 0.135041 0.135022 0.135008 0.135003 0.135002 0.135000 0.134995 0.134982 0.134966 0.134950 0.134935 0.134919 0.134905 0.134894 0.134890 0.134889 
0.148242 0.148235 0.148191 0.148075 0.147921 0.147756 0.147592 0.147428 0.147251 0.147119 0.147068 0.147060 0.147051 0.146998 0.146853 0.146660 0.146451 0.146243 0.146034 0.145812 0.145646 0.145583 0.145573 0.145563 0.145497 0.145324 0.145093 0.144912 0.144731 0.144550 0.144398 0.144285 0.144243 0.144236 0.144230 0.144191 0.144087 0.143950 0.143824 0.143699 0.143573 0.143457 0.143371 0.143338 0.143333 0.143329 0.143298 0.143218 0.143112 0.143014 0.142917 0.142819 0.142729 0.142661 0.142636 0.142632 0.142628 0.142605 0.142543 0.142460 0.142382 0.142305 0.142228 0.142154 0.142099 0.142079 0.142075 
0.156181 0.156170 0.156140 0.156077 0.155994 0.155912 0.155829 0.155747 0.155665 0.155602 0.155572 0.155561 0.155550 0.155520 0.155456 0.155372 0.155291 0.155210 0.155129 0.155051 0.154991 0.154962 0.154952 0.154941 0.154912 0.154851 0.154770 0.154689 0.154609 0.154528 0.154448 0.154387 0.154357 0.154346 0.154335 0.154306 0.154242 0.154159 0.154076 0.153993 0.153910 0.153824 0.153759 0.153727 0.153716 0.153704 0.153673 0.153605 0.153517 0.153429 0.153340 0.153251 0.153160 0.153090 0.153056 0.153044 0.153032 0.152998 0.152927 0.152833 0.152738 0.152642 0.152547 0.152449 0.152373 0.152338 0.152325 0.152312 0.152276 0.152200 0.152101 0.152001 0.151902 0.151802 0.151699 0.151621 0.151584 0.151570 0.151557 0.151520 0.151441 0.151338 0.151235 0.151132 0.151028 0.150923 0.150843 0.150805 0.150791 0.150778 0.150740 0.150659 0.150554 0.150448 0.150343 0.150237 0.150132 0.150051 0.150018 0.150006 0.149996 0.149967 0.149907 0.149828 0.149752 0.149677 0.149601 0.149530 0.149476 0.149451 0.149442 0.149433 0.149408 0.149356 0.149287 0.149223 0.149160 0.149096 0.149036 0.148990 0.148968 0.148961 0.148953 0.148931 0.148887 0.148828 0.148774 0.148720 0.148666 0.148616 0.148577 0.148559 0.148552 0.148546 0.148527 0.148489 0.148438 0.148393 0.148348 0.148303 0.148260 0.148228 0.148212 0.148207 0.148201 0.148186 0.148153 0.148110 0.148072 0.148035 0.147997 0.147961 0.147933 0.147920 0.147915 0.147910 0.147897 0.147869 0.147832 0.147800 0.147769 0.147737 0.147705 0.147681 0.147670 0.147665 0.147661 0.147650 0.147626 0.147594 0.147568 0.147542 0.147515 0.147489 0.147468 0.147459 0.147455 0.147452 0.147442 0.147422 0.147396 0.147374 0.147351 0.147328 0.147306 0.147288 0.147280 0.147277 0.147274 0.147265 0.147249 0.147228 0.147209 0.147189 0.147170 0.147150 0.147135 0.147128 0.147125 0.147123 0.147115 0.147102 0.147084 0.147066 0.147049 0.147032 0.147014 0.147001 0.146994 0.146992 0.146990 0.146983 0.146971 0.146956 0.146940 0.146924 0.146908 0.146892 0.146880 0.146874 0.146872 0.146870 0.146864 0.146854 0.146840 0.146825 0.146811 0.146797 0.146782 0.146770 0.146765 0.146763 
0.166462 0.166452 0.166401 0.166268 0.166091 0.165903 0.165715 0.165527 0.165335 0.165191 0.165133 0.165121 0.165110 0.165052 0.164906 0.164713 0.164518 0.164323 0.164128 0.163974 0.163858 0.163822 0.163814 0.163807 0.163772 0.163677 0.163551 0.163412 0.163272 0.163133 0.162981 0.162866 0.162819 0.162810 0.162801 0.162753 0.162624 0.162453 0.162270 0.162086 0.161903 0.161704 0.161555 0.161492 0.161479 0.161466 0.161403 0.161237 0.161017 0.160778 0.160538 0.160298 0.160050 0.159864 0.159793 0.159779 0.159765 0.159697 0.159521 0.159288 0.159068 0.158848 0.158627 0.158428 0.158277 0.158220 0.158209 0.158198 0.158141 0.158011 0.157838 0.157683 0.157529 0.157374 0.157235 0.157129 0.157093 0.157086 0.157079 0.157042 0.156951 0.156830 0.156722 0.156615 0.156508 0.156410 0.156336 0.156308 0.156303 0.156297 0.156269 0.156199 0.156106 0.156020 0.155935 0.155850 0.155769 0.155709 0.155685 0.155680 0.155675 0.155651 0.155593 0.155516 0.155441 0.155365 0.155289 0.155214 0.155157 0.155136 0.155132 0.155128 0.155107 0.155052 0.154979 0.154906 0.154832 0.154759 0.154685 0.154630 0.154608 0.154604 
0.220284 0.220177 0.219856 0.219166 0.218259 0.217382 0.216505 0.215627 0.214782 0.214138 0.213850 0.213754 0.213659 0.213373 0.212758 0.211951 0.211172 0.210394 0.209616 0.208867 0.208298 0.208044 0.207960 0.207876 0.207624 0.207083 0.206371 0.205686 0.205001 0.204316 0.203658 0.203157 0.202933 0.202858 0.202784 0.202561 0.202083 0.201455 0.200855 0.200255 0.199654 0.199079 0.198642 0.198446 0.198381 0.198316 0.198121 0.197704 0.197155 0.196629 0.196103 0.195577 0.195073 0.194690 0.194520 0.194463 0.194406 0.194237 0.193876 0.193402 0.192941 0.192481 0.192020 0.191573 0.191232 0.191079 0.191028 0.190977 0.190825 0.190494 0.190059 0.189644 0.189228 0.188813 0.188418 0.188117 0.187983 0.187938 0.187893 0.187760 0.187472 0.187094 0.186730 0.186366 0.186002 0.185642 0.185368 0.185243 0.185202 0.185161 0.185037 0.184772 0.184422 0.184090 0.183757 0.183425 0.183100 0.182852 0.182740 0.182703 0.182666 0.182554 0.182323 0.182019 0.181722 0.181424 0.181127 0.180846 0.180632 0.180544 0.180514 0.180486 0.180400 0.180217 0.179977 0.179743 0.179509 0.179274 0.179063 0.178902 0.178830 0.178806 0.178782 0.178711 0.178556 0.178353 0.178164 0.177974 0.177785 0.177613 0.177482 0.177423 0.177404 0.177384 0.177325 0.177199 0.177033 0.176886 0.176739 0.176592 0.176452 0.176345 0.176296 0.176280 0.176263 0.176214 0.176112 0.175978 0.175852 0.175726 0.175601 0.175474 0.175377 0.175333 0.175318 0.175305 0.175265 0.175181 0.175070 0.174960 0.174850 0.174740 0.174635 0.174556 0.174522 0.174511 0.174500 0.174467 0.174395 0.174299 0.174201 0.174102 0.174004 0.173918 0.173852 0.173822 0.173812 0.173801 0.173771 0.173704 0.173616 0.173533 0.173449 0.173365 0.173286 0.173225 0.173197 0.173188 0.173178 0.173150 0.173089 0.173008 0.172935 0.172863 0.172790 0.172717 0.172661 0.172635 0.172626 0.172618 0.172592 0.172539 0.172470 0.172402 0.172334 0.172267 0.172197 0.172145 0.172122 0.172114 0.172107 0.172085 0.172037 0.171974 0.171909 0.171845 0.171780 0.171717 0.171669 0.171648 0.171641 
