0.184726 0.184757 0.185152 0.186977 0.189868 0.192776 0.195684 0.198592 0.201286 0.202986 0.203342 0.203369 0.203397 0.203748 0.205225 0.207565 0.209378 0.211190 0.213003 0.214287 0.215097 0.215242 0.215253 0.215264 0.215406 0.215928 0.216755 0.216998 0.217242 0.217485 0.217165 0.216962 0.216886 0.216881 0.216875 0.216808 0.216340 0.215599 0.214450 0.213301 0.212152 0.210656 0.209712 0.209494 0.209477 0.209460 0.209244 0.208202 0.206552 0.204758 0.202963 0.201169 0.199279 0.198086 0.197816 0.197795 0.197774 0.197505 0.196305 0.194404 0.192519 0.190634 0.188749 0.186948 0.185812 0.185561 0.185541 
0.184713 0.184693 0.184510 0.183989 0.183294 0.182557 0.181821 0.181084 0.180328 0.179763 0.179557 0.179535 0.179512 0.179307 0.178736 0.177973 0.177206 0.176438 0.175670 0.174926 0.174370 0.174172 0.174150 0.174128 0.173931 0.173398 0.172685 0.172016 0.171348 0.170679 0.170052 0.169583 0.169417 0.169399 0.169381 0.169217 0.168772 0.168177 0.167609 0.167041 0.166473 0.165918 0.165503 0.165355 0.165339 
0.184721 0.184732 0.184875 0.184783 0.184638 0.182611 0.180584 0.178558 0.175810 0.174075 0.173671 0.173642 0.173611 0.173193 0.171300 0.168301 0.165665 0.163030 0.160394 0.158201 0.156816 0.156537 0.156517 0.156497 0.156223 0.155107 0.153339 0.151991 0.150642 0.149294 0.148171 0.147461 0.147311 0.147300 0.147290 0.147140 0.146464 0.145392 0.144323 0.143253 0.142184 0.141068 0.140363 0.140203 0.140192 0.140180 0.140018 0.139227 0.137975 0.136477 0.134979 0.133482 0.131799 0.130736 0.130510 0.130494 0.130477 0.130248 0.129259 0.127692 0.126401 0.125110 0.123819 0.122788 0.122138 0.122005 0.121996 0.121986 0.121856 0.121299 0.120417 0.119717 0.119017 0.118317 0.117830 0.117523 0.117464 0.117460 0.117456 0.117401 0.117185 0.116843 0.116602 0.116360 0.116119 0.115935 0.115819 0.115795 0.115793 0.115791 0.115768 0.115665 0.115503 0.115356 0.115208 0.115060 0.114923 0.114837 0.114818 0.114817 0.114815 0.114797 0.114716 0.114588 0.114473 0.114358 0.114244 0.114147 0.114086 0.114074 0.114073 0.114072 0.114060 0.114011 0.113934 0.113876 0.113819 0.113761 0.113718 0.113691 0.113685 0.113685 0.113684 0.113679 0.113657 0.113621 0.113591 0.113562 0.113532 0.113507 0.113491 0.113488 0.113487 0.113487 0.113484 0.113470 0.113448 0.113429 0.113411 0.113392 0.113376 0.113366 0.113364 0.113364 0.113364 0.113362 0.113354 0.113340 0.113330 0.113319 0.113308 0.113299 0.113293 0.113291 0.113291 
0.216853 0.216745 0.215963 0.213948 0.211260 0.208912 0.206564 0.204216 0.202176 0.200648 0.200114 0.200040 0.199967 0.199442 0.198108 0.196328 0.194772 0.193217 0.191661 0.190302 0.189283 0.188921 0.188871 0.188821 0.188463 0.187564 0.186364 0.185310 0.184256 0.183203 0.182296 0.181617 0.181396 0.181365 0.181335 0.181116 0.180594 0.179897 0.179427 0.178957 0.178486 0.178146 0.177890 0.177806 0.177794 0.177782 0.177697 0.177500 0.177237 0.177035 0.176832 0.176629 0.176489 0.176383 0.176344 0.176339 0.176335 0.176306 0.176234 0.176138 0.176088 0.176039 0.175990 0.175978 0.175968 0.175974 0.175975 
0.203359 0.203318 0.203152 0.202744 0.202203 0.201634 0.201065 0.200496 0.199901 0.199452 0.199262 0.199215 0.199168 0.198977 0.198510 0.197892 0.197257 0.196621 0.195986 0.195323 0.194822 0.194613 0.194561 0.194510 0.194301 0.193803 0.193145 0.192496 0.191847 0.191198 0.190572 0.190099 0.189902 0.189853 0.189806 0.189616 0.189178 0.188598 0.188061 0.187524 0.186987 0.186490 0.186115 0.185969 0.185933 0.185897 0.185754 0.185420 0.184978 0.184570 0.184162 0.183754 0.183374 0.183087 0.182975 0.182947 0.182920 0.182810 0.182551 0.182209 0.181854 0.181498 0.181142 0.180793 0.180530 0.180418 0.180390 0.180363 0.180250 0.179975 0.179611 0.179233 0.178856 0.178478 0.178097 0.177809 0.177691 0.177661 0.177632 0.177514 0.177232 0.176858 0.176484 0.176110 0.175736 0.175376 0.175104 0.174993 0.174965 0.174937 0.174826 0.174560 0.174207 0.173883 0.173559 0.173234 0.172922 0.172686 0.172600 0.172579 0.172558 0.172472 0.172294 0.172059 0.171893 0.171727 0.171560 0.171430 0.171332 0.171291 0.171281 0.171271 0.171229 0.171156 0.171059 0.170967 0.170874 0.170782 0.170721 0.170675 0.170655 0.170650 0.170645 0.170625 0.170572 0.170503 0.170453 0.170404 0.170354 0.170306 0.170270 0.170260 0.170257 0.170254 0.170244 0.170214 0.170174 0.170142 0.170111 0.170079 0.170052 0.170032 0.170023 0.170021 0.170019 0.170010 0.169997 0.169979 0.169962 0.169944 0.169927 0.169922 0.169919 0.169918 0.169917 
0.179533 0.179525 0.179486 0.179377 0.179232 0.179051 0.178870 0.178690 0.178479 0.178321 0.178253 0.178239 0.178225 0.178155 0.177970 0.177723 0.177441 0.177159 0.176877 0.176561 0.176324 0.176227 0.176207 0.176186 0.176085 0.175827 0.175484 0.175137 0.174789 0.174441 0.174092 0.173829 0.173731 0.173710 0.173690 0.173595 0.173371 0.173074 0.172804 0.172534 0.172264 0.172041 0.171874 0.171809 0.171796 0.171783 0.171721 0.171583 0.171401 0.171228 0.171056 0.170883 0.170706 0.170573 0.170517 0.170506 0.170494 0.170438 0.170290 0.170093 0.169875 0.169656 0.169437 0.169209 0.169037 0.168969 0.168954 0.168940 0.168872 0.168691 0.168451 0.168212 0.167972 0.167733 0.167501 0.167326 0.167256 0.167242 0.167227 0.167158 0.167002 0.166794 0.166627 0.166459 0.166292 0.166163 0.166066 0.166029 0.166022 0.166014 0.165978 0.165899 0.165793 0.165701 0.165608 0.165515 0.165443 0.165389 0.165366 0.165362 0.165357 0.165334 0.165283 0.165214 0.165153 0.165092 0.165031 0.164970 0.164925 0.164906 0.164902 0.164898 0.164880 0.164839 0.164786 0.164735 0.164684 0.164634 0.164588 0.164553 0.164539 0.164536 
0.169394 0.169374 0.169217 0.168783 0.168204 0.167633 0.167063 0.166492 0.165944 0.165533 0.165386 0.165368 0.165350 0.165205 0.164820 0.164306 0.163823 0.163339 0.162856 0.162397 0.162053 0.161930 0.161914 0.161899 0.161776 0.161451 0.161018 0.160621 0.160224 0.159827 0.159539 0.159324 0.159271 0.159264 0.159258 0.159205 0.159087 0.158930 0.158815 0.158700 0.158584 0.158496 0.158429 0.158408 0.158405 
