0.290932 0.290813 0.289190 0.281830 0.270171 0.260380 0.250589 0.240798 0.233244 0.228476 0.227532 0.227463 0.227394 0.226465 0.222661 0.216633 0.211950 0.207267 0.202583 0.198808 0.196425 0.195935 0.195899 0.195864 0.195379 0.193306 0.190022 0.187162 0.184301 0.181440 0.178937 0.177358 0.177028 0.177004 0.176980 0.176653 0.175229 0.172974 0.170993 0.169012 0.167032 0.165284 0.164180 0.163949 0.163932 0.163916 0.163686 0.162685 0.161099 0.159668 0.158237 0.156806 0.155509 0.154691 0.154517 0.154504 
0.290938 0.290839 0.289888 0.286644 0.282192 0.276870 0.271548 0.266226 0.260926 0.257064 0.255763 0.255628 0.255494 0.254207 0.250552 0.245537 0.241022 0.236507 0.231992 0.227950 0.225005 0.224049 0.223949 0.223852 0.222913 0.220337 0.216802 0.213897 0.210992 0.208086 0.205767 0.204076 0.203548 0.203493 0.203440 0.202922 0.201507 0.199564 0.197827 0.196089 0.194352 0.192727 0.191543 0.191149 0.191108 
0.291026 0.291285 0.295033 0.308049 0.328672 0.345870 0.363067 0.380265 0.365554 0.356269 0.353681 0.353502 0.353329 0.350819 0.334323 0.308188 0.287555 0.266922 0.246289 0.233304 0.225108 0.223514 0.223404 0.223296 0.221728 0.215707 0.206169 0.199998 0.193828 0.187657 0.183679 0.181168 0.180684 0.180650 0.180618 0.180146 0.178281 0.175327 0.172936 0.170546 0.168155 0.165935 0.164533 0.164206 0.164184 0.164162 0.163840 0.162191 0.159577 0.155743 0.151908 0.148073 0.143944 0.141337 0.140814 0.140777 0.140742 0.140226 0.138079 0.134677 0.132218 0.129759 0.127299 0.125774 0.124811 0.124618 0.124605 0.124593 0.124424 0.123764 0.122717 0.121924 0.121130 0.120336 0.119761 0.119398 0.119329 0.119324 0.119319 0.119252 0.118978 0.118546 0.118226 0.117906 0.117586 0.117332 0.117172 0.117139 0.117137 0.117134 0.117102 0.116960 0.116735 0.116533 0.116331 0.116129 0.115943 0.115825 0.115800 0.115798 0.115797 0.115772 0.115660 0.115483 0.115328 0.115172 0.115017 0.114901 0.114828 0.114814 0.114813 0.114812 0.114798 0.114744 0.114659 0.114597 0.114535 0.114473 0.114425 0.114395 0.114389 0.114388 0.114388 0.114382 0.114357 0.114316 0.114284 0.114251 0.114218 0.114191 0.114173 0.114170 0.114170 0.114169 0.114166 0.114151 0.114128 0.114108 0.114089 0.114069 0.114053 0.114043 0.114040 0.114040 0.114040 0.114038 0.114029 0.114014 0.113999 0.113984 0.113969 0.113946 0.113932 0.113928 0.113928 
0.163929 0.163917 0.163855 0.163694 0.163481 0.163253 0.163026 0.162798 0.162562 0.162384 0.162313 0.162299 0.162285 0.162213 0.162029 0.161785 0.161530 0.161275 0.161020 0.160753 0.160553 0.160474 0.160459 0.160444 0.160365 0.160161 0.159890 0.159614 0.159339 0.159063 0.158791 0.158586 0.158535 0.158524 0.158515 0.158464 0.158340 0.158176 0.158024 0.157872 0.157720 0.157577 0.157469 0.157429 0.157421 0.157413 0.157373 0.157273 0.157141 0.157013 0.156884 0.156756 0.156629 0.156534 0.156497 0.156490 0.156483 0.156446 0.156354 0.156231 0.156110 0.155989 0.155868 0.155749 0.155659 0.155624 0.155617 0.155610 0.155575 0.155488 0.155373 0.155258 0.155143 0.155029 0.154914 0.154828 0.154795 0.154789 0.154782 0.154749 0.154664 0.154551 0.154439 0.154326 0.154213 0.154100 0.154015 0.153981 0.153975 
0.195887 0.195839 0.195618 0.195073 0.194352 0.193627 0.192903 0.192178 0.191453 0.190906 0.190685 0.190637 0.190588 0.190367 0.189824 0.189104 0.188402 0.187700 0.186998 0.186307 0.185786 0.185580 0.185534 0.185489 0.185284 0.184782 0.184117 0.183479 0.182842 0.182204 0.181585 0.181118 0.180933 0.180892 0.180851 0.180667 0.180214 0.179613 0.179033 0.178453 0.177873 0.177308 0.176883 0.176713 0.176676 0.176638 0.176470 0.176059 0.175515 0.174990 0.174465 0.173939 0.173438 0.173060 0.172909 0.172876 0.172843 0.172693 0.172337 0.171866 0.171419 0.170972 0.170525 0.170158 0.169882 0.169789 0.169769 0.169749 0.169657 0.169460 0.169199 0.168968 0.168737 0.168506 0.168317 0.168175 0.168118 0.168105 0.168092 0.168035 0.167908 0.167739 0.167586 0.167433 0.167279 0.167152 0.167057 0.167017 0.167008 0.166999 0.166958 0.166869 0.166749 0.166642 0.166535 0.166428 0.166341 0.166275 0.166248 0.166242 0.166237 0.166210 0.166148 0.166066 0.165997 0.165927 0.165857 0.165803 0.165762 0.165746 0.165742 
0.227439 0.227345 0.227049 0.226383 0.225506 0.224615 0.223723 0.222832 0.221919 0.221225 0.220910 0.220810 0.220710 0.220394 0.219695 0.218774 0.217862 0.216951 0.216039 0.215128 0.214436 0.214131 0.214035 0.213939 0.213635 0.212960 0.212072 0.211192 0.210311 0.209430 0.208574 0.207924 0.207636 0.207544 0.207454 0.207169 0.206539 0.205710 0.204916 0.204122 0.203328 0.202580 0.202012 0.201764 0.201685 0.201605 0.201354 0.200807 0.200086 0.199412 0.198737 0.198063 0.197426 0.196942 0.196730 0.196662 0.196595 0.196383 0.195928 0.195327 0.194771 0.194215 0.193659 0.193127 0.192722 0.192547 0.192491 0.192436 0.192263 0.191893 0.191406 0.190928 0.190450 0.189972 0.189503 0.189147 0.188990 0.188940 0.188891 0.188735 0.188391 0.187938 0.187483 0.187029 0.186574 0.186117 0.185769 0.185615 0.185566 0.185517 0.185361 0.185021 0.184573 0.184133 0.183693 0.183253 0.182819 0.182490 0.182343 0.182296 0.182250 0.182103 0.181778 0.181350 0.180934 0.180517 0.180100 0.179701 0.179398 0.179263 0.179221 0.179178 0.179045 0.178750 0.178362 0.177998 0.177635 0.177271 0.176925 0.176662 0.176545 0.176508 0.176472 0.176357 0.176135 0.175843 0.175597 0.175351 0.175104 0.174869 0.174691 0.174613 0.174588 0.174566 0.174496 0.174357 0.174175 0.173998 0.173821 0.173644 0.173484 0.173363 0.173315 0.173299 0.173284 0.173236 0.173126 0.172981 0.172842 0.172703 0.172564 0.172448 0.172361 0.172321 0.172308 0.172295 0.172255 0.172164 0.172044 0.171938 0.171833 0.171727 0.171628 0.171552 0.171518 0.171507 0.171496 0.171462 0.171386 0.171287 0.171203 0.171118 0.171034 0.170948 0.170883 0.170853 0.170844 0.170835 0.170807 0.170753 0.170682 0.170608 0.170535 0.170462 0.170393 0.170341 0.170320 0.170314 0.170307 0.170287 0.170240 0.170178 0.170119 0.170059 0.170000 0.169953 0.169917 0.169901 0.169896 
0.255573 0.255353 0.254110 0.251041 0.246958 0.243241 0.239523 0.235805 0.232438 0.229907 0.228949 0.228780 0.228613 0.227666 0.225281 0.222107 0.219223 0.216339 0.213455 0.210831 0.208859 0.208201 0.208085 0.207971 0.207323 0.205793 0.203758 0.202205 0.200652 0.199100 0.198006 0.197184 0.196873 0.196818 0.196764 0.196455 0.195667 0.194619 0.193592 0.192566 0.191539 0.190498 0.189715 0.189409 0.189355 0.189300 0.188989 0.188183 0.187111 0.186091 0.185071 0.184052 0.183084 0.182357 0.182086 0.182039 0.181991 0.181723 0.181059 0.180175 0.179420 0.178666 0.177911 0.177345 0.176920 0.176768 0.176741 0.176718 0.176591 0.176286 0.175881 0.175551 0.175221 0.174891 0.174626 0.174427 0.174358 0.174346 0.174333 0.174263 0.174088 0.173855 0.173652 0.173449 0.173247 0.173064 0.172927 0.172871 0.172861 0.172852 0.172804 0.172685 0.172528 0.172382 0.172236 0.172090 0.171960 0.171861 0.171826 0.171820 
0.191093 0.191034 0.190626 0.189594 0.188219 0.186992 0.185765 0.184537 0.183442 0.182621 0.182332 0.182290 0.182248 0.181963 0.181232 0.180259 0.179413 0.178566 0.177720 0.177000 0.176460 0.176274 0.176247 0.176220 0.176036 0.175710 0.175275 0.174964 0.174653 0.174343 0.174096 0.173911 0.173840 0.173829 0.173819 0.173746 0.173585 0.173372 0.173158 0.172944 0.172730 0.172523 0.172368 0.172314 0.172306 
