-2.082365 -1.398905 1.125667
-1.676776 -1.486522 2.448302
-1.242512 -1.635353 3.758278
-0.952906 -1.490134 5.103619
-0.753720 -1.176271 6.441818
-0.548450 -0.873184 7.781600
-2.081885 -1.398815 1.127607
-1.677423 -1.486259 2.446428
-1.676128 -1.486785 2.450176
-1.243069 -1.635286 3.756359
-1.241956 -1.635419 3.760198
-0.953206 -1.490562 5.101689
-0.952606 -1.489705 5.105550
-0.754012 -1.176714 6.439889
-0.753428 -1.175828 6.443746
-0.548744 -0.873622 7.779670
-2.074852 -1.397507 1.155997
-1.686904 -1.482405 2.418997
-1.666645 -1.490646 2.477605
-1.251218 -1.634318 3.728254
-1.233806 -1.636387 3.788302
-0.957676 -1.496695 5.073412
-0.948213 -1.483432 5.133808
-0.758285 -1.183198 6.411660
-0.749146 -1.169358 6.471977
-0.553062 -0.880028 7.751430
-2.041993 -1.393031 1.285483
-1.986062 -1.393787 1.489730
-1.926112 -1.402897 1.692641
-1.862964 -1.418820 1.894166
-1.797375 -1.440052 2.094423
-1.730019 -1.465191 2.293641
-1.623182 -1.508641 2.602731
-1.554285 -1.537231 2.800956
-1.485847 -1.564789 2.999486
-1.418478 -1.589957 3.198696
-1.352821 -1.611340 3.398913
-1.289569 -1.627488 3.600386
-1.197635 -1.638651 3.916965
-1.144208 -1.634311 4.121839
-1.096021 -1.619563 4.327519
-1.052878 -1.595097 4.533400
-1.014017 -1.562600 4.739030
-0.978626 -1.523735 4.944189
-0.928454 -1.454267 5.262758
-0.898197 -1.406195 5.466794
-0.868503 -1.357130 5.670678
-0.838626 -1.308389 5.874613
-0.808356 -1.260341 6.078654
-0.777750 -1.212887 6.282784
-0.729543 -1.139914 6.600888
-0.698340 -1.093519 6.805171
-0.667007 -1.047356 7.009487
-0.635601 -1.001320 7.213821
-0.604182 -0.955308 7.418157
-0.572810 -0.909215 7.622483
80 NaN NaN
-2.082485 -1.398927 1.125183
-2.058157 -1.394400 1.223397
-2.032645 -1.392240 1.321391
-2.006050 -1.392282 1.419122
-1.978468 -1.394359 1.516556
-1.949994 -1.398300 1.613677
-1.920718 -1.403935 1.710475
-1.890729 -1.411095 1.806954
-1.860111 -1.419614 1.903125
-1.828945 -1.429327 1.999006
-1.797309 -1.440074 2.094622
-1.765277 -1.451698 2.190005
-1.732920 -1.464042 2.285187
-1.700310 -1.476955 2.380206
-1.667513 -1.490288 2.475104
-1.634595 -1.503890 2.569922
-1.601624 -1.517615 2.664703
-1.568663 -1.531316 2.759492
-1.535778 -1.544846 2.854331
-1.503034 -1.558057 2.949264
-1.470499 -1.570801 3.044333
-1.438241 -1.582926 3.139577
-1.406331 -1.594279 3.235032
-1.374840 -1.604705 3.330733
-1.343845 -1.614044 3.426706
-1.313425 -1.622136 3.522976
-1.283660 -1.628814 3.619559
-1.254637 -1.633912 3.716463
-1.226445 -1.637261 3.813688
-1.199176 -1.638690 3.911222
-1.172926 -1.638029 4.009043
-1.147791 -1.635110 4.107115
-1.123871 -1.629774 4.205389
-1.101199 -1.621988 4.303795
-1.079707 -1.611923 4.402260
-1.059314 -1.599766 4.500722
-1.039932 -1.585705 4.599136
-1.021475 -1.569926 4.697468
-1.003851 -1.552612 4.795694
-0.986970 -1.533942 4.893803
-0.970742 -1.514092 4.991790
-0.955076 -1.493233 5.089659
-0.939881 -1.471531 5.187419
-0.925067 -1.449151 5.285085
-0.910546 -1.426253 5.382675
-0.896228 -1.402996 5.480210
-0.882023 -1.379539 5.577714
-0.867844 -1.356038 5.675211
-0.853604 -1.332643 5.772725
-0.839269 -1.309417 5.870265
-0.824843 -1.286350 5.967829
-0.810334 -1.263431 6.065416
-0.795747 -1.240650 6.163023
-0.781088 -1.217996 6.260650
-0.766364 -1.195457 6.358293
-0.751580 -1.173024 6.455952
-0.736744 -1.150684 6.553624
-0.721861 -1.128426 6.651307
-0.706939 -1.106240 6.749001
-0.691982 -1.084113 6.846703
-0.676999 -1.062035 6.944412
-0.661995 -1.039993 7.042126
-0.646976 -1.017977 7.139844
-0.631950 -0.995975 7.237563
-0.616923 -0.973974 7.335283
-0.601900 -0.951965 7.433002
-0.586890 -0.929935 7.530717
-0.571897 -0.907872 7.628429
-0.556930 -0.885766 7.726134
-0.541993 -0.863604 7.823831
-0.527094 -0.841376 7.921519
-0.512239 -0.819070 8.019196
-0.497434 -0.796674 8.116860
-0.482685 -0.774178 8.214509
-0.468000 -0.751571 8.312142
-0.453384 -0.728841 8.409757
-0.438843 -0.705978 8.507353
-0.424384 -0.682970 8.604926
-0.410013 -0.659807 8.702476
-0.395735 -0.636479 8.800000
-2.082099 -1.398819 1.124884
-1.554800 -1.251950 0.717563
-1.027501 -1.105081 0.310241
-2.080553 -1.398389 1.123690
-1.556346 -1.252381 0.718757
-1.553254 -1.251520 0.716369
-1.029047 -1.105512 0.311435
-2.065024 -1.394064 1.111694
-1.571875 -1.256706 0.730752
-1.537725 -1.247195 0.704373
-1.044576 -1.109837 0.323431
-2.011954 -1.379282 1.070699
-1.934552 -1.357723 1.010909
-1.857150 -1.336164 0.951118
-1.779749 -1.314606 0.891328
-1.702347 -1.293047 0.831538
-1.624946 -1.271488 0.771748
-1.484655 -1.232413 0.663377
-1.407253 -1.210854 0.603587
-1.329851 -1.189295 0.543797
-1.252450 -1.167736 0.484007
-1.175048 -1.146178 0.424216
-1.097647 -1.124619 0.364426
19 NaN NaN
-2.082485 -1.398927 1.125183
-2.001563 -1.376388 1.062672
-1.920640 -1.353848 1.000162
-1.839718 -1.331309 0.937652
-1.758795 -1.308769 0.875142
-1.677872 -1.286230 0.812632
-1.596950 -1.263690 0.750122
-1.516027 -1.241151 0.687612
-1.435104 -1.218611 0.625101
-1.354182 -1.196072 0.562591
-1.273259 -1.173532 0.500081
-1.192337 -1.150993 0.437571
-1.111414 -1.128454 0.375061
-1.030491 -1.105914 0.312551
-0.949569 -1.083375 0.250041
-0.868646 -1.060835 0.187530
-0.787723 -1.038296 0.125020
-0.706801 -1.015756 0.062510
-0.625878 -0.993217 0.000000
-2.082910 -1.399186 1.125136
-3.240894 -1.523043 0.414170
-3.767034 -0.784631 -0.732952
-4.086649 0.265843 -1.704870
-4.402627 1.315841 -2.680461
-4.720132 2.370625 -3.650417
-5.039918 3.425060 -4.619960
-5.358793 4.445512 -5.625388
-5.730582 5.406585 -6.669970
-6.186951 6.262860 -7.770054
-6.753360 6.964345 -8.926445
-7.442046 7.469697 -10.117867
-8.246451 7.758492 -11.309000
-2.084611 -1.400223 1.124950
-3.239841 -1.523806 0.415690
-3.241947 -1.522281 0.412650
-3.766480 -0.785915 -0.731522
-3.767588 -0.783346 -0.734381
-4.086226 0.264418 -1.703531
-4.087071 0.267268 -1.706208
-4.402199 1.314402 -2.679139
-4.403054 1.317279 -2.681782
-4.719696 2.369186 -3.649098
-4.720568 2.372063 -3.651736
-5.039500 3.423644 -4.618610
-5.040336 3.426475 -4.621310
-5.358332 4.444150 -5.623998
-5.359254 4.446874 -5.626779
-5.730024 5.405336 -6.668511
-5.731139 5.407835 -6.671429
-6.186254 6.261793 -7.768512
-6.187647 6.263926 -7.771596
-6.752507 6.963513 -8.924838
-6.754212 6.965177 -8.928051
-7.441021 7.469160 -10.116235
-7.443070 7.470234 -10.119498
-8.245289 7.758240 -11.307392
-2.110840 -1.416214 1.122075
-3.223599 -1.535568 0.439139
-3.258189 -1.510518 0.389202
-3.757725 -0.805225 -0.709112
-3.776128 -0.763536 -0.756440
-4.079714 0.242440 -1.682879
-4.093591 0.289241 -1.726864
-4.395604 1.292204 -2.658749
-4.409651 1.339475 -2.702174
-4.712972 2.346989 -3.628749
-4.727290 2.394262 -3.672083
-5.033053 3.401813 -4.597782
-5.046784 3.448306 -4.642139
-5.351225 4.423140 -5.602549
-5.366431 4.467808 -5.648278
-5.721427 5.386059 -6.646006
-5.739737 5.427111 -6.693934
-6.175636 6.245161 -7.744793
-6.198396 6.280376 -7.795384
-6.739355 6.950672 -8.900057
-6.767364 6.978018 -8.952833
-7.425281 7.460756 -10.091064
-7.458879 7.478511 -10.144669
-8.227363 7.754358 -11.282581
-2.232529 -1.485206 1.103367
-2.430653 -1.570986 1.045677
-2.628318 -1.625399 0.956630
-2.818197 -1.647236 0.840903
-2.992529 -1.633800 0.701985
-3.142756 -1.583355 0.544570
-3.325748 -1.451293 0.280209
-3.418910 -1.348420 0.104634
-3.499970 -1.239357 -0.073263
-3.575234 -1.128669 -0.252723
-3.647545 -1.014613 -0.431272
-3.716433 -0.890549 -0.604359
-3.814142 -0.670728 -0.855945
-3.868616 -0.514701 -1.006920
-3.916414 -0.350905 -1.151848
-3.960845 -0.184680 -1.295090
-4.005029 -0.020294 -1.440510
-4.050284 0.141454 -1.588538
-4.123948 0.389540 -1.821644
-4.172636 0.548353 -1.971749
-4.221314 0.707905 -2.121072
-4.269633 0.868387 -2.269512
-4.317635 1.029375 -2.417507
-4.365443 1.190512 -2.565402
-4.439910 1.441081 -2.795583
-4.488052 1.601937 -2.943676
-4.536376 1.762724 -3.091785
-4.584843 1.923528 -3.239828
-4.633445 2.084394 -3.387760
-4.682179 2.245355 -3.535545
-4.758056 2.495937 -3.765251
-4.806723 2.657084 -3.912855
-4.855507 2.818323 -4.060321
-4.904780 2.979707 -4.207464
-4.954294 3.140947 -4.354684
-5.003054 3.301327 -4.503088
-5.076147 3.547982 -4.737884
-5.122759 3.705188 -4.890322
-5.170348 3.861875 -5.042991
-5.218972 4.017884 -5.196028
-5.268455 4.172914 -5.349784
-5.318864 4.326718 -5.504467
-5.399514 4.563443 -5.746888
-5.453016 4.713787 -5.903916
-5.507978 4.862473 -6.062014
-5.564501 5.009340 -6.221256
-5.622676 5.154267 -6.381677
-5.682619 5.297094 -6.543324
-5.779715 5.514643 -6.797396
-5.844753 5.651227 -6.962433
-5.911939 5.785090 -7.128833
-5.981366 5.916056 -7.296612
-6.053190 6.043862 -7.465814
-6.127482 6.168340 -7.636423
-6.248045 6.355105 -7.904538
-6.328870 6.470440 -8.078570
-6.412474 6.581738 -8.253912
-6.498803 6.688992 -8.430447
-6.587904 6.792051 -8.608100
-6.679813 6.890779 -8.786780
-6.828608 7.035189 -9.066608
-6.927917 7.122083 -9.247460
-7.030095 7.204225 -9.428934
-7.135150 7.281499 -9.610904
-7.243153 7.353669 -9.793243
-7.353962 7.420863 -9.975799
-7.531785 7.515453 -10.259925
-7.649584 7.569634 -10.442431
-7.769991 7.618682 -10.624687
-7.892878 7.662679 -10.806575
-8.018140 7.701657 -10.987988
-8.145684 7.735622 -11.168820
189 NaN NaN
-2.082485 -1.398927 1.125183
-2.168128 -1.451142 1.115796
-2.255917 -1.497576 1.098853
-2.344998 -1.538074 1.074872
-2.434620 -1.572510 1.044324
-2.524102 -1.600759 1.007631
-2.612799 -1.622666 0.965154
-2.700073 -1.638037 0.917214
-2.785255 -1.646628 0.864100
-2.867621 -1.648148 0.806100
-2.946360 -1.642269 0.743526
-3.020562 -1.628658 0.676760
-3.089363 -1.607234 0.606355
-3.152593 -1.578955 0.533186
-3.210513 -1.545045 0.458030
-3.263559 -1.506629 0.381449
-3.312248 -1.464704 0.303816
-3.357116 -1.420130 0.225355
-3.398664 -1.373545 0.146234
-3.437420 -1.325449 0.066600
-3.473967 -1.276321 -0.013450
-3.508924 -1.226627 -0.093861
-3.542930 -1.176807 -0.174602
-3.576397 -1.126935 -0.255536
-3.609318 -1.076427 -0.336298
-3.641637 -1.024638 -0.416489
-3.673285 -0.970934 -0.495682
-3.704176 -0.914711 -0.573407
-3.734205 -0.855515 -0.649239
-3.763235 -0.793444 -0.723138
-3.791130 -0.728736 -0.795189
-3.817758 -0.661614 -0.865491
-3.842990 -0.592286 -0.934148
-3.866706 -0.520955 -1.001277
-3.888995 -0.447981 -1.067119
-3.910160 -0.373868 -1.132056
-3.930523 -0.299102 -1.196498
-3.950411 -0.224149 -1.260872
-3.970153 -0.149473 -1.325612
-3.990003 -0.075400 -1.391009
-4.010039 -0.001920 -1.457015
-4.030312 0.071034 -1.523529
-4.050873 0.143531 -1.590455
-4.071773 0.215638 -1.657695
-4.093045 0.287431 -1.725155
-4.114630 0.359007 -1.792746
-4.136438 0.430472 -1.860383
-4.158377 0.501933 -1.927981
-4.180359 0.573497 -1.995456
-4.202296 0.645266 -2.062728
-4.224155 0.717260 -2.129786
-4.245939 0.789439 -2.196668
-4.267653 0.861763 -2.263416
-4.289303 0.934191 -2.330072
-4.310895 1.006684 -2.396676
-4.332438 1.079211 -2.463259
-4.353953 1.151754 -2.529834
-4.375459 1.224299 -2.596409
-4.396976 1.296830 -2.662996
-4.418525 1.369333 -2.729604
-4.440123 1.441795 -2.796240
-4.461767 1.514223 -2.862898
-4.483455 1.586624 -2.929571
-4.505182 1.659009 -2.996249
-4.526942 1.731387 -3.062923
-4.548732 1.803767 -3.129586
-4.570549 1.876154 -3.196232
-4.592393 1.948552 -3.262857
-4.614266 2.020964 -3.329458
-4.636166 2.093393 -3.396031
-4.658094 2.165842 -3.462574
-4.680045 2.238312 -3.529085
-4.702009 2.310801 -3.595573
-4.723973 2.383306 -3.662042
-4.745927 2.455824 -3.728500
-4.767858 2.528354 -3.794953
-4.789761 2.600895 -3.861404
-4.811663 2.673449 -3.927839
-4.833597 2.746024 -3.994243
-4.855598 2.818624 -4.060596
-4.877700 2.891255 -4.126881
-4.899932 2.963921 -4.193086
-4.922250 3.036582 -4.259266
-4.944557 3.109169 -4.325531
-4.966755 3.181613 -4.391990
-4.988743 3.253841 -4.458751
-5.010424 3.325782 -4.525922
-5.031747 3.397391 -4.593562
-5.052807 3.468701 -4.661598
-5.073724 3.539764 -4.729935
-5.094617 3.610633 -4.798482
-5.115608 3.681359 -4.867146
-5.136807 3.751992 -4.935843
-5.158245 3.822530 -5.004562
-5.179905 3.892945 -5.073338
-5.201770 3.963209 -5.142204
-5.223820 4.033291 -5.211195
-5.246038 4.103164 -5.280345
-5.268420 4.172805 -5.349676
-5.290981 4.242206 -5.419189
-5.313740 4.311357 -5.488886
-5.336718 4.380251 -5.558766
-5.359932 4.448880 -5.628828
-5.383401 4.517235 -5.699073
-5.407136 4.585302 -5.769508
-5.431146 4.653067 -5.840141
-5.455439 4.720513 -5.910981
-5.480025 4.787628 -5.982036
-5.504912 4.854394 -6.053314
-5.530110 4.920797 -6.124820
-5.555631 4.986823 -6.196562
-5.581486 5.052457 -6.268542
-5.607686 5.117685 -6.340767
-5.634242 5.182491 -6.413241
-5.661164 5.246862 -6.485967
-5.688464 5.310780 -6.558952
-5.716151 5.374231 -6.632198
-5.744235 5.437198 -6.705709
-5.772726 5.499665 -6.779491
-5.801633 5.561615 -6.853545
-5.830965 5.623033 -6.927875
-5.860733 5.683902 -7.002483
-5.890945 5.744205 -7.077372
-5.921611 5.803927 -7.152542
-5.952738 5.863049 -7.227994
-5.984336 5.921555 -7.303731
-6.016414 5.979430 -7.379752
-6.048978 6.036655 -7.456056
-6.082036 6.093215 -7.532643
-6.115597 6.149093 -7.609512
-6.149668 6.204271 -7.686662
-6.184255 6.258734 -7.764089
-6.219365 6.312467 -7.841791
-6.255005 6.365452 -7.919765
-6.291180 6.417674 -7.998006
-6.327896 6.469116 -8.076511
-6.365160 6.519764 -8.155275
-6.402975 6.569604 -8.234291
-6.441347 6.618620 -8.313553
-6.480280 6.666798 -8.393055
-6.519779 6.714124 -8.472789
-6.559847 6.760584 -8.552749
-6.600488 6.806165 -8.632925
-6.641705 6.850855 -8.713308
-6.683500 6.894641 -8.793889
-6.725877 6.937512 -8.874659
-6.768837 6.979456 -8.955608
-6.812381 7.020461 -9.036724
-6.856512 7.060518 -9.117998
-6.901229 7.099618 -9.199416
-6.946533 7.137751 -9.280970
-6.992424 7.174907 -9.362645
-7.038902 7.211079 -9.444431
-7.085965 7.246258 -9.526314
-7.133610 7.280439 -9.608284
-7.181837 7.313615 -9.690327
-7.230643 7.345778 -9.772430
-7.280025 7.376924 -9.854581
-7.329978 7.407048 -9.936768
-7.380497 7.436146 -10.018979
-7.431578 7.464216 -10.101200
-7.483215 7.491254 -10.183419
-7.535404 7.517256 -10.265624
-7.588135 7.542222 -10.347804
-7.641403 7.566152 -10.429946
-7.695198 7.589046 -10.512040
-7.749513 7.610905 -10.594074
-7.804340 7.631728 -10.676037
-7.859669 7.651518 -10.757918
-7.915490 7.670278 -10.839707
-7.971793 7.688013 -10.921395
-8.028568 7.704727 -11.002972
-8.085803 7.720423 -11.084428
-8.143490 7.735106 -11.165756
-8.201616 7.748783 -11.246945
-8.260170 7.761462 -11.327989
-8.319141 7.773150 -11.408880
-8.378516 7.783854 -11.489611
-8.438285 7.793581 -11.570175
-8.498437 7.802342 -11.650564
-8.558959 7.810146 -11.730774
-8.619840 7.817003 -11.810799
-8.681069 7.822924 -11.890633
-8.742633 7.827919 -11.970272
-8.804523 7.831999 -12.049711
-8.866728 7.835174 -12.128945
-8.929236 7.837455 -12.207970
-8.992038 7.838851 -12.286783
-9.055123 7.839374 -12.365380
-1.242206 -1.635012 3.758480
-1.099969 -1.471213 3.854160
-0.969424 -1.298533 3.950816
-0.854366 -1.115600 4.048169
-0.760299 -0.921129 4.145531
-0.695040 -0.714613 4.241409
-0.668676 -0.497839 4.332904
-0.692835 -0.277234 4.414951
-0.769610 -0.064051 4.482643
-0.892151 0.131810 4.533549
-1.048530 0.306106 4.568579
-1.227758 0.459528 4.590392
-1.240982 -1.633651 3.759284
-1.101109 -1.472640 3.853347
-1.098828 -1.469785 3.854972
-0.970457 -1.300037 3.949997
-0.968391 -1.297029 3.951635
-0.855257 -1.117190 4.047346
-0.853474 -1.114009 4.048992
-0.761001 -0.922814 4.144713
-0.759597 -0.919445 4.146350
-0.695486 -0.716390 4.240608
-0.694593 -0.712835 4.242209
-0.668789 -0.499687 4.332148
-0.668586 -0.495989 4.333655
-0.692338 -0.279070 4.414332
-0.693332 -0.275399 4.415569
-0.768722 -0.065775 4.482154
-0.770499 -0.062327 4.483132
-0.890953 0.130249 4.533192
-0.893350 0.133371 4.533907
-1.047112 0.304717 4.568337
-1.049948 0.307495 4.568821
-1.226190 0.458295 4.590244
-1.234983 -1.626979 3.763226
-1.106699 -1.479636 3.849366
-1.093239 -1.462789 3.858953
-0.975519 -1.307405 3.945983
-0.963328 -1.289661 3.955649
-0.859626 -1.124981 4.043315
-0.849106 -1.106218 4.053022
-0.764440 -0.931067 4.140701
-0.756158 -0.911192 4.150362
-0.697675 -0.725100 4.236687
-0.692405 -0.704125 4.246130
-0.669342 -0.508743 4.328445
-0.668985 -0.486855 4.337183
-0.689901 -0.288065 4.411302
-0.695769 -0.266403 4.418600
-0.764369 -0.074221 4.479756
-0.774851 -0.053881 4.485530
-0.885081 0.122601 4.531440
-0.899221 0.141018 4.535659
-1.040162 0.297910 4.567152
-1.056898 0.314302 4.570006
-1.218508 0.452253 4.589520
-1.219857 -1.610156 3.773165
-1.199765 -1.587810 3.786367
-1.179673 -1.565464 3.799569
-1.160089 -1.542706 3.812824
-1.140642 -1.519836 3.826094
-1.121194 -1.496967 3.839363
-1.079145 -1.445148 3.868992
-1.060425 -1.421716 3.882326
-1.041978 -1.398084 3.895680
-1.024082 -1.374050 3.909074
-1.006187 -1.350015 3.922467
-0.988291 -1.325980 3.935861
-0.950564 -1.271080 3.965771
-0.933609 -1.246401 3.979216
-0.917600 -1.221119 3.992694
-0.901725 -1.195752 4.006177
-0.885849 -1.170385 4.019659
-0.870641 -1.144627 4.033151
-0.838091 -1.086572 4.063187
-0.824066 -1.060156 4.076683
-0.810875 -1.033298 4.090172
-0.797685 -1.006440 4.103662
-0.784630 -0.979519 4.117147
-0.773112 -0.951877 4.130584
-0.747487 -0.890381 4.160478
-0.737845 -0.861982 4.173808
-0.728268 -0.833557 4.187134
-0.718692 -0.805131 4.200459
-0.710523 -0.776237 4.213665
-0.703193 -0.747064 4.226799
-0.688204 -0.681824 4.255866
-0.683449 -0.651993 4.268702
-0.678694 -0.622161 4.281538
-0.674441 -0.592243 4.294299
-0.672589 -0.561911 4.306703
-0.670737 -0.531579 4.319106
-0.669992 -0.463823 4.346078
-0.671330 -0.433230 4.357893
-0.672668 -0.402637 4.369708
-0.676441 -0.372082 4.380979
-0.681163 -0.341542 4.392038
-0.685885 -0.311002 4.403098
-0.701914 -0.243722 4.426241
-0.710075 -0.213594 4.436391
-0.719128 -0.183672 4.446266
-0.730623 -0.154313 4.455388
-0.742119 -0.124954 4.464511
-0.753614 -0.095595 4.473633
-0.785827 -0.032583 4.491575
-0.800406 -0.004293 4.499605
-0.817213 0.022953 4.506739
-0.834528 0.049962 4.513668
-0.851843 0.076971 4.520598
-0.870275 0.103317 4.527022
-0.914027 0.160303 4.540076
-0.934406 0.185404 4.545586
-0.956046 0.209595 4.550462
-0.977687 0.233786 4.555337
-0.999362 0.257948 4.560194
-1.022638 0.280746 4.564164
-1.074422 0.331466 4.572995
-1.098918 0.353063 4.576225
-1.123540 0.374537 4.579378
-1.148162 0.396010 4.582532
-1.173411 0.416782 4.585272
-1.199139 0.437018 4.587695
26 NaN NaN
-1.242512 -1.635353 3.758278
-1.175402 -1.560714 3.802375
-1.110445 -1.484326 3.846698
-1.047917 -1.406060 3.891236
-0.988143 -1.325782 3.935972
-0.931513 -1.243350 3.980878
-0.878489 -1.158624 4.025910
-0.829621 -1.071467 4.071001
-0.785566 -0.981766 4.116055
-0.747098 -0.889448 4.160932
-0.715116 -0.794517 4.205435
-0.690638 -0.697096 4.249295
-0.674761 -0.597481 4.292157
-0.668576 -0.496203 4.333573
-0.673043 -0.394060 4.373020
-0.688808 -0.292098 4.409943
-0.716057 -0.191515 4.443829
-0.754436 -0.093496 4.474285
-0.803111 0.000957 4.501095
-0.860927 0.091140 4.524233
-0.926597 0.176675 4.543826
-0.998865 0.257460 4.560109
-1.076599 0.333598 4.573366
-1.158831 0.405315 4.583898
-1.244760 0.472901 4.591993
-1.333732 0.536670 4.597918
-1.676359 -1.486265 2.448202
-1.515305 -1.385018 2.409608
-1.357866 -1.277801 2.372312
-1.205119 -1.163486 2.336665
-1.059085 -1.040074 2.303324
-0.922881 -0.905201 2.273262
-0.800802 -0.756724 2.247760
-0.700367 -0.591954 2.229009
-0.638994 -0.408515 2.221880
-0.629503 -0.216105 2.229358
-0.676202 -0.030116 2.251814
-0.769902 0.135920 2.286035
-0.892872 0.280013 2.327084
-1.032881 0.406550 2.371858
-1.674691 -1.485236 2.447801
-1.516953 -1.386081 2.410001
-1.513657 -1.383955 2.409214
-1.359464 -1.278943 2.372688
-1.356268 -1.276659 2.371936
-1.206647 -1.164728 2.337017
-1.203591 -1.162245 2.336314
-1.060566 -1.041375 2.303660
-1.057603 -1.038773 2.302989
-0.924230 -0.906648 2.273554
-0.921532 -0.903754 2.272970
-0.801932 -0.758359 2.247983
-0.799671 -0.755089 2.247538
-0.701333 -0.593696 2.229181
-0.699600 -0.590111 2.228897
-0.639462 -0.410459 2.221906
-0.638525 -0.406571 2.221854
-0.629273 -0.218085 2.229192
-0.629733 -0.214126 2.229525
-0.675347 -0.031895 2.251488
-0.677058 -0.028338 2.252140
-0.768827 0.134277 2.285656
-0.770977 0.137563 2.286414
-0.891510 0.278617 2.326640
-0.894234 0.281409 2.327528
-1.031357 0.405346 2.371380
-1.667776 -1.480969 2.446140
-1.523787 -1.390488 2.411633
-1.506823 -1.379547 2.407583
-1.366092 -1.283679 2.374246
-1.349640 -1.271923 2.370377
-1.212984 -1.169877 2.338474
-1.197254 -1.157096 2.334856
-1.066708 -1.046772 2.305052
-1.051461 -1.033376 2.301597
-0.929827 -0.912649 2.274765
-0.915936 -0.897753 2.271759
-0.806621 -0.765138 2.248906
-0.794983 -0.748310 2.246614
-0.705340 -0.600924 2.229895
-0.696496 -0.582433 2.228452
-0.641406 -0.418522 2.222014
-0.636582 -0.398508 2.221746
-0.628319 -0.226296 2.228503
-0.630686 -0.205915 2.230214
-0.671801 -0.039270 2.250136
-0.680604 -0.020963 2.253493
-0.764368 0.127462 2.284084
-0.775436 0.144378 2.287985
-0.885862 0.272829 2.324798
-0.899882 0.287197 2.329370
-1.025037 0.400353 2.369396
-1.650998 -1.470616 2.442109
-1.628771 -1.456901 2.436769
-1.606545 -1.443187 2.431430
-1.584319 -1.429472 2.426090
-1.562331 -1.415348 2.420837
-1.540367 -1.401182 2.415592
-1.490243 -1.368854 2.403624
-1.468565 -1.354218 2.398482
-1.446905 -1.339552 2.393346
-1.425246 -1.324886 2.388211
-1.403586 -1.310221 2.383075
-1.382173 -1.295171 2.378027
-1.333559 -1.260432 2.366596
-1.312257 -1.245209 2.361587
-1.291261 -1.229536 2.356685
-1.270383 -1.213690 2.351825
-1.249506 -1.197844 2.346964
-1.228628 -1.181998 2.342104
-1.181880 -1.144603 2.331320
-1.161513 -1.128055 2.326636
-1.141147 -1.111506 2.321951
-1.121095 -1.094556 2.317373
-1.101353 -1.077211 2.312901
-1.081611 -1.059866 2.308428
-1.036974 -1.019797 2.298359
-1.018007 -1.001545 2.294146
-0.999041 -0.983293 2.289932
-0.980075 -0.965041 2.285718
-0.961389 -0.946494 2.281596
-0.943403 -0.927208 2.277703
-0.902359 -0.883194 2.268820
-0.884774 -0.863533 2.265057
-0.868052 -0.843069 2.261570
-0.851329 -0.822604 2.258083
-0.834606 -0.802140 2.254597
-0.817996 -0.781585 2.251145
-0.783608 -0.731862 2.244375
-0.768539 -0.710074 2.241408
-0.753691 -0.688140 2.238509
-0.740814 -0.664913 2.236215
-0.727937 -0.641685 2.233921
-0.715060 -0.618457 2.231627
-0.688964 -0.563804 2.227374
-0.678987 -0.539126 2.225946
-0.669010 -0.514448 2.224518
-0.659032 -0.489769 2.223090
-0.652367 -0.463995 2.222622
-0.646121 -0.438083 2.222275
-0.631867 -0.378947 2.221484
-0.629766 -0.352415 2.222300
-0.628006 -0.325832 2.223211
-0.626246 -0.299248 2.224122
-0.624486 -0.272665 2.225033
-0.626005 -0.246215 2.226830
-0.633000 -0.185996 2.231887
-0.636065 -0.159609 2.234102
-0.642387 -0.133985 2.237165
-0.649991 -0.108663 2.240562
-0.657595 -0.083340 2.243959
-0.665200 -0.058017 2.247356
-0.689207 -0.003071 2.256773
-0.700605 0.020632 2.261119
-0.712002 0.044335 2.265465
-0.724888 0.067124 2.270169
-0.739219 0.089026 2.275220
-0.753550 0.110928 2.280271
-0.787441 0.159972 2.292073
-0.803964 0.180139 2.297630
-0.820486 0.200306 2.303188
-0.837009 0.220474 2.308746
-0.854008 0.240183 2.314409
-0.872160 0.258786 2.320329
-0.913584 0.301240 2.333839
-0.932134 0.319397 2.339844
-0.951509 0.336631 2.346025
-0.970884 0.353864 2.352207
-0.990260 0.371097 2.358388
-1.009706 0.388241 2.364585
24 NaN NaN
-1.676776 -1.486522 2.448302
-1.582304 -1.428229 2.425606
-1.488946 -1.368018 2.403314
-1.396882 -1.305682 2.381486
-1.306338 -1.240980 2.360196
-1.217600 -1.173628 2.339536
-1.131036 -1.103291 2.319626
-1.047129 -1.029570 2.300616
-0.966521 -0.951997 2.282706
-0.890084 -0.870031 2.266164
-0.819020 -0.783066 2.251347
-0.754991 -0.690485 2.238741
-0.700286 -0.591808 2.228995
-0.657911 -0.486997 2.222930
-0.631393 -0.376981 2.221458
-0.623922 -0.264149 2.225325
-0.636931 -0.152153 2.234728
-0.669214 -0.044650 2.249150
-0.717616 0.056010 2.267606
-0.778494 0.149052 2.289063
-0.848698 0.234741 2.312678
-0.925834 0.313794 2.337834
-1.008176 0.387033 2.364105
-1.094497 0.455227 2.391196
-1.027145 -1.104737 0.310311
-0.818482 -0.887405 0.356908
-0.645038 -0.644670 0.418044
-0.533969 -0.373806 0.498844
-0.523238 -0.088683 0.600094
-0.625157 0.174828 0.710727
-0.807216 0.394065 0.817607
-1.025721 -1.103361 0.310590
-0.819781 -0.888888 0.356572
-0.817182 -0.885923 0.357245
-0.646028 -0.646347 0.417590
-0.644048 -0.642993 0.418499
-0.534387 -0.375665 0.498237
-0.533550 -0.371947 0.499451
-0.522837 -0.090506 0.599375
-0.523639 -0.086860 0.600813
-0.624099 0.173289 0.710011
-0.626221 0.176363 0.711443
-0.805888 0.392734 0.816924
-1.017051 -1.094982 0.312291
-0.827693 -0.897914 0.354521
-0.809270 -0.876897 0.359295
-0.652057 -0.656559 0.414825
-0.638020 -0.632781 0.421264
-0.536936 -0.386984 0.494542
-0.531001 -0.360628 0.503147
-0.520395 -0.101603 0.594998
-0.526081 -0.075763 0.605190
-0.618737 0.163292 0.705585
-0.632698 0.185707 0.715803
-0.797803 0.384633 0.812768
-0.994298 -1.072993 0.316756
-0.963995 -1.043709 0.322701
-0.934339 -1.013846 0.328954
-0.905240 -0.983484 0.335471
-0.876140 -0.953122 0.341989
-0.848457 -0.921601 0.349141
-0.789542 -0.852450 0.365108
-0.763649 -0.819613 0.373008
-0.737821 -0.786734 0.380932
-0.714087 -0.752506 0.389664
-0.690353 -0.718277 0.398395
-0.667876 -0.683359 0.407567
-0.622469 -0.605861 0.428606
-0.604696 -0.568702 0.439304
-0.586922 -0.531544 0.450002
-0.571262 -0.493676 0.461278
-0.557525 -0.455165 0.473079
-0.543787 -0.416653 0.484881
-0.524313 -0.330924 0.512846
-0.518603 -0.291071 0.526355
-0.515233 -0.251005 0.540299
-0.511987 -0.210943 0.554261
-0.514579 -0.171114 0.569028
-0.517171 -0.131285 0.583796
-0.532490 -0.046640 0.616676
-0.541438 -0.007985 0.631990
-0.555450 0.029084 0.647504
-0.569462 0.066153 0.663017
-0.585927 0.102118 0.678506
-0.604666 0.137057 0.693972
-0.649695 0.210229 0.727244
-0.672332 0.242887 0.742481
-0.696758 0.274262 0.757529
-0.722526 0.304676 0.772434
-0.748328 0.335061 0.787334
-0.776585 0.363374 0.801860
19 NaN NaN
-1.027501 -1.105081 0.310241
-0.949971 -1.030156 0.325452
-0.875519 -0.952474 0.342128
-0.804772 -0.871765 0.360461
-0.738529 -0.787756 0.380672
-0.677813 -0.700192 0.403008
-0.623920 -0.608894 0.427733
-0.578459 -0.513851 0.455095
-0.543326 -0.415362 0.485276
-0.520549 -0.314209 0.518303
-0.511933 -0.211771 0.553954
-0.518559 -0.109948 0.591707
-0.540378 -0.010789 0.630816
-0.576206 0.083995 0.670484
-0.624130 0.173346 0.710035
-0.682027 0.256874 0.749008
-0.747940 0.334672 0.787134
-0.820227 0.407102 0.824296
-0.897587 0.474639 0.860466
