0.149414 0.149407 0.149329 0.148999 0.148484 0.147975 0.147466 0.146958 0.146454 0.146131 0.146056 0.146049 0.146042 0.145967 0.145648 0.145149 0.144665 0.144180 0.143696 0.143226 0.142925 0.142855 0.142848 0.142842 0.142772 0.142481 0.142027 0.141592 0.141158 0.140723 0.140304 0.140036 0.139973 0.139967 0.139961 0.139899 0.139636 0.139226 0.138821 0.138415 0.138010 0.137607 0.137349 0.137289 0.137283 0.137277 0.137217 0.136959 0.136557 0.136156 0.135755 0.135354 0.134957 0.134702 0.134643 0.134637 0.134631 0.134572 0.134320 0.133928 0.133544 0.133160 0.132775 0.132400 0.132159 0.132103 0.132098 0.132093 0.132037 0.131802 0.131435 0.131080 0.130724 0.130369 0.130029 0.129811 0.129761 0.129756 0.129751 0.129701 0.129491 0.129165 0.128853 0.128542 0.128231 0.127934 0.127744 0.127700 0.127696 0.127692 0.127648 0.127466 0.127181 0.126910 0.126639 0.126368 0.126111 0.125946 0.125908 0.125904 0.125901 0.125863 0.125705 0.125459 0.125227 0.124994 0.124761 0.124540 0.124398 0.124365 0.124362 0.124359 0.124327 0.124190 0.123977 0.123771 0.123566 0.123361 0.123162 0.123035 0.123006 0.123003 0.123000 0.122971 0.122848 0.122655 0.122467 0.122280 0.122093 0.121913 0.121797 0.121770 0.121768 0.121765 0.121739 0.121626 0.121451 0.121283 0.121114 0.120946 0.120785 0.120681 0.120658 0.120655 0.120653 0.120629 0.120530 0.120375 0.120228 0.120080 0.119932 0.119792 0.119702 0.119681 0.119679 0.119677 0.119656 0.119570 0.119435 0.119307 0.119179 0.119051 0.118929 0.118851 0.118833 0.118831 
0.149417 0.149422 0.149455 0.149535 0.149641 0.149739 0.149838 0.149936 0.150028 0.150096 0.150122 0.150126 0.150129 0.150155 0.150225 0.150318 0.150413 0.150508 0.150603 0.150706 0.150783 0.150811 0.150815 0.150820 0.150851 0.150933 0.151043 0.151173 0.151303 0.151433 0.151586 0.151700 0.151747 0.151754 0.151760 0.151807 0.151942 0.152122 0.152325 0.152528 0.152731 0.152957 0.153125 0.153191 0.153200 0.153209 0.153277 0.153458 0.153701 0.153959 0.154217 0.154476 0.154747 0.154950 0.155028 0.155038 0.155049 0.155127 0.155341 0.155626 0.155921 0.156215 0.156509 0.156816 0.157045 0.157133 0.157146 0.157158 0.157246 0.157486 0.157807 0.158139 0.158472 0.158804 0.159148 0.159406 0.159503 0.159517 0.159530 0.159628 0.159894 0.160248 0.160614 0.160980 0.161346 0.161723 0.162006 0.162114 0.162129 0.162144 0.162252 0.162545 0.162936 0.163336 0.163736 0.164136 0.164549 0.164859 0.164976 0.164992 0.165009 0.165126 0.165446 0.165874 0.166308 0.166743 0.167178 0.167626 0.167961 0.168087 0.168105 0.168123 0.168249 0.168592 0.169050 0.169516 0.169983 0.170450 0.170927 0.171285 0.171420 0.171439 0.171458 0.171594 0.171961 0.172450 0.172950 0.173450 0.173949 0.174461 0.174845 0.174989 0.175009 0.175029 0.175174 0.175565 0.176088 0.176625 0.177162 0.177699 0.178250 0.178663 0.178817 0.178838 0.178860 0.179015 0.179435 0.179995 0.180573 0.181151 0.181729 0.182322 0.182767 0.182936 0.182959 0.182983 0.183152 0.183610 0.184222 0.184853 0.185484 0.186115 0.186769 0.187259 0.187444 0.187470 0.187496 0.187682 0.188191 0.188870 0.189570 0.190271 0.190971 0.191702 0.192249 0.192458 0.192487 
0.149416 0.149415 0.149412 0.149259 0.149016 0.148590 0.148164 0.147738 0.147561 0.147449 0.147422 0.147420 0.147418 0.147390 0.147281 0.147108 0.146863 0.146619 0.146374 0.146035 0.145820 0.145767 0.145762 0.145757 0.145704 0.145467 0.145092 0.144740 0.144389 0.144038 0.143741 0.143554 0.143514 0.143510 0.143507 0.143467 0.143290 0.143011 0.142674 0.142338 0.142001 0.141545 0.141257 0.141182 0.141176 0.141169 0.141092 0.140666 0.139991 0.138881 0.137771 0.136661 0.134856 0.133715 0.133411 0.133384 0.133357 0.133054 0.131682 0.129509 0.127504 0.125498 0.123492 0.122143 0.121292 0.121142 0.121129 0.121116 0.120973 0.120454 0.119631 0.119121 0.118611 0.118101 0.117763 0.117549 0.117508 0.117504 0.117500 0.117460 0.117299 0.117045 0.116854 0.116663 0.116473 0.116325 0.116232 0.116213 0.116211 0.116210 0.116191 0.116113 0.115989 0.115886 0.115782 0.115678 0.115589 0.115532 0.115520 0.115519 0.115518 0.115507 0.115455 0.115374 0.115301 0.115227 0.115154 0.115087 0.115045 0.115036 0.115035 0.115034 0.115025 0.114986 0.114923 0.114866 0.114809 0.114752 0.114699 0.114666 0.114658 0.114658 0.114657 0.114650 0.114619 0.114571 0.114527 0.114482 0.114438 0.114398 0.114373 0.114367 0.114367 0.114366 0.114361 0.114338 0.114302 0.114269 0.114236 0.114204 0.114175 0.114157 0.114153 0.114153 0.114152 0.114149 0.114132 0.114107 0.114085 0.114062 0.114040 0.114021 0.114009 0.114007 0.114006 0.114006 0.114004 0.113993 0.113977 0.113964 0.113950 0.113937 0.113927 0.113921 0.113920 0.113920 0.113920 0.113918 0.113914 0.113907 0.113902 0.113897 0.113893 0.113884 0.113879 0.113878 0.113878 
0.119679 0.119678 0.119675 0.119668 0.119659 0.119649 0.119640 0.119630 0.119619 0.119611 0.119607 0.119606 0.119605 0.119602 0.119593 0.119581 0.119569 0.119556 0.119543 0.119529 0.119519 0.119515 0.119514 0.119512 0.119508 0.119497 0.119482 0.119467 0.119451 0.119436 0.119420 0.119407 0.119402 0.119401 0.119400 0.119396 0.119386 0.119373 0.119361 0.119348 0.119335 0.119323 0.119313 0.119309 0.119308 0.119307 0.119303 0.119294 0.119282 0.119270 0.119257 0.119245 0.119234 0.119225 0.119221 0.119220 0.119219 0.119215 0.119207 0.119195 0.119184 0.119173 0.119163 0.119152 0.119143 0.119140 0.119139 0.119138 0.119135 0.119128 0.119118 0.119108 0.119099 0.119089 0.119080 0.119074 0.119071 0.119070 0.119069 0.119066 0.119060 0.119051 0.119043 0.119036 0.119028 0.119020 0.119015 0.119012 0.119012 0.119011 0.119009 0.119004 0.118997 0.118991 0.118984 0.118978 0.118972 0.118967 0.118966 0.118965 
0.123003 0.123001 0.122996 0.122984 0.122969 0.122954 0.122938 0.122923 0.122906 0.122894 0.122888 0.122886 0.122884 0.122878 0.122865 0.122847 0.122829 0.122811 0.122793 0.122774 0.122760 0.122753 0.122751 0.122749 0.122742 0.122727 0.122708 0.122687 0.122667 0.122647 0.122626 0.122610 0.122602 0.122600 0.122598 0.122592 0.122579 0.122563 0.122547 0.122530 0.122514 0.122498 0.122485 0.122480 0.122478 0.122476 0.122471 0.122458 0.122442 0.122426 0.122409 0.122393 0.122377 0.122365 0.122359 0.122357 0.122355 0.122350 0.122337 0.122321 0.122305 0.122289 0.122273 0.122257 0.122245 0.122239 0.122237 0.122236 0.122230 0.122218 0.122202 0.122186 0.122170 0.122154 0.122138 0.122126 0.122121 0.122119 0.122117 0.122111 0.122099 0.122083 0.122068 0.122052 0.122036 0.122021 0.122009 0.122003 0.122001 0.122000 0.121994 0.121983 0.121967 0.121952 0.121937 0.121922 0.121907 0.121895 0.121890 0.121888 0.121886 0.121881 0.121870 0.121856 0.121841 0.121826 0.121812 0.121797 0.121786 0.121781 0.121780 0.121778 0.121773 0.121763 0.121749 0.121735 0.121721 0.121707 0.121694 0.121684 0.121679 0.121677 0.121676 0.121671 0.121661 0.121648 0.121634 0.121621 0.121608 0.121595 0.121585 0.121580 0.121579 0.121577 0.121573 0.121563 0.121550 0.121537 0.121525 0.121512 0.121500 0.121490 0.121486 0.121484 
0.125904 0.125902 0.125895 0.125877 0.125853 0.125825 0.125798 0.125771 0.125740 0.125717 0.125707 0.125705 0.125703 0.125693 0.125666 0.125631 0.125593 0.125555 0.125516 0.125486 0.125463 0.125455 0.125453 0.125452 0.125444 0.125424 0.125397 0.125371 0.125345 0.125318 0.125291 0.125271 0.125263 0.125261 0.125259 0.125251 0.125231 0.125204 0.125176 0.125149 0.125121 0.125094 0.125073 0.125064 0.125062 0.125061 0.125052 0.125031 0.125003 0.124976 0.124948 0.124920 0.124893 0.124873 0.124865 0.124863 0.124861 0.124853 0.124833 0.124807 0.124781 0.124755 0.124729 0.124704 0.124686 0.124678 0.124677 0.124675 0.124668 0.124650 0.124626 0.124602 0.124579 0.124556 0.124533 0.124516 0.124509 0.124508 0.124506 0.124499 0.124482 0.124460 0.124438 0.124417 0.124395 0.124373 0.124357 0.124351 0.124349 
0.127696 0.127693 0.127683 0.127658 0.127625 0.127592 0.127558 0.127524 0.127488 0.127461 0.127449 0.127446 0.127443 0.127431 0.127403 0.127365 0.127326 0.127286 0.127246 0.127205 0.127174 0.127160 0.127157 0.127153 0.127139 0.127106 0.127063 0.127018 0.126973 0.126928 0.126882 0.126847 0.126832 0.126828 0.126824 0.126809 0.126774 0.126728 0.126693 0.126659 0.126624 0.126590 0.126565 0.126554 0.126551 0.126548 0.126537 0.126512 0.126479 0.126447 0.126415 0.126383 0.126351 0.126326 0.126317 0.126314 0.126311 0.126302 0.126278 0.126248 0.126218 0.126188 0.126158 0.126129 0.126108 0.126098 0.126096 0.126093 0.126084 0.126063 0.126035 0.126008 0.125981 0.125953 0.125927 0.125907 0.125899 0.125897 0.125895 0.125887 0.125868 0.125843 0.125819 0.125795 0.125772 0.125748 0.125731 0.125724 0.125722 0.125720 0.125712 0.125696 0.125675 0.125654 0.125634 0.125613 0.125594 0.125579 0.125573 0.125571 0.125570 0.125564 0.125549 0.125530 0.125512 0.125494 0.125476 0.125458 0.125445 0.125439 0.125438 0.125436 0.125431 0.125419 0.125402 0.125385 0.125369 0.125352 0.125337 0.125325 0.125320 0.125318 
0.129755 0.129751 0.129734 0.129690 0.129633 0.129574 0.129515 0.129456 0.129395 0.129350 0.129331 0.129327 0.129323 0.129305 0.129258 0.129195 0.129131 0.129067 0.129002 0.128936 0.128886 0.128865 0.128861 0.128856 0.128836 0.128784 0.128715 0.128644 0.128573 0.128502 0.128428 0.128373 0.128351 0.128346 0.128341 0.128319 0.128262 0.128187 0.128109 0.128032 0.127954 0.127875 0.127816 0.127792 0.127787 0.127782 0.127758 0.127712 0.127650 0.127594 0.127539 0.127483 0.127431 0.127392 0.127376 0.127373 0.127369 0.127354 0.127316 0.127266 0.127219 0.127172 0.127124 0.127080 0.127047 0.127034 0.127031 0.127028 0.127015 0.126984 0.126943 0.126904 0.126865 0.126826 0.126790 0.126763 0.126752 0.126750 0.126748 0.126737 0.126712 0.126680 0.126650 0.126619 0.126589 0.126560 0.126539 0.126531 0.126529 0.126527 0.126519 0.126500 0.126475 0.126452 0.126428 0.126405 0.126382 0.126365 0.126359 0.126357 0.126356 0.126350 0.126335 0.126314 0.126295 0.126276 0.126257 0.126238 0.126224 0.126218 0.126217 
0.132097 0.132094 0.132084 0.132061 0.132030 0.131999 0.131967 0.131935 0.131902 0.131877 0.131867 0.131864 0.131861 0.131850 0.131824 0.131790 0.131753 0.131716 0.131680 0.131643 0.131615 0.131602 0.131599 0.131595 0.131583 0.131553 0.131515 0.131475 0.131435 0.131396 0.131354 0.131322 0.131309 0.131305 0.131301 0.131287 0.131255 0.131212 0.131166 0.131120 0.131075 0.131028 0.130992 0.130976 0.130972 0.130968 0.130952 0.130914 0.130865 0.130814 0.130762 0.130711 0.130658 0.130618 0.130601 0.130596 0.130591 0.130574 0.130533 0.130478 0.130422 0.130366 0.130310 0.130252 0.130209 0.130190 0.130184 0.130179 0.130160 0.130115 0.130057 0.129997 0.129937 0.129877 0.129833 0.129799 0.129786 0.129782 0.129779 0.129766 0.129736 0.129697 0.129660 0.129622 0.129584 0.129547 0.129520 0.129508 0.129505 0.129501 0.129490 0.129463 0.129427 0.129392 0.129357 0.129323 0.129289 0.129263 0.129252 0.129249 0.129246 0.129235 0.129211 0.129178 0.129146 0.129114 0.129081 0.129050 0.129027 0.129017 0.129014 0.129012 0.129002 0.128979 0.128949 0.128920 0.128891 0.128862 0.128833 0.128812 0.128802 0.128800 0.128797 0.128788 0.128768 0.128741 0.128715 0.128688 0.128662 0.128637 0.128618 0.128610 0.128608 0.128605 0.128597 0.128578 0.128553 0.128530 0.128506 0.128482 0.128459 0.128441 0.128433 0.128431 0.128429 0.128421 0.128404 0.128382 0.128359 0.128337 0.128314 0.128293 0.128276 0.128269 0.128267 0.128265 0.128258 0.128241 0.128219 0.128198 0.128176 0.128154 0.128133 0.128116 0.128109 0.128107 
0.134636 0.134634 0.134627 0.134610 0.134588 0.134565 0.134542 0.134519 0.134495 0.134477 0.134468 0.134465 0.134462 0.134454 0.134434 0.134409 0.134383 0.134357 0.134330 0.134302 0.134281 0.134271 0.134268 0.134265 0.134255 0.134232 0.134203 0.134173 0.134143 0.134113 0.134082 0.134058 0.134047 0.134043 0.134040 0.134029 0.134005 0.133973 0.133940 0.133907 0.133874 0.133840 0.133815 0.133803 0.133799 0.133795 0.133784 0.133757 0.133722 0.133686 0.133650 0.133614 0.133577 0.133549 0.133536 0.133532 0.133528 0.133515 0.133485 0.133447 0.133407 0.133368 0.133328 0.133288 0.133258 0.133243 0.133238 0.133234 0.133219 0.133187 0.133145 0.133103 0.133060 0.133018 0.132974 0.132940 0.132924 0.132919 0.132914 0.132899 0.132864 0.132819 0.132773 0.132727 0.132681 0.132633 0.132597 0.132581 0.132575 0.132570 0.132553 0.132517 0.132469 0.132420 0.132371 0.132322 0.132272 0.132235 0.132218 0.132212 0.132206 0.132189 0.132152 0.132104 0.132071 0.132039 0.132006 0.131974 0.131950 0.131939 0.131935 0.131931 0.131920 0.131897 0.131867 0.131838 0.131808 0.131779 0.131749 0.131727 0.131718 0.131714 0.131711 0.131702 0.131681 0.131654 0.131626 0.131599 0.131572 0.131545 0.131525 0.131517 0.131514 0.131511 0.131502 0.131482 0.131457 0.131432 0.131407 0.131381 0.131358 0.131340 0.131332 0.131329 0.131326 0.131318 0.131300 0.131276 0.131253 0.131230 0.131208 0.131185 0.131169 0.131161 0.131158 0.131156 0.131148 0.131131 0.131109 0.131088 0.131068 0.131047 0.131026 0.131011 0.131004 0.131001 0.130999 0.130992 0.130977 0.130957 0.130938 0.130919 0.130899 0.130880 0.130866 0.130859 0.130857 0.130855 0.130848 0.130835 0.130817 0.130799 0.130782 0.130764 0.130746 0.130733 0.130727 0.130725 0.130723 0.130718 0.130705 0.130688 0.130671 0.130654 0.130637 0.130621 0.130609 0.130604 0.130602 0.130600 0.130595 0.130582 0.130566 0.130551 0.130535 0.130519 0.130504 0.130492 0.130487 0.130485 0.130484 0.130478 0.130466 0.130451 0.130436 0.130421 0.130406 0.130391 0.130379 0.130374 0.130372 
0.137283 0.137282 0.137279 0.137275 0.137270 0.137264 0.137258 0.137252 0.137246 0.137241 0.137239 0.137237 0.137236 0.137233 0.137228 0.137222 0.137215 0.137207 0.137200 0.137193 0.137187 0.137183 0.137182 0.137180 0.137177 0.137170 0.137162 0.137154 0.137146 0.137137 0.137129 0.137122 0.137118 0.137116 0.137114 0.137110 0.137102 0.137093 0.137083 0.137073 0.137063 0.137053 0.137046 0.137041 0.137039 0.137037 0.137032 0.137024 0.137014 0.137003 0.136992 0.136981 0.136969 0.136960 0.136955 0.136953 0.136950 0.136945 0.136936 0.136924 0.136912 0.136900 0.136888 0.136876 0.136866 0.136861 0.136858 0.136855 0.136850 0.136840 0.136827 0.136814 0.136801 0.136788 0.136775 0.136765 0.136759 0.136756 0.136753 0.136748 0.136737 0.136723 0.136709 0.136695 0.136680 0.136666 0.136655 0.136648 0.136645 0.136642 0.136636 0.136624 0.136610 0.136595 0.136580 0.136566 0.136550 0.136538 0.136531 0.136528 0.136524 0.136518 0.136505 0.136489 0.136474 0.136458 0.136442 0.136425 0.136413 0.136406 0.136402 0.136399 0.136392 0.136378 0.136361 0.136343 0.136325 0.136308 0.136290 0.136276 0.136268 0.136264 0.136260 0.136252 0.136238 0.136220 0.136201 0.136183 0.136164 0.136144 0.136129 0.136120 0.136116 0.136112 0.136103 0.136088 0.136068 0.136047 0.136027 0.136007 0.135986 0.135970 0.135961 0.135957 0.135952 0.135943 0.135926 0.135904 0.135882 0.135860 0.135838 0.135815 0.135798 0.135788 0.135783 0.135778 0.135768 0.135751 0.135728 0.135704 0.135680 0.135657 0.135632 0.135613 0.135603 0.135598 0.135592 0.135582 0.135563 0.135538 0.135513 0.135488 0.135463 0.135438 0.135419 0.135408 0.135402 0.135397 0.135385 0.135365 0.135338 0.135312 0.135285 0.135259 0.135232 0.135211 0.135199 0.135194 0.135188 0.135176 0.135155 0.135128 0.135101 0.135073 0.135045 0.135017 0.134996 0.134983 0.134977 0.134971 0.134959 0.134937 0.134909 0.134881 0.134853 0.134824 0.134796 0.134775 0.134767 0.134763 0.134760 0.134752 0.134739 0.134721 0.134704 0.134687 0.134670 0.134654 0.134641 0.134634 0.134630 0.134626 0.134619 0.134607 0.134590 0.134575 0.134560 0.134544 0.134529 0.134517 0.134510 0.134507 0.134504 0.134497 0.134486 0.134471 0.134456 0.134441 0.134426 0.134411 0.134400 0.134394 0.134391 0.134388 0.134382 0.134371 0.134357 0.134343 0.134329 0.134315 0.134302 0.134291 0.134285 0.134282 0.134279 0.134273 0.134263 0.134250 0.134237 0.134224 0.134211 0.134198 0.134188 0.134183 0.134180 0.134177 0.134171 0.134161 0.134149 0.134136 0.134123 0.134110 0.134098 0.134089 0.134084 0.134081 0.134079 0.134074 0.134065 0.134053 0.134041 0.134029 0.134017 0.134005 0.133995 0.133990 0.133987 0.133985 0.133980 0.133971 0.133960 0.133949 0.133937 0.133926 0.133915 0.133906 0.133901 0.133899 0.133897 0.133892 0.133883 0.133872 0.133861 0.133850 0.133839 0.133828 0.133820 0.133815 0.133813 0.133811 0.133806 0.133798 0.133788 0.133777 0.133766 0.133756 0.133745 0.133737 0.133732 0.133730 0.133728 0.133724 0.133716 0.133706 0.133696 0.133686 0.133676 0.133666 0.133659 0.133654 0.133652 0.133650 0.133646 0.133638 0.133628 0.133618 0.133609 0.133599 0.133590 0.133583 0.133579 0.133577 0.133575 0.133571 0.133563 0.133554 0.133544 0.133535 0.133525 0.133516 0.133509 0.133505 0.133503 0.133501 0.133497 0.133490 0.133481 0.133472 0.133463 0.133454 0.133445 0.133438 0.133434 0.133432 0.133430 0.133426 0.133419 0.133410 0.133401 0.133392 0.133384 0.133375 0.133368 0.133364 0.133362 0.133361 0.133357 0.133350 0.133341 0.133332 0.133323 0.133314 0.133306 0.133299 0.133295 0.133293 0.133292 0.133288 0.133281 0.133273 0.133264 0.133256 0.133247 0.133238 0.133231 0.133228 0.133226 0.133224 0.133220 0.133213 0.133205 0.133196 0.133188 0.133180 0.133171 0.133164 0.133161 0.133159 0.133157 0.133153 0.133147 0.133138 0.133129 0.133121 0.133112 0.133104 0.133097 0.133094 0.133092 0.133090 0.133087 0.133080 0.133072 0.133063 0.133055 0.133046 0.133038 0.133031 0.133028 0.133026 
0.142848 0.142847 0.142846 0.142841 0.142834 0.142825 0.142816 0.142807 0.142795 0.142786 0.142781 0.142779 0.142778 0.142773 0.142761 0.142745 0.142727 0.142708 0.142690 0.142668 0.142651 0.142643 0.142640 0.142637 0.142629 0.142610 0.142586 0.142561 0.142535 0.142510 0.142482 0.142461 0.142451 0.142447 0.142444 0.142434 0.142411 0.142381 0.142350 0.142319 0.142288 0.142256 0.142232 0.142221 0.142218 0.142214 0.142203 0.142179 0.142149 0.142116 0.142084 0.142052 0.142019 0.141993 0.141982 0.141978 0.141974 0.141963 0.141939 0.141907 0.141874 0.141841 0.141808 0.141777 0.141753 0.141742 0.141738 0.141735 0.141724 0.141701 0.141670 0.141643 0.141615 0.141588 0.141565 0.141548 0.141540 0.141537 0.141534 0.141526 0.141507 0.141481 0.141455 0.141429 0.141402 0.141376 0.141356 0.141349 0.141346 0.141343 0.141335 0.141316 0.141292 0.141269 0.141245 0.141222 0.141193 0.141172 0.141161 0.141157 0.141153 0.141142 0.141118 0.141087 0.141054 0.141022 0.140989 0.140952 0.140923 0.140909 0.140905 0.140900 0.140886 0.140855 0.140815 0.140773 0.140732 0.140690 0.140642 0.140606 0.140589 0.140583 0.140578 0.140561 0.140524 0.140475 0.140423 0.140371 0.140320 0.140263 0.140221 0.140201 0.140194 0.140187 0.140167 0.140123 0.140065 0.140004 0.139943 0.139882 0.139818 0.139770 0.139747 0.139740 0.139732 0.139709 0.139664 0.139604 0.139556 0.139508 0.139459 0.139412 0.139376 0.139360 0.139354 0.139349 0.139332 0.139298 0.139253 0.139210 0.139167 0.139125 0.139083 0.139052 0.139037 0.139032 0.139027 0.139013 0.138985 0.138947 0.138910 0.138874 0.138837 0.138801 0.138773 0.138760 0.138756 0.138752 0.138741 0.138716 0.138684 0.138651 0.138619 0.138586 0.138555 0.138531 0.138521 0.138517 0.138514 0.138504 0.138482 0.138453 0.138423 0.138394 0.138365 0.138337 0.138316 0.138307 0.138304 0.138300 0.138291 0.138270 0.138244 0.138217 0.138190 0.138163 0.138138 0.138119 0.138111 0.138108 0.138105 0.138096 0.138077 0.138052 0.138027 0.138002 0.137978 0.137954 0.137936 0.137928 0.137925 0.137922 0.137914 0.137896 0.137872 0.137849 0.137826 0.137803 0.137780 0.137763 0.137755 0.137752 0.137749 0.137741 0.137724 0.137701 0.137679 0.137657 0.137635 0.137613 0.137596 0.137588 0.137585 0.137582 0.137574 0.137557 0.137535 0.137513 0.137491 0.137469 0.137447 0.137430 0.137422 0.137419 0.137416 0.137408 0.137392 0.137369 0.137347 0.137325 0.137302 0.137280 0.137262 0.137254 0.137251 0.137249 0.137241 0.137224 0.137201 0.137179 0.137156 0.137133 0.137110 0.137092 0.137084 0.137081 
0.151752 0.151744 0.151721 0.151668 0.151598 0.151526 0.151454 0.151382 0.151306 0.151249 0.151221 0.151212 0.151203 0.151175 0.151114 0.151034 0.150954 0.150875 0.150795 0.150713 0.150651 0.150622 0.150612 0.150602 0.150573 0.150511 0.150428 0.150345 0.150262 0.150179 0.150098 0.150037 0.150019 0.150013 0.150006 0.149988 0.149948 0.149895 0.149841 0.149787 0.149732 0.149676 0.149634 0.149614 0.149607 0.149601 0.149581 0.149538 0.149480 0.149420 0.149360 0.149300 0.149238 0.149191 0.149169 0.149162 0.149155 0.149133 0.149084 0.149020 0.148953 0.148887 0.148820 0.148753 0.148701 0.148677 0.148669 0.148661 0.148637 0.148582 0.148511 0.148438 0.148365 0.148292 0.148218 0.148162 0.148135 0.148126 0.148117 0.148089 0.148029 0.147951 0.147871 0.147791 0.147712 0.147631 0.147569 0.147540 0.147530 0.147520 0.147491 0.147427 0.147344 0.147261 0.147177 0.147094 0.147011 0.146947 0.146918 0.146909 0.146899 0.146870 0.146808 0.146726 0.146645 0.146564 0.146483 0.146405 0.146345 0.146318 0.146309 0.146300 0.146273 0.146215 0.146140 0.146068 0.145996 0.145924 0.145854 0.145801 0.145777 0.145769 0.145760 0.145736 0.145684 0.145616 0.145553 0.145490 0.145427 0.145365 0.145318 0.145297 0.145290 0.145282 0.145261 0.145217 0.145158 0.145104 0.145049 0.144994 0.144940 0.144899 0.144880 0.144873 0.144867 0.144848 0.144811 0.144762 0.144714 0.144666 0.144617 0.144569 0.144533 0.144517 0.144512 0.144507 0.144492 0.144459 0.144416 0.144373 0.144330 0.144286 0.144245 0.144214 0.144200 0.144195 0.144191 0.144177 0.144147 0.144108 0.144068 0.144029 0.143989 0.143953 0.143926 0.143914 0.143909 0.143905 0.143893 0.143865 0.143829 0.143794 0.143759 0.143723 0.143690 0.143665 0.143653 0.143649 0.143645 0.143633 0.143608 0.143574 0.143542 0.143509 0.143477 0.143445 0.143421 0.143410 0.143406 0.143402 0.143391 0.143367 0.143335 0.143304 0.143274 0.143244 0.143213 0.143190 0.143179 0.143175 0.143172 0.143161 0.143138 0.143107 0.143078 0.143048 0.143018 0.142988 0.142965 0.142954 0.142950 0.142947 0.142936 0.142914 0.142885 0.142855 0.142825 0.142796 0.142765 0.142742 0.142732 0.142728 
0.171433 0.171412 0.171256 0.170833 0.170269 0.169674 0.169078 0.168483 0.167880 0.167428 0.167259 0.167235 0.167212 0.167043 0.166594 0.165995 0.165399 0.164802 0.164205 0.163621 0.163183 0.163023 0.163000 0.162978 0.162818 0.162393 0.161825 0.161268 0.160712 0.160155 0.159618 0.159215 0.159069 0.159048 0.159028 0.158882 0.158553 0.158113 0.157799 0.157485 0.157170 0.156915 0.156724 0.156656 0.156647 0.156637 0.156570 0.156407 0.156190 0.156002 0.155814 0.155627 0.155461 0.155337 0.155296 0.155291 0.155285 0.155244 0.155135 0.154990 0.154862 0.154735 0.154607 0.154492 0.154406 0.154375 0.154370 
