-1.653164 0.705409 11.922150
-1.655110 0.708701 11.913203
-1.657057 0.711993 11.904255
-1.753966 0.875860 11.458857
-1.850009 1.038254 11.017476
-1.946006 1.200619 10.576074
-2.046061 1.364684 10.136415
-1.658330 0.714146 11.898402
-1.753566 0.875183 11.460696
-1.754367 0.876536 11.457018
-1.849609 1.037577 11.019314
-1.850409 1.038931 11.015637
-1.945605 1.199941 10.577912
-1.946408 1.201296 10.574235
-2.045473 1.363926 10.138170
-1.663549 0.722971 11.874414
-1.748347 0.866358 11.484683
-1.759585 0.885361 11.433030
-1.844386 1.028750 11.043301
-1.855631 1.047757 10.991650
-1.940370 1.191106 10.601892
-1.951643 1.210132 10.550255
-2.037814 1.354033 10.161061
-1.674714 0.741851 11.823096
-1.687207 0.762976 11.765677
-1.699701 0.784101 11.708258
-1.712194 0.805227 11.650839
-1.724688 0.826352 11.593420
-1.737182 0.847477 11.536001
-1.770750 0.904241 11.381712
-1.783241 0.925365 11.324292
-1.795733 0.946489 11.266872
-1.808225 0.967613 11.209452
-1.820719 0.988739 11.152034
-1.833215 1.009866 11.094616
-1.866799 1.066640 10.940334
-1.879290 1.087763 10.882913
-1.891773 1.108881 10.825489
-1.904242 1.129991 10.768060
-1.916712 1.151101 10.710630
-1.929191 1.172217 10.653204
-1.962883 1.229061 10.498971
-1.975474 1.250249 10.441597
-1.988014 1.271405 10.384199
-2.000472 1.292507 10.326764
-2.012825 1.313541 10.269281
-2.025668 1.334767 10.211977
-3.009643 1.866366 9.648791
-4.132687 2.144006 9.233439
-5.272204 2.441251 8.886748
-6.105903 3.237234 8.584725
-6.665167 4.292973 8.295958
-7.293933 5.305279 7.995423
-8.023298 6.239800 7.672730
-8.875829 7.052581 7.325825
-9.852278 7.699103 6.959161
-10.928137 8.154442 6.582474
-12.065980 8.423063 6.206252
-13.233054 8.530669 5.837557
-2.046648 1.365443 10.134660
-3.007838 1.865821 9.649456
-3.011449 1.866911 9.648125
-4.130854 2.143548 9.234097
-4.134519 2.144465 9.232781
-5.270386 2.440567 8.887221
-5.274023 2.441936 8.886274
-6.105083 3.235476 8.585211
-6.106723 3.238993 8.584239
-6.664208 4.291283 8.296432
-6.666126 4.294663 8.295484
-7.292847 5.303676 7.995926
-7.295019 5.306882 7.994919
-8.022026 6.238355 7.673273
-8.024570 6.241245 7.672187
-8.874343 7.051375 7.326407
-8.877314 7.053788 7.325243
-9.850603 7.698195 6.959768
-9.853954 7.700011 6.958553
-10.926325 8.153861 6.583089
-10.929949 8.155023 6.581859
-12.064096 8.422777 6.206859
-12.067864 8.423350 6.205646
-13.231144 8.530616 5.838148
-2.054307 1.375335 10.111769
-2.984288 1.858709 9.658136
-3.034999 1.874023 9.639445
-4.106956 2.137562 9.242674
-4.158412 2.150458 9.224195
-5.246665 2.431638 8.893395
-5.297555 2.451365 8.880124
-6.094349 3.212568 8.591578
-6.117419 3.261927 8.577902
-6.651700 4.269241 8.302615
-6.678634 4.316705 8.289301
-7.278687 5.282773 8.002489
-7.309179 5.327785 7.988356
-8.005433 6.219511 7.680352
-8.041219 6.260034 7.665097
-8.854964 7.035646 7.333995
-8.896665 7.069553 7.317659
-9.828709 7.686434 6.967697
-9.875806 7.711851 6.950629
-10.902686 8.146284 6.591112
-10.953587 8.162599 6.573837
-12.039522 8.419034 6.214773
-12.092439 8.427093 6.197732
-13.206231 8.529922 5.845855
-2.105136 1.426566 10.019160
-2.241499 1.522491 9.939462
-2.394548 1.617743 9.888789
-2.547134 1.704504 9.823745
-2.708879 1.772017 9.758181
-2.877614 1.825836 9.697173
-3.142383 1.904250 9.600226
-3.314592 1.945357 9.539026
-3.486826 1.985048 9.476956
-3.657787 2.026660 9.412663
-3.828050 2.068514 9.346690
-3.998724 2.110584 9.281940
-4.266571 2.177790 9.184972
-4.437915 2.221107 9.122865
-4.611751 2.263598 9.067538
-4.788011 2.304035 9.018653
-4.964355 2.343732 8.969471
-5.138595 2.392977 8.921764
-5.403885 2.494826 8.852050
-5.567407 2.573491 8.806308
-5.713545 2.680387 8.760054
-5.839128 2.811488 8.714214
-5.951313 2.953995 8.667566
-6.044352 3.109467 8.620726
-6.167222 3.365299 8.549339
-6.250615 3.527048 8.504909
-6.335284 3.688410 8.461466
-6.420764 3.849389 8.418201
-6.508165 4.009182 8.374372
-6.595926 4.168744 8.330426
-6.736248 4.416034 8.261057
-6.829109 4.572349 8.215934
-6.921653 4.728873 8.170885
-7.016729 4.883687 8.125253
-7.115868 5.035661 8.078691
-7.215416 5.187342 8.032037
-7.374989 5.421302 7.958244
-7.481888 5.567368 7.909963
-7.589580 5.712792 7.861511
-7.700018 5.855931 7.812472
-7.814182 5.995845 7.762652
-7.930717 6.133618 7.712343
-8.117693 6.344232 7.632756
-8.241567 6.474872 7.580992
-8.368943 6.601832 7.528564
-8.498329 6.726591 7.475764
-8.630434 6.848237 7.422475
-8.767247 6.964177 7.368373
-8.984657 7.140659 7.283238
-9.127331 7.248801 7.228195
-9.275231 7.349304 7.172384
-9.423510 7.449233 7.116522
-9.573306 7.546723 7.060456
-9.729141 7.633745 7.003669
-9.974961 7.765340 6.914697
-10.134483 7.845130 6.857551
-10.297895 7.916447 6.800114
-10.462184 7.985713 6.742625
-10.627542 8.052309 6.685087
-10.795714 8.111382 6.627478
-11.060948 8.196294 6.537477
-11.232160 8.245928 6.479916
-11.404848 8.290279 6.422451
-11.578604 8.330415 6.365093
-11.753130 8.367226 6.307840
-11.928380 8.400631 6.250716
-12.204045 8.442766 6.161925
-12.381059 8.466233 6.105276
-12.558459 8.486959 6.048789
-12.736588 8.501573 5.992700
-12.914966 8.513756 5.936782
-13.093395 8.525319 5.880912
172 NaN NaN
-1.652190 0.703763 11.926624
-1.672343 0.737841 11.833994
-1.692497 0.771921 11.741364
-1.712652 0.806001 11.648735
-1.732807 0.840081 11.556105
-1.752962 0.874160 11.463476
-1.773114 0.908239 11.370845
-1.793265 0.942316 11.278214
-1.813417 0.976394 11.185584
-1.833576 1.010476 11.092956
-1.853741 1.044563 11.000331
-1.873901 1.078646 10.907704
-1.894038 1.112715 10.815067
-1.914150 1.146766 10.722417
-1.934282 1.180832 10.629778
-1.954498 1.214951 10.537176
-1.974813 1.249134 10.444620
-1.995044 1.283263 10.352025
-2.014971 1.317196 10.259293
-2.035855 1.351501 10.166918
-2.065396 1.389658 10.078627
-2.114871 1.435607 10.004592
-2.187171 1.487605 9.958350
-2.268485 1.539820 9.930080
-2.351465 1.591223 9.905204
-2.433047 1.641441 9.874121
-2.514533 1.688424 9.838094
-2.598547 1.729863 9.801117
-2.686481 1.764558 9.766372
-2.776772 1.794625 9.733354
-2.867826 1.822800 9.700747
-2.958676 1.850975 9.667576
-3.049615 1.878437 9.634058
-3.141164 1.903949 9.600661
-3.233563 1.926810 9.567691
-3.326395 1.948059 9.534850
-3.419171 1.969079 9.501706
-3.511534 1.990880 9.467918
-3.603502 2.013283 9.433454
-3.695178 2.035874 9.398342
-3.786691 2.058361 9.362739
-3.878239 2.080833 9.327215
-3.970031 2.103456 9.292427
-4.062170 2.126344 9.258750
-4.154455 2.149459 9.225626
-4.246629 2.172729 9.192307
-4.338600 2.196070 9.158478
-4.430806 2.219344 9.125251
-4.523768 2.242395 9.094042
-4.617750 2.265044 9.065731
-4.712424 2.287098 9.039308
-4.807404 2.308381 9.013354
-4.902346 2.329186 8.986878
-4.996948 2.351377 8.960321
-5.090826 2.377142 8.934455
-5.183534 2.407874 8.909825
-5.275131 2.442353 8.885986
-5.365966 2.478860 8.862240
-5.456082 2.516804 8.838024
-5.544010 2.559252 8.813317
-5.627330 2.609957 8.788356
-5.703651 2.670751 8.763537
-5.773608 2.738884 8.738912
-5.839041 2.811384 8.714248
-5.901309 2.886521 8.689281
-5.959369 2.964866 8.664067
-6.011511 3.047240 8.638804
-6.057043 3.133513 8.613740
-6.098714 3.221819 8.588984
-6.140015 3.310380 8.564513
-6.183422 3.397999 8.540303
-6.228436 3.484888 8.516387
-6.274032 3.571560 8.492792
-6.319511 3.658373 8.469490
-6.365088 3.745166 8.446305
-6.411146 3.831681 8.423033
-6.457900 3.917764 8.399545
-6.505078 4.003577 8.375918
-6.552320 4.089348 8.352267
-6.599463 4.175184 8.328654
-6.646924 4.260826 8.304976
-6.695225 4.345942 8.281101
-6.744626 4.430350 8.256963
-6.794629 4.514362 8.232683
-6.844597 4.598397 8.208410
-6.894214 4.682663 8.184220
-6.944133 4.766731 8.159961
-6.995183 4.850039 8.135439
-7.047822 4.932242 8.110554
-7.101417 5.013761 8.085451
-7.155142 5.095185 8.060319
-7.208519 5.176862 8.035266
-7.262147 5.258356 8.010156
-7.316826 5.339074 7.984811
-7.373039 5.418622 7.959126
-7.430317 5.497333 7.933208
-7.488023 5.575699 7.907198
-7.545768 5.654034 7.881179
-7.603927 5.732032 7.855070
-7.663019 5.809257 7.828763
-7.723380 5.885401 7.802187
-7.784800 5.960616 7.775389
-7.846969 6.035156 7.748438
-7.909677 6.109205 7.721376
-7.973002 6.182681 7.694189
-8.037076 6.255447 7.666852
-8.102024 6.327368 7.639340
-8.167948 6.398321 7.611638
-8.234941 6.468182 7.583729
-8.303013 6.536910 7.555615
-8.371907 6.604751 7.527348
-8.441322 6.672018 7.498985
-8.511131 6.738846 7.470550
-8.581761 6.804740 7.441966
-8.653733 6.869057 7.413146
-8.727289 6.931431 7.384053
-8.801845 6.992531 7.354795
-8.876678 7.053270 7.325492
-8.951406 7.114146 7.296207
-9.026743 7.174217 7.266823
-9.103599 7.232205 7.237201
-9.182425 7.287331 7.207288
-9.262370 7.340738 7.177219
-9.342389 7.394029 7.147140
-9.421884 7.448142 7.117134
-9.501724 7.501713 7.087080
-9.583061 7.552857 7.056828
-9.666500 7.600336 7.026328
-9.751176 7.645497 6.995698
-9.836035 7.690302 6.965051
-9.920421 7.736023 6.934450
-10.004954 7.781461 6.903834
-10.090514 7.824855 6.873120
-10.177598 7.865010 6.842284
-10.265670 7.902907 6.811385
-10.354060 7.940046 6.780470
-10.442344 7.977441 6.749558
-10.530833 8.014335 6.718636
-10.619987 8.049562 6.687685
-10.710072 8.082312 6.656709
-10.800839 8.113122 6.625728
-10.891967 8.142849 6.594749
-10.983248 8.172106 6.563771
-11.074772 8.200598 6.532798
-11.166687 8.227814 6.501838
-11.259084 8.253377 6.470901
-11.351905 8.277390 6.439996
-11.445072 8.300072 6.409122
-11.538517 8.321623 6.378278
-11.632198 8.342170 6.347465
-11.726081 8.361823 6.316682
-11.820151 8.380613 6.285931
-11.914457 8.398255 6.255226
-12.009052 8.414394 6.224585
-12.103947 8.428845 6.194026
-12.199037 8.442097 6.163528
-12.294212 8.454797 6.133061
-12.389412 8.467333 6.102604
-12.484723 8.479106 6.072190
-12.580247 8.489280 6.041874
-12.676017 8.497342 6.011697
-12.771924 8.504042 5.981617
-12.867859 8.510433 5.951560
-12.963760 8.517199 5.921475
-13.059695 8.523592 5.891418
-13.155750 8.528515 5.861473
-13.251950 8.531196 5.831711
-13.348231 8.532147 5.802100
-13.444542 8.532196 5.772571
-13.540856 8.532168 5.743050
-13.637146 8.532888 5.713460
-13.733366 8.535183 5.683731
