-1.477506 0.668933 12.498696
-1.480890 0.672778 12.488090
-1.484274 0.676624 12.477485
-1.640714 0.854298 11.987646
-1.795834 1.030298 11.502764
-1.953002 1.207056 11.018863
-2.121130 1.386517 10.546841
-1.486397 0.679036 12.470832
-1.640140 0.853645 11.989447
-1.641289 0.854951 11.985846
-1.795262 1.029646 11.504567
-1.796405 1.030950 11.500962
-1.952394 1.206391 11.020649
-1.953609 1.207721 11.017078
-2.119933 1.385664 10.548197
-1.494763 0.688543 12.444610
-1.631772 0.844137 12.015669
-1.649656 0.864459 11.959624
-1.786862 1.020126 11.530773
-1.804722 1.040439 11.474717
-1.943554 1.196707 11.046650
-1.962449 1.217405 10.991077
-2.102503 1.373235 10.567938
-1.512790 0.709023 12.388137
-1.532975 0.731948 12.324935
-1.553170 0.754876 12.261738
-1.573365 0.777804 12.198540
-1.593559 0.800732 12.135343
-1.613746 0.823658 12.072142
-1.667660 0.884930 11.903141
-1.687817 0.907844 11.839926
-1.707983 0.930761 11.776716
-1.728205 0.953700 11.713531
-1.748471 0.976655 11.650366
-1.768763 0.999620 11.587213
-1.822636 1.060876 11.418193
-1.842412 1.083647 11.354807
-1.862238 1.106437 11.291443
-1.882181 1.129270 11.228132
-1.902822 1.152365 11.165140
-1.924162 1.175720 11.102480
-1.980311 1.237820 10.934546
-1.998895 1.260138 10.870640
-2.013507 1.280910 10.805200
-2.028628 1.301882 10.739941
-2.045320 1.323452 10.675360
-2.070254 1.348109 10.614551
-3.258348 1.870718 9.961148
-4.505343 2.161385 9.444116
-5.737527 2.598630 9.048116
-6.464277 3.716336 8.736045
-7.134072 4.877703 8.406218
-7.914299 5.958998 8.050501
-8.845303 6.899514 7.662712
-9.936914 7.631599 7.246689
-11.152571 8.120129 6.817524
-12.440197 8.371960 6.391084
-13.755231 8.432191 5.976787
-2.122327 1.387371 10.545485
-3.256525 1.870344 9.961882
-3.260170 1.871093 9.960414
-4.503516 2.160950 9.444804
-4.507169 2.161820 9.443429
-5.736084 2.597346 9.048637
-5.738969 2.599914 9.047595
-6.463371 3.714615 8.736508
-6.465184 3.718058 8.735581
-7.133035 4.876066 8.406712
-7.135110 4.879340 8.405724
-7.913088 5.957499 8.051034
-7.915511 5.960497 8.049967
-8.843850 6.898269 7.663294
-8.846756 6.900759 7.662130
-9.935240 7.630693 7.247304
-9.938587 7.632505 7.246074
-11.150758 8.119558 6.818147
-11.154384 8.120699 6.816901
-12.438306 8.371729 6.391695
-12.442087 8.372190 6.390473
-13.753322 8.432165 5.977382
-2.140182 1.399901 10.526317
-3.229990 1.864898 9.972568
-3.286706 1.876539 9.949728
-4.476993 2.154618 9.455022
-4.533769 2.168158 9.433415
-5.715088 2.578646 9.056217
-5.759718 2.618883 9.040016
-6.450174 3.689549 8.743258
-6.478380 3.743123 8.728831
-7.117987 4.852191 8.413890
-7.150214 4.903176 8.398533
-7.895445 5.935672 8.058802
-7.933214 5.982269 8.042187
-8.822692 6.880144 7.671768
-8.867914 6.918884 7.653657
-9.910879 7.617492 7.256262
-9.962955 7.645693 7.237115
-11.124367 8.111246 6.827223
-11.180965 8.128392 6.807832
-12.410782 8.368378 6.400593
-12.469611 8.375541 6.381575
-13.725522 8.431788 5.986043
-2.240523 1.461877 10.465215
-2.399270 1.564806 10.373041
-2.558677 1.657464 10.272047
-2.739751 1.721700 10.186544
-2.924641 1.780845 10.104945
-3.109950 1.837111 10.022361
-3.407710 1.901750 9.900857
-3.598097 1.944970 9.821925
-3.787249 1.990021 9.741062
-3.976222 2.035423 9.659979
-4.165817 2.080668 9.580271
-4.356247 2.125836 9.502539
-4.655609 2.196699 9.388632
-4.851064 2.238968 9.322665
-5.046850 2.286269 9.261346
-5.239375 2.347910 9.202414
-5.432280 2.411058 9.146366
-5.614700 2.498991 9.091012
-5.852602 2.707433 9.005414
-5.991742 2.855934 8.952108
-6.103880 3.027478 8.905412
-6.199510 3.210411 8.863816
-6.294107 3.393719 8.821454
-6.389777 3.575269 8.774214
-6.538961 3.857356 8.698062
-6.637485 4.036805 8.648704
-6.738096 4.214928 8.598738
-6.839250 4.392712 8.548666
-6.943250 4.568645 8.497910
-7.049894 4.742807 8.446515
-7.219692 5.011586 8.365583
-7.332446 5.181411 8.312750
-7.448663 5.348632 8.259118
-7.566856 5.514319 8.205034
-7.688115 5.677531 8.150260
-7.814739 5.836210 8.094296
-8.014815 6.080923 8.006500
-8.150157 6.231491 7.948679
-8.289497 6.378091 7.890032
-8.429374 6.524126 7.831276
-8.576044 6.662725 7.771185
-8.726953 6.796385 7.710292
-8.966488 6.999032 7.614627
-9.126786 7.120424 7.552090
-9.289956 7.237690 7.489088
-9.456082 7.350462 7.425634
-9.626140 7.456860 7.361619
-9.800132 7.556389 7.297097
-10.074919 7.704435 7.196148
-10.256508 7.788687 7.130857
-10.440327 7.867888 7.065400
-10.624608 7.945944 6.999920
-10.813357 8.012242 6.934289
-11.004056 8.072841 6.868651
-11.302747 8.161871 6.766469
-11.497426 8.208441 6.701084
-11.692726 8.252476 6.635778
-11.889137 8.291523 6.570660
-12.086815 8.324164 6.505834
-12.285258 8.352366 6.441250
-12.595493 8.388950 6.341088
-12.795531 8.405079 6.277311
-12.995906 8.417828 6.213795
-13.196443 8.428591 6.150443
-13.397413 8.432475 6.087706
-13.598572 8.431806 6.025405
174 NaN NaN
-1.475814 0.667010 12.503998
-1.504787 0.699934 12.413193
-1.533785 0.732867 12.322400
-1.562796 0.765805 12.231613
-1.591808 0.798744 12.140826
-1.620807 0.831677 12.050033
-1.649782 0.864602 11.959229
-1.678730 0.897516 11.868413
-1.707698 0.930438 11.777606
-1.736748 0.963391 11.686836
-1.765908 0.996385 11.596117
-1.795008 1.029356 11.505370
-1.823810 1.062216 11.414488
-1.852196 1.094919 11.323418
-1.880771 1.127693 11.232434
-1.910423 1.160870 11.141942
-1.941665 1.194637 11.052207
-1.972278 1.228172 10.962170
-1.998970 1.260229 10.870380
-2.019937 1.290056 10.776371
-2.042245 1.320411 10.682860
-2.077976 1.355745 10.595718
-2.138031 1.398569 10.527699
-2.213205 1.445109 10.479422
-2.291774 1.493334 10.438562
-2.367429 1.543239 10.394412
-2.440405 1.592668 10.345432
-2.515647 1.637909 10.295881
-2.597561 1.675135 10.250509
-2.684902 1.705114 10.210044
-2.774207 1.732119 10.171781
-2.862948 1.760184 10.132980
-2.950763 1.789593 10.093074
-3.038952 1.817786 10.053123
-3.128714 1.842218 10.014231
-3.219966 1.862840 9.976605
-3.311856 1.881702 9.939599
-3.403656 1.900852 9.902521
-3.495045 1.921099 9.865013
-3.586063 1.942124 9.827032
-3.676769 1.963572 9.788545
-3.767266 1.985216 9.749676
-3.857692 2.006958 9.710697
-3.948186 2.028709 9.671883
-4.038831 2.050417 9.633396
-4.129640 2.072076 9.595272
-4.220627 2.093684 9.557544
-4.311817 2.115288 9.520308
-4.403252 2.136996 9.483740
-4.494972 2.158914 9.448021
-4.587084 2.180862 9.413343
-4.679779 2.202285 9.379916
-4.773229 2.222622 9.347949
-4.867279 2.242373 9.317398
-4.961333 2.263570 9.287856
-5.054690 2.288350 9.258916
-5.147029 2.317157 9.230425
-5.238970 2.347778 9.202533
-5.331308 2.377851 9.175369
-5.423860 2.407811 9.148817
-5.514631 2.442817 9.122395
-5.600432 2.488459 9.095840
-5.678667 2.546209 9.069365
-5.751366 2.610956 9.043120
-5.821986 2.677986 9.016879
-5.892153 2.745475 8.990602
-5.959524 2.815941 8.964886
-6.020886 2.892112 8.940549
-6.074424 2.974547 8.918177
-6.122401 3.060760 8.897385
-6.167826 3.148577 8.877548
-6.212940 3.236619 8.857996
-6.258153 3.324523 8.838058
-6.303628 3.412042 8.817058
-6.349417 3.499053 8.794669
-6.395335 3.585765 8.771398
-6.441171 3.672449 8.747864
-6.486870 3.759248 8.724488
-6.532798 3.845940 8.701166
-6.579387 3.932240 8.677702
-6.626879 4.017975 8.653976
-6.674958 4.103334 8.630077
-6.723213 4.188580 8.606127
-6.771393 4.273875 8.582207
-6.819786 4.359038 8.558243
-6.868787 4.443811 8.534133
-6.918673 4.528004 8.509808
-6.969292 4.611707 8.485304
-7.020395 4.695081 8.460684
-7.071800 4.778248 8.435992
-7.123585 4.861153 8.411212
-7.175889 4.943693 8.386309
-7.228844 5.025771 8.361252
-7.282539 5.107313 8.336022
-7.337053 5.188250 8.310602
-7.392419 5.268545 8.284985
-7.448448 5.348330 8.259216
-7.504888 5.427794 8.233354
-7.561578 5.507061 8.207435
-7.618873 5.585847 8.181379
-7.677299 5.663711 8.155068
-7.737239 5.740299 8.128421
-7.798252 5.815954 8.101540
-7.859593 5.891318 8.074587
-7.920688 5.966901 8.047688
-7.982078 6.042220 8.020725
-8.044779 6.116347 7.993480
-8.109602 6.188452 7.965787
-8.176033 6.258952 7.937763
-8.242986 6.328915 7.909633
-8.309544 6.399287 7.881583
-8.376111 6.469649 7.853531
-8.443778 6.538859 7.825257
-8.513482 6.605845 7.796583
-8.584940 6.670814 7.767574
-8.657237 6.734778 7.738408
-8.729570 6.798698 7.709236
-8.802039 6.862452 7.680039
-8.875307 6.925217 7.650696
-8.949971 6.986192 7.621105
-9.026022 7.045311 7.591276
-9.103060 7.103055 7.561284
-9.180720 7.159907 7.531190
-9.258911 7.215982 7.501012
-9.337738 7.271103 7.470735
-9.417306 7.325085 7.440346
-9.497727 7.377717 7.409833
-9.579111 7.428766 7.379184
-9.661546 7.478011 7.348396
-9.744877 7.525654 7.317497
-9.828745 7.572304 7.286533
-9.912822 7.618561 7.255546
-9.997206 7.664230 7.224523
-10.082401 7.708306 7.193416
-10.168859 7.749754 7.162190
-10.256459 7.788666 7.130875
-10.344550 7.826430 7.099526
-10.432522 7.864477 7.068185
-10.520354 7.902852 7.036852
-10.608733 7.939917 7.005488
-10.698308 7.973930 6.974072
-10.789091 8.004566 6.942637
-10.880447 8.033465 6.911207
-10.971791 8.062399 6.879776
-11.062952 8.091902 6.848343
-11.154344 8.120688 6.816914
-11.246389 8.147325 6.785510
-11.339189 8.171276 6.754157
-11.432440 8.193474 6.722849
-11.525859 8.214989 6.691561
-11.619324 8.236317 6.660281
-11.712956 8.256930 6.629025
-11.806890 8.276196 6.597819
-11.901180 8.293767 6.566684
-11.995756 8.309858 6.535617
-12.090549 8.324751 6.504613
-12.185507 8.338676 6.473662
-12.280600 8.351761 6.442759
-12.375804 8.364119 6.411900
-12.471118 8.375725 6.381088
-12.566583 8.386229 6.350347
-12.662234 8.395232 6.319712
-12.758063 8.402605 6.289197
-12.853993 8.408939 6.258764
-12.949953 8.414941 6.228357
-13.045910 8.420969 6.197948
-13.141921 8.426366 6.167591
-13.238043 8.430289 6.137360
-13.334282 8.432208 6.107310
-13.430585 8.432615 6.077405
-13.526914 8.432203 6.047581
-13.623246 8.431669 6.017769
-13.719561 8.431707 5.987900
-13.815829 8.433012 5.957908
