0.286908 0.286894 0.286675 0.284306 0.280553 0.273110 0.265667 0.258223 0.249828 0.244529 0.243438 0.243370 0.243303 0.242220 0.237696 0.230527 0.224872 0.219217 0.213563 0.208997 0.206116 0.205534 0.205498 0.205462 0.204883 0.202409 0.198489 0.195123 0.191757 0.188392 0.185445 0.183586 0.183201 0.183177 0.183153 0.182770 0.181077 0.178393 0.176025 0.173657 0.171289 0.169173 0.167838 0.167560 0.167543 
0.286901 0.286861 0.286433 0.283688 0.279389 0.272740 0.266090 0.259441 0.252980 0.248855 0.247980 0.247897 0.247818 0.246974 0.243406 0.237817 0.233260 0.228704 0.224147 0.220531 0.218222 0.217723 0.217676 0.217630 0.217136 0.215164 0.212075 0.209425 0.206775 0.204126 0.201806 0.200326 0.199992 0.199960 0.199929 0.199599 0.198232 0.196090 0.194088 0.192086 0.190084 0.188196 0.186991 0.186715 0.186689 0.186663 0.186388 0.185237 0.183435 0.181740 0.180044 0.178349 0.176761 0.175747 0.175517 0.175495 0.175474 0.175246 0.174295 0.172805 0.171413 0.170021 0.168629 0.167324 0.166491 0.166303 0.166285 
0.286981 0.287262 0.292074 0.305622 0.327092 0.321090 0.315088 0.309086 0.288176 0.274981 0.272359 0.272206 0.272058 0.269525 0.259547 0.243735 0.232381 0.221027 0.209673 0.201860 0.196929 0.196037 0.195985 0.195934 0.195066 0.191638 0.186206 0.182203 0.178200 0.174196 0.170428 0.168050 0.167514 0.167483 0.167452 0.166911 0.164302 0.160166 0.155281 0.150397 0.145512 0.140438 0.137236 0.136604 0.136567 0.136531 0.135915 0.133529 0.129749 0.127525 0.125301 0.123077 0.121819 0.121024 0.120882 0.120874 0.120866 0.120728 0.120199 0.119361 0.118814 0.118266 0.117719 0.117346 0.117111 0.117066 0.117064 0.117061 0.117017 0.116835 0.116546 0.116323 0.116099 0.115876 0.115696 0.115582 0.115559 0.115558 0.115557 0.115534 0.115437 0.115284 0.115157 0.115030 0.114903 0.114799 0.114733 0.114720 0.114719 0.114718 0.114705 0.114649 0.114561 0.114489 0.114416 0.114344 0.114285 0.114247 0.114240 0.114239 0.114239 0.114231 0.114200 0.114150 0.114110 0.114069 0.114029 0.113998 0.113979 0.113975 0.113975 
0.205488 0.205449 0.205305 0.204957 0.204498 0.204025 0.203553 0.203080 0.202590 0.202219 0.202060 0.202017 0.201974 0.201814 0.201435 0.200935 0.200419 0.199904 0.199388 0.198862 0.198464 0.198292 0.198245 0.198199 0.198027 0.197625 0.197093 0.196566 0.196038 0.195511 0.194985 0.194587 0.194419 0.194373 0.194327 0.194159 0.193765 0.193245 0.192725 0.192205 0.191684 0.191175 0.190790 0.190627 0.190583 0.190539 0.190377 0.190001 0.189504 0.189020 0.188536 0.188052 0.187583 0.187229 0.187079 0.187039 0.186999 0.186850 0.186506 0.186051 0.185608 0.185166 0.184723 0.184294 0.183969 0.183832 0.183796 0.183759 0.183623 0.183310 0.182895 0.182496 0.182096 0.181697 0.181303 0.181006 0.180880 0.180846 0.180813 0.180688 0.180402 0.180024 0.179656 0.179288 0.178920 0.178565 0.178296 0.178183 0.178153 0.178122 0.178010 0.177747 0.177401 0.177083 0.176765 0.176448 0.176174 0.175967 0.175882 0.175858 0.175836 0.175754 0.175574 0.175336 0.175112 0.174888 0.174664 0.174464 0.174313 0.174250 0.174233 0.174216 0.174152 0.174006 0.173812 0.173639 0.173465 0.173292 0.173123 0.172994 0.172943 0.172930 0.172916 0.172867 0.172751 0.172598 0.172452 0.172306 0.172160 0.172021 0.171916 0.171871 0.171859 0.171846 0.171802 0.171699 0.171564 0.171441 0.171317 0.171194 0.171070 0.170976 0.170939 0.170929 0.170919 0.170881 0.170793 0.170676 0.170562 0.170449 0.170335 0.170225 0.170143 0.170107 0.170098 0.170088 0.170053 0.169972 0.169865 0.169762 0.169658 0.169555 0.169454 0.169378 0.169347 0.169338 0.169330 0.169298 0.169224 0.169125 0.169028 0.168931 0.168834 0.168737 0.168664 0.168633 0.168625 0.168616 0.168585 0.168513 0.168419 0.168323 0.168226 0.168130 0.168036 0.167964 0.167933 0.167925 
0.243339 0.243211 0.242814 0.241925 0.240756 0.239573 0.238390 0.237207 0.236035 0.235144 0.234744 0.234616 0.234487 0.234088 0.233209 0.232052 0.230913 0.229774 0.228635 0.227511 0.226658 0.226276 0.226153 0.226031 0.225651 0.224821 0.223728 0.222663 0.221597 0.220532 0.219500 0.218715 0.218367 0.218255 0.218143 0.217796 0.217033 0.216030 0.215068 0.214106 0.213143 0.212231 0.211538 0.211236 0.211139 0.211041 0.210737 0.210078 0.209211 0.208382 0.207553 0.206724 0.205940 0.205345 0.205083 0.204999 0.204916 0.204658 0.204108 0.203385 0.202716 0.202048 0.201379 0.200749 0.200271 0.200062 0.199995 0.199928 0.199722 0.199280 0.198698 0.198147 0.197596 0.197046 0.196538 0.196153 0.195988 0.195934 0.195882 0.195719 0.195335 0.194830 0.194377 0.193923 0.193470 0.193028 0.192692 0.192541 0.192493 0.192444 0.192291 0.191956 0.191515 0.191080 0.190646 0.190211 0.189780 0.189453 0.189306 0.189258 0.189211 0.189064 0.188741 0.188315 0.187897 0.187480 0.187063 0.186655 0.186345 0.186203 0.186158 0.186112 0.185969 0.185655 0.185242 0.184845 0.184448 0.184051 0.183664 0.183370 0.183239 0.183196 0.183155 0.183024 0.182748 0.182385 0.182047 0.181708 0.181370 0.181047 0.180801 0.180695 0.180661 0.180630 0.180532 0.180322 0.180045 0.179782 0.179518 0.179255 0.179023 0.178847 0.178773 0.178749 0.178725 0.178651 0.178489 0.178275 0.178078 0.177880 0.177683 0.177514 0.177386 0.177328 0.177310 0.177292 0.177235 0.177109 0.176944 0.176803 0.176662 0.176521 0.176386 0.176283 0.176237 0.176222 0.176207 0.176161 0.176068 0.175945 0.175832 0.175719 0.175606 0.175493 0.175406 0.175370 0.175359 0.175349 0.175317 0.175246 0.175153 0.175058 0.174964 0.174870 0.174785 0.174720 0.174691 0.174682 0.174673 0.174645 0.174581 0.174497 0.174416 0.174336 0.174256 0.174183 0.174128 0.174103 0.174095 0.174086 0.174061 0.174004 0.173929 0.173862 0.173794 0.173727 0.173660 0.173609 0.173586 0.173578 0.173571 0.173547 0.173499 0.173435 0.173374 0.173313 0.173252 0.173189 0.173142 0.173121 0.173114 0.173108 0.173088 0.173045 0.172987 0.172927 0.172867 0.172808 0.172750 0.172707 0.172687 0.172681 
0.247853 0.247676 0.246977 0.245325 0.243138 0.241017 0.238897 0.236776 0.234745 0.233210 0.232593 0.232436 0.232283 0.231676 0.230276 0.228424 0.226675 0.224925 0.223175 0.221562 0.220342 0.219852 0.219728 0.219605 0.219119 0.217998 0.216515 0.215166 0.213817 0.212468 0.211260 0.210348 0.209983 0.209891 0.209799 0.209439 0.208626 0.207551 0.206588 0.205626 0.204664 0.203799 0.203145 0.202893 0.202829 0.202766 0.202519 0.201953 0.201202 0.200525 0.199847 0.199170 0.198525 0.198037 0.197848 0.197800 0.197752 0.197563 0.197110 0.196510 0.195896 0.195283 0.194669 0.194047 0.193577 0.193383 0.193333 0.193284 0.193092 0.192634 0.192029 0.191429 0.190829 0.190229 0.189644 0.189201 0.189018 0.188972 0.188926 0.188743 0.188318 0.187756 0.187210 0.186665 0.186120 0.185613 0.185230 0.185074 0.185034 0.184994 0.184839 0.184469 0.183980 0.183549 0.183118 0.182687 0.182293 0.181995 0.181888 0.181861 0.181834 0.181727 0.181479 0.181151 0.180868 0.180585 0.180302 0.180057 0.179872 0.179795 0.179776 0.179757 0.179680 0.179525 0.179319 0.179127 0.178935 0.178744 0.178595 0.178483 0.178435 0.178423 0.178411 0.178363 0.178247 0.178094 0.177969 0.177845 0.177720 0.177596 0.177502 0.177469 0.177460 0.177452 0.177418 0.177337 0.177230 0.177132 0.177034 0.176936 0.176845 0.176776 0.176746 0.176739 0.176731 0.176702 0.176642 0.176564 0.176483 0.176403 0.176322 0.176252 0.176199 0.176177 0.176171 0.176165 0.176143 0.176089 0.176018 0.175955 0.175891 0.175828 0.175766 0.175719 0.175701 0.175696 
0.217647 0.217529 0.217116 0.216187 0.214961 0.213808 0.212655 0.211502 0.210410 0.209583 0.209237 0.209138 0.209041 0.208699 0.207932 0.206920 0.205973 0.205027 0.204080 0.203200 0.202533 0.202254 0.202174 0.202096 0.201821 0.201203 0.200387 0.199634 0.198880 0.198127 0.197426 0.196895 0.196671 0.196607 0.196544 0.196324 0.195833 0.195186 0.194578 0.193970 0.193362 0.192783 0.192344 0.192158 0.192105 0.192053 0.191868 0.191448 0.190892 0.190362 0.189832 0.189303 0.188783 0.188390 0.188226 0.188179 0.188133 0.187970 0.187597 0.187105 0.186625 0.186145 0.185664 0.185213 0.184871 0.184724 0.184683 0.184641 0.184496 0.184162 0.183722 0.183317 0.182913 0.182508 0.182119 0.181825 0.181699 0.181663 0.181628 0.181502 0.181248 0.180913 0.180606 0.180299 0.179992 0.179740 0.179549 0.179473 0.179451 0.179430 0.179354 0.179182 0.178955 0.178766 0.178577 0.178388 0.178226 0.178103 0.178050 0.178036 0.178021 0.177968 0.177868 0.177735 0.177623 0.177511 0.177399 0.177292 0.177210 0.177185 0.177178 0.177170 0.177145 0.177086 0.177008 0.176937 0.176866 0.176796 0.176748 0.176711 0.176695 0.176690 0.176685 0.176668 0.176627 0.176573 0.176545 0.176517 0.176489 0.176459 0.176437 0.176427 0.176423 0.176422 0.176418 0.176411 0.176401 0.176390 0.176379 0.176368 0.176375 0.176380 0.176382 0.176382 0.176383 0.176385 0.176388 0.176393 0.176407 0.176421 0.176435 0.176454 0.176469 0.176475 0.176477 
0.186678 0.186633 0.186507 0.186239 0.185887 0.185544 0.185201 0.184858 0.184524 0.184270 0.184153 0.184112 0.184071 0.183955 0.183711 0.183390 0.183078 0.182766 0.182454 0.182149 0.181917 0.181810 0.181773 0.181736 0.181629 0.181404 0.181108 0.180818 0.180528 0.180238 0.179959 0.179746 0.179649 0.179615 0.179581 0.179485 0.179279 0.179010 0.178748 0.178487 0.178225 0.177972 0.177780 0.177691 0.177659 0.177628 0.177539 0.177351 0.177103 0.176862 0.176622 0.176382 0.176151 0.175974 0.175892 0.175864 0.175835 0.175754 0.175581 0.175354 0.175138 0.174921 0.174705 0.174494 0.174334 0.174260 0.174234 0.174208 0.174133 0.173976 0.173769 0.173579 0.173389 0.173199 0.173013 0.172871 0.172805 0.172782 0.172759 0.172694 0.172559 0.172383 0.172220 0.172057 0.171895 0.171734 0.171611 0.171558 0.171540 0.171525 0.171482 0.171407 0.171307 0.171219 0.171130 0.171041 0.170959 0.170896 0.170866 0.170856 0.170847 0.170823 0.170776 0.170714 0.170650 0.170586 0.170521 0.170456 0.170405 0.170390 0.170385 0.170379 0.170363 0.170329 0.170284 0.170236 0.170188 0.170140 0.170098 0.170067 0.170055 0.170051 0.170047 0.170035 0.170009 0.169975 0.169939 0.169903 0.169868 0.169844 0.169827 0.169819 0.169816 0.169813 0.169804 0.169784 0.169758 0.169733 0.169708 0.169683 0.169669 0.169658 0.169653 0.169651 0.169649 0.169644 0.169632 0.169616 0.169605 0.169594 0.169583 0.169579 0.169575 0.169574 0.169573 0.169572 0.169570 0.169566 0.169561 0.169563 0.169565 0.169567 0.169572 0.169576 0.169577 0.169578 0.169579 0.169580 0.169584 0.169588 0.169601 0.169614 0.169627 0.169642 0.169653 0.169658 0.169660 
0.166279 0.166254 0.166071 0.165586 0.164939 0.164339 0.163740 0.163141 0.162590 0.162177 0.162031 0.162011 0.161992 0.161847 0.161472 0.160971 0.160525 0.160078 0.159632 0.159249 0.158961 0.158893 0.158883 0.158875 0.158816 0.158698 0.158541 0.158434 0.158327 0.158220 0.158148 0.158095 0.158084 0.158082 0.158081 0.158070 0.158040 0.157999 0.157981 0.157963 0.157945 0.157952 0.157957 0.157961 0.157962 
