0.174988 0.174975 0.174805 0.173916 0.172508 0.170972 0.169436 0.167900 0.166417 0.165481 0.165281 0.165267 0.165252 0.165052 0.164171 0.162775 0.161479 0.160183 0.158887 0.157671 0.156903 0.156739 0.156727 0.156715 0.156552 0.155821 0.154663 0.153563 0.152463 0.151363 0.150309 0.149643 0.149499 0.149489 0.149479 0.149335 0.148692 0.147673 0.146705 0.145737 0.144768 0.143853 0.143275 0.143151 0.143142 0.143134 0.143011 0.142468 0.141607 0.140817 0.140026 0.139236 0.138512 0.138055 0.137959 0.137952 0.137945 0.137848 0.137425 0.136753 0.136144 0.135535 0.134926 0.134376 0.134029 0.133956 0.133951 0.133946 0.133873 0.133557 0.133056 0.132602 0.132149 0.131695 0.131274 0.131008 0.130951 0.130947 0.130942 0.130885 0.130631 0.130227 0.129835 0.129444 0.129052 0.128670 0.128429 0.128376 0.128372 0.128368 0.128316 0.128080 0.127706 0.127344 0.126983 0.126621 0.126272 0.126052 0.126004 0.126001 0.125998 0.125950 0.125737 0.125401 0.125080 0.124760 0.124440 0.124135 0.123943 0.123901 0.123898 0.123895 0.123854 0.123669 0.123377 0.123098 0.122820 0.122541 0.122277 0.122110 0.122074 0.122071 0.122069 0.122033 0.121873 0.121620 0.121381 0.121143 0.120904 0.120680 0.120539 0.120509 0.120507 0.120505 0.120474 0.120341 0.120129 0.119931 0.119733 0.119535 0.119351 0.119234 0.119210 0.119208 
0.174998 0.175029 0.175328 0.176200 0.177414 0.178447 0.179481 0.180514 0.181421 0.182072 0.182275 0.182296 0.182317 0.182517 0.183101 0.183913 0.184685 0.185457 0.186228 0.186979 0.187517 0.187694 0.187712 0.187730 0.187906 0.188439 0.189180 0.189900 0.190619 0.191338 0.192035 0.192535 0.192695 0.192711 
0.174989 0.174980 0.174858 0.173879 0.172327 0.171597 0.170866 0.170136 0.170021 0.169949 0.169939 0.169939 0.169938 0.169928 0.169830 0.169676 0.169281 0.168885 0.168490 0.168096 0.167847 0.167765 0.167759 0.167754 0.167671 0.167152 0.166331 0.165398 0.164465 0.163532 0.162573 0.161967 0.161836 0.161827 0.161818 0.161681 0.160944 0.159777 0.157972 0.156166 0.154361 0.151973 0.150465 0.150076 0.150049 0.150021 0.149609 0.147313 0.143675 0.139977 0.136279 0.132580 0.129863 0.128148 0.127839 0.127818 0.127798 0.127500 0.126354 0.124539 0.123383 0.122228 0.121072 0.120316 0.119839 0.119749 0.119743 0.119737 0.119649 0.119298 0.118742 0.118338 0.117934 0.117530 0.117233 0.117046 0.117009 0.117006 0.117004 0.116967 0.116817 0.116578 0.116388 0.116198 0.116008 0.115852 0.115754 0.115734 0.115733 0.115732 0.115712 0.115627 0.115494 0.115381 0.115268 0.115155 0.115060 0.115000 0.114988 0.114987 0.114986 0.114974 0.114922 0.114840 0.114770 0.114700 0.114630 0.114571 0.114533 0.114526 0.114525 0.114525 0.114517 0.114484 0.114432 0.114387 0.114342 0.114298 0.114259 0.114235 0.114230 0.114229 0.114229 0.114224 0.114203 0.114169 0.114141 0.114113 0.114084 0.114061 0.114046 0.114043 0.114043 
0.120506 0.120504 0.120488 0.120441 0.120378 0.120312 0.120246 0.120180 0.120125 0.120085 0.120071 0.120069 0.120067 0.120053 0.120015 0.119963 0.119916 0.119869 0.119822 0.119780 0.119749 0.119737 0.119736 0.119735 0.119725 0.119698 0.119662 0.119632 0.119602 0.119572 0.119547 0.119528 0.119522 0.119521 
0.126000 0.125997 0.125989 0.125976 0.125959 0.125941 0.125924 0.125906 0.125889 0.125875 0.125868 0.125864 0.125861 0.125853 0.125839 0.125822 0.125804 0.125786 0.125767 0.125749 0.125735 0.125727 0.125723 0.125719 0.125712 0.125697 0.125679 0.125660 0.125641 0.125623 0.125604 0.125589 0.125581 0.125577 0.125573 0.125565 0.125550 0.125531 0.125511 0.125492 0.125473 0.125453 0.125438 0.125430 0.125426 0.125422 0.125414 0.125403 0.125388 0.125374 0.125360 0.125346 0.125332 0.125321 0.125315 0.125312 0.125309 0.125303 0.125292 0.125278 0.125264 0.125250 0.125236 0.125223 0.125212 0.125206 0.125204 0.125201 0.125195 0.125185 0.125171 0.125158 0.125144 0.125131 0.125117 0.125107 0.125101 0.125098 0.125096 0.125090 0.125080 0.125067 0.125054 0.125041 0.125028 0.125015 0.125005 0.125000 0.124997 0.124995 0.124989 0.124979 0.124966 0.124954 0.124941 0.124928 0.124916 0.124907 0.124901 0.124899 0.124897 0.124891 0.124882 0.124870 0.124858 0.124845 0.124833 0.124821 0.124811 0.124806 0.124804 0.124801 0.124796 0.124788 0.124776 0.124765 0.124753 0.124742 0.124730 0.124722 0.124717 0.124714 0.124712 0.124707 0.124698 0.124687 0.124676 0.124665 0.124654 0.124643 0.124635 0.124631 0.124629 0.124627 0.124622 0.124614 0.124603 0.124593 0.124582 0.124572 0.124561 0.124553 0.124549 0.124547 0.124545 0.124541 0.124534 0.124524 0.124514 0.124505 0.124495 0.124486 0.124478 0.124474 0.124472 0.124470 0.124466 0.124459 0.124449 0.124441 0.124432 0.124423 0.124415 0.124408 0.124404 0.124403 0.124401 0.124397 0.124391 0.124382 0.124373 0.124365 0.124356 0.124348 0.124342 0.124339 0.124337 0.124336 0.124333 0.124327 0.124319 0.124311 0.124304 0.124296 0.124288 0.124282 0.124279 0.124278 0.124276 0.124273 0.124267 0.124260 0.124253 0.124246 0.124239 0.124232 0.124227 0.124224 0.124223 0.124221 0.124218 0.124213 0.124206 0.124199 0.124192 0.124186 0.124179 0.124175 0.124172 0.124171 0.124169 0.124167 0.124162 0.124156 0.124149 0.124143 0.124137 0.124131 0.124126 0.124123 0.124122 0.124121 0.124118 0.124114 0.124108 0.124102 0.124097 0.124091 0.124085 0.124081 0.124079 0.124078 0.124076 0.124074 0.124070 0.124064 0.124059 0.124053 0.124048 0.124043 0.124039 0.124036 0.124035 
0.128371 0.128366 0.128355 0.128334 0.128306 0.128279 0.128251 0.128223 0.128196 0.128175 0.128163 0.128158 0.128153 0.128142 0.128121 0.128093 0.128065 0.128037 0.128008 0.127980 0.127958 0.127947 0.127942 0.127937 0.127925 0.127904 0.127875 0.127847 0.127818 0.127790 0.127761 0.127739 0.127727 0.127722 0.127717 0.127705 0.127683 0.127654 0.127625 0.127597 0.127568 0.127539 0.127517 0.127508 0.127504 0.127500 0.127492 0.127475 0.127454 0.127432 0.127411 0.127390 0.127369 0.127353 0.127344 0.127340 0.127337 0.127328 0.127312 0.127292 0.127272 0.127251 0.127231 0.127211 0.127196 0.127188 0.127184 0.127181 0.127172 0.127157 0.127137 0.127118 0.127098 0.127079 0.127060 0.127045 0.127038 0.127034 0.127031 0.127023 0.127009 0.126990 0.126971 0.126952 0.126933 0.126915 0.126901 0.126894 0.126890 0.126887 0.126880 0.126866 0.126848 0.126831 0.126813 0.126795 0.126777 0.126763 0.126756 0.126753 0.126750 0.126743 0.126730 0.126713 0.126697 0.126680 0.126664 0.126647 0.126634 0.126627 0.126624 0.126621 0.126615 0.126602 0.126585 0.126570 0.126554 0.126539 0.126524 0.126512 0.126506 0.126503 0.126500 0.126494 0.126482 0.126467 0.126451 0.126436 0.126421 0.126407 0.126396 0.126391 0.126388 0.126386 0.126380 0.126369 0.126355 0.126341 0.126327 0.126313 0.126299 0.126289 0.126284 0.126281 0.126279 0.126274 0.126264 0.126252 0.126239 0.126227 0.126214 0.126201 0.126192 0.126187 0.126184 0.126182 0.126177 0.126168 0.126156 0.126145 0.126133 0.126122 0.126111 0.126102 0.126098 0.126096 0.126093 0.126089 0.126080 0.126069 0.126058 0.126048 0.126037 0.126027 0.126019 0.126015 0.126013 0.126012 0.126008 0.126000 0.125990 0.125980 0.125970 0.125959 0.125950 0.125943 0.125939 0.125937 0.125936 0.125932 0.125925 0.125916 0.125907 0.125898 0.125889 0.125880 0.125873 0.125869 0.125867 0.125866 0.125862 0.125856 0.125848 0.125839 0.125831 0.125823 0.125815 0.125808 0.125805 0.125804 0.125802 0.125799 0.125792 0.125784 0.125776 0.125769 0.125761 0.125753 0.125747 0.125744 0.125743 0.125742 0.125738 0.125733 0.125725 0.125717 0.125710 0.125702 0.125695 0.125690 0.125687 0.125686 
0.130945 0.130939 0.130917 0.130866 0.130799 0.130732 0.130665 0.130598 0.130530 0.130479 0.130457 0.130451 0.130445 0.130423 0.130372 0.130304 0.130237 0.130169 0.130101 0.130034 0.129983 0.129965 0.129960 0.129955 0.129939 0.129902 0.129853 0.129805 0.129758 0.129710 0.129665 0.129630 0.129615 0.129611 0.129607 0.129592 0.129558 0.129513 0.129470 0.129428 0.129385 0.129343 0.129311 0.129298 0.129294 0.129291 0.129278 0.129248 0.129208 0.129170 0.129132 0.129093 0.129057 0.129030 0.129018 0.129014 0.129011 0.128999 0.128973 0.128937 0.128905 0.128872 0.128839 0.128807 0.128783 0.128773 0.128771 0.128768 0.128758 0.128736 0.128707 0.128679 0.128651 0.128623 0.128597 0.128578 0.128569 0.128567 0.128564 0.128556 0.128538 0.128514 0.128491 0.128468 0.128445 0.128424 0.128408 0.128402 0.128400 0.128398 0.128391 0.128376 0.128356 0.128338 0.128319 0.128301 0.128284 0.128270 0.128265 0.128263 0.128261 0.128256 0.128244 0.128228 0.128212 0.128197 0.128181 0.128167 0.128156 0.128152 0.128150 0.128149 0.128145 0.128134 0.128120 0.128107 0.128094 0.128081 0.128068 0.128059 0.128055 0.128053 
0.133949 0.133943 0.133921 0.133870 0.133802 0.133734 0.133665 0.133597 0.133528 0.133477 0.133454 0.133448 0.133442 0.133419 0.133367 0.133298 0.133254 0.133209 0.133165 0.133127 0.133098 0.133086 0.133082 0.133079 0.133066 0.133038 0.133002 0.132966 0.132929 0.132893 0.132858 0.132832 0.132820 0.132817 0.132814 0.132803 0.132777 0.132742 0.132709 0.132675 0.132642 0.132609 0.132583 0.132573 0.132570 0.132567 0.132556 0.132531 0.132499 0.132468 0.132436 0.132404 0.132373 0.132349 0.132339 0.132337 0.132334 0.132324 0.132301 0.132270 0.132240 0.132210 0.132181 0.132152 0.132130 0.132120 0.132117 0.132115 0.132105 0.132084 0.132055 0.132027 0.132000 0.131972 0.131945 0.131924 0.131916 0.131913 0.131911 0.131902 0.131883 0.131856 0.131831 0.131805 0.131779 0.131754 0.131735 0.131727 0.131724 0.131722 0.131714 0.131695 0.131670 0.131646 0.131622 0.131598 0.131573 0.131555 0.131547 0.131545 0.131543 0.131536 0.131518 0.131495 0.131472 0.131449 0.131426 0.131404 0.131387 0.131379 0.131377 
0.137951 0.137946 0.137923 0.137860 0.137777 0.137686 0.137596 0.137505 0.137408 0.137334 0.137305 0.137300 0.137295 0.137266 0.137188 0.137084 0.137019 0.136955 0.136891 0.136838 0.136799 0.136783 0.136781 0.136778 0.136763 0.136725 0.136674 0.136624 0.136575 0.136525 0.136475 0.136438 0.136423 0.136420 0.136418 0.136403 0.136365 0.136314 0.136263 0.136212 0.136161 0.136109 0.136070 0.136055 0.136052 0.136049 0.136034 0.135995 0.135943 0.135890 0.135837 0.135784 0.135731 0.135691 0.135676 0.135673 0.135670 0.135654 0.135614 0.135560 0.135506 0.135452 0.135397 0.135342 0.135301 0.135285 0.135282 
0.149487 0.149478 0.149419 0.149257 0.149039 0.148803 0.148566 0.148329 0.148079 0.147892 0.147821 0.147810 0.147800 0.147729 0.147537 0.147281 0.147017 0.146753 0.146489 0.146223 0.146024 0.145949 0.145938 0.145927 0.145853 0.145651 0.145381 0.145109 0.144837 0.144564 0.144290 0.144084 0.144014 0.144004 0.143996 0.143938 0.143790 0.143594 0.143419 0.143244 0.143070 0.142913 0.142795 0.142754 0.142748 0.142742 0.142701 0.142593 0.142451 0.142320 0.142190 0.142059 0.141938 0.141847 0.141814 0.141810 0.141805 0.141772 0.141688 0.141576 0.141470 0.141365 0.141260 0.141161 0.141087 0.141059 0.141055 0.141051 0.141023 0.140953 0.140859 0.140768 0.140676 0.140585 0.140495 0.140428 0.140403 0.140400 
0.165267 0.165268 0.165276 0.165277 0.165278 0.165212 0.165145 0.165079 0.164950 0.164853 0.164810 0.164803 0.164795 0.164749 0.164612 0.164429 0.164202 0.163975 0.163748 0.163486 0.163289 0.163211 0.163198 0.163185 0.163107 0.162897 0.162618 0.162333 0.162048 0.161763 0.161489 0.161283 0.161204 0.161191 0.161179 0.161105 0.160918 0.160669 0.160425 0.160181 0.159937 0.159681 0.159489 0.159411 0.159398 0.159384 0.159304 0.159094 0.158815 0.158502 0.158188 0.157875 0.157559 0.157321 0.157233 0.157219 0.157205 0.157117 0.156894 0.156597 0.156336 0.156074 0.155813 0.155586 0.155416 0.155353 0.155342 0.155332 0.155274 0.155127 0.154930 0.154758 0.154586 0.154414 0.154263 0.154150 0.154107 0.154100 0.154093 0.154050 0.153948 0.153812 0.153683 0.153555 0.153427 0.153307 0.153217 0.153183 0.153177 0.153172 0.153138 0.153053 0.152939 0.152830 0.152721 0.152611 0.152504 0.152424 0.152393 0.152388 
