-1.495652 0.909943 9.509152
-1.502591 0.913989 9.516901
-1.509531 0.918034 9.524650
-1.842214 1.111905 9.892204
-2.197964 1.318780 10.210436
-2.613597 1.546205 9.997658
-3.081251 1.689300 9.801805
-1.513933 0.920601 9.529566
-1.840974 1.111183 9.890810
-1.843453 1.112628 9.893597
-2.196310 1.317820 10.209851
-2.199619 1.319739 10.211021
-2.611870 1.545511 9.998391
-2.615323 1.546899 9.996924
-3.079446 1.688832 9.802528
-1.531671 0.930942 9.549374
-1.823295 1.100873 9.870933
-1.861132 1.122938 9.913474
-2.172708 1.304136 10.201506
-2.223344 1.333484 10.212519
-2.588043 1.534287 10.009330
-2.639950 1.556800 9.986465
-3.053696 1.682165 9.812843
-1.569929 0.953241 9.591868
-1.612915 0.978289 9.639225
-1.656009 1.003394 9.686453
-1.699106 1.028500 9.733679
-1.742186 1.053598 9.780924
-1.785094 1.078604 9.828374
-1.899089 1.145075 9.956321
-1.941704 1.169924 10.004114
-1.984816 1.195039 10.051321
-2.028971 1.220718 10.097233
-2.074690 1.247277 10.140940
-2.123188 1.275419 10.180612
-2.274720 1.363220 10.196932
-2.328318 1.394071 10.168505
-2.379446 1.423314 10.133178
-2.429917 1.451774 10.096292
-2.482680 1.480695 10.063299
-2.537178 1.509497 10.033096
-2.692929 1.578100 9.963963
-2.753556 1.597645 9.938278
-2.814527 1.615915 9.912486
-2.875801 1.633058 9.886611
-2.937212 1.649975 9.860914
-2.998700 1.666960 9.835447
-4.316976 1.952918 9.322570
-5.573130 2.273257 8.952253
-6.454364 3.218810 8.663790
-7.088030 4.368599 8.343633
-7.806227 5.459433 7.998837
-8.661055 6.432943 7.619440
-9.675405 7.220750 7.206055
-10.826821 7.775250 6.773937
-12.065579 8.093173 6.342376
-13.344556 8.206160 5.923949
-3.083056 1.689767 9.801082
-4.315143 1.952520 9.323267
-4.318808 1.953316 9.321874
-5.571319 2.272538 8.952702
-5.574942 2.273977 8.951804
-6.453421 3.217107 8.664249
-6.455308 3.220512 8.663330
-7.087041 4.366932 8.344123
-7.089020 4.370267 8.343143
-7.805097 5.457870 7.999365
-7.807358 5.460996 7.998308
-8.659668 6.431628 7.620030
-8.662442 6.434258 7.618851
-9.673791 7.219751 7.206686
-9.677019 7.221749 7.205424
-10.825039 7.774607 6.774581
-10.828602 7.775892 6.773294
-12.063709 8.092854 6.343008
-12.067450 8.093493 6.341745
-13.342650 8.206143 5.924554
-3.108807 1.696435 9.790766
-4.289009 1.946844 9.333203
-4.344954 1.958994 9.311970
-5.545355 2.262591 8.959081
-5.600779 2.284240 8.945399
-6.439957 3.192823 8.670805
-6.468771 3.244796 8.656775
-7.072913 4.343155 8.351122
-7.103136 4.394052 8.336147
-7.788975 5.435571 8.006899
-7.823480 5.483295 7.990774
-8.639885 6.412871 7.628440
-8.682530 6.452657 7.610375
-9.650773 7.205498 7.215683
-9.700037 7.236001 7.196427
-10.799629 7.765441 6.783758
-10.854031 7.785006 6.764116
-12.037052 8.088164 6.352026
-12.094133 8.098049 6.332735
-13.315455 8.205901 5.933175
-3.227114 1.724199 9.744456
-3.416689 1.761298 9.672735
-3.605705 1.799705 9.600224
-3.793754 1.839906 9.526182
-3.981645 1.880393 9.451894
-4.169964 1.921031 9.378782
-4.464512 1.984907 9.267816
-4.655411 2.025424 9.201698
-4.848934 2.064096 9.142476
-5.043331 2.105118 9.087868
-5.236028 2.155865 9.035609
-5.426149 2.219366 8.988014
-5.715517 2.337808 8.916335
-5.872026 2.463425 8.873471
-6.016393 2.604968 8.833959
-6.162187 2.744439 8.792581
-6.277874 2.908455 8.747192
-6.377948 3.082429 8.700524
-6.529139 3.355996 8.626679
-6.622965 3.533095 8.578791
-6.716792 3.710103 8.530573
-6.813030 3.885624 8.481678
-6.909908 4.060745 8.432603
-7.008786 4.234571 8.382947
-7.167427 4.502525 8.304273
-7.271143 4.673107 8.253262
-7.379181 4.840627 8.201069
-7.487474 5.007964 8.148804
-7.599431 5.172538 8.095566
-7.715954 5.333531 8.041126
-7.899141 5.583147 7.955873
-8.024669 5.736397 7.899155
-8.149775 5.890030 7.842539
-8.279665 6.039146 7.784770
-8.415409 6.182443 7.725612
-8.551193 6.325693 7.666450
-8.774606 6.535941 7.571630
-8.920854 6.667452 7.510174
-9.071585 6.793300 7.447825
-9.227189 6.912638 7.384543
-9.384598 7.029414 7.320951
-9.546553 7.139326 7.256604
-9.805513 7.300049 7.155342
-9.975438 7.396477 7.089893
-10.148820 7.486280 7.024074
-10.324809 7.570702 6.958048
-10.503046 7.650135 6.891871
-10.684078 7.722867 6.825597
-10.970280 7.825643 6.722283
-11.156226 7.884746 6.656090
-11.344396 7.936644 6.590081
-11.533225 7.986204 6.524148
-11.723857 8.028663 6.458536
-11.915848 8.065211 6.393236
-12.216189 8.116518 6.291825
-12.410532 8.139896 6.227453
-12.604821 8.163654 6.163048
-12.800054 8.180062 6.099283
-12.995856 8.191062 6.036028
-13.191599 8.202683 5.972711
161 NaN NaN
-1.492182 0.907920 9.505277
-1.554731 0.944386 9.575126
-1.617692 0.981072 9.644488
-1.680831 1.017854 9.713637
-1.743929 1.054614 9.782835
-1.806764 1.091233 9.852346
-1.869105 1.127587 9.922439
-1.931292 1.163858 9.992712
-1.994434 1.200642 10.061854
-2.059540 1.238487 10.128547
-2.130473 1.279647 10.186572
-2.212853 1.327413 10.215701
-2.296305 1.375713 10.190383
-2.371322 1.418733 10.139115
-2.445234 1.460411 10.085098
-2.523944 1.503047 10.039280
-2.607303 1.543674 10.000330
-2.694124 1.578580 9.963456
-2.782954 1.607075 9.925824
-2.872688 1.632200 9.887914
-2.962636 1.656978 9.850276
-3.052774 1.681926 9.813212
-3.143574 1.705438 9.776839
-3.235381 1.726055 9.741251
-3.327888 1.744372 9.706210
-3.420562 1.762036 9.671275
-3.512987 1.780425 9.636055
-3.605112 1.799578 9.600456
-3.697002 1.819139 9.564475
-3.788738 1.838826 9.528173
-3.880429 1.858574 9.491787
-3.972186 1.878355 9.455587
-4.064068 1.898159 9.419719
-4.156048 1.918016 9.384130
-4.248093 1.937956 9.348759
-4.340249 1.957973 9.313722
-4.432636 1.978024 9.279318
-4.525373 1.998049 9.245855
-4.618608 2.017855 9.213671
-4.712496 2.037164 9.183126
-4.807103 2.055841 9.154466
-4.902117 2.074593 9.127233
-4.997109 2.094436 9.100707
-5.091723 2.116302 9.074425
-5.185837 2.140876 9.048758
-5.279327 2.168795 9.024265
-5.372123 2.199999 9.001124
-5.464447 2.233096 8.978721
-5.556599 2.266690 8.956352
-5.647696 2.302877 8.933768
-5.734822 2.347751 8.911373
-5.813462 2.406529 8.890015
-5.884165 2.475218 8.870042
-5.953015 2.546004 8.850817
-6.025304 2.613258 8.831589
-6.098581 2.679292 8.811823
-6.167312 2.749688 8.791031
-6.226867 2.827686 8.769124
-6.279214 2.910577 8.746616
-6.328300 2.995396 8.723873
-6.376857 3.080496 8.701044
-6.424981 3.165810 8.678096
-6.472456 3.251442 8.654981
-6.519212 3.337426 8.631706
-6.565347 3.423721 8.608344
-6.610984 3.510275 8.584962
-6.656462 3.596901 8.561538
-6.702277 3.683313 8.537980
-6.748846 3.769265 8.514216
-6.796000 3.854854 8.490301
-6.843316 3.940343 8.466342
-6.890528 4.025895 8.442406
-6.938008 4.111275 8.418389
-6.986286 4.196142 8.394143
-7.035582 4.280338 8.369612
-7.085408 4.364180 8.344933
-7.135185 4.448054 8.320265
-7.184868 4.531990 8.295622
-7.235162 4.615512 8.270811
-7.286769 4.698119 8.245640
-7.339560 4.779876 8.220147
-7.392709 4.861370 8.194555
-7.445503 4.943125 8.169059
-7.498382 5.024817 8.143539
-7.552391 5.105668 8.117719
-7.608258 5.185087 8.091408
-7.665248 5.263607 8.064804
-7.722206 5.342152 8.038206
-7.778568 5.421178 8.011763
-7.835420 5.499809 7.985193
-7.894103 5.576916 7.958157
-7.954937 5.652145 7.930579
-8.016641 5.726583 7.902784
-8.077880 5.801446 7.875103
-8.138689 5.876699 7.847528
-8.200506 5.951032 7.819708
-8.264633 6.023160 7.791332
-8.330660 6.093377 7.762508
-8.397202 6.163057 7.733563
-8.463188 6.233318 7.704747
-8.529296 6.303452 7.675905
-8.596842 6.372060 7.646738
-8.666600 6.438201 7.617083
-8.737723 6.502742 7.587134
-8.809095 6.566985 7.557133
-8.880271 6.631464 7.527175
-8.952096 6.695156 7.497086
-9.025509 6.756849 7.466679
-9.100633 6.816281 7.435939
-9.176705 6.874403 7.405023
-9.253012 6.932196 7.374067
-9.329606 6.989583 7.343065
-9.407077 7.045695 7.311912
-9.485903 7.099753 7.280533
-9.565902 7.151952 7.248969
-9.646638 7.202938 7.217299
-9.727808 7.253196 7.185573
-9.809545 7.302479 7.153773
-9.892077 7.350349 7.121872
-9.975526 7.396525 7.089860
-10.059798 7.441119 7.057759
-10.144779 7.484301 7.025595
-10.230378 7.526206 6.993383
-10.316535 7.566921 6.961131
-10.403198 7.606518 6.928842
-10.490413 7.644854 6.896521
-10.578301 7.681599 6.864173
-10.666942 7.716474 6.831812
-10.756187 7.749772 6.799448
-10.845792 7.782093 6.767085
-10.935599 7.813849 6.734724
-11.025786 7.844519 6.702372
-11.116607 7.873286 6.670054
-11.208143 7.899764 6.637792
-11.300102 7.924794 6.605575
-11.392174 7.949426 6.573369
-11.484288 7.973904 6.541168
-11.576738 7.997141 6.509016
-11.669796 8.017971 6.476974
-11.763387 8.036481 6.445055
-11.857183 8.054034 6.413191
-11.950915 8.071892 6.381308
-12.044677 8.089604 6.349434
-12.138768 8.105672 6.317665
-12.233362 8.118924 6.286094
-12.328256 8.130270 6.254671
-12.423185 8.141376 6.223267
-12.518002 8.153236 6.191802
-12.612890 8.164622 6.160376
-12.708069 8.173848 6.129133
-12.803561 8.180299 6.098145
-12.899175 8.185455 6.067283
-12.994756 8.190991 6.036384
-13.090278 8.197150 6.005424
-13.185875 8.202498 5.974543
-13.281643 8.205601 5.943895
-13.377537 8.206453 5.913493
-13.473481 8.206071 5.883233
-13.569431 8.205495 5.852996
-13.665351 8.205763 5.822661
-13.761179 8.207916 5.792115
