0.012796
14
0.011445
6
0.005723
23
0.012796
13
0.001814
17
A3
0.003039
12
A1
0.002365
16
D2
0.002061
17
D4
0.002507
13
D6
0.002640
13
D7
0.002446
13
D8
0.001898
17
D9
0.001716
17
D11
0.002502
12
D12
0.002118
14
D14
0.001949
15
D16
0.002612
10
D19
0.001055
23
D22
