0.011261
12
0.010072
8
0.005036
26
0.011261
14
0.002963
6
A6
0.001229
19
A4
0.002047
15
A2
0.002155
17
A1
0.002649
15
D1
0.002238
17
D2
0.001150
31
D3
0.001939
19
D4
0.002173
15
D7
0.001674
20
D10
0.001591
20
D15
0.003882
8
D23
