-2.086779 -1.391174 0.936611
-1.816438 -1.387233 2.084907
-1.507474 -1.443310 3.222820
-1.237463 -1.438865 4.371175
-1.056058 -1.297020 5.528360
-0.884729 -1.116221 6.682180
-0.715409 -0.964228 7.840376
-0.629639 -0.842492 9.010953
-0.654986 -0.765930 10.188116
-0.757798 -0.725511 11.363323
-0.858849 -0.684259 12.538640
-2.086392 -1.391060 0.938570
-1.816949 -1.387157 2.082975
-1.815926 -1.387310 2.086839
-1.507987 -1.443232 3.220888
-1.506961 -1.443388 3.224751
-1.237837 -1.439000 4.369215
-1.237090 -1.438729 4.373135
-1.056327 -1.297329 5.526402
-1.055788 -1.296712 5.530317
-0.885042 -1.116505 6.680225
-0.884415 -1.115937 6.684134
-0.715641 -0.964462 7.838403
-0.715178 -0.963994 7.842349
-0.629687 -0.842663 9.008961
-0.629590 -0.842322 9.012945
-0.654861 -0.766022 10.186122
-0.655112 -0.765838 10.190110
-0.757603 -0.725569 11.361333
-0.757994 -0.725452 11.365312
-0.858726 -0.684352 12.536646
-2.081527 -1.389626 0.963161
-1.823372 -1.386199 2.058720
-1.809499 -1.388273 2.111092
-1.514423 -1.442253 3.196637
-1.500525 -1.444367 3.249002
-1.242565 -1.440639 4.344610
-1.232400 -1.437032 4.397744
-1.059716 -1.301202 5.501826
-1.052407 -1.292780 5.554885
-0.888973 -1.120066 6.655682
-0.880484 -1.112375 6.708677
-0.718546 -0.967397 7.813636
-0.712273 -0.961060 7.867116
-0.630370 -0.844834 8.983955
-0.628978 -0.840179 9.037955
-0.653291 -0.767172 10.161088
-0.656793 -0.764740 10.215138
-0.755148 -0.726302 11.336355
-0.760448 -0.724719 11.390290
-0.857181 -0.685515 12.511611
-2.059191 -1.383648 1.074306
-2.021784 -1.377237 1.250086
-1.982098 -1.374295 1.425461
-1.940348 -1.374526 1.600382
-1.896959 -1.377296 1.774881
-1.852210 -1.382188 1.948990
-1.780131 -1.393119 2.220648
-1.733120 -1.401571 2.394026
-1.685704 -1.410662 2.567261
-1.638169 -1.419941 2.740453
-1.590769 -1.429009 2.913693
-1.543756 -1.437462 3.087070
-1.471689 -1.448374 3.358732
-1.426983 -1.453200 3.532855
-1.383652 -1.455880 3.707370
-1.341976 -1.455997 3.882307
-1.302243 -1.453126 4.057672
-1.264891 -1.446631 4.233462
-1.211718 -1.428574 4.509048
-1.180987 -1.412094 4.685464
-1.152350 -1.392364 4.861902
-1.125417 -1.369883 5.038282
-1.099832 -1.345061 5.214549
-1.075086 -1.318567 5.390693
-1.037112 -1.274923 5.665951
-1.012684 -1.246349 5.841815
-0.987647 -1.217832 6.017602
-0.961561 -1.189894 6.193330
-0.934473 -1.162730 6.369027
-0.906704 -1.136333 6.544734
-0.862715 -1.096548 6.819682
-0.834779 -1.072052 6.995639
-0.807435 -1.048269 7.171786
-0.781019 -1.025154 7.348163
-0.755872 -1.002686 7.524809
-0.732335 -0.980847 7.701755
-0.699737 -0.947956 7.979185
-0.681844 -0.927765 8.156985
-0.666278 -0.908295 8.335083
-0.653090 -0.889615 8.513458
-0.642336 -0.871793 8.692085
-0.634235 -0.854966 8.870947
-0.626696 -0.830696 9.151062
-0.625269 -0.816609 9.330337
-0.626540 -0.803716 9.509703
-0.630598 -0.792103 9.689117
-0.637385 -0.781766 9.868526
-0.646484 -0.772513 10.047892
-0.664707 -0.759920 10.328287
-0.678478 -0.752868 10.507456
-0.693604 -0.746455 10.686540
-0.709782 -0.740541 10.865550
-0.726694 -0.734973 11.044503
-0.744066 -0.729624 11.223418
-0.771510 -0.721387 11.503228
-0.788787 -0.715993 11.682152
-0.805506 -0.710335 11.861120
-0.821400 -0.704286 12.040151
-0.836195 -0.697717 12.219257
-0.849618 -0.690500 12.398446
124 NaN NaN
-2.086876 -1.391203 0.936121
-2.067393 -1.385459 1.034599
-2.047074 -1.380971 1.132974
-2.025977 -1.377662 1.231231
-2.004155 -1.375454 1.329361
-1.981663 -1.374272 1.427357
-1.958555 -1.374037 1.525217
-1.934883 -1.374672 1.622940
-1.910701 -1.376100 1.720530
-1.886059 -1.378245 1.817992
-1.861007 -1.381029 1.915333
-1.835596 -1.384376 2.012563
-1.809874 -1.388212 2.109693
-1.783890 -1.392461 2.206737
-1.757691 -1.397049 2.303707
-1.731326 -1.401901 2.400620
-1.704839 -1.406944 2.497489
-1.678279 -1.412104 2.594332
-1.651692 -1.417308 2.691166
-1.625123 -1.422482 2.788006
-1.598619 -1.427553 2.884869
-1.572227 -1.432447 2.981772
-1.545993 -1.437091 3.078730
-1.519965 -1.441410 3.175759
-1.494189 -1.445330 3.272872
-1.468715 -1.448777 3.370082
-1.443591 -1.451674 3.467401
-1.418867 -1.453945 3.564839
-1.394593 -1.455516 3.662404
-1.370821 -1.456308 3.760102
-1.347601 -1.456244 3.857936
-1.324988 -1.455248 3.955906
-1.303035 -1.453242 4.054011
-1.281795 -1.450148 4.152245
-1.261324 -1.445889 4.250598
-1.241678 -1.440391 4.349057
-1.222899 -1.433591 4.447605
-1.204955 -1.425539 4.546213
-1.187773 -1.416325 4.644856
-1.171285 -1.406045 4.743512
-1.155416 -1.394792 4.842164
-1.140095 -1.382658 4.940798
-1.125248 -1.369736 5.039404
-1.110803 -1.356117 5.137976
-1.096686 -1.341891 5.236510
-1.082824 -1.327148 5.335005
-1.069144 -1.311977 5.433460
-1.055573 -1.296466 5.531877
-1.042037 -1.280703 5.630259
-1.028465 -1.264776 5.728609
-1.014784 -1.248771 5.826931
-1.000919 -1.232776 5.925230
-0.986798 -1.216877 6.023508
-0.972349 -1.201163 6.121767
-0.957539 -1.185693 6.220012
-0.942418 -1.170472 6.318248
-0.927049 -1.155495 6.416483
-0.911493 -1.140760 6.514726
-0.895812 -1.126263 6.612984
-0.880069 -1.112000 6.711266
-0.864326 -1.097966 6.809581
-0.848644 -1.084159 6.907938
-0.833086 -1.070574 7.006346
-0.817714 -1.057208 7.104813
-0.802591 -1.044056 7.203347
-0.787779 -1.031116 7.301956
-0.773340 -1.018382 7.400648
-0.759338 -1.005852 7.499428
-0.745834 -0.993521 7.598303
-0.732892 -0.981386 7.697278
-0.720574 -0.969444 7.796355
-0.708939 -0.957692 7.895537
-0.698017 -0.946135 7.994823
-0.687818 -0.934787 8.094211
-0.678351 -0.923659 8.193695
-0.669624 -0.912763 8.293273
-0.661648 -0.902113 8.392940
-0.654431 -0.891720 8.492693
-0.647984 -0.881598 8.592526
-0.642316 -0.871759 8.692434
-0.637438 -0.862215 8.792413
-0.633358 -0.852981 8.892456
-0.630089 -0.844068 8.992559
-0.627639 -0.835489 9.092714
-0.626020 -0.827258 9.192915
-0.625242 -0.819389 9.293155
-0.625315 -0.811893 9.393426
-0.626251 -0.804784 9.493722
-0.628061 -0.798077 9.594033
-0.630737 -0.791774 9.694351
-0.634238 -0.785856 9.794667
-0.638512 -0.780301 9.894974
-0.643508 -0.775085 9.995266
-0.649177 -0.770185 10.095538
-0.655468 -0.765577 10.195787
-0.662329 -0.761239 10.296011
-0.669711 -0.757145 10.396207
-0.677563 -0.753274 10.496377
-0.685835 -0.749601 10.596521
-0.694476 -0.746102 10.696640
-0.703436 -0.742755 10.796736
-0.712665 -0.739535 10.896811
-0.722114 -0.736419 10.996870
-0.731733 -0.733383 11.096914
-0.741471 -0.730404 11.196949
-0.751279 -0.727458 11.296978
-0.761108 -0.724522 11.397005
-0.770908 -0.721572 11.497035
-0.780629 -0.718585 11.597071
-0.790222 -0.715537 11.697118
-0.799637 -0.712405 11.797179
-0.808823 -0.709165 11.897258
-0.817732 -0.705793 11.997358
-0.826314 -0.702266 12.097481
-0.834517 -0.698561 12.197629
-0.842292 -0.694653 12.297803
-0.849588 -0.690519 12.398005
-0.856355 -0.686136 12.498233
-0.862543 -0.681480 12.598486
-0.868100 -0.676527 12.698762
-0.872976 -0.671255 12.799056
-0.877121 -0.665639 12.899365
-0.880484 -0.659657 12.999682
-0.883015 -0.653286 13.100000
-2.086442 -1.391169 0.935877
-1.687552 -1.360292 0.711648
-1.288662 -1.329415 0.487418
-0.889772 -1.298538 0.263189
-0.490883 -1.267661 0.038960
-2.084702 -1.391034 0.934899
-1.689291 -1.360427 0.712625
-1.685812 -1.360157 0.710670
-1.290402 -1.329550 0.488396
-1.286923 -1.329280 0.486441
-0.891512 -1.298673 0.264167
-0.888033 -1.298403 0.262211
-0.492622 -1.267796 0.039938
-2.069436 -1.389853 0.926318
-1.704557 -1.361608 0.721207
-1.670547 -1.358976 0.702088
-1.305667 -1.330731 0.496978
-1.271657 -1.328099 0.477859
-0.906778 -1.299854 0.272748
-0.872767 -1.297222 0.253630
-0.507888 -1.268977 0.048519
-2.027395 -1.386598 0.902685
-1.971236 -1.382251 0.871116
-1.915076 -1.377904 0.839547
-1.858917 -1.373557 0.807978
-1.802757 -1.369210 0.776409
-1.746598 -1.364863 0.744839
-1.628506 -1.355721 0.678456
-1.572346 -1.351374 0.646887
-1.516187 -1.347027 0.615318
-1.460027 -1.342680 0.583748
-1.403868 -1.338333 0.552179
-1.347708 -1.333986 0.520610
-1.229616 -1.324844 0.454227
-1.173457 -1.320497 0.422658
-1.117297 -1.316150 0.391088
-1.061138 -1.311803 0.359519
-1.004978 -1.307456 0.327950
-0.948819 -1.303109 0.296381
-0.830726 -1.293967 0.229997
-0.774567 -1.289620 0.198428
-0.718407 -1.285273 0.166859
-0.662248 -1.280926 0.135290
-0.606088 -1.276579 0.103721
-0.549929 -1.272232 0.072152
19 NaN NaN
-2.086876 -1.391203 0.936121
-1.994360 -1.384041 0.884115
-1.901843 -1.376880 0.832108
-1.809326 -1.369718 0.780101
-1.716810 -1.362557 0.728094
-1.624293 -1.355395 0.676088
-1.531776 -1.348234 0.624081
-1.439259 -1.341072 0.572074
-1.346743 -1.333911 0.520067
-1.254226 -1.326749 0.468061
-1.161709 -1.319588 0.416054
-1.069193 -1.312426 0.364047
-0.976676 -1.305265 0.312040
-0.884159 -1.298104 0.260034
-0.791642 -1.290942 0.208027
-0.699126 -1.283781 0.156020
-0.606609 -1.276619 0.104013
-0.514092 -1.269458 0.052007
-0.421576 -1.262296 0.000000
-2.087303 -1.391460 0.936083
-3.121393 -1.584231 0.368686
-3.635762 -1.017866 -0.629129
-3.955994 -0.158409 -1.491755
-4.222070 0.752997 -2.327079
-4.493907 1.669774 -3.154782
-4.769319 2.587797 -3.979917
-5.042673 3.501212 -4.810620
-5.316483 4.379725 -5.678116
-5.627214 5.216377 -6.573871
-5.995186 5.982910 -7.509474
-6.438361 6.648888 -8.488089
-6.970156 7.185454 -9.501143
-7.596208 7.570182 -10.529072
-8.307886 7.792819 -11.549219
-2.089011 -1.392490 0.935930
-3.120164 -1.584776 0.370167
-3.122621 -1.583687 0.367204
-3.635123 -1.018952 -0.627576
-3.636400 -1.016780 -0.630682
-3.955605 -0.159891 -1.490470
-3.956384 -0.156927 -1.493041
-4.221636 0.751551 -2.325767
-4.222503 0.754442 -2.328392
-4.493474 1.668325 -3.153473
-4.494339 1.671223 -3.156090
-4.768884 2.586343 -3.978614
-4.769755 2.589251 -3.981219
-5.042260 3.499803 -4.809262
-5.043085 3.502616 -4.811983
-5.316027 4.378361 -5.676726
-5.316940 4.381088 -5.679507
-5.626680 5.215105 -6.572424
-5.627748 5.217650 -6.575319
-5.994551 5.981766 -7.507961
-5.995821 5.984053 -7.510987
-6.437591 6.647934 -8.486509
-6.439132 6.649842 -8.489669
-6.969244 7.184715 -9.499523
-6.971067 7.186194 -9.502762
-7.595145 7.569703 -10.527447
-7.597271 7.570661 -10.530697
-8.306707 7.792585 -11.547620
-2.111891 -1.406283 0.933884
-3.103707 -1.592068 0.390014
-3.139079 -1.576395 0.347357
-3.626495 -1.033171 -0.606572
-3.644955 -1.002233 -0.651494
-3.950389 -0.179743 -1.473247
-3.961600 -0.137079 -1.510267
-4.215828 0.732186 -2.308183
-4.228311 0.773808 -2.345975
-4.487679 1.648909 -3.135941
-4.500139 1.690640 -3.173619
-4.763050 2.566865 -3.961164
-4.775589 2.608729 -3.998669
-5.036733 3.480931 -4.791063
-5.048609 3.521426 -4.830247
-5.309914 4.360096 -5.658100
-5.323052 4.399353 -5.698133
-5.619580 5.197995 -6.553065
-5.634903 5.234694 -6.594715
-5.986041 5.966448 -7.487692
-6.004330 5.999372 -7.531257
-6.427272 6.635144 -8.465347
-6.449457 6.662625 -8.510833
-6.957034 7.174803 -9.477830
-6.983358 7.195978 -9.524468
-7.580903 7.563284 -10.505678
-7.611513 7.577080 -10.552466
-8.290912 7.789444 -11.526206
-2.216815 -1.466122 0.920533
-2.387154 -1.543923 0.876604
-2.557876 -1.599545 0.807476
-2.724190 -1.631762 0.716202
-2.881357 -1.638979 0.605392
-3.023995 -1.619197 0.477722
-3.207927 -1.537104 0.255126
-3.303213 -1.462161 0.105362
-3.384516 -1.376501 -0.046926
-3.456110 -1.284809 -0.200594
-3.522527 -1.190988 -0.355317
-3.586816 -1.095722 -0.510055
-3.683410 -0.934242 -0.744755
-3.742011 -0.817392 -0.886326
-3.796419 -0.690560 -1.020816
-3.845071 -0.555380 -1.149257
-3.887766 -0.414150 -1.273268
-3.926652 -0.270316 -1.395552
-3.985438 -0.047796 -1.589413
-4.023873 0.092198 -1.716212
-4.063716 0.230755 -1.844150
-4.105065 0.368485 -1.972504
-4.147189 0.506160 -2.100667
-4.189344 0.644485 -2.228115
-4.254625 0.861839 -2.425736
-4.296067 1.001555 -2.551896
-4.337304 1.141404 -2.677976
-4.378514 1.281266 -2.804049
-4.419861 1.421046 -2.930169
-4.461387 1.560743 -3.056321
-4.526506 1.778821 -3.253198
-4.568364 1.918570 -3.379184
-4.610332 2.058404 -3.505038
-4.652398 2.198346 -3.630740
-4.694501 2.338373 -3.756334
-4.736554 2.478440 -3.881900
-4.802108 2.697219 -4.077854
-4.844324 2.837616 -4.202996
-4.886885 2.978285 -4.327716
-4.929358 3.118629 -4.452830
-4.971062 3.257763 -4.579540
-5.011572 3.395060 -4.708620
-5.073747 3.606782 -4.913231
-5.114088 3.741808 -5.044740
-5.155212 3.876606 -5.176242
-5.197004 4.010879 -5.308068
-5.239369 4.144351 -5.440524
-5.282366 4.276918 -5.573683
-5.351086 4.481995 -5.782916
-5.396269 4.612069 -5.917799
-5.442462 4.740992 -6.053443
-5.489707 4.868672 -6.189895
-5.538079 4.995011 -6.327199
-5.587654 5.119913 -6.465386
-5.667629 5.311806 -6.682957
-5.720620 5.432559 -6.823541
-5.775065 5.551503 -6.965109
-5.831029 5.668530 -7.107678
-5.888578 5.783529 -7.251263
-5.947774 5.896391 -7.395870
-6.043647 6.068031 -7.623690
-6.107334 6.174909 -7.770911
-6.172870 6.279261 -7.919131
-6.240333 6.380944 -8.068338
-6.309765 6.479858 -8.218499
-6.381192 6.575931 -8.369566
-6.496779 6.720027 -8.607109
-6.573507 6.808372 -8.760278
-6.652365 6.893542 -8.914160
-6.733383 6.975451 -9.068689
-6.816582 7.054020 -9.223791
-6.901979 7.129174 -9.379391
-7.039741 7.239481 -9.623118
-7.130807 7.305565 -9.779617
-7.224075 7.368004 -9.936316
-7.319522 7.426753 -10.093131
-7.417119 7.481770 -10.249978
-7.516873 7.532937 -10.406771
-7.676682 7.605282 -10.651264
-7.781598 7.646712 -10.807562
-7.888406 7.684345 -10.963536
-7.997030 7.718198 -11.119121
-8.107391 7.748294 -11.274256
-8.219404 7.774671 -11.428883
188 NaN NaN
-2.086876 -1.391203 0.936121
-2.172756 -1.442975 0.928441
-2.260690 -1.489172 0.912658
-2.349793 -1.529560 0.889302
-2.439280 -1.563962 0.858886
-2.528440 -1.592219 0.821885
-2.616604 -1.614161 0.778727
-2.703120 -1.629590 0.729800
-2.787315 -1.638270 0.675462
-2.868470 -1.639925 0.616070
-2.945792 -1.634249 0.552001
-3.018404 -1.620931 0.483700
-3.085612 -1.600085 0.411835
-3.147395 -1.572710 0.337328
-3.204037 -1.539895 0.260946
-3.255960 -1.502632 0.183255
-3.303647 -1.461790 0.104647
-3.347590 -1.418111 0.025381
-3.388312 -1.372224 -0.054360
-3.426405 -1.324727 -0.134459
-3.462517 -1.276199 -0.214860
-3.497324 -1.227196 -0.295548
-3.531459 -1.178156 -0.376501
-3.565118 -1.128740 -0.457425
-3.598292 -1.078259 -0.537889
-3.630958 -1.026035 -0.617442
-3.663080 -0.971410 -0.695589
-3.694595 -0.913791 -0.771807
-3.725336 -0.853061 -0.845896
-3.755063 -0.789471 -0.917973
-3.783545 -0.723264 -0.988173
-3.810548 -0.654668 -1.056643
-3.835845 -0.583899 -1.123535
-3.859346 -0.511251 -1.189056
-3.881339 -0.437235 -1.253563
-3.902183 -0.362369 -1.317468
-3.922247 -0.287146 -1.381206
-3.941901 -0.212049 -1.445220
-3.961487 -0.137502 -1.509893
-3.981167 -0.063573 -1.575243
-4.001035 0.009810 -1.641150
-4.021188 0.082718 -1.707495
-4.041722 0.155226 -1.774162
-4.062720 0.227410 -1.841036
-4.084145 0.299365 -1.908021
-4.105886 0.371198 -1.975035
-4.127834 0.443018 -2.041995
-4.149879 0.514935 -2.108821
-4.171912 0.587053 -2.175432
-4.193874 0.659410 -2.241806
-4.215763 0.731969 -2.307986
-4.237574 0.804688 -2.374014
-4.259305 0.877529 -2.439935
-4.280956 0.950450 -2.505793
-4.302532 1.023420 -2.571622
-4.324057 1.096420 -2.637434
-4.345558 1.169434 -2.703238
-4.367062 1.242446 -2.769044
-4.388594 1.315439 -2.834861
-4.410177 1.388401 -2.900696
-4.431812 1.461336 -2.966544
-4.453494 1.534254 -3.032396
-4.475218 1.607162 -3.098244
-4.496980 1.680071 -3.164080
-4.518775 1.752988 -3.229895
-4.540600 1.825920 -3.295683
-4.562456 1.898870 -3.361441
-4.584342 1.971843 -3.427164
-4.606257 2.044843 -3.492848
-4.628201 2.117872 -3.558489
-4.650168 2.190932 -3.624088
-4.672147 2.264015 -3.689657
-4.694124 2.337116 -3.755208
-4.716088 2.410228 -3.820750
-4.738025 2.483344 -3.886296
-4.759935 2.556465 -3.951847
-4.781842 2.629608 -4.017373
-4.803779 2.702794 -4.082841
-4.825777 2.776045 -4.148216
-4.847868 2.849382 -4.213464
-4.870073 2.922813 -4.278567
-4.892331 2.996256 -4.343639
-4.914546 3.069584 -4.408854
-4.936618 3.142671 -4.474387
-4.958450 3.215387 -4.540411
-4.979942 3.287603 -4.607093
-5.001077 3.359271 -4.674477
-5.021961 3.430485 -4.742417
-5.042714 3.501354 -4.810757
-5.063457 3.571989 -4.879343
-5.084310 3.642501 -4.948021
-5.105376 3.712985 -5.016664
-5.126668 3.783428 -5.085279
-5.148165 3.853787 -5.153916
-5.169852 3.924016 -5.222626
-5.191708 3.994071 -5.291460
-5.213716 4.063909 -5.360467
-5.235876 4.133504 -5.429670
-5.258207 4.202852 -5.499065
-5.280726 4.271950 -5.568648
-5.303454 4.340794 -5.638415
-5.326409 4.409382 -5.708361
-5.349607 4.477706 -5.778484
-5.373059 4.545752 -5.848792
-5.396772 4.613506 -5.919295
-5.420757 4.680951 -5.990002
-5.445021 4.748071 -6.060922
-5.469572 4.814850 -6.132065
-5.494422 4.881274 -6.203436
-5.519581 4.947330 -6.275040
-5.545060 5.013004 -6.346882
-5.570870 5.078282 -6.418966
-5.597023 5.143151 -6.491296
-5.623528 5.207595 -6.563877
-5.650395 5.271600 -6.636713
-5.677635 5.335151 -6.709807
-5.705257 5.398231 -6.783165
-5.733270 5.460827 -6.856789
-5.761685 5.522922 -6.930684
-5.790511 5.584500 -7.004851
-5.819756 5.645546 -7.079293
-5.849430 5.706045 -7.154011
-5.879543 5.765980 -7.229007
-5.910103 5.825336 -7.304283
-5.941119 5.884098 -7.379838
-5.972600 5.942249 -7.455673
-6.004553 5.999773 -7.531787
-6.036987 6.056657 -7.608180
-6.069910 6.112882 -7.684850
-6.103330 6.168433 -7.761796
-6.137254 6.223296 -7.839015
-6.171689 6.277455 -7.916503
-6.206643 6.330896 -7.994257
-6.242124 6.383603 -8.072274
-6.278136 6.435560 -8.150549
-6.314688 6.486754 -8.229077
-6.351786 6.537171 -8.307851
-6.389435 6.586796 -8.386866
-6.427642 6.635616 -8.466115
-6.466412 6.683617 -8.545590
-6.505750 6.730784 -8.625284
-6.545662 6.777106 -8.705189
-6.586152 6.822571 -8.785295
-6.627225 6.867165 -8.865593
-6.668886 6.910876 -8.946074
-6.711137 6.953692 -9.026728
-6.753983 6.995601 -9.107545
-6.797425 7.036594 -9.188513
-6.841467 7.076659 -9.269621
-6.886111 7.115785 -9.350859
-6.931358 7.153962 -9.432214
-6.977210 7.191180 -9.513675
-7.023665 7.227431 -9.595230
-7.070724 7.262706 -9.676867
-7.118386 7.296996 -9.758573
-7.166649 7.330292 -9.840338
-7.215513 7.362588 -9.922147
-7.264972 7.393876 -10.003990
-7.315022 7.424152 -10.085854
-7.365659 7.453410 -10.167728
-7.416879 7.481644 -10.249599
-7.468676 7.508848 -10.331455
-7.521042 7.535021 -10.413286
-7.573969 7.560159 -10.495079
-7.627450 7.584262 -10.576824
-7.681475 7.607328 -10.658511
-7.736037 7.629354 -10.740128
-7.791126 7.650342 -10.821664
-7.846730 7.670293 -10.903111
-7.902837 7.689211 -10.984459
-7.959438 7.707097 -11.065699
-8.016521 7.723954 -11.146821
-8.074075 7.739787 -11.227817
-8.132087 7.754600 -11.308678
-8.190544 7.768401 -11.389399
-8.249435 7.781195 -11.469970
-8.308746 7.792990 -11.550384
-8.368465 7.803792 -11.630636
-8.428581 7.813610 -11.710718
-8.489080 7.822455 -11.790625
-8.549949 7.830335 -11.870351
-8.611177 7.837262 -11.949892
-8.672750 7.843245 -12.029241
-8.734658 7.848296 -12.108396
-8.796889 7.852423 -12.187350
-8.859430 7.855637 -12.266101
-8.922272 7.857949 -12.344644
-8.985403 7.859368 -12.422976
-0.715376 -0.963799 7.840630
-0.707321 -0.840866 7.912687
-0.705892 -0.716314 7.982341
-0.711823 -0.590334 8.049124
-0.726527 -0.463167 8.112198
-0.749112 -0.335429 8.171666
-0.780444 -0.207611 8.226826
-0.821043 -0.080366 8.277057
-0.869788 0.045770 8.322620
-0.927364 0.170014 8.362741
-0.993148 0.291804 8.397419
-1.065966 0.410888 8.427099
-1.146215 0.526422 8.451116
-1.232571 0.638433 8.470143
-1.324128 0.746946 8.484647
-0.715244 -0.962081 7.841647
-0.707381 -0.842602 7.911696
-0.707261 -0.839130 7.913678
-0.705876 -0.718067 7.981379
-0.705908 -0.714561 7.983304
-0.711644 -0.592113 8.048229
-0.712002 -0.588554 8.050020
-0.726262 -0.464955 8.111341
-0.726792 -0.461380 8.113055
-0.748758 -0.337221 8.170851
-0.749466 -0.333638 8.172481
-0.779908 -0.209397 8.226104
-0.780980 -0.205824 8.227548
-0.820416 -0.082142 8.276386
-0.821670 -0.078589 8.277728
-0.869071 0.044009 8.322002
-0.870504 0.047532 8.323239
-0.926475 0.168296 8.362232
-0.928253 0.171732 8.363250
-0.992179 0.290114 8.396966
-0.994117 0.293493 8.397872
-1.064921 0.409230 8.426702
-1.067011 0.412546 8.427497
-1.145033 0.524835 8.450826
-1.147397 0.528009 8.451406
-1.231328 0.636884 8.469905
-1.233813 0.639981 8.470382
-1.322830 0.745437 8.484457
-0.714816 -0.956503 7.844948
-0.707576 -0.848241 7.908477
-0.707066 -0.833490 7.916896
-0.705825 -0.723761 7.978252
-0.705960 -0.708867 7.986430
-0.711112 -0.597885 8.045298
-0.712583 -0.582776 8.052930
-0.725400 -0.470760 8.108556
-0.727654 -0.455575 8.115840
-0.747608 -0.343040 8.168202
-0.750617 -0.327819 8.175130
-0.778167 -0.215199 8.223759
-0.782721 -0.200022 8.229894
-0.818379 -0.087912 8.274205
-0.823707 -0.072819 8.279909
-0.866742 0.038287 8.319993
-0.872833 0.053254 8.325247
-0.923588 0.162716 8.360580
-0.931139 0.177312 8.364902
-0.989030 0.284626 8.395495
-0.997265 0.298982 8.399343
-1.061525 0.403845 8.425410
-1.070406 0.417932 8.428788
-1.141193 0.519681 8.449884
-1.151237 0.533163 8.452348
-1.227291 0.631854 8.469130
-1.237850 0.645011 8.471157
-1.318612 0.740534 8.483842
-0.713850 -0.943929 7.852389
-0.712577 -0.927361 7.862193
-0.711304 -0.910794 7.871997
-0.710031 -0.894226 7.881801
-0.708759 -0.877658 7.891605
-0.708016 -0.860953 7.901222
-0.706626 -0.820779 7.924151
-0.706047 -0.804031 7.933710
-0.705467 -0.787282 7.943269
-0.705403 -0.770419 7.952636
-0.705556 -0.753508 7.961921
-0.705709 -0.736596 7.971206
-0.706076 -0.696032 7.993477
-0.706722 -0.679031 8.002566
-0.707644 -0.661980 8.011545
-0.708567 -0.644929 8.020525
-0.709489 -0.627877 8.029504
-0.710412 -0.610826 8.038483
-0.713894 -0.569750 8.059488
-0.715620 -0.552586 8.068129
-0.717346 -0.535423 8.076771
-0.719073 -0.518260 8.085412
-0.720897 -0.501088 8.094009
-0.723457 -0.483846 8.102280
-0.729597 -0.442489 8.122116
-0.732157 -0.425247 8.130387
-0.734764 -0.408003 8.138634
-0.738181 -0.390721 8.146500
-0.741598 -0.373439 8.154366
-0.745015 -0.356156 8.162232
-0.753210 -0.314702 8.181100
-0.757494 -0.297422 8.188533
-0.761784 -0.280142 8.195964
-0.766074 -0.262861 8.203394
-0.770364 -0.245581 8.210825
-0.774654 -0.228300 8.218255
-0.786645 -0.186943 8.235181
-0.791815 -0.169710 8.242147
-0.796985 -0.152477 8.249113
-0.802156 -0.135245 8.256079
-0.807740 -0.118057 8.262814
-0.813789 -0.100919 8.269290
-0.828297 -0.059812 8.284824
-0.834346 -0.042674 8.291300
-0.840749 -0.025595 8.297567
-0.847664 -0.008601 8.303533
-0.854579 0.008394 8.309499
-0.861494 0.025389 8.315465
-0.878374 0.066087 8.329593
-0.886134 0.082892 8.335033
-0.893894 0.099697 8.340474
-0.901653 0.116502 8.345915
-0.909413 0.133307 8.351356
-0.917173 0.150112 8.356796
-0.937647 0.189889 8.368626
-0.946221 0.206462 8.373532
-0.954794 0.223034 8.378439
-0.963368 0.239606 8.383345
-0.972583 0.255954 8.387809
-0.981934 0.272254 8.392178
-1.004362 0.311353 8.402660
-1.013712 0.327653 8.407029
-1.023622 0.343721 8.410991
-1.033706 0.359715 8.414827
-1.043789 0.375710 8.418663
-1.053873 0.391705 8.422499
-1.078540 0.429838 8.431331
-1.089309 0.445500 8.434642
-1.100078 0.461162 8.437952
-1.110846 0.476824 8.441262
-1.121615 0.492486 8.444573
-1.132537 0.508063 8.447760
-1.159893 0.544781 8.454472
-1.171297 0.560089 8.457270
-1.182702 0.575397 8.460068
-1.194211 0.590639 8.462777
-1.206201 0.605578 8.465080
-1.218191 0.620516 8.467382
-1.246950 0.656349 8.472905
-1.259003 0.671243 8.475152
-1.271529 0.685804 8.476978
-1.284054 0.700364 8.478804
-1.296580 0.714924 8.480630
-1.309106 0.729484 8.482456
21 NaN NaN
-0.715409 -0.964228 7.840376
-0.708459 -0.873756 7.893915
-0.705295 -0.782297 7.946115
-0.706131 -0.689949 7.996817
-0.711169 -0.596837 8.045850
-0.720596 -0.503116 8.093037
-0.734574 -0.408965 8.138196
-0.753231 -0.314595 8.181149
-0.776656 -0.220235 8.221723
-0.804889 -0.126135 8.259761
-0.837918 -0.032555 8.295124
-0.875677 0.060244 8.327701
-0.918048 0.152008 8.357410
-0.964866 0.242501 8.384202
-1.015925 0.331510 8.408063
-1.070986 0.418851 8.429009
-1.129790 0.504376 8.447086
-1.192066 0.587967 8.462365
-1.257540 0.669543 8.474938
-1.325940 0.749052 8.484911
-1.397005 0.826469 8.492399
-0.884527 -1.115823 6.682407
-0.754140 -0.814273 6.849985
-0.686693 -0.491517 7.014284
-0.709849 -0.156872 7.165189
-0.839277 0.164622 7.287772
-1.057207 0.448373 7.374302
-1.333728 0.686332 7.427281
-0.883722 -1.114234 6.683315
-0.754689 -0.815970 6.849081
-0.753590 -0.812575 6.850890
-0.686877 -0.493308 7.013412
-0.686510 -0.489727 7.015155
-0.709378 -0.158670 7.164450
-0.710320 -0.155074 7.165927
-0.838315 0.162964 7.287202
-0.840239 0.166280 7.288343
-1.055880 0.446930 7.373908
-1.058535 0.449816 7.374696
-1.332116 0.685167 7.427075
-0.877914 -1.102772 6.689862
-0.758649 -0.828207 6.842558
-0.749630 -0.800338 6.857412
-0.688199 -0.506220 7.007126
-0.685188 -0.476814 7.021441
-0.705983 -0.171636 7.159125
-0.713715 -0.142109 7.171252
-0.831377 0.151009 7.283087
-0.847177 0.178235 7.292457
-1.046308 0.436524 7.371065
-1.068522 0.459880 7.377294
-1.320491 0.676762 7.425592
-0.862291 -1.071936 6.707477
-0.841452 -1.030805 6.730972
-0.822499 -0.988785 6.754488
-0.803605 -0.946736 6.778004
-0.786607 -0.903882 6.801499
-0.769911 -0.860900 6.824990
-0.738977 -0.767417 6.874959
-0.726959 -0.722802 6.898233
-0.715554 -0.677991 6.921470
-0.706274 -0.632624 6.944523
-0.698019 -0.586988 6.967486
-0.691756 -0.540956 6.990217
-0.683926 -0.441777 7.038010
-0.683042 -0.394937 7.059994
-0.684191 -0.347979 7.081608
-0.687476 -0.300897 7.102834
-0.692436 -0.253848 7.123694
-0.700117 -0.206855 7.143960
-0.722849 -0.107230 7.185576
-0.736379 -0.060965 7.204281
-0.753027 -0.015303 7.222054
-0.770509 0.030119 7.239541
-0.791436 0.074552 7.255848
-0.812712 0.118849 7.272019
-0.866255 0.210193 7.303345
-0.894729 0.251339 7.316546
-0.923230 0.292469 7.329734
-0.954855 0.331736 7.341402
-0.986479 0.371002 7.353070
-1.020558 0.408531 7.363416
-1.096016 0.486441 7.383912
-1.132689 0.521870 7.392739
-1.170982 0.555780 7.400521
-1.209627 0.589359 7.408075
-1.249461 0.621681 7.414796
-1.289770 0.653499 7.421184
22 NaN NaN
-0.884729 -1.116221 6.682180
-0.840814 -1.029545 6.731692
-0.801000 -0.940938 6.781247
-0.765819 -0.850364 6.830749
-0.735875 -0.757832 6.880068
-0.711842 -0.663410 6.929032
-0.694449 -0.567253 6.977416
-0.684452 -0.469629 7.024939
-0.682589 -0.370942 7.071256
-0.689510 -0.271748 7.115975
-0.705692 -0.172745 7.158670
-0.731360 -0.074732 7.198923
-0.766432 0.021465 7.236365
-0.810520 0.115072 7.270719
-0.862972 0.205450 7.301823
-0.922965 0.292140 7.329636
-0.989596 0.374872 7.354220
-1.061968 0.453548 7.375716
-1.139243 0.528201 7.394316
-1.220674 0.598958 7.410235
-1.305616 0.666007 7.423694
-1.393519 0.729562 7.434910
-1.055788 -1.296646 5.528553
-0.905639 -1.072613 5.642905
-0.785138 -0.833329 5.761000
-0.707395 -0.578412 5.881681
-0.690195 -0.312182 6.001233
-0.749902 -0.048550 6.111842
-0.882290 0.194216 6.205854
-1.069711 0.405965 6.280563
-1.293125 0.586360 6.337750
-1.054708 -1.295150 5.529324
-0.906594 -1.074182 5.642114
-0.904684 -1.071044 5.643696
-0.785831 -0.835018 5.760183
-0.784446 -0.831640 5.761818
-0.707693 -0.580209 5.880856
-0.707097 -0.576615 5.882507
-0.690146 -0.314012 6.000429
-0.690245 -0.310352 6.002038
-0.749269 -0.050308 6.111129
-0.750536 -0.046793 6.112556
-0.881160 0.192667 6.205283
-0.883420 0.195764 6.206424
-1.068258 0.404660 6.280132
-1.071164 0.407270 6.280993
-1.291535 0.585199 6.337398
-1.048361 -1.286354 5.533860
-0.912208 -1.083405 5.637463
-0.899069 -1.061820 5.648346
-0.789901 -0.844946 5.755377
-0.780375 -0.821712 5.766624
-0.709445 -0.590774 5.876004
-0.705345 -0.566050 5.887359
-0.689855 -0.324771 5.995697
-0.691281 -0.299615 6.006684
-0.745545 -0.060641 6.106934
-0.754259 -0.036460 6.116751
-0.874518 0.183565 6.201928
-0.890062 0.204867 6.209779
-1.059717 0.396986 6.277602
-1.079705 0.414943 6.283523
-1.282186 0.578377 6.335326
-1.031801 -1.263403 5.545694
-1.009755 -1.232849 5.561448
-0.988275 -1.201951 5.577298
-0.967418 -1.170674 5.593251
-0.946562 -1.139397 5.609205
-0.926858 -1.107472 5.625329
-0.885044 -1.037433 5.660559
-0.867089 -1.004598 5.676908
-0.849135 -0.971763 5.693257
-0.832564 -0.938289 5.709749
-0.816385 -0.904634 5.726281
-0.800522 -0.870849 5.742838
-0.769754 -0.795809 5.779162
-0.757271 -0.760750 5.795941
-0.745473 -0.725453 5.812756
-0.733898 -0.690094 5.829576
-0.724777 -0.654042 5.846453
-0.715657 -0.617990 5.863330
-0.700774 -0.538485 5.900020
-0.694728 -0.501783 5.916874
-0.692034 -0.464621 5.933592
-0.689340 -0.427458 5.950309
-0.688083 -0.390215 5.966917
-0.689095 -0.352843 5.983352
-0.694996 -0.271632 6.018691
-0.699941 -0.234378 6.034675
-0.706164 -0.197281 6.050460
-0.715136 -0.160519 6.065818
-0.724109 -0.123758 6.081176
-0.735830 -0.087601 6.095988
-0.764897 -0.009797 6.127472
-0.781571 0.024890 6.141131
-0.798244 0.059576 6.154791
-0.817038 0.093355 6.167834
-0.837113 0.126585 6.180504
-0.857188 0.159815 6.193175
-0.907393 0.228616 6.218532
-0.931889 0.259307 6.229631
-0.957541 0.289246 6.240280
-0.983192 0.319186 6.250929
-1.010871 0.347574 6.260686
-1.038707 0.375842 6.270375
-1.101990 0.434965 6.290124
-1.131657 0.461618 6.298913
-1.162633 0.486962 6.306989
-1.193829 0.512087 6.314946
-1.225322 0.536880 6.322726
-1.257794 0.560577 6.329921
24 NaN NaN
-1.056058 -1.297020 5.528360
-0.998202 -1.216837 5.569704
-0.943468 -1.134758 5.611572
-0.892288 -1.050680 5.653963
-0.845172 -0.964515 5.696866
-0.802716 -0.876199 5.740249
-0.765613 -0.785708 5.784052
-0.734656 -0.693090 5.828173
-0.710725 -0.598495 5.872457
-0.694760 -0.502213 5.916680
-0.687691 -0.404715 5.960541
-0.690345 -0.306672 6.003657
-0.703317 -0.208943 6.045588
-0.726855 -0.112506 6.085877
-0.760784 -0.018353 6.124103
-0.804526 0.072645 6.159937
-0.857193 0.159825 6.193178
-0.917727 0.242778 6.223752
-0.985032 0.321333 6.251693
-1.058071 0.395507 6.277114
-1.135918 0.465446 6.300175
-1.217780 0.531377 6.321054
-1.302994 0.593561 6.339937
-1.391010 0.652276 6.357000
-1.237134 -1.438491 4.371219
-1.155773 -1.345365 4.382290
-1.077277 -1.249974 4.394623
-1.002164 -1.152097 4.408391
-0.931089 -1.051496 4.423799
-0.864895 -0.947925 4.441093
-0.804671 -0.841156 4.460564
-0.751827 -0.731022 4.482551
-0.708394 -0.617457 4.507490
-0.677708 -0.500664 4.536005
-0.661713 -0.381978 4.568097
-0.663070 -0.263336 4.603734
-0.683576 -0.147522 4.642454
-0.723376 -0.037627 4.683366
-0.780762 0.063844 4.725374
-0.852802 0.155587 4.767487
-0.936605 0.237157 4.808981
-1.029301 0.309098 4.849428
-1.128120 0.373064 4.888754
-1.231538 0.430078 4.926952
-1.338449 0.481066 4.964069
-1.235819 -1.436994 4.371395
-1.157048 -1.346894 4.382096
-1.154498 -1.343837 4.382484
-1.078505 -1.251538 4.394409
-1.076048 -1.248410 4.394837
-1.003338 -1.153698 4.408155
-1.000989 -1.150495 4.408628
-0.932199 -1.053139 4.423537
-0.929979 -1.049853 4.424061
-0.865929 -0.949613 4.440802
-0.863862 -0.946237 4.441384
-0.805611 -0.842891 4.460240
-0.803730 -0.839421 4.460888
-0.752655 -0.732806 4.482189
-0.750999 -0.729238 4.482913
-0.708916 -0.619334 4.507038
-0.707873 -0.615580 4.507943
-0.678025 -0.502573 4.535501
-0.677390 -0.498754 4.536509
-0.661789 -0.383897 4.567541
-0.661637 -0.380058 4.568654
-0.662874 -0.265232 4.603128
-0.663265 -0.261439 4.604339
-0.683096 -0.149354 4.641809
-0.684056 -0.145691 4.643098
-0.722622 -0.039354 4.682697
-0.724130 -0.035900 4.684035
-0.779765 0.062249 4.724694
-0.781759 0.065439 4.726053
-0.851605 0.154136 4.766809
-0.854000 0.157038 4.768165
-0.935126 0.235980 4.808327
-0.938083 0.238335 4.809635
-1.027729 0.308040 4.848790
-1.030874 0.310157 4.850066
-1.126475 0.372111 4.888133
-1.129765 0.374018 4.889376
-1.229838 0.429217 4.926346
-1.233239 0.430940 4.927557
-1.336705 0.480286 4.963479
-1.231975 -1.432621 4.371910
-1.160775 -1.351361 4.381528
-1.150771 -1.339369 4.383051
-1.082096 -1.256108 4.393783
-1.072457 -1.243840 4.395463
-1.006770 -1.158380 4.407463
-0.997558 -1.145814 4.409319
-0.935443 -1.057941 4.422771
-0.926735 -1.045050 4.424827
-0.868948 -0.954545 4.439951
-0.860843 -0.941305 4.442235
-0.808361 -0.847962 4.459292
-0.800981 -0.834350 4.461835
-0.755075 -0.738021 4.481131
-0.748578 -0.724023 4.483971
-0.710888 -0.624703 4.505842
-0.706348 -0.610094 4.509265
-0.678952 -0.508153 4.534028
-0.676463 -0.493174 4.537982
-0.662011 -0.389508 4.565914
-0.661415 -0.374448 4.570280
-0.662303 -0.270774 4.601359
-0.663837 -0.255897 4.606108
-0.681693 -0.154707 4.639926
-0.685459 -0.140337 4.644981
-0.720418 -0.044402 4.680740
-0.726334 -0.030851 4.685992
-0.776851 0.057587 4.722707
-0.784672 0.070101 4.728040
-0.848104 0.149894 4.764827
-0.857501 0.161280 4.770147
-0.930971 0.232360 4.806396
-0.942405 0.241775 4.811546
-1.023133 0.304946 4.846926
-1.035470 0.313250 4.851931
-1.121668 0.369324 4.886317
-1.134571 0.376805 4.891192
-1.224867 0.426700 4.924577
-1.238209 0.433457 4.929326
-1.331606 0.478005 4.961754
-1.223649 -1.423149 4.373026
-1.212712 -1.410707 4.374491
-1.201776 -1.398266 4.375957
-1.190840 -1.385824 4.377422
-1.179903 -1.373382 4.378888
-1.168967 -1.360941 4.380353
-1.142699 -1.329693 4.384280
-1.132097 -1.316984 4.385893
-1.121494 -1.304274 4.387507
-1.110892 -1.291565 4.389121
-1.100289 -1.278855 4.390734
-1.089874 -1.266005 4.392428
-1.064680 -1.233943 4.396818
-1.054465 -1.220942 4.398598
-1.044249 -1.207941 4.400378
-1.034034 -1.194940 4.402158
-1.023965 -1.181836 4.403998
-1.014202 -1.168519 4.405965
-0.990125 -1.135675 4.410817
-0.980362 -1.122357 4.412784
-0.970599 -1.109039 4.414751
-0.960926 -1.095664 4.416754
-0.951697 -1.082003 4.418933
-0.942469 -1.068341 4.421112
-0.919710 -1.034650 4.426486
-0.910481 -1.020988 4.428665
-0.901260 -1.007323 4.430847
-0.892669 -0.993291 4.433267
-0.884079 -0.979259 4.435688
-0.875488 -0.965228 4.438108
-0.854303 -0.930622 4.444077
-0.845712 -0.916591 4.446498
-0.837779 -0.902222 4.449153
-0.829957 -0.887796 4.451849
-0.822136 -0.873370 4.454544
-0.814315 -0.858944 4.457240
-0.795027 -0.823367 4.463888
-0.787858 -0.808656 4.466802
-0.780973 -0.793821 4.469812
-0.774088 -0.778985 4.472821
-0.767202 -0.764150 4.475830
-0.760317 -0.749315 4.478840
-0.743956 -0.712509 4.486454
-0.738217 -0.697269 4.489819
-0.732477 -0.682028 4.493185
-0.726737 -0.666787 4.496550
-0.720998 -0.651547 4.499915
-0.715258 -0.636306 4.503280
-0.703046 -0.598212 4.512129
-0.698709 -0.582605 4.515891
-0.694372 -0.566998 4.519653
-0.690035 -0.551391 4.523415
-0.685697 -0.535783 4.527177
-0.681360 -0.520176 4.530939
-0.674455 -0.481088 4.541173
-0.671818 -0.465212 4.545363
-0.669180 -0.449337 4.549553
-0.666543 -0.433461 4.553744
-0.663905 -0.417586 4.557934
-0.662492 -0.401659 4.562391
-0.660935 -0.362297 4.573803
-0.660303 -0.346336 4.578430
-0.659671 -0.330376 4.583057
-0.659040 -0.314415 4.587684
-0.659441 -0.298544 4.592497
-0.661066 -0.282777 4.597529
-0.665074 -0.243894 4.609938
-0.666699 -0.228127 4.614971
-0.668324 -0.212361 4.620003
-0.670672 -0.196759 4.625134
-0.674664 -0.181530 4.630491
-0.678655 -0.166301 4.635848
-0.688498 -0.128743 4.649059
-0.692489 -0.113515 4.654416
-0.696832 -0.098420 4.659805
-0.703103 -0.084059 4.665371
-0.709373 -0.069697 4.670937
-0.715644 -0.055336 4.676503
-0.731108 -0.019918 4.690229
-0.737384 -0.005560 4.695795
-0.745673 0.007703 4.701447
-0.753962 0.020965 4.707100
-0.762251 0.034227 4.712752
-0.770540 0.047490 4.718404
-0.790983 0.080198 4.732343
-0.800691 0.092443 4.737983
-0.810649 0.104509 4.743621
-0.820607 0.116576 4.749259
-0.830565 0.128642 4.754897
-0.840523 0.140708 4.760535
-0.866000 0.169644 4.774383
-0.877277 0.180530 4.779939
-0.888554 0.191416 4.785496
-0.899831 0.202301 4.791052
-0.911108 0.213187 4.796609
-0.922385 0.224073 4.802166
-0.951766 0.249227 4.815687
-0.964061 0.259015 4.821125
-0.976356 0.268803 4.826563
-0.988651 0.278591 4.832001
-1.000946 0.288379 4.837439
-1.013241 0.298166 4.842877
-1.045424 0.319951 4.855969
-1.058499 0.328751 4.861272
-1.071575 0.337552 4.866576
-1.084650 0.346353 4.871880
-1.097725 0.355154 4.877184
-1.111258 0.363288 4.882383
-1.144982 0.382840 4.895125
-1.158657 0.390768 4.900292
-1.172332 0.398696 4.905459
-1.186006 0.406624 4.910626
-1.199963 0.414087 4.915711
-1.214103 0.421248 4.920745
-1.248974 0.438909 4.933159
-1.263113 0.446070 4.938192
-1.277253 0.453231 4.943226
-1.291556 0.460090 4.948202
-1.306060 0.466578 4.953110
-1.320564 0.473066 4.958018
24 NaN NaN
-1.237463 -1.438865 4.371175
-1.165025 -1.356457 4.380881
-1.094800 -1.272275 4.391570
-1.027138 -1.186165 4.403359
-0.962475 -1.097957 4.416388
-0.901353 -1.007475 4.430821
-0.844458 -0.914542 4.446851
-0.792660 -0.819001 4.464703
-0.747063 -0.720757 4.484633
-0.709055 -0.619836 4.506917
-0.680339 -0.516500 4.531825
-0.662878 -0.411403 4.559566
-0.658697 -0.305762 4.590193
-0.669451 -0.201418 4.623495
-0.695863 -0.100640 4.658945
-0.737362 -0.005596 4.695780
-0.792226 0.082187 4.733191
-0.858150 0.162067 4.770515
-0.932816 0.234142 4.807305
-1.014233 0.298956 4.843316
-1.100822 0.357238 4.878440
-1.191387 0.409743 4.912658
-1.285034 0.457172 4.945996
-1.381097 0.500144 4.978500
-1.815994 -1.387007 2.084945
-1.658008 -1.305088 2.098689
-1.502638 -1.218557 2.113821
-1.350716 -1.126402 2.130657
-1.203742 -1.026977 2.149722
-1.062959 -0.919478 2.171300
-0.931814 -0.801118 2.196329
-0.815358 -0.669381 2.225757
-0.720298 -0.522699 2.260365
-0.664095 -0.359025 2.301637
-0.657083 -0.187950 2.347528
-0.702149 -0.022532 2.394662
-0.790618 0.125390 2.439374
-0.903833 0.256626 2.480890
-1.033893 0.372589 2.519174
-1.814217 -1.386101 2.085095
-1.659767 -1.306025 2.098530
-1.656248 -1.304151 2.098849
-1.504356 -1.219566 2.113639
-1.500921 -1.217548 2.114002
-1.352406 -1.127454 2.130462
-1.349026 -1.125351 2.130851
-1.205360 -1.028131 2.149496
-1.202124 -1.025823 2.149948
-1.064467 -0.920766 2.171032
-1.061452 -0.918191 2.171568
-0.933242 -0.802487 2.196034
-0.930385 -0.799749 2.196623
-0.816547 -0.670949 2.225396
-0.814170 -0.667813 2.226117
-0.721056 -0.524495 2.259920
-0.719539 -0.520903 2.260810
-0.664539 -0.360913 2.301150
-0.663651 -0.357137 2.302124
-0.656775 -0.189853 2.346997
-0.657391 -0.186047 2.348059
-0.701497 -0.024348 2.394136
-0.702802 -0.020716 2.395188
-0.789478 0.123820 2.438889
-0.791759 0.126959 2.439859
-0.902420 0.255280 2.480451
-0.905246 0.257971 2.481330
-1.032393 0.371335 2.518755
-1.807334 -1.382592 2.085677
-1.666584 -1.309654 2.097911
-1.649431 -1.300522 2.099468
-1.511007 -1.223476 2.112936
-1.494270 -1.213638 2.114706
-1.358952 -1.131529 2.129709
-1.342480 -1.121276 2.131605
-1.211626 -1.032602 2.148620
-1.195858 -1.021352 2.150824
-1.070305 -0.925752 2.169995
-1.055614 -0.913205 2.172606
-0.938775 -0.807789 2.194895
-0.924852 -0.794447 2.197762
-0.821150 -0.677021 2.223999
-0.809567 -0.661740 2.227515
-0.724665 -0.531143 2.258314
-0.716599 -0.513946 2.262535
-0.666261 -0.368228 2.299263
-0.661929 -0.349822 2.304010
-0.655582 -0.197227 2.344940
-0.658584 -0.178673 2.350117
-0.698970 -0.031383 2.392099
-0.705663 -0.013825 2.397203
-0.785060 0.117739 2.437009
-0.796176 0.133040 2.441739
-0.896947 0.250067 2.478750
-0.910719 0.263184 2.483031
-1.026579 0.366478 2.517132
-1.790938 -1.374233 2.087065
-1.769245 -1.363174 2.088901
-1.747552 -1.352115 2.090738
-1.725860 -1.341056 2.092574
-1.704310 -1.329737 2.094488
-1.682824 -1.318299 2.096438
-1.633191 -1.291877 2.100941
-1.611828 -1.280225 2.102955
-1.590583 -1.268369 2.105031
-1.569337 -1.256513 2.107106
-1.548092 -1.244656 2.109182
-1.526853 -1.232789 2.111261
-1.478424 -1.204325 2.116381
-1.457459 -1.192004 2.118597
-1.436494 -1.179682 2.120813
-1.415811 -1.166919 2.123164
-1.395179 -1.154077 2.125539
-1.374547 -1.141235 2.127914
-1.327152 -1.111177 2.133520
-1.306918 -1.097749 2.136074
-1.286684 -1.084321 2.138629
-1.266450 -1.070894 2.141183
-1.246304 -1.057344 2.143775
-1.226554 -1.043253 2.146535
-1.180930 -1.010701 2.152909
-1.161184 -0.996604 2.155671
-1.142031 -0.981757 2.158667
-1.122879 -0.966909 2.161662
-1.103727 -0.952061 2.164658
-1.084574 -0.937213 2.167654
-1.041706 -0.901327 2.175078
-1.023304 -0.885613 2.178348
-1.004903 -0.869898 2.181618
-0.986833 -0.853841 2.184999
-0.969394 -0.837131 2.188590
-0.951956 -0.820420 2.192181
-0.911881 -0.781626 2.200539
-0.895701 -0.763774 2.204506
-0.879520 -0.745922 2.208472
-0.863339 -0.728070 2.212439
-0.847158 -0.710218 2.216405
-0.832116 -0.691489 2.220670
-0.798600 -0.647273 2.230843
-0.784092 -0.628132 2.235247
-0.770719 -0.608285 2.239903
-0.758457 -0.587746 2.244805
-0.746195 -0.567206 2.249707
-0.733933 -0.546667 2.254609
-0.709595 -0.497372 2.266645
-0.700329 -0.475444 2.272082
-0.691063 -0.453516 2.277518
-0.681797 -0.431588 2.282955
-0.675788 -0.408706 2.288824
-0.670362 -0.385652 2.294769
-0.657828 -0.332397 2.308504
-0.655460 -0.308996 2.314707
-0.654550 -0.285429 2.321032
-0.653640 -0.261862 2.327357
-0.652730 -0.238295 2.333682
-0.652740 -0.214792 2.340038
-0.661427 -0.161108 2.355018
-0.665187 -0.137869 2.361503
-0.669059 -0.114658 2.367986
-0.677023 -0.092486 2.374406
-0.684987 -0.070314 2.380826
-0.692951 -0.048142 2.387246
-0.714245 0.001827 2.401893
-0.725599 0.022536 2.408098
-0.736952 0.043244 2.414302
-0.748306 0.063953 2.420507
-0.760613 0.084089 2.426607
-0.774536 0.103253 2.432531
-0.806701 0.147526 2.446216
-0.820998 0.166407 2.452083
-0.836828 0.184124 2.457717
-0.852659 0.201841 2.463351
-0.868489 0.219558 2.468985
-0.884320 0.237276 2.474619
-0.923758 0.275602 2.487083
-0.941008 0.292032 2.492444
-0.958259 0.308461 2.497806
-0.976082 0.324292 2.503035
-0.994406 0.339600 2.508150
-1.012729 0.354908 2.513265
25 NaN NaN
-1.816438 -1.387233 2.084907
-1.719100 -1.337610 2.093146
-1.622692 -1.286288 2.101894
-1.527362 -1.233088 2.111207
-1.433293 -1.177800 2.121152
-1.340715 -1.120178 2.131808
-1.249925 -1.059928 2.143269
-1.161308 -0.996701 2.155651
-1.075375 -0.930082 2.169093
-0.992816 -0.859575 2.183767
-0.914580 -0.784604 2.199877
-0.841993 -0.704519 2.217672
-0.776917 -0.618667 2.237425
-0.721930 -0.526562 2.259407
-0.680391 -0.428262 2.283780
-0.656076 -0.324956 2.310423
-0.651999 -0.219369 2.338761
-0.668848 -0.115246 2.367816
-0.704543 -0.015869 2.396591
-0.755449 0.076980 2.424410
-0.817894 0.162933 2.450979
-0.888905 0.242408 2.476251
-0.966294 0.316114 2.500303
-1.048503 0.384794 2.523252
-1.134425 0.449120 2.545221
-0.889484 -1.298130 0.263206
-0.736966 -1.068193 0.275603
-0.609975 -0.824200 0.299444
-0.523813 -0.565253 0.339652
-0.493227 -0.297985 0.399042
-0.536492 -0.038201 0.479152
-0.647730 0.195445 0.573379
-0.811829 0.392768 0.674469
-0.888330 -1.296498 0.263272
-0.737991 -1.069905 0.275476
-0.735940 -1.066480 0.275729
-0.610714 -0.826043 0.299196
-0.609237 -0.822358 0.299691
-0.524268 -0.567168 0.339299
-0.523358 -0.563337 0.340005
-0.493101 -0.299909 0.398509
-0.493352 -0.296062 0.399576
-0.535937 -0.040013 0.478516
-0.537048 -0.036388 0.479789
-0.646651 0.193924 0.572657
-0.648810 0.196966 0.574101
-0.810518 0.391452 0.673728
-0.881883 -1.287382 0.263640
-0.743719 -1.079471 0.274772
-0.730212 -1.056915 0.276434
-0.615334 -0.836141 0.298014
-0.605114 -0.812068 0.301075
-0.526809 -0.577866 0.337325
-0.520817 -0.552639 0.341979
-0.492925 -0.310697 0.395679
-0.494056 -0.285318 0.402556
-0.532835 -0.050139 0.474959
-0.540150 -0.026262 0.483346
-0.640698 0.185376 0.568632
-0.654840 0.205460 0.578136
-0.803194 0.384100 0.669591
-0.865209 -1.263806 0.264594
-0.843025 -1.232439 0.265862
-0.821128 -1.200882 0.267268
-0.800088 -1.168762 0.269081
-0.779048 -1.136642 0.270894
-0.758533 -1.104208 0.272949
-0.715398 -1.032177 0.278256
-0.696819 -0.998663 0.281183
-0.678663 -0.964924 0.284297
-0.660507 -0.931184 0.287411
-0.643942 -0.896712 0.291201
-0.627609 -0.862131 0.295091
-0.594450 -0.785456 0.304652
-0.580261 -0.750048 0.309412
-0.566952 -0.714372 0.314511
-0.555279 -0.678198 0.320239
-0.543606 -0.642023 0.325968
-0.533381 -0.605534 0.332221
-0.514246 -0.524972 0.347083
-0.508282 -0.487816 0.354814
-0.502897 -0.450590 0.362742
-0.497512 -0.413363 0.370669
-0.495780 -0.376053 0.379738
-0.494150 -0.338741 0.388839
-0.495874 -0.257533 0.410263
-0.498294 -0.220564 0.420517
-0.502599 -0.183970 0.431252
-0.509191 -0.147831 0.442572
-0.515782 -0.111691 0.453892
-0.524812 -0.076326 0.465761
-0.548172 -0.000075 0.492544
-0.562383 0.033206 0.505464
-0.576854 0.066373 0.518436
-0.591585 0.099392 0.531448
-0.609434 0.130641 0.544962
-0.627282 0.161889 0.558475
-0.670436 0.227429 0.588571
-0.691187 0.256658 0.602454
-0.713289 0.284772 0.616465
-0.736474 0.311992 0.630579
-0.759659 0.339212 0.644692
-0.784254 0.365087 0.658891
20 NaN NaN
-0.889772 -1.298538 0.263189
-0.826416 -1.208955 0.266812
-0.766328 -1.117224 0.271990
-0.710039 -1.023229 0.278915
-0.658189 -0.926878 0.287808
-0.611550 -0.828129 0.298916
-0.571034 -0.727022 0.312507
-0.537703 -0.623731 0.328864
-0.512739 -0.518627 0.348253
-0.497365 -0.412347 0.370885
-0.492713 -0.305832 0.396866
-0.499620 -0.200303 0.426137
-0.518435 -0.097141 0.458450
-0.548905 0.002317 0.493384
-0.590217 0.096998 0.530413
-0.641175 0.186211 0.568993
-0.700421 0.269665 0.608633
-0.766624 0.347388 0.648931
-0.838583 0.419626 0.689583
-0.915280 0.486739 0.730369
