-2.152415 -1.275704 1.559067
-1.651915 -1.393037 2.969739
-1.153690 -1.508338 4.381205
-0.997677 -1.327639 5.864956
-0.846599 -1.142425 7.350930
-2.151961 -1.275671 1.561015
-1.652690 -1.392781 2.967914
-1.651140 -1.393293 2.971565
-1.154126 -1.508386 4.379254
-1.153254 -1.508289 4.383156
-0.997821 -1.327931 5.862983
-0.997533 -1.327346 5.866930
-0.846827 -1.142648 7.348956
-2.144794 -1.275150 1.591793
-1.664938 -1.388730 2.939061
-1.638898 -1.397339 3.000421
-1.161014 -1.509148 4.348418
-1.146571 -1.507352 4.414029
-1.000095 -1.332554 5.831800
-0.995259 -1.322724 5.898112
-0.850430 -1.146184 7.317756
-2.110121 -1.274336 1.732489
-2.046229 -1.280917 1.952923
-1.973063 -1.295796 2.170063
-1.893217 -1.316757 2.384336
-1.808616 -1.342101 2.596308
-1.720998 -1.370250 2.806700
-1.582879 -1.415780 3.132804
-1.495335 -1.443860 3.343236
-1.410908 -1.469042 3.555297
-1.331430 -1.489666 3.769739
-1.258785 -1.504077 3.987080
-1.195083 -1.510488 4.207576
-1.119689 -1.499829 4.556227
-1.085526 -1.480792 4.782473
-1.059969 -1.454598 5.009161
-1.040611 -1.423318 5.235829
-1.024712 -1.389227 5.462366
-1.009941 -1.354221 5.688843
-0.983869 -1.302309 6.041140
-0.963850 -1.271568 6.267830
-0.941716 -1.242556 6.494552
-0.917854 -1.214963 6.721276
-0.892767 -1.188378 6.947989
-0.866925 -1.162415 7.174690
75 NaN NaN
-2.152528 -1.275712 1.558580
-2.129579 -1.274043 1.657135
-2.104275 -1.274424 1.755127
-2.076820 -1.276698 1.852511
-2.047413 -1.280705 1.949269
-2.016253 -1.286281 2.045399
-1.983532 -1.293267 2.140917
-1.949434 -1.301504 2.235852
-1.914139 -1.310837 2.330247
-1.877816 -1.321115 2.424153
-1.840631 -1.332190 2.517630
-1.802741 -1.343920 2.610743
-1.764299 -1.356164 2.703564
-1.725453 -1.368785 2.796166
-1.686348 -1.381648 2.888625
-1.647127 -1.394621 2.981020
-1.607931 -1.407569 3.073430
-1.568902 -1.420361 3.165931
-1.530185 -1.432862 3.258603
-1.491924 -1.444937 3.351521
-1.454270 -1.456447 3.444758
-1.417377 -1.467252 3.538382
-1.381404 -1.477207 3.632457
-1.346520 -1.486164 3.727041
-1.312897 -1.493969 3.822181
-1.280715 -1.500466 3.917916
-1.250164 -1.505496 4.014271
-1.221436 -1.508898 4.111256
-1.194732 -1.510509 4.208862
-1.170252 -1.510171 4.307062
-1.148195 -1.507729 4.405805
-1.128604 -1.503172 4.504991
-1.111289 -1.496680 4.604494
-1.096038 -1.488450 4.704207
-1.082629 -1.478681 4.804045
-1.070842 -1.467567 4.903949
-1.060456 -1.455299 5.003873
-1.051253 -1.442060 5.103790
-1.043019 -1.428032 5.203683
-1.035540 -1.413389 5.303548
-1.028607 -1.398303 5.403387
-1.022014 -1.382942 5.503207
-1.015555 -1.367473 5.603019
-1.009025 -1.352061 5.702835
-1.002219 -1.336873 5.802667
-0.994937 -1.322070 5.902523
-0.987106 -1.307713 6.002403
-0.978759 -1.293776 6.102300
-0.969935 -1.280229 6.202210
-0.960669 -1.267041 6.302129
-0.951002 -1.254183 6.402052
-0.940971 -1.241623 6.501977
-0.930615 -1.229329 6.601902
-0.919973 -1.217271 6.701826
-0.909085 -1.205416 6.801748
-0.897989 -1.193731 6.901667
-0.886726 -1.182184 7.001583
-0.875335 -1.170743 7.101497
-0.863855 -1.159375 7.201409
-0.852328 -1.148046 7.301320
-0.840791 -1.136725 7.401231
-0.829286 -1.125378 7.501143
-0.817852 -1.113972 7.601056
-0.806529 -1.102475 7.700971
-0.795356 -1.090854 7.800889
-0.784373 -1.079076 7.900809
-0.773620 -1.067109 8.000732
-0.763136 -1.054922 8.100657
-0.752959 -1.042481 8.200582
-0.743130 -1.029755 8.300507
-0.733686 -1.016714 8.400427
-0.724667 -1.003325 8.500341
-0.716109 -0.989560 8.600245
-0.708050 -0.975388 8.700133
-0.700529 -0.960780 8.800000
-2.152169 -1.275649 1.558238
-1.517549 -1.164591 0.952349
-0.882929 -1.053533 0.346461
-2.150734 -1.275398 1.556868
-1.518984 -1.164842 0.953719
-1.516114 -1.164340 0.950979
-0.884364 -1.053784 0.347831
-2.135638 -1.272756 1.542455
-1.534080 -1.167484 0.968132
-1.501018 -1.161698 0.936567
-0.899460 -1.056426 0.362243
-2.073825 -1.261939 1.483441
-1.978239 -1.245212 1.392182
-1.882652 -1.228484 1.300923
-1.787066 -1.211756 1.209664
-1.691479 -1.195029 1.118405
-1.595893 -1.178301 1.027146
-1.439205 -1.150881 0.877552
-1.343619 -1.134153 0.786293
-1.248032 -1.117426 0.695034
-1.152445 -1.100698 0.603775
-1.056859 -1.083971 0.512516
-0.961272 -1.067243 0.421257
23 NaN NaN
-2.152528 -1.275712 1.558580
-2.078324 -1.262726 1.487736
-2.004120 -1.249741 1.416891
-1.929916 -1.236755 1.346047
-1.855712 -1.223769 1.275202
-1.781508 -1.210784 1.204358
-1.707304 -1.197798 1.133513
-1.633100 -1.184812 1.062668
-1.558895 -1.171827 0.991824
-1.484691 -1.158841 0.920979
-1.410487 -1.145855 0.850135
-1.336283 -1.132870 0.779290
-1.262079 -1.119884 0.708446
-1.187875 -1.106898 0.637601
-1.113671 -1.093913 0.566757
-1.039467 -1.080927 0.495912
-0.965263 -1.067941 0.425067
-0.891059 -1.054956 0.354223
-0.816855 -1.041970 0.283378
-0.742651 -1.028984 0.212534
-0.668447 -1.015999 0.141689
-0.594243 -1.003013 0.070845
-0.520038 -0.990027 0.000000
-2.152951 -1.275973 1.558528
-3.269002 -1.281385 0.638709
-3.712496 -0.419161 -0.626786
-4.018951 0.730824 -1.696163
-4.326862 1.868319 -2.778882
-4.627739 3.006821 -3.862529
-4.948693 4.141024 -4.944587
-5.336131 5.232444 -6.048554
-5.821393 6.230564 -7.200308
-6.446461 7.071691 -8.407556
-7.230066 7.687983 -9.656430
-8.148903 8.037922 -10.916251
-9.155291 8.132791 -12.154858
-2.154644 -1.277018 1.558321
-3.268249 -1.282260 0.640343
-3.269755 -1.280510 0.637076
-3.712104 -0.420513 -0.625365
-3.712887 -0.417810 -0.628208
-4.018556 0.729417 -1.694798
-4.019346 0.732231 -1.697529
-4.326480 1.866897 -2.777528
-4.327244 1.869741 -2.780236
-4.627371 3.005396 -3.861176
-4.628106 3.008247 -3.863883
-4.948251 4.139624 -4.943228
-4.949135 4.142424 -4.945945
-5.335594 5.231127 -6.047148
-5.336667 5.233761 -6.049961
-5.820704 6.229403 -7.198833
-5.822081 6.231726 -7.201784
-6.445577 7.070772 -8.406015
-6.447345 7.072610 -8.409097
-7.228989 7.687383 -9.654855
-7.231143 7.688582 -9.658005
-8.147687 8.037660 -10.914685
-8.150118 8.038183 -10.917817
-9.153998 8.132806 -12.153332
-2.182999 -1.294526 1.554839
-3.255641 -1.296914 0.667710
-3.281896 -1.265269 0.609820
-3.705546 -0.443154 -0.601552
-3.719326 -0.394722 -0.651615
-4.011937 0.705845 -1.671924
-4.025952 0.755818 -1.720391
-4.320080 1.843079 -2.754848
-4.333643 1.893559 -2.802916
-4.621213 2.981511 -3.838498
-4.634264 3.032132 -3.886560
-4.940850 4.116172 -4.920471
-4.956536 4.165876 -4.968703
-5.326608 5.209064 -6.023587
-5.345653 5.255825 -6.073521
-5.809189 6.209923 -7.174123
-5.833614 6.251186 -7.226502
-6.430846 7.055268 -8.380221
-6.462152 7.088006 -8.434911
-7.211062 7.677118 -9.628475
-7.249181 7.698627 -9.684394
-8.127417 8.032980 -10.888419
-8.170488 8.042565 -10.944058
-9.132341 8.133063 -12.127766
-2.315525 -1.368862 1.530677
-2.530154 -1.451362 1.450765
-2.737532 -1.492284 1.329837
-2.924952 -1.490587 1.174445
-3.078295 -1.444245 0.991197
-3.195175 -1.361651 0.793790
-3.336119 -1.193292 0.484811
-3.415811 -1.073707 0.287369
-3.490030 -0.952411 0.088831
-3.558928 -0.827855 -0.109592
-3.620391 -0.693000 -0.303628
-3.674522 -0.544608 -0.489798
-3.748206 -0.285698 -0.756624
-3.792709 -0.106998 -0.917004
-3.837910 0.072879 -1.075879
-3.884802 0.250340 -1.236964
-3.932877 0.424975 -1.400767
-3.981389 0.597451 -1.566716
-4.056115 0.864587 -1.825323
-4.103397 1.037707 -1.990958
-4.150311 1.211499 -2.155992
-4.197121 1.385586 -2.320746
-4.243883 1.559660 -2.485526
-4.290620 1.733491 -2.650570
-4.363032 2.003092 -2.907271
-4.409464 2.176660 -3.072678
-4.455636 2.350268 -3.238116
-4.501521 2.523957 -3.403548
-4.547189 2.697757 -3.568924
-4.592700 2.871685 -3.734208
-4.662267 3.142030 -3.990912
-4.706246 3.316202 -4.156355
-4.751807 3.490126 -4.321627
-4.801095 3.663474 -4.486431
-4.853520 3.836108 -4.651021
-4.906993 4.008043 -4.816006
-4.990901 4.273447 -5.073577
-5.046527 4.443019 -5.240285
-5.103799 4.611309 -5.407733
-5.162716 4.778168 -5.576042
-5.223360 4.943447 -5.745291
-5.286020 5.106886 -5.915590
-5.387615 5.356714 -6.182202
-5.456080 5.514694 -6.355392
-5.527102 5.670169 -6.529814
-5.600905 5.822858 -6.705536
-5.677518 5.972669 -6.882530
-5.757304 6.119142 -7.060908
-5.887461 6.339801 -7.340512
-5.975617 6.477019 -7.522276
-6.067212 6.610231 -7.705314
-6.162524 6.738961 -7.889656
-6.261410 6.863231 -8.075172
-6.364143 6.982511 -8.261868
-6.531053 7.157697 -8.553848
-6.643427 7.263493 -8.743099
-6.759427 7.363792 -8.933154
-6.879237 7.458014 -9.123953
-7.002533 7.546369 -9.315337
-7.129339 7.628482 -9.507206
-7.332719 7.743682 -9.805809
-7.467727 7.809592 -9.998333
-7.605534 7.869329 -10.190887
-7.746107 7.922571 -10.383348
-7.889162 7.969597 -10.575599
-8.034541 8.010416 -10.767525
-8.264490 8.061764 -11.064663
-8.415044 8.087151 -11.255258
-8.567279 8.106929 -11.445182
-8.721099 8.121091 -11.634329
-8.876358 8.129849 -11.822626
-9.032906 8.133478 -12.010024
193 NaN NaN
-2.152528 -1.275712 1.558580
-2.237581 -1.328226 1.548136
-2.324997 -1.373801 1.528555
-2.413516 -1.412270 1.500490
-2.502033 -1.443592 1.464605
-2.589573 -1.467778 1.421522
-2.675251 -1.484841 1.371793
-2.758215 -1.494756 1.315904
-2.837597 -1.497448 1.254293
-2.912462 -1.492785 1.187378
-2.981771 -1.480592 1.115610
-3.044394 -1.460717 1.039546
-3.099983 -1.433706 0.960265
-3.149341 -1.400818 0.879087
-3.193603 -1.363254 0.796992
-3.234016 -1.322048 0.714651
-3.271855 -1.278069 0.632516
-3.308014 -1.231974 0.550783
-3.342702 -1.184231 0.469359
-3.376083 -1.135297 0.388094
-3.408335 -1.085630 0.306819
-3.439652 -1.035687 0.225346
-3.470197 -0.985819 0.143535
-3.499923 -0.935748 0.061546
-3.528700 -0.884971 -0.020346
-3.556394 -0.832992 -0.101855
-3.582864 -0.779326 -0.182675
-3.607960 -0.723516 -0.262472
-3.631670 -0.665312 -0.340972
-3.654141 -0.604689 -0.417991
-3.675530 -0.541636 -0.493350
-3.695991 -0.476140 -0.566859
-3.715674 -0.408190 -0.638325
-3.734734 -0.337910 -0.707677
-3.753338 -0.265812 -0.775266
-3.771666 -0.192450 -0.841559
-3.789908 -0.118348 -0.907050
-3.808254 -0.044012 -0.972246
-3.826886 0.030080 -1.037638
-3.845854 0.103724 -1.103438
-3.865112 0.176913 -1.169660
-3.884612 0.249642 -1.236316
-3.904304 0.321909 -1.303417
-3.924142 0.393710 -1.370975
-3.944078 0.465068 -1.438971
-3.964064 0.536089 -1.507305
-3.984056 0.606895 -1.575860
-4.004007 0.677608 -1.644521
-4.023874 0.748354 -1.713175
-4.043611 0.819250 -1.781711
-4.063215 0.890334 -1.850090
-4.082708 0.961582 -1.918329
-4.102115 1.032968 -1.986449
-4.121460 1.104466 -2.054469
-4.140767 1.176051 -2.122408
-4.160057 1.247698 -2.190287
-4.179333 1.319385 -2.258127
-4.198600 1.391089 -2.325952
-4.217859 1.462790 -2.393782
-4.237112 1.534466 -2.461641
-4.256363 1.606096 -2.529549
-4.275610 1.677676 -2.597511
-4.294848 1.749215 -2.665518
-4.314073 1.820724 -2.733561
-4.333281 1.892210 -2.801631
-4.352467 1.963685 -2.869721
-4.371628 2.035155 -2.937822
-4.390757 2.106625 -3.005933
-4.409848 2.178099 -3.074050
-4.428897 2.249579 -3.142172
-4.447898 2.321069 -3.210297
-4.466846 2.392573 -3.278423
-4.485744 2.464093 -3.346546
-4.504598 2.535630 -3.414663
-4.523417 2.607185 -3.482770
-4.542208 2.678761 -3.550863
-4.560980 2.750359 -3.618938
-4.579729 2.821980 -3.686996
-4.598425 2.893623 -3.755045
-4.617031 2.965288 -3.823095
-4.635513 3.036974 -3.891158
-4.653834 3.108680 -3.959241
-4.671972 3.180405 -4.027355
-4.690026 3.252133 -4.095487
-4.708180 3.323842 -4.163614
-4.726615 3.395508 -4.231710
-4.745514 3.467106 -4.299750
-4.765059 3.538610 -4.367706
-4.785366 3.609996 -4.435562
-4.806326 3.681260 -4.503349
-4.827784 3.752401 -4.571109
-4.849586 3.823423 -4.638885
-4.871576 3.894327 -4.706722
-4.893607 3.965118 -4.774664
-4.915645 4.035789 -4.842729
-4.937743 4.106325 -4.910915
-4.959956 4.176711 -4.979218
-4.982340 4.246932 -5.047635
-5.004953 4.316973 -5.116162
-5.027836 4.386818 -5.184798
-5.050996 4.456456 -5.253551
-5.074433 4.525877 -5.322430
-5.098148 4.595069 -5.391445
-5.122140 4.664022 -5.460602
-5.146410 4.732723 -5.529913
-5.170967 4.801162 -5.599383
-5.195825 4.869325 -5.669016
-5.221001 4.937197 -5.738818
-5.246508 5.004767 -5.808794
-5.272362 5.072020 -5.878947
-5.298577 5.138943 -5.949282
-5.325165 5.205521 -6.019804
-5.352136 5.271741 -6.090517
-5.379501 5.337589 -6.161427
-5.407272 5.403049 -6.232536
-5.435459 5.468109 -6.303850
-5.464074 5.532752 -6.375372
-5.493128 5.596964 -6.447105
-5.522632 5.660729 -6.519052
-5.552600 5.724031 -6.591216
-5.583041 5.786855 -6.663599
-5.613968 5.849185 -6.736203
-5.645391 5.911005 -6.809030
-5.677320 5.972298 -6.882082
-5.709766 6.033047 -6.955360
-5.742740 6.093236 -7.028864
-5.776251 6.152847 -7.102596
-5.810309 6.211864 -7.176555
-5.844924 6.270269 -7.250741
-5.880104 6.328045 -7.325153
-5.915858 6.385174 -7.399790
-5.952195 6.441638 -7.474652
-5.989123 6.497420 -7.549736
-6.026649 6.552501 -7.625040
-6.064780 6.606865 -7.700561
-6.103522 6.660492 -7.776297
-6.142882 6.713366 -7.852244
-6.182865 6.765468 -7.928399
-6.223477 6.816779 -8.004758
-6.264720 6.867284 -8.081316
-6.306598 6.916964 -8.158068
-6.349114 6.965803 -8.235010
-6.392270 7.013782 -8.312135
-6.436069 7.060885 -8.389439
-6.480510 7.107095 -8.466914
-6.525592 7.152397 -8.544556
-6.571314 7.196775 -8.622356
-6.617675 7.240214 -8.700307
-6.664673 7.282699 -8.778404
-6.712305 7.324214 -8.856638
-6.760565 7.364748 -8.935001
-6.809447 7.404288 -9.013486
-6.858947 7.442822 -9.092084
-6.909056 7.480339 -9.170788
-6.959771 7.516826 -9.249589
-7.011081 7.552274 -9.328478
-7.062976 7.586676 -9.407447
-7.115448 7.620025 -9.486487
-7.168486 7.652314 -9.565590
-7.222079 7.683535 -9.644746
-7.276219 7.713683 -9.723948
-7.330891 7.742755 -9.803185
-7.386085 7.770750 -9.882449
-7.441786 7.797666 -9.961731
-7.497983 7.823502 -10.041023
-7.554664 7.848256 -10.120315
-7.611815 7.871930 -10.199600
-7.669423 7.894528 -10.278869
-7.727475 7.916053 -10.358112
-7.785957 7.936510 -10.437322
-7.844856 7.955901 -10.516490
-7.904160 7.974233 -10.595609
-7.963855 7.991512 -10.674671
-8.023929 8.007747 -10.753667
-8.084369 8.022946 -10.832590
-8.145162 8.037117 -10.911432
-8.206297 8.050268 -10.990188
-8.267761 8.062410 -11.068849
-8.329543 8.073552 -11.147409
-8.391632 8.083707 -11.225860
-8.454017 8.092884 -11.304198
-8.516686 8.101096 -11.382415
-8.579630 8.108353 -11.460506
-8.642839 8.114668 -11.538465
-8.706302 8.120053 -11.616287
-8.770011 8.124521 -11.693967
-8.833956 8.128084 -11.771498
-8.898129 8.130755 -11.848877
-8.962521 8.132546 -11.926100
-9.027123 8.133471 -12.003162
-9.091927 8.133542 -12.080060
-9.156927 8.132771 -12.156789
-9.222112 8.131171 -12.233347
-1.153420 -1.507967 4.381404
-0.988063 -1.263915 4.509480
-0.853597 -1.001734 4.637598
-0.764724 -0.719910 4.763100
-0.741969 -0.422260 4.880049
-0.803804 -0.123968 4.978679
-0.949500 0.152108 5.050553
-1.157707 0.392052 5.095121
-1.152340 -1.506483 4.382199
-0.989035 -1.265470 4.508682
-0.987090 -1.262360 4.510279
-0.854345 -1.003410 4.636803
-0.852849 -1.000058 4.638392
-0.765137 -0.721710 4.762333
-0.764311 -0.718110 4.763868
-0.741903 -0.424136 4.879358
-0.742035 -0.420384 4.880740
-0.803173 -0.125785 4.978134
-0.804435 -0.122150 4.979224
-0.948383 0.150490 5.050189
-0.950617 0.153726 5.050916
-1.156270 0.390675 5.094919
-1.145451 -1.497023 4.387269
-0.995235 -1.275384 4.503593
-0.981137 -1.252298 4.515369
-0.859116 -1.014098 4.631737
-0.848078 -0.989371 4.643459
-0.767769 -0.733189 4.757438
-0.761679 -0.706631 4.768763
-0.741482 -0.436096 4.874951
-0.742455 -0.408424 4.885146
-0.799149 -0.137377 4.974657
-0.808460 -0.110558 4.982701
-0.941258 0.140169 5.047871
-0.957743 0.164047 5.053235
-1.147108 0.381898 5.093627
-1.127241 -1.472016 4.400670
-1.102977 -1.438697 4.418526
-1.079451 -1.404875 4.436409
-1.056326 -1.370779 4.454308
-1.033463 -1.336514 4.472212
-1.011625 -1.301593 4.490139
-0.965844 -1.225437 4.528828
-0.945468 -1.189647 4.546761
-0.925886 -1.153423 4.564682
-0.907176 -1.116723 4.582591
-0.888531 -1.079991 4.600498
-0.871727 -1.042349 4.618343
-0.837101 -0.960404 4.656763
-0.822481 -0.921807 4.674488
-0.808626 -0.882921 4.692154
-0.796506 -0.843381 4.709686
-0.784385 -0.803840 4.727218
-0.774726 -0.763532 4.744498
-0.756588 -0.675838 4.781462
-0.750543 -0.634630 4.798288
-0.744988 -0.593342 4.815037
-0.742539 -0.551541 4.831297
-0.740091 -0.509740 4.847557
-0.740370 -0.467713 4.863303
-0.745279 -0.376816 4.896415
-0.750936 -0.334713 4.911010
-0.756594 -0.292610 4.925605
-0.766399 -0.250922 4.939134
-0.776343 -0.209247 4.952628
-0.788511 -0.168019 4.965465
-0.820068 -0.080214 4.991568
-0.838254 -0.040615 5.002472
-0.856441 -0.001016 5.013376
-0.877559 0.037361 5.023177
-0.899411 0.075433 5.032703
-0.922423 0.112889 5.041742
-0.976783 0.191194 5.059268
-1.004679 0.225725 5.066136
-1.032575 0.260255 5.073003
-1.061970 0.293631 5.079107
-1.092242 0.326331 5.084765
-1.122890 0.358694 5.090213
24 NaN NaN
-1.153690 -1.508338 4.381205
-1.094417 -1.426941 4.424826
-1.037924 -1.343646 4.468551
-0.984576 -1.258339 4.512343
-0.934800 -1.170908 4.556150
-0.889096 -1.081256 4.599898
-0.848049 -0.989306 4.643490
-0.812336 -0.895024 4.686788
-0.782730 -0.798442 4.729611
-0.760088 -0.699693 4.771722
-0.745322 -0.599048 4.812817
-0.739342 -0.496959 4.852529
-0.742960 -0.394079 4.890431
-0.756775 -0.291261 4.926073
-0.781056 -0.189492 4.959024
-0.815669 -0.089792 4.988930
-0.860082 0.006911 5.015559
-0.913448 0.099890 5.038822
-0.974739 0.188665 5.058765
-1.042873 0.273003 5.075539
-1.116815 0.352874 5.089357
-1.195635 0.428391 5.100467
-1.278528 0.499757 5.109123
-1.364820 0.567227 5.115568
-1.651501 -1.392780 2.969627
-1.391495 -1.225418 2.899678
-1.142026 -1.041208 2.834078
-0.910692 -0.832790 2.775659
-0.716078 -0.587623 2.730992
-0.609786 -0.292587 2.716931
-0.677660 0.009195 2.757350
-0.877453 0.240621 2.834192
-1.127599 0.413170 2.922884
-1.649844 -1.391754 2.969179
-1.393115 -1.226508 2.900110
-1.389875 -1.224327 2.899245
-1.143560 -1.042429 2.834476
-1.140493 -1.039988 2.833681
-0.912062 -0.834208 2.775994
-0.909322 -0.831372 2.775325
-0.717063 -0.589353 2.731187
-0.715093 -0.585894 2.730797
-0.609775 -0.294583 2.716800
-0.609797 -0.290591 2.717063
-0.676822 0.007418 2.756976
-0.678497 0.010973 2.757724
-0.876003 0.239350 2.833661
-0.878903 0.241892 2.834724
-1.125940 0.412214 2.922308
-1.639407 -1.385291 2.966355
-1.403317 -1.233378 2.902835
-1.379673 -1.217458 2.896520
-1.153220 -1.050117 2.836980
-1.130833 -1.032300 2.831176
-0.920692 -0.843140 2.778099
-0.900692 -0.822440 2.773220
-0.723268 -0.600247 2.732414
-0.708887 -0.575000 2.729570
-0.611173 -0.307020 2.716436
-0.609867 -0.278022 2.717891
-0.671548 -0.003777 2.754621
-0.684004 0.022017 2.760141
-0.866872 0.231343 2.830314
-0.888034 0.249899 2.838071
-1.115488 0.406191 2.918678
-1.611869 -1.368237 2.958903
-1.575182 -1.345518 2.948975
-1.538703 -1.322432 2.939136
-1.502398 -1.299038 2.929371
-1.466094 -1.275645 2.919605
-1.430234 -1.251501 2.910026
-1.353077 -1.198819 2.889462
-1.317741 -1.173831 2.880099
-1.282447 -1.148782 2.870753
-1.247736 -1.122842 2.861646
-1.213025 -1.096903 2.852538
-1.178706 -1.070401 2.843588
-1.105470 -1.011850 2.824617
-1.072449 -0.983581 2.816183
-1.039428 -0.955313 2.807750
-1.007095 -0.926198 2.799584
-0.975248 -0.896486 2.791607
-0.943462 -0.866707 2.783653
-0.877923 -0.798873 2.767666
-0.848898 -0.766185 2.760755
-0.820565 -0.732814 2.754104
-0.792525 -0.699194 2.747559
-0.766915 -0.663519 2.741900
-0.741304 -0.627844 2.736240
-0.692515 -0.546257 2.726333
-0.671657 -0.507477 2.722348
-0.655212 -0.466439 2.719877
-0.638768 -0.425401 2.717406
-0.627010 -0.382901 2.716484
-0.617964 -0.339556 2.716456
-0.610051 -0.244857 2.720075
-0.610297 -0.200674 2.722985
-0.617525 -0.157532 2.727995
-0.627591 -0.114813 2.733859
-0.639096 -0.072666 2.740132
-0.657634 -0.033315 2.748409
-0.702627 0.048512 2.767619
-0.727437 0.083808 2.777582
-0.753301 0.118169 2.787812
-0.782438 0.149623 2.798871
-0.811576 0.181076 2.809931
-0.842780 0.210219 2.821483
-0.912772 0.270160 2.847047
-0.946932 0.295541 2.859275
-0.981091 0.320923 2.871504
-1.016387 0.344546 2.883972
-1.052029 0.367634 2.896513
-1.087912 0.390300 2.909101
24 NaN NaN
-1.651915 -1.393037 2.969739
-1.558485 -1.335179 2.944457
-1.466029 -1.275603 2.919588
-1.374706 -1.214114 2.895193
-1.284719 -1.150479 2.871349
-1.196322 -1.084422 2.848156
-1.109855 -1.015604 2.825737
-1.025765 -0.943616 2.804260
-0.944668 -0.867955 2.783947
-0.867426 -0.788009 2.765105
-0.795287 -0.703041 2.748169
-0.730088 -0.612220 2.733762
-0.674576 -0.514762 2.722787
-0.632742 -0.410365 2.716501
-0.609744 -0.300170 2.716432
-0.610368 -0.187906 2.723826
-0.635946 -0.079351 2.738726
-0.683083 0.020706 2.759771
-0.746206 0.110510 2.785119
-0.820370 0.190569 2.813268
-0.902084 0.262219 2.843221
-0.989062 0.326845 2.874357
-1.079819 0.385636 2.906291
-1.173372 0.439547 2.938780
-1.517140 -1.164394 0.952559
-1.342465 -1.077785 1.043616
-1.173747 -0.982491 1.137167
-1.013403 -0.876295 1.233599
-0.865469 -0.756104 1.333257
-0.737036 -0.617804 1.436117
-0.640709 -0.457052 1.540707
-0.595773 -0.273754 1.641620
-0.618128 -0.079866 1.728608
-0.702383 0.105784 1.794134
-0.828410 0.273622 1.839280
-0.979262 0.423867 1.868942
-1.515505 -1.163608 0.953400
-1.344076 -1.078609 1.042764
-1.340854 -1.076961 1.044468
-1.175297 -0.983403 1.136290
-1.172198 -0.981580 1.138044
-1.014864 -0.877318 1.232693
-1.011943 -0.875271 1.234504
-0.866794 -0.757272 1.332320
-0.864143 -0.754936 1.334194
-0.738143 -0.619161 1.435151
-0.735929 -0.616447 1.437083
-0.641448 -0.458636 1.539736
-0.639969 -0.455468 1.541679
-0.595939 -0.275532 1.640718
-0.595608 -0.271977 1.642522
-0.617630 -0.081662 1.727884
-0.618627 -0.078069 1.729332
-0.701376 0.104132 1.793624
-0.703389 0.107435 1.794644
-0.827099 0.272150 1.838942
-0.829721 0.275094 1.839618
-0.977774 0.422549 1.868729
-1.508120 -1.160054 0.957198
-1.351352 -1.082329 1.038917
-1.333659 -1.073123 1.048349
-1.182293 -0.987520 1.132331
-1.165202 -0.977463 1.142003
-1.021460 -0.881939 1.228605
-1.005346 -0.870651 1.238592
-0.872781 -0.762548 1.328089
-0.858156 -0.749660 1.338425
-0.743143 -0.625288 1.430789
-0.730928 -0.610320 1.441445
-0.644789 -0.465789 1.535349
-0.636628 -0.448315 1.546065
-0.596688 -0.283558 1.636643
-0.594859 -0.263951 1.646596
-0.615378 -0.089776 1.724616
-0.620878 -0.069956 1.732600
-0.696830 0.096675 1.791320
-0.707935 0.114892 1.796948
-0.821176 0.265503 1.837418
-0.835644 0.281740 1.841142
-0.971051 0.416594 1.867763
-1.489830 -1.151254 0.966603
-1.465565 -1.139578 0.979081
-1.441300 -1.127903 0.991559
-1.417185 -1.115997 1.004105
-1.393278 -1.103771 1.016746
-1.369372 -1.091545 1.029388
-1.315955 -1.063444 1.058011
-1.292468 -1.050604 1.070829
-1.268981 -1.037765 1.083647
-1.245604 -1.024773 1.096507
-1.222614 -1.011245 1.109516
-1.199623 -0.997717 1.122525
-1.148316 -0.966685 1.151962
-1.125920 -0.952381 1.165177
-1.103524 -0.938078 1.178391
-1.081146 -0.923753 1.191611
-1.059472 -0.908568 1.205045
-1.037798 -0.893384 1.218479
-0.989499 -0.858652 1.248846
-0.968714 -0.842464 1.262512
-0.947929 -0.826276 1.276177
-0.927145 -0.810089 1.289843
-0.907281 -0.792951 1.303705
-0.887609 -0.775615 1.317608
-0.843831 -0.736127 1.348987
-0.825574 -0.717480 1.363121
-0.807318 -0.698832 1.377256
-0.789062 -0.680185 1.391390
-0.771959 -0.660599 1.405651
-0.755528 -0.640465 1.419984
-0.718922 -0.594881 1.452269
-0.704866 -0.573102 1.466723
-0.690810 -0.551324 1.481177
-0.676754 -0.529545 1.495631
-0.664043 -0.507012 1.510068
-0.653065 -0.483507 1.524483
-0.628352 -0.430597 1.556931
-0.621132 -0.405517 1.571041
-0.614042 -0.380383 1.585141
-0.606951 -0.355249 1.599241
-0.601001 -0.329810 1.613165
-0.598542 -0.303437 1.626553
-0.593005 -0.244071 1.656687
-0.594448 -0.217274 1.669175
-0.597006 -0.190355 1.681407
-0.599564 -0.163435 1.693639
-0.602404 -0.136531 1.705783
-0.609802 -0.109871 1.716522
-0.626455 -0.049860 1.740694
-0.636320 -0.023732 1.750479
-0.647906 0.002024 1.759600
-0.659491 0.027781 1.768720
-0.671076 0.053537 1.777840
-0.685572 0.078205 1.785614
-0.719193 0.133362 1.802654
-0.735153 0.157327 1.809675
-0.752662 0.180476 1.815866
-0.770172 0.203625 1.822057
-0.787682 0.226774 1.828248
-0.806508 0.249040 1.833642
-0.850313 0.298203 1.844918
-0.870074 0.319800 1.849726
-0.891018 0.340440 1.853738
-0.911963 0.361081 1.857751
-0.932908 0.381721 1.861763
-0.954401 0.401846 1.865373
23 NaN NaN
-1.517549 -1.164591 0.952349
-1.427184 -1.121111 0.998818
-1.338155 -1.075580 1.045895
-1.250689 -1.027764 1.093631
-1.165072 -0.977387 1.142076
-1.081670 -0.924120 1.191286
-1.000958 -0.867576 1.241312
-0.923560 -0.807297 1.292200
-0.850310 -0.742746 1.343970
-0.782336 -0.673315 1.396598
-0.721165 -0.598357 1.449962
-0.668843 -0.517289 1.503765
-0.627987 -0.429815 1.557411
-0.601607 -0.336305 1.609869
-0.592458 -0.238208 1.659663
-0.601972 -0.138086 1.705157
-0.629493 -0.038912 1.745104
-0.672601 0.056927 1.779041
-0.728193 0.148126 1.807215
-0.793376 0.234303 1.830261
-0.865830 0.315618 1.848913
-0.943818 0.392472 1.863853
-1.026071 0.465328 1.875664
-0.882609 -1.053154 0.346398
-0.752693 -0.892942 0.322149
-0.637364 -0.720995 0.306812
-0.544419 -0.535582 0.304204
-0.486357 -0.337470 0.319708
-0.478417 -0.134760 0.358394
-0.527656 0.056118 0.419971
-0.624602 0.221824 0.497460
-0.752871 0.360471 0.583205
-0.881329 -1.051637 0.346146
-0.753912 -0.894513 0.322363
-0.751473 -0.891370 0.321936
-0.638417 -0.722692 0.306926
-0.636312 -0.719298 0.306699
-0.545206 -0.537420 0.304171
-0.543632 -0.533743 0.304238
-0.486723 -0.339422 0.319464
-0.485991 -0.335519 0.319952
-0.478208 -0.136687 0.357900
-0.478627 -0.132834 0.358888
-0.526889 0.054407 0.419274
-0.528423 0.057829 0.420667
-0.623453 0.220399 0.496654
-0.625750 0.223249 0.498266
-0.751497 0.359295 0.582351
-0.875719 -1.044986 0.345043
-0.759258 -0.901402 0.323299
-0.746127 -0.884481 0.321000
-0.643032 -0.730134 0.307423
-0.631696 -0.711857 0.306202
-0.548658 -0.545482 0.304023
-0.540180 -0.525682 0.304386
-0.488327 -0.347978 0.318394
-0.484387 -0.326963 0.321023
-0.477288 -0.145136 0.355733
-0.479546 -0.124385 0.361055
-0.523526 0.046904 0.416221
-0.531786 0.065332 0.423720
-0.618415 0.214150 0.493119
-0.630788 0.229499 0.501801
-0.745473 0.354137 0.578605
-0.861918 -1.028625 0.342330
-0.843618 -1.006930 0.338733
-0.825318 -0.985236 0.335136
-0.807287 -0.963298 0.331708
-0.789848 -0.940824 0.328655
-0.772409 -0.918351 0.325601
-0.733759 -0.866897 0.319177
-0.717381 -0.843563 0.316773
-0.701002 -0.820230 0.314368
-0.684624 -0.796896 0.311964
-0.669441 -0.772713 0.310267
-0.654386 -0.748439 0.308646
-0.620894 -0.693220 0.305292
-0.607509 -0.667943 0.304620
-0.594125 -0.642667 0.303949
-0.580741 -0.617390 0.303277
-0.568409 -0.591608 0.303177
-0.557149 -0.565312 0.303659
-0.531688 -0.505851 0.304750
-0.522911 -0.478691 0.306513
-0.514343 -0.451459 0.308384
-0.505774 -0.424227 0.310254
-0.497504 -0.396935 0.312270
-0.492273 -0.369026 0.315761
-0.480442 -0.305915 0.323655
-0.477251 -0.277913 0.328071
-0.475958 -0.249824 0.333346
-0.474665 -0.221735 0.338621
-0.473372 -0.193646 0.343897
-0.475027 -0.165920 0.350403
-0.481808 -0.103600 0.366386
-0.485300 -0.076189 0.373641
-0.492521 -0.049901 0.382317
-0.499742 -0.023612 0.390993
-0.506963 0.002676 0.399668
-0.515254 0.028447 0.408710
-0.540058 0.083789 0.431232
-0.551028 0.108262 0.441191
-0.564190 0.131271 0.451818
-0.578229 0.153692 0.462712
-0.592268 0.176114 0.473605
-0.606307 0.198535 0.484499
-0.643180 0.244871 0.510497
-0.659613 0.265255 0.522027
-0.676609 0.285059 0.533687
-0.694868 0.303561 0.545636
-0.713127 0.322063 0.557584
-0.731386 0.340565 0.569533
18 NaN NaN
-0.882929 -1.053533 0.346461
-0.812741 -0.970326 0.332663
-0.745859 -0.884135 0.320953
-0.683045 -0.794648 0.311733
-0.625311 -0.701562 0.305514
-0.573989 -0.604638 0.302938
-0.530818 -0.503819 0.304787
-0.497973 -0.399432 0.311958
-0.477922 -0.292472 0.325337
-0.472967 -0.184847 0.345549
-0.484456 -0.079260 0.372628
-0.512124 0.021465 0.405869
-0.554163 0.115257 0.444038
-0.607978 0.201204 0.485796
-0.670980 0.279356 0.530004
-0.740995 0.350302 0.575821
-0.816350 0.414828 0.622670
-0.895805 0.473730 0.670165
