0.259785 0.259690 0.258324 0.251740 0.241310 0.232769 0.224229 0.215688 0.209736 0.205980 0.205269 0.205219 0.205171 0.204473 0.201634 0.197135 0.193588 0.190041 0.186494 0.183566 0.181719 0.181338 0.181312 0.181286 0.180909 0.179286 0.176714 0.174470 0.172226 0.169982 0.167983 0.166722 0.166452 0.166433 0.166415 0.166149 0.164966 0.163091 0.161340 0.159589 0.157837 0.156197 0.155162 0.154940 0.154924 0.154909 0.154688 0.153719 0.152184 0.150785 0.149386 0.147987 0.146715 0.145912 0.145743 0.145731 0.145719 0.145551 0.144811 0.143638 0.142573 0.141507 0.140442 0.139472 0.138860 0.138730 0.138721 
0.259824 0.259882 0.260460 0.261775 0.263654 0.263208 0.262761 0.262315 0.260087 0.258528 0.257891 0.257826 0.257758 0.257088 0.254884 0.251733 0.248476 0.245220 0.241963 0.238840 0.236655 0.235982 0.235914 0.235849 0.235200 0.233174 0.230278 0.227769 0.225260 0.222751 0.220585 0.219069 0.218638 0.218595 0.218552 0.218128 0.216804 0.214913 0.213257 0.211601 0.209945 0.208500 0.207489 0.207195 0.207165 0.207136 0.206847 0.205953 0.204675 0.203552 0.202428 0.201304 0.200324 0.199638 0.199434 0.199413 0.199394 0.199201 0.198597 0.197735 0.196993 0.196252 0.195510 0.194846 0.194382 0.194247 0.194234 0.194220 0.194084 0.193651 0.193031 0.192439 0.191846 0.191253 0.190666 0.190256 0.190127 0.190114 0.190101 0.189971 0.189534 0.188909 0.188271 0.187633 0.186995 0.186325 0.185857 0.185708 0.185693 0.185678 0.185530 0.185034 0.184326 0.183605 0.182885 0.182164 0.181435 0.180925 0.180768 0.180752 0.180736 0.180580 0.180067 0.179336 0.178611 0.177887 0.177162 0.176447 0.175947 0.175794 0.175778 0.175763 0.175610 0.175117 0.174412 0.173724 0.173037 0.172349 0.171678 0.171208 0.171064 0.171050 0.171035 0.170892 0.170433 0.169776 0.169137 0.168497 0.167858 0.167233 0.166797 0.166663 0.166650 0.166636 0.166504 0.166077 0.165466 0.164869 0.164273 0.163676 0.163093 0.162685 0.162560 0.162547 0.162535 0.162410 0.162010 0.161439 0.160881 0.160324 0.159767 0.159222 0.158841 0.158725 0.158713 0.158702 0.158586 0.158214 0.157683 0.157164 0.156646 0.156127 0.155623 0.155270 0.155163 0.155152 0.155141 0.155034 0.154688 0.154195 0.153715 0.153235 0.152755 0.152287 0.151959 0.151859 0.151848 0.151838 0.151738 0.151419 0.150963 0.150518 0.150073 0.149627 0.149192 0.148888 0.148795 0.148786 0.148776 0.148684 0.148386 0.147960 0.147543 0.147126 0.146710 0.146303 0.146018 0.145931 0.145922 
0.259842 0.259967 0.261852 0.266267 0.273263 0.275067 0.276871 0.278675 0.272919 0.269286 0.268158 0.268083 0.268000 0.266757 0.260506 0.250602 0.242072 0.233543 0.225014 0.218199 0.213898 0.213065 0.213010 0.212956 0.212140 0.208994 0.204009 0.200518 0.197027 0.193537 0.190739 0.188973 0.188589 0.188564 0.188538 0.188149 0.186051 0.182727 0.175966 0.169206 0.162445 0.154097 0.148829 0.147735 0.147662 0.147591 0.146518 0.142198 0.135354 0.132108 0.128863 0.125617 0.124382 0.123602 0.123465 0.123456 0.123447 0.123312 0.122792 0.121968 0.121407 0.120847 0.120286 0.119871 0.119609 0.119557 0.119554 0.119550 0.119499 0.119282 0.118939 0.118654 0.118369 0.118084 0.117848 0.117699 0.117669 0.117667 0.117665 0.117635 0.117510 0.117311 0.117153 0.116994 0.116836 0.116709 0.116629 0.116613 0.116611 0.116610 0.116594 0.116527 0.116421 0.116332 0.116243 0.116154 0.116080 0.116033 0.116023 0.116022 0.116022 0.116012 0.115971 0.115906 0.115851 0.115796 0.115740 0.115693 0.115663 0.115657 0.115657 0.115656 0.115650 0.115624 0.115582 0.115546 0.115509 0.115472 0.115440 0.115420 0.115416 0.115415 
0.145731 0.145729 0.145722 0.145699 0.145669 0.145621 0.145572 0.145524 0.145456 0.145405 0.145383 0.145379 0.145375 0.145353 0.145288 0.145203 0.145103 0.145003 0.144903 0.144789 0.144704 0.144670 0.144664 0.144658 0.144621 0.144524 0.144396 0.144279 0.144162 0.144045 0.143945 0.143870 0.143841 0.143836 0.143831 0.143802 0.143730 0.143635 0.143545 0.143455 0.143365 0.143276 0.143209 0.143183 0.143178 0.143174 0.143148 0.143081 0.142991 0.142900 0.142809 0.142718 0.142627 0.142559 0.142533 0.142528 0.142523 0.142497 0.142428 0.142337 0.142247 0.142158 0.142068 0.141980 0.141914 0.141889 0.141884 
0.166427 0.166402 0.166323 0.166144 0.165910 0.165678 0.165446 0.165214 0.164984 0.164809 0.164732 0.164708 0.164684 0.164607 0.164434 0.164207 0.163982 0.163757 0.163532 0.163311 0.163143 0.163069 0.163046 0.163023 0.162949 0.162783 0.162564 0.162347 0.162129 0.161912 0.161698 0.161535 0.161462 0.161440 0.161418 0.161346 0.161185 0.160972 0.160763 0.160553 0.160343 0.160138 0.159981 0.159912 0.159891 0.159870 0.159801 0.159647 0.159444 0.159244 0.159045 0.158845 0.158648 0.158499 0.158433 0.158412 0.158392 0.158326 0.158179 0.157986 0.157796 0.157607 0.157417 0.157229 0.157087 0.157025 0.157006 0.156987 0.156925 0.156787 0.156605 0.156425 0.156245 0.156065 0.155891 0.155759 0.155701 0.155682 0.155664 0.155606 0.155476 0.155305 0.155140 0.154974 0.154809 0.154647 0.154524 0.154470 0.154453 0.154437 0.154383 0.154264 0.154109 0.153980 0.153851 0.153722 0.153601 0.153509 0.153472 0.153460 0.153448 0.153411 0.153327 0.153217 0.153109 0.153002 0.152895 0.152797 0.152723 0.152690 0.152680 0.152670 0.152638 0.152565 0.152469 0.152381 0.152293 0.152205 0.152119 0.152055 0.152026 0.152017 0.152008 0.151979 0.151919 0.151840 0.151764 0.151688 0.151612 0.151537 0.151479 0.151456 0.151449 0.151442 0.151418 0.151366 0.151296 0.151228 0.151159 0.151091 0.151028 0.150981 0.150960 0.150953 0.150947 0.150926 0.150877 0.150814 0.150756 0.150698 0.150640 0.150582 0.150538 0.150519 0.150513 0.150507 0.150487 0.150446 0.150392 0.150340 0.150288 0.150236 0.150185 0.150147 0.150131 0.150126 0.150121 0.150105 0.150069 0.150022 0.149976 0.149929 0.149883 0.149839 0.149807 0.149792 0.149787 0.149783 0.149768 0.149735 0.149691 0.149650 0.149610 0.149569 0.149529 0.149498 0.149484 0.149480 
0.181303 0.181270 0.181096 0.180654 0.180066 0.179487 0.178909 0.178330 0.177770 0.177348 0.177184 0.177153 0.177121 0.176958 0.176542 0.175989 0.175450 0.174911 0.174372 0.173845 0.173448 0.173294 0.173265 0.173235 0.173082 0.172695 0.172181 0.171678 0.171176 0.170674 0.170189 0.169823 0.169683 0.169656 0.169629 0.169491 0.169142 0.168679 0.168241 0.167804 0.167366 0.166958 0.166650 0.166534 0.166511 0.166489 0.166374 0.166095 0.165726 0.165430 0.165134 0.164838 0.164582 0.164389 0.164316 0.164302 0.164287 0.164214 0.164050 0.163832 0.163639 0.163446 0.163253 0.163079 0.162949 0.162905 0.162897 0.162889 0.162845 0.162733 0.162584 0.162453 0.162322 0.162191 0.162076 0.161990 0.161958 0.161951 0.161945 0.161912 0.161834 0.161731 0.161641 0.161550 0.161460 0.161381 0.161322 0.161298 0.161294 0.161289 0.161266 0.161216 0.161149 0.161090 0.161030 0.160971 0.160918 0.160878 0.160864 0.160861 
0.205203 0.205139 0.204899 0.204340 0.203600 0.202874 0.202148 0.201422 0.200706 0.200165 0.199937 0.199876 0.199814 0.199588 0.199059 0.198361 0.197692 0.197022 0.196353 0.195719 0.195239 0.195036 0.194982 0.194927 0.194726 0.194265 0.193656 0.193082 0.192508 0.191934 0.191414 0.191021 0.190864 0.190822 0.190780 0.190625 0.190273 0.189807 0.189360 0.188913 0.188467 0.188035 0.187708 0.187559 0.187519 0.187480 0.187335 0.186997 0.186550 0.186108 0.185667 0.185225 0.184777 0.184438 0.184292 0.184253 0.184214 0.184068 0.183721 0.183262 0.182805 0.182348 0.181890 0.181441 0.181101 0.180959 0.180920 0.180882 0.180740 0.180409 0.179972 0.179547 0.179122 0.178696 0.178283 0.177970 0.177838 0.177803 0.177768 0.177639 0.177339 0.176943 0.176562 0.176180 0.175799 0.175441 0.175170 0.175056 0.175026 0.174995 0.174883 0.174623 0.174279 0.173975 0.173672 0.173368 0.173084 0.172869 0.172788 0.172766 0.172744 0.172664 0.172479 0.172233 0.172013 0.171792 0.171572 0.171381 0.171236 0.171176 0.171160 0.171143 0.171083 0.170956 0.170788 0.170642 0.170496 0.170349 0.170222 0.170126 0.170091 0.170081 0.170071 0.170036 0.169950 0.169838 0.169739 0.169639 0.169540 0.169447 0.169376 0.169346 0.169338 0.169330 0.169299 0.169242 0.169167 0.169093 0.169020 0.168947 0.168887 0.168842 0.168824 0.168818 0.168813 0.168794 0.168749 0.168688 0.168637 0.168585 0.168534 0.168483 0.168444 0.168427 0.168422 0.168419 0.168405 0.168373 0.168332 0.168290 0.168249 0.168207 0.168173 0.168146 0.168135 0.168132 0.168128 0.168117 0.168090 0.168053 0.168023 0.167992 0.167961 0.167929 0.167906 0.167897 0.167895 0.167893 0.167884 0.167864 0.167836 0.167809 0.167782 0.167755 0.167730 0.167712 0.167704 0.167702 
0.257770 0.257547 0.255393 0.249547 0.241514 0.234658 0.227802 0.220946 0.215053 0.210765 0.210015 0.209937 0.209868 0.209197 0.207337 0.204780 0.202502 0.200224 0.197946 0.195895 0.194403 0.193912 0.193861 0.193811 0.193323 0.191923 0.189999 0.188134 0.186269 0.184404 0.182642 0.181360 0.180957 0.180915 0.180874 0.180478 0.179394 0.177905 0.176811 0.175717 0.174623 0.173947 0.173455 0.173340 0.173328 0.173316 0.173201 0.172909 0.172507 0.172249 0.171992 0.171734 0.171556 0.171426 0.171392 0.171389 0.171385 0.171351 0.171253 0.171118 0.171012 0.170906 0.170800 0.170711 0.170647 0.170627 0.170625 
0.235870 0.235692 0.234571 0.231768 0.228033 0.224753 0.221473 0.218193 0.215432 0.213360 0.212675 0.212567 0.212461 0.211794 0.210178 0.208026 0.206326 0.204626 0.202927 0.201657 0.200704 0.200355 0.200300 0.200245 0.199901 0.199019 0.197843 0.196715 0.195586 0.194458 0.193365 0.192544 0.192240 0.192192 0.192145 0.191844 0.191063 0.190024 0.188925 0.187826 0.186727 0.185676 0.184887 0.184597 0.184551 0.184505 0.184216 0.183485 0.182511 0.181624 0.180738 0.179852 0.179068 0.178480 0.178269 0.178235 0.178203 0.177995 0.177503 0.176849 0.176321 0.175793 0.175265 0.174863 0.174560 0.174456 0.174439 0.174423 0.174319 0.174090 0.173785 0.173540 0.173295 0.173049 0.172854 0.172708 0.172656 0.172648 0.172640 0.172588 0.172468 0.172307 0.172171 0.172036 0.171900 0.171790 0.171708 0.171679 0.171674 0.171669 0.171640 0.171570 0.171478 0.171399 0.171320 0.171242 0.171172 0.171120 0.171102 0.171099 
0.218564 0.218442 0.217981 0.216925 0.215529 0.214257 0.212985 0.211712 0.210546 0.209664 0.209310 0.209216 0.209124 0.208777 0.207985 0.206938 0.205977 0.205016 0.204055 0.203178 0.202515 0.202244 0.202172 0.202102 0.201835 0.201229 0.200428 0.199698 0.198968 0.198238 0.197591 0.197101 0.196904 0.196851 0.196800 0.196606 0.196161 0.195573 0.195019 0.194466 0.193913 0.193342 0.192911 0.192737 0.192691 0.192645 0.192471 0.192056 0.191508 0.190951 0.190394 0.189838 0.189281 0.188859 0.188681 0.188634 0.188587 0.188410 0.187993 0.187441 0.186899 0.186357 0.185814 0.185290 0.184893 0.184726 0.184681 0.184637 0.184471 0.184084 0.183572 0.183081 0.182589 0.182098 0.181628 0.181273 0.181128 0.181090 0.181052 0.180908 0.180574 0.180133 0.179718 0.179303 0.178887 0.178496 0.178200 0.178077 0.178044 0.178012 0.177889 0.177627 0.177280 0.176956 0.176633 0.176309 0.176045 0.175844 0.175763 0.175742 0.175720 0.175640 0.175454 0.175208 0.175018 0.174828 0.174639 0.174464 0.174331 0.174283 0.174270 0.174260 0.174221 0.174129 0.174008 0.173897 0.173786 0.173675 0.173594 0.173532 0.173506 0.173499 0.173492 0.173465 0.173408 0.173333 0.173277 0.173221 0.173164 0.173114 0.173076 0.173064 0.173061 0.173058 0.173046 0.173015 0.172974 0.172942 0.172909 0.172876 0.172849 0.172828 0.172819 0.172816 0.172814 0.172804 0.172791 0.172773 0.172753 0.172733 0.172713 0.172702 0.172693 0.172689 0.172688 0.172687 0.172682 0.172672 0.172659 0.172651 0.172644 0.172637 0.172627 0.172620 0.172618 0.172618 0.172618 0.172617 0.172615 0.172611 0.172608 0.172604 0.172600 0.172600 0.172599 0.172599 0.172599 
0.199396 0.199328 0.198912 0.197873 0.196489 0.195261 0.194034 0.192807 0.191715 0.190895 0.190600 0.190551 0.190504 0.190212 0.189489 0.188527 0.187657 0.186787 0.185917 0.185112 0.184508 0.184283 0.184246 0.184209 0.183985 0.183416 0.182657 0.181946 0.181235 0.180524 0.179870 0.179378 0.179199 0.179170 0.179140 0.178962 0.178524 0.177940 0.177409 0.176877 0.176345 0.175894 0.175554 0.175438 0.175419 0.175401 0.175286 0.175011 0.174646 0.174355 0.174064 0.173773 0.173541 0.173367 0.173313 0.173304 0.173295 0.173241 0.173106 0.172926 0.172788 0.172650 0.172512 0.172395 0.172307 0.172283 0.172279 0.172276 0.172252 0.172187 0.172101 0.172043 0.171984 0.171925 0.171882 0.171849 0.171836 0.171834 0.171833 0.171826 0.171808 0.171783 0.171769 0.171756 0.171742 0.171741 0.171741 0.171740 0.171740 
0.190103 0.190058 0.189895 0.189513 0.189009 0.188514 0.188018 0.187522 0.187037 0.186670 0.186519 0.186478 0.186437 0.186288 0.185946 0.185493 0.185063 0.184632 0.184202 0.183785 0.183469 0.183337 0.183301 0.183266 0.183134 0.182831 0.182430 0.182041 0.181653 0.181265 0.180891 0.180608 0.180490 0.180457 0.180425 0.180307 0.180039 0.179685 0.179342 0.178999 0.178657 0.178325 0.178075 0.177970 0.177941 0.177913 0.177808 0.177565 0.177244 0.176935 0.176627 0.176318 0.176020 0.175795 0.175700 0.175675 0.175649 0.175555 0.175342 0.175061 0.174782 0.174503 0.174224 0.173962 0.173765 0.173681 0.173658 0.173636 0.173553 0.173360 0.173106 0.172871 0.172637 0.172402 0.172175 0.172002 0.171932 0.171913 0.171895 0.171830 0.171678 0.171477 0.171286 0.171096 0.170905 0.170746 0.170625 0.170575 0.170562 0.170548 0.170499 0.170390 0.170246 0.170131 0.170016 0.169901 0.169799 0.169722 0.169696 0.169689 0.169683 0.169657 0.169599 0.169523 0.169458 0.169393 0.169328 0.169277 0.169238 0.169222 0.169217 0.169213 0.169196 0.169166 0.169126 0.169093 0.169059 0.169025 0.169003 0.168986 0.168981 0.168980 0.168978 0.168973 0.168960 0.168942 0.168932 0.168922 0.168912 0.168904 0.168898 0.168895 0.168894 0.168893 0.168890 0.168893 0.168896 0.168897 0.168898 0.168899 0.168908 0.168915 0.168918 0.168918 0.168919 0.168921 0.168926 0.168933 0.168947 0.168961 0.168975 0.168988 0.168997 0.169003 0.169005 0.169007 0.169013 0.169029 0.169050 0.169068 0.169087 0.169105 0.169127 0.169144 0.169151 0.169153 0.169155 0.169162 0.169179 0.169201 0.169226 0.169252 0.169277 0.169302 0.169321 0.169330 0.169332 
0.180746 0.180719 0.180614 0.180362 0.180029 0.179694 0.179358 0.179023 0.178690 0.178438 0.178334 0.178308 0.178282 0.178178 0.177929 0.177600 0.177274 0.176948 0.176622 0.176300 0.176057 0.175959 0.175935 0.175911 0.175813 0.175581 0.175273 0.174970 0.174667 0.174364 0.174069 0.173846 0.173755 0.173732 0.173709 0.173619 0.173403 0.173117 0.172840 0.172563 0.172285 0.172020 0.171820 0.171739 0.171718 0.171698 0.171618 0.171428 0.171178 0.170932 0.170687 0.170442 0.170208 0.170032 0.169960 0.169942 0.169924 0.169852 0.169680 0.169452 0.169231 0.169010 0.168789 0.168580 0.168422 0.168357 0.168341 0.168325 0.168261 0.168107 0.167904 0.167714 0.167524 0.167334 0.167149 0.167009 0.166956 0.166943 0.166929 0.166876 0.166750 0.166584 0.166432 0.166281 0.166130 0.165999 0.165900 0.165860 0.165850 0.165840 0.165800 0.165720 0.165614 0.165522 0.165430 0.165338 0.165267 0.165213 0.165191 0.165185 0.165180 0.165158 0.165110 0.165045 0.164996 0.164947 0.164897 0.164857 0.164827 0.164817 0.164814 0.164811 0.164801 0.164776 0.164743 0.164719 0.164696 0.164672 0.164650 0.164633 0.164628 0.164627 0.164626 0.164623 0.164613 0.164601 0.164593 0.164585 0.164577 0.164574 0.164572 0.164571 0.164571 0.164571 0.164570 0.164570 0.164570 0.164571 0.164573 0.164575 0.164583 0.164590 0.164592 0.164593 0.164593 0.164596 0.164601 0.164608 0.164620 0.164632 0.164644 0.164656 0.164666 0.164671 0.164672 0.164673 0.164678 0.164688 0.164703 0.164719 0.164735 0.164751 0.164767 0.164779 0.164784 0.164785 
0.166647 0.166637 0.166597 0.166496 0.166363 0.166222 0.166080 0.165938 0.165790 0.165678 0.165631 0.165619 0.165607 0.165559 0.165443 0.165290 0.165132 0.164974 0.164817 0.164654 0.164532 0.164480 0.164467 0.164454 0.164403 0.164277 0.164110 0.163943 0.163776 0.163609 0.163441 0.163315 0.163262 0.163248 0.163235 0.163182 0.163055 0.162887 0.162719 0.162551 0.162383 0.162217 0.162092 0.162040 0.162027 0.162014 0.161962 0.161838 0.161674 0.161511 0.161349 0.161186 0.161027 0.160907 0.160858 0.160845 0.160833 0.160783 0.160666 0.160510 0.160358 0.160206 0.160055 0.159907 0.159795 0.159749 0.159737 0.159726 0.159680 0.159571 0.159426 0.159286 0.159146 0.159006 0.158868 0.158764 0.158721 0.158710 0.158699 0.158658 0.158558 0.158427 0.158299 0.158171 0.158044 0.157922 0.157830 0.157792 0.157782 0.157772 0.157734 0.157646 0.157529 0.157423 0.157317 0.157211 0.157132 0.157072 0.157049 0.157043 0.157037 0.157014 0.156961 0.156890 0.156833 0.156776 0.156720 0.156667 0.156628 0.156615 0.156612 0.156608 0.156596 0.156566 0.156526 0.156493 0.156460 0.156426 0.156398 0.156376 0.156367 0.156365 0.156363 0.156354 0.156337 0.156315 0.156294 0.156273 0.156252 0.156238 0.156227 0.156222 0.156221 0.156220 0.156215 0.156204 0.156188 0.156177 0.156165 0.156154 0.156143 0.156136 0.156133 0.156133 0.156132 0.156130 0.156124 0.156115 0.156109 0.156103 0.156097 0.156091 0.156087 0.156085 0.156084 0.156084 0.156083 0.156080 0.156077 0.156073 0.156069 0.156065 0.156062 0.156060 0.156059 0.156059 0.156058 0.156057 0.156055 0.156051 0.156048 0.156045 0.156042 0.156039 0.156036 0.156035 0.156035 
0.148785 0.148780 0.148758 0.148703 0.148629 0.148553 0.148476 0.148399 0.148319 0.148258 0.148233 0.148228 0.148222 0.148198 0.148134 0.148050 0.147963 0.147877 0.147790 0.147700 0.147632 0.147605 0.147599 0.147593 0.147565 0.147496 0.147404 0.147309 0.147215 0.147120 0.147024 0.146952 0.146923 0.146916 0.146910 0.146881 0.146807 0.146710 0.146614 0.146517 0.146420 0.146323 0.146250 0.146220 0.146214 0.146208 0.146179 0.146107 0.146012 0.145918 0.145824 0.145729 0.145636 0.145567 0.145539 0.145533 0.145527 0.145499 0.145430 0.145339 0.145253 0.145167 0.145081 0.144996 0.144932 0.144907 0.144902 0.144896 0.144871 0.144810 0.144728 0.144650 0.144572 0.144494 0.144420 0.144363 0.144342 0.144337 0.144332 0.144311 0.144258 0.144188 0.144140 0.144093 0.144045 0.144005 0.143975 0.143965 0.143963 0.143961 0.143951 0.143928 0.143897 0.143875 0.143852 0.143830 0.143814 0.143801 0.143797 0.143796 0.143796 0.143792 0.143783 0.143771 0.143765 0.143760 0.143754 0.143752 0.143750 0.143750 0.143750 0.143750 0.143750 0.143750 0.143750 0.143756 0.143761 0.143766 0.143774 0.143781 0.143783 0.143784 0.143785 0.143788 0.143795 0.143805 0.143819 0.143834 0.143848 0.143865 0.143878 0.143883 0.143885 
