0.191252 0.191288 0.191748 0.193895 0.197296 0.200583 0.203869 0.207156 0.209914 0.211655 0.212003 0.212030 0.212056 0.212401 0.213852 0.216149 0.217895 0.219640 0.221385 0.222552 0.223288 0.223417 0.223427 0.223436 0.223559 0.223940 0.224544 0.224429 0.224314 0.224199 0.223440 0.222961 0.222825 0.222815 0.222804 0.222663 0.221903 0.220698 0.219071 0.217445 0.215818 0.213870 0.212641 0.212357 0.212335 0.212313 0.212028 0.210708 0.208618 0.206437 0.204256 0.202075 0.199876 0.198487 0.198183 0.198160 0.198136 0.197833 0.196496 0.194377 0.192341 0.190306 0.188270 0.186340 0.185122 0.184860 0.184839 
0.191236 0.191208 0.190944 0.190216 0.189244 0.188277 0.187310 0.186342 0.185382 0.184664 0.184406 0.184378 0.184350 0.184092 0.183383 0.182436 0.181496 0.180556 0.179616 0.178693 0.178002 0.177755 0.177728 0.177702 0.177456 0.176789 0.175898 0.175068 0.174238 0.173409 0.172651 0.172085 0.171890 0.171868 0.171848 0.171654 0.171146 0.170466 0.169841 0.169216 0.168591 0.168000 0.167558 0.167401 0.167384 0.167367 0.167211 0.166781 0.166208 0.165649 0.165091 0.164533 0.163984 0.163573 0.163425 0.163409 
0.191247 0.191263 0.191483 0.191355 0.191153 0.187886 0.184618 0.181351 0.178140 0.176114 0.175680 0.175649 0.175617 0.175170 0.173294 0.170321 0.167865 0.165409 0.162954 0.160869 0.159552 0.159282 0.159262 0.159243 0.158974 0.157832 0.156021 0.154536 0.153051 0.151566 0.150352 0.149586 0.149428 0.149416 0.149405 0.149249 0.148551 0.147446 0.146367 0.145288 0.144208 0.143073 0.142357 0.142190 0.142178 0.142165 0.141995 0.141163 0.139846 0.137972 0.136098 0.134223 0.132126 0.130802 0.130535 0.130516 0.130498 0.130236 0.129178 0.127501 0.126160 0.124820 0.123479 0.122279 0.121521 0.121365 0.121354 0.121343 0.121188 0.120547 0.119531 0.118926 0.118320 0.117715 0.117374 0.117158 0.117118 0.117115 0.117112 0.117071 0.116903 0.116637 0.116426 0.116215 0.116005 0.115828 0.115716 0.115693 0.115691 0.115690 0.115666 0.115563 0.115401 0.115250 0.115098 0.114947 0.114807 0.114719 0.114700 0.114699 0.114697 0.114679 0.114598 0.114471 0.114352 0.114234 0.114116 0.114015 0.113951 0.113940 0.113939 0.113938 0.113926 0.113879 0.113805 0.113748 0.113691 0.113634 0.113589 0.113560 0.113554 0.113553 0.113553 0.113547 0.113522 0.113483 0.113450 0.113416 0.113383 0.113356 0.113338 0.113335 0.113334 0.113334 0.113331 0.113316 0.113293 0.113274 0.113255 0.113235 0.113220 0.113211 0.113209 0.113209 0.113209 0.113207 0.113199 0.113188 0.113180 0.113172 0.113164 0.113161 0.113158 0.113158 0.113158 
0.222784 0.222663 0.222133 0.220878 0.219214 0.217670 0.216126 0.214582 0.213133 0.212041 0.211609 0.211510 0.211413 0.210987 0.209978 0.208639 0.207403 0.206167 0.204931 0.203786 0.202923 0.202581 0.202503 0.202426 0.202088 0.201285 0.200220 0.199230 0.198239 0.197248 0.196327 0.195633 0.195358 0.195295 0.195233 0.194961 0.194321 0.193473 0.192678 0.191883 0.191087 0.190346 0.189787 0.189566 0.189515 0.189465 0.189246 0.188735 0.188058 0.187417 0.186777 0.186137 0.185546 0.185100 0.184922 0.184881 0.184840 0.184664 0.184252 0.183707 0.183204 0.182700 0.182197 0.181755 0.181422 0.181289 0.181259 0.181229 0.181097 0.180828 0.180472 0.180178 0.179884 0.179590 0.179359 0.179184 0.179115 0.179099 0.179083 0.179013 0.178854 0.178643 0.178465 0.178286 0.178108 0.177962 0.177851 0.177807 0.177797 0.177787 0.177742 0.177634 0.177491 0.177373 0.177255 0.177137 0.177036 0.176959 0.176930 0.176923 0.176916 0.176886 0.176813 0.176716 0.176643 0.176570 0.176498 0.176434 0.176386 0.176369 0.176365 0.176360 0.176342 0.176299 0.176241 0.176201 0.176162 0.176123 0.176092 0.176069 0.176063 0.176061 
0.212012 0.211939 0.211773 0.211452 0.211035 0.210616 0.210198 0.209780 0.209361 0.209038 0.208870 0.208797 0.208723 0.208555 0.208231 0.207810 0.207384 0.206958 0.206533 0.206105 0.205776 0.205604 0.205529 0.205454 0.205282 0.204952 0.204523 0.204095 0.203666 0.203238 0.202810 0.202481 0.202311 0.202236 0.202162 0.201992 0.201663 0.201236 0.200810 0.200383 0.199957 0.199532 0.199206 0.199037 0.198963 0.198890 0.198722 0.198400 0.197982 0.197571 0.197160 0.196749 0.196348 0.196039 0.195876 0.195804 0.195734 0.195572 0.195263 0.194862 0.194476 0.194090 0.193704 0.193336 0.193053 0.192911 0.192849 0.192788 0.192647 0.192384 0.192041 0.191710 0.191379 0.191049 0.190733 0.190490 0.190367 0.190313 0.190260 0.190139 0.189911 0.189616 0.189339 0.189062 0.188785 0.188518 0.188313 0.188209 0.188164 0.188119 0.188017 0.187825 0.187575 0.187338 0.187101 0.186864 0.186643 0.186472 0.186384 0.186346 0.186308 0.186221 0.186059 0.185848 0.185649 0.185451 0.185252 0.185057 0.184906 0.184831 0.184799 0.184767 0.184694 0.184555 0.184373 0.184192 0.184012 0.183831 0.183650 0.183510 0.183438 0.183406 0.183374 0.183300 0.183157 0.182971 0.182783 0.182594 0.182406 0.182215 0.182068 0.181991 0.181957 0.181923 0.181845 0.181697 0.181504 0.181309 0.181115 0.180921 0.180720 0.180566 0.180486 0.180451 0.180416 0.180336 0.180182 0.179982 0.179783 0.179585 0.179386 0.179188 0.179036 0.178957 0.178923 0.178889 0.178810 0.178658 0.178461 0.178263 0.178065 0.177868 0.177670 0.177518 0.177439 0.177405 0.177371 0.177292 0.177142 0.176947 0.176756 0.176565 0.176374 0.176185 0.176039 0.175964 0.175931 0.175898 0.175823 0.175679 0.175491 0.175309 0.175127 0.174945 0.174771 0.174637 0.174568 0.174537 0.174507 0.174438 0.174306 0.174134 0.173964 0.173794 0.173624 0.173464 0.173342 0.173283 0.173257 0.173231 0.173172 0.173059 0.172912 0.172766 0.172620 0.172474 0.172330 0.172219 0.172164 0.172141 0.172121 0.172077 0.172016 0.171937 0.171863 0.171789 0.171716 0.171645 0.171591 0.171563 0.171551 0.171539 0.171511 0.171458 0.171390 0.171349 0.171308 0.171267 0.171229 0.171201 0.171185 0.171179 0.171172 0.171157 0.171127 0.171088 0.171051 0.171015 0.170978 0.170961 0.170948 0.170941 0.170938 0.170935 0.170927 0.170912 0.170893 0.170871 0.170850 0.170828 0.170806 0.170789 0.170787 0.170786 0.170785 0.170783 0.170778 0.170771 0.170763 0.170755 0.170747 0.170737 0.170730 0.170726 0.170724 0.170722 0.170718 0.170715 0.170711 0.170711 0.170711 0.170712 0.170710 0.170709 0.170708 0.170707 0.170707 0.170706 0.170703 0.170699 0.170700 0.170701 0.170702 0.170706 0.170710 0.170711 0.170712 0.170713 0.170715 0.170717 0.170721 0.170724 0.170728 0.170731 0.170740 0.170747 0.170752 0.170753 0.170755 0.170759 0.170767 0.170777 0.170787 0.170796 0.170806 0.170815 0.170822 0.170826 0.170827 0.170830 0.170836 0.170848 0.170863 0.170878 0.170893 0.170909 0.170924 0.170935 0.170941 0.170944 0.170946 0.170952 0.170964 0.170981 0.171001 0.171022 0.171043 0.171064 0.171080 0.171088 0.171091 
0.184375 0.184364 0.184306 0.184140 0.183918 0.183637 0.183355 0.183074 0.182735 0.182480 0.182373 0.182352 0.182332 0.182222 0.181924 0.181527 0.181051 0.180575 0.180098 0.179558 0.179152 0.178979 0.178946 0.178913 0.178734 0.178261 0.177632 0.177237 0.176841 0.176445 0.176212 0.176036 0.175969 0.175956 0.175944 0.175876 0.175700 0.175467 0.175229 0.174992 0.174754 0.174508 0.174322 0.174248 0.174234 0.174220 0.174145 0.173951 0.173692 0.173430 0.173167 0.172905 0.172599 0.172369 0.172276 0.172259 0.172241 0.172148 0.171903 0.171577 0.171235 0.170892 0.170550 0.170202 0.169940 0.169837 0.169818 0.169799 0.169697 0.169443 0.169106 0.168797 0.168489 0.168180 0.167968 0.167808 0.167760 0.167752 0.167743 0.167696 0.167580 0.167425 0.167318 0.167210 0.167103 0.167026 0.166968 0.166946 0.166942 0.166938 0.166916 0.166863 0.166793 0.166731 0.166670 0.166608 0.166551 0.166508 0.166490 0.166487 0.166483 0.166465 0.166431 0.166386 0.166344 0.166302 0.166260 0.166222 0.166194 0.166186 0.166184 
0.177721 0.177692 0.177576 0.177287 0.176904 0.176508 0.176111 0.175714 0.175297 0.174982 0.174848 0.174815 0.174782 0.174649 0.174326 0.173898 0.173473 0.173048 0.172622 0.172210 0.171899 0.171782 0.171754 0.171726 0.171612 0.171354 0.171013 0.170772 0.170532 0.170291 0.170074 0.169910 0.169842 0.169825 0.169809 0.169741 0.169577 0.169359 0.169142 0.168924 0.168707 0.168486 0.168318 0.168249 0.168232 0.168215 0.168145 0.167976 0.167752 0.167532 0.167313 0.167094 0.166860 0.166683 0.166607 0.166588 0.166570 0.166494 0.166311 0.166069 0.165823 0.165577 0.165331 0.165086 0.164902 0.164825 0.164807 0.164788 0.164712 0.164528 0.164285 0.164054 0.163824 0.163594 0.163385 0.163228 0.163178 0.163165 0.163153 0.163104 0.162989 0.162838 0.162720 0.162601 0.162483 0.162386 0.162312 0.162282 0.162275 0.162268 0.162238 0.162192 0.162132 0.162076 0.162020 0.161964 0.161933 0.161909 0.161899 0.161896 0.161894 0.161883 0.161860 0.161831 0.161811 0.161791 0.161771 0.161757 0.161746 0.161743 0.161742 0.161741 0.161737 0.161727 0.161713 0.161709 0.161705 0.161702 0.161698 0.161695 0.161697 0.161698 0.161698 0.161700 0.161704 0.161708 0.161715 0.161722 0.161729 0.161741 0.161749 0.161753 0.161753 
0.163405 0.163388 0.163346 0.163259 0.163145 0.163031 0.162917 0.162803 0.162690 0.162602 0.162560 0.162543 0.162526 0.162484 0.162400 0.162289 0.162179 0.162068 0.161958 0.161848 0.161763 0.161722 0.161705 0.161689 0.161648 0.161566 0.161459 0.161352 0.161246 0.161140 0.161034 0.160953 0.160913 0.160897 0.160882 0.160842 0.160764 0.160662 0.160561 0.160459 0.160358 0.160258 0.160181 0.160143 0.160128 0.160113 0.160076 0.160001 0.159905 0.159809 0.159714 0.159619 0.159525 0.159452 0.159417 0.159403 0.159389 0.159354 0.159284 0.159193 0.159104 0.159016 0.158927 0.158839 0.158772 0.158739 0.158726 0.158713 0.158680 0.158615 0.158530 0.158449 0.158368 0.158287 0.158206 0.158145 0.158114 0.158102 0.158090 0.158060 0.158000 0.157922 0.157848 0.157775 0.157701 0.157628 0.157572 0.157545 0.157534 0.157524 0.157496 0.157441 0.157370 0.157304 0.157239 0.157173 0.157108 0.157058 0.157034 0.157024 0.157014 0.156990 0.156958 0.156917 0.156899 0.156881 0.156863 0.156845 0.156830 0.156823 0.156821 0.156818 0.156811 0.156796 0.156777 0.156764 0.156750 0.156737 0.156724 0.156713 0.156708 0.156706 0.156704 0.156699 0.156688 0.156674 0.156664 0.156655 0.156645 0.156636 0.156629 0.156626 0.156624 0.156623 0.156619 0.156611 0.156600 0.156593 0.156585 0.156578 0.156571 0.156565 0.156562 0.156561 0.156559 0.156556 0.156549 0.156539 0.156531 0.156523 0.156515 0.156507 0.156501 0.156497 0.156496 0.156495 0.156491 0.156483 0.156472 0.156464 0.156456 0.156448 0.156441 0.156436 0.156433 0.156432 0.156430 0.156427 0.156420 0.156411 0.156403 0.156395 0.156387 0.156380 0.156375 0.156373 0.156372 0.156371 0.156368 0.156362 0.156355 0.156348 0.156342 0.156335 0.156331 0.156328 0.156327 0.156326 
