-2.107507 -1.354646 1.461535
-1.556804 -1.474305 2.925977
-1.024184 -1.558838 4.398366
-0.745790 -1.260266 5.909449
-0.502983 -0.849589 7.405360
-0.364327 -0.624046 8.949937
-0.451162 -0.655073 10.515323
-0.639090 -0.819125 12.065907
-2.106905 -1.354650 1.463441
-1.557551 -1.474086 2.924134
-1.556058 -1.474524 2.927819
-1.024717 -1.558955 4.396442
-1.023652 -1.558721 4.400290
-0.746047 -1.260818 5.907544
-0.745533 -1.259714 5.911354
-0.503295 -0.850023 7.403433
-0.502671 -0.849154 7.407288
-0.364349 -0.624171 8.947941
-0.364305 -0.623921 8.951933
-0.450947 -0.654896 10.513343
-0.451378 -0.655250 10.517304
-0.638861 -0.818930 12.063929
-2.096985 -1.354725 1.494822
-1.569839 -1.470475 2.893817
-1.543770 -1.478135 2.958136
-1.033862 -1.560316 4.364857
-1.014887 -1.556799 4.431955
-0.750275 -1.269907 5.876196
-0.741304 -1.250625 5.942702
-0.508536 -0.857348 7.371779
-0.497535 -0.842006 7.439000
-0.364710 -0.626225 8.915096
-0.363944 -0.621867 8.984778
-0.447475 -0.652081 10.480736
-0.454922 -0.658161 10.549894
-0.635095 -0.815722 12.031392
-2.050468 -1.356450 1.638712
-1.972152 -1.366052 1.864986
-1.889451 -1.382282 2.089322
-1.803617 -1.403292 2.312084
-1.715559 -1.427680 2.533634
-1.626342 -1.453771 2.754527
-1.487510 -1.494344 3.097583
-1.399323 -1.518341 3.319124
-1.313141 -1.538962 3.541788
-1.230031 -1.554556 3.766018
-1.150907 -1.563790 3.992028
-1.077128 -1.564719 4.220016
-0.975932 -1.546046 4.577682
-0.921634 -1.518380 4.809408
-0.875646 -1.478892 5.041232
-0.836158 -1.429871 5.272450
-0.801579 -1.373057 5.502680
-0.769744 -1.310985 5.731952
-0.721561 -1.208363 6.086567
-0.688619 -1.141160 6.314234
-0.652364 -1.075103 6.541731
-0.613401 -1.011144 6.769381
-0.573179 -0.949821 6.997537
-0.533107 -0.891918 7.226610
-0.474500 -0.809970 7.584999
-0.441507 -0.763589 7.817786
-0.413809 -0.722790 8.052295
-0.392322 -0.688035 8.288425
-0.377158 -0.659609 8.525889
-0.367714 -0.637169 8.764289
-0.364169 -0.614594 9.135839
-0.368502 -0.607792 9.375344
-0.377893 -0.607264 9.614802
-0.392001 -0.612882 9.853963
-0.410232 -0.623980 10.092657
-0.432158 -0.639999 10.330762
-0.471608 -0.672073 10.699564
-0.499616 -0.696212 10.936347
-0.528820 -0.721950 11.172819
-0.558616 -0.748481 11.409130
-0.588358 -0.774940 11.645455
-0.617424 -0.800494 11.881963
120 NaN NaN
-2.107658 -1.354644 1.461058
-2.077176 -1.354875 1.557490
-2.045590 -1.356738 1.653548
-2.013006 -1.360088 1.749232
-1.979528 -1.364782 1.844550
-1.945252 -1.370682 1.939518
-1.910270 -1.377654 2.034155
-1.874671 -1.385568 2.128487
-1.838538 -1.394298 2.222545
-1.801950 -1.403722 2.316359
-1.764984 -1.413721 2.409965
-1.727713 -1.424179 2.503400
-1.690208 -1.434984 2.596702
-1.652539 -1.446025 2.689910
-1.614773 -1.457192 2.783064
-1.576977 -1.468377 2.876204
-1.539217 -1.479473 2.969369
-1.501561 -1.490372 3.062599
-1.464074 -1.500967 3.155933
-1.426825 -1.511150 3.249407
-1.389882 -1.520810 3.343058
-1.353316 -1.529836 3.436920
-1.317200 -1.538116 3.531024
-1.281609 -1.545535 3.625400
-1.246622 -1.551973 3.720073
-1.212320 -1.557312 3.815064
-1.178788 -1.561428 3.910390
-1.146114 -1.564196 4.006063
-1.114390 -1.565488 4.102085
-1.083713 -1.565175 4.198455
-1.054181 -1.563127 4.295160
-1.025897 -1.559214 4.392180
-0.998965 -1.553306 4.489483
-0.973492 -1.545277 4.587026
-0.949585 -1.535006 4.684755
-0.927312 -1.522424 4.782600
-0.906582 -1.507656 4.880479
-0.887262 -1.490875 4.978322
-0.869212 -1.472255 5.076076
-0.852292 -1.451966 5.173700
-0.836357 -1.430177 5.271166
-0.821266 -1.407052 5.368459
-0.806875 -1.382751 5.465572
-0.793042 -1.357428 5.562505
-0.779628 -1.331237 5.659265
-0.766492 -1.304322 5.755866
-0.753496 -1.276829 5.852322
-0.740502 -1.248899 5.948654
-0.727372 -1.220672 6.044880
-0.713969 -1.192286 6.141022
-0.700156 -1.163880 6.237099
-0.685793 -1.135594 6.333132
-0.670773 -1.107556 6.429136
-0.655150 -1.079832 6.525136
-0.639028 -1.052470 6.621157
-0.622514 -1.025518 6.717227
-0.605714 -0.999021 6.813374
-0.588733 -0.973027 6.909627
-0.571680 -0.947583 7.006013
-0.554662 -0.922738 7.102563
-0.537788 -0.898539 7.199301
-0.521168 -0.875035 7.296254
-0.504912 -0.852274 7.393446
-0.489131 -0.830308 7.490898
-0.473936 -0.809185 7.588630
-0.459438 -0.788956 7.686656
-0.445751 -0.769671 7.784989
-0.432986 -0.751380 7.883634
-0.421254 -0.734134 7.982596
-0.410651 -0.717977 8.081868
-0.401188 -0.702918 8.181427
-0.392842 -0.688958 8.281247
-0.385593 -0.676093 8.381299
-0.379418 -0.664322 8.481557
-0.374297 -0.653644 8.581997
-0.370209 -0.644058 8.682595
-0.367133 -0.635563 8.783326
-0.365050 -0.628160 8.884169
-0.363940 -0.621847 8.985102
-0.363785 -0.616626 9.086103
-0.364565 -0.612497 9.187151
-0.366263 -0.609463 9.288227
-0.368861 -0.607524 9.389311
-0.372343 -0.606685 9.490384
-0.376690 -0.606947 9.591426
-0.381887 -0.608315 9.692419
-0.387910 -0.610777 9.793346
-0.394715 -0.614278 9.894192
-0.402253 -0.618753 9.994947
-0.410473 -0.624138 10.095605
-0.419327 -0.630366 10.196160
-0.428765 -0.637372 10.296611
-0.438736 -0.645090 10.396959
-0.449192 -0.653455 10.497205
-0.460083 -0.662400 10.597355
-0.471358 -0.671860 10.697415
-0.482970 -0.681769 10.797393
-0.494869 -0.692062 10.897298
-0.507007 -0.702674 10.997141
-0.519334 -0.713540 11.096934
-0.531803 -0.724596 11.196689
-0.544366 -0.735776 11.296417
-0.556973 -0.747017 11.396134
-0.569578 -0.758254 11.495851
-0.582131 -0.769423 11.595582
-0.594586 -0.780459 11.695340
-0.606893 -0.791297 11.795139
-0.619004 -0.801874 11.894989
-0.630871 -0.812124 11.994903
-0.642445 -0.821982 12.094890
-0.653676 -0.831383 12.194960
-0.664517 -0.840261 12.295122
-0.674916 -0.848551 12.395380
-0.684826 -0.856187 12.495740
-0.694196 -0.863102 12.596203
-0.702975 -0.869232 12.696771
-0.711116 -0.874509 12.797441
-0.718567 -0.878870 12.898208
-0.725280 -0.882248 12.999065
-0.731205 -0.884580 13.100000
-2.107279 -1.354593 1.460736
-1.348337 -1.251761 0.816719
-0.589395 -1.148930 0.172702
-2.105762 -1.354388 1.459449
-1.349854 -1.251967 0.818006
-1.346820 -1.251556 0.815432
-0.590912 -1.149135 0.173989
-2.089446 -1.352177 1.445603
-1.366170 -1.254178 0.831852
-1.330504 -1.249345 0.801586
-0.607228 -1.151346 0.187835
-2.016524 -1.342296 1.383724
-1.901037 -1.326649 1.285725
-1.785551 -1.311001 1.187727
-1.670065 -1.295353 1.089728
-1.554579 -1.279706 0.991730
-1.439092 -1.264058 0.893731
-1.257582 -1.239465 0.739707
-1.142095 -1.223817 0.641708
-1.026609 -1.208169 0.543710
-0.911123 -1.192522 0.445711
-0.795637 -1.176874 0.347713
-0.680150 -1.161226 0.249715
23 NaN NaN
-2.107658 -1.354644 1.461058
-2.029395 -1.344040 1.394646
-1.951132 -1.333436 1.328234
-1.872869 -1.322832 1.261823
-1.794607 -1.312228 1.195411
-1.716344 -1.301624 1.128999
-1.638081 -1.291020 1.062587
-1.559818 -1.280416 0.996176
-1.481555 -1.269811 0.929764
-1.403292 -1.259207 0.863352
-1.325029 -1.248603 0.796941
-1.246766 -1.237999 0.730529
-1.168503 -1.227395 0.664117
-1.090240 -1.216791 0.597705
-1.011977 -1.206187 0.531294
-0.933714 -1.195583 0.464882
-0.855452 -1.184978 0.398470
-0.777189 -1.174374 0.332059
-0.698926 -1.163770 0.265647
-0.620663 -1.153166 0.199235
-0.542400 -1.142562 0.132823
-0.464137 -1.131958 0.066412
-0.385874 -1.121354 0.000000
-2.108081 -1.354906 1.461002
-3.331151 -1.362706 0.556948
-3.824643 -0.437132 -0.736774
-4.161690 0.763707 -1.851882
-4.504478 1.952984 -2.978001
-4.846880 3.141830 -4.104695
-5.204505 4.318196 -5.239608
-5.626259 5.431547 -6.414742
-6.163027 6.416433 -7.654727
-6.853735 7.195594 -8.961763
-7.704503 7.704705 -10.306435
-8.683900 7.928121 -11.641924
-2.109771 -1.355951 1.460778
-3.330324 -1.363619 0.558523
-3.331978 -1.361793 0.555372
-3.824233 -0.438548 -0.735423
-3.825053 -0.435715 -0.738125
-4.161275 0.762296 -1.850526
-4.162105 0.765118 -1.853237
-4.504067 1.951564 -2.976653
-4.504888 1.954403 -2.979348
-4.846472 3.140410 -4.103348
-4.847289 3.143251 -4.106042
-5.204052 4.316815 -5.238235
-5.204959 4.319578 -5.240981
-5.625696 5.430278 -6.413302
-5.626822 5.432815 -6.416182
-6.162295 6.415368 -7.653201
-6.163759 6.417497 -7.656254
-6.852814 7.194809 -8.960171
-6.854655 7.196379 -8.963356
-7.703399 7.704272 -10.304824
-7.705606 7.705139 -10.308046
-8.682669 7.928022 -11.640351
-2.139323 -1.374227 1.456862
-3.315865 -1.379584 0.586068
-3.346385 -1.345794 0.527821
-3.817007 -0.463176 -0.711680
-3.832214 -0.410948 -0.761746
-4.154014 0.737628 -1.826831
-4.169334 0.789845 -1.876880
-4.496888 1.926746 -2.953091
-4.512067 1.979222 -3.002910
-4.839327 3.115568 -4.079800
-4.854439 3.168088 -4.129594
-5.196119 4.292660 -5.214229
-5.212947 4.343680 -5.265022
-5.615852 5.408099 -6.388126
-5.636666 5.454994 -6.441358
-6.149616 6.396593 -7.626567
-6.176561 6.436111 -7.682943
-6.836716 7.181089 -8.932327
-6.870848 7.209939 -8.991222
-7.684111 7.696691 -10.276661
-7.724894 7.712720 -10.336209
-8.661222 7.926030 -11.612806
-2.277788 -1.452262 1.431353
-2.503490 -1.540162 1.352311
-2.725291 -1.586845 1.235911
-2.930586 -1.587046 1.085088
-3.106106 -1.539320 0.907038
-3.243747 -1.449151 0.712224
-3.407474 -1.268741 0.400136
-3.495006 -1.142154 0.196329
-3.575946 -1.014106 -0.009304
-3.651865 -0.881123 -0.213685
-3.720732 -0.734987 -0.411415
-3.781874 -0.572794 -0.598894
-3.864212 -0.294676 -0.868659
-3.913119 -0.106634 -1.034436
-3.962875 0.080050 -1.201487
-4.014306 0.263608 -1.371469
-4.067076 0.444504 -1.543881
-4.120443 0.624124 -1.717442
-4.202555 0.904006 -1.985692
-4.254855 1.085574 -2.157541
-4.306997 1.267463 -2.329100
-4.359146 1.449338 -2.500671
-4.411415 1.630963 -2.672470
-4.463803 1.812342 -2.844493
-4.545156 2.093620 -3.111514
-4.597575 2.274932 -3.283597
-4.649940 2.456312 -3.455626
-4.702210 2.637794 -3.627576
-4.754352 2.819396 -3.799438
-4.806438 3.001016 -3.971299
-4.887468 3.282512 -4.238188
-4.940238 3.463578 -4.410423
-4.993750 3.644198 -4.582897
-5.048107 3.824143 -4.755812
-5.103411 4.003153 -4.929397
-5.159820 4.181067 -5.103749
-5.250090 4.454457 -5.376040
-5.310323 4.628654 -5.552849
-5.372336 4.801066 -5.730788
-5.436408 4.971381 -5.910012
-5.502603 5.139498 -6.090535
-5.571269 5.305006 -6.272539
-5.682874 5.556304 -6.557880
-5.758329 5.714350 -6.743784
-5.836896 5.868832 -6.931388
-5.918533 6.019700 -7.120613
-6.003558 6.166468 -7.311562
-6.091973 6.309012 -7.504163
-6.236278 6.520961 -7.806272
-6.334054 6.651159 -8.003043
-6.435573 6.776120 -8.201307
-6.540962 6.895470 -8.401004
-6.650217 7.009002 -8.602009
-6.763321 7.116519 -8.804190
-6.946440 7.270824 -9.119887
-7.069279 7.361996 -9.324403
-7.195760 7.446584 -9.529529
-7.325860 7.524343 -9.735092
-7.459331 7.595454 -9.940903
-7.596190 7.659574 -10.146785
-7.814633 7.745769 -10.465939
-7.959115 7.792840 -10.671217
-8.106402 7.833092 -10.875951
-8.256155 7.867053 -11.080037
-8.408367 7.894430 -11.283292
-8.562724 7.915776 -11.485650
192 NaN NaN
-2.107658 -1.354644 1.461058
-2.192595 -1.407173 1.449802
-2.279842 -1.453349 1.430908
-2.368430 -1.493086 1.404925
-2.457515 -1.526336 1.372354
-2.546339 -1.553048 1.333631
-2.634194 -1.573138 1.289123
-2.720377 -1.586470 1.239147
-2.804153 -1.592852 1.183982
-2.884722 -1.592033 1.123899
-2.961180 -1.583719 1.059198
-3.032508 -1.567609 0.990256
-3.097754 -1.543660 0.917661
-3.156901 -1.512922 0.842430
-3.210489 -1.476728 0.765466
-3.259253 -1.436295 0.687403
-3.304009 -1.392674 0.608651
-3.345585 -1.346769 0.529451
-3.384563 -1.299196 0.449914
-3.421307 -1.250353 0.370081
-3.456207 -1.200628 0.289965
-3.489684 -1.150402 0.209554
-3.522172 -1.100049 0.128818
-3.554011 -1.049761 0.047781
-3.585167 -0.999119 -0.033299
-3.615518 -0.947566 -0.114109
-3.644938 -0.894559 -0.194320
-3.673287 -0.839569 -0.273575
-3.700421 -0.782114 -0.351492
-3.726306 -0.722056 -0.427857
-3.750998 -0.659517 -0.502608
-3.774561 -0.594618 -0.575694
-3.797058 -0.527475 -0.647069
-3.818553 -0.458193 -0.716687
-3.839145 -0.386977 -0.784608
-3.859038 -0.314298 -0.851175
-3.878459 -0.240645 -0.916805
-3.897644 -0.166489 -0.981938
-3.916829 -0.092288 -1.047019
-3.936238 -0.018473 -1.112472
-3.955943 0.054805 -1.178437
-3.975923 0.127575 -1.244880
-3.996155 0.199868 -1.311767
-4.016614 0.271715 -1.379063
-4.037280 0.343151 -1.446733
-4.058118 0.414231 -1.514724
-4.079076 0.485060 -1.582941
-4.100096 0.555748 -1.651283
-4.121123 0.626409 -1.719653
-4.142101 0.697153 -1.787951
-4.162978 0.768083 -1.856086
-4.183752 0.839210 -1.924049
-4.204439 0.910498 -1.991868
-4.225058 0.981915 -2.059572
-4.245629 1.053426 -2.127193
-4.266169 1.124997 -2.194758
-4.286695 1.196601 -2.262293
-4.307214 1.268220 -2.329814
-4.327734 1.339837 -2.397338
-4.348263 1.411434 -2.464878
-4.368810 1.482995 -2.532453
-4.389381 1.554506 -2.600073
-4.409974 1.625969 -2.667737
-4.430586 1.697394 -2.735435
-4.451212 1.768790 -2.803159
-4.471847 1.840167 -2.870901
-4.492488 1.911535 -2.938650
-4.513131 1.982900 -3.006402
-4.533774 2.054265 -3.074154
-4.554415 2.125633 -3.141904
-4.575052 2.197006 -3.209649
-4.595684 2.268387 -3.277388
-4.616308 2.339778 -3.345118
-4.636922 2.411181 -3.412839
-4.657522 2.482599 -3.480548
-4.678107 2.554034 -3.548244
-4.698672 2.625488 -3.615925
-4.719216 2.696963 -3.683591
-4.739740 2.768456 -3.751244
-4.760250 2.839959 -3.818892
-4.780753 2.911461 -3.886541
-4.801256 2.982956 -3.954199
-4.821765 3.054432 -4.021874
-4.842290 3.125882 -4.089572
-4.862847 3.197300 -4.157295
-4.883457 3.268678 -4.225043
-4.904137 3.340010 -4.292819
-4.924908 3.411289 -4.360622
-4.945788 3.482509 -4.428454
-4.966789 3.553659 -4.496322
-4.987916 3.624723 -4.564240
-5.009174 3.695687 -4.632223
-5.030566 3.766534 -4.700286
-5.052097 3.837248 -4.768443
-5.073772 3.907815 -4.836707
-5.095603 3.978223 -4.905085
-5.117603 4.048462 -4.973582
-5.139786 4.118521 -5.042204
-5.162166 4.188391 -5.110956
-5.184755 4.258060 -5.179843
-5.207566 4.327516 -5.248870
-5.230610 4.396748 -5.318047
-5.253898 4.465741 -5.387379
-5.277441 4.534484 -5.456875
-5.301250 4.602962 -5.526540
-5.325336 4.671164 -5.596382
-5.349710 4.739074 -5.666406
-5.374385 4.806681 -5.736620
-5.399372 4.873969 -5.807028
-5.424683 4.940926 -5.877636
-5.450328 5.007538 -5.948450
-5.476320 5.073789 -6.019475
-5.502670 5.139666 -6.090716
-5.529388 5.205154 -6.162179
-5.556487 5.270237 -6.233868
-5.583978 5.334899 -6.305787
-5.611870 5.399127 -6.377941
-5.640176 5.462903 -6.450335
-5.668905 5.526212 -6.522971
-5.698069 5.589037 -6.595853
-5.727678 5.651363 -6.668984
-5.757742 5.713172 -6.742368
-5.788272 5.774448 -6.816006
-5.819278 5.835174 -6.889900
-5.850768 5.895333 -6.964053
-5.882753 5.954908 -7.038465
-5.915241 6.013880 -7.113139
-5.948243 6.072233 -7.188074
-5.981765 6.129949 -7.263270
-6.015817 6.187011 -7.338727
-6.050406 6.243400 -7.414445
-6.085540 6.299100 -7.490422
-6.121227 6.354091 -7.566657
-6.157473 6.408357 -7.643147
-6.194283 6.461880 -7.719891
-6.231665 6.514643 -7.796885
-6.269622 6.566629 -7.874125
-6.308161 6.617819 -7.951608
-6.347287 6.668197 -8.029329
-6.387002 6.717747 -8.107284
-6.427309 6.766453 -8.185466
-6.468211 6.814298 -8.263869
-6.509711 6.861267 -8.342489
-6.551811 6.907343 -8.421317
-6.594512 6.952513 -8.500347
-6.637812 6.996762 -8.579570
-6.681713 7.040078 -8.658979
-6.726213 7.082447 -8.738565
-6.771311 7.123855 -8.818320
-6.817006 7.164290 -8.898234
-6.863294 7.203742 -8.978298
-6.910172 7.242202 -9.058502
-6.957636 7.279659 -9.138836
-7.005681 7.316104 -9.219289
-7.054304 7.351526 -9.299851
-7.103499 7.385921 -9.380512
-7.153259 7.419283 -9.461260
-7.203578 7.451606 -9.542085
-7.254448 7.482884 -9.622975
-7.305863 7.513113 -9.703919
-7.357815 7.542289 -9.784907
-7.410296 7.570412 -9.865927
-7.463297 7.597480 -9.946967
-7.516808 7.623492 -10.028018
-7.570821 7.648449 -10.109067
-7.625328 7.672351 -10.190105
-7.680317 7.695199 -10.271120
-7.735779 7.716998 -10.352102
-7.791703 7.737752 -10.433041
-7.848080 7.757463 -10.513926
-7.904899 7.776136 -10.594748
-7.962151 7.793776 -10.675498
-8.019823 7.810390 -10.756164
-8.077907 7.825986 -10.836740
-8.136390 7.840570 -10.917216
-8.195263 7.854150 -10.997583
-8.254515 7.866734 -11.077833
-8.314137 7.878330 -11.157959
-8.374116 7.888950 -11.237953
-8.434443 7.898601 -11.317808
-8.495108 7.907295 -11.397517
-8.556101 7.915040 -11.477074
-8.617412 7.921848 -11.556471
-8.679030 7.927730 -11.635705
-8.740946 7.932698 -11.714768
-8.803151 7.936762 -11.793656
-8.865635 7.939935 -11.872365
-8.928390 7.942228 -11.950889
-8.991405 7.943652 -12.029224
-9.054673 7.944219 -12.107366
-9.118185 7.943940 -12.185311
-9.181933 7.942826 -12.263056
-0.364541 -0.623661 8.949702
-0.422114 -0.520989 8.888148
-0.483343 -0.416511 8.833601
-0.548219 -0.310529 8.786735
-0.616653 -0.203435 8.748181
-0.688607 -0.095701 8.718919
-0.763914 0.012034 8.699915
-0.841851 0.119135 8.690429
-0.921981 0.225032 8.690445
-1.003842 0.329203 8.699752
-1.087050 0.430975 8.718740
-1.171069 0.530027 8.746507
-1.255466 0.626272 8.781931
-1.339933 0.719578 8.824377
-1.424225 0.809894 8.873208
-0.365400 -0.622120 8.948759
-0.421209 -0.522554 8.889003
-0.423019 -0.519424 8.887293
-0.482391 -0.418098 8.834361
-0.484295 -0.414925 8.832841
-0.547221 -0.312133 8.787392
-0.549218 -0.308926 8.786078
-0.615610 -0.205051 8.748729
-0.617697 -0.201819 8.747633
-0.687482 -0.097324 8.719233
-0.689733 -0.094078 8.718605
-0.762753 0.010417 8.700107
-0.765075 0.013651 8.699722
-0.840659 0.117530 8.690499
-0.843042 0.120740 8.690359
-0.920764 0.223445 8.690394
-0.923198 0.226618 8.690496
-1.002605 0.327641 8.699583
-1.005079 0.330766 8.699921
-1.085787 0.429474 8.718351
-1.088313 0.432476 8.719130
-1.169800 0.528562 8.746017
-1.172338 0.531493 8.746997
-1.254194 0.624843 8.781347
-1.256737 0.627700 8.782515
-1.338662 0.718188 8.823706
-1.341205 0.720969 8.825048
-1.422956 0.808542 8.872458
-0.368039 -0.617380 8.945862
-0.418426 -0.527368 8.891631
-0.425802 -0.514610 8.884665
-0.479463 -0.422976 8.836697
-0.487222 -0.410047 8.830505
-0.544150 -0.317063 8.789413
-0.552288 -0.303995 8.784056
-0.612401 -0.210019 8.750414
-0.620905 -0.196851 8.745947
-0.684037 -0.102315 8.720248
-0.693194 -0.089087 8.717639
-0.759184 0.005444 8.700699
-0.768644 0.018625 8.699131
-0.836996 0.112595 8.690715
-0.846706 0.125675 8.690144
-0.917022 0.218567 8.690237
-0.926940 0.231496 8.690652
-0.998800 0.322837 8.699064
-1.008884 0.335570 8.700440
-1.081903 0.424858 8.717153
-1.092197 0.437092 8.720328
-1.165897 0.524054 8.744509
-1.176241 0.536000 8.748505
-1.250283 0.620450 8.779551
-1.260648 0.632094 8.784312
-1.334753 0.713912 8.821643
-1.345114 0.725245 8.827110
-1.419056 0.804384 8.870150
-0.373870 -0.606909 8.939460
-0.381542 -0.593132 8.931038
-0.389214 -0.579356 8.922616
-0.396885 -0.565580 8.914194
-0.404557 -0.551804 8.905772
-0.412277 -0.538003 8.897439
-0.431951 -0.503975 8.878857
-0.440041 -0.489984 8.871216
-0.448131 -0.475993 8.863576
-0.456221 -0.462002 8.855936
-0.464485 -0.447932 8.848649
-0.472995 -0.433753 8.841859
-0.493691 -0.399269 8.825343
-0.502200 -0.385090 8.818553
-0.510710 -0.370911 8.811762
-0.519518 -0.356622 8.805629
-0.528442 -0.342290 8.799754
-0.537367 -0.327958 8.793879
-0.559072 -0.293101 8.779591
-0.568005 -0.278767 8.773736
-0.577331 -0.264324 8.768837
-0.586658 -0.249882 8.763937
-0.595985 -0.235440 8.759038
-0.605312 -0.220997 8.754139
-0.628118 -0.185853 8.742555
-0.637826 -0.171350 8.738683
-0.647534 -0.156848 8.734810
-0.657242 -0.142345 8.730937
-0.666950 -0.127842 8.727064
-0.676658 -0.113339 8.723192
-0.700840 -0.078059 8.715505
-0.710900 -0.063551 8.712697
-0.720960 -0.049043 8.709889
-0.731020 -0.034534 8.707081
-0.741080 -0.020026 8.704274
-0.751297 -0.005544 8.702006
-0.776531 0.029612 8.697823
-0.786906 0.044068 8.696103
-0.797282 0.058524 8.694383
-0.807658 0.072979 8.692663
-0.818252 0.087346 8.691818
-0.828901 0.101691 8.691191
-0.854800 0.136579 8.689668
-0.865449 0.150924 8.689041
-0.876122 0.165251 8.688525
-0.886999 0.179431 8.688980
-0.897876 0.193610 8.689436
-0.908754 0.207789 8.689891
-0.935208 0.242274 8.690998
-0.946159 0.256366 8.691880
-0.957217 0.270330 8.693389
-0.968276 0.284294 8.694899
-0.979335 0.298258 8.696408
-0.990394 0.312223 8.697917
-1.017386 0.346002 8.702304
-1.028581 0.359709 8.704825
-1.039777 0.373416 8.707347
-1.050972 0.387123 8.709868
-1.062167 0.400830 8.712390
-1.073362 0.414537 8.714912
-1.100778 0.447290 8.722974
-1.112067 0.460707 8.726456
-1.123356 0.474123 8.729938
-1.134645 0.487540 8.733420
-1.145935 0.500956 8.736902
-1.157273 0.514096 8.741177
-1.184865 0.545959 8.751837
-1.196210 0.559061 8.756220
-1.207555 0.572162 8.760603
-1.218905 0.585203 8.765139
-1.230273 0.597973 8.770361
-1.241641 0.610743 8.775582
-1.269290 0.641800 8.788281
-1.280658 0.654570 8.793502
-1.292024 0.667175 8.799099
-1.303388 0.679605 8.805094
-1.314751 0.692034 8.811090
-1.326115 0.704464 8.817086
-1.353752 0.734693 8.831668
-1.365094 0.746852 8.838223
-1.376430 0.758938 8.844930
-1.387767 0.771024 8.851638
-1.399103 0.783111 8.858345
-1.410439 0.795197 8.865052
18 NaN NaN
-0.364327 -0.624046 8.949937
-0.411353 -0.539600 8.898311
-0.460941 -0.453838 8.851477
-0.513102 -0.366925 8.809853
-0.567806 -0.279075 8.773841
-0.624974 -0.190550 8.743810
-0.684478 -0.101656 8.720072
-0.746140 -0.012729 8.702861
-0.809736 0.075875 8.692319
-0.875009 0.163801 8.688479
-0.941681 0.250712 8.691269
-1.009467 0.336306 8.700520
-1.078088 0.420324 8.715976
-1.147287 0.502564 8.737319
-1.216830 0.582873 8.764186
-1.286516 0.661151 8.796193
-1.356174 0.737342 8.832946
-1.425666 0.811430 8.874061
-0.503112 -0.849106 7.405386
-0.552970 -0.671707 7.415106
-0.611590 -0.497138 7.426738
-0.679057 -0.325941 7.440303
-0.755371 -0.158663 7.455804
-0.840641 0.004044 7.473270
-0.934811 0.161532 7.492691
-1.037168 0.313573 7.513915
-1.147314 0.459813 7.536858
-1.264785 0.599977 7.561422
-1.389379 0.733558 7.587565
-0.503629 -0.847177 7.405486
-0.552400 -0.673621 7.414994
-0.553540 -0.669793 7.415218
-0.610912 -0.499014 7.426602
-0.612269 -0.495261 7.426873
-0.678269 -0.327772 7.440143
-0.679845 -0.324110 7.440462
-0.754475 -0.160441 7.455621
-0.756268 -0.156885 7.455987
-0.839691 0.002295 7.473075
-0.841591 0.005793 7.473465
-0.933757 0.159846 7.492473
-0.935864 0.163218 7.492909
-1.036015 0.311956 7.513676
-1.038321 0.315190 7.514155
-1.146068 0.458270 7.536598
-1.148559 0.461356 7.537118
-1.263454 0.598511 7.561143
-1.266117 0.601443 7.561701
-1.388008 0.732130 7.587277
-0.505685 -0.839498 7.405884
-0.550131 -0.681237 7.414549
-0.555809 -0.662177 7.415663
-0.608211 -0.506482 7.426063
-0.614970 -0.487794 7.427412
-0.675133 -0.335060 7.439509
-0.682980 -0.316822 7.441096
-0.750907 -0.167519 7.454892
-0.759835 -0.149807 7.456717
-0.835911 -0.004666 7.472299
-0.845428 0.012721 7.474253
-0.929563 0.153137 7.491606
-0.940058 0.169927 7.493775
-1.031427 0.305523 7.512722
-1.042908 0.321623 7.515108
-1.141111 0.452130 7.535563
-1.153516 0.467496 7.538154
-1.258233 0.592605 7.560049
-1.271415 0.607278 7.562812
-1.382550 0.726451 7.586131
-0.510620 -0.821070 7.406841
-0.517152 -0.796676 7.408108
-0.523684 -0.772282 7.409374
-0.530269 -0.747904 7.410653
-0.537477 -0.723709 7.412067
-0.544685 -0.699514 7.413481
-0.561449 -0.643963 7.416773
-0.569341 -0.619992 7.418336
-0.577233 -0.596021 7.419900
-0.585124 -0.572050 7.421463
-0.593149 -0.548127 7.423055
-0.601729 -0.524404 7.424768
-0.621451 -0.469872 7.428707
-0.630309 -0.446259 7.430481
-0.639580 -0.422809 7.432345
-0.648851 -0.399358 7.434210
-0.658122 -0.375908 7.436074
-0.667607 -0.352551 7.437986
-0.690506 -0.299331 7.442619
-0.700468 -0.276179 7.444635
-0.710786 -0.253193 7.446729
-0.721437 -0.230363 7.448895
-0.732087 -0.207533 7.451062
-0.742737 -0.184703 7.453228
-0.768397 -0.132821 7.458466
-0.779730 -0.110337 7.460782
-0.791063 -0.087853 7.463099
-0.802824 -0.065603 7.465509
-0.814832 -0.043488 7.467973
-0.826840 -0.021373 7.470437
-0.855001 0.029133 7.476225
-0.867673 0.050857 7.478835
-0.880344 0.072581 7.481445
-0.893016 0.094306 7.484055
-0.906176 0.115722 7.486773
-0.919499 0.137035 7.489526
-0.950122 0.186028 7.495855
-0.964053 0.206930 7.498743
-0.978010 0.227815 7.501636
-0.991968 0.248699 7.504529
-1.005925 0.269584 7.507422
-1.020417 0.290082 7.510433
-1.053918 0.337064 7.517397
-1.068537 0.357469 7.520436
-1.083709 0.377448 7.523597
-1.098881 0.397427 7.526758
-1.114052 0.417406 7.529920
-1.129224 0.437385 7.533081
-1.165413 0.482233 7.540638
-1.181161 0.501740 7.543927
-1.197014 0.521156 7.547239
-1.213315 0.540181 7.550650
-1.229617 0.559207 7.554061
-1.245918 0.578232 7.557472
-1.284130 0.621281 7.565477
-1.300961 0.639817 7.569006
-1.317792 0.658354 7.572535
-1.334779 0.676738 7.576098
-1.352116 0.694780 7.579739
-1.369453 0.712822 7.583380
19 NaN NaN
-0.502983 -0.849589 7.405360
-0.529707 -0.749789 7.410542
-0.559197 -0.650804 7.416327
-0.591483 -0.552734 7.422722
-0.626585 -0.455678 7.429732
-0.664514 -0.359739 7.437360
-0.705270 -0.265019 7.445606
-0.748842 -0.171617 7.454470
-0.795207 -0.079631 7.463946
-0.844334 0.010845 7.474028
-0.896176 0.099723 7.484706
-0.950680 0.186921 7.495971
-1.007782 0.272362 7.507807
-1.067408 0.355981 7.520201
-1.129478 0.437719 7.533134
-1.193905 0.517527 7.546588
-1.260596 0.595363 7.560544
-1.329456 0.671199 7.574980
-1.400385 0.745011 7.589876
-0.745679 -1.259794 5.909572
-0.712777 -1.112204 5.948339
-0.688019 -0.963342 5.988252
-0.673974 -0.813465 6.029489
-0.670572 -0.663282 6.071840
-0.679450 -0.513643 6.115222
-0.701436 -0.365595 6.159416
-0.736367 -0.220225 6.204101
-0.785838 -0.079181 6.248959
-0.847400 0.057090 6.293628
-0.923023 0.186318 6.337653
-1.009066 0.309142 6.380864
-1.105973 0.424036 6.422870
-1.211424 0.531645 6.463632
-1.324534 0.631732 6.502995
-0.745233 -1.257908 5.910066
-0.713145 -1.114104 5.947834
-0.712408 -1.110304 5.948843
-0.688304 -0.965253 5.987737
-0.687734 -0.961430 5.988768
-0.674073 -0.815389 6.028952
-0.673875 -0.811541 6.030026
-0.670568 -0.665205 6.071293
-0.670575 -0.661358 6.072387
-0.679223 -0.515548 6.114658
-0.679677 -0.511737 6.115785
-0.701091 -0.367481 6.158847
-0.701782 -0.363710 6.159986
-0.735779 -0.222048 6.203526
-0.736955 -0.218401 6.204675
-0.785130 -0.080961 6.248384
-0.786545 -0.077401 6.249533
-0.846576 0.055360 6.293057
-0.848321 0.058773 6.294195
-0.921981 0.184705 6.337094
-0.924065 0.187931 6.338212
-1.007926 0.307594 6.380314
-1.010206 0.310691 6.381414
-1.104661 0.422621 6.422342
-1.107285 0.425450 6.423399
-1.210039 0.530298 6.463115
-1.212809 0.532992 6.464148
-1.323025 0.630515 6.502503
-0.743683 -1.251339 5.911783
-0.714429 -1.120720 5.946078
-0.711125 -1.103688 5.950599
-0.689298 -0.971908 5.985941
-0.686740 -0.954775 5.990563
-0.674418 -0.822089 6.027081
-0.673530 -0.804841 6.031896
-0.670554 -0.671904 6.069388
-0.670589 -0.654659 6.074292
-0.678433 -0.522184 6.112696
-0.680468 -0.505102 6.117747
-0.699888 -0.374049 6.156865
-0.702984 -0.357142 6.161968
-0.733733 -0.228397 6.201524
-0.739001 -0.212052 6.206677
-0.782665 -0.087161 6.246385
-0.789010 -0.071202 6.251533
-0.843704 0.049336 6.291067
-0.851583 0.064602 6.296166
-0.918352 0.179089 6.335148
-0.927694 0.193548 6.340158
-1.003956 0.302202 6.378398
-1.014176 0.316083 6.383330
-1.100094 0.417696 6.420501
-1.111852 0.430375 6.425240
-1.205216 0.525606 6.461316
-1.217631 0.537684 6.465947
-1.317771 0.626277 6.500791
-0.740104 -1.236181 5.915745
-0.735382 -1.216174 5.920974
-0.730659 -1.196167 5.926204
-0.725936 -1.176160 5.931434
-0.721298 -1.156137 5.936676
-0.717390 -1.135987 5.942025
-0.708164 -1.088421 5.954652
-0.704255 -1.068270 5.960001
-0.700670 -1.048076 5.965394
-0.697644 -1.027806 5.970862
-0.694617 -1.007536 5.976330
-0.691591 -0.987265 5.981799
-0.685045 -0.939363 5.994780
-0.682971 -0.919005 6.000365
-0.680896 -0.898647 6.005950
-0.678822 -0.878289 6.011535
-0.676748 -0.857931 6.017120
-0.675215 -0.837548 6.022765
-0.672733 -0.789382 6.036213
-0.671682 -0.768976 6.041910
-0.670630 -0.748571 6.047608
-0.670443 -0.728168 6.053388
-0.670483 -0.707765 6.059190
-0.670524 -0.687362 6.064992
-0.670681 -0.639205 6.078692
-0.671877 -0.618864 6.084588
-0.673074 -0.598523 6.090484
-0.674270 -0.578182 6.096380
-0.675467 -0.557842 6.102276
-0.676663 -0.537501 6.108172
-0.682292 -0.489790 6.122274
-0.684700 -0.469580 6.128250
-0.687109 -0.449371 6.134226
-0.689788 -0.429206 6.140215
-0.693451 -0.409204 6.146253
-0.697114 -0.389202 6.152290
-0.705759 -0.341989 6.166542
-0.710035 -0.322126 6.172600
-0.714979 -0.302414 6.178679
-0.719922 -0.282702 6.184758
-0.724866 -0.262991 6.190837
-0.729810 -0.243279 6.196916
-0.743723 -0.197402 6.211296
-0.749955 -0.178065 6.217393
-0.756187 -0.158728 6.223490
-0.762419 -0.139390 6.229587
-0.769470 -0.120346 6.235680
-0.776978 -0.101465 6.241770
-0.794698 -0.056897 6.256147
-0.802205 -0.038016 6.262237
-0.810834 -0.019616 6.268299
-0.819581 -0.001266 6.274358
-0.828329 0.017084 6.280418
-0.837076 0.035434 6.286477
-0.859110 0.078052 6.300715
-0.869044 0.095806 6.306720
-0.878979 0.113559 6.312724
-0.888913 0.131313 6.318728
-0.898924 0.149023 6.324728
-0.909978 0.166129 6.330656
-0.936068 0.206508 6.344650
-0.947122 0.223614 6.350578
-0.958518 0.240494 6.356476
-0.970610 0.256916 6.362310
-0.982702 0.273338 6.368144
-0.994794 0.289760 6.373978
-1.023902 0.328106 6.387686
-1.036947 0.343822 6.393411
-1.049993 0.359537 6.399137
-1.063038 0.375253 6.404862
-1.076083 0.390969 6.410588
-1.089556 0.406331 6.416254
-1.122390 0.441740 6.429487
-1.136301 0.456741 6.435092
-1.150211 0.471741 6.440698
-1.164710 0.486204 6.446208
-1.179399 0.500493 6.451687
-1.194087 0.514781 6.457165
-1.228772 0.548497 6.470095
-1.244157 0.562086 6.475442
-1.259542 0.575675 6.480789
-1.274927 0.589264 6.486136
-1.290311 0.602853 6.491483
-1.305696 0.616442 6.496830
22 NaN NaN
-0.745790 -1.260266 5.909449
-0.721708 -1.158251 5.936115
-0.701779 -1.055505 5.963390
-0.686348 -0.952152 5.991271
-0.675772 -0.848352 6.019748
-0.670411 -0.744311 6.048797
-0.670617 -0.640285 6.078379
-0.676718 -0.536577 6.108440
-0.688995 -0.433538 6.138907
-0.707669 -0.331560 6.169690
-0.732874 -0.231063 6.200683
-0.764648 -0.132475 6.231768
-0.802922 -0.036213 6.262819
-0.847520 0.057340 6.293710
-0.898170 0.147856 6.324323
-0.954524 0.235071 6.354549
-1.016177 0.318799 6.384295
-1.082689 0.398926 6.413487
-1.153613 0.475409 6.442069
-1.228507 0.548263 6.470003
-1.306951 0.617550 6.497266
-1.388552 0.683369 6.523849
-1.023941 -1.558445 4.398556
-0.896956 -1.340608 4.503032
-0.790284 -1.113327 4.609948
-0.713048 -0.875519 4.719032
-0.674115 -0.629016 4.828775
-0.688006 -0.378890 4.935807
-0.762321 -0.136410 5.034641
-0.897152 0.084528 5.119261
-1.078792 0.275888 5.187300
-1.292425 0.437101 5.239713
-1.022968 -1.556871 4.399315
-0.897822 -1.342236 4.502258
-0.896091 -1.338979 4.503807
-0.790932 -1.115044 4.609153
-0.789635 -1.111610 4.610743
-0.713499 -0.877294 4.718228
-0.712596 -0.873744 4.719836
-0.674165 -0.630850 4.827978
-0.674065 -0.627182 4.829572
-0.687717 -0.380715 4.935042
-0.688294 -0.377065 4.936573
-0.761488 -0.138103 5.033977
-0.763153 -0.134718 5.035306
-0.896003 0.082994 5.118690
-0.898302 0.086063 5.119831
-1.077303 0.274623 5.186873
-1.080281 0.277153 5.187726
-1.290790 0.436001 5.239370
-1.017591 -1.548171 4.403512
-0.902607 -1.351236 4.497979
-0.891305 -1.329979 4.508086
-0.794772 -1.124440 4.604779
-0.786050 -1.102120 4.615137
-0.715993 -0.887104 4.713784
-0.710102 -0.863933 4.724280
-0.674441 -0.640986 4.823573
-0.673789 -0.617046 4.833977
-0.686123 -0.390802 4.930809
-0.689889 -0.366978 4.940806
-0.756884 -0.147459 5.030304
-0.767757 -0.125362 5.038978
-0.889648 0.074515 5.115538
-0.904656 0.094542 5.122983
-1.069071 0.267630 5.184516
-1.088513 0.284145 5.190083
-1.281753 0.429922 5.237473
-1.003709 -1.525715 4.414347
-0.985242 -1.495840 4.428760
-0.967030 -1.465831 4.443211
-0.949522 -1.435452 4.457765
-0.932014 -1.405072 4.472319
-0.914960 -1.374469 4.486933
-0.878953 -1.306746 4.519132
-0.863451 -1.275416 4.533935
-0.848228 -1.243961 4.548769
-0.833004 -1.212505 4.563603
-0.819047 -1.180527 4.578561
-0.805189 -1.148508 4.593528
-0.776796 -1.077623 4.626479
-0.764485 -1.045034 4.641567
-0.752930 -1.012202 4.656700
-0.742374 -0.979049 4.671890
-0.731817 -0.945897 4.687080
-0.722432 -0.912428 4.702312
-0.703663 -0.838609 4.735752
-0.697208 -0.804468 4.751038
-0.690896 -0.770296 4.766325
-0.684822 -0.736087 4.781609
-0.681047 -0.701526 4.796859
-0.677272 -0.666965 4.812110
-0.673076 -0.590882 4.845348
-0.672128 -0.556075 4.860476
-0.673037 -0.521241 4.875465
-0.675189 -0.486388 4.890362
-0.677340 -0.451534 4.905259
-0.682007 -0.416842 4.919882
-0.694369 -0.340993 4.951679
-0.703309 -0.306868 4.965711
-0.712248 -0.272744 4.979743
-0.722105 -0.238841 4.993605
-0.734532 -0.205559 5.006990
-0.746959 -0.172278 5.020375
-0.779641 -0.101211 5.048459
-0.795451 -0.069083 5.061072
-0.813693 -0.038041 5.073018
-0.832663 -0.007325 5.084764
-0.851632 0.023390 5.096509
-0.873246 0.052626 5.107401
-0.921748 0.115963 5.130862
-0.946068 0.143386 5.140751
-0.970389 0.170809 5.150639
-0.995637 0.197486 5.160131
-1.022099 0.223187 5.169102
-1.048561 0.248888 5.178073
-1.109763 0.302195 5.196168
-1.138032 0.326208 5.204262
-1.167717 0.348704 5.211587
-1.197496 0.371101 5.218860
-1.227394 0.393353 5.226061
-1.258426 0.414229 5.232576
25 NaN NaN
-1.024184 -1.558838 4.398366
-0.971677 -1.473895 4.439348
-0.921896 -1.387515 4.480730
-0.875173 -1.299636 4.522513
-0.831889 -1.210199 4.564691
-0.792488 -1.119162 4.607246
-0.757485 -1.026506 4.650146
-0.727472 -0.932250 4.693333
-0.703119 -0.836469 4.736722
-0.685175 -0.739320 4.780183
-0.674444 -0.641069 4.823536
-0.671748 -0.542123 4.866540
-0.677864 -0.443052 4.908884
-0.693428 -0.344586 4.950202
-0.718837 -0.247593 4.990085
-0.754159 -0.152996 5.028130
-0.799096 -0.061676 5.063980
-0.853016 0.025631 5.097366
-0.915044 0.108404 5.128136
-0.984179 0.186357 5.156246
-1.059405 0.259420 5.181749
-1.139772 0.327686 5.204761
-1.224432 0.391361 5.225440
-1.312661 0.450714 5.243961
-1.403849 0.506046 5.260504
-1.556426 -1.474039 2.926167
-1.477643 -1.418695 2.965862
-1.400138 -1.361870 3.005975
-1.324072 -1.303440 3.046531
-1.249647 -1.243256 3.087559
-1.177106 -1.181149 3.129087
-1.106749 -1.116929 3.171144
-1.038943 -1.050379 3.213756
-0.974152 -0.981258 3.256944
-0.912955 -0.909299 3.300715
-0.856089 -0.834223 3.345055
-0.804488 -0.755751 3.389911
-0.759333 -0.673650 3.435163
-0.722081 -0.587802 3.480585
-0.694458 -0.498326 3.525797
-0.678340 -0.405731 3.570215
-0.675473 -0.311063 3.613039
-0.687034 -0.215923 3.653332
-0.713200 -0.122243 3.690195
-0.752999 -0.031845 3.723001
-0.804614 0.053975 3.751517
-0.866158 0.134417 3.775742
-0.935381 0.209486 3.796109
-1.010457 0.279579 3.813140
-1.090114 0.345110 3.827263
-1.173380 0.406525 3.838861
-1.259515 0.464255 3.848269
-1.554913 -1.472976 2.926930
-1.479156 -1.419758 2.965099
-1.476130 -1.417632 2.966624
-1.401625 -1.362963 3.005204
-1.398651 -1.360777 3.006746
-1.325530 -1.304565 3.045751
-1.322614 -1.302315 3.047311
-1.251071 -1.244417 3.086769
-1.248223 -1.242095 3.088348
-1.178491 -1.182350 3.128287
-1.175721 -1.179949 3.129886
-1.108088 -1.118174 3.170333
-1.105409 -1.115685 3.171954
-1.040229 -1.051672 3.212934
-1.037658 -1.049086 3.214578
-0.975373 -0.982604 3.256110
-0.972931 -0.979911 3.257777
-0.914098 -0.910706 3.299869
-0.911812 -0.907893 3.301560
-0.857137 -0.835696 3.344199
-0.855041 -0.832751 3.345912
-0.805419 -0.757295 3.389045
-0.803558 -0.754207 3.390778
-0.760117 -0.675270 3.434290
-0.758549 -0.672030 3.436035
-0.722684 -0.589498 3.479713
-0.721478 -0.586106 3.481457
-0.694840 -0.500090 3.524937
-0.694076 -0.496561 3.526658
-0.678460 -0.407545 3.569382
-0.678219 -0.403917 3.571048
-0.675303 -0.312894 3.612254
-0.675643 -0.309231 3.613825
-0.686566 -0.217730 3.652614
-0.687502 -0.214116 3.654050
-0.712453 -0.123986 3.689559
-0.713947 -0.120501 3.690831
-0.752012 -0.033496 3.722452
-0.753986 -0.030195 3.723551
-0.803432 0.052430 3.751051
-0.805796 0.055520 3.751982
-0.864976 0.132872 3.775277
-0.867339 0.135962 3.776208
-0.934047 0.208048 3.795720
-0.936715 0.210924 3.796497
-1.009005 0.278242 3.812819
-1.011908 0.280917 3.813462
-1.088572 0.343864 3.826999
-1.091656 0.346356 3.827526
-1.171768 0.405361 3.838648
-1.174992 0.407689 3.839075
-1.257847 0.463164 3.848098
-1.551021 -1.470242 2.928891
-1.483048 -1.422492 2.963138
-1.472267 -1.414865 2.968594
-1.405451 -1.365774 3.003221
-1.394825 -1.357966 3.008728
-1.329281 -1.307460 3.043745
-1.318864 -1.299420 3.049317
-1.254735 -1.247405 3.084739
-1.244559 -1.239107 3.090379
-1.182055 -1.185439 3.126230
-1.172158 -1.176860 3.131943
-1.111534 -1.121375 3.168248
-1.101963 -1.112483 3.174039
-1.043536 -1.054998 3.210820
-1.034351 -1.045760 3.216692
-0.978514 -0.986069 3.253966
-0.969790 -0.976446 3.259922
-0.917039 -0.914324 3.297694
-0.908871 -0.904274 3.303735
-0.859832 -0.839483 3.341994
-0.852346 -0.828963 3.348116
-0.807812 -0.761267 3.386816
-0.801165 -0.750236 3.393006
-0.762134 -0.679437 3.432046
-0.756531 -0.667863 3.438280
-0.724236 -0.593861 3.477470
-0.719926 -0.581744 3.483700
-0.695822 -0.504630 3.522723
-0.693094 -0.492022 3.528872
-0.678771 -0.412212 3.567239
-0.677909 -0.399250 3.573191
-0.674865 -0.317605 3.610233
-0.676080 -0.304520 3.615846
-0.685362 -0.222379 3.650766
-0.688707 -0.209468 3.655897
-0.710531 -0.128469 3.687922
-0.715869 -0.116018 3.692468
-0.749472 -0.037741 3.721039
-0.756526 -0.025950 3.724964
-0.800880 0.048191 3.749643
-0.808836 0.059494 3.753179
-0.861935 0.128898 3.774080
-0.870676 0.139729 3.777256
-0.930615 0.204347 3.794720
-0.940147 0.214624 3.797497
-1.005271 0.274800 3.811992
-1.015642 0.284359 3.814289
-1.084605 0.340659 3.826322
-1.095623 0.349562 3.828204
-1.167620 0.402366 3.838099
-1.179140 0.410684 3.839624
-1.253558 0.460356 3.847660
-1.543059 -1.464649 2.932902
-1.532649 -1.457336 2.938147
-1.522239 -1.450024 2.943392
-1.511830 -1.442711 2.948637
-1.501420 -1.435398 2.953882
-1.491011 -1.428086 2.959127
-1.464440 -1.409115 2.972651
-1.454207 -1.401597 2.977954
-1.443975 -1.394079 2.983256
-1.433743 -1.386560 2.988559
-1.423510 -1.379042 2.993862
-1.413278 -1.371524 2.999165
-1.387105 -1.352097 3.012817
-1.377075 -1.344354 3.018182
-1.367044 -1.336611 3.023547
-1.357014 -1.328868 3.028912
-1.346983 -1.321126 3.034277
-1.336953 -1.313383 3.039642
-1.311223 -1.293464 3.053429
-1.301425 -1.285474 3.058860
-1.291626 -1.277484 3.064291
-1.281827 -1.269495 3.069722
-1.272029 -1.261505 3.075153
-1.262230 -1.253516 3.080585
-1.237064 -1.232996 3.094533
-1.227465 -1.224805 3.100016
-1.217935 -1.216543 3.105518
-1.208404 -1.208282 3.111019
-1.198874 -1.200020 3.116521
-1.189344 -1.191758 3.122022
-1.164868 -1.170540 3.136151
-1.155447 -1.162174 3.141679
-1.146231 -1.153612 3.147255
-1.137015 -1.145049 3.152831
-1.127799 -1.136487 3.158407
-1.118583 -1.127924 3.163983
-1.094914 -1.105934 3.178304
-1.085698 -1.097371 3.183880
-1.076836 -1.088491 3.189531
-1.067991 -1.079595 3.195186
-1.059146 -1.070699 3.200840
-1.050301 -1.061803 3.206495
-1.027585 -1.038955 3.221017
-1.018741 -1.030059 3.226672
-1.010144 -1.020956 3.232372
-1.001742 -1.011690 3.238107
-0.993341 -1.002423 3.243843
-0.984940 -0.993157 3.249578
-0.963364 -0.969358 3.264309
-0.954963 -0.960092 3.270045
-0.946649 -0.950758 3.275794
-0.938784 -0.941081 3.281611
-0.930920 -0.931403 3.287428
-0.923055 -0.921726 3.293245
-0.902856 -0.896872 3.308185
-0.894991 -0.887195 3.314002
-0.887126 -0.877518 3.319819
-0.879766 -0.867492 3.325696
-0.872556 -0.857362 3.331591
-0.865347 -0.847232 3.337486
-0.846831 -0.821215 3.352625
-0.839622 -0.811084 3.358520
-0.832412 -0.800954 3.364415
-0.825508 -0.790639 3.370334
-0.819107 -0.780016 3.376295
-0.812707 -0.769393 3.382256
-0.796270 -0.742110 3.397566
-0.789869 -0.731487 3.403527
-0.783469 -0.720864 3.409488
-0.777069 -0.710241 3.415449
-0.771657 -0.699106 3.421451
-0.766261 -0.687961 3.427454
-0.752404 -0.659339 3.442871
-0.747009 -0.648195 3.448874
-0.741614 -0.637050 3.454877
-0.736218 -0.625906 3.460880
-0.731559 -0.614452 3.466881
-0.727410 -0.602785 3.472881
-0.716752 -0.572820 3.488289
-0.712603 -0.561152 3.494289
-0.708453 -0.549485 3.500289
-0.704304 -0.537817 3.506288
-0.700459 -0.526055 3.512272
-0.697832 -0.513915 3.518194
-0.691084 -0.482736 3.533401
-0.688457 -0.470596 3.539322
-0.685830 -0.458456 3.545243
-0.683203 -0.446316 3.551165
-0.680576 -0.434176 3.557086
-0.679405 -0.421759 3.562854
-0.677274 -0.389702 3.577576
-0.676445 -0.377220 3.583308
-0.675615 -0.364739 3.589040
-0.674785 -0.352257 3.594773
-0.673956 -0.339775 3.600505
-0.673970 -0.327243 3.606099
-0.676975 -0.294883 3.619980
-0.678146 -0.282283 3.625385
-0.679316 -0.269682 3.630790
-0.680486 -0.257082 3.636194
-0.681656 -0.244482 3.641599
-0.682898 -0.231888 3.646988
-0.691170 -0.199958 3.659675
-0.694391 -0.187526 3.664615
-0.697612 -0.175093 3.669555
-0.700833 -0.162661 3.674495
-0.704054 -0.150229 3.679435
-0.707275 -0.137796 3.684376
-0.719800 -0.106847 3.695817
-0.724940 -0.094857 3.700194
-0.730080 -0.082867 3.704572
-0.735220 -0.070877 3.708950
-0.740360 -0.058886 3.713327
-0.745500 -0.046896 3.717705
-0.761722 -0.017265 3.727855
-0.768514 -0.005911 3.731634
-0.775307 0.005444 3.735414
-0.782100 0.016798 3.739193
-0.788892 0.028152 3.742973
-0.795685 0.039506 3.746752
-0.815056 0.067624 3.755627
-0.823188 0.078253 3.758828
-0.831320 0.088881 3.762029
-0.839452 0.099510 3.765230
-0.847583 0.110139 3.768431
-0.855715 0.120768 3.771632
-0.877697 0.147298 3.779301
-0.886876 0.157194 3.781976
-0.896056 0.167090 3.784650
-0.905235 0.176986 3.787325
-0.914414 0.186882 3.790000
-0.923594 0.196778 3.792674
-0.947698 0.221740 3.799240
-0.957685 0.230944 3.801452
-0.967672 0.240148 3.803664
-0.977658 0.249352 3.805876
-0.987645 0.258556 3.808088
-0.997632 0.267760 3.810300
-1.023445 0.291233 3.815876
-1.034054 0.299807 3.817688
-1.044663 0.308380 3.819500
-1.055272 0.316954 3.821312
-1.065881 0.325527 3.823124
-1.076491 0.334101 3.824936
-1.103738 0.356120 3.829590
-1.114767 0.364203 3.831103
-1.125859 0.372212 3.832571
-1.136951 0.380222 3.834040
-1.148044 0.388231 3.835508
-1.159136 0.396240 3.836976
-1.187624 0.416810 3.840747
-1.198897 0.424581 3.842074
-1.210368 0.432089 3.843247
-1.221840 0.439597 3.844419
-1.233312 0.447105 3.845591
-1.244783 0.454613 3.846763
26 NaN NaN
-1.556804 -1.474305 2.925977
-1.473912 -1.416074 2.967742
-1.392431 -1.356208 3.009969
-1.312558 -1.294552 3.052689
-1.234532 -1.230931 3.095936
-1.158645 -1.165145 3.139744
-1.085260 -1.096964 3.184146
-1.014832 -1.026128 3.229171
-0.947938 -0.952344 3.274840
-0.885316 -0.875291 3.321158
-0.827916 -0.794637 3.368091
-0.776962 -0.710064 3.415549
-0.734012 -0.621349 3.463335
-0.700984 -0.528483 3.511088
-0.680078 -0.431873 3.558209
-0.673476 -0.332561 3.603818
-0.682786 -0.232322 3.646816
-0.708410 -0.133417 3.686116
-0.749305 -0.038020 3.720946
-0.803359 0.052335 3.751023
-0.868082 0.136932 3.776500
-0.941152 0.215707 3.797790
-1.020660 0.288982 3.815400
-1.105127 0.357243 3.829827
-1.193447 0.421014 3.841518
-1.284789 0.480797 3.850851
-1.347918 -1.251491 0.816755
-1.235527 -1.178252 0.826643
-1.125599 -1.101480 0.837308
-1.018706 -1.020670 0.848873
-0.915614 -0.935211 0.861483
-0.818153 -0.843609 0.875499
-0.727773 -0.745299 0.891086
-0.646684 -0.639535 0.908472
-0.578300 -0.525515 0.927944
-0.529149 -0.402510 0.949893
-0.505669 -0.272720 0.974139
-0.510209 -0.141305 0.999772
-0.542625 -0.013819 1.025711
-0.599682 0.105070 1.050927
-0.676143 0.212983 1.074760
-0.764758 0.311503 1.097238
-0.862151 0.401728 1.118445
-1.346241 -1.250410 0.816901
-1.237174 -1.179375 0.826488
-1.233879 -1.177129 0.826797
-1.127213 -1.102651 0.837143
-1.123986 -1.100310 0.837473
-1.020278 -1.021894 0.848696
-1.017134 -1.019446 0.849050
-0.917135 -0.936496 0.861292
-0.914093 -0.933927 0.861674
-0.819532 -0.845041 0.875275
-0.816775 -0.842178 0.875724
-0.729049 -0.746819 0.890840
-0.726497 -0.743778 0.891332
-0.647826 -0.641154 0.908202
-0.645542 -0.637916 0.908742
-0.579267 -0.527240 0.927647
-0.577333 -0.523789 0.928242
-0.529597 -0.404427 0.949539
-0.528701 -0.400593 0.950247
-0.505775 -0.274681 0.973763
-0.505563 -0.270759 0.974515
-0.509953 -0.143251 0.999385
-0.510464 -0.139360 1.000159
-0.542032 -0.015690 1.025326
-0.543218 -0.011949 1.026096
-0.598585 0.103436 1.050569
-0.600778 0.106704 1.051286
-0.674880 0.211471 1.074418
-0.677406 0.214496 1.075101
-0.763370 0.310101 1.096913
-0.766147 0.312906 1.097563
-0.860667 0.400423 1.118135
-1.341037 -1.247056 0.817351
-1.242289 -1.182861 0.826008
-1.228765 -1.173642 0.827277
-1.132220 -1.106285 0.836631
-1.118979 -1.096676 0.837986
-1.025156 -1.025695 0.848146
-1.012256 -1.015646 0.849599
-0.921855 -0.940484 0.860700
-0.909439 -0.929865 0.862283
-0.823809 -0.849486 0.874577
-0.812498 -0.837733 0.876421
-0.733009 -0.751539 0.890077
-0.722537 -0.739058 0.892095
-0.651372 -0.646181 0.907364
-0.641996 -0.632889 0.909580
-0.582269 -0.532595 0.926724
-0.574332 -0.518434 0.929164
-0.530987 -0.410377 0.948439
-0.527311 -0.394643 0.951347
-0.506104 -0.280770 0.972596
-0.505234 -0.264670 0.975682
-0.509160 -0.149290 0.998185
-0.511257 -0.133321 1.001359
-0.540192 -0.021498 1.024130
-0.545058 -0.006141 1.027291
-0.595299 0.098298 1.049447
-0.604180 0.111776 1.052398
-0.670960 0.206775 1.073359
-0.681327 0.219192 1.076161
-0.759060 0.305748 1.095905
-0.770457 0.317259 1.098571
-0.856062 0.396372 1.117174
-1.329497 -1.239618 0.818351
-1.314312 -1.229830 0.819666
-1.299126 -1.220042 0.820981
-1.283940 -1.210255 0.822296
-1.268755 -1.200467 0.823611
-1.253629 -1.190591 0.824945
-1.217425 -1.165912 0.828340
-1.202502 -1.155739 0.829740
-1.187579 -1.145567 0.831140
-1.172656 -1.135394 0.832539
-1.157933 -1.124946 0.834000
-1.143323 -1.114343 0.835495
-1.107876 -1.088618 0.839122
-1.093266 -1.078014 0.840617
-1.078675 -1.067386 0.842118
-1.064441 -1.056298 0.843721
-1.050207 -1.045209 0.845324
-1.035973 -1.034121 0.846928
-1.001439 -1.007220 0.850818
-0.987419 -0.995876 0.852479
-0.973645 -0.984239 0.854206
-0.959871 -0.972602 0.855933
-0.946097 -0.960965 0.857661
-0.932322 -0.949328 0.859388
-0.899406 -0.920548 0.863704
-0.886204 -0.908288 0.865573
-0.873001 -0.896027 0.867443
-0.859798 -0.883767 0.869313
-0.846595 -0.871506 0.871183
-0.833392 -0.859246 0.873053
-0.803013 -0.827877 0.877968
-0.790531 -0.814908 0.880002
-0.778050 -0.801938 0.882037
-0.765569 -0.788969 0.884072
-0.753344 -0.775777 0.886160
-0.741789 -0.762005 0.888386
-0.713757 -0.728593 0.893786
-0.702202 -0.714821 0.896012
-0.690647 -0.701049 0.898238
-0.679928 -0.686659 0.900615
-0.669581 -0.671992 0.903061
-0.659235 -0.657326 0.905506
-0.634134 -0.621744 0.911439
-0.623955 -0.606976 0.913910
-0.615197 -0.591350 0.916602
-0.606439 -0.575723 0.919294
-0.597681 -0.560097 0.921986
-0.588924 -0.544470 0.924679
-0.568758 -0.506065 0.931347
-0.562077 -0.489489 0.934303
-0.555395 -0.472913 0.937258
-0.548713 -0.456338 0.940214
-0.542031 -0.439762 0.943169
-0.535350 -0.423186 0.946125
-0.524229 -0.381451 0.953785
-0.520174 -0.364090 0.956993
-0.516118 -0.346729 0.960201
-0.512062 -0.329369 0.963409
-0.508007 -0.312008 0.966617
-0.506833 -0.294270 0.970008
-0.504504 -0.251170 0.978269
-0.503544 -0.233404 0.981674
-0.502584 -0.215638 0.985079
-0.502774 -0.197923 0.988519
-0.505088 -0.180302 0.992021
-0.507402 -0.162681 0.995523
-0.513016 -0.119930 1.004020
-0.515330 -0.102308 1.007523
-0.520002 -0.085209 1.011014
-0.525372 -0.068264 1.014503
-0.530741 -0.051319 1.017991
-0.536111 -0.034374 1.021479
-0.549627 0.006542 1.029923
-0.557556 0.022472 1.033313
-0.565486 0.038402 1.036703
-0.573415 0.054332 1.040092
-0.581344 0.070262 1.043482
-0.589274 0.086192 1.046872
-0.611725 0.123022 1.054866
-0.621652 0.137822 1.058113
-0.631580 0.152621 1.061360
-0.641508 0.167421 1.064607
-0.651436 0.182220 1.067855
-0.662267 0.196363 1.071009
-0.690020 0.229603 1.078511
-0.701459 0.243304 1.081603
-0.712898 0.257005 1.084695
-0.724351 0.270694 1.087785
-0.736927 0.283395 1.090727
-0.749503 0.296096 1.093669
-0.780014 0.326910 1.100807
-0.792590 0.339612 1.103749
-0.805533 0.351937 1.106632
-0.818972 0.363755 1.109436
-0.832411 0.375573 1.112240
-0.845849 0.387392 1.115044
22 NaN NaN
-1.348337 -1.251761 0.816719
-1.257016 -1.192900 0.824627
-1.167275 -1.131726 0.833044
-1.079414 -1.067962 0.842034
-0.993818 -1.001282 0.851676
-0.910989 -0.931304 0.862063
-0.831598 -0.857580 0.873307
-0.756549 -0.779596 0.885543
-0.687077 -0.696794 0.898925
-0.624878 -0.608624 0.913626
-0.572239 -0.514701 0.929807
-0.532090 -0.415098 0.947567
-0.507727 -0.310811 0.966838
-0.501961 -0.204117 0.987288
-0.515858 -0.098288 1.008322
-0.548114 0.003502 1.029276
-0.595760 0.099225 1.049645
-0.655432 0.188177 1.069162
-0.724201 0.270543 1.087750
-0.799813 0.346907 1.105439
-0.880619 0.417968 1.122298
-0.965427 0.484395 1.138413
