-22.279758 91.873049 -115.690317 0.164892
-24.715360 131.216393 -219.623477 0.164632
-94.406836 227.841276 -491.854189 0.163855
-248.548594 410.236104 -984.842922 0.161301
-158.050174 320.325370 -692.650323 0.163067
-154.946723 406.445143 -1204.467331 0.161922
-256.100599 410.652570 -930.283208 0.161227
-77.935990 172.942302 -395.575981 0.164293
-132.933640 207.050267 -585.376756 0.163999
-207.996141 230.507787 -1036.847259 0.163713
-261.925139 259.364426 -983.730024 0.163418
-139.825818 218.404696 -535.455322 0.163872
-195.986990 272.123009 -661.920548 0.163386
-245.012548 314.520750 -775.101842 0.162831
-302.817082 337.757516 -868.698776 0.162058
-266.915377 376.151341 -877.162618 0.161697
-109.779604 157.688434 -346.156488 0.164328
-269.345659 274.576584 -734.685158 0.163246
-379.625237 280.743166 -775.364248 0.162270
14.674549 37.368987 -318.191177 0.165600
62.843149 42.456099 -429.874230 0.165709
96.284570 44.340526 -472.789584 0.165771
120.876904 21.053475 -564.515258 0.166048
234.180293 -39.314887 -948.721830 0.166727
162.156877 -11.512946 -811.562153 0.166413
204.965307 -28.092479 -1071.152901 0.166521
164.634981 -110.174399 -1358.991638 0.166985
112.849728 34.399955 -580.683710 0.165917
447.929830 70.675894 -1295.179462 0.165685
145.145180 88.903871 -992.896297 0.165445
112.695301 75.230801 -598.208171 0.165556
160.311004 121.050397 -821.447475 0.165237
196.292285 140.952457 -964.820428 0.165081
212.209743 124.621422 -1112.641809 0.165170
240.613909 154.079150 -1206.676696 0.164900
171.602327 165.407599 -990.191508 0.164834
-26.886967 173.107379 -1489.534905 0.164149
62.973721 330.173315 -1526.223140 0.163021
157.582748 119.754019 -785.299016 0.165248
383.270467 62.229508 -1207.483341 0.165800
190.898609 151.783836 -867.669429 0.165009
209.316861 173.353468 -942.173490 0.164833
227.358644 306.758041 -1080.298691 0.163737
15.866145 40.207006 -429.597616 0.165636
-40.833353 33.566061 -592.206158 0.165638
-104.159086 22.831343 -926.654076 0.165608
-123.863890 40.005254 -870.612939 0.165438
-3.848423 43.270593 -462.954215 0.165584
24.127505 50.114595 -567.757663 0.165612
53.886585 82.976735 -1181.295910 0.165262
-2.233827 69.133913 -796.440618 0.165419
69.285843 245.579095 -1080.359890 0.164002
-98.052843 -322.647096 -173.498077 0.168561
-75.215890 -526.597965 -446.485870 0.170873
-137.985405 -424.206248 -337.586433 0.169495
-180.042137 -484.637159 -463.529353 0.169929
-206.459928 -633.793667 -667.332417 0.171632
-203.397278 -521.081799 -520.570265 0.170170
-225.302422 -568.923934 -579.198291 0.170607
-249.174592 -605.222884 -627.643378 0.171109
-257.276664 -645.603367 -698.798715 0.171705
-287.910621 -780.571627 -901.561150 0.173754
-171.922676 -779.414469 -1007.301045 0.173980
-287.571803 -747.200702 -805.787242 0.173246
-237.578829 -635.795638 -672.812513 0.171597
-223.393371 -561.709108 -600.667843 0.170502
-228.734263 -594.803282 -687.400424 0.170976
-233.697162 -589.310748 -680.119956 0.170886
-138.629187 -588.874565 -570.825390 0.171194
-149.858013 -778.582569 -795.707616 0.174193
-155.586775 -802.484797 -853.419709 0.174566
62.417029 264.544206 243.781824 0.163191
298.469445 645.207352 845.791093 0.156243
210.518676 440.578732 585.029402 0.160229
-23.797918 169.407179 0.317731 0.164100
-46.785270 316.058176 -232.637762 0.163041
-52.333323 475.513256 -433.920085 0.160545
-65.983164 510.832285 -517.622493 0.159921
-82.012383 543.812119 -599.067527 0.159342
-72.227101 557.522446 -633.905600 0.159151
-136.074114 554.336778 -589.149241 0.159002
-160.877504 654.533459 -660.104348 0.157372
-69.034233 198.592122 -88.438926 0.163848
-163.116794 335.123024 -296.789341 0.162623
-176.700683 464.420466 -479.105273 0.160307
-238.568116 583.100017 -691.371961 0.158319
-220.377175 509.124974 -577.993019 0.159454
-181.312779 464.559676 -493.180388 0.160298
-200.813486 236.349279 -248.095588 0.163409
-412.953206 412.645349 -693.591590 0.160141
-418.955448 304.878529 -577.825974 0.161459
157.044219 330.211767 -146.700626 0.163237
256.194652 453.944126 -322.798844 0.161022
335.399381 544.211224 -477.892093 0.159427
622.528065 724.968090 -937.508401 0.156404
396.742262 623.632590 -608.955577 0.158129
329.824727 713.788743 -623.611148 0.156838
365.737354 677.429049 -694.127673 0.157388
-108.231988 78.353254 -111.067755 0.164813
-158.612112 153.004779 -280.874832 0.164218
-191.113621 252.910470 -502.342366 0.163484
-208.018954 356.522469 -705.038264 0.162339
-242.699842 334.386007 -679.521127 0.162456
-205.967166 410.757894 -714.127434 0.161371
-157.514038 91.666400 -195.873832 0.164668
-201.967581 83.461782 -277.757664 0.164713
-268.543972 50.815992 -411.520222 0.164939
-336.406081 11.202018 -581.151983 0.165205
-417.778810 0.364006 -796.387981 0.165180
-231.212358 75.217452 -621.923891 0.164915
-213.199215 104.284080 -291.942130 0.164529
-243.854018 130.497534 -405.385653 0.164333
-239.389481 154.789702 -489.163576 0.164191
-319.571600 185.665307 -813.435877 0.163920
-260.027289 161.640312 -536.488310 0.164122
-344.324259 179.956477 -688.701406 0.163855
-326.552117 171.385008 -625.033686 0.163978
-270.005935 223.958363 -573.918136 0.163621
-375.805300 324.662818 -766.613330 0.161677
-451.733681 461.974340 -1005.726811 0.159517
-245.245552 148.810087 -414.512071 0.164186
-222.738082 204.128081 -574.171198 0.163862
-411.659247 268.250678 -750.338441 0.162176
266.969736 -13.365920 -143.574139 0.166428
390.588404 -24.955615 -357.268962 0.166792
521.347274 -35.765367 -528.484168 0.166997
567.117677 -55.877129 -584.686764 0.167198
595.280734 -117.185423 -697.387519 0.167792
598.969999 -143.493047 -759.932472 0.168043
795.468206 -204.166004 -1354.352370 0.168086
630.358655 -164.227611 -1041.211882 0.168093
674.730844 -133.676319 -1210.505422 0.167621
676.477819 -125.923174 -1213.611588 0.167540
572.529810 -55.239884 -604.226098 0.167190
507.895227 -18.266282 -534.528270 0.166826
686.300644 -4.472845 -972.056944 0.166540
524.526542 -9.935792 -624.169227 0.166749
724.601414 57.462141 -1080.341436 0.165874
754.533387 14.548927 -1085.227890 0.166230
407.102229 2.609812 -361.081055 0.166545
751.568864 61.766600 -864.846208 0.165915
736.187833 116.223642 -875.028494 0.165451
106.441536 -35.253443 78.559981 0.166145
191.952234 -98.303674 262.091737 0.166741
295.638690 -154.810884 463.971971 0.167275
309.686373 -163.428691 538.295834 0.167289
415.650776 -183.185827 828.214292 0.167224
431.683635 -157.510413 696.459324 0.167184
326.983833 -170.760826 543.627238 0.167392
323.121108 -187.700077 583.381761 0.167507
364.872921 -245.151716 881.158390 0.167722
444.116112 -211.112047 798.721497 0.167614
570.101348 -204.562306 1029.805825 0.167259
600.567668 -215.595645 1182.235055 0.167099
346.217547 -181.000010 577.722004 0.167486
337.586867 -190.519022 624.535070 0.167504
320.336419 -219.520561 754.460193 0.167577
425.731466 -349.929936 1209.547329 0.168365
362.912908 -267.788568 949.060185 0.167844
354.484458 -451.302072 1071.554079 0.169746
359.778298 -201.477888 616.029530 0.167673
369.266494 -248.877483 725.292450 0.168040
418.529499 -264.435387 717.346079 0.168304
555.225158 -408.225714 976.302801 0.169709
680.402827 -601.090072 1353.081235 0.171404
643.811594 -555.305690 1200.585556 0.171166
537.061112 -438.778006 988.747876 0.170047
320.695358 -180.794658 508.658081 0.167536
409.798755 -223.664400 665.829213 0.167918
393.847374 -214.506635 655.645949 0.167809
168.452825 -60.540053 221.931632 0.166367
219.971845 -102.811972 369.960127 0.166713
253.700866 -209.400869 542.810270 0.167649
365.337418 -393.814675 854.697610 0.169490
291.226280 -289.759829 701.624738 0.168379
261.503514 -145.881799 484.882716 0.167086
331.357737 -147.770193 587.356879 0.167095
366.788976 -178.035058 653.691664 0.167375
567.215265 -311.340832 1132.467084 0.168254
479.239523 -326.527427 905.594094 0.168784
427.052532 -131.654325 767.508773 0.166795
515.812686 -192.694135 835.223989 0.167432
204.826924 -87.776232 451.742172 0.166423
186.247360 -127.226833 682.775694 0.166429
177.421527 -167.716246 849.967318 0.166532
172.142789 -154.823018 874.951028 0.166342
169.051210 -147.349579 1105.711639 0.165821
122.971565 5.020671 118.395410 0.165762
187.149123 62.630084 238.138902 0.165228
297.222825 101.221230 372.538242 0.164908
548.109125 77.321293 647.586694 0.165039
372.824118 130.370068 466.025869 0.164643
613.253779 329.440381 968.905562 0.160917
394.356683 156.682066 520.593835 0.164369
284.286236 180.541259 426.022871 0.164119
327.269883 299.829953 589.713832 0.162887
337.708172 358.704757 655.599298 0.161592
331.205106 481.144623 828.790972 0.159019
426.082572 491.695357 828.511059 0.158734
351.340477 340.576267 655.713826 0.161921
388.708006 363.549819 706.691054 0.161321
412.896270 404.817551 823.454694 0.160309
409.489393 384.246052 743.415224 0.160829
435.093932 426.864826 819.328799 0.159872
574.128376 550.140715 1048.623119 0.157124
479.649844 463.849604 918.717621 0.158968
337.704960 280.750859 599.518616 0.163126
227.923313 122.380043 428.042016 0.164525
345.737039 240.933414 732.965799 0.163270
388.957243 305.769971 861.063118 0.162191
572.348525 465.844402 1242.773149 0.158158
431.483999 287.407794 1018.383367 0.162166
88.627372 -386.734165 -349.355321 0.169994
142.105867 -533.230294 -597.239844 0.171929
173.867180 -615.320388 -733.429656 0.173078
118.746275 -789.720919 -957.184529 0.175275
144.463185 -716.515266 -907.732264 0.174296
217.245366 -763.449548 -1071.196220 0.175067
149.005351 -644.561421 -917.488170 0.173266
-258.221252 -73.259735 -224.883386 0.165848
-462.216971 -87.065270 -501.396679 0.165522
-651.976199 -126.175416 -805.114551 0.164740
-550.125979 -43.563331 -675.809954 0.164567
-479.460945 -92.465845 -514.021105 0.165431
-76.531071 -58.313917 -36.294977 0.166027
-193.587380 -201.382858 -254.902347 0.167168
-296.437637 -329.239090 -443.775862 0.168053
-365.211948 -368.584243 -539.636726 0.168168
-532.490942 -449.763009 -1034.985819 0.168422
-584.419349 -491.648056 -876.906675 0.168751
-322.288932 -385.043811 -518.522880 0.168457
-332.637394 -430.633287 -581.956483 0.168809
-338.378268 -486.495748 -663.651133 0.169337
-402.756821 -629.881458 -876.965174 0.171079
-370.935768 -605.875599 -847.092975 0.170822
-301.755601 -631.786043 -826.263856 0.171361
-462.321117 -573.887179 -856.643936 0.170171
-284.537096 -323.626072 -433.392981 0.168043
-307.271564 -337.042112 -477.441339 0.168096
-347.493515 -337.297199 -585.220892 0.167993
-350.689720 -354.755576 -547.983967 0.168112
-459.409204 -439.020338 -723.635260 0.168584
-491.439995 -425.148529 -793.555202 0.168351
-292.194747 -354.247952 -482.284674 0.168299
-284.929864 -381.648228 -539.028077 0.168581
-272.097524 -474.950295 -666.934690 0.169455
-266.483141 -448.618352 -658.731887 0.169251
-253.775096 -548.193714 -805.661414 0.170205
-225.926248 -513.950950 -797.055983 0.170002
-372.456575 -476.040706 -772.092141 0.169167
-101.596703 -79.757672 -103.251428 0.166218
-167.392031 -192.733780 -286.715252 0.167195
-231.737917 -314.151133 -462.070600 0.168164
-234.248800 -341.474342 -494.447236 0.168411
-203.495186 -394.072880 -566.511653 0.169021
-220.302389 -654.110915 -891.405330 0.171845
-197.845129 -501.366137 -753.396292 0.170027
-172.093936 -681.472816 -1044.985095 0.172277
-195.816752 -596.448046 -937.921878 0.170946
-218.480609 -366.635999 -563.188540 0.168716
-310.945850 -568.449269 -914.457925 0.170372
-334.922883 -504.900100 -808.420046 0.169544
-280.786925 -343.020245 -577.671309 0.168278
-351.459942 -372.957764 -715.303060 0.168298
-394.155187 -415.737605 -816.330975 0.168491
-230.150771 -381.924356 -593.620474 0.168813
-274.597519 -86.693186 -505.547509 0.166107
-396.609625 -87.844571 -910.329495 0.165895
-473.835630 -71.824155 -960.057986 0.165472
315.565674 -75.290689 332.904949 0.166661
364.196806 -208.348314 971.888598 0.167150
612.053238 -338.972364 1116.810125 0.168638
29.556944 -42.301901 225.839248 0.165863
38.626624 -47.155758 313.541999 0.165821
44.011565 -42.573088 419.084859 0.165648
69.816735 -29.825198 569.548035 0.165376
100.841152 8.693591 760.143234 0.164789
112.495594 172.178886 1203.571784 0.162550
132.617758 152.466246 1348.125681 0.162482
130.489018 -18.905341 710.138111 0.165202
140.809225 8.784683 860.725000 0.164710
172.293849 -24.186921 804.955535 0.165191
236.434217 -25.927778 982.019361 0.165036
472.660676 101.076057 1429.102623 0.163371
395.302198 -53.259855 1348.761294 0.164859
202.238418 -59.251614 912.441824 0.165407
57.095261 -39.352633 615.787697 0.165360
86.779688 -18.153343 799.253838 0.164936
72.979411 43.754779 1018.081495 0.163934
87.110862 8.716213 1015.543197 0.164294
146.310559 -108.904115 1449.349042 0.164650
60.046154 -54.513607 404.448587 0.165822
36.525862 -102.321645 541.859156 0.166014
-9.959416 -150.791332 673.223709 0.166125
-56.093504 -197.597729 858.602190 0.166085
-284.856885 -188.514453 1227.392667 0.164413
9.443445 -187.275636 739.562141 0.166422
70.253076 -73.492435 475.912440 0.165928
182.321339 -196.831883 1203.243021 0.166152
78.785961 -105.060044 585.566810 0.166091
55.643228 -160.323034 813.868882 0.166174
38.566247 -207.010574 1224.003263 0.165763
67.954824 -237.536682 1316.878171 0.165954
84.528746 -215.022270 796.517728 0.166839
-17.928412 -82.225823 501.617133 0.165726
-97.325156 -121.033801 840.872189 0.165265
-98.487763 -187.769944 870.273061 0.165820
6.932448 49.861861 142.245164 0.165064
63.887013 158.723673 341.022724 0.163977
85.854561 331.890060 589.730133 0.162179
102.923523 475.042509 795.811965 0.159061
174.053850 633.033372 1067.052437 0.155960
303.082953 493.754750 951.472845 0.158608
10.790946 65.841519 202.535066 0.164858
-23.347786 95.145580 347.541742 0.164321
-17.948039 178.381487 666.082916 0.163124
-74.260966 133.238610 524.622295 0.163595
-108.734238 194.409648 771.783869 0.162579
-128.312300 260.083835 1027.240602 0.161533
-138.467885 321.172893 1127.653930 0.160292
-179.216645 338.424508 1242.979018 0.159329
-145.735078 206.823823 1109.244773 0.161790
-112.647060 141.764847 624.156243 0.163266
-164.253366 153.188308 729.489364 0.162861
-327.652197 294.471422 1146.881615 0.158898
-202.090272 164.934657 834.568113 0.162476
-220.380901 206.870546 1007.466384 0.161775
-334.239163 127.702825 1292.769285 0.161112
-313.545159 137.005915 950.051728 0.161995
48.813468 74.498931 335.551761 0.164699
403.062792 271.171034 1286.557470 0.162035
145.696622 40.260354 774.065760 0.164577
165.537513 -38.289532 1176.221586 0.164618
170.522559 -28.716589 1108.983761 0.164672
155.952736 -92.780948 1305.578081 0.164841
289.009494 -217.830306 1620.905302 0.165658
-58.634075 78.100883 258.758258 0.164507
-120.223185 128.788255 464.232123 0.163612
-155.773085 158.733016 604.701569 0.163040
-200.831043 194.833499 754.000697 0.162371
-236.799493 224.863204 838.528694 0.161728
-287.042686 321.679795 1009.273687 0.159128
-400.248065 343.140022 1157.274085 0.157522
-233.641236 213.687279 888.920943 0.161842
-258.771018 228.842311 1021.616926 0.160977
-264.695024 206.146463 1078.697006 0.161153
-273.584907 163.816543 877.198060 0.162221
-326.796640 268.934360 879.111446 0.159904
-208.868640 111.126477 551.513186 0.163391
-451.652506 134.665933 845.295897 0.160699
-440.130670 89.516067 885.331824 0.161355
