-2.401373 -1.365598 10.234835
-1.912436 -1.377143 11.320383
-1.477609 -1.366206 12.428423
-1.159186 -1.317856 13.573725
-1.014545 -1.219235 14.750339
-0.952884 -1.084606 15.931730
-0.858067 -0.948950 17.110799
-0.805896 -0.872177 18.297269
-0.825400 -0.859389 19.487627
-0.844525 -0.846266 20.678040
-0.848508 -0.819869 21.868409
-0.854456 -0.795192 23.058803
-2.400539 -1.365628 10.236653
-1.913230 -1.377137 11.318548
-1.911642 -1.377148 11.322219
-1.478262 -1.366251 12.426533
-1.476956 -1.366161 12.430312
-1.159579 -1.317978 13.571768
-1.158792 -1.317733 13.575682
-1.014666 -1.219441 14.748353
-1.014425 -1.219030 14.752325
-0.953011 -1.084847 15.929749
-0.952758 -1.084365 15.933711
-0.858223 -0.949148 17.108814
-0.857911 -0.948752 17.112783
-0.805905 -0.872235 18.295270
-0.805887 -0.872119 18.299268
-0.825351 -0.859396 19.485627
-0.825450 -0.859383 19.489626
-0.844511 -0.846305 20.676041
-0.844539 -0.846228 20.680040
-0.848505 -0.819916 21.866410
-0.848511 -0.819821 21.870409
-0.854435 -0.795224 23.056803
-2.389972 -1.366005 10.259652
-1.923283 -1.377069 11.295316
-1.901614 -1.377207 11.345461
-1.486526 -1.366820 12.402613
-1.468691 -1.365592 12.454232
-1.164560 -1.319530 13.546998
-1.153811 -1.316181 13.600452
-1.016262 -1.222010 14.723221
-1.012904 -1.216429 14.777458
-0.954608 -1.087892 15.904670
-0.951053 -1.081311 15.958782
-0.860200 -0.951653 17.083703
-0.855935 -0.946247 17.137894
-0.806017 -0.872968 18.269967
-0.805776 -0.871386 18.324570
-0.824719 -0.859477 19.460322
-0.826082 -0.859301 19.514931
-0.844314 -0.846767 20.650732
-0.844714 -0.845747 20.705348
-0.848462 -0.820514 21.841104
-0.848556 -0.819225 21.895715
-0.854170 -0.795628 23.031494
-2.342177 -1.367684 10.363702
-2.266551 -1.370151 10.528571
-2.191204 -1.372339 10.693571
-2.116374 -1.374176 10.858811
-2.042235 -1.375634 11.024365
-1.968978 -1.376664 11.190314
-1.856668 -1.377299 11.450787
-1.786566 -1.377011 11.618096
-1.718151 -1.376085 11.786100
-1.651543 -1.374505 11.954823
-1.586948 -1.372219 12.124318
-1.524581 -1.369176 12.294633
-1.432134 -1.362751 12.562717
-1.376734 -1.357455 12.735370
-1.324420 -1.351203 12.908949
-1.275439 -1.343939 13.083457
-1.230045 -1.335608 13.258886
-1.188550 -1.326139 13.435221
-1.132346 -1.308862 13.712696
-1.102247 -1.296188 13.891127
-1.076824 -1.282228 14.070187
-1.055683 -1.267054 14.249708
-1.038273 -1.250755 14.429534
-1.024030 -1.233409 14.609541
-1.006302 -1.204531 14.891161
-0.996953 -1.185082 15.071276
-0.988429 -1.164982 15.251360
-0.980124 -1.144312 15.431390
-0.971376 -1.123157 15.611342
-0.961580 -1.101630 15.791196
-0.943084 -1.067484 16.072179
-0.929427 -1.045630 16.251742
-0.914795 -1.024038 16.431260
-0.899614 -1.002967 16.610794
-0.884325 -0.982633 16.790404
-0.869325 -0.963263 16.970144
-0.847433 -0.935478 17.251584
-0.835085 -0.919692 17.431875
-0.824588 -0.905794 17.612438
-0.816299 -0.893955 17.793260
-0.810498 -0.884322 17.974310
-0.807053 -0.876751 18.155520
-0.805763 -0.868500 18.439049
-0.807068 -0.865090 18.620414
-0.809620 -0.862774 18.801783
-0.813124 -0.861292 18.983146
-0.817286 -0.860388 19.164499
-0.821816 -0.859806 19.345844
-0.828872 -0.858873 19.629412
-0.832908 -0.857858 19.810767
-0.836343 -0.856316 19.992130
-0.839197 -0.854265 20.173499
-0.841511 -0.851739 20.354870
-0.843354 -0.848801 20.536239
-0.845459 -0.843525 20.819839
-0.846397 -0.839793 21.001201
-0.847088 -0.835845 21.182560
-0.847586 -0.831728 21.363915
-0.847959 -0.827502 21.545269
-0.848271 -0.823221 21.726621
-0.848775 -0.816542 22.010198
-0.849199 -0.812360 22.191553
-0.849781 -0.808317 22.372910
-0.850583 -0.804466 22.554270
-0.851661 -0.800857 22.735634
-0.853072 -0.797540 22.917001
137 NaN NaN
-2.401582 -1.365591 10.234381
-2.359413 -1.367096 10.326171
-2.317256 -1.368533 10.417966
-2.275146 -1.369891 10.509785
-2.233119 -1.371163 10.601644
-2.191210 -1.372339 10.693557
-2.149454 -1.373412 10.785541
-2.107886 -1.374373 10.877611
-2.066538 -1.375213 10.969783
-2.025447 -1.375924 11.062069
-1.984646 -1.376498 11.154485
-1.944169 -1.376926 11.247045
-1.904052 -1.377200 11.339761
-1.864327 -1.377311 11.432646
-1.825032 -1.377250 11.525714
-1.786200 -1.377009 11.618976
-1.747868 -1.376579 11.712444
-1.710071 -1.375951 11.806129
-1.672847 -1.375116 11.900041
-1.636233 -1.374065 11.994190
-1.600267 -1.372789 12.088585
-1.564987 -1.371278 12.183236
-1.530432 -1.369524 12.278150
-1.496643 -1.367516 12.373334
-1.463659 -1.365246 12.468795
-1.431524 -1.362702 12.564537
-1.400277 -1.359877 12.660565
-1.369964 -1.356759 12.756882
-1.340626 -1.353339 12.853491
-1.312309 -1.349607 12.950393
-1.285058 -1.345553 13.047587
-1.258918 -1.341167 13.145071
-1.233936 -1.336439 13.242842
-1.210158 -1.331359 13.340896
-1.187632 -1.325918 13.439225
-1.166406 -1.320105 13.537821
-1.146526 -1.313912 13.636675
-1.128042 -1.307329 13.735774
-1.111000 -1.300346 13.835104
-1.095447 -1.292957 13.934649
-1.081374 -1.285161 14.034382
-1.068681 -1.276978 14.134270
-1.057263 -1.268426 14.234281
-1.047009 -1.259524 14.334387
-1.037811 -1.250291 14.434566
-1.029558 -1.240744 14.534799
-1.022142 -1.230903 14.635068
-1.015452 -1.220785 14.735360
-1.009380 -1.210407 14.835666
-1.003816 -1.199786 14.935975
-0.998653 -1.188939 15.036282
-0.993781 -1.177883 15.136581
-0.989095 -1.166633 15.236867
-0.984485 -1.155206 15.337137
-0.979846 -1.143619 15.437386
-0.975070 -1.131886 15.537613
-0.970049 -1.120023 15.637812
-0.964678 -1.108047 15.737979
-0.958849 -1.095973 15.838109
-0.952472 -1.083821 15.938196
-0.945576 -1.071624 16.038244
-0.938232 -1.059424 16.138259
-0.930510 -1.047261 16.238250
-0.922483 -1.035175 16.338226
-0.914222 -1.023207 16.438198
-0.905798 -1.011399 16.538175
-0.897284 -0.999789 16.638168
-0.888750 -0.988420 16.738186
-0.880270 -0.977332 16.838241
-0.871915 -0.966566 16.938341
-0.863758 -0.956163 17.038496
-0.855870 -0.946165 17.138714
-0.848326 -0.936614 17.239002
-0.841198 -0.927551 17.339365
-0.834560 -0.919018 17.439809
-0.828485 -0.911058 17.540335
-0.823047 -0.903712 17.640944
-0.818320 -0.897024 17.741635
-0.814375 -0.891034 17.842403
-0.811233 -0.885747 17.943239
-0.808847 -0.881121 18.044128
-0.807161 -0.877108 18.145058
-0.806122 -0.873662 18.246017
-0.805677 -0.870736 18.346997
-0.805771 -0.868283 18.447991
-0.806352 -0.866256 18.548993
-0.807365 -0.864608 18.649998
-0.808756 -0.863292 18.751004
-0.810474 -0.862262 18.852007
-0.812464 -0.861471 18.953008
-0.814675 -0.860873 19.054006
-0.817052 -0.860421 19.155001
-0.819544 -0.860070 19.255993
-0.822097 -0.859773 19.356984
-0.824661 -0.859485 19.457975
-0.827181 -0.859159 19.558967
-0.829605 -0.858748 19.659961
-0.831881 -0.858208 19.760958
-0.833964 -0.857499 19.861957
-0.835852 -0.856618 19.962960
-0.837554 -0.855574 20.063964
-0.839082 -0.854378 20.164969
-0.840446 -0.853037 20.265975
-0.841656 -0.851562 20.366980
-0.842723 -0.849961 20.467986
-0.843657 -0.848244 20.568991
-0.844469 -0.846420 20.669995
-0.845169 -0.844497 20.770998
-0.845768 -0.842487 20.872000
-0.846277 -0.840397 20.973001
-0.846706 -0.838236 21.074000
-0.847066 -0.836015 21.174999
-0.847366 -0.833743 21.275997
-0.847619 -0.831429 21.376994
-0.847834 -0.829081 21.477990
-0.848022 -0.826710 21.578986
-0.848194 -0.824325 21.679981
-0.848360 -0.821934 21.780977
-0.848531 -0.819548 21.881972
-0.848717 -0.817176 21.982968
-0.848930 -0.814826 22.083964
-0.849179 -0.812509 22.184961
-0.849476 -0.810233 22.285959
-0.849831 -0.808007 22.386957
-0.850254 -0.805842 22.487957
-0.850756 -0.803746 22.588958
-0.851348 -0.801729 22.689960
-0.852040 -0.799800 22.790963
-0.852843 -0.797968 22.891967
-0.853767 -0.796242 22.992971
-0.854823 -0.794632 23.093977
-0.856022 -0.793146 23.194983
-0.857373 -0.791795 23.295988
-0.858888 -0.790587 23.396993
-0.860577 -0.789532 23.497998
-0.862450 -0.788638 23.599000
-0.864518 -0.787915 23.700000
-2.401199 -1.365598 10.234060
-2.055620 -1.371101 9.922694
-1.740422 -1.374257 9.580629
-1.463517 -1.374681 9.206964
-1.237050 -1.371804 8.800939
-1.078856 -1.364875 8.364057
-1.009039 -1.353267 7.904887
-1.006222 -1.338469 7.439972
-1.025844 -1.322674 6.975303
-1.031563 -1.307490 6.510271
-1.021275 -1.293025 6.045268
-1.003795 -1.278889 5.580458
-0.988073 -1.264672 5.115591
-0.983206 -1.249962 4.650517
-2.399666 -1.365625 10.232775
-2.057047 -1.371082 9.924096
-2.054194 -1.371120 9.921292
-1.741690 -1.374249 9.582176
-1.739155 -1.374264 9.579081
-1.464622 -1.374685 9.208631
-1.462413 -1.374677 9.205296
-1.237880 -1.371825 8.802759
-1.236219 -1.371783 8.799120
-1.079389 -1.364913 8.365984
-1.078322 -1.364837 8.362130
-1.009161 -1.353325 7.906882
-1.008917 -1.353208 7.902892
-1.006146 -1.338537 7.441969
-1.006299 -1.338402 7.437975
-1.025772 -1.322741 6.977301
-1.025917 -1.322607 6.973305
-1.031583 -1.307553 6.512270
-1.031542 -1.307427 6.508272
-1.021339 -1.293087 6.047266
-1.021211 -1.292964 6.043270
-1.003873 -1.278950 5.582456
-1.003717 -1.278828 5.578461
-0.988128 -1.264734 5.117589
-0.988018 -1.264611 5.113593
-0.983193 -1.250027 4.652516
-2.386035 -1.365870 10.221350
-2.069734 -1.370913 9.936562
-2.041507 -1.371289 9.908826
-1.753017 -1.374182 9.595889
-1.727885 -1.374327 9.565320
-1.474441 -1.374720 9.223463
-1.452594 -1.374641 9.190465
-1.245262 -1.372013 8.818941
-1.228837 -1.371594 8.782938
-1.084134 -1.365250 8.383123
-1.073997 -1.364477 8.344884
-1.010245 -1.353846 7.924629
-1.007832 -1.352687 7.885145
-1.005610 -1.339131 7.459739
-1.006980 -1.337801 7.420210
-1.025125 -1.323341 6.995066
-1.026563 -1.322007 6.955540
-1.031763 -1.308116 6.530047
-1.031362 -1.306864 6.490494
-1.021909 -1.293631 6.065036
-1.020641 -1.292419 6.025500
-1.004563 -1.279489 5.600222
-1.003027 -1.278289 5.560695
-0.988619 -1.265282 5.135361
-0.987605 -1.264059 5.095819
-0.983070 -1.250603 4.670293
-2.348443 -1.366544 10.189843
-2.298645 -1.367410 10.147255
-2.249257 -1.368243 10.104188
-2.200685 -1.369009 10.060200
-2.152508 -1.369744 10.015785
-2.104854 -1.370437 9.970804
-2.006903 -1.371725 9.874063
-1.961108 -1.372274 9.827188
-1.916160 -1.372759 9.779503
-1.871671 -1.373210 9.731390
-1.827905 -1.373607 9.682614
-1.784960 -1.373944 9.633117
-1.696803 -1.374503 9.527370
-1.656196 -1.374673 9.475938
-1.616150 -1.374804 9.424066
-1.577136 -1.374864 9.371411
-1.539016 -1.374862 9.318111
-1.501522 -1.374819 9.264365
-1.426529 -1.374476 9.148911
-1.392080 -1.374231 9.093166
-1.359132 -1.373891 9.036517
-1.327166 -1.373488 8.979319
-1.296004 -1.373035 8.921669
-1.266753 -1.372465 8.863028
-1.208477 -1.371075 8.738311
-1.183468 -1.370252 8.677742
-1.159513 -1.369369 8.616762
-1.136856 -1.368412 8.555277
-1.116446 -1.367328 8.493017
-1.097219 -1.366180 8.430391
-1.063033 -1.363434 8.297082
-1.049415 -1.361989 8.233011
-1.037743 -1.360443 8.168544
-1.028348 -1.358783 8.103718
-1.020167 -1.357064 8.038729
-1.013924 -1.355251 7.973518
-1.005311 -1.351228 7.836182
-1.003241 -1.349220 7.770711
-1.002285 -1.347160 7.705221
-1.002005 -1.345070 7.639722
-1.002835 -1.342931 7.574228
-1.004249 -1.340766 7.508747
-1.008858 -1.336144 7.371220
-1.011602 -1.333921 7.305781
-1.014515 -1.331690 7.240350
-1.017535 -1.329454 7.174924
-1.020469 -1.327222 7.109493
-1.023314 -1.324994 7.044059
-1.028012 -1.320369 6.906535
-1.029711 -1.318191 6.841059
-1.030777 -1.316041 6.775569
-1.031561 -1.313904 6.710075
-1.031966 -1.311783 6.644577
-1.031899 -1.309684 6.579077
-1.030865 -1.305313 6.441467
-1.029827 -1.303257 6.375974
-1.028604 -1.301210 6.310483
-1.027103 -1.299175 6.244998
-1.025360 -1.297151 6.179518
-1.023481 -1.295134 6.114042
-1.018915 -1.290924 5.976499
-1.016579 -1.288927 5.911037
-1.014120 -1.286936 5.845579
-1.011606 -1.284948 5.780124
-1.009056 -1.282961 5.714669
-1.006481 -1.280976 5.649216
-1.001132 -1.276801 5.511700
-0.998683 -1.274810 5.446242
-0.996315 -1.272815 5.380781
-0.994020 -1.270817 5.315317
-0.991935 -1.268809 5.249847
-0.989971 -1.266795 5.184374
-0.986503 -1.262535 5.046800
-0.985198 -1.260491 4.981311
-0.984119 -1.258437 4.915818
-0.983437 -1.256365 4.850321
-0.982977 -1.254283 4.784822
-0.982860 -1.252186 4.719321
63 NaN NaN
-2.401582 -1.365591 10.234381
-2.323703 -1.366988 10.169106
-2.247115 -1.368279 10.102319
-2.171850 -1.369463 10.034042
-2.097951 -1.370538 9.964288
-2.025465 -1.371502 9.893064
-1.954450 -1.372354 9.820373
-1.884971 -1.373089 9.746212
-1.817101 -1.373705 9.670574
-1.750923 -1.374197 9.593450
-1.686531 -1.374561 9.514828
-1.624027 -1.374792 9.434697
-1.563527 -1.374884 9.353043
-1.505156 -1.374832 9.269854
-1.449054 -1.374628 9.185118
-1.395374 -1.374266 9.098829
-1.344282 -1.373737 9.010984
-1.295960 -1.373035 8.921587
-1.250605 -1.372150 8.830651
-1.208427 -1.371074 8.738200
-1.169652 -1.369798 8.644275
-1.134518 -1.368313 8.548932
-1.103270 -1.366611 8.452250
-1.076163 -1.364683 8.354331
-1.053451 -1.362523 8.255306
-1.035352 -1.360126 8.155341
-1.021694 -1.357507 8.054676
-1.012013 -1.354696 7.953555
-1.005817 -1.351719 7.852165
-1.002606 -1.348604 7.750638
-1.001887 -1.345376 7.649066
-1.003173 -1.342058 7.547502
-1.005992 -1.338672 7.445970
-1.009883 -1.335240 7.344475
-1.014392 -1.331781 7.243006
-1.019076 -1.328314 7.141545
-1.023487 -1.324859 7.040072
-1.027181 -1.321435 6.938569
-1.029815 -1.318057 6.837032
-1.031404 -1.314726 6.735471
-1.032032 -1.311438 6.633899
-1.031786 -1.308188 6.532323
-1.030757 -1.304974 6.430752
-1.029032 -1.301791 6.329188
-1.026705 -1.298636 6.227636
-1.023867 -1.295504 6.126096
-1.020611 -1.292391 6.024568
-1.017030 -1.289293 5.923051
-1.013217 -1.286205 5.821541
-1.009267 -1.283124 5.720037
-1.005274 -1.280045 5.618534
-1.001331 -1.276964 5.517029
-0.997533 -1.273876 5.415519
-0.993974 -1.270776 5.314001
-0.990747 -1.267662 5.212472
-0.987945 -1.264528 5.110931
-0.985661 -1.261371 5.009378
-0.983987 -1.258186 4.907814
-0.983015 -1.254969 4.806241
-0.982834 -1.251717 4.704666
-0.983533 -1.248425 4.603094
-0.985199 -1.245090 4.501535
-0.987918 -1.241709 4.400000
-2.401929 -1.365948 10.234419
-3.536896 -1.464831 10.038141
-4.268374 -0.505840 9.655484
-4.809749 0.616132 9.371371
-5.354699 1.735462 9.083102
-5.896159 2.856368 8.794385
-6.466848 3.961519 8.501599
-7.095645 5.030704 8.195538
-7.821847 6.028877 7.867903
-8.676761 6.908434 7.514305
-9.668864 7.617027 7.137470
-10.774683 8.120553 6.747489
-11.952500 8.419530 6.356402
-13.164461 8.540979 5.972733
-2.403319 -1.367379 10.234573
-3.535358 -1.465944 10.038771
-3.538434 -1.463718 10.037511
-4.267543 -0.507606 9.655923
-4.269204 -0.504074 9.655046
-4.808891 0.614383 9.371825
-4.810607 0.617881 9.370917
-5.353846 1.733711 9.083554
-5.355552 1.737214 9.082649
-5.895305 2.854617 8.794837
-5.897013 2.858119 8.793932
-6.465917 3.959812 8.502066
-6.467779 3.963226 8.501132
-7.094597 5.029074 8.196032
-7.096692 5.032335 8.195045
-7.820614 6.027395 7.868437
-7.823080 6.030358 7.867370
-8.675306 6.907188 7.514879
-8.678216 6.909681 7.513730
-9.667216 7.616067 7.138073
-9.670512 7.617986 7.136867
-10.772884 8.119931 6.748103
-10.776482 8.121174 6.746875
-11.950620 8.419219 6.357009
-11.954380 8.419841 6.355794
-13.162552 8.540904 5.973326
-2.422115 -1.386731 10.236651
-3.514556 -1.480999 10.047299
-3.559236 -1.448664 10.028982
-4.256313 -0.531497 9.661857
-4.280434 -0.480183 9.649112
-4.797205 0.590779 9.378021
-4.822211 0.641540 9.364780
-5.342311 1.710013 9.089677
-5.367087 1.760911 9.076527
-5.883748 2.830930 8.800960
-5.908570 2.881805 8.787809
-6.453409 3.936660 8.508363
-6.480376 3.986324 8.494815
-7.080424 5.007013 8.202707
-7.110873 5.054390 8.188367
-7.803934 6.007348 7.875648
-7.839761 6.050405 7.860158
-8.655814 6.890094 7.522622
-8.697898 6.926541 7.505955
-9.644921 7.603086 7.146230
-9.692829 7.630927 7.128708
-10.748543 8.111528 6.756411
-10.800823 8.129577 6.738567
-11.925227 8.414793 6.365237
-11.979814 8.424047 6.347576
-13.136729 8.539897 5.981342
-2.512384 -1.469439 10.243494
-2.679370 -1.567862 10.239479
-2.864116 -1.623621 10.218961
-3.054774 -1.637497 10.184781
-3.241713 -1.610606 10.139432
-3.415507 -1.543038 10.085061
-3.647318 -1.372770 9.989118
-3.777384 -1.243133 9.924312
-3.899695 -1.106545 9.858652
-4.012954 -0.961274 9.795479
-4.114147 -0.804839 9.738922
-4.203708 -0.638986 9.690013
-4.331072 -0.371345 9.622550
-4.411035 -0.198647 9.581097
-4.491851 -0.026431 9.539299
-4.574532 0.144549 9.496106
-4.658992 0.314279 9.451437
-4.743937 0.483641 9.406292
-4.874816 0.749128 9.336978
-4.957677 0.919893 9.293263
-5.040485 1.090685 9.249561
-5.123541 1.261303 9.205647
-5.206725 1.431823 9.161593
-5.289877 1.602348 9.117501
-5.419464 1.868608 9.048716
-5.502376 2.039265 9.004679
-5.585143 2.209999 8.960674
-5.667614 2.380884 8.916694
-5.749648 2.551983 8.872730
-5.831645 2.723095 8.828752
-5.961475 2.989233 8.759957
-6.046629 3.158729 8.715719
-6.133006 3.327563 8.671323
-6.220189 3.495935 8.626748
-6.308032 3.663909 8.581962
-6.396788 3.831334 8.536929
-6.537838 4.091143 8.466063
-6.630101 4.256443 8.420235
-6.723968 4.420734 8.374040
-6.819556 4.583916 8.327445
-6.917012 4.745865 8.280420
-7.016492 4.906444 8.232936
-7.176172 5.153985 8.157834
-7.281485 5.310399 8.109050
-7.389307 5.464921 8.059717
-7.499761 5.617387 8.009815
-7.613000 5.767598 7.959319
-7.729126 5.915380 7.908217
-7.916298 6.140812 7.827238
-8.040193 6.281560 7.774557
-8.167251 6.419220 7.721255
-8.297522 6.553597 7.667338
-8.431043 6.684492 7.612815
-8.567829 6.811718 7.557701
-8.787832 7.002519 7.470543
-8.932928 7.119501 7.414011
-9.081188 7.232193 7.356977
-9.232546 7.340441 7.299476
-9.386913 7.444115 7.241545
-9.544178 7.543112 7.183226
-9.795178 7.688000 7.091527
-9.959301 7.774621 7.032416
-10.125845 7.856331 6.973078
-10.294657 7.933109 6.913558
-10.465586 8.004939 6.853901
-10.638482 8.071814 6.794153
-10.911822 8.166578 6.700816
-11.088969 8.221154 6.641022
-11.267503 8.271068 6.581278
-11.447276 8.316417 6.521616
-11.628153 8.357310 6.462066
-11.810003 8.393857 6.402656
-12.095495 8.442508 6.310266
-12.279305 8.468479 6.251319
-12.463692 8.490548 6.192588
-12.648565 8.508848 6.134086
-12.833839 8.523508 6.075826
-13.019438 8.534652 6.017819
172 NaN NaN
-2.401582 -1.365591 10.234381
-2.471565 -1.437645 10.242118
-2.551018 -1.499531 10.244796
-2.638012 -1.550308 10.242546
-2.730551 -1.589587 10.235683
-2.826782 -1.617366 10.224609
-2.925086 -1.633837 10.209738
-3.024048 -1.639225 10.191455
-3.122386 -1.633696 10.170096
-3.218851 -1.617302 10.145960
-3.312126 -1.589981 10.119328
-3.400745 -1.551635 10.090497
-3.483739 -1.503302 10.059933
-3.561240 -1.447213 10.028161
-3.633965 -1.385473 9.995551
-3.702934 -1.319859 9.962322
-3.769299 -1.251856 9.928582
-3.833811 -1.182255 9.894506
-3.896272 -1.110753 9.860550
-3.956331 -1.036931 9.827236
-4.013598 -0.960413 9.795117
-4.067648 -0.880893 9.764775
-4.118159 -0.798276 9.736691
-4.165504 -0.713131 9.710706
-4.210329 -0.626136 9.686426
-4.253318 -0.537870 9.663439
-4.295169 -0.448835 9.641326
-4.336571 -0.359478 9.619675
-4.377921 -0.270050 9.598213
-4.419376 -0.180663 9.576786
-4.461088 -0.091424 9.555238
-4.503205 -0.002443 9.533416
-4.545878 0.086167 9.511166
-4.589160 0.174353 9.488417
-4.632887 0.262222 9.465295
-4.676861 0.349910 9.441952
-4.720887 0.437554 9.418543
-4.764770 0.525293 9.395220
-4.808335 0.613248 9.372119
-4.851581 0.701420 9.349245
-4.894598 0.789746 9.326533
-4.937474 0.878165 9.303918
-4.980298 0.966617 9.281332
-5.023161 1.055041 9.258713
-5.066108 1.143407 9.236025
-5.109119 1.231727 9.213280
-5.152172 1.320016 9.190493
-5.195243 1.408289 9.167679
-5.238309 1.496561 9.144852
-5.281351 1.584845 9.122025
-5.324365 1.673144 9.099203
-5.367352 1.761457 9.076385
-5.410315 1.849784 9.053575
-5.453254 1.938124 9.030771
-5.496171 2.026477 9.007976
-5.539054 2.114849 8.985190
-5.581881 2.203250 8.962412
-5.624629 2.291691 8.939640
-5.667277 2.380182 8.916874
-5.709800 2.468734 8.894113
-5.752212 2.557340 8.871355
-5.794614 2.645949 8.848592
-5.837122 2.734505 8.825817
-5.879853 2.822949 8.803024
-5.922923 2.911221 8.780205
-5.966434 2.999268 8.757353
-6.010384 3.087088 8.734465
-6.054712 3.174706 8.711538
-6.099360 3.262152 8.688568
-6.144266 3.349453 8.665552
-6.189373 3.436637 8.642488
-6.234633 3.523728 8.619371
-6.280069 3.610712 8.596195
-6.325723 3.697565 8.572957
-6.371639 3.784262 8.549651
-6.417860 3.870776 8.526271
-6.464428 3.957083 8.502812
-6.511375 4.043161 8.479271
-6.558716 4.128999 8.455642
-6.606467 4.214585 8.431920
-6.654641 4.299906 8.408102
-6.703253 4.384950 8.384183
-6.752317 4.469704 8.360159
-6.801854 4.554151 8.336024
-6.851884 4.638274 8.311776
-6.902431 4.722054 8.287410
-6.953515 4.805471 8.262922
-7.005157 4.888507 8.238307
-7.057377 4.971141 8.213562
-7.110196 5.053354 8.188684
-7.163631 5.135126 8.163669
-7.217702 5.216435 8.138513
-7.272425 5.297262 8.113213
-7.327819 5.377584 8.087765
-7.383902 5.457379 8.062168
-7.440690 5.536623 8.036418
-7.498200 5.615294 8.010513
-7.556449 5.693368 7.984451
-7.615453 5.770818 7.958228
-7.675227 5.847621 7.931844
-7.735784 5.923750 7.905298
-7.797138 5.999182 7.878587
-7.859301 6.073888 7.851710
-7.922286 6.147843 7.824668
-7.986102 6.221019 7.797458
-8.050761 6.293388 7.770082
-8.116270 6.364926 7.742540
-8.182636 6.435604 7.714832
-8.249866 6.505396 7.686959
-8.317965 6.574273 7.658922
-8.386938 6.642208 7.630723
-8.456787 6.709173 7.602363
-8.527513 6.775145 7.573846
-8.599113 6.840097 7.545173
-8.671589 6.904004 7.516348
-8.744937 6.966838 7.487374
-8.819154 7.028574 7.458254
-8.894234 7.089191 7.428992
-8.970166 7.148669 7.399594
-9.046944 7.206985 7.370063
-9.124557 7.264117 7.340405
-9.202997 7.320044 7.310623
-9.282250 7.374748 7.280725
-9.362301 7.428216 7.250715
-9.443134 7.480433 7.220598
-9.524734 7.531384 7.190383
-9.607085 7.581055 7.160073
-9.690170 7.629433 7.129675
-9.773969 7.676510 7.099196
-9.858461 7.722282 7.068642
-9.943627 7.766742 7.038020
-10.029445 7.809884 7.007336
-10.115896 7.851704 6.976596
-10.202957 7.892199 6.945807
-10.290607 7.931371 6.914975
-10.378822 7.969224 6.884106
-10.467580 8.005760 6.853207
-10.556859 8.040982 6.822284
-10.646637 8.074894 6.791342
-10.736892 8.107505 6.760388
-10.827601 8.138823 6.729427
-10.918743 8.168859 6.698464
-11.010295 8.197622 6.667506
-11.102237 8.225123 6.636556
-11.194549 8.251374 6.605620
-11.287210 8.276388 6.574702
-11.380199 8.300180 6.543807
-11.473499 8.322765 6.512940
-11.567089 8.344158 6.482104
-11.660952 8.364374 6.451303
-11.755070 8.383429 6.420541
-11.849426 8.401340 6.389821
-11.944004 8.418125 6.359147
-12.038788 8.433801 6.328521
-12.133762 8.448385 6.297946
-12.228913 8.461894 6.267426
-12.324225 8.474348 6.236962
-12.419686 8.485763 6.206556
-12.515283 8.496159 6.176211
-12.611004 8.505552 6.145929
-12.706836 8.513962 6.115712
-12.802769 8.521406 6.085560
-12.898792 8.527902 6.055476
-12.994895 8.533466 6.025461
-13.091069 8.538116 5.995516
-13.187304 8.541870 5.965642
-13.283591 8.544744 5.935841
-13.379923 8.546757 5.906112
-13.476292 8.547925 5.876457
-13.572689 8.548266 5.846876
-13.669109 8.547797 5.817369
-13.765545 8.546536 5.787937
-0.848268 -0.819477 21.868211
-0.756087 -0.658747 21.789903
-0.685706 -0.484120 21.719610
-0.646999 -0.295786 21.662276
-0.651027 -0.099097 21.624478
-0.703293 0.094016 21.611362
-0.798494 0.270486 21.622940
-0.923006 0.425245 21.653470
-1.065217 0.560620 21.696713
-0.847307 -0.817913 21.867417
-0.756950 -0.660384 21.790662
-0.755225 -0.657110 21.789143
-0.686296 -0.485914 21.720266
-0.685116 -0.482325 21.718954
-0.647181 -0.297719 21.662757
-0.646818 -0.293853 21.661795
-0.650680 -0.101054 21.624702
-0.651373 -0.097140 21.624254
-0.702445 0.092206 21.611308
-0.704140 0.095827 21.611417
-0.797451 0.268789 21.622766
-0.799537 0.272184 21.623115
-0.921691 0.423781 21.653113
-0.924320 0.426710 21.653826
-1.063743 0.559356 21.696236
-0.843204 -0.811230 21.864027
-0.760633 -0.667377 21.793907
-0.751542 -0.650117 21.785899
-0.688816 -0.493582 21.723069
-0.682596 -0.474657 21.716151
-0.647956 -0.305976 21.664813
-0.646043 -0.285597 21.659740
-0.649200 -0.109414 21.625658
-0.652854 -0.088780 21.623297
-0.698824 0.084471 21.611074
-0.707762 0.103562 21.611651
-0.792997 0.261536 21.622021
-0.804099 0.279353 21.623930
-0.916074 0.417526 21.651589
-0.929937 0.432965 21.655350
-1.057443 0.553956 21.694200
-0.833174 -0.794894 21.855740
-0.819881 -0.773241 21.844756
-0.806587 -0.751589 21.833772
-0.793503 -0.729782 21.822860
-0.781570 -0.707127 21.812349
-0.769637 -0.684471 21.801837
-0.743254 -0.632566 21.778231
-0.733003 -0.608834 21.768337
-0.722752 -0.585101 21.758444
-0.712501 -0.561369 21.748550
-0.703141 -0.537164 21.739003
-0.694976 -0.512323 21.729921
-0.676436 -0.455916 21.709299
-0.670068 -0.430338 21.700960
-0.664472 -0.404443 21.692941
-0.658876 -0.378547 21.684922
-0.653280 -0.352652 21.676902
-0.649849 -0.326158 21.669837
-0.644150 -0.265415 21.654715
-0.641640 -0.238665 21.648056
-0.642580 -0.211470 21.643020
-0.643607 -0.184264 21.638025
-0.644633 -0.157058 21.633030
-0.645660 -0.129851 21.628035
-0.656472 -0.068345 21.620960
-0.661267 -0.041260 21.617861
-0.666996 -0.014367 21.615265
-0.675462 0.011962 21.614142
-0.683929 0.038292 21.613020
-0.692395 0.064621 21.611897
-0.716613 0.122469 21.612221
-0.728345 0.147528 21.612978
-0.740077 0.172587 21.613734
-0.753245 0.196815 21.615373
-0.767677 0.220312 21.617786
-0.782109 0.243808 21.620200
-0.816593 0.295840 21.626800
-0.833152 0.317693 21.630603
-0.849711 0.339545 21.634406
-0.866270 0.361397 21.638209
-0.884150 0.381969 21.642927
-0.902346 0.402235 21.647864
-0.943764 0.448140 21.659148
-0.963212 0.466946 21.665002
-0.982661 0.485753 21.670856
-1.002109 0.504559 21.676711
-1.021634 0.523261 21.682625
-1.042044 0.540756 21.689222
17 NaN NaN
-0.848508 -0.819869 21.868409
-0.795342 -0.733273 21.824480
-0.747619 -0.642669 21.782443
-0.706627 -0.547769 21.742880
-0.673982 -0.448449 21.706569
-0.651611 -0.344929 21.674510
-0.641578 -0.238013 21.647894
-0.645681 -0.129291 21.627932
-0.664844 -0.021061 21.615550
-0.698676 0.084156 21.611065
-0.745567 0.184314 21.614089
-0.803259 0.278244 21.623737
-0.869466 0.365615 21.638943
-0.942228 0.446654 21.658685
-1.020003 0.521863 21.682098
-1.101630 0.591833 21.708483
-1.186246 0.657148 21.737295
-0.805685 -0.871804 18.297526
-0.728410 -0.726625 18.396186
-0.668942 -0.573286 18.494636
-0.633693 -0.411714 18.591251
-0.630748 -0.243694 18.682963
-0.669808 -0.074841 18.764212
-0.752155 0.084980 18.829326
-0.869408 0.228523 18.876560
-1.011347 0.353411 18.907282
-1.169313 0.460729 18.924330
-1.337455 0.552751 18.930455
-0.804840 -0.870311 18.298553
-0.729164 -0.728165 18.395157
-0.727655 -0.725085 18.397216
-0.669459 -0.574926 18.493614
-0.668425 -0.571647 18.495658
-0.633869 -0.413446 18.590268
-0.633516 -0.409981 18.592235
-0.630466 -0.245465 18.682078
-0.631029 -0.241923 18.683849
-0.669269 -0.076590 18.763405
-0.670347 -0.073093 18.765019
-0.751128 0.083373 18.828723
-0.753181 0.086587 18.829929
-0.868022 0.227135 18.876169
-0.870794 0.229911 18.876951
-1.009739 0.352240 18.907066
-1.012954 0.354581 18.907498
-1.167633 0.459654 18.924185
-1.170994 0.461803 18.924475
-1.335675 0.551839 18.930423
-0.801367 -0.864179 18.302775
-0.732264 -0.734489 18.390928
-0.724556 -0.718761 18.401444
-0.671581 -0.581661 18.489417
-0.666303 -0.564912 18.499855
-0.634594 -0.420562 18.586228
-0.632791 -0.402866 18.596275
-0.629322 -0.252739 18.678438
-0.632185 -0.234648 18.687486
-0.667056 -0.083774 18.760092
-0.672560 -0.065909 18.768332
-0.746911 0.076773 18.826246
-0.757398 0.093188 18.832407
-0.862330 0.221435 18.874562
-0.876487 0.235611 18.878558
-1.003138 0.347433 18.906179
-1.019555 0.359389 18.908385
-1.160731 0.455240 18.923589
-1.178051 0.465979 18.924901
-1.328366 0.548092 18.930294
-0.792965 -0.849338 18.312991
-0.781835 -0.829681 18.326523
-0.770705 -0.810024 18.340054
-0.759636 -0.790337 18.353587
-0.749700 -0.770065 18.367141
-0.739765 -0.749794 18.380695
-0.717374 -0.703310 18.411673
-0.708863 -0.682389 18.425209
-0.700352 -0.661467 18.438745
-0.691841 -0.640546 18.452280
-0.683522 -0.619549 18.465807
-0.676718 -0.597961 18.479260
-0.661166 -0.548612 18.510013
-0.654949 -0.526837 18.523414
-0.650192 -0.504599 18.536688
-0.645434 -0.482360 18.549961
-0.640677 -0.460122 18.563234
-0.636348 -0.437783 18.576450
-0.631037 -0.385644 18.606052
-0.628714 -0.362835 18.619002
-0.627388 -0.339886 18.631769
-0.627903 -0.316678 18.644197
-0.628418 -0.293469 18.656626
-0.628933 -0.270261 18.669054
-0.634982 -0.217043 18.696288
-0.638686 -0.193726 18.707947
-0.642391 -0.170409 18.719606
-0.647512 -0.147213 18.730831
-0.654606 -0.124186 18.741452
-0.661700 -0.101159 18.752073
-0.679911 -0.048963 18.775595
-0.690358 -0.026674 18.784945
-0.700805 -0.004385 18.794295
-0.711252 0.017904 18.803646
-0.723190 0.039642 18.812311
-0.736707 0.060799 18.820251
-0.767603 0.109161 18.838401
-0.782852 0.129398 18.845393
-0.798986 0.149164 18.851901
-0.815119 0.168931 18.858409
-0.831252 0.188698 18.864916
-0.848553 0.207639 18.870674
-0.890263 0.249407 18.882446
-0.908510 0.267680 18.887595
-0.927957 0.284878 18.891852
-0.947854 0.301674 18.895774
-0.967750 0.318470 18.899696
-0.987646 0.335267 18.903619
-1.035532 0.371025 18.910533
-1.056692 0.386436 18.913377
-1.077853 0.401847 18.916221
-1.099776 0.416259 18.918326
-1.121901 0.430408 18.920236
-1.144026 0.444557 18.922146
-1.195313 0.475807 18.925737
-1.218175 0.488824 18.926843
-1.241037 0.501842 18.927949
-1.263899 0.514859 18.929055
-1.287246 0.527016 18.929569
-1.310676 0.539025 18.929983
20 NaN NaN
-0.805896 -0.872177 18.297269
-0.760132 -0.791351 18.352909
-0.719281 -0.707998 18.408640
-0.684287 -0.621978 18.464293
-0.656315 -0.533220 18.519605
-0.636757 -0.441799 18.574171
-0.627207 -0.348042 18.627401
-0.629324 -0.252658 18.678481
-0.644546 -0.156838 18.726391
-0.673696 -0.062222 18.770033
-0.716623 0.029363 18.808453
-0.772166 0.116305 18.841082
-0.838472 0.197544 18.867829
-0.913476 0.272652 18.888997
-0.995268 0.341701 18.905121
-1.082265 0.405060 18.916814
-1.173234 0.463236 18.924668
-1.267238 0.516760 18.929217
-1.363580 0.566141 18.930915
-1.461737 0.611838 18.930148
-0.952639 -1.084215 15.931922
-0.882043 -0.968382 15.988490
-0.818858 -0.848904 16.046188
-0.765571 -0.725281 16.105068
-0.724872 -0.597460 16.164973
-0.697856 -0.466334 16.225429
-0.690384 -0.332653 16.285705
-0.702587 -0.198806 16.344722
-0.736310 -0.067578 16.401112
-0.793197 0.057355 16.453118
-0.867935 0.174526 16.500447
-0.959576 0.281458 16.542052
-1.063476 0.378696 16.578493
-1.176341 0.467185 16.610416
-1.297053 0.546443 16.637680
-1.422658 0.618904 16.661574
-0.951658 -1.082649 15.932688
-0.882951 -0.969986 15.987712
-0.881136 -0.966779 15.989269
-0.819680 -0.850547 16.045398
-0.818036 -0.847261 16.046978
-0.766178 -0.727005 16.104256
-0.764963 -0.723557 16.105880
-0.725345 -0.599222 16.164153
-0.724399 -0.595698 16.165793
-0.698174 -0.468129 16.224605
-0.697539 -0.464539 16.226253
-0.690328 -0.334479 16.284892
-0.690441 -0.330826 16.286517
-0.702318 -0.200621 16.343929
-0.702856 -0.196990 16.345516
-0.735607 -0.069305 16.400387
-0.737013 -0.065852 16.401836
-0.792293 0.055704 16.452442
-0.794100 0.059005 16.453795
-0.866852 0.172965 16.499822
-0.869018 0.176088 16.501071
-0.958212 0.280090 16.541533
-0.960940 0.282825 16.542571
-1.062006 0.377423 16.578023
-1.064945 0.379969 16.578963
-1.174716 0.466083 16.610033
-1.177965 0.468286 16.610798
-1.295371 0.545417 16.637335
-1.298735 0.547469 16.638025
-1.420930 0.617946 16.661263
-0.948397 -1.077449 15.935234
-0.885966 -0.975313 15.985126
-0.878120 -0.961452 15.991855
-0.822412 -0.856005 16.042772
-0.815304 -0.841802 16.049604
-0.768196 -0.732733 16.101559
-0.762946 -0.717829 16.108577
-0.726916 -0.605076 16.161429
-0.722828 -0.589844 16.168516
-0.699228 -0.474091 16.221868
-0.696684 -0.458551 16.228988
-0.690139 -0.340548 16.282191
-0.690629 -0.324758 16.289218
-0.701425 -0.206655 16.341292
-0.703750 -0.190956 16.348153
-0.733271 -0.075041 16.397981
-0.739349 -0.060116 16.404242
-0.789290 0.050219 16.450193
-0.797104 0.064490 16.456044
-0.863255 0.167778 16.497746
-0.872615 0.181275 16.503147
-0.953679 0.275547 16.539808
-0.965472 0.287368 16.544295
-1.057124 0.373194 16.576463
-1.069827 0.384198 16.580523
-1.169477 0.462235 16.608667
-1.183364 0.471946 16.612069
-1.289784 0.542008 16.636189
-1.304322 0.550878 16.639171
-1.415188 0.614765 16.660229
-0.940990 -1.065634 15.941018
-0.931225 -1.050058 15.948643
-0.921459 -1.034482 15.956268
-0.911694 -1.018905 15.963894
-0.901928 -1.003329 15.971519
-0.892817 -0.987415 15.979252
-0.871269 -0.949350 15.997729
-0.862237 -0.933395 16.005474
-0.853205 -0.917440 16.013220
-0.844983 -0.901108 16.021078
-0.836801 -0.884758 16.028943
-0.828618 -0.868407 16.036807
-0.809111 -0.829394 16.055570
-0.801916 -0.812640 16.063549
-0.794722 -0.795885 16.071527
-0.787527 -0.779130 16.079505
-0.780333 -0.762375 16.087483
-0.773139 -0.745621 16.095462
-0.758362 -0.704817 16.114706
-0.752318 -0.687661 16.122786
-0.746274 -0.670505 16.130865
-0.740231 -0.653349 16.138945
-0.735190 -0.635909 16.147083
-0.730485 -0.618375 16.155242
-0.719259 -0.576544 16.174704
-0.714554 -0.559010 16.182862
-0.711102 -0.541213 16.191053
-0.707943 -0.523354 16.199252
-0.704784 -0.505496 16.207451
-0.701624 -0.487637 16.215649
-0.695624 -0.444830 16.235195
-0.694226 -0.426741 16.243377
-0.692829 -0.408651 16.251560
-0.691431 -0.390562 16.259742
-0.690034 -0.372472 16.267925
-0.689711 -0.354335 16.276056
-0.691057 -0.310971 16.295353
-0.691621 -0.292794 16.303442
-0.692186 -0.274618 16.311531
-0.694040 -0.256505 16.319503
-0.696717 -0.238434 16.327402
-0.699394 -0.220362 16.335300
-0.705781 -0.177249 16.354144
-0.709925 -0.159400 16.361844
-0.714782 -0.141659 16.369447
-0.719640 -0.123918 16.377050
-0.724497 -0.106178 16.384653
-0.729354 -0.088437 16.392257
-0.744657 -0.047083 16.409710
-0.751655 -0.029902 16.416918
-0.758653 -0.012720 16.424126
-0.765650 0.004462 16.431335
-0.773472 0.021332 16.438348
-0.782467 0.037759 16.445084
-0.803926 0.076950 16.461153
-0.812921 0.093377 16.467889
-0.822761 0.109382 16.474378
-0.833535 0.124919 16.480596
-0.844309 0.140456 16.486813
-0.855083 0.155993 16.493030
-0.881607 0.192544 16.507577
-0.893908 0.207122 16.513262
-0.906208 0.221700 16.518947
-0.918509 0.236278 16.524632
-0.930809 0.250855 16.530317
-0.943382 0.265226 16.535891
-0.975770 0.297689 16.548213
-0.989346 0.311296 16.553377
-1.002921 0.324904 16.558542
-1.016785 0.338252 16.563572
-1.031408 0.350919 16.568245
-1.046032 0.363586 16.572918
-1.080919 0.393805 16.584068
-1.095829 0.406175 16.588589
-1.111306 0.417956 16.592808
-1.126783 0.429737 16.597028
-1.142260 0.441518 16.601247
-1.157737 0.453299 16.605467
-1.195630 0.480260 16.614956
-1.211801 0.491221 16.618762
-1.227972 0.502183 16.622568
-1.244143 0.513144 16.626374
-1.260354 0.524052 16.630153
-1.277090 0.534263 16.633586
-1.317017 0.558623 16.641774
-1.333752 0.568834 16.645207
-1.350549 0.578955 16.648594
-1.367747 0.588483 16.651690
-1.384945 0.598011 16.654786
-1.402143 0.607539 16.657881
23 NaN NaN
-0.952884 -1.084606 15.931730
-0.900879 -1.001655 15.972339
-0.852780 -0.916688 16.013584
-0.809207 -0.829619 16.055464
-0.770896 -0.740399 16.097948
-0.738715 -0.649046 16.140971
-0.713662 -0.555686 16.184409
-0.696842 -0.460602 16.228061
-0.689402 -0.364297 16.271623
-0.692406 -0.267535 16.314682
-0.706656 -0.171339 16.356727
-0.732511 -0.076906 16.397198
-0.769760 0.014552 16.435568
-0.817641 0.101998 16.471424
-0.874998 0.184711 16.504522
-0.940486 0.262323 16.534789
-1.012769 0.334773 16.562288
-1.090634 0.402220 16.587172
-1.173048 0.464953 16.609641
-1.259160 0.523324 16.629909
-1.348284 0.577700 16.648187
-1.439870 0.628439 16.664672
-1.533483 0.675874 16.679542
-1.014288 -1.218845 14.750517
-0.945516 -1.112959 14.798767
-0.882156 -1.004025 14.847605
-0.825176 -0.891873 14.896993
-0.775791 -0.776371 14.946849
-0.737103 -0.657020 14.997030
-0.709560 -0.534647 15.047169
-0.695042 -0.409886 15.096819
-0.695507 -0.283828 15.145346
-0.715088 -0.158445 15.191543
-0.751739 -0.035939 15.234784
-0.804833 0.081697 15.274367
-0.872948 0.192810 15.309812
-0.955479 0.295311 15.340376
-1.047952 0.390144 15.366909
-1.148391 0.477583 15.389731
-1.255203 0.558057 15.409178
-1.367607 0.631365 15.425259
-1.483741 0.699155 15.438809
-1.013257 -1.217286 14.751230
-0.946483 -1.114555 14.798047
-0.944549 -1.111363 14.799487
-0.883050 -1.005660 14.846878
-0.881262 -1.002390 14.848332
-0.825985 -0.893548 14.896259
-0.824366 -0.890198 14.897726
-0.776460 -0.778104 14.946109
-0.775191 -0.774613 14.947591
-0.737572 -0.658816 14.996287
-0.736635 -0.655223 14.997773
-0.709879 -0.536478 15.046429
-0.709242 -0.532817 15.047909
-0.695190 -0.411742 15.096087
-0.694895 -0.408030 15.097550
-0.695350 -0.285692 15.144645
-0.695752 -0.281967 15.146036
-0.714632 -0.160278 15.190886
-0.715545 -0.156612 15.192200
-0.751073 -0.037722 15.234169
-0.752404 -0.034156 15.235399
-0.803971 0.079983 15.273801
-0.805695 0.083410 15.274934
-0.871786 0.191255 15.309338
-0.874141 0.194347 15.310275
-0.954155 0.293869 15.339964
-0.956803 0.296752 15.340788
-1.046520 0.388795 15.366544
-1.049383 0.391492 15.367274
-1.146870 0.476324 15.389410
-1.149911 0.478843 15.390051
-1.253553 0.556954 15.408932
-1.256856 0.559156 15.409423
-1.365905 0.630335 15.425046
-1.369308 0.632394 15.425471
-1.482000 0.698190 15.438626
-1.010047 -1.212429 14.753449
-0.949495 -1.119527 14.795805
-0.941536 -1.106390 14.801729
-0.885835 -1.010754 14.844614
-0.878477 -0.997297 14.850596
-0.828508 -0.898768 14.893975
-0.821843 -0.884978 14.900010
-0.778679 -0.783452 14.943807
-0.773324 -0.769137 14.949903
-0.739032 -0.664414 14.993972
-0.735175 -0.649625 15.000089
-0.710871 -0.542182 15.044124
-0.708250 -0.527113 15.050214
-0.695651 -0.417523 15.093810
-0.694434 -0.402249 15.099828
-0.695221 -0.291510 15.142417
-0.696517 -0.276169 15.148188
-0.713209 -0.165989 15.188840
-0.716968 -0.150901 15.194247
-0.749000 -0.043277 15.232253
-0.754478 -0.028601 15.237315
-0.801285 0.074645 15.272034
-0.808381 0.088748 15.276701
-0.868547 0.186179 15.307733
-0.877859 0.199135 15.311717
-0.950032 0.289377 15.338679
-0.960926 0.301244 15.342073
-1.042060 0.384595 15.365409
-1.053844 0.395692 15.368409
-1.142134 0.472400 15.388411
-1.154648 0.482766 15.391051
-1.248590 0.553289 15.408057
-1.262005 0.562583 15.410186
-1.360604 0.627128 15.424384
-1.374610 0.635602 15.426133
-1.476573 0.695182 15.438054
-1.002918 -1.201643 14.758377
-0.993536 -1.187449 14.764863
-0.984154 -1.173254 14.771349
-0.974773 -1.159059 14.777834
-0.965391 -1.144864 14.784320
-0.956184 -1.130568 14.790826
-0.934847 -1.095350 14.806708
-0.926044 -1.080819 14.813260
-0.917240 -1.066288 14.819813
-0.908437 -1.051758 14.826365
-0.900159 -1.036948 14.832969
-0.892020 -1.022063 14.839586
-0.872293 -0.985987 14.855624
-0.864154 -0.971103 14.862241
-0.856228 -0.956116 14.868874
-0.848855 -0.940863 14.875550
-0.841483 -0.925610 14.882226
-0.834110 -0.910357 14.888902
-0.816241 -0.873388 14.905083
-0.809548 -0.857847 14.911797
-0.803063 -0.842217 14.918522
-0.796578 -0.826588 14.925247
-0.790092 -0.810958 14.931972
-0.783607 -0.795328 14.938697
-0.769178 -0.756976 14.955038
-0.763721 -0.740972 14.961796
-0.758265 -0.724968 14.968554
-0.752808 -0.708964 14.975312
-0.747352 -0.692960 14.982070
-0.742274 -0.676844 14.988831
-0.731933 -0.637195 15.005229
-0.727667 -0.620837 15.011995
-0.723400 -0.604478 15.018761
-0.719134 -0.588120 15.025526
-0.715971 -0.571513 15.032269
-0.713073 -0.554846 15.039005
-0.706048 -0.514449 15.055333
-0.703150 -0.497782 15.062070
-0.700710 -0.481047 15.068782
-0.699365 -0.464152 15.075439
-0.698019 -0.447256 15.082095
-0.696673 -0.430361 15.088752
-0.693412 -0.389411 15.104885
-0.693418 -0.372433 15.111427
-0.693797 -0.355431 15.117938
-0.694176 -0.338430 15.124449
-0.694554 -0.321429 15.130959
-0.694933 -0.304428 15.137470
-0.698216 -0.263296 15.152965
-0.700452 -0.246353 15.159252
-0.702688 -0.229411 15.165538
-0.704924 -0.212468 15.171825
-0.707160 -0.195526 15.178112
-0.710049 -0.178669 15.184295
-0.720128 -0.138220 15.198791
-0.724286 -0.121532 15.204772
-0.728444 -0.104843 15.210753
-0.732602 -0.088154 15.216734
-0.738338 -0.071844 15.222398
-0.744397 -0.055611 15.227998
-0.759081 -0.016266 15.241570
-0.765140 -0.000033 15.247170
-0.771772 0.015997 15.252629
-0.779621 0.031595 15.257790
-0.787471 0.047194 15.262951
-0.795320 0.062793 15.268113
-0.814346 0.100600 15.280622
-0.823502 0.115578 15.285403
-0.832966 0.130411 15.290094
-0.842429 0.145244 15.294786
-0.851893 0.160076 15.299477
-0.861357 0.174909 15.304168
-0.886116 0.209766 15.314920
-0.896981 0.223756 15.319135
-0.907847 0.237747 15.323350
-0.918712 0.251738 15.327565
-0.929578 0.265729 15.331780
-0.940875 0.279404 15.335827
-0.970083 0.311217 15.344924
-0.982133 0.324342 15.348678
-0.994183 0.337467 15.352431
-1.006234 0.350593 15.356184
-1.019123 0.362993 15.359567
-1.032157 0.375268 15.362887
-1.063747 0.405019 15.370932
-1.076781 0.417295 15.374251
-1.090091 0.429293 15.377434
-1.103932 0.440758 15.380353
-1.117774 0.452224 15.383273
-1.131616 0.463689 15.386193
-1.165165 0.491478 15.393269
-1.179556 0.502316 15.395888
-1.194059 0.513025 15.398444
-1.208563 0.523734 15.401001
-1.223066 0.534443 15.403557
-1.237570 0.545152 15.406114
-1.273437 0.570190 15.411880
-1.288482 0.580202 15.414109
-1.303528 0.590214 15.416338
-1.318573 0.600225 15.418567
-1.333619 0.610237 15.420797
-1.348834 0.620006 15.422914
-1.386380 0.642724 15.427604
-1.401871 0.652098 15.429539
-1.417362 0.661471 15.431474
-1.432853 0.670844 15.433409
-1.448663 0.679711 15.435114
-1.464522 0.688502 15.436784
24 NaN NaN
-1.014545 -1.219235 14.750339
-0.958851 -1.134970 14.788841
-0.906592 -1.048713 14.827739
-0.858277 -0.960356 14.867018
-0.814514 -0.869815 14.906647
-0.776018 -0.777039 14.946567
-0.743630 -0.682045 14.986680
-0.718308 -0.584952 15.026837
-0.701107 -0.486033 15.066818
-0.693121 -0.385765 15.106322
-0.695368 -0.284876 15.144957
-0.708636 -0.184341 15.182262
-0.733310 -0.085316 15.217751
-0.769260 0.011006 15.250978
-0.815839 0.103568 15.281604
-0.871999 0.191589 15.309444
-0.936483 0.274620 15.334459
-1.008003 0.352520 15.356736
-1.085364 0.425378 15.376437
-1.167525 0.493432 15.393767
-1.253616 0.557000 15.408943
-1.342927 0.616432 15.422176
-1.434884 0.672074 15.433662
-1.529028 0.724258 15.443580
-1.158892 -1.317549 13.573989
-1.060225 -1.211783 13.664197
-0.967438 -1.101407 13.755090
-0.882336 -0.985494 13.846608
-0.807352 -0.863115 13.938491
-0.744169 -0.734179 14.030253
-0.698499 -0.597309 14.120837
-0.673486 -0.453636 14.208613
-0.674348 -0.304702 14.291059
-0.707115 -0.154584 14.363990
-0.768786 -0.008483 14.425472
-0.858648 0.128172 14.472719
-0.968681 0.253396 14.507183
-1.093235 0.367237 14.530696
-1.228856 0.469516 14.544258
-1.371243 0.562931 14.550738
-1.518957 0.647989 14.550879
-1.157719 -1.316321 13.575045
-1.061357 -1.213044 13.663136
-1.059093 -1.210521 13.665259
-0.968469 -1.102744 13.754019
-0.966408 -1.100069 13.756162
-0.883304 -0.986875 13.845533
-0.881367 -0.984114 13.847684
-0.808163 -0.864591 13.937413
-0.806541 -0.861639 13.939570
-0.744763 -0.735762 14.029184
-0.743576 -0.732596 14.031321
-0.698953 -0.598947 14.119782
-0.698044 -0.595672 14.121891
-0.673591 -0.455367 14.207617
-0.673381 -0.451904 14.209608
-0.674244 -0.306462 14.290115
-0.674452 -0.302942 14.292004
-0.706557 -0.156333 14.363196
-0.707673 -0.152835 14.364783
-0.767809 -0.010122 14.424873
-0.769763 -0.006844 14.426071
-0.857499 0.126613 14.472219
-0.859797 0.129732 14.473218
-0.967274 0.252011 14.506863
-0.970088 0.254780 14.507504
-1.091735 0.365937 14.530452
-1.094734 0.368538 14.530941
-1.227224 0.468366 14.544139
-1.230488 0.470666 14.544376
-1.369526 0.561907 14.550717
-1.372961 0.563955 14.550759
-1.517208 0.647020 14.550898
-1.153338 -1.311736 13.578989
-1.065583 -1.217754 13.659172
-1.054867 -1.205811 13.669223
-0.972318 -1.107738 13.750018
-0.962559 -1.095075 13.760163
-0.886919 -0.992028 13.841517
-0.877752 -0.978960 13.851699
-0.811190 -0.870103 13.933386
-0.803513 -0.856127 13.943596
-0.747181 -0.741579 14.025182
-0.741361 -0.726686 14.035310
-0.700650 -0.605060 14.115846
-0.696347 -0.589558 14.125828
-0.673985 -0.461832 14.203901
-0.672987 -0.445440 14.213324
-0.673856 -0.313032 14.286589
-0.674839 -0.296371 14.295529
-0.704475 -0.162863 14.360233
-0.709755 -0.146305 14.367746
-0.764161 -0.016241 14.422637
-0.773411 -0.000724 14.428306
-0.853210 0.120793 14.470354
-0.864086 0.135552 14.475083
-0.962022 0.246840 14.505666
-0.975341 0.259951 14.508700
-1.086137 0.361080 14.529540
-1.100466 0.373252 14.531731
-1.221130 0.464074 14.543698
-1.236582 0.474958 14.544817
-1.363112 0.558084 14.550639
-1.379375 0.567778 14.550838
-1.510678 0.643399 14.550970
-1.143012 -1.300930 13.588284
-1.129361 -1.286643 13.600572
-1.115710 -1.272357 13.612860
-1.102059 -1.258070 13.625148
-1.088714 -1.243535 13.637477
-1.075544 -1.228857 13.649829
-1.044905 -1.194708 13.678566
-1.031961 -1.179855 13.690943
-1.019340 -1.164753 13.703356
-1.006718 -1.149651 13.715769
-0.994097 -1.134549 13.728181
-0.981476 -1.119447 13.740594
-0.953488 -1.083304 13.769594
-0.941495 -1.067741 13.782061
-0.929503 -1.052179 13.794529
-0.917974 -1.036298 13.807026
-0.906708 -1.020238 13.819539
-0.895442 -1.004177 13.832052
-0.869581 -0.966587 13.861177
-0.859159 -0.949989 13.873719
-0.848737 -0.933390 13.886262
-0.838315 -0.916792 13.898805
-0.827892 -0.900193 13.911347
-0.818327 -0.883094 13.923894
-0.796377 -0.843135 13.953088
-0.786943 -0.825960 13.965636
-0.778257 -0.808391 13.978164
-0.769984 -0.790605 13.990681
-0.761711 -0.772819 14.003197
-0.753438 -0.755033 14.015714
-0.736140 -0.712753 14.044714
-0.729237 -0.694334 14.057145
-0.722335 -0.675915 14.069577
-0.715432 -0.657495 14.082008
-0.709939 -0.638524 14.094297
-0.704650 -0.619472 14.106566
-0.692347 -0.575147 14.135108
-0.688288 -0.555708 14.147199
-0.684888 -0.536061 14.159196
-0.681488 -0.516415 14.171192
-0.678088 -0.496768 14.183188
-0.674912 -0.477071 14.195142
-0.672060 -0.430201 14.222084
-0.670834 -0.410055 14.233664
-0.669608 -0.389910 14.245244
-0.670527 -0.369473 14.256302
-0.671735 -0.348997 14.267290
-0.672943 -0.328521 14.278277
-0.677481 -0.280826 14.303321
-0.681304 -0.260265 14.313522
-0.685127 -0.239703 14.323723
-0.688951 -0.219142 14.333925
-0.693077 -0.198605 14.344016
-0.699566 -0.178256 14.353249
-0.714664 -0.130912 14.374730
-0.721153 -0.110563 14.383964
-0.729929 -0.090673 14.392212
-0.738979 -0.070837 14.400344
-0.748028 -0.051002 14.408475
-0.757077 -0.031167 14.416606
-0.782011 0.013701 14.433576
-0.793379 0.032771 14.440543
-0.804747 0.051842 14.447510
-0.816367 0.070795 14.454332
-0.829733 0.088934 14.460145
-0.843099 0.107072 14.465957
-0.874196 0.149273 14.479480
-0.889062 0.166498 14.484307
-0.904087 0.183628 14.489030
-0.919112 0.200757 14.493753
-0.934136 0.217886 14.498476
-0.949640 0.234653 14.502845
-0.987723 0.272138 14.511521
-1.004092 0.288250 14.515251
-1.020605 0.304231 14.518861
-1.038050 0.319365 14.521704
-1.055496 0.334499 14.524547
-1.072941 0.349633 14.527389
-1.114311 0.384008 14.533290
-1.132615 0.398226 14.535351
-1.150919 0.412445 14.537411
-1.169223 0.426664 14.539472
-1.187776 0.440578 14.541284
-1.206766 0.453955 14.542659
-1.250946 0.485077 14.545857
-1.270013 0.498347 14.547147
-1.289554 0.510957 14.547920
-1.309095 0.523567 14.548692
-1.328636 0.536177 14.549465
-1.348176 0.548787 14.550238
-1.394493 0.576790 14.551022
-1.414479 0.588704 14.551266
-1.434466 0.600618 14.551510
-1.454586 0.612300 14.551583
-1.474935 0.623582 14.551360
-1.495285 0.634865 14.551138
27 NaN NaN
-1.159186 -1.317856 13.573725
-1.097078 -1.252857 13.629632
-1.037161 -1.186078 13.685829
-0.979739 -1.117369 13.742302
-0.925179 -1.046568 13.799024
-0.873923 -0.973501 13.855952
-0.826508 -0.897988 13.913013
-0.783588 -0.819854 13.970097
-0.745955 -0.738943 14.027037
-0.714556 -0.655157 14.083586
-0.690502 -0.568499 14.139389
-0.675038 -0.479143 14.193950
-0.669463 -0.387526 14.246615
-0.674955 -0.294415 14.296579
-0.692338 -0.200922 14.342964
-0.721843 -0.108396 14.384947
-0.762991 -0.018204 14.421921
-0.814687 0.068516 14.453602
-0.875475 0.151008 14.480036
-0.943810 0.228915 14.501517
-1.018266 0.302203 14.518480
-1.097623 0.371044 14.531411
-1.180890 0.435727 14.540786
-1.267280 0.496583 14.547039
-1.356179 0.553951 14.550554
-1.447106 0.608153 14.551664
-1.539688 0.659483 14.550652
-1.477240 -1.365913 12.428591
-1.333155 -1.248407 12.495569
-1.196362 -1.123563 12.564471
-1.069226 -0.990058 12.635498
-0.955251 -0.846355 12.708780
-0.859656 -0.690920 12.784207
-0.790200 -0.522852 12.861063
-0.758824 -0.343565 12.937127
-0.772750 -0.160502 13.008421
-0.832635 0.016378 13.070870
-0.930696 0.179438 13.122499
-1.056202 0.326116 13.163770
-1.200320 0.457263 13.196248
-1.357067 0.574854 13.221553
-1.522089 0.681687 13.241408
-1.475766 -1.364741 12.429264
-1.334593 -1.249616 12.494885
-1.331716 -1.247197 12.496252
-1.197713 -1.124858 12.563765
-1.195012 -1.122267 12.565176
-1.070454 -0.991458 12.634768
-1.067999 -0.988659 12.636228
-0.956303 -0.847879 12.708025
-0.954199 -0.844832 12.709535
-0.860451 -0.692584 12.783431
-0.858861 -0.689257 12.784982
-0.790824 -0.524585 12.860283
-0.789589 -0.521115 12.861842
-0.759009 -0.345405 12.936366
-0.758639 -0.341725 12.937889
-0.772410 -0.162348 13.007730
-0.773090 -0.158657 13.009112
-0.831809 0.014651 13.070294
-0.833461 0.018106 13.071447
-0.929514 0.177890 13.122044
-0.931879 0.180985 13.122954
-1.054788 0.324747 13.163418
-1.057617 0.327485 13.164121
-1.198823 0.455974 13.195940
-1.201818 0.458552 13.196556
-1.355449 0.573702 13.221317
-1.358685 0.576005 13.221790
-1.520390 0.680648 13.241228
-1.469561 -1.359809 12.432097
-1.340649 -1.254707 12.492010
-1.325660 -1.242107 12.499128
-1.203395 -1.130312 12.560796
-1.189330 -1.116813 12.568145
-1.075621 -0.997350 12.631695
-1.062832 -0.982767 12.639301
-0.960733 -0.854292 12.704845
-0.949769 -0.838419 12.712715
-0.863795 -0.699585 12.780167
-0.855517 -0.682256 12.788246
-0.793448 -0.531878 12.857002
-0.787821 -0.513561 12.865109
-0.759787 -0.353149 12.933160
-0.757861 -0.333980 12.941094
-0.770979 -0.170116 13.004821
-0.774522 -0.150889 13.012021
-0.828332 0.007379 13.067867
-0.836938 0.025378 13.073874
-0.924538 0.171377 13.120128
-0.936855 0.187499 13.124869
-1.048833 0.318984 13.161939
-1.063572 0.333248 13.165601
-1.192521 0.450547 13.194643
-1.208339 0.463741 13.197728
-1.348639 0.568856 13.220323
-1.365495 0.580852 13.222784
-1.513239 0.676273 13.240469
-1.454452 -1.347797 12.438996
-1.434431 -1.331881 12.448139
-1.414409 -1.315965 12.457281
-1.394475 -1.299957 12.466447
-1.374935 -1.283530 12.475727
-1.355395 -1.267104 12.485007
-1.311180 -1.229442 12.506201
-1.292196 -1.212457 12.515627
-1.273213 -1.195471 12.525053
-1.254229 -1.178485 12.534479
-1.235569 -1.161193 12.543983
-1.217233 -1.143594 12.553565
-1.175492 -1.103531 12.575376
-1.157764 -1.085394 12.585089
-1.140189 -1.067121 12.594835
-1.122613 -1.048849 12.604580
-1.105038 -1.030577 12.614326
-1.088204 -1.011697 12.624211
-1.050249 -0.968420 12.646784
-1.033707 -0.949310 12.656721
-1.018113 -0.929492 12.666811
-1.002518 -0.909673 12.676900
-0.986924 -0.889855 12.686989
-0.971519 -0.869909 12.697103
-0.938983 -0.822802 12.720457
-0.924691 -0.802108 12.730716
-0.911101 -0.780999 12.741043
-0.898388 -0.759373 12.751456
-0.885675 -0.737747 12.761869
-0.872961 -0.716121 12.772282
-0.847372 -0.665208 12.796195
-0.836579 -0.642617 12.806727
-0.825786 -0.620026 12.817260
-0.816779 -0.596710 12.827835
-0.808309 -0.573175 12.838423
-0.799840 -0.549640 12.849011
-0.783517 -0.495166 12.873063
-0.777813 -0.470792 12.883604
-0.772109 -0.446417 12.894144
-0.766705 -0.421985 12.904666
-0.764194 -0.396996 12.915010
-0.761682 -0.372007 12.925354
-0.757353 -0.315019 12.948749
-0.758352 -0.289770 12.958710
-0.759351 -0.264520 12.968672
-0.760350 -0.239271 12.978633
-0.762873 -0.214099 12.988352
-0.767492 -0.189033 12.997738
-0.778008 -0.131972 13.019104
-0.785141 -0.107358 13.027961
-0.793238 -0.082918 13.036614
-0.801336 -0.058479 13.045267
-0.809433 -0.034039 13.053921
-0.819865 -0.010329 13.061958
-0.845405 0.043085 13.079783
-0.856756 0.066491 13.087571
-0.870632 0.088770 13.094559
-0.884508 0.111050 13.101547
-0.898384 0.133329 13.108535
-0.912421 0.155516 13.115464
-0.948972 0.203360 13.129534
-0.965029 0.224377 13.135715
-0.981742 0.244929 13.141618
-0.999554 0.264700 13.147057
-1.017366 0.284471 13.152496
-1.035177 0.304243 13.157935
-1.078073 0.347281 13.169204
-1.097287 0.365875 13.173978
-1.116502 0.384470 13.178752
-1.136499 0.402309 13.183115
-1.156836 0.419820 13.187300
-1.177173 0.437332 13.191485
-1.224369 0.476213 13.200494
-1.245610 0.492740 13.204160
-1.266850 0.509267 13.207826
-1.288105 0.525777 13.211483
-1.310080 0.541415 13.214692
-1.332055 0.557054 13.217901
-1.382271 0.592398 13.225077
-1.404848 0.607236 13.227882
-1.427424 0.622074 13.230687
-1.450001 0.636912 13.233492
-1.472749 0.651504 13.236175
-1.495824 0.665620 13.238623
27 NaN NaN
-1.477609 -1.366206 12.428423
-1.397977 -1.302902 12.464784
-1.320261 -1.237567 12.501692
-1.244756 -1.170010 12.539183
-1.171828 -1.100014 12.577291
-1.101926 -1.027342 12.616051
-1.035614 -0.951733 12.655488
-0.973595 -0.872915 12.695613
-0.916756 -0.790620 12.736411
-0.866202 -0.704621 12.777819
-0.823287 -0.614795 12.819699
-0.789614 -0.521223 12.861796
-0.766940 -0.424326 12.903698
-0.756958 -0.324999 12.944812
-0.760929 -0.224645 12.984403
-0.779289 -0.125022 13.021706
-0.811473 -0.027881 13.056101
-0.856071 0.065392 13.087227
-0.911238 0.153968 13.115008
-0.975081 0.237535 13.139584
-1.045909 0.316155 13.161213
-1.122321 0.390101 13.180197
-1.203200 0.459742 13.196841
-1.287676 0.525471 13.211421
-1.375073 0.587668 13.224183
-1.464867 0.646682 13.235339
-1.556646 0.702827 13.245073
-1.911996 -1.376910 11.320431
-1.737523 -1.283082 11.339788
-1.566535 -1.183454 11.361064
-1.400126 -1.076869 11.384663
-1.239950 -0.961782 11.411133
-1.088602 -0.836142 11.441222
-0.951252 -0.696534 11.476217
-0.836192 -0.539832 11.517479
-0.757166 -0.364656 11.566117
-0.732077 -0.176497 11.621391
-0.770251 0.009047 11.679084
-0.862139 0.176333 11.734012
-0.988098 0.321736 11.784090
-1.133745 0.449221 11.829780
-1.291792 0.562526 11.871838
-1.458045 0.664677 11.910959
-1.910235 -1.375981 11.320621
-1.739267 -1.284041 11.339588
-1.735780 -1.282123 11.339988
-1.568236 -1.184482 11.360841
-1.564834 -1.182426 11.361287
-1.401768 -1.077982 11.384412
-1.398484 -1.075755 11.384915
-1.241506 -0.963004 11.410845
-1.238393 -0.960560 11.411421
-1.090027 -0.837504 11.440884
-1.087177 -0.834780 11.441559
-0.952583 -0.697981 11.475849
-0.949921 -0.695087 11.476584
-0.837237 -0.541479 11.517037
-0.835147 -0.538184 11.517921
-0.757718 -0.366505 11.565590
-0.756613 -0.362808 11.566645
-0.731928 -0.178404 11.620810
-0.732227 -0.174589 11.621972
-0.769449 0.007304 11.678520
-0.771054 0.010790 11.679648
-0.861099 0.174712 11.733472
-0.863179 0.177954 11.734552
-0.986744 0.320347 11.783603
-0.989451 0.323126 11.784576
-1.132212 0.448014 11.829340
-1.135279 0.450427 11.830220
-1.290150 0.561459 11.871434
-1.293435 0.563593 11.872242
-1.456331 0.663717 11.910584
-1.902781 -1.372047 11.321426
-1.746648 -1.288101 11.338742
-1.728398 -1.278062 11.340834
-1.575437 -1.188835 11.359898
-1.557633 -1.178074 11.362230
-1.408720 -1.082697 11.383347
-1.391532 -1.071040 11.385979
-1.248097 -0.968178 11.409624
-1.231803 -0.955387 11.412642
-1.096227 -0.843101 11.439517
-1.081144 -0.829013 11.442986
-0.958216 -0.704107 11.474294
-0.944288 -0.688960 11.478140
-0.841659 -0.548452 11.515165
-0.830725 -0.531211 11.519792
-0.760058 -0.374330 11.563357
-0.754274 -0.354983 11.568878
-0.731295 -0.186482 11.618351
-0.732860 -0.166512 11.624432
-0.766050 -0.000074 11.676130
-0.774452 0.018167 11.682038
-0.856698 0.167850 11.731187
-0.867740 0.184709 11.736813
-0.981014 0.314463 11.781545
-0.995181 0.329010 11.786634
-1.125722 0.442906 11.827476
-1.141769 0.455535 11.832084
-1.283197 0.556940 11.869724
-1.300388 0.568112 11.873952
-1.449076 0.659651 11.908995
-1.884603 -1.362451 11.323388
-1.860512 -1.349736 11.325989
-1.836421 -1.337020 11.328590
-1.812363 -1.324249 11.331208
-1.788506 -1.311126 11.333943
-1.764650 -1.298004 11.336678
-1.710502 -1.267985 11.342956
-1.686915 -1.254414 11.345839
-1.663329 -1.240843 11.348722
-1.639742 -1.227272 11.351605
-1.616272 -1.213517 11.354550
-1.592999 -1.199450 11.357598
-1.540071 -1.167459 11.364530
-1.517029 -1.153046 11.367694
-1.494124 -1.138427 11.370927
-1.471219 -1.123808 11.374159
-1.448314 -1.109189 11.377392
-1.425674 -1.094195 11.380751
-1.374578 -1.059543 11.388576
-1.352110 -1.044306 11.392016
-1.330096 -1.028469 11.395660
-1.308154 -1.012536 11.399336
-1.286212 -0.996604 11.403013
-1.264270 -0.980671 11.406689
-1.215730 -0.942770 11.415619
-1.194430 -0.926050 11.419565
-1.173209 -0.909242 11.423541
-1.152706 -0.891626 11.427796
-1.132202 -0.874010 11.432051
-1.111699 -0.856394 11.436306
-1.066431 -0.814949 11.446467
-1.046933 -0.796312 11.451080
-1.027435 -0.777674 11.455693
-1.008369 -0.758648 11.460444
-0.990162 -0.738848 11.465472
-0.971955 -0.719048 11.470500
-0.931544 -0.673247 11.482216
-0.915024 -0.652139 11.487723
-0.898503 -0.631031 11.493229
-0.881982 -0.609922 11.498735
-0.866737 -0.587996 11.504552
-0.852444 -0.565459 11.510601
-0.819940 -0.514204 11.524357
-0.808086 -0.490456 11.530893
-0.796735 -0.466457 11.537530
-0.785384 -0.442459 11.544166
-0.774033 -0.418461 11.550803
-0.765763 -0.393413 11.557911
-0.748569 -0.335900 11.574324
-0.741338 -0.310552 11.581575
-0.738369 -0.284459 11.589265
-0.735399 -0.258366 11.596956
-0.732430 -0.232274 11.604647
-0.729751 -0.206180 11.612353
-0.734403 -0.146813 11.630429
-0.736449 -0.120709 11.638378
-0.740030 -0.094870 11.646324
-0.746896 -0.069600 11.654266
-0.753762 -0.044329 11.662208
-0.760628 -0.019059 11.670150
-0.782740 0.036160 11.687865
-0.793723 0.060004 11.695587
-0.804706 0.083849 11.703309
-0.817513 0.106756 11.710842
-0.831738 0.128935 11.718228
-0.845964 0.151114 11.725613
-0.880326 0.200200 11.742106
-0.897006 0.220728 11.749120
-0.913685 0.241256 11.756134
-0.930365 0.261784 11.763148
-0.948520 0.281099 11.769872
-0.967039 0.300114 11.776525
-1.009236 0.343281 11.791635
-1.029146 0.360958 11.797956
-1.049056 0.378634 11.804277
-1.068966 0.396310 11.810598
-1.088917 0.413941 11.816907
-1.109893 0.430449 11.822931
-1.157598 0.467992 11.836630
-1.178819 0.484201 11.842576
-1.200629 0.499692 11.848336
-1.222438 0.515183 11.854097
-1.244248 0.530674 11.859857
-1.266239 0.545920 11.865553
-1.317345 0.579132 11.878123
-1.339817 0.593735 11.883650
-1.362574 0.607926 11.889068
-1.385581 0.621751 11.894388
-1.408589 0.635576 11.899709
-1.431597 0.649402 11.905029
29 NaN NaN
-1.912436 -1.377143 11.320383
-1.815608 -1.326034 11.330836
-1.719722 -1.273290 11.341829
-1.624920 -1.218744 11.353417
-1.531379 -1.162205 11.365669
-1.439318 -1.103447 11.378662
-1.349015 -1.042206 11.392490
-1.260826 -0.978170 11.407266
-1.175221 -0.910971 11.423123
-1.092819 -0.840173 11.440224
-1.014460 -0.765273 11.458762
-0.941296 -0.685706 11.478966
-0.874915 -0.600892 11.501091
-0.817496 -0.510351 11.525391
-0.771907 -0.413965 11.552046
-0.741551 -0.312427 11.581022
-0.729632 -0.207691 11.611893
-0.737844 -0.102917 11.643795
-0.765407 -0.001469 11.675678
-0.809513 0.094283 11.706688
-0.866655 0.183374 11.736356
-0.933669 0.265852 11.764538
-1.008087 0.342261 11.791270
-1.088098 0.413297 11.816672
-1.172400 0.479641 11.840880
-1.260053 0.541900 11.864031
-1.350371 0.600594 11.886246
-1.442845 0.656160 11.907630
-1.537088 0.708965 11.928274
-1.463155 -1.374352 9.207066
-1.241125 -1.161693 9.272820
-1.043045 -0.928259 9.343834
-0.883255 -0.669253 9.421099
-0.786323 -0.383157 9.504419
-0.783191 -0.082351 9.589506
-0.884243 0.203271 9.667647
-1.064214 0.451711 9.733271
-1.291366 0.662018 9.786916
-1.461703 -1.373038 9.207474
-1.242491 -1.163089 9.272390
-1.239758 -1.160297 9.273249
-1.044224 -0.929806 9.343367
-1.041866 -0.926713 9.344301
-0.884120 -0.670982 9.420589
-0.882389 -0.667524 9.421610
-0.786667 -0.385051 9.503875
-0.785979 -0.381263 9.504963
-0.782829 -0.084247 9.588979
-0.783554 -0.080456 9.590032
-0.883258 0.201590 9.667197
-0.885227 0.204953 9.668098
-1.062850 0.450295 9.732905
-1.065579 0.453126 9.733636
-1.289848 0.660755 9.786598
-1.452625 -1.364823 9.210027
-1.251037 -1.171817 9.269706
-1.231223 -1.151559 9.275935
-1.051595 -0.939478 9.340445
-1.034495 -0.917040 9.347222
-0.889532 -0.681796 9.417395
-0.876977 -0.656710 9.424804
-0.788820 -0.396892 9.500474
-0.783826 -0.369422 9.508364
-0.780559 -0.096097 9.585688
-0.785824 -0.068606 9.593323
-0.877101 0.191073 9.664382
-0.891384 0.215469 9.670913
-1.054627 0.441183 9.730540
-1.074114 0.461979 9.735920
-1.280355 0.652859 9.784608
-1.428700 -1.343170 9.216756
-1.396829 -1.314326 9.225719
-1.365474 -1.284969 9.234814
-1.334470 -1.255262 9.243999
-1.303563 -1.225465 9.253207
-1.273560 -1.194821 9.262631
-1.209572 -1.127791 9.283204
-1.180731 -1.096129 9.292886
-1.152245 -1.064178 9.302641
-1.124763 -1.031412 9.312601
-1.097281 -0.998645 9.322561
-1.071022 -0.964970 9.332747
-1.015879 -0.891004 9.355054
-0.991901 -0.855770 9.365622
-0.967923 -0.820536 9.376190
-0.946051 -0.784051 9.387058
-0.924340 -0.747471 9.397948
-0.903796 -0.710294 9.408978
-0.863020 -0.628081 9.433250
-0.847247 -0.588753 9.444766
-0.831475 -0.549425 9.456281
-0.817978 -0.509352 9.467950
-0.806016 -0.468776 9.479721
-0.794493 -0.428100 9.491510
-0.778152 -0.338213 9.517328
-0.774365 -0.296190 9.529300
-0.771736 -0.254028 9.541282
-0.770518 -0.211858 9.553230
-0.773158 -0.169661 9.565088
-0.775798 -0.127465 9.576945
-0.791805 -0.037373 9.601997
-0.801990 0.003721 9.613351
-0.815040 0.044153 9.624444
-0.828089 0.084584 9.635537
-0.845451 0.123493 9.646091
-0.863093 0.162303 9.656609
-0.907610 0.243185 9.678332
-0.929581 0.279894 9.688146
-0.954535 0.314824 9.697381
-0.979488 0.349755 9.706617
-1.006119 0.383484 9.715470
-1.033827 0.416442 9.724078
-1.096608 0.485309 9.741940
-1.126572 0.516388 9.749959
-1.157968 0.546111 9.757559
-1.189779 0.575440 9.765037
-1.222010 0.604325 9.772379
-1.255337 0.632048 9.779364
26 NaN NaN
-1.463517 -1.374681 9.206964
-1.383892 -1.302618 9.229357
-1.306435 -1.228399 9.252305
-1.231478 -1.151840 9.275850
-1.159424 -1.072738 9.300039
-1.090768 -0.990880 9.324922
-1.026116 -0.906046 9.350542
-0.966216 -0.818028 9.376942
-0.911982 -0.726650 9.404147
-0.864519 -0.631821 9.432155
-0.825125 -0.533592 9.460918
-0.795249 -0.432256 9.490316
-0.776375 -0.328438 9.520136
-0.769811 -0.223160 9.550054
-0.776402 -0.117801 9.579661
-0.796298 -0.013915 9.608512
-0.828883 0.087044 9.636212
-0.872938 0.183963 9.662479
-0.926923 0.276173 9.687162
-0.989249 0.363418 9.710229
-1.058461 0.445743 9.731731
-1.133313 0.523379 9.751763
-1.212780 0.596647 9.770444
-1.296039 0.665905 9.787895
-1.382431 0.731504 9.804232
-1.471431 0.793777 9.819563
-1.021031 -1.292599 6.045362
-0.913171 -1.093633 6.088814
-0.825239 -0.885451 6.133619
-0.763842 -0.668311 6.179548
-0.737208 -0.444486 6.225921
-0.753450 -0.219636 6.271367
-0.816677 -0.002715 6.313950
-0.923761 0.197307 6.351924
-1.065905 0.375450 6.384505
-1.233350 0.531271 6.411861
-1.020054 -1.290895 6.045735
-0.913998 -1.095413 6.088429
-0.912343 -1.091853 6.089199
-0.825870 -0.887307 6.133223
-0.824608 -0.883595 6.134014
-0.764216 -0.670234 6.179146
-0.763467 -0.666388 6.179951
-0.737257 -0.446444 6.225520
-0.737159 -0.442527 6.226322
-0.753119 -0.221570 6.270981
-0.753781 -0.217702 6.271753
-0.815959 -0.004547 6.313595
-0.817394 -0.000882 6.314305
-0.922705 0.195638 6.351611
-0.924817 0.198977 6.352236
-1.064590 0.373967 6.384237
-1.067220 0.376933 6.384772
-1.231780 0.530050 6.411653
-1.015379 -1.282740 6.047523
-0.917957 -1.103926 6.086587
-0.908384 -1.083339 6.091041
-0.828890 -0.896187 6.131332
-0.821588 -0.874715 6.135906
-0.766006 -0.679434 6.177222
-0.761677 -0.657188 6.181875
-0.737490 -0.455816 6.223602
-0.736926 -0.433156 6.228240
-0.751537 -0.230824 6.269135
-0.755363 -0.208447 6.273599
-0.812524 -0.013315 6.311897
-0.820829 0.007886 6.316003
-0.917655 0.187650 6.350115
-0.929867 0.206965 6.353732
-1.058299 0.366873 6.382956
-1.073586 0.383960 6.386037
-1.224597 0.523823 6.410573
-1.003651 -1.262280 6.052008
-0.988078 -1.235113 6.057964
-0.972505 -1.207946 6.063919
-0.957720 -1.180363 6.069938
-0.943260 -1.152608 6.075984
-0.928800 -1.124852 6.082030
-0.898452 -1.061979 6.095662
-0.885263 -1.033617 6.101798
-0.872211 -1.005197 6.107943
-0.860480 -0.976220 6.114166
-0.848749 -0.947243 6.120389
-0.837018 -0.918266 6.126611
-0.814012 -0.852436 6.140652
-0.803953 -0.822854 6.146954
-0.794810 -0.792999 6.153288
-0.786666 -0.762847 6.159655
-0.778521 -0.732696 6.166023
-0.770497 -0.702516 6.172393
-0.757186 -0.634105 6.186704
-0.751222 -0.603457 6.193115
-0.747385 -0.572484 6.199536
-0.743880 -0.541460 6.205958
-0.740376 -0.510436 6.212381
-0.738076 -0.479327 6.218789
-0.736340 -0.409645 6.233053
-0.736304 -0.378439 6.239420
-0.738478 -0.347269 6.245722
-0.740652 -0.316099 6.252024
-0.742826 -0.284929 6.258326
-0.747567 -0.254042 6.264503
-0.759333 -0.185230 6.278231
-0.766604 -0.154822 6.284242
-0.775006 -0.124652 6.290175
-0.783408 -0.094482 6.296108
-0.792467 -0.064521 6.301981
-0.803908 -0.035313 6.307637
-0.829519 0.029852 6.320254
-0.843794 0.057848 6.325588
-0.858069 0.085844 6.330922
-0.872344 0.113840 6.336256
-0.888158 0.140999 6.341378
-0.904983 0.167609 6.346362
-0.943458 0.226395 6.357337
-0.962511 0.251527 6.361960
-0.981564 0.276659 6.366583
-1.000617 0.301791 6.371206
-1.021557 0.325440 6.375476
-1.042515 0.349073 6.379743
-1.090579 0.400656 6.388994
-1.113144 0.422824 6.392919
-1.135708 0.444993 6.396844
-1.158777 0.466636 6.400649
-1.182684 0.487408 6.404254
-1.206592 0.508180 6.407858
22 NaN NaN
-1.021275 -1.293025 6.045268
-0.967960 -1.200018 6.065657
-0.918455 -1.104997 6.086355
-0.873305 -1.007900 6.107362
-0.833145 -0.908701 6.128666
-0.798709 -0.807433 6.150240
-0.770829 -0.704220 6.172037
-0.750415 -0.599310 6.193982
-0.738420 -0.493121 6.215966
-0.735757 -0.386273 6.237836
-0.743198 -0.279595 6.259405
-0.761238 -0.174089 6.280453
-0.789992 -0.070838 6.300758
-0.829147 0.029123 6.320116
-0.878004 0.124939 6.338371
-0.935590 0.216016 6.355428
-1.000805 0.302039 6.371251
-1.072546 0.382938 6.385856
-1.149787 0.458825 6.399294
-1.231628 0.529932 6.411633
-1.317304 0.596556 6.422957
-1.406176 0.659018 6.433347
