-1.446922 0.857296 8.660826
-1.449562 0.859204 8.651602
-1.452201 0.861111 8.642377
-1.583398 0.955907 8.184188
-1.713408 1.049846 7.730139
-1.842819 1.143465 7.275855
-1.971756 1.236825 6.821509
-1.453926 0.862357 8.636351
-1.582858 0.955517 8.186074
-1.583937 0.956297 8.182302
-1.712866 1.049455 7.732025
-1.713949 1.050237 7.728254
-1.842281 1.143077 7.277741
-1.843356 1.143854 7.273968
-1.971318 1.236489 6.823431
-1.460986 0.867459 8.611677
-1.575794 0.950413 8.210746
-1.590999 0.961400 8.157629
-1.705783 1.044341 7.756689
-1.721036 1.055354 7.703591
-1.835251 1.137991 7.302427
-1.850386 1.148940 7.249282
-1.965575 1.232093 6.848578
-1.476095 0.878378 8.558881
-1.493007 0.890598 8.499811
-1.509923 0.902820 8.440742
-1.526840 0.915043 8.381674
-1.543759 0.927267 8.322607
-1.560676 0.939490 8.263538
-1.606110 0.972320 8.104835
-1.623008 0.984532 8.045759
-1.639904 0.996744 7.986682
-1.656800 1.008955 7.927605
-1.673709 1.021174 7.868534
-1.690628 1.033398 7.809466
-1.736207 1.066305 7.650820
-1.753151 1.078542 7.591763
-1.770066 1.090764 7.532693
-1.786851 1.102917 7.473573
-1.803592 1.115045 7.414435
-1.820257 1.127134 7.355268
-1.865799 1.160021 7.196609
-1.883194 1.172499 7.137733
-1.901011 1.185202 7.079032
-1.918597 1.197782 7.020235
-1.936012 1.210271 6.961368
-1.951937 1.221963 6.901918
-2.623942 1.618639 5.877753
-3.553486 1.839865 5.099452
-4.484261 2.034287 4.314033
-5.461482 2.303485 3.619326
-6.092166 3.177076 3.056498
-6.652783 4.142331 2.532519
-7.276651 5.048995 1.976810
-7.986782 5.861929 1.382482
-8.798008 6.535122 0.744807
-9.705502 7.022523 0.069796
-10.679800 7.313547 -0.625448
-11.689801 7.421240 -1.323096
-12.712225 7.372567 -2.009908
-1.972195 1.237161 6.819587
-2.622543 1.618104 5.879079
-2.625341 1.619174 5.876428
-3.551958 1.839561 5.100707
-3.555013 1.840169 5.098197
-4.482724 2.033981 4.315276
-4.485798 2.034594 4.312790
-5.459985 2.302722 3.620412
-5.462978 2.304247 3.618239
-6.091295 3.175447 3.057265
-6.093037 3.178704 3.055731
-6.651820 4.140814 2.533398
-6.653746 4.143847 2.531640
-7.275582 5.047582 1.977737
-7.277720 5.050408 1.975883
-7.985536 5.860731 1.383487
-7.988029 5.863127 1.381477
-8.796621 6.534149 0.745871
-8.799395 6.536094 0.743744
-9.703973 7.021874 0.070910
-9.707031 7.023171 0.068681
-10.678179 7.313256 -0.624314
-10.681422 7.313838 -0.626582
-11.688148 7.421197 -1.321970
-11.691454 7.421283 -1.324222
-12.710566 7.372754 -2.008808
-1.977938 1.241557 6.794440
-2.604242 1.611099 5.896418
-2.643643 1.626179 5.859088
-3.531974 1.835589 5.117124
-3.574876 1.844246 5.081659
-4.462662 2.029962 4.331586
-4.505902 2.038603 4.296529
-5.440411 2.292746 3.634625
-5.482552 2.314223 3.604026
-6.079897 3.154139 3.067302
-6.104476 3.199934 3.045581
-6.639423 4.120797 2.544813
-6.666343 4.163689 2.520138
-7.261595 5.029090 1.989866
-7.291706 5.068900 1.963754
-7.969228 5.845053 1.396638
-8.004336 5.878805 1.368326
-8.778473 6.521427 0.759780
-8.817666 6.548581 0.729786
-9.684024 7.013239 0.085474
-9.727033 7.031655 0.054100
-10.656964 7.309451 -0.609477
-10.702636 7.317643 -0.641419
-11.666526 7.420633 -1.307245
-11.713076 7.421848 -1.338947
-12.688856 7.375190 -1.994406
-2.004844 1.261954 6.680710
-2.072251 1.307435 6.512157
-2.177711 1.373305 6.371888
-2.291408 1.445342 6.240732
-2.403838 1.514688 6.107066
-2.523392 1.576963 5.976206
-2.729869 1.653733 5.782415
-2.869702 1.692673 5.663038
-3.009846 1.730406 5.543633
-3.151766 1.763777 5.425053
-3.296338 1.791204 5.308152
-3.441166 1.817834 5.191374
-3.664738 1.862863 5.006474
-3.806232 1.892910 4.886480
-3.947627 1.923011 4.766384
-4.089349 1.952776 4.646589
-4.231235 1.982149 4.526892
-4.372920 2.011474 4.406945
-4.598311 2.056464 4.224324
-4.749077 2.083711 4.115498
-4.901108 2.111374 4.008529
-5.051917 2.144947 3.901595
-5.201544 2.192522 3.798446
-5.349187 2.251740 3.698385
-5.566040 2.367863 3.539175
-5.673510 2.484434 3.438964
-5.766307 2.617348 3.343918
-5.860326 2.753256 3.254491
-5.948598 2.900111 3.177737
-6.029018 3.056311 3.111028
-6.157076 3.294740 2.997421
-6.240456 3.443688 2.918785
-6.324145 3.591807 2.838918
-6.409965 3.738276 2.758277
-6.496687 3.884091 2.677412
-6.583622 4.029689 2.596387
-6.723736 4.253403 2.467870
-6.815649 4.394625 2.384624
-6.908324 4.535135 2.301018
-7.002700 4.674044 2.216648
-7.099395 4.810703 2.131235
-7.198407 4.945016 2.044761
-7.355401 5.152445 1.908638
-7.458666 5.282226 1.820258
-7.565683 5.407746 1.730199
-7.673843 5.531934 1.639641
-7.782686 5.655290 1.548781
-7.895725 5.773368 1.456078
-8.078287 5.949865 1.308690
-8.196383 6.061086 1.213801
-8.317687 6.167589 1.117572
-8.442074 6.269270 1.020065
-8.568589 6.367415 0.921670
-8.696660 6.462889 0.822658
-8.901519 6.603222 0.666100
-9.036747 6.684887 0.564298
-9.172564 6.765330 0.462294
-9.309470 6.843351 0.359888
-9.450500 6.911420 0.256027
-9.593660 6.973832 0.151475
-9.818094 7.069013 -0.012122
-9.964331 7.121977 -0.117588
-10.112214 7.169292 -0.223474
-10.260914 7.213524 -0.329553
-10.410446 7.254423 -0.435798
-10.561136 7.290272 -0.542223
-10.798929 7.334283 -0.708690
-10.951546 7.360218 -0.815260
-11.104745 7.382498 -0.921791
-11.259060 7.396579 -1.028105
-11.413818 7.406773 -1.134255
-11.568618 7.416553 -1.240379
-11.811235 7.422543 -1.405570
-11.966899 7.420778 -1.510864
-12.122671 7.416739 -1.615937
-12.278525 7.410271 -1.720763
-12.434457 7.400261 -1.825188
-12.590418 7.385887 -1.929060
183 NaN NaN
-1.445603 0.856342 8.665438
-1.472733 0.875949 8.570620
-1.499879 0.895564 8.475809
-1.527033 0.915183 8.381000
-1.554189 0.934803 8.286192
-1.581339 0.954419 8.191382
-1.608476 0.974030 8.096566
-1.635596 0.993630 8.001744
-1.662715 1.013231 7.906922
-1.689868 1.032849 7.812112
-1.717086 1.052503 7.717329
-1.744333 1.072171 7.622557
-1.771482 1.091788 7.527747
-1.798405 1.111283 7.432847
-1.825155 1.130686 7.337879
-1.852171 1.150231 7.243016
-1.879940 1.170179 7.148455
-1.908538 1.190568 7.054235
-1.936491 1.210614 6.959750
-1.961982 1.229343 6.864309
-1.984050 1.246235 6.767677
-2.007078 1.263643 6.671367
-2.037790 1.285154 6.578151
-2.082307 1.313936 6.492900
-2.138350 1.348849 6.417144
-2.199449 1.386811 6.346893
-2.260732 1.425650 6.277277
-2.320490 1.464009 6.206086
-2.380279 1.501181 6.134293
-2.441878 1.536498 6.063102
-2.506411 1.569390 5.993367
-2.573890 1.599483 5.925174
-2.644214 1.626398 5.858547
-2.717077 1.650057 5.793424
-2.791544 1.671455 5.729336
-2.866639 1.691840 5.665648
-2.941597 1.712223 5.601799
-3.016601 1.732206 5.537877
-3.092152 1.750881 5.474207
-3.168672 1.767435 5.411112
-3.245999 1.782176 5.348550
-3.323665 1.796106 5.286221
-3.401230 1.810212 5.223807
-3.478442 1.824947 5.161101
-3.555238 1.840213 5.098012
-3.631564 1.855887 5.034455
-3.707453 1.871846 4.970446
-3.783088 1.887964 4.906177
-3.858668 1.904118 4.841853
-3.934344 1.920208 4.777625
-4.010122 1.936201 4.713494
-4.085981 1.952077 4.649430
-4.161895 1.967829 4.585399
-4.237806 1.983506 4.521347
-4.313645 1.999176 4.457208
-4.389395 2.014892 4.392975
-4.465529 2.030552 4.329184
-4.542785 2.045958 4.266697
-4.621829 2.060914 4.206378
-4.702509 2.075463 4.148158
-4.783982 2.089893 4.091018
-4.865425 2.104511 4.033886
-4.946400 2.120085 3.976343
-5.027024 2.138113 3.919030
-5.107371 2.160169 3.862756
-5.187331 2.187062 3.808054
-5.266709 2.217557 3.754395
-5.345438 2.250107 3.700982
-5.423258 2.284003 3.647080
-5.498460 2.322331 3.592475
-5.568200 2.369318 3.537471
-5.629037 2.427983 3.483160
-5.682025 2.495243 3.430501
-5.731224 2.566498 3.379389
-5.780743 2.638273 3.329322
-5.831420 2.710305 3.280807
-5.881461 2.784661 3.235249
-5.928850 2.863230 3.194176
-5.973023 2.945725 3.157405
-6.015537 3.029857 3.122400
-6.058169 3.113518 3.086435
-6.101967 3.195399 3.047868
-6.146512 3.275893 3.007285
-6.191237 3.355684 2.965524
-6.235765 3.435324 2.923268
-6.280328 3.514769 2.880683
-6.325298 3.593835 2.837819
-6.370974 3.672373 2.794734
-6.417203 3.750510 2.751509
-6.463650 3.828488 2.708232
-6.510017 3.906526 2.664976
-6.556407 3.984529 2.621680
-6.603201 4.062180 2.578190
-6.650772 4.139163 2.534355
-6.699181 4.215412 2.490157
-6.748144 4.291165 2.445716
-6.797365 4.366682 2.401159
-6.846705 4.442086 2.356540
-6.896321 4.517231 2.311793
-6.946405 4.591939 2.266835
-6.997113 4.666056 2.221600
-7.048489 4.739527 2.176065
-7.100550 4.812318 2.130218
-7.153293 4.884417 2.084057
-7.206564 4.955971 2.037656
-7.260158 5.027190 1.991112
-7.313907 5.098251 1.944503
-7.368020 5.168926 1.897731
-7.422950 5.238720 1.850590
-7.479116 5.307136 1.802891
-7.536442 5.374216 1.754675
-7.594346 5.440614 1.706206
-7.652242 5.507025 1.657744
-7.709987 5.573616 1.609350
-7.768230 5.639608 1.560732
-7.827684 5.704102 1.511579
-7.888744 5.766528 1.461728
-7.950921 5.827454 1.411401
-8.013589 5.887701 1.360864
-8.076263 5.947935 1.310320
-8.139141 6.007878 1.259683
-8.202653 6.066915 1.208775
-8.267179 6.124465 1.157445
-8.332742 6.180442 1.105687
-8.399161 6.235063 1.053574
-8.466268 6.288556 1.001173
-8.533936 6.341104 0.948536
-8.602077 6.392842 0.895708
-8.670609 6.443908 0.842730
-8.739596 6.494171 0.789578
-8.809333 6.543061 0.736127
-8.880119 6.589946 0.682260
-8.952030 6.634559 0.627956
-9.024620 6.677748 0.573400
-9.097378 6.720581 0.518788
-9.169960 6.763803 0.464248
-9.242782 6.806503 0.409618
-9.316481 6.847224 0.354660
-9.391549 6.884652 0.299219
-9.467711 6.919235 0.243417
-9.544372 6.952441 0.187459
-9.621013 6.985703 0.131506
-9.697580 7.019163 0.075571
-9.774446 7.051764 0.019538
-9.851969 7.082400 -0.036693
-9.930258 7.110604 -0.093135
-10.009103 7.136920 -0.149719
-10.088295 7.161982 -0.206387
-10.167698 7.186248 -0.263108
-10.247314 7.209690 -0.319876
-10.327164 7.232200 -0.376692
-10.407277 7.253633 -0.433555
-10.487712 7.273672 -0.490470
-10.568531 7.291944 -0.547436
-10.649761 7.308159 -0.604439
-10.731285 7.322781 -0.661455
-10.812938 7.336665 -0.718472
-10.894579 7.350613 -0.775490
-10.976251 7.364384 -0.832507
-11.058139 7.376841 -0.889515
-11.140393 7.386825 -0.946477
-11.222992 7.394104 -1.003353
-11.305768 7.399785 -1.060158
-11.388583 7.405075 -1.116943
-11.471371 7.410646 -1.173741
-11.554196 7.415855 -1.230519
-11.637135 7.419865 -1.287227
-11.720224 7.422035 -1.343815
-11.803422 7.422597 -1.400281
-11.886687 7.422020 -1.456650
-11.969990 7.420731 -1.512953
-12.053320 7.418841 -1.569196
-12.136677 7.416315 -1.625377
-12.220056 7.413107 -1.681488
-12.303458 7.409062 -1.737511
-12.386883 7.403937 -1.793410
-12.470325 7.397489 -1.849147
-12.553770 7.389727 -1.904713
-12.637208 7.380985 -1.960144
-12.720636 7.371623 -2.015488
-12.804060 7.361999 -2.070794
-12.887485 7.352470 -2.126114
-12.970918 7.343393 -2.181500
