-2.042294 -0.733196 23.699501
-2.097657 -0.725729 22.757675
-2.153257 -0.717110 21.815874
-2.208907 -0.708240 20.874077
-2.264425 -0.700021 19.932267
-2.319505 -0.693434 18.990418
-2.370220 -0.691908 18.048309
-2.408492 -0.701654 17.105676
-2.432066 -0.726159 16.162821
-2.453927 -0.761554 15.220262
-2.484026 -0.800598 14.278073
-2.502481 -0.823136 13.335113
-2.481148 -0.806311 12.392218
-2.426176 -0.755386 11.451753
-2.369553 -0.696997 10.511794
-2.322414 -0.648044 9.570770
-2.262396 -0.609774 8.630013
-2.172216 -0.581142 7.691327
-2.062061 -0.558217 6.754586
-1.948177 -0.536359 5.818260
-1.846683 -0.510956 4.880619
-2.042411 -0.733182 23.697504
-2.097540 -0.725746 22.759672
-2.097775 -0.725712 22.755679
-2.153139 -0.717129 21.817870
-2.153375 -0.717092 21.813877
-2.208790 -0.708258 20.876073
-2.209025 -0.708222 20.872081
-2.264307 -0.700038 19.934263
-2.264542 -0.700005 19.930270
-2.319391 -0.693444 18.992415
-2.319619 -0.693424 18.988422
-2.370123 -0.691901 18.050306
-2.370317 -0.691915 18.046311
-2.408428 -0.701618 17.107675
-2.408557 -0.701689 17.103678
-2.432023 -0.726094 16.164819
-2.432108 -0.726225 16.160822
-2.453873 -0.761472 15.222260
-2.453982 -0.761637 15.218265
-2.483965 -0.800526 14.280070
-2.484087 -0.800671 14.276075
-2.502476 -0.823123 13.337113
-2.502487 -0.823149 13.333113
-2.481237 -0.806388 12.394215
-2.481059 -0.806233 12.390222
-2.426306 -0.755512 11.453745
-2.426047 -0.755261 11.449761
-2.369658 -0.697113 10.513788
-2.369448 -0.696881 10.509800
-2.322520 -0.648136 9.572765
-2.322308 -0.647953 9.568775
-2.262554 -0.609844 8.632005
-2.262238 -0.609703 8.628020
-2.172432 -0.581196 7.693314
-2.172000 -0.581089 7.689339
-2.062304 -0.558262 6.756571
-2.061818 -0.558171 6.752601
-1.948412 -0.536407 5.820245
-1.947943 -0.536311 5.816274
-1.846871 -0.511018 4.882609
-2.043656 -0.733031 23.676267
-2.096288 -0.725931 22.780908
-2.099027 -0.725527 22.734443
-2.151884 -0.717330 21.839106
-2.154630 -0.716891 21.792641
-2.207536 -0.708454 20.897309
-2.210279 -0.708026 20.850845
-2.263058 -0.700209 19.955500
-2.265791 -0.699833 19.909034
-2.318165 -0.693562 19.013653
-2.320836 -0.693315 18.967183
-2.369090 -0.691832 18.071555
-2.371351 -0.691984 18.025062
-2.407747 -0.701240 17.128935
-2.409219 -0.702085 17.082418
-2.431569 -0.725394 16.186077
-2.432562 -0.726925 16.139564
-2.453291 -0.760591 15.243507
-2.454564 -0.762518 15.197017
-2.483297 -0.799730 14.301319
-2.484737 -0.801442 14.254825
-2.502419 -0.822986 13.358386
-2.502544 -0.823285 13.311839
-2.482180 -0.807215 12.415452
-2.480060 -0.805350 12.368990
-2.427684 -0.756847 11.474932
-2.424669 -0.753925 11.428574
-2.370773 -0.698344 10.534997
-2.368332 -0.695650 10.488591
-2.323631 -0.649120 9.593987
-2.321185 -0.646979 9.547553
-2.264237 -0.610589 8.653199
-2.260555 -0.608958 8.606826
-2.174730 -0.581766 7.714456
-2.169660 -0.580531 7.668202
-2.064892 -0.558750 6.777681
-2.059230 -0.557684 6.731491
-1.950909 -0.536920 5.841366
-1.945447 -0.535797 5.795153
-1.848891 -0.511667 4.903777
-2.048994 -0.732380 23.585203
-2.057365 -0.731323 23.442555
-2.065742 -0.730227 23.299908
-2.074129 -0.729089 23.157261
-2.082522 -0.727919 23.014615
-2.090923 -0.726715 22.871969
-2.104396 -0.724727 22.643382
-2.112810 -0.723455 22.500738
-2.121228 -0.722161 22.358094
-2.129650 -0.720850 22.215451
-2.138075 -0.719525 22.072808
-2.146503 -0.718188 21.930166
-2.160011 -0.716029 21.701581
-2.168442 -0.714677 21.558939
-2.176872 -0.713325 21.416297
-2.185302 -0.711976 21.273655
-2.193731 -0.710633 21.131012
-2.202157 -0.709299 20.988370
-2.215656 -0.707190 20.759784
-2.224074 -0.705895 20.617141
-2.232489 -0.704621 20.474497
-2.240898 -0.703371 20.331853
-2.249303 -0.702146 20.189208
-2.257701 -0.700954 20.046562
-2.271144 -0.699111 19.817971
-2.279523 -0.698010 19.675324
-2.287893 -0.696952 19.532675
-2.296255 -0.695935 19.390026
-2.304598 -0.694975 19.247376
-2.312902 -0.694081 19.104723
-2.326044 -0.692862 18.876110
-2.334098 -0.692267 18.733441
-2.342015 -0.691812 18.590764
-2.349740 -0.691550 18.448075
-2.357277 -0.691467 18.305377
-2.364565 -0.691618 18.162665
-2.375694 -0.692362 17.933944
-2.382262 -0.693165 17.791200
-2.388455 -0.694300 17.648441
-2.394312 -0.695728 17.505671
-2.399747 -0.697520 17.362888
-2.404770 -0.699669 17.220095
-2.411965 -0.703871 16.991254
-2.415959 -0.706984 16.848446
-2.419685 -0.710399 16.705638
-2.423158 -0.714147 16.562832
-2.426446 -0.718186 16.420030
-2.429602 -0.722501 16.277232
-2.434506 -0.729975 16.048414
-2.437556 -0.734940 15.905635
-2.440664 -0.740134 15.762866
-2.443881 -0.745526 15.620106
-2.447256 -0.751097 15.477357
-2.450858 -0.756845 15.334621
-2.457192 -0.766350 15.105913
-2.461561 -0.772431 14.963211
-2.466170 -0.778546 14.820519
-2.470910 -0.784612 14.677829
-2.475683 -0.790531 14.535134
-2.480388 -0.796249 14.392429
-2.487488 -0.804699 14.163702
-2.491491 -0.809416 14.020938
-2.495059 -0.813627 13.878148
-2.498023 -0.817171 13.735325
-2.500376 -0.820073 13.592477
-2.501883 -0.822110 13.449603
-2.502467 -0.823561 13.220617
-2.501530 -0.823204 13.077724
-2.499336 -0.821650 12.934853
-2.496048 -0.819058 12.792018
-2.491559 -0.815319 12.649241
-2.486128 -0.810663 12.506523
-2.475647 -0.801433 12.277958
-2.468130 -0.794669 12.135419
-2.460087 -0.787340 11.992937
-2.451548 -0.779446 11.850513
-2.442675 -0.771140 11.708134
-2.433569 -0.762497 11.565789
-2.418767 -0.748171 11.337724
-2.409575 -0.739090 11.195412
-2.400570 -0.730011 11.053088
-2.391843 -0.721025 10.910740
-2.383510 -0.712224 10.768358
-2.375623 -0.703675 10.625935
-2.363665 -0.690477 10.397635
-2.356517 -0.682575 10.255135
-2.349494 -0.674915 10.112616
-2.342510 -0.667498 9.970082
-2.335476 -0.660339 9.827538
-2.328321 -0.653405 9.684988
-2.316318 -0.642838 9.456554
-2.308383 -0.636555 9.314016
-2.300004 -0.630510 9.171492
-2.291055 -0.624722 9.028993
-2.281532 -0.619154 8.886522
-2.271210 -0.613856 8.744096
-2.253063 -0.605840 8.515965
-2.240721 -0.601129 8.373680
-2.227604 -0.596637 8.231457
-2.213874 -0.592321 8.089286
-2.199465 -0.588199 7.947177
-2.184538 -0.584224 7.805117
-2.159582 -0.578150 7.577569
-2.143440 -0.574523 7.435632
-2.126974 -0.570988 7.293731
-2.110180 -0.567547 7.151865
-2.093160 -0.564171 7.010025
-2.075949 -0.560850 6.868207
-2.048119 -0.555599 6.640971
-2.030686 -0.552341 6.499179
-2.013268 -0.549079 6.357384
-1.995919 -0.545798 6.215582
-1.978698 -0.542479 6.073764
-1.961663 -0.539107 5.931926
-1.934870 -0.533559 5.704573
-1.918584 -0.529973 5.562652
-1.902665 -0.526282 5.420692
-1.887191 -0.522463 5.278687
-1.872227 -0.518499 5.136630
-1.857781 -0.514387 4.994524
194 NaN NaN
-2.042265 -0.733199 23.700000
-2.048132 -0.732488 23.599901
-2.054004 -0.731754 23.499802
-2.059880 -0.731000 23.399703
-2.065760 -0.730225 23.299605
-2.071644 -0.729432 23.199507
-2.077532 -0.728620 23.099409
-2.083423 -0.727792 22.999312
-2.089317 -0.726948 22.899216
-2.095215 -0.726090 22.799119
-2.101115 -0.725218 22.699023
-2.107017 -0.724334 22.598927
-2.112922 -0.723438 22.498831
-2.118829 -0.722532 22.398736
-2.124738 -0.721618 22.298640
-2.130649 -0.720695 22.198545
-2.136561 -0.719764 22.098450
-2.142474 -0.718829 21.998355
-2.148388 -0.717888 21.898261
-2.154303 -0.716943 21.798166
-2.160219 -0.715996 21.698071
-2.166134 -0.715048 21.597977
-2.172050 -0.714098 21.497882
-2.177966 -0.713150 21.397787
-2.183881 -0.712203 21.297693
-2.189796 -0.711259 21.197598
-2.195710 -0.710319 21.097503
-2.201624 -0.709383 20.997408
-2.207535 -0.708454 20.897313
-2.213446 -0.707532 20.797218
-2.219354 -0.706618 20.697123
-2.225261 -0.705713 20.597027
-2.231166 -0.704819 20.496932
-2.237068 -0.703936 20.396836
-2.242968 -0.703066 20.296739
-2.248865 -0.702209 20.196643
-2.254759 -0.701367 20.096546
-2.260650 -0.700540 19.996449
-2.266537 -0.699731 19.896351
-2.272421 -0.698939 19.796253
-2.278300 -0.698167 19.696155
-2.284176 -0.697415 19.596057
-2.290047 -0.696683 19.495957
-2.295914 -0.695974 19.395858
-2.301773 -0.695290 19.295758
-2.307617 -0.694638 19.195657
-2.313435 -0.694025 19.095554
-2.319217 -0.693459 18.995448
-2.324953 -0.692949 18.895340
-2.330633 -0.692500 18.795228
-2.336247 -0.692122 18.695113
-2.341785 -0.691822 18.594992
-2.347237 -0.691607 18.494867
-2.352593 -0.691485 18.394737
-2.357842 -0.691465 18.294601
-2.362976 -0.691553 18.194458
-2.367983 -0.691757 18.094310
-2.372854 -0.692086 17.994155
-2.377578 -0.692546 17.893994
-2.382146 -0.693146 17.793826
-2.386548 -0.693893 17.693652
-2.390773 -0.694795 17.593471
-2.394811 -0.695859 17.493284
-2.398652 -0.697094 17.393092
-2.402286 -0.698508 17.292894
-2.405705 -0.700106 17.192691
-2.408915 -0.701888 17.092485
-2.411936 -0.703849 16.992276
-2.414785 -0.705983 16.892065
-2.417481 -0.708282 16.791854
-2.420043 -0.710743 16.691643
-2.422488 -0.713358 16.591433
-2.424835 -0.716122 16.491225
-2.427103 -0.719028 16.391019
-2.429309 -0.722071 16.290816
-2.431472 -0.725244 16.190616
-2.433611 -0.728543 16.090419
-2.435744 -0.731960 15.990226
-2.437889 -0.735490 15.890038
-2.440065 -0.739127 15.789854
-2.442290 -0.742864 15.689674
-2.444582 -0.746697 15.589500
-2.446959 -0.750618 15.489331
-2.449440 -0.754623 15.389168
-2.452044 -0.758704 15.289011
-2.454788 -0.762856 15.188861
-2.457690 -0.767074 15.088718
-2.460753 -0.771343 14.988582
-2.463943 -0.775637 14.888451
-2.467225 -0.779925 14.788323
-2.470562 -0.784178 14.688195
-2.473918 -0.788367 14.588065
-2.477256 -0.792462 14.487931
-2.480540 -0.796433 14.387789
-2.483733 -0.800251 14.287639
-2.486799 -0.803887 14.187478
-2.489701 -0.807309 14.087305
-2.492403 -0.810490 13.987118
-2.494868 -0.813399 13.886917
-2.497059 -0.816005 13.786701
-2.498939 -0.818280 13.686471
-2.500472 -0.820192 13.586227
-2.501620 -0.821712 13.485972
-2.502346 -0.822810 13.385707
-2.502614 -0.823455 13.285436
-2.502386 -0.823618 13.185163
-2.501626 -0.823268 13.084893
-2.500295 -0.822375 12.984632
-2.498364 -0.820915 12.884388
-2.495851 -0.818901 12.784166
-2.492794 -0.816367 12.683971
-2.489234 -0.813345 12.583806
-2.485210 -0.809870 12.483674
-2.480764 -0.805974 12.383574
-2.475934 -0.801691 12.283509
-2.470762 -0.797053 12.183476
-2.465285 -0.792093 12.083475
-2.459545 -0.786844 11.983503
-2.453581 -0.781340 11.883559
-2.447432 -0.775613 11.783638
-2.441138 -0.769695 11.683737
-2.434738 -0.763619 11.583852
-2.428272 -0.757417 11.483979
-2.421778 -0.751123 11.384114
-2.415296 -0.744768 11.284252
-2.408865 -0.738386 11.184389
-2.402524 -0.732007 11.084519
-2.396313 -0.725665 10.984639
-2.390271 -0.719392 10.884744
-2.384435 -0.713221 10.784831
-2.378821 -0.707171 10.684898
-2.373400 -0.701244 10.584946
-2.368142 -0.695440 10.484979
-2.363018 -0.689759 10.384997
-2.357996 -0.684199 10.285004
-2.353046 -0.678762 10.185000
-2.348138 -0.673447 10.084987
-2.343241 -0.668253 9.984968
-2.338326 -0.663181 9.884943
-2.333361 -0.658230 9.784915
-2.328315 -0.653400 9.684885
-2.323160 -0.648690 9.584855
-2.317863 -0.644101 9.484826
-2.312395 -0.639633 9.384801
-2.306725 -0.635285 9.284782
-2.300823 -0.631056 9.184772
-2.294658 -0.626947 9.084772
-2.288199 -0.622958 8.984786
-2.281416 -0.619088 8.884817
-2.274279 -0.615337 8.784868
-2.266757 -0.611706 8.684943
-2.258826 -0.608192 8.585045
-2.250494 -0.604792 8.485176
-2.241781 -0.601501 8.385336
-2.232707 -0.598312 8.285525
-2.223291 -0.595221 8.185742
-2.213552 -0.592222 8.085987
-2.203512 -0.589309 7.986260
-2.193188 -0.586477 7.886559
-2.182602 -0.583719 7.786884
-2.171771 -0.581032 7.687233
-2.160717 -0.578408 7.587605
-2.149458 -0.575843 7.487999
-2.138014 -0.573332 7.388412
-2.126404 -0.570867 7.288843
-2.114648 -0.568444 7.189290
-2.102765 -0.566058 7.089752
-2.090775 -0.563703 6.990225
-2.078696 -0.561372 6.890709
-2.066549 -0.559062 6.791200
-2.054353 -0.556765 6.691698
-2.042126 -0.554477 6.592198
-2.029889 -0.552193 6.492700
-2.017660 -0.549905 6.393201
-2.005460 -0.547610 6.293699
-1.993306 -0.545301 6.194191
-1.981220 -0.542973 6.094676
-1.969219 -0.540621 5.995151
-1.957323 -0.538238 5.895614
-1.945553 -0.535820 5.796062
-1.933926 -0.533360 5.696495
-1.922464 -0.530853 5.596911
-1.911184 -0.528294 5.497306
-1.900106 -0.525677 5.397680
-1.889251 -0.522997 5.298032
-1.878637 -0.520247 5.198360
-1.868285 -0.517423 5.098662
-1.858213 -0.514519 4.998937
-1.848441 -0.511530 4.899186
-1.838990 -0.508449 4.799406
-1.829878 -0.505271 4.699598
-1.821125 -0.501991 4.599761
-1.812751 -0.498603 4.499895
-1.804776 -0.495102 4.400000
-2.319069 -0.693221 18.990298
-2.140273 -0.600799 18.938784
-1.972898 -0.492573 18.880328
-1.820802 -0.367424 18.814576
-1.688302 -0.225230 18.741660
-1.579391 -0.067336 18.662394
-1.496720 0.103419 18.578232
-1.440897 0.283305 18.490960
-1.410550 0.468591 18.402276
-2.317325 -0.692367 18.989819
-2.141968 -0.601728 18.939297
-2.138578 -0.599870 18.938271
-1.974468 -0.493666 18.880913
-1.971329 -0.491480 18.879743
-1.822203 -0.368691 18.815235
-1.819402 -0.366158 18.813916
-1.689487 -0.226666 18.742390
-1.687117 -0.223793 18.740930
-1.580322 -0.068921 18.663182
-1.578460 -0.065751 18.661605
-1.497379 0.101722 18.579061
-1.496062 0.105116 18.577403
-1.441288 0.281538 18.491811
-1.440505 0.285073 18.490110
-1.410699 0.466789 18.403132
-2.309674 -0.688625 18.987714
-2.149404 -0.605804 18.941549
-2.131176 -0.595746 18.935998
-1.981353 -0.498461 18.883480
-1.964444 -0.486685 18.877177
-1.828346 -0.374247 18.818127
-1.813259 -0.360601 18.811024
-1.694685 -0.232967 18.745591
-1.681919 -0.217492 18.737729
-1.584406 -0.075873 18.666641
-1.574376 -0.058799 18.658147
-1.500267 0.094279 18.582698
-1.493173 0.112559 18.573766
-1.443006 0.273785 18.495541
-1.438788 0.292826 18.486379
-1.411351 0.458886 18.406886
-2.290851 -0.679418 18.982538
-2.265891 -0.667209 18.975673
-2.240932 -0.655001 18.968809
-2.216212 -0.642421 18.961780
-2.191954 -0.629126 18.954434
-2.167697 -0.615830 18.947089
-2.113507 -0.584854 18.930078
-2.090078 -0.570411 18.922229
-2.066648 -0.555969 18.914379
-2.043219 -0.541526 18.906530
-2.020749 -0.525897 18.898164
-1.998290 -0.510256 18.889793
-1.948007 -0.474341 18.870628
-1.926674 -0.457465 18.861725
-1.905341 -0.440590 18.852822
-1.884008 -0.423714 18.843919
-1.863499 -0.406041 18.834677
-1.843459 -0.387916 18.825242
-1.798281 -0.346818 18.803861
-1.779702 -0.327455 18.793909
-1.761123 -0.308093 18.783956
-1.742544 -0.288730 18.774003
-1.724430 -0.269025 18.763910
-1.707473 -0.248469 18.753467
-1.669131 -0.201990 18.729853
-1.653481 -0.180606 18.719078
-1.638286 -0.158934 18.708187
-1.623092 -0.137263 18.697297
-1.607898 -0.115591 18.686406
-1.594454 -0.092977 18.675149
-1.564328 -0.041696 18.649638
-1.551763 -0.018675 18.638228
-1.540379 0.004879 18.626620
-1.528995 0.028433 18.615011
-1.517610 0.051987 18.603403
-1.507373 0.075967 18.591645
-1.486068 0.130871 18.564818
-1.476722 0.155176 18.552947
-1.469239 0.180035 18.540897
-1.461757 0.204893 18.528847
-1.454274 0.229752 18.516797
-1.447231 0.254712 18.504719
-1.434563 0.311899 18.477201
-1.428960 0.337190 18.465031
-1.424590 0.362689 18.452818
-1.420779 0.388281 18.440585
-1.416967 0.413874 18.428353
-1.413156 0.439466 18.416120
18 NaN NaN
-2.319505 -0.693434 18.990418
-2.224493 -0.646961 18.964288
-2.132156 -0.596350 18.936326
-2.042972 -0.541374 18.906447
-1.957483 -0.481837 18.874583
-1.876283 -0.417603 18.840695
-1.800004 -0.348614 18.804784
-1.729290 -0.274916 18.766903
-1.664749 -0.196678 18.727155
-1.606918 -0.114194 18.685704
-1.556209 -0.027875 18.642763
-1.512881 0.061773 18.598580
-1.477018 0.154193 18.553423
-1.448538 0.248811 18.507559
-1.427213 0.345076 18.461236
-1.412705 0.442491 18.414674
-1.404601 0.540624 18.368059
-1.402447 0.639115 18.321540
-2.483579 -0.800375 14.278096
-2.258044 -0.677212 14.289101
-2.050128 -0.526188 14.296805
-1.868453 -0.344432 14.300294
-1.724259 -0.131802 14.298609
-1.622644 0.104032 14.291820
-1.565642 0.354362 14.280324
-1.549589 0.610520 14.264992
-2.481792 -0.799482 14.278188
-2.259731 -0.678284 14.289029
-2.256357 -0.676140 14.289174
-2.051671 -0.527460 14.296758
-2.048585 -0.524917 14.296853
-1.869679 -0.346012 14.300293
-1.867228 -0.342851 14.300294
-1.725209 -0.133562 14.298643
-1.723309 -0.130043 14.298575
-1.623295 0.102142 14.291889
-1.621993 0.105922 14.291752
-1.565868 0.352378 14.280434
-1.565416 0.356346 14.280213
-1.549575 0.608525 14.265123
-2.472403 -0.794789 14.278675
-2.268595 -0.683916 14.288648
-2.247494 -0.670508 14.289555
-2.059779 -0.534139 14.296509
-2.040477 -0.518237 14.297102
-1.876461 -0.354027 14.300243
-1.860790 -0.334546 14.300296
-1.730202 -0.142806 14.298824
-1.718316 -0.120798 14.298394
-1.626717 0.092213 14.292247
-1.618571 0.115851 14.291394
-1.567055 0.341953 14.281013
-1.564229 0.366771 14.279634
-1.549504 0.598039 14.265812
-2.448393 -0.782788 14.279919
-2.416473 -0.766833 14.281572
-2.384596 -0.750796 14.283217
-2.353487 -0.733298 14.284702
-2.322377 -0.715800 14.286187
-2.291268 -0.698302 14.287672
-2.224830 -0.656106 14.290529
-2.194854 -0.636728 14.291795
-2.165895 -0.615838 14.292878
-2.136937 -0.594947 14.293960
-2.108075 -0.573930 14.295026
-2.080511 -0.551220 14.295873
-2.020091 -0.500761 14.297683
-1.994166 -0.476190 14.298270
-1.968241 -0.451619 14.298857
-1.942599 -0.426770 14.299402
-1.918568 -0.400339 14.299707
-1.894537 -0.373908 14.300013
-1.844328 -0.313309 14.300302
-1.822441 -0.285075 14.300309
-1.801098 -0.256454 14.300246
-1.781580 -0.226535 14.299944
-1.762062 -0.196616 14.299642
-1.742969 -0.166445 14.299287
-1.705549 -0.097159 14.297931
-1.689396 -0.065333 14.297221
-1.675076 -0.032618 14.296298
-1.660756 0.000097 14.295375
-1.647100 0.033069 14.294379
-1.635467 0.066824 14.293162
-1.610853 0.141547 14.290372
-1.601868 0.176090 14.288880
-1.592883 0.210633 14.287387
-1.584731 0.245357 14.285813
-1.578294 0.280453 14.284070
-1.571857 0.315549 14.282327
-1.561194 0.393428 14.278154
-1.557159 0.428868 14.276186
-1.554031 0.464379 14.274137
-1.552226 0.499991 14.271969
-1.550422 0.535604 14.269802
-1.549321 0.571228 14.267574
18 NaN NaN
-2.484026 -0.800598 14.278073
-2.386259 -0.751731 14.283138
-2.290977 -0.698138 14.287686
-2.198692 -0.639497 14.291652
-2.110002 -0.575517 14.294967
-2.025586 -0.505969 14.297559
-1.946191 -0.430721 14.299356
-1.872599 -0.349779 14.300292
-1.805575 -0.263318 14.300315
-1.745806 -0.171698 14.299390
-1.693828 -0.075458 14.297506
-1.649976 0.024724 14.294680
-1.614352 0.128091 14.290953
-1.586837 0.233877 14.286383
-1.567123 0.341357 14.281046
-1.554765 0.449897 14.275018
-1.549238 0.558966 14.268380
-1.549981 0.668141 14.261206
-2.425748 -0.755137 11.451686
-2.320803 -0.693143 11.435183
-2.219387 -0.625949 11.417147
-2.122147 -0.553284 11.397494
-2.029807 -0.474940 11.376154
-1.943160 -0.390805 11.353086
-1.863030 -0.300898 11.328286
-1.790225 -0.205396 11.301794
-1.726097 -0.104322 11.273602
-1.671002 0.001528 11.243932
-1.624986 0.111272 11.213038
-1.588150 0.224143 11.181137
-1.560369 0.339364 11.148453
-1.541323 0.456200 11.115202
-1.530542 0.574000 11.081575
-1.527688 0.692212 11.047735
-2.424036 -0.754138 11.451421
-2.322466 -0.694217 11.435471
-2.319140 -0.692070 11.434896
-2.220992 -0.627101 11.417458
-2.217782 -0.624797 11.416837
-2.123685 -0.554517 11.397829
-2.120608 -0.552050 11.397159
-2.031269 -0.476257 11.376514
-2.028346 -0.473622 11.375794
-1.944534 -0.392206 11.353471
-1.941787 -0.389403 11.352701
-1.864305 -0.302383 11.328696
-1.861754 -0.299412 11.327876
-1.791392 -0.206961 11.302229
-1.789059 -0.203830 11.301360
-1.727019 -0.106031 11.274080
-1.725175 -0.102613 11.273123
-1.671793 -0.000241 11.244429
-1.670212 0.003296 11.243435
-1.625643 0.109454 11.213551
-1.624329 0.113089 11.212525
-1.588674 0.222285 11.181662
-1.587626 0.226000 11.180611
-1.560763 0.337477 11.148989
-1.559975 0.341250 11.147917
-1.541592 0.454294 11.115745
-1.541053 0.458106 11.114659
-1.530694 0.572083 11.082123
-1.530391 0.575918 11.081027
-1.527626 0.690291 11.048286
-2.419065 -0.751239 11.450650
-2.327293 -0.697333 11.436306
-2.314313 -0.688954 11.434061
-2.225652 -0.630444 11.418360
-2.213123 -0.621454 11.415935
-2.128150 -0.558097 11.398801
-2.116143 -0.548470 11.396186
-2.035511 -0.480080 11.377558
-2.024104 -0.469799 11.374749
-1.948522 -0.396275 11.354589
-1.937799 -0.385335 11.351583
-1.868007 -0.306693 11.329887
-1.858053 -0.295102 11.326685
-1.794777 -0.211506 11.303490
-1.785842 -0.199179 11.300065
-1.729694 -0.110992 11.275470
-1.722499 -0.097651 11.271734
-1.674088 -0.005374 11.245873
-1.667917 0.008430 11.241991
-1.627550 0.104176 11.215040
-1.622421 0.118367 11.211035
-1.590195 0.216895 11.183189
-1.586104 0.231390 11.179084
-1.561907 0.332002 11.150544
-1.558831 0.346725 11.146362
-1.542374 0.448762 11.117321
-1.540271 0.463639 11.113083
-1.531132 0.566516 11.083713
-1.529952 0.581484 11.079438
-1.527626 0.684712 11.049885
-2.408331 -0.744978 11.448985
-2.394234 -0.736756 11.446798
-2.380136 -0.728535 11.444612
-2.366039 -0.720313 11.442425
-2.351942 -0.712091 11.440239
-2.337845 -0.703869 11.438052
-2.303889 -0.682225 11.432258
-2.290199 -0.673388 11.429890
-2.276509 -0.664551 11.427522
-2.262820 -0.655714 11.425155
-2.249130 -0.646877 11.422787
-2.235715 -0.637666 11.420309
-2.203060 -0.614232 11.413986
-2.189845 -0.604749 11.411428
-2.176630 -0.595266 11.408869
-2.163415 -0.585784 11.406311
-2.150459 -0.575984 11.403658
-2.137794 -0.565830 11.400901
-2.106499 -0.540737 11.394087
-2.093834 -0.530583 11.391329
-2.081170 -0.520429 11.388571
-2.068735 -0.510024 11.385739
-2.056704 -0.499180 11.382777
-2.044673 -0.488337 11.379814
-2.014942 -0.461542 11.372493
-2.002911 -0.450699 11.369531
-1.991064 -0.439677 11.366515
-1.979754 -0.428139 11.363344
-1.968444 -0.416600 11.360174
-1.957134 -0.405061 11.357003
-1.929187 -0.376548 11.349169
-1.917997 -0.364908 11.345967
-1.907498 -0.352682 11.342590
-1.896999 -0.340456 11.339213
-1.886500 -0.328229 11.335836
-1.876001 -0.316003 11.332458
-1.850095 -0.285765 11.324105
-1.840493 -0.272876 11.320527
-1.830892 -0.259987 11.316949
-1.821291 -0.247098 11.313371
-1.811689 -0.234209 11.309793
-1.802088 -0.221320 11.306215
-1.779273 -0.188892 11.297197
-1.770647 -0.175382 11.293429
-1.762020 -0.161873 11.289662
-1.753394 -0.148364 11.285894
-1.744768 -0.134854 11.282127
-1.736142 -0.121345 11.278359
-1.716720 -0.086937 11.268733
-1.709132 -0.072866 11.264792
-1.701543 -0.058795 11.260851
-1.693954 -0.044724 11.256910
-1.686365 -0.030653 11.252969
-1.679044 -0.016461 11.248990
-1.662960 0.019517 11.238874
-1.656451 0.034077 11.234780
-1.649942 0.048636 11.230686
-1.643433 0.063196 11.226592
-1.637079 0.077813 11.222480
-1.631670 0.092779 11.218256
-1.618302 0.129764 11.207819
-1.612892 0.144730 11.203595
-1.607482 0.159697 11.199371
-1.602110 0.174675 11.195144
-1.597795 0.189964 11.190815
-1.593481 0.205252 11.186486
-1.582819 0.243033 11.175788
-1.578504 0.258322 11.171458
-1.574190 0.273611 11.167129
-1.570867 0.289121 11.162724
-1.567622 0.304649 11.158314
-1.564378 0.320178 11.153903
-1.556360 0.358549 11.143004
-1.553116 0.374078 11.138593
-1.550713 0.389739 11.134134
-1.548496 0.405431 11.129664
-1.546279 0.421122 11.125194
-1.544062 0.436813 11.120724
-1.538583 0.475587 11.109679
-1.537058 0.491347 11.105182
-1.535814 0.507134 11.100673
-1.534569 0.522921 11.096164
-1.533325 0.538708 11.091655
-1.532080 0.554495 11.087146
-1.529554 0.593530 11.075991
-1.529220 0.609356 11.071460
-1.528885 0.625182 11.066929
-1.528551 0.641008 11.062398
-1.528216 0.656834 11.057867
-1.527881 0.672660 11.053335
19 NaN NaN
-2.426176 -0.755386 11.451753
-2.333430 -0.701294 11.437367
-2.243364 -0.643155 11.421790
-2.156424 -0.580767 11.404957
-2.073106 -0.513963 11.386816
-1.993956 -0.442628 11.367326
-1.919553 -0.366720 11.346468
-1.850487 -0.286292 11.324251
-1.787327 -0.201505 11.300714
-1.730582 -0.112637 11.275931
-1.680661 -0.020077 11.250007
-1.637843 0.075700 11.223076
-1.602256 0.174155 11.195291
-1.573874 0.274731 11.166812
-1.552529 0.376884 11.137796
-1.537944 0.480111 11.108391
-1.529757 0.583970 11.078728
-1.527555 0.688088 11.048918
-1.530905 0.792162 11.019055
