0.233679 0.233717 0.234243 0.236422 0.239875 0.242390 0.244906 0.247422 0.248458 0.249112 0.249191 0.249196 0.249201 0.249259 0.249023 0.248650 0.246764 0.244879 0.242994 0.239859 0.237880 0.237393 0.237357 0.237321 0.236827 0.234428 0.230627 0.226691 0.222755 0.218819 0.214977 0.212552 0.212028 0.211990 0.211952 0.211432 0.209130 0.205483 0.202166 0.198850 0.195533 0.192568 0.190696 0.190301 0.190272 0.190243 0.189851 0.188151 0.185457 0.183064 0.180671 0.178278 0.176150 0.174808 0.174526 0.174506 0.174485 0.174206 0.172993 0.171071 0.169357 0.167643 0.165929 0.164412 0.163454 0.163253 0.163238 0.163223 0.163020 0.162146 0.160760 0.159513 0.158266 0.157019 0.155886 0.155171 0.155018 0.155007 0.154996 0.154845 0.154181 0.153128 0.152154 0.151180 0.150206 0.149297 0.148722 0.148599 0.148589 0.148580 0.148458 0.147912 0.147047 0.146229 0.145411 0.144592 0.143818 0.143330 0.143224 0.143217 0.143209 0.143104 0.142637 0.141896 0.141194 0.140491 0.139789 0.139123 0.138702 0.138611 0.138605 0.138598 0.138507 0.138103 0.137463 0.136854 0.136246 0.135637 0.135061 0.134696 0.134618 0.134612 0.134606 0.134528 0.134180 0.133627 0.133103 0.132580 0.132056 0.131558 0.131245 0.131177 0.131172 0.131167 0.131100 0.130801 0.130327 0.129881 0.129434 0.128987 0.128566 0.128301 0.128244 0.128240 0.128235 0.128179 0.127926 0.127526 0.127147 0.126768 0.126389 0.126030 0.125803 0.125754 0.125750 0.125747 0.125698 0.125478 0.125130 0.124790 0.124450 0.124110 0.123777 0.123567 0.123521 0.123517 0.123514 0.123468 0.123261 0.122934 0.122614 0.122295 0.121976 0.121670 0.121477 0.121436 0.121433 0.121430 0.121388 0.121206 0.120917 0.120654 0.120391 0.120128 0.119891 0.119741 0.119710 0.119707 0.119705 0.119674 0.119538 0.119323 0.119127 0.118932 0.118736 0.118560 0.118449 0.118425 0.118424 
0.118424 0.118427 0.118442 0.118482 0.118536 0.118586 0.118637 0.118687 0.118733 0.118768 0.118780 0.118782 0.118783 0.118796 0.118827 0.118868 0.118904 0.118941 0.118977 0.119008 0.119031 0.119039 0.119041 0.119042 0.119050 0.119069 0.119095 0.119115 0.119136 0.119156 0.119171 0.119182 0.119186 0.119187 0.119187 0.119191 0.119198 0.119208 0.119212 0.119217 0.119221 0.119220 0.119220 0.119219 0.119219 0.119219 0.119217 0.119213 0.119207 0.119196 0.119185 0.119174 0.119158 0.119147 0.119141 0.119141 0.119140 0.119135 0.119120 0.119099 0.119075 0.119051 0.119027 0.119002 0.118983 0.118979 0.118979 0.118978 0.118974 0.118963 0.118948 0.118932 0.118916 0.118900 0.118883 0.118870 0.118865 0.118864 0.118864 0.118858 0.118845 0.118826 0.118807 0.118787 0.118768 0.118748 0.118733 0.118727 0.118726 
0.119708 0.119711 0.119722 0.119748 0.119782 0.119814 0.119847 0.119879 0.119910 0.119934 0.119943 0.119946 0.119948 0.119958 0.119980 0.120010 0.120037 0.120065 0.120093 0.120118 0.120138 0.120146 0.120148 0.120150 0.120158 0.120175 0.120199 0.120221 0.120242 0.120264 0.120284 0.120300 0.120306 0.120308 0.120309 0.120315 0.120329 0.120348 0.120364 0.120381 0.120398 0.120413 0.120425 0.120429 0.120430 0.120431 0.120436 0.120446 0.120459 0.120471 0.120482 0.120494 0.120504 0.120511 0.120514 0.120515 0.120516 0.120518 0.120524 0.120532 0.120538 0.120545 0.120551 0.120556 0.120559 0.120560 0.120561 0.120561 0.120562 0.120564 0.120567 0.120569 0.120570 0.120571 0.120571 0.120570 0.120570 0.120570 0.120570 0.120569 0.120568 0.120566 0.120562 0.120559 0.120555 0.120550 0.120546 0.120544 0.120544 0.120543 0.120541 0.120536 0.120529 0.120521 0.120512 0.120504 0.120494 0.120487 0.120484 0.120483 0.120482 0.120479 0.120470 0.120459 0.120447 0.120434 0.120421 0.120407 0.120397 0.120392 0.120391 0.120389 0.120384 0.120373 0.120357 0.120340 0.120323 0.120306 0.120287 0.120274 0.120268 0.120266 0.120265 0.120259 0.120250 0.120238 0.120228 0.120218 0.120208 0.120198 0.120190 0.120187 0.120186 0.120185 0.120181 0.120173 0.120162 0.120151 0.120140 0.120128 0.120117 0.120108 0.120104 0.120103 0.120102 0.120099 0.120090 0.120078 0.120065 0.120053 0.120040 0.120028 0.120018 0.120014 0.120013 0.120012 0.120008 0.119997 0.119984 0.119971 0.119957 0.119944 0.119930 0.119919 0.119915 0.119914 0.119913 0.119908 0.119898 0.119884 0.119869 0.119855 0.119841 0.119827 0.119816 0.119811 0.119810 0.119809 0.119804 0.119793 0.119779 0.119764 0.119750 0.119735 0.119721 0.119710 0.119705 0.119704 
0.121433 0.121436 0.121448 0.121475 0.121512 0.121546 0.121580 0.121614 0.121646 0.121670 0.121680 0.121682 0.121685 0.121694 0.121717 0.121746 0.121774 0.121801 0.121829 0.121854 0.121873 0.121881 0.121883 0.121884 0.121892 0.121910 0.121933 0.121954 0.121975 0.121997 0.122016 0.122030 0.122036 0.122037 0.122039 0.122044 0.122057 0.122074 0.122089 0.122104 0.122119 0.122133 0.122143 0.122146 0.122147 0.122148 0.122152 0.122160 0.122171 0.122180 0.122189 0.122198 0.122205 0.122210 0.122212 0.122212 0.122213 0.122215 0.122218 0.122223 0.122225 0.122228 0.122231 0.122231 0.122232 0.122231 0.122231 0.122231 0.122231 0.122230 0.122228 0.122225 0.122221 0.122218 0.122212 0.122207 0.122205 0.122205 0.122204 0.122202 0.122196 0.122189 0.122178 0.122168 0.122158 0.122146 0.122137 0.122133 0.122132 0.122131 0.122127 0.122116 0.122102 0.122086 0.122070 0.122054 0.122036 0.122023 0.122017 0.122016 0.122014 0.122008 0.121993 0.121973 0.121951 0.121929 0.121907 0.121884 0.121866 0.121859 0.121857 0.121855 0.121847 0.121828 0.121803 0.121780 0.121757 0.121733 0.121720 0.121710 0.121705 0.121704 0.121703 0.121699 0.121689 0.121675 0.121660 0.121646 0.121632 0.121616 0.121605 0.121600 0.121599 0.121598 0.121593 0.121581 0.121566 0.121550 0.121533 0.121517 0.121501 0.121488 0.121483 0.121481 0.121480 0.121475 0.121462 0.121445 0.121428 0.121410 0.121393 0.121375 0.121362 0.121357 0.121355 0.121354 0.121348 0.121335 0.121317 0.121299 0.121281 0.121263 0.121245 0.121232 0.121226 0.121225 0.121223 0.121218 0.121204 0.121186 0.121168 0.121150 0.121131 0.121113 0.121100 0.121094 0.121093 0.121091 0.121086 0.121072 0.121054 0.121035 0.121017 0.120999 0.120981 0.120967 0.120961 0.120960 
0.123518 0.123520 0.123531 0.123558 0.123594 0.123627 0.123661 0.123694 0.123725 0.123749 0.123758 0.123760 0.123762 0.123771 0.123793 0.123822 0.123848 0.123875 0.123902 0.123926 0.123944 0.123951 0.123953 0.123954 0.123961 0.123977 0.123998 0.124016 0.124035 0.124053 0.124069 0.124081 0.124085 0.124086 0.124087 0.124091 0.124101 0.124113 0.124123 0.124132 0.124141 0.124148 0.124152 0.124154 0.124154 0.124154 0.124155 0.124158 0.124161 0.124160 0.124160 0.124159 0.124155 0.124152 0.124151 0.124150 0.124150 0.124148 0.124143 0.124136 0.124126 0.124115 0.124105 0.124091 0.124080 0.124075 0.124074 0.124073 0.124068 0.124056 0.124039 0.124018 0.123997 0.123976 0.123952 0.123934 0.123926 0.123925 0.123923 0.123915 0.123895 0.123868 0.123837 0.123807 0.123777 0.123743 0.123718 0.123708 0.123705 0.123703 0.123693 0.123665 0.123629 0.123591 0.123552 0.123513 0.123486 0.123465 0.123459 0.123458 0.123456 0.123450 0.123434 0.123414 0.123392 0.123371 0.123349 0.123326 0.123309 0.123302 0.123301 0.123299 0.123292 0.123275 0.123251 0.123227 0.123203 0.123178 0.123154 0.123135 0.123127 0.123126 0.123124 0.123117 0.123097 0.123072 0.123047 0.123021 0.122995 0.122970 0.122950 0.122942 0.122941 0.122939 0.122931 0.122912 0.122886 0.122860 0.122834 0.122808 0.122782 0.122763 0.122755 0.122753 0.122752 0.122744 0.122724 0.122698 0.122672 0.122647 0.122621 0.122595 0.122576 0.122568 0.122566 
0.125751 0.125753 0.125765 0.125796 0.125837 0.125874 0.125910 0.125947 0.125977 0.125999 0.126007 0.126008 0.126009 0.126016 0.126034 0.126057 0.126073 0.126089 0.126105 0.126114 0.126120 0.126121 0.126121 0.126122 0.126123 0.126123 0.126124 0.126117 0.126110 0.126103 0.126088 0.126077 0.126072 0.126071 0.126071 0.126065 0.126048 0.126026 0.125995 0.125965 0.125935 0.125897 0.125869 0.125857 0.125856 0.125854 0.125842 0.125808 0.125763 0.125711 0.125659 0.125607 0.125549 0.125505 0.125488 0.125486 0.125483 0.125466 0.125417 0.125353 0.125284 0.125214 0.125145 0.125097 0.125062 0.125053 0.125051 0.125050 0.125041 0.125017 0.124986 0.124953 0.124920 0.124887 0.124853 0.124828 0.124819 0.124817 0.124816 0.124806 0.124781 0.124747 0.124713 0.124680 0.124646 0.124613 0.124588 0.124579 0.124578 0.124576 0.124567 0.124543 0.124510 0.124479 0.124447 0.124415 0.124384 0.124360 0.124352 0.124350 0.124349 0.124341 0.124318 0.124287 0.124257 0.124227 0.124197 0.124168 0.124147 0.124139 0.124137 
0.128240 0.128243 0.128250 0.128265 0.128284 0.128303 0.128321 0.128340 0.128357 0.128370 0.128376 0.128378 0.128380 0.128386 0.128398 0.128414 0.128429 0.128444 0.128458 0.128472 0.128482 0.128486 0.128488 0.128490 0.128494 0.128503 0.128515 0.128526 0.128537 0.128548 0.128558 0.128565 0.128568 0.128569 0.128570 0.128574 0.128580 0.128588 0.128595 0.128602 0.128610 0.128615 0.128620 0.128622 0.128622 0.128623 0.128625 0.128628 0.128633 0.128636 0.128639 0.128642 0.128645 0.128646 0.128647 0.128647 0.128647 0.128648 0.128648 0.128649 0.128649 0.128648 0.128648 0.128647 0.128646 0.128645 0.128645 0.128644 0.128644 0.128641 0.128638 0.128634 0.128630 0.128626 0.128621 0.128617 0.128615 0.128615 0.128614 0.128612 0.128607 0.128600 0.128593 0.128585 0.128578 0.128569 0.128562 0.128559 0.128558 0.128557 0.128553 0.128546 0.128536 0.128525 0.128514 0.128503 0.128491 0.128482 0.128477 0.128476 0.128474 0.128469 0.128459 0.128446 0.128432 0.128417 0.128403 0.128387 0.128376 0.128370 0.128368 0.128366 0.128360 0.128348 0.128331 0.128314 0.128296 0.128278 0.128260 0.128245 0.128239 0.128236 0.128234 0.128227 0.128212 0.128193 0.128172 0.128151 0.128130 0.128109 0.128092 0.128085 0.128082 0.128079 0.128071 0.128054 0.128031 0.128008 0.127984 0.127961 0.127936 0.127918 0.127909 0.127906 0.127903 0.127894 0.127874 0.127849 0.127823 0.127796 0.127770 0.127743 0.127722 0.127713 0.127709 0.127706 0.127696 0.127675 0.127647 0.127618 0.127589 0.127560 0.127531 0.127508 0.127497 0.127494 0.127490 0.127479 0.127456 0.127426 0.127395 0.127364 0.127333 0.127314 0.127300 0.127295 0.127293 0.127291 0.127286 0.127275 0.127260 0.127246 0.127231 0.127217 0.127202 0.127191 0.127186 0.127184 0.127182 0.127177 0.127166 0.127151 0.127136 0.127121 0.127107 0.127092 0.127080 0.127075 0.127073 0.127071 0.127066 0.127054 0.127039 0.127024 0.127009 0.126994 0.126979 0.126967 0.126962 0.126960 0.126958 0.126953 0.126941 0.126926 0.126910 0.126895 0.126880 0.126864 0.126852 0.126847 0.126845 0.126843 0.126837 0.126826 0.126810 0.126795 0.126779 0.126763 0.126748 0.126736 0.126731 0.126729 0.126727 0.126721 0.126709 0.126694 0.126678 0.126663 0.126647 0.126632 0.126620 0.126614 0.126612 0.126610 0.126605 0.126593 0.126578 0.126563 0.126547 0.126532 0.126516 0.126505 0.126499 0.126497 0.126495 0.126490 0.126478 0.126463 0.126447 0.126432 0.126417 0.126401 0.126390 0.126384 0.126382 0.126380 0.126375 0.126363 0.126348 0.126333 0.126317 0.126302 0.126286 0.126275 0.126269 0.126267 0.126265 0.126260 0.126248 0.126233 0.126217 0.126202 0.126186 0.126171 0.126159 0.126153 0.126151 0.126150 0.126144 0.126132 0.126116 0.126101 0.126085 0.126069 0.126053 0.126041 0.126036 0.126034 
0.131173 0.131176 0.131188 0.131215 0.131251 0.131283 0.131316 0.131348 0.131377 0.131399 0.131408 0.131410 0.131413 0.131421 0.131440 0.131466 0.131488 0.131509 0.131531 0.131550 0.131564 0.131569 0.131571 0.131572 0.131577 0.131589 0.131604 0.131616 0.131627 0.131639 0.131648 0.131655 0.131657 0.131657 0.131658 0.131660 0.131664 0.131669 0.131671 0.131672 0.131674 0.131673 0.131672 0.131671 0.131671 0.131670 0.131669 0.131666 0.131661 0.131653 0.131645 0.131637 0.131626 0.131618 0.131614 0.131613 0.131612 0.131608 0.131597 0.131584 0.131566 0.131549 0.131532 0.131512 0.131497 0.131490 0.131488 0.131486 0.131479 0.131461 0.131437 0.131411 0.131384 0.131357 0.131328 0.131306 0.131297 0.131294 0.131292 0.131282 0.131258 0.131226 0.131191 0.131157 0.131122 0.131085 0.131057 0.131044 0.131041 0.131038 0.131026 0.130996 0.130956 0.130914 0.130872 0.130829 0.130785 0.130751 0.130737 0.130733 0.130729 0.130714 0.130679 0.130632 0.130583 0.130534 0.130485 0.130434 0.130395 0.130379 0.130375 0.130370 0.130354 0.130314 0.130261 0.130207 0.130153 0.130098 0.130042 0.130000 0.129985 0.129980 0.129978 0.129969 0.129949 0.129921 0.129894 0.129867 0.129840 0.129814 0.129793 0.129785 0.129782 0.129780 0.129772 0.129751 0.129724 0.129697 0.129669 0.129642 0.129615 0.129594 0.129585 0.129583 0.129581 0.129572 0.129551 0.129523 0.129495 0.129467 0.129440 0.129412 0.129391 0.129382 0.129380 0.129377 0.129368 0.129347 0.129319 0.129291 0.129263 0.129235 0.129207 0.129186 0.129177 0.129175 0.129172 0.129164 0.129142 0.129114 0.129086 0.129058 0.129030 0.129002 0.128980 0.128971 0.128969 0.128967 0.128958 0.128936 0.128908 0.128880 0.128851 0.128823 0.128794 0.128773 0.128764 0.128761 0.128759 0.128750 0.128728 0.128699 0.128670 0.128641 0.128612 0.128582 0.128560 0.128551 0.128548 
0.134613 0.134615 0.134622 0.134639 0.134661 0.134681 0.134700 0.134719 0.134735 0.134748 0.134753 0.134754 0.134755 0.134760 0.134770 0.134783 0.134794 0.134804 0.134814 0.134821 0.134827 0.134829 0.134829 0.134830 0.134831 0.134834 0.134838 0.134839 0.134841 0.134842 0.134840 0.134839 0.134838 0.134838 0.134837 0.134836 0.134833 0.134828 0.134821 0.134813 0.134806 0.134796 0.134788 0.134784 0.134783 0.134782 0.134778 0.134768 0.134755 0.134739 0.134723 0.134708 0.134689 0.134675 0.134669 0.134667 0.134666 0.134659 0.134643 0.134622 0.134598 0.134575 0.134551 0.134525 0.134505 0.134496 0.134494 0.134491 0.134482 0.134460 0.134432 0.134401 0.134370 0.134339 0.134305 0.134279 0.134268 0.134265 0.134262 0.134251 0.134223 0.134187 0.134149 0.134111 0.134073 0.134033 0.134003 0.133990 0.133986 0.133982 0.133969 0.133937 0.133895 0.133851 0.133807 0.133762 0.133716 0.133682 0.133667 0.133662 0.133658 0.133643 0.133607 0.133559 0.133510 0.133461 0.133411 0.133361 0.133322 0.133306 0.133301 0.133296 0.133280 0.133240 0.133188 0.133135 0.133081 0.133028 0.132974 0.132932 0.132914 0.132909 0.132905 0.132887 0.132845 0.132790 0.132734 0.132678 0.132623 0.132567 0.132524 0.132506 0.132501 0.132496 0.132477 0.132441 0.132392 0.132367 0.132342 0.132318 0.132293 0.132275 0.132267 0.132265 0.132263 0.132255 0.132238 0.132214 0.132191 0.132168 0.132145 0.132123 0.132106 0.132099 0.132097 0.132095 0.132088 0.132070 0.132048 0.132026 0.132005 0.131983 0.131961 0.131945 0.131938 0.131936 0.131934 0.131928 0.131912 0.131891 0.131870 0.131849 0.131828 0.131808 0.131792 0.131785 0.131784 0.131782 0.131775 0.131760 0.131740 0.131720 0.131700 0.131681 0.131661 0.131647 0.131640 0.131639 0.131637 0.131631 0.131616 0.131597 0.131579 0.131560 0.131541 0.131523 0.131509 0.131503 0.131501 0.131499 0.131493 0.131479 0.131461 0.131443 0.131424 0.131406 0.131388 0.131375 0.131369 0.131367 0.131366 0.131360 0.131346 0.131328 0.131311 0.131293 0.131275 0.131258 0.131244 0.131239 0.131237 0.131235 0.131230 0.131217 0.131199 0.131182 0.131165 0.131147 0.131130 0.131118 0.131112 0.131111 
0.138605 0.138607 0.138613 0.138626 0.138643 0.138657 0.138671 0.138685 0.138695 0.138703 0.138706 0.138707 0.138708 0.138711 0.138716 0.138723 0.138727 0.138731 0.138735 0.138736 0.138736 0.138736 0.138735 0.138735 0.138735 0.138732 0.138728 0.138721 0.138714 0.138707 0.138697 0.138689 0.138685 0.138684 0.138683 0.138679 0.138668 0.138653 0.138635 0.138617 0.138599 0.138578 0.138561 0.138554 0.138551 0.138549 0.138542 0.138523 0.138497 0.138469 0.138440 0.138411 0.138379 0.138355 0.138344 0.138341 0.138338 0.138327 0.138300 0.138265 0.138226 0.138188 0.138150 0.138108 0.138076 0.138063 0.138059 0.138055 0.138042 0.138008 0.137964 0.137916 0.137869 0.137822 0.137772 0.137734 0.137717 0.137713 0.137708 0.137692 0.137652 0.137599 0.137543 0.137488 0.137433 0.137375 0.137332 0.137313 0.137308 0.137303 0.137284 0.137239 0.137179 0.137117 0.137055 0.136994 0.136930 0.136882 0.136861 0.136855 0.136850 0.136829 0.136780 0.136714 0.136647 0.136580 0.136513 0.136444 0.136392 0.136370 0.136364 0.136358 0.136336 0.136283 0.136213 0.136142 0.136071 0.136000 0.135928 0.135874 0.135850 0.135844 0.135838 0.135815 0.135760 0.135687 0.135633 0.135578 0.135524 0.135485 0.135456 0.135444 0.135441 0.135437 0.135425 0.135397 0.135360 0.135324 0.135288 0.135252 0.135216 0.135190 0.135179 0.135175 0.135172 0.135161 0.135135 0.135100 0.135066 0.135032 0.134999 0.134965 0.134939 0.134929 0.134926 0.134923 0.134912 0.134887 0.134853 0.134820 0.134788 0.134755 0.134722 0.134697 0.134687 0.134684 0.134681 0.134671 0.134646 0.134614 0.134582 0.134549 0.134517 0.134485 0.134461 0.134450 0.134448 0.134445 0.134435 0.134411 0.134379 0.134348 0.134317 0.134285 0.134255 0.134231 0.134221 0.134219 0.134216 0.134206 0.134183 0.134153 0.134123 0.134093 0.134062 0.134033 0.134010 0.134000 0.133998 0.133995 0.133986 0.133963 0.133934 0.133904 0.133874 0.133845 0.133816 0.133793 0.133784 0.133781 0.133779 0.133769 0.133747 0.133717 0.133688 0.133658 0.133628 0.133598 0.133575 0.133565 0.133563 
0.143217 0.143220 0.143235 0.143270 0.143317 0.143349 0.143381 0.143413 0.143429 0.143441 0.143444 0.143444 0.143445 0.143446 0.143446 0.143446 0.143430 0.143415 0.143399 0.143366 0.143342 0.143331 0.143329 0.143327 0.143315 0.143278 0.143227 0.143162 0.143097 0.143032 0.142951 0.142891 0.142866 0.142862 0.142858 0.142833 0.142761 0.142665 0.142556 0.142447 0.142338 0.142215 0.142123 0.142087 0.142081 0.142076 0.142039 0.141938 0.141803 0.141659 0.141516 0.141372 0.141220 0.141106 0.141061 0.141054 0.141047 0.141003 0.140883 0.140724 0.140559 0.140394 0.140228 0.140059 0.139932 0.139884 0.139876 0.139868 0.139820 0.139707 0.139557 0.139465 0.139374 0.139282 0.139195 0.139130 0.139106 0.139102 0.139098 0.139074 0.139011 0.138927 0.138845 0.138763 0.138681 0.138600 0.138539 0.138516 0.138512 0.138508 0.138485 0.138425 0.138344 0.138264 0.138184 0.138104 0.138024 0.137964 0.137942 0.137938 0.137934 0.137912 0.137852 0.137773 0.137693 0.137613 0.137533 0.137453 0.137392 0.137369 0.137366 
0.148590 0.148593 0.148621 0.148682 0.148764 0.148792 0.148820 0.148847 0.148820 0.148800 0.148786 0.148785 0.148783 0.148768 0.148706 0.148624 0.148485 0.148346 0.148208 0.148019 0.147878 0.147823 0.147817 0.147811 0.147754 0.147581 0.147348 0.147078 0.146808 0.146538 0.146238 0.146015 0.145933 0.145924 0.145915 0.145832 0.145593 0.145273 0.144941 0.144609 0.144277 0.143943 0.143694 0.143645 0.143640 0.143635 0.143587 0.143458 0.143285 0.143124 0.142962 0.142801 0.142645 0.142529 0.142489 0.142484 0.142480 0.142439 0.142325 0.142172 0.142021 0.141869 0.141718 0.141567 0.141455 0.141415 0.141411 0.141406 0.141367 0.141254 0.141102 0.140948 0.140793 0.140638 0.140478 0.140359 0.140315 0.140310 
0.163239 0.163244 0.163258 0.163284 0.163318 0.163348 0.163377 0.163407 0.163432 0.163451 0.163459 0.163462 0.163465 0.163473 0.163487 0.163505 0.163518 0.163532 0.163545 0.163554 0.163560 0.163562 0.163563 0.163563 0.163565 0.163566 0.163567 0.163564 0.163560 0.163557 0.163547 0.163540 0.163535 0.163534 0.163532 0.163526 0.163514 0.163497 0.163476 0.163455 0.163434 0.163408 0.163389 0.163379 0.163375 0.163371 0.163360 0.163337 0.163306 0.163272 0.163237 0.163202 0.163163 0.163133 0.163118 0.163112 0.163106 0.163091 0.163056 0.163012 0.162962 0.162913 0.162864 0.162809 0.162768 0.162747 0.162739 0.162731 0.162710 0.162664 0.162604 0.162539 0.162475 0.162411 0.162342 0.162290 0.162265 0.162255 0.162245 0.162219 0.162164 0.162092 0.162018 0.161943 0.161868 0.161789 0.161729 0.161700 0.161689 0.161678 0.161648 0.161585 0.161503 0.161417 0.161331 0.161245 0.161154 0.161085 0.161051 0.161038 0.161025 0.160990 0.160919 0.160825 0.160730 0.160634 0.160539 0.160441 0.160366 0.160330 0.160316 0.160302 0.160265 0.160188 0.160088 0.159985 0.159883 0.159781 0.159676 0.159596 0.159558 0.159543 0.159529 0.159490 0.159409 0.159303 0.159195 0.159088 0.158980 0.158870 0.158787 0.158746 0.158731 0.158716 0.158675 0.158590 0.158479 0.158366 0.158253 0.158141 0.158028 0.157941 0.157900 0.157884 0.157869 0.157827 0.157742 0.157629 0.157516 0.157403 0.157290 0.157176 0.157089 0.157048 0.157032 0.157016 0.156974 0.156888 0.156774 0.156660 0.156547 0.156433 0.156320 0.156233 0.156191 0.156176 0.156160 0.156118 0.156031 0.155918 0.155805 0.155691 0.155578 0.155464 0.155377 0.155336 0.155320 0.155304 0.155263 0.155176 0.155063 0.154949 0.154836 0.154723 0.154610 0.154524 0.154483 0.154467 0.154452 0.154410 0.154325 0.154213 0.154118 0.154022 0.153927 0.153856 0.153801 0.153775 0.153766 0.153756 0.153730 0.153676 0.153606 0.153538 0.153469 0.153401 0.153334 0.153283 0.153259 0.153249 0.153240 0.153216 0.153166 0.153101 0.153039 0.152976 0.152913 0.152852 0.152805 0.152783 0.152774 0.152766 0.152744 0.152699 0.152639 0.152581 0.152524 0.152466 0.152408 0.152364 0.152342 0.152334 0.152327 0.152305 0.152262 0.152204 0.152147 0.152090 0.152033 0.151976 0.151933 0.151912 0.151904 0.151896 0.151875 0.151832 0.151776 0.151721 0.151665 0.151610 0.151555 0.151513 0.151493 0.151485 0.151478 0.151457 0.151416 0.151362 0.151307 0.151253 0.151199 0.151145 0.151103 0.151084 0.151076 0.151069 0.151049 0.151008 0.150954 0.150901 0.150847 0.150794 0.150740 0.150699 0.150680 0.150672 0.150665 0.150645 0.150605 0.150552 0.150499 0.150446 0.150393 0.150341 0.150300 0.150281 0.150274 0.150266 0.150247 0.150207 0.150155 0.150103 0.150050 0.149998 0.149946 0.149906 0.149887 0.149880 0.149872 0.149854 0.149814 0.149762 0.149711 0.149659 0.149607 0.149556 0.149516 0.149497 0.149490 0.149483 0.149464 0.149425 0.149374 0.149322 0.149271 0.149219 0.149168 0.149128 0.149109 0.149102 
0.174507 0.174510 0.174531 0.174561 0.174601 0.174557 0.174514 0.174470 0.174331 0.174227 0.174176 0.174168 0.174160 0.174105 0.173938 0.173715 0.173433 0.173150 0.172867 0.172523 0.172265 0.172159 0.172143 0.172127 0.172018 0.171718 0.171318 0.170882 0.170446 0.170011 0.169540 0.169187 0.169050 0.169029 0.169009 0.168871 0.168500 0.168005 0.167503 0.167002 0.166500 0.165993 0.165613 0.165469 0.165448 0.165427 0.165285 0.164906 0.164401 0.163909 0.163417 0.162925 0.162453 0.162099 0.161967 0.161947 0.161928 0.161798 0.161458 0.161005 0.160594 0.160182 0.159770 0.159538 0.159363 0.159305 0.159296 0.159288 0.159230 0.159078 0.158875 0.158693 0.158511 0.158329 0.158158 0.158029 0.157984 0.157977 0.157971 0.157925 0.157806 0.157646 0.157497 0.157347 0.157198 0.157056 0.156950 0.156911 0.156905 0.156899 0.156860 0.156759 0.156624 0.156494 0.156364 0.156234 0.156109 0.156015 0.155980 0.155975 
0.190272 0.190273 0.190274 0.190271 0.190268 0.190251 0.190234 0.190217 0.190192 0.190172 0.190161 0.190157 0.190153 0.190141 0.190113 0.190076 0.190030 0.189984 0.189938 0.189881 0.189838 0.189815 0.189806 0.189796 0.189772 0.189717 0.189645 0.189562 0.189479 0.189395 0.189301 0.189229 0.189191 0.189177 0.189162 0.189124 0.189041 0.188931 0.188811 0.188691 0.188571 0.188446 0.188350 0.188302 0.188283 0.188264 0.188215 0.188111 0.187975 0.187830 0.187685 0.187540 0.187388 0.187271 0.187213 0.187190 0.187168 0.187109 0.186987 0.186827 0.186660 0.186493 0.186327 0.186155 0.186023 0.185958 0.185933 0.185908 0.185842 0.185705 0.185526 0.185341 0.185156 0.184971 0.184780 0.184635 0.184563 0.184535 0.184507 0.184434 0.184284 0.184088 0.183888 0.183688 0.183488 0.183285 0.183130 0.183054 0.183025 0.182995 0.182918 0.182759 0.182551 0.182339 0.182127 0.181916 0.181702 0.181539 0.181459 0.181428 0.181397 0.181317 0.181153 0.180937 0.180719 0.180501 0.180282 0.180061 0.179892 0.179809 0.179777 0.179745 0.179662 0.179494 0.179273 0.179053 0.178832 0.178612 0.178392 0.178224 0.178143 0.178111 0.178080 0.177998 0.177830 0.177611 0.177391 0.177172 0.176952 0.176732 0.176564 0.176482 0.176451 0.176419 0.176337 0.176170 0.175950 0.175733 0.175516 0.175298 0.175083 0.174918 0.174838 0.174807 0.174776 0.174697 0.174534 0.174322 0.174112 0.173901 0.173691 0.173483 0.173324 0.173247 0.173217 0.173187 0.173110 0.172952 0.172746 0.172544 0.172341 0.172138 0.171939 0.171786 0.171712 0.171683 0.171655 0.171581 0.171429 0.171232 0.171036 0.170841 0.170646 0.170456 0.170310 0.170239 0.170212 0.170185 0.170114 0.169971 0.169783 0.169598 0.169413 0.169228 0.169049 0.168912 0.168846 0.168820 0.168795 0.168729 0.168593 0.168417 0.168243 0.168068 0.167894 0.167727 0.167599 0.167537 0.167513 0.167489 0.167427 0.167300 0.167135 0.166990 0.166846 0.166702 0.166599 0.166520 0.166482 0.166467 0.166453 0.166415 0.166339 0.166239 0.166142 0.166045 0.165949 0.165859 0.165790 0.165757 0.165745 0.165732 0.165699 0.165632 0.165543 0.165456 0.165369 0.165281 0.165199 0.165136 0.165106 0.165095 0.165083 0.165053 0.164993 0.164914 0.164835 0.164756 0.164678 0.164601 0.164542 0.164514 0.164503 0.164492 0.164464 0.164407 0.164332 0.164257 0.164181 0.164106 0.164033 0.163976 0.163950 0.163940 0.163930 0.163904 0.163849 0.163779 0.163707 0.163636 0.163565 0.163495 0.163441 0.163416 0.163407 0.163397 0.163372 0.163321 0.163255 0.163187 0.163120 0.163053 0.162986 0.162935 0.162912 0.162902 0.162893 0.162870 0.162822 0.162760 0.162697 0.162634 0.162572 0.162509 0.162462 0.162439 0.162431 0.162422 0.162401 0.162356 0.162298 0.162239 0.162181 0.162122 0.162063 0.162018 0.161996 0.161988 0.161980 0.161960 0.161918 0.161863 0.161808 0.161753 0.161699 0.161644 0.161602 0.161582 0.161574 0.161566 0.161546 0.161507 0.161456 0.161405 0.161353 0.161302 0.161251 0.161212 0.161193 0.161186 
0.211984 0.211961 0.211866 0.211613 0.211278 0.210881 0.210484 0.210087 0.209638 0.209300 0.209154 0.209119 0.209083 0.208935 0.208556 0.208055 0.207505 0.206955 0.206405 0.205819 0.205376 0.205189 0.205145 0.205100 0.204912 0.204446 0.203829 0.203185 0.202541 0.201897 0.201226 0.200719 0.200508 0.200458 0.200408 0.200199 0.199687 0.199010 0.198325 0.197640 0.196956 0.196270 0.195752 0.195539 0.195488 0.195437 0.195223 0.194704 0.194016 0.193338 0.192661 0.191984 0.191309 0.190800 0.190592 0.190543 0.190493 0.190286 0.189788 0.189127 0.188482 0.187837 0.187192 0.186565 0.186091 0.185898 0.185852 0.185806 0.185616 0.185157 0.184548 0.183960 0.183373 0.182785 0.182218 0.181791 0.181618 0.181576 0.181535 0.181363 0.180956 0.180417 0.179897 0.179377 0.178857 0.178363 0.177989 0.177838 0.177802 0.177767 0.177617 0.177260 0.176788 0.176338 0.175888 0.175438 0.175017 0.174699 0.174571 0.174541 0.174510 0.174383 0.174078 0.173675 0.173302 0.172928 0.172554 0.172226 0.171978 0.171909 0.171893 0.171876 0.171808 0.171642 0.171422 0.171222 0.171022 0.170822 0.170628 0.170482 0.170427 0.170413 0.170400 0.170344 0.170207 0.170025 0.169848 0.169672 0.169495 0.169321 0.169189 0.169134 0.169121 0.169109 0.169057 0.168933 0.168769 0.168607 0.168445 0.168282 0.168125 0.168007 0.167958 0.167946 0.167934 0.167885 0.167772 0.167622 0.167475 0.167327 0.167180 0.167044 0.166941 0.166898 0.166888 0.166878 0.166836 0.166735 0.166602 0.166475 0.166348 0.166221 0.166102 0.166011 0.165975 0.165966 
0.237334 0.237243 0.236951 0.236294 0.235429 0.234551 0.233674 0.232796 0.231910 0.231237 0.230937 0.230843 0.230749 0.230449 0.229776 0.228891 0.228004 0.227116 0.226229 0.225350 0.224683 0.224387 0.224294 0.224201 0.223906 0.223248 0.222382 0.221530 0.220678 0.219826 0.218985 0.218347 0.218063 0.217975 0.217886 0.217603 0.216974 0.216146 0.215331 0.214516 0.213700 0.212892 0.212279 0.212009 0.211924 0.211840 0.211571 0.210974 0.210188 0.209416 0.208644 0.207872 0.207118 0.206546 0.206292 0.206213 0.206134 0.205881 0.205328 0.204600 0.203894 0.203188 0.202481 0.201792 0.201268 0.201037 0.200965 0.200893 0.200663 0.200155 0.199487 0.198839 0.198191 0.197543 0.196912 0.196433 0.196224 0.196158 0.196094 0.195888 0.195438 0.194845 0.194260 0.193675 0.193090 0.192529 0.192103 0.191918 0.191860 0.191802 0.191618 0.191210 0.190674 0.190157 0.189640 0.189123 0.188628 0.188253 0.188087 0.188035 0.187984 0.187819 0.187456 0.186977 0.186528 0.186078 0.185629 0.185194 0.184863 0.184717 0.184672 0.184626 0.184481 0.184169 0.183759 0.183364 0.182970 0.182575 0.182197 0.181910 0.181789 0.181751 0.181713 0.181592 0.181327 0.180977 0.180641 0.180304 0.179968 0.179654 0.179416 0.179311 0.179278 0.179245 0.179141 0.178909 0.178605 0.178320 0.178036 0.177752 0.177483 0.177278 0.177188 0.177160 0.177132 0.177043 0.176862 0.176623 0.176456 0.176290 0.176123 0.175958 0.175833 0.175778 0.175760 0.175744 0.175694 0.175583 0.175436 0.175287 0.175137 0.174987 0.174845 0.174737 0.174690 0.174675 0.174661 0.174613 0.174506 0.174364 0.174228 0.174091 0.173954 0.173824 0.173726 0.173681 0.173667 0.173653 0.173608 0.173504 0.173368 0.173241 0.173113 0.172986 0.172857 0.172759 0.172715 0.172701 0.172687 0.172643 0.172549 0.172426 0.172305 0.172184 0.172064 0.171943 0.171851 0.171813 0.171801 0.171789 0.171751 0.171665 0.171551 0.171437 0.171322 0.171208 0.171103 0.171022 0.170986 0.170975 0.170964 0.170928 0.170847 0.170741 0.170640 0.170539 0.170438 0.170341 0.170266 0.170233 0.170223 
0.249153 0.248979 0.248134 0.246072 0.243335 0.240809 0.238283 0.235757 0.233404 0.231632 0.230954 0.230814 0.230676 0.230006 0.228373 0.226205 0.224254 0.222303 0.220353 0.218602 0.217283 0.216777 0.216673 0.216566 0.216045 0.214774 0.213087 0.211519 0.209951 0.208384 0.206914 0.205807 0.205380 0.205292 0.205206 0.204783 0.203753 0.202384 0.201113 0.199842 0.198570 0.197405 0.196528 0.196189 0.196119 0.196050 0.195714 0.194900 0.193820 0.192821 0.191822 0.190823 0.189906 0.189215 0.188948 0.188893 0.188839 0.188575 0.187948 0.187116 0.186352 0.185587 0.184822 0.184125 0.183600 0.183397 0.183356 0.183317 0.183127 0.182662 0.182045 0.181485 0.180926 0.180366 0.179860 0.179479 0.179343 0.179315 0.179287 0.179152 0.178820 0.178379 0.178006 0.177633 0.177260 0.177046 0.176886 0.176828 0.176816 0.176804 0.176746 0.176591 0.176385 0.176194 0.176003 0.175812 0.175635 0.175502 0.175450 0.175440 0.175429 0.175377 0.175247 0.175075 0.174901 0.174728 0.174554 0.174387 0.174260 0.174210 0.174199 0.174189 0.174138 0.174018 0.173859 0.173706 0.173553 0.173400 0.173253 0.173143 0.173098 0.173089 
