-110.026662 93.296638 -89.111094 0.166579
-170.680416 94.481640 -230.886556 0.167237
-249.429702 84.863521 -555.715885 0.168573
-271.561423 100.502016 -499.152167 0.168356
-357.769713 77.745304 -759.196543 0.169530
-529.526063 114.747348 -988.883344 0.170124
-139.199878 109.415121 -129.978181 0.166703
-242.142938 185.599750 -278.183450 0.167003
-365.899004 253.300088 -453.390569 0.167034
-339.755620 263.465176 -420.489588 0.166803
-365.279533 280.054900 -468.745144 0.166780
-458.309767 401.224210 -666.064323 0.166190
-573.734301 507.472339 -920.950133 0.166076
-572.238726 508.833915 -924.680424 0.166065
-187.578251 139.318161 -264.541790 0.167105
-258.808653 318.595092 -606.541496 0.166689
-242.379789 169.258028 -414.757318 0.167548
-280.294966 176.464996 -479.671937 0.167809
-318.051572 188.488743 -547.177274 0.168042
-439.581644 266.044018 -797.711261 0.167949
-261.854034 192.400795 -523.839654 0.167785
-332.113604 265.128199 -787.271283 0.167896
-289.553588 211.000733 -604.880298 0.167978
-290.442751 217.087117 -621.376573 0.167987
-298.645612 224.595222 -643.790909 0.167977
-395.047955 307.233116 -806.667466 0.167479
-354.486866 140.055864 -1046.637900 0.169835
-60.780691 -7.581118 -82.497146 0.167065
-30.805894 -6.465036 -216.891409 0.167441
108.830454 20.516579 -552.805292 0.167892
17.998739 -31.768730 -386.374259 0.168034
40.885547 -74.591398 -516.413523 0.168682
97.140232 -147.903977 -778.648892 0.169825
171.385153 -166.309452 -784.849269 0.169711
33.446218 -50.963627 -476.652968 0.168411
88.584584 -90.688642 -794.057112 0.169464
21.485547 -53.878077 -525.639886 0.168626
3.619258 -33.628514 -887.151994 0.169589
-5.712886 -66.059767 -640.177210 0.169156
47.983229 -164.041016 -1087.960843 0.170955
-8.473956 -98.023315 -1117.428552 0.170703
-54.708756 0.785162 -173.099664 0.167313
-70.808913 20.001180 -255.517731 0.167519
-66.694480 8.375921 -359.762339 0.167933
-92.942371 28.644892 -616.412353 0.168680
-60.686211 -1.511285 -509.461986 0.168465
-185.552944 12.575564 -1019.714375 0.170191
-57.649701 -13.976340 -547.081983 0.168660
-69.350312 -41.406896 -590.284220 0.169025
-75.630142 -16.529266 -637.653490 0.169010
15.429351 -51.889193 -959.060303 0.169873
-200.674438 10.321529 -1197.976431 0.170686
121.841953 -39.068051 94.109505 0.166051
223.716259 -40.475848 273.541285 0.165028
339.930365 17.651798 516.990607 0.163300
470.169250 6.866214 838.808209 0.161560
181.800532 -53.595418 198.621135 0.165547
335.393071 -149.754288 700.261113 0.163578
255.758386 -101.792276 315.146147 0.165145
294.972553 -132.137084 426.188114 0.164754
385.548125 -177.856537 572.169246 0.164110
-158.638139 -23.024342 -294.516062 0.168207
-326.198525 -30.473844 -702.373767 0.170039
-481.933277 50.327901 -996.146179 0.170705
-61.094453 -50.228588 -99.287552 0.167412
50.132359 -47.600208 -498.858063 0.168402
-60.743418 -79.756796 -199.893260 0.167976
-43.326231 -136.774913 -501.875096 0.169361
-70.332527 -102.521300 -281.131492 0.168450
-79.604158 -131.191537 -468.831231 0.169322
-101.884312 -141.757373 -701.091931 0.170204
-122.766863 -164.634838 -715.481011 0.170484
-186.877201 -155.895152 -901.537314 0.171147
-226.561069 -193.589396 -1275.931299 0.172519
-85.333382 -124.621563 -345.421397 0.168875
-55.552660 -169.847065 -436.985159 0.169429
-22.246956 -186.628793 -516.916693 0.169719
83.500733 -356.005479 -744.951383 0.171482
-18.976305 -283.719628 -745.954660 0.171206
142.066189 122.092160 241.003778 0.164441
22.364134 111.456831 105.338061 0.165374
-71.068836 291.542964 598.932398 0.162615
219.373986 263.948601 947.465244 0.160308
67.937573 9.767158 -81.230179 0.166550
164.512415 304.508425 -592.943000 0.165501
130.504408 82.393818 -239.127346 0.166415
276.441482 135.095002 -458.262481 0.166262
181.207296 139.448500 -362.525536 0.166282
187.353523 155.994123 -397.582694 0.166269
216.341970 171.505671 -463.093815 0.166274
237.802309 189.852108 -488.921553 0.166169
126.600871 361.603503 -823.511548 0.165449
61.457753 -29.217895 -84.928935 0.166842
118.647400 -91.676325 -192.960199 0.167464
173.207434 -150.824514 -290.368063 0.168031
222.983643 -186.243692 -348.978161 0.168308
382.483290 -261.960998 -548.126409 0.168873
287.002953 -250.330410 -447.125678 0.168874
321.893066 -290.437006 -550.063495 0.169384
285.277341 -265.800642 -469.569301 0.169078
298.652218 -293.496813 -523.981778 0.169425
353.422552 -340.680751 -653.632488 0.169985
345.566700 -337.003420 -612.728442 0.169868
316.318624 -309.786938 -541.284626 0.169541
390.745084 -387.711577 -670.968735 0.170263
371.000935 -352.252050 -625.616355 0.169917
484.366774 -426.142230 -881.112499 0.170721
386.026626 -362.190309 -657.183583 0.170023
372.875261 -380.709467 -759.611499 0.170556
415.255330 -394.304723 -718.021205 0.170339
92.215823 -47.251472 -161.731286 0.167137
50.280458 -80.338099 -701.550691 0.169257
159.716192 -53.058379 -270.495374 0.167319
279.300688 -40.944465 -446.699260 0.167349
247.182633 -58.358366 -440.818625 0.167581
376.867712 -63.689954 -652.061783 0.167700
383.754768 -102.077868 -1081.697824 0.169054
696.213236 -229.250367 452.504929 0.163607
697.776646 -575.183205 660.138292 0.165099
215.202115 -94.609126 204.521728 0.165675
328.286810 -140.336840 420.501577 0.164706
242.784839 -119.392258 299.766769 0.165368
247.059858 -119.641282 341.018908 0.165191
258.722787 -148.915037 387.793794 0.165153
305.602223 -199.073270 538.986088 0.164688
279.171388 -169.763482 497.820048 0.164763
289.243172 -143.964327 654.999906 0.163899
333.687638 -181.512822 637.542583 0.164053
415.608539 -197.844439 967.038114 0.162425
459.486317 -178.725819 1077.888517 0.161659
50.504548 -49.895878 0.515123 0.166703
109.460086 -52.581963 -128.204767 0.166998
284.628882 -21.642230 -358.060010 0.166916
179.418567 -63.951881 -234.777382 0.167202
193.486112 -66.330742 -270.774534 0.167288
389.927718 -138.838652 -790.142317 0.168580
117.529804 -96.974846 -147.418623 0.167344
249.882195 -187.962414 -351.887651 0.168225
355.842774 -254.620196 -485.783202 0.168737
301.829799 -232.305044 -454.225060 0.168693
345.496295 -246.825030 -537.644983 0.168885
313.797534 -155.382696 -931.939854 0.169425
216.883559 -143.134253 -310.663522 0.167881
402.974734 -254.581970 -619.403460 0.168930
272.818805 -207.979790 -515.974786 0.168822
330.046077 -298.896855 -744.066150 0.170005
341.515124 -341.668646 -966.009199 0.170934
-81.773634 8.625514 28.932265 0.166616
-119.871996 77.022638 171.345536 0.165760
-295.637771 220.258307 596.237600 0.163493
-155.551640 139.979832 308.744903 0.164949
-199.722883 195.282817 524.485492 0.163899
-162.040020 168.317306 359.365599 0.164602
-191.497170 219.838836 427.463526 0.164114
-158.935528 211.995711 465.241120 0.163923
-180.998317 292.368995 615.986469 0.162634
-140.566317 259.704550 570.211503 0.163189
-151.346258 282.058119 615.604861 0.162749
-160.174830 355.730868 759.460762 0.161306
-125.805068 371.135461 1112.171137 0.159640
-130.882813 280.405117 630.755962 0.162700
-47.721750 372.949109 809.276518 0.160638
-84.656803 449.521216 859.932196 0.159660
-90.023742 62.046555 94.726746 0.166055
-36.097195 175.532629 251.792833 0.164614
63.778905 316.787438 461.082928 0.162356
162.759380 371.715640 776.838232 0.159851
-114.704273 118.801557 165.087727 0.165509
-293.837490 368.626574 585.908247 0.162073
-405.981925 589.646578 998.268265 0.158906
-401.039336 601.793048 1032.451618 0.158677
-123.569041 159.142378 216.798739 0.165092
-143.264831 245.402085 377.438895 0.164026
-194.971098 329.986212 567.789925 0.162402
-273.615089 362.998210 798.236588 0.161274
-165.394790 264.082163 391.100388 0.163877
-216.851261 362.132532 562.303269 0.162092
-262.886628 413.819308 651.873063 0.161306
-342.402343 499.435198 833.711847 0.160046
-248.991538 539.046117 1108.012979 0.158423
-58.980005 22.731016 140.395873 0.166042
-98.309114 59.823737 242.711151 0.165533
-192.552767 94.890896 439.978363 0.164811
-216.743168 254.722435 541.725212 0.163370
-54.326872 30.461100 180.455254 0.165828
-61.778752 60.000570 255.701433 0.165376
-223.389475 271.494018 663.094265 0.162685
-82.733716 103.361133 361.618771 0.164759
-99.921174 196.877005 505.492150 0.163691
-90.858004 125.396484 427.538477 0.164391
-23.053241 259.995504 1013.877854 0.161070
-37.374500 293.491050 854.721958 0.161483
-34.470565 25.565930 239.459332 0.165573
164.914740 6.063264 878.921879 0.162462
-28.090222 4.253519 367.053020 0.165184
-5.969185 -17.541633 531.161372 0.164582
-2.894554 -22.557842 705.748814 0.163866
8.669200 -20.814690 828.775411 0.163292
7.345870 43.016081 976.560636 0.162294
-79.233730 82.220145 1103.189953 0.161759
-22.164275 -15.139269 476.624910 0.164839
-7.744505 -132.942187 823.432645 0.164018
-17.516644 -13.192816 516.669526 0.164649
194.115087 -174.218996 1010.165464 0.162829
46.931260 -11.968660 681.955531 0.163762
261.541093 -69.132058 1008.227836 0.162015
252.542533 6.999538 1159.416188 0.160958
-177.288432 109.522207 124.237257 0.165898
-186.844598 176.271779 245.294104 0.165056
-198.156112 297.276635 413.010228 0.163387
-234.079923 418.066964 580.026674 0.161462
-220.123709 465.787849 934.587231 0.159629
-252.528270 414.007245 516.174803 0.161787
-256.298703 208.272450 330.279042 0.164701
-317.331989 315.008739 557.596984 0.162750
-318.582100 274.554131 481.300015 0.163447
-358.583787 353.433247 601.883161 0.162286
-322.163970 281.885160 511.431188 0.163260
-514.589227 378.173428 826.260984 0.161549
-339.698712 292.876297 544.341023 0.163045
-347.691677 329.316638 621.972495 0.162413
-348.506589 301.241177 565.280848 0.162896
-355.751885 320.299490 597.224137 0.162606
-469.689950 377.208724 756.375022 0.161722
-158.610890 75.594289 25.076801 0.166424
-283.995618 146.793039 -149.189246 0.166941
-410.882889 227.283158 -324.612785 0.166917
-609.161563 285.146364 -577.474970 0.167513
-222.356639 81.103134 -54.085781 0.166857
-293.057230 62.106132 -169.659863 0.167592
-411.887059 -18.623970 -427.996225 0.169339
-300.802955 45.065053 -248.090446 0.167997
-338.039612 44.059911 -297.484436 0.168276
-341.853754 48.001270 -318.945358 0.168333
-501.967902 71.118665 -569.809010 0.169290
-402.085953 51.962842 -577.841022 0.169305
-327.262190 66.004445 -242.414158 0.167914
-400.534801 48.036491 -422.389878 0.168841
-443.963206 37.497390 -531.170857 0.169380
-531.137698 -43.106253 -815.131524 0.171012
-385.292114 43.323075 -461.561399 0.168954
-437.772741 7.264019 -753.077039 0.170232
-409.770582 35.581312 -580.141140 0.169446
-419.434504 27.238740 -638.011381 0.169705
-562.325881 68.579680 -887.381695 0.170340
-676.567749 23.644791 -1136.214064 0.171783
-666.265347 21.282221 -1126.065582 0.171736
-109.685685 -75.085475 -33.258819 0.167482
-107.902870 -191.646269 -473.735936 0.169873
-168.214674 -82.158143 -173.406403 0.168214
-204.664062 -110.431731 -338.114178 0.169095
-244.176084 -147.322988 -505.309502 0.170036
-295.492130 -207.008801 -691.437545 0.171216
-217.301805 -90.539196 -294.990858 0.168842
-247.606281 -108.350754 -381.246369 0.169349
-276.008575 -124.443652 -490.108837 0.169908
-375.196865 -205.315270 -764.231210 0.171639
-241.105643 -93.226816 -394.849353 0.169271
-292.709770 -107.411427 -545.142021 0.170011
-379.750177 41.015078 -706.269663 0.169698
-87.368445 -73.082279 10.247122 0.167240
-76.475124 -87.986341 -20.444357 0.167424
-62.822380 -104.038773 -76.612475 0.167703
-51.553677 -143.596215 -502.769796 0.169439
-111.518493 -127.997710 -202.455452 0.168473
-282.347139 -268.593591 -522.243239 0.171093
-268.655019 -184.214248 -482.924711 0.170297
-61.134713 -104.217116 -53.415276 0.167613
30.184964 -178.769284 -212.766344 0.168448
152.888542 -347.174290 -486.947623 0.170326
142.036421 -258.755300 -376.081264 0.169260
182.914107 -265.143961 -424.087922 0.169325
207.150148 -257.668750 -458.638254 0.169289
238.169360 -252.364035 -485.781648 0.169214
171.231686 -278.413907 -419.913898 0.169460
284.659722 -392.774669 -627.550154 0.170678
190.944779 -303.303281 -466.202768 0.169746
240.196304 -354.676576 -624.068930 0.170515
207.383525 -325.360686 -511.949143 0.170021
227.920865 -359.633211 -565.833912 0.170414
294.156143 -394.281930 -685.874422 0.170834
-155.614821 -169.424576 -204.941757 0.168901
-296.463767 -358.250882 -558.812054 0.171938
-255.569611 -251.707272 -386.845325 0.170426
-372.271932 -319.901832 -546.542451 0.171788
-306.664125 -437.605803 -647.726567 0.172888
-98.450381 -82.470785 -13.029950 0.167423
-110.282590 -115.986206 -75.421668 0.167921
-133.788860 -210.906347 -232.890890 0.169242
-393.758349 -285.144576 -610.097998 0.171795
-100.547705 -94.032196 -51.255044 0.167652
-167.058817 -108.797003 -196.378453 0.168477
-331.623738 -116.456469 -422.106836 0.169776
-244.212187 -120.284505 -325.553181 0.169232
-277.351444 -130.403675 -381.121754 0.169587
-344.423249 -133.654684 -486.789215 0.170149
-378.981483 -284.162877 -732.972190 0.172150
-251.413368 -117.014366 -349.481698 0.169312
-283.166881 -70.219964 -462.423344 0.169452
-364.663912 -132.527068 -522.191079 0.170311
-115.062429 -106.920358 -102.635289 0.167974
-194.580325 -125.157626 -245.945981 0.168846
-316.644799 -184.134654 -544.239496 0.170629
-470.639679 -250.600668 -687.849141 0.171980
-211.829440 -144.088960 -221.957924 0.168941
-325.961514 -203.480839 -396.310872 0.170291
-394.990779 -262.353149 -554.658460 0.171443
-451.422901 -314.383302 -601.876060 0.172130
-276.667028 -187.708967 -332.956124 0.169825
-295.281020 -207.421718 -408.108302 0.170280
-390.745931 -316.629712 -597.035351 0.171982
