0.132995 0.133002 0.133095 0.133522 0.134198 0.134866 0.135534 0.136201 0.136848 0.137256 0.137344 0.137350 0.137356 0.137444 0.137842 0.138473 0.139117 0.139760 0.140404 0.141078 0.141504 0.141598 0.141605 0.141611 0.141706 0.142144 0.142838 0.143538 0.144238 0.144939 0.145643 0.146088 0.146185 0.146192 0.146199 0.146297 0.146749 0.147464 0.148195 0.148927 0.149658 0.150402 0.150871 0.150974 0.150982 0.150989 0.151092 0.151563 0.152309 0.153041 0.153773 0.154505 0.155219 0.155669 0.155767 0.155773 
0.132993 0.132990 0.132959 0.132859 0.132715 0.132570 0.132426 0.132282 0.132133 0.132030 0.131998 0.131994 0.131991 0.131959 0.131853 0.131701 0.131548 0.131394 0.131240 0.131088 0.130982 0.130950 0.130947 0.130943 0.130911 0.130806 0.130656 0.130506 0.130357 0.130208 0.130058 0.129954 0.129922 0.129919 
0.132993 0.132992 0.132980 0.132817 0.132558 0.131960 0.131363 0.130765 0.130141 0.129747 0.129660 0.129655 0.129649 0.129563 0.129197 0.128618 0.128104 0.127590 0.127076 0.126621 0.126333 0.126275 0.126271 0.126267 0.126210 0.125967 0.125582 0.125248 0.124915 0.124582 0.124247 0.124036 0.123989 0.123986 0.123982 0.123935 0.123712 0.123357 0.122955 0.122552 0.122149 0.121656 0.121345 0.121269 0.121264 0.121259 0.121182 0.120797 0.120186 0.119552 0.118919 0.118286 0.117775 0.117452 0.117384 0.117379 0.117375 0.117307 0.117004 0.116523 0.116095 0.115666 0.115237 0.114938 0.114749 0.114717 0.114715 0.114713 0.114683 0.114569 0.114389 0.114266 0.114142 0.114018 0.113923 0.113863 0.113851 0.113850 0.113849 0.113837 0.113783 0.113699 0.113622 0.113545 0.113468 0.113396 0.113350 0.113341 0.113340 0.113339 0.113330 0.113287 0.113218 0.113154 0.113090 0.113025 0.112968 0.112932 0.112925 0.112924 0.112924 0.112917 0.112889 0.112844 0.112812 0.112779 0.112747 0.112722 0.112706 0.112703 0.112703 0.112703 0.112699 0.112686 0.112665 0.112648 0.112630 0.112613 0.112599 0.112590 0.112588 0.112588 0.112588 0.112586 0.112579 0.112568 0.112560 0.112552 0.112543 0.112538 0.112535 0.112535 0.112535 0.112535 0.112534 0.112533 0.112530 0.112532 0.112534 0.112535 0.112541 0.112545 0.112546 0.112546 
0.146190 0.146181 0.146133 0.146012 0.145852 0.145695 0.145539 0.145382 0.145228 0.145113 0.145068 0.145059 0.145051 0.145006 0.144894 0.144745 0.144602 0.144459 0.144317 0.144180 0.144076 0.144036 0.144028 0.144021 0.143981 0.143881 0.143749 0.143622 0.143495 0.143368 0.143246 0.143155 0.143119 0.143112 0.143106 0.143076 0.143002 0.142904 0.142820 0.142736 0.142652 0.142581 0.142527 0.142509 0.142506 0.142502 0.142484 0.142440 0.142381 0.142337 0.142292 0.142248 0.142215 0.142191 0.142182 0.142180 0.142178 0.142170 0.142152 0.142128 0.142112 0.142097 0.142081 0.142074 0.142069 0.142067 0.142067 0.142066 0.142065 0.142067 0.142070 0.142078 0.142086 0.142094 0.142108 0.142119 0.142125 0.142126 
0.137349 0.137347 0.137328 0.137274 0.137203 0.137122 0.137042 0.136961 0.136871 0.136803 0.136776 0.136772 0.136768 0.136741 0.136666 0.136566 0.136479 0.136392 0.136305 0.136244 0.136198 0.136180 0.136178 0.136175 0.136158 0.136112 0.136051 0.135987 0.135924 0.135860 0.135796 0.135748 0.135731 0.135729 0.135726 0.135708 0.135658 0.135592 0.135517 0.135443 0.135369 0.135290 0.135231 0.135208 0.135204 0.135201 0.135179 0.135121 0.135042 0.134998 0.134953 0.134909 0.134890 0.134876 0.134871 0.134870 0.134870 0.134870 0.134869 0.134868 0.134879 0.134890 0.134901 0.134920 0.134934 0.134940 0.134941 0.134942 0.134949 0.134969 0.134995 0.135027 0.135060 0.135093 0.135131 0.135160 0.135171 0.135173 
0.131995 0.131997 0.132002 0.132013 0.132027 0.132040 0.132054 0.132067 0.132080 0.132090 0.132094 0.132096 0.132098 0.132102 0.132111 0.132123 0.132135 0.132146 0.132158 0.132168 0.132176 0.132180 0.132181 0.132183 0.132186 0.132194 0.132203 0.132212 0.132221 0.132230 0.132238 0.132244 0.132246 0.132247 0.132248 0.132251 0.132256 0.132263 0.132270 0.132276 0.132282 0.132287 0.132292 0.132293 0.132294 0.132295 0.132296 0.132300 0.132304 0.132308 0.132312 0.132315 0.132319 0.132321 0.132322 0.132323 0.132323 0.132324 0.132326 0.132328 0.132331 0.132333 0.132335 0.132338 0.132340 0.132341 0.132341 0.132341 0.132342 0.132344 0.132347 0.132349 0.132352 0.132355 0.132358 0.132360 0.132361 0.132362 0.132362 0.132363 0.132365 0.132369 0.132372 0.132376 0.132380 0.132385 0.132388 0.132390 0.132390 0.132391 0.132393 0.132396 0.132401 0.132406 0.132412 0.132417 0.132422 0.132425 0.132427 0.132427 0.132428 0.132430 0.132434 0.132438 0.132443 0.132447 0.132452 0.132456 0.132459 0.132460 0.132460 0.132460 0.132461 0.132463 0.132466 0.132468 0.132470 0.132471 0.132472 0.132473 0.132473 0.132473 0.132473 0.132473 0.132472 0.132472 0.132471 0.132470 0.132469 0.132467 0.132465 0.132464 0.132464 0.132463 0.132462 0.132459 0.132456 0.132452 0.132447 0.132443 0.132438 0.132434 0.132432 0.132431 0.132430 0.132428 0.132423 0.132416 0.132409 0.132403 0.132396 0.132387 0.132381 0.132378 0.132377 0.132376 0.132372 0.132365 0.132356 0.132347 0.132338 0.132329 0.132326 0.132324 0.132323 0.132323 0.132322 0.132321 0.132319 0.132317 0.132315 0.132313 0.132311 0.132310 0.132309 0.132308 0.132308 0.132308 0.132308 0.132307 0.132306 0.132305 0.132304 0.132302 0.132301 0.132300 0.132300 0.132300 0.132300 0.132299 0.132298 0.132297 0.132295 0.132294 0.132293 0.132291 0.132290 0.132290 0.132289 0.132289 0.132289 0.132287 0.132285 0.132283 0.132281 0.132279 0.132277 0.132275 0.132274 0.132274 0.132273 0.132273 0.132271 0.132269 0.132266 0.132264 0.132262 0.132259 0.132257 0.132256 0.132256 0.132256 0.132255 0.132252 0.132250 0.132247 0.132244 0.132242 0.132239 0.132237 0.132236 0.132236 0.132235 0.132234 0.132232 0.132230 0.132227 0.132225 0.132222 0.132219 0.132217 0.132217 0.132216 
0.129919 0.129919 0.129916 0.129908 0.129897 0.129883 0.129870 0.129857 0.129841 0.129829 0.129824 0.129823 0.129822 0.129817 0.129804 0.129787 0.129768 0.129749 0.129730 0.129709 0.129694 0.129688 0.129686 0.129685 0.129679 0.129663 0.129641 0.129619 0.129597 0.129575 0.129553 0.129536 0.129529 0.129528 0.129526 0.129519 0.129502 0.129479 0.129456 0.129433 0.129410 0.129387 0.129371 0.129364 0.129362 0.129361 0.129354 0.129337 0.129314 0.129292 0.129269 0.129247 0.129225 0.129209 0.129202 0.129201 0.129199 0.129192 0.129176 0.129155 0.129148 0.129141 0.129134 0.129135 0.129135 0.129135 0.129135 0.129135 0.129135 0.129138 0.129141 0.129146 0.129151 0.129155 0.129161 0.129165 0.129167 0.129167 0.129168 0.129170 0.129176 0.129183 0.129191 0.129200 0.129208 0.129217 0.129223 0.129226 0.129227 0.129228 0.129231 0.129238 0.129247 0.129258 0.129269 0.129280 0.129292 0.129301 0.129305 0.129306 
