0.189166 0.189136 0.188741 0.187033 0.184327 0.181923 0.179520 0.177116 0.175007 0.173676 0.173394 0.173373 0.173352 0.173072 0.171857 0.169931 0.168193 0.166456 0.164718 0.163157 0.162172 0.161967 0.161952 0.161937 0.161734 0.160855 0.159463 0.158244 0.157025 0.155805 0.154709 0.154018 0.153870 0.153859 0.153848 0.153701 0.153056 0.152035 0.151093 0.150151 0.149208 0.148338 0.147789 0.147672 0.147663 0.147654 0.147537 0.147021 0.146204 0.145439 0.144675 0.143910 0.143198 0.142749 0.142652 0.142645 0.142638 0.142542 0.142115 0.141439 0.140796 0.140152 0.139508 0.138898 0.138512 0.138429 0.138423 0.138417 0.138333 0.137961 0.137371 0.136809 0.136247 0.135685 0.135147 0.134807 0.134733 0.134728 0.134722 0.134649 0.134321 0.133802 0.133304 0.132807 0.132310 0.131832 0.131530 0.131464 0.131459 0.131454 0.131389 0.131097 0.130635 0.130193 0.129751 0.129309 0.128887 0.128621 0.128563 0.128559 0.128555 0.128497 0.128242 0.127839 0.127457 0.127075 0.126693 0.126334 0.126107 0.126058 0.126054 
0.189178 0.189192 0.189326 0.189624 0.190023 0.190331 0.190639 0.190946 0.191261 0.191496 0.191578 0.191586 0.191596 0.191688 0.191958 0.192320 0.192739 0.193157 0.193576 0.194055 0.194412 0.194545 0.194559 0.194572 0.194704 0.195108 0.195648 0.196219 0.196791 0.197362 0.197950 0.198389 0.198547 0.198564 0.198580 0.198737 0.199185 0.199784 0.200381 0.200978 0.201576 0.202160 0.202597 0.202751 0.202767 0.202783 0.202935 0.203354 0.203914 0.204448 0.204982 0.205516 0.206002 0.206365 0.206495 0.206508 0.206522 0.206648 0.206976 0.207416 0.207792 0.208169 0.208545 0.208866 0.209106 0.209186 0.209194 0.209202 0.209277 0.209454 0.209689 0.209835 0.209981 0.210127 0.210182 0.210223 0.210221 0.210221 0.210220 0.210213 0.210163 0.210095 0.209936 0.209776 0.209617 0.209360 0.209168 0.209086 0.209078 0.209069 0.208983 0.208722 0.208374 0.207960 0.207546 0.207132 0.206642 0.206276 0.206139 0.206124 0.206109 0.205969 0.205555 0.205002 0.204399 0.203796 0.203193 0.202547 0.202064 0.201884 0.201866 0.201847 0.201666 0.201156 0.200473 0.199761 0.199049 0.198336 0.197609 0.197065 0.196868 0.196847 
0.189175 0.189181 0.189256 0.188786 0.188042 0.187540 0.187038 0.186535 0.186727 0.186848 0.186850 0.186850 0.186850 0.186847 0.186581 0.186159 0.185028 0.183898 0.182767 0.181179 0.180177 0.179928 0.179910 0.179892 0.179624 0.178324 0.176265 0.174470 0.172674 0.170879 0.169388 0.168447 0.168244 0.168230 0.168216 0.168018 0.167020 0.165438 0.163228 0.161017 0.158807 0.155578 0.153539 0.153036 0.153001 0.152965 0.152452 0.149915 0.145895 0.141700 0.137505 0.133310 0.130285 0.128376 0.128032 0.128008 0.127984 0.127651 0.126429 0.124494 0.123328 0.122163 0.120997 0.120246 0.119771 0.119681 0.119675 0.119669 0.119581 0.119235 0.118687 0.118301 0.117915 0.117529 0.117251 0.117075 0.117041 0.117039 0.117036 0.117003 0.116863 0.116641 0.116461 0.116280 0.116100 0.115945 0.115848 0.115828 0.115826 0.115825 0.115805 0.115717 0.115579 0.115458 0.115338 0.115217 0.115115 0.115051 0.115037 0.115037 0.115036 0.115022 0.114967 0.114879 0.114806 0.114732 0.114659 0.114597 0.114558 0.114550 0.114549 0.114549 0.114541 0.114507 0.114452 0.114405 0.114358 0.114311 0.114270 0.114244 0.114239 0.114238 0.114238 0.114232 0.114209 0.114172 0.114142 0.114111 0.114081 0.114057 0.114042 0.114039 0.114039 
0.134728 0.134727 0.134725 0.134700 0.134662 0.134531 0.134400 0.134269 0.134120 0.134022 0.134005 0.134004 0.134002 0.133985 0.133910 0.133794 0.133645 0.133497 0.133348 0.133180 0.133070 0.133041 0.133038 
0.147660 0.147650 0.147603 0.147486 0.147331 0.147176 0.147021 0.146866 0.146715 0.146602 0.146557 0.146547 0.146537 0.146491 0.146377 0.146225 0.146075 0.145924 0.145774 0.145624 0.145512 0.145466 0.145457 0.145446 0.145400 0.145286 0.145135 0.144984 0.144833 0.144681 0.144527 0.144411 0.144363 0.144353 0.144343 0.144294 0.144174 0.144015 0.143853 0.143690 0.143528 0.143363 0.143239 0.143189 0.143178 0.143167 0.143116 0.143005 0.142858 0.142728 0.142597 0.142467 0.142343 0.142250 0.142214 0.142207 0.142199 0.142165 0.142082 0.141973 0.141871 0.141769 0.141667 0.141571 0.141498 0.141472 0.141466 0.141460 0.141434 0.141369 0.141283 0.141204 0.141125 0.141046 0.140971 0.140914 0.140894 0.140889 0.140885 0.140865 0.140815 0.140749 0.140688 0.140627 0.140566 0.140508 0.140464 0.140449 0.140446 0.140442 0.140427 0.140388 0.140337 0.140289 0.140241 0.140193 0.140146 0.140111 0.140099 0.140096 0.140094 0.140081 0.140050 0.140008 0.139968 0.139928 0.139888 0.139849 0.139819 0.139808 0.139806 0.139804 0.139793 0.139765 0.139729 0.139693 0.139657 0.139621 0.139584 0.139557 0.139546 0.139544 
0.153857 0.153847 0.153824 0.153778 0.153719 0.153658 0.153598 0.153537 0.153476 0.153429 0.153405 0.153395 0.153385 0.153360 0.153311 0.153247 0.153181 0.153115 0.153049 0.152984 0.152933 0.152908 0.152897 0.152886 0.152861 0.152810 0.152745 0.152678 0.152611 0.152544 0.152478 0.152427 0.152401 0.152390 0.152379 0.152353 0.152303 0.152236 0.152169 0.152102 0.152035 0.151968 0.151917 0.151892 0.151881 0.151871 0.151847 0.151800 0.151738 0.151681 0.151624 0.151566 0.151517 0.151479 0.151459 0.151451 0.151443 0.151423 0.151384 0.151334 0.151282 0.151230 0.151178 0.151125 0.151084 0.151063 0.151054 0.151045 0.151023 0.150981 0.150926 0.150869 0.150813 0.150757 0.150699 0.150654 0.150631 0.150621 0.150612 0.150588 0.150543 0.150483 0.150423 0.150363 0.150303 0.150243 0.150196 0.150173 0.150163 0.150153 0.150129 0.150082 0.150020 0.149958 0.149896 0.149834 0.149772 0.149724 0.149700 0.149690 0.149679 0.149655 0.149608 0.149546 0.149484 0.149423 0.149362 0.149301 0.149254 0.149231 0.149221 0.149211 0.149188 0.149142 0.149083 0.149025 0.148967 0.148909 0.148853 0.148810 0.148788 0.148779 0.148770 0.148748 0.148706 0.148651 0.148598 0.148544 0.148491 0.148439 0.148399 0.148379 0.148371 0.148363 0.148343 0.148304 0.148254 0.148205 0.148155 0.148105 0.148059 0.148023 0.148005 0.147998 0.147990 0.147972 0.147938 0.147892 0.147847 0.147802 0.147757 0.147714 0.147680 0.147664 0.147657 0.147651 0.147635 0.147603 0.147562 0.147522 0.147481 0.147441 0.147401 0.147370 0.147354 0.147348 0.147341 0.147327 0.147298 0.147261 0.147224 0.147187 0.147151 0.147114 0.147085 0.147071 0.147065 0.147059 0.147045 0.147018 0.146983 0.146949 0.146916 0.146882 0.146848 0.146822 0.146809 0.146804 0.146798 0.146785 0.146759 0.146726 0.146695 0.146664 0.146633 0.146602 0.146579 0.146567 0.146562 0.146557 0.146545 0.146521 0.146490 0.146460 0.146431 0.146401 0.146372 0.146350 0.146339 0.146335 0.146330 0.146319 0.146297 0.146268 0.146239 0.146210 0.146182 0.146155 0.146134 0.146124 0.146119 0.146115 0.146104 0.146084 0.146056 0.146029 0.146002 0.145974 0.145948 0.145928 0.145918 0.145914 0.145909 0.145899 0.145880 0.145854 0.145828 0.145802 0.145776 0.145749 0.145729 0.145719 0.145715 0.145711 0.145701 0.145682 0.145658 0.145632 0.145607 0.145582 0.145557 0.145537 0.145527 0.145523 0.145519 0.145509 0.145490 0.145465 0.145441 0.145416 0.145392 0.145367 0.145348 0.145338 0.145334 0.145330 0.145320 0.145301 0.145275 0.145251 0.145227 0.145202 0.145177 0.145158 0.145149 0.145144 
0.161950 0.161940 0.161870 0.161660 0.161378 0.161033 0.160689 0.160344 0.159977 0.159703 0.159599 0.159585 0.159570 0.159468 0.159303 0.159083 0.158846 0.158610 0.158373 0.158108 0.157910 0.157832 0.157822 0.157811 0.157733 0.157511 0.157214 0.156889 0.156563 0.156237 0.155885 0.155621 0.155521 0.155507 0.155493 0.155391 0.155126 0.154773 0.154442 0.154111 0.153780 0.153484 0.153262 0.153186 0.153175 0.153165 0.153089 0.152900 0.152647 0.152423 0.152198 0.151974 0.151778 0.151630 0.151577 0.151570 0.151562 0.151509 0.151376 0.151199 0.151035 0.150871 0.150706 0.150553 0.150438 0.150397 0.150391 0.150385 0.150345 0.150235 0.150088 0.149946 0.149804 0.149663 0.149521 0.149415 0.149376 0.149370 
0.173370 0.173360 0.173320 0.173213 0.173072 0.172901 0.172730 0.172558 0.172358 0.172206 0.172140 0.172123 0.172106 0.172038 0.171863 0.171632 0.171372 0.171112 0.170852 0.170559 0.170337 0.170241 0.170218 0.170193 0.170096 0.169853 0.169531 0.169171 0.168811 0.168451 0.168077 0.167795 0.167678 0.167650 0.167621 0.167506 0.167250 0.166912 0.166719 0.166527 0.166334 0.166140 0.165993 0.165932 0.165917 0.165902 0.165841 0.165692 0.165496 0.165298 0.165101 0.164903 0.164700 0.164547 0.164483 0.164467 0.164452 0.164388 0.164234 0.164030 0.163819 0.163608 0.163397 0.163184 0.163023 0.162955 0.162938 0.162920 0.162851 0.162685 0.162464 0.162237 0.162009 0.161782 0.161549 0.161373 0.161299 0.161281 0.161263 0.161189 0.161008 0.160767 0.160519 0.160270 0.160021 0.159766 0.159574 0.159494 0.159474 0.159455 0.159375 0.159185 0.158933 0.158686 0.158440 0.158193 0.157957 0.157779 0.157709 0.157692 0.157675 0.157607 0.157446 0.157232 0.157040 0.156848 0.156656 0.156481 0.156349 0.156295 0.156282 0.156269 0.156215 0.156107 0.155964 0.155829 0.155693 0.155557 0.155444 0.155358 0.155323 0.155314 0.155305 0.155270 0.155189 0.155082 0.154989 0.154895 0.154802 0.154717 0.154653 0.154628 0.154622 0.154616 0.154592 0.154533 0.154455 0.154384 0.154313 0.154242 0.154174 0.154122 0.154100 0.154095 0.154090 0.154071 0.154026 0.153966 0.153906 0.153846 0.153787 0.153731 0.153690 0.153672 0.153668 0.153664 0.153646 0.153606 0.153552 0.153501 0.153449 0.153397 0.153347 0.153309 0.153294 0.153290 
0.191578 0.191546 0.191302 0.190617 0.189704 0.188721 0.187739 0.186756 0.185706 0.184920 0.184621 0.184582 0.184542 0.184242 0.183431 0.182350 0.181283 0.180215 0.179147 0.178144 0.177392 0.177121 0.177086 0.177051 0.176785 0.176097 0.175180 0.174366 0.173552 0.172738 0.172016 0.171476 0.171288 0.171264 0.171239 0.171052 0.170525 0.169822 0.169090 0.168359 0.167627 0.166881 0.166322 0.166114 0.166087 0.166060 0.165853 0.165295 0.164550 0.163863 0.163176 0.162489 0.161967 0.161577 0.161442 0.161424 0.161409 0.161293 0.160992 0.160590 0.160282 0.159974 0.159666 0.159420 0.159236 0.159175 0.159167 0.159159 0.159097 0.158946 0.158745 0.158578 0.158411 0.158244 0.158102 0.157996 0.157962 0.157958 
0.194550 0.194514 0.194389 0.194098 0.193714 0.193316 0.192919 0.192521 0.192104 0.191788 0.191648 0.191608 0.191567 0.191427 0.191103 0.190676 0.190242 0.189808 0.189374 0.188935 0.188602 0.188457 0.188415 0.188373 0.188229 0.187892 0.187448 0.187005 0.186561 0.186118 0.185676 0.185340 0.185195 0.185153 0.185111 0.184967 0.184636 0.184199 0.183770 0.183341 0.182912 0.182491 0.182172 0.182035 0.181995 0.181956 0.181819 0.181505 0.181092 0.180691 0.180291 0.179891 0.179504 0.179210 0.179083 0.179046 0.179009 0.178883 0.178597 0.178219 0.177849 0.177479 0.177109 0.176745 0.176469 0.176351 0.176317 0.176283 0.176165 0.175894 0.175538 0.175183 0.174828 0.174472 0.174120 0.173853 0.173736 0.173702 0.173668 0.173552 0.173287 0.172937 0.172591 0.172246 0.171901 0.171558 0.171298 0.171185 0.171153 0.171121 0.171009 0.170752 0.170414 0.170084 0.169754 0.169423 0.169098 0.168852 0.168746 0.168715 0.168685 0.168581 0.168346 0.168035 0.167728 0.167421 0.167115 0.166829 0.166612 0.166534 0.166512 0.166491 0.166417 0.166254 0.166039 0.165856 0.165672 0.165488 0.165317 0.165187 0.165131 0.165115 0.165100 0.165044 0.164935 0.164791 0.164654 0.164516 0.164379 0.164261 0.164172 0.164135 0.164125 0.164114 0.164077 0.163991 0.163878 0.163775 0.163672 0.163569 0.163474 0.163401 0.163370 0.163360 0.163351 0.163319 0.163252 0.163164 0.163082 0.163000 0.162919 0.162838 0.162777 0.162754 0.162747 0.162740 0.162717 0.162663 0.162591 0.162524 0.162456 0.162388 0.162327 0.162281 0.162261 0.162255 0.162250 0.162229 0.162184 0.162124 0.162071 0.162018 0.161965 0.161911 0.161871 0.161856 0.161851 0.161847 0.161832 0.161798 0.161753 0.161708 0.161663 0.161619 0.161580 0.161551 0.161538 0.161534 
0.202751 0.202688 0.202463 0.201937 0.201242 0.200549 0.199855 0.199162 0.198477 0.197959 0.197738 0.197676 0.197615 0.197394 0.196885 0.196212 0.195549 0.194886 0.194223 0.193570 0.193076 0.192865 0.192806 0.192747 0.192537 0.192054 0.191416 0.190799 0.190182 0.189565 0.188964 0.188508 0.188315 0.188261 0.188207 0.188014 0.187572 0.186987 0.186424 0.185861 0.185298 0.184750 0.184335 0.184157 0.184108 0.184059 0.183883 0.183488 0.182967 0.182460 0.181953 0.181446 0.180958 0.180589 0.180433 0.180389 0.180346 0.180190 0.179833 0.179361 0.178908 0.178454 0.178001 0.177561 0.177228 0.177087 0.177048 0.177009 0.176869 0.176555 0.176139 0.175733 0.175327 0.174921 0.174539 0.174249 0.174126 0.174092 0.174058 0.173936 0.173655 0.173284 0.172937 0.172590 0.172244 0.171910 0.171657 0.171549 0.171519 0.171489 0.171382 0.171152 0.170848 0.170598 0.170349 0.170100 0.169910 0.169767 0.169709 0.169693 0.169676 0.169619 0.169485 0.169309 0.169155 0.169002 0.168848 0.168703 0.168594 0.168547 0.168534 0.168520 0.168473 0.168381 0.168258 0.168137 0.168017 0.167896 0.167792 0.167712 0.167680 0.167671 0.167662 0.167629 0.167552 0.167450 0.167358 0.167267 0.167176 0.167091 0.167027 0.166999 0.166991 0.166984 0.166956 0.166900 0.166827 0.166757 0.166686 0.166615 0.166555 0.166509 0.166491 0.166486 0.166481 0.166462 0.166420 0.166364 0.166316 0.166269 0.166221 0.166180 0.166148 0.166134 0.166131 
0.206101 0.206010 0.205283 0.203426 0.200946 0.198796 0.196646 0.194496 0.192653 0.191272 0.190796 0.190736 0.190678 0.190214 0.189025 0.187438 0.186075 0.184713 0.183350 0.182194 0.181328 0.181026 0.180988 0.180952 0.180661 0.179929 0.178951 0.178158 0.177364 0.176571 0.176149 0.175833 0.175721 0.175707 0.175693 0.175582 0.175310 0.174947 0.174619 0.174291 0.173963 0.173657 0.173427 0.173339 0.173329 0.173317 0.173227 0.173010 0.172720 0.172477 0.172234 0.171991 0.171782 0.171625 0.171571 0.171564 
