0.138101 0.138110 0.138235 0.138823 0.139756 0.140782 0.141808 0.142834 0.143961 0.144672 0.144834 0.144846 0.144858 0.145021 0.145791 0.147010 0.148356 0.149702 0.151047 0.152530 0.153466 0.153679 0.153695 0.153710 0.153925 0.154931 0.156525 0.158214 0.159903 0.161593 0.163340 0.164442 0.164687 0.164705 0.164722 0.164967 0.166094 0.167879 0.169750 0.171621 0.173492 0.175503 0.176773 0.177061 0.177081 0.177102 0.177392 0.178755 0.180914 0.183233 0.185553 0.187872 0.190296 0.191826 0.192166 0.192190 0.192214 0.192551 0.194089 0.196526 0.198830 0.201134 0.203438 0.205333 0.206529 0.206750 0.206765 0.206781 0.206993 0.207789 0.209049 0.209540 0.210031 0.210522 0.210479 0.210452 0.210437 0.210436 0.210434 0.210400 0.210200 0.209884 0.209291 0.208699 0.208106 0.207181 0.206597 0.206448 0.206437 0.206426 0.206270 0.205451 0.204152 0.202391 0.200629 0.198868 0.196723 0.195368 0.195056 0.195033 0.195011 0.194695 0.193205 0.190843 0.188468 0.186092 0.183717 0.181536 0.180159 0.179871 0.179850 0.179830 0.179544 0.178316 0.176371 0.174675 0.172979 0.171282 0.169785 0.168840 0.168641 0.168627 0.168613 0.168415 0.167540 0.166154 0.164860 0.163565 0.162270 0.161045 0.160272 0.160105 0.160093 0.160081 0.159914 0.159166 0.157982 0.156832 0.155683 0.154534 0.153429 0.152731 0.152581 0.152570 0.152559 0.152410 0.151746 0.150693 0.149719 0.148744 0.147769 0.146873 0.146307 0.146187 0.146178 
0.177074 0.177045 0.176943 0.176711 0.176404 0.176100 0.175797 0.175493 0.175188 0.174958 0.174858 0.174830 0.174801 0.174702 0.174475 0.174175 0.173875 0.173575 0.173275 0.172976 0.172750 0.172651 0.172623 0.172595 0.172496 0.172268 0.171966 0.171664 0.171361 0.171059 0.170756 0.170527 0.170427 0.170399 0.170370 0.170270 0.170042 0.169741 0.169441 0.169142 0.168842 0.168547 0.168324 0.168228 0.168200 0.168172 0.168076 0.167857 0.167568 0.167285 0.167002 0.166719 0.166446 0.166239 0.166150 0.166125 0.166099 0.166010 0.165806 0.165537 0.165272 0.165006 0.164741 0.164478 0.164278 0.164192 0.164167 0.164142 0.164055 0.163897 0.163689 0.163549 0.163410 0.163271 0.163142 0.163044 0.163001 0.162989 0.162977 0.162935 0.162837 0.162709 0.162580 0.162451 0.162322 0.162196 0.162101 0.162060 0.162048 0.162036 0.161996 0.161905 0.161784 0.161669 0.161555 0.161440 0.161329 0.161245 0.161208 0.161198 0.161187 0.161152 0.161073 0.160969 0.160866 0.160763 0.160661 0.160564 0.160491 0.160460 0.160451 
0.192182 0.192150 0.192031 0.191751 0.191381 0.191009 0.190637 0.190265 0.189888 0.189603 0.189483 0.189450 0.189417 0.189297 0.189018 0.188648 0.188281 0.187913 0.187546 0.187180 0.186903 0.186783 0.186751 0.186718 0.186598 0.186317 0.185945 0.185574 0.185203 0.184832 0.184459 0.184177 0.184057 0.184024 0.183991 0.183872 0.183590 0.183217 0.182845 0.182472 0.182100 0.181727 0.181445 0.181326 0.181294 0.181261 0.181143 0.180867 0.180503 0.180146 0.179789 0.179432 0.179080 0.178814 0.178703 0.178673 0.178643 0.178532 0.178277 0.177940 0.177617 0.177294 0.176971 0.176656 0.176418 0.176317 0.176290 0.176262 0.176162 0.175929 0.175622 0.175320 0.175017 0.174715 0.174426 0.174207 0.174160 0.174147 0.174135 0.174089 0.173979 0.173834 0.173692 0.173550 0.173408 0.173268 0.173162 0.173118 0.173107 0.173095 0.173051 0.172947 0.172810 0.172671 0.172533 0.172394 0.172257 0.172154 0.172111 0.172099 0.172087 0.172043 0.171942 0.171809 0.171677 0.171545 0.171412 0.171285 0.171188 0.171149 0.171138 0.171127 0.171088 0.170996 0.170875 0.170756 0.170637 0.170518 0.170401 0.170313 0.170277 0.170267 0.170257 0.170220 0.170135 0.170023 0.169914 0.169805 0.169696 0.169590 0.169510 0.169476 0.169467 
0.210421 0.210360 0.210113 0.209518 0.208730 0.207938 0.207147 0.206355 0.205549 0.204940 0.204690 0.204628 0.204566 0.204317 0.203706 0.202896 0.202092 0.201288 0.200484 0.199678 0.199070 0.198821 0.198760 0.198699 0.198451 0.197867 0.197094 0.196318 0.195543 0.194767 0.194014 0.193445 0.193206 0.193147 0.193088 0.192851 0.192290 0.191548 0.190822 0.190097 0.189371 0.188663 0.188129 0.187911 0.187857 0.187804 0.187588 0.187064 0.186371 0.185706 0.185040 0.184375 0.183729 0.183242 0.183044 0.182995 0.182946 0.182748 0.182282 0.181665 0.181073 0.180480 0.179887 0.179319 0.178889 0.178714 0.178670 0.178627 0.178452 0.178254 0.177992 0.177731 0.177471 0.177210 0.176949 0.176752 0.176671 0.176651 0.176630 0.176549 0.176351 0.176088 0.175833 0.175577 0.175322 0.175074 0.174886 0.174809 0.174791 0.174772 0.174695 0.174516 0.174278 0.174048 0.173818 0.173587 0.173368 0.173203 0.173135 0.173118 
0.206424 0.206371 0.206149 0.205608 0.204891 0.204167 0.203443 0.202719 0.201986 0.201433 0.201207 0.201153 0.201099 0.200874 0.200314 0.199571 0.198835 0.198099 0.197363 0.196619 0.196058 0.195829 0.195775 0.195720 0.195493 0.194941 0.194209 0.193487 0.192764 0.192042 0.191326 0.190785 0.190566 0.190514 0.190461 0.190242 0.189717 0.189022 0.188331 0.187639 0.186948 0.186274 0.185766 0.185557 0.185507 0.185458 0.185250 0.184754 0.184097 0.183455 0.182812 0.182169 0.181546 0.181076 0.180884 0.180839 0.180793 0.180603 0.180148 0.179544 0.178962 0.178380 0.177797 0.177434 0.177159 0.177089 0.177073 0.177056 0.176986 0.176810 0.176576 0.176334 0.176092 0.175849 0.175603 0.175418 0.175341 0.175323 0.175305 0.175229 0.175046 0.174802 0.174563 0.174325 0.174086 0.173854 0.173679 0.173607 0.173590 0.173573 0.173502 0.173332 0.173106 0.172890 0.172673 0.172456 0.172248 0.172091 0.172028 0.172013 
0.168622 0.168600 0.168491 0.168216 0.167850 0.167483 0.167117 0.166750 0.166382 0.166105 0.165995 0.165973 0.165950 0.165840 0.165562 0.165194 0.164826 0.164458 0.164090 0.163723 0.163446 0.163336 0.163314 0.163292 0.163182 0.162904 0.162535 0.162162 0.161790 0.161417 0.161041 0.160758 0.160645 0.160623 0.160600 0.160488 0.160202 0.159823 0.159594 0.159365 0.159136 0.158937 0.158787 0.158728 0.158716 0.158704 0.158644 0.158494 0.158294 0.158095 0.157896 0.157697 0.157499 0.157350 0.157291 0.157279 0.157268 0.157209 0.157062 0.156867 0.156676 0.156486 0.156295 0.156108 0.155968 0.155913 0.155902 0.155891 0.155836 0.155698 0.155516 0.155338 0.155161 0.154984 0.154812 0.154683 0.154632 0.154621 
