-1.217310 0.763277 20.323410
-1.219425 0.772934 20.311624
-1.221539 0.782591 20.299838
-1.314558 1.178561 19.826036
-1.535752 1.612021 19.499614
-2.032365 1.968107 19.531918
-2.597579 2.207994 19.593688
-1.222803 0.788362 20.292795
-1.314318 1.177325 19.827590
-1.314797 1.179796 19.824482
-1.534390 1.610560 19.499692
-1.537115 1.613483 19.499536
-2.030528 1.967339 19.531725
-2.034201 1.968876 19.532112
-2.595770 2.207164 19.593496
-1.227365 0.809197 20.267365
-1.310338 1.156819 19.853384
-1.318777 1.200302 19.798689
-1.511774 1.586301 19.500994
-1.560092 1.637363 19.499098
-2.000053 1.954590 19.528511
-2.064945 1.980854 19.535655
-2.565739 2.193393 19.590310
-1.238158 0.854883 20.212790
-1.250889 0.906385 20.152115
-1.264018 0.958100 20.091705
-1.277117 1.009800 20.031275
-1.289553 1.061142 19.970403
-1.300966 1.111921 19.908868
-1.328903 1.245622 19.743681
-1.343351 1.297990 19.684239
-1.362521 1.352653 19.628418
-1.387668 1.409956 19.577768
-1.422060 1.470531 19.537221
-1.466315 1.532348 19.511812
-1.612429 1.686539 19.504119
-1.672427 1.740066 19.509570
-1.733964 1.791929 19.513414
-1.797485 1.841420 19.515599
-1.863792 1.887201 19.517556
-1.934721 1.925180 19.522306
-2.131944 2.005924 19.543731
-2.206622 2.034968 19.552435
-2.280735 2.065555 19.560589
-2.354345 2.097451 19.568326
-2.427581 2.130253 19.575853
-2.500595 2.163538 19.583415
-3.971399 2.980317 19.647799
-4.417785 4.460648 19.701396
-4.591133 6.033076 19.776549
-5.001850 7.558267 19.864231
-5.776477 8.930177 19.966927
-6.904268 10.030068 20.078155
-8.266284 10.826416 20.189081
-9.744423 11.383062 20.295796
-2.599389 2.208823 19.593882
-3.969878 2.979019 19.647795
-3.972921 2.981615 19.647804
-4.417641 4.458655 19.701301
-4.417930 4.462640 19.701490
-4.590794 6.031108 19.776447
-4.591473 6.035045 19.776651
-5.001147 7.556398 19.864111
-5.002553 7.560135 19.864350
-5.775282 8.928579 19.966791
-5.777673 8.931774 19.967064
-6.902666 10.028879 20.078013
-6.905870 10.031257 20.078296
-8.264475 10.825575 20.188944
-8.268094 10.827257 20.189219
-9.742513 11.382485 20.295665
-2.629421 2.222577 19.597127
-3.944625 2.957480 19.647719
-3.996964 3.004331 19.647896
-4.415235 4.425589 19.699734
-4.420336 4.495707 19.703057
-4.585262 5.998425 19.774763
-4.597109 6.067710 19.778340
-4.989478 7.525389 19.862131
-5.015230 7.590742 19.866372
-5.755442 8.902067 19.964525
-5.797548 8.958259 19.969331
-6.876080 10.009148 20.075662
-6.932456 10.050988 20.080647
-8.234414 10.811692 20.186660
-8.298123 10.841208 20.191504
-9.710809 11.372909 20.293480
-2.767569 2.285623 19.612092
-2.985872 2.387732 19.631200
-3.202450 2.494959 19.638596
-3.421328 2.597419 19.645626
-3.624756 2.727245 19.648849
-3.820965 2.868388 19.647721
-4.085865 3.127918 19.648564
-4.197687 3.342200 19.649616
-4.297641 3.562291 19.651802
-4.368555 3.792783 19.659128
-4.388482 4.032969 19.674652
-4.403105 4.273726 19.691159
-4.430772 4.647793 19.709714
-4.448325 4.888704 19.720592
-4.470821 5.129177 19.731963
-4.496737 5.369307 19.743421
-4.525701 5.609073 19.755084
-4.561020 5.847970 19.767085
-4.624319 6.217646 19.786175
-4.673346 6.454068 19.798895
-4.728843 6.689040 19.811941
-4.789971 6.922591 19.825264
-4.860668 7.153382 19.839041
-4.937811 7.382108 19.853116
-5.075519 7.730591 19.875752
-5.174116 7.950861 19.890743
-5.280775 8.167207 19.906040
-5.402418 8.375558 19.921876
-5.525012 8.583338 19.937744
-5.663553 8.780697 19.954088
-5.890972 9.078431 19.979801
-6.050478 9.259282 19.996634
-6.216528 9.434224 20.013582
-6.388822 9.602950 20.030610
-6.569841 9.762313 20.047720
-6.755854 9.915820 20.064849
-7.056467 10.139224 20.091446
-7.256748 10.273604 20.108525
-7.460337 10.402907 20.125563
-7.669697 10.522649 20.142496
-7.881162 10.638681 20.159380
-8.096282 10.747720 20.176156
-8.436162 10.905382 20.202011
-8.658122 10.999762 20.218514
-8.882948 11.087232 20.234869
-9.108119 11.173780 20.251203
-9.336568 11.251316 20.267319
-9.565549 11.327306 20.283396
157 NaN NaN
-1.216253 0.758449 20.329304
-1.230089 0.821637 20.252182
-1.245656 0.885779 20.176183
-1.262059 0.950370 20.100740
-1.278419 1.014938 20.025269
-1.293859 1.079010 19.949185
-1.307478 1.142078 19.871926
-1.319546 1.204268 19.793700
-1.333908 1.267743 19.716926
-1.354777 1.334590 19.644689
-1.385299 1.405783 19.580562
-1.428159 1.481274 19.530030
-1.485850 1.558495 19.502485
-1.554330 1.631948 19.498545
-1.627495 1.700695 19.505565
-1.703026 1.766878 19.512297
-1.781214 1.830187 19.515119
-1.863992 1.887339 19.517562
-1.952531 1.934709 19.523501
-2.044938 1.973367 19.533244
-2.138619 2.008422 19.544536
-2.231839 2.044812 19.555364
-2.324059 2.083933 19.565218
-2.415579 2.124781 19.574610
-2.506767 2.166351 19.584054
-2.597844 2.208116 19.593716
-2.688926 2.249829 19.603555
-2.780099 2.291327 19.613452
-2.871223 2.333095 19.622635
-2.962006 2.375949 19.629983
-3.052168 2.420463 19.634579
-3.142105 2.465596 19.637181
-3.232598 2.509628 19.639303
-3.324100 2.551476 19.642195
-3.415224 2.594108 19.645450
-3.503649 2.642074 19.648005
-3.586990 2.698454 19.648968
-3.667040 2.759480 19.648716
-3.747729 2.819644 19.648062
-3.831521 2.875413 19.647672
-3.914753 2.932000 19.647630
-3.991254 2.997252 19.647859
-4.054369 3.075497 19.648271
-4.106189 3.161745 19.648753
-4.152363 3.251185 19.649206
-4.197247 3.341284 19.649611
-4.240793 3.432035 19.650168
-4.282096 3.523823 19.651124
-4.319800 3.617129 19.652769
-4.351084 3.712733 19.655546
-4.372515 3.810926 19.659940
-4.383091 3.910811 19.666024
-4.387620 4.011118 19.673071
-4.391578 4.111437 19.680329
-4.398110 4.211646 19.687240
-4.406167 4.311784 19.693561
-4.414244 4.411968 19.699088
-4.421539 4.512251 19.703842
-4.428380 4.612585 19.708191
-4.435196 4.712921 19.712531
-4.442380 4.813223 19.717071
-4.450275 4.913464 19.721747
-4.459207 5.013616 19.726480
-4.469177 5.113669 19.731225
-4.479777 5.213658 19.735981
-4.490590 5.313622 19.740750
-4.501623 5.413562 19.745544
-4.513344 5.513421 19.750383
-4.526225 5.613133 19.755284
-4.540336 5.712676 19.760249
-4.555367 5.812082 19.765262
-4.571009 5.911392 19.770308
-4.587256 6.010603 19.775386
-4.604349 6.109669 19.780510
-4.622529 6.208539 19.785691
-4.641915 6.307175 19.790934
-4.662534 6.405558 19.796240
-4.684401 6.503668 19.801609
-4.707397 6.601516 19.807035
-4.731318 6.699140 19.812507
-4.756007 6.796571 19.818017
-4.781779 6.893717 19.823579
-4.809209 6.990402 19.829221
-4.838765 7.086452 19.834963
-4.870021 7.181960 19.840783
-4.902118 7.277187 19.846641
-4.934398 7.372351 19.852509
-4.967580 7.467200 19.858416
-5.002969 7.561240 19.864420
-5.041527 7.654016 19.870558
-5.082289 7.745842 19.876787
-5.123611 7.837417 19.883038
-5.164339 7.929260 19.889267
-5.205763 8.020787 19.895522
-5.249947 8.111000 19.901884
-5.298249 8.199067 19.908395
-5.349142 8.285662 19.914997
-5.400392 8.372046 19.921611
-5.450582 8.459053 19.928189
-5.501308 8.545747 19.934785
-5.554874 8.630698 19.941471
-5.612606 8.712866 19.948278
-5.672916 8.793164 19.955156
-5.733743 8.873072 19.962046
-5.793913 8.953476 19.968919
-5.854682 9.033427 19.975806
-5.917714 9.111594 19.982745
-5.983834 9.187163 19.989749
-6.051983 9.260910 19.996790
-6.120902 9.333937 20.003843
-6.189971 9.406823 20.010897
-6.259855 9.478925 20.017963
-6.331360 9.549414 20.025050
-6.404824 9.617859 20.032158
-6.479780 9.684666 20.039279
-6.555715 9.750360 20.046406
-6.632364 9.815218 20.053535
-6.709846 9.879078 20.060666
-6.788305 9.941734 20.067799
-6.867833 10.003027 20.074933
-6.948460 10.062866 20.082063
-7.030205 10.121170 20.089187
-7.112946 10.178054 20.096304
-7.196394 10.233896 20.103413
-7.280278 10.289084 20.110518
-7.364635 10.343545 20.117617
-7.449833 10.396681 20.124704
-7.536208 10.447882 20.131770
-7.623634 10.497272 20.138813
-7.711586 10.545726 20.145845
-7.799579 10.594104 20.152875
-7.887698 10.642252 20.159902
-7.976497 10.689133 20.166910
-8.066459 10.733745 20.173881
-8.157391 10.776356 20.180818
-8.248667 10.818231 20.187741
-8.339739 10.860543 20.194671
-8.430765 10.902956 20.201604
-8.522357 10.944131 20.208513
-8.615017 10.982849 20.215372
-8.708507 11.019532 20.222187
-8.802243 11.055587 20.228988
-8.895742 11.092248 20.235802
-8.989169 11.129094 20.242620
-9.083013 11.164862 20.249414
-9.177653 11.198478 20.256157
-9.272885 11.230391 20.262857
-9.368305 11.261744 20.269543
-9.463600 11.293473 20.276238
-9.558905 11.325170 20.282933
-9.654524 11.355910 20.289603
-9.750676 11.384950 20.296227
-9.847238 11.412606 20.302813
-9.944003 11.439552 20.309379
-10.040778 11.466464 20.315944
-10.137369 11.494021 20.322528
-10.233570 11.522897 20.329147
