0.253907 0.253934 0.254404 0.256615 0.260119 0.260088 0.260057 0.260026 0.255171 0.252108 0.251270 0.251222 0.251173 0.250307 0.245971 0.239100 0.232312 0.225523 0.218734 0.213030 0.209430 0.208702 0.208661 
0.253902 0.253906 0.253952 0.252677 0.250656 0.244957 0.239258 0.233558 0.228162 0.224755 0.224084 0.224029 0.223975 0.223308 0.220682 0.216521 0.213354 0.210186 0.207019 0.204434 0.202802 0.202456 0.202427 0.202399 0.202054 0.200557 0.198186 0.195963 0.193741 0.191518 0.189403 0.188068 0.187779 0.187756 0.187732 0.187445 0.186183 0.184183 0.182352 0.180522 0.178691 0.177034 0.175988 0.175764 0.175746 0.175728 0.175505 0.174539 0.173008 0.171607 0.170205 0.168804 0.167511 0.166695 0.166519 0.166505 0.166491 0.166316 0.165544 0.164322 0.163170 0.162019 0.160867 0.159776 0.159087 0.158936 0.158924 0.158912 0.158762 0.158102 0.157057 0.156065 0.155073 0.154082 0.153146 0.152556 0.152428 0.152418 0.152407 0.152280 0.151717 0.150825 0.149982 0.149139 0.148295 0.147495 0.146989 0.146880 0.146871 0.146862 0.146752 0.146268 0.145500 0.144768 0.144035 0.143303 0.142603 0.142161 0.142065 0.142057 0.142049 0.141953 0.141528 0.140853 0.140209 0.139564 0.138919 0.138302 0.137913 0.137828 0.137821 0.137814 0.137730 0.137356 0.136763 0.136199 0.135636 0.135073 0.134538 0.134200 0.134127 0.134121 0.134115 0.134042 0.133719 0.133209 0.132725 0.132242 0.131758 0.131300 0.131010 0.130947 0.130942 
0.253951 0.254155 0.257993 0.270838 0.291195 0.303120 0.315044 0.326969 0.305464 0.291894 0.289007 0.288854 0.288699 0.285785 0.272943 0.252589 0.239660 0.226732 0.213803 0.206796 0.202375 0.201577 0.201534 0.201492 0.200702 0.197496 0.192415 0.187068 0.181722 0.176376 0.168432 0.163420 0.162155 0.162088 0.162020 0.160735 0.154932 0.145735 0.140001 0.134266 0.128531 0.126068 0.124514 0.124272 0.124259 0.124247 0.124017 0.123200 0.121904 0.121175 0.120446 0.119717 0.119256 0.118965 0.118910 0.118907 0.118904 0.118851 0.118628 0.118275 0.118001 0.117727 0.117453 0.117232 0.117093 0.117065 0.117063 0.117062 0.117034 0.116916 0.116727 0.116574 0.116421 0.116267 0.116145 0.116067 0.116052 0.116051 0.116050 0.116035 0.115972 0.115871 0.115791 0.115711 0.115631 0.115568 0.115528 0.115520 0.115520 0.115519 0.115512 0.115478 0.115425 0.115381 0.115337 0.115294 0.115257 0.115233 0.115229 0.115228 
0.224002 0.223893 0.223459 0.222436 0.221082 0.219798 0.218515 0.217231 0.216029 0.215121 0.214751 0.214658 0.214566 0.214199 0.213340 0.212202 0.211126 0.210050 0.208974 0.207959 0.207193 0.206880 0.206801 0.206723 0.206414 0.205688 0.204728 0.203824 0.202920 0.202017 0.201170 0.200530 0.200271 0.200206 0.200140 0.199882 0.199278 0.198479 0.197726 0.196972 0.196219 0.195510 0.194974 0.194757 0.194702 0.194648 0.194433 0.193931 0.193267 0.192637 0.192007 0.191377 0.190779 0.190327 0.190143 0.190097 0.190051 0.189869 0.189443 0.188879 0.188340 0.187802 0.187263 0.186743 0.186351 0.186191 0.186151 0.186111 0.185952 0.185576 0.185079 0.184606 0.184134 0.183662 0.183206 0.182862 0.182720 0.182684 0.182650 0.182513 0.182190 0.181762 0.181352 0.180942 0.180532 0.180149 0.179860 0.179741 0.179711 0.179681 0.179562 0.179290 0.178931 0.178595 0.178258 0.177922 0.177621 0.177393 0.177302 0.177279 0.177256 0.177165 0.176951 0.176667 0.176426 0.176184 0.175942 0.175719 0.175551 0.175494 0.175480 0.175466 0.175409 0.175274 0.175096 0.174939 0.174783 0.174626 0.174490 0.174388 0.174346 0.174335 0.174324 0.174282 0.174201 0.174093 0.173993 0.173893 0.173793 0.173715 0.173657 0.173631 0.173625 0.173619 0.173594 0.173536 0.173459 0.173398 0.173338 0.173277 0.173219 0.173175 0.173160 0.173156 0.173152 0.173136 0.173095 0.173041 0.172997 0.172952 0.172908 0.172867 0.172835 0.172822 0.172819 0.172816 0.172806 0.172783 0.172753 0.172721 0.172690 0.172658 0.172633 0.172614 0.172606 0.172604 0.172602 0.172593 0.172577 0.172555 0.172536 0.172518 0.172499 0.172485 0.172474 0.172470 0.172469 0.172468 0.172464 0.172453 0.172439 0.172430 0.172421 0.172412 0.172403 0.172395 0.172394 0.172394 
0.187745 0.187705 0.187455 0.186806 0.185943 0.185107 0.184270 0.183434 0.182625 0.182017 0.181788 0.181751 0.181713 0.181485 0.180893 0.180105 0.179368 0.178632 0.177896 0.177202 0.176681 0.176487 0.176456 0.176425 0.176233 0.175742 0.175087 0.174473 0.173858 0.173243 0.172674 0.172247 0.172088 0.172062 0.172037 0.171880 0.171482 0.170953 0.170465 0.169977 0.169488 0.169036 0.168696 0.168571 0.168551 0.168531 0.168408 0.168096 0.167680 0.167304 0.166929 0.166553 0.166220 0.165970 0.165886 0.165872 0.165859 0.165776 0.165575 0.165306 0.165100 0.164893 0.164687 0.164522 0.164398 0.164360 0.164354 0.164348 0.164311 0.164215 0.164087 0.163992 0.163898 0.163804 0.163733 0.163679 0.163662 0.163659 0.163657 0.163643 0.163604 0.163553 0.163517 0.163482 0.163447 0.163425 0.163409 0.163402 0.163401 0.163400 0.163396 0.163389 0.163381 0.163379 0.163377 0.163375 0.163384 0.163390 0.163393 0.163393 
0.166502 0.166488 0.166438 0.166321 0.166165 0.166006 0.165846 0.165686 0.165524 0.165401 0.165348 0.165333 0.165319 0.165265 0.165140 0.164975 0.164807 0.164639 0.164472 0.164304 0.164177 0.164122 0.164107 0.164092 0.164038 0.163910 0.163742 0.163574 0.163407 0.163239 0.163073 0.162947 0.162894 0.162879 0.162864 0.162810 0.162685 0.162520 0.162357 0.162195 0.162033 0.161873 0.161751 0.161700 0.161686 0.161672 0.161621 0.161502 0.161346 0.161192 0.161039 0.160886 0.160737 0.160624 0.160576 0.160562 0.160549 0.160501 0.160391 0.160245 0.160104 0.159962 0.159821 0.159683 0.159579 0.159535 0.159523 0.159511 0.159468 0.159366 0.159233 0.159102 0.158972 0.158842 0.158716 0.158621 0.158580 0.158569 0.158558 0.158517 0.158424 0.158302 0.158184 0.158066 0.157949 0.157834 0.157748 0.157713 0.157703 0.157693 0.157658 0.157576 0.157467 0.157370 0.157273 0.157175 0.157095 0.157035 0.157010 0.157003 0.156996 0.156971 0.156918 0.156848 0.156788 0.156728 0.156668 0.156614 0.156574 0.156559 0.156555 0.156551 0.156536 0.156503 0.156458 0.156421 0.156383 0.156345 0.156313 0.156289 0.156279 0.156276 0.156273 0.156263 0.156243 0.156217 0.156193 0.156170 0.156147 0.156128 0.156113 0.156108 0.156107 0.156105 0.156100 0.156088 0.156072 0.156060 0.156047 0.156035 0.156024 0.156015 0.156012 0.156011 0.156009 0.156006 0.156000 0.155993 0.155986 0.155980 0.155974 0.155970 0.155967 0.155967 0.155967 0.155966 0.155966 0.155964 0.155961 0.155960 0.155960 0.155959 0.155959 0.155958 0.155958 0.155958 0.155958 0.155958 0.155959 0.155961 0.155963 0.155964 0.155966 0.155969 0.155972 0.155973 0.155973 0.155974 0.155975 0.155976 0.155979 0.155982 0.155986 0.155989 0.155992 0.155994 0.155994 0.155994 
0.158921 0.158908 0.158864 0.158760 0.158623 0.158484 0.158345 0.158206 0.158066 0.157961 0.157915 0.157903 0.157890 0.157844 0.157739 0.157599 0.157459 0.157319 0.157180 0.157039 0.156933 0.156887 0.156874 0.156862 0.156816 0.156709 0.156567 0.156428 0.156288 0.156148 0.156011 0.155906 0.155861 0.155849 0.155836 0.155791 0.155688 0.155552 0.155418 0.155284 0.155150 0.155018 0.154917 0.154875 0.154863 0.154851 0.154808 0.154708 0.154575 0.154447 0.154319 0.154190 0.154066 0.153972 0.153932 0.153921 0.153909 0.153869 0.153777 0.153655 0.153538 0.153420 0.153303 0.153187 0.153100 0.153062 0.153051 0.153041 0.153004 0.152919 0.152807 0.152696 0.152585 0.152473 0.152367 0.152287 0.152252 0.152243 0.152233 0.152198 0.152119 0.152014 0.151914 0.151814 0.151715 0.151617 0.151543 0.151511 0.151502 0.151493 0.151462 0.151402 0.151323 0.151250 0.151177 0.151104 0.151043 0.150997 0.150977 0.150972 0.150967 0.150947 0.150904 0.150846 0.150799 0.150751 0.150704 0.150661 0.150629 0.150615 0.150611 0.150608 0.150595 0.150571 0.150539 0.150507 0.150475 0.150443 0.150419 0.150401 0.150394 0.150392 0.150390 0.150382 0.150365 0.150342 0.150325 0.150308 0.150291 0.150275 0.150264 0.150259 0.150257 0.150256 0.150251 0.150244 0.150236 0.150227 0.150218 0.150209 0.150205 0.150202 0.150201 0.150200 0.150200 0.150199 0.150196 0.150192 0.150192 0.150191 0.150191 0.150192 0.150192 0.150192 0.150193 0.150193 0.150193 0.150196 0.150201 0.150206 0.150210 0.150215 0.150223 0.150229 0.150231 0.150232 0.150233 0.150235 0.150241 0.150249 0.150258 0.150268 0.150277 0.150287 0.150295 0.150298 0.150299 
0.152415 0.152406 0.152358 0.152236 0.152074 0.151910 0.151746 0.151582 0.151418 0.151295 0.151247 0.151237 0.151227 0.151178 0.151055 0.150891 0.150727 0.150562 0.150398 0.150237 0.150116 0.150069 0.150060 0.150050 0.150003 0.149885 0.149728 0.149573 0.149418 0.149262 0.149110 0.148995 0.148950 0.148941 0.148932 0.148888 0.148777 0.148630 0.148485 0.148340 0.148195 0.148053 0.147945 0.147903 0.147895 0.147887 0.147846 0.147742 0.147604 0.147472 0.147339 0.147207 0.147080 0.146985 0.146949 0.146942 0.146935 0.146899 0.146811 0.146694 0.146614 0.146534 0.146454 0.146394 0.146348 0.146331 0.146328 0.146325 0.146308 0.146271 0.146223 0.146188 0.146153 0.146118 0.146094 0.146077 0.146069 0.146068 0.146067 0.146059 0.146050 0.146037 0.146030 0.146023 0.146016 0.146014 0.146012 0.146014 0.146015 0.146015 0.146017 0.146021 0.146027 0.146039 0.146051 0.146062 0.146078 0.146090 0.146096 0.146097 0.146099 0.146104 0.146119 0.146139 0.146163 0.146188 0.146212 0.146241 0.146263 0.146272 0.146274 
0.146869 0.146862 0.146836 0.146775 0.146695 0.146613 0.146531 0.146450 0.146367 0.146304 0.146277 0.146270 0.146263 0.146236 0.146173 0.146089 0.146006 0.145923 0.145840 0.145758 0.145696 0.145669 0.145662 0.145655 0.145628 0.145566 0.145483 0.145402 0.145321 0.145240 0.145159 0.145098 0.145072 0.145065 0.145058 0.145033 0.144973 0.144895 0.144819 0.144743 0.144667 0.144592 0.144536 0.144512 0.144506 0.144500 0.144476 0.144421 0.144348 0.144276 0.144204 0.144131 0.144060 0.144007 0.143984 0.143978 0.143971 0.143949 0.143896 0.143827 0.143758 0.143689 0.143619 0.143553 0.143502 0.143481 0.143475 0.143469 0.143448 0.143399 0.143334 0.143279 0.143225 0.143170 0.143120 0.143082 0.143067 0.143062 0.143059 0.143045 0.143014 0.142972 0.142933 0.142894 0.142856 0.142824 0.142800 0.142790 0.142788 0.142785 0.142775 0.142754 0.142725 0.142703 0.142681 0.142659 0.142639 0.142624 0.142619 0.142618 0.142617 0.142612 0.142601 0.142587 0.142576 0.142565 0.142554 0.142546 0.142540 0.142537 0.142537 0.142536 0.142533 0.142529 0.142524 0.142521 0.142519 0.142516 0.142516 0.142516 0.142517 0.142517 0.142517 0.142518 0.142519 0.142522 0.142527 0.142532 0.142537 0.142543 0.142548 0.142550 0.142551 0.142552 0.142554 0.142561 0.142572 0.142582 0.142593 0.142604 0.142618 0.142629 0.142634 0.142635 
0.142056 0.142049 0.141998 0.141858 0.141672 0.141485 0.141297 0.141110 0.140926 0.140787 0.140737 0.140730 0.140723 0.140673 0.140538 0.140359 0.140185 0.140011 0.139837 0.139666 0.139538 0.139492 0.139486 0.139480 0.139433 0.139310 0.139145 0.138987 0.138830 0.138672 0.138553 0.138464 0.138435 0.138431 0.138428 0.138403 0.138342 0.138260 0.138209 0.138159 0.138108 0.138080 0.138059 0.138053 0.138052 0.138051 0.138046 0.138040 0.138033 0.138042 0.138050 0.138059 0.138084 0.138103 0.138113 0.138115 
0.130942 0.130943 0.130947 0.130957 0.130970 0.130980 0.130991 0.131001 0.131010 0.131016 0.131018 0.131018 0.131019 0.131021 0.131025 0.131031 0.131034 0.131038 0.131041 0.131043 0.131044 0.131044 0.131044 0.131044 0.131044 0.131044 0.131043 0.131040 0.131037 0.131034 0.131030 0.131026 0.131024 0.131024 0.131023 0.131022 0.131016 0.131010 0.131001 0.130992 0.130983 0.130972 0.130964 0.130961 0.130960 0.130959 0.130956 0.130951 0.130946 0.130956 0.130966 0.130977 0.130987 0.130994 0.130997 0.130998 0.130998 0.131001 0.131008 0.131017 0.131025 0.131033 0.131041 0.131047 0.131052 0.131054 0.131054 0.131055 0.131056 0.131060 0.131065 0.131068 0.131072 0.131075 0.131078 0.131080 0.131081 0.131081 0.131081 0.131082 0.131084 0.131086 0.131088 0.131090 0.131092 0.131095 0.131096 0.131097 0.131097 
