0.179845 0.179872 0.180259 0.182085 0.184979 0.187790 0.190602 0.193413 0.195999 0.197631 0.197964 0.197988 0.198011 0.198339 0.199683 0.201814 0.203166 0.204517 0.205869 0.206522 0.206935 0.206999 0.207003 0.207008 0.207072 0.207261 0.207560 0.207584 0.207609 0.207633 0.207340 0.207155 0.207097 0.207093 0.207088 0.207026 0.206667 0.206099 0.205186 0.204272 0.203359 0.202151 0.201389 0.201208 0.201195 0.201182 0.200996 0.200079 0.198627 0.196997 0.195367 0.193736 0.192008 0.190918 0.190675 0.190658 
0.179834 0.179818 0.179654 0.179112 0.178338 0.177486 0.176634 0.175782 0.174867 0.174226 0.174025 0.174004 0.173984 0.173783 0.173129 0.172195 0.171297 0.170399 0.169501 0.168681 0.168107 0.167937 0.167920 0.167903 0.167735 0.167209 0.166457 0.165740 0.165024 0.164307 0.163601 0.163107 0.162956 0.162940 
0.179841 0.179851 0.180008 0.179808 0.179490 0.177574 0.175658 0.173742 0.170814 0.168966 0.168526 0.168497 0.168466 0.168011 0.165947 0.162676 0.159905 0.157134 0.154363 0.152430 0.151210 0.150982 0.150967 0.150952 0.150726 0.149862 0.148494 0.147396 0.146299 0.145201 0.144152 0.143490 0.143344 0.143334 0.143324 0.143180 0.142526 0.141490 0.140461 0.139431 0.138402 0.137292 0.136591 0.136421 0.136410 0.136399 0.136230 0.135314 0.133864 0.131655 0.129447 0.127238 0.125480 0.124371 0.124149 0.124134 0.124119 0.123900 0.122973 0.121503 0.120530 0.119556 0.118582 0.118036 0.117691 0.117630 0.117626 0.117622 0.117564 0.117337 0.116976 0.116738 0.116500 0.116263 0.116097 0.115992 0.115971 0.115969 0.115968 0.115947 0.115853 0.115704 0.115546 0.115387 0.115228 0.115072 0.114973 0.114952 0.114951 0.114949 0.114928 0.114833 0.114684 0.114543 0.114401 0.114260 0.114135 0.114056 0.114042 0.114041 0.114040 0.114026 0.113977 0.113901 0.113856 0.113812 0.113768 0.113734 0.113713 0.113708 0.113708 0.113708 0.113703 0.113684 0.113654 0.113627 0.113600 0.113573 0.113549 0.113533 0.113530 0.113530 0.113530 0.113527 0.113513 0.113491 0.113472 0.113453 0.113434 0.113418 0.113408 0.113406 0.113406 0.113405 0.113403 0.113394 0.113380 0.113365 0.113351 0.113337 0.113318 0.113306 0.113303 0.113303 
0.201177 0.201104 0.200725 0.199786 0.198536 0.197405 0.196273 0.195142 0.194144 0.193394 0.193110 0.193055 0.193001 0.192718 0.192012 0.191074 0.190197 0.189319 0.188442 0.187639 0.187035 0.186804 0.186759 0.186715 0.186487 0.185935 0.185202 0.184523 0.183845 0.183166 0.182548 0.182084 0.181934 0.181906 0.181877 0.181730 0.181374 0.180901 0.180518 0.180134 0.179751 0.179429 0.179187 0.179097 0.179080 0.179063 0.178974 0.178773 0.178506 0.178275 0.178044 0.177814 0.177610 0.177457 0.177396 0.177384 0.177375 0.177325 0.177199 0.177032 0.176885 0.176738 0.176591 0.176464 0.176368 0.176335 0.176329 0.176323 0.176290 0.176205 0.176093 0.175999 0.175906 0.175813 0.175738 0.175681 0.175657 0.175653 
0.206981 0.206893 0.206586 0.205889 0.204969 0.204087 0.203205 0.202322 0.201479 0.200839 0.200571 0.200494 0.200418 0.200152 0.199558 0.198773 0.198038 0.197302 0.196567 0.195886 0.195370 0.195155 0.195093 0.195033 0.194822 0.194345 0.193716 0.193151 0.192586 0.192020 0.191507 0.191119 0.190956 0.190910 0.190864 0.190705 0.190354 0.189890 0.189457 0.189024 0.188590 0.188186 0.187880 0.187747 0.187709 0.187671 0.187539 0.187231 0.186825 0.186413 0.186002 0.185590 0.185172 0.184855 0.184720 0.184681 0.184643 0.184508 0.184201 0.183795 0.183392 0.182989 0.182586 0.182199 0.181906 0.181780 0.181743 0.181707 0.181582 0.181291 0.180908 0.180555 0.180203 0.179851 0.179519 0.179268 0.179161 0.179130 0.179100 0.178994 0.178777 0.178490 0.178221 0.177952 0.177683 0.177450 0.177274 0.177204 0.177184 0.177164 0.177094 0.176937 0.176729 0.176548 0.176367 0.176186 0.176031 0.175914 0.175862 0.175848 0.175833 0.175781 0.175671 0.175526 0.175404 0.175283 0.175162 0.175045 0.174956 0.174927 0.174919 0.174911 0.174881 0.174813 0.174724 0.174638 0.174552 0.174467 0.174400 0.174349 0.174326 0.174320 0.174313 0.174291 0.174237 0.174167 0.174116 0.174065 0.174014 0.173965 0.173928 0.173912 0.173907 0.173903 0.173888 0.173866 0.173838 0.173809 0.173779 0.173750 0.173730 0.173714 0.173710 0.173708 
0.197977 0.197934 0.197757 0.197324 0.196750 0.196156 0.195562 0.194968 0.194359 0.193898 0.193706 0.193658 0.193611 0.193417 0.192946 0.192322 0.191681 0.191040 0.190398 0.189745 0.189251 0.189045 0.188994 0.188944 0.188738 0.188248 0.187599 0.186963 0.186327 0.185691 0.185087 0.184631 0.184445 0.184399 0.184353 0.184165 0.183759 0.183221 0.182731 0.182241 0.181751 0.181310 0.180977 0.180849 0.180817 0.180786 0.180661 0.180371 0.179988 0.179644 0.179300 0.178956 0.178638 0.178398 0.178300 0.178276 0.178252 0.178155 0.177921 0.177612 0.177280 0.176949 0.176618 0.176280 0.176025 0.175917 0.175891 0.175864 0.175756 0.175493 0.175143 0.174789 0.174435 0.174081 0.173729 0.173463 0.173354 0.173327 0.173300 0.173192 0.172938 0.172602 0.172269 0.171936 0.171603 0.171296 0.171063 0.170968 0.170945 0.170921 0.170827 0.170605 0.170312 0.170102 0.169892 0.169682 0.169498 0.169358 0.169314 0.169303 0.169292 0.169249 0.169144 0.169005 0.168886 0.168768 0.168650 0.168551 0.168477 0.168445 0.168438 0.168430 0.168399 0.168342 0.168267 0.168193 0.168119 0.168044 0.167992 0.167953 0.167935 0.167931 0.167927 0.167909 0.167865 0.167807 0.167765 0.167723 0.167681 0.167639 0.167607 0.167597 0.167594 0.167592 0.167582 0.167557 0.167524 0.167498 0.167471 0.167444 0.167422 0.167405 0.167398 0.167396 
0.174000 0.173983 0.173880 0.173600 0.173228 0.172815 0.172403 0.171990 0.171549 0.171217 0.171088 0.171066 0.171045 0.170915 0.170570 0.170111 0.169658 0.169205 0.168752 0.168336 0.168024 0.167908 0.167889 0.167869 0.167755 0.167471 0.167093 0.166765 0.166437 0.166110 0.165806 0.165578 0.165489 0.165474 0.165459 0.165373 0.165142 0.164836 0.164514 0.164192 0.163870 0.163540 0.163292 0.163196 0.163179 0.163163 0.163066 0.162818 0.162487 0.162165 0.161844 0.161522 0.161223 0.160998 0.160915 0.160901 0.160887 0.160804 0.160662 0.160474 0.160350 0.160226 0.160102 0.160012 0.159944 0.159927 0.159924 0.159921 0.159904 0.159855 0.159791 0.159749 0.159707 0.159665 0.159628 0.159600 0.159588 0.159586 0.159585 0.159576 0.159556 0.159529 0.159507 0.159484 0.159462 0.159450 0.159441 0.159437 0.159437 
