-122.884279 122.818337 -22.856701 0.170976
-125.512738 132.993015 -37.503863 0.170921
-118.563149 146.539887 -59.543945 0.170811
-167.178573 170.772686 -165.343569 0.170857
-255.367436 233.017329 -315.058002 0.170763
-283.607952 259.582471 -392.902215 0.170677
-339.390529 246.674136 -545.937488 0.170957
-228.551093 205.983744 -268.284911 0.170855
-265.545107 220.871078 -323.120444 0.170884
-315.386331 235.564048 -393.106457 0.170954
-363.264669 359.168883 -629.301344 0.169936
-245.176239 205.341969 -296.741847 0.170922
-306.173177 161.852438 -396.598055 0.171460
-365.098121 240.437351 -543.667690 0.171089
-116.399829 158.669766 -101.795309 0.170737
-128.430648 203.877748 -253.631395 0.170514
-134.723819 309.195762 -542.322563 0.169840
-261.675404 425.019115 -777.811201 0.168586
-174.063192 232.216835 -243.801101 0.170477
-217.603342 283.681611 -338.321522 0.170286
-289.107233 430.335634 -610.304876 0.168603
-221.426546 316.365630 -422.658845 0.170080
-317.136528 418.018457 -579.540556 0.168893
-140.760232 163.091033 -82.371282 0.170785
-400.849178 404.655849 -528.346094 0.169276
-115.361270 259.499791 -221.478872 0.170083
-108.151712 128.080184 -45.742105 0.170896
-85.340257 140.736138 -92.195642 0.170744
-61.885784 176.661627 -196.234707 0.170443
-132.888208 302.341960 -572.890723 0.169871
-121.179433 369.702186 -563.451043 0.168886
9.322886 198.346803 -347.270472 0.170049
107.215256 217.711252 -610.954464 0.169491
170.261393 198.195955 -710.588095 0.169298
-88.853160 136.273724 -77.047553 0.170782
-105.717312 230.854117 -241.944518 0.170247
-138.873435 443.691792 -571.147617 0.167754
-155.576730 571.873993 -765.687619 0.165953
-152.144410 543.215395 -727.877600 0.166335
-166.381972 341.270595 -423.366031 0.169606
-221.029218 531.972640 -724.459854 0.166831
-262.257340 440.115890 -634.114185 0.168355
-3.875504 159.764753 -311.130132 0.170355
107.885296 182.153175 -562.357593 0.169727
139.904930 188.304289 -649.756132 0.169521
154.725285 209.673076 -703.327006 0.169300
179.163210 223.635733 -742.683656 0.169088
299.649776 263.883525 -945.958342 0.167404
209.492736 255.347726 -821.125190 0.168400
181.626240 234.282555 -882.815148 0.168927
229.163138 264.633421 -967.307907 0.167992
190.441946 148.296788 -716.104407 0.169514
128.330924 253.088450 -610.461166 0.169183
-123.569677 118.964880 -53.648970 0.171022
-203.733758 186.532989 -466.145845 0.170918
-185.413790 137.361719 -160.409092 0.171159
-346.094874 237.136663 -511.507106 0.171050
-251.998669 158.804732 -246.231672 0.171270
-303.897916 166.060896 -306.960585 0.171412
-374.743756 191.093266 -404.494646 0.171485
-486.300140 83.544131 -625.397581 0.172659
-293.353892 186.558113 -312.407763 0.171226
-305.863056 204.360647 -356.565738 0.171145
-414.156017 310.591127 -659.544111 0.170695
-304.233790 208.748948 -377.543734 0.171110
-310.320402 215.567694 -414.222470 0.171083
-85.917291 -62.778309 -131.932872 0.172273
-51.542599 -190.876800 -297.413590 0.173192
9.795881 -344.625010 -485.144024 0.174226
6.965783 -429.127918 -710.877308 0.174881
-92.632373 -107.790539 -208.915069 0.172675
-99.834854 -145.078568 -277.879890 0.173012
-126.571601 -216.940610 -493.210880 0.173683
-198.326633 -308.357644 -815.105660 0.174535
-299.096568 -426.740227 -1220.777120 0.175373
-252.336229 -360.248617 -1055.036547 0.174903
-173.401142 -284.805428 -710.238119 0.174325
-307.750122 -258.257719 -651.903259 0.174643
-346.290552 -296.585171 -739.150014 0.175044
-73.559876 -64.361090 -213.531856 0.172258
-149.608124 -115.335682 -730.174174 0.172848
-68.338748 -111.394075 -369.995020 0.172614
-77.438645 -122.564019 -616.265078 0.172672
-78.252397 -131.156394 -427.731921 0.172804
-123.439293 -159.847546 -541.274440 0.173189
-85.443953 -158.865168 -540.213696 0.173027
-125.576645 -219.834085 -742.777273 0.173575
-84.675763 -198.284018 -659.131527 0.173289
-61.270255 -217.486673 -703.153101 0.173321
-38.504024 -274.878566 -855.373887 0.173577
-27.394484 -303.891197 -1178.323239 0.173369
-55.561473 -225.255428 -712.888810 0.173355
21.042974 -335.171207 -876.076472 0.173807
-22.852608 -278.050997 -801.467324 0.173585
-97.197609 -34.179966 -165.033537 0.172106
-113.675923 -35.466679 -201.795060 0.172190
-132.752305 -30.398752 -359.684830 0.172242
-151.819025 -30.280214 -543.393870 0.172289
-138.849087 -46.426990 -673.146696 0.172308
-132.117634 -61.508307 -762.899358 0.172343
-80.050620 44.579822 -1184.634837 0.170964
-118.543113 -90.189845 -973.661207 0.172328
-133.704368 -65.986044 -768.852004 0.172379
-218.127027 -105.712080 -996.467350 0.172817
-138.678924 -68.580434 -798.041185 0.172398
-229.523599 -41.962910 -975.577619 0.172406
-177.751419 -168.042782 -824.453192 0.173304
-220.752466 -68.861058 -417.017570 0.172875
-327.751886 -84.320473 -681.057678 0.173320
-314.984486 -102.908649 -612.451149 0.173448
-419.592547 -209.658659 -955.032205 0.174423
-492.472339 -252.456409 -1271.245674 0.174590
-488.540818 -248.342713 -1278.899938 0.174532
-326.516488 -113.016510 -659.637895 0.173549
-96.394824 -5.808033 -288.413714 0.171911
-71.367786 44.791273 -623.534014 0.171385
-108.824905 36.955904 -589.920801 0.171604
-117.615600 100.660848 -874.094325 0.171034
-242.350679 123.125173 -1208.943638 0.171029
-155.412897 -13.104450 -83.481599 0.172138
-185.075108 4.617832 -177.406510 0.172148
-216.577890 59.827876 -384.844730 0.171882
-211.006774 106.963562 -589.935443 0.171490
-175.865780 174.396990 -870.725997 0.170754
-193.228571 127.362790 -694.802599 0.171240
-183.689396 138.545592 -736.906132 0.171106
-278.706558 166.128061 -1133.221874 0.170958
-246.163794 105.141223 -567.467265 0.171639
-279.965685 253.338811 -979.908606 0.170517
-295.059801 148.751107 -722.210400 0.171451
-237.193766 44.243348 -291.146272 0.172067
-274.495075 69.335314 -338.929875 0.172024
-299.655795 72.924995 -368.531742 0.172091
-429.205637 77.395262 -565.557785 0.172512
-490.065528 104.020533 -663.985443 0.172508
-284.575215 76.773494 -362.326859 0.172008
-332.806435 195.992650 -626.044616 0.171282
-277.551028 -36.761825 -336.470042 0.172838
-510.136377 -54.950569 -886.719068 0.173638
-406.670137 -56.028961 -630.126384 0.173420
-174.781095 -45.705180 -117.764996 0.172476
-222.238306 -105.246526 -209.532701 0.173152
-324.869528 -308.844510 -596.067129 0.175151
-284.281392 -206.266136 -358.218412 0.174216
-440.832233 -378.659674 -838.341675 0.175961
-344.111535 -316.953935 -519.717237 0.175320
-309.665433 -116.160832 -320.984654 0.173581
-394.477785 -154.892532 -447.614054 0.174192
-402.326710 -159.794381 -464.489181 0.174257
-412.801254 -166.255340 -481.359565 0.174343
-418.378695 -172.019480 -490.561022 0.174407
-552.495890 -205.614615 -712.406002 0.175072
-429.741481 -189.286501 -511.879901 0.174581
-437.729885 -208.881178 -538.969541 0.174758
-611.830927 -184.383521 -866.703416 0.175016
-445.805970 -218.218735 -579.678149 0.174849
-425.240509 -191.456005 -502.759090 0.174584
106.209124 4.535385 -48.766890 0.170921
149.201068 0.977175 -110.932666 0.170776
247.293941 78.602031 -652.055770 0.169719
210.736916 -16.429627 -184.435098 0.170627
244.181071 -35.441858 -253.261915 0.170609
262.427838 -53.519744 -306.581277 0.170650
289.660062 -80.575399 -404.532946 0.170700
521.965661 -10.603140 -663.356640 0.168810
226.290668 63.349969 -289.947156 0.170000
382.347126 103.347264 -640.531960 0.168861
301.352559 125.668459 -468.940646 0.169196
312.564345 149.875068 -592.273795 0.168956
311.063579 139.198542 -498.668834 0.169051
331.586415 156.731165 -582.175292 0.168818
374.496530 183.004259 -685.766530 0.168220
362.903766 175.864437 -741.102658 0.168441
350.192762 166.728090 -582.087254 0.168659
404.716217 190.907847 -679.396015 0.167778
509.739171 244.505550 -996.712621 0.165588
422.917052 194.160933 -710.901300 0.167523
459.126660 211.794832 -780.000044 0.166803
471.470552 223.669551 -811.125169 0.166453
433.696557 218.286962 -781.125827 0.166960
106.480443 -33.687830 -54.743445 0.171208
139.240561 -296.907700 -516.639264 0.173185
141.301449 -116.804710 -196.203313 0.171724
211.504258 -193.406042 -393.383593 0.171985
167.448393 -183.465503 -304.179624 0.172138
182.103553 -201.803533 -333.129235 0.172213
208.008283 -219.877830 -379.687377 0.172224
229.499741 -243.517742 -405.522725 0.172302
155.384524 -352.350211 -802.031217 0.173385
37.997856 3.725048 227.392418 0.171047
68.411359 14.119134 485.231661 0.170577
67.266202 24.926432 612.789490 0.170335
52.133620 -19.528077 756.477604 0.170508
59.070495 15.833073 743.542339 0.170239
51.859596 -53.919002 1303.618424 0.169660
30.288849 -13.620499 1109.774119 0.169882
158.490866 116.926645 1033.427370 0.168623
181.387685 133.790560 1430.393569 0.167552
152.607418 122.617636 1471.042259 0.167636
139.724422 123.855674 1517.214467 0.167559
138.985930 123.585903 1527.325212 0.167537
87.607101 -13.520361 472.412470 0.170717
154.443874 -28.933629 738.186645 0.170180
122.582218 -13.758873 661.989114 0.170320
22.980368 18.054100 83.228299 0.171109
99.293857 -9.337876 195.590941 0.170909
145.042587 -22.705019 257.917913 0.170755
251.409019 -5.003485 386.955698 0.170007
154.880626 -21.822632 283.530170 0.170682
190.187413 -79.617319 346.645126 0.170899
85.089816 25.269941 264.985283 0.170657
119.019219 28.310898 444.923863 0.170309
297.954189 91.715443 925.819755 0.168368
124.584683 64.787065 684.136082 0.169713
154.470124 120.282594 974.668180 0.168728
100.410248 145.332737 1191.417464 0.168341
160.837446 61.107268 516.180234 0.169811
242.471867 101.370590 712.976980 0.168906
212.283741 86.719408 647.679164 0.169234
246.670823 86.335915 752.601882 0.168928
114.753800 -2.665816 1119.548074 0.169451
-73.761203 -112.511798 56.306072 0.172529
-285.526331 -271.017750 419.083543 0.174268
-110.808997 -337.253995 694.608952 0.173863
-171.670238 -489.982320 1270.121342 0.174182
-228.637083 -516.721680 1454.898608 0.173996
55.473176 -162.572736 230.684936 0.172276
130.965281 17.511379 -76.082663 0.170727
143.503003 15.783643 -149.065478 0.170704
175.041536 22.272291 -309.249210 0.170532
210.674859 43.252631 -445.763725 0.170203
222.538286 54.869833 -473.709155 0.170059
234.714627 75.583457 -655.258499 0.169800
261.837025 83.986129 -827.933777 0.169511
263.641828 120.008681 -1163.813925 0.168971
298.658748 111.580160 -993.126111 0.169020
290.027508 94.716910 -901.907261 0.169246
216.174636 80.905422 -506.394549 0.169906
235.420020 108.200432 -940.417233 0.169401
204.248233 33.215728 -545.552958 0.170279
152.285836 9.327376 -215.983964 0.170724
169.833264 7.689225 -159.740375 0.170644
321.263958 -60.554479 -415.495095 0.170384
238.920990 15.492039 -275.936407 0.170270
387.518973 94.573179 -498.756762 0.168934
278.231262 29.844176 -340.036755 0.169972
396.196621 71.624043 -634.930170 0.168992
289.675839 37.407662 -388.709063 0.169856
350.484138 53.282270 -711.299148 0.169325
288.623140 65.975603 -505.142748 0.169645
285.022477 87.408812 -597.935220 0.169493
290.065649 90.370080 -610.215225 0.169443
392.333099 156.590604 -851.412020 0.168363
414.874183 122.204450 -949.342784 0.168379
125.444491 -36.683888 169.968508 0.171018
155.522189 -77.061140 355.855661 0.171031
177.996536 -169.526410 608.472880 0.171366
240.160630 -165.197420 749.981277 0.170824
149.055850 -44.892142 281.076875 0.170884
181.197965 -29.810736 394.027931 0.170515
191.651588 -14.349987 511.181170 0.170221
295.332337 -13.236379 660.570879 0.169522
153.999826 -30.491375 894.346011 0.169932
2.495501 76.206409 -102.425195 0.170862
44.899705 106.593600 -185.794235 0.170499
64.715690 134.309019 -256.459489 0.170241
85.506348 164.619488 -319.368018 0.169960
240.027830 317.335079 -718.540557 0.167147
241.738066 315.802618 -711.988557 0.167159
85.362786 178.071972 -432.345103 0.169875
134.787907 234.210444 -667.101062 0.169253
221.970763 326.980982 -1030.117310 0.166991
125.475512 262.590110 -855.609328 0.168945
130.266177 210.889457 -663.226098 0.169417
145.999713 158.320157 -454.402941 0.169737
179.992430 48.188779 -413.611748 0.170320
-35.707750 99.956530 -333.967789 0.170896
-138.368631 174.833066 -1178.160474 0.170334
-55.579189 179.788387 -800.278711 0.170305
-138.872380 -14.410823 64.607582 0.172005
-146.724033 -21.824646 88.864562 0.172074
-138.464889 -29.283332 151.071829 0.172054
-100.647067 -132.733772 864.147944 0.171777
-132.930882 -23.563168 284.071834 0.171870
-150.882116 -20.168703 437.034372 0.171735
-196.198850 -25.430566 595.946203 0.171720
-249.765903 -34.311144 716.024152 0.171774
-264.019896 -118.118857 853.657908 0.172222
-297.657358 -88.258919 724.660972 0.172330
-153.772205 -15.475935 375.094469 0.171784
-220.809625 61.406861 752.799207 0.170890
-164.025873 -20.320932 423.926637 0.171800
-138.509798 -117.343900 1007.334063 0.171497
-33.085322 33.756654 963.816912 0.170067
-174.656878 -50.942186 141.829163 0.172363
-211.616242 -94.437045 215.384705 0.172779
-226.637902 -118.153684 263.672859 0.172976
-240.322277 -298.699942 766.741016 0.173808
-368.237976 -278.578231 765.318396 0.174014
-271.987466 -175.099203 368.668467 0.173481
-376.449657 -200.361586 506.236556 0.173832
-201.960028 -37.563346 152.939248 0.172349
-324.319360 -165.709970 531.194071 0.173350
-312.254150 -40.608389 295.850745 0.172621
