0.177907 0.177883 0.177574 0.176271 0.174206 0.172432 0.170657 0.168883 0.167304 0.166307 0.166097 0.166081 0.166065 0.165855 0.164938 0.163484 0.162171 0.160857 0.159544 0.158348 0.157593 0.157433 0.157421 0.157409 0.157249 0.156543 0.155425 0.154372 0.153318 0.152264 0.151263 0.150631 0.150495 0.150485 0.150475 0.150339 0.149738 0.148786 0.147887 0.146987 0.146087 0.145241 0.144706 0.144591 0.144582 0.144573 0.144459 0.143954 0.143154 0.142413 0.141672 0.140931 0.140246 0.139814 0.139722 0.139715 0.139708 0.139616 0.139211 0.138569 0.137972 0.137375 0.136778 0.136219 0.135866 0.135791 0.135785 0.135779 0.135703 0.135367 0.134834 0.134330 0.133825 0.133321 0.132842 0.132540 0.132475 0.132470 0.132465 0.132399 0.132108 0.131647 0.131205 0.130763 0.130322 0.129899 0.129632 0.129574 0.129570 0.129565 0.129508 0.129252 0.128845 0.128458 0.128071 0.127684 0.127316 0.127084 0.127034 0.127030 
0.177919 0.177944 0.178184 0.178822 0.179674 0.180419 0.181165 0.181910 0.182547 0.183024 0.183184 0.183201 0.183217 0.183376 0.183797 0.184361 0.184891 0.185421 0.185951 0.186450 0.186823 0.186955 0.186969 0.186983 0.187114 0.187479 0.187968 0.188457 0.188947 0.189436 0.189922 0.190285 0.190414 0.190428 0.190442 0.190571 0.190943 0.191440 0.191941 0.192443 0.192944 0.193452 0.193832 0.193968 0.193983 0.193997 0.194132 0.194507 0.195010 0.195524 0.196039 0.196554 0.197079 0.197471 0.197615 0.197630 0.197645 0.197788 0.198197 0.198744 0.199302 0.199860 0.200417 0.200989 0.201417 0.201573 0.201590 0.201606 0.201760 0.202179 0.202740 0.203292 0.203845 0.204397 0.204916 0.205305 0.205440 0.205454 0.205468 0.205602 0.205955 0.206427 0.206835 0.207243 0.207651 0.207970 0.208209 0.208281 0.208288 0.208295 0.208360 0.208512 0.208716 0.208838 0.208960 0.209083 0.209099 0.209111 0.209108 0.209107 0.209106 0.209099 0.209042 0.208967 0.208806 0.208645 0.208484 0.208249 0.208073 0.208000 0.207992 0.207984 0.207905 0.207677 0.207373 0.206992 0.206611 0.206230 0.205793 0.205465 0.205341 0.205328 0.205315 0.205188 0.204823 0.204336 0.203806 0.203277 0.202748 0.202183 0.201760 0.201606 0.201589 
0.177912 0.177912 0.177903 0.177590 0.177095 0.176292 0.175489 0.174687 0.173736 0.173136 0.172994 0.172984 0.172975 0.172839 0.172345 0.171563 0.170853 0.170142 0.169432 0.168852 0.168486 0.168425 0.168421 0.168416 0.168352 0.168058 0.167591 0.166892 0.166193 0.165494 0.164644 0.164107 0.163985 0.163976 0.163968 0.163847 0.163279 0.162381 0.161063 0.159746 0.158428 0.156038 0.154529 0.154198 0.154174 0.154147 0.153753 0.151616 0.148230 0.144794 0.141358 0.137921 0.134805 0.132838 0.132497 0.132473 0.132445 0.132047 0.130462 0.127951 0.126322 0.124692 0.123063 0.122027 0.121374 0.121253 0.121244 0.121236 0.121117 0.120651 0.119913 0.119402 0.118892 0.118381 0.118015 0.117784 0.117738 0.117735 0.117732 0.117687 0.117507 0.117222 0.117002 0.116781 0.116561 0.116387 0.116277 0.116255 0.116254 0.116252 0.116230 0.116137 0.115989 0.115865 0.115741 0.115616 0.115510 0.115442 0.115428 0.115427 0.115426 0.115413 0.115353 0.115258 0.115175 0.115093 0.115010 0.114938 0.114893 0.114883 0.114883 0.114882 0.114873 0.114833 0.114769 0.114714 0.114658 0.114603 0.114555 0.114525 0.114519 0.114518 0.114518 0.114512 0.114485 0.114443 0.114406 0.114370 0.114333 0.114302 0.114282 0.114278 0.114278 
0.135784 0.135779 0.135759 0.135708 0.135639 0.135567 0.135494 0.135421 0.135345 0.135287 0.135263 0.135258 0.135253 0.135228 0.135166 0.135084 0.134997 0.134910 0.134824 0.134734 0.134666 0.134638 0.134632 0.134626 0.134598 0.134527 0.134433 0.134366 0.134300 0.134233 0.134173 0.134128 0.134111 0.134107 0.134103 0.134086 0.134045 0.133989 0.133937 0.133884 0.133832 0.133782 0.133744 0.133730 0.133727 0.133724 0.133710 0.133675 0.133628 0.133584 0.133540 0.133496 0.133453 0.133421 0.133409 0.133407 0.133404 0.133392 0.133362 0.133322 0.133285 0.133247 0.133210 0.133174 0.133147 0.133137 0.133135 0.133133 0.133122 0.133097 0.133063 0.133032 0.133000 0.132968 0.132938 0.132914 0.132906 0.132904 0.132902 0.132893 0.132871 0.132842 0.132814 0.132786 0.132758 0.132730 0.132709 0.132701 0.132700 
0.150482 0.150472 0.150434 0.150348 0.150234 0.150119 0.150003 0.149887 0.149768 0.149677 0.149637 0.149626 0.149615 0.149575 0.149485 0.149365 0.149245 0.149124 0.149003 0.148883 0.148792 0.148752 0.148741 0.148729 0.148689 0.148597 0.148475 0.148353 0.148231 0.148109 0.147986 0.147893 0.147852 0.147841 0.147829 0.147788 0.147695 0.147571 0.147447 0.147323 0.147200 0.147077 0.146984 0.146943 0.146932 0.146920 0.146880 0.146787 0.146665 0.146542 0.146419 0.146296 0.146173 0.146080 0.146039 0.146027 0.146016 0.145975 0.145882 0.145758 0.145635 0.145511 0.145387 0.145263 0.145169 0.145129 0.145117 0.145105 0.145064 0.144971 0.144847 0.144724 0.144600 0.144477 0.144354 0.144260 0.144220 0.144208 0.144197 0.144160 0.144090 0.143997 0.143909 0.143821 0.143733 0.143650 0.143588 0.143561 0.143553 0.143545 0.143519 0.143458 0.143379 0.143305 0.143232 0.143158 0.143086 0.143032 0.143010 0.143003 0.142997 0.142975 0.142926 0.142860 0.142796 0.142733 0.142669 0.142610 0.142565 0.142546 0.142540 0.142535 0.142515 0.142471 0.142413 0.142359 0.142306 0.142253 0.142200 0.142160 0.142143 0.142138 0.142133 0.142117 0.142081 0.142033 0.141985 0.141937 0.141889 0.141846 0.141813 0.141799 0.141795 0.141791 0.141776 0.141743 0.141700 0.141660 0.141620 0.141579 0.141540 0.141510 0.141497 0.141493 0.141489 0.141476 0.141448 0.141412 0.141376 0.141340 0.141303 0.141269 0.141244 0.141233 0.141229 0.141226 0.141215 0.141190 0.141156 0.141124 0.141092 0.141060 0.141028 0.141004 0.140994 0.140991 0.140988 0.140977 0.140954 0.140924 0.140893 0.140863 0.140833 0.140804 0.140781 0.140772 0.140769 0.140766 0.140757 0.140735 0.140706 0.140677 0.140648 0.140619 0.140590 0.140568 0.140559 0.140556 
0.157419 0.157414 0.157403 0.157382 0.157354 0.157326 0.157297 0.157268 0.157238 0.157215 0.157202 0.157196 0.157190 0.157177 0.157153 0.157122 0.157088 0.157054 0.157020 0.156985 0.156957 0.156942 0.156935 0.156928 0.156912 0.156884 0.156847 0.156808 0.156769 0.156731 0.156689 0.156658 0.156639 0.156631 0.156622 0.156604 0.156570 0.156527 0.156484 0.156441 0.156399 0.156355 0.156322 0.156304 0.156295 0.156286 0.156268 0.156233 0.156187 0.156140 0.156094 0.156047 0.156000 0.155964 0.155944 0.155935 0.155925 0.155905 0.155869 0.155821 0.155773 0.155724 0.155676 0.155625 0.155586 0.155565 0.155555 0.155545 0.155523 0.155484 0.155433 0.155382 0.155332 0.155281 0.155231 0.155193 0.155171 0.155161 0.155150 0.155128 0.155088 0.155035 0.154983 0.154931 0.154879 0.154827 0.154787 0.154765 0.154755 0.154745 0.154724 0.154686 0.154636 0.154584 0.154531 0.154479 0.154427 0.154386 0.154364 0.154353 0.154343 0.154321 0.154281 0.154229 0.154177 0.154126 0.154074 0.154021 0.153980 0.153958 0.153947 0.153936 0.153914 0.153873 0.153819 0.153766 0.153713 0.153660 0.153606 0.153564 0.153541 0.153531 0.153520 0.153497 0.153453 0.153397 0.153339 0.153282 0.153224 0.153167 0.153122 0.153098 0.153087 0.153075 0.153051 0.153006 0.152949 0.152890 0.152830 0.152771 0.152709 0.152661 0.152635 0.152623 0.152610 0.152584 0.152536 0.152474 0.152412 0.152349 0.152287 0.152224 0.152175 0.152148 0.152135 0.152121 0.152094 0.152043 0.151977 0.151912 0.151847 0.151782 0.151726 0.151682 0.151659 0.151648 0.151637 0.151614 0.151572 0.151518 0.151465 0.151411 0.151358 0.151306 0.151265 0.151243 0.151233 0.151223 0.151201 0.151163 0.151113 0.151064 0.151015 0.150966 0.150919 0.150882 0.150863 0.150853 0.150844 0.150824 0.150789 0.150742 0.150697 0.150651 0.150606 0.150561 0.150527 0.150508 0.150499 0.150490 0.150471 0.150439 0.150396 0.150355 0.150313 0.150272 0.150231 0.150200 0.150183 0.150174 0.150166 0.150149 0.150118 0.150079 0.150040 0.150002 0.149964 0.149926 0.149897 0.149882 0.149874 0.149867 0.149851 0.149822 0.149785 0.149748 0.149711 0.149675 0.149638 0.149610 0.149596 0.149589 0.149582 0.149568 0.149542 0.149507 0.149474 0.149440 0.149406 0.149372 0.149346 0.149331 0.149325 0.149318 0.149304 0.149278 0.149245 0.149213 0.149182 0.149150 0.149119 0.149095 0.149081 0.149075 0.149069 0.149056 0.149031 0.149000 0.148969 0.148938 0.148906 0.148877 0.148855 0.148842 0.148836 0.148830 0.148817 0.148795 0.148765 0.148735 0.148706 0.148676 0.148646 0.148623 0.148611 0.148605 0.148599 0.148586 0.148565 0.148537 0.148508 0.148480 0.148452 0.148424 0.148402 0.148390 0.148384 0.148378 0.148366 0.148345 0.148316 0.148289 0.148262 0.148235 0.148208 0.148187 0.148176 0.148171 0.148165 0.148154 0.148133 0.148106 0.148079 0.148052 0.148025 0.147998 0.147978 0.147967 0.147962 0.147957 0.147946 0.147926 0.147900 0.147874 0.147848 0.147822 0.147795 0.147775 0.147764 0.147759 0.147753 0.147742 0.147722 0.147696 0.147671 0.147645 0.147620 0.147595 0.147575 0.147564 0.147559 0.147554 0.147543 0.147523 0.147497 0.147472 0.147446 0.147420 0.147395 0.147376 0.147366 0.147361 0.147356 0.147345 0.147326 0.147301 0.147275 0.147250 0.147225 0.147199 0.147179 0.147168 0.147163 0.147158 0.147147 0.147128 0.147103 0.147078 0.147053 0.147028 0.147002 0.146983 0.146972 0.146967 0.146962 0.146951 0.146931 0.146905 0.146880 0.146855 0.146829 0.146804 0.146784 0.146774 0.146768 
0.166080 0.166079 0.166069 0.166014 0.165941 0.165777 0.165613 0.165449 0.165205 0.165022 0.164943 0.164932 0.164920 0.164840 0.164618 0.164321 0.163989 0.163656 0.163324 0.162990 0.162740 0.162644 0.162630 0.162616 0.162520 0.162275 0.161948 0.161659 0.161369 0.161079 0.160808 0.160604 0.160527 0.160516 0.160504 0.160427 0.160204 0.159905 0.159573 0.159240 0.158907 0.158517 0.158225 0.158113 0.158097 0.158081 0.157968 0.157652 0.157230 0.156849 0.156469 0.156088 0.155789 0.155565 0.155483 0.155472 0.155460 0.155383 0.155196 0.154945 0.154738 0.154530 0.154322 0.154144 0.154010 0.153964 0.153957 0.153951 0.153906 0.153788 0.153630 0.153490 0.153350 0.153210 0.153079 0.152980 0.152945 0.152940 0.152935 0.152900 0.152807 0.152682 0.152565 0.152447 0.152329 0.152212 0.152125 0.152092 0.152088 
0.183198 0.183184 0.183104 0.182869 0.182557 0.182170 0.181784 0.181397 0.180932 0.180582 0.180439 0.180415 0.180390 0.180245 0.179842 0.179305 0.178698 0.178090 0.177483 0.176831 0.176341 0.176149 0.176117 0.176084 0.175893 0.175400 0.174743 0.174142 0.173541 0.172940 0.172430 0.172047 0.171940 0.171922 0.171903 0.171794 0.171507 0.171125 0.170725 0.170326 0.169926 0.169500 0.169180 0.169056 0.169035 0.169014 0.168890 0.168551 0.168100 0.167619 0.167138 0.166656 0.166161 0.165789 0.165645 0.165621 0.165597 0.165454 0.165083 0.164589 0.164132 0.163674 0.163216 0.162805 0.162496 0.162393 0.162375 0.162358 0.162256 0.162003 0.161666 0.161392 0.161119 0.160845 0.160622 0.160454 0.160391 0.160380 0.160370 0.160306 0.160166 0.159978 0.159809 0.159640 0.159472 0.159326 0.159216 0.159176 0.159169 0.159162 0.159122 0.159023 0.158890 0.158771 0.158651 0.158532 0.158421 0.158338 0.158309 0.158304 
0.197615 0.197552 0.197321 0.196782 0.196070 0.195370 0.194670 0.193970 0.193281 0.192760 0.192541 0.192481 0.192422 0.192203 0.191697 0.191028 0.190384 0.189740 0.189095 0.188469 0.187995 0.187795 0.187742 0.187688 0.187490 0.187031 0.186424 0.185843 0.185262 0.184681 0.184111 0.183681 0.183501 0.183453 0.183406 0.183230 0.182823 0.182285 0.181762 0.181239 0.180716 0.180211 0.179829 0.179670 0.179627 0.179584 0.179426 0.179059 0.178573 0.178103 0.177633 0.177162 0.176711 0.176369 0.176225 0.176186 0.176148 0.176004 0.175678 0.175246 0.174826 0.174406 0.173987 0.173591 0.173292 0.173167 0.173133 0.173099 0.172975 0.172685 0.172303 0.171946 0.171588 0.171231 0.170886 0.170624 0.170514 0.170485 0.170457 0.170355 0.170132 0.169837 0.169624 0.169412 0.169199 0.169021 0.168886 0.168829 0.168813 0.168798 0.168741 0.168610 0.168438 0.168295 0.168153 0.168011 0.167872 0.167767 0.167729 0.167719 0.167709 0.167672 0.167583 0.167465 0.167354 0.167242 0.167130 0.167031 0.166957 0.166923 0.166915 0.166906 0.166873 0.166803 0.166711 0.166629 0.166547 0.166464 0.166389 0.166332 0.166310 0.166304 0.166298 0.166276 0.166225 0.166157 0.166098 0.166040 0.165981 0.165928 0.165888 0.165871 0.165866 0.165861 0.165844 0.165813 0.165773 0.165734 0.165695 0.165657 0.165630 0.165610 0.165603 0.165601 
0.205310 0.205237 0.204812 0.203735 0.202301 0.200975 0.199648 0.198322 0.197105 0.196190 0.195850 0.195792 0.195734 0.195396 0.194553 0.193432 0.192396 0.191361 0.190326 0.189380 0.188669 0.188407 0.188362 0.188318 0.188058 0.187411 0.186550 0.185762 0.184974 0.184185 0.183474 0.182940 0.182746 0.182712 0.182680 0.182487 0.182005 0.181364 0.180790 0.180215 0.179641 0.179122 0.178732 0.178594 0.178571 0.178547 0.178410 0.178109 0.177708 0.177413 0.177119 0.176825 0.176539 0.176323 0.176238 0.176223 0.176209 0.176125 0.175913 0.175630 0.175343 0.175055 0.174767 0.174478 0.174261 0.174178 0.174164 0.174150 0.174067 0.173861 0.173588 0.173306 0.173024 0.172743 0.172465 0.172257 0.172178 0.172165 
