0.006902
14
0.006173
17
0.003087
40
0.006902
25
0.001971
12
A13
0.003006
10
A8
0.001644
19
A4
0.002250
17
A3
0.001241
30
A1
0.002679
14
D1
0.003129
12
D3
0.002654
11
D7
0.001613
18
D9
0.001442
20
D12
0.000999
29
D15
0.002685
10
D25
0.001847
14
D30
0.003152
10
D39
