0.122315 0.122318 0.122350 0.122500 0.122738 0.122993 0.123247 0.123502 0.123773 0.123945 0.123984 0.123987 0.123991 0.124030 0.124211 0.124498 0.124805 0.125112 0.125419 0.125747 0.125954 0.126001 0.126005 0.126010 0.126057 0.126277 0.126626 0.127001 0.127376 0.127752 0.128154 0.128408 0.128466 0.128471 0.128476 0.128534 0.128800 0.129221 0.129657 0.130094 0.130530 0.130976 0.131257 0.131320 0.131326 0.131331 0.131394 0.131681 0.132134 0.132603 0.133071 0.133539 0.134029 0.134338 0.134408 0.134414 0.134420 0.134491 0.134814 0.135326 0.135869 0.136412 0.136954 0.137526 0.137886 0.137968 0.137975 0.137983 0.138065 0.138441 0.139037 0.139667 0.140297 0.140927 0.141597 0.142020 0.142116 0.142125 0.142133 0.142230 0.142676 0.143381 0.144124 0.144866 0.145609 0.146372 0.146853 0.146962 0.146971 0.146981 0.147089 0.147579 0.148355 0.149143 0.149931 0.150719 0.151528 0.152038 0.152153 0.152163 0.152174 0.152289 0.152816 0.153650 0.154531 0.155411 0.156291 0.157224 0.157813 0.157948 0.157959 0.157971 0.158106 0.158725 0.159705 0.160747 0.161788 0.162829 0.163935 0.164633 0.164793 0.164807 0.164821 0.164981 0.165714 0.166875 0.168075 0.169276 0.170477 0.171701 0.172473 0.172643 0.172658 0.172673 0.172844 0.173617 0.174841 0.176085 0.177330 0.178574 0.179865 0.180680 0.180866 0.180882 0.180899 0.181084 0.181942 0.183300 0.184769 0.186239 0.187708 0.189287 0.190283 0.190510 0.190530 0.190550 0.190779 0.191821 0.193471 0.195156 0.196841 0.198526 0.200183 0.201230 0.201462 0.201483 0.201503 0.201730 0.202722 0.204294 0.205572 0.206850 0.208129 0.208988 0.209530 0.209625 0.209634 0.209641 0.209732 0.210023 0.210484 0.210544 0.210605 0.210666 0.210377 0.210194 0.210137 0.210132 0.210126 0.210067 0.209753 0.209255 0.208541 0.207828 0.207114 0.206187 0.205602 0.205463 0.205451 
0.128472 0.128475 0.128487 0.128516 0.128555 0.128589 0.128623 0.128657 0.128687 0.128710 0.128718 0.128720 0.128722 0.128731 0.128750 0.128776 0.128798 0.128819 0.128841 0.128859 0.128873 0.128878 0.128879 0.128880 0.128885 0.128896 0.128910 0.128921 0.128932 0.128942 0.128949 0.128955 0.128957 0.128957 0.128958 0.128959 0.128962 0.128966 0.128967 0.128967 0.128968 0.128965 0.128962 0.128961 0.128961 0.128960 0.128959 0.128954 0.128947 0.128936 0.128926 0.128915 0.128901 0.128890 0.128885 0.128884 0.128882 0.128877 0.128864 0.128846 0.128843 0.128840 0.128838 0.128836 0.128835 0.128834 0.128834 0.128834 0.128833 0.128831 0.128829 0.128826 0.128822 0.128819 0.128816 0.128814 0.128812 0.128812 0.128812 0.128810 0.128807 0.128802 0.128797 0.128792 0.128786 0.128780 0.128776 0.128774 0.128773 0.128773 0.128771 0.128766 0.128759 0.128752 0.128745 0.128738 0.128729 0.128723 0.128720 0.128719 
0.146971 0.146968 0.146958 0.146932 0.146897 0.146855 0.146813 0.146772 0.146723 0.146687 0.146671 0.146667 0.146663 0.146647 0.146605 0.146550 0.146489 0.146428 0.146367 0.146300 0.146249 0.146227 0.146221 0.146216 0.146194 0.146139 0.146067 0.145988 0.145909 0.145830 0.145745 0.145681 0.145654 0.145647 0.145640 0.145612 0.145543 0.145453 0.145357 0.145261 0.145165 0.145065 0.144989 0.144957 0.144949 0.144941 0.144908 0.144829 0.144725 0.144617 0.144510 0.144402 0.144292 0.144208 0.144174 0.144165 0.144156 0.144122 0.144037 0.143924 0.143807 0.143691 0.143575 0.143455 0.143366 0.143344 0.143339 0.143334 0.143313 0.143264 0.143199 0.143134 0.143070 0.143005 0.142940 0.142891 0.142871 0.142866 0.142861 0.142841 0.142793 0.142729 0.142667 0.142605 0.142542 0.142481 0.142434 0.142415 0.142410 0.142406 0.142387 0.142341 0.142281 0.142222 0.142164 0.142105 0.142048 0.142005 0.141987 0.141982 
0.180879 0.180866 0.180818 0.180701 0.180546 0.180376 0.180207 0.180038 0.179848 0.179705 0.179643 0.179626 0.179609 0.179546 0.179396 0.179197 0.178981 0.178764 0.178548 0.178323 0.178153 0.178077 0.178057 0.178036 0.177959 0.177777 0.177537 0.177286 0.177036 0.176786 0.176524 0.176326 0.176241 0.176217 0.176194 0.176108 0.175902 0.175629 0.175345 0.175060 0.174775 0.174482 0.174260 0.174164 0.174138 0.174112 0.174015 0.173782 0.173475 0.173150 0.172825 0.172501 0.172159 0.171901 0.171789 0.171758 0.171728 0.171615 0.171378 0.171066 0.170953 0.170840 0.170727 0.170609 0.170520 0.170481 0.170471 0.170460 0.170421 0.170329 0.170208 0.170082 0.169956 0.169830 0.169702 0.169605 0.169563 0.169552 0.169540 0.169498 0.169399 0.169267 0.169133 0.168999 0.168866 0.168730 0.168627 0.168584 0.168572 0.168560 0.168516 0.168413 0.168278 0.168142 0.168006 0.167870 0.167734 0.167631 0.167587 0.167575 0.167563 0.167519 0.167416 0.167281 0.167146 0.167011 0.166876 0.166743 0.166642 0.166599 0.166587 
