0.123824 0.123822 0.123784 0.123611 0.123336 0.123043 0.122751 0.122459 0.122165 0.121980 0.121940 0.121937 0.121933 0.121894 0.121722 0.121449 0.121212 0.120974 0.120737 0.120524 0.120390 0.120362 0.120359 0.120357 0.120329 0.120203 0.120005 0.119819 0.119634 0.119449 0.119276 0.119167 0.119143 0.119142 
0.123826 0.123828 0.123847 0.123898 0.123966 0.124036 0.124106 0.124176 0.124249 0.124303 0.124323 0.124325 0.124327 0.124348 0.124406 0.124485 0.124572 0.124658 0.124745 0.124842 0.124915 0.124942 0.124945 0.124948 0.124975 0.125055 0.125163 0.125279 0.125396 0.125512 0.125636 0.125728 0.125762 0.125766 0.125769 0.125803 0.125899 0.126027 0.126159 0.126290 0.126421 0.126554 0.126654 0.126690 0.126694 0.126698 0.126734 0.126835 0.126970 0.127106 0.127242 0.127378 0.127516 0.127619 0.127656 0.127660 0.127664 0.127701 0.127806 0.127945 0.128086 0.128227 0.128368 0.128512 0.128620 0.128659 0.128663 0.128667 0.128706 0.128816 0.128962 0.129112 0.129262 0.129412 0.129566 0.129681 0.129724 0.129728 0.129732 0.129775 0.129893 0.130050 0.130212 0.130374 0.130536 0.130702 0.130827 0.130872 0.130877 0.130882 0.130927 0.131053 0.131222 0.131395 0.131568 0.131740 0.131916 0.132047 0.132095 0.132100 0.132105 0.132153 0.132287 0.132466 0.132647 0.132829 0.133010 0.133194 0.133332 0.133382 0.133387 0.133392 0.133442 0.133582 0.133769 0.133958 0.134148 0.134338 0.134531 0.134675 0.134727 0.134733 0.134739 0.134791 0.134938 0.135133 0.135333 0.135532 0.135731 0.135934 0.136086 0.136141 0.136147 0.136153 0.136208 0.136363 0.136569 0.136780 0.136991 0.137201 0.137416 0.137576 0.137635 0.137641 0.137647 0.137705 0.137870 0.138089 0.138312 0.138535 0.138758 0.138985 0.139155 0.139217 0.139223 0.139230 0.139292 0.139465 0.139696 0.139930 0.140164 0.140399 0.140637 0.140815 0.140879 0.140886 0.140893 0.140957 0.141138 0.141378 0.141622 0.141866 0.142110 0.142358 0.142542 0.142610 0.142617 0.142624 0.142692 0.142879 0.143130 0.143384 0.143637 0.143891 0.144148 0.144340 0.144409 0.144416 0.144424 0.144493 0.144688 0.144948 0.145213 0.145477 0.145742 0.146011 0.146212 0.146285 0.146293 0.146301 0.146374 0.146578 0.146851 0.147131 0.147411 0.147691 0.147977 0.148190 0.148268 0.148276 0.148285 0.148362 0.148581 0.148873 0.149174 0.149474 0.149775 0.150085 0.150318 0.150402 0.150411 0.150420 0.150505 0.150743 0.151061 0.151394 0.151726 0.152059 0.152402 0.152659 0.152753 0.152763 0.152773 0.152867 0.153133 0.153489 0.153859 0.154229 0.154600 0.154984 0.155272 0.155378 0.155389 0.155400 0.155506 0.155804 0.156204 0.156620 0.157036 0.157452 0.157885 0.158209 0.158328 0.158341 0.158354 0.158473 0.158810 0.159259 0.159725 0.160192 0.160658 0.161143 0.161507 0.161640 0.161654 0.161668 0.161802 0.162178 0.162681 0.163204 0.163728 0.164251 0.164796 0.165204 0.165353 0.165369 0.165385 0.165535 0.165956 0.166518 0.167102 0.167686 0.168271 0.168874 0.169326 0.169491 0.169509 0.169526 0.169692 0.170158 0.170780 0.171427 0.172074 0.172721 0.173390 0.173892 0.174075 0.174094 0.174114 0.174297 0.174814 0.175506 0.176225 0.176944 0.177664 0.178406 0.178962 0.179165 0.179186 0.179208 0.179412 0.179985 0.180752 0.181546 0.182340 0.183134 0.183956 0.184571 0.184795 0.184819 0.184843 0.185069 0.185702 0.186549 0.187428 0.188308 0.189187 0.190081 0.190751 0.190994 0.191020 
0.123825 0.123824 0.123816 0.123764 0.123681 0.123457 0.123233 0.123008 0.122836 0.122727 0.122706 0.122705 0.122703 0.122682 0.122597 0.122462 0.122346 0.122231 0.122115 0.122012 0.121947 0.121933 0.121932 0.121931 0.121917 0.121853 0.121752 0.121635 0.121519 0.121403 0.121245 0.121144 0.121120 0.121118 0.121116 0.121091 0.120955 0.120740 0.120427 0.120114 0.119800 0.119423 0.119185 0.119134 0.119131 0.119127 0.119078 0.118869 0.118539 0.118140 0.117741 0.117342 0.116977 0.116746 0.116700 0.116697 0.116694 0.116649 0.116472 0.116191 0.115984 0.115778 0.115571 0.115406 0.115302 0.115280 0.115279 0.115277 0.115256 0.115167 0.115024 0.114905 0.114786 0.114667 0.114567 0.114504 0.114492 0.114491 0.114490 0.114477 0.114424 0.114340 0.114272 0.114203 0.114135 0.114080 0.114046 0.114039 0.114038 0.114038 0.114031 0.114003 0.113958 0.113921 0.113884 0.113848 0.113817 0.113798 0.113794 0.113794 0.113794 0.113790 0.113773 0.113747 0.113724 0.113701 0.113678 0.113659 0.113646 0.113644 0.113643 0.113643 0.113641 0.113630 0.113612 0.113597 0.113582 0.113567 0.113555 0.113546 0.113545 0.113545 0.113545 0.113543 0.113536 0.113525 0.113515 0.113506 0.113496 0.113488 0.113483 0.113482 0.113482 0.113482 0.113481 0.113477 0.113470 0.113465 0.113459 0.113454 0.113451 0.113449 0.113449 0.113449 
0.120360 0.120360 0.120360 0.120360 0.120361 0.120361 0.120361 0.120361 0.120361 0.120361 0.120360 0.120360 0.120360 0.120360 0.120359 0.120358 0.120357 0.120356 0.120354 0.120353 0.120351 0.120350 0.120350 0.120350 0.120349 0.120347 0.120345 0.120342 0.120340 0.120337 0.120334 0.120331 0.120330 0.120330 0.120329 0.120328 0.120325 0.120322 0.120318 0.120314 0.120309 0.120305 0.120302 0.120300 0.120300 0.120299 0.120297 0.120294 0.120289 0.120284 0.120278 0.120273 0.120267 0.120263 0.120261 0.120260 0.120260 0.120257 0.120253 0.120247 0.120240 0.120234 0.120228 0.120221 0.120216 0.120214 0.120213 0.120213 0.120210 0.120205 0.120198 0.120191 0.120184 0.120177 0.120170 0.120165 0.120162 0.120161 0.120160 0.120157 0.120152 0.120144 0.120136 0.120129 0.120121 0.120113 0.120107 0.120105 0.120104 0.120103 0.120100 0.120094 0.120086 0.120078 0.120069 0.120061 0.120053 0.120046 0.120043 0.120042 0.120041 0.120038 0.120032 0.120023 0.120014 0.120005 0.119996 0.119987 0.119980 0.119977 0.119976 0.119974 0.119971 0.119964 0.119955 0.119945 0.119936 0.119926 0.119916 0.119909 0.119905 0.119904 0.119903 0.119900 0.119892 0.119882 0.119872 0.119861 0.119851 0.119840 0.119832 0.119829 0.119827 0.119826 0.119822 0.119814 0.119803 0.119792 0.119781 0.119770 0.119758 0.119750 0.119746 0.119744 0.119743 0.119739 0.119730 0.119718 0.119706 0.119694 0.119682 0.119670 0.119660 0.119656 0.119654 0.119653 0.119649 0.119639 0.119626 0.119614 0.119601 0.119588 0.119575 0.119565 0.119560 0.119558 0.119557 0.119552 0.119542 0.119528 0.119515 0.119501 0.119487 0.119473 0.119463 0.119458 0.119456 0.119455 0.119450 0.119439 0.119425 0.119410 0.119396 0.119381 0.119367 0.119356 0.119351 0.119349 0.119347 0.119342 0.119331 0.119316 0.119301 0.119286 0.119271 0.119256 0.119244 0.119239 0.119237 0.119235 0.119230 0.119218 0.119203 0.119188 0.119172 0.119157 0.119141 0.119130 0.119124 0.119122 0.119121 0.119117 0.119109 0.119098 0.119087 0.119076 0.119066 0.119055 0.119047 0.119043 0.119042 0.119041 0.119038 0.119030 0.119020 0.119010 0.119000 0.118989 0.118980 0.118973 0.118969 0.118968 0.118967 0.118964 0.118957 0.118947 0.118938 0.118929 0.118919 0.118910 0.118904 0.118901 0.118900 0.118899 0.118896 0.118889 0.118880 0.118871 0.118863 0.118854 0.118846 0.118840 0.118837 0.118836 0.118835 0.118832 0.118825 0.118817 0.118809 0.118801 0.118794 0.118786 0.118780 0.118777 0.118776 0.118775 0.118773 0.118767 0.118759 0.118752 0.118745 0.118738 0.118730 0.118725 0.118722 0.118721 0.118720 0.118718 0.118713 0.118706 0.118699 0.118692 0.118686 0.118679 0.118674 0.118671 0.118671 0.118670 0.118668 0.118663 0.118657 0.118650 0.118644 0.118638 0.118631 0.118627 0.118625 0.118624 
0.121937 0.121938 0.121943 0.121957 0.121974 0.121990 0.122005 0.122020 0.122031 0.122039 0.122041 0.122042 0.122042 0.122045 0.122050 0.122057 0.122060 0.122064 0.122067 0.122068 0.122068 0.122068 0.122068 0.122068 0.122067 0.122064 0.122061 0.122054 0.122048 0.122041 0.122033 0.122027 0.122025 0.122025 0.122024 0.122022 0.122014 0.122003 0.121992 0.121981 0.121969 0.121958 0.121950 0.121946 0.121946 0.121945 0.121942 0.121933 0.121923 0.121911 0.121899 0.121887 0.121874 0.121864 0.121860 0.121859 0.121858 0.121854 0.121842 0.121827 0.121809 0.121790 0.121772 0.121750 0.121734 0.121727 0.121726 0.121724 0.121717 0.121699 0.121673 0.121646 0.121618 0.121590 0.121560 0.121537 0.121528 0.121526 0.121524 0.121514 0.121488 0.121453 0.121415 0.121378 0.121340 0.121301 0.121271 0.121261 0.121259 0.121257 0.121249 0.121227 0.121198 0.121171 0.121143 0.121115 0.121088 0.121068 0.121060 0.121058 0.121057 0.121049 0.121029 0.121003 0.120977 0.120951 0.120925 0.120899 0.120880 0.120873 0.120872 0.120870 0.120863 0.120844 0.120820 0.120795 0.120771 0.120747 0.120724 0.120706 0.120699 0.120698 0.120696 0.120690 0.120673 0.120650 0.120627 0.120605 0.120583 0.120561 0.120545 0.120539 0.120537 
0.125766 0.125765 0.125765 0.125762 0.125759 0.125753 0.125747 0.125742 0.125734 0.125728 0.125726 0.125725 0.125724 0.125722 0.125714 0.125704 0.125692 0.125680 0.125667 0.125653 0.125642 0.125637 0.125636 0.125635 0.125630 0.125617 0.125599 0.125579 0.125558 0.125537 0.125513 0.125494 0.125486 0.125485 0.125483 0.125475 0.125455 0.125427 0.125396 0.125364 0.125333 0.125297 0.125270 0.125259 0.125257 0.125255 0.125244 0.125214 0.125175 0.125133 0.125091 0.125048 0.125003 0.124968 0.124954 0.124951 0.124948 0.124934 0.124912 0.124882 0.124854 0.124826 0.124798 0.124770 0.124749 0.124741 0.124739 0.124737 0.124729 0.124709 0.124681 0.124654 0.124627 0.124599 0.124572 0.124551 0.124543 0.124542 0.124540 0.124532 0.124512 0.124485 0.124459 0.124432 0.124406 0.124380 0.124361 0.124353 0.124352 0.124350 0.124342 0.124324 0.124298 0.124274 0.124250 0.124226 0.124203 0.124186 0.124179 0.124177 0.124176 0.124169 0.124152 0.124129 0.124107 0.124086 0.124064 0.124043 0.124027 0.124020 0.124019 0.124018 0.124012 0.123996 0.123975 0.123955 0.123935 0.123914 0.123894 0.123880 0.123874 0.123872 
0.127660 0.127660 0.127659 0.127657 0.127655 0.127653 0.127650 0.127647 0.127644 0.127641 0.127639 0.127639 0.127638 0.127637 0.127633 0.127628 0.127623 0.127618 0.127612 0.127605 0.127600 0.127598 0.127597 0.127596 0.127594 0.127588 0.127581 0.127572 0.127564 0.127556 0.127547 0.127540 0.127537 0.127535 0.127534 0.127531 0.127524 0.127514 0.127502 0.127491 0.127480 0.127468 0.127459 0.127455 0.127453 0.127452 0.127448 0.127438 0.127425 0.127410 0.127396 0.127381 0.127366 0.127355 0.127349 0.127348 0.127346 0.127340 0.127327 0.127310 0.127293 0.127275 0.127258 0.127239 0.127225 0.127218 0.127216 0.127214 0.127207 0.127191 0.127171 0.127150 0.127129 0.127108 0.127085 0.127068 0.127060 0.127057 0.127054 0.127046 0.127028 0.127004 0.126980 0.126955 0.126930 0.126903 0.126883 0.126874 0.126871 0.126868 0.126858 0.126838 0.126811 0.126782 0.126754 0.126725 0.126695 0.126673 0.126662 0.126659 0.126655 0.126645 0.126622 0.126592 0.126559 0.126527 0.126495 0.126463 0.126438 0.126427 0.126423 0.126419 0.126408 0.126393 0.126373 0.126355 0.126337 0.126319 0.126301 0.126287 0.126281 0.126279 0.126277 0.126271 0.126258 0.126240 0.126223 0.126205 0.126187 0.126170 0.126157 0.126151 0.126149 0.126147 0.126141 0.126128 0.126110 0.126093 0.126076 0.126058 0.126041 0.126029 0.126023 0.126021 0.126019 0.126013 0.126000 0.125983 0.125966 0.125949 0.125932 0.125916 0.125903 0.125898 0.125896 0.125894 0.125888 0.125875 0.125859 0.125843 0.125827 0.125811 0.125795 0.125783 0.125777 0.125775 0.125774 0.125768 0.125756 0.125741 0.125725 0.125710 0.125695 0.125680 0.125668 0.125663 0.125661 0.125659 0.125654 0.125643 0.125629 0.125615 0.125600 0.125586 0.125572 0.125561 0.125556 0.125555 0.125553 0.125548 0.125538 0.125524 0.125510 0.125496 0.125482 0.125469 0.125459 0.125454 0.125452 0.125451 0.125446 0.125436 0.125422 0.125409 0.125396 0.125382 0.125369 0.125360 0.125355 0.125353 0.125352 0.125347 0.125337 0.125324 0.125311 0.125298 0.125285 0.125272 0.125262 0.125258 0.125256 0.125255 0.125250 0.125240 0.125227 0.125214 0.125202 0.125189 0.125176 0.125167 0.125162 0.125161 
0.128663 0.128662 0.128659 0.128654 0.128646 0.128638 0.128630 0.128622 0.128613 0.128606 0.128603 0.128602 0.128601 0.128597 0.128589 0.128579 0.128569 0.128558 0.128547 0.128536 0.128527 0.128523 0.128521 0.128520 0.128516 0.128506 0.128494 0.128481 0.128468 0.128455 0.128441 0.128430 0.128425 0.128423 0.128421 0.128416 0.128405 0.128390 0.128375 0.128360 0.128345 0.128329 0.128316 0.128310 0.128308 0.128306 0.128300 0.128287 0.128270 0.128253 0.128235 0.128218 0.128199 0.128185 0.128178 0.128175 0.128173 0.128166 0.128151 0.128132 0.128112 0.128092 0.128072 0.128050 0.128034 0.128026 0.128024 0.128021 0.128013 0.127997 0.127975 0.127952 0.127929 0.127905 0.127882 0.127863 0.127855 0.127852 0.127848 0.127840 0.127821 0.127797 0.127770 0.127744 0.127718 0.127692 0.127671 0.127662 0.127658 0.127655 0.127645 0.127624 0.127597 0.127568 0.127539 0.127510 0.127481 0.127458 0.127448 0.127444 0.127440 0.127430 0.127407 0.127376 0.127345 0.127314 0.127283 0.127251 0.127227 0.127215 0.127211 0.127207 0.127196 0.127171 0.127138 0.127109 0.127080 0.127051 0.127030 0.127013 0.127006 0.127003 0.127001 0.126993 0.126977 0.126957 0.126936 0.126916 0.126896 0.126875 0.126860 0.126853 0.126850 0.126848 0.126841 0.126826 0.126807 0.126787 0.126768 0.126748 0.126729 0.126714 0.126708 0.126705 0.126703 0.126696 0.126682 0.126663 0.126644 0.126626 0.126607 0.126589 0.126575 0.126568 0.126566 0.126564 0.126558 0.126544 0.126526 0.126508 0.126490 0.126472 0.126454 0.126441 0.126435 0.126433 0.126431 0.126425 0.126412 0.126394 0.126377 0.126360 0.126343 0.126327 0.126314 0.126308 0.126306 0.126304 0.126298 0.126286 0.126269 0.126253 0.126237 0.126221 0.126206 0.126194 0.126188 0.126186 0.126184 0.126179 0.126167 0.126152 0.126137 0.126122 0.126107 0.126092 0.126081 0.126076 0.126074 0.126072 0.126067 0.126055 0.126041 0.126027 0.126013 0.125999 0.125985 0.125974 0.125969 0.125967 0.125966 0.125961 0.125950 0.125936 0.125923 0.125909 0.125896 0.125883 0.125872 0.125867 0.125866 0.125864 0.125859 0.125849 0.125836 0.125823 0.125810 0.125797 0.125784 0.125774 0.125770 0.125768 0.125766 0.125762 0.125752 0.125739 0.125727 0.125714 0.125701 0.125689 0.125679 0.125674 0.125673 
0.130876 0.130875 0.130868 0.130846 0.130816 0.130776 0.130737 0.130697 0.130649 0.130613 0.130599 0.130597 0.130595 0.130580 0.130538 0.130482 0.130420 0.130357 0.130294 0.130224 0.130171 0.130150 0.130148 0.130145 0.130124 0.130064 0.129984 0.129895 0.129805 0.129716 0.129617 0.129543 0.129514 0.129510 0.129506 0.129477 0.129395 0.129287 0.129170 0.129052 0.128935 0.128819 0.128733 0.128711 0.128708 0.128705 0.128683 0.128627 0.128552 0.128483 0.128413 0.128343 0.128277 0.128228 0.128210 0.128208 0.128205 0.128188 0.128142 0.128080 0.128023 0.127966 0.127909 0.127855 0.127815 0.127801 0.127799 0.127797 0.127782 0.127745 0.127696 0.127648 0.127601 0.127554 0.127510 0.127476 0.127463 0.127462 
0.133387 0.133386 0.133383 0.133377 0.133369 0.133361 0.133353 0.133345 0.133336 0.133329 0.133326 0.133325 0.133323 0.133320 0.133312 0.133303 0.133292 0.133282 0.133272 0.133261 0.133253 0.133249 0.133247 0.133246 0.133241 0.133233 0.133221 0.133209 0.133197 0.133185 0.133172 0.133162 0.133157 0.133155 0.133153 0.133148 0.133138 0.133124 0.133110 0.133096 0.133081 0.133067 0.133056 0.133050 0.133047 0.133045 0.133039 0.133028 0.133013 0.132998 0.132982 0.132967 0.132951 0.132938 0.132932 0.132930 0.132927 0.132921 0.132908 0.132892 0.132875 0.132858 0.132841 0.132824 0.132810 0.132803 0.132800 0.132797 0.132790 0.132777 0.132759 0.132740 0.132722 0.132704 0.132684 0.132670 0.132662 0.132659 0.132656 0.132648 0.132632 0.132612 0.132592 0.132572 0.132551 0.132531 0.132515 0.132506 0.132503 0.132499 0.132491 0.132474 0.132452 0.132431 0.132409 0.132387 0.132365 0.132348 0.132339 0.132336 0.132332 0.132324 0.132306 0.132283 0.132259 0.132235 0.132211 0.132186 0.132167 0.132158 0.132154 0.132150 0.132140 0.132121 0.132095 0.132069 0.132043 0.132017 0.131990 0.131970 0.131960 0.131955 0.131951 0.131941 0.131920 0.131893 0.131865 0.131837 0.131808 0.131779 0.131757 0.131746 0.131742 0.131737 0.131726 0.131703 0.131674 0.131644 0.131614 0.131584 0.131553 0.131529 0.131517 0.131512 0.131507 0.131495 0.131471 0.131439 0.131408 0.131376 0.131344 0.131312 0.131287 0.131274 0.131269 0.131263 0.131251 0.131225 0.131192 0.131159 0.131126 0.131093 0.131059 0.131033 0.131020 0.131014 0.131009 0.130996 0.130969 0.130935 0.130900 0.130866 0.130831 0.130797 0.130770 0.130756 0.130751 0.130745 0.130731 0.130704 0.130669 0.130645 0.130621 0.130596 0.130574 0.130558 0.130549 0.130546 0.130543 0.130534 0.130518 0.130498 0.130477 0.130456 0.130436 0.130415 0.130399 0.130391 0.130388 0.130385 0.130377 0.130361 0.130342 0.130322 0.130303 0.130284 0.130264 0.130249 0.130242 0.130239 0.130236 0.130228 0.130214 0.130194 0.130176 0.130158 0.130140 0.130122 0.130108 0.130101 0.130098 0.130095 0.130088 0.130074 0.130056 0.130038 0.130021 0.130003 0.129986 0.129973 0.129966 0.129963 0.129961 0.129954 0.129941 0.129923 0.129907 0.129890 0.129873 0.129856 0.129844 0.129838 0.129835 0.129832 0.129826 0.129814 0.129797 0.129781 0.129764 0.129748 0.129733 0.129721 0.129715 0.129712 0.129710 0.129704 0.129692 0.129677 0.129662 0.129646 0.129631 0.129616 0.129604 0.129599 0.129596 0.129594 0.129588 0.129577 0.129563 0.129549 0.129534 0.129520 0.129505 0.129494 0.129489 0.129486 0.129484 0.129479 0.129468 0.129455 0.129441 0.129427 0.129414 0.129400 0.129389 0.129384 0.129382 0.129379 0.129374 0.129364 0.129351 0.129338 0.129325 0.129312 0.129298 0.129288 0.129283 0.129281 0.129279 0.129274 0.129264 0.129251 0.129238 0.129225 0.129213 0.129200 0.129190 0.129185 0.129183 0.129181 0.129176 0.129166 0.129153 0.129140 0.129128 0.129115 0.129103 0.129093 0.129088 0.129086 0.129084 0.129079 0.129069 0.129057 0.129044 0.129031 0.129019 0.129006 0.128997 0.128992 0.128990 0.128988 0.128983 0.128974 0.128961 0.128948 0.128936 0.128923 0.128911 0.128901 0.128896 0.128894 
0.136147 0.136145 0.136141 0.136131 0.136119 0.136105 0.136090 0.136076 0.136060 0.136048 0.136042 0.136040 0.136038 0.136033 0.136019 0.136001 0.135981 0.135961 0.135941 0.135919 0.135902 0.135894 0.135892 0.135890 0.135882 0.135864 0.135841 0.135816 0.135791 0.135766 0.135739 0.135719 0.135710 0.135707 0.135705 0.135696 0.135674 0.135645 0.135615 0.135585 0.135555 0.135523 0.135499 0.135488 0.135485 0.135481 0.135470 0.135445 0.135412 0.135378 0.135345 0.135311 0.135276 0.135249 0.135237 0.135233 0.135229 0.135217 0.135189 0.135153 0.135115 0.135077 0.135039 0.135000 0.134971 0.134957 0.134953 0.134949 0.134936 0.134905 0.134865 0.134823 0.134781 0.134738 0.134695 0.134663 0.134648 0.134643 0.134638 0.134623 0.134588 0.134542 0.134496 0.134450 0.134403 0.134354 0.134316 0.134300 0.134294 0.134289 0.134272 0.134234 0.134184 0.134131 0.134079 0.134027 0.133973 0.133932 0.133914 0.133908 0.133903 0.133884 0.133843 0.133788 0.133732 0.133675 0.133618 0.133561 0.133517 0.133498 0.133492 0.133486 0.133466 0.133421 0.133362 0.133311 0.133260 0.133208 0.133169 0.133140 0.133127 0.133123 0.133119 0.133106 0.133077 0.133039 0.133003 0.132966 0.132929 0.132894 0.132867 0.132856 0.132852 0.132848 0.132837 0.132810 0.132776 0.132743 0.132710 0.132677 0.132645 0.132620 0.132609 0.132606 0.132602 0.132591 0.132568 0.132537 0.132507 0.132476 0.132446 0.132416 0.132393 0.132384 0.132381 0.132378 0.132368 0.132346 0.132318 0.132290 0.132261 0.132233 0.132206 0.132186 0.132177 0.132174 0.132171 0.132162 0.132142 0.132115 0.132089 0.132063 0.132038 0.132013 0.131994 0.131985 0.131983 0.131980 0.131971 0.131953 0.131928 0.131905 0.131881 0.131857 0.131834 0.131816 0.131808 0.131805 0.131803 0.131796 0.131779 0.131757 0.131734 0.131712 0.131690 0.131668 0.131652 0.131645 0.131642 0.131640 0.131633 0.131617 0.131595 0.131574 0.131553 0.131532 0.131512 0.131496 0.131489 0.131487 0.131485 0.131478 0.131462 0.131442 0.131422 0.131402 0.131382 0.131363 0.131347 0.131341 0.131339 
0.137640 0.137639 0.137631 0.137612 0.137587 0.137558 0.137530 0.137501 0.137469 0.137445 0.137434 0.137432 0.137429 0.137419 0.137392 0.137356 0.137318 0.137279 0.137241 0.137198 0.137167 0.137153 0.137150 0.137147 0.137133 0.137099 0.137055 0.137007 0.136959 0.136912 0.136861 0.136822 0.136806 0.136802 0.136799 0.136782 0.136743 0.136691 0.136636 0.136580 0.136525 0.136467 0.136424 0.136405 0.136401 0.136397 0.136378 0.136333 0.136274 0.136212 0.136150 0.136087 0.136023 0.135974 0.135954 0.135949 0.135943 0.135922 0.135871 0.135802 0.135731 0.135660 0.135589 0.135516 0.135460 0.135437 0.135431 0.135426 0.135402 0.135344 0.135266 0.135187 0.135107 0.135027 0.134945 0.134882 0.134857 0.134850 0.134844 0.134818 0.134755 0.134670 0.134584 0.134498 0.134412 0.134324 0.134258 0.134231 0.134224 0.134218 0.134192 0.134149 0.134093 0.134041 0.133989 0.133937 0.133889 0.133852 0.133838 0.133834 0.133831 0.133816 0.133781 0.133735 0.133691 0.133648 0.133604 0.133562 0.133531 0.133519 0.133516 0.133513 0.133501 0.133471 0.133432 0.133394 0.133357 0.133319 0.133283 0.133255 0.133244 0.133241 0.133238 0.133228 0.133202 0.133169 0.133136 0.133103 0.133070 0.133039 0.133015 0.133006 0.133003 0.133001 0.132991 0.132969 0.132940 0.132911 0.132882 0.132854 0.132827 0.132807 0.132798 0.132796 0.132794 0.132786 0.132766 0.132740 0.132714 0.132689 0.132664 0.132640 0.132622 0.132614 0.132612 0.132611 0.132603 0.132585 0.132561 0.132537 0.132514 0.132491 0.132467 0.132450 0.132443 0.132441 
0.140885 0.140882 0.140873 0.140852 0.140824 0.140795 0.140765 0.140736 0.140704 0.140680 0.140669 0.140665 0.140661 0.140650 0.140624 0.140590 0.140554 0.140518 0.140482 0.140444 0.140414 0.140401 0.140397 0.140393 0.140380 0.140349 0.140309 0.140266 0.140224 0.140182 0.140138 0.140105 0.140090 0.140085 0.140080 0.140065 0.140031 0.139985 0.139937 0.139890 0.139843 0.139795 0.139758 0.139741 0.139736 0.139730 0.139713 0.139675 0.139624 0.139573 0.139523 0.139472 0.139419 0.139379 0.139361 0.139356 0.139350 0.139332 0.139291 0.139238 0.139183 0.139128 0.139073 0.139017 0.138974 0.138955 0.138949 0.138943 0.138923 0.138880 0.138824 0.138765 0.138706 0.138648 0.138589 0.138544 0.138524 0.138518 0.138512 0.138491 0.138445 0.138383 0.138321 0.138258 0.138196 0.138132 0.138084 0.138062 0.138055 0.138048 0.138026 0.137976 0.137911 0.137844 0.137778 0.137711 0.137643 0.137591 0.137568 0.137561 0.137553 0.137530 0.137478 0.137409 0.137340 0.137270 0.137200 0.137130 0.137076 0.137052 0.137044 0.137037 0.137013 0.136962 0.136894 0.136845 0.136795 0.136745 0.136697 0.136661 0.136645 0.136640 0.136635 0.136619 0.136585 0.136541 0.136497 0.136454 0.136410 0.136369 0.136337 0.136324 0.136319 0.136315 0.136302 0.136271 0.136232 0.136193 0.136155 0.136116 0.136080 0.136052 0.136040 0.136036 0.136032 0.136020 0.135993 0.135957 0.135923 0.135889 0.135855 0.135822 0.135797 0.135786 0.135782 0.135779 0.135767 0.135743 0.135711 0.135680 0.135649 0.135619 0.135588 0.135565 0.135555 0.135552 0.135549 0.135539 0.135518 0.135489 0.135461 0.135433 0.135405 0.135378 0.135358 0.135349 0.135346 0.135343 0.135334 0.135314 0.135288 0.135262 0.135237 0.135211 0.135186 0.135168 0.135159 0.135157 0.135154 0.135146 0.135127 0.135102 0.135079 0.135056 0.135032 0.135009 0.134991 0.134983 0.134981 0.134978 0.134970 0.134953 0.134931 0.134909 0.134887 0.134865 0.134843 0.134826 0.134819 0.134816 0.134814 0.134807 0.134791 0.134769 0.134748 0.134726 0.134704 0.134684 0.134668 0.134661 0.134659 0.134657 0.134650 0.134634 0.134613 0.134592 0.134572 0.134551 0.134531 0.134516 0.134509 0.134507 
0.144416 0.144412 0.144395 0.144352 0.144295 0.144230 0.144165 0.144100 0.144029 0.143975 0.143953 0.143949 0.143944 0.143921 0.143862 0.143785 0.143703 0.143620 0.143538 0.143450 0.143385 0.143358 0.143352 0.143345 0.143317 0.143245 0.143150 0.143054 0.142957 0.142860 0.142760 0.142685 0.142654 0.142647 0.142640 0.142608 0.142529 0.142424 0.142316 0.142209 0.142101 0.141990 0.141907 0.141873 0.141866 0.141858 0.141823 0.141737 0.141622 0.141505 0.141387 0.141269 0.141148 0.141057 0.141020 0.141011 0.141003 0.140965 0.140871 0.140746 0.140629 0.140512 0.140395 0.140305 0.140237 0.140210 0.140204 0.140199 0.140173 0.140111 0.140030 0.139954 0.139877 0.139801 0.139728 0.139673 0.139652 0.139647 0.139642 0.139622 0.139571 0.139504 0.139439 0.139375 0.139311 0.139250 0.139203 0.139185 0.139181 0.139177 0.139160 0.139116 0.139058 0.139003 0.138947 0.138891 0.138837 0.138797 0.138781 0.138777 0.138774 0.138758 0.138720 0.138669 0.138620 0.138570 0.138521 0.138472 0.138436 0.138421 0.138418 0.138415 0.138401 0.138366 0.138319 0.138273 0.138227 0.138181 0.138136 0.138101 0.138087 0.138084 0.138081 0.138068 0.138034 0.137989 0.137944 0.137899 0.137855 0.137809 0.137775 0.137762 0.137759 
0.150410 0.150403 0.150368 0.150277 0.150155 0.150022 0.149888 0.149754 0.149609 0.149500 0.149455 0.149447 0.149438 0.149393 0.149278 0.149125 0.148964 0.148804 0.148644 0.148476 0.148349 0.148299 0.148289 0.148279 0.148230 0.148099 0.147925 0.147749 0.147574 0.147398 0.147221 0.147088 0.147034 0.147024 0.147013 0.146960 0.146823 0.146641 0.146455 0.146269 0.146084 0.145894 0.145752 0.145695 0.145684 0.145673 0.145616 0.145482 0.145303 0.145165 0.145028 0.144891 0.144765 0.144670 0.144633 0.144626 0.144619 0.144583 0.144495 0.144378 0.144267 0.144156 0.144046 0.143941 0.143862 0.143832 0.143826 0.143820 0.143791 0.143716 0.143616 0.143521 0.143425 0.143330 0.143239 0.143170 0.143144 0.143139 0.143133 0.143107 0.143040 0.142951 0.142865 0.142780 0.142695 0.142612 0.142550 0.142526 0.142521 0.142516 0.142492 0.142432 0.142352 0.142273 0.142194 0.142116 0.142038 0.141979 0.141957 0.141953 0.141948 0.141926 0.141869 0.141793 0.141718 0.141643 0.141568 0.141493 0.141437 0.141415 0.141411 
0.155387 0.155378 0.155354 0.155299 0.155226 0.155151 0.155075 0.155000 0.154920 0.154860 0.154831 0.154821 0.154811 0.154782 0.154718 0.154634 0.154547 0.154460 0.154372 0.154281 0.154211 0.154179 0.154168 0.154157 0.154125 0.154053 0.153959 0.153862 0.153765 0.153668 0.153570 0.153495 0.153461 0.153449 0.153437 0.153403 0.153328 0.153229 0.153126 0.153023 0.152921 0.152818 0.152740 0.152704 0.152691 0.152679 0.152643 0.152564 0.152460 0.152356 0.152251 0.152147 0.152045 0.151968 0.151932 0.151920 0.151908 0.151872 0.151793 0.151690 0.151587 0.151484 0.151381 0.151278 0.151199 0.151163 0.151151 0.151139 0.151102 0.151024 0.150922 0.150819 0.150717 0.150614 0.150520 0.150449 0.150419 0.150409 0.150399 0.150369 0.150306 0.150222 0.150140 0.150058 0.149976 0.149896 0.149834 0.149807 0.149797 0.149788 0.149760 0.149701 0.149622 0.149547 0.149472 0.149396 0.149323 0.149268 0.149243 0.149234 0.149226 0.149201 0.149147 0.149077 0.149009 0.148941 0.148873 0.148807 0.148756 0.148733 0.148725 0.148717 0.148694 0.148646 0.148582 0.148519 0.148456 0.148394 0.148332 0.148285 0.148264 0.148257 0.148250 0.148229 0.148184 0.148124 0.148065 0.148006 0.147947 0.147889 0.147846 0.147826 0.147819 0.147812 0.147792 0.147749 0.147693 0.147637 0.147582 0.147526 0.147472 0.147430 0.147411 0.147405 0.147398 0.147379 0.147338 0.147284 0.147231 0.147178 0.147125 0.147073 0.147033 0.147015 0.147008 0.147002 0.146984 0.146944 0.146892 0.146841 0.146791 0.146740 0.146689 0.146650 0.146632 0.146626 0.146620 0.146602 0.146564 0.146514 0.146465 0.146415 0.146365 0.146315 0.146277 0.146260 0.146254 0.146248 0.146231 0.146194 0.146144 0.146095 0.146046 0.145996 0.145948 0.145910 0.145893 0.145888 0.145882 0.145865 0.145828 0.145779 0.145730 0.145682 0.145633 0.145585 0.145548 0.145531 0.145525 0.145519 0.145502 0.145465 0.145416 0.145367 0.145318 0.145269 0.145220 0.145183 0.145165 0.145159 0.145153 0.145136 0.145098 0.145048 0.144999 0.144950 0.144900 0.144850 0.144812 0.144794 0.144788 
0.179179 0.179152 0.178950 0.178388 0.177638 0.176854 0.176070 0.175286 0.174492 0.173897 0.173675 0.173645 0.173614 0.173392 0.172793 0.171994 0.171227 0.170459 0.169692 0.168950 0.168394 0.168194 0.168167 0.168140 0.167942 0.167417 0.166718 0.166047 0.165377 0.164707 0.164074 0.163600 0.163430 0.163407 0.163384 0.163214 0.162849 0.162362 0.161972 0.161583 0.161193 0.160866 0.160622 0.160535 0.160523 0.160511 0.160425 0.160218 0.159941 0.159696 0.159451 0.159206 0.158988 0.158824 0.158769 0.158762 0.158754 0.158700 0.158555 0.158361 0.158189 0.158016 0.157844 0.157688 0.157571 0.157529 0.157523 
