0.147437 0.147430 0.147327 0.146845 0.146080 0.145329 0.144578 0.143827 0.143100 0.142641 0.142542 0.142535 0.142528 0.142429 0.141986 0.141286 0.140619 0.139953 0.139286 0.138654 0.138255 0.138169 0.138163 0.138157 0.138072 0.137688 0.137081 0.136496 0.135912 0.135328 0.134758 0.134398 0.134320 0.134314 0.134309 0.134230 0.133877 0.133318 0.132774 0.132230 0.131686 0.131161 0.130829 0.130758 0.130753 0.130748 0.130677 0.130360 0.129857 0.129386 0.128915 0.128445 0.128002 0.127723 0.127663 0.127659 0.127655 0.127595 0.127331 0.126913 0.126527 0.126142 0.125756 0.125409 0.125190 0.125144 0.125141 0.125138 0.125092 0.124893 0.124577 0.124286 0.123996 0.123705 0.123430 0.123256 0.123218 0.123216 0.123213 0.123175 0.123006 0.122737 0.122474 0.122211 0.121948 0.121693 0.121532 0.121497 0.121495 0.121492 0.121458 0.121302 0.121056 0.120823 0.120590 0.120357 0.120137 0.119999 0.119970 0.119967 0.119965 0.119936 0.119805 0.119598 0.119405 0.119212 0.119019 0.118838 0.118725 0.118701 0.118699 
0.147441 0.147451 0.147542 0.147803 0.148175 0.148507 0.148839 0.149172 0.149501 0.149732 0.149804 0.149812 0.149819 0.149893 0.150135 0.150479 0.150851 0.151223 0.151596 0.151998 0.152281 0.152372 0.152381 0.152390 0.152483 0.152785 0.153216 0.153673 0.154131 0.154588 0.155073 0.155413 0.155522 0.155534 0.155545 0.155654 0.156013 0.156523 0.157059 0.157594 0.158130 0.158696 0.159093 0.159220 0.159233 0.159246 0.159374 0.159790 0.160382 0.161005 0.161627 0.162250 0.162901 0.163358 0.163504 0.163519 0.163533 0.163680 0.164156 0.164835 0.165545 0.166255 0.166965 0.167707 0.168228 0.168394 0.168411 0.168427 0.168594 0.169136 0.169908 0.170712 0.171516 0.172320 0.173151 0.173735 0.173920 0.173939 0.173958 0.174144 0.174749 0.175610 0.176500 0.177389 0.178278 0.179193 0.179836 0.180040 0.180060 0.180081 0.180287 0.180953 0.181900 0.182883 0.183865 0.184847 0.185873 0.186594 0.186824 0.186847 0.186870 0.187098 0.187844 0.188907 0.190009 0.191111 0.192213 0.193374 0.194190 0.194450 0.194477 
0.147439 0.147439 0.147441 0.147292 0.147057 0.146593 0.146130 0.145667 0.145226 0.144948 0.144897 0.144893 0.144890 0.144837 0.144618 0.144269 0.143963 0.143656 0.143349 0.143017 0.142807 0.142761 0.142758 0.142755 0.142709 0.142505 0.142181 0.141822 0.141462 0.141102 0.140580 0.140250 0.140167 0.140161 0.140155 0.140066 0.139526 0.138669 0.137205 0.135741 0.134277 0.132457 0.131309 0.131055 0.131038 0.131021 0.130766 0.129579 0.127699 0.125969 0.124239 0.122509 0.121273 0.120492 0.120353 0.120344 0.120335 0.120203 0.119685 0.118866 0.118356 0.117846 0.117336 0.117017 0.116815 0.116778 0.116776 0.116773 0.116737 0.116590 0.116357 0.116186 0.116016 0.115846 0.115714 0.115631 0.115614 0.115613 0.115612 0.115595 0.115525 0.115412 0.115318 0.115223 0.115129 0.115047 0.114996 0.114985 0.114985 0.114984 0.114974 0.114928 0.114856 0.114793 0.114730 0.114667 0.114612 0.114578 0.114571 0.114570 0.114570 0.114563 0.114532 0.114484 0.114442 0.114400 0.114358 0.114322 0.114300 0.114295 0.114295 0.114295 0.114290 0.114271 0.114240 0.114214 0.114188 0.114162 0.114141 0.114128 0.114125 0.114125 0.114125 0.114122 0.114111 0.114092 0.114074 0.114055 0.114037 0.114011 0.113994 0.113991 0.113990 
0.119967 0.119967 0.119967 0.119966 0.119965 0.119963 0.119961 0.119959 0.119956 0.119954 0.119953 0.119952 0.119952 0.119951 0.119948 0.119945 0.119940 0.119935 0.119931 0.119925 0.119921 0.119919 0.119919 0.119918 0.119916 0.119912 0.119905 0.119898 0.119891 0.119883 0.119875 0.119869 0.119866 0.119865 0.119865 0.119862 0.119854 0.119845 0.119835 0.119825 0.119815 0.119803 0.119795 0.119791 0.119790 0.119789 0.119785 0.119776 0.119764 0.119751 0.119738 0.119725 0.119711 0.119700 0.119696 0.119694 0.119693 0.119689 0.119682 0.119673 0.119664 0.119654 0.119645 0.119636 0.119628 0.119625 0.119624 0.119623 0.119620 0.119613 0.119604 0.119594 0.119585 0.119575 0.119566 0.119558 0.119555 0.119554 0.119553 0.119550 0.119543 0.119533 0.119523 0.119514 0.119504 0.119494 0.119487 0.119483 0.119482 0.119481 0.119478 0.119471 0.119461 0.119452 0.119442 0.119432 0.119423 0.119416 0.119412 0.119412 0.119411 0.119408 0.119401 0.119391 0.119382 0.119373 0.119364 0.119355 0.119348 0.119345 0.119344 0.119343 0.119340 0.119334 0.119325 0.119316 0.119308 0.119299 0.119291 0.119285 0.119282 0.119281 0.119280 0.119277 0.119271 0.119263 0.119255 0.119247 0.119239 0.119231 0.119225 0.119223 0.119222 
0.125140 0.125137 0.125107 0.125025 0.124916 0.124803 0.124690 0.124576 0.124459 0.124371 0.124339 0.124335 0.124332 0.124304 0.124231 0.124133 0.124042 0.123952 0.123861 0.123780 0.123719 0.123698 0.123695 0.123693 0.123674 0.123622 0.123552 0.123494 0.123437 0.123379 0.123333 0.123298 0.123287 0.123285 0.123284 0.123274 0.123247 0.123211 0.123182 0.123154 0.123126 0.123104 0.123088 0.123082 0.123082 
0.127658 0.127655 0.127641 0.127606 0.127559 0.127510 0.127461 0.127412 0.127360 0.127321 0.127305 0.127302 0.127298 0.127282 0.127240 0.127185 0.127128 0.127071 0.127014 0.126955 0.126910 0.126892 0.126888 0.126884 0.126865 0.126824 0.126770 0.126723 0.126677 0.126630 0.126585 0.126551 0.126537 0.126534 0.126531 0.126518 0.126485 0.126441 0.126399 0.126356 0.126313 0.126273 0.126243 0.126230 0.126227 0.126225 0.126212 0.126183 0.126144 0.126106 0.126069 0.126031 0.125996 0.125970 0.125960 0.125957 0.125955 0.125944 0.125919 0.125885 0.125854 0.125822 0.125791 0.125762 0.125740 0.125732 0.125730 0.125728 0.125719 0.125698 0.125670 0.125645 0.125620 0.125595 0.125572 0.125554 0.125547 0.125546 0.125544 0.125537 0.125520 0.125497 0.125477 0.125456 0.125435 0.125415 0.125400 0.125395 0.125393 0.125392 0.125386 0.125372 0.125352 0.125334 0.125316 0.125298 0.125280 0.125267 0.125261 0.125260 
0.130752 0.130749 0.130740 0.130724 0.130702 0.130681 0.130659 0.130638 0.130616 0.130600 0.130591 0.130588 0.130585 0.130576 0.130559 0.130537 0.130514 0.130491 0.130468 0.130446 0.130428 0.130420 0.130416 0.130413 0.130404 0.130386 0.130363 0.130340 0.130316 0.130292 0.130268 0.130250 0.130240 0.130237 0.130233 0.130224 0.130205 0.130181 0.130155 0.130130 0.130104 0.130079 0.130059 0.130049 0.130045 0.130041 0.130031 0.130011 0.129985 0.129958 0.129931 0.129904 0.129876 0.129855 0.129844 0.129840 0.129836 0.129825 0.129803 0.129775 0.129747 0.129718 0.129690 0.129660 0.129637 0.129626 0.129621 0.129617 0.129605 0.129582 0.129553 0.129523 0.129493 0.129463 0.129432 0.129408 0.129396 0.129391 0.129386 0.129374 0.129350 0.129318 0.129287 0.129255 0.129223 0.129191 0.129166 0.129154 0.129149 0.129143 0.129131 0.129105 0.129072 0.129039 0.129006 0.128973 0.128941 0.128917 0.128907 0.128904 0.128900 0.128890 0.128872 0.128847 0.128823 0.128798 0.128774 0.128750 0.128731 0.128722 0.128718 0.128715 0.128706 0.128688 0.128665 0.128642 0.128619 0.128596 0.128574 0.128556 0.128548 0.128544 0.128541 0.128532 0.128515 0.128493 0.128472 0.128451 0.128430 0.128408 0.128392 0.128384 0.128380 0.128377 0.128369 0.128353 0.128332 0.128312 0.128291 0.128271 0.128252 0.128237 0.128229 0.128226 0.128223 0.128215 0.128200 0.128180 0.128162 0.128143 0.128124 0.128106 0.128092 0.128085 0.128082 0.128079 0.128072 0.128058 0.128040 0.128022 0.128004 0.127986 0.127969 0.127957 0.127950 0.127948 0.127945 0.127939 0.127926 0.127909 0.127892 0.127876 0.127859 0.127843 0.127831 0.127826 0.127823 0.127821 0.127815 0.127803 0.127788 0.127773 0.127757 0.127742 0.127727 0.127716 0.127710 0.127708 0.127706 0.127701 0.127690 0.127676 0.127663 0.127649 0.127635 0.127621 0.127610 0.127605 0.127603 0.127601 0.127596 0.127586 0.127574 0.127561 0.127548 0.127536 0.127523 0.127513 0.127508 0.127506 0.127504 0.127499 0.127490 0.127478 0.127467 0.127455 0.127443 0.127432 0.127423 0.127418 0.127416 0.127414 0.127410 0.127401 0.127389 0.127378 0.127367 0.127356 0.127345 0.127337 0.127333 0.127331 0.127329 0.127325 0.127316 0.127305 0.127295 0.127284 0.127274 0.127263 0.127255 0.127251 0.127249 0.127248 0.127243 0.127235 0.127225 0.127214 0.127204 0.127194 0.127183 0.127176 0.127172 0.127170 0.127169 0.127165 0.127157 0.127146 0.127136 0.127126 0.127115 0.127105 0.127098 0.127094 0.127093 
0.134314 0.134311 0.134298 0.134263 0.134215 0.134163 0.134110 0.134058 0.134001 0.133958 0.133941 0.133939 0.133936 0.133919 0.133873 0.133810 0.133743 0.133677 0.133610 0.133536 0.133480 0.133458 0.133455 0.133451 0.133429 0.133366 0.133283 0.133191 0.133099 0.133008 0.132906 0.132830 0.132800 0.132795 0.132790 0.132760 0.132678 0.132568 0.132462 0.132356 0.132251 0.132173 0.132114 0.132093 0.132089 0.132086 0.132064 0.132010 0.131938 0.131870 0.131802 0.131734 0.131669 0.131621 0.131603 0.131600 0.131597 0.131580 0.131534 0.131473 0.131416 0.131359 0.131302 0.131247 0.131206 0.131192 0.131189 0.131187 0.131172 0.131134 0.131083 0.131035 0.130987 0.130940 0.130894 0.130860 0.130847 0.130845 0.130843 0.130831 0.130798 0.130754 0.130712 0.130669 0.130627 0.130586 0.130555 0.130543 0.130541 
0.138163 0.138162 0.138158 0.138146 0.138131 0.138112 0.138092 0.138073 0.138050 0.138032 0.138025 0.138023 0.138021 0.138014 0.137993 0.137966 0.137936 0.137906 0.137876 0.137841 0.137816 0.137805 0.137802 0.137799 0.137789 0.137761 0.137725 0.137688 0.137651 0.137614 0.137574 0.137544 0.137532 0.137529 0.137526 0.137515 0.137488 0.137452 0.137415 0.137378 0.137341 0.137302 0.137273 0.137261 0.137258 0.137255 0.137242 0.137211 0.137170 0.137121 0.137072 0.137023 0.136970 0.136931 0.136912 0.136908 0.136904 0.136885 0.136840 0.136780 0.136714 0.136649 0.136583 0.136513 0.136460 0.136439 0.136434 0.136429 0.136411 0.136366 0.136306 0.136247 0.136188 0.136129 0.136072 0.136028 0.136011 0.136007 0.136003 0.135985 0.135944 0.135888 0.135835 0.135781 0.135727 0.135675 0.135636 0.135620 0.135616 0.135612 0.135596 0.135559 0.135509 0.135461 0.135413 0.135365 0.135319 0.135284 0.135270 0.135267 0.135263 0.135249 0.135215 0.135170 0.135126 0.135082 0.135039 0.134997 0.134965 0.134952 0.134949 0.134946 0.134933 0.134901 0.134860 0.134820 0.134780 0.134740 0.134700 0.134671 0.134659 0.134656 0.134653 0.134641 0.134612 0.134574 0.134537 0.134499 0.134462 0.134425 0.134397 0.134386 0.134383 0.134380 0.134369 0.134342 0.134306 0.134270 0.134234 0.134198 0.134162 0.134135 0.134124 0.134122 0.134119 0.134108 0.134081 0.134046 0.134011 0.133976 0.133941 0.133906 0.133880 0.133869 0.133866 
0.149810 0.149806 0.149784 0.149729 0.149656 0.149579 0.149501 0.149424 0.149340 0.149276 0.149250 0.149244 0.149238 0.149210 0.149140 0.149046 0.148944 0.148843 0.148741 0.148632 0.148550 0.148516 0.148509 0.148501 0.148466 0.148378 0.148260 0.148141 0.148021 0.147902 0.147777 0.147682 0.147644 0.147636 0.147627 0.147589 0.147491 0.147362 0.147236 0.147109 0.146982 0.146856 0.146761 0.146722 0.146714 0.146705 0.146667 0.146573 0.146448 0.146327 0.146205 0.146084 0.145969 0.145883 0.145850 0.145842 0.145835 0.145802 0.145719 0.145610 0.145502 0.145394 0.145286 0.145173 0.145088 0.145054 0.145046 0.145039 0.145005 0.144915 0.144797 0.144674 0.144551 0.144428 0.144296 0.144196 0.144155 0.144146 0.144137 0.144096 0.143990 0.143849 0.143702 0.143555 0.143408 0.143255 0.143139 0.143092 0.143081 0.143071 0.143024 0.142919 0.142780 0.142655 0.142530 0.142405 0.142290 0.142203 0.142169 0.142161 0.142154 0.142120 0.142043 0.141941 0.141845 0.141750 0.141655 0.141570 0.141506 0.141481 0.141475 0.141469 0.141444 0.141385 0.141306 0.141234 0.141161 0.141089 0.141025 0.140977 0.140958 0.140954 0.140949 0.140930 0.140884 0.140823 0.140766 0.140710 0.140653 0.140603 0.140565 0.140549 0.140546 0.140543 0.140527 0.140490 0.140441 0.140394 0.140348 0.140301 0.140259 0.140227 0.140214 0.140211 0.140208 0.140195 0.140163 0.140120 0.140079 0.140038 0.139997 0.139958 0.139929 0.139917 0.139914 0.139911 0.139899 0.139870 0.139830 0.139791 0.139753 0.139714 0.139675 0.139646 0.139634 0.139631 
0.168407 0.168392 0.168321 0.168139 0.167897 0.167637 0.167376 0.167116 0.166842 0.166636 0.166551 0.166533 0.166514 0.166429 0.166211 0.165922 0.165620 0.165317 0.165015 0.164707 0.164476 0.164381 0.164361 0.164341 0.164246 0.164008 0.163693 0.163373 0.163054 0.162735 0.162416 0.162176 0.162080 0.162059 0.162038 0.161941 0.161701 0.161382 0.161063 0.160743 0.160424 0.160107 0.159868 0.159773 0.159753 0.159732 0.159638 0.159406 0.159099 0.158797 0.158495 0.158193 0.157893 0.157666 0.157577 0.157557 0.157538 0.157448 0.157227 0.156934 0.156646 0.156358 0.156069 0.155786 0.155573 0.155489 0.155470 0.155456 0.155387 0.155231 0.155024 0.154841 0.154658 0.154475 0.154306 0.154178 0.154130 0.154119 0.154109 0.154061 0.153943 0.153786 0.153644 0.153502 0.153361 0.153227 0.153127 0.153089 0.153080 0.153072 0.153034 0.152938 0.152812 0.152695 0.152578 0.152461 0.152351 0.152268 0.152236 0.152229 0.152222 0.152190 0.152111 0.152005 0.151906 0.151807 0.151708 0.151614 0.151543 0.151515 0.151509 0.151503 0.151475 0.151405 0.151313 0.151226 0.151140 0.151054 0.150971 0.150909 0.150885 0.150879 0.150874 0.150849 0.150787 0.150705 0.150625 0.150545 0.150466 0.150388 0.150330 0.150306 0.150301 
