-1.770962 0.811256 12.481761
-1.772861 0.814828 12.468998
-1.774761 0.818400 12.456235
-1.857106 0.972991 11.904146
-1.938702 1.125988 11.357997
-2.023175 1.280246 10.812743
-2.202165 1.467759 10.343585
-1.775924 0.820586 12.448423
-1.856823 0.972458 11.906052
-1.857390 0.973524 11.902239
-1.938423 1.125456 11.359905
-1.938982 1.126519 11.356090
-2.022947 1.279738 10.814664
-2.023403 1.280755 10.810822
-2.200606 1.466766 10.344351
-1.780308 0.828828 12.418970
-1.852440 0.964216 11.935505
-1.861764 0.981763 11.872783
-1.934103 1.117242 11.389376
-1.943258 1.134714 11.326608
-2.019428 1.271884 10.844338
-2.026922 1.288608 10.781148
-2.177327 1.451788 10.357982
-1.789794 0.846645 12.355329
-1.800423 0.866595 12.284092
-1.811063 0.886549 12.212857
-1.821703 0.906503 12.141623
-1.832338 0.926455 12.070388
-1.842965 0.946403 11.999150
-1.871219 0.999566 11.809133
-1.881820 1.019503 11.737888
-1.892476 1.039464 11.666658
-1.903190 1.059451 11.595445
-1.913964 1.079465 11.524248
-1.924685 1.099455 11.453036
-1.952253 1.152311 11.262834
-1.962435 1.172061 11.191476
-1.972981 1.191972 11.120217
-1.984207 1.212187 11.049147
-1.996843 1.233025 10.978495
-2.009175 1.253729 10.907750
-2.031595 1.304224 10.716447
-2.035292 1.320997 10.643711
-2.039777 1.338140 10.571105
-2.054900 1.360032 10.501402
-2.084474 1.387458 10.440290
-2.128106 1.419903 10.389894
-3.454575 1.948004 9.774928
-4.790341 2.269192 9.253771
-5.998337 2.932002 8.862267
-6.664376 4.199175 8.532398
-7.420572 5.406119 8.171975
-8.323977 6.494602 7.779243
-9.408396 7.385756 7.351961
-10.654357 8.016478 6.902275
-12.005611 8.368167 6.449095
-13.400710 8.488433 6.006429
-2.203723 1.468751 10.342819
-3.452757 1.947588 9.775649
-3.456394 1.948419 9.774207
-4.788471 2.268793 9.254357
-4.792211 2.269591 9.253184
-5.997142 2.930475 8.862757
-5.999531 2.933530 8.861777
-6.663419 4.197485 8.532872
-6.665334 4.200866 8.531923
-7.419444 5.404549 8.172488
-7.421701 5.407688 8.171462
-8.322643 6.493219 7.779799
-8.325310 6.495985 7.778687
-9.406805 7.384703 7.352561
-9.409987 7.386809 7.351361
-10.652580 8.015800 6.902894
-10.656134 8.017156 6.901657
-12.003731 8.367867 6.449707
-12.007492 8.368468 6.448484
-13.398799 8.488422 6.007019
-2.227798 1.484082 10.330987
-3.424662 1.941174 9.786792
-3.484472 1.954866 9.763041
-4.759599 2.262611 9.263458
-4.821100 2.275753 9.244123
-5.978691 2.906875 8.870324
-6.015662 2.958821 8.854683
-6.648625 4.171367 8.540197
-6.680127 4.226984 8.524598
-7.402082 5.380246 8.180397
-7.439136 5.431934 8.163536
-8.302044 6.471851 7.788385
-8.345909 6.517353 7.770100
-9.382304 7.368315 7.361820
-9.434567 7.403073 7.342091
-10.625129 8.005319 6.912446
-10.683683 8.027362 6.892103
-11.974680 8.363224 6.459147
-12.036543 8.373111 6.439044
-13.369278 8.488254 6.016138
-2.336057 1.555816 10.274851
-2.504312 1.664397 10.174355
-2.695596 1.739441 10.085430
-2.893418 1.804465 10.002341
-3.091617 1.866634 9.918104
-3.295587 1.912932 9.837435
-3.612454 1.985433 9.710991
-3.814281 2.034609 9.626621
-4.016209 2.083994 9.542616
-4.218957 2.133421 9.460634
-4.422739 2.183197 9.381486
-4.628344 2.233025 9.307255
-4.953288 2.305749 9.203529
-5.159365 2.368501 9.141579
-5.364811 2.435999 9.082397
-5.563870 2.519440 9.024133
-5.730447 2.656368 8.965335
-5.887075 2.805509 8.906273
-6.079717 3.081148 8.824293
-6.172241 3.280149 8.778463
-6.272898 3.474492 8.729835
-6.374873 3.667333 8.678025
-6.477216 3.859885 8.625864
-6.581476 4.051370 8.573585
-6.748251 4.346365 8.490975
-6.857726 4.534543 8.437362
-6.969891 4.720944 8.383112
-7.085283 4.905143 8.328111
-7.202652 5.087955 8.272657
-7.323200 5.268451 8.216481
-7.518826 5.543099 8.127274
-7.646791 5.717879 8.069443
-7.782392 5.886226 8.009965
-7.919564 6.053191 7.950155
-8.059841 6.217277 7.889701
-8.207814 6.373876 7.827689
-8.441973 6.613373 7.730442
-8.599773 6.759246 7.666556
-8.761323 6.900677 7.601989
-8.926186 7.037945 7.536844
-9.096217 7.168320 7.470840
-9.270729 7.292265 7.404133
-9.548022 7.476127 7.299514
-9.732759 7.583340 7.231412
-9.919999 7.685978 7.163019
-10.109395 7.784344 7.094406
-10.304473 7.870527 7.025309
-10.500478 7.954604 6.956145
-10.811292 8.070037 6.848325
-11.014350 8.135055 6.778963
-11.218308 8.197170 6.709624
-11.425118 8.249223 6.640448
-11.633066 8.296747 6.571391
-11.842067 8.339613 6.502492
-12.169806 8.393108 6.395874
-12.381525 8.421257 6.327664
-12.593832 8.445222 6.259708
-12.806984 8.461979 6.192243
-13.020427 8.475791 6.124994
-13.234134 8.486223 6.058017
174 NaN NaN
-1.770012 0.809470 12.488142
-1.784319 0.836371 12.392020
-1.798659 0.863285 12.295907
-1.813014 0.890207 12.199798
-1.827369 0.917129 12.103689
-1.841710 0.944045 12.007577
-1.856021 0.970946 11.911455
-1.870298 0.997833 11.815325
-1.884600 1.024732 11.719202
-1.899004 1.051675 11.623106
-1.913543 1.078679 11.527048
-1.928007 1.105649 11.430969
-1.942104 1.132456 11.334790
-1.955689 1.159033 11.238473
-1.969505 1.185714 11.142219
-1.984651 1.212988 11.046333
-2.001779 1.241136 10.951034
-2.018105 1.268932 10.855495
-2.029588 1.294557 10.758672
-2.034255 1.317034 10.660498
-2.040304 1.340155 10.562570
-2.062538 1.370435 10.469391
-2.117067 1.412752 10.397051
-2.191288 1.460832 10.348930
-2.269853 1.510864 10.310318
-2.346105 1.562638 10.269468
-2.420196 1.613949 10.224254
-2.496674 1.660847 10.178280
-2.579502 1.699341 10.135708
-2.667263 1.730508 10.097097
-2.756775 1.758730 10.060237
-2.845761 1.788015 10.022941
-2.933996 1.818472 9.984801
-3.022695 1.847499 9.946631
-3.112933 1.872552 9.909282
-3.204555 1.893732 9.872897
-3.296749 1.913178 9.836982
-3.388837 1.932994 9.801001
-3.480527 1.953929 9.764635
-3.571835 1.975604 9.727748
-3.662802 1.997615 9.690220
-3.753532 2.019740 9.652190
-3.844193 2.041930 9.614032
-3.934950 2.064142 9.576117
-4.025882 2.086357 9.538628
-4.116983 2.108578 9.501551
-4.208242 2.130810 9.464874
-4.299688 2.153091 9.428694
-4.391387 2.175497 9.393239
-4.483403 2.198096 9.358744
-4.575847 2.220653 9.325384
-4.668878 2.242577 9.293258
-4.762635 2.263281 9.262460
-4.856915 2.283394 9.232890
-4.951097 2.305145 9.204190
-5.044433 2.330847 9.176024
-5.136650 2.360746 9.148292
-5.228550 2.392121 9.121129
-5.321088 2.422154 9.094637
-5.413965 2.451564 9.068636
-5.504822 2.486554 9.042545
-5.589711 2.533832 9.016075
-5.665661 2.594524 8.989577
-5.736059 2.661726 8.963235
-5.805965 2.729386 8.936733
-5.877216 2.795557 8.910043
-5.945727 2.864713 8.883844
-6.005886 2.941658 8.859171
-6.054524 3.027049 8.836840
-6.096177 3.116495 8.816096
-6.136611 3.206598 8.795745
-6.179619 3.295379 8.774885
-6.224639 3.382995 8.753341
-6.270511 3.469977 8.731033
-6.316391 3.556763 8.707991
-6.362232 3.643454 8.684518
-6.408103 3.730106 8.660957
-6.454103 3.816726 8.637532
-6.500410 3.903195 8.614155
-6.547212 3.989372 8.590684
-6.594625 4.075162 8.567023
-6.642543 4.160628 8.543209
-6.690822 4.245865 8.519302
-6.739366 4.330937 8.495343
-6.788239 4.415801 8.471316
-6.837535 4.500392 8.447191
-6.887347 4.584645 8.422943
-6.937759 4.668498 8.398551
-6.988851 4.751892 8.374001
-7.040656 4.834797 8.349286
-7.093008 4.917320 8.324446
-7.145691 4.999609 8.299530
-7.198591 5.081743 8.274564
-7.252040 5.163482 8.249473
-7.306495 5.244483 8.224153
-7.362261 5.324494 8.198539
-7.418915 5.403815 8.172728
-7.475816 5.482941 8.146862
-7.532506 5.562234 8.121043
-7.589540 5.641255 8.095148
-7.647825 5.719264 8.068979
-7.708045 5.795645 8.042392
-7.769639 5.870820 8.015513
-7.831598 5.945668 7.988558
-7.893115 6.020913 7.961696
-7.954714 6.096085 7.934817
-8.017491 6.170183 7.907691
-8.082347 6.242306 7.880140
-8.148878 6.312758 7.852254
-8.216115 6.382483 7.824229
-8.283230 6.452334 7.796228
-8.350456 6.522070 7.768205
-8.418576 6.590860 7.740008
-8.488274 6.657923 7.711511
-8.559443 6.723305 7.682741
-8.631555 6.787569 7.653801
-8.704141 6.851260 7.624775
-8.777186 6.914386 7.595668
-8.850958 6.976601 7.566433
-8.925702 7.037564 7.537033
-9.001500 7.097125 7.507458
-9.078323 7.155272 7.477716
-9.156134 7.212010 7.447818
-9.234782 7.267512 7.417792
-9.314041 7.322090 7.387676
-9.393708 7.376038 7.357500
-9.473927 7.429115 7.327247
-9.555111 7.480625 7.296860
-9.637621 7.529872 7.266302
-9.721284 7.577050 7.235604
-9.805491 7.623210 7.204845
-9.889682 7.669401 7.174088
-9.973937 7.715472 7.143325
-10.058962 7.760043 7.112480
-10.145403 7.801694 7.081502
-10.233173 7.840394 7.050421
-10.321521 7.877732 7.019304
-10.409748 7.915361 6.988195
-10.497772 7.953472 6.957097
-10.586255 7.990477 6.925973
-10.675838 8.024680 6.894800
-10.766567 8.055698 6.863604
-10.857878 8.084973 6.832410
-10.949246 8.114070 6.801217
-11.040510 8.143487 6.770021
-11.132016 8.172149 6.738830
-11.224115 8.198854 6.707659
-11.316899 8.223134 6.676528
-11.410121 8.245730 6.645436
-11.503548 8.267495 6.614366
-11.597076 8.288846 6.583309
-11.690785 8.309418 6.552277
-11.784769 8.328765 6.521287
-11.879067 8.346617 6.490355
-11.973641 8.363058 6.459484
-12.068451 8.378210 6.428675
-12.163453 8.392232 6.397924
-12.258600 8.405354 6.367222
-12.353847 8.417818 6.336556
-12.449184 8.429666 6.305927
-12.544666 8.440468 6.275363
-12.640342 8.449720 6.244900
-12.736209 8.457237 6.214559
-12.832182 8.463667 6.184298
-12.928181 8.469797 6.154060
-13.024171 8.476034 6.123814
-13.120211 8.481680 6.093615
-13.216365 8.485836 6.063536
-13.312640 8.487933 6.033634
-13.408982 8.488480 6.003874
-13.505349 8.488197 5.974193
-13.601720 8.487809 5.944521
-13.698072 8.488037 5.914791
-13.794373 8.489604 5.884937
