-2.373208 -1.165103 0.624788
-2.402600 -1.149397 1.476772
-2.438804 -1.124454 2.328291
-2.473387 -1.101711 3.179934
-2.497907 -1.092608 4.032157
-2.504260 -1.107736 4.884595
-2.490117 -1.145423 5.736263
-2.456959 -1.195902 6.586755
-2.415565 -1.247499 7.436833
-2.402886 -1.283433 8.288478
-2.459160 -1.286515 9.138847
-2.588128 -1.256571 9.980947
-2.761831 -1.208471 10.814275
-2.947402 -1.157567 11.644916
-3.089220 -1.122516 12.484630
-3.123258 -1.123703 13.335631
-3.046295 -1.162325 14.183540
-2.917519 -1.220318 15.024382
-2.789357 -1.280750 15.865164
-2.686669 -1.329554 16.710126
-2.626357 -1.353435 17.560138
-2.610729 -1.349534 18.412546
-2.623124 -1.328495 19.264824
-2.647729 -1.300447 20.116658
-2.677891 -1.269405 20.968211
-2.710284 -1.237161 21.819639
-2.741566 -1.205515 22.671130
-2.768404 -1.176263 23.522857
-2.373263 -1.165085 0.626787
-2.402520 -1.149449 1.474775
-2.402680 -1.149345 1.478770
-2.438718 -1.124515 2.326294
-2.438890 -1.124394 2.330288
-2.473314 -1.101753 3.177936
-2.473460 -1.101668 3.181932
-2.497869 -1.092602 4.030158
-2.497944 -1.092614 4.034157
-2.504269 -1.107671 4.882596
-2.504251 -1.107800 4.886594
-2.490175 -1.145314 5.734267
-2.490059 -1.145532 5.738259
-2.457057 -1.195777 6.584762
-2.456862 -1.196028 6.588749
-2.415642 -1.247391 7.434837
-2.415489 -1.247606 7.438828
-2.402850 -1.283381 8.286479
-2.402921 -1.283485 8.290477
-2.458923 -1.286556 9.136861
-2.459397 -1.286473 9.140832
-2.587762 -1.256668 9.978984
-2.588494 -1.256473 9.982911
-2.761394 -1.208594 10.812327
-2.762272 -1.208348 10.816222
-2.946994 -1.157676 11.642961
-2.947810 -1.157458 11.646871
-3.088976 -1.122568 12.482646
-3.089464 -1.122464 12.486615
-3.123331 -1.123649 13.333633
-3.123184 -1.123756 13.337629
-3.046554 -1.162207 14.181560
-3.046037 -1.162443 14.185519
-2.917836 -1.220173 15.022413
-2.917202 -1.220463 15.026351
-2.789637 -1.280616 15.863188
-2.789076 -1.280885 15.867139
-2.686865 -1.329465 16.708137
-2.686473 -1.329644 16.712114
-2.626445 -1.353413 17.558140
-2.626268 -1.353458 17.562136
-2.610724 -1.349568 18.410546
-2.610733 -1.349499 18.414545
-2.623077 -1.328555 19.262826
-2.623171 -1.328435 19.266823
-2.647663 -1.300518 20.114660
-2.647795 -1.300377 20.118655
-2.677816 -1.269480 20.966214
-2.677965 -1.269330 20.970208
-2.710208 -1.237236 21.817642
-2.710360 -1.237085 21.821636
-2.741496 -1.205587 22.669133
-2.741636 -1.205443 22.673128
-2.768350 -1.176327 23.520858
-2.373844 -1.164890 0.647689
-2.401685 -1.149989 1.453888
-2.403515 -1.148805 1.499657
-2.437816 -1.125145 2.305412
-2.439791 -1.123765 2.351170
-2.472550 -1.102197 3.157044
-2.474224 -1.101224 3.202824
-2.497460 -1.092566 4.009251
-2.498333 -1.092679 4.055064
-2.504363 -1.106993 4.861697
-2.504158 -1.108479 4.907494
-2.490752 -1.144199 5.713394
-2.489450 -1.146668 5.759130
-2.458079 -1.194465 6.563917
-2.455839 -1.197339 6.609594
-2.416501 -1.246231 7.413976
-2.414689 -1.248734 7.459693
-2.402476 -1.282833 8.265579
-2.403295 -1.284033 8.311377
-2.456641 -1.286898 9.116079
-2.461873 -1.286043 9.161592
-2.583940 -1.257685 9.958450
-2.592316 -1.255457 10.003445
-2.756833 -1.209871 10.791960
-2.766882 -1.207061 10.836577
-2.942725 -1.158811 11.622523
-2.952079 -1.156323 11.667310
-3.086422 -1.123112 12.461899
-3.091719 -1.122020 12.507398
-3.124101 -1.123085 13.312744
-3.122414 -1.124320 13.358518
-3.049257 -1.160972 14.160862
-3.043221 -1.163720 14.206200
-2.921147 -1.218658 15.001821
-2.913891 -1.221978 15.046943
-2.792567 -1.279208 15.842532
-2.786190 -1.282273 15.887803
-2.688915 -1.328530 16.687349
-2.684422 -1.330579 16.732903
-2.627366 -1.353174 17.537251
-2.625404 -1.353662 17.583028
-2.610679 -1.349928 18.389639
-2.610778 -1.349139 18.435453
-2.622581 -1.329184 19.241930
-2.623674 -1.327802 19.287718
-2.646975 -1.301251 20.093774
-2.648483 -1.299644 20.139542
-2.677038 -1.270262 20.945332
-2.678745 -1.268547 20.991090
-2.709414 -1.238027 21.796761
-2.711153 -1.236295 21.842517
-2.740767 -1.206343 22.648248
-2.742365 -1.204687 22.694012
-2.767779 -1.176998 23.499966
-2.376214 -1.164037 0.731062
-2.380127 -1.162357 0.858993
-2.384319 -1.160298 0.986909
-2.388778 -1.157876 1.114810
-2.393487 -1.155117 1.242696
-2.398391 -1.152092 1.370568
-2.406914 -1.146558 1.582969
-2.412222 -1.142986 1.710811
-2.417642 -1.139263 1.838644
-2.423129 -1.135448 1.966471
-2.428659 -1.131575 2.094295
-2.434205 -1.127679 2.222117
-2.443377 -1.121265 2.434467
-2.448825 -1.117503 2.562297
-2.454189 -1.113856 2.690135
-2.459437 -1.110364 2.817981
-2.464527 -1.107088 2.945840
-2.469450 -1.104038 3.073710
-2.477168 -1.099595 3.286168
-2.481505 -1.097340 3.414076
-2.485528 -1.095509 3.542002
-2.489254 -1.094081 3.669941
-2.492659 -1.093089 3.797894
-2.495696 -1.092596 3.925858
-2.499828 -1.093012 4.138461
-2.501728 -1.094058 4.266444
-2.503178 -1.095713 4.394427
-2.504160 -1.097986 4.522405
-2.504612 -1.100934 4.650372
-2.504611 -1.104428 4.778325
-2.503589 -1.111396 4.990852
-2.502382 -1.116225 5.118757
-2.500676 -1.121548 5.246637
-2.498531 -1.127278 5.374492
-2.495961 -1.133374 5.502322
-2.492960 -1.139815 5.630127
-2.486980 -1.151228 5.842380
-2.482808 -1.158455 5.970109
-2.478238 -1.165898 6.097813
-2.473275 -1.173525 6.225491
-2.467858 -1.181330 6.353139
-2.462057 -1.189254 6.480764
-2.451662 -1.202581 6.692735
-2.445133 -1.210619 6.820318
-2.438564 -1.218590 6.947902
-2.432104 -1.226437 7.075500
-2.425878 -1.234111 7.203119
-2.420015 -1.241556 7.330770
-2.411560 -1.253199 7.542926
-2.407466 -1.259679 7.670698
-2.404237 -1.265718 7.798516
-2.402002 -1.271259 7.926377
-2.401070 -1.276161 8.054281
-2.401462 -1.280421 8.182210
-2.405415 -1.285919 8.394740
-2.409978 -1.288194 8.522638
-2.416514 -1.289541 8.650463
-2.425072 -1.289944 8.778176
-2.435474 -1.289488 8.905751
-2.447634 -1.288221 9.033165
-2.471843 -1.284282 9.244386
-2.488584 -1.280931 9.371243
-2.506729 -1.276955 9.497888
-2.526191 -1.272399 9.624319
-2.547023 -1.267250 9.750508
-2.569039 -1.261598 9.876474
-2.607910 -1.251262 10.085278
-2.632542 -1.244548 10.210707
-2.658040 -1.237506 10.335945
-2.684315 -1.230185 10.461007
-2.711212 -1.222657 10.585924
-2.738653 -1.214963 10.710713
-2.785278 -1.201923 10.917772
-2.813686 -1.194023 11.042332
-2.842097 -1.186162 11.166893
-2.870335 -1.178396 11.291499
-2.898166 -1.170805 11.416208
-2.925381 -1.163455 11.541067
-2.968751 -1.151923 11.748919
-2.993429 -1.145494 11.874354
-3.016731 -1.139546 12.000075
-3.038332 -1.134188 12.126126
-3.058191 -1.129426 12.252485
-3.076105 -1.125326 12.379159
-3.100596 -1.120291 12.590318
-3.111659 -1.118492 12.717824
-3.119935 -1.117621 12.845549
-3.125225 -1.117739 12.973435
-3.127263 -1.118935 13.101410
-3.126176 -1.121171 13.229383
-3.118567 -1.126830 13.441800
-3.110794 -1.131315 13.569484
-3.100867 -1.136536 13.696991
-3.088812 -1.142492 13.824283
-3.075108 -1.149027 13.951379
-3.059941 -1.156083 14.078282
-3.031852 -1.168865 14.288673
-3.013505 -1.177111 14.415084
-2.994412 -1.185661 14.541364
-2.974750 -1.194463 14.667541
-2.954680 -1.203472 14.793638
-2.934387 -1.212638 14.919688
-2.900742 -1.228028 15.129089
-2.880752 -1.237310 15.255179
-2.861043 -1.246553 15.381316
-2.841723 -1.255700 15.507520
-2.822795 -1.264718 15.633793
-2.804310 -1.273568 15.760143
-2.774796 -1.287754 15.970251
-2.757875 -1.295891 16.096868
-2.741625 -1.303687 16.223594
-2.726079 -1.311109 16.350431
-2.711316 -1.318103 16.477386
-2.697491 -1.324568 16.604474
-2.676512 -1.334149 16.815861
-2.665199 -1.339132 16.943264
-2.654909 -1.343493 17.070776
-2.645877 -1.347075 17.198408
-2.637977 -1.349950 17.326132
-2.631170 -1.352141 17.453933
-2.622255 -1.354285 17.666377
-2.618254 -1.354724 17.794315
-2.615177 -1.354589 17.922279
-2.612922 -1.353944 18.050259
-2.611440 -1.352821 18.178247
-2.610785 -1.351189 18.306237
-2.611106 -1.347613 18.518850
-2.612085 -1.344982 18.646821
-2.613564 -1.342048 18.774780
-2.615550 -1.338810 18.902725
-2.617933 -1.335337 19.030658
-2.620646 -1.331670 19.158578
-2.625768 -1.325227 19.371063
-2.629137 -1.321191 19.498957
-2.632689 -1.317057 19.626843
-2.636402 -1.312836 19.754721
-2.640265 -1.308534 19.882592
-2.644289 -1.304145 20.010456
-2.651256 -1.296703 20.222855
-2.655606 -1.292139 20.350702
-2.660056 -1.287520 20.478543
-2.664607 -1.282848 20.606378
-2.669240 -1.278131 20.734209
-2.673940 -1.273378 20.862037
-2.681876 -1.265413 21.074384
-2.686712 -1.260588 21.202203
-2.691578 -1.255745 21.330021
-2.696461 -1.250894 21.457837
-2.701351 -1.246038 21.585653
-2.706237 -1.241186 21.713470
-2.714313 -1.233145 21.925809
-2.719132 -1.228328 22.053629
-2.723908 -1.223535 22.181452
-2.728624 -1.218773 22.309278
-2.733270 -1.214050 22.437109
-2.737839 -1.209367 22.564943
-2.745224 -1.201699 22.777321
-2.749529 -1.197160 22.905170
-2.753704 -1.192689 23.033025
-2.757753 -1.188287 23.160887
-2.761666 -1.183959 23.288756
-2.765415 -1.179718 23.416633
238 NaN NaN
-2.360889 -1.164118 0.000000
-2.362172 -1.165221 0.100508
-2.363742 -1.165937 0.201016
-2.365585 -1.166285 0.301522
-2.367685 -1.166283 0.402023
-2.370029 -1.165950 0.502517
-2.372603 -1.165306 0.603005
-2.375393 -1.164370 0.703485
-2.378385 -1.163159 0.803956
-2.381565 -1.161695 0.904418
-2.384919 -1.159994 1.004870
-2.388432 -1.158076 1.105313
-2.392092 -1.155961 1.205747
-2.395884 -1.153666 1.306172
-2.399794 -1.151212 1.406589
-2.403808 -1.148615 1.506998
-2.407913 -1.145896 1.607400
-2.412095 -1.143073 1.707797
-2.416339 -1.140165 1.808188
-2.420632 -1.137191 1.908575
-2.424961 -1.134169 2.008959
-2.429311 -1.131117 2.109341
-2.433668 -1.128056 2.209723
-2.438019 -1.125003 2.310105
-2.442351 -1.121977 2.410489
-2.446648 -1.118996 2.510876
-2.450898 -1.116081 2.611266
-2.455087 -1.113248 2.711662
-2.459200 -1.110518 2.812063
-2.463224 -1.107908 2.912472
-2.467145 -1.105438 3.012888
-2.470950 -1.103127 3.113312
-2.474624 -1.100992 3.213745
-2.478153 -1.099054 3.314187
-2.481523 -1.097330 3.414639
-2.484722 -1.095841 3.515099
-2.487733 -1.094604 3.615570
-2.490544 -1.093638 3.716048
-2.493141 -1.092964 3.816535
-2.495509 -1.092599 3.917030
-2.497635 -1.092563 4.017530
-2.499504 -1.092874 4.118035
-2.501102 -1.093552 4.218543
-2.502415 -1.094615 4.319051
-2.503432 -1.096079 4.419558
-2.504151 -1.097934 4.520061
-2.504573 -1.100165 4.620558
-2.504703 -1.102756 4.721048
-2.504542 -1.105689 4.821527
-2.504093 -1.108949 4.921996
-2.503358 -1.112520 5.022453
-2.502340 -1.116384 5.122896
-2.501042 -1.120526 5.223325
-2.499466 -1.124928 5.323739
-2.497615 -1.129576 5.424138
-2.495492 -1.134452 5.524520
-2.493099 -1.139539 5.624885
-2.490438 -1.144823 5.725234
-2.487514 -1.150285 5.825565
-2.484327 -1.155910 5.925880
-2.480882 -1.161682 6.026178
-2.477181 -1.167583 6.126459
-2.473226 -1.173599 6.226724
-2.469021 -1.179713 6.326972
-2.464568 -1.185908 6.427205
-2.459869 -1.192169 6.527423
-2.454955 -1.198474 6.627627
-2.449888 -1.204795 6.727823
-2.444737 -1.211104 6.828015
-2.439569 -1.217372 6.928209
-2.434453 -1.223571 7.028410
-2.429455 -1.229671 7.128623
-2.424643 -1.235645 7.228853
-2.420086 -1.241463 7.329104
-2.415851 -1.247096 7.429379
-2.412007 -1.252515 7.529682
-2.408623 -1.257692 7.630015
-2.405768 -1.262595 7.730377
-2.403513 -1.267196 7.830769
-2.401926 -1.271464 7.931188
-2.401078 -1.275369 8.031632
-2.401041 -1.278881 8.132093
-2.401886 -1.281968 8.232564
-2.403682 -1.284601 8.333036
-2.406503 -1.286747 8.433496
-2.410418 -1.288377 8.533928
-2.415499 -1.289459 8.634316
-2.421805 -1.289968 8.734639
-2.429326 -1.289911 8.834879
-2.438013 -1.289314 8.935024
-2.447820 -1.288200 9.035060
-2.458699 -1.286595 9.134979
-2.470601 -1.284524 9.234773
-2.483479 -1.282013 9.334435
-2.497284 -1.279088 9.433962
-2.511969 -1.275772 9.533351
-2.527485 -1.272092 9.632601
-2.543787 -1.268073 9.731711
-2.560825 -1.263740 9.830685
-2.578555 -1.259117 9.929523
-2.596930 -1.254229 10.028231
-2.615904 -1.249101 10.126814
-2.635432 -1.243757 10.225276
-2.655469 -1.238221 10.323626
-2.675972 -1.232517 10.421871
-2.696895 -1.226669 10.520018
-2.718197 -1.220699 10.618076
-2.739833 -1.214632 10.716055
-2.761761 -1.208491 10.813965
-2.783921 -1.202301 10.911819
-2.806219 -1.196093 11.009641
-2.828559 -1.189899 11.107454
-2.850841 -1.183748 11.205283
-2.872969 -1.177673 11.303151
-2.894845 -1.171705 11.401083
-2.916369 -1.165875 11.499101
-2.937442 -1.160216 11.597228
-2.957963 -1.154759 11.695482
-2.977829 -1.149537 11.793884
-2.996937 -1.144584 11.892449
-3.015180 -1.139934 11.991193
-3.032452 -1.135620 12.090126
-3.048643 -1.131677 12.189257
-3.063643 -1.128141 12.288591
-3.077339 -1.125047 12.388128
-3.089618 -1.122431 12.487862
-3.100366 -1.120330 12.587786
-3.109467 -1.118780 12.687882
-3.116807 -1.117816 12.788131
-3.122274 -1.117475 12.888502
-3.125765 -1.117787 12.988962
-3.127301 -1.118748 13.089467
-3.126984 -1.120324 13.189976
-3.124922 -1.122484 13.290453
-3.121222 -1.125193 13.390870
-3.115991 -1.128419 13.491204
-3.109337 -1.132128 13.591437
-3.101366 -1.136287 13.691556
-3.092184 -1.140865 13.791553
-3.081896 -1.145830 13.891424
-3.070604 -1.151149 13.991169
-3.058410 -1.156792 14.090789
-3.045413 -1.162728 14.190291
-3.031713 -1.168928 14.289683
-3.017405 -1.175363 14.388974
-3.002587 -1.182003 14.488176
-2.987351 -1.188821 14.587303
-2.971793 -1.195787 14.686370
-2.956006 -1.202874 14.785392
-2.940082 -1.210054 14.884386
-2.924114 -1.217300 14.983368
-2.908196 -1.224584 15.082355
-2.892404 -1.231879 15.181361
-2.876772 -1.239165 15.280393
-2.861329 -1.246418 15.379457
-2.846100 -1.253619 15.478559
-2.831115 -1.260744 15.577703
-2.816401 -1.267772 15.676894
-2.801986 -1.274682 15.776138
-2.787899 -1.281451 15.875438
-2.774167 -1.288056 15.974799
-2.760819 -1.294477 16.074225
-2.747884 -1.300690 16.173718
-2.735390 -1.306672 16.273282
-2.723366 -1.312402 16.372918
-2.711840 -1.317858 16.472629
-2.700843 -1.323015 16.572415
-2.690401 -1.327852 16.672277
-2.680545 -1.332347 16.772214
-2.671303 -1.336476 16.872226
-2.662704 -1.340217 16.972310
-2.654775 -1.343549 17.072464
-2.647546 -1.346448 17.172684
-2.641042 -1.348894 17.272966
-2.635259 -1.350888 17.373302
-2.630168 -1.352449 17.473684
-2.625741 -1.353595 17.574102
-2.621947 -1.354346 17.674551
-2.618757 -1.354721 17.775022
-2.616141 -1.354738 17.875511
-2.614070 -1.354417 17.976011
-2.612516 -1.353777 18.076520
-2.611448 -1.352836 18.177033
-2.610837 -1.351613 18.277546
-2.610654 -1.350128 18.378058
-2.610871 -1.348397 18.478565
-2.611458 -1.346441 18.579067
-2.612387 -1.344278 18.679563
-2.613630 -1.341925 18.780050
-2.615156 -1.339402 18.880530
-2.616939 -1.336726 18.981001
-2.618949 -1.333916 19.081465
-2.621159 -1.330990 19.181921
-2.623540 -1.327967 19.282370
-2.626063 -1.324864 19.382813
-2.628706 -1.321696 19.483251
-2.631460 -1.318468 19.583684
-2.634320 -1.315184 19.684113
-2.637281 -1.311845 19.784537
-2.640336 -1.308454 19.884956
-2.643482 -1.305016 19.985371
-2.646712 -1.301532 20.085781
-2.650020 -1.298005 20.186188
-2.653403 -1.294439 20.286590
-2.656853 -1.290836 20.386989
-2.660366 -1.287200 20.487385
-2.663936 -1.283533 20.587777
-2.667557 -1.279837 20.688167
-2.671225 -1.276117 20.788554
-2.674934 -1.272375 20.888939
-2.678678 -1.268614 20.989321
-2.682452 -1.264837 21.089702
-2.686251 -1.261047 21.190082
-2.690068 -1.257246 21.290460
-2.693899 -1.253438 21.390838
-2.697737 -1.249626 21.491215
-2.701579 -1.245813 21.591592
-2.705417 -1.242001 21.691969
-2.709246 -1.238194 21.792347
-2.713062 -1.234394 21.892725
-2.716858 -1.230605 21.993105
-2.720630 -1.226829 22.093486
-2.724371 -1.223070 22.193869
-2.728076 -1.219330 22.294254
-2.731740 -1.215612 22.394641
-2.735357 -1.211919 22.495031
-2.738921 -1.208255 22.595424
-2.742428 -1.204621 22.695820
-2.745872 -1.201022 22.796219
-2.749248 -1.197460 22.896622
-2.752549 -1.193937 22.997029
-2.755771 -1.190457 23.097440
-2.758908 -1.187023 23.197855
-2.761955 -1.183638 23.298275
-2.764906 -1.180304 23.398699
-2.767756 -1.177024 23.499128
-2.770500 -1.173802 23.599561
-2.773131 -1.170641 23.700000
-2.767959 -1.176035 23.522865
-2.496370 -1.027060 23.529412
-2.239171 -0.854661 23.540091
-1.999915 -0.658432 23.555152
-1.782096 -0.439019 23.574693
-1.588673 -0.198225 23.598616
-1.421614 0.061152 23.626630
-1.281649 0.335716 23.658286
-2.766179 -1.175123 23.522899
-2.498078 -1.028097 23.529357
-2.494675 -1.025999 23.529472
-2.240765 -0.855866 23.540005
-2.237585 -0.853447 23.540179
-2.001371 -0.659798 23.555036
-1.998459 -0.657066 23.555268
-1.783401 -0.440528 23.574548
-1.780792 -0.437510 23.574838
-1.589811 -0.199861 23.598444
-1.587535 -0.196589 23.598789
-1.422578 0.059411 23.626433
-1.420650 0.062894 23.626826
-1.282439 0.333892 23.658068
-2.755192 -1.169494 23.523107
-2.508730 -1.034335 23.529044
-2.484214 -1.019450 23.529840
-2.250798 -0.863046 23.539524
-2.227788 -0.845950 23.540718
-2.010639 -0.667930 23.554377
-1.989470 -0.648632 23.555986
-1.791758 -0.449578 23.573708
-1.772738 -0.428194 23.575732
-1.597148 -0.209739 23.597430
-1.580510 -0.186491 23.599851
-1.428831 0.048830 23.625260
-1.414700 0.073644 23.628040
-1.287599 0.322753 23.656756
-2.726294 -1.154688 23.523654
-2.687803 -1.134967 23.524383
-2.649712 -1.114496 23.525241
-2.611785 -1.093719 23.526151
-2.574057 -1.072592 23.527122
-2.536744 -1.050740 23.528220
-2.456701 -1.002226 23.530808
-2.420053 -0.979284 23.532098
-2.383928 -0.955545 23.533530
-2.348001 -0.931502 23.535016
-2.312338 -0.907082 23.536570
-2.277188 -0.881930 23.538257
-2.202024 -0.826233 23.542138
-2.167706 -0.799971 23.544029
-2.134042 -0.772893 23.546072
-2.100613 -0.745524 23.548169
-2.067516 -0.717767 23.550340
-2.035029 -0.689301 23.552646
-1.965828 -0.626449 23.557874
-1.934338 -0.596901 23.560388
-1.903632 -0.566559 23.563058
-1.873188 -0.535953 23.565781
-1.843145 -0.504968 23.568579
-1.813794 -0.473331 23.571509
-1.751554 -0.403693 23.578085
-1.723339 -0.371057 23.581219
-1.696018 -0.337690 23.584506
-1.668975 -0.304096 23.587840
-1.642388 -0.270155 23.591249
-1.616548 -0.235647 23.594780
-1.562032 -0.159933 23.602645
-1.537420 -0.124557 23.606366
-1.513776 -0.088548 23.610230
-1.490410 -0.052357 23.614136
-1.467538 -0.015867 23.618111
-1.445430 0.021087 23.622194
-1.399049 0.101919 23.631233
-1.378203 0.139580 23.635486
-1.358354 0.177757 23.639867
-1.338769 0.216071 23.644281
-1.319693 0.254628 23.648758
-1.301362 0.293539 23.653326
24 NaN NaN
-2.768404 -1.176263 23.522857
-2.676646 -1.129250 23.524594
-2.586231 -1.079721 23.526764
-2.497279 -1.027629 23.529380
-2.409917 -0.972939 23.532455
-2.324273 -0.915622 23.535998
-2.240480 -0.855663 23.540019
-2.158671 -0.793057 23.544527
-2.078980 -0.727813 23.549527
-2.001537 -0.659954 23.555023
-1.926468 -0.589518 23.561016
-1.853895 -0.516556 23.567506
-1.783927 -0.441137 23.574490
-1.716666 -0.363339 23.581960
-1.652199 -0.283257 23.589909
-1.590600 -0.200994 23.598325
-1.531928 -0.116665 23.607196
-1.476227 -0.030391 23.616507
-1.423524 0.057700 23.626240
-1.373831 0.147479 23.636378
-1.327143 0.238814 23.646902
-1.283444 0.331574 23.657792
-1.242701 0.425629 23.669027
-1.204874 0.520856 23.680589
-2.788929 -1.280491 15.865155
-2.620965 -1.175283 15.862420
-2.459580 -1.060236 15.862335
-2.305941 -0.935089 15.865098
-2.161286 -0.799768 15.870885
-2.026860 -0.654443 15.879826
-1.903822 -0.499564 15.891992
-1.793318 -0.335762 15.907416
-1.696353 -0.163927 15.926068
-1.612884 0.014503 15.947680
-1.542927 0.198305 15.972031
-1.486196 0.386279 15.998865
-2.787219 -1.279454 15.865121
-2.622642 -1.176373 15.862440
-2.619288 -1.174193 15.862400
-2.461181 -1.061435 15.862325
-2.457979 -1.059037 15.862344
-2.307451 -0.936400 15.865056
-2.304430 -0.933779 15.865140
-2.162691 -0.801190 15.870809
-2.159882 -0.798346 15.870960
-2.028144 -0.655972 15.879715
-2.025576 -0.652914 15.879937
-1.904974 -0.501193 15.891846
-1.902671 -0.497935 15.892139
-1.794399 -0.337437 15.907252
-1.792237 -0.334088 15.907580
-1.697288 -0.165683 15.925870
-1.695418 -0.162170 15.926266
-1.613671 0.012679 15.947450
-1.612097 0.016328 15.947909
-1.543566 0.196428 15.971772
-1.542288 0.200182 15.972289
-1.486692 0.384363 15.998581
-2.780005 -1.275079 15.864977
-2.629717 -1.180972 15.862525
-2.612213 -1.169595 15.862315
-2.467935 -1.066493 15.862284
-2.451226 -1.053978 15.862385
-2.313822 -0.941929 15.864880
-2.298059 -0.928249 15.865316
-2.168617 -0.807189 15.870489
-2.153956 -0.792347 15.871280
-2.033563 -0.662424 15.879247
-2.020157 -0.646462 15.880406
-1.909831 -0.508065 15.891227
-1.897814 -0.491063 15.892757
-1.798960 -0.344503 15.906560
-1.787894 -0.326893 15.908324
-1.701234 -0.173095 15.925035
-1.691471 -0.154758 15.927101
-1.616989 0.004981 15.946481
-1.608779 0.024025 15.948878
-1.546263 0.188506 15.970681
-1.539591 0.208103 15.973380
-1.488788 0.376277 15.997382
-2.762427 -1.264418 15.864628
-2.739132 -1.250290 15.864164
-2.715838 -1.236163 15.863700
-2.692645 -1.221873 15.863279
-2.669801 -1.207025 15.863006
-2.646956 -1.192177 15.862732
-2.595255 -1.157971 15.862222
-2.572905 -1.142386 15.862146
-2.550555 -1.126801 15.862071
-2.528205 -1.111217 15.861996
-2.506200 -1.095154 15.862053
-2.484392 -1.078820 15.862185
-2.434768 -1.041652 15.862485
-2.413541 -1.024574 15.862828
-2.392324 -1.007481 15.863175
-2.371107 -0.990389 15.863522
-2.349923 -0.973258 15.863880
-2.329349 -0.955403 15.864450
-2.282532 -0.914775 15.865746
-2.262232 -0.896620 15.866406
-2.242352 -0.878004 15.867204
-2.222472 -0.859388 15.868003
-2.202592 -0.840772 15.868802
-2.183056 -0.821806 15.869709
-2.139516 -0.777729 15.872060
-2.120381 -0.758359 15.873093
-2.101889 -0.738390 15.874319
-2.083549 -0.718279 15.875591
-2.065210 -0.698167 15.876863
-2.046871 -0.678056 15.878135
-2.006954 -0.630741 15.881548
-1.989457 -0.609908 15.883061
-1.972156 -0.588923 15.884627
-1.955546 -0.567395 15.886382
-1.938936 -0.545867 15.888137
-1.922326 -0.524339 15.889892
-1.885977 -0.474317 15.894263
-1.870292 -0.452126 15.896260
-1.854607 -0.429936 15.898256
-1.839528 -0.407350 15.900403
-1.824801 -0.384535 15.902638
-1.810074 -0.361720 15.904873
-1.777522 -0.309236 15.910188
-1.763778 -0.285839 15.912657
-1.750034 -0.262442 15.915126
-1.736336 -0.239021 15.917605
-1.723593 -0.215088 15.920302
-1.710851 -0.191156 15.922999
-1.682250 -0.136508 15.929223
-1.670519 -0.112089 15.932140
-1.658788 -0.087670 15.935058
-1.647057 -0.063250 15.937975
-1.635792 -0.038631 15.940990
-1.625076 -0.013776 15.944119
-1.600692 0.042782 15.951240
-1.590787 0.067947 15.954531
-1.581081 0.093188 15.957863
-1.571375 0.118430 15.961194
-1.561669 0.143671 15.964525
-1.552834 0.169205 15.968023
-1.533021 0.227405 15.976038
-1.524525 0.253044 15.979600
-1.516799 0.278910 15.983303
-1.509074 0.304775 15.987006
-1.501348 0.330641 15.990709
-1.493894 0.356575 15.994460
23 NaN NaN
-2.789357 -1.280750 15.865164
-2.697777 -1.225209 15.863341
-2.607966 -1.166834 15.862264
-2.520099 -1.105564 15.861969
-2.434363 -1.041348 15.862487
-2.350952 -0.974152 15.863852
-2.270068 -0.903958 15.866091
-2.191913 -0.830772 15.869231
-2.116688 -0.754620 15.873293
-2.044591 -0.675555 15.878293
-1.975807 -0.593655 15.884241
-1.910509 -0.509023 15.891141
-1.848847 -0.421786 15.898989
-1.790949 -0.332094 15.907776
-1.736917 -0.240113 15.917482
-1.686822 -0.146027 15.928085
-1.640705 -0.050028 15.939555
-1.598577 0.047687 15.951857
-1.560420 0.146918 15.964954
-1.526190 0.247471 15.978802
-1.495817 0.349157 15.993360
-1.469214 0.451798 16.008582
-1.446276 0.555227 16.024426
-2.946966 -1.157323 11.644906
-2.719803 -1.023389 11.640762
-2.502639 -0.873759 11.641157
-2.298316 -0.707126 11.646744
-2.108494 -0.524409 11.657565
-1.935796 -0.325804 11.673940
-1.781581 -0.113028 11.695710
-1.647174 0.112235 11.722716
-1.533061 0.347818 11.754588
-1.438758 0.591424 11.790797
-2.945221 -1.156347 11.644863
-2.721492 -1.024461 11.640778
-2.718115 -1.022317 11.640747
-2.504224 -0.874978 11.641129
-2.501054 -0.872539 11.641186
-2.299819 -0.708445 11.646684
-2.296814 -0.705808 11.646804
-2.109853 -0.525872 11.657456
-2.107134 -0.522946 11.657673
-1.937049 -0.327357 11.673799
-1.934544 -0.324251 11.674082
-1.782660 -0.114701 11.695520
-1.780502 -0.111355 11.695899
-1.648133 0.110493 11.722496
-1.646215 0.113976 11.722936
-1.533839 0.345994 11.754327
-1.532284 0.349642 11.754849
-1.439418 0.589558 11.790511
-2.935857 -1.151107 11.644636
-2.730553 -1.030212 11.640861
-2.709054 -1.016565 11.640664
-2.512809 -0.881417 11.641007
-2.492549 -0.865994 11.641339
-2.307882 -0.715522 11.646362
-2.288751 -0.698731 11.647125
-2.117148 -0.533723 11.656873
-2.099839 -0.515095 11.658256
-1.943770 -0.335690 11.673039
-1.927823 -0.315917 11.674841
-1.788452 -0.123680 11.694503
-1.774710 -0.102376 11.696916
-1.653279 0.101149 11.721317
-1.641069 0.123321 11.724115
-1.538014 0.336206 11.752925
-1.528109 0.359430 11.756251
-1.442960 0.579543 11.788976
-2.911815 -1.137654 11.644051
-2.879843 -1.119765 11.643274
-2.848009 -1.101635 11.642565
-2.816532 -1.082879 11.642030
-2.785056 -1.064124 11.641496
-2.753817 -1.044979 11.641073
-2.685790 -1.001799 11.640452
-2.655323 -0.981442 11.640379
-2.624970 -0.960910 11.640357
-2.594618 -0.940378 11.640335
-2.564877 -0.918972 11.640574
-2.535157 -0.897536 11.640821
-2.470713 -0.849192 11.641734
-2.441674 -0.826847 11.642258
-2.412996 -0.804052 11.642922
-2.384687 -0.780797 11.643730
-2.356378 -0.757542 11.644538
-2.328583 -0.733690 11.645537
-2.268068 -0.680543 11.647957
-2.241366 -0.655484 11.649350
-2.214665 -0.630426 11.650742
-2.188127 -0.605203 11.652190
-2.162301 -0.579261 11.653880
-2.136475 -0.553319 11.655571
-2.081111 -0.494938 11.659754
-2.056205 -0.468132 11.661745
-2.031983 -0.440729 11.663950
-2.008038 -0.413084 11.666243
-1.984094 -0.385440 11.668535
-1.961024 -0.357086 11.671090
-1.910816 -0.294336 11.676861
-1.888901 -0.265109 11.679751
-1.866987 -0.235881 11.682642
-1.845500 -0.206357 11.685650
-1.824644 -0.176395 11.688834
-1.803789 -0.146432 11.692017
-1.759841 -0.079324 11.699527
-1.740067 -0.048669 11.702998
-1.721313 -0.017410 11.706732
-1.702636 0.013893 11.710485
-1.684063 0.045253 11.714264
-1.666492 0.077158 11.718290
-1.628364 0.147564 11.727263
-1.611904 0.180022 11.731553
-1.595443 0.212479 11.735843
-1.579671 0.245250 11.740290
-1.564319 0.278212 11.744834
-1.548967 0.311174 11.749378
-1.517393 0.384560 11.759851
-1.503302 0.418039 11.764672
-1.490139 0.451867 11.769691
-1.476975 0.485696 11.774710
-1.464146 0.519638 11.779797
-1.452053 0.553831 11.785036
25 NaN NaN
-2.947402 -1.157567 11.644916
-2.856729 -1.106831 11.642713
-2.767461 -1.053639 11.641198
-2.679722 -0.997947 11.640396
-2.593641 -0.939718 11.640335
-2.509355 -0.878926 11.641036
-2.427000 -0.815556 11.642523
-2.346716 -0.749605 11.644814
-2.268644 -0.681084 11.647927
-2.192920 -0.610017 11.651876
-2.119678 -0.536446 11.656671
-2.049044 -0.460426 11.662317
-1.981137 -0.382026 11.668818
-1.916062 -0.301333 11.676170
-1.853914 -0.218445 11.684366
-1.794769 -0.133472 11.693394
-1.738690 -0.046534 11.703240
-1.685721 0.042242 11.713884
-1.635891 0.132723 11.725301
-1.589209 0.224771 11.737467
-1.545670 0.318252 11.750353
-1.505252 0.413027 11.763929
-1.467920 0.508965 11.778162
-1.433626 0.605936 11.793020
-1.402310 0.703819 11.808471
-2.415202 -1.247155 7.436852
-2.300517 -1.136623 7.443295
-2.190436 -1.021550 7.450370
-2.086154 -0.901240 7.458193
-1.987618 -0.776239 7.466707
-1.895620 -0.646393 7.475960
-1.810539 -0.511978 7.485939
-1.732548 -0.373370 7.496613
-1.662525 -0.230636 7.508011
-1.599840 -0.084571 7.520029
-1.545893 0.064884 7.532727
-1.499374 0.216768 7.545959
-1.461550 0.371002 7.559767
-1.431221 0.526835 7.574029
-1.408924 0.683987 7.588738
-1.394002 0.841968 7.603820
-2.413749 -1.245783 7.436931
-2.301930 -1.138035 7.443211
-2.299103 -1.135211 7.443379
-2.191764 -1.023042 7.450274
-2.189108 -1.020058 7.450465
-2.087436 -0.902773 7.458091
-2.084873 -0.899708 7.458294
-1.988799 -0.777850 7.466594
-1.986438 -0.774629 7.466820
-1.896746 -0.648042 7.475841
-1.894493 -0.644745 7.476079
-1.811551 -0.513698 7.485808
-1.809527 -0.510258 7.486070
-1.733499 -0.375124 7.496477
-1.731596 -0.371616 7.496750
-1.663352 -0.232451 7.507864
-1.661699 -0.228820 7.508159
-1.600602 -0.086414 7.519876
-1.599078 -0.082728 7.520181
-1.546525 0.062993 7.532564
-1.545262 0.066775 7.532889
-1.499874 0.214839 7.545787
-1.498874 0.218697 7.546130
-1.461986 0.369058 7.559591
-1.461115 0.372946 7.559942
-1.431530 0.524868 7.573846
-1.430913 0.528803 7.574212
-1.409171 0.682011 7.588552
-1.408678 0.685963 7.588924
-1.394130 0.839981 7.603628
-2.408607 -1.240925 7.437210
-2.306935 -1.143035 7.442912
-2.294099 -1.130211 7.443678
-2.196465 -1.028325 7.449935
-2.184407 -1.014775 7.450804
-2.091972 -0.908197 7.457732
-2.080337 -0.894284 7.458653
-1.992978 -0.783550 7.466193
-1.982258 -0.768928 7.467221
-1.900734 -0.653876 7.475420
-1.890505 -0.638910 7.476501
-1.815132 -0.519787 7.485346
-1.805945 -0.504168 7.486533
-1.736868 -0.381332 7.495994
-1.728228 -0.365408 7.497233
-1.666277 -0.238877 7.507342
-1.658774 -0.222394 7.508681
-1.603299 -0.092937 7.519335
-1.596548 -0.076140 7.520735
-1.548759 0.056300 7.531988
-1.543027 0.073468 7.533465
-1.501729 0.208034 7.545185
-1.497103 0.225525 7.546738
-1.463527 0.362176 7.558969
-1.459574 0.379828 7.560564
-1.432621 0.517902 7.573198
-1.429822 0.535768 7.574859
-1.410043 0.675016 7.587892
-1.407805 0.692958 7.589584
-1.394581 0.832948 7.602949
-2.396678 -1.229657 7.437858
-2.380927 -1.214778 7.438713
-2.365177 -1.199899 7.439568
-2.349426 -1.185020 7.440423
-2.333869 -1.169942 7.441305
-2.318542 -1.154631 7.442219
-2.282491 -1.118615 7.444371
-2.267196 -1.103274 7.445289
-2.252319 -1.087527 7.446265
-2.237443 -1.071781 7.447240
-2.222567 -1.056034 7.448216
-2.207691 -1.040288 7.449191
-2.173503 -1.002520 7.451590
-2.159105 -0.986340 7.452627
-2.144707 -0.970159 7.453665
-2.130309 -0.953978 7.454702
-2.116385 -0.937391 7.455798
-2.102493 -0.920778 7.456899
-2.069816 -0.881703 7.459486
-2.056217 -0.864855 7.460622
-2.042857 -0.847814 7.461785
-2.029497 -0.830774 7.462949
-2.016138 -0.813734 7.464112
-2.002778 -0.796693 7.465276
-1.972565 -0.755705 7.468151
-1.959765 -0.738244 7.469378
-1.946965 -0.720784 7.470605
-1.934412 -0.703151 7.471859
-1.922198 -0.685281 7.473151
-1.909984 -0.667410 7.474442
-1.881275 -0.625364 7.477481
-1.869671 -0.607096 7.478835
-1.858067 -0.588828 7.480190
-1.846464 -0.570559 7.481544
-1.834860 -0.552291 7.482899
-1.823441 -0.533912 7.484272
-1.797637 -0.490044 7.487606
-1.786666 -0.471393 7.489024
-1.775696 -0.452743 7.490441
-1.765315 -0.433763 7.491915
-1.754998 -0.414748 7.493394
-1.744681 -0.395733 7.494873
-1.720759 -0.350830 7.498384
-1.711113 -0.331471 7.499925
-1.701468 -0.312111 7.501465
-1.691823 -0.292751 7.503005
-1.682177 -0.273391 7.504545
-1.673062 -0.253783 7.506131
-1.651989 -0.207488 7.509892
-1.643030 -0.187806 7.511491
-1.634338 -0.168010 7.513112
-1.626077 -0.148030 7.514768
-1.617816 -0.128049 7.516425
-1.609555 -0.108069 7.518081
-1.590826 -0.060801 7.522031
-1.583271 -0.040548 7.523742
-1.575716 -0.020294 7.525453
-1.568161 -0.000041 7.527165
-1.560787 0.020275 7.528889
-1.553943 0.040775 7.530653
-1.537844 0.088993 7.534801
-1.531000 0.109493 7.536565
-1.524771 0.130183 7.538371
-1.518639 0.150903 7.540185
-1.512506 0.171623 7.541998
-1.506374 0.192343 7.543812
-1.492996 0.241362 7.548147
-1.487573 0.262275 7.550007
-1.482150 0.283187 7.551868
-1.476727 0.304100 7.553729
-1.471820 0.325134 7.555622
-1.467101 0.346213 7.557526
-1.456000 0.395791 7.562007
-1.451521 0.416918 7.563926
-1.447496 0.438137 7.565872
-1.443471 0.459355 7.567818
-1.439446 0.480573 7.569764
-1.435421 0.501792 7.571710
-1.427292 0.551924 7.576362
-1.423950 0.573257 7.578347
-1.420608 0.594590 7.580331
-1.417412 0.615943 7.582323
-1.414739 0.637367 7.584343
-1.412067 0.658791 7.586363
-1.405781 0.709182 7.591113
-1.403650 0.730663 7.593160
-1.401631 0.752155 7.595212
-1.399612 0.773647 7.597265
-1.397593 0.795140 7.599317
-1.395629 0.816636 7.601372
25 NaN NaN
-2.415565 -1.247499 7.436833
-2.340890 -1.176957 7.440886
-2.268225 -1.104363 7.445222
-2.197696 -1.029709 7.449847
-2.129435 -0.952995 7.454765
-2.063570 -0.874234 7.459981
-2.000232 -0.793446 7.465498
-1.939549 -0.710667 7.471316
-1.881643 -0.625944 7.477438
-1.826631 -0.539335 7.483860
-1.774620 -0.450914 7.490580
-1.725708 -0.360764 7.497594
-1.679980 -0.268981 7.504896
-1.637505 -0.175670 7.512477
-1.598340 -0.080944 7.520329
-1.562522 0.015076 7.528442
-1.530074 0.112265 7.536803
-1.501000 0.210497 7.545401
-1.475289 0.309642 7.554222
-1.452914 0.409574 7.563252
-1.433832 0.510170 7.572478
-1.417990 0.611309 7.581886
-1.405320 0.712880 7.591462
-1.395748 0.814775 7.601192
-1.389191 0.916894 7.611063
-2.503840 -1.107465 4.884572
-2.365979 -1.016399 4.877404
-2.232680 -0.918633 4.872914
-2.105531 -0.812902 4.871765
-1.984679 -0.700062 4.873774
-1.871485 -0.579642 4.879357
-1.766417 -0.452298 4.888450
-1.670199 -0.318411 4.901117
-1.583626 -0.178488 4.917401
-1.506430 -0.033568 4.936985
-1.439709 0.115966 4.960011
-1.382093 0.268805 4.985851
-1.334978 0.424667 5.014740
-2.502160 -1.106384 4.884477
-2.367622 -1.017537 4.877476
-2.364335 -1.015261 4.877332
-2.234238 -0.919887 4.872938
-2.231123 -0.917379 4.872889
-2.107039 -0.814215 4.871763
-2.104022 -0.811589 4.871766
-1.986077 -0.701492 4.873720
-1.983282 -0.698632 4.873829
-1.872820 -0.581129 4.879275
-1.870149 -0.578156 4.879439
-1.767618 -0.453891 4.888312
-1.765216 -0.450705 4.888589
-1.671328 -0.320054 4.900950
-1.669070 -0.316769 4.901283
-1.584604 -0.180218 4.917180
-1.582648 -0.176757 4.917623
-1.507331 -0.035336 4.936737
-1.505530 -0.031799 4.937233
-1.440454 0.114134 4.959713
-1.438964 0.117798 4.960309
-1.382761 0.266947 4.985530
-1.381425 0.270662 4.986172
-1.335497 0.422770 5.014377
-2.496037 -1.102445 4.884132
-2.373611 -1.021684 4.877739
-2.358347 -1.011114 4.877068
-2.239914 -0.924459 4.873027
-2.225446 -0.912807 4.872801
-2.112537 -0.819001 4.871759
-2.098524 -0.806802 4.871770
-1.991170 -0.706703 4.873521
-1.978189 -0.693421 4.874028
-1.877688 -0.586546 4.878975
-1.865281 -0.572739 4.879739
-1.771994 -0.459698 4.887807
-1.760839 -0.444898 4.889094
-1.675442 -0.326040 4.900343
-1.664956 -0.310782 4.901890
-1.588169 -0.186525 4.916372
-1.579084 -0.170451 4.918431
-1.510613 -0.041781 4.935833
-1.502248 -0.025354 4.938137
-1.443169 0.107457 4.958627
-1.436248 0.124475 4.961394
-1.385197 0.260177 4.984360
-1.379226 0.277500 4.987411
-1.337389 0.415857 5.013052
-2.481707 -1.093224 4.883326
-2.462772 -1.081041 4.882259
-2.443836 -1.068858 4.881193
-2.424901 -1.056675 4.880127
-2.406147 -1.044213 4.879170
-2.387627 -1.031389 4.878356
-2.344330 -1.001408 4.876452
-2.325817 -0.988575 4.875641
-2.307757 -0.975098 4.875091
-2.289697 -0.961621 4.874540
-2.271636 -0.948145 4.873990
-2.253576 -0.934668 4.873439
-2.212160 -0.902108 4.872593
-2.194605 -0.887971 4.872319
-2.177051 -0.873833 4.872044
-2.159496 -0.859696 4.871770
-2.142405 -0.845003 4.871736
-2.125404 -0.830203 4.871749
-2.085657 -0.795601 4.871780
-2.068908 -0.780524 4.871917
-2.052508 -0.765062 4.872227
-2.036109 -0.749600 4.872538
-2.019709 -0.734139 4.872848
-2.003310 -0.718677 4.873158
-1.966269 -0.681226 4.874494
-1.950520 -0.665111 4.875110
-1.934770 -0.648997 4.875726
-1.919188 -0.632729 4.876417
-1.904135 -0.615976 4.877345
-1.889081 -0.599224 4.878272
-1.853888 -0.560061 4.880441
-1.839443 -0.542802 4.881629
-1.825129 -0.525433 4.882873
-1.810815 -0.508064 4.884117
-1.796501 -0.490696 4.885361
-1.782238 -0.473289 4.886625
-1.750595 -0.431307 4.890276
-1.737060 -0.413350 4.891837
-1.723525 -0.395393 4.893399
-1.710515 -0.377077 4.895165
-1.697793 -0.358564 4.897043
-1.685070 -0.340051 4.898921
-1.655518 -0.296655 4.903383
-1.643636 -0.277625 4.905574
-1.631753 -0.258596 4.907765
-1.619871 -0.239567 4.909956
-1.607989 -0.220537 4.912147
-1.596510 -0.201286 4.914482
-1.570742 -0.155690 4.920321
-1.559720 -0.136187 4.922818
-1.548742 -0.116662 4.925331
-1.538593 -0.096730 4.928126
-1.528443 -0.076798 4.930922
-1.518294 -0.056866 4.933717
-1.495120 -0.010028 4.940434
-1.485848 0.010285 4.943516
-1.476576 0.030599 4.946599
-1.467304 0.050912 4.949681
-1.458032 0.071225 4.952764
-1.449524 0.091831 4.956086
-1.429893 0.140101 4.963935
-1.421496 0.160749 4.967292
-1.413492 0.181527 4.970768
-1.405960 0.202462 4.974386
-1.398429 0.223398 4.978004
-1.390897 0.244333 4.981622
-1.374169 0.293528 4.990335
-1.367487 0.314706 4.994200
-1.360805 0.335885 4.998064
-1.354123 0.357063 5.001928
-1.347671 0.378297 5.005857
-1.341819 0.399676 5.009953
20 NaN NaN
-2.504260 -1.107736 4.884595
-2.414180 -1.049776 4.879524
-2.326075 -0.988768 4.875649
-2.240157 -0.924655 4.873030
-2.156645 -0.857400 4.871726
-2.075766 -0.786990 4.871787
-1.997750 -0.713435 4.873263
-1.922825 -0.636776 4.876193
-1.851213 -0.557083 4.880606
-1.783119 -0.474458 4.886524
-1.718731 -0.389031 4.893952
-1.658209 -0.300964 4.902887
-1.601683 -0.210438 4.913310
-1.549249 -0.117658 4.925191
-1.500967 -0.022838 4.938490
-1.456858 0.073796 4.953154
-1.416912 0.172021 4.969125
-1.381082 0.271616 4.986337
-1.349295 0.372367 5.004721
-1.321452 0.474074 5.024205
-2.402186 -1.149117 1.476788
-2.282095 -1.066703 1.481568
-2.164839 -0.980403 1.487838
-2.051024 -0.889752 1.495814
-1.940902 -0.794808 1.505517
-1.834388 -0.696001 1.516818
-1.732529 -0.592632 1.530064
-1.634732 -0.485625 1.544913
-1.541708 -0.374702 1.561546
-1.453572 -0.260118 1.579912
-1.370064 -0.142368 1.599835
-1.292233 -0.021101 1.621568
-1.219163 0.102830 1.644740
-1.151484 0.229491 1.669463
-1.089063 0.358545 1.695625
-2.400529 -1.147998 1.476849
-2.283722 -1.067864 1.481492
-2.280468 -1.065543 1.481645
-2.166435 -0.981605 1.487745
-2.163243 -0.979201 1.487931
-2.052551 -0.891037 1.495688
-2.049497 -0.888467 1.495940
-1.942392 -0.796134 1.505375
-1.939412 -0.793482 1.505660
-1.835812 -0.697394 1.516647
-1.832977 -0.694594 1.516995
-1.733897 -0.594078 1.529870
-1.731161 -0.591186 1.530258
-1.636056 -0.487110 1.544702
-1.633409 -0.484141 1.545124
-1.542939 -0.376259 1.561302
-1.540478 -0.373145 1.561791
-1.454755 -0.261709 1.579651
-1.452389 -0.258526 1.580173
-1.371148 -0.144023 1.599541
-1.368981 -0.140713 1.600129
-1.293266 -0.022785 1.621259
-1.291200 -0.019416 1.621877
-1.220144 0.101118 1.644416
-1.218181 0.104543 1.645064
-1.152363 0.227730 1.669110
-1.150605 0.231253 1.669816
-1.089891 0.356762 1.695258
-2.395062 -1.144305 1.477050
-2.289092 -1.071693 1.481238
-2.275097 -1.061713 1.481899
-2.171702 -0.985572 1.487439
-2.157976 -0.975234 1.488237
-2.057593 -0.895278 1.495273
-2.044455 -0.884226 1.496355
-1.947311 -0.800511 1.504904
-1.934493 -0.789105 1.506131
-1.840601 -0.701906 1.516121
-1.828322 -0.689950 1.517578
-1.738411 -0.598851 1.529231
-1.726647 -0.586413 1.530898
-1.640424 -0.492009 1.544006
-1.629040 -0.479242 1.545820
-1.547001 -0.381399 1.560494
-1.536415 -0.368005 1.562599
-1.458658 -0.266962 1.578788
-1.448486 -0.253273 1.581036
-1.374884 -0.149387 1.598624
-1.365405 -0.135249 1.601097
-1.296674 -0.028345 1.620238
-1.287792 -0.013856 1.622897
-1.223385 0.095468 1.643346
-1.214941 0.110193 1.646134
-1.155266 0.221917 1.667945
-1.147702 0.237066 1.670981
-1.092626 0.350877 1.694049
-2.382669 -1.135934 1.477507
-2.366334 -1.124899 1.478109
-2.349998 -1.113865 1.478711
-2.333662 -1.102830 1.479313
-2.317326 -1.091795 1.479915
-2.301265 -1.080374 1.480664
-2.262924 -1.053033 1.482473
-2.246878 -1.041590 1.483230
-2.230853 -1.030121 1.483998
-2.215115 -1.018268 1.484913
-2.199378 -1.006416 1.485829
-2.183641 -0.994563 1.486744
-2.146097 -0.966168 1.488961
-2.130688 -0.953905 1.490038
-2.115279 -0.941642 1.491115
-2.099869 -0.929380 1.492192
-2.084460 -0.917117 1.493269
-2.069050 -0.904855 1.494346
-2.033029 -0.874613 1.497296
-2.017967 -0.861942 1.498537
-2.002904 -0.849270 1.499778
-1.987852 -0.836587 1.501023
-1.973156 -0.823510 1.502430
-1.958460 -0.810432 1.503837
-1.923344 -0.779184 1.507198
-1.908704 -0.766048 1.508629
-1.894393 -0.752569 1.510204
-1.880081 -0.739090 1.511778
-1.865770 -0.725610 1.513352
-1.851458 -0.712131 1.514926
-1.817771 -0.679425 1.518900
-1.803862 -0.665551 1.520643
-1.789954 -0.651676 1.522386
-1.776045 -0.637802 1.524128
-1.762137 -0.623928 1.525871
-1.748644 -0.609670 1.527781
-1.716414 -0.575593 1.532348
-1.702925 -0.561332 1.534259
-1.689484 -0.547030 1.536189
-1.676431 -0.532392 1.538268
-1.663379 -0.517753 1.540348
-1.650326 -0.503115 1.542428
-1.619239 -0.468054 1.547435
-1.606638 -0.453050 1.549682
-1.594036 -0.438046 1.551930
-1.581435 -0.423041 1.554177
-1.568833 -0.408037 1.556424
-1.556231 -0.393033 1.558671
-1.527207 -0.356355 1.564429
-1.515070 -0.340998 1.566842
-1.502932 -0.325641 1.569256
-1.490828 -0.310260 1.571680
-1.479166 -0.294565 1.574257
-1.467505 -0.278869 1.576834
-1.439639 -0.241366 1.582990
-1.428068 -0.225610 1.585597
-1.416892 -0.209593 1.588335
-1.405716 -0.193575 1.591072
-1.394539 -0.177557 1.593810
-1.383363 -0.161539 1.596547
-1.357301 -0.122866 1.603293
-1.346618 -0.106542 1.606188
-1.335935 -0.090218 1.609083
-1.325251 -0.073894 1.611978
-1.314584 -0.057561 1.614878
-1.304400 -0.040948 1.617926
-1.280066 -0.001254 1.625210
-1.269882 0.015359 1.628258
-1.259773 0.032012 1.631328
-1.250092 0.048894 1.634526
-1.240410 0.065777 1.637723
-1.230729 0.082660 1.640920
-1.207731 0.123068 1.648598
-1.198554 0.140203 1.651940
-1.189378 0.157338 1.655281
-1.180201 0.174473 1.658623
-1.171024 0.191608 1.661964
-1.161847 0.208742 1.665306
-1.141123 0.250242 1.673621
-1.132451 0.267610 1.677102
-1.123779 0.284978 1.680583
-1.115163 0.302371 1.684078
-1.106993 0.319954 1.687692
-1.098823 0.337537 1.691307
22 NaN NaN
-2.402600 -1.149397 1.476772
-2.316475 -1.091220 1.479946
-2.231878 -1.030893 1.483938
-2.148909 -0.968405 1.488765
-2.067668 -0.903754 1.494443
-1.988257 -0.836948 1.500984
-1.910777 -0.768001 1.508401
-1.835326 -0.696937 1.516701
-1.761998 -0.623790 1.525888
-1.690885 -0.548602 1.535965
-1.622071 -0.471425 1.546930
-1.555633 -0.392321 1.558778
-1.491643 -0.311357 1.571500
-1.430160 -0.228609 1.585085
-1.371237 -0.144160 1.599517
-1.314914 -0.058098 1.614779
-1.261222 0.029485 1.630850
-1.210181 0.118493 1.647706
-1.161800 0.208831 1.665323
-1.116079 0.300399 1.683673
-1.073007 0.393101 1.702728
-1.032564 0.486840 1.722459
