0.216393 0.216399 0.216485 0.217098 0.218068 0.218845 0.219623 0.220400 0.220563 0.220666 0.220626 0.220623 0.220620 0.220579 0.220302 0.219864 0.219015 0.218166 0.217318 0.216125 0.215372 0.215183 0.215170 0.215157 0.214967 0.213971 0.212392 0.210233 0.208075 0.205916 0.203210 0.201502 0.201106 0.201078 0.201049 0.200641 0.198729 0.195699 0.192604 0.189509 0.186415 0.183450 0.181579 0.181179 0.181151 0.181123 0.180726 0.178972 0.176193 0.173670 0.171146 0.168622 0.166367 0.164943 0.164643 0.164622 0.164601 0.164305 0.163001 0.160936 0.159093 0.157249 0.155406 0.153760 0.152722 0.152504 0.152488 0.152473 0.152255 0.151309 0.149811 0.148459 0.147106 0.145754 0.144539 0.143771 0.143609 0.143598 
0.216402 0.216440 0.216815 0.217544 0.218575 0.218789 0.219003 0.219217 0.219125 0.219061 0.219041 0.219039 0.219036 0.219007 0.218925 0.218810 0.218630 0.218451 0.218272 0.217885 0.217612 0.217507 0.217496 0.217484 0.217369 0.216906 0.216252 0.215366 0.214480 0.213594 0.212527 0.211772 0.211524 0.211499 0.211473 0.211225 0.210414 0.209268 0.208082 0.206895 0.205709 0.204509 0.203659 0.203394 0.203367 0.203340 0.203075 0.202239 0.201057 0.199918 0.198779 0.197640 0.196528 0.195741 0.195496 0.195470 0.195445 0.195200 0.194447 0.193383 0.192366 0.191350 0.190333 0.189359 0.188671 0.188452 0.188430 0.188408 0.188191 0.187522 0.186577 0.185662 0.184748 0.183833 0.182950 0.182326 0.182130 0.182110 0.182090 0.181895 0.181279 0.180409 0.179566 0.178723 0.177879 0.177075 0.176506 0.176330 0.176312 0.176294 0.176116 0.175566 0.174789 0.174053 0.173318 0.172582 0.171890 0.171401 0.171252 0.171236 0.171221 0.171073 0.170613 0.169962 0.169359 0.168756 0.168153 0.167594 0.167199 0.167078 0.167066 0.167054 0.166933 0.166557 0.166026 0.165523 0.165021 0.164518 0.164036 0.163696 0.163588 0.163577 0.163566 0.163459 0.163122 0.162646 0.162177 0.161708 0.161239 0.160771 0.160441 0.160336 0.160326 0.160315 0.160210 0.159881 0.159415 0.158953 0.158492 0.158030 0.157573 0.157250 0.157148 0.157138 0.157127 0.157025 0.156706 0.156254 0.155811 0.155368 0.154925 0.154491 0.154184 0.154088 0.154078 0.154068 0.153972 0.153670 0.153244 0.152827 0.152410 0.151994 0.151588 0.151301 0.151210 0.151201 0.151192 0.151102 0.150820 0.150422 0.150033 0.149643 0.149254 0.148873 0.148604 0.148519 0.148510 
0.216411 0.216496 0.217754 0.220270 0.224258 0.218181 0.212104 0.206027 0.199907 0.196044 0.195274 0.195222 0.195168 0.194370 0.191034 0.185746 0.181792 0.177837 0.173882 0.171229 0.169554 0.169234 0.169212 0.169192 0.168882 0.167587 0.165537 0.163943 0.162348 0.160754 0.159333 0.158435 0.158229 0.158215 0.158201 0.157991 0.156918 0.155217 0.152427 0.149637 0.146847 0.143152 0.140821 0.140284 0.140247 0.140211 0.139668 0.137215 0.133329 0.130486 0.127643 0.124800 0.123240 0.122256 0.122089 0.122077 0.122067 0.121906 0.121316 0.120382 0.119831 0.119279 0.118728 0.118376 0.118154 0.118113 0.118110 0.118107 0.118066 0.117901 0.117639 0.117439 0.117239 0.117038 0.116878 0.116777 0.116756 0.116754 0.116753 0.116732 0.116645 0.116505 0.116386 0.116267 0.116147 0.116044 0.115979 0.115965 0.115965 0.115964 0.115950 0.115893 0.115802 0.115723 0.115645 0.115567 0.115501 0.115460 0.115451 0.115450 0.115450 0.115441 0.115405 0.115348 0.115300 0.115252 0.115204 0.115163 0.115138 0.115133 0.115132 0.115132 0.115127 0.115105 0.115070 0.115040 0.115010 0.114980 0.114954 0.114938 0.114934 0.114934 
0.152488 0.152486 0.152479 0.152459 0.152432 0.152394 0.152357 0.152319 0.152270 0.152233 0.152216 0.152212 0.152208 0.152188 0.152138 0.152072 0.151987 0.151903 0.151819 0.151718 0.151642 0.151607 0.151599 0.151591 0.151555 0.151464 0.151343 0.151205 0.151068 0.150931 0.150780 0.150667 0.150616 0.150605 0.150594 0.150542 0.150413 0.150241 0.150053 0.149865 0.149677 0.149477 0.149326 0.149260 0.149246 0.149232 0.149166 0.149000 0.148780 0.148571 0.148362 0.148153 0.148031 0.147939 0.147901 0.147893 0.147885 0.147847 0.147753 0.147629 0.147502 0.147374 0.147247 0.147116 0.147018 0.146978 0.146969 0.146960 0.146920 0.146818 0.146684 0.146548 0.146412 0.146277 0.146140 0.146037 0.145995 0.145986 0.145977 0.145935 0.145830 0.145692 0.145557 0.145423 0.145288 0.145157 0.145058 0.145019 0.145010 0.145002 0.144963 0.144865 0.144736 0.144612 0.144488 0.144364 0.144243 0.144152 0.144116 0.144108 0.144100 0.144064 0.143975 0.143856 0.143741 0.143626 0.143511 0.143400 0.143317 0.143284 0.143276 
0.201066 0.201022 0.200797 0.200231 0.199479 0.198722 0.197965 0.197208 0.196446 0.195873 0.195645 0.195599 0.195554 0.195326 0.194753 0.193992 0.193224 0.192456 0.191687 0.190917 0.190337 0.190111 0.190066 0.190021 0.189796 0.189224 0.188463 0.187708 0.186952 0.186196 0.185444 0.184877 0.184657 0.184613 0.184569 0.184347 0.183781 0.183030 0.182286 0.181542 0.180798 0.180060 0.179505 0.179283 0.179239 0.179195 0.178974 0.178425 0.177694 0.176970 0.176245 0.175520 0.174803 0.174263 0.174053 0.174011 0.173969 0.173759 0.173233 0.172535 0.171851 0.171168 0.170484 0.169816 0.169314 0.169119 0.169080 0.169042 0.168848 0.168361 0.167715 0.167194 0.166673 0.166152 0.165810 0.165553 0.165457 0.165437 0.165418 0.165322 0.165078 0.164754 0.164439 0.164123 0.163807 0.163501 0.163270 0.163180 0.163162 0.163144 0.163054 0.162829 0.162529 0.162237 0.161946 0.161654 0.161372 0.161160 0.161077 0.161060 0.161043 0.160960 0.160756 0.160485 0.160225 0.159965 0.159705 0.159454 0.159265 0.159193 0.159178 0.159164 0.159094 0.158916 0.158680 0.158454 0.158229 0.158003 0.157788 0.157626 0.157564 0.157552 0.157540 0.157478 0.157322 0.157116 0.156919 0.156723 0.156526 0.156339 0.156199 0.156144 0.156133 
0.215156 0.215098 0.214809 0.214087 0.213126 0.212171 0.211216 0.210261 0.209313 0.208600 0.208316 0.208259 0.208202 0.207919 0.207207 0.206261 0.205321 0.204381 0.203442 0.202514 0.201816 0.201542 0.201487 0.201433 0.201161 0.200482 0.199581 0.198708 0.197835 0.196963 0.196115 0.195477 0.195234 0.195186 0.195138 0.194899 0.194284 0.193467 0.192661 0.191855 0.191050 0.190243 0.189637 0.189403 0.189356 0.189309 0.189073 0.188449 0.187620 0.186791 0.185962 0.185133 0.184307 0.183686 0.183431 0.183380 0.183329 0.183076 0.182447 0.181611 0.180782 0.179953 0.179124 0.178306 0.177691 0.177448 0.177399 0.177351 0.177110 0.176514 0.175722 0.175224 0.174726 0.174228 0.173788 0.173457 0.173329 0.173303 0.173278 0.173150 0.172836 0.172418 0.172022 0.171625 0.171228 0.170850 0.170565 0.170453 0.170430 0.170408 0.170296 0.170025 0.169666 0.169317 0.168968 0.168619 0.168283 0.168030 0.167932 0.167913 0.167894 0.167801 0.167566 0.167253 0.166954 0.166655 0.166356 0.166073 0.165859 0.165778 0.165762 0.165746 0.165665 0.165461 0.165189 0.164932 0.164676 0.164419 0.164173 0.163987 0.163915 0.163901 0.163886 0.163814 0.163633 0.163392 0.163162 0.162932 0.162701 0.162480 0.162313 0.162247 0.162234 
0.220605 0.220537 0.220249 0.219572 0.218675 0.217809 0.216942 0.216075 0.215203 0.214546 0.214277 0.214213 0.214150 0.213881 0.213211 0.212323 0.211424 0.210524 0.209625 0.208735 0.208064 0.207798 0.207735 0.207673 0.207412 0.206776 0.205934 0.205115 0.204296 0.203477 0.202669 0.202059 0.201817 0.201759 0.201702 0.201462 0.200888 0.200127 0.199394 0.198661 0.197928 0.197527 0.197224 0.197102 0.197073 0.197044 0.196921 0.196613 0.196205 0.195760 0.195316 0.194871 0.194404 0.194051 0.193900 0.193865 0.193829 0.193678 0.193306 0.192814 0.192291 0.191768 0.191245 0.190704 0.190295 0.190121 0.190080 0.190038 0.189861 0.189426 0.188851 0.188287 0.187723 0.187159 0.186587 0.186156 0.185980 0.185938 0.185896 0.185718 0.185250 0.184630 0.184038 0.183445 0.182853 0.182304 0.181891 0.181725 0.181686 0.181647 0.181483 0.181092 0.180575 0.180088 0.179601 0.179114 0.178660 0.178316 0.178179 0.178147 0.178115 0.177979 0.177661 0.177240 0.176841 0.176442 0.176043 0.175668 0.175385 0.175270 0.175243 0.175217 0.175104 0.174832 0.174472 0.174137 0.173803 0.173468 0.173145 0.172900 0.172804 0.172781 0.172758 0.172662 0.172427 0.172115 0.171825 0.171534 0.171244 0.170960 0.170746 0.170664 0.170644 0.170625 0.170542 0.170341 0.170075 0.169818 0.169561 0.169304 0.169055 0.168867 0.168790 0.168772 0.168754 0.168681 0.168504 0.168270 0.168041 0.167813 0.167584 0.167363 0.167196 0.167128 0.167112 0.167096 0.167027 0.166865 0.166651 0.166440 0.166229 0.166019 0.165815 0.165661 0.165597 0.165583 
0.219023 0.218959 0.218738 0.218233 0.217568 0.216914 0.216260 0.215606 0.214949 0.214452 0.214237 0.214175 0.214113 0.213900 0.213413 0.212772 0.212128 0.211485 0.210842 0.210217 0.209744 0.209542 0.209483 0.209424 0.209224 0.208756 0.208140 0.207543 0.206947 0.206350 0.205763 0.205317 0.205124 0.205068 0.205012 0.204820 0.204389 0.203819 0.203261 0.202704 0.202146 0.201603 0.201191 0.201017 0.200966 0.200916 0.200743 0.200345 0.199820 0.199319 0.198818 0.198316 0.197862 0.197518 0.197364 0.197319 0.197275 0.197124 0.196787 0.196342 0.195949 0.195556 0.195163 0.194787 0.194503 0.194377 0.194341 0.194305 0.194180 0.193917 0.193569 0.193194 0.192819 0.192444 0.192066 0.191778 0.191648 0.191610 0.191570 0.191429 0.191111 0.190691 0.190278 0.189864 0.189451 0.189001 0.188660 0.188512 0.188469 0.188426 0.188278 0.187938 0.187490 0.187023 0.186556 0.186089 0.185623 0.185269 0.185116 0.185072 0.185028 0.184876 0.184511 0.184031 0.183556 0.183082 0.182607 0.182130 0.181768 0.181610 0.181564 0.181518 0.181361 0.181004 0.180533 0.180154 0.179775 0.179396 0.179076 0.178833 0.178730 0.178700 0.178671 0.178568 0.178342 0.178044 0.177765 0.177485 0.177205 0.176934 0.176728 0.176643 0.176619 0.176594 0.176510 0.176318 0.176065 0.175818 0.175570 0.175323 0.175090 0.174912 0.174835 0.174813 0.174790 0.174713 0.174536 0.174302 0.174085 0.173869 0.173653 0.173437 0.173273 0.173202 0.173182 0.173162 0.173096 0.172943 0.172742 0.172538 0.172334 0.172131 0.171939 0.171794 0.171731 0.171713 0.171694 0.171631 0.171486 0.171296 0.171115 0.170935 0.170755 0.170579 0.170445 0.170387 0.170370 0.170353 0.170295 0.170168 0.170001 0.169835 0.169670 0.169504 0.169345 0.169224 0.169172 0.169158 0.169143 0.169091 0.168973 0.168817 0.168663 0.168510 0.168357 0.168207 0.168094 0.168045 0.168030 0.168016 0.167967 0.167856 0.167710 0.167567 0.167425 0.167283 0.167141 0.167035 0.166990 0.166977 0.166963 0.166918 0.166815 0.166678 0.166541 0.166404 0.166268 0.166134 0.166032 0.165988 0.165976 
0.203355 0.203306 0.203001 0.202203 0.201139 0.200081 0.199024 0.197967 0.196914 0.196123 0.195831 0.195784 0.195737 0.195447 0.194679 0.193657 0.192671 0.191685 0.190699 0.189739 0.189019 0.188752 0.188709 0.188666 0.188401 0.187699 0.186763 0.185849 0.184936 0.184022 0.183131 0.182462 0.182209 0.182168 0.182127 0.181875 0.181217 0.180341 0.179484 0.178627 0.177770 0.176940 0.176318 0.176086 0.176048 0.176011 0.175781 0.175362 0.174803 0.174384 0.173964 0.173544 0.173159 0.172869 0.172764 0.172747 0.172730 0.172624 0.172350 0.171984 0.171640 0.171295 0.170950 0.170616 0.170366 0.170277 0.170262 0.170248 0.170159 0.169922 0.169606 0.169310 0.169014 0.168718 0.168437 0.168227 0.168150 0.168137 0.168125 0.168050 0.167854 0.167593 0.167346 0.167099 0.166852 0.166616 0.166439 0.166372 0.166361 0.166350 0.166284 0.166113 0.165886 0.165666 0.165446 0.165226 0.165014 0.164854 0.164794 0.164784 
0.176306 0.176281 0.176204 0.176031 0.175804 0.175584 0.175365 0.175145 0.174927 0.174760 0.174685 0.174662 0.174638 0.174563 0.174398 0.174180 0.173963 0.173746 0.173528 0.173309 0.173142 0.173068 0.173044 0.173020 0.172946 0.172783 0.172567 0.172351 0.172136 0.171920 0.171709 0.171549 0.171479 0.171456 0.171434 0.171363 0.171204 0.170994 0.170789 0.170584 0.170380 0.170181 0.170029 0.169959 0.169937 0.169915 0.169846 0.169693 0.169493 0.169297 0.169102 0.168906 0.168703 0.168549 0.168479 0.168457 0.168435 0.168366 0.168213 0.168011 0.167808 0.167604 0.167401 0.167196 0.167040 0.166970 0.166948 0.166926 0.166856 0.166702 0.166500 0.166292 0.166084 0.165876 0.165678 0.165527 0.165477 0.165461 0.165445 0.165395 0.165289 0.165149 0.165014 0.164879 0.164744 0.164617 0.164520 0.164479 0.164466 0.164452 0.164411 0.164320 0.164200 0.164084 0.163967 0.163851 0.163741 0.163657 0.163620 0.163608 0.163596 0.163559 0.163476 0.163368 0.163263 0.163159 0.163055 0.162951 0.162871 0.162837 0.162826 0.162815 0.162781 0.162704 0.162603 0.162507 0.162410 0.162313 0.162216 0.162143 0.162110 0.162099 0.162089 0.162058 0.161989 0.161898 0.161807 0.161715 0.161624 0.161536 0.161469 0.161440 0.161431 0.161421 0.161392 0.161327 0.161241 0.161156 0.161071 0.160986 0.160905 0.160843 0.160816 0.160807 0.160798 0.160771 0.160709 0.160628 0.160551 0.160474 0.160397 0.160320 0.160262 0.160235 0.160227 0.160219 0.160193 0.160136 0.160062 0.159989 0.159916 0.159844 0.159770 0.159715 0.159691 0.159684 0.159676 0.159652 0.159599 0.159530 0.159459 0.159389 0.159318 0.159251 0.159200 0.159177 0.159170 0.159162 0.159139 0.159088 0.159020 0.158953 0.158886 0.158820 0.158754 0.158704 0.158681 0.158674 0.158667 0.158644 0.158594 0.158527 0.158462 0.158397 0.158332 0.158267 0.158217 0.158194 0.158187 
0.154075 0.154064 0.154011 0.153875 0.153694 0.153509 0.153324 0.153139 0.152952 0.152812 0.152755 0.152743 0.152732 0.152675 0.152532 0.152342 0.152152 0.151963 0.151773 0.151586 0.151444 0.151389 0.151377 0.151366 0.151311 0.151172 0.150988 0.150807 0.150626 0.150445 0.150263 0.150126 0.150072 0.150061 0.150050 0.149996 0.149858 0.149675 0.149490 0.149305 0.149120 0.148936 0.148798 0.148743 0.148732 0.148721 0.148666 0.148562 0.148424 0.148305 0.148186 0.148067 0.147959 0.147878 0.147848 0.147842 0.147836 0.147807 0.147733 0.147634 0.147545 0.147456 0.147366 0.147284 0.147223 0.147200 0.147195 0.147190 0.147167 0.147108 0.147030 0.146961 0.146891 0.146822 0.146759 0.146712 0.146693 0.146690 0.146686 0.146668 0.146624 0.146566 0.146512 0.146459 0.146406 0.146359 0.146323 0.146308 0.146306 0.146303 0.146288 0.146256 0.146214 0.146174 0.146135 0.146096 0.146059 0.146031 0.146021 0.146018 
