-1.212953 0.943017 7.914355
-1.218277 0.945496 7.901196
-1.223600 0.947974 7.888038
-1.446218 1.051637 7.337956
-1.666393 1.154174 6.794016
-1.887736 1.257673 6.250769
-2.156978 1.404227 5.753134
-1.226816 0.949471 7.880088
-1.445480 1.051293 7.339782
-1.446957 1.051980 7.336129
-1.665659 1.153834 6.795845
-1.667127 1.154514 6.792187
-1.887052 1.257373 6.252624
-1.888420 1.257972 6.248913
-2.155689 1.403344 5.754382
-1.238664 0.954987 7.850801
-1.433635 1.045780 7.369071
-1.458801 1.057493 7.306840
-1.653871 1.148367 6.825165
-1.678897 1.159965 6.762856
-1.875601 1.252182 6.282121
-1.899387 1.262769 6.219160
-2.135355 1.389970 5.775259
-1.264323 0.966934 7.787392
-1.293053 0.980313 7.716410
-1.321787 0.993696 7.645429
-1.350521 1.007079 7.574449
-1.379253 1.020459 7.503467
-1.407980 1.033835 7.432482
-1.484448 1.069430 7.243424
-1.513166 1.082799 7.172434
-1.541905 1.096187 7.101457
-1.570686 1.109607 7.030503
-1.599473 1.123033 6.959552
-1.628235 1.136438 6.888587
-1.704365 1.171756 6.699341
-1.732869 1.184950 6.628232
-1.761641 1.198364 6.557273
-1.790886 1.212166 6.486583
-1.820409 1.226196 6.416053
-1.849918 1.240215 6.345516
-1.922754 1.272848 6.154557
-1.947828 1.283251 6.081715
-1.975525 1.295785 6.010173
-2.008254 1.312494 5.941862
-2.046837 1.334242 5.878383
-2.091515 1.361444 5.820933
-3.267819 1.835471 4.812052
-4.451257 2.089369 3.879042
-5.624062 2.553666 3.067373
-6.316443 3.736171 2.404882
-7.057334 4.888743 1.728646
-7.922979 5.911547 0.995851
-8.943522 6.719020 0.199015
-10.100885 7.245765 -0.643851
-11.341679 7.478861 -1.501091
-12.613065 7.460687 -2.346674
-2.158267 1.405111 5.751886
-3.266252 1.835149 4.813251
-3.269387 1.835792 4.810852
-4.449625 2.089047 3.880152
-4.452889 2.089690 3.877931
-5.622829 2.552496 3.068428
-5.625294 2.554836 3.066319
-6.315539 3.734606 2.405737
-6.317347 3.737737 2.404027
-7.056304 4.887292 1.729559
-7.058364 4.890194 1.727733
-7.921739 5.910341 0.996856
-7.924219 5.912752 0.994845
-8.942078 6.718158 0.200097
-8.944966 6.719882 0.197932
-10.099295 7.245300 -0.642730
-10.102475 7.246230 -0.644971
-11.340027 7.478724 -1.499972
-11.343331 7.478998 -1.502210
-12.611398 7.460846 -2.345582
-2.178942 1.419283 5.731879
-3.241096 1.829978 4.832460
-3.294529 1.840950 4.791621
-4.423454 2.083892 3.897958
-4.479060 2.094845 3.860126
-5.603066 2.533731 3.085335
-5.645057 2.573601 3.049412
-6.301037 3.709502 2.419451
-6.331874 3.762820 2.390304
-7.039787 4.864023 1.744197
-7.075190 4.913151 1.712955
-7.902138 5.890638 1.012856
-7.944100 5.932077 0.978727
-8.918936 6.704305 0.217448
-8.968123 6.733705 0.180577
-10.073799 7.237845 -0.624760
-10.127971 7.253685 -0.662941
-11.313536 7.476523 -1.482030
-11.369823 7.481196 -1.520151
-12.584655 7.463405 -2.328065
-2.272582 1.484807 5.639160
-2.423438 1.580125 5.489225
-2.591383 1.651240 5.344102
-2.766049 1.711837 5.201962
-2.943883 1.764164 5.060511
-3.125540 1.805847 4.920353
-3.409335 1.864657 4.702639
-3.588797 1.902467 4.558593
-3.767115 1.940076 4.413076
-3.946508 1.978700 4.269160
-4.126137 2.018846 4.125954
-4.306116 2.059136 3.983247
-4.600246 2.116855 3.779572
-4.792705 2.151002 3.652405
-4.983003 2.202281 3.527928
-5.175360 2.255851 3.407539
-5.362844 2.319849 3.286000
-5.514671 2.445083 3.162703
-5.730930 2.666743 2.974848
-5.835907 2.847248 2.872819
-5.926775 3.040221 2.778610
-6.027457 3.226031 2.680014
-6.130206 3.410763 2.581508
-6.234558 3.594253 2.482369
-6.398996 3.877561 2.327138
-6.507986 4.057124 2.225835
-6.618560 4.235308 2.123802
-6.730120 4.412606 2.021316
-6.846542 4.585401 1.916579
-6.964588 4.756645 1.811094
-7.153117 5.017765 1.644813
-7.279051 5.180938 1.535722
-7.407277 5.341609 1.425595
-7.538914 5.498422 1.313956
-7.674995 5.649949 1.200361
-7.813538 5.798431 1.085708
-8.036575 6.019024 0.904252
-8.185383 6.153553 0.785320
-8.335410 6.286243 0.665899
-8.492508 6.407736 0.543724
-8.652185 6.524890 0.420579
-8.814033 6.638098 0.296634
-9.074773 6.796329 0.100799
-9.245568 6.891628 -0.026202
-9.419537 6.979603 -0.154159
-9.596913 7.058930 -0.283095
-9.776225 7.132963 -0.412526
-9.957499 7.201106 -0.542408
-10.244942 7.288028 -0.745397
-10.430801 7.340427 -0.876120
-10.619663 7.379740 -1.007086
-10.809568 7.413918 -1.138060
-11.000039 7.444798 -1.268995
-11.192038 7.465796 -1.399666
-11.491588 7.489527 -1.602394
-11.685029 7.497536 -1.732387
-11.878969 7.498866 -1.861880
-12.073140 7.496086 -1.991017
-12.267462 7.489382 -2.119766
-12.461929 7.474954 -2.247657
179 NaN NaN
-1.210292 0.941778 7.920934
-1.247504 0.959102 7.828949
-1.284729 0.976437 7.736971
-1.321962 0.993777 7.644997
-1.359195 1.011118 7.553024
-1.396422 1.028455 7.461047
-1.433638 1.045781 7.369064
-1.470839 1.063096 7.277072
-1.508044 1.080414 7.185083
-1.545284 1.097760 7.093113
-1.582584 1.115156 7.001177
-1.619886 1.132553 6.909242
-1.657073 1.149857 6.817243
-1.694039 1.166979 6.725121
-1.730949 1.184055 6.632967
-1.768231 1.201436 6.541022
-1.806307 1.219469 6.449529
-1.844758 1.237810 6.358253
-1.882013 1.255169 6.266295
-1.916456 1.270234 6.172856
-1.948945 1.283715 6.078470
-1.984979 1.300079 5.985881
-2.030597 1.324412 5.899607
-2.087977 1.359143 5.824618
-2.151554 1.400509 5.758384
-2.216486 1.445018 5.695547
-2.280020 1.490083 5.631684
-2.343567 1.533573 5.566755
-2.409533 1.573330 5.501863
-2.479618 1.607578 5.438167
-2.552878 1.637294 5.375762
-2.627805 1.664433 5.314156
-2.703228 1.690730 5.252788
-2.778994 1.716186 5.191489
-2.855381 1.739991 5.130301
-2.932613 1.761398 5.069289
-3.010629 1.780544 5.008521
-3.089225 1.798142 4.948031
-3.168220 1.814903 4.887823
-3.247362 1.831274 4.827701
-3.326325 1.847473 4.767298
-3.404785 1.863703 4.706251
-3.482625 1.880036 4.644444
-3.559996 1.896386 4.582053
-3.637068 1.912659 4.519274
-3.714028 1.928856 4.456337
-3.791085 1.945141 4.393544
-3.868451 1.961698 4.331202
-3.946183 1.978628 4.269418
-4.023982 1.995851 4.207799
-4.101499 2.013261 4.145879
-4.178631 2.030746 4.083500
-4.256124 2.048183 4.021559
-4.334890 2.065441 3.961196
-4.415574 2.082340 3.903319
-4.497771 2.098530 3.847396
-4.580804 2.113621 3.792407
-4.664066 2.127470 3.737437
-4.747238 2.141686 3.682426
-4.830088 2.158661 3.627722
-4.912281 2.180490 3.573762
-4.994117 2.205706 3.520725
-5.076523 2.230680 3.468465
-5.160275 2.252173 3.416810
-5.244293 2.272657 3.365170
-5.325831 2.299546 3.312596
-5.400435 2.340470 3.258989
-5.465784 2.395367 3.205618
-5.525925 2.456529 3.152824
-5.586055 2.517579 3.099889
-5.648126 2.576514 3.046786
-5.708611 2.638091 2.994902
-5.762752 2.707595 2.946254
-5.807523 2.786396 2.902428
-5.846479 2.869914 2.861790
-5.884406 2.954218 2.821788
-5.924896 3.036671 2.780472
-5.967653 3.117428 2.738093
-6.011583 3.197346 2.695324
-6.055774 3.277201 2.652703
-6.100115 3.357040 2.610208
-6.144730 3.436695 2.567655
-6.189722 3.516022 2.524887
-6.235025 3.595067 2.481927
-6.280505 3.673958 2.438869
-6.326050 3.752803 2.395796
-6.371796 3.831492 2.352652
-6.418020 3.909783 2.309293
-6.464978 3.987445 2.265594
-6.512571 4.064551 2.221598
-6.560413 4.141437 2.177486
-6.608130 4.218436 2.133437
-6.655772 4.295503 2.089424
-6.703879 4.372155 2.045195
-6.753003 4.447881 2.000492
-6.803279 4.522527 1.955258
-6.854211 4.596546 1.909723
-6.905256 4.670454 1.864136
-6.956164 4.744493 1.818611
-7.007322 4.818288 1.772967
-7.059199 4.891371 1.726993
-7.112098 4.963420 1.680554
-7.165828 5.034606 1.633737
-7.220109 5.105205 1.586670
-7.274725 5.175444 1.539450
-7.329715 5.245275 1.492060
-7.385190 5.314573 1.444452
-7.441260 5.383206 1.396581
-7.498047 5.451023 1.348393
-7.555674 5.517860 1.299833
-7.614231 5.583579 1.250864
-7.673537 5.648379 1.201570
-7.733260 5.712657 1.152097
-7.793105 5.776784 1.102574
-7.853262 5.840515 1.052919
-7.914296 5.903106 1.002890
-7.976737 5.963802 0.952268
-8.040498 6.022646 0.901103
-8.104866 6.080612 0.849694
-8.169132 6.138729 0.798329
-8.233185 6.197157 0.747051
-8.297823 6.254724 0.695534
-8.363882 6.310119 0.643451
-8.431664 6.362739 0.590704
-8.500470 6.413624 0.537577
-8.569533 6.464061 0.484355
-8.638398 6.514840 0.431202
-8.707495 6.565208 0.377960
-8.777411 6.614104 0.324419
-8.848548 6.660712 0.270448
-8.920669 6.705379 0.216142
-8.993401 6.748794 0.161632
-9.066440 6.791554 0.107015
-9.139809 6.833600 0.052287
-9.213648 6.874615 -0.002591
-9.288083 6.914289 -0.057649
-9.363168 6.952437 -0.112901
-9.438922 6.988945 -0.168348
-9.515347 7.023719 -0.223988
-9.592323 7.057010 -0.279778
-9.669642 7.089348 -0.335653
-9.747120 7.121245 -0.391563
-9.824813 7.152525 -0.447522
-9.903014 7.182281 -0.503602
-9.981989 7.209568 -0.559850
-10.061703 7.234308 -0.616235
-10.141781 7.257723 -0.672674
-10.221861 7.281138 -0.729111
-10.301820 7.305007 -0.785528
-10.382009 7.328003 -0.841981
-10.462798 7.348574 -0.898507
-10.544324 7.365841 -0.955081
-10.626281 7.380961 -1.011654
-10.708354 7.395463 -1.068221
-10.790336 7.410450 -1.124794
-10.872353 7.425239 -1.181368
-10.954611 7.438676 -1.237927
-11.037244 7.449811 -1.294438
-11.120168 7.458947 -1.350883
-11.203252 7.466865 -1.407278
-11.286399 7.474270 -1.463651
-11.369603 7.481180 -1.520003
-11.452900 7.487253 -1.576311
-11.536320 7.492156 -1.632553
-11.619863 7.495750 -1.688710
-11.703513 7.498043 -1.744776
-11.787255 7.499049 -1.800744
-11.871064 7.498948 -1.856619
-11.954915 7.498081 -1.912427
-12.038785 7.496792 -1.968195
-12.122676 7.495067 -2.023923
-12.206603 7.492398 -2.079557
-12.290572 7.488237 -2.135035
-12.374567 7.482377 -2.190320
-12.458566 7.475268 -2.245453
-12.542561 7.467433 -2.300494
-12.626555 7.459396 -2.355509
-12.710551 7.451680 -2.410566
-12.794550 7.444809 -2.465729
