0.197051 0.197085 0.197470 0.199149 0.201808 0.204167 0.206526 0.208885 0.210745 0.211920 0.212148 0.212168 0.212188 0.212413 0.213288 0.214673 0.215466 0.216258 0.217050 0.217337 0.217518 0.217534 0.217535 0.217536 0.217545 0.217483 0.217386 0.216828 0.216270 0.215712 0.214726 0.214103 0.213941 0.213927 0.213912 0.213748 0.212942 0.211666 0.210195 0.208724 0.207252 0.205649 0.204637 0.204406 0.204385 0.204364 0.204133 0.203107 0.201483 0.199824 0.198165 0.196506 0.194853 0.193810 0.193580 0.193559 0.193539 0.193309 0.192290 0.190676 0.189095 0.187515 0.185934 0.184414 0.183454 0.183242 0.183223 0.183204 0.182993 0.182061 0.180586 0.179175 0.177764 0.176353 0.175006 0.174155 0.173967 0.173951 
0.197032 0.196993 0.196694 0.195892 0.194821 0.193769 0.192716 0.191664 0.190654 0.189897 0.189622 0.189586 0.189550 0.189277 0.188548 0.187576 0.186636 0.185696 0.184756 0.183850 0.183171 0.182925 0.182892 0.182860 0.182616 0.181962 0.181090 0.180254 0.179417 0.178581 0.177781 0.177182 0.176964 0.176936 0.176908 0.176692 0.176127 0.175373 0.174665 0.173956 0.173248 0.172588 0.172093 0.171915 0.171892 0.171869 0.171693 0.171234 0.170621 0.170045 0.169469 0.168893 0.168346 0.167936 0.167788 0.167768 0.167749 0.167602 0.167212 0.166690 0.166185 0.165680 0.165175 0.164686 0.164320 0.164187 0.164169 
0.197047 0.197066 0.197301 0.197479 0.197760 0.195659 0.193558 0.191456 0.188559 0.186730 0.186299 0.186264 0.186230 0.185810 0.183795 0.180604 0.177611 0.174618 0.171626 0.169070 0.167457 0.167123 0.167096 0.167069 0.166738 0.165332 0.163106 0.161250 0.159395 0.157539 0.156065 0.155135 0.154944 0.154928 0.154913 0.154726 0.153948 0.152716 0.151660 0.150604 0.149547 0.148556 0.147930 0.147790 0.147779 0.147768 0.147629 0.146992 0.145984 0.144862 0.143740 0.142618 0.141272 0.140422 0.140217 0.140200 0.140183 0.139975 0.138952 0.137332 0.135532 0.133732 0.131932 0.130215 0.129132 0.128904 0.128885 0.128867 0.128643 0.127716 0.126248 0.125132 0.124015 0.122899 0.122064 0.121537 0.121431 0.121422 0.121414 0.121310 0.120876 0.120188 0.119634 0.119079 0.118524 0.118090 0.117815 0.117760 0.117756 0.117751 0.117698 0.117481 0.117139 0.116888 0.116638 0.116387 0.116195 0.116074 0.116050 0.116048 0.116046 0.116022 0.115919 0.115758 0.115618 0.115479 0.115340 0.115215 0.115137 0.115120 0.115118 0.115117 0.115100 0.115027 0.114910 0.114802 0.114694 0.114585 0.114486 0.114424 0.114410 0.114409 0.114408 0.114395 0.114338 0.114248 0.114171 0.114094 0.114017 0.113953 0.113913 0.113905 0.113905 0.113904 0.113896 0.113863 0.113811 0.113768 0.113726 0.113684 0.113649 0.113628 0.113623 0.113623 0.113622 0.113618 0.113599 0.113570 0.113545 0.113520 0.113496 0.113475 0.113462 0.113459 0.113459 0.113459 0.113456 0.113445 0.113427 0.113412 0.113397 0.113382 0.113369 0.113361 0.113360 0.113360 0.113359 0.113358 0.113351 0.113341 0.113333 0.113324 0.113316 0.113309 0.113305 0.113304 0.113304 
0.193548 0.193501 0.193302 0.192825 0.192192 0.191595 0.190997 0.190400 0.189831 0.189401 0.189228 0.189188 0.189148 0.188976 0.188570 0.188032 0.187522 0.187011 0.186501 0.186030 0.185674 0.185532 0.185500 0.185467 0.185327 0.184996 0.184558 0.184138 0.183719 0.183299 0.182911 0.182617 0.182500 0.182472 0.182445 0.182329 0.182078 0.181745 0.181454 0.181163 0.180871 0.180613 0.180417 0.180338 0.180320 0.180302 0.180223 0.180039 0.179794 0.179570 0.179346 0.179121 0.178915 0.178759 0.178697 0.178682 0.178667 0.178605 0.178452 0.178250 0.178062 0.177875 0.177688 0.177515 0.177385 0.177333 0.177321 0.177309 0.177257 0.177128 0.176958 0.176800 0.176642 0.176484 0.176334 0.176221 0.176178 0.176168 0.176158 0.176114 0.176005 0.175861 0.175727 0.175593 0.175459 0.175329 0.175230 0.175193 0.175184 0.175175 0.175138 0.175045 0.174921 0.174804 0.174686 0.174568 0.174452 0.174365 0.174332 0.174324 
0.217508 0.217401 0.217129 0.216582 0.215867 0.215174 0.214481 0.213788 0.213113 0.212597 0.212347 0.212248 0.212149 0.211900 0.211398 0.210743 0.210106 0.209470 0.208833 0.208220 0.207751 0.207524 0.207435 0.207346 0.207122 0.206672 0.206084 0.205517 0.204951 0.204385 0.203840 0.203422 0.203220 0.203140 0.203061 0.202861 0.202460 0.201937 0.201434 0.200932 0.200430 0.199951 0.199585 0.199408 0.199338 0.199268 0.199093 0.198741 0.198283 0.197841 0.197400 0.196958 0.196537 0.196214 0.196059 0.195998 0.195937 0.195784 0.195478 0.195079 0.194691 0.194304 0.193917 0.193558 0.193283 0.193149 0.193096 0.193043 0.192910 0.192642 0.192292 0.191948 0.191605 0.191261 0.190926 0.190669 0.190543 0.190494 0.190445 0.190321 0.190071 0.189744 0.189427 0.189109 0.188792 0.188483 0.188247 0.188133 0.188088 0.188043 0.187929 0.187694 0.187386 0.187086 0.186785 0.186484 0.186189 0.185963 0.185853 0.185809 0.185766 0.185656 0.185434 0.185145 0.184865 0.184585 0.184305 0.184030 0.183820 0.183718 0.183677 0.183637 0.183534 0.183328 0.183058 0.182799 0.182540 0.182280 0.182030 0.181838 0.181744 0.181707 0.181670 0.181577 0.181388 0.181141 0.180906 0.180671 0.180436 0.180214 0.180045 0.179962 0.179929 0.179896 0.179814 0.179647 0.179430 0.179223 0.179015 0.178808 0.178621 0.178477 0.178406 0.178379 0.178351 0.178282 0.178160 0.178001 0.177855 0.177708 0.177562 0.177446 0.177357 0.177314 0.177297 0.177281 0.177238 0.177154 0.177044 0.176938 0.176832 0.176726 0.176648 0.176587 0.176557 0.176545 0.176533 0.176504 0.176445 0.176367 0.176290 0.176213 0.176136 0.176083 0.176043 0.176023 0.176016 0.176008 0.175989 0.175949 0.175896 0.175842 0.175787 0.175732 0.175692 0.175661 0.175648 0.175643 0.175638 0.175625 0.175597 0.175561 0.175524 0.175487 0.175449 0.175420 0.175398 0.175390 0.175386 0.175383 0.175375 0.175357 0.175334 0.175310 0.175286 0.175261 0.175241 0.175225 0.175220 0.175219 0.175217 0.175213 0.175203 0.175191 0.175177 0.175163 0.175149 0.175134 0.175123 0.175122 0.175121 0.175121 0.175120 0.175117 0.175114 0.175110 0.175106 0.175101 0.175095 0.175091 0.175091 0.175091 0.175092 0.175094 0.175097 0.175101 0.175105 0.175109 0.175113 0.175117 0.175120 0.175121 0.175121 0.175123 0.175127 0.175136 0.175148 0.175159 0.175171 0.175183 0.175197 0.175208 0.175213 0.175216 0.175218 0.175224 0.175238 0.175257 0.175279 0.175300 0.175322 0.175345 0.175363 0.175373 0.175376 
0.212150 0.212078 0.211715 0.210790 0.209559 0.208302 0.207044 0.205786 0.204508 0.203546 0.203164 0.203089 0.203013 0.202633 0.201667 0.200384 0.199113 0.197843 0.196573 0.195333 0.194399 0.194042 0.193971 0.193901 0.193549 0.192714 0.191605 0.190644 0.189682 0.188721 0.187907 0.187295 0.187071 0.187027 0.186993 0.186825 0.186403 0.185842 0.185292 0.184742 0.184192 0.183643 0.183230 0.183068 0.183036 0.183003 0.182841 0.182430 0.181883 0.181312 0.180740 0.180169 0.179594 0.179161 0.178990 0.178956 0.178922 0.178752 0.178325 0.177758 0.177218 0.176678 0.176138 0.175646 0.175275 0.175134 0.175106 0.175082 0.174958 0.174654 0.174249 0.173917 0.173584 0.173252 0.172974 0.172765 0.172700 0.172687 0.172675 0.172610 0.172451 0.172240 0.172076 0.171912 0.171749 0.171615 0.171514 0.171481 0.171475 0.171468 0.171434 0.171346 0.171228 0.171144 0.171060 0.170976 0.170911 0.170862 0.170844 0.170841 0.170837 0.170820 0.170779 0.170726 0.170691 0.170657 0.170622 0.170606 0.170593 0.170588 0.170587 
0.189580 0.189555 0.189438 0.189132 0.188727 0.188290 0.187852 0.187415 0.186950 0.186599 0.186456 0.186426 0.186395 0.186249 0.185870 0.185368 0.184827 0.184285 0.183744 0.183174 0.182745 0.182570 0.182533 0.182496 0.182319 0.181867 0.181267 0.180630 0.179992 0.179355 0.178770 0.178329 0.178161 0.178126 0.178091 0.177926 0.177529 0.177002 0.176579 0.176157 0.175734 0.175435 0.175210 0.175119 0.175100 0.175081 0.174990 0.174765 0.174465 0.174163 0.173861 0.173559 0.173254 0.173024 0.172934 0.172915 0.172896 0.172810 0.172589 0.172295 0.171966 0.171637 0.171309 0.170961 0.170699 0.170594 0.170572 0.170549 0.170444 0.170177 0.169824 0.169475 0.169125 0.168776 0.168437 0.168181 0.168084 0.168064 0.168043 0.167946 0.167705 0.167384 0.167127 0.166870 0.166612 0.166425 0.166284 0.166243 0.166234 0.166226 0.166185 0.166082 0.165947 0.165849 0.165752 0.165655 0.165576 0.165516 0.165500 0.165496 0.165492 0.165474 0.165429 0.165368 0.165325 0.165282 0.165239 0.165198 0.165167 0.165158 0.165156 0.165153 0.165143 0.165115 0.165078 0.165055 0.165032 0.165010 0.164993 0.164980 0.164977 0.164976 
0.167763 0.167744 0.167701 0.167621 0.167518 0.167416 0.167313 0.167211 0.167109 0.167030 0.166988 0.166968 0.166949 0.166906 0.166828 0.166727 0.166627 0.166526 0.166426 0.166328 0.166251 0.166211 0.166192 0.166173 0.166132 0.166057 0.165960 0.165865 0.165769 0.165674 0.165579 0.165506 0.165467 0.165449 0.165431 0.165392 0.165320 0.165227 0.165134 0.165041 0.164948 0.164856 0.164785 0.164747 0.164729 0.164712 0.164674 0.164603 0.164512 0.164422 0.164332 0.164242 0.164152 0.164082 0.164045 0.164028 0.164011 0.163975 0.163906 0.163818 0.163730 0.163643 0.163555 0.163468 0.163401 0.163365 0.163348 0.163331 0.163295 0.163228 0.163141 0.163055 0.162969 0.162883 0.162798 0.162732 0.162697 0.162681 0.162665 0.162629 0.162564 0.162480 0.162395 0.162311 0.162227 0.162143 0.162079 0.162045 0.162030 0.162014 0.161980 0.161917 0.161836 0.161755 0.161674 0.161593 0.161512 0.161449 0.161415 0.161400 0.161384 0.161351 0.161290 0.161211 0.161134 0.161057 0.160980 0.160903 0.160844 0.160812 0.160797 0.160783 0.160751 0.160692 0.160615 0.160541 0.160468 0.160394 0.160323 0.160269 0.160240 0.160226 0.160213 0.160183 0.160129 0.160059 0.159989 0.159919 0.159848 0.159781 0.159729 0.159703 0.159691 0.159679 0.159653 0.159604 0.159541 0.159478 0.159416 0.159353 0.159316 0.159286 0.159272 0.159265 0.159258 0.159244 0.159223 0.159195 0.159170 0.159146 0.159121 0.159097 0.159078 0.159068 0.159064 0.159059 0.159049 0.159031 0.159007 0.158989 0.158971 0.158952 0.158937 0.158925 0.158918 0.158915 0.158912 0.158906 0.158893 0.158877 0.158861 0.158845 0.158828 0.158817 0.158809 0.158805 0.158803 0.158802 0.158798 0.158790 0.158781 0.158770 0.158760 0.158749 0.158738 0.158729 0.158724 0.158722 0.158720 0.158715 0.158711 0.158706 0.158700 0.158694 0.158689 0.158682 0.158677 0.158674 0.158673 0.158671 0.158668 0.158662 0.158654 0.158649 0.158644 0.158640 0.158635 0.158632 0.158630 0.158629 0.158628 0.158626 0.158622 0.158616 0.158609 0.158602 0.158595 0.158592 0.158590 0.158589 0.158589 0.158588 0.158587 0.158585 0.158582 0.158579 0.158575 0.158571 0.158566 0.158563 0.158561 0.158560 0.158559 0.158559 0.158558 0.158558 0.158557 0.158557 0.158556 0.158555 0.158554 0.158553 0.158553 0.158552 0.158552 0.158550 0.158548 0.158550 0.158551 0.158553 0.158555 0.158556 0.158557 0.158557 
