-2.242486 -1.117064 0.581692
-2.280858 -1.189524 1.785329
-2.316551 -1.281083 2.987831
-2.358299 -1.329342 4.192459
-2.413376 -1.286290 5.396668
-2.481872 -1.184496 6.596894
-2.553221 -1.085279 7.797152
-2.592562 -1.056990 9.002233
-2.586590 -1.119652 10.206922
-2.563694 -1.214443 11.409490
-2.552842 -1.287076 12.613677
-2.577086 -1.299276 13.819692
-2.628847 -1.271245 15.024755
-2.684680 -1.244836 16.229685
-2.719586 -1.225503 17.435504
-2.720400 -1.209452 18.641887
-2.703401 -1.195463 19.848202
-2.681910 -1.182686 21.054461
-2.659331 -1.170258 22.260704
-2.638354 -1.157316 23.466970
-2.242557 -1.117131 0.583690
-2.280799 -1.189371 1.783335
-2.280917 -1.189676 1.787322
-2.316490 -1.280948 2.985836
-2.316613 -1.281218 2.989825
-2.358221 -1.329329 4.190461
-2.358378 -1.329356 4.194457
-2.413273 -1.286425 5.394676
-2.413478 -1.286156 5.398661
-2.481749 -1.184681 6.594907
-2.481995 -1.184311 6.598882
-2.553118 -1.085407 7.795159
-2.553325 -1.085152 7.799145
-2.592538 -1.056952 9.000234
-2.592585 -1.057028 9.004233
-2.586622 -1.119505 10.204927
-2.586558 -1.119799 10.208916
-2.563730 -1.214291 11.407497
-2.563658 -1.214595 11.411484
-2.552837 -1.286997 12.611679
-2.552848 -1.287155 12.615676
-2.577017 -1.299301 13.817694
-2.577154 -1.299250 13.821691
-2.628751 -1.271298 15.022758
-2.628942 -1.271193 15.026752
-2.684597 -1.244873 16.227688
-2.684762 -1.244799 16.231683
-2.719558 -1.225532 17.433504
-2.719615 -1.225474 17.437503
-2.720419 -1.209477 18.639887
-2.720382 -1.209428 18.643887
-2.703434 -1.195485 19.846202
-2.703368 -1.195441 19.850201
-2.681948 -1.182707 21.052461
-2.681873 -1.182665 21.056460
-2.659368 -1.170279 22.258704
-2.659294 -1.170238 22.262703
-2.638386 -1.157339 23.464970
-2.243464 -1.118017 0.609289
-2.280042 -1.187418 1.757791
-2.281673 -1.191637 1.812866
-2.315701 -1.279219 2.960276
-2.317404 -1.282930 3.015386
-2.357215 -1.329160 4.164851
-2.359388 -1.329491 4.220067
-2.411959 -1.288145 5.369137
-2.414796 -1.284419 5.424199
-2.480174 -1.187050 6.569435
-2.483572 -1.181943 6.624354
-2.551790 -1.087038 7.769615
-2.554646 -1.083536 7.824690
-2.592237 -1.056468 8.974610
-2.592878 -1.057528 9.029857
-2.587033 -1.117619 10.179370
-2.586144 -1.121689 10.234473
-2.564188 -1.212342 11.381944
-2.563201 -1.216542 11.437037
-2.552767 -1.285981 12.586069
-2.552919 -1.288168 12.641286
-2.576140 -1.299630 13.792081
-2.578032 -1.298922 13.847304
-2.627524 -1.271971 14.997166
-2.630169 -1.270519 15.052344
-2.683535 -1.245344 16.202084
-2.685824 -1.244328 16.257287
-2.719191 -1.225902 17.407879
-2.719981 -1.225105 17.463128
-2.720656 -1.209794 18.614260
-2.720144 -1.209111 18.669514
-2.703859 -1.195767 19.820577
-2.702943 -1.195159 19.875827
-2.682425 -1.182971 21.026837
-2.681396 -1.182400 21.082085
-2.659840 -1.170545 22.233080
-2.658821 -1.169971 22.288328
-2.638797 -1.157625 23.439345
-2.247484 -1.122633 0.725174
-2.253669 -1.131254 0.908699
-2.259638 -1.141424 1.092153
-2.265428 -1.152872 1.275537
-2.271072 -1.165362 1.458858
-2.276600 -1.178678 1.642125
-2.285078 -1.200642 1.928513
-2.290446 -1.215095 2.111698
-2.295806 -1.229603 2.294879
-2.301191 -1.243935 2.478073
-2.306631 -1.257877 2.661295
-2.312155 -1.271216 2.844560
-2.321034 -1.290330 3.131140
-2.326915 -1.301128 3.314560
-2.332998 -1.310483 3.498054
-2.339309 -1.318206 3.681615
-2.345875 -1.324093 3.865235
-2.352727 -1.327924 4.048898
-2.364082 -1.329240 4.336019
-2.371790 -1.326893 4.519673
-2.379860 -1.322090 4.703265
-2.388271 -1.315134 4.886772
-2.397011 -1.306252 5.070181
-2.406073 -1.295648 5.253483
-2.420869 -1.276097 5.539787
-2.430724 -1.262013 5.722814
-2.440887 -1.246904 5.905743
-2.451341 -1.231021 6.088589
-2.462077 -1.214573 6.271370
-2.473088 -1.197760 6.454101
-2.490758 -1.171250 6.739683
-2.502175 -1.154504 6.922395
-2.513509 -1.138241 7.105156
-2.524622 -1.122699 7.287993
-2.535376 -1.108116 7.470930
-2.545637 -1.094736 7.653987
-2.560347 -1.076839 7.940403
-2.568703 -1.067678 8.123816
-2.576015 -1.060716 8.307370
-2.582179 -1.056119 8.491040
-2.587064 -1.054117 8.674794
-2.590634 -1.054759 8.858588
-2.593795 -1.060607 9.145858
-2.594456 -1.067064 9.329576
-2.594144 -1.075450 9.513216
-2.593024 -1.085430 9.696773
-2.591207 -1.096773 9.880246
-2.588806 -1.109251 10.063639
-2.584138 -1.130497 10.350168
-2.580741 -1.144848 10.533408
-2.577147 -1.159532 10.716618
-2.573482 -1.174301 10.899820
-2.569840 -1.188982 11.083030
-2.566312 -1.203424 11.266260
-2.561246 -1.225146 11.552747
-2.558429 -1.238269 11.736089
-2.556077 -1.250558 11.919496
-2.554266 -1.261890 12.102970
-2.553086 -1.272111 12.286513
-2.552630 -1.281068 12.470126
-2.553597 -1.292142 12.757263
-2.555423 -1.297130 12.941018
-2.558307 -1.300293 13.124800
-2.562137 -1.301860 13.308585
-2.566831 -1.302005 13.492357
-2.572307 -1.300903 13.676104
-2.582251 -1.297083 13.963260
-2.589368 -1.293574 14.146921
-2.596998 -1.289421 14.330548
-2.605032 -1.284834 14.514148
-2.613392 -1.279987 14.697727
-2.621999 -1.275052 14.881292
-2.635756 -1.267568 15.168219
-2.644624 -1.263094 15.351783
-2.653434 -1.258876 15.535356
-2.662097 -1.254884 15.718941
-2.670525 -1.251103 15.902542
-2.678631 -1.247515 16.086161
-2.690437 -1.242256 16.373224
-2.697304 -1.239088 16.556901
-2.703500 -1.236059 16.740604
-2.708961 -1.233144 16.924333
-2.713601 -1.230327 17.108085
-2.717333 -1.227591 17.291859
-2.721305 -1.223455 17.579156
-2.722759 -1.220893 17.762965
-2.723427 -1.218395 17.946779
-2.723414 -1.215955 18.130596
-2.722794 -1.213571 18.314412
-2.721637 -1.211239 18.498226
-2.718919 -1.207694 18.785546
-2.716712 -1.205485 18.969352
-2.714218 -1.203320 19.153155
-2.711524 -1.201194 19.336956
-2.708695 -1.199105 19.520755
-2.705761 -1.197048 19.704553
-2.700989 -1.193894 19.991850
-2.697830 -1.191910 20.175645
-2.694599 -1.189950 20.359439
-2.691307 -1.188008 20.543232
-2.687964 -1.186084 20.727024
-2.684579 -1.184172 20.910816
-2.679226 -1.181204 21.198105
-2.675776 -1.179314 21.381896
-2.672318 -1.177426 21.565687
-2.668861 -1.175538 21.749477
-2.665414 -1.173646 21.933268
-2.661988 -1.171748 22.117059
-2.656695 -1.168761 22.404349
-2.653364 -1.166833 22.588141
-2.650088 -1.164886 22.771935
-2.646876 -1.162920 22.955729
-2.643737 -1.160929 23.139524
-2.640679 -1.158913 23.323321
237 NaN NaN
-2.220439 -1.107450 0.000000
-2.224481 -1.107427 0.100508
-2.228420 -1.108151 0.201018
-2.232261 -1.109584 0.301524
-2.236008 -1.111690 0.402021
-2.239668 -1.114431 0.502507
-2.243244 -1.117772 0.602977
-2.246742 -1.121674 0.703430
-2.250167 -1.126102 0.803864
-2.253524 -1.131017 0.904277
-2.256818 -1.136385 1.004670
-2.260054 -1.142166 1.105041
-2.263236 -1.148327 1.205391
-2.266371 -1.154828 1.305721
-2.269463 -1.161635 1.406033
-2.272517 -1.168711 1.506327
-2.275539 -1.176020 1.606605
-2.278533 -1.183525 1.706870
-2.281504 -1.191190 1.807123
-2.284458 -1.198980 1.907367
-2.287399 -1.206859 2.007604
-2.290333 -1.214789 2.107838
-2.293265 -1.222737 2.208070
-2.296199 -1.230665 2.308304
-2.299141 -1.238537 2.408542
-2.302096 -1.246319 2.508787
-2.305069 -1.253973 2.609041
-2.308065 -1.261464 2.709306
-2.311089 -1.268755 2.809586
-2.314146 -1.275811 2.909881
-2.317241 -1.282595 3.010194
-2.320380 -1.289071 3.110526
-2.323567 -1.295202 3.210878
-2.326807 -1.300953 3.311251
-2.330105 -1.306285 3.411645
-2.333467 -1.311164 3.512059
-2.336898 -1.315551 3.612495
-2.340402 -1.319410 3.712949
-2.343985 -1.322704 3.813421
-2.347651 -1.325397 3.913907
-2.351406 -1.327451 4.014406
-2.355254 -1.328829 4.114912
-2.359201 -1.329494 4.215422
-2.363251 -1.329411 4.315930
-2.367408 -1.328556 4.416430
-2.371671 -1.326956 4.516916
-2.376038 -1.324644 4.617384
-2.380509 -1.321656 4.717830
-2.385081 -1.318026 4.818250
-2.389755 -1.313789 4.918641
-2.394527 -1.308979 5.019002
-2.399397 -1.303632 5.119331
-2.404364 -1.297782 5.219628
-2.409426 -1.291463 5.319891
-2.414582 -1.284710 5.420121
-2.419831 -1.277558 5.520319
-2.425172 -1.270040 5.620485
-2.430603 -1.262192 5.720621
-2.436123 -1.254046 5.820728
-2.441731 -1.245638 5.920808
-2.447427 -1.237001 6.020864
-2.453208 -1.228169 6.120899
-2.459075 -1.219175 6.220914
-2.465025 -1.210054 6.320912
-2.471058 -1.200840 6.420897
-2.477172 -1.191566 6.520871
-2.483353 -1.182269 6.620840
-2.489578 -1.172991 6.720807
-2.495826 -1.163771 6.820778
-2.502073 -1.154651 6.920758
-2.508296 -1.145669 7.020753
-2.514474 -1.136867 7.120766
-2.520582 -1.128286 7.220803
-2.526598 -1.119965 7.320867
-2.532500 -1.111946 7.420962
-2.538264 -1.104271 7.521093
-2.543867 -1.096978 7.621261
-2.549286 -1.090111 7.721470
-2.554499 -1.083711 7.821720
-2.559480 -1.077818 7.922013
-2.564208 -1.072475 8.022349
-2.568658 -1.067723 8.122728
-2.572808 -1.063604 8.223147
-2.576633 -1.060159 8.323605
-2.580111 -1.057431 8.424097
-2.583217 -1.055460 8.524619
-2.585927 -1.054290 8.625165
-2.588231 -1.053939 8.725728
-2.590141 -1.054378 8.826298
-2.591677 -1.055566 8.926869
-2.592858 -1.057466 9.027433
-2.593702 -1.060038 9.127986
-2.594228 -1.063242 9.228523
-2.594456 -1.067041 9.329041
-2.594405 -1.071394 9.429536
-2.594092 -1.076264 9.530007
-2.593537 -1.081610 9.630453
-2.592760 -1.087394 9.730873
-2.591777 -1.093579 9.831267
-2.590609 -1.100125 9.931637
-2.589274 -1.106993 10.031983
-2.587790 -1.114147 10.132307
-2.586176 -1.121547 10.232611
-2.584451 -1.129157 10.332898
-2.582633 -1.136937 10.433169
-2.580740 -1.144850 10.533430
-2.578791 -1.152858 10.633681
-2.576804 -1.160924 10.733927
-2.574798 -1.169011 10.834171
-2.572788 -1.177088 10.934416
-2.570791 -1.185131 11.034663
-2.568820 -1.193114 11.134916
-2.566892 -1.201010 11.235177
-2.565021 -1.208796 11.335448
-2.563223 -1.216444 11.435730
-2.561514 -1.223930 11.536026
-2.559908 -1.231227 11.636338
-2.558420 -1.238310 11.736667
-2.557067 -1.245153 11.837014
-2.555863 -1.251730 11.937381
-2.554824 -1.258015 12.037769
-2.553965 -1.263982 12.138178
-2.553302 -1.269606 12.238608
-2.552850 -1.274860 12.339059
-2.552625 -1.279718 12.439531
-2.552641 -1.284154 12.540023
-2.552915 -1.288142 12.640533
-2.553462 -1.291656 12.741060
-2.554297 -1.294670 12.841601
-2.555435 -1.297158 12.942153
-2.556883 -1.299113 13.042713
-2.558628 -1.300559 13.143277
-2.560657 -1.301527 13.243841
-2.562956 -1.302045 13.344403
-2.565512 -1.302143 13.444960
-2.568310 -1.301851 13.545511
-2.571338 -1.301198 13.646053
-2.574581 -1.300212 13.746585
-2.578025 -1.298925 13.847107
-2.581658 -1.297364 13.947619
-2.585466 -1.295559 14.048121
-2.589435 -1.293540 14.148612
-2.593551 -1.291335 14.249093
-2.597802 -1.288974 14.349565
-2.602174 -1.286485 14.450029
-2.606652 -1.283899 14.550485
-2.611225 -1.281243 14.650936
-2.615878 -1.278547 14.751382
-2.620598 -1.275840 14.851824
-2.625372 -1.273152 14.952264
-2.630186 -1.270510 15.052704
-2.635027 -1.267942 15.153144
-2.639881 -1.265453 15.253586
-2.644733 -1.263040 15.354030
-2.649567 -1.260702 15.454476
-2.654370 -1.258434 15.554925
-2.659127 -1.256235 15.655378
-2.663822 -1.254100 15.755836
-2.668441 -1.252029 15.856298
-2.672969 -1.250017 15.956765
-2.677392 -1.248062 16.057239
-2.681695 -1.246161 16.157718
-2.685862 -1.244311 16.258205
-2.689880 -1.242509 16.358698
-2.693733 -1.240753 16.459198
-2.697406 -1.239040 16.559706
-2.700885 -1.237367 16.660222
-2.704155 -1.235731 16.760745
-2.707201 -1.234129 16.861276
-2.710008 -1.232558 16.961814
-2.712561 -1.231016 17.062359
-2.714847 -1.229500 17.162912
-2.716849 -1.228007 17.263470
-2.718564 -1.226535 17.364034
-2.720002 -1.225083 17.464603
-2.721177 -1.223652 17.565176
-2.722100 -1.222239 17.665751
-2.722782 -1.220846 17.766329
-2.723237 -1.219472 17.866908
-2.723476 -1.218115 17.967489
-2.723511 -1.216777 18.068069
-2.723355 -1.215455 18.168650
-2.723020 -1.214150 18.269231
-2.722517 -1.212861 18.369811
-2.721859 -1.211587 18.470390
-2.721058 -1.210329 18.570969
-2.720125 -1.209086 18.671547
-2.719074 -1.207856 18.772123
-2.717916 -1.206641 18.872699
-2.716663 -1.205438 18.973274
-2.715327 -1.204249 19.073847
-2.713920 -1.203071 19.174420
-2.712455 -1.201906 19.274993
-2.710943 -1.200751 19.375564
-2.709396 -1.199608 19.476135
-2.707816 -1.198474 19.576706
-2.706206 -1.197351 19.677277
-2.704567 -1.196236 19.777847
-2.702900 -1.195131 19.878417
-2.701208 -1.194034 19.978986
-2.699492 -1.192944 20.079555
-2.697753 -1.191862 20.180124
-2.695992 -1.190787 20.280693
-2.694213 -1.189718 20.381261
-2.692415 -1.188654 20.481829
-2.690601 -1.187596 20.582397
-2.688771 -1.186543 20.682964
-2.686929 -1.185494 20.783531
-2.685075 -1.184449 20.884099
-2.683210 -1.183407 20.984666
-2.681337 -1.182368 21.085232
-2.679457 -1.181331 21.185799
-2.677571 -1.180296 21.286366
-2.675682 -1.179262 21.386932
-2.673789 -1.178229 21.487499
-2.671896 -1.177196 21.588066
-2.670004 -1.176164 21.688632
-2.668114 -1.175130 21.789199
-2.666228 -1.174095 21.889765
-2.664347 -1.173058 21.990332
-2.662473 -1.172019 22.090899
-2.660608 -1.170978 22.191466
-2.658753 -1.169933 22.292033
-2.656909 -1.168884 22.392600
-2.655079 -1.167831 22.493168
-2.653263 -1.166774 22.593736
-2.651464 -1.165711 22.694304
-2.649682 -1.164643 22.794872
-2.647920 -1.163568 22.895440
-2.646179 -1.162486 22.996009
-2.644460 -1.161398 23.096578
-2.642766 -1.160301 23.197148
-2.641097 -1.159196 23.297717
-2.639455 -1.158083 23.398287
-2.637842 -1.156960 23.498858
-2.636260 -1.155828 23.599429
-2.634709 -1.154685 23.700000
-2.719170 -1.225227 17.435531
-2.597523 -1.142879 17.443859
-2.479345 -1.055707 17.452955
-2.365683 -0.962829 17.462969
-2.256765 -0.864524 17.473869
-2.153106 -0.760795 17.485668
-2.055715 -0.651266 17.498445
-1.964223 -0.536858 17.512062
-1.880501 -0.416769 17.526680
-1.803591 -0.292306 17.542091
-1.734730 -0.163327 17.558348
-1.673765 -0.030521 17.575349
-1.620593 0.105507 17.593007
-1.575987 0.244505 17.611308
-1.538596 0.385555 17.630087
-1.509691 0.528521 17.649358
-1.487650 0.672660 17.668975
-2.717506 -1.224123 17.435642
-2.599152 -1.144033 17.443740
-2.595894 -1.141724 17.443978
-2.480936 -1.056912 17.452828
-2.477754 -1.054502 17.453081
-2.367187 -0.964139 17.462825
-2.364178 -0.961520 17.463113
-2.258220 -0.865887 17.473716
-2.255309 -0.863161 17.474022
-2.154453 -0.762263 17.485498
-2.151759 -0.759326 17.485838
-2.057002 -0.652786 17.498266
-2.054427 -0.649746 17.498624
-1.965447 -0.538428 17.511875
-1.963013 -0.535277 17.512252
-1.881588 -0.418435 17.526476
-1.879413 -0.415103 17.526885
-1.804607 -0.294016 17.541879
-1.802576 -0.290596 17.542304
-1.735596 -0.165116 17.558120
-1.733865 -0.161539 17.558575
-1.674553 -0.032344 17.575114
-1.672976 -0.028698 17.575583
-1.621228 0.103627 17.592760
-1.619958 0.107388 17.593254
-1.576545 0.242601 17.611056
-1.575428 0.246409 17.611560
-1.539080 0.383632 17.629830
-1.538112 0.387479 17.630344
-1.510030 0.526568 17.649093
-1.509352 0.530474 17.649623
-1.487920 0.670696 17.668707
-2.711974 -1.220452 17.436010
-2.604569 -1.147870 17.443346
-2.590477 -1.137887 17.444373
-2.486226 -1.060920 17.452406
-2.472463 -1.050494 17.453503
-2.372190 -0.968495 17.462347
-2.359175 -0.957164 17.463591
-2.263061 -0.870418 17.473209
-2.250468 -0.858630 17.474529
-2.158932 -0.767146 17.484932
-2.147279 -0.754444 17.486404
-2.061282 -0.657841 17.497671
-2.050147 -0.644691 17.499220
-1.969517 -0.543651 17.511250
-1.959165 -0.529893 17.512905
-1.885205 -0.423974 17.525795
-1.875796 -0.409564 17.527566
-1.807983 -0.299701 17.541171
-1.799199 -0.284910 17.543012
-1.738474 -0.171063 17.557362
-1.730987 -0.155592 17.559333
-1.677177 -0.038405 17.574334
-1.670352 -0.022637 17.576363
-1.623339 0.097374 17.591940
-1.617846 0.113640 17.594074
-1.578404 0.236271 17.610218
-1.573569 0.252739 17.612398
-1.540689 0.377236 17.628976
-1.536686 0.393915 17.631208
-1.511158 0.520074 17.648213
-1.508224 0.536969 17.650503
-1.488818 0.664167 17.667816
-2.699401 -1.212108 17.436848
-2.682824 -1.201108 17.437951
-2.666248 -1.190108 17.439055
-2.649672 -1.179108 17.440159
-2.633108 -1.168089 17.441266
-2.616879 -1.156591 17.442449
-2.578167 -1.129166 17.445270
-2.561938 -1.117668 17.446452
-2.545800 -1.106047 17.447655
-2.529949 -1.094040 17.448919
-2.514099 -1.082033 17.450183
-2.498249 -1.070027 17.451447
-2.460626 -1.041156 17.454499
-2.445188 -1.028631 17.455847
-2.429751 -1.016106 17.457195
-2.414314 -1.003582 17.458542
-2.398876 -0.991057 17.459890
-2.383559 -0.978392 17.461260
-2.347806 -0.947267 17.464678
-2.332818 -0.934218 17.466111
-2.317829 -0.921169 17.467543
-2.303069 -0.907870 17.469017
-2.288565 -0.894293 17.470537
-2.274062 -0.880716 17.472057
-2.239467 -0.848332 17.475681
-2.225318 -0.834397 17.477261
-2.211337 -0.820292 17.478868
-2.197356 -0.806188 17.480475
-2.183375 -0.792083 17.482083
-2.169394 -0.777978 17.483690
-2.137099 -0.743348 17.487690
-2.123678 -0.728720 17.489386
-2.110257 -0.714091 17.491082
-2.096836 -0.699462 17.492777
-2.083834 -0.684472 17.494535
-2.071010 -0.669327 17.496318
-2.040420 -0.633205 17.500573
-2.027595 -0.618060 17.502356
-2.015344 -0.602460 17.504219
-2.003151 -0.586813 17.506090
-1.990958 -0.571166 17.507960
-1.978765 -0.555519 17.509831
-1.950420 -0.517657 17.514389
-1.938892 -0.501524 17.516345
-1.927363 -0.485392 17.518301
-1.915834 -0.469259 17.520258
-1.904305 -0.453127 17.522214
-1.893423 -0.436562 17.524248
-1.867578 -0.396976 17.529113
-1.856743 -0.380379 17.531153
-1.846006 -0.363723 17.533203
-1.835890 -0.346689 17.535323
-1.825773 -0.329655 17.537443
-1.815657 -0.312621 17.539563
-1.791779 -0.271851 17.544646
-1.782402 -0.254408 17.546843
-1.773024 -0.236966 17.549039
-1.763647 -0.219523 17.551236
-1.754269 -0.202081 17.553433
-1.745015 -0.184578 17.555641
-1.724446 -0.142077 17.561054
-1.715823 -0.124259 17.563323
-1.707200 -0.106440 17.565593
-1.698857 -0.088497 17.567887
-1.690998 -0.070337 17.570224
-1.683138 -0.052178 17.572561
-1.664391 -0.008863 17.578136
-1.656971 0.009471 17.580510
-1.649879 0.027935 17.582910
-1.642787 0.046400 17.585310
-1.635695 0.064864 17.587710
-1.628603 0.083329 17.590111
-1.613047 0.127849 17.595939
-1.606721 0.146582 17.598397
-1.600394 0.165315 17.600855
-1.594068 0.184048 17.603313
-1.588195 0.202920 17.605803
-1.582627 0.221886 17.608313
-1.569346 0.267124 17.614302
-1.563778 0.286089 17.616813
-1.558810 0.305213 17.619362
-1.553989 0.324376 17.621920
-1.549167 0.343539 17.624478
-1.544346 0.362701 17.627036
-1.533583 0.408574 17.633180
-1.529493 0.427900 17.635780
-1.525403 0.447227 17.638381
-1.521312 0.466553 17.640981
-1.517222 0.485879 17.643581
-1.513721 0.505315 17.646213
-1.505661 0.551728 17.652504
-1.502282 0.571186 17.655141
-1.498926 0.590648 17.657780
-1.496237 0.610209 17.660450
-1.493547 0.629770 17.663120
-1.490858 0.649331 17.665791
25 NaN NaN
-2.719586 -1.225503 17.435504
-2.633716 -1.168520 17.441222
-2.549642 -1.108957 17.447348
-2.467533 -1.046760 17.453897
-2.387564 -0.981879 17.460877
-2.309918 -0.914282 17.468300
-2.234787 -0.843951 17.476172
-2.162363 -0.770885 17.484499
-2.092840 -0.695107 17.493282
-2.026407 -0.616658 17.502521
-1.963246 -0.535604 17.512212
-1.903526 -0.452036 17.522346
-1.847398 -0.366066 17.532912
-1.794993 -0.277829 17.543893
-1.746417 -0.187476 17.555272
-1.701748 -0.095176 17.567027
-1.661035 -0.001109 17.579134
-1.624297 0.094540 17.591568
-1.591524 0.191580 17.604301
-1.562682 0.289824 17.617307
-1.537707 0.389090 17.630559
-1.516518 0.489204 17.644029
-1.499015 0.590002 17.657692
-1.485083 0.691332 17.671524
-1.474597 0.793058 17.685503
-2.592149 -1.056707 9.002236
-2.445322 -0.952681 9.003570
-2.305576 -0.839408 9.006681
-2.174196 -0.716571 9.011716
-2.053933 -0.582945 9.019059
-1.945416 -0.439807 9.028599
-1.849881 -0.287819 9.040351
-1.770045 -0.127216 9.054508
-1.705334 0.039822 9.070743
-1.655669 0.211784 9.088853
-1.622178 0.387439 9.108771
-1.602868 0.565025 9.130108
-2.590500 -1.055576 9.002246
-2.446927 -0.953874 9.003548
-2.443717 -0.951488 9.003591
-2.307075 -0.840731 9.006633
-2.304077 -0.838084 9.006728
-2.175564 -0.718028 9.011640
-2.172828 -0.715113 9.011791
-2.055225 -0.584469 9.018969
-2.052641 -0.581422 9.019150
-1.946538 -0.441458 9.028478
-1.944293 -0.438156 9.028720
-1.850811 -0.289583 9.040200
-1.848950 -0.286055 9.040502
-1.770873 -0.129029 9.054343
-1.769216 -0.125403 9.054674
-1.705954 0.037930 9.070550
-1.704713 0.041713 9.070936
-1.656085 0.209840 9.088636
-1.655254 0.213729 9.089069
-1.622494 0.385477 9.108544
-1.621861 0.389400 9.108999
-1.602998 0.563044 9.129863
-2.584067 -1.051167 9.002285
-2.453186 -0.958527 9.003463
-2.437458 -0.946836 9.003676
-2.312920 -0.845891 9.006449
-2.298232 -0.832924 9.006913
-2.181153 -0.723461 9.011399
-2.167494 -0.709431 9.012085
-2.060265 -0.590411 9.018617
-2.047601 -0.575479 9.019502
-1.950914 -0.447897 9.028008
-1.939917 -0.431717 9.029191
-1.854710 -0.296313 9.039652
-1.845322 -0.279176 9.041091
-1.774106 -0.136097 9.053696
-1.765983 -0.118335 9.055320
-1.708376 0.030555 9.069797
-1.702291 0.049089 9.071688
-1.657889 0.202300 9.087811
-1.653634 0.221311 9.089915
-1.623728 0.377827 9.107658
-1.620628 0.397050 9.109885
-1.603505 0.555320 9.128908
-2.568713 -1.040643 9.002379
-2.548397 -1.026718 9.002503
-2.528081 -1.012792 9.002627
-2.507765 -0.998867 9.002751
-2.487891 -0.984324 9.002991
-2.468125 -0.969631 9.003260
-2.422519 -0.935732 9.003879
-2.403211 -0.920450 9.004261
-2.384062 -0.904965 9.004683
-2.364912 -0.889480 9.005104
-2.345763 -0.873995 9.005526
-2.326871 -0.858207 9.006008
-2.284281 -0.820608 9.007353
-2.265821 -0.804312 9.007936
-2.247601 -0.787759 9.008572
-2.229908 -0.770639 9.009325
-2.212216 -0.753519 9.010078
-2.194524 -0.736400 9.010830
-2.154764 -0.695868 9.012788
-2.137920 -0.677921 9.013717
-2.121076 -0.659975 9.014646
-2.104232 -0.642028 9.015575
-2.088206 -0.623360 9.016665
-2.072292 -0.604594 9.017777
-2.035574 -0.561297 9.020342
-2.020487 -0.541875 9.021606
-2.005582 -0.522309 9.022904
-1.990678 -0.502743 9.024203
-1.975773 -0.483177 9.025501
-1.961357 -0.463265 9.026884
-1.929474 -0.416349 9.030314
-1.915654 -0.396015 9.031801
-1.902283 -0.375399 9.033361
-1.889617 -0.354342 9.035036
-1.876950 -0.333284 9.036711
-1.864283 -0.312227 9.038386
-1.836663 -0.262759 9.042497
-1.825204 -0.241035 9.044358
-1.813746 -0.219311 9.046219
-1.802288 -0.197588 9.048079
-1.792028 -0.175290 9.050113
-1.781820 -0.152967 9.052154
-1.758269 -0.101464 9.056863
-1.749205 -0.078672 9.059059
-1.740273 -0.055825 9.061273
-1.731341 -0.032978 9.063486
-1.722409 -0.010130 9.065700
-1.714155 0.012952 9.068000
-1.696512 0.066692 9.073485
-1.688865 0.089985 9.075862
-1.681813 0.113447 9.078310
-1.675443 0.137105 9.080840
-1.669073 0.160763 9.083370
-1.662703 0.184421 9.085899
-1.649768 0.239408 9.091933
-1.644653 0.263353 9.094603
-1.639537 0.287298 9.097273
-1.634465 0.311251 9.099947
-1.630569 0.335410 9.102745
-1.626673 0.359569 9.105544
-1.617683 0.415309 9.111999
-1.614929 0.439610 9.114910
-1.612207 0.463916 9.117824
-1.609484 0.488222 9.120737
-1.606761 0.512527 9.123651
-1.604716 0.536885 9.126627
21 NaN NaN
-2.592562 -1.056990 9.002233
-2.503798 -0.996148 9.002775
-2.417435 -0.931952 9.003948
-2.333769 -0.864297 9.005790
-2.253117 -0.793097 9.008338
-2.175819 -0.718300 9.011626
-2.102227 -0.639892 9.015686
-2.032698 -0.557905 9.020543
-1.967581 -0.472422 9.026214
-1.907206 -0.383584 9.032710
-1.851868 -0.291586 9.040028
-1.801809 -0.196679 9.048157
-1.757212 -0.099154 9.057074
-1.718190 0.000661 9.066746
-1.684781 0.102424 9.077132
-1.656951 0.205783 9.088183
-1.634603 0.310398 9.099849
-1.617580 0.415949 9.112073
-1.605684 0.522141 9.124804
-1.598685 0.628714 9.137986
-1.596328 0.735441 9.151571
-2.552811 -1.084995 7.797176
-2.306217 -0.902081 7.813539
-2.079378 -0.695743 7.835422
-1.876968 -0.466070 7.863118
-1.703367 -0.214657 7.896634
-1.561810 0.055350 7.935622
-1.453721 0.339724 7.979418
-1.378572 0.633932 8.027174
-2.551170 -1.083855 7.797271
-2.307781 -0.903323 7.813421
-2.304654 -0.900839 7.813658
-2.080799 -0.697142 7.835265
-2.077957 -0.694345 7.835578
-1.878215 -0.467621 7.862923
-1.875721 -0.464518 7.863313
-1.704412 -0.216347 7.896401
-1.702323 -0.212968 7.896867
-1.562635 0.053548 7.935354
-1.560984 0.057152 7.935890
-1.454323 0.337840 7.979120
-1.453119 0.341607 7.979716
-1.378960 0.631997 8.026853
-2.541107 -1.076868 7.797853
-2.317368 -0.910937 7.812695
-2.295237 -0.893022 7.814432
-2.089514 -0.705719 7.834308
-2.069264 -0.685746 7.836540
-1.885861 -0.477136 7.861726
-1.868075 -0.455003 7.864510
-1.710819 -0.226707 7.894970
-1.695915 -0.202608 7.898298
-1.567696 0.042498 7.933709
-1.555923 0.068202 7.937535
-1.458016 0.326287 7.977295
-1.449427 0.353160 7.981542
-1.381340 0.620127 8.024883
-2.514668 -1.058509 7.799383
-2.479455 -1.034058 7.801420
-2.444760 -1.008897 7.803619
-2.410343 -0.983358 7.805905
-2.376108 -0.957588 7.808244
-2.342558 -0.930943 7.810786
-2.270754 -0.872176 7.816538
-2.238146 -0.844412 7.819344
-2.206036 -0.816097 7.822281
-2.174446 -0.787208 7.825356
-2.142906 -0.758267 7.828444
-2.112410 -0.728254 7.831793
-2.047248 -0.662374 7.839264
-2.017924 -0.631246 7.842892
-1.989009 -0.599759 7.846611
-1.960933 -0.567533 7.850519
-1.932858 -0.535307 7.854427
-1.905950 -0.502136 7.858582
-1.848830 -0.429376 7.867823
-1.823462 -0.395046 7.872288
-1.798332 -0.360554 7.876799
-1.774411 -0.325236 7.881539
-1.750491 -0.289918 7.886278
-1.727653 -0.253926 7.891211
-1.679768 -0.175000 7.902173
-1.658890 -0.137873 7.907440
-1.638015 -0.100745 7.912707
-1.618711 -0.062812 7.918223
-1.599406 -0.024879 7.923739
-1.580994 0.013465 7.929389
-1.543079 0.097422 7.941919
-1.526972 0.136751 7.947899
-1.510864 0.176081 7.953878
-1.496101 0.215902 7.960036
-1.481593 0.255817 7.966228
-1.467716 0.295934 7.972498
-1.439915 0.383566 7.986361
-1.428559 0.424429 7.992933
-1.417203 0.465293 7.999504
-1.406887 0.506407 8.006190
-1.397064 0.547639 8.012930
-1.387592 0.588942 8.019707
23 NaN NaN
-2.553221 -1.085279 7.797152
-2.467196 -1.025546 7.802129
-2.383116 -0.963154 7.807713
-2.301156 -0.898061 7.813923
-2.221496 -0.830235 7.820776
-2.144322 -0.759661 7.828288
-2.069824 -0.686340 7.836471
-1.998189 -0.610296 7.845333
-1.929603 -0.531571 7.854880
-1.864242 -0.450232 7.865110
-1.802270 -0.366369 7.876019
-1.743835 -0.280091 7.887597
-1.689064 -0.191529 7.899828
-1.638060 -0.100833 7.912694
-1.590901 -0.008167 7.926170
-1.547636 0.086296 7.940227
-1.508287 0.182373 7.954835
-1.472847 0.279882 7.969961
-1.441284 0.378639 7.985568
-1.413542 0.478467 8.001623
-1.389547 0.579195 8.018089
-1.369203 0.680662 8.034931
-1.352403 0.782719 8.052115
-2.412995 -1.285967 5.396685
-2.223895 -1.118813 5.406663
-2.046436 -0.939732 5.421814
-1.882535 -0.748688 5.442488
-1.734085 -0.546080 5.468918
-1.601728 -0.333364 5.500838
-1.487192 -0.111415 5.538326
-1.390568 0.118005 5.580940
-1.311528 0.353193 5.628179
-2.411470 -1.284674 5.396751
-2.225344 -1.120188 5.406562
-2.222446 -1.117439 5.406763
-2.047801 -0.941188 5.421677
-2.045072 -0.938276 5.421951
-1.883754 -0.750261 5.442295
-1.881315 -0.747115 5.442681
-1.735198 -0.547725 5.468687
-1.732972 -0.544434 5.469149
-1.602728 -0.335075 5.500569
-1.600728 -0.331653 5.501106
-1.488014 -0.113210 5.538004
-1.486370 -0.109621 5.538647
-1.391270 0.116166 5.580586
-1.389866 0.119844 5.581295
-1.312091 0.351315 5.627789
-2.403587 -1.277988 5.397094
-2.232838 -1.127297 5.406040
-2.214952 -1.110330 5.407285
-2.054856 -0.948716 5.420968
-2.038017 -0.930747 5.422660
-1.890063 -0.758396 5.441295
-1.875006 -0.738981 5.443680
-1.740955 -0.556233 5.467492
-1.727214 -0.535926 5.470344
-1.607900 -0.343923 5.499182
-1.595556 -0.322804 5.502493
-1.492266 -0.122490 5.536342
-1.482117 -0.100341 5.540310
-1.394899 0.106656 5.578753
-1.386237 0.129353 5.583128
-1.315102 0.341623 5.625799
-2.383492 -1.260943 5.397967
-2.356782 -1.238286 5.399128
-2.330124 -1.215570 5.400314
-2.304052 -1.192198 5.401774
-2.277980 -1.168826 5.403235
-2.251941 -1.145419 5.404710
-2.195849 -1.092208 5.408615
-2.170618 -1.067960 5.410453
-2.145947 -1.043158 5.412535
-2.121277 -1.018355 5.414617
-2.096749 -0.993420 5.416759
-2.072842 -0.967909 5.419161
-2.020321 -0.911302 5.424584
-1.997218 -0.885092 5.427311
-1.974116 -0.858882 5.430038
-1.951288 -0.832449 5.432872
-1.929029 -0.805554 5.435927
-1.906771 -0.778658 5.438983
-1.858924 -0.718245 5.446228
-1.837548 -0.690682 5.449614
-1.816598 -0.662818 5.453153
-1.796140 -0.634609 5.456871
-1.775682 -0.606399 5.460588
-1.755631 -0.577923 5.464447
-1.712538 -0.514236 5.473389
-1.693621 -0.485048 5.477634
-1.675093 -0.455626 5.482010
-1.656565 -0.426203 5.486386
-1.638607 -0.396462 5.490946
-1.621083 -0.366480 5.495646
-1.583133 -0.299858 5.506265
-1.566633 -0.269351 5.511284
-1.550134 -0.238843 5.516303
-1.534370 -0.207990 5.521542
-1.518911 -0.176994 5.526872
-1.503451 -0.145999 5.532203
-1.471277 -0.076684 5.544549
-1.456869 -0.045239 5.550183
-1.443353 -0.013448 5.556065
-1.430000 0.018406 5.561993
-1.416647 0.050261 5.567922
-1.404150 0.082414 5.574079
-1.376986 0.153596 5.587801
-1.365725 0.186143 5.594281
-1.354480 0.218695 5.600765
-1.343235 0.251247 5.607249
-1.332979 0.284074 5.613980
-1.322777 0.316915 5.620725
22 NaN NaN
-2.413376 -1.286290 5.396668
-2.332303 -1.217523 5.400192
-2.253169 -1.146584 5.404624
-2.176099 -1.073471 5.409990
-2.101220 -0.998190 5.416310
-2.028657 -0.920760 5.423600
-1.958536 -0.841208 5.431877
-1.890978 -0.759576 5.441151
-1.826097 -0.675917 5.451427
-1.764003 -0.590296 5.462710
-1.704794 -0.502791 5.474996
-1.648558 -0.413488 5.488277
-1.595370 -0.322486 5.502543
-1.545292 -0.229890 5.517776
-1.498371 -0.135813 5.533955
-1.454639 -0.040372 5.551055
-1.414111 0.056311 5.569047
-1.376789 0.154114 5.587901
-1.342658 0.252916 5.607582
-1.311693 0.352596 5.628053
-1.283853 0.453038 5.649277
-1.259088 0.554129 5.671216
-2.280453 -1.189231 1.785313
-2.146294 -1.089989 1.780502
-2.016595 -0.984926 1.777829
-1.892430 -0.873336 1.777655
-1.774141 -0.755578 1.779970
-1.662163 -0.631862 1.784814
-1.557534 -0.502017 1.792428
-1.459801 -0.367057 1.802502
-1.370569 -0.226564 1.815443
-1.288913 -0.081786 1.830799
-1.215708 0.067170 1.848717
-1.150732 0.219589 1.869001
-1.093678 0.374862 1.891456
-2.278833 -1.188060 1.785249
-2.147879 -1.091208 1.780549
-2.144709 -1.088770 1.780456
-2.018102 -0.986240 1.777840
-2.015088 -0.983611 1.777818
-1.893894 -0.874699 1.777647
-1.890966 -0.871974 1.777663
-1.775510 -0.757035 1.779923
-1.772771 -0.754122 1.780017
-1.663482 -0.633364 1.784747
-1.660844 -0.630360 1.784881
-1.558743 -0.503606 1.792320
-1.556324 -0.500427 1.792535
-1.460893 -0.368726 1.802355
-1.458709 -0.365388 1.802650
-1.371601 -0.228270 1.815276
-1.369538 -0.224859 1.815611
-1.289820 -0.083557 1.830593
-1.288006 -0.080015 1.831005
-1.216552 0.065371 1.848493
-1.214864 0.068969 1.848942
-1.151451 0.217741 1.868741
-1.150014 0.221437 1.869260
-1.094335 0.372993 1.891180
-2.272886 -1.183759 1.785014
-2.153699 -1.095683 1.780721
-2.138889 -1.084295 1.780284
-2.023636 -0.991067 1.777879
-2.009553 -0.978784 1.777778
-1.899270 -0.879701 1.777617
-1.885589 -0.866971 1.777692
-1.780540 -0.762383 1.779751
-1.767741 -0.748773 1.780189
-1.668324 -0.638880 1.784502
-1.656002 -0.624844 1.785126
-1.563183 -0.509442 1.791927
-1.551884 -0.494592 1.792928
-1.465100 -0.374726 1.801880
-1.454699 -0.359260 1.803191
-1.375387 -0.234532 1.814662
-1.365752 -0.218596 1.816225
-1.293150 -0.090059 1.829837
-1.284677 -0.073514 1.831761
-1.219650 0.058764 1.847669
-1.211765 0.075576 1.849766
-1.154090 0.210954 1.867788
-1.147375 0.228224 1.870213
-1.096747 0.366132 1.890166
-2.258934 -1.173670 1.784463
-2.240496 -1.160338 1.783736
-2.222058 -1.147005 1.783008
-2.203620 -1.133673 1.782281
-2.185393 -1.120054 1.781657
-2.167351 -1.106181 1.781124
-2.125237 -1.073797 1.779881
-2.107283 -1.059812 1.779390
-2.089669 -1.045395 1.779059
-2.072054 -1.030978 1.778728
-2.054440 -1.016560 1.778397
-2.036825 -1.002143 1.778066
-1.996571 -0.967461 1.777686
-1.979415 -0.952498 1.777563
-1.962259 -0.937535 1.777440
-1.945213 -0.922450 1.777365
-1.928547 -0.906943 1.777457
-1.911881 -0.891436 1.777548
-1.872978 -0.855237 1.777761
-1.856782 -0.839244 1.778050
-1.840638 -0.823197 1.778361
-1.824494 -0.807150 1.778671
-1.808349 -0.791103 1.778982
-1.792339 -0.774928 1.779346
-1.755943 -0.736228 1.780593
-1.740351 -0.719650 1.781127
-1.724759 -0.703071 1.781662
-1.709701 -0.686016 1.782404
-1.694691 -0.668917 1.783165
-1.679682 -0.651819 1.783926
-1.645006 -0.611606 1.785838
-1.630606 -0.594002 1.786828
-1.616206 -0.576398 1.787818
-1.601806 -0.558794 1.788808
-1.587406 -0.541190 1.789798
-1.573599 -0.523131 1.791003
-1.541468 -0.480902 1.793852
-1.527703 -0.462812 1.795072
-1.514340 -0.444437 1.796432
-1.501232 -0.425880 1.797882
-1.488125 -0.407324 1.799332
-1.475018 -0.388768 1.800782
-1.445293 -0.344884 1.804461
-1.432862 -0.325887 1.806140
-1.420432 -0.306889 1.807818
-1.408002 -0.287892 1.809497
-1.396007 -0.268633 1.811317
-1.384269 -0.249221 1.813221
-1.356870 -0.203907 1.817666
-1.345346 -0.184377 1.819637
-1.334313 -0.164579 1.821763
-1.323279 -0.144780 1.823889
-1.312246 -0.124982 1.826015
-1.301212 -0.105183 1.828141
-1.276866 -0.058263 1.833533
-1.266545 -0.038108 1.835876
-1.256223 -0.017953 1.838219
-1.246132 0.002306 1.840630
-1.236526 0.022786 1.843183
-1.226919 0.043267 1.845737
-1.204496 0.091073 1.851698
-1.195603 0.111847 1.854455
-1.186712 0.132622 1.857213
-1.177821 0.153396 1.859971
-1.168930 0.174171 1.862728
-1.160280 0.195035 1.865553
-1.141185 0.244143 1.872449
-1.133005 0.265181 1.875403
-1.124835 0.286223 1.878360
-1.117358 0.307494 1.881503
-1.109882 0.328765 1.884645
-1.102405 0.350036 1.887788
21 NaN NaN
-2.280858 -1.189524 1.785329
-2.194966 -1.127415 1.781939
-2.110921 -1.062789 1.779458
-2.028865 -0.995628 1.777917
-1.948945 -0.925923 1.777345
-1.871309 -0.853683 1.777770
-1.796103 -0.778930 1.779217
-1.723470 -0.701701 1.781706
-1.653549 -0.622049 1.785251
-1.586468 -0.540044 1.789863
-1.522346 -0.455771 1.795547
-1.461287 -0.369329 1.802302
-1.403382 -0.280831 1.810120
-1.348704 -0.190402 1.818991
-1.297305 -0.098173 1.828894
-1.249223 -0.004285 1.839808
-1.204474 0.091120 1.851704
-1.163056 0.187896 1.864550
-1.124949 0.285899 1.878312
-1.090119 0.384988 1.892952
-1.058516 0.485028 1.908431
