-1.438817 0.466749 5.386294
-1.443842 0.473585 5.389402
-1.448868 0.480421 5.392509
-1.706673 0.831174 5.551478
-1.963019 1.179058 5.707298
-2.258840 1.439831 5.574850
-2.565655 1.612759 5.282808
-1.452214 0.484973 5.394579
-1.705560 0.829661 5.550792
-1.707785 0.832688 5.552164
-1.961869 1.177536 5.706698
-1.964169 1.180580 5.707898
-2.257633 1.439147 5.576290
-2.260046 1.440584 5.573444
-2.564146 1.612270 5.284027
-1.466130 0.503903 5.403186
-1.691641 0.810724 5.542206
-1.721703 0.851621 5.560761
-1.947481 1.158490 5.699194
-1.978557 1.199626 5.715402
-2.242528 1.430590 5.594309
-2.275125 1.450172 5.555928
-2.545273 1.606142 5.299269
-1.495819 0.544291 5.421540
-1.529042 0.589492 5.442026
-1.562267 0.634697 5.462502
-1.595493 0.679906 5.482962
-1.628720 0.725115 5.503424
-1.661946 0.770323 5.523888
-1.751389 0.892004 5.579133
-1.784599 0.937176 5.599704
-1.817804 0.982339 5.620302
-1.851019 1.027523 5.640837
-1.884239 1.072717 5.661341
-1.917500 1.117984 5.681618
-2.010662 1.240131 5.727862
-2.049052 1.285222 5.735579
-2.090345 1.325626 5.726690
-2.133024 1.363605 5.709465
-2.172177 1.388752 5.672031
-2.210303 1.412333 5.632751
-2.307294 1.470625 5.518561
-2.344283 1.495752 5.479050
-2.381790 1.522040 5.440726
-2.421730 1.547437 5.404310
-2.462644 1.571190 5.367978
-2.505759 1.591041 5.331734
-3.474821 1.838492 4.573407
-4.387624 2.029791 3.857223
-5.353731 2.275895 3.238881
-6.006204 3.058612 2.691697
-6.534188 3.980921 2.188268
-7.112807 4.858060 1.660920
-7.764929 5.657850 1.098466
-8.507073 6.340869 0.495804
-9.339348 6.870526 -0.142039
-10.244815 7.224581 -0.801562
-11.196645 7.404896 -1.466601
-12.170142 7.431824 -2.124632
-2.567163 1.613249 5.281590
-3.473276 1.838178 4.574637
-3.476367 1.838805 4.572177
-4.386019 2.029467 3.858372
-4.389229 2.030116 3.856074
-5.352191 2.275131 3.239902
-5.355271 2.276660 3.237859
-6.005339 3.057023 2.692548
-6.007069 3.060202 2.690845
-6.533247 3.979389 2.189144
-6.535130 3.982452 2.187392
-7.111754 4.856637 1.661851
-7.113860 4.859483 1.659990
-7.763724 5.656607 1.099467
-7.766135 5.659092 1.097466
-8.505715 6.339858 0.496868
-8.508431 6.341881 0.494740
-9.337864 6.869770 -0.140931
-9.340832 6.871282 -0.143146
-10.243231 7.224121 -0.800432
-10.246400 7.225041 -0.802692
-11.195004 7.404714 -1.465473
-11.198287 7.405079 -1.467730
-12.168480 7.431856 -2.123520
-2.586036 1.619376 5.266348
-3.453939 1.834255 4.590024
-3.495703 1.842729 4.556789
-4.365945 2.025408 3.872746
-4.409586 2.034013 3.842059
-5.332923 2.265566 3.252681
-5.374540 2.286225 3.225081
-5.994518 3.037135 2.703198
-6.017891 3.080090 2.680196
-6.521529 3.960173 2.200076
-6.546907 4.001615 2.176432
-7.098577 4.838833 1.673490
-7.127047 4.877276 1.648346
-7.748640 5.641057 1.111988
-7.781218 5.674642 1.084945
-8.488792 6.327086 0.510155
-8.525419 6.354540 0.481428
-9.319301 6.860311 -0.127076
-9.359477 6.880541 -0.157026
-10.223405 7.218370 -0.786292
-10.266225 7.230792 -0.816832
-11.174472 7.402435 -1.451357
-11.218819 7.407358 -1.481846
-12.147691 7.432254 -2.109602
-2.672231 1.644214 5.197471
-2.807468 1.687761 5.088336
-2.943836 1.729004 4.979770
-3.083877 1.759919 4.872434
-3.225274 1.787563 4.765939
-3.365948 1.816273 4.658770
-3.582920 1.860377 4.486977
-3.720744 1.888237 4.375949
-3.858964 1.916695 4.265569
-3.997799 1.946266 4.156257
-4.136171 1.976630 4.046576
-4.275816 2.006864 3.938496
-4.501968 2.051294 3.779144
-4.650024 2.077319 3.681678
-4.798722 2.106363 3.586070
-4.947157 2.141885 3.492254
-5.096315 2.180393 3.400791
-5.243626 2.226998 3.310263
-5.457583 2.336925 3.167486
-5.578906 2.433310 3.077735
-5.690502 2.542611 2.990099
-5.791952 2.663183 2.905198
-5.875524 2.800092 2.825906
-5.947265 2.946151 2.750954
-6.067299 3.169721 2.632061
-6.145969 3.311689 2.556198
-6.225316 3.453209 2.480208
-6.305749 3.593784 2.403606
-6.386739 3.733893 2.326737
-6.468826 3.873079 2.249358
-6.600168 4.088216 2.126877
-6.684863 4.225107 2.048225
-6.771364 4.360343 1.968688
-6.860156 4.493419 1.888031
-6.949079 4.626372 1.807316
-7.039610 4.757741 1.725818
-7.186776 4.957576 1.595656
-7.280912 5.085283 1.512421
-7.378185 5.209588 1.427690
-7.478944 5.329947 1.341326
-7.579409 5.450655 1.255100
-7.681434 5.569500 1.168151
-7.849427 5.744893 1.028337
-7.956937 5.856882 0.938903
-8.067439 5.964787 0.848158
-8.181788 6.067185 0.755769
-8.296564 6.168952 0.663201
-8.413141 6.267929 0.569888
-8.602293 6.411613 0.421220
-8.724550 6.501165 0.325660
-8.849105 6.586503 0.229244
-8.976652 6.666043 0.131764
-9.105406 6.743095 0.033867
-9.235771 6.816662 -0.064558
-9.444102 6.921548 -0.219865
-9.579103 6.984082 -0.319675
-9.715642 7.042502 -0.419881
-9.853812 7.096244 -0.520464
-9.993388 7.145628 -0.621340
-10.134075 7.191331 -0.722413
-10.356257 7.255180 -0.880794
-10.499953 7.289348 -0.982191
-10.644275 7.320735 -1.083603
-10.789232 7.349056 -1.184997
-10.935245 7.371714 -1.286298
-11.081855 7.390795 -1.387492
-11.311827 7.416184 -1.545582
-11.459754 7.425143 -1.646245
-11.607863 7.432410 -1.746792
-11.756090 7.438391 -1.847241
-11.904828 7.437582 -1.947101
-12.053717 7.434086 -2.046692
167 NaN NaN
-1.436305 0.463331 5.384740
-1.492203 0.539371 5.419310
-1.548115 0.615442 5.453787
-1.604035 0.691528 5.488221
-1.659953 0.767612 5.522659
-1.715864 0.843679 5.557148
-1.771759 0.919712 5.591739
-1.827642 0.995719 5.626405
-1.883548 1.071778 5.660920
-1.939526 1.147959 5.695045
-1.997297 1.224433 5.725176
-2.061676 1.300050 5.738116
-2.132640 1.363358 5.709833
-2.198360 1.405567 5.646998
-2.259030 1.439938 5.574624
-2.319571 1.478432 5.504299
-2.382683 1.522666 5.439814
-2.449983 1.565360 5.378621
-2.522497 1.598748 5.317664
-2.598296 1.623356 5.256447
-2.675024 1.645002 5.195243
-2.751091 1.668734 5.133995
-2.826640 1.694232 5.072808
-2.902787 1.718377 5.011820
-2.980401 1.738470 4.951220
-3.059170 1.755155 4.891069
-3.138478 1.770447 4.831251
-3.217828 1.786052 4.771572
-3.296954 1.802111 4.711714
-3.375653 1.818265 4.651322
-3.453785 1.834223 4.590147
-3.531457 1.849983 4.528338
-3.608845 1.865613 4.466141
-3.686127 1.881205 4.403802
-3.763471 1.896917 4.341571
-3.841046 1.912921 4.279702
-3.918902 1.929319 4.218291
-3.996811 1.946050 4.157038
-4.074509 1.963028 4.095586
-4.152043 1.980131 4.033961
-4.230058 1.997170 3.972928
-4.309240 2.013944 3.913346
-4.389876 2.030247 3.855611
-4.471687 2.045879 3.799361
-4.554366 2.060664 3.744160
-4.637602 2.075054 3.689696
-4.721072 2.090274 3.635818
-4.804439 2.107547 3.582408
-4.887651 2.127032 3.529516
-4.970990 2.147834 3.477329
-5.054732 2.169132 3.425994
-5.138466 2.191808 3.375244
-5.221156 2.218077 3.324530
-5.301591 2.250012 3.273460
-5.378973 2.288426 3.222141
-5.452814 2.333408 3.170947
-5.522648 2.384909 3.120270
-5.588742 2.441772 3.070298
-5.651905 2.502430 3.020990
-5.712795 2.565819 2.972257
-5.770274 2.632966 2.924448
-5.822285 2.705465 2.878261
-5.867396 2.783781 2.834354
-5.908064 2.865391 2.792086
-5.947964 2.947591 2.750221
-5.989831 3.028521 2.707810
-6.033299 3.108409 2.665031
-6.077408 3.187949 2.622258
-6.121509 3.267612 2.579708
-6.165708 3.347259 2.537227
-6.210221 3.426656 2.494609
-6.255150 3.505687 2.451745
-6.300371 3.584460 2.408715
-6.345736 3.663114 2.365618
-6.391238 3.741660 2.322470
-6.437088 3.819914 2.279161
-6.483509 3.897675 2.235571
-6.530505 3.974928 2.191696
-6.577814 4.051903 2.147669
-6.625172 4.128836 2.103620
-6.672646 4.205666 2.059518
-6.720635 4.282029 2.015162
-6.769517 4.357563 1.970367
-6.819190 4.432350 1.925187
-6.869164 4.506847 1.879861
-6.919005 4.581475 1.834603
-6.968936 4.656016 1.789301
-7.019609 4.729830 1.743635
-7.071572 4.802345 1.697345
-7.124500 4.873859 1.650591
-7.177638 4.945155 1.603740
-7.230391 5.016856 1.557073
-7.283248 5.088447 1.510356
-7.337140 5.158930 1.463143
-7.392724 5.227533 1.415131
-7.449383 5.294898 1.366619
-7.506122 5.362170 1.318072
-7.562298 5.430099 1.269786
-7.618661 5.497810 1.221412
-7.676304 5.563997 1.172445
-7.735824 5.627845 1.122626
-7.796412 5.690305 1.072333
-7.857032 5.752723 1.022026
-7.917184 5.815758 0.971926
-7.977680 5.878339 0.921672
-8.039508 5.939114 0.870833
-8.103023 5.997494 0.819269
-8.167450 6.054525 0.767324
-8.231937 6.111465 0.715354
-8.296245 6.168675 0.663457
-8.361080 6.225082 0.611340
-8.427187 6.279489 0.558704
-8.494673 6.331630 0.505521
-8.562912 6.382478 0.452047
-8.631297 6.433071 0.398516
-8.699783 6.483485 0.344945
-8.768877 6.532808 0.291143
-8.839057 6.580116 0.236942
-8.910283 6.625396 0.182370
-8.982138 6.669402 0.127580
-9.054260 6.712856 0.072699
-9.126682 6.755674 0.017714
-9.199686 6.797236 -0.037462
-9.273506 6.836976 -0.092894
-9.348072 6.874972 -0.148551
-9.423181 6.911647 -0.204366
-9.498666 6.947371 -0.260289
-9.574542 6.982083 -0.316320
-9.650888 7.015544 -0.372473
-9.727762 7.047548 -0.428755
-9.805151 7.078072 -0.485154
-9.883018 7.107151 -0.541657
-9.961324 7.134846 -0.598250
-10.040007 7.161304 -0.654912
-10.119004 7.186695 -0.711625
-10.198288 7.211084 -0.768377
-10.277924 7.234185 -0.825175
-10.357984 7.255643 -0.882020
-10.438473 7.275339 -0.938897
-10.519259 7.293747 -0.995787
-10.600206 7.311430 -1.052678
-10.681275 7.328549 -1.109567
-10.762590 7.344479 -1.166451
-10.844269 7.358511 -1.223310
-10.926301 7.370535 -1.280123
-11.008525 7.381382 -1.336896
-11.090794 7.391943 -1.393659
-11.173097 7.402283 -1.450412
-11.255574 7.411437 -1.507115
-11.338336 7.418421 -1.563709
-11.421338 7.423315 -1.620173
-11.504437 7.427270 -1.676570
-11.587519 7.431402 -1.732980
-11.670602 7.435518 -1.789388
-11.753801 7.438378 -1.845701
-11.837185 7.438840 -1.901809
-11.920689 7.437286 -1.957721
-12.004226 7.435079 -2.013565
-12.087737 7.433403 -2.069464
-12.171245 7.431803 -2.125371
-12.254806 7.428978 -2.181147
-12.338435 7.423835 -2.236653
-12.422089 7.416713 -2.291906
-12.505742 7.408531 -2.347014
-12.589395 7.400204 -2.402101
-12.673049 7.392647 -2.457296
-12.756691 7.386780 -2.512712
