0.181255 0.181277 0.181561 0.182851 0.184893 0.186860 0.188826 0.190792 0.192509 0.193593 0.193811 0.193828 0.193845 0.194059 0.194917 0.196277 0.197190 0.198102 0.199015 0.199646 0.200045 0.200119 0.200125 
0.181247 0.181236 0.181142 0.180840 0.180435 0.179898 0.179361 0.178824 0.178182 0.177702 0.177519 0.177499 0.177479 0.177294 0.176767 0.176064 0.175337 0.174610 0.173883 0.173177 0.172649 0.172464 0.172444 0.172424 0.172240 0.171750 0.171095 0.170492 0.169890 0.169287 0.168733 0.168319 0.168173 0.168157 0.168141 0.167997 0.167613 0.167100 0.166620 0.166140 0.165660 0.165206 0.164866 0.164746 0.164732 0.164719 0.164599 0.164276 0.163843 0.163428 0.163012 0.162597 0.162197 0.161898 0.161792 0.161780 0.161768 0.161661 0.161367 0.160974 0.160592 0.160210 0.159827 0.159452 0.159171 0.159070 0.159059 0.159048 0.158948 0.158670 0.158299 0.157933 0.157567 0.157200 0.156839 0.156569 0.156471 0.156460 0.156450 0.156352 0.156085 0.155728 0.155378 0.155028 0.154678 0.154333 0.154074 0.153982 0.153972 0.153962 0.153869 0.153617 0.153280 0.152950 0.152620 0.152290 0.151968 0.151727 0.151641 0.151631 0.151621 0.151535 0.151299 0.150984 0.150677 0.150370 0.150063 0.149764 0.149539 0.149459 0.149450 0.149441 0.149360 0.149141 0.148847 0.148558 0.148269 0.147980 0.147696 0.147484 0.147407 0.147399 0.147390 0.147314 0.147104 0.146824 0.146546 0.146269 0.145991 0.145717 0.145511 0.145436 0.145428 0.145420 0.145346 0.145142 0.144869 0.144598 0.144327 0.144056 0.143787 0.143586 0.143513 0.143505 0.143497 0.143424 0.143225 0.142957 0.142693 0.142429 0.142165 0.141903 0.141708 0.141637 0.141630 0.141622 0.141551 0.141358 0.141100 0.140846 0.140591 0.140337 0.140086 0.139898 0.139831 0.139823 0.139816 0.139748 0.139564 0.139317 0.139075 0.138833 0.138590 0.138352 0.138174 0.138110 0.138103 0.138096 0.138032 0.137858 0.137624 0.137395 0.137166 0.136937 0.136712 0.136544 0.136483 0.136476 0.136470 0.136410 0.136245 0.136024 0.135808 0.135592 0.135376 0.135165 0.135006 0.134950 0.134943 0.134937 0.134880 0.134725 0.134518 0.134314 0.134111 0.133908 0.133709 0.133560 0.133507 0.133501 0.133495 0.133442 0.133296 0.133100 0.132909 0.132718 0.132527 0.132340 0.132200 0.132150 0.132144 0.132139 0.132088 0.131951 0.131768 0.131588 0.131409 0.131229 0.131053 0.130921 0.130874 0.130868 0.130863 0.130816 0.130687 0.130515 0.130346 0.130177 0.130008 0.129842 0.129719 0.129674 0.129669 
0.181253 0.181268 0.181469 0.181947 0.182705 0.182045 0.181386 0.180726 0.179424 0.178602 0.178404 0.178389 0.178375 0.178173 0.177212 0.175690 0.174222 0.172754 0.171285 0.169982 0.169159 0.168984 0.168971 0.168959 0.168784 0.168015 0.166796 0.165603 0.164410 0.163217 0.161940 0.161134 0.160947 0.160933 0.160919 0.160730 0.159787 0.158293 0.156398 0.154503 0.152608 0.150395 0.148998 0.148681 0.148658 0.148634 0.148313 0.146634 0.143973 0.140634 0.137296 0.133957 0.131068 0.129245 0.128901 0.128875 0.128851 0.128516 0.127239 0.125217 0.123942 0.122668 0.121393 0.120594 0.120089 0.119995 0.119988 0.119982 0.119892 0.119535 0.118969 0.118576 0.118182 0.117788 0.117502 0.117322 0.117286 0.117283 0.117281 0.117245 0.117100 0.116871 0.116687 0.116502 0.116318 0.116167 0.116072 0.116052 0.116051 0.116050 0.116030 0.115948 0.115817 0.115706 0.115594 0.115483 0.115388 0.115327 0.115315 0.115314 0.115313 0.115301 0.115247 0.115163 0.115089 0.115016 0.114943 0.114879 0.114839 0.114831 0.114830 0.114829 0.114821 0.114785 0.114729 0.114679 0.114630 0.114581 0.114539 0.114512 0.114506 0.114506 0.114506 0.114500 0.114477 0.114439 0.114407 0.114376 0.114344 0.114318 0.114301 0.114298 0.114297 0.114297 0.114294 0.114280 0.114257 0.114239 0.114221 0.114202 0.114185 0.114174 0.114171 0.114171 
0.193820 0.193788 0.193664 0.193362 0.192962 0.192541 0.192119 0.191697 0.191249 0.190910 0.190765 0.190727 0.190689 0.190543 0.190188 0.189719 0.189231 0.188744 0.188256 0.187758 0.187381 0.187221 0.187179 0.187136 0.186975 0.186591 0.186084 0.185610 0.185137 0.184663 0.184214 0.183874 0.183744 0.183710 0.183677 0.183550 0.183258 0.182872 0.182591 0.182309 0.182028 0.181792 0.181614 0.181538 0.181519 0.181499 0.181424 0.181247 0.181013 0.180782 0.180551 0.180320 0.180090 0.179917 0.179844 0.179825 0.179806 0.179733 0.179560 0.179332 0.179104 0.178877 0.178649 0.178424 0.178253 0.178182 0.178163 0.178144 0.178073 0.177902 0.177677 0.177448 0.177219 0.176990 0.176759 0.176584 0.176510 0.176490 0.176471 0.176396 0.176217 0.175980 0.175734 0.175489 0.175243 0.174994 0.174805 0.174725 0.174704 0.174683 0.174603 0.174411 0.174157 0.173905 0.173653 0.173401 0.173153 0.172966 0.172888 0.172868 0.172848 0.172770 0.172584 0.172339 0.172102 0.171866 0.171630 0.171404 0.171234 0.171163 0.171145 0.171126 0.171056 0.170906 0.170709 0.170524 0.170338 0.170153 0.170006 0.169895 0.169850 0.169838 0.169827 0.169783 0.169681 0.169547 0.169447 0.169348 0.169248 0.169156 0.169085 0.169061 0.169054 0.169049 0.169029 0.168982 0.168920 0.168864 0.168807 0.168751 0.168714 0.168686 0.168674 0.168670 0.168667 0.168655 0.168630 0.168596 0.168574 0.168553 0.168531 0.168511 0.168495 0.168492 0.168491 0.168490 0.168487 0.168477 0.168465 0.168456 0.168447 0.168438 0.168433 0.168429 0.168426 0.168425 0.168425 0.168422 0.168420 0.168417 0.168415 0.168413 0.168411 0.168413 0.168415 0.168416 0.168416 0.168416 0.168417 0.168418 0.168419 0.168424 0.168429 0.168433 0.168438 0.168441 0.168442 0.168443 0.168443 0.168445 0.168450 0.168457 0.168463 0.168469 0.168475 0.168483 0.168488 0.168491 0.168491 
0.177495 0.177479 0.177434 0.177336 0.177206 0.177069 0.176931 0.176794 0.176649 0.176538 0.176484 0.176466 0.176446 0.176392 0.176273 0.176118 0.175953 0.175788 0.175623 0.175450 0.175318 0.175255 0.175233 0.175210 0.175147 0.175009 0.174828 0.174639 0.174449 0.174260 0.174060 0.173909 0.173836 0.173810 0.173785 0.173711 0.173553 0.173346 0.173133 0.172920 0.172707 0.172495 0.172333 0.172260 0.172234 0.172208 0.172135 0.171984 0.171785 0.171594 0.171404 0.171213 0.171042 0.170912 0.170875 0.170863 0.170850 0.170813 0.170735 0.170632 0.170526 0.170421 0.170316 0.170210 0.170130 0.170092 0.170079 0.170066 0.170028 0.169948 0.169842 0.169736 0.169630 0.169524 0.169419 0.169338 0.169301 0.169287 0.169274 0.169236 0.169156 0.169050 0.168944 0.168837 0.168730 0.168624 0.168543 0.168505 0.168492 0.168478 0.168440 0.168359 0.168253 0.168146 0.168039 0.167933 0.167826 0.167744 0.167706 0.167692 0.167679 0.167641 0.167558 0.167450 0.167341 0.167232 0.167123 0.167014 0.166931 0.166893 0.166879 0.166865 0.166826 0.166741 0.166631 0.166519 0.166408 0.166297 0.166183 0.166096 0.166055 0.166040 0.166025 0.165984 0.165895 0.165778 0.165660 0.165542 0.165424 0.165304 0.165213 0.165170 0.165155 0.165140 0.165097 0.165005 0.164884 0.164762 0.164640 0.164517 0.164397 0.164306 0.164263 0.164248 0.164233 0.164190 0.164098 0.163977 0.163857 0.163736 0.163616 0.163506 0.163422 0.163383 0.163369 0.163355 0.163317 0.163236 0.163129 0.163029 0.162930 0.162830 0.162743 0.162677 0.162647 0.162636 0.162625 0.162595 0.162532 0.162449 0.162377 0.162306 0.162235 0.162174 0.162128 0.162106 0.162099 0.162091 0.162070 0.162026 0.161967 0.161922 0.161878 0.161833 0.161794 0.161764 0.161750 0.161746 0.161741 0.161727 0.161698 0.161660 0.161636 0.161612 0.161587 0.161563 0.161545 0.161536 0.161533 0.161530 0.161522 0.161506 0.161485 0.161472 0.161459 0.161445 0.161432 0.161421 0.161416 0.161414 0.161412 0.161407 0.161400 0.161392 0.161384 0.161377 0.161370 0.161362 0.161356 0.161353 0.161352 0.161351 0.161348 0.161346 0.161343 0.161340 0.161336 0.161333 0.161329 0.161326 0.161325 0.161325 0.161325 0.161325 0.161325 0.161325 0.161324 0.161323 0.161322 0.161321 0.161321 0.161321 0.161322 0.161322 0.161323 0.161324 0.161325 0.161325 0.161326 0.161326 0.161328 0.161329 0.161330 0.161330 0.161331 0.161331 0.161333 0.161335 0.161336 0.161338 0.161339 0.161342 0.161345 0.161346 0.161346 0.161346 0.161347 0.161349 0.161351 0.161353 0.161355 0.161357 0.161359 0.161362 0.161362 0.161363 0.161363 0.161364 0.161365 0.161367 0.161369 0.161370 0.161372 0.161374 0.161375 0.161376 0.161376 
0.151629 0.151623 0.151594 0.151523 0.151428 0.151332 0.151235 0.151139 0.151042 0.150969 0.150940 0.150933 0.150926 0.150896 0.150822 0.150725 0.150627 0.150528 0.150430 0.150331 0.150257 0.150227 0.150220 0.150212 0.150182 0.150110 0.150014 0.149922 0.149829 0.149737 0.149644 0.149575 0.149547 0.149540 0.149533 0.149505 0.149436 0.149345 0.149257 0.149169 0.149081 0.148993 0.148928 0.148901 0.148894 0.148888 0.148861 0.148795 0.148709 0.148624 0.148538 0.148453 0.148368 0.148304 0.148278 0.148272 0.148266 0.148240 0.148176 0.148092 0.148013 0.147933 0.147854 0.147788 0.147738 0.147719 0.147714 0.147710 0.147691 0.147646 0.147587 0.147540 0.147493 0.147446 0.147406 0.147376 0.147366 0.147363 0.147361 0.147351 0.147327 0.147295 0.147271 0.147246 0.147222 0.147201 0.147185 0.147181 0.147180 0.147179 0.147175 0.147165 0.147152 0.147142 0.147132 0.147123 0.147116 0.147111 0.147109 0.147108 0.147108 0.147108 0.147106 0.147105 0.147104 0.147104 0.147104 0.147107 0.147108 0.147109 0.147109 0.147110 0.147110 0.147115 0.147121 0.147129 0.147136 0.147143 0.147153 0.147160 0.147163 0.147163 0.147164 0.147167 0.147176 0.147187 0.147200 0.147212 0.147225 0.147239 0.147250 0.147255 0.147256 
