-1.453072 0.704605 7.764648
-1.455189 0.706939 7.755299
-1.457307 0.709273 7.745949
-1.562122 0.824816 7.283063
-1.665983 0.939309 6.824376
-1.769963 1.053864 6.365732
-1.874409 1.168657 5.907260
-1.458687 0.710795 7.739853
-1.561693 0.824343 7.284958
-1.562551 0.825290 7.281168
-1.665554 0.938836 6.826271
-1.666412 0.939782 6.822481
-1.769534 1.053391 6.367627
-1.770393 1.054337 6.363836
-1.873958 1.168173 5.909147
-1.464331 0.717015 7.714936
-1.556051 0.818123 7.309876
-1.568194 0.831510 7.256250
-1.659916 0.932619 6.851191
-1.672049 0.946000 6.797561
-1.763892 1.047171 6.392545
-1.776035 1.060557 6.338918
-1.868034 1.161808 5.933963
-1.476409 0.730329 7.661601
-1.489923 0.745226 7.601923
-1.503436 0.760122 7.542245
-1.516948 0.775018 7.482567
-1.530461 0.789914 7.422889
-1.543974 0.804810 7.363211
-1.580273 0.844824 7.202915
-1.593790 0.859722 7.143239
-1.607307 0.874620 7.083562
-1.620823 0.889518 7.023885
-1.634336 0.904415 6.964208
-1.647847 0.919310 6.904529
-1.684117 0.959308 6.744222
-1.697628 0.974203 6.684544
-1.711145 0.989102 6.624867
-1.724692 1.004016 6.565202
-1.738245 1.018932 6.505538
-1.751805 1.033853 6.445877
-1.788016 1.073821 6.285549
-1.801401 1.088651 6.225826
-1.814735 1.103455 6.166085
-1.828167 1.118310 6.106378
-1.841676 1.133204 6.046699
-1.855526 1.148274 5.987142
-2.398558 1.589746 4.932436
-3.367729 1.882266 4.221646
-4.351213 2.096884 3.498845
-5.376990 2.383713 2.876081
-5.998238 3.247402 2.294956
-6.561459 4.214332 1.761617
-7.187020 5.123352 1.197491
-7.899046 5.937536 0.593510
-8.711026 6.614616 -0.051109
-9.620778 7.112811 -0.727621
-10.602761 7.414316 -1.418781
-11.624310 7.533094 -2.109026
-1.874860 1.169141 5.905372
-2.397080 1.588931 4.933509
-2.400037 1.590560 4.931363
-3.366160 1.881938 4.222843
-3.369297 1.882594 4.220449
-4.349545 2.096559 3.499901
-4.352880 2.097208 3.497789
-5.375474 2.382883 2.877087
-5.378506 2.384542 2.875074
-5.997355 3.245812 2.295789
-5.999121 3.248991 2.294122
-6.560510 4.212808 1.762498
-6.562408 4.215857 1.760736
-7.185958 5.121939 1.198427
-7.188081 5.124766 1.196556
-7.897806 5.936338 0.594523
-7.900286 5.938734 0.592496
-8.709619 6.613685 -0.050035
-8.712433 6.615547 -0.052183
-9.619255 7.112134 -0.726515
-9.622301 7.113488 -0.728726
-10.601141 7.413961 -1.417663
-10.604380 7.414670 -1.419899
-11.622644 7.533053 -2.107921
-1.880784 1.175506 5.880557
-2.377644 1.578226 4.947618
-2.419587 1.600527 4.916904
-3.345428 1.877515 4.238399
-3.389918 1.886908 4.204714
-4.327625 2.092292 3.513784
-4.374800 2.101475 3.483907
-5.355539 2.371979 2.890320
-5.398497 2.395366 2.861861
-5.985765 3.224891 2.306714
-6.010728 3.269888 2.283166
-6.548031 4.192769 1.774079
-6.574887 4.235896 1.749155
-7.172002 5.103351 1.210721
-7.202040 5.143351 1.184261
-7.881574 5.920489 0.607818
-7.916590 5.954485 0.579172
-8.691124 6.601440 -0.035914
-8.730929 6.627792 -0.066304
-9.599231 7.103234 -0.711981
-9.642325 7.122388 -0.743261
-10.579843 7.409298 -1.402963
-10.625700 7.419229 -1.434599
-11.600736 7.532516 -2.093389
-1.907011 1.204044 5.767772
-1.942536 1.246136 5.587071
-1.983561 1.291055 5.408370
-2.056674 1.352541 5.246282
-2.162778 1.433796 5.113896
-2.290766 1.525680 5.010035
-2.509074 1.640519 4.848998
-2.652496 1.697200 4.739871
-2.798487 1.749399 4.631942
-2.947876 1.790116 4.523745
-3.099243 1.823367 4.415694
-3.250681 1.856795 4.307795
-3.483127 1.906162 4.132856
-3.630378 1.936288 4.018388
-3.778499 1.967870 3.905450
-3.927348 2.001961 3.794210
-4.077294 2.037512 3.684917
-4.229518 2.071979 3.578467
-4.475177 2.120323 3.422336
-4.635235 2.151622 3.326975
-4.794719 2.186401 3.231853
-4.955544 2.219509 3.138415
-5.115093 2.258988 3.045521
-5.264960 2.323043 2.950513
-5.489517 2.444090 2.802196
-5.620484 2.540192 2.707164
-5.709127 2.679042 2.615771
-5.777631 2.831485 2.527675
-5.852714 2.980669 2.439398
-5.933417 3.130020 2.356529
-6.063335 3.364503 2.233137
-6.146841 3.513650 2.152668
-6.231346 3.662022 2.071811
-6.317249 3.809363 1.990544
-6.404417 3.955556 1.908551
-6.492144 4.101246 1.826258
-6.632258 4.326071 1.696247
-6.724844 4.467332 1.611594
-6.817566 4.608467 1.526875
-6.911847 4.748095 1.441402
-7.009597 4.884266 1.354263
-7.108983 5.018754 1.266348
-7.266356 5.226559 1.128028
-7.370548 5.355825 1.037883
-7.477177 5.482306 0.946638
-7.585521 5.606764 0.854632
-7.695361 5.729404 0.761966
-7.808355 5.848069 0.667952
-7.990437 6.026051 0.518779
-8.107792 6.138913 0.422957
-8.229125 6.246040 0.325579
-8.354747 6.346601 0.226590
-8.480732 6.446583 0.127469
-8.608408 6.543766 0.027751
-8.815220 6.682556 -0.130476
-8.949731 6.767423 -0.232443
-9.085988 6.848795 -0.334927
-9.224688 6.925005 -0.438091
-9.365857 6.995595 -0.541906
-9.508667 7.062218 -0.646115
-9.733992 7.160454 -0.809361
-9.881580 7.213841 -0.914508
-10.030389 7.263417 -1.019825
-10.179256 7.312798 -1.125146
-10.330270 7.354450 -1.230686
-10.483199 7.388368 -1.336296
-10.722539 7.439216 -1.501267
-10.877031 7.465355 -1.606788
-11.032531 7.485689 -1.712138
-11.188381 7.503651 -1.817405
-11.344670 7.518381 -1.922520
-11.501507 7.528471 -2.027362
180 NaN NaN
-1.452013 0.703438 7.769323
-1.473621 0.727256 7.673913
-1.495226 0.751072 7.578502
-1.516830 0.774887 7.483091
-1.538433 0.798703 7.387679
-1.560038 0.822519 7.292268
-1.581645 0.846336 7.196858
-1.603255 0.870155 7.101449
-1.624865 0.893973 7.006040
-1.646468 0.917788 6.910628
-1.668056 0.941596 6.815211
-1.689643 0.965403 6.719794
-1.711254 0.989222 6.624385
-1.732914 1.013066 6.528993
-1.754594 1.036921 6.433609
-1.776198 1.060737 6.338198
-1.797629 1.084463 6.242725
-1.818947 1.108132 6.147213
-1.840494 1.131918 6.051782
-1.862638 1.156011 5.956564
-1.885323 1.180383 5.861545
-1.907354 1.204418 5.766288
-1.927349 1.227402 5.670328
-1.944989 1.249162 5.573620
-1.964300 1.271791 5.477442
-1.990405 1.297900 5.383828
-2.027405 1.329512 5.295788
-2.074936 1.366909 5.215393
-2.131333 1.409976 5.144081
-2.195034 1.458229 5.082935
-2.263936 1.508138 5.029129
-2.336327 1.555468 4.977610
-2.410726 1.596448 4.923603
-2.486107 1.631152 4.866611
-2.562118 1.662151 4.808319
-2.638694 1.692001 4.750162
-2.715962 1.721108 4.692547
-2.794123 1.748105 4.635115
-2.873304 1.771587 4.577540
-2.953347 1.791475 4.519799
-3.033919 1.809305 4.462116
-3.114755 1.826706 4.404671
-3.195582 1.844557 4.347351
-3.276071 1.862435 4.289567
-3.355879 1.879788 4.230689
-3.434834 1.896304 4.170437
-3.513281 1.912318 4.109389
-3.591664 1.928273 4.048243
-3.670342 1.944563 3.987567
-3.749318 1.961401 3.927431
-3.828507 1.978956 3.867781
-3.907849 1.997330 3.808582
-3.987454 2.016237 3.749908
-4.067501 2.035244 3.691870
-4.148170 2.053929 3.634595
-4.229693 2.072018 3.578347
-4.312319 2.089313 3.523478
-4.396250 2.105650 3.470322
-4.481215 2.121445 3.418665
-4.566604 2.137601 3.367823
-4.651819 2.155010 3.317105
-4.736727 2.173642 3.266304
-4.821780 2.192355 3.215778
-4.907451 2.209972 3.165908
-4.993593 2.227054 3.116665
-5.078998 2.247184 3.067313
-5.161969 2.274317 3.017221
-5.241072 2.310253 2.966400
-5.317640 2.351249 2.915477
-5.393971 2.393001 2.864809
-5.471253 2.433387 2.814475
-5.546374 2.477408 2.763972
-5.613988 2.531823 2.713191
-5.667559 2.600838 2.663487
-5.709142 2.679070 2.615754
-5.745333 2.760570 2.569013
-5.782197 2.841509 2.521831
-5.821560 2.921123 2.474409
-5.862954 3.000240 2.427891
-5.905834 3.079706 2.383359
-5.949678 3.159681 2.340712
-5.994032 3.239830 2.298926
-6.038476 3.319843 2.256975
-6.082855 3.399571 2.214418
-6.127319 3.479044 2.171474
-6.172033 3.558306 2.128400
-6.217111 3.637361 2.085323
-6.262585 3.716140 2.042160
-6.308478 3.794571 1.998805
-6.354769 3.872633 1.955208
-6.401337 3.950435 1.911442
-6.448046 4.028110 1.867600
-6.494840 4.105718 1.823730
-6.541969 4.183035 1.779705
-6.589751 4.259765 1.735360
-6.638418 4.335681 1.690579
-6.687718 4.411002 1.645485
-6.737229 4.486123 1.600288
-6.786596 4.561381 1.555162
-6.836045 4.636562 1.509997
-6.886113 4.711148 1.464531
-6.937298 4.784636 1.418527
-6.989552 4.857044 1.372011
-7.042410 4.928828 1.325210
-7.095417 5.000456 1.278338
-7.148480 5.072026 1.231441
-7.201920 5.143196 1.184366
-7.256078 5.213597 1.136956
-7.311128 5.283021 1.089134
-7.366977 5.351547 1.040946
-7.423513 5.419288 0.992448
-7.480627 5.486357 0.943694
-7.538217 5.552862 0.894728
-7.596184 5.618914 0.845594
-7.654513 5.684526 0.796300
-7.713499 5.749331 0.746721
-7.773501 5.812856 0.696708
-7.834758 5.874745 0.646169
-7.896892 5.935456 0.595270
-7.959319 5.995764 0.544251
-8.021554 6.056336 0.493308
-8.083945 6.116693 0.442303
-8.147290 6.175715 0.390916
-8.212299 6.232308 0.338884
-8.278812 6.286590 0.286289
-8.346047 6.339720 0.233431
-8.413261 6.392883 0.180581
-8.480334 6.446273 0.127781
-8.547868 6.498913 0.074816
-8.616480 6.549746 0.021477
-8.686388 6.598305 -0.032298
-8.757207 6.645190 -0.086367
-8.828527 6.691127 -0.140593
-8.900097 6.736576 -0.194900
-8.972043 6.781289 -0.249321
-9.044540 6.824901 -0.303904
-9.117727 6.867092 -0.358682
-9.191637 6.907733 -0.413660
-9.266278 6.946739 -0.468834
-9.341629 6.984086 -0.524191
-9.417516 7.020134 -0.579678
-9.493723 7.055390 -0.635236
-9.570080 7.090278 -0.690821
-9.646752 7.124355 -0.746474
-9.724073 7.156688 -0.802266
-9.802315 7.186390 -0.858235
-9.881321 7.213755 -0.914325
-9.960657 7.240068 -0.970457
-10.039925 7.266609 -1.026575
-10.119112 7.293415 -1.082682
-10.198650 7.319048 -1.138839
-10.278948 7.341976 -1.195077
-10.360066 7.361691 -1.251360
-10.441627 7.379503 -1.307642
-10.523277 7.396914 -1.363921
-10.604827 7.414768 -1.420207
-10.686463 7.432214 -1.476495
-10.768419 7.448121 -1.532771
-10.850829 7.461672 -1.589001
-10.933573 7.473304 -1.645172
-11.016501 7.483770 -1.701302
-11.099506 7.493708 -1.757414
-11.182593 7.503063 -1.813506
-11.265803 7.511518 -1.869556
-11.349170 7.518773 -1.925542
-11.432694 7.524704 -1.981450
-11.516360 7.529284 -2.037272
-11.600152 7.532501 -2.093001
-11.684037 7.534559 -2.148644
-11.767979 7.535840 -2.204225
-11.851951 7.536720 -2.259771
-11.935952 7.537152 -2.315276
-12.020011 7.536576 -2.370691
-12.104142 7.534410 -2.425956
-12.188330 7.530459 -2.481036
-12.272542 7.525210 -2.535971
-12.356762 7.519214 -2.590818
-12.440984 7.513026 -2.645642
-12.525203 7.507195 -2.700509
-12.609411 7.502276 -2.755481
