0.155284 0.155273 0.155109 0.154379 0.153223 0.152118 0.151013 0.149908 0.148879 0.148229 0.148091 0.148081 0.148072 0.147935 0.147334 0.146383 0.145520 0.144658 0.143795 0.143005 0.142506 0.142399 0.142392 0.142384 0.142278 0.141799 0.141041 0.140298 0.139555 0.138813 0.138077 0.137612 0.137511 0.137504 0.137497 0.137396 0.136940 0.136218 0.135525 0.134833 0.134140 0.133480 0.133064 0.132974 0.132968 0.132962 0.132873 0.132476 0.131846 0.131252 0.130657 0.130063 0.129509 0.129160 0.129085 0.129080 0.129075 0.129001 0.128672 0.128151 0.127671 0.127192 0.126712 0.126271 0.125992 0.125933 0.125929 0.125925 0.125866 0.125606 0.125194 0.124814 0.124434 0.124054 0.123703 0.123481 0.123434 0.123431 
0.155288 0.155291 0.155325 0.155408 0.155527 0.155612 0.155697 0.155782 0.155877 0.155944 0.155975 0.155978 0.155981 0.156012 0.156141 0.156325 0.156642 0.156960 0.157278 0.157707 0.158006 0.158108 0.158118 0.158129 0.158231 0.158584 0.159090 0.159652 0.160213 0.160775 0.161374 0.161792 0.161923 0.161936 0.161950 0.162081 0.162518 0.163144 0.163798 0.164453 0.165108 0.165791 0.166267 0.166416 0.166431 0.166446 0.166595 0.167089 0.167797 0.168535 0.169273 0.170012 0.170777 0.171311 0.171476 0.171493 0.171509 0.171675 0.172222 0.173006 0.173821 0.174636 0.175451 0.176288 0.176873 0.177055 0.177073 0.177092 0.177275 0.177882 0.178752 0.179651 0.180551 0.181450 0.182387 0.183040 0.183244 0.183264 0.183285 0.183490 0.184170 0.185145 0.186166 0.187187 0.188208 0.189276 0.190021 0.190253 0.190277 0.190300 0.190534 0.191304 0.192408 0.193553 0.194698 0.195842 0.197017 0.197837 0.198092 0.198118 0.198144 0.198399 0.199236 0.200434 0.201639 0.202844 0.204050 0.205253 0.206092 0.206352 0.206378 0.206404 0.206661 0.207493 0.208685 0.209874 0.211063 0.212252 0.213398 0.214198 0.214442 0.214467 0.214491 0.214735 0.215507 0.216614 0.217636 0.218658 0.219680 0.220631 0.221295 0.221490 0.221510 0.221529 0.221722 0.222301 0.223131 0.223850 0.224569 0.225288 0.225834 0.226215 0.226320 0.226331 0.226341 0.226444 0.226707 0.227086 0.227282 0.227479 0.227676 0.227670 0.227665 0.227650 0.227648 0.227646 0.227626 0.227508 0.227339 0.226991 0.226643 0.226295 0.225768 0.225401 0.225275 0.225262 0.225249 0.225120 0.224659 0.223998 0.223182 0.222365 0.221549 0.220605 0.219946 0.219732 0.219710 
0.155287 0.155290 0.155323 0.155260 0.155160 0.154232 0.153303 0.152374 0.151721 0.151308 0.151223 0.151217 0.151211 0.151127 0.150752 0.150159 0.149580 0.149001 0.148422 0.147894 0.147560 0.147486 0.147481 0.147477 0.147404 0.147073 0.146548 0.145964 0.145380 0.144796 0.143951 0.143417 0.143280 0.143271 0.143261 0.143117 0.142330 0.141082 0.138967 0.136852 0.134737 0.131702 0.129787 0.129398 0.129373 0.129347 0.128968 0.127453 0.125051 0.123505 0.121958 0.120411 0.119563 0.119029 0.118938 0.118932 0.118926 0.118838 0.118509 0.117986 0.117661 0.117336 0.117010 0.116792 0.116653 0.116627 0.116625 0.116623 0.116597 0.116489 0.116317 0.116179 0.116042 0.115904 0.115790 0.115717 0.115703 0.115702 0.115701 0.115686 0.115623 0.115523 0.115437 0.115351 0.115265 0.115192 0.115146 0.115136 0.115135 0.115135 0.115125 0.115085 0.115021 0.114966 0.114912 0.114858 0.114813 0.114785 0.114779 0.114778 0.114778 0.114772 0.114748 0.114709 0.114677 0.114645 0.114613 0.114586 0.114569 0.114566 0.114566 0.114566 0.114562 0.114548 0.114525 0.114506 0.114487 0.114467 0.114451 0.114441 0.114439 0.114439 
0.125929 0.125929 0.125930 0.125930 0.125930 0.125925 0.125920 0.125915 0.125904 0.125896 0.125891 0.125890 0.125889 0.125884 0.125871 0.125854 0.125829 0.125804 0.125780 0.125747 0.125723 0.125713 0.125711 0.125709 0.125699 0.125669 0.125630 0.125601 0.125571 0.125542 0.125511 0.125488 0.125479 0.125478 0.125476 0.125467 0.125442 0.125410 0.125375 0.125341 0.125307 0.125272 0.125245 0.125234 0.125232 0.125230 0.125219 0.125191 0.125153 0.125114 0.125075 0.125036 0.124997 0.124967 0.124956 0.124954 0.124951 0.124940 0.124910 0.124871 0.124832 0.124793 0.124754 0.124715 0.124686 0.124675 0.124673 0.124671 0.124659 0.124631 0.124593 0.124556 0.124519 0.124482 0.124445 0.124418 0.124407 0.124405 
0.137503 0.137499 0.137478 0.137424 0.137352 0.137277 0.137201 0.137126 0.137047 0.136988 0.136964 0.136960 0.136955 0.136931 0.136870 0.136788 0.136702 0.136616 0.136531 0.136441 0.136374 0.136348 0.136343 0.136338 0.136311 0.136241 0.136149 0.136052 0.135956 0.135860 0.135760 0.135685 0.135655 0.135649 0.135643 0.135613 0.135535 0.135430 0.135322 0.135214 0.135107 0.134995 0.134911 0.134877 0.134871 0.134865 0.134831 0.134745 0.134630 0.134512 0.134394 0.134276 0.134156 0.134065 0.134029 0.134022 0.134016 0.133980 0.133888 0.133765 0.133642 0.133518 0.133395 0.133271 0.133178 0.133142 0.133135 0.133128 0.133092 0.133021 0.132927 0.132851 0.132774 0.132698 0.132628 0.132575 0.132554 0.132551 0.132547 0.132526 0.132476 0.132410 0.132347 0.132285 0.132223 0.132165 0.132122 0.132104 0.132101 0.132098 0.132081 0.132041 0.131988 0.131938 0.131888 0.131838 0.131791 0.131755 0.131742 0.131740 0.131737 0.131725 0.131692 0.131649 0.131610 0.131571 0.131532 0.131496 0.131469 0.131459 0.131457 0.131455 0.131445 0.131420 0.131386 0.131355 0.131325 0.131294 0.131265 0.131243 0.131235 0.131233 
0.142391 0.142388 0.142380 0.142364 0.142343 0.142320 0.142297 0.142274 0.142251 0.142233 0.142224 0.142220 0.142217 0.142207 0.142188 0.142162 0.142135 0.142108 0.142081 0.142054 0.142033 0.142022 0.142018 0.142014 0.142004 0.141982 0.141952 0.141922 0.141893 0.141863 0.141832 0.141808 0.141797 0.141792 0.141788 0.141776 0.141751 0.141718 0.141685 0.141652 0.141619 0.141586 0.141560 0.141547 0.141542 0.141538 0.141525 0.141499 0.141464 0.141430 0.141396 0.141362 0.141328 0.141302 0.141289 0.141284 0.141279 0.141265 0.141239 0.141203 0.141169 0.141134 0.141099 0.141065 0.141038 0.141025 0.141021 0.141016 0.141003 0.140976 0.140940 0.140905 0.140869 0.140833 0.140796 0.140768 0.140754 0.140749 0.140743 0.140729 0.140700 0.140661 0.140622 0.140583 0.140543 0.140503 0.140473 0.140457 0.140451 0.140446 0.140430 0.140398 0.140355 0.140312 0.140269 0.140226 0.140181 0.140147 0.140130 0.140124 0.140118 0.140101 0.140065 0.140019 0.139972 0.139925 0.139878 0.139829 0.139792 0.139774 0.139767 0.139760 0.139742 0.139703 0.139653 0.139602 0.139551 0.139500 0.139447 0.139407 0.139387 0.139380 0.139372 0.139352 0.139311 0.139256 0.139201 0.139147 0.139092 0.139035 0.138992 0.138971 0.138963 0.138955 0.138934 0.138889 0.138831 0.138773 0.138714 0.138656 0.138596 0.138550 0.138528 0.138519 0.138511 0.138489 0.138442 0.138381 0.138319 0.138258 0.138196 0.138133 0.138085 0.138062 0.138053 0.138044 0.138021 0.137972 0.137909 0.137845 0.137781 0.137717 0.137673 0.137640 0.137624 0.137618 0.137612 0.137596 0.137564 0.137521 0.137480 0.137438 0.137396 0.137358 0.137329 0.137315 0.137309 0.137304 0.137290 0.137261 0.137223 0.137186 0.137148 0.137110 0.137076 0.137050 0.137037 0.137032 0.137028 0.137015 0.136989 0.136954 0.136920 0.136886 0.136852 0.136822 0.136798 0.136787 0.136783 0.136778 0.136767 0.136743 0.136712 0.136682 0.136651 0.136620 0.136593 0.136572 0.136562 0.136558 0.136554 0.136544 0.136522 0.136494 0.136467 0.136439 0.136412 0.136387 0.136368 0.136359 0.136355 0.136352 0.136343 0.136323 0.136298 0.136274 0.136249 0.136224 0.136202 0.136185 0.136177 0.136174 0.136170 0.136162 0.136145 0.136122 0.136100 0.136078 0.136056 0.136036 0.136020 0.136013 0.136010 0.136007 0.136000 0.135985 0.135964 0.135945 0.135925 0.135906 0.135888 0.135874 0.135867 0.135864 0.135862 0.135855 0.135841 0.135822 0.135805 0.135787 0.135769 0.135752 0.135739 0.135733 0.135730 0.135728 0.135722 0.135709 0.135692 0.135675 0.135659 0.135642 0.135626 0.135614 0.135608 0.135606 0.135604 0.135598 0.135586 0.135570 0.135554 0.135539 0.135523 0.135508 0.135496 0.135491 0.135489 0.135487 0.135481 0.135469 0.135454 0.135439 0.135424 0.135409 0.135395 0.135384 0.135378 0.135376 0.135374 0.135369 0.135358 0.135344 0.135330 0.135315 0.135301 0.135288 0.135277 0.135272 0.135270 
0.148080 0.148078 0.148069 0.148050 0.148026 0.147997 0.147969 0.147940 0.147908 0.147883 0.147871 0.147867 0.147863 0.147850 0.147822 0.147784 0.147744 0.147703 0.147662 0.147617 0.147582 0.147565 0.147560 0.147554 0.147536 0.147497 0.147446 0.147393 0.147340 0.147288 0.147232 0.147190 0.147170 0.147163 0.147156 0.147137 0.147094 0.147038 0.146982 0.146925 0.146869 0.146811 0.146767 0.146747 0.146740 0.146733 0.146714 0.146672 0.146617 0.146561 0.146505 0.146449 0.146393 0.146350 0.146331 0.146324 0.146317 0.146297 0.146255 0.146198 0.146148 0.146097 0.146047 0.146000 0.145965 0.145949 0.145943 0.145937 0.145921 0.145885 0.145838 0.145791 0.145744 0.145696 0.145649 0.145613 0.145596 0.145590 0.145584 0.145567 0.145530 0.145482 0.145433 0.145384 0.145335 0.145287 0.145249 0.145232 0.145226 0.145220 0.145202 0.145163 0.145113 0.145061 0.145010 0.144959 0.144906 0.144866 0.144848 0.144841 0.144835 0.144816 0.144775 0.144722 0.144678 0.144633 0.144589 0.144541 0.144504 0.144487 0.144481 0.144475 0.144458 0.144420 0.144370 0.144318 0.144265 0.144213 0.144157 0.144115 0.144095 0.144088 0.144082 0.144062 0.144018 0.143962 0.143901 0.143840 0.143779 0.143716 0.143668 0.143645 0.143638 0.143630 0.143607 0.143558 0.143494 0.143425 0.143355 0.143286 0.143217 0.143164 0.143139 0.143130 0.143122 0.143097 0.143042 0.142969 0.142894 0.142819 0.142744 0.142668 0.142610 0.142584 0.142574 0.142565 0.142537 0.142476 0.142395 0.142315 0.142234 0.142153 0.142072 0.142010 0.141980 0.141970 0.141960 0.141930 0.141865 0.141781 0.141696 0.141611 0.141526 0.141440 0.141374 0.141343 0.141333 0.141324 0.141298 0.141249 0.141186 0.141124 0.141062 0.141001 0.140944 0.140901 0.140881 0.140875 0.140868 0.140848 0.140806 0.140750 0.140698 0.140645 0.140593 0.140545 0.140508 0.140491 0.140485 0.140479 0.140462 0.140426 0.140378 0.140334 0.140291 0.140247 0.140206 0.140174 0.140160 0.140155 0.140150 0.140135 0.140103 0.140061 0.140025 0.139989 0.139953 0.139917 0.139890 0.139877 0.139872 0.139868 0.139855 0.139829 0.139795 0.139763 0.139731 0.139699 0.139667 0.139642 0.139631 0.139627 0.139623 0.139612 0.139591 0.139563 0.139534 0.139506 0.139477 0.139449 0.139427 0.139418 0.139415 0.139412 0.139403 0.139384 0.139358 0.139333 0.139307 0.139282 0.139257 0.139239 0.139231 0.139228 0.139225 0.139217 0.139200 0.139176 0.139153 0.139130 0.139106 0.139085 0.139069 0.139061 0.139059 0.139056 0.139049 0.139032 0.139011 0.138989 0.138968 0.138947 0.138927 0.138911 0.138904 0.138901 0.138899 0.138892 0.138876 0.138855 0.138835 0.138815 0.138795 0.138775 0.138760 0.138753 0.138751 0.138748 0.138741 0.138726 0.138706 0.138687 0.138668 0.138649 0.138629 0.138614 0.138607 0.138605 0.138602 0.138595 0.138581 0.138561 0.138542 0.138522 0.138503 0.138483 0.138468 0.138461 0.138459 
0.155975 0.155966 0.155924 0.155819 0.155679 0.155536 0.155392 0.155249 0.155101 0.154990 0.154945 0.154934 0.154924 0.154878 0.154766 0.154616 0.154466 0.154316 0.154166 0.154014 0.153900 0.153854 0.153843 0.153832 0.153786 0.153671 0.153519 0.153366 0.153214 0.153061 0.152906 0.152789 0.152741 0.152730 0.152719 0.152672 0.152579 0.152456 0.152332 0.152208 0.152084 0.151957 0.151860 0.151821 0.151811 0.151802 0.151762 0.151665 0.151536 0.151401 0.151266 0.151131 0.150991 0.150885 0.150841 0.150830 0.150820 0.150775 0.150666 0.150521 0.150375 0.150230 0.150084 0.149939 0.149830 0.149783 0.149772 0.149761 0.149714 0.149594 0.149435 0.149271 0.149106 0.148942 0.148773 0.148645 0.148593 0.148580 0.148568 0.148515 0.148386 0.148215 0.148058 0.147901 0.147744 0.147592 0.147477 0.147430 0.147419 0.147409 0.147362 0.147253 0.147108 0.146970 0.146831 0.146693 0.146565 0.146468 0.146429 0.146420 0.146411 0.146372 0.146281 0.146160 0.146047 0.145935 0.145823 0.145722 0.145645 0.145614 0.145607 0.145600 0.145570 0.145495 0.145397 0.145309 0.145222 0.145134 0.145050 0.144988 0.144963 0.144958 0.144952 0.144928 0.144869 0.144790 0.144719 0.144648 0.144577 0.144509 0.144457 0.144438 0.144433 0.144429 0.144409 0.144362 0.144300 0.144241 0.144182 0.144123 0.144066 0.144023 0.144006 0.144001 0.143998 0.143982 0.143943 0.143891 0.143841 0.143791 0.143741 0.143693 0.143656 0.143641 0.143638 0.143634 0.143619 0.143585 0.143539 0.143494 0.143448 0.143403 0.143359 0.143326 0.143313 0.143309 
0.158116 0.158108 0.158088 0.158045 0.157989 0.157932 0.157874 0.157817 0.157758 0.157713 0.157691 0.157683 0.157674 0.157652 0.157605 0.157543 0.157481 0.157419 0.157357 0.157295 0.157247 0.157223 0.157214 0.157205 0.157181 0.157131 0.157065 0.157000 0.156935 0.156869 0.156804 0.156754 0.156729 0.156720 0.156710 0.156685 0.156633 0.156566 0.156499 0.156432 0.156365 0.156298 0.156247 0.156222 0.156212 0.156202 0.156177 0.156124 0.156055 0.155988 0.155921 0.155854 0.155785 0.155732 0.155706 0.155696 0.155687 0.155661 0.155607 0.155536 0.155466 0.155395 0.155324 0.155253 0.155198 0.155170 0.155160 0.155150 0.155122 0.155065 0.154990 0.154916 0.154841 0.154766 0.154690 0.154632 0.154602 0.154591 0.154580 0.154550 0.154488 0.154408 0.154326 0.154245 0.154163 0.154080 0.154017 0.153985 0.153973 0.153961 0.153930 0.153864 0.153779 0.153692 0.153605 0.153519 0.153430 0.153363 0.153329 0.153317 0.153304 0.153271 0.153201 0.153111 0.153020 0.152929 0.152839 0.152747 0.152677 0.152642 0.152629 0.152616 0.152581 0.152510 0.152417 0.152323 0.152230 0.152137 0.152043 0.151971 0.151936 0.151922 0.151909 0.151874 0.151802 0.151707 0.151631 0.151555 0.151479 0.151411 0.151360 0.151336 0.151327 0.151318 0.151294 0.151245 0.151181 0.151119 0.151057 0.150995 0.150937 0.150892 0.150872 0.150864 0.150856 0.150836 0.150795 0.150740 0.150687 0.150633 0.150580 0.150530 0.150491 0.150474 0.150467 0.150460 0.150442 0.150406 0.150358 0.150311 0.150264 0.150217 0.150174 0.150141 0.150125 0.150119 0.150113 0.150098 0.150066 0.150025 0.149984 0.149942 0.149901 0.149863 0.149834 0.149820 0.149815 0.149810 0.149796 0.149768 0.149731 0.149694 0.149656 0.149619 0.149585 0.149558 0.149546 0.149542 0.149537 0.149525 0.149499 0.149466 0.149433 0.149400 0.149366 0.149336 0.149313 0.149302 0.149298 0.149293 0.149282 0.149260 0.149230 0.149200 0.149169 0.149139 0.149112 0.149091 0.149081 0.149077 0.149073 0.149063 0.149042 0.149015 0.148987 0.148960 0.148933 0.148908 0.148889 0.148880 0.148877 0.148873 0.148864 0.148845 0.148820 0.148795 0.148770 0.148745 0.148723 0.148705 0.148697 0.148694 0.148690 0.148682 0.148665 0.148642 0.148619 0.148596 0.148574 0.148553 0.148536 0.148529 0.148526 0.148523 0.148515 0.148499 0.148477 0.148456 0.148434 0.148413 0.148393 0.148377 0.148370 0.148367 0.148364 0.148357 0.148341 0.148320 0.148300 0.148279 0.148259 0.148239 0.148225 0.148217 0.148214 0.148212 0.148204 0.148189 0.148169 0.148149 0.148129 0.148109 0.148090 0.148076 0.148068 0.148066 
0.171488 0.171470 0.171352 0.171027 0.170594 0.170144 0.169695 0.169246 0.168794 0.168455 0.168325 0.168305 0.168286 0.168155 0.167809 0.167347 0.166878 0.166408 0.165939 0.165473 0.165124 0.164991 0.164971 0.164951 0.164819 0.164470 0.164004 0.163532 0.163060 0.162588 0.162113 0.161758 0.161623 0.161603 0.161583 0.161450 0.161098 0.160629 0.160169 0.159710 0.159250 0.158853 0.158555 0.158471 0.158458 0.158446 0.158363 0.158161 0.157892 0.157665 0.157438 0.157211 0.157017 0.156871 0.156820 0.156812 0.156804 0.156753 0.156627 0.156460 0.156312 0.156163 0.156015 0.155884 0.155786 0.155750 0.155745 0.155740 0.155704 0.155616 0.155500 0.155392 0.155284 0.155176 0.155078 0.155004 0.154976 0.154972 0.154968 0.154940 0.154870 0.154778 0.154688 0.154599 0.154509 0.154423 0.154358 0.154334 0.154330 
0.190266 0.190226 0.190057 0.189649 0.189107 0.188571 0.188035 0.187499 0.186966 0.186564 0.186398 0.186358 0.186319 0.186153 0.185749 0.185214 0.184685 0.184156 0.183627 0.183107 0.182714 0.182554 0.182516 0.182477 0.182318 0.181934 0.181425 0.180932 0.180440 0.179947 0.179469 0.179108 0.178961 0.178926 0.178891 0.178745 0.178396 0.177935 0.177485 0.177036 0.176586 0.176153 0.175825 0.175691 0.175659 0.175627 0.175494 0.175177 0.174757 0.174354 0.173950 0.173547 0.173155 0.172859 0.172739 0.172710 0.172681 0.172560 0.172271 0.171888 0.171514 0.171141 0.170768 0.170405 0.170131 0.170019 0.169992 0.169966 0.169855 0.169593 0.169245 0.168920 0.168596 0.168271 0.167996 0.167788 0.167704 0.167684 0.167664 0.167582 0.167396 0.167149 0.166921 0.166694 0.166466 0.166266 0.166116 0.166055 0.166041 0.166026 0.165965 0.165824 0.165637 0.165467 0.165296 0.165126 0.164973 0.164857 0.164810 0.164799 0.164788 0.164742 0.164630 0.164482 0.164351 0.164219 0.164088 0.163962 0.163868 0.163831 0.163823 0.163814 0.163778 0.163690 0.163573 0.163466 0.163359 0.163252 0.163147 0.163068 0.163038 0.163030 0.163023 0.162994 0.162923 0.162829 0.162739 0.162648 0.162558 0.162471 0.162406 0.162378 0.162372 0.162365 0.162338 0.162278 0.162199 0.162120 0.162041 0.161963 0.161888 0.161831 0.161807 0.161801 0.161796 0.161772 0.161716 0.161643 0.161570 0.161497 0.161424 0.161355 0.161303 0.161281 0.161276 
0.221482 0.221373 0.221012 0.220210 0.219152 0.218132 0.217112 0.216092 0.215099 0.214346 0.214018 0.213918 0.213819 0.213493 0.212762 0.211799 0.210883 0.209968 0.209052 0.208185 0.207527 0.207244 0.207159 0.207074 0.206795 0.206174 0.205355 0.204568 0.203780 0.202992 0.202243 0.201674 0.201428 0.201354 0.201280 0.201036 0.200503 0.199801 0.199136 0.198470 0.197805 0.197166 0.196681 0.196472 0.196408 0.196345 0.196138 0.195680 0.195077 0.194510 0.193942 0.193375 0.192834 0.192424 0.192245 0.192191 0.192137 0.191959 0.191561 0.191037 0.190532 0.190026 0.189521 0.189032 0.188661 0.188500 0.188452 0.188404 0.188246 0.187896 0.187435 0.186983 0.186530 0.186077 0.185647 0.185320 0.185177 0.185134 0.185091 0.184948 0.184629 0.184207 0.183805 0.183403 0.183000 0.182615 0.182323 0.182195 0.182156 0.182118 0.181991 0.181712 0.181345 0.181020 0.180695 0.180370 0.180071 0.179844 0.179753 0.179726 0.179700 0.179615 0.179427 0.179178 0.178938 0.178699 0.178460 0.178258 0.178105 0.178039 0.178019 0.177999 0.177933 0.177785 0.177590 0.177419 0.177248 0.177076 0.176919 0.176800 0.176747 0.176731 0.176715 0.176663 0.176551 0.176405 0.176275 0.176146 0.176016 0.175885 0.175785 0.175746 0.175734 0.175723 0.175687 0.175603 0.175494 0.175383 0.175272 0.175162 0.175071 0.175002 0.174972 0.174962 0.174953 0.174922 0.174851 0.174758 0.174671 0.174584 0.174497 0.174415 0.174353 0.174325 0.174317 0.174308 0.174281 0.174221 0.174143 0.174072 0.174000 0.173928 0.173854 0.173798 0.173777 0.173770 0.173764 0.173743 0.173695 0.173632 0.173567 0.173501 0.173436 0.173379 0.173336 0.173317 0.173311 0.173305 0.173286 0.173241 0.173181 0.173124 0.173068 0.173011 0.172955 0.172913 0.172893 0.172888 
