-1.757215 0.642505 16.562848
-1.759363 0.645488 16.553623
-1.761510 0.648470 16.544398
-1.867414 0.795682 16.088784
-1.972364 0.941558 15.637322
-2.078363 1.087882 15.186253
-2.184712 1.234291 14.735651
-1.762908 0.650411 16.538393
-1.866982 0.795082 16.090642
-1.867846 0.796283 16.086926
-1.971934 0.940959 15.639181
-1.972794 0.942158 15.635463
-2.077925 1.087278 15.188109
-2.078802 1.088485 15.184398
-2.184117 1.233622 14.737440
-1.768616 0.658338 16.513874
-1.861281 0.787158 16.115163
-1.873550 0.804207 16.062407
-1.966264 0.933049 15.663713
-1.978451 0.950063 15.610926
-2.072135 1.079317 15.212597
-2.084585 1.096443 15.159908
-2.176259 1.224801 14.761040
-1.780832 0.675306 16.461381
-1.794488 0.694287 16.402640
-1.808139 0.713266 16.343896
-1.821787 0.732243 16.285152
-1.835433 0.751219 16.226407
-1.849081 0.770197 16.167662
-1.885763 0.821174 16.009912
-1.899445 0.840166 15.951180
-1.913129 0.859159 15.892449
-1.926816 0.878153 15.833719
-1.940479 0.897137 15.774980
-1.954124 0.916113 15.716235
-1.990555 0.966983 15.558392
-2.004154 0.985940 15.499629
-2.017791 1.004913 15.440881
-2.031657 1.023983 15.382217
-2.045613 1.043091 15.323588
-2.059699 1.062255 15.265008
-2.096312 1.113203 15.107236
-2.109123 1.131821 15.048191
-2.121226 1.150134 14.988900
-2.133636 1.168579 14.929713
-2.146435 1.187191 14.870668
-2.161341 1.206702 14.812406
-3.213994 1.676957 14.464729
-4.441210 1.865025 14.379454
-5.482848 2.422940 14.293057
-5.914324 3.588905 14.237448
-6.433181 4.717934 14.177114
-7.109510 5.758086 14.109454
-7.981659 6.638699 14.033932
-9.041569 7.280106 13.953265
-10.217483 7.672856 13.872257
-11.444135 7.860101 13.793755
-12.685555 7.889358 13.718619
-2.185308 1.234959 14.733863
-3.212017 1.676675 14.464850
-3.215970 1.677239 14.464609
-4.439226 1.864824 14.379605
-4.443194 1.865226 14.379303
-5.482129 2.421076 14.293148
-5.483566 2.424805 14.292967
-5.913569 3.587055 14.237541
-5.915078 3.590755 14.237355
-6.432246 4.716169 14.177216
-6.434117 4.719699 14.177012
-7.108273 5.756519 14.109569
-7.110746 5.759654 14.109338
-7.980099 6.637453 14.034059
-7.983219 6.639944 14.033806
-9.039758 7.279267 13.953396
-9.043380 7.280944 13.953134
-10.215533 7.672429 13.872385
-10.219433 7.673283 13.872129
-11.442146 7.859939 13.793879
-11.446125 7.860263 13.793632
-12.683559 7.889395 13.718737
-2.193165 1.243781 14.710262
-3.185937 1.672951 14.466437
-3.241993 1.681292 14.462930
-4.413083 1.861849 14.381604
-4.469376 1.867881 14.377305
-5.472650 2.396473 14.294338
-5.493045 2.449407 14.291777
-5.903613 3.562644 14.238770
-5.925119 3.615131 14.236123
-6.420000 4.692829 14.178555
-6.446458 4.742989 14.175668
-7.091951 5.735835 14.111089
-7.127068 5.780338 14.107818
-7.959518 6.621017 14.035730
-8.004046 6.656061 14.032129
-9.015977 7.267955 13.955125
-9.067278 7.292008 13.951405
-10.189805 7.666795 13.874078
-10.245161 7.678917 13.870436
-11.415891 7.857801 13.795509
-11.472388 7.862284 13.792005
-12.657217 7.889856 13.720303
-2.239475 1.288075 14.609295
-2.370012 1.375952 14.510792
-2.537346 1.463358 14.506348
-2.707643 1.546507 14.505971
-2.883219 1.615397 14.488731
-3.067705 1.655573 14.473769
-3.359800 1.701081 14.454907
-3.546212 1.733476 14.441648
-3.733343 1.761704 14.429035
-3.920846 1.787587 14.416848
-4.108147 1.814717 14.404289
-4.294961 1.844543 14.390645
-4.588328 1.877954 14.368320
-4.775013 1.905538 14.354181
-4.946111 1.983492 14.340330
-5.107135 2.082649 14.326862
-5.275431 2.168862 14.313129
-5.418099 2.290280 14.300447
-5.532347 2.562370 14.286613
-5.596277 2.740750 14.278324
-5.661916 2.918502 14.269879
-5.727299 3.096347 14.261390
-5.792238 3.274354 14.252901
-5.859160 3.451614 14.244305
-5.971013 3.725572 14.230516
-6.043890 3.900459 14.221625
-6.118819 4.074468 14.212632
-6.197968 4.246588 14.203431
-6.280465 4.417121 14.194068
-6.365348 4.586473 14.184589
-6.503422 4.848114 14.169524
-6.598820 5.011725 14.159552
-6.698192 5.172961 14.149397
-6.798020 5.333914 14.139222
-6.903161 5.491388 14.128811
-7.017709 5.642158 14.117996
-7.201438 5.873913 14.100906
-7.323774 6.018404 14.089777
-7.453530 6.156247 14.078365
-7.588106 6.289391 14.066780
-7.725999 6.419089 14.055084
-7.867405 6.544925 14.043272
-8.100384 6.726728 14.024472
-8.255486 6.835217 14.012283
-8.411031 6.943067 14.000082
-8.571787 7.042885 13.987780
-8.739526 7.130505 13.975378
-8.908821 7.215128 13.962963
-9.176473 7.340451 13.943561
-9.352419 7.410135 13.931146
-9.530519 7.474167 13.918754
-9.709955 7.534365 13.906385
-9.890668 7.590608 13.894046
-10.073374 7.639978 13.881773
-10.361916 7.704297 13.862760
-10.546982 7.744019 13.850607
-10.733344 7.777022 13.838557
-10.920961 7.802121 13.826646
-11.108821 7.825433 13.814769
-11.296889 7.846962 13.802927
-11.591633 7.870124 13.784653
-11.780677 7.880270 13.773058
-11.969832 7.888184 13.761517
-12.159079 7.893572 13.750039
-12.348401 7.894649 13.738671
-12.537718 7.891937 13.727404
165 NaN NaN
-1.756142 0.641014 16.567460
-1.777982 0.671344 16.473641
-1.799796 0.701663 16.379812
-1.821595 0.731976 16.285977
-1.843392 0.762288 16.192142
-1.865198 0.792603 16.098310
-1.887025 0.822928 16.004486
-1.908882 0.853265 15.910673
-1.930744 0.883605 15.816862
-1.952553 0.913921 15.723031
-1.974251 0.944191 15.629159
-1.995884 0.974433 15.535263
-2.017663 1.004737 15.441421
-2.039811 1.035198 15.347717
-2.062311 1.065809 15.254145
-2.084466 1.096273 15.160443
-2.105426 1.126226 15.066304
-2.124758 1.155478 14.971597
-2.144782 1.185028 14.877129
-2.168588 1.216189 14.784079
-2.198645 1.249934 14.693802
-2.239208 1.287873 14.609607
-2.297923 1.332185 14.541114
-2.378547 1.381134 14.507202
-2.467501 1.428380 14.502283
-2.557673 1.473538 14.507531
-2.648165 1.518259 14.509630
-2.739230 1.561508 14.504027
-2.832148 1.599728 14.494058
-2.928171 1.629189 14.484042
-3.026795 1.649387 14.476354
-3.126452 1.664456 14.470057
-3.226246 1.678706 14.463984
-3.325683 1.695034 14.457333
-3.424880 1.712616 14.450279
-3.524116 1.729956 14.443172
-3.623617 1.745804 14.436310
-3.723338 1.760319 14.429686
-3.823167 1.774139 14.423189
-3.923007 1.787884 14.416708
-4.022787 1.802004 14.410123
-4.122448 1.816847 14.403312
-4.221924 1.832726 14.396152
-4.321342 1.848812 14.388656
-4.421035 1.862979 14.380993
-4.521211 1.873137 14.373350
-4.621662 1.880346 14.365822
-4.721669 1.891947 14.358307
-4.819121 1.916776 14.350769
-4.909729 1.960458 14.343390
-4.994829 2.014336 14.336232
-5.079844 2.068356 14.329093
-5.169044 2.115072 14.321802
-5.259619 2.159119 14.314456
-5.345269 2.211897 14.307268
-5.414794 2.284284 14.300808
-5.463400 2.372464 14.295500
-5.499660 2.466578 14.290946
-5.532241 2.562070 14.286627
-5.565839 2.657206 14.282245
-5.600377 2.752002 14.277796
-5.635348 2.846637 14.273305
-5.670332 2.941267 14.268794
-5.705197 3.035939 14.264272
-5.739862 3.130686 14.259752
-5.774331 3.225504 14.255237
-5.809054 3.320228 14.250707
-5.844619 3.414638 14.246133
-5.881539 3.508521 14.241492
-5.919636 3.601931 14.236793
-5.958334 3.695092 14.232065
-5.997079 3.788234 14.227334
-6.035829 3.881374 14.222602
-6.075080 3.974302 14.217845
-6.115348 4.066791 14.213038
-6.156911 4.158702 14.208168
-6.199604 4.250091 14.203243
-6.243217 4.341042 14.198272
-6.287570 4.431632 14.193266
-6.332588 4.521893 14.188228
-6.378219 4.611843 14.183160
-6.424462 4.701479 14.178063
-6.471685 4.790598 14.172920
-6.520410 4.878901 14.167706
-6.571099 4.966084 14.162401
-6.623450 5.052277 14.157020
-6.676575 5.137994 14.151603
-6.729603 5.223770 14.146191
-6.782548 5.309599 14.140783
-6.836683 5.394676 14.135321
-6.893349 5.478077 14.129747
-6.953172 5.559235 14.124038
-7.015064 5.638824 14.118242
-7.077726 5.717808 14.112415
-7.140182 5.796956 14.106596
-7.202970 5.875838 14.100764
-7.267105 5.953624 14.094877
-7.333479 6.029498 14.088903
-7.402074 6.103365 14.082845
-7.472372 6.175611 14.076724
-7.543889 6.246647 14.070561
-7.616361 6.316705 14.064365
-7.689742 6.385809 14.058138
-7.763998 6.453968 14.051882
-7.839273 6.520996 14.045593
-7.916045 6.586298 14.039258
-7.994795 6.649190 14.032866
-8.075701 6.709281 14.026417
-8.157999 6.767451 14.019934
-8.240783 6.824928 14.013439
-8.323354 6.882711 14.006948
-8.406286 6.939971 14.000449
-8.490684 6.995036 13.993920
-8.577471 7.046238 13.987349
-8.666378 7.093673 13.980750
-8.756384 7.138993 13.974140
-8.846584 7.183928 13.967529
-8.936671 7.229090 13.960919
-9.027162 7.273436 13.954307
-9.118607 7.315771 13.947692
-9.211298 7.355303 13.941076
-9.304988 7.392411 13.934465
-9.399386 7.427685 13.927860
-9.494260 7.461657 13.921263
-9.589524 7.494525 13.914672
-9.685133 7.526374 13.908087
-9.781060 7.557255 13.901510
-9.877400 7.586822 13.894943
-9.974306 7.614477 13.888394
-10.071892 7.639633 13.881872
-10.170050 7.662469 13.875378
-10.268499 7.684028 13.868901
-10.366990 7.705397 13.862427
-10.465441 7.726947 13.855950
-10.564084 7.747600 13.849486
-10.663153 7.766097 13.843055
-10.762739 7.781597 13.836674
-10.862645 7.794916 13.830332
-10.962676 7.807275 13.824009
-11.062695 7.819732 13.817684
-11.162725 7.832096 13.811361
-11.262859 7.843601 13.805055
-11.363164 7.853508 13.798782
-11.463628 7.861688 13.792545
-11.564194 7.868521 13.786339
-11.664823 7.874399 13.780155
-11.765491 7.879584 13.773986
-11.866190 7.884132 13.767833
-11.966916 7.888088 13.761695
-12.067665 7.891405 13.755572
-12.168442 7.893794 13.749472
-12.269242 7.894923 13.743405
-12.370050 7.894574 13.737376
-12.470852 7.893161 13.731377
-12.571647 7.891315 13.725389
-12.672445 7.889596 13.719398
-12.773240 7.887765 13.713410
-12.874017 7.885075 13.707445
-12.974741 7.880791 13.701527
-13.075381 7.874798 13.695659
-13.175951 7.867688 13.689824
-13.276487 7.860092 13.684005
-13.377032 7.852636 13.678181
-13.477630 7.845949 13.672334
-13.578309 7.840662 13.666444
