0.266564 0.266574 0.266711 0.267346 0.268352 0.266705 0.265057 0.263410 0.258926 0.256096 0.255319 0.255265 0.255210 0.254417 0.250599 0.244550 0.238441 0.232332 0.226223 0.221058 0.217798 0.217142 0.217096 0.217050 0.216401 0.213664 0.209327 0.205693 0.202059 0.198425 0.195289 0.193310 0.192896 0.192867 0.192839 0.192429 0.190645 0.187819 0.185297 0.182775 0.180254 0.177989 0.176560 0.176261 0.176241 0.176220 0.175926 0.174634 0.172587 0.170796 0.169005 0.167213 0.165651 0.164665 0.164458 0.164443 0.164429 0.164223 0.163318 0.161884 0.160571 0.159258 0.157945 0.156736 0.155973 0.155811 0.155800 0.155789 0.155627 0.154906 0.153764 0.152700 0.151636 0.150572 0.149575 0.148947 0.148812 0.148802 0.148793 0.148659 0.148060 0.147112 0.146212 0.145312 0.144412 0.143558 0.143019 0.142903 0.142895 0.142887 0.142772 0.142256 0.141438 0.140663 0.139889 0.139114 0.138381 0.137918 0.137819 0.137812 
0.266578 0.266642 0.267273 0.268579 0.270438 0.269186 0.267935 0.266683 0.263610 0.261452 0.260694 0.260618 0.260538 0.259750 0.257226 0.253634 0.250118 0.246602 0.243086 0.239916 0.237689 0.237037 0.236971 0.236906 0.236264 0.234316 0.231542 0.229130 0.226719 0.224307 0.222152 0.220638 0.220192 0.220146 0.220101 0.219658 0.218277 0.216311 0.214515 0.212719 0.210923 0.209249 0.208072 0.207717 0.207681 0.207645 0.207292 0.206190 0.204623 0.203149 0.201675 0.200202 0.198793 0.197803 0.197499 0.197468 0.197437 0.197134 0.196181 0.194825 0.193518 0.192211 0.190904 0.189647 0.188764 0.188494 0.188467 0.188440 0.188172 0.187324 0.186117 0.184947 0.183778 0.182609 0.181500 0.180722 0.180482 0.180458 0.180434 0.180195 0.179446 0.178380 0.177360 0.176340 0.175320 0.174345 0.173660 0.173451 0.173429 0.173408 0.173199 0.172541 0.171604 0.170702 0.169801 0.168899 0.168033 0.167424 0.167238 0.167219 
0.266608 0.266797 0.269622 0.278172 0.291718 0.287363 0.283007 0.278651 0.265732 0.257578 0.255838 0.255721 0.255609 0.253923 0.246920 0.235825 0.226253 0.216682 0.207111 0.199796 0.195179 0.194324 0.194267 0.194211 0.193381 0.190196 0.185150 0.181776 0.178403 0.175029 0.172449 0.170821 0.170485 0.170462 0.170440 0.170106 0.168537 0.166052 0.162704 0.159356 0.156008 0.150596 0.147181 0.146389 0.146336 0.146283 0.145492 0.141998 0.136462 0.133031 0.129601 0.126170 0.124547 0.123522 0.123342 0.123330 0.123318 0.123145 0.122473 0.121410 0.120672 0.119934 0.119195 0.118680 0.118354 0.118293 0.118288 0.118284 0.118224 0.117980 0.117595 0.117310 0.117026 0.116741 0.116518 0.116378 0.116349 0.116347 0.116345 0.116316 0.116194 0.115999 0.115827 0.115655 0.115484 0.115333 0.115239 0.115219 0.115218 0.115217 0.115197 0.115115 0.114984 0.114878 0.114771 0.114664 0.114578 0.114523 0.114512 0.114511 0.114511 0.114500 0.114454 0.114380 0.114319 0.114257 0.114196 0.114144 0.114111 0.114104 0.114104 0.114104 0.114097 0.114068 0.114022 0.113983 0.113944 0.113906 0.113873 0.113852 0.113848 0.113847 0.113847 0.113843 0.113826 0.113799 0.113781 0.113762 0.113743 0.113713 0.113695 0.113688 0.113687 
0.155797 0.155787 0.155752 0.155672 0.155567 0.155458 0.155350 0.155242 0.155127 0.155041 0.155002 0.154990 0.154978 0.154939 0.154850 0.154733 0.154613 0.154492 0.154372 0.154249 0.154155 0.154114 0.154102 0.154089 0.154048 0.153954 0.153830 0.153727 0.153625 0.153522 0.153423 0.153347 0.153314 0.153305 0.153295 0.153263 0.153191 0.153096 0.153004 0.152913 0.152822 0.152736 0.152671 0.152643 0.152635 0.152626 0.152599 0.152537 0.152456 0.152379 0.152302 0.152225 0.152152 0.152097 0.152073 0.152066 0.152059 0.152035 0.151983 0.151913 0.151849 0.151785 0.151722 0.151659 0.151611 0.151590 0.151584 0.151578 0.151558 0.151516 0.151461 0.151405 0.151350 0.151294 0.151243 0.151204 0.151188 0.151183 0.151178 0.151162 0.151124 0.151074 0.151027 0.150980 0.150933 0.150889 0.150855 0.150840 0.150836 0.150831 0.150817 0.150784 0.150740 0.150701 0.150662 0.150623 0.150584 0.150554 0.150541 0.150537 0.150533 0.150521 0.150494 0.150459 0.150423 0.150388 0.150352 0.150319 0.150294 0.150283 0.150280 0.150276 0.150266 0.150241 0.150208 0.150176 0.150144 0.150113 0.150082 0.150059 0.150048 0.150045 0.150042 0.150032 0.150008 0.149976 0.149947 0.149918 0.149889 0.149858 0.149836 0.149826 0.149822 
0.192855 0.192803 0.192397 0.191315 0.189871 0.188512 0.187152 0.185793 0.184565 0.183644 0.183321 0.183280 0.183241 0.182934 0.182124 0.181044 0.180077 0.179110 0.178144 0.177229 0.176545 0.176294 0.176262 0.176230 0.175981 0.175315 0.174427 0.173641 0.172855 0.172069 0.171411 0.170918 0.170757 0.170736 0.170716 0.170557 0.170159 0.169629 0.169196 0.168763 0.168330 0.167980 0.167718 0.167634 0.167624 0.167613 0.167530 0.167313 0.167023 0.166776 0.166529 0.166282 0.166071 0.165913 0.165855 0.165848 0.165841 0.165790 0.165649 0.165461 0.165291 0.165121 0.164951 0.164789 0.164668 0.164623 0.164618 
0.217076 0.216995 0.216493 0.215165 0.213397 0.211651 0.209905 0.208160 0.206499 0.205252 0.204787 0.204712 0.204639 0.204181 0.203033 0.201505 0.200159 0.198814 0.197468 0.196310 0.195442 0.195138 0.195089 0.195042 0.194746 0.194001 0.193009 0.192116 0.191222 0.190329 0.189449 0.188788 0.188537 0.188497 0.188457 0.188206 0.187528 0.186625 0.185719 0.184813 0.183907 0.183029 0.182369 0.182124 0.182084 0.182045 0.181801 0.181201 0.180401 0.179714 0.179026 0.178338 0.177775 0.177352 0.177207 0.177183 0.177160 0.177018 0.176686 0.176245 0.175890 0.175536 0.175181 0.174881 0.174656 0.174580 0.174567 0.174555 0.174479 0.174291 0.174042 0.173829 0.173615 0.173402 0.173209 0.173064 0.173015 0.173007 0.172999 0.172948 0.172817 0.172641 0.172482 0.172322 0.172162 0.172008 0.171892 0.171852 0.171845 
0.255221 0.255044 0.253204 0.246430 0.236101 0.227120 0.218138 0.209156 0.205445 0.203011 0.202418 0.202361 0.202305 0.201723 0.199538 0.196206 0.193110 0.190013 0.186916 0.184258 0.182515 0.182155 0.182120 0.182086 0.181736 0.180679 0.179066 0.178254 0.177441 0.176628 0.176149 0.175835 0.175760 0.175753 
0.260557 0.260315 0.259370 0.257213 0.254359 0.251783 0.249207 0.246631 0.244243 0.242440 0.241704 0.241517 0.241331 0.240602 0.238895 0.236637 0.234489 0.232341 0.230193 0.228179 0.226657 0.226041 0.225883 0.225728 0.225118 0.223703 0.221831 0.220039 0.218246 0.216454 0.214823 0.213590 0.213098 0.212973 0.212847 0.212353 0.211238 0.209762 0.208480 0.207198 0.205917 0.204787 0.203933 0.203622 0.203542 0.203483 0.203251 0.202709 0.201993 0.201304 0.200616 0.199927 0.199263 0.198761 0.198553 0.198499 0.198446 0.198238 0.197746 0.197095 0.196455 0.195815 0.195176 0.194539 0.194058 0.193857 0.193806 0.193754 0.193554 0.193078 0.192448 0.191823 0.191199 0.190574 0.189958 0.189492 0.189299 0.189250 0.189201 0.189009 0.188556 0.187958 0.187383 0.186808 0.186233 0.185693 0.185285 0.185122 0.185080 0.185039 0.184877 0.184500 0.184002 0.183560 0.183118 0.182676 0.182270 0.181964 0.181839 0.181807 0.181779 0.181669 0.181416 0.181082 0.180779 0.180476 0.180173 0.179920 0.179729 0.179651 0.179631 0.179611 0.179533 0.179362 0.179135 0.178941 0.178747 0.178553 0.178387 0.178261 0.178213 0.178201 0.178189 0.178140 0.178023 0.177868 0.177737 0.177606 0.177476 0.177354 0.177262 0.177224 0.177214 0.177206 0.177175 0.177102 0.177005 0.176909 0.176813 0.176717 0.176636 0.176575 0.176550 0.176543 0.176536 0.176511 0.176454 0.176378 0.176313 0.176248 0.176182 0.176125 0.176081 0.176065 0.176060 
0.188455 0.188407 0.188302 0.188106 0.187852 0.187600 0.187348 0.187096 0.186845 0.186653 0.186550 0.186504 0.186457 0.186355 0.186164 0.185916 0.185673 0.185429 0.185186 0.184945 0.184760 0.184661 0.184617 0.184572 0.184474 0.184291 0.184053 0.183819 0.183584 0.183350 0.183121 0.182944 0.182850 0.182808 0.182765 0.182672 0.182498 0.182272 0.182050 0.181827 0.181605 0.181385 0.181216 0.181128 0.181088 0.181048 0.180960 0.180797 0.180584 0.180375 0.180167 0.179958 0.179751 0.179592 0.179508 0.179469 0.179431 0.179347 0.179191 0.178989 0.178793 0.178597 0.178402 0.178208 0.178060 0.177981 0.177945 0.177909 0.177831 0.177684 0.177494 0.177309 0.177123 0.176937 0.176757 0.176619 0.176545 0.176512 0.176479 0.176406 0.176270 0.176093 0.175919 0.175744 0.175570 0.175399 0.175267 0.175200 0.175169 0.175139 0.175072 0.174947 0.174786 0.174626 0.174466 0.174307 0.174149 0.174027 0.173963 0.173934 0.173904 0.173840 0.173723 0.173571 0.173424 0.173277 0.173131 0.172986 0.172874 0.172815 0.172788 0.172761 0.172702 0.172593 0.172450 0.172314 0.172177 0.172041 0.171912 0.171812 0.171759 0.171735 0.171711 0.171658 0.171561 0.171434 0.171308 0.171183 0.171058 0.170938 0.170846 0.170799 0.170778 0.170757 0.170710 0.170623 0.170510 0.170399 0.170288 0.170176 0.170066 0.169981 0.169936 0.169916 0.169895 0.169851 0.169773 0.169672 0.169576 0.169479 0.169383 0.169288 0.169215 0.169176 0.169158 0.169140 0.169102 0.169029 0.168935 0.168864 0.168793 0.168721 0.168674 0.168637 0.168618 0.168609 0.168601 0.168581 0.168545 0.168498 0.168451 0.168405 0.168358 0.168320 0.168290 0.168276 0.168269 0.168263 0.168249 0.168222 0.168188 0.168153 0.168118 0.168083 0.168046 0.168018 0.168003 0.167996 0.167989 0.167974 0.167953 0.167927 0.167900 0.167874 0.167847 0.167821 0.167800 0.167789 0.167784 0.167778 0.167767 0.167745 0.167716 0.167694 0.167673 0.167651 0.167630 0.167615 0.167606 0.167602 0.167598 0.167590 0.167573 0.167551 0.167528 0.167505 0.167482 0.167467 0.167455 0.167449 0.167446 0.167444 0.167437 0.167425 0.167409 0.167392 0.167375 0.167358 0.167340 0.167326 0.167319 0.167315 0.167313 0.167307 0.167300 0.167290 0.167280 0.167269 0.167259 0.167247 0.167239 0.167234 0.167232 0.167230 0.167226 0.167217 0.167205 0.167201 0.167196 0.167191 0.167187 0.167184 0.167182 0.167181 0.167180 0.167178 0.167174 0.167169 0.167164 0.167160 0.167155 0.167157 0.167158 0.167159 0.167159 0.167159 0.167160 0.167161 0.167162 0.167164 0.167165 0.167166 0.167167 0.167167 0.167168 0.167169 0.167170 0.167173 0.167179 0.167186 0.167194 0.167201 0.167209 0.167216 0.167222 0.167225 0.167226 
