0.148846 0.148838 0.148738 0.148279 0.147553 0.146857 0.146160 0.145463 0.144798 0.144379 0.144288 0.144281 0.144274 0.144183 0.143781 0.143145 0.142544 0.141943 0.141342 0.140772 0.140412 0.140333 0.140327 0.140321 0.140243 0.139895 0.139343 0.138807 0.138271 0.137734 0.137210 0.136879 0.136806 0.136800 0.136794 0.136722 0.136395 0.135877 0.135368 0.134859 0.134350 0.133851 0.133537 0.133468 0.133463 0.133457 0.133389 0.133082 0.132595 0.132126 0.131656 0.131186 0.130734 0.130448 0.130386 0.130381 0.130376 0.130314 0.130041 0.129607 0.129196 0.128785 0.128374 0.127986 0.127740 0.127687 0.127683 0.127679 0.127626 0.127393 0.127025 0.126680 0.126336 0.125991 0.125672 0.125471 0.125428 0.125424 0.125421 0.125378 0.125190 0.124893 0.124615 0.124338 0.124061 0.123798 0.123633 0.123597 0.123594 0.123591 0.123556 0.123396 0.123143 0.122899 0.122654 0.122410 0.122174 0.122025 0.121993 0.121990 0.121988 0.121955 0.121811 0.121583 0.121365 0.121147 0.120929 0.120723 0.120592 0.120564 0.120561 0.120559 0.120531 0.120407 0.120209 0.120024 0.119838 0.119653 0.119479 0.119369 0.119345 0.119344 
0.148850 0.148857 0.148917 0.149078 0.149294 0.149501 0.149708 0.149915 0.150135 0.150299 0.150360 0.150367 0.150374 0.150435 0.150612 0.150849 0.151110 0.151372 0.151634 0.151919 0.152132 0.152211 0.152220 0.152229 0.152310 0.152539 0.152844 0.153168 0.153493 0.153817 0.154157 0.154411 0.154505 0.154516 0.154526 0.154620 0.154886 0.155240 0.155609 0.155979 0.156348 0.156730 0.157016 0.157122 0.157133 0.157145 0.157251 0.157547 0.157943 0.158351 0.158758 0.159166 0.159588 0.159904 0.160019 0.160033 0.160046 0.160162 0.160486 0.160919 0.161364 0.161809 0.162254 0.162710 0.163052 0.163177 0.163191 0.163205 0.163331 0.163682 0.164151 0.164631 0.165111 0.165590 0.166084 0.166454 0.166589 0.166604 0.166620 0.166756 0.167134 0.167639 0.168156 0.168674 0.169192 0.169720 0.170115 0.170260 0.170276 0.170292 0.170437 0.170842 0.171382 0.171931 0.172480 0.173030 0.173591 0.174010 0.174163 0.174181 0.174198 0.174351 0.174774 0.175340 0.175911 0.176481 0.177052 0.177632 0.178067 0.178225 0.178242 0.178260 0.178418 0.178855 0.179439 0.180027 0.180614 0.181201 0.181796 0.182241 0.182402 0.182421 0.182439 0.182601 0.183048 0.183645 0.184245 0.184846 0.185446 0.186047 0.186497 0.186660 0.186679 
0.148849 0.148850 0.148875 0.148852 0.148815 0.148424 0.148033 0.147642 0.147132 0.146810 0.146746 0.146741 0.146736 0.146674 0.146403 0.145974 0.145603 0.145232 0.144861 0.144521 0.144307 0.144258 0.144255 0.144251 0.144205 0.144001 0.143680 0.143390 0.143101 0.142812 0.142523 0.142341 0.142298 0.142295 0.142292 0.142248 0.142031 0.141688 0.141125 0.140562 0.140000 0.138821 0.138078 0.137839 0.137821 0.137803 0.137547 0.136183 0.134023 0.131938 0.129853 0.127768 0.125859 0.124655 0.124412 0.124394 0.124377 0.124142 0.123205 0.121722 0.120833 0.119945 0.119057 0.118505 0.118156 0.118093 0.118089 0.118084 0.118024 0.117786 0.117410 0.117149 0.116888 0.116628 0.116443 0.116326 0.116303 0.116301 0.116299 0.116276 0.116184 0.116037 0.115919 0.115801 0.115683 0.115584 0.115522 0.115509 0.115508 0.115507 0.115494 0.115440 0.115353 0.115277 0.115201 0.115125 0.115058 0.115016 0.115007 0.115006 0.115005 0.114996 0.114958 0.114897 0.114842 0.114788 0.114734 0.114685 0.114654 0.114648 0.114647 0.114647 0.114641 0.114613 0.114569 0.114530 0.114491 0.114452 0.114418 0.114397 0.114392 0.114392 0.114391 0.114387 0.114368 0.114338 0.114312 0.114286 0.114260 0.114238 0.114224 0.114221 0.114221 0.114220 0.114218 0.114205 0.114185 0.114168 0.114150 0.114132 0.114112 0.114100 0.114097 0.114096 
0.120561 0.120559 0.120547 0.120516 0.120474 0.120431 0.120388 0.120345 0.120301 0.120269 0.120256 0.120254 0.120252 0.120239 0.120206 0.120161 0.120115 0.120068 0.120022 0.119975 0.119939 0.119925 0.119923 0.119921 0.119908 0.119871 0.119822 0.119773 0.119723 0.119674 0.119625 0.119588 0.119577 0.119575 0.119574 0.119563 0.119535 0.119498 0.119464 0.119430 0.119396 0.119366 0.119343 0.119335 0.119334 0.119333 0.119324 0.119304 0.119277 0.119253 0.119229 0.119206 0.119185 0.119170 0.119164 0.119164 0.119163 0.119157 0.119144 0.119127 0.119111 0.119096 0.119081 0.119068 0.119058 0.119055 0.119054 
0.125423 0.125420 0.125397 0.125335 0.125253 0.125167 0.125081 0.124996 0.124908 0.124842 0.124817 0.124813 0.124809 0.124784 0.124716 0.124626 0.124560 0.124494 0.124429 0.124368 0.124322 0.124305 0.124303 0.124300 0.124284 0.124241 0.124184 0.124130 0.124076 0.124022 0.123972 0.123934 0.123920 0.123918 0.123916 0.123903 0.123867 0.123820 0.123778 0.123736 0.123694 0.123655 0.123626 0.123616 0.123614 0.123613 0.123603 0.123577 0.123542 0.123511 0.123480 0.123449 0.123420 0.123399 0.123391 0.123390 
0.127683 0.127680 0.127669 0.127646 0.127615 0.127583 0.127552 0.127520 0.127486 0.127461 0.127450 0.127446 0.127443 0.127432 0.127406 0.127371 0.127335 0.127299 0.127263 0.127226 0.127198 0.127186 0.127182 0.127178 0.127166 0.127137 0.127099 0.127059 0.127019 0.126980 0.126940 0.126909 0.126895 0.126891 0.126887 0.126873 0.126841 0.126799 0.126756 0.126714 0.126671 0.126631 0.126601 0.126592 0.126589 0.126586 0.126577 0.126555 0.126527 0.126499 0.126472 0.126444 0.126417 0.126396 0.126387 0.126385 0.126382 0.126373 0.126353 0.126326 0.126300 0.126274 0.126248 0.126222 0.126203 0.126194 0.126192 0.126189 0.126181 0.126162 0.126137 0.126112 0.126087 0.126062 0.126038 0.126020 0.126012 0.126010 0.126008 0.126000 0.125981 0.125957 0.125935 0.125912 0.125889 0.125866 0.125849 0.125841 0.125839 0.125837 0.125829 0.125813 0.125792 0.125771 0.125750 0.125729 0.125709 0.125694 0.125687 0.125685 0.125683 0.125677 0.125662 0.125643 0.125624 0.125606 0.125587 0.125569 0.125556 0.125550 0.125548 0.125546 0.125541 0.125527 0.125509 0.125493 0.125477 0.125460 0.125444 0.125431 0.125425 0.125424 0.125422 0.125417 0.125406 0.125390 0.125375 0.125359 0.125344 0.125329 0.125318 0.125313 0.125312 0.125310 0.125305 0.125294 0.125279 0.125265 0.125251 0.125236 0.125222 0.125212 0.125207 0.125206 
0.130381 0.130378 0.130371 0.130354 0.130331 0.130307 0.130284 0.130260 0.130234 0.130215 0.130206 0.130203 0.130201 0.130192 0.130172 0.130145 0.130117 0.130088 0.130060 0.130030 0.130007 0.129997 0.129994 0.129991 0.129981 0.129957 0.129925 0.129892 0.129859 0.129826 0.129792 0.129766 0.129754 0.129750 0.129746 0.129734 0.129706 0.129670 0.129632 0.129595 0.129557 0.129518 0.129488 0.129474 0.129470 0.129466 0.129453 0.129422 0.129381 0.129339 0.129296 0.129254 0.129210 0.129177 0.129163 0.129158 0.129154 0.129139 0.129105 0.129060 0.129025 0.128990 0.128956 0.128927 0.128905 0.128895 0.128892 0.128889 0.128880 0.128858 0.128830 0.128802 0.128774 0.128747 0.128719 0.128698 0.128689 0.128686 0.128683 0.128674 0.128653 0.128626 0.128599 0.128573 0.128546 0.128519 0.128499 0.128490 0.128487 0.128484 0.128475 0.128455 0.128429 0.128403 0.128377 0.128350 0.128324 0.128305 0.128296 0.128294 0.128291 0.128282 0.128263 0.128237 0.128212 0.128187 0.128161 0.128137 0.128118 0.128109 0.128107 0.128104 0.128096 0.128077 0.128052 0.128028 0.128004 0.127980 0.127955 0.127937 0.127929 0.127927 0.127924 0.127916 0.127899 0.127876 0.127852 0.127829 0.127806 0.127783 0.127766 0.127759 0.127756 0.127754 0.127746 0.127729 0.127707 0.127685 0.127662 0.127640 0.127618 0.127602 0.127594 0.127592 0.127590 0.127582 0.127566 0.127544 0.127522 0.127501 0.127479 0.127457 0.127441 0.127434 0.127432 0.127429 0.127422 0.127406 0.127385 0.127363 0.127342 0.127320 0.127299 0.127283 0.127276 0.127273 0.127271 0.127264 0.127248 0.127226 0.127205 0.127184 0.127163 0.127141 0.127125 0.127118 0.127116 
0.133463 0.133462 0.133459 0.133454 0.133448 0.133441 0.133434 0.133427 0.133419 0.133413 0.133410 0.133409 0.133407 0.133404 0.133397 0.133388 0.133378 0.133369 0.133359 0.133348 0.133340 0.133336 0.133335 0.133333 0.133329 0.133320 0.133308 0.133296 0.133283 0.133271 0.133258 0.133248 0.133243 0.133241 0.133239 0.133234 0.133224 0.133210 0.133196 0.133181 0.133167 0.133152 0.133141 0.133135 0.133133 0.133131 0.133125 0.133113 0.133097 0.133080 0.133064 0.133047 0.133030 0.133017 0.133010 0.133007 0.133005 0.132998 0.132984 0.132966 0.132947 0.132928 0.132909 0.132889 0.132874 0.132866 0.132863 0.132860 0.132852 0.132837 0.132816 0.132794 0.132773 0.132751 0.132728 0.132711 0.132703 0.132699 0.132696 0.132687 0.132670 0.132647 0.132623 0.132599 0.132575 0.132550 0.132531 0.132521 0.132517 0.132514 0.132504 0.132484 0.132459 0.132433 0.132406 0.132380 0.132352 0.132332 0.132321 0.132317 0.132313 0.132302 0.132281 0.132254 0.132225 0.132197 0.132168 0.132139 0.132116 0.132105 0.132100 0.132096 0.132085 0.132062 0.132032 0.132002 0.131972 0.131941 0.131910 0.131887 0.131875 0.131870 0.131866 0.131854 0.131830 0.131799 0.131781 0.131763 0.131746 0.131729 0.131717 0.131711 0.131708 0.131706 0.131700 0.131687 0.131671 0.131655 0.131639 0.131623 0.131608 0.131596 0.131591 0.131588 0.131586 0.131580 0.131569 0.131554 0.131539 0.131524 0.131509 0.131494 0.131483 0.131477 0.131475 0.131473 0.131467 0.131456 0.131442 0.131427 0.131413 0.131398 0.131384 0.131373 0.131368 0.131366 0.131363 0.131358 0.131347 0.131333 0.131319 0.131305 0.131291 0.131277 0.131267 0.131262 0.131260 0.131258 0.131252 0.131242 0.131229 0.131215 0.131202 0.131188 0.131174 0.131164 0.131159 0.131157 0.131155 0.131150 0.131140 0.131127 0.131114 0.131101 0.131088 0.131074 0.131064 0.131059 0.131057 0.131056 0.131051 0.131041 0.131029 0.131016 0.131003 0.130991 0.130978 0.130968 0.130964 0.130962 0.130960 0.130955 0.130946 0.130934 0.130922 0.130909 0.130897 0.130885 0.130876 0.130871 0.130869 0.130867 0.130863 0.130854 0.130842 0.130830 0.130819 0.130807 0.130795 0.130786 0.130782 0.130780 0.130778 0.130774 0.130765 0.130753 0.130742 0.130730 0.130719 0.130707 0.130698 0.130694 0.130692 0.130690 0.130686 0.130677 0.130665 0.130654 0.130643 0.130631 0.130620 0.130611 0.130607 0.130605 0.130603 0.130599 0.130590 0.130579 0.130567 0.130556 0.130545 0.130534 0.130525 0.130521 0.130519 0.130517 0.130513 0.130504 0.130492 0.130481 0.130470 0.130458 0.130447 0.130438 0.130433 0.130432 
0.140326 0.140322 0.140299 0.140237 0.140155 0.140066 0.139976 0.139887 0.139792 0.139720 0.139692 0.139687 0.139682 0.139653 0.139577 0.139475 0.139370 0.139264 0.139159 0.139050 0.138967 0.138934 0.138929 0.138923 0.138890 0.138806 0.138694 0.138579 0.138465 0.138350 0.138236 0.138149 0.138116 0.138110 0.138104 0.138071 0.137981 0.137862 0.137742 0.137621 0.137500 0.137374 0.137279 0.137242 0.137235 0.137229 0.137191 0.137092 0.136960 0.136822 0.136684 0.136545 0.136403 0.136295 0.136254 0.136246 0.136239 0.136197 0.136087 0.135941 0.135820 0.135699 0.135578 0.135475 0.135397 0.135369 0.135363 0.135358 0.135330 0.135259 0.135165 0.135080 0.134994 0.134908 0.134829 0.134769 0.134748 0.134745 0.134741 0.134720 0.134666 0.134593 0.134528 0.134462 0.134396 0.134337 0.134293 0.134276 0.134273 0.134270 0.134253 0.134212 0.134157 0.134106 0.134055 0.134004 0.133957 0.133921 0.133908 0.133906 0.133904 0.133891 0.133858 0.133814 0.133773 0.133732 0.133691 0.133653 0.133624 0.133612 0.133610 
0.144281 0.144281 0.144284 0.144288 0.144293 0.144290 0.144287 0.144284 0.144273 0.144265 0.144261 0.144260 0.144259 0.144254 0.144239 0.144220 0.144192 0.144164 0.144136 0.144099 0.144071 0.144059 0.144056 0.144053 0.144041 0.144008 0.143964 0.143915 0.143866 0.143817 0.143761 0.143719 0.143702 0.143698 0.143694 0.143677 0.143634 0.143575 0.143514 0.143452 0.143391 0.143326 0.143277 0.143258 0.143254 0.143250 0.143231 0.143185 0.143124 0.143081 0.143039 0.142996 0.142952 0.142920 0.142906 0.142902 0.142899 0.142885 0.142850 0.142805 0.142752 0.142700 0.142648 0.142590 0.142547 0.142528 0.142524 0.142519 0.142500 0.142452 0.142389 0.142319 0.142249 0.142178 0.142103 0.142047 0.142023 0.142017 0.142011 0.141987 0.141927 0.141848 0.141764 0.141680 0.141596 0.141511 0.141447 0.141421 0.141415 0.141409 0.141383 0.141320 0.141238 0.141158 0.141078 0.140998 0.140920 0.140862 0.140839 0.140834 0.140829 0.140806 0.140752 0.140680 0.140612 0.140543 0.140475 0.140409 0.140360 0.140340 0.140335 0.140331 0.140311 0.140265 0.140205 0.140147 0.140088 0.140030 0.139973 0.139931 0.139914 0.139910 0.139906 0.139889 0.139848 0.139795 0.139742 0.139690 0.139638 0.139588 0.139551 0.139535 0.139532 0.139528 0.139513 0.139476 0.139427 0.139378 0.139330 0.139282 0.139235 0.139200 0.139185 0.139182 0.139178 0.139164 0.139128 0.139081 0.139035 0.138988 0.138941 0.138895 0.138860 0.138846 0.138843 0.138839 0.138825 0.138790 0.138742 0.138695 0.138648 0.138601 0.138554 0.138518 0.138503 0.138500 
0.152220 0.152217 0.152209 0.152187 0.152158 0.152124 0.152090 0.152056 0.152016 0.151986 0.151972 0.151968 0.151964 0.151950 0.151916 0.151871 0.151820 0.151768 0.151717 0.151661 0.151618 0.151599 0.151593 0.151588 0.151568 0.151520 0.151457 0.151389 0.151321 0.151253 0.151180 0.151124 0.151100 0.151093 0.151086 0.151062 0.151004 0.150927 0.150845 0.150763 0.150681 0.150597 0.150533 0.150505 0.150497 0.150490 0.150462 0.150394 0.150305 0.150213 0.150122 0.150031 0.149934 0.149861 0.149829 0.149820 0.149811 0.149779 0.149706 0.149610 0.149514 0.149418 0.149322 0.149226 0.149153 0.149122 0.149113 0.149104 0.149073 0.148997 0.148896 0.148795 0.148694 0.148593 0.148490 0.148412 0.148379 0.148369 0.148360 0.148327 0.148249 0.148147 0.148043 0.147939 0.147835 0.147728 0.147647 0.147613 0.147603 0.147593 0.147558 0.147474 0.147363 0.147251 0.147138 0.147025 0.146909 0.146820 0.146782 0.146771 0.146760 0.146721 0.146631 0.146511 0.146389 0.146267 0.146145 0.146022 0.145928 0.145887 0.145876 0.145865 0.145824 0.145730 0.145605 0.145513 0.145422 0.145330 0.145245 0.145181 0.145155 0.145148 0.145140 0.145114 0.145054 0.144975 0.144901 0.144827 0.144752 0.144683 0.144631 0.144609 0.144603 0.144597 0.144575 0.144526 0.144461 0.144401 0.144340 0.144279 0.144221 0.144177 0.144160 0.144155 0.144150 0.144132 0.144091 0.144037 0.143985 0.143934 0.143882 0.143833 0.143797 0.143781 0.143776 0.143772 0.143756 0.143720 0.143673 0.143628 0.143583 0.143539 0.143494 0.143460 0.143447 0.143443 0.143439 0.143426 0.143395 0.143353 0.143313 0.143272 0.143232 0.143193 0.143164 0.143151 0.143148 0.143144 0.143132 0.143103 0.143064 0.143028 0.142991 0.142955 0.142918 0.142890 0.142879 0.142876 0.142872 0.142861 0.142834 0.142799 0.142763 0.142728 0.142693 0.142658 0.142633 0.142621 0.142618 0.142615 0.142604 0.142577 0.142542 0.142508 0.142474 0.142440 0.142405 0.142378 0.142367 0.142364 
0.174176 0.174155 0.173956 0.173311 0.172416 0.171433 0.170449 0.169466 0.168450 0.167718 0.167476 0.167451 0.167426 0.167185 0.166465 0.165468 0.164511 0.163555 0.162598 0.161690 0.161034 0.160823 0.160802 0.160780 0.160569 0.159991 0.159190 0.158673 0.158156 0.157639 0.157243 0.156957 0.156867 0.156858 0.156849 0.156767 0.156536 0.156215 0.155945 0.155676 0.155406 0.155177 0.155012 0.154962 0.154957 
