71.775525 -67.095331 -102.248880 0.137523
94.796603 -97.481525 -200.941836 0.137903
214.825512 -159.937863 -435.355722 0.138811
453.863976 -278.206660 -850.356828 0.140464
313.445265 -226.468681 -606.746202 0.139532
414.345098 -267.102375 -1088.964075 0.141293
446.090208 -284.331578 -798.352765 0.140300
176.830098 -116.695971 -346.576757 0.138423
261.900582 -127.145806 -503.284477 0.138965
411.016716 -102.254922 -890.835994 0.140208
448.433607 -129.247796 -824.641128 0.140031
257.076729 -142.962137 -456.838952 0.138845
330.436783 -179.362614 -558.251729 0.139260
394.750366 -206.387120 -648.694813 0.139617
459.141766 -216.075348 -715.608426 0.139852
377.759875 -283.697982 -781.937495 0.140258
187.644059 -104.687565 -287.883391 0.138207
400.637353 -169.228209 -597.474557 0.139359
469.710075 -173.554595 -678.389403 0.139626
98.684731 11.638839 -290.588312 0.137961
72.930174 7.587275 -414.549047 0.138366
46.856959 2.645565 -469.025270 0.138551
35.902272 28.220550 -561.197971 0.138797
-10.429415 99.728595 -955.101183 0.139969
37.035091 73.551132 -801.787603 0.139507
42.426562 104.846624 -1056.179572 0.140323
113.341294 211.300868 -1295.623445 0.140945
48.754936 18.292898 -574.141012 0.138865
-143.262919 -16.804837 -1379.640449 0.141783
100.470925 -4.778795 -973.187670 0.140294
59.884545 -18.546890 -594.576205 0.139017
64.146509 -50.633161 -824.815785 0.139877
60.832439 -62.788490 -973.729190 0.140429
70.315360 -37.207282 -1114.326066 0.140872
64.256793 -62.546467 -1216.425034 0.141305
89.851351 -81.162281 -990.105755 0.140533
331.893278 -30.522387 -1390.246542 0.141835
291.019614 -186.502096 -1456.337486 0.142470
59.580061 -52.178291 -790.392105 0.139760
-109.081452 -9.884686 -1247.853346 0.141276
45.935459 -82.356707 -884.467062 0.140158
42.862336 -100.926674 -963.888571 0.140483
54.796466 -227.609147 -1110.792478 0.141321
116.320999 17.276204 -394.257706 0.138286
190.660839 43.259458 -520.772786 0.138652
303.904146 89.790584 -801.350264 0.139495
311.268417 70.166174 -744.454801 0.139345
137.552462 18.631088 -418.167356 0.138364
128.334860 14.956655 -528.121290 0.138731
214.483464 29.513743 -1108.820299 0.140699
193.206305 18.444862 -730.395630 0.139408
206.978636 -136.990745 -1041.577337 0.140849
64.568587 335.077011 41.507125 0.136243
0.521763 521.193310 282.948183 0.134539
96.107557 443.297096 172.872647 0.135294
135.778947 512.433292 270.402498 0.134689
121.835629 652.082714 474.408132 0.133481
152.089205 551.124970 322.340766 0.134365
163.128646 599.475731 385.322160 0.133969
178.164696 637.281342 438.055851 0.133655
169.084772 672.352197 512.198785 0.133301
150.521278 794.099205 729.822990 0.132216
77.190868 790.471086 849.531632 0.131935
194.098310 780.207192 594.972830 0.132609
167.974822 667.144943 474.675241 0.133421
170.254888 595.904282 392.716691 0.133967
173.934037 630.192069 461.940604 0.133625
186.092422 628.857108 459.134888 0.133640
83.659246 606.658476 375.165194 0.133936
66.003016 790.440553 588.896331 0.132550
76.821453 818.500352 612.978496 0.132371
-36.851344 -272.153799 -142.882760 0.138060
-213.607996 -681.434105 -671.649025 0.141078
-159.940443 -470.047231 -411.675638 0.139347
39.059126 -162.514420 0.560941 0.137390
101.199482 -290.633799 -212.584694 0.138350
146.308897 -435.089861 -415.045478 0.139357
176.231303 -461.189685 -491.201606 0.139684
207.935840 -484.704203 -563.924129 0.139995
193.567976 -502.827352 -586.071809 0.140117
243.657559 -493.671673 -568.831301 0.140035
276.522973 -588.174989 -627.613831 0.140479
81.048733 -185.329461 -94.639215 0.137744
183.280928 -303.812870 -311.409019 0.138714
205.621204 -430.080930 -473.378659 0.139550
301.137813 -524.512827 -654.570010 0.140410
257.929200 -463.614244 -552.091246 0.139903
206.234523 -431.201581 -487.944999 0.139603
209.733329 -200.218235 -261.803553 0.138327
474.523010 -316.089801 -645.530235 0.139840
442.463236 -221.865832 -542.833368 0.139285
-59.766609 -324.452729 -211.000300 0.138387
-126.986646 -455.900434 -408.632821 0.139315
-169.946202 -547.076554 -595.569340 0.140203
-373.455646 -749.260394 -1116.591850 0.143170
-208.329257 -629.857304 -731.945482 0.141084
-133.973512 -706.213340 -754.413604 0.141419
-213.710550 -696.188222 -665.877694 0.141116
141.619044 -44.150899 -4.752569 0.137181
221.099305 -97.639490 141.259909 0.136844
299.034997 -172.921853 344.751354 0.136372
360.645430 -255.360369 537.731309 0.135949
378.822499 -233.615417 499.209232 0.136022
341.863557 -319.338515 558.214629 0.136009
196.464726 -45.752764 60.934251 0.136987
243.388350 -27.599217 123.342353 0.136763
311.514360 19.521954 230.122004 0.136353
386.618403 76.713120 362.206219 0.135857
489.909010 113.761573 526.939077 0.135311
329.203264 12.909890 426.933946 0.135784
258.437277 -45.068233 134.387558 0.136764
303.241333 -59.518864 225.470360 0.136516
310.185977 -80.037372 298.291845 0.136336
442.608984 -71.967478 567.573425 0.135522
336.178580 -80.608391 334.613938 0.136228
432.157583 -77.755366 444.405615 0.135892
402.464178 -77.926654 413.589383 0.135985
337.826449 -146.661996 387.611015 0.136193
453.985905 -225.012643 564.340505 0.135808
526.213173 -353.325806 850.713515 0.135201
308.113374 -76.459521 237.131346 0.136513
317.211288 -122.936902 393.771226 0.136131
490.218227 -159.914633 536.256205 0.135766
-194.828550 -4.018780 -235.159780 0.137759
-278.413602 2.767769 -483.518243 0.138519
-381.335227 1.685644 -697.227473 0.139190
-422.690200 15.612210 -767.233572 0.139278
-446.558945 75.240930 -877.625462 0.139367
-445.284177 103.901608 -934.211985 0.139443
-651.826190 123.759438 -1409.668880 0.140717
-470.089557 122.250647 -1168.066133 0.140168
-511.773466 83.538259 -1308.018655 0.140815
-509.772225 76.977335 -1312.044403 0.140867
-423.180826 16.210802 -787.309005 0.139346
-360.733807 -10.383192 -698.092034 0.139238
-462.350475 -23.103795 -1183.459601 0.140876
-358.172723 -13.198442 -788.297051 0.139558
-466.695706 -78.331830 -1286.330714 0.141468
-520.635238 -51.167899 -1285.323980 0.141279
-292.039785 -27.414448 -497.998187 0.138631
-531.677022 -105.691629 -1117.563939 0.140812
-578.227611 -187.631708 -973.971154 0.140521
-108.840199 14.631501 47.465378 0.136864
-201.984425 59.438744 194.642298 0.136317
-326.940377 87.652941 348.885069 0.135694
-351.631216 88.843160 413.076950 0.135458
-489.306013 73.952437 641.369195 0.134629
-449.984205 70.289003 619.807794 0.134761
-369.053171 92.993436 411.753783 0.135415
-368.060755 109.818655 441.969255 0.135274
-458.010016 138.369539 695.955805 0.134320
-492.754730 108.862032 620.002009 0.134571
-619.335963 77.579140 801.899357 0.133988
-678.554661 69.640521 940.437215 0.133562
-391.469700 98.333273 437.006398 0.135285
-385.485851 108.550195 472.932045 0.135159
-391.639295 130.777827 590.601132 0.134741
-575.991277 207.746182 983.792021 0.133157
-444.366110 167.479054 787.022419 0.134000
-494.690512 330.414141 900.246247 0.133075
-408.296449 115.256666 469.408439 0.135107
-434.874903 154.200376 569.342022 0.134648
-473.295345 165.769982 567.841283 0.134551
-636.701645 274.849316 792.365375 0.133343
-815.811366 423.913411 1117.403424 0.131785
-754.430065 395.444677 991.872415 0.132270
-599.713910 318.552189 834.130085 0.133138
-328.938401 120.307888 413.864441 0.135390
-397.093077 157.006442 592.519688 0.134638
-379.705324 151.331525 576.777259 0.134730
-152.208378 37.390385 203.939714 0.136341
-186.995805 78.746321 358.469631 0.135806
-217.739943 183.258841 522.581739 0.135059
-323.549074 354.126042 842.065965 0.133383
-245.399712 263.275667 677.176315 0.134279
-227.579783 115.481569 460.145333 0.135443
-295.236848 104.992601 547.299954 0.135121
-330.966177 129.152940 612.057679 0.134791
-582.946293 203.580758 1017.370728 0.133074
-447.315781 258.382772 863.154301 0.133489
-351.774064 88.256776 754.990665 0.134490
-470.033492 120.167427 838.980620 0.133973
-151.810506 75.552182 428.008150 0.135617
-102.489497 134.047326 628.799619 0.134951
-80.220435 183.660121 769.625260 0.134478
-61.617908 177.634677 796.923158 0.134416
-11.933280 192.285942 1007.558802 0.133830
-128.831563 -31.586162 62.101791 0.136907
-183.750027 -98.874450 167.549762 0.136705
-274.904049 -150.937432 329.993318 0.136291
-496.284797 -160.919573 683.148404 0.135139
-337.418639 -189.371130 440.662422 0.136014
-510.624473 -409.043410 919.092546 0.135027
-355.021416 -218.744794 495.545348 0.135898
-250.219799 -224.537133 362.767270 0.136332
-260.811227 -340.379832 534.837510 0.136016
-257.837216 -396.679490 606.473171 0.135895
-217.802508 -505.698403 775.321285 0.135638
-313.224194 -535.079398 802.449303 0.135686
-274.599393 -382.122492 602.941995 0.135877
-304.078140 -409.265845 660.214326 0.135769
-300.975926 -443.631023 782.983263 0.135492
-319.688547 -432.140329 696.508440 0.135729
-331.835313 -474.622440 774.042208 0.135616
-434.532096 -611.227159 1026.001190 0.135216
-388.209523 -526.755608 805.767861 0.135671
-267.568010 -321.052470 544.964155 0.135951
-239.445166 -175.138836 303.124596 0.136425
-356.603641 -319.449358 527.287586 0.135983
-393.583296 -391.541550 628.451803 0.135862
-562.432133 -584.705044 928.199143 0.135411
-470.894116 -397.080901 750.567493 0.135509
-50.445770 398.464990 -305.855831 0.136820
-97.375875 541.876898 -543.867292 0.136685
-127.092608 621.134894 -675.816225 0.136607
-99.236872 798.385580 -871.033226 0.136287
-100.648629 729.487644 -816.013303 0.136494
-144.209791 777.370282 -990.872002 0.136706
-71.643047 670.268869 -830.181094 0.136901
221.743671 108.061706 266.155559 0.136075
380.672924 140.526708 606.529048 0.135047
507.523922 187.947376 972.824782 0.133963
451.754075 104.870816 787.038262 0.134600
426.180172 162.590825 594.492582 0.135044
65.914251 69.758957 20.252255 0.136867
146.153541 222.261637 250.524090 0.135895
210.797421 355.734551 466.177689 0.134911
257.739657 399.258322 589.391365 0.134346
313.580583 462.967080 1124.996944 0.132649
414.811854 539.051156 968.268733 0.132679
218.402506 409.590344 553.695628 0.134407
213.949507 451.561724 622.786740 0.134024
202.541121 502.114822 706.890399 0.133571
242.449358 650.557052 891.497356 0.132451
220.871552 624.519153 861.487437 0.132638
146.070414 635.216403 860.581940 0.132590
330.156728 617.578339 819.819585 0.132752
204.816219 350.431739 447.441360 0.134991
226.258464 368.005358 483.763706 0.134797
249.898646 368.278317 587.435326 0.134500
267.754764 393.689055 536.067180 0.134514
354.463522 491.019992 721.232219 0.133545
403.451873 490.837114 712.223535 0.133546
210.987805 382.705256 486.841421 0.134722
200.807145 408.123928 530.540833 0.134481
168.582320 492.555706 645.387597 0.133778
179.330783 472.029479 633.720607 0.133903
161.463464 569.578289 766.769960 0.133114
146.152936 534.848779 772.849631 0.133250
297.471193 526.322331 710.637454 0.133437
93.002715 97.584302 69.996983 0.136665
143.524905 219.317559 234.183207 0.135948
188.297943 347.446310 384.900948 0.135187
185.163042 373.394974 418.908936 0.134962
144.672706 417.020239 484.612998 0.134566
92.355124 655.428109 835.141923 0.132553
134.526156 524.175080 644.472972 0.133631
94.758328 697.897450 920.306551 0.132167
136.168061 623.280133 807.581070 0.132770
165.803479 394.558157 469.765996 0.134719
237.578799 610.262308 733.203889 0.133020
251.573628 544.868570 710.187818 0.133366
239.607250 387.638771 478.703054 0.134712
311.722071 432.713567 591.292320 0.134167
353.011655 484.277379 653.179247 0.133755
192.858853 419.708036 491.491498 0.134535
301.775668 154.734764 372.124648 0.135687
470.910861 201.411279 697.027480 0.134695
545.434374 198.550992 714.339294 0.134645
-386.248087 -16.341018 176.784145 0.136418
-558.428571 53.477516 761.382208 0.134258
-789.375370 147.957552 817.205600 0.133494
-111.326443 -0.345667 190.868503 0.136460
-134.387157 -3.629604 268.714376 0.136230
-156.199654 -17.045293 363.295596 0.135973
-200.669091 -43.835497 490.419659 0.135643
-250.269298 -98.092853 649.967872 0.135269
-294.889149 -283.850205 1038.741867 0.134455
-350.405587 -283.969591 1163.503463 0.134097
-272.451293 -71.937257 594.936218 0.135377
-300.400819 -110.628239 726.893687 0.135060
-324.069098 -79.137617 666.423847 0.135173
-408.627445 -99.230422 804.228249 0.134757
-626.102248 -266.597498 1197.168119 0.133822
-605.916163 -119.653213 1082.931113 0.133797
-369.521177 -56.081270 758.533891 0.134845
-202.589827 -38.419231 538.386028 0.135495
-257.097932 -77.522343 692.772187 0.135112
-269.545674 -150.778832 893.605444 0.134662
-288.414226 -119.677476 889.236695 0.134622
-421.871330 -44.769814 1293.291638 0.133270
-169.424143 -6.543086 344.725089 0.136006
-179.590418 31.434958 486.523358 0.135525
-165.963566 74.903702 632.861390 0.135037
-162.742341 111.902601 828.348311 0.134436
-11.234746 110.579271 1263.362564 0.133295
-201.090275 101.349727 690.070693 0.134829
-194.087216 4.263127 408.495983 0.135796
-435.295421 49.258573 1047.590738 0.133674
-226.066254 24.143276 509.531694 0.135465
-255.288187 60.999666 735.283822 0.134767
-322.329969 73.051259 1124.414637 0.133576
-368.475050 90.964373 1201.654262 0.133245
-275.010450 115.964367 709.392162 0.134660
-126.891172 20.438997 467.989523 0.135606
-121.281059 41.213275 817.431550 0.134588
-132.104795 104.476188 853.681506 0.134382
-40.505662 -68.279934 117.925176 0.136825
-91.138746 -188.256049 269.310630 0.136585
-91.921748 -360.688457 466.115440 0.136300
-81.245416 -498.249203 654.652531 0.135962
-150.567286 -673.586718 867.315113 0.135823
-292.728096 -561.334160 750.366453 0.135910
-49.819709 -88.002537 170.516947 0.136702
-38.504096 -122.212688 315.007153 0.136333
-78.587597 -225.037764 598.150250 0.135670
-15.644995 -164.671075 495.091346 0.135878
-15.570820 -236.990726 730.368915 0.135316
-27.656592 -315.534431 967.109092 0.134764
-8.634504 -372.265362 1078.098226 0.134542
0.310844 -396.997780 1179.487482 0.134297
-37.356750 -270.061357 1055.302432 0.134442
3.797802 -174.884509 601.801734 0.135586
35.937594 -185.774966 719.312497 0.135269
151.961444 -321.702135 1159.485620 0.134264
54.227590 -199.687446 830.476050 0.134977
50.581910 -249.527356 993.178669 0.134598
86.048425 -182.757156 1310.813370 0.133626
139.126106 -161.887190 988.340677 0.134480
-101.666174 -110.680908 277.319737 0.136413
-513.840375 -408.209829 994.104264 0.134805
-268.593924 -126.817122 645.507528 0.135325
-371.398231 -88.570491 1016.030393 0.134197
-361.874019 -92.605302 951.160493 0.134394
-393.363030 -45.406472 1145.536792 0.133717
-574.821664 34.978773 1398.678082 0.132589
3.591522 -94.709037 249.207720 0.136486
33.705083 -149.659568 458.527324 0.135967
46.693813 -184.134552 599.225803 0.135616
68.841513 -223.271460 751.557321 0.135245
94.675541 -251.954543 841.602252 0.135039
163.062573 -333.376760 1017.442601 0.134683
226.059753 -357.067920 1194.098808 0.134233
78.316032 -247.229535 887.237726 0.134898
79.561869 -269.119123 1017.847277 0.134565
69.048052 -252.307633 1074.891878 0.134377
109.448389 -192.359088 898.983232 0.134778
207.272373 -269.395702 934.755036 0.134816
114.521188 -118.073320 555.333486 0.135635
328.084984 -109.148044 896.257362 0.134658
286.788218 -78.828708 950.771350 0.134455
