0.182894 0.182924 0.183369 0.185398 0.188613 0.191629 0.194645 0.197661 0.200135 0.201697 0.201993 0.202012 0.202031 0.202319 0.203377 0.205053 0.205818 0.206583 0.207348 0.207605 0.207768 0.207787 0.207788 0.207789 0.207805 0.207811 0.207821 0.207506 0.207190 0.206874 0.206263 0.205877 0.205767 0.205759 0.205752 0.205647 0.205104 0.204244 0.203023 0.201802 0.200581 0.198992 0.197990 0.197752 0.197736 0.197720 0.197480 0.196324 0.194492 0.192590 0.190687 0.188785 0.186967 0.185819 0.185576 0.185560 0.185545 0.185315 0.184253 0.182569 0.181077 0.179585 0.178094 0.176730 0.175870 0.175685 0.175673 0.175661 0.175478 0.174653 0.173345 0.172062 0.170780 0.169497 0.168225 0.167422 0.167248 0.167237 0.167225 0.167051 0.166257 0.165000 0.163761 0.162521 0.161282 0.160075 0.159313 0.159148 0.159137 0.159126 0.158961 0.158220 0.157046 0.155920 0.154795 0.153669 0.152586 0.151903 0.151757 0.151748 0.151738 0.151592 0.150935 0.149894 0.148900 0.147905 0.146910 0.145961 0.145362 0.145233 0.145225 0.145216 0.145088 0.144513 0.143601 0.142736 0.141871 0.141006 0.140189 0.139674 0.139564 0.139557 
0.182882 0.182862 0.182659 0.181895 0.180759 0.179526 0.178293 0.177060 0.175767 0.174898 0.174655 0.174631 0.174607 0.174365 0.173494 0.172199 0.171029 0.169858 0.168688 0.167691 0.167020 0.166844 0.166827 
0.182889 0.182898 0.183035 0.182751 0.182301 0.179704 0.177108 0.174511 0.171200 0.169110 0.168647 0.168618 0.168589 0.168124 0.166149 0.163020 0.160467 0.157914 0.155361 0.153420 0.152194 0.151960 0.151945 0.151931 0.151702 0.150758 0.149262 0.147982 0.146702 0.145422 0.144193 0.143418 0.143250 0.143239 0.143229 0.143061 0.142278 0.141037 0.139646 0.138254 0.136863 0.135186 0.134127 0.133881 0.133865 0.133850 0.133602 0.132441 0.130603 0.128938 0.127273 0.125608 0.124267 0.123420 0.123249 0.123239 0.123228 0.123059 0.122336 0.121190 0.120285 0.119379 0.118473 0.117887 0.117518 0.117451 0.117447 0.117443 0.117378 0.117137 0.116754 0.116492 0.116231 0.115970 0.115768 0.115641 0.115615 0.115613 0.115611 0.115585 0.115471 0.115290 0.115124 0.114958 0.114793 0.114642 0.114547 0.114527 0.114526 0.114525 0.114505 0.114420 0.114285 0.114177 0.114069 0.113961 0.113883 0.113834 0.113825 0.113824 0.113824 0.113814 0.113777 0.113719 0.113675 0.113631 0.113587 0.113551 0.113529 0.113525 0.113524 0.113524 0.113520 0.113501 0.113470 0.113445 0.113420 0.113395 0.113375 0.113362 0.113359 0.113359 0.113359 0.113356 0.113345 0.113328 0.113315 0.113302 0.113289 0.113279 0.113272 0.113271 0.113271 
0.151746 0.151740 0.151706 0.151615 0.151494 0.151361 0.151229 0.151096 0.150948 0.150837 0.150793 0.150785 0.150777 0.150733 0.150661 0.150566 0.150489 0.150412 0.150335 0.150260 0.150204 0.150182 0.150178 0.150174 0.150152 0.150095 0.150018 0.149940 0.149863 0.149785 0.149703 0.149641 0.149617 0.149613 0.149609 0.149584 0.149521 0.149436 0.149348 0.149260 0.149173 0.149082 0.149015 0.148988 0.148984 0.148979 0.148952 0.148884 0.148792 0.148699 0.148606 0.148513 0.148420 0.148350 0.148323 0.148318 0.148313 0.148286 0.148215 0.148121 0.148026 0.147930 0.147834 0.147737 0.147665 0.147636 0.147631 
0.175666 0.175637 0.175540 0.175320 0.175030 0.174746 0.174462 0.174179 0.173903 0.173695 0.173604 0.173577 0.173551 0.173460 0.173255 0.172985 0.172722 0.172459 0.172196 0.171939 0.171745 0.171660 0.171635 0.171610 0.171526 0.171339 0.171091 0.170849 0.170606 0.170364 0.170127 0.169948 0.169871 0.169848 0.169825 0.169748 0.169573 0.169342 0.169137 0.168933 0.168728 0.168558 0.168430 0.168375 0.168358 0.168342 0.168287 0.168166 0.168006 0.167856 0.167707 0.167558 0.167411 0.167301 0.167255 0.167241 0.167228 0.167182 0.167078 0.166941 0.166806 0.166672 0.166537 0.166410 0.166313 0.166271 0.166259 0.166247 0.166205 0.166110 0.165985 0.165868 0.165751 0.165634 0.165518 0.165429 0.165391 0.165380 0.165369 0.165332 0.165250 0.165141 0.165032 0.164924 0.164815 0.164713 0.164636 0.164602 0.164592 0.164582 0.164549 0.164472 0.164370 0.164272 0.164174 0.164076 0.163981 0.163909 0.163877 0.163868 0.163859 0.163827 0.163758 0.163667 0.163578 0.163489 0.163399 0.163312 0.163246 0.163219 0.163210 0.163202 0.163174 0.163110 0.163026 0.162943 0.162861 0.162778 0.162699 0.162638 0.162612 0.162604 0.162596 0.162570 0.162511 0.162432 0.162357 0.162282 0.162206 0.162130 0.162072 0.162049 0.162042 0.162035 0.162011 0.161956 0.161884 0.161812 0.161739 0.161667 0.161597 0.161544 0.161521 0.161514 0.161507 0.161484 0.161430 0.161358 0.161290 0.161222 0.161153 0.161083 0.161030 0.161006 0.160999 
0.185552 0.185518 0.185290 0.184667 0.183836 0.183063 0.182291 0.181518 0.180796 0.180255 0.180059 0.180030 0.180001 0.179806 0.179300 0.178624 0.178038 0.177451 0.176864 0.176438 0.176118 0.176007 0.175990 0.175974 0.175864 0.175596 0.175239 0.174923 0.174606 0.174290 0.174010 0.173801 0.173722 0.173710 0.173699 0.173620 0.173426 0.173168 0.172930 0.172693 0.172455 0.172231 0.172064 0.172005 0.171997 0.171988 0.171930 0.171771 0.171560 0.171366 0.171171 0.170977 0.170789 0.170648 0.170597 0.170589 
0.197720 0.197655 0.197358 0.196643 0.195696 0.194813 0.193930 0.193047 0.192235 0.191624 0.191385 0.191332 0.191281 0.191046 0.190475 0.189718 0.189007 0.188297 0.187586 0.186921 0.186419 0.186227 0.186184 0.186143 0.185955 0.185491 0.184876 0.184297 0.183717 0.183138 0.182592 0.182180 0.182028 0.181995 0.181961 0.181810 0.181470 0.181018 0.180634 0.180251 0.179867 0.179523 0.179263 0.179173 0.179153 0.179133 0.179043 0.178822 0.178529 0.178274 0.178018 0.177763 0.177528 0.177351 0.177289 0.177276 0.177262 0.177201 0.177047 0.176842 0.176659 0.176477 0.176294 0.176126 0.176000 0.175956 0.175947 0.175937 0.175893 0.175783 0.175636 0.175504 0.175372 0.175239 0.175116 0.175023 0.174990 0.174983 0.174976 0.174943 0.174861 0.174752 0.174655 0.174558 0.174461 0.174369 0.174300 0.174275 0.174270 0.174264 0.174239 0.174176 0.174091 0.174015 0.173939 0.173862 0.173788 0.173731 0.173710 0.173706 
0.205738 0.205655 0.205282 0.204400 0.203229 0.202168 0.201106 0.200044 0.199072 0.198340 0.198059 0.197997 0.197936 0.197662 0.197001 0.196123 0.195319 0.194514 0.193710 0.192978 0.192426 0.192216 0.192169 0.192122 0.191913 0.191402 0.190724 0.190081 0.189437 0.188794 0.188182 0.187721 0.187546 0.187507 0.187469 0.187296 0.186876 0.186318 0.185791 0.185264 0.184736 0.184252 0.183887 0.183756 0.183727 0.183698 0.183568 0.183254 0.182839 0.182471 0.182103 0.181735 0.181403 0.181152 0.181063 0.181043 0.181023 0.180934 0.180718 0.180431 0.180178 0.179926 0.179674 0.179444 0.179270 0.179208 0.179195 0.179181 0.179119 0.178964 0.178759 0.178578 0.178396 0.178214 0.178047 0.177921 0.177876 0.177866 0.177856 0.177811 0.177698 0.177547 0.177413 0.177280 0.177146 0.177024 0.176933 0.176900 0.176893 0.176885 0.176853 0.176771 0.176663 0.176570 0.176477 0.176383 0.176295 0.176229 0.176205 0.176200 
0.207768 0.207686 0.207285 0.206314 0.205023 0.203839 0.202654 0.201470 0.200407 0.199607 0.199305 0.199244 0.199182 0.198877 0.198157 0.197201 0.196356 0.195510 0.194664 0.193917 0.193355 0.193145 0.193102 0.193060 0.192851 0.192324 0.191623 0.190955 0.190288 0.189621 0.188954 0.188451 0.188257 0.188218 0.188179 0.187985 0.187501 0.186857 0.186228 0.185599 0.184970 0.184377 0.183930 0.183755 0.183720 0.183685 0.183510 0.183090 0.182532 0.182026 0.181519 0.181012 0.180578 0.180252 0.180127 0.180102 0.180077 0.179953 0.179688 0.179335 0.179033 0.178731 0.178429 0.178172 0.177978 0.177903 0.177888 0.177875 0.177815 0.177666 0.177468 0.177291 0.177113 0.176936 0.176779 0.176661 0.176624 0.176617 0.176610 0.176573 0.176479 0.176354 0.176248 0.176141 0.176034 0.175944 0.175877 0.175855 0.175850 0.175846 0.175824 0.175766 0.175689 0.175632 0.175575 0.175518 0.175480 0.175452 0.175443 0.175441 
0.174629 0.174620 0.174583 0.174482 0.174348 0.174190 0.174031 0.173873 0.173695 0.173560 0.173503 0.173490 0.173477 0.173420 0.173272 0.173077 0.172868 0.172659 0.172450 0.172233 0.172070 0.172005 0.171990 0.171975 0.171911 0.171759 0.171557 0.171375 0.171192 0.171010 0.170841 0.170714 0.170665 0.170653 0.170643 0.170596 0.170491 0.170352 0.170224 0.170095 0.169967 0.169837 0.169740 0.169700 0.169691 0.169682 0.169644 0.169560 0.169448 0.169315 0.169182 0.169049 0.168901 0.168790 0.168742 0.168731 0.168720 0.168671 0.168548 0.168385 0.168217 0.168049 0.167880 0.167703 0.167570 0.167514 0.167501 0.167488 0.167432 0.167292 0.167108 0.166919 0.166730 0.166541 0.166351 0.166208 0.166149 0.166136 0.166122 0.166063 0.165924 0.165739 0.165556 0.165373 0.165191 0.165020 0.164891 0.164839 0.164826 0.164816 0.164772 0.164699 0.164603 0.164532 0.164460 0.164389 0.164335 0.164295 0.164279 0.164276 0.164272 0.164256 0.164216 0.164163 0.164124 0.164084 0.164045 0.164005 0.163975 0.163964 0.163962 0.163959 0.163948 0.163917 0.163876 0.163834 0.163793 0.163751 0.163712 0.163683 0.163674 0.163672 0.163669 0.163660 0.163631 0.163593 0.163555 0.163517 0.163479 0.163441 0.163413 0.163400 0.163398 
