0.134069 0.134076 0.134169 0.134598 0.135278 0.135962 0.136645 0.137329 0.138015 0.138448 0.138544 0.138551 0.138558 0.138654 0.139099 0.139805 0.140546 0.141288 0.142029 0.142803 0.143292 0.143400 0.143408 0.143415 0.143524 0.144013 0.144790 0.145520 0.146251 0.146982 0.147651 0.148074 0.148164 0.148170 0.148177 0.148267 0.148667 0.149302 0.149936 0.150571 0.151205 0.151854 0.152263 0.152354 0.152360 0.152367 0.152457 0.152869 0.153521 0.154159 0.154798 0.155436 0.156046 0.156431 0.156513 0.156519 
0.134066 0.134061 0.134013 0.133870 0.133670 0.133478 0.133286 0.133094 0.132909 0.132777 0.132734 0.132729 0.132725 0.132682 0.132552 0.132372 0.132193 0.132015 0.131836 0.131659 0.131531 0.131489 0.131485 0.131480 0.131438 0.131312 0.131136 0.130964 0.130792 0.130620 0.130455 0.130336 0.130298 0.130294 
0.134067 0.134066 0.134059 0.133929 0.133724 0.133210 0.132696 0.132182 0.131573 0.131188 0.131100 0.131094 0.131088 0.131000 0.130604 0.129977 0.129409 0.128841 0.128273 0.127761 0.127438 0.127372 0.127367 0.127363 0.127296 0.127018 0.126577 0.126217 0.125857 0.125497 0.125170 0.124963 0.124917 0.124914 0.124911 0.124865 0.124649 0.124307 0.123916 0.123525 0.123133 0.122662 0.122365 0.122294 0.122289 0.122284 0.122211 0.121847 0.121270 0.120606 0.119942 0.119277 0.118647 0.118249 0.118169 0.118163 0.118158 0.118079 0.117755 0.117242 0.116844 0.116445 0.116047 0.115719 0.115511 0.115470 0.115467 0.115464 0.115423 0.115252 0.114981 0.114784 0.114588 0.114391 0.114255 0.114170 0.114153 0.114152 0.114151 0.114135 0.114068 0.113963 0.113877 0.113792 0.113706 0.113631 0.113583 0.113573 0.113573 0.113572 0.113562 0.113518 0.113447 0.113382 0.113317 0.113252 0.113192 0.113155 0.113147 0.113147 0.113146 0.113138 0.113105 0.113051 0.113007 0.112963 0.112919 0.112885 0.112863 0.112859 0.112858 0.112858 0.112854 0.112836 0.112808 0.112787 0.112765 0.112743 0.112726 0.112715 0.112712 0.112712 0.112712 0.112710 0.112701 0.112686 0.112675 0.112664 0.112652 0.112644 0.112638 0.112637 0.112637 0.112637 0.112636 0.112632 0.112626 0.112622 0.112618 0.112614 0.112613 0.112612 0.112612 0.112612 
0.148170 0.148169 0.148165 0.148156 0.148142 0.148127 0.148111 0.148095 0.148076 0.148062 0.148056 0.148055 0.148053 0.148047 0.148031 0.148009 0.147985 0.147961 0.147937 0.147911 0.147892 0.147883 0.147881 0.147879 0.147871 0.147850 0.147822 0.147793 0.147763 0.147733 0.147700 0.147675 0.147665 0.147663 0.147660 0.147650 0.147626 0.147594 0.147560 0.147526 0.147492 0.147458 0.147432 0.147421 0.147418 0.147415 0.147405 0.147379 0.147345 0.147311 0.147277 0.147242 0.147208 0.147182 0.147172 0.147169 0.147166 0.147155 0.147128 0.147093 0.147057 0.147021 0.146985 0.146949 0.146921 0.146909 0.146907 0.146904 0.146892 0.146865 0.146828 0.146792 0.146755 0.146719 0.146689 0.146667 0.146659 0.146656 0.146654 0.146646 0.146628 0.146603 0.146582 0.146562 0.146541 0.146524 0.146512 0.146508 0.146506 0.146505 0.146501 0.146490 0.146477 0.146466 0.146455 0.146444 0.146436 0.146430 0.146428 0.146427 0.146427 0.146425 0.146420 0.146414 0.146409 0.146405 0.146400 0.146396 0.146393 0.146392 0.146391 0.146391 0.146390 0.146388 0.146385 0.146383 0.146381 0.146379 0.146378 0.146376 0.146376 0.146376 0.146376 0.146375 0.146375 0.146374 0.146373 0.146373 0.146372 0.146372 0.146372 0.146372 0.146372 0.146372 0.146372 0.146372 0.146372 0.146373 0.146373 0.146373 0.146374 0.146374 0.146374 0.146374 
0.143406 0.143401 0.143374 0.143301 0.143204 0.143102 0.143001 0.142899 0.142793 0.142714 0.142683 0.142677 0.142671 0.142639 0.142557 0.142448 0.142337 0.142225 0.142114 0.142000 0.141915 0.141882 0.141876 0.141869 0.141836 0.141750 0.141635 0.141520 0.141405 0.141290 0.141175 0.141089 0.141056 0.141050 0.141044 0.141010 0.140925 0.140811 0.140699 0.140586 0.140474 0.140365 0.140282 0.140250 0.140244 0.140238 0.140206 0.140125 0.140017 0.139911 0.139805 0.139699 0.139595 0.139517 0.139488 0.139483 0.139477 0.139449 0.139374 0.139275 0.139182 0.139088 0.138995 0.138910 0.138846 0.138822 0.138818 0.138813 0.138789 0.138741 0.138676 0.138644 0.138613 0.138582 0.138565 0.138552 0.138547 0.138546 0.138545 0.138543 0.138541 0.138538 0.138544 0.138549 0.138554 0.138568 0.138578 0.138583 0.138584 0.138585 0.138591 0.138606 0.138625 0.138653 0.138680 0.138708 0.138742 0.138768 0.138778 0.138780 0.138782 0.138792 0.138822 0.138862 0.138906 0.138951 0.138995 0.139044 0.139081 0.139097 0.139100 
0.138550 0.138548 0.138541 0.138524 0.138500 0.138475 0.138450 0.138425 0.138397 0.138376 0.138367 0.138365 0.138362 0.138353 0.138330 0.138301 0.138270 0.138238 0.138207 0.138174 0.138149 0.138138 0.138135 0.138131 0.138120 0.138093 0.138058 0.138021 0.137984 0.137947 0.137910 0.137881 0.137869 0.137865 0.137862 0.137849 0.137820 0.137780 0.137741 0.137701 0.137661 0.137621 0.137591 0.137578 0.137574 0.137570 0.137557 0.137527 0.137487 0.137448 0.137408 0.137369 0.137330 0.137301 0.137288 0.137284 0.137281 0.137268 0.137240 0.137202 0.137165 0.137128 0.137091 0.137055 0.137028 0.137017 0.137014 0.137011 0.136999 0.136974 0.136940 0.136906 0.136872 0.136839 0.136805 0.136780 0.136770 0.136767 0.136764 0.136753 0.136727 0.136692 0.136657 0.136622 0.136587 0.136551 0.136523 0.136511 0.136508 0.136505 0.136493 0.136465 0.136428 0.136390 0.136352 0.136315 0.136276 0.136246 0.136233 0.136230 0.136226 0.136214 0.136184 0.136146 0.136106 0.136067 0.136028 0.135990 0.135962 0.135949 0.135946 0.135942 0.135930 0.135900 0.135862 0.135827 0.135792 0.135757 0.135736 0.135720 0.135714 0.135712 0.135710 0.135705 0.135696 0.135684 0.135674 0.135663 0.135652 0.135648 0.135646 0.135645 0.135644 0.135644 0.135643 0.135640 0.135637 0.135637 0.135638 0.135638 0.135640 0.135641 0.135642 0.135642 0.135642 0.135643 0.135647 0.135652 0.135658 0.135664 0.135669 0.135677 0.135683 0.135686 0.135687 0.135688 0.135691 0.135697 0.135706 0.135717 0.135727 0.135738 0.135750 0.135759 0.135763 0.135764 0.135765 0.135769 0.135779 0.135792 0.135807 0.135822 0.135837 0.135852 0.135864 0.135870 0.135872 0.135873 0.135879 0.135892 0.135910 0.135929 0.135947 0.135966 0.135986 0.136001 0.136008 0.136010 
0.132730 0.132732 0.132737 0.132747 0.132760 0.132773 0.132786 0.132798 0.132811 0.132820 0.132825 0.132827 0.132829 0.132833 0.132842 0.132854 0.132865 0.132877 0.132888 0.132899 0.132907 0.132911 0.132913 0.132914 0.132918 0.132926 0.132936 0.132945 0.132955 0.132964 0.132973 0.132980 0.132984 0.132985 0.132987 0.132990 0.132996 0.133004 0.133012 0.133020 0.133027 0.133034 0.133039 0.133042 0.133043 0.133044 0.133046 0.133051 0.133057 0.133062 0.133068 0.133073 0.133078 0.133082 0.133084 0.133085 0.133085 0.133087 0.133090 0.133094 0.133098 0.133101 0.133105 0.133108 0.133110 0.133111 0.133112 0.133112 0.133113 0.133115 0.133118 0.133121 0.133124 0.133127 0.133131 0.133133 0.133135 0.133135 0.133136 0.133137 0.133139 0.133142 0.133145 0.133149 0.133152 0.133155 0.133157 0.133159 0.133159 0.133160 0.133162 0.133165 0.133169 0.133174 0.133178 0.133183 0.133187 0.133191 0.133193 0.133194 0.133194 0.133196 0.133200 0.133206 0.133212 0.133217 0.133223 0.133229 0.133233 0.133236 0.133237 0.133238 0.133240 0.133245 0.133252 0.133259 0.133266 0.133273 0.133279 0.133285 0.133287 0.133288 0.133289 0.133292 0.133297 0.133303 0.133309 0.133316 0.133322 0.133328 0.133333 0.133335 0.133336 0.133337 0.133339 0.133343 0.133348 0.133353 0.133358 0.133364 0.133368 0.133372 0.133374 0.133375 0.133375 0.133377 0.133379 0.133382 0.133384 0.133387 0.133389 0.133391 0.133392 0.133393 0.133393 0.133393 0.133394 0.133395 0.133396 0.133397 0.133397 0.133397 0.133396 0.133396 0.133396 0.133396 0.133396 0.133395 0.133395 0.133394 0.133392 0.133390 0.133388 0.133385 0.133383 0.133382 0.133381 0.133381 0.133380 0.133377 0.133374 0.133370 0.133366 0.133362 0.133357 0.133354 0.133352 0.133351 0.133350 0.133348 0.133343 0.133338 0.133332 0.133326 0.133320 0.133313 0.133308 0.133306 0.133305 0.133303 0.133300 0.133295 0.133287 0.133279 0.133271 0.133263 0.133255 0.133249 0.133248 0.133248 0.133248 0.133248 0.133247 0.133246 0.133245 0.133245 0.133244 0.133244 0.133244 0.133244 0.133244 0.133243 0.133243 0.133243 0.133243 0.133243 0.133243 0.133243 0.133243 0.133243 0.133243 0.133243 0.133243 0.133243 0.133243 0.133242 0.133242 0.133242 0.133242 0.133242 0.133242 0.133242 0.133242 0.133242 0.133242 0.133241 0.133241 0.133241 0.133240 0.133239 0.133239 0.133238 0.133238 0.133238 0.133237 0.133237 0.133236 0.133235 0.133234 0.133233 0.133232 0.133230 0.133229 0.133229 0.133228 0.133228 0.133228 0.133226 0.133225 0.133223 0.133221 0.133220 0.133218 0.133216 0.133216 0.133215 0.133215 0.133214 0.133213 0.133211 0.133209 0.133207 0.133205 0.133204 0.133202 0.133201 0.133201 0.133201 0.133200 0.133199 0.133197 0.133195 0.133193 0.133192 0.133190 0.133189 0.133188 0.133188 0.133187 0.133187 0.133185 0.133184 0.133182 0.133180 0.133179 0.133177 0.133176 0.133175 0.133175 
0.130294 0.130293 0.130290 0.130284 0.130275 0.130266 0.130257 0.130247 0.130238 0.130231 0.130228 0.130227 0.130227 0.130224 0.130217 0.130207 0.130198 0.130189 0.130180 0.130172 0.130165 0.130162 0.130161 0.130161 0.130158 0.130151 0.130142 0.130133 0.130123 0.130114 0.130104 0.130097 0.130094 0.130093 0.130092 0.130089 0.130080 0.130069 0.130057 0.130045 0.130033 0.130020 0.130011 0.130006 0.130005 0.130004 0.130000 0.129989 0.129975 0.129960 0.129945 0.129930 0.129914 0.129902 0.129897 0.129895 0.129894 0.129889 0.129876 0.129859 0.129842 0.129825 0.129808 0.129790 0.129777 0.129771 0.129769 0.129768 0.129762 0.129749 0.129731 0.129723 0.129715 0.129707 0.129705 0.129704 0.129704 0.129704 0.129703 0.129703 0.129704 0.129704 0.129706 0.129708 0.129710 0.129713 0.129715 0.129717 0.129717 0.129718 0.129719 0.129722 0.129725 0.129730 0.129734 0.129739 0.129743 0.129747 0.129748 0.129748 0.129749 0.129750 0.129754 0.129759 0.129764 0.129769 0.129774 0.129779 0.129784 0.129786 0.129786 0.129786 0.129788 0.129792 0.129798 0.129804 0.129810 0.129817 0.129823 0.129828 0.129830 0.129831 
