0.183530 0.183502 0.183110 0.181451 0.178824 0.176688 0.174552 0.172417 0.170597 0.169448 0.169210 0.169193 0.169177 0.168943 0.167923 0.166307 0.164888 0.163469 0.162050 0.160765 0.159954 0.159779 0.159767 0.159755 0.159581 0.158802 0.157567 0.156367 0.155166 0.153966 0.152791 0.152049 0.151889 0.151877 0.151866 0.151705 0.150989 0.149854 0.148774 0.147694 0.146613 0.145602 0.144964 0.144827 0.144818 0.144808 0.144672 0.144077 0.143133 0.142279 0.141424 0.140570 0.139801 0.139315 0.139212 0.139205 0.139198 0.139096 0.138646 0.137934 0.137286 0.136639 0.135991 0.135402 0.135030 0.134950 0.134945 0.134939 0.134861 0.134512 0.133961 0.133451 0.132941 0.132431 0.131955 0.131655 0.131591 0.131586 0.131582 0.131518 0.131232 0.130779 0.130349 0.129919 0.129490 0.129079 0.128820 0.128764 0.128760 0.128757 0.128701 0.128451 0.128056 0.127677 0.127298 0.126920 0.126557 0.126328 0.126278 0.126275 
0.183542 0.183560 0.183740 0.184171 0.184780 0.185153 0.185526 0.185899 0.186174 0.186369 0.186416 0.186421 0.186426 0.186482 0.186645 0.186876 0.187104 0.187332 0.187560 0.187871 0.188091 0.188164 0.188171 0.188179 0.188260 0.188532 0.188918 0.189386 0.189854 0.190322 0.190848 0.191219 0.191337 0.191349 0.191362 0.191484 0.191877 0.192432 0.193011 0.193591 0.194170 0.194781 0.195212 0.195346 0.195360 0.195374 0.195513 0.195968 0.196611 0.197270 0.197928 0.198587 0.199246 0.199712 0.199857 0.199871 0.199886 0.200032 0.200482 0.201118 0.201694 0.202270 0.202846 0.203330 0.203673 0.203773 0.203784 0.203793 0.203890 0.204149 0.204516 0.204738 0.204960 0.205182 0.205250 0.205298 0.205306 0.205307 0.205307 0.205306 0.205281 0.205244 0.205081 0.204917 0.204754 0.204464 0.204259 0.204189 0.204182 0.204174 0.204102 0.203848 0.203488 0.203041 0.202595 0.202149 0.201626 0.201256 0.201132 0.201120 0.201107 0.200981 0.200573 0.199996 0.199374 0.198753 0.198131 0.197477 0.197015 0.196864 0.196849 
0.183537 0.183537 0.183531 0.182812 0.181674 0.180927 0.180180 0.179433 0.179144 0.178962 0.178930 0.178928 0.178926 0.178889 0.178607 0.178159 0.177378 0.176597 0.175816 0.174836 0.174218 0.174048 0.174037 0.174024 0.173837 0.172924 0.171476 0.170034 0.168592 0.167151 0.165801 0.164950 0.164756 0.164743 0.164730 0.164531 0.163476 0.161804 0.159360 0.156915 0.154471 0.151280 0.149266 0.148800 0.148768 0.148737 0.148262 0.145928 0.142230 0.138654 0.135078 0.131502 0.128904 0.127265 0.126966 0.126946 0.126926 0.126640 0.125538 0.123792 0.122691 0.121591 0.120490 0.119786 0.119341 0.119258 0.119252 0.119247 0.119165 0.118843 0.118333 0.117971 0.117610 0.117248 0.116984 0.116818 0.116785 0.116783 0.116781 0.116749 0.116614 0.116401 0.116229 0.116057 0.115885 0.115741 0.115651 0.115632 0.115631 0.115629 0.115611 0.115532 0.115406 0.115298 0.115191 0.115084 0.114993 0.114936 0.114924 0.114923 0.114923 0.114911 0.114861 0.114783 0.114716 0.114650 0.114583 0.114527 0.114491 0.114484 0.114483 0.114483 0.114475 0.114444 0.114395 0.114352 0.114310 0.114268 0.114232 0.114210 0.114205 0.114205 0.114205 0.114200 0.114182 0.114152 0.114127 0.114103 0.114078 0.114043 0.114021 0.114014 0.114013 
0.134943 0.134936 0.134911 0.134855 0.134781 0.134707 0.134633 0.134559 0.134486 0.134430 0.134405 0.134397 0.134390 0.134365 0.134309 0.134236 0.134162 0.134088 0.134015 0.133955 0.133911 0.133892 0.133887 0.133881 0.133863 0.133823 0.133769 0.133718 0.133667 0.133616 0.133565 0.133527 0.133511 0.133506 0.133501 0.133485 0.133449 0.133402 0.133356 0.133309 0.133262 0.133218 0.133185 0.133170 0.133166 0.133161 0.133147 0.133114 0.133071 0.133030 0.132988 0.132947 0.132907 0.132877 0.132864 0.132860 0.132856 0.132843 0.132813 0.132775 0.132738 0.132702 0.132665 0.132629 0.132602 0.132590 0.132586 0.132583 0.132572 0.132547 0.132514 0.132481 0.132448 0.132415 0.132384 0.132362 0.132352 0.132349 0.132346 0.132336 0.132313 0.132283 0.132256 0.132228 0.132200 0.132173 0.132153 0.132144 0.132141 0.132139 0.132130 0.132111 0.132085 0.132061 0.132038 0.132014 0.131991 0.131973 0.131965 0.131963 0.131961 0.131954 0.131938 0.131917 0.131897 0.131876 0.131855 0.131836 0.131822 0.131816 0.131814 0.131813 0.131806 0.131792 0.131774 0.131757 0.131740 0.131723 0.131706 0.131694 0.131689 0.131687 
0.144817 0.144812 0.144797 0.144760 0.144712 0.144663 0.144613 0.144564 0.144513 0.144474 0.144457 0.144452 0.144447 0.144430 0.144390 0.144338 0.144282 0.144225 0.144169 0.144111 0.144067 0.144047 0.144042 0.144036 0.144016 0.143969 0.143906 0.143844 0.143781 0.143718 0.143652 0.143601 0.143579 0.143572 0.143566 0.143544 0.143492 0.143424 0.143351 0.143279 0.143207 0.143132 0.143076 0.143051 0.143044 0.143037 0.143012 0.142953 0.142874 0.142794 0.142713 0.142633 0.142554 0.142494 0.142476 0.142470 0.142465 0.142447 0.142405 0.142349 0.142296 0.142243 0.142189 0.142138 0.142099 0.142083 0.142078 0.142074 0.142058 0.142022 0.141974 0.141928 0.141881 0.141834 0.141789 0.141754 0.141739 0.141735 0.141730 0.141716 0.141682 0.141637 0.141593 0.141549 0.141505 0.141462 0.141429 0.141415 0.141411 0.141407 0.141393 0.141361 0.141318 0.141276 0.141234 0.141192 0.141151 0.141119 0.141106 0.141102 0.141098 0.141085 0.141053 0.141012 0.140972 0.140931 0.140890 0.140850 0.140819 0.140806 0.140802 0.140798 0.140785 0.140755 0.140715 0.140675 0.140635 0.140596 0.140556 0.140526 0.140513 0.140509 0.140506 0.140493 0.140463 0.140424 0.140384 0.140345 0.140306 0.140267 0.140237 0.140224 0.140220 0.140216 0.140203 0.140173 0.140134 0.140095 0.140055 0.140016 0.139976 0.139946 0.139934 0.139930 0.139926 0.139913 0.139883 0.139844 0.139803 0.139763 0.139723 0.139683 0.139652 0.139639 0.139635 
0.159765 0.159757 0.159704 0.159552 0.159349 0.159110 0.158870 0.158631 0.158354 0.158146 0.158062 0.158049 0.158036 0.157952 0.157724 0.157420 0.157097 0.156774 0.156451 0.156117 0.155867 0.155771 0.155756 0.155742 0.155646 0.155398 0.155066 0.154735 0.154404 0.154073 0.153745 0.153499 0.153405 0.153390 0.153376 0.153281 0.153030 0.152696 0.152363 0.152031 0.151698 0.151414 0.151201 0.151125 0.151113 0.151102 0.151026 0.150837 0.150586 0.150362 0.150139 0.149915 0.149717 0.149568 0.149514 0.149506 0.149498 0.149444 0.149310 0.149130 0.148967 0.148803 0.148640 0.148491 0.148379 0.148338 0.148331 0.148325 0.148284 0.148180 0.148041 0.147911 0.147780 0.147649 0.147527 0.147435 0.147400 0.147395 0.147390 0.147355 0.147267 0.147151 0.147036 0.146922 0.146807 0.146695 0.146611 0.146578 0.146574 
0.169192 0.169186 0.169147 0.169019 0.168848 0.168593 0.168338 0.168082 0.167751 0.167503 0.167400 0.167384 0.167367 0.167261 0.166963 0.166566 0.166137 0.165707 0.165278 0.164839 0.164509 0.164388 0.164369 0.164350 0.164231 0.163916 0.163496 0.163147 0.162798 0.162448 0.162148 0.161923 0.161836 0.161822 0.161808 0.161721 0.161483 0.161164 0.160824 0.160484 0.160144 0.159782 0.159511 0.159406 0.159389 0.159373 0.159268 0.158985 0.158608 0.158207 0.157806 0.157405 0.157023 0.156737 0.156632 0.156615 0.156598 0.156494 0.156238 0.155897 0.155607 0.155318 0.155028 0.154783 0.154599 0.154536 0.154526 0.154516 0.154453 0.154300 0.154096 0.153921 0.153746 0.153571 0.153418 0.153303 0.153263 0.153257 0.153250 0.153210 0.153108 0.152973 0.152850 0.152728 0.152605 0.152491 0.152406 0.152375 0.152371 0.152366 0.152335 0.152255 0.152148 0.152046 0.151945 0.151844 0.151743 0.151668 0.151640 0.151636 
0.186413 0.186380 0.186270 0.186019 0.185688 0.185349 0.185009 0.184669 0.184317 0.184049 0.183930 0.183893 0.183857 0.183737 0.183461 0.183096 0.182719 0.182343 0.181966 0.181582 0.181291 0.181162 0.181123 0.181084 0.180955 0.180660 0.180270 0.179870 0.179470 0.179070 0.178659 0.178347 0.178213 0.178172 0.178131 0.177996 0.177686 0.177278 0.176901 0.176525 0.176149 0.175797 0.175529 0.175414 0.175380 0.175345 0.175232 0.174982 0.174653 0.174363 0.174073 0.173783 0.173552 0.173377 0.173301 0.173277 0.173255 0.173178 0.173006 0.172779 0.172551 0.172323 0.172096 0.171869 0.171698 0.171622 0.171599 0.171577 0.171501 0.171326 0.171095 0.170866 0.170636 0.170406 0.170174 0.169998 0.169919 0.169896 0.169872 0.169793 0.169615 0.169380 0.169143 0.168905 0.168668 0.168426 0.168243 0.168162 0.168138 0.168113 0.168033 0.167848 0.167605 0.167355 0.167106 0.166856 0.166609 0.166423 0.166341 0.166316 0.166291 0.166209 0.166016 0.165761 0.165508 0.165254 0.165000 0.164745 0.164552 0.164466 0.164440 0.164414 0.164329 0.164137 0.163885 0.163644 0.163404 0.163163 0.162934 0.162761 0.162686 0.162664 0.162641 0.162566 0.162400 0.162181 0.161984 0.161787 0.161590 0.161403 0.161261 0.161200 0.161182 0.161164 0.161105 0.160984 0.160824 0.160672 0.160519 0.160366 0.160225 0.160119 0.160077 0.160064 0.160052 0.160010 0.159917 0.159795 0.159680 0.159565 0.159450 0.159352 0.159278 0.159245 0.159235 0.159225 0.159192 0.159117 0.159018 0.158934 0.158850 0.158767 0.158685 0.158623 0.158596 0.158588 0.158579 0.158552 0.158497 0.158425 0.158357 0.158289 0.158221 0.158156 0.158106 0.158087 0.158081 0.158076 0.158057 0.158013 0.157956 0.157899 0.157843 0.157786 0.157736 0.157698 0.157682 0.157677 0.157672 0.157655 0.157617 0.157566 0.157521 0.157475 0.157430 0.157386 0.157352 0.157338 0.157333 0.157329 0.157314 0.157283 0.157242 0.157203 0.157164 0.157125 0.157085 0.157056 0.157044 0.157040 
0.188160 0.188115 0.187978 0.187675 0.187277 0.186878 0.186479 0.186080 0.185684 0.185383 0.185247 0.185203 0.185158 0.185023 0.184729 0.184342 0.183968 0.183595 0.183221 0.182855 0.182576 0.182451 0.182409 0.182368 0.182244 0.181977 0.181626 0.181287 0.180948 0.180609 0.180280 0.180030 0.179918 0.179882 0.179846 0.179736 0.179504 0.179198 0.178907 0.178616 0.178324 0.178047 0.177836 0.177742 0.177711 0.177680 0.177587 0.177384 0.177119 0.176867 0.176616 0.176365 0.176121 0.175937 0.175850 0.175822 0.175793 0.175706 0.175509 0.175250 0.174995 0.174739 0.174484 0.174225 0.174028 0.173935 0.173905 0.173875 0.173782 0.173577 0.173307 0.173035 0.172764 0.172493 0.172216 0.172005 0.171909 0.171878 0.171846 0.171751 0.171541 0.171264 0.170988 0.170712 0.170435 0.170158 0.169947 0.169852 0.169820 0.169789 0.169694 0.169485 0.169211 0.168938 0.168666 0.168394 0.168123 0.167918 0.167825 0.167795 0.167764 0.167671 0.167469 0.167204 0.166948 0.166691 0.166435 0.166214 0.166046 0.165977 0.165954 0.165932 0.165863 0.165731 0.165557 0.165393 0.165228 0.165063 0.164908 0.164790 0.164747 0.164733 0.164718 0.164675 0.164581 0.164457 0.164335 0.164213 0.164091 0.163993 0.163919 0.163888 0.163878 0.163868 0.163836 0.163767 0.163676 0.163590 0.163503 0.163417 0.163347 0.163294 0.163270 0.163262 0.163254 0.163229 0.163175 0.163103 0.163043 0.162983 0.162923 0.162867 0.162825 0.162806 0.162800 0.162793 0.162774 0.162731 0.162675 0.162631 0.162587 0.162542 0.162497 0.162463 0.162447 0.162442 0.162437 0.162421 0.162393 0.162356 0.162322 0.162287 0.162253 0.162217 0.162191 0.162181 0.162177 0.162174 0.162165 0.162145 0.162119 0.162091 0.162064 0.162036 0.162013 0.161995 0.161989 0.161986 0.161984 0.161977 0.161961 0.161941 0.161921 0.161901 0.161881 0.161867 0.161856 0.161851 0.161849 
0.199852 0.199775 0.199479 0.198791 0.197881 0.197021 0.196161 0.195301 0.194480 0.193860 0.193605 0.193538 0.193472 0.193220 0.192636 0.191863 0.191138 0.190413 0.189688 0.189000 0.188480 0.188266 0.188210 0.188155 0.187943 0.187451 0.186799 0.186178 0.185558 0.184937 0.184344 0.183895 0.183710 0.183662 0.183614 0.183431 0.183010 0.182452 0.181922 0.181391 0.180861 0.180357 0.179975 0.179818 0.179777 0.179737 0.179580 0.179215 0.178732 0.178277 0.177823 0.177368 0.176932 0.176602 0.176465 0.176429 0.176394 0.176261 0.175961 0.175563 0.175194 0.174824 0.174455 0.174161 0.173940 0.173849 0.173825 0.173802 0.173713 0.173507 0.173236 0.173005 0.172773 0.172542 0.172315 0.172144 0.172082 0.172065 0.172049 0.171986 0.171839 0.171645 0.171463 0.171281 0.171099 0.170933 0.170808 0.170754 0.170740 0.170726 0.170673 0.170554 0.170396 0.170254 0.170113 0.169971 0.169842 0.169744 0.169706 0.169696 0.169686 0.169648 0.169556 0.169435 0.169325 0.169214 0.169104 0.169003 0.168927 0.168895 0.168887 0.168878 0.168846 0.168784 0.168702 0.168622 0.168542 0.168463 0.168399 0.168350 0.168330 0.168324 
0.204158 0.204066 0.203737 0.202994 0.202013 0.201094 0.200174 0.199255 0.198383 0.197724 0.197446 0.197368 0.197290 0.197015 0.196392 0.195570 0.194808 0.194047 0.193285 0.192562 0.192015 0.191784 0.191719 0.191655 0.191428 0.190916 0.190239 0.189594 0.188950 0.188305 0.187710 0.187259 0.187069 0.187015 0.186962 0.186774 0.186351 0.185793 0.185272 0.184751 0.184230 0.183730 0.183352 0.183192 0.183146 0.183102 0.182945 0.182599 0.182143 0.181703 0.181263 0.180824 0.180426 0.180124 0.179997 0.179962 0.179926 0.179800 0.179512 0.179132 0.178787 0.178442 0.178097 0.177771 0.177524 0.177439 0.177414 0.177393 0.177315 0.177165 0.176965 0.176769 0.176572 0.176376 0.176205 0.176076 0.176021 0.176006 0.175990 0.175935 0.175805 0.175634 0.175478 0.175322 0.175166 0.175017 0.174904 0.174855 0.174841 0.174827 0.174777 0.174675 0.174541 0.174400 0.174259 0.174118 0.173984 0.173884 0.173840 0.173828 0.173816 0.173772 0.173665 0.173525 0.173397 0.173269 0.173141 0.173015 0.172920 0.172878 0.172866 0.172854 0.172811 0.172723 0.172606 0.172487 0.172369 0.172251 0.172140 0.172057 0.172022 0.172013 
