-2.115305 -1.340973 0.855498
-1.750410 -1.342417 2.129047
-1.350972 -1.372809 3.392433
-1.060573 -1.312938 4.682864
-0.883559 -1.162242 5.987648
-0.730602 -0.992751 7.293321
-0.576180 -0.824399 8.598966
-2.114846 -1.340899 0.857444
-1.751026 -1.342361 2.127145
-1.749795 -1.342474 2.130949
-1.351524 -1.372805 3.390510
-1.350420 -1.372812 3.394355
-1.060896 -1.313121 4.680899
-1.060251 -1.312754 4.684829
-0.883798 -1.162491 5.985678
-0.883319 -1.161993 5.989618
-0.730829 -0.993009 7.291351
-0.730375 -0.992492 7.295292
-0.576422 -0.824646 8.596997
-2.108430 -1.339855 0.884689
-1.759616 -1.341593 2.100496
-1.741178 -1.343265 2.157589
-1.359254 -1.372763 3.363588
-1.342691 -1.372854 3.421277
-1.065410 -1.315697 4.653375
-1.055736 -1.310178 4.712353
-0.887153 -1.165977 5.958090
-0.879964 -1.158507 6.017207
-0.734009 -0.996632 7.263759
-0.727194 -0.988871 7.322883
-0.579820 -0.828099 8.569409
-2.078625 -1.335585 1.008628
-2.028257 -1.331409 1.204273
-1.974498 -1.330046 1.399055
-1.917915 -1.331041 1.593040
-1.859063 -1.333943 1.786330
-1.798486 -1.338303 1.979061
-1.701835 -1.346956 2.278860
-1.639238 -1.353030 2.470899
-1.576775 -1.358991 2.662985
-1.514961 -1.364399 2.855296
-1.454320 -1.368813 3.048006
-1.395381 -1.371788 3.241269
-1.308128 -1.372519 3.544050
-1.256041 -1.369766 3.739272
-1.207642 -1.363967 3.935374
-1.163437 -1.354738 4.132332
-1.123309 -1.342204 4.329980
-1.086790 -1.326770 4.528123
-1.035897 -1.297882 4.837745
-1.006412 -1.276866 5.036548
-0.978804 -1.254374 5.235459
-0.952587 -1.230793 5.434433
-0.927279 -1.206502 5.633439
-0.902528 -1.181777 5.832462
-0.864826 -1.142524 6.142840
-0.841116 -1.116988 6.341887
-0.817695 -1.091228 6.540940
-0.794494 -1.065297 6.739996
-0.771448 -1.039246 6.939055
-0.748488 -1.013128 7.138115
-0.712694 -0.972391 7.448527
-0.689645 -0.946342 7.647586
-0.666441 -0.920413 7.846642
-0.643015 -0.894658 8.045695
-0.619299 -0.869127 8.244742
-0.595226 -0.843873 8.443782
82 NaN NaN
-2.115419 -1.340992 0.855012
-2.092347 -1.337241 0.952971
-2.068248 -1.334332 1.050712
-2.043195 -1.332210 1.148233
-2.017258 -1.330819 1.245536
-1.990509 -1.330103 1.342626
-1.963018 -1.330005 1.439512
-1.934856 -1.330469 1.536203
-1.906090 -1.331440 1.632713
-1.876788 -1.332861 1.729056
-1.847019 -1.334678 1.825249
-1.816849 -1.336834 1.921309
-1.786342 -1.339274 2.017257
-1.755565 -1.341944 2.113113
-1.724582 -1.344789 2.208896
-1.693457 -1.347755 2.304631
-1.662254 -1.350786 2.400338
-1.631038 -1.353830 2.496040
-1.599871 -1.356831 2.591759
-1.568819 -1.359735 2.687519
-1.537944 -1.362488 2.783341
-1.507312 -1.365035 2.879246
-1.476987 -1.367321 2.975255
-1.447034 -1.369292 3.071388
-1.417521 -1.370892 3.167664
-1.388514 -1.372066 3.264099
-1.360080 -1.372758 3.360709
-1.332289 -1.372912 3.457509
-1.305208 -1.372472 3.554509
-1.278909 -1.371381 3.651718
-1.253462 -1.369584 3.749144
-1.228939 -1.367025 3.846789
-1.205411 -1.363647 3.944653
-1.182947 -1.359400 4.042734
-1.161547 -1.354286 4.141011
-1.141158 -1.348354 4.239456
-1.121719 -1.341656 4.338045
-1.103171 -1.334242 4.436755
-1.085456 -1.326162 4.535565
-1.068513 -1.317467 4.634458
-1.052281 -1.308207 4.733419
-1.036701 -1.298431 4.832435
-1.021711 -1.288189 4.931496
-1.007252 -1.277529 5.030591
-0.993263 -1.266499 5.129714
-0.979684 -1.255148 5.228857
-0.966455 -1.243523 5.328015
-0.953516 -1.231672 5.427186
-0.940806 -1.219641 5.526364
-0.928266 -1.207478 5.625548
-0.915859 -1.195211 5.724735
-0.903575 -1.182848 5.823926
-0.891406 -1.170396 5.923120
-0.879343 -1.157861 6.022317
-0.867378 -1.145250 6.121516
-0.855504 -1.132568 6.220717
-0.843711 -1.119823 6.319919
-0.831992 -1.107021 6.419123
-0.820338 -1.094168 6.518327
-0.808741 -1.081271 6.617533
-0.797192 -1.068336 6.716740
-0.785684 -1.055370 6.815947
-0.774207 -1.042380 6.915154
-0.762754 -1.029371 7.014362
-0.751316 -1.016350 7.113570
-0.739884 -1.003325 7.212779
-0.728451 -0.990300 7.311987
-0.717008 -0.977284 7.411195
-0.705546 -0.964282 7.510403
-0.694057 -0.951301 7.609610
-0.682533 -0.938347 7.708817
-0.670965 -0.925427 7.808023
-0.659345 -0.912548 7.907228
-0.647665 -0.899715 8.006433
-0.635916 -0.886936 8.105636
-0.624090 -0.874217 8.204838
-0.612179 -0.861564 8.304038
-0.600175 -0.848983 8.403236
-0.588068 -0.836482 8.502431
-0.575852 -0.824066 8.601624
-0.563518 -0.811743 8.700814
-0.551057 -0.799518 8.800000
-2.114988 -1.340854 0.854800
-1.610556 -1.179934 0.607276
-1.106123 -1.019013 0.359753
-0.601691 -0.858093 0.112229
-2.113262 -1.340303 0.853953
-1.612282 -1.180484 0.608123
-1.608829 -1.179383 0.606429
-1.107850 -1.019564 0.360600
-1.104397 -1.018463 0.358906
-0.603417 -0.858644 0.113076
-2.096426 -1.334933 0.845692
-1.629117 -1.185855 0.616384
-1.591994 -1.174012 0.598168
-1.124685 -1.024935 0.368861
-1.087562 -1.013092 0.350645
-0.620253 -0.864014 0.121337
-2.044533 -1.318378 0.820228
-1.971829 -1.295184 0.784552
-1.899124 -1.271991 0.748876
-1.826419 -1.248797 0.713200
-1.753715 -1.225603 0.677524
-1.681010 -1.202410 0.641848
-1.540101 -1.157458 0.572705
-1.467396 -1.134264 0.537029
-1.394692 -1.111070 0.501353
-1.321987 -1.087877 0.465677
-1.249283 -1.064683 0.430000
-1.176578 -1.041489 0.394324
-1.035669 -0.996537 0.325181
-0.962964 -0.973344 0.289505
-0.890260 -0.950150 0.253829
-0.817555 -0.926956 0.218153
-0.744850 -0.903763 0.182477
-0.672146 -0.880569 0.146801
20 NaN NaN
-2.115419 -1.340992 0.855012
-2.023712 -1.311736 0.810011
-1.932004 -1.282480 0.765011
-1.840297 -1.253224 0.720010
-1.748590 -1.223968 0.675009
-1.656882 -1.194713 0.630009
-1.565175 -1.165457 0.585008
-1.473467 -1.136201 0.540008
-1.381760 -1.106945 0.495007
-1.290053 -1.077689 0.450006
-1.198345 -1.048433 0.405006
-1.106638 -1.019177 0.360005
-1.014931 -0.989922 0.315004
-0.923223 -0.960666 0.270004
-0.831516 -0.931410 0.225003
-0.739808 -0.902154 0.180003
-0.648101 -0.872898 0.135002
-0.556394 -0.843642 0.090001
-0.464686 -0.814386 0.045001
-0.372979 -0.785131 0.000000
-2.115848 -1.341247 0.854983
-3.186478 -1.477249 0.140758
-3.677432 -0.792811 -0.968601
-3.977862 0.216587 -1.885617
-4.270841 1.229653 -2.803472
-4.561614 2.251149 -3.712698
-4.851250 3.276662 -4.617727
-5.149020 4.257118 -5.568793
-5.487077 5.193488 -6.550091
-5.894357 6.051113 -7.575622
-6.397070 6.790734 -8.649029
-7.014690 7.372959 -9.758259
-7.750169 7.765264 -10.878729
-8.581731 7.956398 -11.984558
-2.117563 -1.342270 0.854866
-3.185469 -1.477899 0.142358
-3.187487 -1.476598 0.139159
-3.676844 -0.794054 -0.967149
-3.678021 -0.791568 -0.970053
-3.977457 0.215143 -1.884294
-3.978267 0.218031 -1.886940
-4.270428 1.228192 -2.802170
-4.271254 1.231114 -2.804774
-4.561197 2.249685 -3.711402
-4.562031 2.252614 -3.713995
-4.850837 3.275219 -4.616405
-4.851663 3.278104 -4.619050
-5.148572 4.255740 -5.567415
-5.149468 4.258497 -5.570171
-5.486550 5.192197 -6.548657
-5.487604 5.194780 -6.551524
-5.893710 6.049963 -7.574119
-5.895003 6.052264 -7.577124
-6.396270 6.789783 -8.647462
-6.397871 6.791685 -8.650596
-7.013717 7.372262 -9.756657
-7.015664 7.373656 -9.759860
-7.749037 7.764856 -10.877132
-7.751301 7.765673 -10.880326
-8.580486 7.956271 -11.982998
-2.142824 -1.357334 0.853152
-3.170605 -1.487484 0.165921
-3.201313 -1.465936 0.115436
-3.668174 -0.812369 -0.945762
-3.686476 -0.772765 -0.991094
-3.971488 0.193869 -1.864806
-3.984281 0.239278 -1.906445
-4.264350 1.206668 -2.782992
-4.277333 1.252637 -2.823952
-4.555052 2.228109 -3.692303
-4.568176 2.274189 -3.733094
-4.844754 3.253970 -4.596925
-4.857746 3.299353 -4.638530
-5.141977 4.235437 -5.547109
-5.156063 4.278800 -5.590477
-5.478788 5.173171 -6.527543
-5.495367 5.213805 -6.572638
-5.884184 6.033019 -7.551979
-5.904529 6.069207 -7.599264
-6.384498 6.775744 -8.624390
-6.409666 6.805691 -8.673677
-6.999443 7.361879 -9.733068
-7.030009 7.383926 -9.783456
-7.732452 7.758642 -10.853588
-7.767981 7.771689 -10.903855
-8.562230 7.954156 -11.959971
-2.259540 -1.422398 0.839134
-2.448317 -1.503725 0.784654
-2.634159 -1.556476 0.695456
-2.809475 -1.579067 0.576875
-2.966604 -1.569386 0.433691
-3.099255 -1.527614 0.272618
-3.261594 -1.414221 0.006860
-3.346222 -1.321279 -0.165266
-3.421569 -1.220643 -0.337446
-3.492625 -1.118094 -0.510340
-3.561356 -1.011235 -0.681538
-3.627831 -0.893684 -0.846452
-3.723676 -0.684079 -1.085190
-3.776562 -0.534891 -1.227941
-3.822027 -0.377838 -1.364746
-3.863243 -0.217977 -1.499665
-3.903545 -0.059610 -1.636605
-3.944648 0.096391 -1.776003
-4.012276 0.336026 -1.995687
-4.057468 0.489110 -2.137043
-4.102826 0.642819 -2.277664
-4.147829 0.797464 -2.417369
-4.192405 0.952747 -2.556504
-4.236576 1.108369 -2.695389
-4.305131 1.350923 -2.911562
-4.349307 1.506577 -3.050409
-4.393620 1.662201 -3.189246
-4.438025 1.817874 -3.328000
-4.482488 1.973656 -3.466612
-4.526977 2.129596 -3.605038
-4.596217 2.372759 -3.820305
-4.640557 2.528954 -3.958492
-4.684772 2.685258 -4.096594
-4.728890 2.842000 -4.234231
-4.772945 2.999317 -4.371231
-4.816971 3.156112 -4.508834
-4.885551 3.395403 -4.728581
-4.929772 3.545800 -4.873091
-4.974397 3.695337 -5.018369
-5.019608 3.844880 -5.163459
-5.065491 3.994070 -5.308701
-5.112117 4.142389 -5.454597
-5.186464 4.371222 -5.683440
-5.235489 4.516757 -5.831339
-5.285639 4.661118 -5.980009
-5.337015 4.804154 -6.129539
-5.389718 4.945720 -6.280002
-5.443848 5.085694 -6.431445
-5.531241 5.300229 -6.669343
-5.589526 5.435515 -6.823480
-5.649596 5.568740 -6.978723
-5.711547 5.699766 -7.135092
-5.775473 5.828453 -7.292604
-5.841465 5.954660 -7.451266
-5.948540 6.145979 -7.700641
-6.020270 6.265126 -7.862245
-6.094371 6.381282 -8.024952
-6.170921 6.494304 -8.188728
-6.249992 6.604050 -8.353530
-6.331650 6.710383 -8.519305
-6.464100 6.868900 -8.779268
-6.552661 6.965852 -8.947237
-6.644041 7.058845 -9.115933
-6.738220 7.147815 -9.285256
-6.835218 7.232640 -9.455113
-6.935038 7.313205 -9.625408
-7.096058 7.429983 -9.891271
-7.202987 7.499208 -10.062239
-7.312676 7.563743 -10.233293
-7.425010 7.623599 -10.404331
-7.539889 7.678759 -10.575256
-7.657214 7.729196 -10.745978
-7.844544 7.798352 -11.011255
-7.967613 7.836732 -11.181070
-8.092726 7.870412 -11.350388
-8.219782 7.899382 -11.519129
-8.348612 7.923808 -11.687243
-8.479092 7.943776 -11.854671
188 NaN NaN
-2.115419 -1.340992 0.855012
-2.201453 -1.392298 0.849172
-2.289516 -1.437931 0.833953
-2.378525 -1.477549 0.809922
-2.467512 -1.510924 0.777705
-2.555612 -1.537897 0.737930
-2.642037 -1.558340 0.691196
-2.726047 -1.572116 0.638055
-2.806907 -1.579069 0.579024
-2.883857 -1.579007 0.514605
-2.956076 -1.571709 0.445311
-3.022726 -1.557004 0.371745
-3.083590 -1.535401 0.294926
-3.139051 -1.507831 0.215945
-3.189690 -1.475177 0.135665
-3.236182 -1.438210 0.054743
-3.279215 -1.397586 -0.026344
-3.319320 -1.353998 -0.107397
-3.356979 -1.308196 -0.188405
-3.392728 -1.260913 -0.269430
-3.427140 -1.212864 -0.350584
-3.460775 -1.164688 -0.431989
-3.493889 -1.116245 -0.513449
-3.526509 -1.066847 -0.594533
-3.558647 -1.015802 -0.674783
-3.590302 -0.962438 -0.753703
-3.621448 -0.906134 -0.830759
-3.651929 -0.846685 -0.905689
-3.681471 -0.784279 -0.978564
-3.709798 -0.719113 -1.049479
-3.736634 -0.651368 -1.118533
-3.761704 -0.581218 -1.185827
-3.784884 -0.508941 -1.251531
-3.806464 -0.435088 -1.316019
-3.826816 -0.360224 -1.379738
-3.846322 -0.284881 -1.443156
-3.865368 -0.209576 -1.506760
-3.884307 -0.134758 -1.570966
-3.903312 -0.060507 -1.635809
-3.922489 0.013225 -1.701190
-3.941950 0.086491 -1.767012
-3.961802 0.159342 -1.833175
-3.982139 0.231834 -1.899585
-4.002918 0.304062 -1.966146
-4.024020 0.376144 -2.032764
-4.045330 0.448195 -2.099349
-4.066732 0.520334 -2.165809
-4.088110 0.592675 -2.232056
-4.109410 0.665254 -2.298069
-4.130623 0.738037 -2.363884
-4.151744 0.810989 -2.429542
-4.172770 0.884075 -2.495081
-4.193695 0.957260 -2.560541
-4.214527 1.030515 -2.625954
-4.235290 1.103819 -2.691333
-4.256015 1.177152 -2.756692
-4.276727 1.250495 -2.822043
-4.297456 1.323828 -2.887400
-4.318223 1.397137 -2.952773
-4.339028 1.470427 -3.018154
-4.359865 1.543706 -3.083538
-4.380731 1.616983 -3.148915
-4.401620 1.690266 -3.214278
-4.422527 1.763563 -3.279619
-4.443449 1.836881 -3.344931
-4.464383 1.910225 -3.410211
-4.485326 1.983599 -3.475454
-4.506274 2.057010 -3.540654
-4.527224 2.130462 -3.605807
-4.548172 2.203952 -3.670918
-4.569111 2.277471 -3.735999
-4.590035 2.351009 -3.801064
-4.610938 2.424556 -3.866125
-4.631814 2.498102 -3.931195
-4.652659 2.571653 -3.996270
-4.673477 2.645243 -4.061309
-4.694271 2.718911 -4.126269
-4.715046 2.792693 -4.191104
-4.735804 2.866627 -4.255772
-4.756550 2.940719 -4.320262
-4.777287 3.014834 -4.384728
-4.798018 3.088794 -4.449375
-4.818746 3.162418 -4.514404
-4.839474 3.235525 -4.580015
-4.860202 3.307933 -4.646395
-4.880942 3.379621 -4.713548
-4.901715 3.450739 -4.781295
-4.922544 3.521447 -4.849454
-4.943455 3.591908 -4.917842
-4.964472 3.662286 -4.986284
-4.985617 3.732704 -5.054645
-5.006900 3.803135 -5.122949
-5.028328 3.873522 -5.191254
-5.049908 3.943806 -5.259617
-5.071648 4.013929 -5.328094
-5.093555 4.083835 -5.396740
-5.115639 4.153499 -5.465575
-5.137912 4.222922 -5.534592
-5.160385 4.292105 -5.603785
-5.183072 4.361050 -5.673146
-5.205983 4.429756 -5.742670
-5.229131 4.498220 -5.812355
-5.252525 4.566427 -5.882207
-5.276178 4.634363 -5.952238
-5.300100 4.702011 -6.022456
-5.324300 4.769354 -6.092871
-5.348789 4.836376 -6.163491
-5.373579 4.903065 -6.234323
-5.398680 4.969407 -6.305369
-5.424103 5.035391 -6.376636
-5.449858 5.101003 -6.448125
-5.475956 5.166231 -6.519841
-5.502408 5.231061 -6.591788
-5.529223 5.295480 -6.663969
-5.556414 5.359473 -6.736388
-5.583989 5.423026 -6.809049
-5.611959 5.486123 -6.881956
-5.640335 5.548751 -6.955111
-5.669125 5.610894 -7.028516
-5.698341 5.672538 -7.102173
-5.727991 5.733669 -7.176084
-5.758086 5.794272 -7.250250
-5.788636 5.854331 -7.324671
-5.819649 5.913832 -7.399349
-5.851136 5.972760 -7.474283
-5.883105 6.031101 -7.549471
-5.915566 6.088838 -7.624915
-5.948527 6.145956 -7.700611
-5.981997 6.202442 -7.776559
-6.015986 6.258278 -7.852757
-6.050500 6.313452 -7.929200
-6.085549 6.367948 -8.005886
-6.121141 6.421750 -8.082811
-6.157284 6.474844 -8.159971
-6.193984 6.527215 -8.237362
-6.231250 6.578848 -8.314978
-6.269088 6.629729 -8.392813
-6.307506 6.679844 -8.470861
-6.346509 6.729177 -8.549117
-6.386105 6.777713 -8.627573
-6.426298 6.825440 -8.706221
-6.467094 6.872343 -8.785055
-6.508499 6.918408 -8.864065
-6.550515 6.963621 -8.943244
-6.593149 7.007967 -9.022583
-6.636404 7.051434 -9.102072
-6.680280 7.094009 -9.181703
-6.724782 7.135680 -9.261467
-6.769910 7.176432 -9.341352
-6.815666 7.216252 -9.421349
-6.862051 7.255130 -9.501448
-6.909063 7.293053 -9.581639
-6.956701 7.330011 -9.661912
-7.004961 7.365994 -9.742255
-7.053843 7.400989 -9.822659
-7.103343 7.434987 -9.903113
-7.153457 7.467979 -9.983606
-7.204177 7.499958 -10.064127
-7.255497 7.530916 -10.144668
-7.307411 7.560846 -10.225216
-7.359912 7.589740 -10.305762
-7.412992 7.617594 -10.386295
-7.466641 7.644403 -10.466806
-7.520848 7.670165 -10.547284
-7.575603 7.694878 -10.627721
-7.630896 7.718538 -10.708107
-7.686715 7.741144 -10.788431
-7.743050 7.762696 -10.868686
-7.799886 7.783198 -10.948862
-7.857211 7.802651 -11.028952
-7.915012 7.821057 -11.108946
-7.973278 7.838420 -11.188838
-8.031994 7.854743 -11.268618
-8.091147 7.870034 -11.348280
-8.150724 7.884298 -11.427816
-8.210710 7.897544 -11.507221
-8.271094 7.909777 -11.586486
-8.331862 7.921005 -11.665607
-8.393001 7.931237 -11.744577
-8.454498 7.940486 -11.823391
-8.516339 7.948760 -11.902042
-8.578514 7.956070 -11.980527
-8.641009 7.962428 -12.058840
-8.703812 7.967845 -12.136977
-8.766911 7.972330 -12.214933
-8.830296 7.975895 -12.292706
-8.893955 7.978550 -12.370292
-8.957876 7.980305 -12.447686
-0.883345 -1.161839 5.987853
-0.844191 -1.088190 6.025212
-0.807791 -1.013311 6.062889
-0.774414 -0.937196 6.100863
-0.744372 -0.859846 6.139106
-0.718010 -0.781281 6.177578
-0.695699 -0.701549 6.216223
-0.677839 -0.620729 6.254968
-0.665758 -0.538829 6.293692
-0.659335 -0.456236 6.332227
-0.658818 -0.373265 6.370407
-0.664547 -0.290264 6.408041
-0.676784 -0.207632 6.444921
-0.695685 -0.125810 6.480831
-0.721287 -0.045259 6.515557
-0.754350 0.033247 6.548674
-0.793942 0.109346 6.580100
-0.839273 0.182851 6.609818
-0.889863 0.253554 6.637778
-0.945208 0.321328 6.663965
-1.004801 0.386119 6.688401
-1.068152 0.447934 6.711131
-1.135115 0.506511 6.732050
-1.205048 0.562088 6.751323
-1.277353 0.615027 6.769172
-1.351734 0.665464 6.785684
-0.882488 -1.160227 5.988670
-0.845047 -1.089801 6.024394
-0.843334 -1.086578 6.026029
-0.808576 -1.014955 6.062063
-0.807006 -1.011667 6.063715
-0.775118 -0.938872 6.100030
-0.773709 -0.935520 6.101697
-0.744985 -0.861554 6.138266
-0.743759 -0.858138 6.139946
-0.718520 -0.783021 6.176733
-0.717500 -0.779542 6.178423
-0.696093 -0.703317 6.215375
-0.695305 -0.699781 6.217071
-0.678104 -0.622521 6.254121
-0.677575 -0.618936 6.255816
-0.666022 -0.540621 6.292845
-0.665494 -0.537037 6.294540
-0.659456 -0.458046 6.331385
-0.659214 -0.454426 6.333070
-0.658782 -0.375083 6.369575
-0.658853 -0.371447 6.371239
-0.664344 -0.292078 6.407225
-0.664750 -0.288449 6.408856
-0.676407 -0.209430 6.444128
-0.677161 -0.205835 6.445713
-0.695133 -0.127575 6.480070
-0.696237 -0.124045 6.481593
-0.720564 -0.046976 6.514833
-0.722011 -0.043541 6.516282
-0.753626 0.031529 6.547950
-0.755073 0.034965 6.549399
-0.793057 0.107688 6.579417
-0.794827 0.111005 6.580783
-0.838240 0.181261 6.609181
-0.840306 0.184440 6.610456
-0.888697 0.252040 6.637187
-0.891028 0.255067 6.638369
-0.943926 0.319892 6.663420
-0.946489 0.322764 6.664510
-1.003420 0.384762 6.687900
-1.006181 0.387477 6.688901
-1.066687 0.446652 6.710673
-1.069617 0.449216 6.711589
-1.133650 0.505229 6.731592
-1.136581 0.507793 6.732508
-1.203511 0.560878 6.750905
-1.206586 0.563297 6.751741
-1.275755 0.613886 6.768791
-1.278951 0.616167 6.769553
-1.350084 0.664387 6.785337
-0.880475 -1.156441 5.990591
-0.847060 -1.093588 6.022474
-0.841321 -1.082791 6.027950
-0.810421 -1.018816 6.060123
-0.805161 -1.007806 6.065655
-0.776773 -0.942810 6.098072
-0.772054 -0.931583 6.103655
-0.746426 -0.865568 6.136293
-0.742318 -0.854124 6.141920
-0.719718 -0.787107 6.174747
-0.716301 -0.775455 6.180409
-0.697019 -0.707470 6.213383
-0.694379 -0.695627 6.219063
-0.679009 -0.626678 6.252129
-0.676954 -0.614726 6.257807
-0.666643 -0.544832 6.290854
-0.664872 -0.532826 6.296530
-0.659740 -0.462298 6.329405
-0.658931 -0.450174 6.335050
-0.658698 -0.379355 6.367619
-0.658938 -0.367175 6.373195
-0.663867 -0.296342 6.405308
-0.665227 -0.284185 6.410773
-0.675522 -0.213652 6.442267
-0.678046 -0.201612 6.447574
-0.693835 -0.131722 6.478280
-0.697535 -0.119899 6.483382
-0.719072 -0.051070 6.513085
-0.723710 -0.039504 6.517985
-0.751926 0.027493 6.546247
-0.756773 0.039001 6.551102
-0.790977 0.103792 6.577813
-0.796907 0.114901 6.582387
-0.835812 0.177528 6.607682
-0.842734 0.188173 6.611954
-0.885959 0.248483 6.635797
-0.893767 0.258624 6.639758
-0.940917 0.316519 6.662140
-0.949499 0.326138 6.665791
-1.000177 0.381571 6.686725
-1.009425 0.390667 6.690076
-1.063266 0.443621 6.709587
-1.073060 0.452227 6.712664
-1.130207 0.502218 6.730517
-1.140023 0.510805 6.733583
-1.199900 0.558037 6.749923
-1.210197 0.566138 6.752723
-1.272001 0.611206 6.767896
-1.282706 0.618848 6.770448
-1.346209 0.661857 6.784522
-0.876548 -1.149055 5.994338
-0.871436 -1.139439 5.999215
-0.866324 -1.129822 6.004093
-0.861211 -1.120206 6.008971
-0.856099 -1.110590 6.013849
-0.850987 -1.100974 6.018727
-0.837445 -1.075383 6.031703
-0.832760 -1.065576 6.036630
-0.828075 -1.055769 6.041557
-0.823390 -1.045962 6.046484
-0.818705 -1.036155 6.051411
-0.814020 -1.026348 6.056339
-0.801562 -1.000274 6.069439
-0.796877 -0.990467 6.074367
-0.792611 -0.980492 6.079333
-0.788408 -0.970492 6.084306
-0.784205 -0.960491 6.089279
-0.780001 -0.950491 6.094252
-0.768826 -0.923902 6.107474
-0.764623 -0.913901 6.112447
-0.760420 -0.903901 6.117420
-0.756553 -0.893782 6.122418
-0.752894 -0.883589 6.127430
-0.749236 -0.873396 6.132443
-0.739508 -0.846296 6.145770
-0.735850 -0.836103 6.150783
-0.732191 -0.825910 6.155795
-0.728533 -0.815717 6.160808
-0.725100 -0.805457 6.165831
-0.722056 -0.795078 6.170874
-0.713963 -0.767484 6.184282
-0.710920 -0.757106 6.189324
-0.707876 -0.746727 6.194367
-0.704832 -0.736349 6.199410
-0.701789 -0.725971 6.204452
-0.698825 -0.715573 6.209497
-0.692573 -0.687525 6.222948
-0.690221 -0.676976 6.228007
-0.687870 -0.666427 6.233066
-0.685518 -0.655878 6.238125
-0.683166 -0.645329 6.243184
-0.680815 -0.634781 6.248243
-0.675742 -0.606513 6.261690
-0.674165 -0.595819 6.266746
-0.672587 -0.585126 6.271802
-0.671010 -0.574432 6.276858
-0.669432 -0.563739 6.281914
-0.667855 -0.553045 6.286971
-0.663896 -0.524584 6.300406
-0.663175 -0.513786 6.305434
-0.662455 -0.502987 6.310461
-0.661734 -0.492189 6.315489
-0.661013 -0.481390 6.320516
-0.660293 -0.470592 6.325544
-0.658377 -0.441881 6.338911
-0.657679 -0.431081 6.343937
-0.657893 -0.420232 6.348904
-0.658106 -0.409384 6.353871
-0.658320 -0.398536 6.358837
-0.658534 -0.387687 6.363804
-0.659102 -0.358843 6.377010
-0.659315 -0.347995 6.381977
-0.659529 -0.337146 6.386943
-0.660515 -0.326314 6.391833
-0.661726 -0.315486 6.396701
-0.662937 -0.304658 6.401569
-0.666157 -0.275869 6.414512
-0.667368 -0.265041 6.419380
-0.668579 -0.254214 6.424248
-0.669790 -0.243386 6.429115
-0.671546 -0.232613 6.433909
-0.673795 -0.221889 6.438636
-0.679773 -0.193376 6.451205
-0.682021 -0.182652 6.455932
-0.684270 -0.171928 6.460659
-0.686518 -0.161204 6.465386
-0.688767 -0.150480 6.470113
-0.691305 -0.139810 6.474790
-0.700066 -0.111811 6.486873
-0.703361 -0.101280 6.491417
-0.706656 -0.090750 6.495961
-0.709951 -0.080219 6.500506
-0.713246 -0.069689 6.505050
-0.716542 -0.059158 6.509595
-0.727026 -0.031632 6.521306
-0.731343 -0.021381 6.525630
-0.735660 -0.011131 6.529954
-0.739977 -0.000881 6.534278
-0.744294 0.009370 6.538602
-0.748611 0.019620 6.542926
-0.760511 0.046719 6.554313
-0.765793 0.056613 6.558387
-0.771075 0.066508 6.562462
-0.776357 0.076403 6.566536
-0.781638 0.086298 6.570610
-0.786920 0.096192 6.574684
-0.800964 0.122501 6.585516
-0.806413 0.132318 6.589539
-0.812578 0.141800 6.593344
-0.818744 0.151281 6.597150
-0.824910 0.160763 6.600955
-0.831076 0.170245 6.604760
-0.847470 0.195456 6.614877
-0.853636 0.204938 6.618682
-0.859801 0.214420 6.622487
-0.866708 0.223480 6.626032
-0.873663 0.232513 6.629560
-0.880617 0.241545 6.633088
-0.899108 0.265562 6.642468
-0.906063 0.274595 6.645996
-0.913017 0.283627 6.649524
-0.919972 0.292660 6.653052
-0.927402 0.301372 6.656390
-0.935046 0.309939 6.659642
-0.955370 0.332718 6.668289
-0.963013 0.341285 6.671541
-0.970657 0.349852 6.674793
-0.978301 0.358419 6.678045
-0.985945 0.366986 6.681297
-0.993850 0.375349 6.684432
-1.015752 0.396890 6.692369
-1.023989 0.404992 6.695354
-1.032227 0.413093 6.698339
-1.040464 0.421195 6.701324
-1.048701 0.429297 6.704309
-1.056939 0.437398 6.707294
-1.079775 0.458102 6.714762
-1.088519 0.465750 6.717493
-1.097262 0.473398 6.720225
-1.106005 0.481047 6.722956
-1.114749 0.488695 6.725687
-1.123492 0.496343 6.728419
-1.146995 0.516420 6.735539
-1.156167 0.523636 6.738033
-1.165339 0.530851 6.740527
-1.174511 0.538066 6.743020
-1.183683 0.545281 6.745514
-1.192855 0.552496 6.748008
-1.217242 0.571680 6.754638
-1.226539 0.578753 6.757056
-1.236074 0.585559 6.759329
-1.245609 0.592366 6.761603
-1.255143 0.599172 6.763876
-1.264678 0.605978 6.766150
-1.290029 0.624075 6.772194
-1.299563 0.630881 6.774467
-1.309127 0.637651 6.776722
-1.318968 0.644075 6.778792
-1.328809 0.650499 6.780862
-1.338651 0.656923 6.782932
23 NaN NaN
-0.883559 -1.162242 5.987648
-0.838007 -1.076559 6.031112
-0.796262 -0.989178 6.075014
-0.758812 -0.900076 6.119322
-0.726215 -0.809260 6.163983
-0.699097 -0.716794 6.208911
-0.678147 -0.622811 6.253984
-0.664093 -0.527543 6.299029
-0.657674 -0.431343 6.343817
-0.659577 -0.334702 6.388062
-0.670365 -0.238249 6.431425
-0.690393 -0.142723 6.473533
-0.719745 -0.048920 6.514013
-0.758199 0.042388 6.552530
-0.805250 0.130530 6.588822
-0.860177 0.214997 6.622719
-0.922132 0.295466 6.654148
-0.990231 0.371790 6.683121
-1.063620 0.443970 6.709715
-1.141519 0.512113 6.734050
-1.223240 0.576398 6.756269
-1.308192 0.637041 6.776525
-1.395878 0.694280 6.794971
-1.060306 -1.312568 4.682659
-0.876278 -1.031556 4.534976
-0.737230 -0.720273 4.400393
-0.684738 -0.374245 4.296481
-0.775825 -0.025219 4.256141
-0.999901 0.260371 4.290072
-1.289849 0.469094 4.371354
-1.059240 -1.311089 4.681838
-0.877177 -1.033165 4.535752
-0.875379 -1.029946 4.534200
-0.737845 -0.722048 4.401081
-0.736615 -0.718499 4.399706
-0.684614 -0.376201 4.296880
-0.684862 -0.372290 4.296082
-0.774938 -0.027012 4.256160
-0.776713 -0.023427 4.256122
-0.998405 0.259097 4.289699
-1.001396 0.261645 4.290446
-1.288181 0.468121 4.370834
-1.051585 -1.300476 4.675945
-0.883627 -1.044711 4.541323
-0.868929 -1.018400 4.528629
-0.742258 -0.734781 4.406015
-0.732202 -0.705766 4.394771
-0.683727 -0.390236 4.299744
-0.685750 -0.358255 4.293217
-0.768570 -0.039872 4.256299
-0.783080 -0.010567 4.255983
-0.988156 0.249340 4.287379
-1.012129 0.270787 4.293126
-1.276211 0.461141 4.367098
-1.031004 -1.271945 4.660102
-1.003554 -1.233890 4.638970
-0.977304 -1.194833 4.618143
-0.951073 -1.155761 4.597321
-0.926112 -1.115694 4.576837
-0.901304 -1.075508 4.556393
-0.851587 -0.987359 4.513653
-0.830139 -0.944840 4.494171
-0.809006 -0.902111 4.474781
-0.789673 -0.858313 4.455948
-0.770940 -0.814158 4.437302
-0.754121 -0.769013 4.419281
-0.722821 -0.670465 4.382368
-0.710539 -0.623280 4.365905
-0.700879 -0.575223 4.350413
-0.692902 -0.526607 4.335544
-0.687597 -0.477399 4.321733
-0.684782 -0.427640 4.308909
-0.688137 -0.320525 4.285517
-0.694427 -0.270352 4.276673
-0.704216 -0.220352 4.269435
-0.716565 -0.170891 4.263468
-0.733098 -0.122313 4.259579
-0.751452 -0.074446 4.256671
-0.802003 0.022947 4.256665
-0.830248 0.065882 4.259330
-0.859548 0.107972 4.262664
-0.892145 0.147422 4.268088
-0.925249 0.186351 4.273859
-0.961202 0.222351 4.281586
-1.040984 0.295365 4.300330
-1.079666 0.327851 4.310096
-1.120058 0.357730 4.321232
-1.160464 0.387583 4.332381
-1.202293 0.414886 4.344760
-1.244121 0.442188 4.357138
22 NaN NaN
-1.060573 -1.312938 4.682864
-1.003135 -1.233310 4.638648
-0.948249 -1.151554 4.595080
-0.896342 -1.067470 4.552304
-0.847946 -0.980841 4.510508
-0.803729 -0.891442 4.469939
-0.764536 -0.799062 4.430927
-0.731430 -0.703541 4.393909
-0.705738 -0.604837 4.359470
-0.689054 -0.503151 4.328370
-0.683166 -0.399092 4.301551
-0.689823 -0.293866 4.280077
-0.710289 -0.189334 4.264945
-0.744850 -0.087779 4.256814
-0.792588 0.008636 4.255776
-0.851650 0.098414 4.261350
-0.919824 0.180919 4.272693
-0.995027 0.256220 4.288856
-1.075540 0.324798 4.308958
-1.160044 0.387309 4.332257
-1.247558 0.444431 4.358155
-1.337364 0.496802 4.386184
-1.350607 -1.372480 3.392342
-1.148024 -1.181445 3.342096
-0.962212 -0.973305 3.295597
-0.805374 -0.741568 3.255646
-0.699557 -0.481768 3.227393
-0.683341 -0.201453 3.220047
-0.780651 0.061012 3.239738
-0.958072 0.276674 3.278939
-1.177927 0.447191 3.328729
-1.349144 -1.371165 3.391980
-1.149409 -1.182846 3.342441
-1.146639 -1.180044 3.341752
-0.963412 -0.974876 3.295901
-0.961012 -0.971734 3.295294
-0.806366 -0.743286 3.255902
-0.804382 -0.739850 3.255390
-0.699976 -0.483719 3.227517
-0.699138 -0.479816 3.227270
-0.683151 -0.203444 3.220027
-0.683532 -0.199462 3.220067
-0.779592 0.059330 3.239509
-0.781710 0.062693 3.239967
-0.956681 0.275271 3.278628
-0.959463 0.278077 3.279250
-1.176287 0.446108 3.328355
-1.340803 -1.363665 3.389916
-1.157307 -1.190836 3.344407
-1.138741 -1.172053 3.339786
-0.970256 -0.983835 3.297629
-0.954168 -0.962775 3.293565
-0.812022 -0.753082 3.257361
-0.798726 -0.730054 3.253931
-0.702365 -0.494850 3.228221
-0.696749 -0.468686 3.226566
-0.682066 -0.214797 3.219913
-0.684616 -0.188109 3.220180
-0.773555 0.049742 3.238204
-0.787747 0.072281 3.241273
-0.948750 0.267269 3.276855
-0.967721 0.285708 3.281105
-1.166937 0.439934 3.326224
-1.319151 -1.344198 3.384558
-1.290336 -1.318292 3.377427
-1.261732 -1.292145 3.370342
-1.233621 -1.265435 3.363368
-1.205510 -1.238726 3.356393
-1.177807 -1.211577 3.349509
-1.118240 -1.151313 3.334684
-1.091818 -1.122846 3.328086
-1.065523 -1.094250 3.321516
-1.039306 -1.065583 3.314964
-1.014204 -1.035876 3.308663
-0.989102 -1.006170 3.302361
-0.936404 -0.939521 3.289078
-0.912763 -0.908574 3.283106
-0.890279 -0.876748 3.277396
-0.868453 -0.844421 3.271835
-0.846628 -0.812094 3.266275
-0.826704 -0.778509 3.261147
-0.784655 -0.704288 3.250284
-0.768025 -0.668840 3.245912
-0.751395 -0.633391 3.241539
-0.736268 -0.597292 3.237514
-0.723348 -0.560238 3.233997
-0.710428 -0.523184 3.230481
-0.690548 -0.439795 3.224739
-0.682296 -0.401346 3.222308
-0.679583 -0.362066 3.221174
-0.676978 -0.322768 3.220066
-0.675503 -0.283485 3.219224
-0.679250 -0.244267 3.219618
-0.691034 -0.159316 3.221335
-0.701227 -0.121307 3.223266
-0.711420 -0.083298 3.225197
-0.726034 -0.046936 3.228192
-0.742072 -0.011104 3.231531
-0.758109 0.024728 3.234869
-0.803418 0.097169 3.244662
-0.825516 0.129352 3.249478
-0.850104 0.159655 3.254905
-0.874692 0.189957 3.260333
-0.900765 0.218854 3.266129
-0.928163 0.246497 3.272253
-0.989888 0.304684 3.286102
-1.019389 0.329938 3.292754
-1.049051 0.354979 3.299445
-1.080137 0.378135 3.306497
-1.111223 0.401291 3.313549
-1.142668 0.423906 3.320693
22 NaN NaN
-1.350972 -1.372809 3.392433
-1.270126 -1.300121 3.372425
-1.191254 -1.225181 3.352856
-1.114708 -1.147740 3.333805
-1.040934 -1.067510 3.315373
-0.970509 -0.984166 3.297693
-0.904185 -0.897345 3.280939
-0.842957 -0.806657 3.265339
-0.788147 -0.711734 3.251203
-0.741504 -0.612308 3.238939
-0.705273 -0.508399 3.229077
-0.682137 -0.400606 3.222261
-0.674837 -0.290461 3.219155
-0.685338 -0.180555 3.220256
-0.713904 -0.074037 3.225667
-0.758858 0.026402 3.235025
-0.817331 0.119266 3.247671
-0.886286 0.204247 3.262892
-0.963134 0.281781 3.280071
-1.045889 0.352623 3.298728
-1.133097 0.417585 3.318511
-1.223709 0.477425 3.339163
-1.749976 -1.342193 2.128941
-1.558476 -1.241263 2.082317
-1.370540 -1.132920 2.037905
-1.187626 -1.015238 1.996448
-1.012217 -0.885415 1.959146
-0.848944 -0.739261 1.928083
-0.707340 -0.570720 1.907184
-0.608038 -0.373857 1.903900
-0.585161 -0.156783 1.927968
-0.651028 0.047003 1.978483
-0.775350 0.217842 2.042920
-0.929630 0.360173 2.112812
-1.748240 -1.341297 2.128515
-1.560184 -1.242219 2.082725
-1.556768 -1.240304 2.081910
-1.372206 -1.133958 2.038288
-1.368873 -1.131883 2.037522
-1.189233 -1.016376 1.996797
-1.186018 -1.014100 1.996099
-1.013731 -0.886687 1.959446
-1.010703 -0.884142 1.958846
-0.850298 -0.740717 1.928305
-0.847591 -0.737806 1.927861
-0.708389 -0.572420 1.907273
-0.706292 -0.569019 1.907094
-0.608494 -0.375799 1.903765
-0.607582 -0.371914 1.904035
-0.584782 -0.158706 1.927569
-0.585541 -0.154860 1.928368
-0.650022 0.045367 1.977925
-0.652034 0.048639 1.979041
-0.774018 0.216486 2.042298
-0.776683 0.219198 2.043542
-0.928128 0.359022 2.112166
-1.740208 -1.337152 2.126547
-1.568153 -1.246502 2.084654
-1.548872 -1.235868 2.080027
-1.380004 -1.138588 2.040111
-1.361165 -1.127084 2.035752
-1.196777 -1.021458 1.998474
-1.178586 -1.008835 1.994484
-1.020876 -0.892373 1.960908
-1.003702 -0.878258 1.957458
-0.856749 -0.747243 1.929424
-0.841330 -0.731073 1.926833
-0.713487 -0.580106 1.907792
-0.701442 -0.561152 1.906681
-0.610819 -0.384716 1.903219
-0.605473 -0.362929 1.904660
-0.583028 -0.167599 1.925723
-0.587295 -0.145967 1.930214
-0.645369 0.037801 1.975344
-0.656687 0.056206 1.981622
-0.767855 0.210216 2.039422
-0.782846 0.225468 2.046419
-0.921178 0.353699 2.109175
-1.720205 -1.326828 2.121645
-1.693659 -1.313127 2.115140
-1.667112 -1.299427 2.108635
-1.640677 -1.285481 2.102201
-1.614339 -1.271325 2.095828
-1.588000 -1.257169 2.089456
-1.529208 -1.224821 2.075339
-1.503111 -1.210160 2.069116
-1.477013 -1.195499 2.062893
-1.451081 -1.180510 2.056771
-1.425268 -1.165285 2.050720
-1.399454 -1.150060 2.044670
-1.341970 -1.115134 2.031344
-1.316495 -1.099274 2.025493
-1.291019 -1.083415 2.019643
-1.265799 -1.067107 2.013938
-1.240732 -1.050528 2.008322
-1.215665 -1.033950 2.002706
-1.160075 -0.995724 1.990463
-1.135509 -0.978324 1.985125
-1.110943 -0.960924 1.979788
-1.086795 -0.942892 1.974676
-1.062855 -0.924545 1.969675
-1.038915 -0.906198 1.964675
-0.986266 -0.863604 1.954003
-0.963125 -0.844155 1.949418
-0.939985 -0.824707 1.944833
-0.917587 -0.804344 1.940617
-0.895492 -0.783606 1.936552
-0.873398 -0.762869 1.932487
-0.825740 -0.714307 1.924273
-0.805049 -0.692057 1.920876
-0.784359 -0.669806 1.917479
-0.765128 -0.646226 1.914740
-0.746373 -0.622213 1.912217
-0.727619 -0.598200 1.909693
-0.689365 -0.541562 1.905653
-0.673336 -0.515562 1.904288
-0.657308 -0.489563 1.902923
-0.644360 -0.461928 1.902779
-0.632179 -0.433887 1.902939
-0.619998 -0.405845 1.903099
-0.600221 -0.340552 1.906216
-0.593251 -0.310856 1.908281
-0.586281 -0.281159 1.910346
-0.584712 -0.250963 1.914210
-0.584065 -0.220683 1.918380
-0.583418 -0.190402 1.922551
-0.591662 -0.123820 1.934812
-0.597459 -0.094428 1.940914
-0.603256 -0.065035 1.947016
-0.614043 -0.037464 1.954450
-0.625316 -0.010070 1.962013
-0.636589 0.017325 1.969577
-0.668276 0.075050 1.988051
-0.683655 0.100058 1.996582
-0.699035 0.125067 2.005114
-0.717223 0.147878 2.014226
-0.735524 0.170603 2.023360
-0.753824 0.193327 2.032495
-0.798194 0.241083 2.053582
-0.818563 0.261806 2.063089
-0.838942 0.282518 2.072597
-0.860804 0.301543 2.082336
-0.882666 0.320569 2.092075
-0.904527 0.339594 2.101813
25 NaN NaN
-1.750410 -1.342417 2.129047
-1.654840 -1.293093 2.105628
-1.560018 -1.242130 2.082685
-1.466065 -1.189348 2.060283
-1.373136 -1.134536 2.038501
-1.281424 -1.077441 2.017439
-1.191182 -1.017758 1.997221
-1.102746 -0.955118 1.978007
-1.016566 -0.889069 1.960007
-0.933266 -0.819059 1.943501
-0.853735 -0.744414 1.928870
-0.779266 -0.664328 1.916643
-0.711776 -0.577915 1.907561
-0.654114 -0.484381 1.902651
-0.610313 -0.383549 1.903226
-0.585265 -0.276830 1.910647
-0.582940 -0.168046 1.925630
-0.603769 -0.062432 1.947556
-0.644299 0.036061 1.974750
-0.699623 0.126023 2.005440
-0.765475 0.207794 2.038311
-0.838785 0.282380 2.072527
-0.917476 0.350862 2.107581
-1.000152 0.414194 2.143164
-1.085858 0.473164 2.179086
-1.105746 -1.018686 0.359779
-0.912898 -0.841755 0.376874
-0.741514 -0.645629 0.406150
-0.609394 -0.424893 0.453904
-0.552331 -0.181785 0.528047
-0.597119 0.055370 0.624848
-0.729959 0.254525 0.729338
-0.911103 0.413987 0.831221
-1.104237 -1.017378 0.359885
-0.914294 -0.843177 0.376699
-0.911503 -0.840334 0.377049
-0.742730 -0.647194 0.405879
-0.740299 -0.644064 0.406421
-0.610076 -0.426708 0.453413
-0.608713 -0.423078 0.454396
-0.552384 -0.183669 0.527378
-0.552278 -0.179901 0.528717
-0.596483 0.053642 0.624067
-0.597755 0.057098 0.625628
-0.728678 0.253207 0.728549
-0.731240 0.255843 0.730127
-0.909614 0.412888 0.830461
-1.096177 -1.010389 0.360453
-0.921751 -0.850771 0.375765
-0.904046 -0.832739 0.377983
-0.749222 -0.655555 0.404433
-0.733807 -0.635703 0.407867
-0.613882 -0.436345 0.450850
-0.605076 -0.413382 0.457021
-0.552667 -0.193732 0.523802
-0.551995 -0.169837 0.532292
-0.593087 0.044410 0.619896
-0.601150 0.066329 0.629799
-0.721837 0.246167 0.724332
-0.738081 0.262883 0.734344
-0.901664 0.407021 0.826399
-1.075500 -0.992460 0.361908
-1.048005 -0.968620 0.363844
-1.020574 -0.944711 0.365820
-0.993999 -0.919901 0.368331
-0.967423 -0.895090 0.370842
-0.940877 -0.870252 0.373370
-0.884920 -0.813258 0.380378
-0.859747 -0.787130 0.383708
-0.835753 -0.759990 0.387692
-0.811759 -0.732851 0.391675
-0.788019 -0.705522 0.395789
-0.765874 -0.677002 0.400722
-0.717862 -0.613812 0.411910
-0.698129 -0.583781 0.417979
-0.678396 -0.553750 0.424048
-0.659456 -0.523324 0.430453
-0.642896 -0.491719 0.437865
-0.626336 -0.460113 0.445277
-0.595744 -0.388510 0.463756
-0.583334 -0.355435 0.472711
-0.572846 -0.321978 0.482272
-0.565692 -0.287857 0.492887
-0.558538 -0.253735 0.503502
-0.553392 -0.219547 0.514630
-0.551269 -0.144022 0.541465
-0.553460 -0.110138 0.554270
-0.559012 -0.076727 0.567723
-0.564563 -0.043316 0.581176
-0.572793 -0.010758 0.594972
-0.584377 0.020731 0.609198
-0.612877 0.088513 0.640690
-0.629460 0.117523 0.655236
-0.646042 0.146532 0.669782
-0.664792 0.174092 0.684332
-0.685236 0.200519 0.698883
-0.705681 0.226946 0.713435
-0.755630 0.280941 0.745159
-0.778966 0.304955 0.759542
-0.803760 0.327524 0.773755
-0.829254 0.349397 0.787888
-0.854748 0.371270 0.802021
-0.881269 0.391970 0.815979
18 NaN NaN
-1.106123 -1.019013 0.359753
-1.022420 -0.946435 0.365645
-0.941518 -0.870905 0.373290
-0.864094 -0.792046 0.382987
-0.791057 -0.709434 0.395112
-0.723654 -0.622627 0.410129
-0.663598 -0.531230 0.428599
-0.613209 -0.435060 0.451152
-0.575461 -0.334449 0.478393
-0.553706 -0.230687 0.510672
-0.550771 -0.126322 0.547754
-0.567649 -0.024743 0.588654
-0.602874 0.071014 0.631916
-0.653318 0.159259 0.676164
-0.715525 0.239672 0.720442
-0.786547 0.312756 0.764214
-0.864145 0.379332 0.807230
-0.946700 0.440257 0.849408
