0.204246 0.204279 0.204781 0.206613 0.209516 0.210281 0.211045 0.211810 0.210740 0.210064 0.209880 0.209868 0.209855 0.209668 0.208889 0.207655 0.207048 0.206442 0.205835 0.205548 0.205367 0.205338 0.205336 0.205334 0.205312 0.205224 0.205084 0.204741 0.204398 0.204055 0.203172 0.202614 0.202460 0.202450 0.202440 0.202281 0.201423 0.200062 0.198356 0.196650 0.194944 0.193074 0.191895 0.191633 0.191616 
0.204226 0.204180 0.203700 0.201926 0.199240 0.196796 0.194353 0.191909 0.189677 0.188203 0.187832 0.187796 0.187761 0.187393 0.186036 0.183981 0.182140 0.180299 0.178458 0.176861 0.175806 0.175546 0.175521 0.175496 0.175240 0.174318 0.172923 0.171695 0.170468 0.169240 0.168110 0.167363 0.167172 0.167154 
0.204245 0.204273 0.204727 0.204648 0.204522 0.200071 0.195619 0.191168 0.186309 0.183243 0.182591 0.182551 0.182511 0.181873 0.179196 0.174953 0.171641 0.168328 0.165015 0.162440 0.160814 0.160494 0.160475 0.160455 0.160141 0.158841 0.156781 0.155213 0.153644 0.152076 0.150766 0.149940 0.149764 0.149753 0.149743 0.149567 0.148745 0.147442 0.145816 0.144191 0.142566 0.140116 0.138570 0.138186 0.138162 0.138138 0.137750 0.135875 0.132903 0.130390 0.127877 0.125364 0.123641 0.122554 0.122364 0.122352 0.122341 0.122158 0.121462 0.120359 0.119651 0.118943 0.118234 0.117769 0.117475 0.117418 0.117414 0.117411 0.117356 0.117130 0.116772 0.116511 0.116250 0.115989 0.115784 0.115655 0.115629 0.115627 0.115626 0.115600 0.115487 0.115308 0.115147 0.114987 0.114827 0.114682 0.114591 0.114571 0.114570 0.114569 0.114550 0.114468 0.114337 0.114226 0.114116 0.114006 0.113919 0.113865 0.113854 0.113853 0.113853 0.113842 0.113798 0.113729 0.113675 0.113621 0.113567 0.113525 0.113498 0.113493 0.113492 0.113492 0.113487 0.113465 0.113430 0.113403 0.113376 0.113349 0.113328 0.113315 0.113312 0.113312 0.113312 0.113310 0.113299 0.113283 0.113272 0.113261 0.113249 0.113243 0.113238 0.113238 0.113238 
0.205321 0.205260 0.204924 0.204090 0.202981 0.201962 0.200943 0.199923 0.198970 0.198254 0.197989 0.197942 0.197895 0.197634 0.196986 0.196123 0.195291 0.194458 0.193625 0.192850 0.192267 0.192050 0.192011 0.191972 0.191758 0.191206 0.190472 0.189764 0.189056 0.188349 0.187678 0.187175 0.186983 0.186949 0.186915 0.186724 0.186251 0.185622 0.185044 0.184465 0.183886 0.183359 0.182963 0.182827 0.182803 0.182778 0.182644 0.182309 0.181863 0.181490 0.181117 0.180744 0.180437 0.180206 0.180115 0.180099 0.180082 0.179992 0.179785 0.179510 0.179269 0.179028 0.178787 0.178568 0.178403 0.178346 0.178335 0.178325 0.178266 0.178112 0.177908 0.177732 0.177556 0.177380 0.177224 0.177106 0.177060 0.177051 0.177043 0.176996 0.176889 0.176746 0.176612 0.176478 0.176343 0.176221 0.176130 0.176097 0.176091 
0.209841 0.209735 0.209183 0.207803 0.205969 0.204251 0.202532 0.200814 0.199322 0.198200 0.197792 0.197714 0.197638 0.197242 0.196321 0.195096 0.194200 0.193304 0.192408 0.191657 0.191092 0.190874 0.190832 0.190790 0.190573 0.190024 0.189295 0.188575 0.187855 0.187135 0.186414 0.185871 0.185657 0.185616 0.185575 0.185360 0.184806 0.184070 0.183340 0.182611 0.181881 0.181161 0.180620 0.180412 0.180372 0.180334 0.180136 0.179644 0.178989 0.178414 0.177838 0.177262 0.176777 0.176412 0.176292 0.176269 0.176246 0.176128 0.175836 0.175448 0.175159 0.174869 0.174579 0.174362 0.174200 0.174141 0.174130 0.174119 0.174060 0.173922 0.173738 0.173603 0.173469 0.173335 0.173239 0.173166 0.173137 0.173131 0.173125 0.173095 0.173039 0.172964 0.172912 0.172860 0.172807 0.172775 0.172750 0.172740 0.172738 
0.187790 0.187768 0.187667 0.187406 0.187061 0.186675 0.186289 0.185903 0.185476 0.185154 0.185021 0.184991 0.184960 0.184824 0.184482 0.184029 0.183531 0.183033 0.182534 0.182031 0.181651 0.181506 0.181473 0.181441 0.181299 0.180933 0.180448 0.180014 0.179581 0.179148 0.178793 0.178526 0.178426 0.178404 0.178382 0.178285 0.178052 0.177744 0.177516 0.177288 0.177060 0.176832 0.176661 0.176591 0.176575 0.176559 0.176489 0.176313 0.176080 0.175857 0.175634 0.175411 0.175157 0.174965 0.174884 0.174866 0.174848 0.174765 0.174552 0.174268 0.173971 0.173674 0.173377 0.173065 0.172831 0.172736 0.172715 0.172693 0.172599 0.172366 0.172058 0.171750 0.171442 0.171134 0.170835 0.170610 0.170520 0.170499 0.170479 0.170389 0.170173 0.169888 0.169641 0.169393 0.169146 0.168981 0.168857 0.168808 0.168798 0.168787 0.168739 0.168634 0.168496 0.168384 0.168273 0.168162 0.168080 0.168019 0.167994 0.167989 0.167983 0.167958 0.167900 0.167823 0.167758 0.167692 0.167627 0.167570 0.167527 0.167509 0.167505 0.167502 0.167484 0.167440 0.167382 0.167333 0.167284 0.167235 0.167191 0.167159 0.167146 0.167143 0.167140 0.167127 0.167095 0.167051 0.167017 0.166983 0.166949 0.166919 0.166897 0.166889 0.166887 
0.167149 0.167133 0.167083 0.166975 0.166834 0.166692 0.166550 0.166408 0.166269 0.166163 0.166114 0.166097 0.166081 0.166032 0.165927 0.165789 0.165653 0.165516 0.165380 0.165247 0.165146 0.165099 0.165083 0.165067 0.165021 0.164920 0.164788 0.164658 0.164528 0.164398 0.164271 0.164174 0.164130 0.164115 0.164100 0.164055 0.163959 0.163833 0.163710 0.163588 0.163465 0.163344 0.163252 0.163210 0.163195 0.163181 0.163139 0.163048 0.162929 0.162815 0.162701 0.162587 0.162473 0.162387 0.162347 0.162334 0.162320 0.162280 0.162198 0.162089 0.161983 0.161876 0.161770 0.161663 0.161582 0.161546 0.161534 0.161522 0.161487 0.161413 0.161315 0.161218 0.161120 0.161022 0.160929 0.160858 0.160827 0.160817 0.160806 0.160776 0.160709 0.160621 0.160534 0.160447 0.160360 0.160289 0.160235 0.160223 0.160219 0.160215 0.160204 0.160179 0.160146 0.160120 0.160093 0.160066 0.160047 0.160033 0.160026 0.160023 0.160021 0.160014 0.159998 0.159978 0.159964 0.159951 0.159938 0.159925 0.159916 0.159912 0.159910 0.159909 0.159904 0.159896 0.159884 0.159878 0.159872 0.159866 0.159859 0.159853 0.159851 0.159850 0.159849 0.159846 0.159844 0.159842 0.159839 0.159835 0.159832 0.159825 0.159820 0.159820 0.159820 0.159820 0.159820 0.159819 0.159818 0.159815 0.159811 0.159808 0.159808 0.159808 0.159808 0.159809 0.159809 0.159810 0.159811 0.159812 0.159812 0.159813 0.159813 0.159819 0.159823 0.159825 0.159825 0.159826 0.159828 0.159831 0.159835 0.159841 0.159847 0.159854 0.159863 0.159870 0.159873 0.159874 
