0.197145 0.197173 0.197542 0.199075 0.201503 0.203449 0.205394 0.207339 0.208886 0.209862 0.210051 0.210065 0.210079 0.210265 0.210963 0.212068 0.212641 0.213213 0.213785 0.213773 0.213765 0.213733 0.213730 0.213728 0.213693 0.213407 0.212954 0.211983 0.211012 0.210042 0.208651 0.207774 0.207568 0.207552 0.207537 0.207324 0.206273 0.204608 0.202730 0.200853 0.198976 0.196918 0.195620 0.195334 0.195312 0.195291 0.195003 0.193652 0.191512 0.189336 0.187160 0.184984 0.182857 0.181514 0.181226 0.181204 0.181183 0.180895 0.179632 0.177631 0.175848 0.174064 0.172281 0.170745 0.169775 0.169577 0.169562 0.169548 0.169352 0.168510 0.167176 0.165978 0.164780 0.163583 0.162451 0.161737 0.161580 0.161568 0.161556 0.161399 0.160688 0.159560 0.158406 0.157252 0.156098 0.154925 0.154184 0.154022 0.154010 0.153998 0.153836 0.153104 0.151944 0.150817 0.149690 0.148563 0.147489 0.146811 0.146665 0.146654 0.146643 0.146499 0.145854 0.144832 0.143874 0.142916 0.141958 0.141065 0.140502 0.140381 0.140372 
0.197129 0.197089 0.196712 0.195681 0.194285 0.193035 0.191786 0.190536 0.189423 0.188602 0.188327 0.188299 0.188270 0.187997 0.187244 0.186225 0.185282 0.184339 0.183396 0.182509 0.181855 0.181632 0.181609 0.181585 0.181364 0.180740 0.179895 0.179101 0.178308 0.177515 0.176766 0.176214 0.176025 0.176005 0.175986 0.175798 0.175275 0.174566 0.173894 0.173222 0.172549 0.171907 0.171433 0.171270 0.171253 0.171236 0.171075 0.170620 0.170003 0.169410 0.168816 0.168222 0.167653 0.167232 0.167088 0.167073 0.167058 0.166914 0.166509 0.165961 0.165435 0.164910 0.164384 0.163882 0.163512 0.163384 0.163371 0.163358 0.163231 0.162875 0.162392 0.161927 0.161461 0.160996 0.160545 0.160213 0.160098 0.160086 0.160074 0.159959 0.159634 0.159193 0.158762 0.158330 0.157898 0.157472 0.157158 0.157049 0.157038 0.157026 0.156917 0.156608 0.156188 0.155775 0.155362 0.154949 0.154544 0.154245 0.154141 0.154130 0.154120 0.154016 0.153723 0.153326 0.152938 0.152550 0.152162 0.151783 0.151504 0.151407 0.151397 0.151387 0.151290 0.151017 0.150646 0.150286 0.149926 0.149566 0.149213 0.148953 0.148864 0.148854 0.148845 0.148755 0.148502 0.148158 0.147822 0.147487 0.147152 0.146824 0.146582 0.146499 0.146490 0.146481 0.146398 0.146161 0.145841 0.145527 0.145213 0.144900 0.144593 0.144366 0.144288 0.144280 
0.197148 0.197184 0.197703 0.198835 0.200627 0.199389 0.198151 0.196913 0.194744 0.193375 0.193049 0.193027 0.193004 0.192679 0.191146 0.188715 0.186401 0.184087 0.181772 0.179771 0.178508 0.178249 0.178231 0.178213 0.177958 0.176867 0.175139 0.173594 0.172049 0.170504 0.168919 0.167919 0.167685 0.167669 0.167652 0.167415 0.166213 0.164310 0.161520 0.158729 0.155939 0.152450 0.150247 0.149758 0.149724 0.149691 0.149208 0.146826 0.143054 0.139217 0.135381 0.131545 0.128795 0.127059 0.126744 0.126723 0.126702 0.126402 0.125288 0.123523 0.122504 0.121485 0.120466 0.119849 0.119460 0.119389 0.119384 0.119379 0.119305 0.119021 0.118571 0.118242 0.117912 0.117582 0.117326 0.117165 0.117133 0.117131 0.117128 0.117097 0.116962 0.116748 0.116571 0.116394 0.116217 0.116070 0.115978 0.115959 0.115958 0.115956 0.115938 0.115858 0.115733 0.115628 0.115522 0.115417 0.115329 0.115273 0.115262 0.115261 0.115260 0.115249 0.115200 0.115123 0.115057 0.114990 0.114924 0.114867 0.114831 0.114824 0.114823 0.114823 0.114815 0.114783 0.114733 0.114689 0.114646 0.114602 0.114565 0.114541 0.114537 0.114536 0.114536 0.114531 0.114510 0.114478 0.114450 0.114422 0.114394 0.114370 0.114355 0.114352 0.114352 
0.146651 0.146639 0.146574 0.146410 0.146193 0.145977 0.145761 0.145545 0.145330 0.145168 0.145105 0.145092 0.145080 0.145017 0.144856 0.144642 0.144431 0.144220 0.144009 0.143803 0.143648 0.143588 0.143576 0.143564 0.143504 0.143354 0.143153 0.142991 0.142829 0.142667 0.142520 0.142409 0.142366 0.142358 0.142350 0.142309 0.142213 0.142086 0.141971 0.141856 0.141740 0.141635 0.141556 0.141529 0.141524 0.141519 0.141491 0.141422 0.141330 0.141251 0.141171 0.141092 0.141025 0.140974 0.140955 0.140952 0.140948 0.140929 0.140883 0.140822 0.140769 0.140717 0.140665 0.140621 0.140588 0.140575 0.140572 
0.169555 0.169526 0.169420 0.169174 0.168849 0.168532 0.168214 0.167897 0.167586 0.167351 0.167253 0.167226 0.167199 0.167101 0.166872 0.166570 0.166275 0.165981 0.165686 0.165398 0.165180 0.165090 0.165065 0.165040 0.164950 0.164741 0.164464 0.164195 0.163927 0.163658 0.163401 0.163207 0.163125 0.163103 0.163081 0.162999 0.162819 0.162582 0.162375 0.162168 0.161962 0.161766 0.161617 0.161561 0.161546 0.161531 0.161475 0.161345 0.161174 0.161016 0.160858 0.160701 0.160563 0.160459 0.160415 0.160403 0.160391 0.160347 0.160252 0.160127 0.160019 0.159911 0.159803 0.159703 0.159628 0.159601 0.159594 0.159587 0.159560 0.159497 0.159413 0.159338 0.159262 0.159187 0.159122 0.159072 0.159051 0.159045 0.159039 0.159017 0.158975 0.158920 0.158872 0.158824 0.158775 0.158733 0.158701 0.158690 0.158687 0.158684 0.158673 0.158646 0.158611 0.158583 0.158556 0.158528 0.158506 0.158489 0.158482 0.158480 0.158478 0.158470 0.158459 0.158445 0.158432 0.158419 0.158405 0.158399 0.158395 0.158393 0.158393 0.158393 0.158392 0.158389 0.158384 0.158385 0.158386 0.158386 0.158388 0.158390 0.158391 0.158391 
0.181194 0.181153 0.180980 0.180565 0.180015 0.179487 0.178958 0.178430 0.177926 0.177545 0.177391 0.177355 0.177318 0.177165 0.176805 0.176327 0.175872 0.175417 0.174961 0.174540 0.174222 0.174094 0.174064 0.174033 0.173906 0.173606 0.173208 0.172853 0.172497 0.172142 0.171832 0.171598 0.171507 0.171485 0.171463 0.171373 0.171158 0.170873 0.170629 0.170384 0.170139 0.169914 0.169744 0.169683 0.169669 0.169654 0.169594 0.169448 0.169254 0.169087 0.168919 0.168751 0.168598 0.168482 0.168435 0.168424 0.168414 0.168375 0.168282 0.168158 0.168040 0.167921 0.167803 0.167702 0.167626 0.167595 0.167588 0.167580 0.167549 0.167486 0.167402 0.167325 0.167249 0.167172 0.167114 0.167070 0.167051 0.167047 0.167042 0.167023 0.166980 0.166923 0.166879 0.166835 0.166791 0.166756 0.166729 0.166720 0.166717 0.166715 0.166705 0.166681 0.166648 0.166625 0.166602 0.166578 0.166558 0.166543 0.166539 0.166539 0.166538 0.166534 0.166525 0.166512 0.166504 0.166495 0.166487 0.166480 0.166475 0.166473 0.166472 
0.195297 0.195236 0.194922 0.194141 0.193104 0.192138 0.191172 0.190206 0.189318 0.188649 0.188396 0.188347 0.188298 0.188048 0.187424 0.186596 0.185822 0.185049 0.184276 0.183558 0.183017 0.182807 0.182766 0.182725 0.182518 0.182020 0.181359 0.180750 0.180141 0.179532 0.178968 0.178544 0.178392 0.178362 0.178333 0.178182 0.177808 0.177311 0.176876 0.176441 0.176006 0.175631 0.175349 0.175245 0.175224 0.175204 0.175101 0.174853 0.174524 0.174245 0.173965 0.173685 0.173445 0.173264 0.173193 0.173179 0.173166 0.173095 0.172944 0.172742 0.172561 0.172379 0.172198 0.172035 0.171913 0.171871 0.171863 0.171855 0.171813 0.171702 0.171555 0.171433 0.171311 0.171189 0.171088 0.171012 0.170983 0.170977 0.170971 0.170942 0.170874 0.170784 0.170707 0.170629 0.170552 0.170487 0.170438 0.170418 0.170415 0.170411 0.170395 0.170356 0.170304 0.170256 0.170209 0.170162 0.170121 0.170089 0.170079 0.170077 
0.207530 0.207442 0.207132 0.206428 0.205499 0.204620 0.203741 0.202862 0.202042 0.201421 0.201161 0.201088 0.201015 0.200758 0.200175 0.199406 0.198673 0.197941 0.197208 0.196509 0.195979 0.195756 0.195692 0.195630 0.195409 0.194908 0.194247 0.193622 0.192997 0.192372 0.191790 0.191348 0.191161 0.191108 0.191055 0.190869 0.190446 0.189887 0.189355 0.188824 0.188292 0.187784 0.187399 0.187236 0.187190 0.187144 0.186983 0.186621 0.186142 0.185668 0.185193 0.184718 0.184277 0.183944 0.183803 0.183763 0.183723 0.183583 0.183264 0.182841 0.182445 0.182049 0.181653 0.181274 0.180986 0.180864 0.180829 0.180795 0.180673 0.180409 0.180061 0.179724 0.179387 0.179050 0.178744 0.178512 0.178415 0.178387 0.178360 0.178264 0.178043 0.177753 0.177493 0.177233 0.176974 0.176736 0.176555 0.176480 0.176458 0.176437 0.176362 0.176210 0.176010 0.175822 0.175634 0.175446 0.175286 0.175165 0.175117 0.175103 0.175089 0.175041 0.174931 0.174785 0.174659 0.174533 0.174407 0.174292 0.174205 0.174168 0.174157 0.174146 0.174109 0.174036 0.173941 0.173850 0.173760 0.173669 0.173590 0.173530 0.173507 0.173500 0.173494 0.173470 0.173415 0.173341 0.173277 0.173212 0.173148 0.173088 0.173043 0.173023 0.173017 0.173011 0.172991 0.172952 0.172900 0.172852 0.172805 0.172757 0.172715 0.172683 0.172672 0.172668 0.172665 0.172654 0.172625 0.172587 0.172553 0.172520 0.172486 0.172456 0.172434 0.172424 0.172422 0.172419 0.172409 0.172390 0.172365 0.172343 0.172321 0.172299 0.172279 0.172264 0.172259 0.172258 0.172256 0.172251 0.172239 0.172224 0.172210 0.172196 0.172182 0.172170 0.172161 0.172157 0.172156 
0.210050 0.209990 0.209685 0.208899 0.207855 0.206799 0.205743 0.204688 0.203660 0.202886 0.202585 0.202525 0.202466 0.202166 0.201418 0.200423 0.199467 0.198511 0.197556 0.196649 0.195967 0.195707 0.195656 0.195605 0.195347 0.194709 0.193860 0.193069 0.192278 0.191487 0.190755 0.190205 0.189994 0.189953 0.189911 0.189703 0.189190 0.188508 0.187882 0.187256 0.186630 0.186050 0.185613 0.185444 0.185410 0.185377 0.185209 0.184795 0.184246 0.183716 0.183186 0.182656 0.182135 0.181743 0.181590 0.181560 0.181529 0.181376 0.180990 0.180476 0.179981 0.179485 0.178990 0.178517 0.178162 0.178022 0.177995 0.177967 0.177828 0.177487 0.177034 0.176608 0.176182 0.175756 0.175360 0.175062 0.174946 0.174923 0.174902 0.174795 0.174534 0.174186 0.173880 0.173574 0.173268 0.173013 0.172821 0.172758 0.172746 0.172733 0.172671 0.172518 0.172315 0.172164 0.172013 0.171862 0.171752 0.171669 0.171639 0.171633 0.171627 0.171597 0.171530 0.171442 0.171372 0.171303 0.171233 0.171186 0.171151 0.171136 0.171133 0.171130 0.171114 0.171088 0.171053 0.171019 0.170984 0.170950 0.170922 0.170901 0.170898 0.170897 0.170896 0.170892 0.170880 0.170864 0.170854 0.170844 0.170835 0.170829 0.170826 0.170825 0.170825 0.170825 0.170824 0.170821 0.170818 0.170820 0.170822 0.170823 0.170830 0.170835 0.170837 0.170837 
0.181603 0.181580 0.181462 0.181153 0.180742 0.180303 0.179864 0.179425 0.178961 0.178613 0.178472 0.178445 0.178417 0.178277 0.177920 0.177446 0.176964 0.176481 0.175998 0.175518 0.175156 0.175019 0.174992 0.174966 0.174831 0.174494 0.174045 0.173632 0.173220 0.172807 0.172428 0.172143 0.172037 0.172016 0.171995 0.171890 0.171674 0.171387 0.171124 0.170862 0.170599 0.170335 0.170137 0.170059 0.170044 0.170028 0.169951 0.169749 0.169482 0.169209 0.168935 0.168662 0.168385 0.168177 0.168094 0.168078 0.168062 0.167979 0.167768 0.167487 0.167198 0.166908 0.166619 0.166336 0.166124 0.166041 0.166025 0.166009 0.165927 0.165724 0.165454 0.165209 0.164964 0.164718 0.164507 0.164348 0.164287 0.164275 0.164263 0.164203 0.164074 0.163903 0.163762 0.163621 0.163480 0.163367 0.163282 0.163249 0.163243 0.163238 0.163213 0.163153 0.163073 0.163010 0.162946 0.162883 0.162833 0.162795 0.162784 0.162782 0.162780 0.162770 0.162741 0.162703 0.162678 0.162653 0.162628 0.162610 0.162597 0.162592 0.162591 0.162590 0.162585 0.162575 0.162561 0.162553 0.162544 0.162536 0.162532 0.162530 0.162528 0.162528 0.162528 0.162526 0.162526 0.162525 0.162525 0.162524 0.162523 0.162523 0.162523 0.162522 0.162522 
0.157035 0.157026 0.156936 0.156654 0.156258 0.155847 0.155437 0.155026 0.154622 0.154334 0.154243 0.154234 0.154224 0.154134 0.153859 0.153473 0.153123 0.152773 0.152423 0.152105 0.151877 0.151808 0.151801 0.151794 0.151727 0.151555 0.151312 0.151182 0.151053 0.150923 0.150869 0.150831 0.150823 0.150822 0.150821 0.150813 0.150804 0.150791 0.150810 0.150828 0.150846 0.150886 0.150914 0.150926 0.150927 
