0.138110 0.138119 0.138210 0.138569 0.139116 0.139695 0.140274 0.140853 0.141467 0.141871 0.141978 0.141989 0.141999 0.142107 0.142532 0.143178 0.143863 0.144548 0.145233 0.145961 0.146441 0.146568 0.146580 0.146592 0.146720 0.147226 0.147995 0.148813 0.149631 0.150449 0.151324 0.151900 0.152053 0.152068 0.152083 0.152237 0.152847 0.153775 0.154757 0.155740 0.156723 0.157758 0.158440 0.158620 0.158638 0.158655 0.158836 0.159541 0.160611 0.161716 0.162821 0.163926 0.165055 0.165799 0.165993 0.166012 0.166031 0.166226 0.166986 0.168141 0.169337 0.170534 0.171730 0.172975 0.173795 0.174011 0.174032 0.174053 0.174270 0.175129 0.176435 0.177812 0.179188 0.180565 0.182023 0.182983 0.183237 0.183262 0.183286 0.183540 0.184533 0.186041 0.187578 0.189116 0.190653 0.192203 0.193223 0.193486 0.193511 0.193536 0.193797 0.194795 0.196310 0.197762 0.199214 0.200666 0.202027 0.202923 0.203140 0.203161 0.203182 0.203400 0.204187 0.205383 0.206317 0.207251 0.208185 0.208793 0.209193 0.209277 0.209285 0.209292 0.209372 0.209575 0.209884 0.209901 0.209918 0.209935 0.209761 0.209647 0.209606 0.209602 0.209598 0.209555 0.209350 0.209037 0.208630 0.208222 0.207814 0.207336 0.207020 0.206935 0.206927 0.206919 0.206832 0.206481 0.205948 0.205323 0.204697 0.204072 0.203353 0.202880 0.202750 0.202737 0.202725 0.202592 0.202054 0.201236 0.200291 0.199347 0.198402 0.197345 0.196650 0.196463 0.196445 0.196426 0.196237 0.195485 0.194343 0.193119 0.191895 0.190671 0.189387 0.188542 0.188320 0.188298 0.188277 0.188055 0.187200 0.185900 0.184627 0.183355 0.182082 0.180863 0.180061 0.179858 0.179838 0.179819 0.179616 0.178856 0.177702 0.176630 0.175559 0.174488 0.173493 0.172838 0.172674 0.172658 0.172642 0.172478 0.171865 0.170933 0.170058 0.169184 0.168309 0.167481 0.166936 0.166798 0.166785 0.166771 0.166634 0.166111 0.165316 0.164550 0.163784 0.163018 0.162278 0.161792 0.161667 0.161655 0.161643 0.161519 0.161043 0.160320 0.159617 0.158915 0.158212 0.157524 0.157070 0.156954 0.156943 0.156931 0.156815 0.156369 0.155693 0.155032 0.154372 0.153711 0.153069 0.152646 0.152538 0.152527 0.152517 0.152408 0.152000 0.151379 0.150784 0.150190 0.149596 0.149029 0.148656 0.148561 0.148552 0.148543 0.148449 0.148093 0.147552 0.147035 0.146519 0.146002 0.145508 0.145182 0.145099 0.145091 
0.166011 0.166007 0.165994 0.165962 0.165920 0.165871 0.165822 0.165773 0.165715 0.165671 0.165650 0.165644 0.165637 0.165615 0.165565 0.165499 0.165427 0.165354 0.165282 0.165202 0.165141 0.165113 0.165104 0.165095 0.165066 0.165002 0.164917 0.164825 0.164734 0.164643 0.164547 0.164474 0.164441 0.164431 0.164420 0.164387 0.164309 0.164208 0.164102 0.163996 0.163891 0.163782 0.163699 0.163661 0.163649 0.163637 0.163599 0.163512 0.163398 0.163281 0.163163 0.163046 0.162924 0.162832 0.162790 0.162777 0.162763 0.162721 0.162627 0.162502 0.162373 0.162245 0.162117 0.161986 0.161887 0.161842 0.161828 0.161814 0.161769 0.161667 0.161533 0.161396 0.161259 0.161122 0.160982 0.160875 0.160826 0.160811 0.160796 0.160747 0.160638 0.160493 0.160346 0.160199 0.160052 0.159901 0.159786 0.159734 0.159717 0.159701 0.159648 0.159529 0.159372 0.159265 0.159157 0.159049 0.159010 0.158981 0.158967 0.158963 0.158958 0.158945 0.158913 0.158871 0.158827 0.158783 0.158739 0.158693 0.158658 0.158642 0.158637 0.158631 0.158615 0.158578 0.158530 0.158482 0.158434 0.158386 0.158337 0.158300 0.158283 0.158278 0.158273 0.158257 0.158220 0.158171 0.158123 0.158074 0.158026 0.157978 0.157941 0.157925 0.157920 0.157915 0.157899 0.157863 0.157815 0.157767 0.157720 0.157673 0.157626 0.157591 0.157576 0.157571 0.157566 0.157550 0.157515 0.157470 0.157425 0.157381 0.157336 0.157293 0.157259 0.157245 0.157240 
0.203149 0.203100 0.202757 0.201814 0.200558 0.199236 0.197915 0.196594 0.195258 0.194257 0.193881 0.193828 0.193775 0.193402 0.192421 0.191112 0.189852 0.188592 0.187332 0.186124 0.185219 0.184890 0.184843 0.184797 0.184471 0.183609 0.182458 0.181380 0.180302 0.179224 0.178210 0.177450 0.177176 0.177137 0.177098 0.176826 0.176112 0.175159 0.174674 0.174190 0.173705 0.173339 0.173065 0.172962 0.172947 0.172933 0.172830 0.172556 0.172191 0.171847 0.171504 0.171160 0.170841 0.170602 0.170514 0.170502 
0.206910 0.206842 0.206524 0.205741 0.204702 0.203686 0.202670 0.201654 0.200669 0.199927 0.199630 0.199567 0.199503 0.199205 0.198478 0.197512 0.196580 0.195648 0.194717 0.193819 0.193142 0.192872 0.192814 0.192757 0.192490 0.191834 0.190964 0.190116 0.189269 0.188421 0.187602 0.186986 0.186741 0.186688 0.186637 0.186394 0.185798 0.185006 0.184249 0.183491 0.182734 0.182018 0.181479 0.181268 0.181223 0.181178 0.180968 0.180456 0.179777 0.179313 0.178849 0.178385 0.178076 0.177844 0.177749 0.177729 0.177709 0.177614 0.177374 0.177056 0.176738 0.176420 0.176102 0.175794 0.175562 0.175470 0.175450 0.175431 0.175339 0.175113 0.174813 0.174527 0.174241 0.173955 0.173684 0.173480 0.173398 0.173381 0.173364 0.173283 0.173086 0.172823 0.172577 0.172331 0.172084 0.171851 0.171676 0.171607 0.171592 
0.166780 0.166761 0.166663 0.166409 0.166070 0.165719 0.165367 0.165016 0.164651 0.164376 0.164267 0.164246 0.164226 0.164116 0.163835 0.163461 0.163075 0.162689 0.162303 0.161905 0.161606 0.161488 0.161466 0.161444 0.161327 0.161020 0.160612 0.160250 0.159888 0.159525 0.159321 0.159168 0.159107 0.159096 0.159085 0.159024 0.158868 0.158661 0.158452 0.158244 0.158035 0.157828 0.157672 0.157611 0.157600 0.157589 0.157528 0.157375 0.157170 0.156973 0.156776 0.156579 0.156391 0.156249 0.156195 0.156184 0.156174 0.156119 0.155983 0.155802 0.155628 0.155455 0.155281 0.155114 0.154988 0.154940 0.154932 
