-1.769397 0.458496 17.574775
-1.771010 0.461361 17.563943
-1.772623 0.464227 17.553111
-1.848917 0.599736 17.040857
-1.924479 0.733940 16.533541
-1.999953 0.868105 16.026201
-2.075100 1.002125 15.518778
-1.773643 0.466039 17.546260
-1.848632 0.599229 17.042770
-1.849202 0.600242 17.038943
-1.924194 0.733433 16.535454
-1.924764 0.734446 16.531627
-1.999667 0.867598 16.028115
-2.000240 0.868612 16.024288
-2.074829 1.001625 15.520695
-1.777730 0.473299 17.518815
-1.844545 0.591969 17.070215
-1.853290 0.607502 17.011498
-1.920103 0.726172 16.562898
-1.928855 0.741707 16.504183
-1.995577 0.860337 16.055559
-2.004342 0.875878 15.996847
-2.070939 0.994452 15.548192
-1.786525 0.488921 17.459757
-1.796369 0.506406 17.393660
-1.806214 0.523891 17.327563
-1.816059 0.541376 17.261466
-1.825904 0.558861 17.195370
-1.835749 0.576346 17.129273
-1.862084 0.623124 16.952440
-1.871926 0.640608 16.886342
-1.881768 0.658092 16.820245
-1.891610 0.675576 16.754148
-1.901454 0.693060 16.688051
-1.911301 0.710546 16.621955
-1.937658 0.757333 16.445127
-1.947504 0.774819 16.379030
-1.957343 0.792301 16.312932
-1.967167 0.809777 16.246830
-1.976980 0.827248 16.180725
-1.986796 0.844721 16.114621
-2.013179 0.891519 15.937800
-2.023137 0.909054 15.871733
-2.033091 0.926588 15.805666
-2.043017 0.944108 15.739591
-2.052830 0.961579 15.673486
-2.062443 0.978962 15.607328
-2.491903 1.428136 14.415781
-3.800621 1.750889 14.362343
-5.107702 2.056119 14.277704
-5.785750 3.173329 14.204648
-6.313193 4.423613 14.140548
-7.011764 5.584970 14.068160
-7.940828 6.568101 13.986111
-9.095053 7.271972 13.897636
-10.384867 7.681760 13.808959
-11.729457 7.850398 13.723635
-13.085399 7.844893 13.642395
-2.075372 1.002625 15.516860
-2.490199 1.427132 14.416075
-2.493607 1.429141 14.415487
-3.798643 1.750612 14.362452
-3.802599 1.751166 14.362235
-5.105919 2.055221 14.277827
-5.109489 2.057008 14.277581
-5.785057 3.171455 14.204738
-5.786443 3.175203 14.204557
-6.312288 4.421832 14.140648
-6.314098 4.425393 14.140447
-7.010595 5.583351 14.068273
-7.012933 5.586588 14.068047
-7.939252 6.566877 13.986238
-7.942404 6.569326 13.985983
-9.093242 7.271134 13.897768
-9.096864 7.272811 13.897505
-10.382906 7.681388 13.809087
-10.386828 7.682132 13.808831
-11.727465 7.850272 13.723758
-11.731449 7.850524 13.723512
-13.083407 7.845027 13.642511
-2.079262 1.009798 15.489364
-2.465760 1.412722 14.420285
-2.518769 1.442847 14.415148
-3.770280 1.746641 14.364003
-3.830962 1.755138 14.360684
-5.080350 2.042347 14.279589
-5.135157 2.069686 14.275824
-5.775119 3.144581 14.206034
-5.796381 3.202077 14.203261
-6.299726 4.396087 14.142073
-6.327077 4.450929 14.139002
-6.993827 5.560137 14.069892
-7.029700 5.609802 14.066427
-7.917004 6.548869 13.988061
-7.965005 6.586889 13.984150
-9.067269 7.259115 13.899657
-9.122837 7.284830 13.895616
-10.354833 7.675808 13.810925
-10.414949 7.687471 13.806997
-11.698894 7.848465 13.725522
-11.760019 7.852331 13.721748
-13.054830 7.846815 13.644178
-2.097479 1.042719 15.364098
-2.130498 1.096703 15.166778
-2.159732 1.149012 14.968482
-2.173587 1.194397 14.766817
-2.225349 1.255918 14.578551
-2.358377 1.347695 14.453842
-2.635132 1.502299 14.418202
-2.828323 1.576210 14.419577
-3.028753 1.626525 14.405797
-3.232099 1.664298 14.393325
-3.436460 1.696956 14.382754
-3.641021 1.728021 14.371251
-3.960285 1.773358 14.353566
-4.164851 1.804139 14.341431
-4.369711 1.832234 14.328149
-4.575507 1.852213 14.314566
-4.777034 1.895470 14.300902
-4.964423 1.982341 14.287668
-5.250380 2.130911 14.267779
-5.406785 2.263820 14.255066
-5.513055 2.440452 14.243248
-5.590056 2.632405 14.232220
-5.658034 2.827885 14.221822
-5.729378 3.022191 14.212014
-5.841688 3.324632 14.197368
-5.915841 3.517900 14.187924
-5.994356 3.709428 14.178243
-6.075237 3.899966 14.168441
-6.157883 4.089739 14.158553
-6.243329 4.278257 14.148525
-6.386953 4.567022 14.132380
-6.484033 4.749794 14.121780
-6.583048 4.931516 14.111088
-6.688346 5.109631 14.100100
-6.800921 5.283229 14.088776
-6.918107 5.453744 14.077247
-7.107407 5.714743 14.058986
-7.236589 5.876281 14.046944
-7.375109 6.029872 14.034530
-7.518073 6.179355 14.021948
-7.663979 6.325938 14.009261
-7.816737 6.465307 13.996339
-8.068845 6.665965 13.975774
-8.236094 6.787583 13.962433
-8.405342 6.906390 13.949042
-8.580834 7.015642 13.935527
-8.763893 7.111737 13.921907
-8.949457 7.202964 13.908267
-9.242440 7.337046 13.887004
-9.434931 7.412505 13.873376
-9.630701 7.479025 13.859797
-9.828186 7.540332 13.846258
-10.026549 7.598717 13.832747
-10.227099 7.648991 13.819328
-10.543264 7.711398 13.798638
-10.746966 7.747072 13.785433
-10.951304 7.778918 13.772295
-11.156473 7.804879 13.759270
-11.362423 7.823810 13.746391
-11.568663 7.839418 13.733586
-11.890416 7.858598 13.713750
-12.097192 7.863707 13.701200
-12.304038 7.865020 13.688749
-12.510890 7.864152 13.676356
-12.717725 7.861157 13.664023
-12.924459 7.854028 13.651808
176 NaN NaN
-1.768590 0.457064 17.580191
-1.782918 0.482514 17.483979
-1.797247 0.507965 17.387767
-1.811577 0.533416 17.291556
-1.825908 0.558868 17.195345
-1.840238 0.584320 17.099133
-1.854567 0.609771 17.002922
-1.868894 0.635221 16.906709
-1.883219 0.660670 16.810497
-1.897547 0.686120 16.714285
-1.911879 0.711573 16.618074
-1.926219 0.737029 16.521865
-1.940560 0.762485 16.425657
-1.954889 0.787936 16.329445
-1.969190 0.813374 16.233226
-1.983469 0.838803 16.137001
-1.997773 0.864244 16.040783
-2.012156 0.889718 15.944585
-2.026651 0.915242 15.848418
-2.041138 0.940763 15.752248
-2.055422 0.966194 15.656025
-2.069311 0.991451 15.559698
-2.082948 1.016596 15.463305
-2.097014 1.041931 15.367024
-2.112245 1.067778 15.271058
-2.129002 1.094293 15.175529
-2.145357 1.120633 15.079883
-2.158566 1.145586 14.983393
-2.166205 1.168029 14.885700
-2.171145 1.189232 14.787541
-2.182556 1.213372 14.690676
-2.210947 1.244728 14.599771
-2.262522 1.284802 14.523779
-2.330964 1.330627 14.466525
-2.410223 1.379975 14.429855
-2.495754 1.430407 14.415118
-2.584162 1.478194 14.415234
-2.674916 1.521114 14.420518
-2.768562 1.557570 14.422116
-2.864447 1.587477 14.418041
-2.961646 1.612160 14.410915
-3.059690 1.633148 14.403438
-3.158312 1.651716 14.397256
-3.257291 1.668594 14.391983
-3.356452 1.684467 14.386996
-3.455660 1.699953 14.381737
-3.554894 1.715165 14.376171
-3.654181 1.729985 14.370499
-3.753548 1.744298 14.364918
-3.852978 1.758221 14.359479
-3.952398 1.772205 14.354016
-4.051729 1.786730 14.348345
-4.150921 1.802033 14.342319
-4.250142 1.817031 14.335989
-4.349605 1.830217 14.329474
-4.449430 1.840235 14.322895
-4.549385 1.848900 14.316306
-4.648897 1.861522 14.309680
-4.746632 1.883868 14.303031
-4.840306 1.919618 14.296472
-4.930235 1.964097 14.290082
-5.018771 2.011342 14.283831
-5.108402 2.056471 14.277656
-5.198380 2.100913 14.271494
-5.285268 2.151038 14.265286
-5.363813 2.213260 14.259067
-5.428722 2.289631 14.253024
-5.481368 2.375023 14.247256
-5.525116 2.465355 14.241722
-5.563095 2.558287 14.236339
-5.597419 2.652645 14.231095
-5.630061 2.747610 14.226003
-5.663107 2.842442 14.221063
-5.697490 2.936805 14.216265
-5.732629 3.030896 14.211581
-5.767861 3.124956 14.206981
-5.802700 3.219165 14.202436
-5.837475 3.313399 14.197911
-5.872751 3.407444 14.193366
-5.909075 3.501087 14.188766
-5.946571 3.594265 14.184101
-5.984950 3.687079 14.179389
-6.023911 3.779649 14.174646
-6.063230 3.872067 14.169886
-6.102932 3.964321 14.165108
-6.143091 4.056375 14.160308
-6.183794 4.148188 14.155480
-6.225265 4.239655 14.150614
-6.267829 4.330614 14.145693
-6.311811 4.420893 14.140702
-6.357310 4.510412 14.135636
-6.403892 4.599371 14.130519
-6.451049 4.688025 14.125373
-6.498348 4.776602 14.120221
-6.546058 4.864958 14.115049
-6.594835 4.952725 14.109826
-6.645327 5.039511 14.104522
-6.697830 5.125089 14.099125
-6.752031 5.209598 14.093650
-6.807564 5.293234 14.088114
-6.864098 5.376195 14.082534
-6.921471 5.458575 14.076918
-6.979591 5.540428 14.071268
-7.038371 5.621805 14.065589
-7.098029 5.702538 14.059873
-7.159188 5.782134 14.054092
-7.222478 5.860037 14.048224
-7.288298 5.935806 14.042254
-7.356105 6.009800 14.036208
-7.425107 6.082679 14.030116
-7.494575 6.155112 14.024008
-7.564426 6.227175 14.017885
-7.635231 6.298296 14.011729
-7.707568 6.367851 14.005519
-7.781842 6.435328 13.999243
-7.857956 6.500717 13.992908
-7.935719 6.564131 13.986525
-8.014949 6.625701 13.980101
-8.095333 6.685753 13.973647
-8.176472 6.744781 13.967174
-8.257981 6.803295 13.960692
-8.339776 6.861408 13.954202
-8.422511 6.918169 13.947691
-8.506909 6.972417 13.941146
-8.593514 7.023056 13.934564
-8.681974 7.070386 13.927958
-8.771538 7.115597 13.921342
-8.861543 7.159927 13.914724
-8.951654 7.204039 13.908106
-9.042097 7.247466 13.901487
-9.133148 7.289602 13.894866
-9.225035 7.329880 13.888245
-9.317807 7.368074 13.881627
-9.411442 7.404103 13.875017
-9.505910 7.437891 13.868418
-9.601085 7.469637 13.861832
-9.696727 7.499954 13.855259
-9.792611 7.529495 13.848691
-9.888590 7.558732 13.842127
-9.984812 7.587156 13.835570
-10.081504 7.613939 13.829030
-10.178842 7.638267 13.822519
-10.276789 7.660033 13.816042
-10.375140 7.679913 13.809593
-10.473720 7.698629 13.803163
-10.572412 7.716750 13.796742
-10.671215 7.734257 13.790331
-10.770153 7.750995 13.783934
-10.869244 7.766804 13.777553
-10.968513 7.781459 13.771193
-11.067985 7.794676 13.764860
-11.167673 7.806171 13.758562
-11.267555 7.815862 13.752302
-11.367559 7.824240 13.746071
-11.467621 7.831893 13.739856
-11.567699 7.839349 13.733645
-11.667800 7.846499 13.727442
-11.767956 7.852833 13.721257
-11.868189 7.857839 13.715105
-11.968491 7.861264 13.708991
-12.068832 7.863382 13.702911
-12.169189 7.864531 13.696856
-12.269554 7.865028 13.690818
-12.369921 7.865006 13.684795
-12.470287 7.864518 13.678784
-12.570651 7.863614 13.672784
-12.671010 7.862200 13.666799
-12.771355 7.859959 13.660837
-12.871669 7.856559 13.654908
-12.971928 7.851753 13.649020
-13.072126 7.845784 13.643168
-13.172279 7.839059 13.637338
-13.272408 7.831985 13.631519
-13.372541 7.824966 13.625699
-13.472704 7.818411 13.619864
-13.572919 7.812725 13.614003
