-2.133961 -1.308102 1.949837
-1.529766 -1.452539 3.233077
-0.972944 -1.556048 4.537874
-0.875002 -1.291427 5.934570
-0.785139 -1.019886 7.334695
-0.688662 -0.753185 8.735417
-2.133337 -1.308112 1.951737
-1.530706 -1.452253 3.231335
-1.528827 -1.452825 3.234820
-0.973370 -1.556199 4.535925
-0.972518 -1.555897 4.539822
-0.875045 -1.291867 5.932619
-0.874959 -1.290986 5.936520
-0.785312 -1.020231 7.332733
-0.784965 -1.019541 7.336658
-0.688715 -0.753619 8.733465
-2.123948 -1.308261 1.980324
-1.544890 -1.447906 3.205157
-1.514690 -1.457128 3.261031
-0.980417 -1.557961 4.506734
-0.966109 -1.553624 4.569134
-0.875616 -1.298545 5.903285
-0.874315 -1.284361 5.965864
-0.787916 -1.025423 7.303209
-0.782360 -1.014351 7.366182
-0.689510 -0.760134 8.704100
-2.079065 -1.310582 2.110352
-1.998413 -1.322385 2.312506
-1.908701 -1.342095 2.510208
-1.812495 -1.367605 2.704174
-1.712212 -1.396818 2.895543
-1.609817 -1.427968 3.085486
-1.450321 -1.476553 3.381086
-1.350393 -1.505441 3.572689
-1.254678 -1.530508 3.766955
-1.165472 -1.549771 3.964930
-1.085138 -1.561299 4.167231
-1.016507 -1.562905 4.374075
-0.939741 -1.540927 4.703552
-0.910288 -1.511290 4.917470
-0.892913 -1.472574 5.131293
-0.883848 -1.427754 5.344452
-0.879715 -1.379367 5.556993
-0.877424 -1.329658 5.769260
-0.870611 -1.254612 6.100158
-0.861640 -1.209721 6.313317
-0.849394 -1.167220 6.526804
-0.834573 -1.126610 6.740496
-0.817801 -1.087441 6.954313
-0.799712 -1.049246 7.168200
-0.770457 -0.990606 7.501195
-0.751956 -0.952718 7.715102
-0.734478 -0.914070 7.928958
-0.718662 -0.874194 8.142717
-0.705135 -0.832632 8.356311
-0.694513 -0.788945 8.569643
72 NaN NaN
-2.134117 -1.308099 1.949362
-2.102415 -1.308603 2.045890
-2.067826 -1.311535 2.141380
-2.030700 -1.316632 2.235822
-1.991366 -1.323641 2.329243
-1.950129 -1.332318 2.421700
-1.907269 -1.342433 2.513268
-1.863044 -1.353770 2.604041
-1.817691 -1.366125 2.694123
-1.771428 -1.379306 2.783624
-1.724462 -1.393130 2.872660
-1.676984 -1.407424 2.961351
-1.629177 -1.422020 3.049815
-1.581220 -1.436754 3.138175
-1.533286 -1.451467 3.226551
-1.485549 -1.465999 3.315064
-1.438185 -1.480188 3.403832
-1.391373 -1.493871 3.492971
-1.345301 -1.506878 3.582595
-1.300166 -1.519036 3.672814
-1.256178 -1.530160 3.763728
-1.213560 -1.540060 3.855433
-1.172553 -1.548534 3.948011
-1.133416 -1.555372 4.041527
-1.096425 -1.560353 4.136029
-1.061876 -1.563250 4.231535
-1.030080 -1.563832 4.328033
-1.001357 -1.561870 4.425470
-0.976032 -1.557143 4.523750
-0.954393 -1.549470 4.622722
-0.936369 -1.538960 4.722158
-0.921624 -1.525920 4.821837
-0.909800 -1.510660 4.921590
-0.900532 -1.493483 5.021304
-0.893459 -1.474679 5.120905
-0.888227 -1.454524 5.220356
-0.884491 -1.433280 5.319648
-0.881920 -1.411193 5.418794
-0.880191 -1.388500 5.517822
-0.878989 -1.365430 5.616770
-0.878005 -1.342203 5.715685
-0.876932 -1.319039 5.814613
-0.875462 -1.296161 5.913602
-0.873288 -1.273788 6.012693
-0.870252 -1.252037 6.111901
-0.866398 -1.230878 6.211207
-0.861786 -1.210271 6.310598
-0.856474 -1.190174 6.410058
-0.850524 -1.170544 6.509575
-0.843998 -1.151337 6.609139
-0.836960 -1.132507 6.708740
-0.829473 -1.114007 6.808370
-0.821603 -1.095791 6.908023
-0.813415 -1.077811 7.007693
-0.804975 -1.060018 7.107376
-0.796349 -1.042363 7.207067
-0.787604 -1.024796 7.306764
-0.778805 -1.007269 7.406463
-0.770020 -0.989732 7.506161
-0.761315 -0.972136 7.605856
-0.752756 -0.954431 7.705544
-0.744411 -0.936567 7.805222
-0.736344 -0.918497 7.904886
-0.728622 -0.900172 8.004531
-0.721310 -0.881544 8.104150
-0.714472 -0.862566 8.203737
-0.708172 -0.843193 8.303283
-0.702474 -0.823378 8.402778
-0.697439 -0.803079 8.502212
-0.693127 -0.782253 8.601570
-0.689599 -0.760858 8.700838
-0.686911 -0.738855 8.800000
-2.133782 -1.308137 1.948992
-1.631963 -1.364373 1.395518
-1.130145 -1.420608 0.842044
-0.628326 -1.476844 0.288570
-2.132443 -1.308287 1.947515
-1.633303 -1.364223 1.396996
-1.630624 -1.364523 1.394041
-1.131484 -1.420458 0.843521
-1.128805 -1.420759 0.840567
-0.629665 -1.476694 0.290047
-2.118715 -1.309825 1.932374
-1.647031 -1.362684 1.412136
-1.616896 -1.366061 1.378900
-1.145212 -1.418920 0.858662
-1.115077 -1.422297 0.825426
-0.643393 -1.475156 0.305188
-2.068805 -1.315419 1.877327
-1.994432 -1.323753 1.795298
-1.920059 -1.332088 1.713270
-1.845686 -1.340422 1.631241
-1.771313 -1.348757 1.549212
-1.696940 -1.357091 1.467183
-1.566987 -1.371654 1.323853
-1.492614 -1.379989 1.241824
-1.418240 -1.388323 1.159795
-1.343867 -1.396658 1.077767
-1.269494 -1.404992 0.995738
-1.195121 -1.413327 0.913709
-1.065168 -1.427890 0.770379
-0.990795 -1.436224 0.688350
-0.916422 -1.444559 0.606321
-0.842049 -1.452894 0.524293
-0.767676 -1.461228 0.442264
-0.693302 -1.469563 0.360235
26 NaN NaN
-2.134117 -1.308099 1.949362
-2.063420 -1.316022 1.871387
-1.992723 -1.323945 1.793413
-1.922026 -1.331867 1.715438
-1.851328 -1.339790 1.637464
-1.780631 -1.347712 1.559489
-1.709934 -1.355635 1.481515
-1.639237 -1.363558 1.403540
-1.568540 -1.371480 1.325566
-1.497843 -1.379403 1.247591
-1.427145 -1.387325 1.169617
-1.356448 -1.395248 1.091643
-1.285751 -1.403171 1.013668
-1.215054 -1.411093 0.935694
-1.144357 -1.419016 0.857719
-1.073660 -1.426938 0.779745
-1.002962 -1.434861 0.701770
-0.932265 -1.442784 0.623796
-0.861568 -1.450706 0.545821
-0.790871 -1.458629 0.467847
-0.720174 -1.466551 0.389872
-0.649477 -1.474474 0.311898
-0.578779 -1.482396 0.233923
-0.508082 -1.490319 0.155949
-0.437385 -1.498242 0.077974
-0.366688 -1.506164 0.000000
-2.134535 -1.308364 1.949291
-3.263927 -1.355811 1.140425
-3.718882 -0.569891 -0.068933
-4.004743 0.489986 -1.111312
-4.302048 1.547812 -2.155152
-4.594217 2.604839 -3.201270
-4.881610 3.660060 -4.250506
-5.222435 4.717567 -5.281115
-5.631831 5.713996 -6.346542
-6.149728 6.597991 -7.461934
-6.804623 7.307408 -8.627885
-7.594545 7.787465 -9.826341
-8.485430 8.023804 -11.027336
-2.136209 -1.309422 1.949007
-3.263115 -1.356729 1.142006
-3.264738 -1.354894 1.138844
-3.718494 -0.571116 -0.067401
-3.719271 -0.568666 -0.070466
-4.004338 0.488585 -1.109944
-4.005149 0.491388 -1.112680
-4.301660 1.546411 -2.153778
-4.302436 1.549213 -2.156526
-4.593837 2.603446 -3.199886
-4.594598 2.606231 -3.202655
-4.881202 3.658654 -4.249142
-4.882017 3.661465 -4.251869
-5.221949 4.716201 -5.279738
-5.222920 4.718933 -5.282493
-5.631229 5.712740 -6.345106
-5.632432 5.715251 -6.347978
-6.148962 6.596921 -7.460428
-6.150495 6.599061 -7.463439
-6.803669 7.306607 -8.626320
-6.805576 7.308210 -8.629450
-7.593431 7.786985 -9.824751
-7.595659 7.787945 -9.827931
-8.484204 8.023651 -11.025764
-2.162827 -1.326246 1.944488
-3.249294 -1.370627 1.167053
-3.277644 -1.340301 1.113694
-3.712120 -0.590284 -0.042830
-3.725449 -0.549179 -0.094840
-3.997881 0.466263 -1.088217
-4.011603 0.513681 -1.134436
-4.295489 1.524127 -2.131929
-4.308607 1.571496 -2.178374
-4.587783 2.581299 -3.177867
-4.600651 2.628378 -3.224674
-4.874718 3.636305 -4.227451
-4.888501 3.683814 -4.273560
-5.214227 4.694473 -5.257823
-5.230643 4.740662 -5.304407
-5.621661 5.692770 -6.322267
-5.642024 5.735197 -6.370829
-6.136772 6.579899 -7.436476
-6.162770 6.615976 -7.487422
-6.788505 7.293855 -8.601431
-6.820879 7.320728 -8.654372
-7.575711 7.779345 -9.799460
-7.613519 7.795243 -9.853225
-8.464765 8.020961 -11.000726
-2.286952 -1.397786 1.917834
-2.489886 -1.480571 1.845835
-2.690842 -1.525638 1.741765
-2.880443 -1.533832 1.610647
-3.048214 -1.502864 1.455437
-3.181073 -1.430522 1.281204
-3.334440 -1.271653 0.998152
-3.415872 -1.157304 0.814441
-3.490128 -1.039747 0.629705
-3.559634 -0.921754 0.443399
-3.624145 -0.801971 0.256449
-3.680879 -0.675319 0.071550
-3.752855 -0.457692 -0.205155
-3.793857 -0.302773 -0.371776
-3.834849 -0.138435 -0.529151
-3.877151 0.030047 -0.681755
-3.921810 0.197759 -0.834536
-3.968237 0.363107 -0.989354
-4.041116 0.615543 -1.234671
-4.087408 0.775999 -1.394596
-4.132970 0.936583 -1.554602
-4.177863 1.097919 -1.714041
-4.222484 1.259787 -1.873015
-4.267204 1.421854 -2.031759
-4.336919 1.673638 -2.278671
-4.381762 1.835200 -2.437894
-4.426535 1.996503 -2.597400
-4.471190 2.157657 -2.757089
-4.515675 2.318719 -2.916917
-4.559953 2.479715 -3.076871
-4.628378 2.729995 -3.325666
-4.672227 2.891136 -3.485591
-4.715925 3.052347 -3.645487
-4.759237 3.213260 -3.805787
-4.802155 3.373657 -3.966710
-4.845903 3.534296 -4.127165
-4.919172 3.786760 -4.372328
-4.969427 3.950254 -4.527920
-5.020564 4.113061 -4.683946
-5.072254 4.274584 -4.841118
-5.125002 4.435025 -4.999047
-5.179198 4.594471 -5.157491
-5.266622 4.839828 -5.405232
-5.324955 4.995727 -5.565722
-5.385103 5.149947 -5.727162
-5.447339 5.302241 -5.889635
-5.511699 5.452526 -6.053148
-5.578314 5.600615 -6.217757
-5.686864 5.825829 -6.476038
-5.759986 5.967277 -6.643695
-5.835893 6.105750 -6.812594
-5.914755 6.240966 -6.982772
-5.996576 6.372817 -7.154188
-6.081456 6.501075 -7.326838
-6.219946 6.692468 -7.597756
-6.313131 6.810318 -7.773511
-6.409720 6.923594 -7.950432
-6.509671 7.032149 -8.128441
-6.612918 7.135865 -8.307450
-6.719496 7.234454 -8.487403
-6.891730 7.377021 -8.768846
-7.006475 7.461836 -8.950784
-7.124369 7.540797 -9.133342
-7.245136 7.614098 -9.316381
-7.368629 7.681715 -9.499789
-7.494797 7.743414 -9.683463
-7.695775 7.827876 -9.969252
-7.827905 7.874954 -10.153065
-7.962164 7.916249 -10.336725
-8.098315 7.952108 -10.520133
-8.236228 7.982648 -10.703190
-8.375861 8.007728 -10.885772
196 NaN NaN
-2.134117 -1.308099 1.949362
-2.218127 -1.361198 1.935101
-2.304687 -1.407214 1.913385
-2.392708 -1.446167 1.884791
-2.481252 -1.478124 1.849835
-2.569493 -1.503134 1.808949
-2.656664 -1.521205 1.762488
-2.742007 -1.532276 1.710742
-2.824731 -1.536216 1.653956
-2.903962 -1.532826 1.592364
-2.978709 -1.521852 1.526226
-3.047836 -1.503027 1.455886
-3.110203 -1.476264 1.381895
-3.165768 -1.442594 1.305329
-3.215326 -1.403505 1.227214
-3.259916 -1.360346 1.148240
-3.300665 -1.314271 1.068831
-3.338709 -1.266267 0.989219
-3.374925 -1.217054 0.909490
-3.409565 -1.166935 0.829625
-3.442811 -1.116160 0.749582
-3.474859 -1.064981 0.669308
-3.505921 -1.013649 0.588744
-3.536207 -0.962404 0.507829
-3.565732 -0.911172 0.426626
-3.594293 -0.859541 0.345331
-3.621670 -0.807089 0.264155
-3.647634 -0.753403 0.183323
-3.671950 -0.698084 0.103084
-3.694426 -0.640780 0.023706
-3.715242 -0.581373 -0.054571
-3.734749 -0.519842 -0.131534
-3.753301 -0.456161 -0.206968
-3.771248 -0.390303 -0.280660
-3.788941 -0.322247 -0.352389
-3.806631 -0.252173 -0.422150
-3.824422 -0.180564 -0.490310
-3.842406 -0.107904 -0.557298
-3.860685 -0.034656 -0.623564
-3.879360 0.038730 -0.689565
-3.898524 0.111836 -0.755736
-3.918144 0.184503 -0.822257
-3.938119 0.256724 -0.889157
-3.958346 0.328492 -0.956467
-3.978722 0.399802 -1.024218
-3.999145 0.470648 -1.092439
-4.019524 0.541043 -1.161139
-4.039823 0.611076 -1.230231
-4.060025 0.680864 -1.299600
-4.080109 0.750520 -1.369135
-4.100059 0.820161 -1.438724
-4.119854 0.889902 -1.508256
-4.139496 0.959812 -1.577664
-4.159017 1.029870 -1.646954
-4.178453 1.100052 -1.716144
-4.197842 1.170330 -1.785249
-4.217218 1.240678 -1.854287
-4.236617 1.311069 -1.923274
-4.256049 1.381482 -1.992230
-4.275506 1.451897 -2.061176
-4.294981 1.522296 -2.130134
-4.314468 1.592659 -2.199125
-4.333959 1.662967 -2.268171
-4.353446 1.733206 -2.337288
-4.372927 1.803381 -2.406473
-4.392396 1.873501 -2.475716
-4.411849 1.943577 -2.545008
-4.431283 2.013618 -2.614341
-4.450694 2.083634 -2.683706
-4.470077 2.153632 -2.753096
-4.489429 2.223613 -2.822512
-4.508747 2.293580 -2.891953
-4.528026 2.363533 -2.961418
-4.547263 2.433473 -3.030907
-4.566455 2.503404 -3.100418
-4.585605 2.573331 -3.169945
-4.604720 2.643264 -3.239475
-4.623806 2.713213 -3.308997
-4.642870 2.783187 -3.378500
-4.661918 2.853195 -3.447974
-4.680949 2.923237 -3.517418
-4.699946 2.993283 -3.586866
-4.718888 3.063301 -3.656358
-4.737755 3.133258 -3.725933
-4.756524 3.203119 -3.795629
-4.775180 3.272856 -3.865480
-4.793789 3.342503 -3.935433
-4.812492 3.412153 -4.005359
-4.831431 3.481901 -4.075122
-4.850749 3.551840 -4.144591
-4.870586 3.622061 -4.213626
-4.891059 3.692631 -4.282118
-4.912118 3.763485 -4.350138
-4.933642 3.834500 -4.417843
-4.955513 3.905560 -4.485391
-4.977612 3.976547 -4.552940
-4.999823 4.047347 -4.620649
-5.022090 4.117895 -4.688602
-5.044453 4.188200 -4.756774
-5.066958 4.258280 -4.825132
-5.089652 4.328151 -4.893642
-5.112581 4.397829 -4.962269
-5.135787 4.467326 -5.030986
-5.159284 4.536633 -5.099797
-5.183074 4.605728 -5.168720
-5.207161 4.674591 -5.237772
-5.231546 4.743203 -5.306969
-5.256232 4.811542 -5.376329
-5.281228 4.879592 -5.445863
-5.306546 4.947340 -5.515573
-5.332202 5.014775 -5.585464
-5.358210 5.081886 -5.655537
-5.384584 5.148659 -5.725795
-5.411339 5.215082 -5.796241
-5.438487 5.281141 -5.866878
-5.466039 5.346820 -5.937714
-5.494006 5.412103 -6.008752
-5.522400 5.476974 -6.079998
-5.551231 5.541416 -6.151456
-5.580510 5.605415 -6.223132
-5.610250 5.668952 -6.295027
-5.640462 5.732012 -6.367146
-5.671157 5.794578 -6.439491
-5.702346 5.856633 -6.512064
-5.734041 5.918159 -6.584867
-5.766252 5.979140 -6.657903
-5.798990 6.039557 -6.731173
-5.832263 6.099391 -6.804679
-5.866082 6.158626 -6.878421
-5.900457 6.217241 -6.952401
-5.935397 6.275218 -7.026619
-5.970910 6.332538 -7.101075
-6.007004 6.389183 -7.175768
-6.043686 6.445133 -7.250697
-6.080965 6.500369 -7.325861
-6.118848 6.554871 -7.401259
-6.157340 6.608619 -7.476889
-6.196446 6.661596 -7.552747
-6.236172 6.713782 -7.628832
-6.276521 6.765158 -7.705139
-6.317498 6.815704 -7.781666
-6.359106 6.865401 -7.858409
-6.401346 6.914230 -7.935362
-6.444219 6.962175 -8.012521
-6.487725 7.009218 -8.089881
-6.531865 7.055340 -8.167437
-6.576638 7.100524 -8.245181
-6.622041 7.144752 -8.323109
-6.668071 7.188012 -8.401213
-6.714724 7.230287 -8.479486
-6.761994 7.271564 -8.557921
-6.809878 7.311827 -8.636510
-6.858370 7.351063 -8.715247
-6.907462 7.389262 -8.794122
-6.957144 7.426412 -8.873127
-7.007409 7.462506 -8.952254
-7.058247 7.497534 -9.031493
-7.109650 7.531486 -9.110837
-7.161606 7.564354 -9.190276
-7.214105 7.596137 -9.269800
-7.267133 7.626830 -9.349401
-7.320680 7.656430 -9.429068
-7.374734 7.684935 -9.508793
-7.429282 7.712341 -9.588566
-7.484311 7.738650 -9.668378
-7.539809 7.763865 -9.748219
-7.595763 7.787990 -9.828078
-7.652159 7.811027 -9.907948
-7.708985 7.832979 -9.987818
-7.766228 7.853852 -10.067680
-7.823876 7.873654 -10.147524
-7.881916 7.892391 -10.227340
-7.940336 7.910073 -10.307120
-7.999124 7.926707 -10.386854
-8.058268 7.942303 -10.466536
-8.117758 7.956869 -10.546155
-8.177582 7.970418 -10.625703
-8.237729 7.982961 -10.705172
-8.298189 7.994508 -10.784555
-8.358952 8.005072 -10.863843
-8.420009 8.014663 -10.943029
-8.481350 8.023295 -11.022107
-8.542965 8.030980 -11.101068
-8.604847 8.037731 -11.179906
-8.666987 8.043560 -11.258615
-8.729376 8.048480 -11.337188
-8.792007 8.052503 -11.415620
-8.854872 8.055644 -11.493905
-8.917964 8.057913 -11.572037
-8.981275 8.059325 -11.650012
-9.044800 8.059892 -11.727824
-9.108530 8.059627 -11.805470
-9.172460 8.058542 -11.882943
-9.236583 8.056651 -11.960242
-9.300894 8.053966 -12.037361
-9.365387 8.050500 -12.114297
-0.874808 -1.291013 5.934773
-0.792460 -1.104660 6.025917
-0.727629 -0.912199 6.118411
-0.684468 -0.714172 6.211671
-0.667696 -0.512126 6.304616
-0.681873 -0.309041 6.395524
-0.730054 -0.109379 6.482126
-0.812375 0.081718 6.562080
-0.925696 0.259894 6.633664
-1.064740 0.422696 6.696196
-1.223786 0.569659 6.749928
-0.874032 -1.289359 5.935586
-0.793095 -1.106367 6.025092
-0.791825 -1.102952 6.026743
-0.728091 -0.913956 6.117576
-0.727166 -0.910441 6.119245
-0.684719 -0.715972 6.210835
-0.684216 -0.712373 6.212507
-0.667697 -0.513948 6.303790
-0.667695 -0.510305 6.305442
-0.681590 -0.310853 6.394726
-0.682155 -0.307229 6.396323
-0.729473 -0.111139 6.481375
-0.730634 -0.107619 6.482877
-0.811508 0.080051 6.561394
-0.813241 0.083386 6.562765
-0.924581 0.258350 6.633055
-0.926812 0.261438 6.634274
-1.063422 0.421288 6.695665
-1.066057 0.424104 6.696728
-1.222313 0.568386 6.749470
-0.870418 -1.281654 5.939371
-0.796098 -1.114302 6.021252
-0.788866 -1.095001 6.030586
-0.730245 -0.922142 6.113691
-0.725013 -0.902255 6.123130
-0.685891 -0.724351 6.206942
-0.683044 -0.703994 6.216401
-0.667702 -0.522431 6.299945
-0.667689 -0.501822 6.309287
-0.680275 -0.319290 6.391008
-0.683471 -0.298792 6.400041
-0.726769 -0.119337 6.477878
-0.733338 -0.099421 6.486374
-0.807475 0.072287 6.558202
-0.817274 0.091150 6.565958
-0.919386 0.251159 6.630216
-0.932006 0.268628 6.637112
-1.057288 0.414732 6.693190
-1.072192 0.430660 6.699203
-1.215453 0.562458 6.747339
-0.861405 -1.262439 5.948811
-0.849442 -1.236934 5.961342
-0.837478 -1.211430 5.973872
-0.826206 -1.185651 5.986470
-0.815272 -1.159738 5.999102
-0.804337 -1.133825 6.011734
-0.781486 -1.075171 6.040173
-0.771692 -1.048851 6.052898
-0.761897 -1.022530 6.065622
-0.753348 -0.995817 6.078424
-0.744818 -0.969097 6.091226
-0.736288 -0.942378 6.104029
-0.719642 -0.881837 6.132820
-0.712513 -0.854738 6.145682
-0.705843 -0.827536 6.158552
-0.700262 -0.800091 6.171445
-0.694680 -0.772646 6.184338
-0.689099 -0.745201 6.197231
-0.680120 -0.683095 6.226111
-0.676240 -0.655356 6.238999
-0.673493 -0.627483 6.251856
-0.671469 -0.599523 6.264694
-0.669446 -0.571564 6.277531
-0.667716 -0.543588 6.290353
-0.667676 -0.480665 6.318879
-0.667658 -0.452584 6.331609
-0.669612 -0.424505 6.344179
-0.671730 -0.396425 6.356736
-0.673848 -0.368346 6.369292
-0.676994 -0.340334 6.381735
-0.686752 -0.277748 6.409314
-0.691649 -0.249890 6.421545
-0.698299 -0.222271 6.433526
-0.704949 -0.194651 6.445507
-0.711598 -0.167032 6.457488
-0.720026 -0.139784 6.469156
-0.740082 -0.078974 6.495096
-0.750270 -0.052191 6.506411
-0.761472 -0.025698 6.517513
-0.772674 0.000795 6.528614
-0.784062 0.027220 6.539670
-0.797415 0.052922 6.550239
-0.827335 0.110515 6.573921
-0.842420 0.135433 6.583994
-0.857781 0.160228 6.593989
-0.873141 0.185023 6.603984
-0.889235 0.209421 6.613739
-0.906430 0.233225 6.623136
-0.945253 0.286379 6.644085
-0.964099 0.309142 6.652877
-0.982945 0.331905 6.661668
-1.001790 0.354668 6.670459
-1.021679 0.376676 6.678824
-1.041987 0.398380 6.687017
-1.088121 0.446497 6.705091
-1.109712 0.467149 6.712703
-1.131304 0.487800 6.720314
-1.152924 0.508425 6.727912
-1.175633 0.528049 6.734967
-1.198343 0.547673 6.742023
24 NaN NaN
-0.875002 -1.291427 5.934570
-0.833558 -1.203072 5.977978
-0.795677 -1.113304 6.021738
-0.761746 -1.022125 6.065818
-0.732197 -0.929564 6.110169
-0.707501 -0.835689 6.154722
-0.688167 -0.740619 6.199384
-0.674726 -0.644532 6.244028
-0.667718 -0.547686 6.288496
-0.667657 -0.450419 6.332591
-0.674994 -0.353160 6.376083
-0.690078 -0.256416 6.418714
-0.713110 -0.160753 6.460212
-0.744111 -0.066757 6.500307
-0.782910 0.025004 6.538758
-0.829159 0.114027 6.575365
-0.882362 0.199909 6.609984
-0.941925 0.282359 6.642532
-1.007204 0.361207 6.672985
-1.077551 0.436388 6.701365
-1.152344 0.507924 6.727732
-1.231012 0.575904 6.752173
-1.313040 0.640460 6.774790
-1.397975 0.701753 6.795693
-0.972734 -1.555646 4.537664
-0.859723 -1.324816 4.421919
-0.765777 -1.081073 4.316258
-0.700016 -0.822404 4.226261
-0.677504 -0.549529 4.161885
-0.714208 -0.272427 4.135362
-0.822018 -0.014349 4.158680
-0.986123 0.203469 4.226047
-1.184120 0.378316 4.323345
-0.971895 -1.554036 4.536823
-0.860472 -1.326491 4.422713
-0.858973 -1.323140 4.421125
-0.766337 -1.082864 4.316949
-0.765218 -1.079281 4.315567
-0.700392 -0.824279 4.226847
-0.699641 -0.820529 4.225675
-0.677472 -0.551500 4.162223
-0.677536 -0.547558 4.161547
-0.713616 -0.274337 4.135324
-0.714800 -0.270517 4.135401
-0.821063 -0.016079 4.158373
-0.822973 -0.012619 4.158988
-0.984798 0.202103 4.225432
-0.987448 0.204836 4.226662
-1.182658 0.377171 4.322600
-0.967127 -1.544888 4.532048
-0.864733 -1.336015 4.427226
-0.854712 -1.313616 4.416611
-0.769518 -1.093047 4.320878
-0.762037 -1.069099 4.311638
-0.702525 -0.834936 4.230180
-0.697507 -0.809872 4.222342
-0.677289 -0.562703 4.164144
-0.677720 -0.536354 4.159627
-0.710462 -0.285245 4.135253
-0.718166 -0.259661 4.135619
-0.815637 -0.025914 4.156625
-0.828399 -0.002783 4.160736
-0.977269 0.194337 4.221935
-0.994977 0.212602 4.230159
-1.174351 0.370668 4.318366
-0.954758 -1.521156 4.519658
-0.938297 -1.489574 4.503171
-0.922132 -1.457765 4.486835
-0.906491 -1.425556 4.470768
-0.890850 -1.393347 4.454701
-0.875786 -1.360723 4.438935
-0.843725 -1.288865 4.404937
-0.830084 -1.255269 4.389922
-0.816443 -1.221672 4.374907
-0.803194 -1.187835 4.360104
-0.790785 -1.153479 4.345754
-0.778375 -1.119124 4.331404
-0.753785 -1.042684 4.301446
-0.742834 -1.007518 4.287899
-0.733519 -0.971545 4.275272
-0.724204 -0.935573 4.262646
-0.715425 -0.899375 4.250328
-0.708060 -0.862583 4.238824
-0.693609 -0.781669 4.214664
-0.688526 -0.744103 4.204507
-0.683442 -0.706537 4.194351
-0.680951 -0.668326 4.185767
-0.678526 -0.630098 4.177224
-0.676814 -0.591766 4.169127
-0.678195 -0.507291 4.154644
-0.681148 -0.468542 4.149514
-0.685215 -0.429758 4.145103
-0.689282 -0.390973 4.140693
-0.696824 -0.352532 4.138612
-0.704611 -0.314114 4.136694
-0.726897 -0.231498 4.136185
-0.738516 -0.194019 4.136938
-0.752503 -0.157508 4.139412
-0.767843 -0.121551 4.142868
-0.783182 -0.085593 4.146325
-0.801560 -0.051429 4.152090
-0.843465 0.021949 4.166059
-0.865123 0.053591 4.174422
-0.886781 0.085233 4.182786
-0.909878 0.115423 4.192352
-0.933946 0.144633 4.202731
-0.958015 0.173843 4.213110
-1.014510 0.232748 4.239230
-1.040954 0.258884 4.251718
-1.068458 0.283426 4.265188
-1.095963 0.307967 4.278658
-1.124120 0.331347 4.292765
-1.152800 0.353798 4.307382
24 NaN NaN
-0.972944 -1.556048 4.537874
-0.927797 -1.469430 4.492654
-0.884898 -1.381093 4.448587
-0.844557 -1.290916 4.405854
-0.807146 -1.198776 4.364674
-0.773113 -1.104556 4.325319
-0.742998 -1.008152 4.288121
-0.717453 -0.909503 4.253495
-0.697255 -0.808611 4.221948
-0.683316 -0.705601 4.194098
-0.676666 -0.600785 4.170673
-0.678400 -0.494750 4.152494
-0.689549 -0.388428 4.140403
-0.710893 -0.283120 4.135147
-0.742741 -0.180392 4.137212
-0.784787 -0.081830 4.146686
-0.836138 0.011243 4.163229
-0.895511 0.097987 4.186157
-0.961499 0.178072 4.214612
-1.032773 0.251585 4.247711
-1.108194 0.318881 4.284648
-1.186842 0.380447 4.324732
-1.267997 0.436813 4.367399
-1.351103 0.488498 4.412190
-1.529387 -1.452250 3.232927
-1.394497 -1.347846 3.179438
-1.262725 -1.238725 3.127652
-1.135345 -1.123467 3.078232
-1.013793 -1.000913 3.031894
-0.899893 -0.869869 2.989533
-0.798693 -0.727116 2.953616
-0.714497 -0.572149 2.926101
-0.660702 -0.402672 2.913128
-0.648631 -0.225596 2.919307
-0.686519 -0.054075 2.947463
-0.768357 0.097051 2.993936
-0.876568 0.227086 3.050823
-1.002990 0.336102 3.114478
-1.138725 0.431101 3.181381
-1.527870 -1.451094 3.232324
-1.395992 -1.349035 3.180029
-1.393001 -1.346658 3.178847
-1.264166 -1.239993 3.128214
-1.261283 -1.237458 3.127091
-1.136752 -1.124781 3.078775
-1.133939 -1.122153 3.077689
-1.015105 -1.002339 3.032388
-1.012480 -0.999487 3.031400
-0.901140 -0.871364 2.989993
-0.898646 -0.868375 2.989073
-0.799747 -0.728777 2.953979
-0.797640 -0.725455 2.953254
-0.715209 -0.574008 2.926298
-0.713785 -0.570291 2.925904
-0.661156 -0.404618 2.913203
-0.660249 -0.400725 2.913052
-0.648396 -0.227568 2.919073
-0.648866 -0.223623 2.919541
-0.685931 -0.055948 2.947077
-0.687107 -0.052203 2.947848
-0.767251 0.095495 2.993340
-0.769462 0.098608 2.994532
-0.875186 0.225822 3.050122
-0.877950 0.228350 3.051523
-1.001523 0.334955 3.113747
-1.004456 0.337249 3.115209
-1.137149 0.430138 3.180613
-1.521987 -1.446612 3.229986
-1.401794 -1.353647 3.182322
-1.387200 -1.342046 3.176555
-1.269758 -1.244908 3.130393
-1.255691 -1.232543 3.124912
-1.142208 -1.129876 3.080882
-1.128482 -1.117058 3.075582
-1.020195 -1.007871 3.034302
-1.007390 -0.993955 3.029486
-0.905976 -0.877161 2.991776
-0.893854 -0.862537 2.987312
-0.803833 -0.735218 2.955385
-0.793553 -0.719013 2.951848
-0.717972 -0.581216 2.927061
-0.711022 -0.563083 2.925140
-0.662914 -0.412168 2.913496
-0.658490 -0.393176 2.912759
-0.647483 -0.235217 2.918165
-0.649779 -0.215974 2.920450
-0.683652 -0.063210 2.945583
-0.689387 -0.044941 2.949342
-0.762963 0.089459 2.991027
-0.773751 0.104644 2.996844
-0.870268 0.220393 3.047568
-0.883312 0.233252 3.054241
-0.995836 0.330506 3.110913
-1.010143 0.341698 3.118042
-1.131037 0.426403 3.177636
-1.507965 -1.435931 3.224415
-1.489415 -1.421799 3.217044
-1.470864 -1.407667 3.209674
-1.452314 -1.393535 3.202303
-1.433909 -1.379175 3.195012
-1.415618 -1.364636 3.187785
-1.373375 -1.331057 3.171092
-1.355162 -1.316403 3.163906
-1.337174 -1.301412 3.156843
-1.319187 -1.286421 3.149781
-1.301200 -1.271429 3.142718
-1.283213 -1.256438 3.135655
-1.242366 -1.220830 3.119719
-1.224736 -1.205333 3.112849
-1.207106 -1.189836 3.105980
-1.189618 -1.174150 3.099186
-1.172414 -1.158085 3.092544
-1.155211 -1.142019 3.085902
-1.115493 -1.104898 3.070569
-1.098807 -1.088189 3.064201
-1.082121 -1.071481 3.057832
-1.065435 -1.054772 3.051464
-1.048749 -1.038063 3.045096
-1.032325 -1.021053 3.038864
-0.995260 -0.980773 3.024924
-0.979211 -0.963332 3.018889
-0.963247 -0.945804 3.012896
-0.947998 -0.927527 3.007273
-0.932750 -0.909251 3.001650
-0.917501 -0.890974 2.996026
-0.883103 -0.848001 2.983455
-0.868880 -0.828771 2.978353
-0.854656 -0.809540 2.973250
-0.840432 -0.790310 2.968147
-0.826456 -0.770880 2.963168
-0.813571 -0.750570 2.958735
-0.783815 -0.703662 2.948497
-0.770931 -0.683351 2.944064
-0.759615 -0.661994 2.940400
-0.748513 -0.640494 2.936842
-0.737411 -0.618994 2.933284
-0.726310 -0.597494 2.929725
-0.704439 -0.545905 2.923319
-0.695729 -0.523179 2.920911
-0.687019 -0.500452 2.918502
-0.678310 -0.477725 2.916093
-0.672650 -0.453961 2.915116
-0.667105 -0.430159 2.914193
-0.654300 -0.375185 2.912062
-0.651383 -0.350993 2.912339
-0.649804 -0.326603 2.913228
-0.648225 -0.302213 2.914117
-0.646646 -0.277822 2.915005
-0.645309 -0.253447 2.916001
-0.651953 -0.197745 2.922614
-0.654830 -0.173626 2.925477
-0.657707 -0.149508 2.928340
-0.663843 -0.126312 2.932600
-0.671031 -0.103415 2.937311
-0.678219 -0.080517 2.942022
-0.696467 -0.028477 2.953584
-0.707261 -0.007425 2.959787
-0.718054 0.013627 2.965989
-0.728848 0.034680 2.972192
-0.739641 0.055732 2.978394
-0.752743 0.075074 2.985517
-0.783971 0.119028 3.002354
-0.797492 0.138060 3.009644
-0.812084 0.156058 3.017346
-0.827575 0.173187 3.025392
-0.843067 0.190317 3.033439
-0.858559 0.207446 3.041486
-0.896089 0.244936 3.060719
-0.912995 0.260394 3.069288
-0.929900 0.275852 3.077858
-0.946805 0.291310 3.086427
-0.964351 0.305874 3.095225
-0.982283 0.319903 3.104160
-1.023697 0.352301 3.124796
-1.041871 0.365941 3.133814
-1.060564 0.378755 3.143010
-1.079257 0.391568 3.152206
-1.097950 0.404381 3.161402
-1.116642 0.417194 3.170598
24 NaN NaN
-1.529766 -1.452539 3.233077
-1.444144 -1.387311 3.199057
-1.359723 -1.320205 3.165697
-1.276701 -1.251011 3.133098
-1.195329 -1.179484 3.101391
-1.115928 -1.105334 3.070736
-1.038916 -1.028216 3.041342
-0.964847 -0.947722 3.013486
-0.894474 -0.863374 2.987534
-0.828834 -0.774629 2.963987
-0.769382 -0.680910 2.943531
-0.718164 -0.581719 2.927115
-0.677993 -0.476898 2.916006
-0.652430 -0.367157 2.911750
-0.645153 -0.254755 2.915846
-0.658408 -0.143624 2.929038
-0.691535 -0.038096 2.950750
-0.741301 0.058969 2.979348
-0.803666 0.146750 3.012973
-0.875139 0.225779 3.050098
-0.953146 0.297108 3.089642
-1.035897 0.361846 3.130875
-1.122167 0.420981 3.173316
-1.211105 0.475340 3.216637
-1.631533 -1.364121 1.395555
-1.463756 -1.264047 1.410495
-1.300310 -1.157474 1.428050
-1.142643 -1.043094 1.448808
-0.992952 -0.919210 1.473567
-0.855521 -0.782976 1.503731
-0.736981 -0.631770 1.540881
-0.647516 -0.464243 1.586564
-0.601525 -0.282854 1.641521
-0.612307 -0.098123 1.703714
-0.678873 0.073976 1.767759
-0.783200 0.227239 1.829660
-0.912039 0.362414 1.888232
-1.629811 -1.363115 1.395701
-1.465456 -1.265089 1.410334
-1.462056 -1.263006 1.410655
-1.301954 -1.158596 1.427856
-1.298666 -1.156352 1.428243
-1.144207 -1.044318 1.448572
-1.141079 -1.041870 1.449043
-0.994396 -0.920564 1.473276
-0.991508 -0.917857 1.473858
-0.856880 -0.784406 1.503405
-0.854161 -0.781545 1.504057
-0.738091 -0.633382 1.540469
-0.735871 -0.630159 1.541294
-0.648209 -0.466046 1.586043
-0.646824 -0.462440 1.587084
-0.601596 -0.284754 1.640901
-0.601454 -0.280953 1.642141
-0.612037 -0.099996 1.703066
-0.612577 -0.096250 1.704362
-0.678026 0.072285 1.767109
-0.679720 0.075667 1.768409
-0.781985 0.225774 1.829045
-0.784414 0.228704 1.830275
-0.910608 0.361141 1.887657
-1.622614 -1.358910 1.396313
-1.472561 -1.269439 1.409665
-1.454951 -1.258656 1.411325
-1.308825 -1.163287 1.427049
-1.291796 -1.151661 1.429050
-1.150743 -1.049433 1.447589
-1.134543 -1.036755 1.450027
-1.000459 -0.926187 1.472073
-0.985476 -0.912202 1.475075
-0.862560 -0.790384 1.502044
-0.848481 -0.775567 1.505418
-0.742731 -0.640117 1.538745
-0.731231 -0.623424 1.543017
-0.651102 -0.473579 1.583867
-0.643931 -0.454907 1.589261
-0.601894 -0.292694 1.638310
-0.601156 -0.273013 1.644732
-0.610909 -0.107822 1.700359
-0.614319 -0.088573 1.707086
-0.674487 0.065218 1.764392
-0.683259 0.082735 1.771126
-0.776909 0.219652 1.826474
-0.789491 0.234826 1.832846
-0.904625 0.355823 1.885254
-1.605119 -1.348688 1.397801
-1.581940 -1.335145 1.399771
-1.558761 -1.321602 1.401742
-1.535596 -1.308037 1.403721
-1.512714 -1.294026 1.405879
-1.489832 -1.280014 1.408036
-1.437754 -1.247970 1.412998
-1.415218 -1.233441 1.415364
-1.392683 -1.218911 1.417730
-1.370147 -1.204382 1.420096
-1.347653 -1.189794 1.422486
-1.325525 -1.174688 1.425086
-1.275095 -1.140260 1.431013
-1.253098 -1.124981 1.433685
-1.231459 -1.109231 1.436551
-1.209819 -1.093481 1.439417
-1.188179 -1.077731 1.442283
-1.166631 -1.061867 1.445197
-1.118655 -1.024321 1.452419
-1.097604 -1.007847 1.455588
-1.076787 -0.991109 1.458869
-1.056459 -0.973818 1.462386
-1.036130 -0.956528 1.465902
-1.015802 -0.939238 1.469419
-0.970811 -0.898456 1.478033
-0.951382 -0.880243 1.481951
-0.931952 -0.862030 1.485869
-0.912953 -0.843423 1.489964
-0.894660 -0.824170 1.494349
-0.876367 -0.804916 1.498734
-0.835471 -0.760400 1.509024
-0.818636 -0.739982 1.513951
-0.801800 -0.719565 1.518878
-0.784965 -0.699148 1.523804
-0.768953 -0.678177 1.529003
-0.754010 -0.656487 1.534555
-0.719952 -0.607054 1.547207
-0.706496 -0.584564 1.553184
-0.694015 -0.561550 1.559439
-0.681534 -0.538535 1.565694
-0.669054 -0.515521 1.571949
-0.658135 -0.491890 1.578577
-0.636898 -0.436595 1.594550
-0.627580 -0.412334 1.601559
-0.620852 -0.387446 1.609055
-0.615433 -0.362242 1.616796
-0.610015 -0.337037 1.624538
-0.604596 -0.311833 1.632279
-0.600432 -0.253711 1.651031
-0.599474 -0.228137 1.659376
-0.598515 -0.202564 1.667721
-0.600901 -0.177258 1.676339
-0.604534 -0.152053 1.685058
-0.608167 -0.126847 1.693778
-0.620250 -0.070322 1.713757
-0.628108 -0.046141 1.722594
-0.635966 -0.021960 1.731431
-0.643823 0.002221 1.740268
-0.654485 0.025278 1.749037
-0.665884 0.048039 1.757787
-0.691862 0.099914 1.777731
-0.705952 0.121188 1.786281
-0.720148 0.142402 1.794823
-0.734344 0.163617 1.803365
-0.748540 0.184832 1.811907
-0.764569 0.204771 1.820225
-0.801830 0.249707 1.839095
-0.818211 0.269396 1.847369
-0.836208 0.287743 1.855374
-0.854205 0.306090 1.863378
-0.872201 0.324437 1.871383
-0.890198 0.342783 1.879388
24 NaN NaN
-1.631963 -1.364373 1.395518
-1.536648 -1.308681 1.403622
-1.442554 -1.251065 1.412494
-1.349884 -1.191318 1.422223
-1.258896 -1.129201 1.432917
-1.169913 -1.064436 1.444703
-1.083354 -0.996694 1.457733
-0.999767 -0.925599 1.472193
-0.919879 -0.850713 1.488304
-0.844667 -0.771552 1.506333
-0.775455 -0.687614 1.526588
-0.714029 -0.598456 1.549408
-0.662736 -0.503870 1.575116
-0.624450 -0.404184 1.603914
-0.602192 -0.300650 1.635714
-0.598254 -0.195616 1.669988
-0.613177 -0.092088 1.705802
-0.645458 0.007253 1.742107
-0.692298 0.100785 1.778066
-0.750649 0.187982 1.813175
-0.817856 0.269034 1.847211
-0.891846 0.344463 1.880121
-0.971071 0.414888 1.911944
-1.054392 0.480907 1.942753
-0.628129 -1.476399 0.288683
-0.547685 -1.284618 0.337481
-0.483361 -1.087370 0.388273
-0.438852 -0.885260 0.441017
-0.418406 -0.679803 0.495447
-0.426237 -0.473818 0.550944
-0.465426 -0.271502 0.606483
-0.536636 -0.077787 0.660764
-0.637592 0.102977 0.712546
-0.763834 0.268152 0.760975
-0.910181 0.417040 0.805694
-0.627342 -1.474616 0.289135
-0.548403 -1.286426 0.337019
-0.546966 -1.282809 0.337942
-0.483918 -1.089229 0.387792
-0.482803 -1.085510 0.388753
-0.439212 -0.887163 0.440518
-0.438492 -0.883357 0.441516
-0.418526 -0.681733 0.494933
-0.418286 -0.677874 0.495960
-0.426078 -0.475742 0.550422
-0.426396 -0.471893 0.551465
-0.464964 -0.273378 0.605965
-0.465887 -0.269627 0.607001
-0.535874 -0.079567 0.660262
-0.537399 -0.076008 0.661266
-0.636559 0.101331 0.712071
-0.638625 0.104622 0.713021
-0.762578 0.266660 0.760533
-0.765090 0.269645 0.761416
-0.908752 0.415701 0.805288
-0.623809 -1.466616 0.291165
-0.551629 -1.294544 0.334948
-0.544079 -1.274575 0.340056
-0.486422 -1.097577 0.385636
-0.480594 -1.077089 0.390939
-0.440826 -0.895707 0.438280
-0.437090 -0.874784 0.443769
-0.419064 -0.690393 0.492628
-0.417823 -0.669213 0.498268
-0.425365 -0.484380 0.548083
-0.427109 -0.463255 0.553805
-0.462890 -0.281798 0.603639
-0.467961 -0.261207 0.609327
-0.532450 -0.087554 0.658008
-0.540823 -0.068020 0.663520
-0.631922 0.093945 0.709938
-0.643262 0.112008 0.715153
-0.756940 0.259960 0.758552
-0.770727 0.276345 0.763397
-0.902336 0.409691 0.803466
-0.615070 -1.446829 0.296185
-0.603479 -1.420580 0.302845
-0.591887 -1.394331 0.309505
-0.580772 -1.367899 0.316230
-0.570189 -1.341262 0.323027
-0.559606 -1.314625 0.329824
-0.536946 -1.254206 0.345285
-0.527485 -1.227186 0.352222
-0.518024 -1.200165 0.359158
-0.509042 -1.173003 0.366149
-0.500828 -1.145614 0.373225
-0.492614 -1.118224 0.380301
-0.475446 -1.056184 0.396377
-0.468617 -1.028452 0.403591
-0.461787 -1.000720 0.410804
-0.455412 -0.972900 0.418056
-0.450116 -0.944869 0.425400
-0.444819 -0.916838 0.432744
-0.434369 -0.853475 0.449394
-0.430760 -0.825208 0.456857
-0.427151 -0.796942 0.464319
-0.423927 -0.768644 0.471802
-0.422161 -0.740229 0.479365
-0.420395 -0.711814 0.486927
-0.417992 -0.647766 0.504025
-0.418216 -0.619317 0.511662
-0.418440 -0.590868 0.519298
-0.418921 -0.562432 0.526940
-0.421261 -0.534089 0.534617
-0.423601 -0.505747 0.542295
-0.430429 -0.442079 0.559593
-0.434978 -0.414006 0.567270
-0.439527 -0.385933 0.574947
-0.444153 -0.357876 0.582623
-0.450957 -0.330250 0.590255
-0.457761 -0.302624 0.597886
-0.474478 -0.240767 0.615022
-0.483528 -0.213767 0.622559
-0.492579 -0.186767 0.630096
-0.501630 -0.159767 0.637633
-0.512749 -0.133518 0.645036
-0.523982 -0.107311 0.652432
-0.550388 -0.048759 0.668999
-0.563689 -0.023485 0.676212
-0.576990 0.001789 0.683426
-0.590290 0.027063 0.690639
-0.605238 0.051442 0.697666
-0.620452 0.075676 0.704663
-0.655501 0.129785 0.720321
-0.672451 0.152910 0.727078
-0.689400 0.176036 0.733834
-0.706350 0.199161 0.740591
-0.724497 0.221403 0.747150
-0.742995 0.243387 0.753651
-0.785158 0.292511 0.768205
-0.805019 0.313351 0.774444
-0.824880 0.334192 0.780683
-0.844741 0.355033 0.786922
-0.865417 0.375105 0.792982
-0.886467 0.394825 0.798960
21 NaN NaN
-0.628326 -1.476844 0.288570
-0.585776 -1.380492 0.313016
-0.546929 -1.282717 0.337966
-0.512201 -1.183536 0.363427
-0.482050 -1.083001 0.389402
-0.456983 -0.981212 0.415879
-0.437542 -0.878326 0.442834
-0.424296 -0.774577 0.470223
-0.417814 -0.670287 0.497979
-0.418637 -0.565874 0.526008
-0.427225 -0.461855 0.554184
-0.443919 -0.358827 0.582360
-0.468889 -0.257441 0.610367
-0.502104 -0.158353 0.638028
-0.543329 -0.062172 0.665171
-0.592143 0.030585 0.691644
-0.647981 0.119526 0.717324
-0.710190 0.204400 0.742122
-0.778083 0.285087 0.765982
-0.850980 0.361580 0.788882
-0.928244 0.433962 0.810823
