0.151244 0.151237 0.151156 0.150834 0.150339 0.149819 0.149300 0.148780 0.148257 0.147917 0.147831 0.147823 0.147815 0.147729 0.147390 0.146871 0.146364 0.145858 0.145352 0.144862 0.144542 0.144463 0.144456 0.144448 0.144370 0.144061 0.143588 0.143138 0.142687 0.142236 0.141807 0.141527 0.141458 0.141452 0.141445 0.141376 0.141108 0.140697 0.140304 0.139910 0.139517 0.139139 0.138893 0.138832 0.138826 
0.151247 0.151248 0.151260 0.151280 0.151306 0.151325 0.151345 0.151364 0.151379 0.151391 0.151395 0.151396 0.151396 0.151401 0.151412 0.151428 0.151446 0.151464 0.151482 0.151511 0.151534 0.151543 0.151545 0.151546 0.151555 0.151591 0.151638 0.151708 0.151777 0.151847 0.151945 0.152018 0.152053 0.152058 0.152063 0.152098 0.152194 0.152323 0.152484 0.152645 0.152806 0.152994 0.153135 0.153191 0.153199 0.153207 0.153263 0.153422 0.153633 0.153861 0.154089 0.154317 0.154560 0.154742 0.154810 0.154821 0.154831 0.154901 0.155091 0.155344 0.155606 0.155868 0.156129 0.156400 0.156603 0.156680 0.156692 0.156703 0.156780 0.156989 0.157266 0.157552 0.157837 0.158123 0.158416 0.158636 0.158719 0.158731 0.158743 0.158827 0.159052 0.159352 0.159657 0.159963 0.160268 0.160582 0.160817 0.160906 0.160919 0.160933 0.161022 0.161262 0.161583 0.161910 0.162237 0.162564 0.162898 0.163148 0.163244 0.163258 0.163272 0.163367 0.163624 0.163967 0.164314 0.164661 0.165009 0.165364 0.165630 0.165730 0.165744 0.165759 0.165859 0.166127 0.166485 0.166848 0.167211 0.167574 0.167945 0.168222 0.168326 0.168342 0.168357 0.168461 0.168741 0.169115 0.169499 0.169883 0.170267 0.170655 0.170946 0.171056 0.171072 0.171088 0.171198 0.171493 0.171887 0.172287 0.172686 0.173086 0.173491 0.173795 0.173910 0.173927 0.173944 0.174059 0.174368 0.174781 0.175199 0.175618 0.176036 0.176465 0.176786 0.176907 0.176925 0.176943 0.177064 0.177389 0.177821 0.178262 0.178703 0.179144 0.179590 0.179925 0.180052 0.180070 0.180089 0.180217 0.180559 0.181016 0.181474 0.181932 0.182390 0.182853 0.183201 0.183331 0.183350 0.183370 0.183500 0.183851 0.184319 0.184789 0.185259 0.185728 0.186200 0.186553 0.186685 0.186704 0.186724 0.186856 0.187204 0.187670 0.188133 0.188597 0.189060 0.189518 0.189861 0.189989 0.190007 0.190026 0.190153 0.190489 0.190938 0.191377 0.191817 0.192257 0.192686 0.193008 0.193126 0.193143 0.193160 0.193278 0.193581 0.193985 0.194380 0.194775 0.195171 0.195545 0.195825 0.195929 0.195944 0.195959 0.196062 0.196331 0.196690 0.197028 0.197365 0.197703 0.198016 0.198252 0.198338 0.198351 0.198363 0.198449 0.198666 0.198954 0.199223 0.199491 0.199759 0.200001 0.200182 0.200246 0.200255 0.200265 0.200328 0.200490 0.200707 0.200896 0.201085 0.201274 0.201439 0.201562 0.201605 0.201611 0.201617 0.201658 0.201764 0.201905 0.202015 0.202125 0.202236 0.202327 0.202395 0.202414 0.202417 0.202420 0.202437 0.202477 0.202530 0.202543 0.202555 0.202567 0.202549 0.202536 0.202518 0.202515 0.202513 0.202496 0.202467 0.202429 0.202355 0.202282 0.202209 0.202101 0.202020 0.201991 0.201987 0.201983 0.201952 0.201854 0.201724 0.201553 0.201383 0.201212 0.201031 0.200896 0.200839 0.200831 0.200822 0.200765 0.200599 0.200378 0.200135 0.199892 0.199649 0.199385 0.199187 0.199111 0.199100 0.199089 0.199011 0.198790 0.198497 0.198181 0.197865 0.197549 0.197218 0.196970 0.196874 0.196860 0.196845 0.196749 0.196486 0.196136 0.195763 0.195391 0.195019 0.194629 0.194336 0.194224 0.194207 
0.151247 0.151248 0.151267 0.151309 0.151375 0.150989 0.150603 0.150217 0.149885 0.149675 0.149620 0.149615 0.149610 0.149547 0.149314 0.148945 0.148619 0.148293 0.147967 0.147643 0.147438 0.147392 0.147388 0.147383 0.147336 0.147125 0.146790 0.146454 0.146118 0.145782 0.145479 0.145288 0.145248 0.145244 0.145240 0.145199 0.145022 0.144743 0.144475 0.144206 0.143938 0.143642 0.143456 0.143410 0.143406 0.143402 0.143355 0.143113 0.142730 0.142083 0.141435 0.140788 0.139598 0.138847 0.138634 0.138614 0.138593 0.138365 0.137305 0.135626 0.133828 0.132030 0.130232 0.128468 0.127354 0.127109 0.127086 0.127064 0.126819 0.125792 0.124165 0.122972 0.121780 0.120588 0.119846 0.119378 0.119291 0.119283 0.119275 0.119191 0.118873 0.118369 0.118034 0.117699 0.117364 0.117131 0.116983 0.116954 0.116952 0.116949 0.116921 0.116806 0.116626 0.116487 0.116348 0.116209 0.116099 0.116029 0.116014 0.116013 0.116012 0.115997 0.115937 0.115842 0.115760 0.115679 0.115597 0.115525 0.115479 0.115469 0.115468 0.115467 0.115458 0.115416 0.115350 0.115289 0.115228 0.115168 0.115112 0.115077 0.115069 0.115068 0.115068 0.115060 0.115027 0.114975 0.114926 0.114878 0.114829 0.114785 0.114756 0.114750 0.114750 0.114749 0.114743 0.114717 0.114675 0.114637 0.114598 0.114560 0.114525 0.114503 0.114498 0.114498 0.114497 0.114493 0.114472 0.114440 0.114411 0.114382 0.114353 0.114327 0.114311 0.114307 0.114307 0.114307 0.114303 0.114288 0.114265 0.114244 0.114224 0.114203 0.114185 0.114174 0.114171 0.114171 0.114171 0.114168 0.114158 0.114142 0.114128 0.114114 0.114100 0.114087 0.114079 0.114077 0.114077 
0.141451 0.141449 0.141437 0.141405 0.141362 0.141311 0.141260 0.141210 0.141152 0.141108 0.141089 0.141085 0.141082 0.141063 0.141014 0.140949 0.140879 0.140808 0.140737 0.140662 0.140605 0.140582 0.140578 0.140573 0.140550 0.140490 0.140410 0.140326 0.140243 0.140160 0.140073 0.140007 0.139982 0.139976 0.139971 0.139945 0.139879 0.139791 0.139706 0.139620 0.139535 0.139449 0.139384 0.139359 0.139354 0.139349 0.139324 0.139256 0.139167 0.139074 0.138982 0.138889 0.138791 0.138718 0.138687 0.138681 0.138674 0.138643 0.138562 0.138456 0.138342 0.138228 0.138114 0.137995 0.137905 0.137868 0.137861 0.137853 0.137816 0.137723 0.137598 0.137472 0.137347 0.137221 0.137123 0.137049 0.137020 0.137015 0.137009 0.136981 0.136912 0.136820 0.136734 0.136649 0.136564 0.136487 0.136429 0.136406 0.136401 0.136397 0.136374 0.136322 0.136252 0.136186 0.136121 0.136055 0.135993 0.135947 0.135928 0.135925 0.135921 0.135904 0.135862 0.135806 0.135753 0.135700 0.135647 0.135597 0.135559 0.135545 0.135542 0.135539 0.135526 0.135490 0.135443 0.135399 0.135355 0.135310 0.135268 0.135236 0.135224 0.135222 0.135219 0.135207 0.135176 0.135135 0.135096 0.135056 0.135017 0.134979 0.134951 0.134940 0.134937 0.134935 0.134924 0.134895 0.134857 0.134820 0.134783 0.134746 0.134710 0.134682 0.134671 0.134669 
0.144455 0.144454 0.144448 0.144428 0.144401 0.144363 0.144325 0.144287 0.144237 0.144200 0.144183 0.144180 0.144177 0.144160 0.144114 0.144052 0.143978 0.143903 0.143829 0.143747 0.143684 0.143659 0.143654 0.143649 0.143624 0.143557 0.143467 0.143372 0.143277 0.143182 0.143084 0.143010 0.142981 0.142975 0.142970 0.142941 0.142866 0.142766 0.142671 0.142575 0.142480 0.142389 0.142321 0.142294 0.142288 0.142283 0.142257 0.142196 0.142116 0.142033 0.141950 0.141866 0.141777 0.141709 0.141682 0.141676 0.141671 0.141643 0.141569 0.141470 0.141359 0.141248 0.141138 0.141014 0.140921 0.140883 0.140876 0.140869 0.140831 0.140729 0.140593 0.140465 0.140336 0.140207 0.140087 0.139997 0.139963 0.139956 0.139950 0.139916 0.139832 0.139721 0.139617 0.139513 0.139409 0.139313 0.139240 0.139213 0.139208 0.139203 0.139176 0.139109 0.139020 0.138939 0.138858 0.138777 0.138703 0.138648 0.138626 0.138622 0.138617 0.138595 0.138543 0.138472 0.138406 0.138340 0.138274 0.138212 0.138165 0.138146 0.138142 0.138139 0.138121 0.138077 0.138018 0.137961 0.137904 0.137847 0.137791 0.137750 0.137734 0.137731 0.137728 0.137712 0.137671 0.137617 0.137564 0.137511 0.137458 0.137406 0.137366 0.137351 0.137348 0.137345 0.137329 0.137289 0.137237 0.137184 0.137131 0.137078 0.137025 0.136985 0.136969 0.136966 
0.147823 0.147822 0.147815 0.147794 0.147765 0.147718 0.147671 0.147624 0.147558 0.147509 0.147488 0.147485 0.147482 0.147460 0.147392 0.147303 0.147184 0.147065 0.146946 0.146803 0.146696 0.146652 0.146646 0.146639 0.146595 0.146474 0.146313 0.146152 0.145991 0.145830 0.145731 0.145656 0.145627 0.145623 0.145618 0.145589 0.145508 0.145400 0.145282 0.145164 0.145046 0.144915 0.144817 0.144779 0.144773 0.144767 0.144728 0.144618 0.144471 0.144310 0.144148 0.143987 0.143804 0.143668 0.143616 0.143608 0.143600 0.143548 0.143406 0.143216 0.143029 0.142842 0.142655 0.142478 0.142345 0.142297 0.142289 0.142282 0.142234 0.142117 0.141961 0.141819 0.141677 0.141535 0.141410 0.141316 0.141281 0.141276 0.141270 0.141236 0.141151 0.141038 0.140932 0.140827 0.140721 0.140625 0.140553 0.140526 0.140522 0.140518 0.140490 0.140422 0.140332 0.140245 0.140157 0.140070 0.139986 0.139923 0.139899 0.139896 0.139892 0.139868 0.139806 0.139724 0.139641 0.139559 0.139477 0.139393 0.139331 0.139307 0.139303 
0.151395 0.151392 0.151381 0.151352 0.151314 0.151272 0.151229 0.151187 0.151139 0.151102 0.151086 0.151082 0.151078 0.151061 0.151021 0.150968 0.150906 0.150844 0.150783 0.150713 0.150661 0.150637 0.150631 0.150625 0.150601 0.150543 0.150465 0.150380 0.150294 0.150208 0.150113 0.150042 0.150011 0.150003 0.149995 0.149964 0.149888 0.149789 0.149685 0.149581 0.149477 0.149370 0.149288 0.149253 0.149244 0.149235 0.149201 0.149120 0.149012 0.148905 0.148798 0.148690 0.148603 0.148537 0.148515 0.148509 0.148503 0.148480 0.148425 0.148351 0.148277 0.148202 0.148127 0.148048 0.147988 0.147963 0.147956 0.147949 0.147924 0.147863 0.147783 0.147698 0.147613 0.147529 0.147442 0.147377 0.147349 0.147342 0.147334 0.147305 0.147236 0.147144 0.147049 0.146954 0.146859 0.146758 0.146681 0.146648 0.146640 0.146631 0.146598 0.146519 0.146415 0.146305 0.146196 0.146086 0.145975 0.145890 0.145854 0.145844 0.145834 0.145798 0.145712 0.145598 0.145484 0.145370 0.145255 0.145144 0.145059 0.145024 0.145014 0.145005 0.144970 0.144890 0.144783 0.144682 0.144581 0.144479 0.144386 0.144315 0.144287 0.144279 0.144272 0.144243 0.144177 0.144089 0.144009 0.143930 0.143850 0.143775 0.143718 0.143694 0.143688 0.143682 0.143658 0.143609 0.143543 0.143478 0.143414 0.143349 0.143292 0.143249 0.143230 0.143226 0.143221 0.143203 0.143160 0.143103 0.143052 0.143001 0.142950 0.142899 0.142861 0.142846 0.142842 0.142838 0.142824 0.142789 0.142743 0.142699 0.142654 0.142609 0.142567 0.142535 0.142522 0.142518 0.142515 0.142501 0.142470 0.142428 0.142389 0.142349 0.142310 0.142271 0.142241 0.142229 0.142226 0.142223 0.142211 0.142183 0.142145 0.142108 0.142071 0.142034 0.141997 0.141970 0.141958 0.141955 0.141952 0.141940 0.141913 0.141877 0.141841 0.141805 0.141768 0.141732 0.141705 0.141694 0.141691 
0.156689 0.156679 0.156642 0.156552 0.156434 0.156309 0.156185 0.156061 0.155929 0.155829 0.155787 0.155775 0.155764 0.155721 0.155617 0.155479 0.155334 0.155188 0.155043 0.154894 0.154782 0.154733 0.154720 0.154707 0.154658 0.154542 0.154389 0.154234 0.154080 0.153925 0.153767 0.153647 0.153596 0.153583 0.153569 0.153518 0.153397 0.153236 0.153076 0.152916 0.152756 0.152595 0.152473 0.152421 0.152407 0.152394 0.152342 0.152220 0.152059 0.151896 0.151734 0.151572 0.151410 0.151287 0.151235 0.151221 0.151208 0.151156 0.151032 0.150869 0.150706 0.150544 0.150381 0.150217 0.150093 0.150041 0.150027 0.150014 0.149965 0.149872 0.149750 0.149637 0.149523 0.149410 0.149303 0.149223 0.149190 0.149181 0.149173 0.149140 0.149064 0.148964 0.148867 0.148771 0.148674 0.148582 0.148512 0.148483 0.148475 0.148467 0.148438 0.148371 0.148283 0.148198 0.148113 0.148028 0.147946 0.147884 0.147858 0.147852 0.147845 0.147819 0.147758 0.147678 0.147601 0.147524 0.147446 0.147371 0.147313 0.147289 0.147283 0.147276 0.147252 0.147197 0.147124 0.147052 0.146979 0.146907 0.146838 0.146785 0.146763 0.146757 0.146751 0.146729 0.146677 0.146607 0.146540 0.146474 0.146407 0.146339 0.146289 0.146268 0.146262 0.146257 0.146236 0.146187 0.146122 0.146058 0.145993 0.145928 0.145865 0.145817 0.145796 0.145791 0.145786 0.145765 0.145717 0.145654 0.145592 0.145529 0.145467 0.145404 0.145357 0.145337 0.145332 
0.183340 0.183300 0.183089 0.182552 0.181839 0.181129 0.180419 0.179709 0.179025 0.178511 0.178313 0.178275 0.178237 0.178040 0.177545 0.176886 0.176255 0.175623 0.174992 0.174400 0.173954 0.173783 0.173750 0.173717 0.173547 0.173117 0.172546 0.172000 0.171453 0.170907 0.170380 0.169984 0.169830 0.169801 0.169772 0.169621 0.169240 0.168734 0.168283 0.167832 0.167381 0.166998 0.166710 0.166605 0.166585 0.166565 0.166462 0.166207 0.165869 0.165574 0.165279 0.164984 0.164732 0.164541 0.164468 0.164454 0.164440 0.164367 0.164197 0.163971 0.163766 0.163562 0.163358 0.163171 0.163030 0.162978 0.162968 0.162959 0.162910 0.162786 0.162621 0.162474 0.162326 0.162179 0.162045 0.161944 0.161907 0.161900 0.161893 0.161857 0.161765 0.161644 0.161539 0.161433 0.161328 0.161237 0.161168 0.161142 0.161137 
