-2.306137 -1.344375 5.701749
-1.908984 -1.451846 6.902916
-1.543395 -1.526246 8.116324
-1.255911 -1.518425 9.352233
-1.084487 -1.392424 10.603221
-0.964534 -1.218970 11.855258
-0.849427 -1.083338 13.112260
-0.814184 -1.010900 14.378897
-0.837771 -0.971359 15.647738
-0.846260 -0.920455 16.916364
-0.857517 -0.886422 18.185490
-0.884346 -0.879599 19.454867
-0.911404 -0.873806 20.724250
-0.936124 -0.864444 21.993662
-0.961635 -0.856290 23.263066
-2.305508 -1.344546 5.703640
-1.909596 -1.451690 6.901018
-1.908371 -1.452003 6.904813
-1.543920 -1.526183 8.114395
-1.542870 -1.526309 8.118253
-1.256281 -1.518523 9.350270
-1.255541 -1.518327 9.354196
-1.084687 -1.392689 10.601249
-1.084286 -1.392158 10.605193
-0.964733 -1.219222 11.853284
-0.964335 -1.218717 11.857232
-0.849568 -1.083506 13.110272
-0.849287 -1.083169 13.114248
-0.814167 -1.010971 14.376899
-0.814202 -1.010830 14.380896
-0.837737 -0.971428 15.645740
-0.837804 -0.971291 15.649737
-0.846255 -0.920533 16.914366
-0.846266 -0.920376 16.918363
-0.857483 -0.886447 18.183490
-0.857552 -0.886398 18.187490
-0.884301 -0.879603 19.452867
-0.884392 -0.879594 19.456866
-0.911364 -0.873819 20.722251
-0.911444 -0.873793 20.726250
-0.936085 -0.864459 21.991663
-0.936163 -0.864429 21.995662
-0.961592 -0.856299 23.261067
-2.297061 -1.346845 5.729069
-1.917836 -1.449588 6.875504
-1.900131 -1.454105 6.930327
-1.551001 -1.525311 8.088465
-1.535812 -1.527158 8.144190
-1.261255 -1.519844 9.323874
-1.250688 -1.516882 9.380609
-1.087389 -1.396263 10.574731
-1.081585 -1.388585 10.631711
-0.967393 -1.222669 11.826745
-0.961660 -1.215324 11.883776
-0.851456 -1.085775 13.083541
-0.847398 -1.080901 13.140979
-0.813929 -1.011922 14.350023
-0.814440 -1.009879 14.407772
-0.837287 -0.972351 15.618865
-0.838201 -0.970327 15.676610
-0.846178 -0.921585 16.887493
-0.846343 -0.919324 16.945236
-0.857031 -0.886794 18.156603
-0.858014 -0.886071 18.214377
-0.883685 -0.879662 19.425981
-0.885007 -0.879534 19.483753
-0.910827 -0.873997 20.695363
-0.911981 -0.873615 20.753138
-0.935565 -0.864662 21.964775
-0.936684 -0.864227 22.022550
-0.961022 -0.856427 23.234179
-2.258666 -1.357325 5.844557
-2.197722 -1.374085 6.027462
-2.136772 -1.390892 6.210361
-2.075970 -1.407571 6.393321
-2.015469 -1.423954 6.576408
-1.955422 -1.439871 6.759685
-1.862966 -1.463379 7.046319
-1.804780 -1.477338 7.230354
-1.747605 -1.490223 7.414784
-1.691609 -1.501856 7.599657
-1.636940 -1.512077 7.785011
-1.583763 -1.520713 7.970878
-1.504127 -1.530618 8.262110
-1.455561 -1.534379 8.449395
-1.409113 -1.535914 8.637247
-1.364970 -1.535039 8.825658
-1.323322 -1.531569 9.014605
-1.284362 -1.525318 9.204053
-1.229407 -1.509541 9.500667
-1.198210 -1.495356 9.691121
-1.170047 -1.478116 9.881797
-1.144552 -1.458228 10.072592
-1.121337 -1.436106 10.263434
-1.100023 -1.412154 10.454277
-1.069603 -1.372095 10.752151
-1.051347 -1.345340 10.942940
-1.033579 -1.318214 11.133722
-1.015912 -1.291112 11.324518
-0.997960 -1.264429 11.515345
-0.979397 -1.238532 11.706222
-0.949496 -1.200084 12.004363
-0.930269 -1.176845 12.195516
-0.911400 -1.154780 12.386844
-0.893237 -1.133966 12.578380
-0.876134 -1.114480 12.770153
-0.860444 -1.096402 12.962184
-0.839645 -1.071205 13.262499
-0.829208 -1.057106 13.455219
-0.821447 -1.044699 13.648181
-0.816445 -1.033949 13.841334
-0.813896 -1.024652 14.034612
-0.813388 -1.016546 14.227959
-0.815808 -1.005715 14.529846
-0.818883 -0.999602 14.723243
-0.822710 -0.993850 14.916639
-0.826932 -0.988228 15.110030
-0.831190 -0.982504 15.303417
-0.835126 -0.976447 15.496800
-0.839880 -0.965858 15.798670
-0.841972 -0.958377 15.992032
-0.843473 -0.950534 16.185386
-0.844525 -0.942492 16.378735
-0.845266 -0.934413 16.572083
-0.845838 -0.926458 16.765438
-0.846730 -0.914686 17.067300
-0.847513 -0.907799 17.260695
-0.848638 -0.901633 17.454112
-0.850242 -0.896341 17.647551
-0.852411 -0.892015 17.841009
-0.855102 -0.888574 18.034478
-0.860184 -0.884701 18.336503
-0.863903 -0.883012 18.529979
-0.867901 -0.881803 18.723452
-0.872109 -0.880961 18.916923
-0.876459 -0.880373 19.110392
-0.880884 -0.879924 19.303860
-0.887778 -0.879233 19.605874
-0.892090 -0.878637 19.799344
-0.896294 -0.877877 19.992815
-0.900402 -0.876970 20.186288
-0.904424 -0.875931 20.379762
-0.908370 -0.874776 20.573237
-0.914408 -0.872788 20.875264
-0.918214 -0.871421 21.068740
-0.921986 -0.870000 21.262217
-0.925734 -0.868543 21.455694
-0.929470 -0.867067 21.649171
-0.933204 -0.865589 21.842648
-0.939056 -0.863317 22.144676
-0.942838 -0.861911 22.338153
-0.946657 -0.860563 22.531629
-0.950525 -0.859290 22.725105
-0.954454 -0.858109 22.918580
-0.958454 -0.857037 23.112055
182 NaN NaN
-2.306294 -1.344332 5.701276
-2.274688 -1.352935 5.796421
-2.243026 -1.361609 5.891541
-2.211331 -1.370332 5.986645
-2.179625 -1.379077 6.081743
-2.147929 -1.387820 6.176845
-2.116266 -1.396537 6.271960
-2.084658 -1.405204 6.367098
-2.053126 -1.413796 6.462268
-2.021691 -1.422290 6.557480
-1.990376 -1.430662 6.652741
-1.959201 -1.438889 6.748061
-1.928188 -1.446947 6.843448
-1.897359 -1.454812 6.938911
-1.866736 -1.462461 7.034457
-1.836339 -1.469869 7.130095
-1.806190 -1.477014 7.225831
-1.776313 -1.483872 7.321674
-1.746728 -1.490417 7.417629
-1.717459 -1.496628 7.513702
-1.688528 -1.502479 7.609901
-1.659958 -1.507946 7.706230
-1.631773 -1.513004 7.802695
-1.603995 -1.517630 7.899299
-1.576649 -1.521797 7.996047
-1.549758 -1.525481 8.092943
-1.523348 -1.528657 8.189988
-1.497444 -1.531299 8.287186
-1.472069 -1.533382 8.384537
-1.447251 -1.534880 8.482042
-1.423015 -1.535767 8.579700
-1.399386 -1.536017 8.677511
-1.376393 -1.535603 8.775473
-1.354061 -1.534501 8.873582
-1.332418 -1.532682 8.971835
-1.311491 -1.530122 9.070227
-1.291309 -1.526794 9.168750
-1.271897 -1.522671 9.267399
-1.253286 -1.517728 9.366164
-1.235502 -1.511939 9.465035
-1.218574 -1.505279 9.564002
-1.202519 -1.497732 9.663051
-1.187304 -1.489340 9.762164
-1.172874 -1.480161 9.861325
-1.159177 -1.470254 9.960519
-1.146158 -1.459677 10.059736
-1.133761 -1.448490 10.158966
-1.121933 -1.436751 10.258202
-1.110618 -1.424518 10.357437
-1.099761 -1.411849 10.456670
-1.089307 -1.398801 10.555896
-1.079201 -1.385431 10.655116
-1.069387 -1.371796 10.754329
-1.059812 -1.357953 10.853536
-1.050419 -1.343957 10.952740
-1.041155 -1.329865 11.051942
-1.031965 -1.315732 11.151145
-1.022794 -1.301614 11.250352
-1.013587 -1.287566 11.349565
-1.004291 -1.273644 11.448788
-0.994851 -1.259904 11.548023
-0.985220 -1.246399 11.647272
-0.975415 -1.233152 11.746538
-0.965484 -1.220175 11.845828
-0.955477 -1.207478 11.945146
-0.945443 -1.195072 12.044498
-0.935431 -1.182968 12.143890
-0.925489 -1.171175 12.243326
-0.915669 -1.159706 12.342812
-0.906018 -1.148571 12.442352
-0.896586 -1.137780 12.541951
-0.887424 -1.127345 12.641614
-0.878581 -1.117277 12.741343
-0.870106 -1.107588 12.841141
-0.862051 -1.098288 12.941011
-0.854465 -1.089388 13.040955
-0.847399 -1.080901 13.140972
-0.840903 -1.072838 13.241063
-0.835027 -1.065210 13.341226
-0.829823 -1.058028 13.441459
-0.825341 -1.051305 13.541759
-0.821625 -1.045049 13.642121
-0.818665 -1.039245 13.742535
-0.816408 -1.033861 13.842990
-0.814804 -1.028862 13.943478
-0.813802 -1.024218 14.043991
-0.813350 -1.019895 14.144522
-0.813396 -1.015859 14.245067
-0.813890 -1.012078 14.345619
-0.814780 -1.008519 14.446178
-0.816015 -1.005149 14.546739
-0.817544 -1.001936 14.647301
-0.819317 -0.998845 14.747863
-0.821281 -0.995846 14.848425
-0.823388 -0.992904 14.948985
-0.825586 -0.989987 15.049544
-0.827824 -0.987062 15.150102
-0.830053 -0.984098 15.250659
-0.832220 -0.981060 15.351215
-0.834277 -0.977916 15.451770
-0.836172 -0.974635 15.552324
-0.837857 -0.971183 15.652876
-0.839317 -0.967558 15.753425
-0.840570 -0.963780 15.853972
-0.841636 -0.959874 15.954515
-0.842536 -0.955862 16.055056
-0.843288 -0.951766 16.155596
-0.843913 -0.947609 16.256133
-0.844430 -0.943416 16.356670
-0.844860 -0.939207 16.457206
-0.845221 -0.935007 16.557743
-0.845535 -0.930839 16.658281
-0.845820 -0.926724 16.758822
-0.846097 -0.922687 16.859366
-0.846385 -0.918749 16.959914
-0.846705 -0.914935 17.060466
-0.847075 -0.911267 17.161024
-0.847517 -0.907767 17.261587
-0.848050 -0.904460 17.362157
-0.848694 -0.901368 17.462732
-0.849468 -0.898513 17.563314
-0.850392 -0.895920 17.663902
-0.851474 -0.893593 17.764494
-0.852706 -0.891518 17.865090
-0.854076 -0.889680 17.965690
-0.855577 -0.888063 18.066291
-0.857197 -0.886649 18.166893
-0.858928 -0.885424 18.267496
-0.860760 -0.884370 18.368099
-0.862682 -0.883473 18.468702
-0.864687 -0.882716 18.569304
-0.866763 -0.882083 18.669906
-0.868901 -0.881558 18.770507
-0.871092 -0.881124 18.871108
-0.873325 -0.880767 18.971708
-0.875592 -0.880469 19.072307
-0.877883 -0.880215 19.172906
-0.880187 -0.879989 19.273505
-0.882497 -0.879774 19.374103
-0.884801 -0.879556 19.474702
-0.887090 -0.879317 19.575301
-0.889355 -0.879042 19.675900
-0.891589 -0.878720 19.776500
-0.893794 -0.878354 19.877100
-0.895971 -0.877945 19.977701
-0.898122 -0.877495 20.078303
-0.900248 -0.877008 20.178904
-0.902350 -0.876485 20.279506
-0.904431 -0.875929 20.380109
-0.906492 -0.875342 20.480711
-0.908534 -0.874727 20.581314
-0.910559 -0.874086 20.681917
-0.912568 -0.873421 20.782520
-0.914564 -0.872735 20.883123
-0.916548 -0.872030 20.983726
-0.918520 -0.871309 21.084329
-0.920484 -0.870574 21.184933
-0.922439 -0.869827 21.285536
-0.924389 -0.869070 21.386140
-0.926335 -0.868307 21.486743
-0.928277 -0.867540 21.587347
-0.930218 -0.866770 21.687951
-0.932159 -0.866001 21.788554
-0.934102 -0.865235 21.889158
-0.936048 -0.864473 21.989761
-0.938000 -0.863719 22.090365
-0.939957 -0.862975 22.190968
-0.941923 -0.862243 22.291572
-0.943898 -0.861526 22.392175
-0.945885 -0.860826 22.492778
-0.947884 -0.860145 22.593381
-0.949898 -0.859486 22.693984
-0.951927 -0.858852 22.794587
-0.953974 -0.858244 22.895190
-0.956040 -0.857665 22.995792
-0.958126 -0.857117 23.096394
-0.960234 -0.856603 23.196996
-0.962367 -0.856126 23.297598
-0.964524 -0.855687 23.398199
-0.966708 -0.855289 23.498800
-0.968921 -0.854934 23.599400
-0.971163 -0.854625 23.700000
-2.305904 -1.344370 5.700965
-1.919018 -1.378284 5.344544
-1.596091 -1.397648 4.928248
-1.338609 -1.403434 4.468088
-1.144139 -1.397063 3.977862
-1.008823 -1.379948 3.468289
-0.918765 -1.354988 2.948910
-0.844609 -1.327347 2.427071
-0.761775 -1.301161 1.906474
-0.670712 -1.276366 1.387175
-0.577653 -1.251909 0.868213
-0.488821 -1.226735 0.348549
-2.304345 -1.344521 5.699722
-1.920349 -1.378187 5.346033
-1.917687 -1.378381 5.343054
-1.597180 -1.397603 4.929925
-1.595002 -1.397693 4.926571
-1.339460 -1.403437 4.469898
-1.337758 -1.403431 4.466278
-1.144764 -1.397108 3.979761
-1.143514 -1.397018 3.975963
-1.009240 -1.380029 3.470243
-1.008405 -1.379866 3.466334
-0.919060 -1.355091 2.950886
-0.918469 -1.354886 2.946935
-0.844894 -1.327451 2.429048
-0.844316 -1.327244 2.425096
-0.762111 -1.301257 1.908443
-0.761440 -1.301066 1.904504
-0.671066 -1.276458 1.389142
-0.670359 -1.276273 1.385209
-0.578002 -1.252002 0.870180
-0.577305 -1.251815 0.866246
-0.489142 -1.226833 0.350521
-2.289403 -1.345970 5.687805
-1.933252 -1.377225 5.360171
-1.904929 -1.379309 5.328780
-1.607615 -1.397174 4.945996
-1.584566 -1.398121 4.910500
-1.347614 -1.403462 4.487244
-1.329604 -1.403406 4.448933
-1.150755 -1.397538 3.997963
-1.137524 -1.396589 3.957761
-1.013240 -1.380811 3.488971
-1.004405 -1.379084 3.447606
-0.921894 -1.356071 2.969817
-0.915669 -1.353900 2.927999
-0.847630 -1.328448 2.447993
-0.841484 -1.326264 2.406165
-0.765304 -1.302177 1.927319
-0.758224 -1.300150 1.885631
-0.674450 -1.277346 1.407987
-0.666975 -1.275386 1.366364
-0.581340 -1.252897 0.889033
-0.573966 -1.250920 0.847393
-0.492221 -1.227773 0.369415
-2.246389 -1.350141 5.653497
-2.188968 -1.355546 5.605532
-2.132588 -1.360694 5.556319
-2.077401 -1.365550 5.505730
-2.023792 -1.370031 5.453442
-1.971289 -1.374254 5.400033
-1.868203 -1.381982 5.287686
-1.819798 -1.385275 5.230468
-1.772538 -1.388316 5.172293
-1.726426 -1.391106 5.113184
-1.681931 -1.393549 5.052829
-1.638795 -1.395704 4.991493
-1.554601 -1.399340 4.864185
-1.515566 -1.400646 4.800130
-1.477748 -1.401707 4.735351
-1.441065 -1.402541 4.669920
-1.405622 -1.403129 4.603800
-1.371842 -1.403390 4.536814
-1.306541 -1.403254 4.398810
-1.276359 -1.402822 4.330127
-1.247666 -1.402109 4.260814
-1.220046 -1.401196 4.191072
-1.193492 -1.400083 4.120916
-1.168391 -1.398703 4.050230
-1.120981 -1.395225 3.905142
-1.099266 -1.393230 3.833359
-1.079066 -1.390965 3.761142
-1.059975 -1.388504 3.688634
-1.041875 -1.385869 3.615879
-1.024816 -1.383052 3.542875
-0.993665 -1.376700 3.393536
-0.979526 -1.373379 3.319934
-0.966192 -1.369921 3.246186
-0.953668 -1.366326 3.172304
-0.941636 -1.362647 3.098344
-0.930051 -1.358893 3.024316
-0.907815 -1.351027 2.873458
-0.897247 -1.347103 2.799287
-0.886819 -1.343155 2.725097
-0.876462 -1.339196 2.650897
-0.866041 -1.335247 2.576707
-0.855504 -1.331317 2.502531
-0.833331 -1.323441 2.351665
-0.822010 -1.319643 2.277598
-0.810465 -1.315882 2.203564
-0.798678 -1.312162 2.129566
-0.786620 -1.308488 2.055609
-0.774390 -1.304842 1.981679
-0.748968 -1.297513 1.831299
-0.736215 -1.293956 1.757453
-0.723352 -1.290418 1.683625
-0.710388 -1.286897 1.609814
-0.697305 -1.283396 1.536024
-0.684151 -1.279907 1.462245
-0.657232 -1.272831 1.312113
-0.643954 -1.269364 1.238355
-0.630678 -1.265896 1.164597
-0.617413 -1.262426 1.090838
-0.604173 -1.258951 1.017074
-0.590997 -1.255466 0.943299
-0.564385 -1.248338 0.793114
-0.551454 -1.244812 0.719298
-0.538667 -1.241261 0.645458
-0.526004 -1.237689 0.571597
-0.513473 -1.234094 0.497715
-0.501152 -1.230464 0.423800
61 NaN NaN
-2.306294 -1.344332 5.701276
-2.226268 -1.352092 5.637450
-2.148463 -1.359296 5.570872
-2.072950 -1.365942 5.501650
-1.999786 -1.372028 5.429899
-1.929021 -1.377556 5.355736
-1.860694 -1.382529 5.279285
-1.794831 -1.386951 5.200666
-1.731453 -1.390830 5.120003
-1.670569 -1.394172 5.037418
-1.612182 -1.396987 4.953029
-1.556288 -1.399283 4.866954
-1.502875 -1.401071 4.779304
-1.451930 -1.402361 4.690190
-1.403432 -1.403165 4.599714
-1.357360 -1.403493 4.507977
-1.313687 -1.403356 4.415072
-1.272388 -1.402765 4.321090
-1.233435 -1.401731 4.226115
-1.196799 -1.400265 4.130228
-1.162452 -1.398377 4.033504
-1.130367 -1.396075 3.936016
-1.100517 -1.393370 3.837830
-1.072876 -1.390271 3.739012
-1.047422 -1.386785 3.639620
-1.024080 -1.382930 3.539724
-1.002656 -1.378742 3.439413
-0.982931 -1.374262 3.338766
-0.964685 -1.369530 3.237852
-0.947689 -1.364586 3.136729
-0.931718 -1.359469 3.035448
-0.916541 -1.354219 2.934051
-0.901928 -1.348874 2.832577
-0.887651 -1.343473 2.731057
-0.873479 -1.338055 2.629524
-0.859183 -1.332657 2.528007
-0.844532 -1.327319 2.426538
-0.829363 -1.322067 2.325140
-0.813691 -1.316900 2.223815
-0.797562 -1.311810 2.122557
-0.781022 -1.306788 2.021362
-0.764118 -1.301829 1.920224
-0.746896 -1.296923 1.819138
-0.729400 -1.292063 1.718096
-0.711678 -1.287242 1.617091
-0.693776 -1.282451 1.516117
-0.675739 -1.277684 1.415166
-0.657613 -1.272931 1.314230
-0.639444 -1.268186 1.213302
-0.621278 -1.263440 1.112372
-0.603161 -1.258686 1.011435
-0.585139 -1.253916 0.910481
-0.567257 -1.249122 0.809504
-0.549561 -1.244296 0.708495
-0.532098 -1.239431 0.607448
-0.514913 -1.234519 0.506355
-0.498053 -1.229551 0.405210
-0.481563 -1.224522 0.304008
-0.465490 -1.219422 0.202742
-0.449879 -1.214245 0.101407
-0.434777 -1.208982 -0.000000
-2.306650 -1.344667 5.701381
-3.431059 -1.449070 5.289873
-4.109895 -0.569035 4.508668
-4.679328 0.533845 3.944763
-5.248379 1.640673 3.385825
-5.816071 2.748825 2.828139
-6.418094 3.827764 2.249738
-7.082044 4.852383 1.641875
-7.844502 5.773684 0.987331
-8.728413 6.531997 0.279987
-9.729022 7.073004 -0.469533
-10.812640 7.375599 -1.238043
-11.937617 7.459114 -2.003149
-2.308075 -1.346006 5.701800
-3.429865 -1.450142 5.291067
-3.432252 -1.447998 5.288679
-4.109106 -0.570573 4.509675
-4.110683 -0.567498 4.507661
-4.678496 0.532229 3.945596
-4.680160 0.535462 3.943930
-5.247546 1.639049 3.386641
-5.249212 1.642298 3.385009
-5.815218 2.747220 2.828972
-5.816924 2.750431 2.827305
-6.417174 3.826214 2.250603
-6.419015 3.829315 2.248872
-7.081009 4.850940 1.642796
-7.083079 4.853825 1.640954
-7.843295 5.772442 0.988331
-7.845709 5.774926 0.986331
-8.727031 6.531027 0.281058
-8.729796 6.532967 0.278916
-9.727482 7.072390 -0.468413
-9.730561 7.073617 -0.470652
-10.811013 7.375316 -1.236914
-10.814267 7.375882 -1.239171
-11.935954 7.459134 -2.002038
-2.328591 -1.365279 5.707827
-3.412685 -1.465571 5.308256
-3.449432 -1.432568 5.271491
-4.097868 -0.592210 4.524970
-4.122026 -0.545363 4.493168
-4.666520 0.508956 3.957580
-4.692136 0.558735 3.931946
-5.235549 1.615662 3.398379
-5.261204 1.665684 3.373265
-5.802940 2.724113 2.840971
-5.829202 2.773538 2.815307
-6.403961 3.803869 2.263044
-6.432261 3.851631 2.236415
-7.066113 4.830178 1.656050
-7.098000 4.874562 1.627689
-7.825946 5.754531 1.002714
-7.863081 5.792807 0.971938
-8.707130 6.517064 0.296474
-8.749767 6.546798 0.263474
-9.705321 7.063557 -0.452304
-9.752723 7.082450 -0.486761
-10.787602 7.371240 -1.220667
-10.837715 7.379750 -1.255414
-11.912022 7.459433 -1.986044
-2.427423 -1.448542 5.728666
-2.607421 -1.550404 5.724685
-2.800787 -1.609795 5.680043
-2.992855 -1.626112 5.603605
-3.172498 -1.599647 5.503322
-3.328674 -1.529372 5.386268
-3.524018 -1.357561 5.193742
-3.640178 -1.233195 5.074110
-3.756969 -1.106216 4.957881
-3.866577 -0.974347 4.840199
-3.962026 -0.835650 4.718151
-4.046594 -0.689148 4.597142
-4.174153 -0.443164 4.429358
-4.258610 -0.276407 4.338147
-4.345324 -0.106704 4.254763
-4.434040 0.063551 4.174651
-4.523355 0.233517 4.094589
-4.611642 0.402673 4.011728
-4.746589 0.664822 3.876991
-4.832968 0.833103 3.790414
-4.919822 1.001853 3.705235
-5.006905 1.170874 3.620830
-5.093930 1.339944 3.536465
-5.180796 1.508983 3.451874
-5.315873 1.772358 3.319676
-5.402312 1.941452 3.234756
-5.488428 2.110794 3.150004
-5.574221 2.280431 3.065514
-5.660243 2.449874 2.980869
-5.747247 2.618435 2.895469
-5.885636 2.878553 2.760291
-5.975737 3.044369 2.672754
-6.066454 3.209748 2.585029
-6.157905 3.374593 2.497062
-6.250382 3.538618 2.408635
-6.344118 3.701587 2.319585
-6.492965 3.953171 2.179457
-6.590435 4.112919 2.088596
-6.689588 4.271158 1.996923
-6.790572 4.427714 1.904361
-6.893552 4.582381 1.810829
-6.998629 4.735007 1.716283
-7.166853 4.968326 1.566802
-7.277838 5.114874 1.469436
-7.391332 5.258684 1.370889
-7.507436 5.399543 1.271129
-7.626237 5.537235 1.170130
-7.747813 5.671535 1.067877
-7.942916 5.873563 0.906029
-8.071839 5.998174 0.800556
-8.203693 6.118594 0.693846
-8.338519 6.234551 0.585914
-8.476265 6.345889 0.476813
-8.616890 6.452422 0.366596
-8.841650 6.608407 0.192756
-8.989350 6.701873 0.079972
-9.139654 6.789981 -0.033681
-9.292447 6.872621 -0.148120
-9.447595 6.949722 -0.263254
-9.604959 7.021224 -0.378993
-9.854223 7.121494 -0.560330
-10.016560 7.178619 -0.677192
-10.180578 7.230088 -0.794333
-10.346093 7.276045 -0.911661
-10.512948 7.316566 -1.029093
-10.680990 7.351750 -1.146552
-10.944879 7.396207 -1.329470
-11.115310 7.418299 -1.446679
-11.286444 7.435514 -1.563681
-11.458165 7.448001 -1.680425
-11.630364 7.455912 -1.796865
-11.802943 7.459405 -1.912960
173 NaN NaN
-2.306294 -1.344332 5.701276
-2.378074 -1.411766 5.722366
-2.458414 -1.471638 5.732622
-2.545341 -1.522517 5.732040
-2.636699 -1.563556 5.721217
-2.730471 -1.594415 5.701113
-2.824934 -1.615077 5.672807
-2.918651 -1.625650 5.637339
-3.010380 -1.626221 5.595638
-3.098951 -1.616777 5.548531
-3.183149 -1.597167 5.496775
-3.261586 -1.567114 5.441138
-3.333098 -1.526883 5.382650
-3.398196 -1.478584 5.322752
-3.458357 -1.424552 5.262561
-3.515410 -1.366778 5.202804
-3.571297 -1.306943 5.143972
-3.627780 -1.246440 5.086406
-3.684815 -1.185511 5.029842
-3.741455 -1.123833 4.973695
-3.796716 -1.061081 4.917367
-3.849574 -0.996961 4.860281
-3.898977 -0.931253 4.801929
-3.944621 -0.863848 4.742457
-3.987319 -0.794671 4.682828
-4.027978 -0.723594 4.624014
-4.067499 -0.650465 4.566967
-4.106765 -0.575143 4.512667
-4.146491 -0.497624 4.461912
-4.186783 -0.418300 4.414496
-4.227605 -0.337623 4.369897
-4.268948 -0.255996 4.327561
-4.310820 -0.173780 4.286916
-4.353245 -0.091305 4.247382
-4.396156 -0.008778 4.208487
-4.439371 0.073731 4.169889
-4.482700 0.156162 4.131255
-4.525952 0.238458 4.092247
-4.568937 0.320555 4.052532
-4.611502 0.402404 4.011865
-4.653701 0.484046 3.970408
-4.695646 0.565555 3.928434
-4.737454 0.647009 3.886216
-4.779241 0.728486 3.844023
-4.821121 0.810065 3.802120
-4.863137 0.891772 3.760603
-4.905255 0.973580 3.719391
-4.947441 1.055462 3.678394
-4.989657 1.137389 3.637519
-5.031868 1.219334 3.596677
-5.074044 1.301275 3.555789
-5.116180 1.383208 3.514844
-5.158280 1.465133 3.473846
-5.200344 1.547052 3.432798
-5.242375 1.628965 3.391705
-5.284375 1.710873 3.350571
-5.326338 1.792787 3.309410
-5.368250 1.874724 3.268246
-5.410098 1.956705 3.227101
-5.451867 2.038748 3.186001
-5.493543 2.120873 3.144968
-5.535128 2.203081 3.104013
-5.576690 2.285315 3.063083
-5.618312 2.367497 3.022111
-5.660078 2.449552 2.981031
-5.702072 2.531402 2.939776
-5.744377 2.612970 2.898280
-5.787047 2.694203 2.856502
-5.830050 2.775133 2.814478
-5.873337 2.855811 2.772262
-5.916859 2.936288 2.729903
-5.960568 3.016615 2.687453
-6.004417 3.096845 2.644962
-6.048392 3.176992 2.602448
-6.092526 3.257029 2.559887
-6.136851 3.336921 2.517255
-6.181402 3.416636 2.474527
-6.226211 3.496140 2.431677
-6.271311 3.575402 2.388683
-6.316717 3.654405 2.345536
-6.362441 3.733139 2.302231
-6.408495 3.811591 2.258766
-6.454888 3.889751 2.215136
-6.501633 3.967607 2.171336
-6.548742 4.045144 2.127363
-6.596233 4.122343 2.083206
-6.644122 4.199185 2.038856
-6.692426 4.275650 1.994306
-6.741161 4.351718 1.949546
-6.790345 4.427368 1.904568
-6.839991 4.502581 1.859365
-6.890114 4.577336 1.813931
-6.940729 4.651613 1.768259
-6.991851 4.725391 1.722343
-7.043491 4.798650 1.676177
-7.095666 4.871367 1.629756
-7.148387 4.943521 1.583074
-7.201668 5.015089 1.536125
-7.255521 5.086046 1.488906
-7.309960 5.156370 1.441410
-7.364997 5.226036 1.393634
-7.420642 5.295020 1.345574
-7.476906 5.363297 1.297228
-7.533799 5.430843 1.248591
-7.591331 5.497633 1.199662
-7.649511 5.563641 1.150439
-7.708348 5.628841 1.100919
-7.767847 5.693207 1.051103
-7.828016 5.756715 1.000990
-7.888859 5.819339 0.950581
-7.950383 5.881053 0.899875
-8.012592 5.941830 0.848874
-8.075488 6.001645 0.797580
-8.139073 6.060474 0.745996
-8.203347 6.118292 0.694124
-8.268311 6.175076 0.641969
-8.333963 6.230799 0.589533
-8.400304 6.285438 0.536823
-8.467327 6.338971 0.483842
-8.535028 6.391377 0.430598
-8.603402 6.442636 0.377098
-8.672442 6.492727 0.323346
-8.742142 6.541628 0.269352
-8.812493 6.589321 0.215122
-8.883485 6.635791 0.160665
-8.955105 6.681024 0.105990
-9.027344 6.725003 0.051107
-9.100188 6.767716 -0.003976
-9.173626 6.809146 -0.059250
-9.247643 6.849286 -0.114704
-9.322222 6.888128 -0.170327
-9.397350 6.925665 -0.226110
-9.473008 6.961889 -0.282041
-9.549183 6.996795 -0.338111
-9.625856 7.030377 -0.394309
-9.703010 7.062636 -0.450624
-9.780627 7.093572 -0.507046
-9.858688 7.123188 -0.563563
-9.937176 7.151484 -0.620166
-10.016072 7.178461 -0.676843
-10.095359 7.204125 -0.733586
-10.175018 7.228485 -0.790383
-10.255030 7.251548 -0.847225
-10.335377 7.273322 -0.904102
-10.416042 7.293817 -0.961005
-10.497007 7.313041 -1.017925
-10.578256 7.331008 -1.074852
-10.659770 7.347730 -1.131779
-10.741533 7.363221 -1.188697
-10.823528 7.377494 -1.245599
-10.905742 7.390565 -1.302476
-10.988157 7.402447 -1.359321
-11.070759 7.413157 -1.416128
-11.153534 7.422711 -1.472890
-11.236467 7.431127 -1.529600
-11.319546 7.438421 -1.586253
-11.402758 7.444609 -1.642843
-11.486089 7.449710 -1.699365
-11.569529 7.453742 -1.755813
-11.653066 7.456722 -1.812183
-11.736688 7.458668 -1.868471
-11.820387 7.459599 -1.924673
-11.904151 7.459532 -1.980784
-11.987971 7.458484 -2.036801
-12.071839 7.456475 -2.092721
-12.155746 7.453520 -2.148540
-12.239684 7.449638 -2.204256
-12.323644 7.444846 -2.259867
-12.407621 7.439163 -2.315369
-12.491607 7.432605 -2.370761
-12.575595 7.425189 -2.426042
-12.659579 7.416934 -2.481209
-12.743554 7.407856 -2.536261
-0.911162 -0.873369 20.724236
-0.812331 -0.681239 20.719098
-0.741670 -0.477105 20.719274
-0.711264 -0.263552 20.726598
-0.733115 -0.049630 20.742517
-0.810007 0.150336 20.766664
-0.931761 0.325912 20.796764
-1.083856 0.475500 20.830345
-1.255029 0.602519 20.865755
-0.910195 -0.871619 20.724178
-0.813191 -0.683045 20.719135
-0.811471 -0.679434 20.719061
-0.742241 -0.479022 20.719257
-0.741100 -0.475189 20.719291
-0.711424 -0.265544 20.726509
-0.711103 -0.261561 20.726686
-0.732762 -0.051592 20.742346
-0.733468 -0.047669 20.742688
-0.809151 0.148545 20.766420
-0.810862 0.152127 20.766907
-0.930527 0.324365 20.796473
-0.932995 0.327459 20.797056
-1.082378 0.474190 20.830027
-1.085334 0.476810 20.830663
-1.253399 0.601407 20.865423
-0.905806 -0.863688 20.723915
-0.817088 -0.691230 20.719302
-0.808161 -0.670992 20.719004
-0.744829 -0.487712 20.719180
-0.739118 -0.466351 20.719475
-0.712152 -0.274574 20.726108
-0.710862 -0.252527 20.727167
-0.731162 -0.060483 20.741571
-0.735257 -0.038828 20.743492
-0.805274 0.140423 20.765315
-0.814740 0.160249 20.768012
-0.924934 0.317352 20.795151
-0.938588 0.334472 20.798378
-1.075678 0.468253 20.828585
-1.092034 0.482748 20.832105
-1.246013 0.596366 20.863921
-0.894927 -0.844026 20.723264
-0.880494 -0.817940 20.722400
-0.866060 -0.791854 20.721536
-0.852391 -0.765372 20.720820
-0.839571 -0.738448 20.720269
-0.826751 -0.711524 20.719717
-0.799968 -0.650058 20.718867
-0.789099 -0.622284 20.718685
-0.778230 -0.594511 20.718503
-0.768272 -0.566424 20.718488
-0.759759 -0.537840 20.718740
-0.751246 -0.509257 20.718991
-0.734827 -0.444291 20.720043
-0.729134 -0.415024 20.720796
-0.723441 -0.385757 20.721550
-0.718743 -0.356359 20.722474
-0.716350 -0.326659 20.723793
-0.713956 -0.296959 20.725113
-0.711856 -0.230115 20.728623
-0.713174 -0.200382 20.730553
-0.714493 -0.170648 20.732484
-0.716673 -0.141021 20.734550
-0.721935 -0.111774 20.737100
-0.727196 -0.082528 20.739649
-0.742165 -0.017565 20.745851
-0.751330 0.010644 20.748981
-0.760495 0.038853 20.752112
-0.770149 0.066858 20.755310
-0.782904 0.093573 20.758944
-0.795659 0.120287 20.762577
-0.826582 0.179108 20.771042
-0.842433 0.204047 20.775081
-0.858285 0.228987 20.779120
-0.874270 0.253828 20.783175
-0.892668 0.276896 20.787524
-0.911066 0.299964 20.791873
-0.953748 0.350698 20.801801
-0.974181 0.371937 20.806378
-0.994614 0.393176 20.810956
-1.015047 0.414415 20.815533
-1.037031 0.434002 20.820269
-1.059068 0.453532 20.825011
-1.109336 0.496615 20.835743
-1.132635 0.514591 20.840603
-1.155933 0.532566 20.845462
-1.179232 0.550542 20.850321
-1.203407 0.567289 20.855253
-1.227702 0.583869 20.860196
17 NaN NaN
-0.911404 -0.873806 20.724250
-0.858457 -0.778113 20.721080
-0.811432 -0.679352 20.719059
-0.771565 -0.577480 20.718391
-0.740343 -0.472648 20.719313
-0.719465 -0.365321 20.722076
-0.710689 -0.256423 20.726914
-0.715523 -0.147413 20.733993
-0.734812 -0.040196 20.743340
-0.768412 0.063220 20.754816
-0.815177 0.161165 20.768136
-0.873303 0.252614 20.782946
-0.940775 0.337214 20.798895
-1.015718 0.415113 20.815683
-1.096551 0.486751 20.833077
-1.182016 0.552690 20.850902
-1.271138 0.613513 20.869032
-0.846034 -0.920018 16.916453
-0.775966 -0.778865 16.945314
-0.716653 -0.633343 16.976406
-0.674884 -0.482591 17.010651
-0.651436 -0.328600 17.047620
-0.656539 -0.173820 17.087746
-0.688529 -0.022829 17.129684
-0.753969 0.116764 17.172168
-0.843282 0.242840 17.213663
-0.954800 0.350790 17.252819
-1.079197 0.444638 17.289700
-1.214282 0.523636 17.323888
-1.355428 0.592261 17.356049
-1.501642 0.650492 17.386075
-0.845129 -0.918270 16.916806
-0.776779 -0.780653 16.944940
-0.775153 -0.777076 16.945687
-0.717357 -0.635173 16.976010
-0.716047 -0.631483 16.976819
-0.675299 -0.484497 17.010206
-0.674468 -0.480686 17.011095
-0.651665 -0.330531 17.047150
-0.651265 -0.326668 17.048097
-0.656309 -0.175739 17.087231
-0.656770 -0.171901 17.088261
-0.688041 -0.024696 17.129156
-0.689018 -0.020963 17.130212
-0.752987 0.115103 17.171641
-0.754951 0.118425 17.172694
-0.842096 0.241314 17.213150
-0.844468 0.244366 17.214176
-0.953314 0.349539 17.252345
-0.956286 0.352042 17.253293
-1.077608 0.443511 17.289247
-1.080787 0.445764 17.290153
-1.212551 0.522723 17.323475
-1.216013 0.524549 17.324301
-1.353649 0.591437 17.355654
-1.357207 0.593085 17.356444
-1.499795 0.649817 17.385712
-0.841911 -0.912056 16.918063
-0.779670 -0.787011 16.943613
-0.772262 -0.770718 16.947015
-0.719857 -0.641677 16.974605
-0.714013 -0.624836 16.978309
-0.676776 -0.491269 17.008626
-0.672991 -0.473914 17.012675
-0.652480 -0.337392 17.045479
-0.651220 -0.319780 17.049854
-0.655490 -0.182560 17.085401
-0.657588 -0.165081 17.090090
-0.686304 -0.031329 17.127279
-0.691629 -0.014630 17.132102
-0.749497 0.109200 17.169770
-0.758442 0.124328 17.174566
-0.837879 0.235889 17.211326
-0.849185 0.249374 17.215946
-0.948031 0.345090 17.250661
-0.961569 0.356491 17.254978
-1.071959 0.439507 17.287638
-1.086636 0.449485 17.291710
-1.206399 0.519477 17.322008
-1.222165 0.527795 17.325768
-1.347325 0.588508 17.354250
-1.363607 0.595856 17.357815
-1.493230 0.647417 17.384418
-0.834438 -0.897626 16.920981
-0.824570 -0.878570 16.924835
-0.814702 -0.859513 16.928690
-0.804833 -0.840457 16.932544
-0.795248 -0.821276 16.936459
-0.786383 -0.801777 16.940530
-0.765549 -0.755953 16.950098
-0.756684 -0.736454 16.954169
-0.748675 -0.716632 16.958411
-0.741005 -0.696683 16.962721
-0.733336 -0.676733 16.967031
-0.725666 -0.656784 16.971341
-0.709288 -0.609400 16.981769
-0.703048 -0.589014 16.986339
-0.696808 -0.568629 16.990908
-0.690569 -0.548243 16.995478
-0.684734 -0.527767 17.000113
-0.680205 -0.506997 17.004958
-0.669562 -0.458186 17.016344
-0.665033 -0.437416 17.021189
-0.661869 -0.416461 17.026222
-0.659370 -0.395417 17.031347
-0.656871 -0.374373 17.036473
-0.654372 -0.353328 17.041598
-0.651116 -0.303782 17.053936
-0.650978 -0.282656 17.059327
-0.650839 -0.261530 17.064717
-0.650701 -0.240404 17.070107
-0.651079 -0.219319 17.075541
-0.653589 -0.198400 17.081152
-0.659489 -0.149240 17.094339
-0.661999 -0.128321 17.099951
-0.666290 -0.107766 17.105653
-0.671617 -0.087422 17.111409
-0.676943 -0.067078 17.117165
-0.682270 -0.046734 17.122921
-0.697781 0.000049 17.136494
-0.705905 0.019433 17.142294
-0.714029 0.038817 17.148094
-0.722153 0.058201 17.153893
-0.730684 0.077384 17.159683
-0.741390 0.095489 17.165423
-0.766549 0.138039 17.178912
-0.777255 0.156145 17.184652
-0.789285 0.173378 17.190305
-0.802219 0.190015 17.195900
-0.815152 0.206653 17.201495
-0.828085 0.223290 17.207089
-0.860361 0.260821 17.220030
-0.875118 0.275937 17.225425
-0.889876 0.291053 17.230819
-0.904633 0.306169 17.236213
-0.919560 0.321113 17.241580
-0.935762 0.334757 17.246748
-0.973838 0.366823 17.258891
-0.990039 0.380468 17.264058
-1.006863 0.393359 17.269097
-1.024188 0.405642 17.274032
-1.041514 0.417924 17.278967
-1.058839 0.430206 17.283901
-1.100414 0.457854 17.295277
-1.118609 0.468906 17.299987
-1.136804 0.479958 17.304697
-1.154999 0.491010 17.309407
-1.173242 0.501982 17.314102
-1.192111 0.511938 17.318601
-1.236453 0.535334 17.329175
-1.255322 0.545290 17.333674
-1.274457 0.554753 17.338075
-1.293851 0.563737 17.342380
-1.313245 0.572721 17.346685
-1.332639 0.581705 17.350990
-1.378606 0.602008 17.360941
-1.398414 0.610132 17.365069
-1.418221 0.618255 17.369196
-1.438029 0.626379 17.373324
-1.457845 0.634483 17.377448
-1.477982 0.641843 17.381415
21 NaN NaN
-0.846260 -0.920455 16.916364
-0.797751 -0.826780 16.935310
-0.754174 -0.730932 16.955322
-0.716473 -0.632876 16.976507
-0.685805 -0.532682 16.998966
-0.663548 -0.430606 17.022777
-0.651269 -0.327193 17.047963
-0.650590 -0.223394 17.074448
-0.662923 -0.120625 17.102015
-0.689090 -0.020688 17.130290
-0.728999 0.074534 17.158780
-0.781594 0.163484 17.186978
-0.845140 0.245231 17.214467
-0.917659 0.319511 17.240974
-0.997284 0.386569 17.266368
-1.082439 0.446935 17.290623
-1.171871 0.501259 17.313775
-1.264620 0.550196 17.335891
-1.359955 0.594358 17.357054
-1.457325 0.634293 17.377346
-1.556313 0.670476 17.396845
-0.837595 -0.970912 15.647876
-0.771840 -0.790951 15.703395
-0.726498 -0.605447 15.760791
-0.706833 -0.416045 15.819591
-0.718168 -0.226204 15.878758
-0.764072 -0.041307 15.936643
-0.844402 0.132541 15.991346
-0.954955 0.290654 16.041376
-1.089647 0.430769 16.085984
-1.241797 0.553550 16.125327
-1.406111 0.661141 16.160032
-0.836890 -0.969123 15.648427
-0.772448 -0.792772 15.702833
-0.771233 -0.789130 15.703957
-0.726869 -0.607324 15.760210
-0.726128 -0.603569 15.761373
-0.706902 -0.417953 15.818998
-0.706763 -0.414136 15.820185
-0.717878 -0.228093 15.878168
-0.718458 -0.224315 15.879348
-0.763401 -0.043105 15.936079
-0.764743 -0.039510 15.937208
-0.843383 0.130900 15.990828
-0.845421 0.134182 15.991864
-0.953659 0.289202 16.040914
-0.956251 0.292106 16.041837
-1.088242 0.429413 16.085551
-1.091052 0.432125 16.086416
-1.240225 0.552373 16.124949
-1.243369 0.554727 16.125705
-1.404423 0.660120 16.159702
-0.833903 -0.961535 15.650767
-0.775024 -0.800495 15.700448
-0.768657 -0.781406 15.706342
-0.728440 -0.615288 15.757743
-0.724557 -0.595605 15.763840
-0.707196 -0.426050 15.816480
-0.706469 -0.406040 15.822702
-0.716649 -0.236106 15.875665
-0.719687 -0.216302 15.881851
-0.760555 -0.050730 15.933685
-0.767589 -0.031884 15.939602
-0.839060 0.123939 15.988629
-0.849744 0.141143 15.994063
-0.948397 0.282867 16.038904
-0.961747 0.298265 16.043795
-1.082284 0.423659 16.083716
-1.097144 0.437745 16.088210
-1.233556 0.547379 16.123345
-1.250038 0.559721 16.127308
-1.397264 0.655789 16.158301
-0.826612 -0.943020 15.656475
-0.816951 -0.918482 15.664040
-0.807289 -0.893945 15.671605
-0.797968 -0.869295 15.679207
-0.789638 -0.844318 15.686918
-0.781309 -0.819342 15.694630
-0.763329 -0.762299 15.712249
-0.756520 -0.736909 15.720100
-0.749710 -0.711519 15.727952
-0.742901 -0.686129 15.735803
-0.737354 -0.660474 15.743746
-0.732273 -0.634721 15.751724
-0.720928 -0.576144 15.769870
-0.717799 -0.550113 15.777948
-0.714671 -0.524081 15.786026
-0.711543 -0.498050 15.794104
-0.708863 -0.471988 15.802196
-0.707913 -0.445806 15.810337
-0.705752 -0.386284 15.828846
-0.706185 -0.360116 15.836993
-0.707618 -0.333960 15.845144
-0.709051 -0.307803 15.853295
-0.710484 -0.281646 15.861446
-0.713650 -0.255657 15.869558
-0.722685 -0.196751 15.887958
-0.726810 -0.170868 15.896044
-0.733406 -0.145456 15.904002
-0.740003 -0.120043 15.911960
-0.746600 -0.094630 15.919918
-0.753611 -0.069337 15.927842
-0.774533 -0.013278 15.945444
-0.783736 0.011380 15.953187
-0.794269 0.035512 15.960776
-0.805961 0.059185 15.968230
-0.817653 0.082858 15.975684
-0.829344 0.106531 15.983139
-0.860293 0.158129 15.999427
-0.874273 0.180639 16.006537
-0.888274 0.203135 16.013642
-0.904288 0.224371 16.020370
-0.920301 0.245607 16.027098
-0.936314 0.266843 16.033827
-0.975159 0.313294 16.048572
-0.992933 0.333211 16.054903
-1.010706 0.353128 16.061233
-1.029208 0.372407 16.067371
-1.048476 0.391013 16.073305
-1.067744 0.409619 16.079239
-1.112629 0.450830 16.092398
-1.133150 0.468172 16.097948
-1.153672 0.485514 16.103497
-1.174193 0.502856 16.109047
-1.195719 0.519048 16.114246
-1.217284 0.535195 16.119432
-1.266601 0.571530 16.131107
-1.289033 0.586564 16.135952
-1.311465 0.601598 16.140798
-1.333896 0.616632 16.145643
-1.356642 0.631216 16.150352
-1.379794 0.645221 16.154882
20 NaN NaN
-0.837771 -0.971359 15.647738
-0.800096 -0.875676 15.677237
-0.767616 -0.778285 15.707306
-0.741065 -0.679283 15.737920
-0.721255 -0.578870 15.769024
-0.709059 -0.477377 15.800520
-0.705353 -0.375303 15.832260
-0.710939 -0.273331 15.864038
-0.726432 -0.172322 15.895589
-0.752148 -0.073256 15.926611
-0.788024 0.022867 15.956794
-0.833602 0.115151 15.985853
-0.888101 0.202904 16.013569
-0.950531 0.285697 16.039800
-1.019828 0.363350 16.064482
-1.094956 0.435895 16.087618
-1.174973 0.503514 16.109258
-1.259061 0.566477 16.129478
-1.346531 0.625100 16.148373
-1.436812 0.679712 16.166040
-0.813997 -1.010445 14.378986
-0.761306 -0.877798 14.404837
-0.717610 -0.742086 14.431410
-0.684771 -0.603489 14.458692
-0.667427 -0.462287 14.486685
-0.665580 -0.320165 14.515051
-0.681603 -0.178953 14.543454
-0.719796 -0.041965 14.571285
-0.776683 0.088554 14.598053
-0.851315 0.210185 14.623262
-0.942848 0.320200 14.646358
-1.045848 0.419991 14.667553
-1.158221 0.509589 14.686826
-1.278419 0.588892 14.704139
-1.403673 0.660302 14.719937
-0.813247 -1.008626 14.379340
-0.761963 -0.879652 14.404475
-0.760649 -0.875944 14.405199
-0.718160 -0.743973 14.431040
-0.717061 -0.740199 14.431780
-0.685054 -0.605431 14.458308
-0.684488 -0.601546 14.459077
-0.667547 -0.464245 14.486295
-0.667307 -0.460329 14.487075
-0.665519 -0.322125 14.514659
-0.665642 -0.318205 14.515443
-0.681136 -0.180859 14.543068
-0.682071 -0.177047 14.543841
-0.719119 -0.043809 14.570908
-0.720473 -0.040121 14.571662
-0.775806 0.086794 14.597690
-0.777560 0.090315 14.598415
-0.850093 0.208635 14.622938
-0.852536 0.211735 14.623587
-0.941490 0.318763 14.646055
-0.944206 0.321637 14.646662
-1.044378 0.418665 14.667270
-1.047319 0.421316 14.667836
-1.156583 0.508468 14.686582
-1.159859 0.510710 14.687070
-1.276720 0.587861 14.703912
-1.280118 0.589922 14.704365
-1.401925 0.659354 14.719726
-0.810779 -1.002640 14.380506
-0.764124 -0.885749 14.403283
-0.758487 -0.869847 14.406391
-0.719968 -0.750179 14.429822
-0.715253 -0.733992 14.432998
-0.686433 -0.611741 14.457064
-0.683558 -0.595159 14.460342
-0.667943 -0.470685 14.485014
-0.666911 -0.453889 14.488356
-0.665317 -0.328573 14.513368
-0.665844 -0.311758 14.516733
-0.680057 -0.187211 14.541786
-0.683608 -0.170779 14.545111
-0.716893 -0.049873 14.569670
-0.722699 -0.034056 14.572900
-0.772920 0.081004 14.596498
-0.780446 0.096105 14.599607
-0.846274 0.203401 14.621845
-0.856554 0.216833 14.624654
-0.937024 0.314038 14.645056
-0.948672 0.326362 14.647661
-1.039540 0.414306 14.666340
-1.052157 0.425675 14.668766
-1.151218 0.504750 14.685774
-1.165247 0.514397 14.687873
-1.271132 0.584471 14.703167
-1.285706 0.593312 14.705111
-1.396175 0.656235 14.719033
-0.805193 -0.989090 14.383144
-0.797830 -0.971230 14.386621
-0.790467 -0.953369 14.390099
-0.783104 -0.935509 14.393576
-0.775741 -0.917649 14.397053
-0.769017 -0.899554 14.400586
-0.753594 -0.856042 14.409088
-0.747145 -0.837847 14.412644
-0.740695 -0.819652 14.416199
-0.734848 -0.801271 14.419799
-0.729454 -0.782751 14.423432
-0.724060 -0.764231 14.427066
-0.711161 -0.719941 14.435754
-0.706304 -0.701289 14.439421
-0.702128 -0.682471 14.443128
-0.697952 -0.663654 14.446836
-0.693777 -0.644836 14.450544
-0.689601 -0.626018 14.454251
-0.681453 -0.580696 14.463205
-0.678677 -0.561634 14.466978
-0.675902 -0.542573 14.470752
-0.673127 -0.523511 14.474525
-0.670351 -0.504449 14.478299
-0.668839 -0.485264 14.482113
-0.666015 -0.439309 14.491257
-0.664834 -0.420093 14.495081
-0.663653 -0.400876 14.498905
-0.663655 -0.381645 14.502747
-0.664258 -0.362407 14.506597
-0.664860 -0.343169 14.510447
-0.666301 -0.297162 14.519655
-0.667944 -0.278008 14.523501
-0.670489 -0.258928 14.527343
-0.673035 -0.239848 14.531185
-0.675580 -0.220768 14.535028
-0.678126 -0.201688 14.538870
-0.687089 -0.156588 14.547989
-0.691676 -0.137883 14.551781
-0.696264 -0.119178 14.555574
-0.700852 -0.100473 14.559366
-0.705439 -0.081769 14.563158
-0.711854 -0.063604 14.566865
-0.727738 -0.020325 14.575705
-0.734380 -0.002228 14.579401
-0.741022 0.015869 14.583097
-0.749164 0.033342 14.586687
-0.757776 0.050619 14.590244
-0.766387 0.067896 14.593800
-0.786979 0.109213 14.602305
-0.796732 0.125866 14.605751
-0.807143 0.142159 14.609133
-0.817554 0.158452 14.612515
-0.827965 0.174746 14.615897
-0.838376 0.191039 14.619279
-0.865649 0.228375 14.627071
-0.877638 0.243588 14.630257
-0.889626 0.258800 14.633442
-0.901615 0.274013 14.636628
-0.913603 0.289226 14.639813
-0.926913 0.303340 14.642796
-0.958783 0.337060 14.649921
-0.972109 0.351160 14.652901
-0.985436 0.365260 14.655881
-0.999715 0.378422 14.658685
-1.014151 0.391430 14.661460
-1.028587 0.404437 14.664235
-1.063110 0.435544 14.670871
-1.078207 0.447793 14.673503
-1.093550 0.459762 14.676081
-1.108892 0.471731 14.678660
-1.124235 0.483700 14.681239
-1.139577 0.495669 14.683817
-1.177446 0.522744 14.689689
-1.193524 0.533747 14.692084
-1.209602 0.544749 14.694479
-1.225681 0.555751 14.696873
-1.241807 0.566682 14.699254
-1.258481 0.576797 14.701479
-1.298357 0.600986 14.706799
-1.315031 0.611101 14.709023
-1.331706 0.621216 14.711248
-1.348840 0.630562 14.713325
-1.365999 0.639868 14.715394
-1.383157 0.649174 14.717463
21 NaN NaN
-0.814184 -1.010900 14.378897
-0.773533 -0.912293 14.398096
-0.737927 -0.811840 14.417725
-0.708147 -0.709596 14.437784
-0.685095 -0.605713 14.458252
-0.669775 -0.500488 14.479083
-0.663256 -0.394416 14.500191
-0.666580 -0.288232 14.521442
-0.680628 -0.182927 14.542648
-0.705947 -0.079698 14.563578
-0.742603 0.020177 14.583977
-0.790126 0.115527 14.603605
-0.847585 0.205452 14.622271
-0.913755 0.289418 14.639854
-0.987317 0.367250 14.656301
-1.067006 0.439055 14.671620
-1.151705 0.505130 14.685856
-1.240469 0.565871 14.699076
-1.332527 0.621714 14.711358
-1.427259 0.673094 14.722781
-1.524170 0.720423 14.733421
-0.849263 -1.082889 13.112408
-0.789715 -0.908968 13.169668
-0.747011 -0.730586 13.228053
-0.724696 -0.548827 13.287148
-0.726432 -0.365771 13.346213
-0.755207 -0.184641 13.404151
-0.812317 -0.009501 13.459627
-0.897330 0.155245 13.511226
-1.006297 0.306748 13.558102
-1.134294 0.444160 13.600074
-1.277052 0.567756 13.637310
-1.430993 0.678568 13.670210
-0.848605 -1.081096 13.112999
-0.790287 -0.910789 13.169069
-0.789143 -0.907147 13.170266
-0.747380 -0.732454 13.227443
-0.746643 -0.728717 13.228663
-0.724815 -0.550727 13.286533
-0.724578 -0.546928 13.287764
-0.726257 -0.367668 13.345604
-0.726607 -0.363874 13.346822
-0.754711 -0.186487 13.403565
-0.755702 -0.182794 13.404738
-0.811505 -0.011245 13.459079
-0.813128 -0.007757 13.460174
-0.896373 0.153568 13.510702
-0.898287 0.156921 13.511749
-1.005088 0.305226 13.557633
-1.007507 0.308271 13.558571
-1.132888 0.442799 13.599661
-1.135700 0.445522 13.600487
-1.275501 0.566547 13.636948
-1.278604 0.568965 13.637671
-1.429335 0.677495 13.669894
-0.845894 -1.073705 13.115436
-0.792643 -0.918291 13.166603
-0.786787 -0.899646 13.172732
-0.748898 -0.740154 13.224929
-0.745125 -0.721017 13.231178
-0.725304 -0.558552 13.283997
-0.724089 -0.539102 13.290299
-0.725537 -0.375484 13.343094
-0.727328 -0.356058 13.349332
-0.752670 -0.194096 13.401146
-0.757744 -0.175185 13.407157
-0.808469 -0.018545 13.456779
-0.816472 -0.000572 13.462432
-0.892429 0.146661 13.508546
-0.902237 0.163825 13.513904
-1.000103 0.298954 13.555701
-1.012491 0.314542 13.560503
-1.127096 0.437190 13.597958
-1.141492 0.451131 13.602190
-1.269107 0.561565 13.635459
-1.284997 0.573947 13.639160
-1.422502 0.673075 13.668595
-0.839327 -1.055804 13.121337
-0.830629 -1.032093 13.129155
-0.821931 -1.008381 13.136972
-0.813469 -0.984596 13.144809
-0.805909 -0.960528 13.152720
-0.798350 -0.936461 13.160631
-0.781764 -0.881295 13.178750
-0.775477 -0.856891 13.186746
-0.769189 -0.832488 13.194741
-0.762902 -0.808085 13.202737
-0.757443 -0.783506 13.210774
-0.752574 -0.758804 13.218840
-0.741449 -0.702368 13.237267
-0.738018 -0.677443 13.245378
-0.734720 -0.652498 13.253492
-0.731423 -0.627553 13.261607
-0.728125 -0.602608 13.269722
-0.726489 -0.577507 13.277856
-0.722904 -0.520148 13.296440
-0.721883 -0.495026 13.304570
-0.722190 -0.469866 13.312687
-0.722497 -0.444706 13.320803
-0.722805 -0.419546 13.328920
-0.723791 -0.394415 13.337015
-0.729073 -0.337126 13.355411
-0.731385 -0.312050 13.363464
-0.735103 -0.287138 13.371437
-0.739512 -0.262307 13.379371
-0.743921 -0.237476 13.387305
-0.748330 -0.212644 13.395239
-0.762689 -0.156756 13.413014
-0.769239 -0.132345 13.420772
-0.775892 -0.107963 13.428520
-0.784567 -0.084150 13.436045
-0.793243 -0.060336 13.443571
-0.801919 -0.036523 13.451097
-0.824570 0.016833 13.467900
-0.835297 0.039886 13.475142
-0.846024 0.062940 13.482384
-0.857573 0.085612 13.489488
-0.870226 0.107772 13.496406
-0.882878 0.129932 13.503323
-0.913118 0.179807 13.518860
-0.927532 0.200976 13.525425
-0.941945 0.222146 13.531991
-0.956359 0.243315 13.538556
-0.972041 0.263641 13.544825
-0.988031 0.283763 13.551023
-1.024752 0.329588 13.565131
-1.042130 0.348642 13.570958
-1.059507 0.367696 13.576785
-1.076885 0.386750 13.582612
-1.094483 0.405610 13.588372
-1.113066 0.423605 13.593834
-1.155522 0.464716 13.606314
-1.174638 0.482183 13.611596
-1.194260 0.499149 13.616707
-1.213881 0.516115 13.621818
-1.233503 0.533082 13.626929
-1.253622 0.549498 13.631853
-1.300482 0.586014 13.642767
-1.320993 0.601997 13.647544
-1.342181 0.617152 13.652041
-1.363452 0.632206 13.656504
-1.384723 0.647259 13.660966
-1.405994 0.662313 13.665429
22 NaN NaN
-0.849427 -1.083338 13.112260
-0.815036 -0.989584 13.143169
-0.785146 -0.894422 13.174449
-0.760287 -0.797935 13.206063
-0.741035 -0.700267 13.237953
-0.727998 -0.601643 13.270036
-0.721793 -0.502383 13.302196
-0.723008 -0.402917 13.334285
-0.732147 -0.303784 13.366118
-0.749577 -0.205621 13.397483
-0.775470 -0.109122 13.428153
-0.809766 -0.014984 13.457904
-0.852171 0.076150 13.486534
-0.902188 0.163753 13.513882
-0.959169 0.247443 13.539836
-1.022386 0.326994 13.564338
-1.091091 0.402325 13.587375
-1.164564 0.473471 13.608971
-1.242143 0.540553 13.629179
-1.323242 0.603749 13.648067
-1.407347 0.663270 13.665713
-1.494020 0.719343 13.682197
-1.084222 -1.392070 10.603456
-1.003733 -1.282370 10.676171
-0.928460 -1.169516 10.749631
-0.860288 -1.052762 10.823896
-0.800123 -0.932095 10.898811
-0.749433 -0.807435 10.974156
-0.711271 -0.678441 11.049567
-0.685968 -0.546055 11.124484
-0.679005 -0.410602 11.197756
-0.689670 -0.274061 11.268456
-0.721212 -0.138645 11.334827
-0.773323 -0.006944 11.395547
-0.843518 0.118994 11.449972
-0.931553 0.236582 11.496769
-1.031889 0.346433 11.537254
-1.143760 0.447125 11.570807
-1.263473 0.540215 11.598917
-1.389608 0.625938 11.621962
-1.520826 0.704892 11.640499
-1.083164 -1.390658 10.604396
-1.004742 -1.283813 10.675223
-1.002724 -1.280926 10.677119
-0.929413 -1.170992 10.748676
-0.927507 -1.168040 10.750586
-0.861107 -1.054308 10.822928
-0.859468 -1.051216 10.824865
-0.800861 -0.933678 10.897837
-0.799384 -0.930511 10.899785
-0.749974 -0.809093 10.973178
-0.748893 -0.805776 10.975135
-0.711691 -0.680136 11.048591
-0.710851 -0.676747 11.050543
-0.686252 -0.547782 11.123516
-0.685684 -0.544329 11.125453
-0.678969 -0.412370 11.196822
-0.679041 -0.408834 11.198690
-0.689454 -0.275832 11.267552
-0.689886 -0.272290 11.269359
-0.720620 -0.140373 11.334014
-0.721804 -0.136916 11.335640
-0.772549 -0.008626 11.394791
-0.774096 -0.005262 11.396303
-0.842424 0.117443 11.449343
-0.844613 0.120545 11.450601
-0.930326 0.235107 11.496204
-0.932780 0.238057 11.497334
-1.030548 0.345037 11.536751
-1.033229 0.347830 11.537757
-1.142245 0.445881 11.570416
-1.145276 0.448370 11.571198
-1.261891 0.539040 11.598575
-1.265056 0.541389 11.599258
-1.387924 0.624890 11.621706
-1.391292 0.626985 11.622218
-1.519103 0.703901 11.640280
-1.079513 -1.385783 10.607641
-1.008223 -1.288793 10.671953
-0.999244 -1.275946 10.680389
-0.932703 -1.176084 10.745380
-0.924217 -1.162947 10.753882
-0.863934 -1.059642 10.819586
-0.856641 -1.045882 10.828206
-0.803409 -0.939140 10.894478
-0.796837 -0.925049 10.903145
-0.751838 -0.814815 10.969802
-0.747029 -0.800054 10.978510
-0.713141 -0.685981 11.045224
-0.709402 -0.670901 11.053911
-0.687232 -0.553738 11.120173
-0.685072 -0.538310 11.128763
-0.678844 -0.418471 11.193600
-0.679165 -0.402733 11.201911
-0.688709 -0.281943 11.264436
-0.690632 -0.266179 11.272475
-0.718578 -0.146337 11.331207
-0.723846 -0.130952 11.338447
-0.769879 -0.014430 11.392182
-0.776766 0.000541 11.398912
-0.838690 0.112071 11.447154
-0.848390 0.125896 11.452772
-0.926092 0.230019 11.494255
-0.937014 0.243145 11.499283
-1.025924 0.340219 11.535015
-1.037877 0.352629 11.539478
-1.137015 0.441586 11.569067
-1.150506 0.452664 11.572547
-1.256431 0.534989 11.597396
-1.270515 0.545440 11.600437
-1.382113 0.621275 11.620822
-1.397103 0.630600 11.623102
-1.513159 0.700480 11.639523
-1.071115 -1.374570 10.615104
-1.060032 -1.359772 10.624953
-1.048949 -1.344974 10.634802
-1.037865 -1.330177 10.644651
-1.026797 -1.315370 10.654502
-1.016230 -1.300251 10.664430
-0.991236 -1.264489 10.687912
-0.980669 -1.249370 10.697840
-0.970228 -1.234177 10.707784
-0.960242 -1.218718 10.717789
-0.950256 -1.203258 10.727794
-0.940270 -1.187799 10.737799
-0.916915 -1.151088 10.761493
-0.907586 -1.135270 10.771571
-0.898257 -1.119452 10.781649
-0.888928 -1.103634 10.791727
-0.879599 -1.087816 10.801806
-0.870439 -1.071913 10.811899
-0.850137 -1.033610 10.835894
-0.841553 -1.017417 10.846038
-0.832970 -1.001224 10.856183
-0.824738 -0.984870 10.866350
-0.817004 -0.968287 10.876549
-0.809270 -0.951705 10.886749
-0.790976 -0.912484 10.910874
-0.783824 -0.895664 10.921095
-0.777059 -0.878686 10.931332
-0.770294 -0.861708 10.941569
-0.763529 -0.844730 10.951806
-0.756764 -0.827752 10.962043
-0.742741 -0.786890 10.986276
-0.737081 -0.769519 10.996525
-0.731422 -0.752148 11.006773
-0.725763 -0.734777 11.017021
-0.720874 -0.717176 11.027254
-0.716475 -0.699429 11.037477
-0.706068 -0.657453 11.061657
-0.701668 -0.639706 11.071880
-0.698408 -0.621691 11.082043
-0.695434 -0.603608 11.092190
-0.692460 -0.585524 11.102337
-0.689486 -0.567441 11.112484
-0.684027 -0.524403 11.136345
-0.682649 -0.506051 11.146350
-0.681270 -0.487699 11.156355
-0.679892 -0.469346 11.166360
-0.678513 -0.450994 11.176365
-0.678558 -0.432505 11.186188
-0.679451 -0.388699 11.209323
-0.679828 -0.370179 11.219104
-0.680205 -0.351658 11.228885
-0.682468 -0.333106 11.238345
-0.684731 -0.314554 11.247806
-0.686994 -0.296002 11.257267
-0.692718 -0.252145 11.279565
-0.696945 -0.233727 11.288603
-0.701172 -0.215308 11.297642
-0.705400 -0.196890 11.306681
-0.709627 -0.178471 11.315719
-0.713880 -0.160057 11.324751
-0.728544 -0.117233 11.344903
-0.734743 -0.099128 11.353422
-0.740943 -0.081023 11.361942
-0.747528 -0.063016 11.370340
-0.755633 -0.045398 11.378260
-0.763738 -0.027780 11.386180
-0.782908 0.013892 11.404914
-0.791706 0.031262 11.412579
-0.801581 0.048247 11.419846
-0.811456 0.065231 11.427113
-0.821331 0.082216 11.434380
-0.831207 0.099201 11.441647
-0.857078 0.138207 11.457766
-0.868543 0.154453 11.464356
-0.880008 0.170699 11.470946
-0.891473 0.186945 11.477536
-0.903499 0.202868 11.483854
-0.916352 0.218314 11.489771
-0.946754 0.254850 11.503767
-0.959607 0.270296 11.509684
-0.973164 0.285257 11.515216
-0.987204 0.299883 11.520485
-1.001244 0.314509 11.525754
-1.015284 0.329135 11.531023
-1.049275 0.363098 11.543009
-1.064315 0.376914 11.547668
-1.079356 0.390730 11.552327
-1.094397 0.404546 11.556986
-1.109437 0.418362 11.561646
-1.124983 0.431708 11.565964
-1.162538 0.462543 11.575650
-1.178415 0.475579 11.579745
-1.194293 0.488616 11.583840
-1.210722 0.501069 11.587527
-1.227297 0.513369 11.591106
-1.243871 0.525668 11.594684
-1.283075 0.554761 11.603149
-1.300219 0.566387 11.606268
-1.317375 0.577998 11.609377
-1.334530 0.589610 11.612486
-1.351686 0.601222 11.615595
-1.368842 0.612833 11.618704
-1.410471 0.638916 11.625135
-1.428112 0.649889 11.627818
-1.445752 0.660863 11.630501
-1.463393 0.671836 11.633184
-1.481436 0.682227 11.635485
-1.499483 0.692611 11.637783
27 NaN NaN
-1.084487 -1.392424 10.603221
-1.027099 -1.315802 10.654219
-0.972384 -1.237516 10.705624
-0.920679 -1.157469 10.757427
-0.872375 -1.075566 10.809610
-0.827933 -0.991721 10.862136
-0.787889 -0.905865 10.914945
-0.752863 -0.817961 10.967946
-0.723564 -0.728024 11.021005
-0.700786 -0.636147 11.073931
-0.685389 -0.542531 11.126462
-0.678253 -0.447527 11.178255
-0.680205 -0.351658 11.228885
-0.691919 -0.255628 11.277855
-0.713799 -0.160292 11.324640
-0.745888 -0.066581 11.368738
-0.787839 0.024612 11.409733
-0.838956 0.112529 11.447349
-0.898305 0.196626 11.481463
-0.964843 0.276588 11.512094
-1.037529 0.352309 11.539370
-1.115397 0.423837 11.563492
-1.197601 0.491332 11.584694
-1.283417 0.555015 11.603223
-1.372243 0.615135 11.619321
-1.463582 0.671954 11.633213
-1.557027 0.725722 11.645107
-1.543022 -1.525937 8.116202
-1.456892 -1.454603 8.088191
-1.372380 -1.381138 8.060774
-1.289743 -1.305328 8.034043
-1.209299 -1.226930 8.008111
-1.131448 -1.145669 7.983122
-1.056697 -1.061232 7.959253
-0.985694 -0.973275 7.936733
-0.919279 -0.881433 7.915856
-0.858542 -0.785346 7.897002
-0.804888 -0.684723 7.880655
-0.760094 -0.579458 7.867424
-0.726290 -0.469819 7.858033
-0.705790 -0.356695 7.853253
-0.700648 -0.241780 7.853752
-0.712032 -0.127482 7.859883
-0.739727 -0.016411 7.871520
-0.782181 0.089304 7.888092
-0.837060 0.188435 7.908777
-0.901906 0.280626 7.932730
-0.974548 0.366109 7.959214
-1.053351 0.445286 7.987678
-1.136904 0.518838 8.017653
-1.224109 0.587508 8.048779
-1.314233 0.651853 8.080817
-1.541526 -1.524702 8.115716
-1.458361 -1.455874 8.088668
-1.455423 -1.453332 8.087714
-1.373819 -1.382447 8.061239
-1.370941 -1.379829 8.060308
-1.291146 -1.306679 8.034495
-1.288340 -1.303976 8.033590
-1.210661 -1.228328 8.008549
-1.207937 -1.225533 8.007674
-1.132761 -1.147118 7.983542
-1.130135 -1.144220 7.982702
-1.057951 -1.062737 7.959652
-1.055442 -1.059726 7.958854
-0.986878 -0.974843 7.937107
-0.984510 -0.971707 7.936359
-0.920377 -0.883069 7.916199
-0.918181 -0.879797 7.915513
-0.859534 -0.787055 7.897307
-0.857550 -0.783636 7.896696
-0.805749 -0.686510 7.880913
-0.804028 -0.682936 7.880396
-0.760791 -0.581322 7.867626
-0.759396 -0.577595 7.867223
-0.726789 -0.471752 7.858165
-0.725792 -0.467887 7.857901
-0.706052 -0.358677 7.853303
-0.705527 -0.354713 7.853202
-0.700645 -0.243779 7.853712
-0.700651 -0.239780 7.853792
-0.711751 -0.129457 7.859748
-0.712313 -0.125506 7.860017
-0.739178 -0.018322 7.871295
-0.740275 -0.014501 7.871745
-0.781395 0.087490 7.887788
-0.782966 0.091117 7.888396
-0.836076 0.186733 7.908408
-0.838044 0.190136 7.909147
-0.900763 0.279040 7.932309
-0.903049 0.282212 7.933152
-0.973279 0.364634 7.958752
-0.975816 0.367585 7.959676
-1.051906 0.444004 7.987159
-1.054796 0.446568 7.988196
-1.135397 0.517638 8.017114
-1.138411 0.520038 8.018191
-1.222552 0.586381 8.048225
-1.225666 0.588635 8.049333
-1.312636 0.650791 8.080251
-1.537387 -1.521282 8.114370
-1.462449 -1.459361 8.089995
-1.451357 -1.449815 8.086395
-1.377800 -1.386070 8.062528
-1.366960 -1.376205 8.059020
-1.295030 -1.310419 8.035748
-1.284456 -1.300237 8.032337
-1.214431 -1.232196 8.009760
-1.204168 -1.221664 8.006462
-1.136396 -1.151127 7.984704
-1.126501 -1.140210 7.981539
-1.061424 -1.066904 7.960756
-1.051969 -1.055560 7.957750
-0.990156 -0.979182 7.938141
-0.981232 -0.967368 7.935325
-0.923417 -0.887596 7.917148
-0.915142 -0.875269 7.914564
-0.862280 -0.791787 7.898151
-0.854805 -0.778904 7.895852
-0.808130 -0.691455 7.881630
-0.801646 -0.677991 7.879680
-0.762722 -0.586479 7.868184
-0.757465 -0.572437 7.866665
-0.728168 -0.477100 7.858531
-0.724412 -0.462539 7.857534
-0.706778 -0.364162 7.853444
-0.704801 -0.349227 7.853062
-0.700636 -0.249313 7.853600
-0.700661 -0.234246 7.853904
-0.710972 -0.134925 7.859375
-0.713091 -0.120039 7.860390
-0.737661 -0.023608 7.870673
-0.741793 -0.009215 7.872367
-0.779220 0.082469 7.886947
-0.785141 0.096138 7.889237
-0.833353 0.182024 7.907386
-0.840767 0.194846 7.910169
-0.897599 0.274650 7.931142
-0.906213 0.286601 7.934318
-0.969768 0.360551 7.957472
-0.979576 0.371412 7.961035
-1.048090 0.440241 7.985782
-1.058796 0.450115 7.989631
-1.131226 0.514318 8.015625
-1.142581 0.523358 8.019680
-1.218243 0.583263 8.046693
-1.229974 0.591754 8.050865
-1.308215 0.647853 8.078684
-1.528628 -1.514044 8.111521
-1.517144 -1.504555 8.107785
-1.505660 -1.495066 8.104050
-1.494176 -1.485577 8.100315
-1.482692 -1.476087 8.096580
-1.471208 -1.466598 8.092844
-1.442753 -1.442373 8.083603
-1.431472 -1.432614 8.079942
-1.420192 -1.422856 8.076282
-1.408911 -1.413098 8.072621
-1.397630 -1.403340 8.068960
-1.386350 -1.393582 8.065300
-1.358534 -1.368538 8.056293
-1.347487 -1.358485 8.052718
-1.336440 -1.348432 8.049143
-1.325393 -1.338379 8.045568
-1.314346 -1.328327 8.041993
-1.303299 -1.318274 8.038418
-1.276237 -1.292322 8.029686
-1.265461 -1.281946 8.026210
-1.254685 -1.271569 8.022733
-1.243908 -1.261193 8.019257
-1.233132 -1.250817 8.015781
-1.222408 -1.240382 8.012324
-1.196190 -1.213478 8.003899
-1.185732 -1.202745 8.000538
-1.175273 -1.192012 7.997177
-1.164814 -1.181280 7.993816
-1.154355 -1.170547 7.990456
-1.144087 -1.159614 7.987164
-1.118810 -1.131724 7.979080
-1.108726 -1.120597 7.975854
-1.098642 -1.109471 7.972629
-1.088558 -1.098345 7.969404
-1.078474 -1.087219 7.966179
-1.068774 -1.075721 7.963092
-1.044620 -1.046742 7.955413
-1.034984 -1.035182 7.952350
-1.025349 -1.023621 7.949286
-1.015713 -1.012060 7.946223
-1.006186 -1.000404 7.943198
-0.997092 -0.988364 7.940329
-0.974296 -0.958185 7.933137
-0.965202 -0.946146 7.930268
-0.956108 -0.934107 7.927399
-0.947013 -0.922068 7.924529
-0.938281 -0.909742 7.921790
-0.929849 -0.897179 7.919156
-0.908710 -0.865686 7.912556
-0.900277 -0.853123 7.909923
-0.891844 -0.840560 7.907290
-0.883412 -0.827997 7.904657
-0.875708 -0.814928 7.902283
-0.868090 -0.801800 7.899939
-0.848994 -0.768891 7.894064
-0.841377 -0.755763 7.891720
-0.833759 -0.742634 7.889377
-0.826385 -0.729363 7.887119
-0.819778 -0.715642 7.885132
-0.813170 -0.701921 7.883145
-0.796607 -0.667526 7.878164
-0.789999 -0.653804 7.876177
-0.783392 -0.640083 7.874190
-0.777521 -0.626015 7.872462
-0.772164 -0.611705 7.870913
-0.766808 -0.597394 7.869365
-0.753380 -0.561522 7.865484
-0.748023 -0.547212 7.863935
-0.742666 -0.532902 7.862387
-0.738744 -0.518096 7.861338
-0.734916 -0.503257 7.860322
-0.731088 -0.488418 7.859306
-0.721493 -0.451221 7.856760
-0.717665 -0.436382 7.855744
-0.714359 -0.421433 7.854908
-0.712345 -0.406213 7.854519
-0.710330 -0.390992 7.854130
-0.708315 -0.375772 7.853740
-0.703265 -0.337618 7.852765
-0.701250 -0.322397 7.852375
-0.700539 -0.307091 7.852433
-0.700565 -0.291735 7.852743
-0.700590 -0.276380 7.853053
-0.700616 -0.261025 7.853363
-0.700680 -0.222534 7.854141
-0.700706 -0.207179 7.854451
-0.702846 -0.192007 7.855480
-0.705006 -0.176837 7.856515
-0.707166 -0.161666 7.857550
-0.709325 -0.146496 7.858585
-0.714739 -0.108468 7.861180
-0.717603 -0.093470 7.862452
-0.721814 -0.078801 7.864178
-0.726026 -0.064133 7.865904
-0.730237 -0.049465 7.867630
-0.734448 -0.034796 7.869356
-0.745005 0.001973 7.873683
-0.750483 0.016128 7.875831
-0.756517 0.030057 7.878165
-0.762551 0.043987 7.880499
-0.768584 0.057916 7.882833
-0.774618 0.071845 7.885167
-0.789812 0.106723 7.891040
-0.797368 0.119790 7.893876
-0.804923 0.132857 7.896713
-0.812479 0.145923 7.899549
-0.820035 0.158990 7.902386
-0.827590 0.172057 7.905222
-0.847013 0.204462 7.912491
-0.855791 0.216642 7.915727
-0.864569 0.228821 7.918964
-0.873347 0.241001 7.922200
-0.882126 0.253181 7.925437
-0.890904 0.265360 7.928674
-0.913625 0.295260 7.937019
-0.923367 0.306590 7.940568
-0.933110 0.317920 7.944118
-0.942852 0.329249 7.947667
-0.952594 0.340579 7.951216
-0.962337 0.351909 7.954765
-0.987584 0.379457 7.963927
-0.998084 0.390005 7.967720
-1.008583 0.400552 7.971512
-1.019083 0.411100 7.975305
-1.029582 0.421648 7.979097
-1.040082 0.432196 7.982889
-1.067260 0.457622 7.992669
-1.078356 0.467465 7.996652
-1.089453 0.477308 8.000634
-1.100550 0.487150 8.004616
-1.111647 0.496993 8.008599
-1.122743 0.506836 8.012581
-1.151408 0.530386 8.022832
-1.162980 0.539599 8.026965
-1.174552 0.548812 8.031097
-1.186125 0.558026 8.035230
-1.197697 0.567239 8.039362
-1.209269 0.576452 8.043494
-1.239093 0.598353 8.054109
-1.251048 0.607006 8.058361
-1.263003 0.615659 8.062613
-1.274958 0.624312 8.066865
-1.286913 0.632965 8.071117
-1.298868 0.641618 8.075370
27 NaN NaN
-1.543395 -1.526246 8.116324
-1.461160 -1.458295 8.089576
-1.380380 -1.388418 8.063363
-1.301274 -1.316431 8.037762
-1.224109 -1.242128 8.012870
-1.149216 -1.165273 7.988804
-1.077009 -1.085602 7.965711
-1.008014 -1.002823 7.943775
-0.942898 -0.916620 7.923231
-0.882520 -0.826669 7.904378
-0.827981 -0.732677 7.887599
-0.780679 -0.634450 7.873374
-0.742335 -0.532018 7.862291
-0.714940 -0.425819 7.855020
-0.700523 -0.316906 7.852235
-0.700706 -0.207044 7.854454
-0.716157 -0.098506 7.861860
-0.746290 0.006448 7.874210
-0.789469 0.106130 7.890911
-0.843548 0.199655 7.911213
-0.906387 0.286842 7.934382
-0.976135 0.367955 7.959792
-1.051309 0.443474 7.986944
-1.130763 0.513949 8.015459
-1.213624 0.579919 8.045050
-1.299228 0.641879 8.075498
-1.387067 0.700267 8.106639
