0.213722 0.213738 0.213968 0.214742 0.215969 0.215835 0.215700 0.215566 0.214616 0.214016 0.213869 0.213859 0.213849 0.213698 0.212956 0.211780 0.210257 0.208734 0.207210 0.205168 0.203879 0.203565 0.203544 0.203523 0.203209 0.201612 0.199082 0.196083 0.193084 0.190085 0.186854 0.184815 0.184368 0.184338 0.184308 0.183865 0.181872 0.178715 0.175809 0.172904 0.169998 0.167423 0.165798 0.165463 0.165441 0.165418 0.165086 0.163650 0.161374 0.159403 0.157432 0.155462 0.153760 0.152686 0.152461 0.152446 0.152431 0.152208 0.151234 0.149690 0.148312 0.146934 0.145555 0.144310 0.143523 0.143358 0.143346 
0.213724 0.213746 0.213967 0.214317 0.214831 0.214600 0.214369 0.214139 0.213607 0.213246 0.213137 0.213126 0.213116 0.213012 0.212652 0.212123 0.211788 0.211454 0.211119 0.210944 0.210825 0.210796 0.210793 0.210791 0.210766 0.210677 0.210547 0.210403 0.210259 0.210114 0.209911 0.209773 0.209725 0.209720 0.209716 0.209666 0.209471 0.209184 0.208780 0.208376 0.207972 0.207459 0.207110 0.207002 0.206992 0.206981 0.206871 0.206452 0.205836 0.205123 0.204411 0.203699 0.202928 0.202404 0.202246 0.202231 0.202215 0.202055 0.201487 0.200652 0.199801 0.198950 0.198100 0.197237 0.196651 0.196483 0.196466 0.196449 0.196279 0.195696 0.194838 0.193992 0.193146 0.192300 0.191444 0.190862 0.190694 0.190677 0.190661 0.190492 0.189896 0.189019 0.188116 0.187214 0.186311 0.185367 0.184724 0.184539 0.184520 0.184502 0.184317 0.183657 0.182686 0.181687 0.180687 0.179688 0.178668 0.177974 0.177775 0.177755 0.177736 0.177537 0.176842 0.175819 0.174816 0.173813 0.172810 0.171830 0.171164 0.170975 0.170957 0.170938 0.170750 0.170100 0.169144 0.168222 0.167299 0.166376 0.165494 0.164894 0.164726 0.164709 0.164693 0.164525 0.163950 0.163104 0.162298 0.161492 0.160687 0.159917 0.159394 0.159248 0.159234 0.159219 0.159073 0.158572 0.157835 0.157128 0.156422 0.155716 0.155040 0.154581 0.154452 0.154439 0.154427 0.154299 0.153857 0.153208 0.152584 0.151959 0.151334 0.150735 0.150328 0.150214 0.150203 0.150191 0.150077 0.149682 0.149101 0.148543 0.147984 0.147426 0.146885 0.146517 0.146413 0.146403 
0.213735 0.213803 0.214861 0.215459 0.216407 0.210241 0.204075 0.197909 0.192504 0.189093 0.188398 0.188354 0.188310 0.187624 0.184866 0.180495 0.177244 0.173993 0.170743 0.168346 0.166833 0.166536 0.166517 0.166499 0.166208 0.164971 0.163011 0.161244 0.159476 0.157709 0.155734 0.154488 0.154200 0.154181 0.154162 0.153870 0.152374 0.150004 0.146900 0.143796 0.140692 0.136964 0.134611 0.134136 0.134105 0.134075 0.133608 0.131731 0.128756 0.126825 0.124894 0.122962 0.121821 0.121101 0.120973 0.120965 0.120957 0.120833 0.120365 0.119623 0.119151 0.118680 0.118208 0.117894 0.117696 0.117658 0.117656 0.117654 0.117616 0.117464 0.117222 0.117035 0.116849 0.116662 0.116514 0.116420 0.116401 0.116400 0.116399 0.116380 0.116301 0.116175 0.116071 0.115967 0.115863 0.115776 0.115721 0.115710 0.115709 0.115709 0.115698 0.115650 0.115575 0.115512 0.115449 0.115386 0.115334 0.115300 0.115294 0.115293 0.115293 0.115286 0.115257 0.115212 0.115173 0.115135 0.115096 0.115063 0.115043 0.115038 0.115038 0.115038 0.115034 0.115015 0.114986 0.114961 0.114935 0.114909 0.114885 0.114870 0.114867 0.114867 
0.152446 0.152444 0.152437 0.152420 0.152396 0.152367 0.152337 0.152307 0.152266 0.152234 0.152220 0.152216 0.152212 0.152198 0.152163 0.152116 0.152053 0.151991 0.151928 0.151858 0.151805 0.151778 0.151770 0.151763 0.151736 0.151672 0.151588 0.151497 0.151406 0.151316 0.151213 0.151135 0.151101 0.151092 0.151083 0.151049 0.150966 0.150856 0.150733 0.150609 0.150485 0.150353 0.150254 0.150207 0.150194 0.150181 0.150133 0.150023 0.149878 0.149744 0.149610 0.149476 0.149399 0.149342 0.149317 0.149310 0.149304 0.149279 0.149220 0.149143 0.149062 0.148982 0.148901 0.148819 0.148756 0.148728 0.148721 0.148713 0.148686 0.148621 0.148536 0.148446 0.148356 0.148266 0.148173 0.148102 0.148072 0.148064 0.148056 0.148025 0.147953 0.147858 0.147760 0.147662 0.147564 0.147464 0.147388 0.147355 0.147346 0.147337 0.147304 0.147227 0.147126 0.147026 0.146927 0.146827 0.146729 0.146655 0.146623 0.146614 0.146606 0.146574 0.146502 0.146406 0.146311 0.146216 0.146121 0.146028 0.145958 0.145928 0.145920 0.145911 0.145882 0.145812 0.145720 0.145630 0.145540 0.145450 0.145361 0.145294 0.145265 0.145257 0.145249 0.145221 0.145155 0.145068 0.144982 0.144895 0.144809 0.144725 0.144661 0.144634 0.144626 
0.203534 0.203493 0.203332 0.202948 0.202441 0.201931 0.201421 0.200911 0.200391 0.199999 0.199834 0.199792 0.199750 0.199586 0.199190 0.198667 0.198138 0.197610 0.197081 0.196546 0.196141 0.195971 0.195927 0.195883 0.195713 0.195310 0.194778 0.194240 0.193703 0.193166 0.192639 0.192242 0.192076 0.192033 0.191990 0.191820 0.191418 0.190887 0.190360 0.189832 0.189304 0.188772 0.188370 0.188203 0.188161 0.188118 0.187954 0.187557 0.187032 0.186505 0.185977 0.185449 0.184913 0.184508 0.184337 0.184294 0.184250 0.184081 0.183679 0.183148 0.182606 0.182064 0.181522 0.180989 0.180585 0.180411 0.180367 0.180322 0.180147 0.179734 0.179188 0.178646 0.178104 0.177561 0.177018 0.176608 0.176439 0.176396 0.176353 0.176184 0.175777 0.175239 0.174707 0.174176 0.173644 0.173114 0.172714 0.172548 0.172505 0.172463 0.172298 0.171910 0.171397 0.170888 0.170379 0.169870 0.169518 0.169252 0.169165 0.169143 0.169121 0.169035 0.168832 0.168562 0.168302 0.168041 0.167781 0.167529 0.167338 0.167258 0.167237 0.167217 0.167137 0.166953 0.166710 0.166469 0.166229 0.165988 0.165757 0.165583 0.165509 0.165491 0.165472 0.165398 0.165222 0.164990 0.164767 0.164544 0.164321 0.164100 0.163933 0.163866 0.163849 0.163832 0.163765 0.163606 0.163396 0.163192 0.162988 0.162783 0.162585 0.162435 0.162372 0.162356 0.162340 0.162278 0.162136 0.161948 0.161764 0.161579 0.161395 0.161222 0.161091 0.161037 0.161023 0.161009 0.160954 0.160825 0.160654 0.160492 0.160330 0.160168 0.160009 0.159889 0.159840 0.159828 0.159815 0.159767 0.159652 0.159499 0.159350 0.159202 0.159053 0.158907 0.158797 0.158752 0.158740 
0.213846 0.213795 0.213598 0.213132 0.212516 0.211905 0.211293 0.210682 0.210057 0.209585 0.209385 0.209333 0.209282 0.209084 0.208617 0.207998 0.207374 0.206749 0.206124 0.205511 0.205048 0.204851 0.204799 0.204748 0.204552 0.204095 0.203491 0.202898 0.202306 0.201713 0.201128 0.200686 0.200504 0.200456 0.200409 0.200228 0.199792 0.199216 0.198654 0.198093 0.197532 0.196972 0.196549 0.196374 0.196328 0.196283 0.196110 0.195717 0.195198 0.194706 0.194214 0.193723 0.193307 0.192993 0.192874 0.192843 0.192810 0.192685 0.192390 0.191999 0.191628 0.191257 0.190886 0.190506 0.190219 0.190099 0.190067 0.190036 0.189915 0.189624 0.189239 0.188801 0.188364 0.187927 0.187470 0.187124 0.186969 0.186928 0.186888 0.186734 0.186371 0.185892 0.185392 0.184893 0.184394 0.183872 0.183478 0.183313 0.183270 0.183227 0.183062 0.182656 0.182118 0.181581 0.181043 0.180505 0.179951 0.179532 0.179354 0.179307 0.179261 0.179084 0.178669 0.178119 0.177561 0.177003 0.176445 0.176004 0.175670 0.175553 0.175523 0.175493 0.175379 0.175117 0.174770 0.174438 0.174107 0.173776 0.173469 0.173237 0.173140 0.173115 0.173090 0.172992 0.172765 0.172464 0.172184 0.171905 0.171625 0.171347 0.171138 0.171055 0.171033 0.171012 0.170929 0.170732 0.170472 0.170218 0.169965 0.169712 0.169469 0.169286 0.169209 0.169188 0.169168 0.169091 0.168914 0.168680 0.168453 0.168226 0.167999 0.167783 0.167620 0.167553 0.167535 0.167518 0.167450 0.167291 0.167081 0.166881 0.166681 0.166482 0.166285 0.166136 0.166074 0.166057 0.166041 0.165980 0.165840 0.165655 0.165471 0.165287 0.165104 0.164928 0.164795 0.164738 0.164724 0.164709 0.164653 0.164519 0.164342 0.164172 0.164003 0.163833 0.163665 0.163539 0.163488 0.163474 0.163461 0.163409 0.163287 0.163126 0.162967 0.162808 0.162649 0.162496 0.162379 0.162331 0.162318 
0.213114 0.213065 0.212904 0.212541 0.212061 0.211570 0.211079 0.210589 0.210073 0.209682 0.209510 0.209457 0.209404 0.209233 0.208854 0.208354 0.207849 0.207344 0.206840 0.206345 0.205970 0.205806 0.205755 0.205706 0.205544 0.205190 0.204724 0.204279 0.203833 0.203388 0.202965 0.202644 0.202505 0.202462 0.202418 0.202274 0.201953 0.201530 0.201128 0.200727 0.200326 0.199928 0.199626 0.199493 0.199453 0.199412 0.199281 0.198992 0.198611 0.198339 0.198067 0.197795 0.197553 0.197369 0.197289 0.197265 0.197240 0.197162 0.196981 0.196742 0.196488 0.196233 0.195979 0.195718 0.195520 0.195431 0.195404 0.195376 0.195285 0.195072 0.194792 0.194505 0.194218 0.193932 0.193630 0.193401 0.193297 0.193265 0.193233 0.193129 0.192945 0.192702 0.192466 0.192230 0.191995 0.191736 0.191540 0.191452 0.191425 0.191398 0.191309 0.191099 0.190823 0.190500 0.190177 0.189854 0.189520 0.189267 0.189153 0.189118 0.189082 0.188966 0.188685 0.188316 0.187953 0.187589 0.187226 0.186845 0.186556 0.186423 0.186383 0.186342 0.186209 0.185910 0.185516 0.185112 0.184709 0.184305 0.183889 0.183574 0.183435 0.183392 0.183350 0.183212 0.182902 0.182493 0.182062 0.181631 0.181200 0.180779 0.180459 0.180319 0.180276 0.180234 0.180094 0.179764 0.179329 0.179028 0.178727 0.178426 0.178145 0.177932 0.177841 0.177813 0.177785 0.177694 0.177492 0.177226 0.176971 0.176716 0.176461 0.176218 0.176033 0.175951 0.175926 0.175901 0.175819 0.175635 0.175392 0.175162 0.174932 0.174701 0.174474 0.174301 0.174225 0.174202 0.174178 0.174103 0.173941 0.173728 0.173512 0.173297 0.173081 0.172869 0.172708 0.172639 0.172617 0.172596 0.172526 0.172369 0.172163 0.171961 0.171759 0.171558 0.171365 0.171219 0.171154 0.171134 0.171114 0.171050 0.170904 0.170712 0.170530 0.170347 0.170165 0.169984 0.169846 0.169785 0.169766 0.169748 0.169687 0.169554 0.169380 0.169208 0.169036 0.168864 0.168697 0.168570 0.168515 0.168499 0.168482 0.168427 0.168304 0.168142 0.167982 0.167822 0.167662 0.167507 0.167390 0.167338 0.167322 0.167306 0.167254 0.167137 0.166982 0.166833 0.166683 0.166533 0.166385 0.166273 0.166223 0.166208 0.166193 0.166143 0.166034 0.165890 0.165747 0.165603 0.165460 0.165318 0.165211 0.165164 0.165149 
0.210776 0.210709 0.210356 0.209474 0.208303 0.207181 0.206059 0.204937 0.203867 0.203062 0.202752 0.202692 0.202634 0.202328 0.201568 0.200559 0.199633 0.198707 0.197781 0.196930 0.196290 0.196062 0.196019 0.195977 0.195758 0.195218 0.194500 0.193813 0.193127 0.192440 0.191732 0.191199 0.190975 0.190933 0.190890 0.190668 0.190110 0.189368 0.188583 0.187797 0.187011 0.186197 0.185585 0.185346 0.185300 0.185255 0.185017 0.184400 0.183580 0.182764 0.181949 0.181133 0.180323 0.179714 0.179480 0.179435 0.179400 0.179212 0.178797 0.178245 0.177750 0.177254 0.176758 0.176305 0.175964 0.175836 0.175812 0.175788 0.175661 0.175343 0.174920 0.174530 0.174139 0.173748 0.173387 0.173116 0.173009 0.172989 0.172969 0.172862 0.172608 0.172271 0.171948 0.171624 0.171301 0.170993 0.170762 0.170679 0.170664 0.170648 0.170565 0.170354 0.170072 0.169810 0.169548 0.169286 0.169040 0.168854 0.168783 0.168769 0.168756 0.168684 0.168507 0.168270 0.168043 0.167815 0.167588 0.167368 0.167203 0.167138 0.167125 
0.206976 0.206915 0.206316 0.204463 0.201850 0.199383 0.196917 0.194450 0.192170 0.190552 0.190060 0.190010 0.189959 0.189457 0.187973 0.185881 0.183937 0.181992 0.180048 0.178264 0.176999 0.176629 0.176592 0.176567 0.176330 0.175645 0.174680 0.173857 0.173033 0.172210 0.171473 0.170951 0.170791 0.170775 0.170759 0.170600 0.170130 0.169466 0.168880 0.168293 0.167706 0.167182 0.166810 0.166698 0.166687 
0.190671 0.190648 0.190516 0.190156 0.189677 0.189141 0.188605 0.188069 0.187495 0.187064 0.186894 0.186864 0.186833 0.186662 0.186207 0.185602 0.184976 0.184350 0.183725 0.183087 0.182608 0.182419 0.182386 0.182352 0.182163 0.181675 0.181024 0.180360 0.179695 0.179030 0.178382 0.177894 0.177707 0.177674 0.177640 0.177452 0.176968 0.176324 0.175694 0.175065 0.174436 0.173828 0.173371 0.173196 0.173164 0.173133 0.172959 0.172511 0.171915 0.171333 0.170751 0.170169 0.169606 0.169182 0.169021 0.168993 0.168964 0.168804 0.168397 0.167855 0.167556 0.167257 0.166958 0.166702 0.166509 0.166434 0.166421 0.166407 0.166333 0.166146 0.165898 0.165653 0.165409 0.165164 0.164924 0.164743 0.164675 0.164663 0.164651 0.164583 0.164410 0.164181 0.163962 0.163742 0.163523 0.163309 0.163148 0.163087 0.163077 0.163066 0.163007 0.162854 0.162649 0.162452 0.162255 0.162058 0.161869 0.161727 0.161673 0.161663 0.161653 0.161598 0.161460 0.161276 0.161097 0.160919 0.160740 0.160564 0.160432 0.160382 0.160373 
0.154438 0.154432 0.154388 0.154264 0.154098 0.153908 0.153719 0.153529 0.153327 0.153176 0.153118 0.153111 0.153104 0.153046 0.152883 0.152664 0.152433 0.152201 0.151970 0.151728 0.151547 0.151478 0.151470 0.151461 0.151392 0.151198 0.150939 0.150668 0.150396 0.150125 0.149883 0.149701 0.149660 0.149655 0.149650 0.149613 0.149512 0.149377 0.149252 0.149126 0.149000 0.148879 0.148788 0.148755 0.148750 0.148746 0.148713 0.148625 0.148507 0.148395 0.148283 0.148171 0.148066 0.147986 0.147958 0.147954 
