0.291600 0.291574 0.291198 0.288160 0.283347 0.275665 0.267984 0.260302 0.251973 0.246716 0.245619 0.245544 0.245470 0.244373 0.239783 0.232511 0.226756 0.221001 0.215246 0.210697 0.207826 0.207246 0.207207 0.207168 0.206598 0.204160 0.200298 0.196985 0.193671 0.190358 0.187455 0.185623 0.185235 0.185208 0.185182 0.184796 0.183117 0.180456 0.178072 0.175687 0.173302 0.171202 0.169876 0.169601 0.169582 0.169563 0.169292 0.168117 0.166255 0.164624 0.162992 0.161361 0.159934 0.159034 0.158847 0.158834 0.158822 0.158636 0.157838 0.156572 0.155462 0.154352 0.153242 0.152244 0.151615 0.151482 0.151473 0.151464 0.151331 0.150744 0.149814 0.148939 0.148064 0.147189 0.146353 0.145825 0.145712 0.145704 0.145696 0.145582 0.145072 0.144263 0.143482 0.142700 0.141919 0.141164 0.140687 0.140584 0.140577 
0.291599 0.291571 0.291288 0.289573 0.287067 0.282629 0.278190 0.273752 0.268626 0.265116 0.264125 0.264026 0.263927 0.262935 0.259642 0.254832 0.250656 0.246479 0.242303 0.238591 0.236049 0.235367 0.235299 0.235232 0.234560 0.232395 0.229232 0.226510 0.223788 0.221066 0.218682 0.217050 0.216597 0.216552 0.216507 0.216062 0.214598 0.212460 0.210521 0.208581 0.206642 0.204875 0.203666 0.203321 0.203287 0.203253 0.202915 0.201778 0.200117 0.198554 0.196990 0.195427 0.193931 0.192906 0.192614 0.192585 0.192556 0.192265 0.191282 0.189848 0.188470 0.187092 0.185713 0.184401 0.183502 0.183245 0.183219 0.183194 0.182938 0.182076 0.180817 0.179615 0.178413 0.177210 0.176078 0.175302 0.175082 0.175060 0.175038 0.174818 0.174079 0.172999 0.171973 0.170948 0.169923 0.168949 0.168283 0.168092 0.168073 0.168055 0.167865 0.167226 0.166294 0.165407 0.164519 0.163632 0.162789 0.162211 0.162046 0.162029 
0.291681 0.291986 0.296700 0.312533 0.337619 0.337073 0.336527 0.335982 0.315323 0.302286 0.299113 0.298907 0.298711 0.295667 0.283466 0.264133 0.250893 0.237654 0.224414 0.215142 0.209291 0.208194 0.208123 0.208049 0.206905 0.202657 0.195927 0.191318 0.186710 0.182101 0.178583 0.176362 0.175896 0.175866 0.175836 0.175368 0.173192 0.169745 0.165868 0.161992 0.158115 0.153802 0.151079 0.150467 0.150427 0.150387 0.149763 0.146886 0.142327 0.138471 0.134615 0.130759 0.128199 0.126583 0.126296 0.126278 0.126260 0.125982 0.124918 0.123232 0.122186 0.121141 0.120096 0.119431 0.119012 0.118934 0.118929 0.118924 0.118846 0.118541 0.118058 0.117713 0.117367 0.117021 0.116763 0.116600 0.116568 0.116566 0.116564 0.116532 0.116399 0.116188 0.116016 0.115843 0.115670 0.115526 0.115435 0.115416 0.115415 0.115414 0.115395 0.115316 0.115190 0.115084 0.114977 0.114871 0.114781 0.114725 0.114713 0.114713 0.114712 0.114700 0.114652 0.114574 0.114510 0.114445 0.114380 0.114326 0.114292 0.114285 0.114285 0.114285 0.114278 0.114248 0.114202 0.114164 0.114126 0.114088 0.114058 0.114038 0.114035 0.114034 
0.158830 0.158812 0.158752 0.158613 0.158430 0.158248 0.158067 0.157885 0.157702 0.157564 0.157504 0.157486 0.157468 0.157408 0.157271 0.157090 0.156909 0.156728 0.156547 0.156367 0.156230 0.156171 0.156154 0.156136 0.156077 0.155942 0.155763 0.155585 0.155407 0.155229 0.155053 0.154919 0.154861 0.154844 0.154827 0.154769 0.154637 0.154462 0.154289 0.154117 0.153944 0.153798 0.153687 0.153643 0.153630 0.153617 0.153573 0.153473 0.153342 0.153220 0.153098 0.152976 0.152858 0.152769 0.152730 0.152719 0.152708 0.152670 0.152589 0.152483 0.152377 0.152272 0.152167 0.152070 0.151996 0.151966 0.151957 0.151948 0.151917 0.151846 0.151754 0.151667 0.151580 0.151494 0.151412 0.151351 0.151324 0.151316 0.151308 0.151281 0.151222 0.151145 0.151074 0.151004 0.150933 0.150862 0.150809 0.150788 0.150783 0.150777 0.150756 0.150710 0.150648 0.150587 0.150526 0.150465 0.150411 0.150370 0.150352 0.150347 0.150342 0.150324 0.150284 0.150230 0.150183 0.150136 0.150089 0.150043 0.150008 0.149993 0.149989 0.149984 0.149969 0.149939 0.149898 0.149859 0.149820 0.149781 0.149744 0.149716 0.149705 0.149702 0.149699 0.149687 0.149662 0.149628 0.149596 0.149565 0.149533 0.149504 0.149482 0.149472 0.149470 0.149467 0.149457 0.149435 0.149406 0.149381 0.149355 0.149330 0.149304 0.149285 0.149276 0.149274 
0.185200 0.185166 0.184990 0.184543 0.183948 0.183360 0.182772 0.182183 0.181609 0.181177 0.181009 0.180976 0.180944 0.180776 0.180356 0.179797 0.179250 0.178704 0.178157 0.177630 0.177234 0.177082 0.177052 0.177023 0.176872 0.176495 0.175995 0.175515 0.175036 0.174556 0.174083 0.173727 0.173589 0.173562 0.173535 0.173397 0.173049 0.172586 0.172139 0.171692 0.171245 0.170859 0.170569 0.170462 0.170442 0.170421 0.170316 0.170057 0.169713 0.169413 0.169113 0.168812 0.168547 0.168348 0.168273 0.168258 0.168243 0.168168 0.167990 0.167753 0.167539 0.167326 0.167112 0.166917 0.166770 0.166713 0.166702 0.166692 0.166637 0.166508 0.166335 0.166171 0.166007 0.165842 0.165687 0.165571 0.165529 0.165520 0.165512 0.165470 0.165362 0.165218 0.165085 0.164951 0.164817 0.164692 0.164598 0.164561 0.164554 0.164547 0.164510 0.164418 0.164296 0.164178 0.164060 0.163942 0.163828 0.163743 0.163708 0.163702 
0.245507 0.245358 0.244658 0.242930 0.240636 0.238405 0.236175 0.233945 0.231790 0.230167 0.229523 0.229385 0.229248 0.228604 0.227072 0.225040 0.223097 0.221155 0.219213 0.217373 0.215988 0.215450 0.215336 0.215222 0.214691 0.213436 0.211770 0.210254 0.208738 0.207222 0.205878 0.204864 0.204471 0.204387 0.204304 0.203917 0.203008 0.201800 0.200751 0.199701 0.198651 0.197738 0.197050 0.196783 0.196726 0.196671 0.196410 0.195831 0.195063 0.194334 0.193605 0.192876 0.192161 0.191622 0.191407 0.191361 0.191316 0.191101 0.190573 0.189871 0.189182 0.188492 0.187803 0.187102 0.186573 0.186363 0.186318 0.186274 0.186064 0.185546 0.184859 0.184194 0.183529 0.182865 0.182227 0.181746 0.181562 0.181523 0.181484 0.181301 0.180859 0.180272 0.179755 0.179237 0.178720 0.178262 0.177918 0.177793 0.177767 0.177741 0.177618 0.177320 0.176924 0.176600 0.176276 0.175952 0.175673 0.175463 0.175388 0.175372 0.175355 0.175280 0.175093 0.174844 0.174637 0.174430 0.174223 0.174037 0.173896 0.173844 0.173833 0.173822 0.173771 0.173643 0.173473 0.173325 0.173176 0.173028 0.172891 0.172789 0.172749 0.172741 0.172732 0.172693 0.172591 0.172457 0.172340 0.172222 0.172105 0.171994 0.171911 0.171878 0.171871 0.171864 0.171831 0.171748 0.171638 0.171536 0.171433 0.171331 0.171231 0.171155 0.171125 0.171118 
0.263967 0.263732 0.262822 0.260736 0.257976 0.255467 0.252959 0.250450 0.248116 0.246352 0.245633 0.245448 0.245265 0.244554 0.242904 0.240722 0.238660 0.236599 0.234537 0.232584 0.231107 0.230501 0.230344 0.230189 0.229589 0.228204 0.226371 0.224664 0.222956 0.221248 0.219659 0.218458 0.217980 0.217857 0.217736 0.217265 0.216174 0.214731 0.213445 0.212159 0.210873 0.209712 0.208834 0.208488 0.208399 0.208311 0.207972 0.207208 0.206198 0.205276 0.204354 0.203432 0.202648 0.202056 0.201856 0.201804 0.201753 0.201553 0.201084 0.200464 0.199857 0.199250 0.198644 0.198045 0.197593 0.197404 0.197355 0.197307 0.197118 0.196670 0.196077 0.195489 0.194902 0.194315 0.193735 0.193297 0.193115 0.193067 0.193020 0.192838 0.192393 0.191803 0.191227 0.190652 0.190076 0.189513 0.189088 0.188912 0.188866 0.188822 0.188650 0.188243 0.187705 0.187184 0.186664 0.186143 0.185657 0.185290 0.185138 0.185099 0.185061 0.184910 0.184566 0.184111 0.183703 0.183295 0.182888 0.182521 0.182245 0.182139 0.182112 0.182085 0.181981 0.181742 0.181425 0.181143 0.180861 0.180579 0.180324 0.180132 0.180052 0.180032 0.180012 0.179934 0.179779 0.179574 0.179376 0.179178 0.178980 0.178815 0.178690 0.178637 0.178624 0.178610 0.178557 0.178432 0.178266 0.178129 0.177993 0.177856 0.177720 0.177618 0.177581 0.177572 0.177562 0.177526 0.177438 0.177322 0.177213 0.177103 0.176993 0.176892 0.176816 0.176783 0.176775 0.176766 0.176733 0.176662 0.176567 0.176476 0.176385 0.176294 0.176211 0.176149 0.176124 0.176117 0.176111 0.176085 0.176023 0.175941 0.175866 0.175790 0.175715 0.175640 0.175583 0.175560 0.175553 
0.235257 0.235090 0.234305 0.232427 0.229935 0.227663 0.225392 0.223120 0.221061 0.219510 0.218914 0.218787 0.218662 0.218074 0.216667 0.214800 0.213110 0.211421 0.209731 0.208223 0.207088 0.206652 0.206560 0.206469 0.206042 0.205025 0.203675 0.202478 0.201280 0.200083 0.199029 0.198235 0.197935 0.197871 0.197807 0.197505 0.196783 0.195823 0.194938 0.194052 0.193167 0.192340 0.191718 0.191472 0.191419 0.191367 0.191122 0.190511 0.189701 0.188928 0.188156 0.187384 0.186653 0.186103 0.185891 0.185846 0.185801 0.185590 0.185071 0.184383 0.183758 0.183134 0.182510 0.181952 0.181531 0.181379 0.181347 0.181315 0.181165 0.180805 0.180327 0.179961 0.179594 0.179228 0.178937 0.178718 0.178638 0.178621 0.178605 0.178526 0.178338 0.178088 0.177901 0.177714 0.177527 0.177382 0.177273 0.177231 0.177222 0.177213 0.177170 0.177072 0.176942 0.176840 0.176737 0.176634 0.176561 0.176506 0.176483 0.176478 0.176474 0.176451 0.176403 0.176339 0.176291 0.176243 0.176195 0.176165 0.176143 0.176134 0.176132 0.176130 0.176120 0.176105 0.176084 0.176073 0.176063 0.176053 0.176056 0.176057 0.176058 0.176058 
0.183208 0.183165 0.182940 0.182383 0.181642 0.180939 0.180235 0.179532 0.178874 0.178379 0.178190 0.178153 0.178117 0.177930 0.177464 0.176846 0.176262 0.175679 0.175095 0.174545 0.174132 0.173973 0.173942 0.173911 0.173753 0.173365 0.172848 0.172363 0.171878 0.171393 0.170942 0.170603 0.170471 0.170446 0.170420 0.170289 0.169980 0.169570 0.169195 0.168819 0.168443 0.168105 0.167852 0.167796 0.167786 0.167775 0.167720 0.167585 0.167406 0.167271 0.167136 0.167001 0.166900 0.166824 0.166798 0.166793 0.166788 0.166762 0.166698 0.166614 0.166553 0.166491 0.166430 0.166391 0.166362 0.166349 0.166346 0.166343 0.166330 0.166309 0.166282 0.166270 0.166257 0.166244 0.166245 0.166245 0.166247 0.166247 
