0.147634 0.147626 0.147523 0.147072 0.146359 0.145706 0.145053 0.144399 0.143758 0.143353 0.143263 0.143256 0.143248 0.143159 0.142757 0.142120 0.141500 0.140880 0.140259 0.139655 0.139274 0.139191 0.139184 0.139177 0.139093 0.138719 0.138126 0.137543 0.136960 0.136377 0.135805 0.135443 0.135364 0.135357 0.135351 0.135271 0.134916 0.134352 0.133805 0.133258 0.132711 0.132184 0.131851 0.131779 0.131773 0.131767 0.131695 0.131375 0.130868 0.130387 0.129906 0.129426 0.128975 0.128690 0.128628 0.128623 0.128618 0.128557 0.128287 0.127860 0.127462 0.127063 0.126664 0.126292 0.126057 0.126006 0.126002 0.125998 0.125948 0.125726 0.125375 0.125046 0.124717 0.124389 0.124081 0.123886 0.123844 0.123841 
0.147640 0.147654 0.147776 0.148098 0.148528 0.148930 0.149333 0.149735 0.150106 0.150384 0.150483 0.150495 0.150507 0.150605 0.150867 0.151217 0.151555 0.151892 0.152229 0.152563 0.152812 0.152903 0.152914 0.152925 0.153016 0.153266 0.153601 0.153940 0.154280 0.154619 0.154965 0.155224 0.155320 0.155331 0.155343 0.155439 0.155705 0.156060 0.156425 0.156789 0.157153 0.157527 0.157806 0.157910 0.157922 0.157934 0.158038 0.158326 0.158710 0.159104 0.159499 0.159893 0.160297 0.160600 0.160711 0.160724 0.160738 0.160850 0.161160 0.161575 0.162001 0.162427 0.162852 0.163288 0.163615 0.163735 0.163749 0.163763 0.163884 0.164219 0.164666 0.165123 0.165581 0.166038 0.166507 0.166858 0.166987 0.167002 0.167018 0.167147 0.167505 0.167984 0.168474 0.168965 0.169455 0.169956 0.170331 0.170469 0.170485 0.170502 0.170640 0.171022 0.171533 0.172055 0.172578 0.173100 0.173637 0.174039 0.174188 0.174205 0.174223 0.174372 0.174783 0.175332 0.175892 0.176453 0.177013 0.177583 0.178010 0.178167 0.178185 0.178204 0.178361 0.178797 0.179379 0.179976 0.180572 0.181169 0.181778 0.182234 0.182401 0.182420 0.182440 0.182608 0.183073 0.183694 0.184326 0.184959 0.185591 0.186234 0.186715 0.186893 0.186914 0.186935 0.187114 0.187605 0.188260 0.188925 0.189589 0.190253 0.190936 0.191448 0.191637 0.191659 0.191681 0.191870 0.192392 0.193089 0.193799 0.194509 0.195219 0.195945 0.196488 0.196688 0.196711 0.196735 0.196935 0.197490 0.198231 0.198990 0.199750 0.200510 0.201284 0.201864 0.202078 0.202103 0.202128 0.202342 0.202933 0.203723 0.204525 0.205327 0.206129 0.206941 0.207548 0.207771 0.207798 0.207824 0.208047 0.208657 0.209471 0.210301 0.211131 0.211961 0.212793 0.213415 0.213639 0.213666 0.213692 0.213915 0.214527 0.215344 0.216149 0.216955 0.217760 0.218528 0.219102 0.219305 0.219329 0.219353 0.219559 0.220112 0.220850 0.221544 0.222238 0.222932 0.223578 0.224061 0.224232 0.224252 0.224271 0.224434 0.224854 0.225415 0.225918 0.226421 0.226924 0.227350 0.227669 0.227772 0.227784 0.227796 0.227895 0.228152 0.228495 0.228743 0.228991 0.229239 0.229399 0.229519 0.229556 0.229560 0.229564 0.229597 0.229647 0.229714 0.229687 0.229660 0.229633 0.229516 0.229427 0.229387 0.229382 0.229377 0.229331 0.229189 0.228998 0.228726 0.228455 0.228183 0.227833 0.227571 0.227465 0.227453 0.227440 0.227331 0.227016 0.226595 0.226097 0.225598 0.225100 0.224545 0.224129 0.223971 0.223952 
0.147636 0.147633 0.147593 0.147437 0.147190 0.146714 0.146238 0.145761 0.145306 0.145018 0.144948 0.144943 0.144938 0.144871 0.144606 0.144186 0.143852 0.143518 0.143184 0.142921 0.142754 0.142720 0.142718 0.142715 0.142681 0.142533 0.142298 0.142050 0.141803 0.141556 0.141255 0.141064 0.141018 0.141014 0.141011 0.140963 0.140697 0.140274 0.139555 0.138836 0.138117 0.136964 0.136236 0.136053 0.136039 0.136025 0.135840 0.134939 0.133512 0.131679 0.129847 0.128015 0.126190 0.125038 0.124809 0.124792 0.124775 0.124550 0.123662 0.122255 0.121352 0.120449 0.119546 0.118985 0.118631 0.118566 0.118561 0.118556 0.118491 0.118240 0.117842 0.117569 0.117295 0.117021 0.116823 0.116698 0.116673 0.116671 0.116669 0.116645 0.116544 0.116383 0.116253 0.116123 0.115993 0.115885 0.115816 0.115802 0.115801 0.115800 0.115786 0.115727 0.115632 0.115552 0.115472 0.115392 0.115324 0.115281 0.115272 0.115271 0.115271 0.115262 0.115224 0.115165 0.115114 0.115063 0.115012 0.114969 0.114942 0.114936 0.114936 0.114936 0.114930 0.114906 0.114868 0.114836 0.114803 0.114770 0.114743 0.114725 0.114721 0.114721 0.114721 0.114717 0.114701 0.114677 0.114655 0.114634 0.114613 0.114594 0.114582 0.114580 0.114580 0.114579 0.114577 0.114567 0.114550 0.114535 0.114520 0.114504 0.114490 0.114482 0.114480 0.114479 
0.126002 0.126001 0.125992 0.125964 0.125927 0.125876 0.125826 0.125775 0.125711 0.125662 0.125643 0.125640 0.125638 0.125618 0.125579 0.125528 0.125479 0.125430 0.125380 0.125330 0.125293 0.125279 0.125277 0.125275 0.125261 0.125222 0.125170 0.125118 0.125066 0.125013 0.124962 0.124923 0.124909 0.124907 
0.135357 0.135355 0.135344 0.135314 0.135275 0.135230 0.135185 0.135140 0.135089 0.135051 0.135035 0.135032 0.135029 0.135013 0.134970 0.134914 0.134851 0.134787 0.134724 0.134653 0.134599 0.134578 0.134574 0.134570 0.134548 0.134489 0.134411 0.134326 0.134241 0.134156 0.134065 0.133997 0.133969 0.133964 0.133958 0.133930 0.133856 0.133757 0.133653 0.133549 0.133446 0.133344 0.133268 0.133246 0.133242 0.133238 0.133216 0.133159 0.133085 0.133012 0.132940 0.132867 0.132797 0.132744 0.132723 0.132720 0.132716 0.132695 0.132643 0.132575 0.132507 0.132440 0.132373 0.132307 0.132257 0.132239 0.132235 0.132232 0.132213 0.132165 0.132102 0.132040 0.131979 0.131917 0.131858 0.131813 0.131796 0.131792 0.131789 0.131772 0.131729 0.131672 0.131617 0.131563 0.131508 0.131456 0.131416 0.131401 0.131398 
0.139184 0.139185 0.139188 0.139193 0.139201 0.139204 0.139208 0.139212 0.139211 0.139211 0.139210 0.139210 0.139210 0.139209 0.139206 0.139202 0.139195 0.139188 0.139181 0.139172 0.139165 0.139162 0.139161 0.139160 0.139156 0.139148 0.139137 0.139125 0.139114 0.139102 0.139089 0.139080 0.139075 0.139074 0.139073 0.139068 0.139055 0.139038 0.139017 0.138997 0.138976 0.138949 0.138928 0.138919 0.138917 0.138915 0.138905 0.138882 0.138851 0.138813 0.138776 0.138739 0.138696 0.138664 0.138649 0.138645 0.138641 0.138626 0.138590 0.138541 0.138487 0.138433 0.138379 0.138320 0.138275 0.138256 0.138251 0.138247 0.138227 0.138176 0.138108 0.138039 0.137971 0.137902 0.137852 0.137814 0.137798 0.137794 0.137790 0.137774 0.137737 0.137688 0.137637 0.137587 0.137537 0.137488 0.137450 0.137434 0.137430 0.137426 0.137410 0.137373 0.137324 0.137275 0.137226 0.137177 0.137128 0.137091 0.137075 0.137071 0.137067 0.137052 0.137015 0.136967 0.136918 0.136869 0.136821 0.136773 0.136737 0.136722 0.136718 0.136714 0.136698 0.136662 0.136614 0.136567 0.136520 0.136473 0.136426 0.136390 0.136376 0.136372 0.136368 0.136354 0.136319 0.136273 0.136228 0.136183 0.136139 0.136094 0.136061 0.136047 0.136043 0.136040 0.136025 0.135993 0.135949 0.135906 0.135862 0.135819 0.135777 0.135745 0.135731 0.135728 0.135724 0.135711 0.135679 0.135637 0.135595 0.135553 0.135512 0.135470 0.135438 0.135425 0.135421 0.135418 0.135405 0.135374 0.135332 0.135291 0.135250 0.135209 0.135169 0.135138 0.135125 0.135122 
0.143256 0.143256 0.143258 0.143259 0.143261 0.143254 0.143246 0.143239 0.143222 0.143210 0.143203 0.143201 0.143200 0.143193 0.143174 0.143150 0.143119 0.143088 0.143057 0.143020 0.142992 0.142980 0.142977 0.142973 0.142961 0.142930 0.142889 0.142842 0.142796 0.142749 0.142699 0.142662 0.142646 0.142642 0.142637 0.142621 0.142586 0.142541 0.142505 0.142470 0.142435 0.142396 0.142367 0.142354 0.142351 0.142348 0.142335 0.142304 0.142262 0.142216 0.142170 0.142124 0.142074 0.142036 0.142020 0.142016 0.142012 0.141995 0.141953 0.141898 0.141847 0.141797 0.141747 0.141691 0.141649 0.141631 0.141626 0.141621 0.141601 0.141551 0.141485 0.141413 0.141342 0.141271 0.141193 0.141133 0.141108 0.141102 0.141095 0.141070 0.141006 0.140921 0.140831 0.140740 0.140650 0.140552 0.140478 0.140446 0.140438 0.140430 0.140399 0.140332 0.140243 0.140161 0.140079 0.139997 0.139917 0.139856 0.139831 0.139825 0.139819 0.139794 0.139736 0.139659 0.139584 0.139510 0.139435 0.139365 0.139312 0.139290 0.139285 0.139279 0.139257 0.139206 0.139139 0.139075 0.139010 0.138946 0.138886 0.138840 0.138822 0.138817 0.138812 0.138794 0.138749 0.138690 0.138635 0.138580 0.138525 0.138471 0.138430 0.138413 0.138409 0.138405 0.138390 0.138352 0.138302 0.138254 0.138205 0.138156 0.138110 0.138075 0.138060 0.138057 0.138053 0.138038 0.138005 0.137961 0.137917 0.137874 0.137831 0.137789 0.137758 0.137745 0.137742 0.137739 0.137726 0.137695 0.137653 0.137614 0.137574 0.137534 0.137494 0.137464 0.137452 0.137449 0.137446 0.137433 0.137404 0.137366 0.137327 0.137288 0.137250 0.137211 0.137182 0.137170 0.137167 
0.150495 0.150493 0.150489 0.150477 0.150462 0.150441 0.150420 0.150400 0.150373 0.150352 0.150342 0.150339 0.150336 0.150326 0.150302 0.150270 0.150234 0.150197 0.150160 0.150117 0.150084 0.150069 0.150064 0.150059 0.150044 0.150006 0.149957 0.149903 0.149849 0.149795 0.149737 0.149693 0.149671 0.149665 0.149659 0.149638 0.149590 0.149527 0.149462 0.149397 0.149333 0.149266 0.149215 0.149192 0.149185 0.149179 0.149156 0.149106 0.149039 0.148971 0.148903 0.148835 0.148766 0.148713 0.148690 0.148683 0.148676 0.148653 0.148599 0.148529 0.148458 0.148386 0.148315 0.148244 0.148191 0.148171 0.148165 0.148159 0.148141 0.148099 0.148044 0.147989 0.147933 0.147877 0.147819 0.147774 0.147754 0.147748 0.147742 0.147722 0.147677 0.147618 0.147556 0.147494 0.147433 0.147369 0.147321 0.147299 0.147293 0.147286 0.147265 0.147214 0.147147 0.147080 0.147012 0.146944 0.146885 0.146840 0.146819 0.146812 0.146806 0.146784 0.146734 0.146668 0.146599 0.146530 0.146461 0.146383 0.146324 0.146297 0.146289 0.146281 0.146255 0.146194 0.146113 0.146027 0.145940 0.145854 0.145764 0.145697 0.145667 0.145657 0.145648 0.145618 0.145546 0.145451 0.145353 0.145255 0.145157 0.145057 0.144981 0.144945 0.144935 0.144924 0.144889 0.144809 0.144703 0.144596 0.144490 0.144383 0.144272 0.144187 0.144151 0.144140 0.144131 0.144101 0.144033 0.143943 0.143858 0.143773 0.143687 0.143605 0.143542 0.143514 0.143506 0.143498 0.143471 0.143412 0.143336 0.143261 0.143187 0.143112 0.143041 0.142987 0.142964 0.142958 0.142951 0.142929 0.142878 0.142811 0.142748 0.142684 0.142620 0.142561 0.142516 0.142496 0.142490 0.142484 0.142464 0.142419 0.142360 0.142306 0.142252 0.142198 0.142144 0.142104 0.142086 0.142080 0.142075 0.142057 0.142020 0.141971 0.141923 0.141874 0.141825 0.141779 0.141743 0.141728 0.141724 0.141719 0.141705 0.141671 0.141626 0.141583 0.141539 0.141496 0.141455 0.141423 0.141410 0.141405 0.141401 0.141387 0.141356 0.141314 0.141276 0.141237 0.141199 0.141160 0.141130 0.141117 0.141113 0.141109 0.141096 0.141068 0.141032 0.140995 0.140957 0.140920 0.140884 0.140857 0.140845 0.140841 0.140838 0.140826 0.140799 0.140763 0.140727 0.140692 0.140656 0.140621 0.140595 0.140583 0.140579 0.140576 0.140564 0.140536 0.140501 0.140466 0.140431 0.140396 0.140360 0.140333 0.140321 0.140317 
0.155330 0.155326 0.155307 0.155259 0.155195 0.155123 0.155051 0.154979 0.154899 0.154839 0.154814 0.154808 0.154802 0.154776 0.154711 0.154624 0.154532 0.154440 0.154348 0.154250 0.154176 0.154146 0.154139 0.154131 0.154101 0.154023 0.153919 0.153812 0.153706 0.153599 0.153488 0.153404 0.153370 0.153362 0.153354 0.153319 0.153234 0.153120 0.153004 0.152888 0.152771 0.152657 0.152571 0.152537 0.152529 0.152521 0.152488 0.152407 0.152301 0.152188 0.152074 0.151961 0.151848 0.151763 0.151727 0.151719 0.151710 0.151674 0.151586 0.151470 0.151344 0.151218 0.151091 0.150959 0.150859 0.150816 0.150805 0.150795 0.150752 0.150646 0.150505 0.150356 0.150207 0.150059 0.149904 0.149788 0.149739 0.149727 0.149715 0.149665 0.149543 0.149381 0.149216 0.149050 0.148885 0.148716 0.148590 0.148538 0.148526 0.148513 0.148461 0.148353 0.148210 0.148091 0.147971 0.147851 0.147741 0.147658 0.147624 0.147616 0.147609 0.147575 0.147501 0.147403 0.147311 0.147218 0.147126 0.147043 0.146980 0.146955 0.146949 0.146943 0.146918 0.146859 0.146782 0.146710 0.146638 0.146566 0.146503 0.146455 0.146436 0.146431 0.146426 0.146407 0.146360 0.146298 0.146241 0.146184 0.146127 0.146075 0.146035 0.146019 0.146016 0.146012 0.145996 0.145958 0.145907 0.145861 0.145815 0.145769 0.145725 0.145691 0.145678 0.145675 0.145672 0.145659 0.145628 0.145586 0.145546 0.145506 0.145466 0.145427 0.145398 0.145386 0.145384 0.145381 0.145370 0.145342 0.145305 0.145269 0.145233 0.145197 0.145161 0.145134 0.145123 0.145120 
0.163747 0.163737 0.163700 0.163612 0.163495 0.163371 0.163248 0.163125 0.162993 0.162893 0.162850 0.162839 0.162827 0.162784 0.162680 0.162544 0.162401 0.162258 0.162114 0.161966 0.161854 0.161806 0.161792 0.161779 0.161730 0.161613 0.161459 0.161301 0.161143 0.160985 0.160824 0.160703 0.160651 0.160637 0.160623 0.160571 0.160447 0.160283 0.160117 0.159950 0.159784 0.159617 0.159490 0.159435 0.159421 0.159406 0.159351 0.159225 0.159057 0.158888 0.158719 0.158549 0.158380 0.158252 0.158197 0.158183 0.158168 0.158113 0.157982 0.157810 0.157636 0.157463 0.157289 0.157113 0.156981 0.156924 0.156909 0.156894 0.156837 0.156704 0.156528 0.156349 0.156171 0.155992 0.155813 0.155677 0.155618 0.155603 0.155587 0.155528 0.155390 0.155208 0.155027 0.154845 0.154664 0.154482 0.154345 0.154287 0.154271 0.154255 0.154197 0.154060 0.153879 0.153706 0.153532 0.153359 0.153222 0.153119 0.153077 0.153066 0.153055 0.153013 0.152917 0.152791 0.152671 0.152552 0.152433 0.152320 0.152235 0.152200 0.152190 0.152180 0.152145 0.152065 0.151960 0.151860 0.151759 0.151659 0.151565 0.151493 0.151464 0.151456 0.151448 0.151419 0.151351 0.151262 0.151177 0.151093 0.151008 0.150927 0.150865 0.150838 0.150831 0.150824 0.150798 0.150740 0.150664 0.150589 0.150513 0.150437 0.150367 0.150314 0.150291 0.150285 0.150279 0.150256 0.150204 0.150134 0.150070 0.150005 0.149941 0.149876 0.149828 0.149808 0.149803 0.149797 0.149778 0.149733 0.149674 0.149616 0.149558 0.149500 0.149444 0.149402 0.149385 0.149380 0.149375 0.149357 0.149316 0.149262 0.149211 0.149160 0.149109 0.149058 0.149020 0.149005 0.149000 0.148996 0.148981 0.148944 0.148895 0.148847 0.148799 0.148752 0.148705 0.148670 0.148655 0.148651 
0.170482 0.170469 0.170352 0.170007 0.169546 0.169029 0.168511 0.167994 0.167432 0.167012 0.166854 0.166836 0.166818 0.166659 0.166219 0.165631 0.165036 0.164441 0.163846 0.163248 0.162800 0.162639 0.162621 0.162603 0.162442 0.161996 0.161401 0.160806 0.160212 0.159617 0.159039 0.158607 0.158451 0.158434 0.158417 0.158266 0.157943 0.157510 0.157189 0.156868 0.156547 0.156298 0.156111 0.156051 0.156044 0.156038 0.155978 0.155824 0.155618 0.155446 0.155273 0.155100 0.154954 0.154845 0.154807 0.154803 0.154799 0.154761 0.154666 0.154538 0.154423 0.154308 0.154193 0.154088 0.154009 0.153979 0.153976 
0.186907 0.186876 0.186767 0.186511 0.186172 0.185830 0.185488 0.185146 0.184798 0.184535 0.184421 0.184389 0.184357 0.184243 0.183977 0.183626 0.183269 0.182912 0.182555 0.182194 0.181921 0.181803 0.181770 0.181737 0.181618 0.181339 0.180972 0.180611 0.180250 0.179888 0.179530 0.179259 0.179144 0.179112 0.179079 0.178964 0.178699 0.178348 0.178001 0.177654 0.177307 0.176965 0.176707 0.176597 0.176566 0.176535 0.176424 0.176168 0.175830 0.175499 0.175168 0.174837 0.174511 0.174263 0.174158 0.174129 0.174099 0.173995 0.173753 0.173435 0.173121 0.172807 0.172493 0.172184 0.171951 0.171852 0.171824 0.171796 0.171697 0.171469 0.171167 0.170870 0.170574 0.170278 0.169986 0.169765 0.169671 0.169645 0.169618 0.169524 0.169306 0.169019 0.168737 0.168456 0.168175 0.167898 0.167689 0.167599 0.167574 0.167550 0.167461 0.167259 0.166993 0.166732 0.166470 0.166208 0.166012 0.165864 0.165801 0.165783 0.165765 0.165703 0.165560 0.165371 0.165204 0.165037 0.164870 0.164715 0.164598 0.164548 0.164534 0.164520 0.164471 0.164367 0.164231 0.164097 0.163964 0.163830 0.163712 0.163622 0.163585 0.163574 0.163564 0.163526 0.163439 0.163323 0.163219 0.163115 0.163011 0.162910 0.162834 0.162801 0.162792 0.162782 0.162750 0.162682 0.162593 0.162504 0.162415 0.162326 0.162245 0.162184 0.162158 0.162151 0.162143 0.162118 0.162058 0.161978 0.161905 0.161832 0.161758 0.161687 0.161632 0.161608 0.161602 0.161595 0.161572 0.161522 0.161456 0.161390 0.161325 0.161259 0.161198 0.161152 0.161133 0.161127 0.161122 0.161102 0.161057 0.160996 0.160938 0.160881 0.160823 0.160766 0.160722 0.160703 0.160698 0.160693 0.160674 0.160633 0.160579 0.160525 0.160470 0.160415 0.160362 0.160321 0.160304 0.160299 0.160295 0.160277 0.160236 0.160182 0.160129 0.160075 0.160022 0.159968 0.159927 0.159909 0.159904 
0.202090 0.202037 0.201914 0.201676 0.201366 0.201055 0.200744 0.200433 0.200121 0.199882 0.199758 0.199705 0.199651 0.199527 0.199287 0.198975 0.198662 0.198349 0.198036 0.197724 0.197484 0.197360 0.197306 0.197252 0.197129 0.196890 0.196579 0.196269 0.195959 0.195650 0.195342 0.195105 0.194984 0.194931 0.194879 0.194757 0.194522 0.194216 0.193912 0.193608 0.193304 0.193002 0.192769 0.192650 0.192598 0.192546 0.192427 0.192197 0.191897 0.191602 0.191306 0.191011 0.190720 0.190495 0.190380 0.190331 0.190281 0.190167 0.189947 0.189662 0.189381 0.189101 0.188820 0.188544 0.188331 0.188222 0.188174 0.188127 0.188018 0.187807 0.187534 0.187264 0.186994 0.186724 0.186458 0.186254 0.186150 0.186105 0.186060 0.185957 0.185758 0.185499 0.185247 0.184994 0.184741 0.184494 0.184305 0.184208 0.184166 0.184124 0.184028 0.183844 0.183604 0.183367 0.183130 0.182892 0.182660 0.182482 0.182390 0.182351 0.182312 0.182221 0.182047 0.181821 0.181599 0.181377 0.181155 0.180937 0.180770 0.180684 0.180647 0.180610 0.180525 0.180362 0.180149 0.179940 0.179731 0.179521 0.179315 0.179157 0.179075 0.179040 0.179005 0.178924 0.178768 0.178565 0.178365 0.178164 0.177964 0.177768 0.177617 0.177540 0.177507 0.177474 0.177397 0.177249 0.177056 0.176866 0.176676 0.176485 0.176298 0.176153 0.176079 0.176047 0.176016 0.175943 0.175803 0.175620 0.175439 0.175258 0.175077 0.174898 0.174760 0.174689 0.174658 0.174628 0.174556 0.174422 0.174247 0.174076 0.173905 0.173734 0.173581 0.173463 0.173403 0.173377 0.173352 0.173292 0.173179 0.173032 0.172898 0.172764 0.172629 0.172501 0.172403 0.172353 0.172331 0.172309 0.172259 0.172163 0.172038 0.171919 0.171801 0.171682 0.171571 0.171486 0.171442 0.171423 0.171404 0.171361 0.171278 0.171170 0.171064 0.170958 0.170852 0.170757 0.170684 0.170646 0.170630 0.170614 0.170577 0.170505 0.170412 0.170321 0.170230 0.170138 0.170050 0.169982 0.169950 0.169936 0.169922 0.169891 0.169829 0.169749 0.169670 0.169590 0.169510 0.169431 0.169370 0.169338 0.169324 0.169311 0.169279 0.169224 0.169153 0.169083 0.169012 0.168942 0.168872 0.168818 0.168791 0.168779 0.168767 0.168740 0.168689 0.168622 0.168561 0.168499 0.168438 0.168376 0.168328 0.168304 0.168293 0.168283 0.168258 0.168210 0.168148 0.168090 0.168032 0.167974 0.167917 0.167874 0.167851 0.167842 0.167832 0.167809 0.167765 0.167708 0.167651 0.167595 0.167538 0.167486 0.167446 0.167426 0.167417 0.167408 0.167388 0.167348 0.167296 0.167245 0.167193 0.167141 0.167093 0.167056 0.167037 0.167030 0.167022 0.167003 0.166967 0.166920 0.166873 0.166825 0.166778 0.166730 0.166694 0.166675 0.166668 0.166660 0.166643 0.166610 0.166567 0.166523 0.166479 0.166436 0.166391 0.166357 0.166340 0.166332 0.166324 0.166307 0.166275 0.166233 0.166192 0.166151 0.166110 0.166069 0.166037 0.166020 0.166013 0.166006 0.165989 0.165957 0.165914 0.165875 0.165836 0.165797 0.165757 0.165727 0.165711 0.165704 0.165697 0.165681 0.165650 0.165610 0.165571 0.165531 0.165492 0.165454 0.165424 0.165409 0.165403 0.165396 0.165380 0.165350 0.165311 0.165272 0.165232 0.165192 0.165155 0.165126 0.165111 0.165104 
0.229525 0.229384 0.228663 0.226906 0.224570 0.222458 0.220346 0.218234 0.216320 0.214879 0.214337 0.214232 0.214127 0.213593 0.212277 0.210528 0.208939 0.207350 0.205761 0.204339 0.203269 0.202869 0.202790 0.202714 0.202323 0.201361 0.200082 0.198902 0.197722 0.196543 0.195486 0.194691 0.194395 0.194337 0.194280 0.193989 0.193279 0.192335 0.191443 0.190551 0.189659 0.188827 0.188201 0.187968 0.187923 0.187878 0.187648 0.187078 0.186320 0.185621 0.184923 0.184225 0.183593 0.183118 0.182949 0.182916 0.182883 0.182717 0.182321 0.181794 0.181362 0.180929 0.180497 0.180137 0.179866 0.179762 0.179741 0.179721 0.179617 0.179386 0.179080 0.178813 0.178547 0.178280 0.178037 0.177855 0.177789 0.177776 0.177764 0.177705 0.177552 0.177350 0.177171 0.176992 0.176813 0.176647 0.176523 0.176478 0.176470 0.176461 0.176417 0.176304 0.176154 0.176024 0.175895 0.175765 0.175653 0.175569 0.175535 0.175529 0.175522 0.175488 0.175409 0.175304 0.175205 0.175107 0.175008 0.174917 0.174849 0.174820 0.174815 
