0.134151 0.134146 0.134081 0.133787 0.133323 0.132872 0.132421 0.131970 0.131543 0.131274 0.131216 0.131212 0.131208 0.131151 0.130897 0.130496 0.130119 0.129741 0.129364 0.129011 0.128788 0.128740 0.128737 0.128733 0.128686 0.128473 0.128135 0.127807 0.127478 0.127149 0.126822 0.126615 0.126570 0.126567 0.126563 0.126517 0.126310 0.125982 0.125658 0.125334 0.125009 0.124694 0.124495 0.124452 0.124449 0.124446 0.124403 0.124210 0.123904 0.123612 0.123319 0.123027 0.122749 0.122574 0.122536 0.122533 0.122530 0.122492 0.122325 0.122061 0.121812 0.121563 0.121314 0.121082 0.120935 0.120904 0.120902 0.120900 0.120868 0.120731 0.120513 0.120309 0.120106 0.119903 0.119713 0.119594 0.119568 0.119566 0.119564 0.119539 0.119426 0.119248 0.119081 0.118914 0.118747 0.118592 0.118493 0.118472 0.118471 
0.134153 0.134155 0.134179 0.134236 0.134314 0.134383 0.134452 0.134522 0.134592 0.134644 0.134663 0.134665 0.134667 0.134688 0.134750 0.134834 0.134944 0.135054 0.135164 0.135305 0.135410 0.135450 0.135455 0.135459 0.135502 0.135628 0.135798 0.135989 0.136181 0.136372 0.136579 0.136733 0.136789 0.136795 0.136801 0.136857 0.137019 0.137236 0.137460 0.137683 0.137907 0.138136 0.138306 0.138367 0.138374 0.138380 0.138441 0.138614 0.138848 0.139086 0.139324 0.139562 0.139804 0.139984 0.140049 0.140056 0.140063 0.140127 0.140311 0.140558 0.140810 0.141063 0.141316 0.141575 0.141767 0.141836 0.141844 0.141851 0.141920 0.142118 0.142383 0.142653 0.142924 0.143195 0.143470 0.143675 0.143749 0.143757 0.143765 0.143839 0.144050 0.144334 0.144625 0.144915 0.145205 0.145502 0.145722 0.145801 0.145809 0.145818 0.145897 0.146123 0.146426 0.146737 0.147048 0.147359 0.147676 0.147913 0.147998 0.148007 0.148016 0.148101 0.148344 0.148670 0.149005 0.149339 0.149673 0.150017 0.150272 0.150364 0.150374 0.150383 0.150475 0.150738 0.151091 0.151454 0.151816 0.152178 0.152550 0.152826 0.152926 0.152936 0.152947 0.153047 0.153332 0.153716 0.154111 0.154506 0.154900 0.155308 0.155610 0.155719 0.155730 0.155742 0.155851 0.156162 0.156581 0.157013 0.157445 0.157877 0.158323 0.158654 0.158774 0.158787 0.158799 0.158920 0.159262 0.159722 0.160196 0.160670 0.161144 0.161636 0.162001 0.162132 0.162146 0.162160 0.162292 0.162668 0.163174 0.163699 0.164223 0.164748 0.165289 0.165691 0.165836 0.165851 0.165867 0.166012 0.166426 0.166983 0.167556 0.168129 0.168701 0.169289 0.169726 0.169883 0.169899 0.169916 0.170072 0.170518 0.171119 0.171737 0.172355 0.172973 0.173605 0.174075 0.174244 0.174261 0.174279 0.174448 0.174929 0.175576 0.176240 0.176905 0.177569 0.178246 0.178749 0.178930 0.178949 0.178968 0.179149 0.179666 0.180361 0.181067 0.181772 0.182478 0.183199 0.183735 0.183926 0.183946 0.183966 0.184157 0.184702 0.185435 0.186180 0.186926 0.187672 0.188433 0.188998 0.189199 0.189220 
0.134152 0.134152 0.134152 0.134074 0.133951 0.133533 0.133115 0.132697 0.132423 0.132250 0.132215 0.132213 0.132210 0.132175 0.132022 0.131779 0.131543 0.131306 0.131070 0.130854 0.130718 0.130689 0.130687 0.130685 0.130656 0.130523 0.130311 0.130083 0.129854 0.129626 0.129322 0.129130 0.129080 0.129076 0.129073 0.129020 0.128731 0.128272 0.127546 0.126819 0.126093 0.124617 0.123685 0.123473 0.123458 0.123443 0.123230 0.122343 0.120938 0.119949 0.118960 0.117971 0.117366 0.116984 0.116918 0.116913 0.116909 0.116846 0.116612 0.116242 0.116017 0.115793 0.115569 0.115424 0.115332 0.115315 0.115314 0.115312 0.115295 0.115225 0.115114 0.115027 0.114940 0.114854 0.114782 0.114737 0.114728 0.114728 0.114727 0.114718 0.114679 0.114617 0.114564 0.114511 0.114458 0.114412 0.114384 0.114378 0.114377 0.114377 0.114371 0.114346 0.114306 0.114272 0.114237 0.114203 0.114174 0.114156 0.114152 0.114152 0.114152 0.114148 0.114132 0.114107 0.114087 0.114066 0.114046 0.114029 0.114019 0.114017 0.114016 0.114016 0.114014 0.114006 0.113992 0.113982 0.113971 0.113961 0.113953 0.113948 0.113947 0.113947 0.113947 0.113946 0.113942 0.113936 0.113932 0.113928 0.113924 0.113923 0.113922 0.113921 0.113921 
0.122533 0.122534 0.122536 0.122542 0.122549 0.122556 0.122563 0.122570 0.122575 0.122579 0.122581 0.122581 0.122582 0.122583 0.122587 0.122591 0.122594 0.122596 0.122599 0.122601 0.122602 0.122602 0.122602 0.122602 0.122602 0.122602 0.122601 0.122599 0.122597 0.122596 0.122592 0.122589 0.122587 0.122587 0.122586 0.122585 0.122581 0.122575 0.122568 0.122560 0.122552 0.122543 0.122535 0.122532 0.122531 0.122530 0.122526 0.122517 0.122505 0.122491 0.122477 0.122463 0.122447 0.122435 0.122432 0.122431 0.122431 0.122428 0.122421 0.122413 0.122403 0.122394 0.122385 0.122374 0.122367 0.122363 0.122362 0.122361 0.122358 0.122349 0.122338 0.122326 0.122315 0.122303 0.122290 0.122280 0.122276 0.122275 0.122274 0.122270 0.122259 0.122246 0.122231 0.122217 0.122203 0.122187 0.122176 0.122171 0.122169 0.122168 0.122163 0.122151 0.122135 0.122118 0.122102 0.122085 0.122069 0.122056 0.122051 0.122049 0.122048 0.122042 0.122029 0.122012 0.121994 0.121977 0.121959 0.121942 0.121928 0.121922 0.121921 0.121919 0.121913 0.121900 0.121882 0.121864 0.121846 0.121828 0.121810 0.121797 0.121791 0.121789 0.121787 0.121782 0.121768 0.121750 0.121731 0.121713 0.121695 0.121676 0.121662 0.121657 0.121655 
0.126567 0.126567 0.126573 0.126586 0.126603 0.126612 0.126621 0.126630 0.126630 0.126630 0.126629 0.126629 0.126629 0.126627 0.126619 0.126608 0.126583 0.126558 0.126534 0.126493 0.126462 0.126448 0.126447 0.126445 0.126431 0.126387 0.126329 0.126257 0.126186 0.126115 0.126072 0.126040 0.126029 0.126027 0.126026 0.126014 0.125981 0.125937 0.125890 0.125843 0.125796 0.125747 0.125711 0.125697 0.125696 0.125694 0.125681 0.125643 0.125594 0.125545 0.125496 0.125447 0.125399 0.125363 0.125350 0.125348 
0.128737 0.128737 0.128737 0.128737 0.128737 0.128734 0.128731 0.128728 0.128722 0.128717 0.128715 0.128715 0.128714 0.128712 0.128705 0.128696 0.128685 0.128675 0.128664 0.128650 0.128640 0.128636 0.128635 0.128634 0.128630 0.128620 0.128606 0.128594 0.128581 0.128569 0.128558 0.128549 0.128546 0.128545 0.128544 0.128541 0.128534 0.128525 0.128513 0.128502 0.128490 0.128477 0.128467 0.128462 0.128461 0.128459 0.128454 0.128440 0.128423 0.128401 0.128380 0.128359 0.128334 0.128316 0.128308 0.128306 0.128304 0.128296 0.128274 0.128245 0.128213 0.128181 0.128149 0.128113 0.128085 0.128073 0.128071 0.128068 0.128056 0.128026 0.127986 0.127943 0.127899 0.127856 0.127808 0.127772 0.127760 0.127757 0.127755 0.127744 0.127719 0.127686 0.127653 0.127620 0.127587 0.127555 0.127531 0.127521 0.127518 0.127516 0.127506 0.127482 0.127451 0.127420 0.127389 0.127358 0.127327 0.127304 0.127295 0.127292 0.127290 0.127281 0.127258 0.127229 0.127200 0.127170 0.127141 0.127112 0.127091 0.127082 0.127080 0.127078 0.127069 0.127048 0.127020 0.126992 0.126964 0.126936 0.126910 0.126891 0.126882 0.126880 0.126879 0.126870 0.126851 0.126825 0.126801 0.126776 0.126751 0.126727 0.126709 0.126702 0.126700 0.126698 0.126691 0.126673 0.126649 0.126626 0.126603 0.126580 0.126556 0.126539 0.126532 0.126530 0.126528 0.126521 0.126504 0.126481 0.126458 0.126435 0.126412 0.126389 0.126371 0.126364 0.126362 
0.131212 0.131213 0.131218 0.131227 0.131240 0.131244 0.131249 0.131254 0.131251 0.131248 0.131246 0.131246 0.131245 0.131242 0.131232 0.131218 0.131194 0.131171 0.131148 0.131126 0.131109 0.131105 0.131104 0.131103 0.131099 0.131088 0.131074 0.131059 0.131044 0.131029 0.131012 0.131000 0.130995 0.130994 0.130993 0.130987 0.130973 0.130955 0.130935 0.130915 0.130895 0.130874 0.130857 0.130851 0.130849 0.130847 0.130840 0.130822 0.130797 0.130770 0.130743 0.130717 0.130687 0.130665 0.130656 0.130654 0.130652 0.130642 0.130616 0.130583 0.130546 0.130510 0.130473 0.130432 0.130402 0.130389 0.130387 0.130384 0.130370 0.130337 0.130292 0.130245 0.130198 0.130151 0.130101 0.130064 0.130049 0.130046 0.130042 0.130027 0.129988 0.129936 0.129885 0.129833 0.129782 0.129731 0.129692 0.129677 0.129673 0.129670 0.129655 0.129617 0.129567 0.129519 0.129471 0.129423 0.129376 0.129341 0.129327 0.129324 0.129321 0.129308 0.129275 0.129232 0.129190 0.129148 0.129105 0.129064 0.129034 0.129021 0.129019 0.129016 0.129004 0.128976 0.128937 0.128900 0.128863 0.128826 0.128790 0.128763 0.128752 0.128749 0.128747 0.128737 0.128711 0.128677 0.128644 0.128610 0.128577 0.128544 0.128519 0.128509 0.128507 0.128505 0.128495 0.128471 0.128440 0.128408 0.128376 0.128345 0.128313 0.128289 0.128280 0.128277 0.128275 0.128266 0.128242 0.128211 0.128179 0.128147 0.128115 0.128083 0.128059 0.128049 0.128047 
0.134664 0.134662 0.134655 0.134638 0.134616 0.134593 0.134569 0.134546 0.134520 0.134501 0.134492 0.134490 0.134487 0.134478 0.134457 0.134429 0.134399 0.134369 0.134340 0.134309 0.134285 0.134274 0.134271 0.134268 0.134257 0.134233 0.134201 0.134168 0.134135 0.134102 0.134070 0.134045 0.134034 0.134030 0.134027 0.134016 0.133990 0.133956 0.133922 0.133888 0.133854 0.133819 0.133792 0.133781 0.133777 0.133774 0.133764 0.133744 0.133717 0.133689 0.133661 0.133634 0.133605 0.133584 0.133575 0.133572 0.133569 0.133559 0.133538 0.133509 0.133479 0.133450 0.133421 0.133391 0.133368 0.133358 0.133355 0.133351 0.133341 0.133317 0.133286 0.133254 0.133222 0.133190 0.133157 0.133131 0.133120 0.133117 0.133113 0.133102 0.133075 0.133041 0.133005 0.132968 0.132932 0.132895 0.132866 0.132853 0.132850 0.132846 0.132833 0.132806 0.132771 0.132735 0.132699 0.132663 0.132627 0.132599 0.132586 0.132582 0.132577 0.132563 0.132531 0.132489 0.132445 0.132402 0.132359 0.132311 0.132275 0.132259 0.132255 0.132250 0.132234 0.132197 0.132149 0.132098 0.132046 0.131995 0.131942 0.131902 0.131884 0.131879 0.131874 0.131856 0.131818 0.131768 0.131722 0.131676 0.131630 0.131585 0.131551 0.131536 0.131532 0.131527 0.131513 0.131480 0.131437 0.131394 0.131352 0.131310 0.131271 0.131241 0.131228 0.131224 0.131220 0.131207 0.131177 0.131139 0.131102 0.131066 0.131030 0.130995 0.130969 0.130957 0.130954 0.130950 0.130939 0.130914 0.130881 0.130850 0.130820 0.130789 0.130758 0.130735 0.130726 0.130723 0.130720 0.130711 0.130690 0.130663 0.130635 0.130608 0.130581 0.130557 0.130538 0.130530 0.130527 0.130525 0.130517 0.130498 0.130473 0.130451 0.130428 0.130405 0.130383 0.130366 0.130359 0.130357 0.130355 0.130347 0.130331 0.130311 0.130291 0.130271 0.130251 0.130231 0.130216 0.130210 0.130208 0.130206 0.130200 0.130186 0.130167 0.130149 0.130131 0.130112 0.130095 0.130082 0.130076 0.130074 0.130073 0.130067 0.130054 0.130036 0.130020 0.130003 0.129987 0.129970 0.129958 0.129952 0.129951 0.129949 0.129944 0.129931 0.129916 0.129900 0.129884 0.129868 0.129852 0.129840 0.129835 0.129834 
0.136794 0.136792 0.136782 0.136758 0.136726 0.136693 0.136659 0.136625 0.136589 0.136561 0.136550 0.136546 0.136543 0.136531 0.136503 0.136465 0.136424 0.136384 0.136343 0.136302 0.136270 0.136256 0.136252 0.136248 0.136235 0.136202 0.136158 0.136112 0.136067 0.136022 0.135975 0.135940 0.135925 0.135921 0.135917 0.135903 0.135866 0.135817 0.135767 0.135717 0.135666 0.135614 0.135574 0.135557 0.135553 0.135548 0.135531 0.135489 0.135434 0.135377 0.135319 0.135262 0.135202 0.135157 0.135138 0.135132 0.135127 0.135108 0.135060 0.134997 0.134932 0.134867 0.134802 0.134734 0.134682 0.134660 0.134654 0.134648 0.134626 0.134574 0.134504 0.134432 0.134360 0.134288 0.134215 0.134160 0.134136 0.134130 0.134124 0.134100 0.134050 0.133983 0.133934 0.133885 0.133835 0.133789 0.133754 0.133739 0.133735 0.133731 0.133717 0.133683 0.133639 0.133597 0.133555 0.133513 0.133472 0.133442 0.133429 0.133426 0.133423 0.133410 0.133381 0.133343 0.133306 0.133269 0.133232 0.133196 0.133169 0.133158 0.133155 0.133152 0.133141 0.133115 0.133080 0.133047 0.133014 0.132981 0.132950 0.132926 0.132916 0.132914 0.132911 0.132901 0.132878 0.132848 0.132818 0.132789 0.132760 0.132732 0.132710 0.132701 0.132699 0.132696 0.132687 0.132667 0.132640 0.132614 0.132588 0.132561 0.132536 0.132518 0.132510 0.132508 0.132506 0.132498 0.132479 0.132454 0.132431 0.132407 0.132384 0.132360 0.132343 0.132335 0.132333 0.132331 0.132324 0.132307 0.132285 0.132263 0.132240 0.132218 0.132196 0.132180 0.132173 0.132171 
0.140055 0.140051 0.140034 0.139990 0.139931 0.139868 0.139804 0.139741 0.139674 0.139623 0.139602 0.139598 0.139593 0.139572 0.139518 0.139446 0.139369 0.139292 0.139214 0.139133 0.139072 0.139048 0.139042 0.139037 0.139012 0.138949 0.138865 0.138776 0.138687 0.138598 0.138505 0.138435 0.138407 0.138401 0.138395 0.138366 0.138293 0.138196 0.138094 0.137993 0.137892 0.137786 0.137706 0.137673 0.137667 0.137660 0.137628 0.137545 0.137434 0.137322 0.137209 0.137096 0.136981 0.136894 0.136859 0.136852 0.136844 0.136809 0.136721 0.136604 0.136512 0.136420 0.136329 0.136259 0.136207 0.136187 0.136183 0.136179 0.136159 0.136111 0.136047 0.135988 0.135928 0.135869 0.135813 0.135771 0.135755 0.135752 0.135748 0.135733 0.135693 0.135639 0.135590 0.135541 0.135491 0.135444 0.135409 0.135395 0.135392 0.135389 0.135376 0.135342 0.135297 0.135255 0.135212 0.135169 0.135130 0.135100 0.135088 0.135085 0.135082 0.135070 0.135042 0.135003 0.134966 0.134930 0.134893 0.134857 0.134830 0.134819 0.134817 0.134815 0.134804 0.134779 0.134745 0.134711 0.134678 0.134644 0.134611 0.134585 0.134576 0.134574 
0.158784 0.158772 0.158735 0.158654 0.158548 0.158438 0.158328 0.158218 0.158104 0.158017 0.157977 0.157964 0.157950 0.157909 0.157819 0.157700 0.157580 0.157459 0.157338 0.157214 0.157120 0.157077 0.157063 0.157049 0.157006 0.156910 0.156785 0.156657 0.156529 0.156402 0.156271 0.156172 0.156127 0.156112 0.156097 0.156051 0.155950 0.155817 0.155682 0.155548 0.155413 0.155279 0.155177 0.155131 0.155116 0.155100 0.155054 0.154952 0.154818 0.154684 0.154551 0.154418 0.154283 0.154181 0.154134 0.154118 0.154103 0.154056 0.153953 0.153817 0.153683 0.153549 0.153416 0.153282 0.153180 0.153134 0.153119 0.153103 0.153057 0.152957 0.152824 0.152692 0.152561 0.152429 0.152298 0.152198 0.152153 0.152138 0.152123 0.152078 0.151979 0.151848 0.151718 0.151588 0.151457 0.151327 0.151229 0.151184 0.151169 0.151154 0.151109 0.151011 0.150882 0.150755 0.150627 0.150499 0.150371 0.150273 0.150238 0.150226 0.150215 0.150181 0.150107 0.150010 0.149916 0.149822 0.149729 0.149641 0.149575 0.149546 0.149536 0.149527 0.149498 0.149436 0.149354 0.149275 0.149196 0.149118 0.149044 0.148989 0.148963 0.148955 0.148947 0.148922 0.148867 0.148795 0.148728 0.148660 0.148593 0.148529 0.148480 0.148458 0.148451 0.148444 0.148422 0.148375 0.148313 0.148255 0.148198 0.148140 0.148083 0.148040 0.148020 0.148013 0.148007 0.147987 0.147948 0.147896 0.147844 0.147792 0.147740 0.147690 0.147651 0.147636 0.147630 0.147625 0.147609 0.147574 0.147527 0.147480 0.147433 0.147386 0.147344 0.147311 0.147297 0.147292 0.147287 0.147272 0.147240 0.147197 0.147156 0.147115 0.147075 0.147036 0.147006 0.146993 0.146988 0.146984 0.146970 0.146940 0.146901 0.146865 0.146829 0.146793 0.146757 0.146729 0.146717 0.146712 0.146708 0.146695 0.146669 0.146635 0.146601 0.146567 0.146533 0.146498 0.146472 0.146461 0.146457 0.146453 0.146442 0.146418 0.146386 0.146353 0.146321 0.146288 0.146257 0.146233 0.146223 0.146219 
