-2.296433 -1.357342 5.962363
-1.902357 -1.334597 6.910718
-1.472488 -1.322499 7.844093
-1.122696 -1.284221 8.808589
-0.972842 -1.185829 9.818154
-0.958268 -1.044848 10.835949
-0.918005 -0.904339 11.853115
-0.860692 -0.793074 12.873103
-0.820774 -0.720322 13.897417
-0.785815 -0.666746 14.923135
-0.748793 -0.619210 15.949082
-0.711527 -0.572281 16.975049
-2.295768 -1.357266 5.964248
-1.903199 -1.334618 6.908904
-1.901516 -1.334576 6.912532
-1.473284 -1.322537 7.842258
-1.471693 -1.322461 7.845927
-1.123216 -1.284346 8.806662
-1.122176 -1.284096 8.810516
-0.972942 -1.186076 9.816172
-0.972742 -1.185581 9.820136
-0.958288 -1.045134 10.833970
-0.958247 -1.044563 10.837929
-0.918117 -0.904595 11.851135
-0.917890 -0.904088 11.855096
-0.860784 -0.793246 12.871112
-0.860599 -0.792902 12.875093
-0.820841 -0.720437 13.895421
-0.820707 -0.720207 13.899412
-0.785885 -0.666842 14.921139
-0.785744 -0.666649 14.925132
-0.748866 -0.619300 15.947086
-0.748720 -0.619120 15.951079
-0.711598 -0.572375 16.973052
-2.288435 -1.356431 5.985030
-1.912459 -1.334858 6.888889
-1.892233 -1.334343 6.932536
-1.482053 -1.322953 7.822027
-1.462924 -1.322045 7.866159
-1.128946 -1.285720 8.785409
-1.116446 -1.282722 8.831768
-0.974048 -1.188805 9.794315
-0.971636 -1.182853 9.841993
-0.958519 -1.048284 10.812143
-0.957972 -1.041415 10.859755
-0.919356 -0.907415 11.829297
-0.916616 -0.901330 11.876940
-0.861819 -0.795174 12.849167
-0.859581 -0.791005 12.897042
-0.821584 -0.721710 13.873416
-0.819963 -0.718934 13.921417
-0.786662 -0.667906 14.899124
-0.784968 -0.665585 14.947146
-0.749671 -0.620296 15.925068
-0.747916 -0.618125 15.973096
-0.712387 -0.573410 16.951036
-2.255266 -1.352795 6.077983
-2.199888 -1.347908 6.224182
-2.141530 -1.343940 6.369245
-2.080766 -1.340719 6.513338
-2.017939 -1.338140 6.656557
-1.953674 -1.336008 6.799145
-1.850570 -1.333328 7.022075
-1.784244 -1.331818 7.163725
-1.717837 -1.330315 7.305337
-1.651705 -1.328704 7.447076
-1.586325 -1.326828 7.589160
-1.521952 -1.324607 7.731698
-1.424107 -1.320032 7.956950
-1.364326 -1.316285 8.101440
-1.307272 -1.311654 8.247003
-1.253129 -1.306089 8.393638
-1.202575 -1.299390 8.541502
-1.156039 -1.291442 8.690612
-1.092324 -1.276103 8.927306
-1.058554 -1.264305 9.079559
-1.030644 -1.250797 9.232857
-1.008758 -1.235554 9.386967
-0.991891 -1.218864 9.541564
-0.979799 -1.200782 9.696453
-0.967794 -1.170290 9.939877
-0.963793 -1.149714 10.094881
-0.961553 -1.128516 10.249837
-0.960604 -1.106761 10.404730
-0.960096 -1.084685 10.559580
-0.959383 -1.062391 10.714397
-0.956302 -1.027345 10.957496
-0.952318 -1.005215 11.112287
-0.947046 -0.983326 11.267074
-0.940536 -0.961793 11.421864
-0.933083 -0.940686 11.576670
-0.924853 -0.920100 11.731507
-0.910888 -0.889045 11.974768
-0.901648 -0.870213 12.129771
-0.892399 -0.852226 12.284874
-0.883336 -0.835139 12.440089
-0.874704 -0.819112 12.595442
-0.866610 -0.804090 12.750925
-0.855098 -0.782656 12.995349
-0.848365 -0.770135 13.151117
-0.842072 -0.758494 13.306973
-0.836096 -0.747530 13.462890
-0.830426 -0.737287 13.618867
-0.824954 -0.727573 13.774886
-0.816652 -0.713327 14.019965
-0.811442 -0.704726 14.176058
-0.806216 -0.696432 14.332166
-0.800925 -0.688343 14.488284
-0.795558 -0.680444 14.644408
-0.790124 -0.672711 14.800539
-0.781473 -0.660860 15.045734
-0.775900 -0.653472 15.201876
-0.770286 -0.646186 15.358022
-0.764638 -0.638985 15.514170
-0.758965 -0.631846 15.670321
-0.753271 -0.624757 15.826473
-0.744311 -0.613672 16.071692
-0.738604 -0.606618 16.227845
-0.732904 -0.599546 16.383998
-0.727220 -0.592433 16.540149
-0.721556 -0.585270 16.696298
-0.715925 -0.578028 16.852445
121 NaN NaN
-2.296599 -1.357361 5.961892
-2.262984 -1.353535 6.057161
-2.227863 -1.350169 6.151902
-2.191388 -1.347220 6.246145
-2.153704 -1.344644 6.339922
-2.114951 -1.342400 6.433271
-2.075261 -1.340448 6.526232
-2.034762 -1.338747 6.618849
-1.993576 -1.337260 6.711166
-1.951821 -1.335950 6.803230
-1.909611 -1.334779 6.895088
-1.867056 -1.333713 6.986789
-1.824265 -1.332716 7.078380
-1.781344 -1.331753 7.169910
-1.738396 -1.330792 7.261429
-1.695527 -1.329797 7.352983
-1.652839 -1.328735 7.444622
-1.610436 -1.327572 7.536391
-1.568423 -1.326275 7.628338
-1.526906 -1.324809 7.720507
-1.485992 -1.323140 7.812941
-1.445791 -1.321232 7.905684
-1.406416 -1.319052 7.998774
-1.367984 -1.316563 8.092250
-1.330614 -1.313728 8.186145
-1.294428 -1.310512 8.280491
-1.259555 -1.306876 8.375314
-1.226126 -1.302783 8.470637
-1.194275 -1.298195 8.566476
-1.164142 -1.293073 8.662842
-1.135868 -1.287381 8.759738
-1.109599 -1.281079 8.857159
-1.085481 -1.274132 8.955091
-1.063660 -1.266503 9.053509
-1.044282 -1.258160 9.152379
-1.027459 -1.249078 9.251651
-1.013091 -1.239290 9.351241
-1.000984 -1.228851 9.451066
-0.990937 -1.217817 9.551056
-0.982751 -1.206239 9.651154
-0.976224 -1.194172 9.751317
-0.971154 -1.181665 9.851510
-0.967344 -1.168766 9.951710
-0.964598 -1.155524 10.051900
-0.962722 -1.141983 10.152070
-0.961524 -1.128188 10.252216
-0.960816 -1.114181 10.352337
-0.960411 -1.100005 10.452436
-0.960122 -1.085701 10.552518
-0.959763 -1.071309 10.652587
-0.959148 -1.056872 10.752647
-0.958091 -1.042430 10.852704
-0.956413 -1.028024 10.952757
-0.954073 -1.013685 11.052806
-0.951121 -0.999439 11.152853
-0.947614 -0.985308 11.252898
-0.943605 -0.971318 11.352943
-0.939150 -0.957492 11.452993
-0.934305 -0.943854 11.553051
-0.929126 -0.930429 11.653121
-0.923671 -0.917241 11.753207
-0.917994 -0.904313 11.853315
-0.912153 -0.891670 11.953450
-0.906206 -0.879335 12.053617
-0.900209 -0.867333 12.153822
-0.894219 -0.855686 12.254069
-0.888294 -0.844420 12.354363
-0.882491 -0.833557 12.454709
-0.876867 -0.823121 12.555111
-0.871479 -0.813135 12.655571
-0.866347 -0.803600 12.756088
-0.861455 -0.794496 12.856657
-0.856786 -0.785799 12.957273
-0.852323 -0.777489 13.057931
-0.848047 -0.769542 13.158626
-0.843941 -0.761937 13.259355
-0.839987 -0.754651 13.360113
-0.836169 -0.747662 13.460898
-0.832468 -0.740949 13.561706
-0.828867 -0.734489 13.662534
-0.825348 -0.728260 13.763379
-0.821894 -0.722240 13.864240
-0.818488 -0.716408 13.965113
-0.815112 -0.710741 14.065996
-0.811748 -0.705217 14.166888
-0.808379 -0.699815 14.267786
-0.804989 -0.694513 14.368689
-0.801565 -0.689295 14.469595
-0.798110 -0.684155 14.570505
-0.794626 -0.679088 14.671416
-0.791113 -0.674090 14.772330
-0.787576 -0.669156 14.873247
-0.784014 -0.664280 14.974165
-0.780431 -0.659458 15.075086
-0.776828 -0.654685 15.176008
-0.773208 -0.649955 15.276931
-0.769572 -0.645264 15.377856
-0.765922 -0.640607 15.478781
-0.762261 -0.635979 15.579708
-0.758590 -0.631376 15.680635
-0.754911 -0.626791 15.781563
-0.751226 -0.622220 15.882491
-0.747538 -0.617658 15.983420
-0.743849 -0.613101 16.084349
-0.740159 -0.608542 16.185277
-0.736472 -0.603978 16.286206
-0.732789 -0.599404 16.387134
-0.729113 -0.594813 16.488062
-0.725445 -0.590202 16.588989
-0.721787 -0.585565 16.689915
-0.718141 -0.580898 16.790841
-0.714510 -0.576195 16.891765
-0.710895 -0.571452 16.992688
-0.707298 -0.566664 17.093609
-0.703722 -0.561825 17.194529
-0.700168 -0.556931 17.295447
-0.696638 -0.551976 17.396362
-0.693135 -0.546957 17.497276
-0.689659 -0.541867 17.598187
-0.686214 -0.536702 17.699095
-0.682802 -0.531458 17.800000
-2.296270 -1.357352 5.961516
-2.043531 -1.349892 5.661873
-1.807900 -1.341387 5.348643
-1.592218 -1.331747 5.021411
-1.400066 -1.320871 4.679897
-1.235843 -1.308654 4.324188
-1.104744 -1.295003 3.955076
-1.011822 -1.279888 3.574622
-0.951296 -1.263671 3.187617
-0.907531 -1.246934 2.798321
-0.864510 -1.230175 2.408940
-0.813133 -1.213668 2.020564
-0.755489 -1.197357 1.633056
-0.694781 -1.181142 1.246010
-0.634221 -1.164923 0.858941
-0.577023 -1.148598 0.471368
-0.526386 -1.132069 0.082897
-2.294950 -1.357316 5.960013
-2.044788 -1.349932 5.663428
-2.042275 -1.349852 5.660317
-1.809062 -1.341433 5.350270
-1.806739 -1.341341 5.347015
-1.593267 -1.331799 5.023113
-1.591169 -1.331695 5.019709
-1.400981 -1.320930 4.681674
-1.399151 -1.320813 4.678119
-1.236598 -1.308720 4.326039
-1.235088 -1.308588 4.322337
-1.105309 -1.295077 3.956993
-1.104179 -1.294929 3.953159
-1.012187 -1.279969 3.576587
-1.011456 -1.279807 3.572657
-0.951539 -1.263756 3.189601
-0.951052 -1.263586 3.185634
-0.907740 -1.247020 2.800308
-0.907322 -1.246848 2.796334
-0.864746 -1.230260 2.410924
-0.864274 -1.230090 2.406956
-0.813412 -1.213752 2.022543
-0.812855 -1.213585 2.018586
-0.755793 -1.197440 1.635031
-0.755185 -1.197274 1.631081
-0.695093 -1.181225 1.247984
-0.694469 -1.181060 1.244036
-0.634524 -1.165006 0.860916
-0.633919 -1.164840 0.856966
-0.577299 -1.148681 0.473347
-0.576747 -1.148514 0.469389
-0.526618 -1.132154 0.084881
-2.284908 -1.357040 5.948574
-2.054352 -1.350237 5.675269
-2.032779 -1.349543 5.648422
-1.817900 -1.341781 5.362661
-1.797901 -1.340993 5.334624
-1.601249 -1.332195 5.036070
-1.583187 -1.331300 5.006751
-1.407945 -1.321377 4.695205
-1.392188 -1.320366 4.664589
-1.242345 -1.309223 4.340127
-1.229341 -1.308085 4.308248
-1.109610 -1.295638 3.971586
-1.099877 -1.294368 3.938566
-1.014971 -1.280584 3.591541
-1.008672 -1.279191 3.557703
-0.953485 -1.264398 3.204686
-0.949199 -1.262941 3.170537
-0.909331 -1.247673 2.815435
-0.905736 -1.246195 2.781207
-0.866543 -1.230907 2.426028
-0.862459 -1.229443 2.391855
-0.815533 -1.214389 2.037605
-0.810733 -1.212948 2.003524
-0.758108 -1.198071 1.650065
-0.752870 -1.196643 1.616048
-0.697469 -1.181854 1.263008
-0.692093 -1.180431 1.229012
-0.636828 -1.165637 0.875952
-0.631615 -1.164209 0.841930
-0.579398 -1.149319 0.488412
-0.574647 -1.147876 0.454324
-0.528382 -1.132802 0.099989
-2.257704 -1.356295 5.917585
-2.221534 -1.355293 5.876118
-2.185786 -1.354263 5.834284
-2.150270 -1.353218 5.792256
-2.115097 -1.352152 5.749939
-2.080263 -1.351064 5.707344
-2.007332 -1.348687 5.615978
-1.973390 -1.347545 5.572669
-1.940074 -1.346365 5.528878
-1.906888 -1.345178 5.484990
-1.874240 -1.343959 5.440700
-1.841843 -1.342725 5.396228
-1.774430 -1.340022 5.300727
-1.743203 -1.338722 5.255425
-1.712595 -1.337387 5.209706
-1.682125 -1.336044 5.163894
-1.652431 -1.334659 5.117576
-1.622874 -1.333266 5.071172
-1.561942 -1.330209 4.971421
-1.533945 -1.328734 4.924061
-1.506494 -1.327231 4.876385
-1.479397 -1.325710 4.828506
-1.453026 -1.324153 4.780226
-1.426869 -1.322585 4.731828
-1.373560 -1.319143 4.627815
-1.349413 -1.317479 4.578387
-1.325693 -1.315794 4.528757
-1.302620 -1.314079 4.478820
-1.280180 -1.312336 4.428600
-1.258230 -1.310570 4.378161
-1.213798 -1.306723 4.270072
-1.194248 -1.304853 4.218659
-1.174937 -1.302974 4.167158
-1.156666 -1.301051 4.115279
-1.138866 -1.299110 4.063241
-1.121928 -1.297134 4.010913
-1.088225 -1.292847 3.899033
-1.073847 -1.290773 3.845952
-1.059742 -1.288689 3.792794
-1.047071 -1.286553 3.739280
-1.034629 -1.284409 3.685713
-1.023350 -1.282224 3.631889
-1.001131 -1.277524 3.517190
-0.991708 -1.275277 3.463016
-0.982711 -1.273016 3.408767
-0.974416 -1.270733 3.354408
-0.966335 -1.268444 3.300017
-0.958968 -1.266132 3.245525
-0.944177 -1.261193 3.129639
-0.937657 -1.258855 3.075041
-0.931421 -1.256509 3.020409
-0.925361 -1.254157 2.965758
-0.919441 -1.251801 2.911092
-0.913642 -1.249442 2.856413
-0.901440 -1.244425 2.740227
-0.895684 -1.242065 2.685544
-0.889823 -1.239707 2.630871
-0.883866 -1.237352 2.576209
-0.877730 -1.235003 2.521566
-0.871409 -1.232659 2.466945
-0.857339 -1.227699 2.350969
-0.850507 -1.225370 2.296408
-0.843375 -1.223051 2.241885
-0.836196 -1.220733 2.187368
-0.828776 -1.218423 2.132883
-0.821280 -1.216115 2.078408
-0.804856 -1.211226 1.962739
-0.796967 -1.208930 1.908319
-0.788934 -1.206639 1.853921
-0.780856 -1.204349 1.799528
-0.772629 -1.202064 1.745158
-0.764379 -1.199780 1.690792
-0.746561 -1.194935 1.575327
-0.738093 -1.192658 1.520993
-0.729586 -1.190381 1.466666
-0.721048 -1.188106 1.412344
-0.712481 -1.185832 1.358026
-0.703903 -1.183558 1.303710
-0.685661 -1.178727 1.188310
-0.677092 -1.176453 1.133993
-0.668541 -1.174178 1.079672
-0.660022 -1.171902 1.025347
-0.651544 -1.169625 0.971015
-0.643105 -1.167346 0.916677
-0.625373 -1.162499 0.801199
-0.617179 -1.160213 0.746824
-0.609011 -1.157926 0.692445
-0.600991 -1.155634 0.638045
-0.593031 -1.153341 0.583636
-0.585210 -1.151043 0.529206
-0.568958 -1.146149 0.413512
-0.561562 -1.143838 0.359024
-0.554230 -1.141525 0.304528
-0.547163 -1.139203 0.249996
-0.540147 -1.136881 0.195459
-0.533421 -1.134549 0.140885
64 NaN NaN
-2.296599 -1.357361 5.961892
-2.230032 -1.355538 5.886063
-2.164482 -1.353649 5.809354
-2.099986 -1.351694 5.731760
-2.036583 -1.349670 5.653271
-1.974313 -1.347578 5.573882
-1.913222 -1.345415 5.493584
-1.853357 -1.343179 5.412370
-1.794769 -1.340870 5.330233
-1.737510 -1.338485 5.247165
-1.681638 -1.336022 5.163161
-1.627212 -1.333481 5.078215
-1.574298 -1.330859 4.992322
-1.522961 -1.328155 4.905480
-1.473273 -1.325366 4.817686
-1.425309 -1.322491 4.728942
-1.379146 -1.319529 4.639250
-1.334869 -1.316476 4.548616
-1.292561 -1.313332 4.457050
-1.252313 -1.310094 4.364562
-1.214217 -1.306763 4.271172
-1.178368 -1.303335 4.176899
-1.144864 -1.299809 4.081772
-1.113806 -1.296186 3.985822
-1.085294 -1.292464 3.889089
-1.059430 -1.288643 3.791618
-1.036256 -1.284724 3.693477
-1.015575 -1.280718 3.594783
-0.997121 -1.276637 3.495651
-0.980622 -1.272492 3.396178
-0.965803 -1.268293 3.296442
-0.952388 -1.264051 3.196509
-0.940099 -1.259774 3.096432
-0.928664 -1.255471 2.996255
-0.917808 -1.251152 2.896015
-0.907259 -1.246823 2.795742
-0.896747 -1.242493 2.695465
-0.886000 -1.238169 2.595213
-0.874748 -1.233861 2.495016
-0.862839 -1.229573 2.394893
-0.850311 -1.225303 2.294846
-0.837217 -1.221051 2.194870
-0.823612 -1.216815 2.094962
-0.809549 -1.212592 1.995117
-0.795084 -1.208382 1.895328
-0.780271 -1.204184 1.795591
-0.765165 -1.199994 1.695896
-0.749820 -1.195812 1.596238
-0.734292 -1.191636 1.496608
-0.718636 -1.187463 1.396998
-0.702907 -1.183294 1.297399
-0.687158 -1.179124 1.197804
-0.671447 -1.174954 1.098202
-0.655826 -1.170781 0.998586
-0.640352 -1.166603 0.898948
-0.625079 -1.162418 0.799279
-0.610062 -1.158226 0.699571
-0.595356 -1.154024 0.599818
-0.581015 -1.149810 0.500012
-0.567095 -1.145583 0.400147
-0.553650 -1.141342 0.300217
-0.540734 -1.137084 0.200218
-0.528401 -1.132808 0.100147
-0.516705 -1.128514 0.000000
-2.296955 -1.357702 5.961977
-3.287713 -1.571247 5.679299
-3.940060 -0.908245 5.012450
-4.403969 -0.042847 4.422958
-4.887211 0.882577 3.942339
-5.366695 1.806342 3.454444
-5.844969 2.730529 2.966178
-6.349010 3.642575 2.481116
-6.892783 4.520686 1.977067
-7.499413 5.337319 1.442894
-8.187084 6.058342 0.871359
-8.963235 6.646137 0.262471
-9.818464 7.071807 -0.374533
-10.730072 7.326738 -1.024728
-11.672794 7.423346 -1.673868
-12.627143 7.386201 -2.312527
-2.298375 -1.359068 5.962319
-3.286247 -1.572000 5.680431
-3.289179 -1.570494 5.678166
-3.939120 -0.909560 5.013628
-3.940999 -0.906929 5.011273
-4.403117 -0.044467 4.423764
-4.404820 -0.041227 4.422152
-4.886379 0.880973 3.943197
-4.888043 0.884180 3.941480
-5.365863 1.804735 3.455295
-5.367527 1.807950 3.453593
-5.844116 2.728925 2.967017
-5.845822 2.732132 2.965340
-6.348107 3.641009 2.481972
-6.349912 3.644140 2.480259
-6.891785 4.519206 1.977969
-6.893781 4.522166 1.976165
-7.498291 5.335971 1.443855
-7.500535 5.338668 1.441934
-8.185816 6.057185 0.872385
-8.188353 6.059499 0.870333
-8.961808 6.645254 0.263560
-8.964662 6.647019 0.261383
-9.816920 7.071211 -0.373409
-9.820007 7.072403 -0.375657
-10.728450 7.326449 -1.023595
-10.731694 7.327027 -1.025862
-11.671139 7.423303 -1.672746
-11.674449 7.423389 -1.674991
-12.625480 7.386362 -2.311427
-2.315774 -1.375787 5.966499
-3.268292 -1.581221 5.694300
-3.307134 -1.561274 5.664297
-3.927616 -0.925668 5.028048
-3.952299 -0.890725 4.996806
-4.392721 -0.064288 4.433703
-4.415246 -0.021387 4.412282
-4.876194 0.861338 3.953707
-4.898228 0.903815 3.930970
-5.355676 1.785052 3.465714
-5.377705 1.827635 3.443170
-5.833671 2.709296 2.977279
-5.856267 2.751761 2.955078
-6.337053 3.621838 2.492462
-6.360966 3.663311 2.469769
-6.879630 4.501021 1.988983
-6.906003 4.540286 1.965119
-7.484557 5.319456 1.455617
-7.514269 5.355183 1.430171
-8.170288 6.043014 0.884947
-8.203994 6.073500 0.857722
-8.944336 6.634449 0.276890
-8.982135 6.657825 0.248053
-9.798024 7.063916 -0.359645
-9.838903 7.079698 -0.389421
-10.708635 7.322668 -1.009709
-10.751554 7.330569 -1.039745
-11.650875 7.422774 -1.659005
-11.694713 7.423919 -1.688732
-12.605120 7.388324 -2.297962
-2.397387 -1.448312 5.981841
-2.544248 -1.542462 5.983263
-2.704965 -1.605351 5.956244
-2.869132 -1.636985 5.905889
-3.029666 -1.639457 5.837241
-3.180984 -1.613513 5.753732
-3.383019 -1.513258 5.600091
-3.489242 -1.421315 5.495878
-3.586481 -1.319156 5.392174
-3.683135 -1.213804 5.291116
-3.780514 -1.107151 5.192138
-3.873526 -0.997369 5.092429
-3.999648 -0.815800 4.930774
-4.068791 -0.692960 4.826950
-4.135130 -0.564612 4.728095
-4.203094 -0.431142 4.637511
-4.273579 -0.293668 4.555169
-4.346143 -0.153504 4.479399
-4.462408 0.068226 4.367980
-4.537320 0.210257 4.298193
-4.611822 0.351909 4.227207
-4.685214 0.492652 4.153319
-4.757878 0.632809 4.077616
-4.830331 0.772820 4.001440
-4.944297 0.992533 3.883810
-5.017445 1.133245 3.809616
-5.090633 1.274027 3.735595
-5.163747 1.414782 3.661448
-5.236762 1.555504 3.587143
-5.309685 1.696216 3.512729
-5.423625 1.916488 3.396118
-5.496237 2.057272 3.321537
-5.568642 2.198130 3.246892
-5.640979 2.339031 3.172264
-5.713600 2.479886 3.097824
-5.786873 2.620597 3.023753
-5.903617 2.840281 2.908822
-5.979255 2.980200 2.835633
-6.055450 3.119725 2.762269
-6.132103 3.258784 2.688500
-6.209360 3.397280 2.614302
-6.287356 3.535159 2.539729
-6.411245 3.749522 2.422261
-6.491712 3.885393 2.346636
-6.573268 4.020319 2.270489
-6.655948 4.154244 2.193787
-6.739831 4.287076 2.116495
-6.825109 4.418620 2.038530
-6.961407 4.621838 1.915149
-7.050395 4.749810 1.835407
-7.140967 4.876186 1.754906
-7.233290 5.000747 1.673570
-7.327313 5.123493 1.591429
-7.423095 5.244307 1.508460
-7.576816 5.429071 1.376826
-7.677551 5.544121 1.291562
-7.780228 5.656770 1.205416
-7.884879 5.766893 1.118381
-7.991662 5.874182 1.030401
-8.100520 5.978596 0.941513
-8.275016 6.136053 0.800625
-8.389117 6.232662 0.709512
-8.505417 6.325731 0.617500
-8.623710 6.415432 0.524692
-8.743963 6.501666 0.431120
-8.866182 6.584251 0.336801
-9.061391 6.705771 0.187749
-9.188415 6.778539 0.091717
-9.317139 6.847479 -0.004877
-9.447564 6.912356 -0.102005
-9.579579 6.973182 -0.199602
-9.713040 7.030086 -0.297596
-9.924652 7.111196 -0.451648
-10.061515 7.157722 -0.550430
-10.199503 7.200325 -0.649410
-10.338512 7.239097 -0.748537
-10.478464 7.274054 -0.847761
-10.619326 7.304977 -0.947035
-10.841288 7.346042 -1.102399
-10.983931 7.367686 -1.201586
-11.127149 7.385740 -1.300665
-11.270872 7.400235 -1.399596
-11.415007 7.411443 -1.498354
-11.559494 7.419448 -1.596911
-11.786239 7.425474 -1.750682
-11.931394 7.425385 -1.848581
-12.076709 7.422426 -1.946196
-12.222143 7.416683 -2.043512
-12.367662 7.408023 -2.140485
-12.513221 7.396751 -2.237127
174 NaN NaN
-2.296599 -1.357361 5.961892
-2.368239 -1.426205 5.979104
-2.448357 -1.486968 5.986626
-2.535106 -1.538334 5.984412
-2.626426 -1.579559 5.972932
-2.720355 -1.610405 5.952974
-2.815191 -1.630968 5.925450
-2.909505 -1.641488 5.891248
-3.002074 -1.642203 5.851165
-3.091782 -1.633273 5.805896
-3.177506 -1.614733 5.756058
-3.258014 -1.586500 5.702240
-3.331967 -1.548520 5.645114
-3.399156 -1.502112 5.585860
-3.460733 -1.449473 5.525691
-3.518341 -1.392575 5.465449
-3.573804 -1.333081 5.405691
-3.628999 -1.272447 5.346835
-3.685134 -1.211638 5.289058
-3.741556 -1.150459 5.231955
-3.797283 -1.088511 5.175000
-3.851297 -1.025403 5.117674
-3.902532 -0.960788 5.059488
-3.949942 -0.894408 5.000063
-3.993561 -0.826233 4.939769
-4.034350 -0.756314 4.879486
-4.073311 -0.684644 4.820055
-4.111441 -0.611188 4.762290
-4.149726 -0.535914 4.707026
-4.188915 -0.458889 4.654897
-4.229020 -0.380407 4.605719
-4.269909 -0.300777 4.559097
-4.311468 -0.220275 4.514612
-4.353598 -0.139148 4.471828
-4.396208 -0.057617 4.430306
-4.439175 0.024152 4.389629
-4.482343 0.106041 4.349406
-4.525556 0.187936 4.309244
-4.568660 0.269724 4.268750
-4.611498 0.351289 4.227529
-4.653948 0.432538 4.185298
-4.696065 0.513517 4.142220
-4.737954 0.594310 4.098575
-4.779719 0.675010 4.054641
-4.821470 0.755710 4.010692
-4.863311 0.836503 3.967001
-4.905289 0.917427 3.923684
-4.947373 0.998454 3.880666
-4.989528 1.079556 3.837858
-5.031722 1.160702 3.795172
-5.073919 1.241864 3.752518
-5.116091 1.323014 3.709819
-5.158229 1.404150 3.667059
-5.200335 1.485275 3.624246
-5.242410 1.566393 3.581390
-5.284455 1.647508 3.538499
-5.326472 1.728625 3.495581
-5.368456 1.809746 3.452643
-5.410401 1.890877 3.409683
-5.452297 1.972022 3.366703
-5.494135 2.053186 3.323702
-5.535905 2.134374 3.280680
-5.577606 2.215588 3.237640
-5.619287 2.296816 3.194607
-5.661024 2.378038 3.151619
-5.702893 2.459236 3.108712
-5.744971 2.540388 3.065923
-5.787332 2.621475 3.023291
-5.830042 2.702477 2.980844
-5.873090 2.783378 2.938549
-5.916433 2.864169 2.896343
-5.960025 2.944840 2.854165
-6.003825 3.025381 2.811953
-6.047788 3.105782 2.769645
-6.091890 3.186032 2.727194
-6.136156 3.266116 2.684600
-6.180617 3.346018 2.641869
-6.225308 3.425721 2.599006
-6.270260 3.505210 2.556018
-6.315504 3.584467 2.512910
-6.361062 3.663477 2.469678
-6.406946 3.742223 2.426309
-6.453166 3.820689 2.382791
-6.499735 3.898859 2.339111
-6.546664 3.976715 2.295258
-6.593965 4.054242 2.251220
-6.641656 4.131419 2.206989
-6.689752 4.208230 2.162560
-6.738271 4.284654 2.117924
-6.787230 4.360672 2.073077
-6.836644 4.436266 2.028011
-6.886529 4.511414 1.982719
-6.936900 4.586095 1.937195
-6.987772 4.660290 1.891431
-7.039158 4.733975 1.845421
-7.091072 4.807130 1.799157
-7.143529 4.879732 1.752634
-7.196541 4.951757 1.705846
-7.250121 5.023183 1.658788
-7.304283 5.093986 1.611455
-7.359039 5.164141 1.563841
-7.414401 5.233624 1.515944
-7.470380 5.302410 1.467758
-7.526987 5.370474 1.419280
-7.584230 5.437791 1.370509
-7.642120 5.504334 1.321439
-7.700666 5.570077 1.272071
-7.759875 5.634994 1.222401
-7.819755 5.699058 1.172429
-7.880310 5.762245 1.122155
-7.941546 5.824528 1.071579
-8.003468 5.885880 1.020700
-8.066079 5.946274 0.969521
-8.129383 6.005684 0.918042
-8.193379 6.064086 0.866267
-8.258067 6.121455 0.814198
-8.323447 6.177767 0.761839
-8.389516 6.232996 0.709194
-8.456274 6.287117 0.656268
-8.523716 6.340109 0.603065
-8.591834 6.391951 0.549593
-8.660622 6.442623 0.495858
-8.730073 6.492104 0.441866
-8.800180 6.540372 0.387625
-8.870933 6.587410 0.333142
-8.942321 6.633203 0.278427
-9.014332 6.677737 0.223489
-9.086952 6.720997 0.168337
-9.160168 6.762972 0.112980
-9.233969 6.803645 0.057427
-9.308339 6.843009 0.001691
-9.383260 6.881058 -0.054220
-9.458717 6.917785 -0.110294
-9.534693 6.953186 -0.166520
-9.611172 6.987255 -0.222887
-9.688136 7.019988 -0.279385
-9.765566 7.051386 -0.336003
-9.843446 7.081451 -0.392730
-9.921754 7.110187 -0.449553
-10.000475 7.137596 -0.506463
-10.079590 7.163681 -0.563449
-10.159080 7.188449 -0.620500
-10.238927 7.211908 -0.677606
-10.319112 7.234068 -0.734757
-10.399618 7.254939 -0.791942
-10.480428 7.274530 -0.849151
-10.561524 7.292853 -0.906377
-10.642888 7.309919 -0.963608
-10.724505 7.325745 -1.020838
-10.806359 7.340344 -1.078056
-10.888432 7.353731 -1.135254
-10.970711 7.365921 -1.192426
-11.053180 7.376930 -1.249563
-11.135825 7.386774 -1.306659
-11.218632 7.395470 -1.363706
-11.301587 7.403036 -1.420698
-11.384679 7.409490 -1.477629
-11.467894 7.414848 -1.534494
-11.551221 7.419129 -1.591286
-11.634647 7.422350 -1.648001
-11.718164 7.424531 -1.704634
-11.801759 7.425689 -1.761180
-11.885424 7.425842 -1.817636
-11.969148 7.425009 -1.873997
-12.052923 7.423208 -1.930259
-12.136741 7.420455 -1.986421
-12.220592 7.416768 -2.042477
-12.304471 7.412166 -2.098426
-12.388368 7.406666 -2.154266
-12.472278 7.400285 -2.209993
-12.556193 7.393041 -2.265605
-12.640108 7.384951 -2.321101
-12.724017 7.376033 -2.376480
-12.807915 7.366304 -2.431740
-0.860509 -0.792754 12.873441
-0.781167 -0.638534 13.032023
-0.728921 -0.470835 13.187904
-0.714577 -0.289454 13.335981
-0.749781 -0.098590 13.467320
-0.839661 0.091300 13.571291
-0.977919 0.267529 13.641091
-1.147519 0.424882 13.680952
-1.336162 0.563916 13.697296
-1.536158 0.687335 13.695968
-0.859778 -0.791474 12.874792
-0.781712 -0.639916 13.030684
-0.780622 -0.637153 13.033363
-0.729209 -0.472327 13.186603
-0.728633 -0.469343 13.189205
-0.714522 -0.291045 13.334771
-0.714632 -0.287863 13.337192
-0.749307 -0.100228 13.466277
-0.750256 -0.096951 13.468364
-0.838763 0.089704 13.570487
-0.840672 0.092862 13.572015
-0.976554 0.266130 13.640667
-0.979283 0.268929 13.641516
-1.145973 0.423632 13.680733
-1.149065 0.426131 13.681172
-1.334504 0.562800 13.697235
-1.337821 0.565032 13.697357
-1.534430 0.686331 13.696028
-0.856221 -0.785247 12.881368
-0.784361 -0.646636 13.024166
-0.777973 -0.630432 13.039881
-0.730613 -0.479583 13.180276
-0.727230 -0.462087 13.195532
-0.714252 -0.298785 13.328881
-0.714902 -0.280123 13.343081
-0.746998 -0.108200 13.461199
-0.752565 -0.088979 13.473442
-0.834397 0.081940 13.566573
-0.845932 0.100364 13.575291
-0.969918 0.259321 13.638601
-0.985920 0.275737 13.643582
-1.138452 0.417552 13.679664
-1.156586 0.432211 13.682241
-1.326436 0.557369 13.696937
-1.345889 0.570463 13.697655
-1.526021 0.681445 13.696319
-0.847266 -0.769567 12.897923
-0.835373 -0.748742 12.919912
-0.823480 -0.727917 12.941900
-0.812760 -0.706422 12.963838
-0.802264 -0.684799 12.985767
-0.791768 -0.663175 13.007696
-0.771302 -0.613510 13.056291
-0.762442 -0.591036 13.078086
-0.754519 -0.568127 13.099762
-0.747579 -0.544763 13.121315
-0.740638 -0.521398 13.142868
-0.734145 -0.497854 13.164343
-0.723697 -0.443816 13.211465
-0.719363 -0.419431 13.232543
-0.717283 -0.394301 13.253104
-0.715203 -0.369171 13.273665
-0.713123 -0.344041 13.294226
-0.713573 -0.318273 13.314052
-0.715581 -0.260635 13.357911
-0.719086 -0.234325 13.376672
-0.723294 -0.207899 13.395180
-0.727502 -0.181473 13.413689
-0.733464 -0.154931 13.431434
-0.741185 -0.128273 13.448414
-0.759928 -0.068973 13.485421
-0.771183 -0.042466 13.500563
-0.782439 -0.015958 13.515705
-0.794198 0.010467 13.530538
-0.808800 0.036429 13.543627
-0.823402 0.062392 13.556717
-0.859174 0.119252 13.583538
-0.876763 0.144337 13.594492
-0.894351 0.169422 13.605446
-0.913971 0.193623 13.614723
-0.934093 0.217606 13.623586
-0.954215 0.241588 13.632448
-1.002630 0.292879 13.648784
-1.024823 0.315646 13.655693
-1.047763 0.337853 13.661804
-1.071610 0.359383 13.666945
-1.095456 0.380912 13.672087
-1.119516 0.402245 13.676973
-1.175523 0.447518 13.684932
-1.200776 0.467734 13.688368
-1.226950 0.486936 13.690566
-1.253123 0.506138 13.692765
-1.279297 0.525339 13.694964
-1.306123 0.543696 13.696186
-1.366202 0.584136 13.698406
-1.393656 0.601582 13.698615
-1.421270 0.618789 13.698561
-1.448884 0.635996 13.698506
-1.476730 0.652803 13.698029
-1.504849 0.669143 13.697054
21 NaN NaN
-0.860692 -0.793074 12.873103
-0.821570 -0.724573 12.945430
-0.787046 -0.653447 13.017561
-0.757904 -0.579525 13.089248
-0.735078 -0.502678 13.160137
-0.719647 -0.422872 13.229728
-0.712807 -0.340231 13.297343
-0.715773 -0.255124 13.362104
-0.729610 -0.168238 13.422959
-0.754994 -0.080593 13.478783
-0.791997 0.006552 13.528564
-0.840004 0.091910 13.571599
-0.897834 0.174390 13.607615
-0.964001 0.253252 13.636759
-1.036985 0.328123 13.659480
-1.115414 0.398929 13.676390
-1.198134 0.465795 13.688146
-1.284225 0.528955 13.695378
-1.372965 0.588689 13.698655
-1.463799 0.645290 13.698477
-1.556296 0.699037 13.695270
-0.972599 -1.185437 9.818350
-0.925611 -1.109593 9.856191
-0.881531 -1.032091 9.894160
-0.840691 -0.952883 9.932215
-0.803484 -0.871930 9.970303
-0.770355 -0.789217 10.008350
-0.741798 -0.704766 10.046259
-0.718349 -0.618652 10.083906
-0.700580 -0.531019 10.121133
-0.689073 -0.442095 10.157749
-0.684389 -0.352209 10.193524
-0.687021 -0.261795 10.228204
-0.697348 -0.171389 10.261512
-0.716001 -0.081676 10.293071
-0.742841 0.006613 10.322619
-0.777245 0.092910 10.350047
-0.818743 0.176711 10.375244
-0.866740 0.257637 10.398167
-0.920578 0.335439 10.418836
-0.979581 0.409988 10.437323
-1.043099 0.481256 10.453730
-1.110533 0.549294 10.468186
-1.181343 0.614207 10.480826
-1.255060 0.676136 10.491790
-1.331277 0.735241 10.501211
-1.409678 0.791648 10.509194
-1.490054 0.845391 10.515791
-0.971630 -1.183872 9.819131
-0.926581 -1.111158 9.855410
-0.924641 -1.108028 9.856972
-0.882435 -1.033693 9.893376
-0.880627 -1.030488 9.894944
-0.841521 -0.954524 9.931430
-0.839860 -0.951242 9.933001
-0.804230 -0.873611 9.969517
-0.802738 -0.870249 9.971089
-0.771006 -0.790937 10.007565
-0.769705 -0.787496 10.009134
-0.742340 -0.706525 10.045478
-0.741255 -0.703006 10.047039
-0.718769 -0.620448 10.083133
-0.717929 -0.616856 10.084679
-0.700863 -0.532846 10.120372
-0.700297 -0.529191 10.121894
-0.689205 -0.443947 10.157005
-0.688942 -0.440243 10.158492
-0.684357 -0.354075 10.192805
-0.684421 -0.350343 10.194244
-0.686815 -0.263662 10.227515
-0.687228 -0.259929 10.228893
-0.696964 -0.173241 10.260861
-0.697733 -0.169538 10.262164
-0.715616 -0.083527 10.292419
-0.716385 -0.079825 10.293722
-0.742279 0.004793 10.322011
-0.743404 0.008434 10.323226
-0.776512 0.091135 10.349487
-0.777979 0.094684 10.350606
-0.817851 0.174994 10.374735
-0.819635 0.178427 10.375752
-0.865705 0.255988 10.397710
-0.867775 0.259286 10.398624
-0.919416 0.333863 10.418430
-0.921739 0.337016 10.419243
-0.978310 0.408486 10.436965
-0.980852 0.411490 10.437680
-1.041735 0.479828 10.453418
-1.044464 0.482684 10.454043
-1.109088 0.547937 10.467916
-1.111977 0.550650 10.468456
-1.179831 0.612919 10.480594
-1.182855 0.615495 10.481058
-1.253490 0.674912 10.491593
-1.256629 0.677360 10.491986
-1.329659 0.734077 10.501046
-1.332895 0.736405 10.501375
-1.408060 0.790484 10.509030
-1.411307 0.792798 10.509352
-1.488394 0.844283 10.515655
-0.969258 -1.180044 9.821041
-0.928953 -1.114986 9.853500
-0.922270 -1.104199 9.858882
-0.884647 -1.037613 9.891459
-0.878415 -1.026569 9.896861
-0.843551 -0.958539 9.929508
-0.837830 -0.947228 9.934923
-0.806055 -0.877722 9.967594
-0.800913 -0.866138 9.973012
-0.772597 -0.795146 10.005646
-0.768114 -0.783287 10.011054
-0.743666 -0.710830 10.043569
-0.739929 -0.698702 10.048949
-0.719796 -0.624841 10.081242
-0.716901 -0.612462 10.086569
-0.701556 -0.537317 10.118511
-0.699605 -0.524720 10.123755
-0.689528 -0.448477 10.155187
-0.688619 -0.435713 10.160310
-0.684277 -0.358638 10.191045
-0.684500 -0.345779 10.196004
-0.686311 -0.268227 10.225830
-0.687732 -0.255364 10.230578
-0.696303 -0.177793 10.259209
-0.698675 -0.165009 10.263757
-0.714674 -0.088056 10.290826
-0.717517 -0.075329 10.295268
-0.740903 0.000340 10.320525
-0.744780 0.012887 10.324713
-0.774718 0.086794 10.348119
-0.779772 0.099025 10.351975
-0.815669 0.170796 10.373491
-0.821816 0.182625 10.376996
-0.863173 0.251955 10.396592
-0.870308 0.263320 10.399741
-0.916575 0.330006 10.417436
-0.924580 0.340872 10.420236
-0.975201 0.404812 10.436089
-0.983961 0.415165 10.438556
-1.038396 0.476335 10.452654
-1.047802 0.486178 10.454807
-1.105555 0.544619 10.467254
-1.115510 0.553969 10.469118
-1.176132 0.609767 10.480027
-1.186554 0.618647 10.481626
-1.249652 0.671918 10.491112
-1.260468 0.680354 10.492468
-1.325701 0.731229 10.500643
-1.336852 0.739252 10.501778
-1.404102 0.787637 10.508627
-1.415365 0.795508 10.509683
-1.484336 0.841572 10.515323
-0.964529 -1.172410 9.824849
-0.958359 -1.162452 9.829818
-0.952190 -1.152494 9.834786
-0.946021 -1.142536 9.839755
-0.939851 -1.132578 9.844723
-0.933682 -1.122620 9.849691
-0.917822 -1.096405 9.862703
-0.912069 -1.086210 9.867690
-0.906316 -1.076014 9.872676
-0.900563 -1.065819 9.877663
-0.894810 -1.055624 9.882650
-0.889057 -1.045428 9.887636
-0.874008 -1.018751 9.900684
-0.868726 -1.008310 9.905682
-0.863445 -0.997868 9.910681
-0.858163 -0.987426 9.915679
-0.852882 -0.976985 9.920678
-0.847600 -0.966543 9.925676
-0.833781 -0.939223 9.938754
-0.828680 -0.928697 9.943754
-0.823933 -0.918002 9.948755
-0.819187 -0.907308 9.953757
-0.814440 -0.896614 9.958758
-0.809694 -0.885920 9.963760
-0.797275 -0.857940 9.976846
-0.792528 -0.847246 9.981847
-0.788187 -0.836382 9.986843
-0.784048 -0.825435 9.991835
-0.779909 -0.814487 9.996827
-0.775770 -0.803539 10.001819
-0.764941 -0.774894 10.014880
-0.760802 -0.763947 10.019873
-0.756663 -0.752999 10.024865
-0.753211 -0.741804 10.029831
-0.749761 -0.730608 10.034797
-0.746311 -0.719412 10.039762
-0.737284 -0.690119 10.052755
-0.733834 -0.678923 10.057721
-0.730384 -0.667728 10.062687
-0.727189 -0.656456 10.067637
-0.724517 -0.645029 10.072555
-0.721845 -0.633601 10.077473
-0.714853 -0.603702 10.090339
-0.712181 -0.592275 10.095257
-0.709508 -0.580848 10.100174
-0.706836 -0.569420 10.105092
-0.704738 -0.557860 10.109959
-0.702937 -0.546231 10.114800
-0.698224 -0.515806 10.127466
-0.696422 -0.504177 10.132307
-0.694621 -0.492548 10.137148
-0.692820 -0.480919 10.141989
-0.691018 -0.469291 10.146830
-0.690171 -0.457509 10.151561
-0.687976 -0.426680 10.163936
-0.687138 -0.414898 10.168666
-0.686299 -0.403115 10.173395
-0.685460 -0.391332 10.178125
-0.684622 -0.379549 10.182855
-0.684120 -0.367738 10.187536
-0.684658 -0.336680 10.199513
-0.684864 -0.324809 10.204091
-0.685070 -0.312939 10.208669
-0.685276 -0.301068 10.213247
-0.685482 -0.289198 10.217825
-0.685688 -0.277327 10.222403
-0.688738 -0.246262 10.233937
-0.690050 -0.234389 10.238320
-0.691362 -0.222515 10.242702
-0.692673 -0.210642 10.247085
-0.693985 -0.198768 10.251467
-0.695297 -0.186895 10.255850
-0.700552 -0.155980 10.266933
-0.703001 -0.144201 10.271076
-0.705450 -0.132422 10.275220
-0.707899 -0.120643 10.279363
-0.710348 -0.108864 10.283507
-0.712797 -0.097085 10.287650
-0.720261 -0.066450 10.298232
-0.723841 -0.054868 10.302097
-0.727420 -0.043286 10.305963
-0.731000 -0.031704 10.309829
-0.734579 -0.020121 10.313695
-0.738159 -0.008539 10.317561
-0.747814 0.021687 10.327594
-0.752480 0.032978 10.331153
-0.757145 0.044268 10.334713
-0.761811 0.055559 10.338272
-0.766476 0.066849 10.341831
-0.771142 0.078139 10.345391
-0.783349 0.107680 10.354703
-0.788619 0.118748 10.358068
-0.794294 0.129667 10.361304
-0.799969 0.140587 10.364540
-0.805644 0.151506 10.367775
-0.811319 0.162426 10.371011
-0.826167 0.190996 10.379476
-0.831842 0.201915 10.382712
-0.838365 0.212436 10.385642
-0.844952 0.222928 10.388549
-0.851538 0.233420 10.391456
-0.858124 0.243912 10.394363
-0.875356 0.271363 10.401970
-0.881943 0.281855 10.404877
-0.888740 0.292225 10.407700
-0.896130 0.302256 10.410285
-0.903520 0.312287 10.412870
-0.910910 0.322317 10.415455
-0.930245 0.348562 10.422218
-0.937635 0.358592 10.424803
-0.945025 0.368623 10.427388
-0.952829 0.378372 10.429790
-0.960916 0.387929 10.432067
-0.969002 0.397486 10.434344
-0.990160 0.422491 10.440301
-0.998246 0.432047 10.442578
-1.006333 0.441604 10.444855
-1.014419 0.451161 10.447132
-1.023057 0.460283 10.449142
-1.031740 0.469369 10.451130
-1.054458 0.493143 10.456331
-1.063141 0.502230 10.458319
-1.071824 0.511316 10.460307
-1.080507 0.520402 10.462295
-1.089320 0.529372 10.464215
-1.098510 0.538003 10.465935
-1.122555 0.560585 10.470437
-1.131745 0.569215 10.472158
-1.140935 0.577846 10.473878
-1.150126 0.586477 10.475599
-1.159316 0.595108 10.477319
-1.168758 0.603484 10.478896
-1.193928 0.624930 10.482757
-1.203548 0.633127 10.484232
-1.213168 0.641323 10.485707
-1.222788 0.649520 10.487183
-1.232408 0.657717 10.488658
-1.242028 0.665913 10.490134
-1.268121 0.686324 10.493427
-1.278106 0.694112 10.494679
-1.288090 0.701900 10.495931
-1.298075 0.709688 10.497182
-1.308059 0.717476 10.498434
-1.318044 0.725264 10.499686
-1.344743 0.744929 10.502582
-1.355037 0.752335 10.503630
-1.365330 0.759742 10.504678
-1.375624 0.767148 10.505727
-1.385918 0.774554 10.506775
-1.396211 0.781960 10.507823
-1.423458 0.800913 10.510345
-1.434015 0.807964 10.511209
-1.444572 0.815015 10.512072
-1.455129 0.822066 10.512935
-1.465686 0.829116 10.513798
-1.476243 0.836167 10.514662
25 NaN NaN
-0.972842 -1.185829 9.818154
-0.921719 -1.103310 9.859326
-0.874046 -1.018826 9.900648
-0.830281 -0.932303 9.942067
-0.790949 -0.843689 9.983511
-0.756654 -0.752975 10.024876
-0.728067 -0.660209 10.066022
-0.705926 -0.565528 10.106767
-0.691001 -0.469181 10.146876
-0.684053 -0.371562 10.186061
-0.685759 -0.273221 10.223987
-0.696627 -0.174858 10.260292
-0.716915 -0.077280 10.294617
-0.746567 0.018669 10.326643
-0.785217 0.112202 10.356129
-0.832231 0.202664 10.382934
-0.886797 0.289587 10.407020
-0.948024 0.372693 10.428437
-1.015024 0.451877 10.447303
-1.086969 0.527165 10.463774
-1.163119 0.598679 10.478031
-1.242833 0.666599 10.490257
-1.325568 0.731134 10.500629
-1.410867 0.792504 10.509316
-1.498349 0.850931 10.516469
-1.122395 -1.283823 8.808615
-0.891645 -0.942154 8.831644
-0.731041 -0.563591 8.860316
-0.697661 -0.156101 8.895812
-0.838594 0.226459 8.934857
-1.112767 0.531096 8.971327
-1.452785 0.762697 9.003423
-1.121190 -1.282229 8.808718
-0.892660 -0.943874 8.831523
-0.890631 -0.940435 8.831764
-0.731613 -0.565501 8.860164
-0.730468 -0.561680 8.860469
-0.697453 -0.158081 8.895627
-0.697869 -0.154120 8.895997
-0.837538 0.224771 8.934671
-0.839650 0.228147 8.935044
-1.111236 0.529820 8.971162
-1.114297 0.532373 8.971493
-1.451043 0.761725 9.003278
-1.111575 -1.269511 8.809541
-0.900758 -0.957600 8.830559
-0.882837 -0.926542 8.832754
-0.736184 -0.580749 8.858946
-0.725897 -0.546432 8.861687
-0.695791 -0.173891 8.894152
-0.699531 -0.138310 8.897472
-0.829109 0.211294 8.933180
-0.848079 0.241624 8.936534
-1.099016 0.519630 8.969841
-1.126517 0.542563 8.972814
-1.437136 0.753968 9.002119
-1.085375 -1.234856 8.811784
-1.050776 -1.188321 8.814815
-1.017380 -1.140916 8.817964
-0.984733 -1.093009 8.821184
-0.953160 -1.044383 8.824503
-0.922822 -0.994999 8.827932
-0.862628 -0.888120 8.835534
-0.835777 -0.836766 8.839255
-0.811706 -0.784063 8.843190
-0.788375 -0.731055 8.847177
-0.767726 -0.676938 8.851353
-0.748639 -0.622298 8.855627
-0.716624 -0.504087 8.865183
-0.704693 -0.447447 8.869874
-0.697351 -0.390083 8.874783
-0.690955 -0.332584 8.879736
-0.690471 -0.274744 8.884916
-0.691263 -0.216970 8.890132
-0.707318 -0.095776 8.901552
-0.720079 -0.039389 8.907041
-0.737147 0.015749 8.912561
-0.756453 0.070239 8.918096
-0.780776 0.122626 8.923610
-0.806141 0.174574 8.929119
-0.872370 0.277431 8.940558
-0.907543 0.323337 8.945849
-0.944457 0.367797 8.951069
-0.983368 0.410599 8.956206
-1.024227 0.451506 8.961238
-1.066192 0.491339 8.966209
-1.160012 0.570075 8.976398
-1.206477 0.604599 8.981042
-1.253389 0.638495 8.985645
-1.301501 0.670706 8.990136
-1.350212 0.701987 8.994563
-1.399676 0.732102 8.998911
25 NaN NaN
-1.122696 -1.284221 8.808589
-1.058758 -1.199651 8.814062
-0.997708 -1.112993 8.819819
-0.939992 -1.024102 8.825888
-0.886149 -0.932838 8.832298
-0.836834 -0.839080 8.839082
-0.792836 -0.742747 8.846275
-0.755094 -0.643833 8.853907
-0.724707 -0.542460 8.862004
-0.702903 -0.438948 8.870578
-0.690966 -0.333889 8.879619
-0.690082 -0.228202 8.889084
-0.701127 -0.123129 8.898889
-0.724444 -0.020106 8.908918
-0.759717 0.079452 8.919032
-0.806028 0.174394 8.929099
-0.862057 0.263972 8.939006
-0.926338 0.347866 8.948677
-0.997454 0.426094 8.958066
-1.074157 0.498899 8.967153
-1.155401 0.566649 8.975937
-1.240336 0.629756 8.984426
-1.328283 0.688637 8.992636
-1.418704 0.743686 9.000584
-1.511171 0.795266 9.008288
-1.472105 -1.322181 7.844044
-1.356000 -1.224437 7.829365
-1.243328 -1.122679 7.815263
-1.135511 -1.015706 7.801969
-1.033651 -0.902945 7.789652
-0.939159 -0.783848 7.778527
-0.855937 -0.656513 7.769196
-0.785599 -0.521551 7.761877
-0.735835 -0.377743 7.757704
-0.710408 -0.227736 7.757163
-0.714832 -0.075838 7.760957
-0.752303 0.071330 7.769410
-0.815368 0.209333 7.781355
-0.902275 0.333505 7.796446
-1.003429 0.446182 7.813347
-1.115742 0.547557 7.831620
-1.235945 0.639323 7.850829
-1.361453 0.723574 7.870645
-1.470573 -1.320911 7.843850
-1.357500 -1.225746 7.829554
-1.354500 -1.223127 7.829176
-1.244791 -1.124032 7.815445
-1.241866 -1.121327 7.815081
-1.136876 -1.017158 7.802135
-1.134146 -1.014254 7.801802
-1.034953 -0.904455 7.789808
-1.032349 -0.901435 7.789496
-0.940290 -0.785492 7.778656
-0.938027 -0.782204 7.778398
-0.856952 -0.658233 7.769306
-0.854922 -0.654793 7.769085
-0.786469 -0.523350 7.761965
-0.784729 -0.519753 7.761790
-0.736303 -0.379687 7.757731
-0.735367 -0.375799 7.757677
-0.710615 -0.229725 7.757151
-0.710202 -0.225746 7.757174
-0.714451 -0.077799 7.760861
-0.715213 -0.073877 7.761053
-0.751643 0.069447 7.769275
-0.752964 0.073213 7.769544
-0.814465 0.207556 7.781189
-0.816270 0.211110 7.781522
-0.901018 0.331964 7.796233
-0.903533 0.335046 7.796659
-1.002049 0.444753 7.813119
-1.004808 0.447612 7.813575
-1.114192 0.546318 7.831371
-1.117292 0.548797 7.831869
-1.234336 0.638163 7.850573
-1.237555 0.640482 7.851084
-1.359756 0.722549 7.870379
-1.465334 -1.316568 7.843186
-1.362628 -1.230223 7.830199
-1.349372 -1.218651 7.828531
-1.249789 -1.128654 7.816069
-1.236867 -1.116704 7.814457
-1.141544 -1.022121 7.802703
-1.129478 -1.009291 7.801234
-1.039405 -0.909616 7.790341
-1.027897 -0.896273 7.788962
-0.944207 -0.791077 7.779103
-0.934159 -0.776584 7.777958
-0.860422 -0.664112 7.769683
-0.851452 -0.648914 7.768708
-0.789442 -0.529500 7.762265
-0.781756 -0.513603 7.761489
-0.737903 -0.386334 7.757823
-0.733767 -0.369152 7.757585
-0.711323 -0.236525 7.757112
-0.709494 -0.218946 7.757214
-0.713148 -0.084503 7.760535
-0.716516 -0.067173 7.761380
-0.749385 0.063010 7.768817
-0.755222 0.079650 7.770003
-0.811379 0.201482 7.780618
-0.819943 0.216834 7.782170
-0.896720 0.326698 7.795504
-0.907831 0.340312 7.797387
-0.997332 0.439865 7.812338
-1.009525 0.452500 7.814356
-1.108893 0.542082 7.830520
-1.122591 0.553032 7.832719
-1.228833 0.634201 7.849698
-1.243058 0.644444 7.851959
-1.354041 0.718909 7.869481
-1.453319 -1.306606 7.841664
-1.437466 -1.293463 7.839656
-1.421613 -1.280320 7.837647
-1.405761 -1.267177 7.835639
-1.389908 -1.254034 7.833630
-1.374389 -1.240490 7.831678
-1.337611 -1.208384 7.827052
-1.322094 -1.194838 7.825100
-1.306636 -1.181225 7.823158
-1.291509 -1.167236 7.821272
-1.276382 -1.153247 7.819385
-1.261255 -1.139258 7.817499
-1.225543 -1.105951 7.813051
-1.210874 -1.091472 7.811241
-1.196205 -1.076993 7.809430
-1.181537 -1.062514 7.807620
-1.166868 -1.048036 7.805810
-1.152250 -1.033506 7.804008
-1.118772 -0.997906 7.799929
-1.104647 -0.982886 7.798208
-1.090522 -0.967865 7.796488
-1.076561 -0.952695 7.794794
-1.063089 -0.937075 7.793179
-1.049616 -0.921455 7.791565
-1.017686 -0.884434 7.787739
-1.004536 -0.868545 7.786176
-0.991856 -0.852263 7.784690
-0.979176 -0.835981 7.783203
-0.966497 -0.819700 7.781716
-0.953817 -0.803418 7.780230
-0.925286 -0.763692 7.776949
-0.913579 -0.746685 7.775618
-0.901872 -0.729677 7.774286
-0.890166 -0.712669 7.772955
-0.878881 -0.695387 7.771690
-0.868381 -0.677596 7.770548
-0.843493 -0.635429 7.767843
-0.832992 -0.617638 7.766701
-0.823254 -0.599432 7.765678
-0.814256 -0.580823 7.764770
-0.805259 -0.562214 7.763862
-0.796261 -0.543605 7.762954
-0.776179 -0.498964 7.760991
-0.769050 -0.479550 7.760369
-0.761921 -0.460137 7.759746
-0.754793 -0.440724 7.759124
-0.747664 -0.421310 7.758501
-0.741572 -0.401579 7.758034
-0.730097 -0.353907 7.757374
-0.725256 -0.333793 7.757095
-0.720414 -0.313679 7.756816
-0.717227 -0.293281 7.756782
-0.715086 -0.272702 7.756901
-0.712946 -0.252123 7.757021
-0.707871 -0.203348 7.757305
-0.708052 -0.182703 7.757760
-0.708915 -0.162038 7.758314
-0.709777 -0.141374 7.758867
-0.710640 -0.120709 7.759421
-0.711502 -0.100044 7.759975
-0.719504 -0.051797 7.762129
-0.723447 -0.031510 7.763119
-0.727390 -0.011223 7.764108
-0.731333 0.009064 7.765097
-0.737372 0.028766 7.766376
-0.744205 0.048245 7.767764
-0.760402 0.094415 7.771055
-0.767235 0.113895 7.772444
-0.776286 0.132403 7.774131
-0.785624 0.150785 7.775857
-0.794962 0.169167 7.777584
-0.804301 0.187549 7.779310
-0.828574 0.229839 7.783683
-0.839961 0.246998 7.785678
-0.851349 0.264157 7.787674
-0.862736 0.281316 7.789670
-0.874123 0.298475 7.791665
-0.886860 0.314617 7.793834
-0.917691 0.352393 7.799057
-0.930699 0.368331 7.801261
-0.943707 0.384269 7.803464
-0.957968 0.399071 7.805824
-0.972241 0.413862 7.808186
-0.986514 0.428654 7.810548
-1.020489 0.463557 7.816164
-1.035749 0.477307 7.818646
-1.051009 0.491057 7.821128
-1.066269 0.504806 7.823610
-1.081529 0.518556 7.826093
-1.096789 0.532306 7.828575
-1.134745 0.562748 7.834671
-1.150781 0.575567 7.837245
-1.166816 0.588385 7.839820
-1.182908 0.601128 7.842401
-1.199560 0.613120 7.845047
-1.216212 0.625112 7.847693
-1.255679 0.653533 7.853964
-1.272453 0.665343 7.856624
-1.289601 0.676601 7.859326
-1.306748 0.687859 7.862028
-1.323896 0.699118 7.864730
-1.341044 0.710376 7.867433
26 NaN NaN
-1.472488 -1.322499 7.844093
-1.389832 -1.253971 7.833620
-1.308926 -1.183343 7.823444
-1.230054 -1.110404 7.813608
-1.153573 -1.034913 7.804169
-1.079929 -0.956600 7.795197
-1.009690 -0.875164 7.786780
-0.943584 -0.790278 7.779030
-0.882555 -0.701612 7.772089
-0.827817 -0.608870 7.766139
-0.780919 -0.511872 7.761405
-0.743767 -0.410697 7.758161
-0.718539 -0.305890 7.756708
-0.707386 -0.198679 7.757332
-0.711879 -0.091032 7.760216
-0.732418 0.014647 7.765369
-0.768020 0.116133 7.772603
-0.816680 0.211916 7.781598
-0.876026 0.301343 7.791999
-0.943829 0.384418 7.803485
-1.018233 0.461524 7.815797
-1.097787 0.533205 7.828737
-1.181389 0.600034 7.842159
-1.268206 0.662555 7.855955
-1.357610 0.721252 7.870043
-1.449121 0.776551 7.884364
-1.901924 -1.334351 6.910678
-1.743717 -1.242842 6.896430
-1.588467 -1.146189 6.883870
-1.437004 -1.043466 6.873367
-1.291335 -0.932467 6.865798
-1.153045 -0.812308 6.861682
-1.025451 -0.680793 6.862171
-0.916435 -0.533874 6.869761
-0.834439 -0.371429 6.886251
-0.793443 -0.195611 6.914132
-0.809044 -0.018340 6.954207
-0.871798 0.146334 7.001576
-0.969872 0.292259 7.052475
-1.091019 0.419463 7.104335
-1.225377 0.532769 7.156087
-1.369000 0.634440 7.207370
-1.900191 -1.333366 6.910518
-1.745432 -1.243860 6.896579
-1.742002 -1.241824 6.896281
-1.590136 -1.147283 6.883994
-1.586797 -1.145094 6.883747
-1.438645 -1.044605 6.873475
-1.435364 -1.042327 6.873259
-1.292897 -0.933714 6.865868
-1.289772 -0.931221 6.865729
-1.154487 -0.813694 6.861698
-1.151604 -0.810922 6.861667
-1.026807 -0.682264 6.862150
-1.024096 -0.679322 6.862191
-0.917526 -0.535545 6.869643
-0.915343 -0.532202 6.869878
-0.835068 -0.373310 6.885992
-0.833809 -0.369548 6.886509
-0.793749 -0.197558 6.913792
-0.793137 -0.193664 6.914472
-0.808631 -0.020237 6.953727
-0.809457 -0.016443 6.954688
-0.870830 0.144672 7.001028
-0.872765 0.147997 7.002124
-0.968719 0.290725 7.051914
-0.971026 0.293794 7.053036
-1.089621 0.418149 7.103769
-1.092416 0.420777 7.104901
-1.223837 0.531623 7.155525
-1.226917 0.533915 7.156648
-1.367410 0.633363 7.206813
-1.893331 -1.329466 6.909886
-1.752221 -1.247889 6.897169
-1.735213 -1.237795 6.895690
-1.596745 -1.151613 6.884484
-1.580188 -1.140764 6.883257
-1.445138 -1.049113 6.873904
-1.429006 -1.037624 6.872899
-1.299081 -0.938649 6.866143
-1.283588 -0.926286 6.865454
-1.160194 -0.819180 6.861758
-1.145896 -0.805436 6.861607
-1.032171 -0.688085 6.862069
-1.019016 -0.673261 6.862382
-0.921847 -0.542162 6.869177
-0.911022 -0.525585 6.870344
-0.837560 -0.380754 6.884971
-0.831318 -0.362104 6.887531
-0.794959 -0.205265 6.912446
-0.792417 -0.185947 6.915923
-0.806996 -0.027746 6.951825
-0.811092 -0.008934 6.956590
-0.867001 0.138092 6.998857
-0.876595 0.154577 7.004295
-0.964154 0.284650 7.049693
-0.975626 0.299839 7.055257
-1.084090 0.412948 7.101527
-1.097947 0.425978 7.107143
-1.217740 0.527088 7.153303
-1.233013 0.538450 7.158871
-1.361117 0.629097 7.204605
-1.876891 -1.320120 6.908372
-1.855131 -1.307749 6.906367
-1.833371 -1.295379 6.904363
-1.811611 -1.283009 6.902358
-1.790025 -1.270324 6.900455
-1.768491 -1.257544 6.898583
-1.718944 -1.228139 6.894276
-1.697585 -1.215057 6.892503
-1.676314 -1.201824 6.890781
-1.655043 -1.188591 6.889058
-1.633772 -1.175358 6.887335
-1.612583 -1.161992 6.885657
-1.564350 -1.130385 6.882083
-1.543388 -1.116648 6.880530
-1.522485 -1.102819 6.879008
-1.501890 -1.088519 6.877649
-1.481294 -1.074218 6.876290
-1.460698 -1.059918 6.874931
-1.413779 -1.026340 6.872041
-1.393624 -1.011405 6.870906
-1.373470 -0.996471 6.869772
-1.353315 -0.981536 6.868637
-1.333517 -0.966127 6.867675
-1.313901 -0.950475 6.866802
-1.268768 -0.914460 6.864795
-1.249526 -0.898351 6.864095
-1.230579 -0.881882 6.863532
-1.211632 -0.865412 6.862970
-1.192686 -0.848943 6.862407
-1.173871 -0.832328 6.861903
-1.132220 -0.792289 6.861462
-1.114117 -0.774888 6.861270
-1.096076 -0.757427 6.861103
-1.079060 -0.738963 6.861361
-1.062043 -0.720499 6.861618
-1.045027 -0.702035 6.861875
-1.007234 -0.658404 6.862990
-0.991641 -0.638738 6.863796
-0.976047 -0.619073 6.864601
-0.960453 -0.599408 6.865407
-0.945906 -0.579009 6.866584
-0.932201 -0.558020 6.868061
-0.900668 -0.509727 6.871460
-0.888107 -0.488114 6.873307
-0.876917 -0.465751 6.875597
-0.865727 -0.443389 6.877888
-0.854537 -0.421027 6.880179
-0.843530 -0.398595 6.882522
-0.825347 -0.344263 6.889979
-0.817444 -0.320650 6.893220
-0.809541 -0.297037 6.896461
-0.805536 -0.272626 6.900686
-0.801697 -0.248180 6.904954
-0.797859 -0.223735 6.909222
-0.792955 -0.167401 6.919885
-0.793667 -0.142855 6.925130
-0.794378 -0.118308 6.930375
-0.795090 -0.093762 6.935619
-0.797893 -0.069557 6.941233
-0.803078 -0.045740 6.947266
-0.815009 0.009060 6.961148
-0.821638 0.032378 6.967382
-0.830705 0.054854 6.973952
-0.839772 0.077330 6.980523
-0.848838 0.099805 6.987093
-0.857905 0.122281 6.993664
-0.885771 0.170346 7.009496
-0.897918 0.191217 7.016381
-0.910064 0.212088 7.023266
-0.924253 0.231556 7.030288
-0.938733 0.250824 7.037331
-0.953213 0.270093 7.044373
-0.987886 0.313285 7.060624
-1.004114 0.331082 7.067728
-1.020342 0.348879 7.074832
-1.036569 0.366676 7.081937
-1.053290 0.383986 7.089043
-1.070835 0.400484 7.096154
-1.111203 0.438442 7.112516
-1.129023 0.454630 7.119621
-1.147575 0.469996 7.126708
-1.166127 0.485362 7.133796
-1.184679 0.500728 7.140884
-1.203231 0.516095 7.147972
-1.247623 0.549318 7.164196
-1.266960 0.563702 7.171246
-1.286298 0.578087 7.178295
-1.306115 0.591813 7.185308
-1.326076 0.605344 7.192311
-1.346036 0.618874 7.199314
27 NaN NaN
-1.902357 -1.334597 6.910718
-1.806564 -1.280140 6.901893
-1.711766 -1.223880 6.893652
-1.618126 -1.165625 6.886068
-1.525845 -1.105152 6.879230
-1.435179 -1.042199 6.873246
-1.346457 -0.976454 6.868251
-1.260109 -0.907550 6.864409
-1.176706 -0.835053 6.861933
-1.097024 -0.758457 6.861089
-1.022129 -0.677188 6.862221
-0.953502 -0.590641 6.865766
-0.893196 -0.498285 6.872265
-0.843970 -0.399909 6.882342
-0.809216 -0.296065 6.896594
-0.792341 -0.188593 6.915357
-0.795468 -0.080691 6.938412
-0.818267 0.024023 6.964939
-0.858144 0.122872 6.993837
-0.911581 0.214694 7.024125
-0.975301 0.299483 7.055115
-1.046721 0.377809 7.086381
-1.123944 0.450423 7.117680
-1.205606 0.518061 7.148879
-1.290727 0.581382 7.179910
-1.378595 0.640944 7.210737
-1.468680 0.697218 7.241347
-2.043092 -1.349708 5.662024
-1.822143 -1.254024 5.739347
-1.606098 -1.149721 5.819295
-1.396838 -1.034645 5.902410
-1.198329 -0.904656 5.989671
-1.016085 -0.755756 6.081730
-0.861419 -0.581560 6.179188
-0.760969 -0.374153 6.280585
-0.745542 -0.143053 6.376682
-0.823597 0.082913 6.454353
-0.969116 0.281608 6.509199
-1.149047 0.454700 6.547679
-1.348267 0.607928 6.574756
-2.041334 -1.348970 5.662630
-1.823870 -1.254816 5.738724
-1.820415 -1.253231 5.739969
-1.607786 -1.150579 5.818653
-1.604410 -1.148862 5.819937
-1.398473 -1.035585 5.901744
-1.395227 -1.033672 5.903085
-1.199837 -0.905761 5.988961
-1.196821 -0.903551 5.990381
-1.017450 -0.757012 6.080984
-1.014719 -0.754500 6.082477
-0.862551 -0.583011 6.178404
-0.860316 -0.580090 6.179975
-0.761421 -0.375930 6.279787
-0.760517 -0.372375 6.281382
-0.745316 -0.144909 6.375972
-0.745767 -0.141198 6.377393
-0.822771 0.081179 6.453796
-0.824422 0.084648 6.454910
-0.967781 0.280160 6.508848
-0.970450 0.283055 6.509551
-1.147541 0.453409 6.547420
-1.150553 0.455990 6.547937
-1.346654 0.606760 6.574565
-2.032237 -1.345153 5.665764
-1.832812 -1.258918 5.735502
-1.811474 -1.249130 5.743191
-1.616524 -1.155024 5.815328
-1.595672 -1.144417 5.823262
-1.406934 -1.040452 5.898297
-1.386944 -1.028555 5.906602
-1.207644 -0.911480 5.985284
-1.189015 -0.897833 5.994058
-1.024520 -0.763513 6.077120
-1.007650 -0.748000 6.086340
-0.868407 -0.590519 6.174345
-0.855356 -0.572001 6.184112
-0.763758 -0.385131 6.275660
-0.758180 -0.363174 6.285509
-0.744149 -0.154515 6.372294
-0.746934 -0.131592 6.381071
-0.818499 0.072201 6.450915
-0.829809 0.093130 6.457395
-0.960875 0.272667 6.507027
-0.977356 0.290549 6.511371
-1.139748 0.446728 6.546083
-1.158346 0.462671 6.549274
-1.338310 0.600713 6.573581
-2.009042 -1.335420 5.673755
-1.978210 -1.322482 5.684378
-1.947384 -1.309533 5.695003
-1.916799 -1.296136 5.705769
-1.886215 -1.282738 5.716534
-1.855630 -1.269340 5.727299
-1.788675 -1.238672 5.751406
-1.758385 -1.224747 5.762333
-1.728402 -1.210294 5.773419
-1.698418 -1.195841 5.784505
-1.668434 -1.181388 5.795592
-1.638803 -1.166355 5.806851
-1.573422 -1.133041 5.831752
-1.544239 -1.117303 5.843218
-1.515056 -1.101564 5.854684
-1.485873 -1.085825 5.866150
-1.457183 -1.069353 5.877826
-1.428507 -1.052860 5.889508
-1.365824 -1.015510 5.915568
-1.337752 -0.998170 5.927487
-1.309679 -0.980830 5.939406
-1.282328 -0.962541 5.951582
-1.254983 -0.944246 5.963760
-1.227637 -0.925950 5.975938
-1.169112 -0.883253 6.003432
-1.142670 -0.863855 6.015897
-1.117318 -0.843238 6.028665
-1.091966 -0.822620 6.041433
-1.066614 -0.802003 6.054200
-1.042544 -0.780086 6.067268
-0.989687 -0.731371 6.096203
-0.967516 -0.707732 6.109636
-0.945345 -0.684092 6.123068
-0.923173 -0.660453 6.136500
-0.903188 -0.635112 6.150238
-0.883339 -0.609664 6.163995
-0.842710 -0.551376 6.194660
-0.825900 -0.523959 6.208681
-0.809090 -0.496543 6.222702
-0.796083 -0.467198 6.236838
-0.783215 -0.437782 6.250977
-0.770348 -0.408365 6.265117
-0.752220 -0.339715 6.296033
-0.744297 -0.308532 6.310022
-0.742104 -0.276208 6.323469
-0.739965 -0.243873 6.336912
-0.737825 -0.211538 6.350354
-0.741174 -0.179006 6.362916
-0.750018 -0.107115 6.390424
-0.759677 -0.075292 6.401596
-0.769337 -0.043469 6.412767
-0.778996 -0.011646 6.423939
-0.793129 0.018882 6.433804
-0.807607 0.049310 6.443569
-0.843564 0.114748 6.463726
-0.861848 0.143483 6.472141
-0.880131 0.172218 6.480556
-0.901188 0.199311 6.487822
-0.922383 0.226323 6.495031
-0.943577 0.253335 6.502240
-0.994964 0.309654 6.516012
-1.018370 0.335049 6.522182
-1.043426 0.359023 6.527487
-1.068524 0.382960 6.532771
-1.093622 0.406897 6.538055
-1.119878 0.429693 6.542675
-1.178215 0.479706 6.552682
-1.205660 0.501211 6.556573
-1.233108 0.522712 6.560461
-1.260557 0.544213 6.564348
-1.288755 0.564804 6.567737
-1.317035 0.585296 6.571072
30 NaN NaN
-2.043531 -1.349892 5.661873
-1.948134 -1.309862 5.694740
-1.853501 -1.268408 5.728048
-1.759736 -1.225398 5.761833
-1.666964 -1.180679 5.796135
-1.575338 -1.134075 5.830999
-1.485044 -1.085378 5.866476
-1.396320 -1.034347 5.902621
-1.309463 -0.980696 5.939498
-1.224857 -0.924090 5.977176
-1.143005 -0.864128 6.015729
-1.064571 -0.800341 6.055229
-0.990453 -0.732188 6.095739
-0.921868 -0.659062 6.137291
-0.860476 -0.580351 6.179842
-0.808492 -0.495568 6.223201
-0.768710 -0.404622 6.266916
-0.744223 -0.308241 6.310152
-0.737612 -0.208322 6.351691
-0.749834 -0.107722 6.390211
-0.779689 -0.009362 6.424740
-0.824452 0.084712 6.454930
-0.880995 0.173575 6.480953
-0.946550 0.257124 6.503252
-1.018953 0.335682 6.522335
-1.096598 0.409735 6.538681
-1.178311 0.479788 6.552699
-1.263233 0.546309 6.564728
-1.350730 0.609713 6.575046
-1.440323 0.670354 6.583881
-1.807472 -1.341130 5.348627
-1.680745 -1.264146 5.344350
-1.556023 -1.183911 5.341204
-1.433733 -1.099975 5.339374
-1.315128 -1.010904 5.339424
-1.200676 -0.916599 5.341462
-1.091566 -0.816245 5.345893
-0.991173 -0.707432 5.353895
-0.901965 -0.589715 5.366012
-0.828219 -0.462381 5.383179
-0.780571 -0.324490 5.407517
-0.765191 -0.181000 5.438945
-0.784399 -0.039308 5.476117
-0.838784 0.091980 5.517088
-0.917673 0.209985 5.559268
-1.012446 0.315833 5.601386
-1.119154 0.410031 5.642860
-1.233714 0.494967 5.683529
-1.353469 0.572829 5.723440
-1.805758 -1.340100 5.348567
-1.682439 -1.265209 5.344399
-1.679052 -1.263083 5.344301
-1.557692 -1.185011 5.341240
-1.554354 -1.182810 5.341169
-1.435375 -1.101118 5.339395
-1.432092 -1.098833 5.339353
-1.316694 -1.012147 5.339407
-1.313561 -1.009661 5.339440
-1.202192 -0.917902 5.341422
-1.199159 -0.915295 5.341502
-1.093019 -0.817618 5.345825
-1.090113 -0.814872 5.345961
-0.992439 -0.708974 5.353753
-0.989908 -0.705890 5.354036
-0.903090 -0.591358 5.365822
-0.900839 -0.588073 5.366202
-0.829156 -0.464131 5.382930
-0.827283 -0.460632 5.383429
-0.780937 -0.326417 5.407123
-0.780204 -0.322564 5.407910
-0.765187 -0.182945 5.438481
-0.765196 -0.179055 5.439410
-0.784017 -0.041201 5.475598
-0.784780 -0.037414 5.476636
-0.837803 0.090332 5.516521
-0.839766 0.093627 5.517656
-0.916492 0.208476 5.558698
-0.918854 0.211495 5.559838
-1.011117 0.314449 5.600820
-1.013774 0.317216 5.601953
-1.117635 0.408854 5.642308
-1.120674 0.411208 5.643412
-1.232131 0.493872 5.682986
-1.235297 0.496062 5.684072
-1.351836 0.571805 5.722905
-1.800025 -1.336655 5.348364
-1.688104 -1.268767 5.344562
-1.673386 -1.259525 5.344137
-1.563278 -1.188695 5.341359
-1.548768 -1.179127 5.341049
-1.440867 -1.104941 5.339464
-1.426700 -1.094870 5.339335
-1.321937 -1.016306 5.339352
-1.308318 -1.005502 5.339495
-1.207266 -0.922264 5.341288
-1.194086 -0.910933 5.341635
-1.097880 -0.822211 5.345599
-1.085360 -0.810173 5.346232
-0.996675 -0.714133 5.353280
-0.985672 -0.700731 5.354509
-0.906854 -0.596854 5.365184
-0.897075 -0.582577 5.366840
-0.832289 -0.469985 5.382094
-0.824150 -0.454778 5.384264
-0.782164 -0.332862 5.405807
-0.778978 -0.316118 5.409226
-0.765173 -0.189455 5.436929
-0.765210 -0.172545 5.440962
-0.782740 -0.047536 5.473862
-0.786057 -0.031079 5.478373
-0.834518 0.084819 5.514622
-0.843050 0.099140 5.519555
-0.912539 0.203424 5.556789
-0.922806 0.216547 5.561747
-1.006672 0.309819 5.598924
-1.018219 0.321846 5.603848
-1.112549 0.404915 5.640463
-1.125760 0.415147 5.645257
-1.226834 0.490209 5.681168
-1.240594 0.499726 5.685890
-1.346373 0.568380 5.721114
-1.786967 -1.328810 5.347903
-1.769749 -1.318465 5.347294
-1.752531 -1.308120 5.346686
-1.735312 -1.297776 5.346077
-1.718094 -1.287431 5.345469
-1.701007 -1.276869 5.344935
-1.660484 -1.251422 5.343765
-1.643470 -1.240739 5.343273
-1.626457 -1.230055 5.342782
-1.609549 -1.219204 5.342350
-1.592774 -1.208143 5.341991
-1.576000 -1.197082 5.341632
-1.536046 -1.170739 5.340777
-1.519342 -1.159574 5.340455
-1.502850 -1.148092 5.340247
-1.486358 -1.136611 5.340039
-1.469866 -1.125130 5.339830
-1.453373 -1.113648 5.339622
-1.414449 -1.085804 5.339308
-1.398295 -1.073850 5.339273
-1.382142 -1.061895 5.339237
-1.365988 -1.049941 5.339202
-1.349834 -1.037987 5.339167
-1.333876 -1.025778 5.339227
-1.296379 -0.996031 5.339621
-1.280636 -0.983542 5.339786
-1.264893 -0.971052 5.339952
-1.249293 -0.958392 5.340183
-1.234057 -0.945294 5.340584
-1.218820 -0.932197 5.340985
-1.182531 -0.901001 5.341939
-1.167350 -0.887843 5.342364
-1.152750 -0.874050 5.343044
-1.138151 -0.860257 5.343724
-1.123552 -0.846464 5.344404
-1.108952 -0.832671 5.345083
-1.074906 -0.799110 5.347001
-1.061122 -0.784522 5.348016
-1.047338 -0.769933 5.349031
-1.033554 -0.755345 5.350046
-1.019770 -0.740757 5.351061
-1.006321 -0.725883 5.352203
-0.976026 -0.688981 5.355586
-0.963306 -0.673487 5.357006
-0.950587 -0.657994 5.358427
-0.938039 -0.642378 5.359907
-0.926733 -0.625874 5.361820
-0.915428 -0.609370 5.363733
-0.888501 -0.570061 5.368291
-0.877196 -0.553557 5.370204
-0.867651 -0.536055 5.372669
-0.858242 -0.518475 5.375177
-0.848833 -0.500896 5.377685
-0.839424 -0.483316 5.380193
-0.818871 -0.440690 5.386677
-0.811982 -0.422085 5.389879
-0.805093 -0.403481 5.393080
-0.798204 -0.384876 5.396282
-0.791315 -0.366271 5.399484
-0.784956 -0.347541 5.402809
-0.776186 -0.301439 5.412224
-0.772503 -0.282083 5.416177
-0.768821 -0.262726 5.420130
-0.765138 -0.243370 5.424082
-0.765097 -0.223827 5.428729
-0.765140 -0.204279 5.433392
-0.765243 -0.157721 5.444499
-0.765286 -0.138174 5.449162
-0.768327 -0.119039 5.454261
-0.772162 -0.100014 5.459476
-0.775997 -0.080989 5.464692
-0.779832 -0.061964 5.469907
-0.790992 -0.017315 5.482532
-0.798184 0.000610 5.488084
-0.805376 0.018535 5.493636
-0.812567 0.036460 5.499188
-0.819759 0.054385 5.504740
-0.827039 0.072265 5.510297
-0.850530 0.111695 5.523879
-0.860393 0.128249 5.529582
-0.870255 0.144804 5.535284
-0.880118 0.161359 5.540986
-0.891670 0.176748 5.546713
-0.903538 0.191919 5.552443
-0.931807 0.228052 5.566092
-0.943676 0.243222 5.571823
-0.956505 0.257570 5.577529
-0.969853 0.271472 5.583222
-0.983201 0.285374 5.588914
-0.996549 0.299276 5.594607
-1.028841 0.331882 5.608134
-1.043287 0.344671 5.613757
-1.057732 0.357461 5.619380
-1.072177 0.370250 5.625004
-1.086622 0.383040 5.630627
-1.101067 0.395829 5.636250
-1.137341 0.424118 5.649460
-1.152613 0.435946 5.655002
-1.167885 0.447775 5.660544
-1.183157 0.459603 5.666086
-1.198863 0.470865 5.671570
-1.214771 0.481866 5.677029
-1.252658 0.508068 5.690029
-1.268565 0.519069 5.695487
-1.284716 0.529720 5.700906
-1.301121 0.540006 5.706283
-1.317527 0.550293 5.711659
-1.333932 0.560579 5.717036
25 NaN NaN
-1.807900 -1.341387 5.348643
-1.711874 -1.283693 5.345249
-1.616988 -1.224109 5.342509
-1.523436 -1.162424 5.340507
-1.431460 -1.098393 5.339345
-1.341372 -1.031725 5.339148
-1.253576 -0.962074 5.340070
-1.168609 -0.889032 5.342305
-1.087195 -0.812116 5.346097
-1.010333 -0.730769 5.351755
-0.939413 -0.644383 5.359674
-0.876387 -0.552377 5.370341
-0.823947 -0.454398 5.384318
-0.785564 -0.350739 5.402156
-0.765055 -0.242933 5.424172
-0.765295 -0.134086 5.450137
-0.786650 -0.028137 5.479180
-0.826715 0.071721 5.510110
-0.881679 0.163979 5.541889
-0.947841 0.248546 5.573834
-1.022262 0.326057 5.605573
-1.102808 0.397371 5.636928
-1.187969 0.463331 5.667832
-1.276677 0.524680 5.698271
-1.368166 0.582044 5.728257
-1.235505 -1.308289 4.324239
-0.987484 -1.017971 4.368046
-0.786134 -0.696521 4.427057
-0.680935 -0.338477 4.509862
-0.751186 0.018408 4.617511
-0.987361 0.297428 4.727667
-1.303440 0.491629 4.826091
-1.234153 -1.306830 4.324444
-0.988685 -1.019549 4.367787
-0.986282 -1.016393 4.368305
-0.786950 -0.698309 4.426685
-0.785317 -0.694734 4.427428
-0.681164 -0.340402 4.509369
-0.680705 -0.336552 4.510355
-0.750280 0.016725 4.616921
-0.752092 0.020090 4.618101
-0.985912 0.296164 4.727114
-0.988809 0.298691 4.728220
-1.301698 0.490775 4.825608
-1.224037 -1.295915 4.325978
-0.997674 -1.031349 4.365849
-0.977293 -1.004593 4.370242
-0.793059 -0.711679 4.423905
-0.779208 -0.681364 4.430208
-0.682883 -0.354797 4.505679
-0.678986 -0.322157 4.514044
-0.743502 0.004140 4.612508
-0.758870 0.032675 4.622514
-0.975078 0.286715 4.722976
-1.000376 0.307285 4.732228
-1.288663 0.484385 4.821992
-1.196695 -1.266412 4.330123
-1.160314 -1.226961 4.335692
-1.124977 -1.186626 4.341652
-1.089779 -1.146180 4.347662
-1.055780 -1.104784 4.354105
-1.021971 -1.063247 4.360613
-0.953495 -0.972360 4.375642
-0.922964 -0.928528 4.383247
-0.893072 -0.884310 4.391050
-0.864823 -0.839099 4.399360
-0.837397 -0.793451 4.407907
-0.811933 -0.746764 4.417020
-0.762697 -0.645223 4.437721
-0.742602 -0.596315 4.448211
-0.724821 -0.546586 4.459257
-0.709513 -0.496234 4.470828
-0.696972 -0.445184 4.482987
-0.687530 -0.393709 4.495707
-0.679006 -0.283200 4.524698
-0.680176 -0.231210 4.539081
-0.686563 -0.179907 4.554023
-0.695750 -0.128971 4.569267
-0.710281 -0.079560 4.584860
-0.727462 -0.030904 4.600627
-0.777190 0.066694 4.634442
-0.806695 0.108936 4.650223
-0.837229 0.150538 4.665976
-0.871857 0.188860 4.681419
-0.907219 0.226595 4.696808
-0.945792 0.261171 4.711793
-1.031781 0.330352 4.743039
-1.073736 0.361058 4.757451
-1.117795 0.388912 4.771385
-1.161921 0.416662 4.785300
-1.207639 0.441951 4.798770
-1.253430 0.467114 4.812217
23 NaN NaN
-1.235843 -1.308654 4.324188
-1.163453 -1.230544 4.335162
-1.093335 -1.150510 4.346988
-1.025873 -1.068370 4.359771
-0.961549 -0.983923 4.373635
-0.900973 -0.896955 4.388726
-0.844924 -0.807253 4.405213
-0.794405 -0.714627 4.423293
-0.750701 -0.618965 4.443180
-0.715431 -0.520323 4.465091
-0.690559 -0.419077 4.489205
-0.678266 -0.316125 4.515590
-0.680585 -0.213052 4.544104
-0.698797 -0.112081 4.574322
-0.732857 -0.015627 4.605577
-0.781322 0.074367 4.637133
-0.841872 0.156864 4.668371
-0.912009 0.231706 4.698892
-0.989522 0.299313 4.728492
-1.072651 0.360372 4.757108
-1.160063 0.415634 4.784752
-1.250772 0.465811 4.811479
-1.344047 0.511535 4.837357
-0.951055 -1.263234 3.187592
-0.867814 -1.106830 3.179626
-0.794737 -0.945321 3.176045
-0.735043 -0.778374 3.178058
-0.694056 -0.606221 3.187551
-0.674761 -0.431055 3.205292
-0.684217 -0.256431 3.233326
-0.725119 -0.088650 3.271734
-0.795021 0.067037 3.318896
-0.892621 0.204461 3.373472
-1.008746 0.324611 3.432293
-1.138596 0.428489 3.493769
-0.950091 -1.261484 3.187491
-0.868712 -1.108615 3.179698
-0.866916 -1.105044 3.179554
-0.795468 -0.947183 3.176047
-0.794006 -0.943459 3.176044
-0.735668 -0.780274 3.178016
-0.734418 -0.776475 3.178100
-0.694411 -0.608184 3.187402
-0.693702 -0.604258 3.187700
-0.674755 -0.433035 3.205011
-0.674767 -0.429075 3.205574
-0.684001 -0.258387 3.232972
-0.684434 -0.254474 3.233679
-0.724465 -0.090475 3.271241
-0.725773 -0.086826 3.272227
-0.793983 0.065436 3.318297
-0.796059 0.068639 3.319496
-0.891431 0.202986 3.372835
-0.893812 0.205937 3.374110
-1.007328 0.323378 3.431608
-1.010164 0.325844 3.432978
-1.137097 0.427365 3.493070
-0.946374 -1.254742 3.187101
-0.872174 -1.115497 3.179976
-0.863454 -1.098162 3.179276
-0.798285 -0.954358 3.176051
-0.791188 -0.936284 3.176040
-0.738077 -0.787594 3.177852
-0.732009 -0.769154 3.178264
-0.695777 -0.615748 3.186829
-0.692335 -0.596693 3.188274
-0.674732 -0.440667 3.203926
-0.674791 -0.421443 3.206658
-0.683168 -0.265928 3.231608
-0.685267 -0.246933 3.235043
-0.721945 -0.097508 3.269341
-0.728293 -0.079793 3.274128
-0.790469 0.058944 3.316113
-0.800058 0.074809 3.321809
-0.886843 0.197300 3.370379
-0.898400 0.211623 3.376566
-1.001864 0.318625 3.428967
-1.015628 0.330597 3.435619
-1.131319 0.423031 3.490376
-0.937533 -1.238702 3.186175
-0.925838 -1.217484 3.184949
-0.914142 -1.196266 3.183723
-0.902446 -1.175048 3.182497
-0.891302 -1.153527 3.181512
-0.880409 -1.131869 3.180637
-0.855219 -1.081790 3.178615
-0.844803 -1.059898 3.177945
-0.834843 -1.037783 3.177472
-0.824883 -1.015668 3.176998
-0.814923 -0.993553 3.176524
-0.804988 -0.971427 3.176061
-0.784486 -0.919215 3.176030
-0.775619 -0.896634 3.176016
-0.766752 -0.874053 3.176002
-0.758973 -0.851086 3.176435
-0.751391 -0.828048 3.176949
-0.743809 -0.805010 3.177464
-0.727290 -0.751456 3.179058
-0.721219 -0.727996 3.180176
-0.715148 -0.704535 3.181295
-0.709078 -0.681074 3.182414
-0.703329 -0.657551 3.183658
-0.699028 -0.633744 3.185463
-0.689084 -0.578697 3.189639
-0.684796 -0.554890 3.191450
-0.682546 -0.530873 3.194025
-0.680295 -0.506856 3.196600
-0.678045 -0.482839 3.199175
-0.675794 -0.458822 3.201749
-0.674846 -0.403287 3.209238
-0.674920 -0.379270 3.212652
-0.674994 -0.355252 3.216065
-0.675944 -0.331333 3.219780
-0.678566 -0.307600 3.224072
-0.681187 -0.283868 3.228364
-0.687701 -0.229100 3.238436
-0.692990 -0.205994 3.243601
-0.698278 -0.182889 3.248766
-0.703567 -0.159784 3.253932
-0.708856 -0.136678 3.259097
-0.715950 -0.114238 3.264820
-0.734288 -0.063063 3.278649
-0.742219 -0.040930 3.284630
-0.751407 -0.019441 3.290974
-0.761807 0.001429 3.297667
-0.772207 0.022298 3.304360
-0.782607 0.043168 3.311054
-0.809572 0.089490 3.327310
-0.822158 0.108910 3.334587
-0.834744 0.128330 3.341865
-0.847330 0.147750 3.349142
-0.861488 0.165877 3.356804
-0.875927 0.183772 3.364535
-0.909316 0.225151 3.382410
-0.924781 0.242032 3.390368
-0.940745 0.258419 3.398436
-0.956709 0.274807 3.406504
-0.972674 0.291194 3.414572
-0.988865 0.307318 3.422685
-1.028627 0.341905 3.441901
-1.045823 0.356862 3.450212
-1.063027 0.371809 3.458524
-1.081210 0.385447 3.467004
-1.099392 0.399084 3.475485
-1.117575 0.412722 3.483965
20 NaN NaN
-0.951296 -1.263671 3.187617
-0.898795 -1.168424 3.182114
-0.849895 -1.071205 3.178187
-0.805188 -0.971936 3.176062
-0.765389 -0.870581 3.176000
-0.731358 -0.767177 3.178308
-0.704111 -0.661882 3.183329
-0.684811 -0.555043 3.191433
-0.674712 -0.447269 3.202988
-0.675042 -0.339501 3.218303
-0.686803 -0.233023 3.237559
-0.710530 -0.129362 3.260732
-0.746112 -0.030067 3.287566
-0.792773 0.063569 3.317597
-0.849248 0.150708 3.350251
-0.914046 0.231012 3.384943
-0.985692 0.304557 3.421151
-1.062870 0.371691 3.458451
-1.144481 0.432902 3.496514
-1.229637 0.488730 3.535096
-0.634048 -1.164457 0.858991
-0.564188 -0.963573 0.882496
-0.514021 -0.758107 0.914700
-0.488858 -0.550003 0.957156
-0.494343 -0.343180 1.011045
-0.534689 -0.143744 1.076456
-0.610406 0.041348 1.151842
-0.717582 0.206859 1.234391
-0.849707 0.350887 1.321130
-0.633353 -1.162592 0.859192
-0.564713 -0.965483 0.882219
-0.563664 -0.961663 0.882773
-0.514329 -0.760049 0.914332
-0.513713 -0.756166 0.915068
-0.488897 -0.551946 0.956684
-0.488819 -0.548059 0.957627
-0.494067 -0.345074 1.010465
-0.494619 -0.341286 1.011625
-0.534081 -0.145524 1.075777
-0.535297 -0.141964 1.077135
-0.609490 0.039738 1.151087
-0.611321 0.042958 1.152596
-0.716415 0.205446 1.233589
-0.718749 0.208271 1.235192
-0.848351 0.349671 1.320306
-0.630231 -1.154209 0.860093
-0.567440 -0.973981 0.881137
-0.561307 -0.953076 0.884019
-0.516050 -0.768739 0.912816
-0.512330 -0.747437 0.916723
-0.489323 -0.560689 0.954658
-0.488646 -0.539323 0.959748
-0.492928 -0.353610 1.007891
-0.495860 -0.332771 1.014233
-0.531348 -0.153528 1.072725
-0.538030 -0.133960 1.080187
-0.605374 0.032499 1.147696
-0.615437 0.050197 1.155987
-0.711167 0.199096 1.229987
-0.723997 0.214621 1.238795
-0.842254 0.344201 1.316597
-0.622506 -1.133465 0.862324
-0.612258 -1.105947 0.865284
-0.602010 -1.078430 0.868243
-0.592417 -1.050719 0.871502
-0.583347 -1.022853 0.875001
-0.574277 -0.994987 0.878499
-0.555474 -0.931828 0.887102
-0.547737 -0.903643 0.891191
-0.539999 -0.875458 0.895281
-0.533215 -0.847102 0.899779
-0.526982 -0.818646 0.904513
-0.520749 -0.790190 0.909247
-0.508907 -0.725839 0.920818
-0.504366 -0.697188 0.926250
-0.499825 -0.668537 0.931682
-0.496628 -0.639825 0.937645
-0.493975 -0.611089 0.943823
-0.491323 -0.582352 0.950001
-0.488216 -0.517708 0.964995
-0.487645 -0.489033 0.971956
-0.487075 -0.460359 0.978917
-0.488287 -0.431883 0.986512
-0.489972 -0.403460 0.994275
-0.491657 -0.375036 1.002039
-0.498930 -0.311702 1.020686
-0.503002 -0.283754 1.029246
-0.507074 -0.255805 1.037806
-0.513282 -0.228481 1.047028
-0.519809 -0.201250 1.056350
-0.526336 -0.174020 1.065672
-0.544793 -0.114157 1.087740
-0.553764 -0.087886 1.097758
-0.562736 -0.061616 1.107777
-0.573939 -0.036459 1.118373
-0.585261 -0.011362 1.129000
-0.596584 0.013736 1.139627
-0.625621 0.068109 1.164378
-0.639131 0.091870 1.175509
-0.652698 0.115590 1.186652
-0.668183 0.137913 1.198181
-0.683668 0.160235 1.209709
-0.699153 0.182558 1.221238
-0.736982 0.230334 1.247710
-0.754207 0.251177 1.259535
-0.771594 0.271863 1.271383
-0.790324 0.291237 1.283418
-0.809053 0.310611 1.295453
-0.827783 0.329986 1.307488
19 NaN NaN
-0.634221 -1.164923 0.858941
-0.597457 -1.066205 0.869558
-0.564921 -0.966239 0.882109
-0.537164 -0.865130 0.896779
-0.514805 -0.763053 0.913762
-0.498516 -0.660280 0.933248
-0.489001 -0.557203 0.955408
-0.486955 -0.454353 0.980375
-0.492999 -0.352408 1.008219
-0.507604 -0.252167 1.038920
-0.531014 -0.154506 1.072352
-0.563189 -0.060288 1.108284
-0.603797 0.029724 1.146397
-0.652251 0.114946 1.186320
-0.707792 0.195012 1.227670
-0.769577 0.269775 1.270087
-0.836760 0.339272 1.313256
-0.908550 0.403675 1.356917
-0.984239 0.463245 1.400862
