0.132772 0.132767 0.132702 0.132414 0.131958 0.131552 0.131146 0.130740 0.130376 0.130146 0.130097 0.130093 0.130089 0.130041 0.129828 0.129491 0.129173 0.128855 0.128536 0.128230 0.128036 0.127994 0.127991 0.127987 0.127945 0.127753 0.127450 0.127146 0.126842 0.126538 0.126231 0.126038 0.125995 0.125991 0.125988 0.125945 0.125752 0.125445 0.125143 0.124840 0.124538 0.124245 0.124060 0.124019 0.124016 0.124013 0.123973 0.123794 0.123510 0.123237 0.122965 0.122693 0.122434 0.122271 0.122235 0.122233 0.122230 0.122195 0.122039 0.121792 0.121561 0.121329 0.121097 0.120882 0.120746 0.120716 0.120714 0.120712 0.120682 0.120554 0.120350 0.120160 0.119969 0.119779 0.119601 0.119489 0.119465 0.119463 
0.132774 0.132778 0.132812 0.132900 0.133017 0.133125 0.133234 0.133342 0.133447 0.133526 0.133554 0.133557 0.133561 0.133588 0.133667 0.133772 0.133883 0.133995 0.134107 0.134228 0.134319 0.134355 0.134359 0.134363 0.134399 0.134502 0.134639 0.134789 0.134939 0.135090 0.135252 0.135374 0.135420 0.135425 0.135430 0.135475 0.135605 0.135779 0.135963 0.136146 0.136330 0.136522 0.136666 0.136720 0.136726 0.136732 0.136785 0.136934 0.137133 0.137339 0.137545 0.137751 0.137963 0.138121 0.138179 0.138186 0.138192 0.138251 0.138413 0.138631 0.138854 0.139076 0.139299 0.139528 0.139698 0.139761 0.139768 0.139775 0.139838 0.140012 0.140245 0.140485 0.140724 0.140963 0.141208 0.141391 0.141458 0.141466 0.141473 0.141541 0.141729 0.141980 0.142236 0.142492 0.142747 0.143010 0.143207 0.143279 0.143287 0.143296 0.143368 0.143570 0.143840 0.144116 0.144392 0.144668 0.144950 0.145162 0.145239 0.145248 0.145256 0.145334 0.145550 0.145839 0.146136 0.146433 0.146730 0.147033 0.147260 0.147344 0.147353 0.147362 0.147446 0.147679 0.147989 0.148307 0.148625 0.148943 0.149267 0.149510 0.149599 0.149609 0.149619 0.149708 0.149957 0.150288 0.150626 0.150965 0.151303 0.151647 0.151905 0.151999 0.152010 0.152021 0.152115 0.152379 0.152732 0.153092 0.153451 0.153811 0.154179 0.154454 0.154556 0.154567 0.154578 0.154679 0.154960 0.155336 0.155720 0.156105 0.156490 0.156886 0.157182 0.157291 0.157303 0.157315 0.157424 0.157729 0.158136 0.158555 0.158974 0.159393 0.159824 0.160147 0.160265 0.160278 0.160292 0.160411 0.160743 0.161186 0.161645 0.162104 0.162564 0.163039 0.163394 0.163525 0.163540 0.163554 0.163686 0.164054 0.164546 0.165052 0.165557 0.166063 0.166589 0.166982 0.167127 0.167143 0.167159 0.167303 0.167706 0.168244 0.168799 0.169353 0.169908 0.170479 0.170907 0.171063 0.171081 0.171098 0.171254 0.171690 0.172274 0.172873 0.173472 0.174071 0.174682 0.175140 0.175308 0.175327 0.175346 0.175515 0.175985 0.176612 0.177250 0.177888 0.178527 0.179178 0.179665 0.179843 0.179863 0.179883 0.180062 0.180558 0.181221 0.181897 0.182573 0.183249 0.183935 0.184449 0.184637 0.184658 0.184679 0.184867 0.185388 0.186083 0.186786 0.187490 0.188194 0.188910 0.189446 0.189641 0.189663 
0.132773 0.132773 0.132768 0.132702 0.132598 0.132316 0.132034 0.131753 0.131455 0.131267 0.131223 0.131220 0.131217 0.131177 0.131004 0.130730 0.130507 0.130284 0.130061 0.129887 0.129777 0.129756 0.129754 0.129753 0.129731 0.129637 0.129488 0.129332 0.129175 0.129018 0.128830 0.128711 0.128682 0.128679 0.128677 0.128647 0.128474 0.128200 0.127730 0.127260 0.126789 0.126015 0.125527 0.125425 0.125417 0.125409 0.125306 0.124718 0.123786 0.122752 0.121717 0.120683 0.119761 0.119179 0.119067 0.119059 0.119051 0.118941 0.118510 0.117827 0.117385 0.116943 0.116500 0.116223 0.116049 0.116016 0.116014 0.116011 0.115979 0.115856 0.115662 0.115526 0.115389 0.115253 0.115153 0.115090 0.115078 0.115077 0.115076 0.115064 0.115013 0.114933 0.114867 0.114800 0.114734 0.114679 0.114644 0.114637 0.114636 0.114636 0.114629 0.114598 0.114550 0.114509 0.114468 0.114427 0.114392 0.114370 0.114366 0.114365 0.114365 0.114360 0.114341 0.114311 0.114286 0.114260 0.114235 0.114213 0.114200 0.114197 0.114197 0.114197 0.114194 0.114183 0.114164 0.114149 0.114134 0.114119 0.114107 0.114099 0.114098 0.114098 0.114098 0.114096 0.114090 0.114079 0.114071 0.114062 0.114054 0.114047 0.114042 0.114041 0.114041 0.114041 0.114040 0.114036 0.114030 0.114024 0.114017 0.114011 0.114004 0.113999 0.113998 0.113998 
0.120714 0.120713 0.120709 0.120700 0.120689 0.120677 0.120665 0.120654 0.120641 0.120631 0.120627 0.120626 0.120624 0.120620 0.120610 0.120597 0.120582 0.120568 0.120554 0.120539 0.120528 0.120523 0.120521 0.120520 0.120515 0.120503 0.120487 0.120471 0.120455 0.120439 0.120422 0.120409 0.120403 0.120401 0.120400 0.120394 0.120381 0.120363 0.120345 0.120326 0.120308 0.120289 0.120274 0.120268 0.120266 0.120264 0.120258 0.120243 0.120223 0.120202 0.120182 0.120161 0.120139 0.120123 0.120116 0.120114 0.120112 0.120105 0.120089 0.120067 0.120051 0.120035 0.120020 0.120004 0.119992 0.119987 0.119986 0.119985 0.119980 0.119968 0.119953 0.119938 0.119923 0.119908 0.119894 0.119883 0.119878 0.119877 0.119875 0.119871 0.119860 0.119845 0.119831 0.119817 0.119803 0.119790 0.119779 0.119775 0.119773 0.119772 0.119768 0.119757 0.119744 0.119731 0.119717 0.119704 0.119691 0.119681 0.119677 0.119676 0.119675 0.119671 0.119661 0.119649 0.119637 0.119625 0.119613 0.119601 0.119592 0.119588 0.119587 0.119586 0.119582 0.119574 0.119562 0.119551 0.119541 0.119530 0.119519 0.119511 0.119508 0.119507 0.119506 0.119502 0.119495 0.119485 0.119475 0.119465 0.119455 0.119446 0.119439 0.119435 0.119435 
0.122233 0.122233 0.122232 0.122232 0.122230 0.122227 0.122224 0.122221 0.122216 0.122212 0.122210 0.122210 0.122209 0.122207 0.122201 0.122194 0.122184 0.122173 0.122163 0.122151 0.122141 0.122137 0.122136 0.122135 0.122131 0.122119 0.122104 0.122086 0.122068 0.122050 0.122030 0.122014 0.122008 0.122006 0.122005 0.121998 0.121980 0.121956 0.121930 0.121903 0.121877 0.121848 0.121827 0.121818 0.121816 0.121814 0.121804 0.121789 0.121768 0.121749 0.121730 0.121711 0.121692 0.121677 0.121671 0.121670 0.121669 0.121663 0.121648 0.121628 0.121608 0.121588 0.121567 0.121547 0.121531 0.121524 0.121523 0.121522 0.121515 0.121499 0.121478 0.121456 0.121434 0.121413 0.121391 0.121374 0.121367 0.121366 0.121364 0.121358 0.121341 0.121319 0.121297 0.121275 0.121252 0.121230 0.121214 0.121207 0.121206 0.121204 0.121198 0.121181 0.121159 0.121137 0.121116 0.121094 0.121072 0.121056 0.121049 0.121048 0.121046 0.121040 0.121024 0.121002 0.120980 0.120959 0.120937 0.120916 0.120900 0.120893 0.120892 
0.125992 0.125993 0.125997 0.126006 0.126019 0.126029 0.126039 0.126049 0.126057 0.126063 0.126065 0.126066 0.126066 0.126068 0.126072 0.126077 0.126079 0.126082 0.126084 0.126085 0.126085 0.126084 0.126084 0.126084 0.126084 0.126081 0.126078 0.126072 0.126066 0.126060 0.126052 0.126045 0.126042 0.126042 0.126041 0.126037 0.126028 0.126015 0.125999 0.125984 0.125968 0.125949 0.125935 0.125929 0.125928 0.125926 0.125919 0.125902 0.125879 0.125852 0.125826 0.125799 0.125769 0.125747 0.125737 0.125735 0.125733 0.125723 0.125697 0.125662 0.125625 0.125587 0.125549 0.125509 0.125478 0.125465 0.125463 0.125460 0.125447 0.125430 0.125408 0.125385 0.125362 0.125340 0.125316 0.125299 0.125292 0.125290 0.125289 0.125281 0.125263 0.125239 0.125214 0.125189 0.125164 0.125139 0.125119 0.125111 0.125110 0.125108 0.125100 0.125080 0.125053 0.125026 0.124999 0.124973 0.124945 0.124925 0.124916 0.124914 0.124912 0.124904 0.124883 0.124856 0.124828 0.124801 0.124774 0.124746 0.124725 0.124717 0.124715 0.124713 0.124705 0.124685 0.124657 0.124631 0.124604 0.124577 0.124550 0.124530 0.124521 0.124520 0.124518 0.124510 0.124490 0.124463 0.124437 0.124410 0.124384 0.124357 0.124337 0.124329 0.124327 
0.127991 0.127992 0.127994 0.127999 0.128006 0.128012 0.128018 0.128023 0.128028 0.128032 0.128033 0.128034 0.128034 0.128035 0.128038 0.128042 0.128044 0.128047 0.128049 0.128050 0.128051 0.128051 0.128051 0.128052 0.128052 0.128052 0.128052 0.128051 0.128049 0.128048 0.128045 0.128043 0.128043 0.128042 0.128042 0.128041 0.128039 0.128036 0.128032 0.128028 0.128023 0.128019 0.128015 0.128014 0.128013 0.128013 0.128011 0.128007 0.128001 0.127996 0.127990 0.127985 0.127978 0.127974 0.127971 0.127970 0.127969 0.127967 0.127961 0.127953 0.127945 0.127937 0.127929 0.127919 0.127911 0.127908 0.127907 0.127905 0.127902 0.127894 0.127883 0.127871 0.127858 0.127846 0.127832 0.127822 0.127817 0.127815 0.127814 0.127809 0.127798 0.127783 0.127766 0.127749 0.127731 0.127713 0.127700 0.127693 0.127691 0.127689 0.127683 0.127667 0.127647 0.127625 0.127604 0.127582 0.127559 0.127542 0.127534 0.127531 0.127529 0.127520 0.127501 0.127475 0.127449 0.127423 0.127397 0.127373 0.127354 0.127347 0.127345 0.127343 0.127337 0.127323 0.127305 0.127287 0.127270 0.127252 0.127234 0.127220 0.127214 0.127212 0.127210 0.127204 0.127190 0.127172 0.127155 0.127137 0.127119 0.127101 0.127087 0.127081 0.127079 0.127077 0.127071 0.127058 0.127040 0.127022 0.127004 0.126986 0.126968 0.126955 0.126949 0.126946 0.126944 0.126938 0.126925 0.126907 0.126889 0.126871 0.126853 0.126835 0.126822 0.126815 0.126813 0.126811 0.126805 0.126792 0.126774 0.126756 0.126738 0.126720 0.126702 0.126689 0.126682 0.126680 0.126678 0.126672 0.126659 0.126641 0.126624 0.126606 0.126588 0.126571 0.126558 0.126552 0.126550 0.126548 0.126542 0.126528 0.126511 0.126494 0.126477 0.126460 0.126443 0.126430 0.126424 0.126422 0.126420 0.126414 0.126401 0.126385 0.126368 0.126351 0.126334 0.126318 0.126305 0.126299 0.126297 0.126296 0.126290 0.126277 0.126261 0.126244 0.126228 0.126211 0.126195 0.126183 0.126177 0.126175 0.126173 0.126168 0.126155 0.126139 0.126123 0.126106 0.126090 0.126074 0.126061 0.126055 0.126054 0.126052 0.126046 0.126033 0.126017 0.126000 0.125984 0.125968 0.125951 0.125939 0.125933 0.125931 
0.130094 0.130096 0.130101 0.130113 0.130129 0.130142 0.130155 0.130168 0.130178 0.130186 0.130190 0.130191 0.130192 0.130195 0.130201 0.130209 0.130214 0.130219 0.130225 0.130228 0.130230 0.130231 0.130231 0.130231 0.130232 0.130233 0.130234 0.130233 0.130232 0.130231 0.130229 0.130228 0.130227 0.130226 0.130226 0.130225 0.130222 0.130218 0.130213 0.130208 0.130203 0.130196 0.130192 0.130189 0.130189 0.130188 0.130186 0.130179 0.130171 0.130163 0.130154 0.130146 0.130136 0.130129 0.130125 0.130124 0.130123 0.130119 0.130110 0.130099 0.130093 0.130087 0.130081 0.130076 0.130071 0.130069 0.130069 0.130068 0.130066 0.130061 0.130055 0.130047 0.130040 0.130033 0.130024 0.130017 0.130014 0.130013 0.130012 0.130009 0.130002 0.129993 0.129982 0.129971 0.129960 0.129949 0.129941 0.129939 0.129938 0.129937 0.129934 0.129926 0.129916 0.129905 0.129893 0.129882 0.129870 0.129860 0.129855 0.129853 0.129851 0.129846 0.129834 0.129818 0.129801 0.129784 0.129767 0.129747 0.129732 0.129725 0.129722 0.129720 0.129712 0.129695 0.129673 0.129649 0.129626 0.129602 0.129575 0.129554 0.129545 0.129542 0.129539 0.129530 0.129509 0.129481 0.129450 0.129418 0.129387 0.129354 0.129329 0.129318 0.129314 0.129311 0.129299 0.129278 0.129251 0.129224 0.129198 0.129171 0.129145 0.129125 0.129116 0.129113 0.129110 0.129101 0.129081 0.129055 0.129028 0.129002 0.128976 0.128951 0.128931 0.128922 0.128919 0.128917 0.128908 0.128888 0.128863 0.128838 0.128812 0.128787 0.128762 0.128743 0.128735 0.128732 0.128729 0.128721 0.128702 0.128678 0.128653 0.128629 0.128605 0.128581 0.128563 0.128555 0.128552 0.128549 0.128541 0.128523 0.128499 0.128476 0.128453 0.128430 0.128407 0.128389 0.128381 0.128379 0.128376 0.128368 0.128351 0.128329 0.128307 0.128285 0.128263 0.128241 0.128224 0.128217 0.128215 0.128212 0.128205 0.128189 0.128168 0.128146 0.128125 0.128104 0.128083 0.128068 0.128061 0.128059 0.128056 0.128049 0.128034 0.128013 0.127993 0.127973 0.127953 0.127933 0.127918 0.127911 0.127908 0.127906 0.127899 0.127884 0.127864 0.127844 0.127825 0.127805 0.127785 0.127770 0.127763 0.127761 0.127759 0.127752 0.127737 0.127718 0.127698 0.127678 0.127659 0.127639 0.127624 0.127617 0.127615 0.127613 0.127606 0.127591 0.127572 0.127552 0.127532 0.127511 0.127491 0.127476 0.127469 0.127467 
0.133557 0.133555 0.133549 0.133535 0.133517 0.133496 0.133476 0.133456 0.133433 0.133416 0.133408 0.133406 0.133403 0.133395 0.133376 0.133351 0.133324 0.133297 0.133269 0.133241 0.133219 0.133210 0.133207 0.133204 0.133195 0.133172 0.133143 0.133113 0.133083 0.133054 0.133024 0.133002 0.132992 0.132989 0.132986 0.132976 0.132953 0.132923 0.132892 0.132861 0.132830 0.132799 0.132775 0.132766 0.132764 0.132762 0.132753 0.132735 0.132710 0.132685 0.132660 0.132635 0.132610 0.132590 0.132581 0.132579 0.132576 0.132568 0.132548 0.132521 0.132494 0.132466 0.132439 0.132410 0.132388 0.132378 0.132375 0.132372 0.132363 0.132340 0.132310 0.132280 0.132250 0.132220 0.132198 0.132181 0.132175 0.132173 0.132171 0.132164 0.132142 0.132113 0.132084 0.132055 0.132026 0.131993 0.131968 0.131957 0.131954 0.131951 0.131939 0.131913 0.131878 0.131840 0.131802 0.131763 0.131723 0.131692 0.131679 0.131675 0.131671 0.131657 0.131624 0.131581 0.131534 0.131487 0.131441 0.131392 0.131356 0.131339 0.131334 0.131329 0.131312 0.131273 0.131221 0.131167 0.131113 0.131060 0.131003 0.130960 0.130941 0.130936 0.130930 0.130912 0.130868 0.130810 0.130756 0.130701 0.130647 0.130604 0.130572 0.130559 0.130555 0.130551 0.130538 0.130509 0.130469 0.130431 0.130392 0.130354 0.130319 0.130293 0.130281 0.130278 0.130275 0.130264 0.130237 0.130203 0.130172 0.130140 0.130109 0.130079 0.130056 0.130046 0.130043 0.130040 0.130030 0.130009 0.129981 0.129954 0.129927 0.129900 0.129875 0.129855 0.129847 0.129845 0.129843 0.129835 0.129817 0.129792 0.129769 0.129746 0.129723 0.129701 0.129684 0.129677 0.129675 0.129673 0.129666 0.129650 0.129628 0.129609 0.129589 0.129569 0.129549 0.129534 0.129529 0.129527 0.129525 0.129519 0.129505 0.129487 0.129469 0.129451 0.129433 0.129415 0.129403 0.129397 0.129395 0.129394 0.129388 0.129375 0.129357 0.129341 0.129324 0.129308 0.129291 0.129278 0.129273 0.129271 0.129270 0.129264 0.129252 0.129236 0.129219 0.129203 0.129186 0.129170 0.129158 0.129153 0.129151 
0.134359 0.134358 0.134354 0.134348 0.134339 0.134330 0.134321 0.134311 0.134301 0.134294 0.134290 0.134289 0.134287 0.134283 0.134275 0.134264 0.134253 0.134242 0.134230 0.134218 0.134210 0.134205 0.134203 0.134201 0.134197 0.134187 0.134175 0.134162 0.134148 0.134135 0.134121 0.134111 0.134105 0.134103 0.134101 0.134096 0.134085 0.134071 0.134058 0.134044 0.134031 0.134024 0.134018 0.134015 0.134013 0.134012 0.134009 0.134003 0.133995 0.133987 0.133978 0.133970 0.133961 0.133954 0.133950 0.133949 0.133947 0.133944 0.133936 0.133927 0.133917 0.133907 0.133897 0.133885 0.133877 0.133872 0.133871 0.133869 0.133864 0.133856 0.133844 0.133832 0.133820 0.133808 0.133794 0.133784 0.133779 0.133777 0.133775 0.133769 0.133758 0.133744 0.133730 0.133715 0.133700 0.133684 0.133672 0.133666 0.133663 0.133660 0.133654 0.133641 0.133623 0.133606 0.133588 0.133570 0.133552 0.133538 0.133531 0.133528 0.133525 0.133517 0.133502 0.133481 0.133461 0.133440 0.133420 0.133399 0.133383 0.133375 0.133371 0.133368 0.133360 0.133342 0.133320 0.133297 0.133274 0.133251 0.133228 0.133211 0.133202 0.133198 0.133195 0.133186 0.133168 0.133144 0.133120 0.133095 0.133071 0.133047 0.133029 0.133019 0.133015 0.133012 0.133002 0.132984 0.132960 0.132935 0.132909 0.132884 0.132860 0.132841 0.132831 0.132827 0.132824 0.132814 0.132795 0.132771 0.132746 0.132722 0.132697 0.132672 0.132654 0.132644 0.132640 0.132637 0.132627 0.132609 0.132585 0.132561 0.132537 0.132513 0.132489 0.132471 0.132461 0.132458 0.132454 0.132445 0.132427 0.132403 0.132380 0.132357 0.132334 0.132311 0.132294 0.132285 0.132282 0.132278 0.132269 0.132252 0.132229 0.132207 0.132185 0.132162 0.132140 0.132124 0.132115 0.132112 0.132109 0.132100 0.132084 0.132062 0.132041 0.132020 0.131998 0.131977 0.131961 0.131953 0.131950 0.131947 0.131939 0.131923 0.131903 0.131882 0.131862 0.131842 0.131821 0.131805 0.131798 0.131795 0.131791 0.131784 0.131769 0.131750 0.131730 0.131711 0.131691 0.131672 0.131657 0.131649 0.131646 0.131643 0.131636 0.131621 0.131603 0.131584 0.131566 0.131547 0.131529 0.131515 0.131508 0.131505 0.131502 0.131495 0.131481 0.131463 0.131445 0.131428 0.131410 0.131393 0.131379 0.131373 0.131370 0.131367 0.131360 0.131347 0.131329 0.131312 0.131296 0.131279 0.131262 0.131249 0.131243 0.131240 0.131237 0.131231 0.131218 0.131201 0.131185 0.131168 0.131152 0.131135 0.131123 0.131117 0.131114 0.131112 0.131105 0.131093 0.131076 0.131060 0.131044 0.131027 0.131012 0.130999 0.130993 0.130991 0.130988 0.130982 0.130970 0.130954 0.130938 0.130922 0.130906 0.130890 0.130878 0.130872 0.130870 0.130868 0.130862 0.130850 0.130834 0.130818 0.130802 0.130787 0.130771 0.130759 0.130753 0.130750 
0.136725 0.136723 0.136703 0.136647 0.136572 0.136490 0.136408 0.136326 0.136241 0.136177 0.136154 0.136151 0.136148 0.136124 0.136054 0.135960 0.135846 0.135733 0.135619 0.135483 0.135382 0.135342 0.135337 0.135332 0.135292 0.135175 0.135018 0.134854 0.134690 0.134527 0.134407 0.134317 0.134286 0.134282 0.134278 0.134247 0.134167 0.134060 0.133964 0.133867 0.133771 0.133685 0.133620 0.133598 0.133595 0.133593 0.133571 0.133512 0.133433 0.133361 0.133289 0.133218 0.133152 0.133102 0.133084 0.133082 0.133080 0.133063 0.133016 0.132954 0.132894 0.132835 0.132776 0.132718 0.132675 0.132659 0.132657 
0.141464 0.141459 0.141436 0.141380 0.141306 0.141230 0.141153 0.141077 0.140999 0.140940 0.140916 0.140910 0.140904 0.140879 0.140818 0.140738 0.140655 0.140573 0.140491 0.140407 0.140342 0.140316 0.140309 0.140303 0.140276 0.140212 0.140126 0.140039 0.139951 0.139863 0.139775 0.139708 0.139680 0.139673 0.139666 0.139638 0.139571 0.139481 0.139389 0.139296 0.139204 0.139110 0.139038 0.139008 0.139001 0.138993 0.138963 0.138889 0.138791 0.138691 0.138592 0.138492 0.138390 0.138313 0.138281 0.138273 0.138265 0.138233 0.138155 0.138051 0.137946 0.137841 0.137736 0.137638 0.137565 0.137540 0.137534 0.137528 0.137503 0.137445 0.137368 0.137295 0.137222 0.137149 0.137079 0.137027 0.137006 0.137001 0.136996 0.136975 0.136925 0.136859 0.136797 0.136736 0.136674 0.136615 0.136570 0.136552 0.136548 0.136544 0.136526 0.136484 0.136428 0.136375 0.136321 0.136268 0.136216 0.136177 0.136161 0.136157 0.136153 0.136137 0.136101 0.136053 0.136006 0.135959 0.135912 0.135868 0.135834 0.135820 0.135817 0.135814 0.135800 0.135767 0.135724 0.135683 0.135641 0.135600 0.135561 0.135531 0.135519 0.135516 0.135513 0.135501 0.135472 0.135434 0.135397 0.135361 0.135324 0.135288 0.135261 0.135250 0.135248 0.135245 0.135234 0.135208 0.135174 0.135140 0.135106 0.135072 0.135039 0.135014 0.135003 0.135000 0.134998 0.134987 0.134963 0.134931 0.134898 0.134866 0.134833 0.134802 0.134778 0.134768 0.134765 
0.147352 0.147348 0.147335 0.147305 0.147266 0.147224 0.147182 0.147141 0.147095 0.147060 0.147044 0.147039 0.147034 0.147018 0.146981 0.146932 0.146880 0.146828 0.146776 0.146720 0.146678 0.146658 0.146652 0.146646 0.146627 0.146583 0.146525 0.146464 0.146404 0.146343 0.146281 0.146234 0.146212 0.146206 0.146199 0.146178 0.146128 0.146062 0.145995 0.145928 0.145861 0.145792 0.145740 0.145716 0.145708 0.145701 0.145677 0.145623 0.145552 0.145481 0.145410 0.145339 0.145266 0.145211 0.145186 0.145179 0.145171 0.145146 0.145090 0.145017 0.144941 0.144864 0.144788 0.144711 0.144652 0.144626 0.144618 0.144610 0.144584 0.144525 0.144448 0.144368 0.144289 0.144209 0.144129 0.144068 0.144040 0.144032 0.144023 0.143994 0.143930 0.143845 0.143760 0.143674 0.143588 0.143500 0.143433 0.143403 0.143394 0.143384 0.143354 0.143286 0.143197 0.143106 0.143015 0.142924 0.142856 0.142804 0.142782 0.142775 0.142768 0.142745 0.142695 0.142629 0.142566 0.142503 0.142441 0.142380 0.142333 0.142313 0.142306 0.142300 0.142280 0.142238 0.142182 0.142127 0.142073 0.142019 0.141966 0.141926 0.141909 0.141903 0.141898 0.141881 0.141843 0.141793 0.141743 0.141694 0.141645 0.141598 0.141563 0.141547 0.141542 0.141538 0.141522 0.141487 0.141441 0.141397 0.141353 0.141309 0.141266 0.141233 0.141219 0.141214 0.141210 0.141195 0.141164 0.141122 0.141081 0.141041 0.141000 0.140960 0.140929 0.140916 0.140911 0.140907 0.140895 0.140866 0.140828 0.140790 0.140751 0.140713 0.140677 0.140649 0.140637 0.140633 0.140629 0.140617 0.140589 0.140553 0.140517 0.140481 0.140445 0.140411 0.140384 0.140372 0.140369 0.140365 0.140353 0.140326 0.140291 0.140257 0.140223 0.140189 0.140155 0.140129 0.140117 0.140113 0.140110 0.140098 0.140073 0.140040 0.140006 0.139973 0.139939 0.139906 0.139880 0.139869 0.139866 0.139862 0.139851 0.139826 0.139792 0.139758 0.139725 0.139691 0.139657 0.139632 0.139621 0.139617 
0.160277 0.160273 0.160246 0.160156 0.160037 0.159874 0.159711 0.159548 0.159345 0.159193 0.159130 0.159121 0.159111 0.159047 0.158867 0.158627 0.158356 0.158085 0.157814 0.157525 0.157309 0.157223 0.157210 0.157197 0.157111 0.156885 0.156583 0.156266 0.155950 0.155634 0.155311 0.155069 0.154977 0.154963 0.154949 0.154857 0.154611 0.154283 0.153943 0.153603 0.153263 0.152917 0.152657 0.152558 0.152544 0.152529 0.152430 0.152184 0.151857 0.151625 0.151393 0.151162 0.150960 0.150810 0.150757 0.150749 0.150741 0.150688 0.150556 0.150381 0.150223 0.150065 0.149907 0.149764 0.149657 0.149618 0.149612 0.149607 0.149568 0.149469 0.149339 0.149215 0.149091 0.148967 0.148851 0.148764 0.148731 0.148727 0.148722 0.148689 0.148606 0.148496 0.148388 0.148280 0.148172 0.148067 0.147989 0.147959 0.147954 
0.189652 0.189608 0.189444 0.189054 0.188538 0.188022 0.187505 0.186989 0.186470 0.186078 0.185914 0.185871 0.185827 0.185663 0.185280 0.184772 0.184268 0.183764 0.183260 0.182769 0.182397 0.182240 0.182198 0.182157 0.182000 0.181634 0.181150 0.180684 0.180218 0.179752 0.179303 0.178964 0.178823 0.178786 0.178750 0.178611 0.178276 0.177834 0.177411 0.176988 0.176564 0.176147 0.175831 0.175700 0.175665 0.175630 0.175499 0.175193 0.174787 0.174382 0.173976 0.173571 0.173176 0.172877 0.172750 0.172717 0.172683 0.172557 0.172260 0.171868 0.171481 0.171095 0.170708 0.170328 0.170041 0.169921 0.169889 0.169858 0.169738 0.169459 0.169089 0.168730 0.168370 0.168010 0.167665 0.167403 0.167295 0.167267 0.167238 0.167131 0.166879 0.166545 0.166290 0.166035 0.165779 0.165564 0.165401 0.165333 0.165315 0.165299 0.165238 0.165107 0.164934 0.164771 0.164608 0.164445 0.164314 0.164214 0.164173 0.164162 0.164151 0.164109 0.164013 0.163886 0.163782 0.163678 0.163574 0.163475 0.163401 0.163374 0.163367 0.163360 0.163334 0.163270 0.163186 0.163111 0.163035 0.162959 0.162890 0.162838 0.162816 0.162810 0.162804 0.162782 0.162739 0.162682 0.162628 0.162574 0.162520 0.162477 0.162445 0.162432 0.162428 0.162424 0.162410 0.162377 0.162332 0.162298 0.162263 0.162229 0.162195 0.162170 0.162161 0.162159 0.162157 0.162149 0.162130 0.162105 0.162082 0.162059 0.162035 0.162017 0.162003 0.161996 0.161995 
