-1.496541 0.727478 8.017444
-1.499478 0.730678 8.003925
-1.502415 0.733877 7.990406
-1.626003 0.868531 7.421405
-1.748202 1.001687 6.858680
-1.869879 1.134584 6.295782
-1.984309 1.263862 5.730789
-1.504193 0.735815 7.982218
-1.625589 0.868081 7.423309
-1.626416 0.868982 7.419501
-1.747787 1.001236 6.860584
-1.748617 1.002138 6.856776
-1.869453 1.134127 6.297682
-1.870306 1.135041 6.293882
-1.983974 1.263450 5.732717
-1.510777 0.742987 7.951914
-1.619005 0.860908 7.453613
-1.633001 0.876155 7.389197
-1.741193 0.994058 6.890884
-1.755221 1.009321 6.826479
-1.862891 1.126966 6.327993
-1.877089 1.142312 6.263646
-1.978635 1.256897 5.763404
-1.525024 0.758509 7.886326
-1.540971 0.775885 7.812901
-1.556917 0.793260 7.739476
-1.572863 0.810635 7.666050
-1.588809 0.828010 7.592625
-1.604757 0.845386 7.519201
-1.647251 0.891679 7.323610
-1.663204 0.909057 7.250187
-1.679149 0.926431 7.176762
-1.695083 0.943800 7.103332
-1.711012 0.961167 7.029901
-1.726945 0.978535 6.956472
-1.769522 1.024869 6.760909
-1.785551 1.042285 6.687511
-1.801512 1.059668 6.614091
-1.817357 1.076992 6.540632
-1.833091 1.094263 6.467137
-1.848739 1.111490 6.393613
-1.891830 1.158078 6.198226
-1.908914 1.176013 6.125192
-1.925579 1.193743 6.052012
-1.941177 1.210945 5.978480
-1.955278 1.227403 5.904478
-1.967205 1.242776 5.829854
-2.967680 1.763839 4.738724
-4.156377 2.017035 3.832095
-5.397708 2.349000 3.038160
-6.159490 3.434224 2.345990
-6.870856 4.597046 1.682418
-7.692153 5.649906 0.966161
-8.658318 6.517211 0.186461
-9.771685 7.117869 -0.645264
-10.984321 7.428228 -1.496986
-12.241502 7.476364 -2.341018
-1.984645 1.264274 5.728861
-2.966105 1.763470 4.739899
-2.969263 1.764184 4.737551
-4.154798 2.016681 3.833271
-4.157956 2.017389 3.830920
-5.396229 2.348111 3.039171
-5.399186 2.349890 3.037148
-6.158607 3.432644 2.346840
-6.160373 3.435805 2.345140
-6.869864 4.595562 1.683320
-6.871848 4.598531 1.681517
-7.690978 5.648623 0.967148
-7.693328 5.651188 0.965174
-8.656940 6.516233 0.187530
-8.659697 6.518190 0.185393
-9.770141 7.117265 -0.644147
-9.773230 7.118474 -0.646381
-10.982678 7.428025 -1.495864
-10.985964 7.428431 -1.498108
-12.239833 7.476458 -2.339919
-1.992176 1.271909 5.698915
-2.941140 1.757242 4.758635
-2.994453 1.769674 4.718885
-4.129754 2.010975 3.852068
-4.183084 2.023022 3.812212
-5.372365 2.334587 3.055304
-5.422715 2.364049 3.021054
-6.144581 3.407468 2.360351
-6.174424 3.460958 2.331613
-6.854083 4.571931 1.697661
-6.887634 4.622157 1.667174
-7.672274 5.628213 0.982855
-7.712032 5.671598 0.949467
-8.635000 6.500662 0.204539
-8.681637 6.533761 0.168384
-9.745554 7.107640 -0.626371
-9.797817 7.128098 -0.664157
-10.956529 7.424793 -1.478005
-11.012112 7.431663 -1.515967
-12.213282 7.477959 -2.322428
-2.039229 1.312928 5.567556
-2.163786 1.403046 5.396022
-2.313569 1.508900 5.255144
-2.477756 1.598400 5.119386
-2.651086 1.665098 4.981484
-2.827426 1.725927 4.844658
-3.110333 1.794170 4.633503
-3.294371 1.832903 4.498758
-3.475574 1.870761 4.360001
-3.654419 1.907105 4.217804
-3.834031 1.944327 4.076807
-4.015057 1.984705 3.938515
-4.299183 2.048359 3.727381
-4.489532 2.085109 3.601188
-4.683939 2.121837 3.481266
-4.877516 2.163352 3.361563
-5.072122 2.210079 3.245545
-5.260108 2.277947 3.129433
-5.528163 2.433188 2.947524
-5.674248 2.570808 2.833473
-5.787782 2.740190 2.724807
-5.882475 2.923552 2.620309
-5.978578 3.108485 2.519905
-6.080476 3.291708 2.422066
-6.239530 3.575833 2.269296
-6.344807 3.756176 2.169700
-6.451042 3.935679 2.069603
-6.558926 4.113733 1.968689
-6.669526 4.289350 1.866456
-6.782410 4.462847 1.763098
-6.961143 4.729461 1.600844
-7.081516 4.895567 1.493866
-7.202775 5.060758 1.386465
-7.327081 5.222686 1.277623
-7.456783 5.378582 1.166271
-7.588027 5.532673 1.054214
-7.799011 5.763716 0.876898
-7.940073 5.905415 0.760509
-8.083502 6.043883 0.643118
-8.230253 6.177589 0.524356
-8.382878 6.302343 0.403261
-8.536659 6.425252 0.281724
-8.784288 6.601453 0.089670
-8.948781 6.705176 -0.035670
-9.114631 6.806141 -0.161449
-9.285106 6.897152 -0.288618
-9.458422 6.981486 -0.416577
-9.633657 7.060978 -0.545018
-9.911713 7.168846 -0.745912
-10.093582 7.228932 -0.875679
-10.276251 7.286290 -1.005545
-10.462091 7.331429 -1.135687
-10.649313 7.370574 -1.265849
-10.836996 7.407424 -1.395995
-11.132269 7.445061 -1.597828
-11.322914 7.464421 -1.727462
-11.514325 7.477507 -1.856736
-11.706434 7.483478 -1.985508
-11.898882 7.484958 -2.113911
-12.091539 7.482993 -2.241990
181 NaN NaN
-1.495072 0.725879 8.024203
-1.515874 0.748540 7.928453
-1.536671 0.771199 7.832701
-1.557466 0.793858 7.736949
-1.578260 0.816516 7.641196
-1.599056 0.839175 7.545445
-1.619856 0.861836 7.449694
-1.640660 0.884499 7.353945
-1.661464 0.907162 7.258196
-1.682258 0.929820 7.162443
-1.703034 0.952468 7.066684
-1.723805 0.975115 6.970924
-1.744607 0.997777 6.875174
-1.765474 1.020471 6.779446
-1.786377 1.043183 6.683730
-1.807187 1.065848 6.587982
-1.827768 1.088401 6.492159
-1.848165 1.110862 6.396275
-1.868826 1.133455 6.300478
-1.890259 1.156428 6.204943
-1.912537 1.179817 6.109701
-1.934124 1.202866 6.014219
-1.953133 1.224639 5.917899
-1.968687 1.244685 5.820585
-1.985553 1.265389 5.723639
-2.010749 1.290195 5.629578
-2.050502 1.321926 5.543008
-2.102897 1.359864 5.466114
-2.162611 1.402198 5.397199
-2.225898 1.447876 5.333796
-2.291669 1.494674 5.273818
-2.360265 1.539236 5.215328
-2.431878 1.578146 5.156447
-2.505860 1.610807 5.096684
-2.581192 1.639665 5.036633
-2.657107 1.667289 4.976732
-2.733337 1.694743 4.917154
-2.810208 1.720795 4.857773
-2.888048 1.743997 4.798480
-2.966927 1.763675 4.739282
-3.046518 1.781021 4.680304
-3.126520 1.797505 4.621632
-3.206650 1.814275 4.563218
-3.286580 1.831252 4.504589
-3.365963 1.848067 4.445178
-3.444517 1.864409 4.384545
-3.522425 1.880343 4.322976
-3.600068 1.896084 4.261023
-3.677811 1.911848 4.199203
-3.755804 1.927856 4.137760
-3.834063 1.944334 4.076782
-3.912596 1.961494 4.016347
-3.991368 1.979275 3.956405
-4.070313 1.997370 3.896784
-4.149370 2.015464 3.837312
-4.228765 2.033262 3.778203
-4.309108 2.050487 3.720219
-4.391000 2.066860 3.664191
-4.474572 2.082391 3.610448
-4.559082 2.097746 3.558135
-4.643726 2.113684 3.506216
-4.727943 2.130758 3.453965
-4.811969 2.148804 3.401733
-4.896222 2.167504 3.350099
-4.980959 2.186799 3.299487
-5.065568 2.208099 3.249476
-5.149049 2.233317 3.199405
-5.230278 2.264146 3.148789
-5.308918 2.300530 3.097762
-5.385242 2.341499 3.046687
-5.459580 2.386233 2.995837
-5.531313 2.435345 2.945305
-5.598849 2.490451 2.895200
-5.660235 2.552932 2.845876
-5.714674 2.622376 2.797693
-5.763217 2.696796 2.750620
-5.807212 2.774512 2.704390
-5.848217 2.854233 2.658818
-5.888102 2.934938 2.613983
-5.928816 3.015670 2.569953
-5.971550 3.095783 2.526712
-6.015633 3.175458 2.484019
-6.060138 3.255038 2.441583
-6.104361 3.334773 2.399146
-6.148476 3.414507 2.356594
-6.192872 3.493983 2.313852
-6.237877 3.572982 2.270863
-6.283428 3.651551 2.227662
-6.329311 3.729849 2.184321
-6.375327 3.808027 2.140904
-6.421475 3.886082 2.097405
-6.467875 3.963915 2.053776
-6.514643 4.041426 2.009970
-6.561868 4.118537 1.965946
-6.609603 4.195190 1.921675
-6.657899 4.271329 1.877128
-6.706713 4.346988 1.832324
-6.755860 4.422333 1.787357
-6.805148 4.497545 1.742322
-6.854554 4.572646 1.697231
-6.904430 4.647297 1.651912
-6.955178 4.721096 1.606168
-7.007022 4.793796 1.559896
-7.059584 4.865757 1.513280
-7.112362 4.937494 1.466561
-7.164977 5.009401 1.419920
-7.217766 5.081126 1.373196
-7.271321 5.152040 1.326109
-7.326156 5.221558 1.278420
-7.382135 5.289788 1.230200
-7.438768 5.357264 1.181681
-7.495595 5.424511 1.133072
-7.552568 5.491586 1.084397
-7.609993 5.558125 1.035517
-7.668178 5.623744 0.986295
-7.727275 5.688232 0.936666
-7.787232 5.751626 0.886660
-7.847984 5.813980 0.836309
-7.909435 5.875402 0.785659
-7.971409 5.936110 0.734786
-8.033730 5.996339 0.683768
-8.096347 6.056154 0.632626
-8.159622 6.115035 0.581211
-8.223985 6.172323 0.529353
-8.289710 6.227536 0.476954
-8.356369 6.281268 0.424194
-8.423335 6.334503 0.371317
-8.490091 6.388080 0.318520
-8.556967 6.441461 0.265678
-8.624728 6.493372 0.212503
-8.694046 6.542568 0.158763
-8.764789 6.589133 0.104532
-8.836258 6.634289 0.050060
-8.907806 6.679292 -0.004438
-8.979278 6.724441 -0.058914
-9.051122 6.768844 -0.113512
-9.123802 6.811527 -0.168372
-9.197516 6.851982 -0.223541
-9.272024 6.890634 -0.278935
-9.347067 6.928022 -0.334478
-9.422460 6.964553 -0.390116
-9.498201 7.000216 -0.445845
-9.574319 7.034919 -0.501666
-9.650855 7.068531 -0.557582
-9.727911 7.100734 -0.613614
-9.805594 7.131142 -0.669780
-9.883968 7.159459 -0.726080
-9.962851 7.186147 -0.782466
-10.041973 7.212049 -0.838884
-10.121103 7.237935 -0.895300
-10.200342 7.263455 -0.951729
-10.280019 7.287424 -1.008217
-10.360418 7.308658 -1.064774
-10.441480 7.327125 -1.121358
-10.522868 7.344122 -1.177939
-10.604279 7.361012 -1.234518
-10.685609 7.378280 -1.291100
-10.767081 7.394869 -1.347681
-10.848928 7.409567 -1.404240
-10.931243 7.421667 -1.460735
-11.013861 7.431880 -1.517162
-11.096619 7.441156 -1.573549
-11.179403 7.450225 -1.629930
-11.262250 7.458838 -1.686291
-11.345224 7.466474 -1.742603
-11.428375 7.472673 -1.798832
-11.511688 7.477399 -1.854964
-11.595128 7.480806 -1.911003
-11.678667 7.483050 -1.966953
-11.762278 7.484338 -2.022826
-11.845940 7.484909 -2.078636
-11.929633 7.484987 -2.134400
-12.013363 7.484465 -2.190108
-12.097148 7.482887 -2.245712
-12.180994 7.479785 -2.301158
-12.264885 7.475042 -2.356421
-12.348794 7.469100 -2.411541
-12.432709 7.462450 -2.466571
-12.516625 7.455582 -2.521574
-12.600540 7.448985 -2.576611
-12.684448 7.443150 -2.631743
