0.149416 0.149406 0.149274 0.148696 0.147781 0.146976 0.146170 0.145365 0.144614 0.144140 0.144037 0.144029 0.144021 0.143918 0.143455 0.142721 0.142024 0.141327 0.140629 0.139967 0.139548 0.139457 0.139450 0.139444 0.139353 0.138946 0.138300 0.137669 0.137037 0.136406 0.135783 0.135390 0.135304 0.135298 0.135291 0.135205 0.134819 0.134208 0.133619 0.133029 0.132440 0.131875 0.131518 0.131441 0.131435 0.131429 0.131352 0.131010 0.130468 0.129959 0.129450 0.128940 0.128462 0.128159 0.128095 0.128090 0.128085 0.128021 0.127738 0.127289 0.126873 0.126457 0.126042 0.125656 0.125413 0.125361 0.125357 0.125353 0.125301 0.125073 0.124710 0.124374 0.124037 0.123700 0.123387 0.123189 0.123146 0.123143 
0.149422 0.149435 0.149558 0.149878 0.150309 0.150672 0.151035 0.151398 0.151718 0.151956 0.152038 0.152047 0.152056 0.152139 0.152365 0.152670 0.152973 0.153276 0.153580 0.153893 0.154127 0.154211 0.154220 0.154229 0.154316 0.154563 0.154895 0.155249 0.155604 0.155958 0.156333 0.156612 0.156714 0.156725 0.156736 0.156839 0.157134 0.157530 0.157947 0.158364 0.158780 0.159217 0.159542 0.159660 0.159673 0.159685 0.159804 0.160143 0.160600 0.161074 0.161549 0.162023 0.162516 0.162882 0.163015 0.163029 0.163043 0.163176 0.163556 0.164066 0.164595 0.165124 0.165654 0.166204 0.166613 0.166762 0.166777 0.166793 0.166943 0.167368 0.167939 0.168535 0.169131 0.169727 0.170345 0.170805 0.170971 0.170989 0.171006 0.171174 0.171648 0.172286 0.172953 0.173620 0.174287 0.174983 0.175500 0.175686 0.175706 0.175726 0.175913 0.176449 0.177169 0.177917 0.178666 0.179414 0.180189 0.180767 0.180976 0.180998 0.181020 0.181231 0.181831 0.182639 0.183476 0.184313 0.185150 0.186017 0.186661 0.186894 0.186918 0.186943 0.187181 0.187849 0.188748 0.189675 0.190602 0.191530 0.192490 0.193204 0.193463 0.193491 0.193518 0.193779 0.194519 0.195514 0.196545 0.197575 0.198605 0.199667 0.200457 0.200741 0.200771 0.200801 0.201088 0.201905 0.203003 0.204132 0.205261 0.206390 0.207551 0.208414 0.208725 0.208757 0.208790 0.209103 0.209996 0.211195 0.212420 0.213645 0.214870 0.216127 0.217062 0.217396 0.217431 0.217467 0.217802 0.218749 0.220022 0.221307 0.222592 0.223878 0.225154 0.226104 0.226444 0.226480 0.226516 0.226857 0.227822 0.229119 0.230398 0.231677 0.232956 0.234174 0.235080 0.235392 0.235424 0.235457 0.235771 0.236623 0.237769 0.238838 0.239906 0.240975 0.241927 0.242636 0.242870 0.242895 0.242919 0.243147 0.243744 0.244546 0.245178 0.245810 0.246442 0.246933 0.247298 0.247405 0.247416 0.247427 0.247527 0.247748 0.248045 0.248145 0.248245 0.248345 0.248266 0.248207 0.248168 0.248164 0.248160 0.248119 0.247932 0.247681 0.247219 0.246757 0.246296 0.245668 0.245202 0.245024 0.245006 0.244986 0.244804 0.244251 0.243506 0.242622 0.241737 0.240852 0.239883 0.239163 0.238883 0.238853 
0.149418 0.149416 0.149385 0.149123 0.148709 0.148107 0.147506 0.146905 0.146382 0.146051 0.145981 0.145976 0.145971 0.145906 0.145620 0.145167 0.144806 0.144444 0.144083 0.143771 0.143574 0.143531 0.143528 0.143525 0.143482 0.143280 0.142960 0.142572 0.142183 0.141795 0.141232 0.140876 0.140785 0.140779 0.140772 0.140677 0.140147 0.139307 0.138098 0.136889 0.135680 0.134020 0.132973 0.132698 0.132679 0.132659 0.132374 0.131010 0.128849 0.127018 0.125187 0.123356 0.122092 0.121294 0.121147 0.121137 0.121126 0.120978 0.120434 0.119573 0.119025 0.118477 0.117929 0.117579 0.117358 0.117317 0.117314 0.117312 0.117272 0.117111 0.116856 0.116669 0.116482 0.116295 0.116151 0.116060 0.116041 0.116040 0.116039 0.116021 0.115944 0.115823 0.115723 0.115622 0.115521 0.115437 0.115384 0.115373 0.115373 0.115372 0.115361 0.115315 0.115242 0.115180 0.115119 0.115057 0.115005 0.114972 0.114966 0.114965 0.114965 0.114958 0.114929 0.114884 0.114846 0.114808 0.114770 0.114738 0.114717 0.114713 0.114713 0.114713 0.114709 0.114691 0.114663 0.114639 0.114615 0.114591 0.114571 0.114558 0.114555 0.114555 0.114555 0.114552 0.114541 0.114523 0.114507 0.114491 0.114475 0.114460 0.114450 0.114448 0.114448 
0.128090 0.128087 0.128082 0.128071 0.128057 0.128042 0.128028 0.128014 0.127999 0.127988 0.127983 0.127980 0.127977 0.127972 0.127960 0.127946 0.127931 0.127916 0.127900 0.127885 0.127873 0.127867 0.127864 0.127862 0.127855 0.127844 0.127828 0.127812 0.127796 0.127780 0.127763 0.127751 0.127744 0.127741 0.127738 0.127731 0.127718 0.127702 0.127684 0.127667 0.127650 0.127633 0.127619 0.127612 0.127609 0.127605 0.127598 0.127584 0.127566 0.127548 0.127529 0.127511 0.127493 0.127479 0.127471 0.127468 0.127465 0.127457 0.127442 0.127423 0.127403 0.127383 0.127364 0.127344 0.127329 0.127321 0.127317 0.127314 0.127306 0.127291 0.127271 0.127250 0.127229 0.127209 0.127188 0.127172 0.127163 0.127160 0.127156 0.127147 0.127131 0.127110 0.127089 0.127068 0.127047 0.127025 0.127008 0.126999 0.126995 0.126991 0.126982 0.126965 0.126943 0.126921 0.126899 0.126877 0.126854 0.126837 0.126828 0.126823 0.126819 0.126810 0.126792 0.126768 0.126745 0.126721 0.126698 0.126674 0.126656 0.126646 0.126642 0.126638 0.126629 0.126610 0.126587 0.126564 0.126541 0.126518 0.126499 0.126485 0.126478 0.126474 0.126471 0.126464 0.126450 0.126431 0.126413 0.126396 0.126378 0.126360 0.126347 0.126339 0.126336 0.126333 0.126326 0.126313 0.126295 0.126278 0.126261 0.126243 0.126227 0.126214 0.126207 0.126204 0.126202 0.126195 0.126182 0.126166 0.126149 0.126133 0.126117 0.126100 0.126087 0.126081 0.126078 0.126076 0.126069 0.126058 0.126042 0.126027 0.126011 0.125996 0.125980 0.125968 0.125962 0.125959 0.125956 0.125950 0.125938 0.125923 0.125909 0.125895 0.125880 0.125866 0.125855 0.125849 0.125847 0.125844 0.125839 0.125828 0.125813 0.125800 0.125786 0.125772 0.125759 0.125749 0.125744 0.125741 0.125739 0.125733 0.125723 0.125710 0.125696 0.125683 0.125670 0.125657 0.125647 0.125643 0.125640 0.125638 0.125633 0.125624 0.125612 0.125599 0.125587 0.125575 0.125563 0.125553 0.125548 0.125546 0.125544 0.125540 0.125531 0.125520 0.125509 0.125498 0.125487 0.125476 0.125467 0.125462 0.125461 0.125459 0.125454 0.125446 0.125434 0.125424 0.125414 0.125404 0.125394 0.125386 0.125382 0.125380 0.125378 0.125374 0.125367 0.125356 0.125347 0.125337 0.125327 0.125318 0.125311 0.125307 0.125305 0.125304 0.125300 0.125293 0.125283 0.125274 0.125265 0.125255 0.125247 0.125240 0.125236 0.125235 0.125233 0.125230 0.125223 0.125215 0.125206 0.125197 0.125189 0.125180 0.125174 0.125170 0.125169 0.125167 0.125164 0.125158 0.125150 0.125142 0.125134 0.125126 0.125118 0.125112 0.125109 0.125107 
0.135297 0.135292 0.135275 0.135233 0.135176 0.135119 0.135061 0.135004 0.134944 0.134898 0.134880 0.134875 0.134871 0.134852 0.134805 0.134743 0.134679 0.134615 0.134552 0.134485 0.134434 0.134413 0.134408 0.134403 0.134382 0.134330 0.134261 0.134189 0.134117 0.134046 0.133971 0.133915 0.133892 0.133886 0.133881 0.133857 0.133800 0.133724 0.133645 0.133565 0.133486 0.133405 0.133344 0.133319 0.133313 0.133307 0.133281 0.133218 0.133135 0.133050 0.132965 0.132881 0.132795 0.132730 0.132703 0.132697 0.132690 0.132663 0.132597 0.132509 0.132427 0.132345 0.132264 0.132200 0.132152 0.132133 0.132128 0.132123 0.132104 0.132058 0.131997 0.131938 0.131879 0.131820 0.131763 0.131720 0.131703 0.131699 0.131695 0.131677 0.131635 0.131580 0.131526 0.131473 0.131419 0.131367 0.131328 0.131312 0.131309 0.131305 0.131289 0.131251 0.131200 0.131151 0.131103 0.131054 0.131006 0.130970 0.130956 0.130952 0.130949 0.130935 0.130900 0.130855 0.130811 0.130767 0.130723 0.130680 0.130648 0.130635 0.130631 0.130628 0.130615 0.130585 0.130545 0.130506 0.130467 0.130428 0.130391 0.130362 0.130351 0.130348 0.130345 0.130333 0.130306 0.130270 0.130234 0.130199 0.130164 0.130130 0.130105 0.130095 0.130092 
0.139450 0.139449 0.139444 0.139431 0.139414 0.139395 0.139375 0.139355 0.139332 0.139315 0.139308 0.139307 0.139305 0.139298 0.139279 0.139255 0.139231 0.139207 0.139183 0.139160 0.139142 0.139134 0.139133 0.139131 0.139123 0.139104 0.139078 0.139048 0.139019 0.138990 0.138953 0.138925 0.138913 0.138910 0.138907 0.138895 0.138864 0.138823 0.138775 0.138728 0.138680 0.138626 0.138585 0.138567 0.138563 0.138559 0.138541 0.138497 0.138439 0.138373 0.138307 0.138241 0.138170 0.138117 0.138093 0.138088 0.138082 0.138058 0.138000 0.137922 0.137838 0.137754 0.137671 0.137583 0.137518 0.137489 0.137482 0.137475 0.137446 0.137397 0.137332 0.137274 0.137216 0.137159 0.137104 0.137063 0.137046 0.137042 0.137038 0.137022 0.136982 0.136930 0.136879 0.136829 0.136778 0.136729 0.136692 0.136677 0.136673 0.136669 0.136654 0.136619 0.136572 0.136526 0.136480 0.136434 0.136390 0.136358 0.136344 0.136341 0.136338 0.136324 0.136292 0.136249 0.136208 0.136166 0.136125 0.136086 0.136057 0.136045 0.136042 0.136040 0.136028 0.135999 0.135961 0.135925 0.135889 0.135854 0.135819 0.135793 0.135782 0.135780 0.135777 0.135766 0.135740 0.135706 0.135673 0.135640 0.135607 0.135574 0.135549 0.135539 0.135537 0.135535 0.135525 0.135500 0.135467 0.135435 0.135403 0.135370 0.135338 0.135313 0.135303 0.135301 
0.144029 0.144028 0.144027 0.144024 0.144020 0.144013 0.144007 0.144001 0.143992 0.143985 0.143981 0.143980 0.143978 0.143974 0.143965 0.143953 0.143939 0.143925 0.143911 0.143895 0.143883 0.143877 0.143874 0.143871 0.143864 0.143851 0.143833 0.143814 0.143795 0.143775 0.143755 0.143740 0.143731 0.143728 0.143724 0.143716 0.143700 0.143679 0.143657 0.143636 0.143615 0.143592 0.143575 0.143566 0.143562 0.143558 0.143548 0.143530 0.143507 0.143483 0.143459 0.143434 0.143410 0.143390 0.143380 0.143376 0.143371 0.143361 0.143342 0.143318 0.143300 0.143283 0.143266 0.143248 0.143235 0.143228 0.143225 0.143222 0.143214 0.143200 0.143182 0.143163 0.143144 0.143125 0.143106 0.143092 0.143084 0.143081 0.143078 0.143070 0.143055 0.143036 0.143015 0.142995 0.142974 0.142954 0.142938 0.142929 0.142926 0.142922 0.142913 0.142897 0.142876 0.142854 0.142832 0.142810 0.142787 0.142769 0.142760 0.142756 0.142752 0.142743 0.142724 0.142701 0.142677 0.142653 0.142629 0.142604 0.142584 0.142574 0.142569 0.142565 0.142554 0.142534 0.142508 0.142481 0.142454 0.142427 0.142399 0.142378 0.142367 0.142362 0.142356 0.142345 0.142322 0.142292 0.142268 0.142244 0.142220 0.142195 0.142176 0.142166 0.142161 0.142157 0.142146 0.142125 0.142098 0.142068 0.142039 0.142009 0.141979 0.141955 0.141943 0.141938 0.141932 0.141920 0.141896 0.141865 0.141830 0.141796 0.141762 0.141727 0.141699 0.141685 0.141679 0.141673 0.141659 0.141631 0.141595 0.141558 0.141521 0.141483 0.141443 0.141412 0.141396 0.141389 0.141382 0.141366 0.141334 0.141294 0.141252 0.141211 0.141170 0.141127 0.141094 0.141076 0.141068 0.141060 0.141042 0.141007 0.140961 0.140915 0.140870 0.140824 0.140778 0.140742 0.140724 0.140716 0.140708 0.140689 0.140651 0.140601 0.140556 0.140510 0.140465 0.140426 0.140395 0.140380 0.140373 0.140366 0.140350 0.140321 0.140282 0.140244 0.140207 0.140169 0.140132 0.140103 0.140088 0.140082 0.140075 0.140061 0.140032 0.139995 0.139960 0.139925 0.139889 0.139855 0.139829 0.139816 0.139810 0.139804 0.139791 0.139765 0.139731 0.139698 0.139664 0.139631 0.139601 0.139578 0.139566 0.139560 0.139555 0.139543 0.139520 0.139490 0.139460 0.139430 0.139400 0.139370 0.139346 0.139336 0.139331 0.139326 0.139316 0.139295 0.139268 0.139241 0.139214 0.139187 0.139160 0.139140 0.139129 0.139124 0.139119 0.139109 0.139090 0.139065 0.139041 0.139018 0.138994 0.138970 0.138951 0.138942 0.138937 0.138933 0.138924 0.138905 0.138881 0.138859 0.138837 0.138815 0.138793 0.138776 0.138768 0.138764 0.138760 0.138751 0.138734 0.138712 0.138691 0.138669 0.138648 0.138628 0.138613 0.138605 0.138602 0.138598 0.138590 0.138575 0.138555 0.138535 0.138516 0.138496 0.138477 0.138463 0.138455 0.138452 0.138449 0.138442 0.138428 0.138410 0.138392 0.138374 0.138356 0.138338 0.138324 0.138316 0.138313 0.138310 0.138304 0.138291 0.138274 0.138257 0.138240 0.138223 0.138206 0.138193 0.138186 0.138183 0.138180 0.138173 0.138160 0.138144 0.138128 0.138112 0.138096 0.138080 0.138067 0.138061 0.138058 0.138055 0.138049 0.138036 0.138020 0.138004 0.137988 0.137973 0.137957 0.137945 0.137939 0.137936 0.137933 0.137927 0.137915 0.137899 0.137883 0.137867 0.137851 0.137836 0.137824 0.137818 0.137816 0.137813 0.137807 0.137795 0.137780 0.137764 0.137749 0.137733 0.137717 0.137705 0.137699 0.137697 0.137694 0.137688 0.137676 0.137661 0.137646 0.137631 0.137615 0.137600 0.137588 0.137581 0.137579 
0.152046 0.152041 0.152020 0.151967 0.151896 0.151816 0.151736 0.151657 0.151566 0.151497 0.151468 0.151461 0.151454 0.151425 0.151345 0.151240 0.151127 0.151015 0.150903 0.150783 0.150692 0.150654 0.150645 0.150636 0.150598 0.150506 0.150385 0.150268 0.150150 0.150033 0.149936 0.149863 0.149836 0.149829 0.149823 0.149796 0.149729 0.149641 0.149551 0.149461 0.149370 0.149277 0.149207 0.149178 0.149171 0.149164 0.149135 0.149064 0.148969 0.148870 0.148772 0.148673 0.148572 0.148496 0.148464 0.148456 0.148449 0.148417 0.148337 0.148231 0.148119 0.148006 0.147894 0.147777 0.147689 0.147653 0.147644 0.147635 0.147598 0.147506 0.147384 0.147255 0.147125 0.146996 0.146864 0.146764 0.146722 0.146712 0.146702 0.146660 0.146557 0.146420 0.146281 0.146142 0.146003 0.145864 0.145759 0.145716 0.145706 0.145696 0.145653 0.145549 0.145410 0.145275 0.145141 0.145006 0.144875 0.144776 0.144736 0.144727 0.144718 0.144678 0.144585 0.144461 0.144343 0.144225 0.144107 0.143996 0.143912 0.143878 0.143870 0.143862 0.143828 0.143750 0.143647 0.143549 0.143451 0.143353 0.143263 0.143195 0.143167 0.143160 0.143154 0.143126 0.143061 0.142975 0.142893 0.142811 0.142730 0.142655 0.142599 0.142576 0.142571 0.142565 0.142542 0.142488 0.142415 0.142346 0.142278 0.142210 0.142146 0.142097 0.142078 0.142073 0.142069 0.142049 0.142001 0.141938 0.141879 0.141820 0.141761 0.141704 0.141661 0.141644 0.141640 0.141635 0.141618 0.141576 0.141520 0.141466 0.141412 0.141358 0.141304 0.141263 0.141247 0.141243 
0.154218 0.154211 0.154184 0.154118 0.154032 0.153940 0.153849 0.153758 0.153662 0.153590 0.153559 0.153551 0.153543 0.153512 0.153439 0.153343 0.153243 0.153144 0.153044 0.152944 0.152869 0.152836 0.152827 0.152818 0.152785 0.152707 0.152603 0.152499 0.152395 0.152291 0.152186 0.152107 0.152073 0.152064 0.152055 0.152022 0.151958 0.151873 0.151794 0.151716 0.151638 0.151556 0.151495 0.151468 0.151461 0.151454 0.151427 0.151364 0.151280 0.151192 0.151104 0.151016 0.150923 0.150853 0.150822 0.150814 0.150806 0.150776 0.150701 0.150603 0.150509 0.150415 0.150321 0.150222 0.150147 0.150115 0.150106 0.150097 0.150064 0.149987 0.149884 0.149771 0.149658 0.149544 0.149426 0.149336 0.149298 0.149288 0.149277 0.149238 0.149142 0.149014 0.148884 0.148755 0.148625 0.148488 0.148384 0.148340 0.148328 0.148316 0.148272 0.148168 0.148031 0.147912 0.147793 0.147674 0.147559 0.147471 0.147435 0.147426 0.147416 0.147381 0.147300 0.147193 0.147091 0.146989 0.146886 0.146793 0.146722 0.146692 0.146684 0.146676 0.146646 0.146579 0.146490 0.146410 0.146330 0.146250 0.146174 0.146116 0.146094 0.146088 0.146083 0.146061 0.146009 0.145942 0.145878 0.145814 0.145751 0.145692 0.145648 0.145629 0.145624 0.145619 0.145601 0.145560 0.145506 0.145456 0.145405 0.145354 0.145308 0.145272 0.145258 0.145254 0.145251 0.145237 0.145203 0.145159 0.145118 0.145077 0.145036 0.144996 0.144966 0.144954 0.144950 0.144947 0.144934 0.144907 0.144872 0.144836 0.144800 0.144765 0.144732 0.144707 0.144696 0.144693 0.144691 0.144680 0.144655 0.144621 0.144590 0.144559 0.144528 0.144496 0.144473 0.144463 0.144460 0.144457 0.144448 0.144426 0.144397 0.144367 0.144337 0.144307 0.144278 0.144256 0.144247 0.144245 
0.159670 0.159658 0.159611 0.159495 0.159342 0.159187 0.159032 0.158877 0.158720 0.158601 0.158552 0.158540 0.158528 0.158480 0.158359 0.158199 0.158041 0.157882 0.157723 0.157562 0.157441 0.157391 0.157379 0.157367 0.157318 0.157200 0.157044 0.156885 0.156726 0.156567 0.156410 0.156291 0.156241 0.156229 0.156217 0.156167 0.156046 0.155886 0.155722 0.155558 0.155395 0.155228 0.155102 0.155050 0.155037 0.155024 0.154970 0.154838 0.154664 0.154485 0.154306 0.154126 0.153943 0.153804 0.153746 0.153732 0.153718 0.153661 0.153518 0.153330 0.153138 0.152947 0.152755 0.152560 0.152412 0.152351 0.152336 0.152321 0.152260 0.152112 0.151917 0.151719 0.151522 0.151324 0.151128 0.150980 0.150919 0.150904 0.150890 0.150829 0.150689 0.150503 0.150370 0.150236 0.150103 0.149978 0.149883 0.149845 0.149836 0.149827 0.149792 0.149709 0.149598 0.149495 0.149392 0.149289 0.149196 0.149125 0.149096 0.149089 0.149082 0.149053 0.148989 0.148905 0.148824 0.148743 0.148662 0.148593 0.148540 0.148518 0.148513 0.148508 0.148486 0.148433 0.148363 0.148302 0.148240 0.148178 0.148119 0.148075 0.148058 0.148054 0.148050 0.148033 0.147992 0.147938 0.147888 0.147839 0.147789 0.147741 0.147705 0.147690 0.147686 0.147683 0.147670 0.147638 0.147596 0.147555 0.147514 0.147473 0.147435 0.147406 0.147393 0.147390 0.147388 0.147375 0.147348 0.147312 0.147276 0.147240 0.147205 0.147172 0.147148 0.147138 0.147135 
0.166774 0.166761 0.166726 0.166652 0.166557 0.166459 0.166362 0.166265 0.166166 0.166090 0.166053 0.166039 0.166024 0.165986 0.165907 0.165804 0.165700 0.165595 0.165491 0.165385 0.165304 0.165265 0.165250 0.165234 0.165194 0.165110 0.165000 0.164889 0.164779 0.164669 0.164560 0.164477 0.164437 0.164421 0.164406 0.164365 0.164280 0.164169 0.164058 0.163947 0.163836 0.163726 0.163643 0.163603 0.163587 0.163571 0.163530 0.163445 0.163333 0.163221 0.163109 0.162997 0.162886 0.162801 0.162760 0.162744 0.162728 0.162687 0.162599 0.162484 0.162371 0.162258 0.162145 0.162033 0.161947 0.161906 0.161890 0.161874 0.161831 0.161743 0.161628 0.161513 0.161399 0.161284 0.161170 0.161083 0.161041 0.161025 0.161009 0.160966 0.160875 0.160757 0.160639 0.160520 0.160402 0.160283 0.160192 0.160148 0.160132 0.160115 0.160071 0.159978 0.159858 0.159737 0.159616 0.159495 0.159374 0.159282 0.159237 0.159220 0.159203 0.159158 0.159065 0.158942 0.158820 0.158698 0.158576 0.158454 0.158361 0.158316 0.158299 0.158282 0.158237 0.158144 0.158023 0.157902 0.157780 0.157659 0.157545 0.157458 0.157421 0.157407 0.157393 0.157357 0.157285 0.157192 0.157102 0.157013 0.156923 0.156836 0.156769 0.156737 0.156725 0.156713 0.156681 0.156619 0.156537 0.156457 0.156378 0.156298 0.156221 0.156161 0.156133 0.156122 0.156111 0.156082 0.156028 0.155956 0.155887 0.155818 0.155748 0.155681 0.155629 0.155604 0.155595 0.155585 0.155560 0.155513 0.155452 0.155392 0.155332 0.155272 0.155213 0.155167 0.155145 0.155136 0.155128 0.155106 0.155063 0.155008 0.154954 0.154899 0.154845 0.154790 0.154749 0.154729 0.154721 0.154714 0.154693 0.154655 0.154604 0.154555 0.154505 0.154456 0.154407 0.154369 0.154351 0.154344 0.154337 0.154319 0.154284 0.154238 0.154193 0.154148 0.154104 0.154059 0.154024 0.154008 0.154001 0.153995 0.153978 0.153945 0.153903 0.153862 0.153820 0.153779 0.153737 0.153706 0.153690 0.153684 0.153679 0.153663 0.153633 0.153594 0.153556 0.153518 0.153480 0.153441 0.153412 0.153398 0.153392 0.153387 0.153372 0.153344 0.153308 0.153272 0.153236 0.153200 0.153164 0.153137 0.153124 0.153119 0.153113 0.153100 0.153074 0.153040 0.153006 0.152973 0.152939 0.152906 0.152880 0.152867 0.152863 0.152858 0.152845 0.152820 0.152787 0.152755 0.152723 0.152691 0.152659 0.152634 0.152622 0.152618 0.152613 0.152601 0.152577 0.152545 0.152514 0.152482 0.152451 0.152420 0.152395 0.152384 0.152379 0.152375 0.152363 0.152339 0.152308 0.152277 0.152247 0.152216 0.152185 0.152162 0.152150 0.152146 
0.193483 0.193452 0.193326 0.193014 0.192602 0.192170 0.191737 0.191304 0.190856 0.190517 0.190374 0.190339 0.190303 0.190160 0.189812 0.189352 0.188887 0.188422 0.187957 0.187484 0.187127 0.186979 0.186942 0.186905 0.186756 0.186398 0.185923 0.185444 0.184965 0.184485 0.184018 0.183665 0.183519 0.183483 0.183447 0.183302 0.182958 0.182502 0.182054 0.181605 0.181157 0.180720 0.180390 0.180253 0.180218 0.180184 0.180048 0.179723 0.179293 0.178877 0.178462 0.178046 0.177642 0.177337 0.177212 0.177181 0.177150 0.177026 0.176732 0.176343 0.175967 0.175592 0.175217 0.174847 0.174568 0.174453 0.174424 0.174395 0.174280 0.174005 0.173642 0.173285 0.172928 0.172571 0.172225 0.171963 0.171856 0.171829 0.171802 0.171696 0.171441 0.171103 0.170813 0.170523 0.170233 0.169972 0.169775 0.169701 0.169682 0.169664 0.169591 0.169419 0.169191 0.168985 0.168778 0.168572 0.168381 0.168237 0.168178 0.168163 0.168149 0.168092 0.167967 0.167803 0.167648 0.167493 0.167338 0.167198 0.167092 0.167048 0.167037 0.167026 0.166982 0.166884 0.166753 0.166631 0.166509 0.166387 0.166278 0.166196 0.166162 0.166153 0.166145 0.166110 0.166027 0.165916 0.165817 0.165718 0.165619 0.165523 0.165451 0.165423 0.165416 0.165409 0.165381 0.165313 0.165223 0.165137 0.165051 0.164965 0.164881 0.164818 0.164791 0.164784 0.164778 0.164754 0.164695 0.164617 0.164539 0.164460 0.164382 0.164306 0.164249 0.164225 0.164219 0.164213 0.164189 0.164134 0.164061 0.163987 0.163913 0.163839 0.163767 0.163713 0.163690 0.163684 
0.247373 0.247198 0.246401 0.244479 0.241929 0.239563 0.237197 0.234831 0.232631 0.230973 0.230326 0.230183 0.230042 0.229401 0.227875 0.225850 0.223976 0.222103 0.220229 0.218502 0.217200 0.216697 0.216586 0.216476 0.215980 0.214781 0.213189 0.211713 0.210236 0.208760 0.207411 0.206395 0.206002 0.205916 0.205830 0.205443 0.204524 0.203305 0.202178 0.201052 0.199926 0.198897 0.198121 0.197822 0.197756 0.197691 0.197396 0.196703 0.195784 0.194957 0.194129 0.193302 0.192525 0.191939 0.191706 0.191655 0.191604 0.191372 0.190823 0.190095 0.189411 0.188728 0.188045 0.187417 0.186944 0.186756 0.186715 0.186674 0.186487 0.186054 0.185480 0.184946 0.184413 0.183880 0.183420 0.183073 0.182938 0.182908 0.182879 0.182745 0.182452 0.182063 0.181716 0.181370 0.181023 0.180728 0.180506 0.180418 0.180398 0.180379 0.180291 0.180099 0.179844 0.179612 0.179380 0.179149 0.178952 0.178804 0.178743 0.178730 0.178716 0.178655 0.178519 0.178338 0.178174 0.178009 0.177845 0.177704 0.177598 0.177554 0.177545 0.177535 0.177492 0.177393 0.177262 0.177141 0.177019 0.176898 0.176793 0.176715 0.176683 0.176676 0.176669 0.176637 0.176562 0.176463 0.176371 0.176279 0.176187 0.176105 0.176044 0.176019 0.176013 
