-2.189427 -1.501194 5.465124
-1.844543 -1.440936 6.677633
-1.466241 -1.409682 7.881809
-1.185082 -1.295237 9.106160
-1.003577 -1.098541 10.340045
-0.833395 -0.892738 11.574155
-0.663190 -0.686952 12.808265
-2.188970 -1.501022 5.467064
-1.845151 -1.440977 6.675729
-1.843935 -1.440894 6.679538
-1.466791 -1.409775 7.879888
-1.465692 -1.409589 7.883730
-1.185417 -1.295510 9.104208
-1.184747 -1.294964 9.108113
-1.003848 -1.098866 10.338090
-1.003307 -1.098216 10.342000
-0.833664 -0.893064 11.572200
-0.833126 -0.892411 11.576110
-0.663461 -0.687277 12.806310
-2.182850 -1.498727 5.493006
-1.853287 -1.441535 6.650248
-1.835800 -1.440337 6.705019
-1.474300 -1.410881 7.854234
-1.458355 -1.408334 7.909427
-1.189901 -1.299161 9.078087
-1.180263 -1.291313 9.134234
-1.007469 -1.103215 10.311942
-0.999689 -1.093865 10.368148
-0.837263 -0.897430 11.546052
-0.829527 -0.888046 11.602258
-0.667080 -0.691627 12.780162
-2.154550 -1.488738 5.610713
-2.106850 -1.475351 5.796663
-2.056040 -1.464627 5.981963
-2.002629 -1.456151 6.166648
-1.947116 -1.449505 6.350789
-1.889987 -1.444274 6.534482
-1.798685 -1.437962 6.820661
-1.739587 -1.434466 7.003772
-1.680570 -1.430897 7.186907
-1.622099 -1.426848 7.370207
-1.564639 -1.421908 7.553805
-1.508666 -1.415664 7.737821
-1.425405 -1.402321 8.026192
-1.375485 -1.390833 8.211686
-1.328827 -1.376557 8.397834
-1.285913 -1.359117 8.584611
-1.246768 -1.338524 8.771896
-1.210948 -1.315180 8.959527
-1.160558 -1.274200 9.252872
-1.131069 -1.245691 9.440892
-1.103145 -1.215918 9.628956
-1.076291 -1.185286 9.817038
-1.050019 -1.154188 10.005126
-1.023917 -1.122953 10.193215
-0.983267 -1.074105 10.486875
-0.957283 -1.042776 10.674965
-0.931332 -1.011421 10.863054
-0.905406 -0.980045 11.051144
-0.879500 -0.948654 11.239234
-0.853605 -0.917254 11.427325
-0.813184 -0.868222 11.720985
-0.787288 -0.836823 11.909075
-0.761380 -0.805434 12.097165
-0.735451 -0.774060 12.285255
-0.709495 -0.742709 12.473345
-0.683505 -0.711384 12.661435
79 NaN NaN
-2.189542 -1.501237 5.464639
-2.166446 -1.492575 5.562541
-2.142313 -1.484792 5.660266
-2.117218 -1.477827 5.757811
-2.091236 -1.471621 5.855174
-2.064441 -1.466113 5.952360
-2.036909 -1.461243 6.049373
-2.008711 -1.456949 6.146222
-1.979920 -1.453171 6.242918
-1.950608 -1.449849 6.339474
-1.920845 -1.446921 6.435905
-1.890701 -1.444329 6.532227
-1.860244 -1.442011 6.628457
-1.829543 -1.439908 6.724615
-1.798666 -1.437961 6.820720
-1.767681 -1.436109 6.916792
-1.736654 -1.434294 7.012852
-1.705654 -1.432456 7.108919
-1.674747 -1.430535 7.205015
-1.644000 -1.428473 7.301159
-1.613482 -1.426209 7.397372
-1.583261 -1.423684 7.493672
-1.553406 -1.420837 7.590076
-1.523986 -1.417609 7.686603
-1.495072 -1.413939 7.783266
-1.466734 -1.409767 7.880080
-1.439046 -1.405032 7.977055
-1.412078 -1.399673 8.074201
-1.385907 -1.393629 8.171524
-1.360605 -1.386841 8.269027
-1.336248 -1.379247 8.366712
-1.312912 -1.370789 8.464575
-1.290662 -1.361416 8.562606
-1.269473 -1.351156 8.660785
-1.249278 -1.340068 8.759082
-1.230006 -1.328215 8.857476
-1.211589 -1.315660 8.955946
-1.193954 -1.302462 9.054476
-1.177032 -1.288682 9.153051
-1.160751 -1.274381 9.251660
-1.145040 -1.259619 9.350293
-1.129827 -1.244453 9.448944
-1.115041 -1.228943 9.547606
-1.100612 -1.213146 9.646275
-1.086468 -1.197120 9.744948
-1.072538 -1.180922 9.843624
-1.058751 -1.164610 9.942301
-1.045036 -1.148240 10.040979
-1.031342 -1.131853 10.139656
-1.017663 -1.115455 10.238334
-1.003997 -1.099046 10.337012
-0.990343 -1.082627 10.435690
-0.976701 -1.066198 10.534368
-0.963070 -1.049762 10.633046
-0.949448 -1.033318 10.731724
-0.935834 -1.016867 10.830402
-0.922228 -1.000410 10.929081
-0.908628 -0.983948 11.027759
-0.895034 -0.967481 11.126437
-0.881444 -0.951011 11.225115
-0.867857 -0.934538 11.323794
-0.854273 -0.918064 11.422472
-0.840691 -0.901588 11.521150
-0.827108 -0.885112 11.619829
-0.813525 -0.868636 11.718507
-0.799941 -0.852162 11.817185
-0.786354 -0.835690 11.915863
-0.772763 -0.819220 12.014542
-0.759168 -0.802755 12.113220
-0.745567 -0.786294 12.211898
-0.731959 -0.769838 12.310576
-0.718344 -0.753388 12.409254
-0.704720 -0.736946 12.507933
-0.691086 -0.720511 12.606611
-0.677442 -0.704084 12.705289
-0.663786 -0.687667 12.803967
-0.650117 -0.671260 12.902644
-0.636435 -0.654864 13.001322
-0.622738 -0.638480 13.100000
-2.189105 -1.501266 5.464398
-1.765134 -1.518643 5.165511
-1.435020 -1.501902 4.765177
-1.202048 -1.457567 4.302584
-1.041954 -1.395790 3.811334
-0.924707 -1.324817 3.309094
-0.828080 -1.249682 2.803018
-0.737821 -1.173293 2.295939
-0.643448 -1.097710 1.789490
-0.545616 -1.022809 1.283594
-0.447159 -0.948033 0.777801
-0.350898 -0.872821 0.271651
-2.187358 -1.501386 5.463431
-1.766569 -1.518653 5.166904
-1.763698 -1.518634 5.164119
-1.436072 -1.502031 4.766873
-1.433968 -1.501773 4.763481
-1.202775 -1.457779 4.304435
-1.201321 -1.457355 4.300733
-1.042467 -1.396050 3.813249
-1.041442 -1.395530 3.809418
-0.925109 -1.325100 3.311032
-0.924305 -1.324535 3.307155
-0.828431 -1.249974 2.804965
-0.827730 -1.249389 2.801071
-0.738172 -1.173585 2.297886
-0.737470 -1.173000 2.293992
-0.643817 -1.097999 1.791434
-0.643078 -1.097421 1.787546
-0.545994 -1.023096 1.285537
-0.545237 -1.022522 1.281652
-0.447534 -0.948320 0.779745
-0.446783 -0.947745 0.775858
-0.351259 -0.873112 0.273597
-2.170656 -1.502527 5.454187
-1.780622 -1.518629 5.179864
-1.749971 -1.518539 5.150804
-1.446131 -1.503267 4.783091
-1.423908 -1.500537 4.747263
-1.209726 -1.459806 4.322136
-1.194370 -1.455328 4.283033
-1.047368 -1.398533 3.831567
-1.036540 -1.393047 3.791100
-0.928955 -1.327801 3.329570
-0.920459 -1.321834 3.288617
-0.831784 -1.252772 2.823584
-0.824376 -1.246591 2.782452
-0.741526 -1.176383 2.316505
-0.734113 -1.170203 2.275374
-0.647354 -1.100761 1.810024
-0.639525 -1.094662 1.768958
-0.549614 -1.025842 1.304114
-0.541613 -1.019777 1.263076
-0.451126 -0.951071 0.798326
-0.443196 -0.944993 0.757276
-0.354711 -0.875891 0.292200
-2.123008 -1.505784 5.427816
-2.059718 -1.509601 5.389968
-1.997656 -1.512843 5.350085
-1.937121 -1.515402 5.307837
-1.878667 -1.517093 5.262729
-1.821759 -1.518177 5.215696
-1.710809 -1.518270 5.112821
-1.660051 -1.517128 5.059194
-1.611058 -1.515402 5.003977
-1.563843 -1.513099 4.947226
-1.519350 -1.509954 4.888349
-1.476786 -1.506240 4.828119
-1.395211 -1.497011 4.700998
-1.358959 -1.491532 4.636878
-1.324301 -1.485636 4.571932
-1.291205 -1.479336 4.506208
-1.260011 -1.472556 4.439598
-1.230696 -1.465317 4.372193
-1.174780 -1.449490 4.232454
-1.149851 -1.441218 4.163417
-1.126229 -1.432650 4.093963
-1.103632 -1.423853 4.024196
-1.082034 -1.414835 3.954138
-1.061837 -1.405514 3.883703
-1.022866 -1.385898 3.738773
-1.005028 -1.376077 3.667771
-0.988034 -1.366081 3.596587
-0.971541 -1.355982 3.525300
-0.955517 -1.345788 3.453919
-0.940065 -1.335477 3.382429
-0.909721 -1.314083 3.235693
-0.895423 -1.303541 3.163996
-0.881553 -1.292914 3.092228
-0.867944 -1.282235 3.020418
-0.854549 -1.271514 2.948574
-0.841367 -1.260752 2.876696
-0.814901 -1.238590 2.729324
-0.802119 -1.227749 2.657386
-0.789397 -1.216897 2.585439
-0.776673 -1.206045 2.513493
-0.763912 -1.195200 2.441552
-0.751095 -1.184365 2.369619
-0.724417 -1.162245 2.222279
-0.711231 -1.151484 2.150402
-0.697947 -1.140741 2.078540
-0.684522 -1.130026 2.006700
-0.671020 -1.119326 1.934873
-0.657443 -1.108641 1.863057
-0.629366 -1.086796 1.715936
-0.615570 -1.076154 1.644156
-0.601727 -1.065522 1.572383
-0.587830 -1.054900 1.500620
-0.573896 -1.044285 1.428862
-0.559938 -1.033676 1.357108
-0.531276 -1.011947 1.210083
-0.517278 -1.001345 1.138336
-0.503283 -0.990742 1.066588
-0.489298 -0.980138 0.994839
-0.475338 -0.969529 0.923086
-0.461404 -0.958914 0.851328
-0.432962 -0.937141 0.704266
-0.419168 -0.926499 0.632486
-0.405427 -0.915846 0.560697
-0.391743 -0.905183 0.488898
-0.378154 -0.894500 0.417085
-0.364650 -0.883800 0.345257
60 NaN NaN
-2.189542 -1.501237 5.464639
-2.100625 -1.507314 5.415428
-2.014289 -1.512140 5.361693
-1.930853 -1.515666 5.303463
-1.850619 -1.517859 5.240835
-1.773855 -1.518703 5.173970
-1.700777 -1.518202 5.103090
-1.631545 -1.516377 5.028469
-1.566253 -1.513269 4.950416
-1.504929 -1.508934 4.869265
-1.447535 -1.503440 4.785354
-1.393982 -1.496860 4.699016
-1.344130 -1.489276 4.610569
-1.297806 -1.480771 4.520304
-1.254809 -1.471426 4.428489
-1.214920 -1.461320 4.335360
-1.177911 -1.450529 4.241125
-1.143548 -1.439126 4.145963
-1.111597 -1.427178 4.050031
-1.081825 -1.414748 3.953460
-1.054003 -1.401895 3.856364
-1.027908 -1.388673 3.758839
-1.003318 -1.375136 3.660966
-0.980017 -1.361331 3.562815
-0.957793 -1.347306 3.464446
-0.936492 -1.333093 3.365900
-0.916017 -1.318714 3.267203
-0.896270 -1.304190 3.168378
-0.877151 -1.289541 3.069449
-0.858558 -1.274788 2.970435
-0.840388 -1.259952 2.871354
-0.822534 -1.245054 2.772226
-0.804892 -1.230114 2.673066
-0.787354 -1.215155 2.573890
-0.769814 -1.200195 2.474715
-0.752165 -1.185257 2.375555
-0.734305 -1.170361 2.276428
-0.716210 -1.155510 2.177336
-0.697898 -1.140702 2.078278
-0.679392 -1.125931 1.979250
-0.660714 -1.111195 1.880249
-0.641884 -1.096489 1.781272
-0.622925 -1.081808 1.682317
-0.603856 -1.067149 1.583379
-0.584700 -1.052507 1.484456
-0.565477 -1.037879 1.385543
-0.546209 -1.023259 1.286638
-0.526917 -1.008644 1.187737
-0.507620 -0.994030 1.088837
-0.488341 -0.979413 0.989934
-0.469101 -0.964788 0.891024
-0.449920 -0.950151 0.792105
-0.430820 -0.935498 0.693172
-0.411821 -0.920825 0.594223
-0.392945 -0.906128 0.495254
-0.374214 -0.891402 0.396262
-0.355647 -0.876644 0.297243
-0.337268 -0.861849 0.198196
-0.319097 -0.847013 0.099115
-0.301156 -0.832132 -0.000000
-2.189897 -1.501580 5.464715
-3.390801 -1.741983 5.197822
-4.190467 -0.926870 4.471901
-4.793021 0.144789 3.896713
-5.410531 1.231717 3.361040
-6.043489 2.311858 2.829664
-6.635560 3.391407 2.252205
-7.276850 4.421573 1.638825
-8.006865 5.352107 0.969288
-8.851269 6.119893 0.232753
-9.810862 6.667147 -0.556900
-10.859279 6.970950 -1.365033
-11.957627 7.051980 -2.160805
-2.191319 -1.502954 5.465015
-3.389268 -1.742797 5.198817
-3.392333 -1.741170 5.196827
-4.189537 -0.928278 4.472974
-4.191397 -0.925461 4.470827
-4.792106 0.143181 3.897474
-4.793936 0.146397 3.895953
-5.409611 1.230121 3.361820
-5.411451 1.233312 3.360261
-6.042580 2.310269 2.830468
-6.044399 2.313448 2.828861
-6.634666 3.389843 2.253073
-6.636455 3.392970 2.251336
-7.275849 4.420118 1.639765
-7.277851 4.423027 1.637886
-8.005716 5.350836 0.970319
-8.008014 5.353379 0.968258
-8.849938 6.118918 0.233882
-8.852601 6.120868 0.231623
-9.809380 6.666513 -0.555717
-9.812344 6.667782 -0.558083
-10.857690 6.970680 -1.363848
-10.860868 6.971220 -1.366218
-11.955994 7.051998 -2.159651
-2.211726 -1.522670 5.469328
-3.367275 -1.754469 5.213094
-3.414327 -1.729498 5.182550
-4.176196 -0.948488 4.488380
-4.204267 -0.904724 4.455724
-4.778979 0.120109 3.908387
-4.807064 0.169469 3.885039
-5.396408 1.207223 3.373005
-5.424665 1.256199 3.349064
-6.029526 2.287456 2.841999
-6.057452 2.336261 2.817330
-6.621832 3.367400 2.265537
-6.649338 3.415358 2.238823
-7.261484 4.399243 1.653244
-7.292215 4.443902 1.624407
-7.989228 5.332585 0.985112
-8.024621 5.371463 0.953394
-8.830828 6.104929 0.250097
-8.871710 6.134857 0.215409
-9.788111 6.657402 -0.538734
-9.833688 6.676684 -0.575081
-10.834891 6.966809 -1.346849
-10.883667 6.975091 -1.383217
-11.932546 7.052264 -2.143101
-2.309404 -1.607997 5.484937
-2.485577 -1.716077 5.487514
-2.677749 -1.789294 5.465170
-2.876221 -1.827634 5.420835
-3.072963 -1.830670 5.356651
-3.259623 -1.796606 5.274067
-3.507747 -1.667875 5.114884
-3.640432 -1.553700 5.003837
-3.765382 -1.431354 4.892379
-3.888832 -1.306572 4.781960
-4.006700 -1.176862 4.671172
-4.114008 -1.039465 4.558980
-4.262282 -0.809091 4.387772
-4.351616 -0.651543 4.286846
-4.440301 -0.488000 4.195292
-4.530365 -0.321084 4.111467
-4.623476 -0.153157 4.033155
-4.718747 0.014585 3.957058
-4.866465 0.274396 3.834113
-4.959630 0.440002 3.751048
-5.052712 0.605442 3.667559
-5.146566 0.771174 3.585527
-5.241151 0.937038 3.504609
-5.336232 1.102760 3.423980
-5.484944 1.360544 3.297969
-5.580487 1.525766 3.216863
-5.676270 1.690825 3.135707
-5.772913 1.855520 3.054832
-5.870867 2.019687 2.974462
-5.968810 2.183700 2.893767
-6.115743 2.440577 2.763929
-6.204751 2.606486 2.677003
-6.292307 2.772388 2.588597
-6.381025 2.937551 2.499969
-6.471593 3.101705 2.411336
-6.563431 3.264890 2.322223
-6.708299 3.517233 2.181576
-6.802720 3.677633 2.090138
-6.898647 3.836607 1.997780
-6.996221 3.993985 1.904421
-7.095524 4.149608 1.809951
-7.196659 4.303303 1.714276
-7.358224 4.538544 1.562620
-7.464693 4.686365 1.463537
-7.573455 4.831520 1.363014
-7.684613 4.973786 1.260995
-7.798263 5.112933 1.157435
-7.914494 5.248725 1.052298
-8.100958 5.453082 0.885257
-8.224098 5.579201 0.776023
-8.350024 5.701111 0.665196
-8.478755 5.818583 0.552813
-8.610298 5.931393 0.438919
-8.744641 6.039331 0.323582
-8.959480 6.197450 0.141179
-9.100823 6.292077 0.022561
-9.244802 6.381205 -0.097141
-9.391312 6.464753 -0.217790
-9.540249 6.542648 -0.339247
-9.691499 6.614831 -0.461371
-9.931534 6.715856 -0.652689
-10.088115 6.773369 -0.775878
-10.246534 6.825188 -0.899243
-10.406642 6.871383 -1.022663
-10.568296 6.912031 -1.146022
-10.731346 6.947239 -1.269215
-10.987884 6.991601 -1.460662
-11.153865 7.013468 -1.583036
-11.320762 7.030321 -1.704957
-11.488443 7.042361 -1.826372
-11.656789 7.049759 -1.947235
-11.825693 7.052682 -2.067510
171 NaN NaN
-2.189542 -1.501237 5.464639
-2.261210 -1.570480 5.479786
-2.340473 -1.632184 5.488258
-2.425785 -1.685860 5.490264
-2.515690 -1.731294 5.486129
-2.608897 -1.768441 5.476226
-2.704276 -1.797328 5.460911
-2.800834 -1.817981 5.440497
-2.897660 -1.830379 5.415243
-2.993873 -1.834424 5.385353
-3.088558 -1.829930 5.350991
-3.180708 -1.816627 5.312302
-3.269161 -1.794186 5.269445
-3.352556 -1.762280 5.222648
-3.429813 -1.721279 5.172497
-3.501245 -1.673086 5.120120
-3.567879 -1.619682 5.066461
-3.631038 -1.562767 5.012196
-3.692159 -1.503776 4.957805
-3.752695 -1.443961 4.903658
-3.813216 -1.383820 4.849856
-3.873204 -1.323005 4.796216
-3.932053 -1.261124 4.742535
-3.989129 -1.197798 4.688629
-4.043777 -1.132687 4.634336
-4.095489 -1.065559 4.579629
-4.144537 -0.996445 4.524938
-4.191423 -0.925422 4.470797
-4.236649 -0.852541 4.417724
-4.280717 -0.777841 4.366230
-4.324119 -0.701357 4.316831
-4.367242 -0.623237 4.269807
-4.410312 -0.543796 4.224994
-4.453548 -0.463355 4.182172
-4.497183 -0.382213 4.141109
-4.541451 -0.300661 4.101564
-4.586557 -0.218966 4.063281
-4.632391 -0.137267 4.025880
-4.678689 -0.055631 3.988914
-4.725192 0.025881 3.951933
-4.771641 0.107212 3.914487
-4.817776 0.188297 3.876134
-4.863493 0.269120 3.836741
-4.908905 0.349743 3.796590
-4.954144 0.430239 3.755992
-4.999346 0.510685 3.715253
-5.044645 0.591159 3.674679
-5.090151 0.671723 3.634516
-5.135864 0.752360 3.594737
-5.181757 0.833036 3.555246
-5.227802 0.913719 3.515945
-5.273972 0.994375 3.476737
-5.320241 1.074973 3.437526
-5.366586 1.155504 3.398267
-5.412989 1.235978 3.358959
-5.459432 1.316405 3.319603
-5.505898 1.396796 3.280200
-5.552368 1.477162 3.240750
-5.598848 1.557504 3.201264
-5.645402 1.637803 3.161777
-5.692109 1.718032 3.122330
-5.739047 1.798166 3.082963
-5.786293 1.878179 3.043717
-5.833905 1.958048 3.004624
-5.881737 2.037815 2.965591
-5.929510 2.117564 2.926444
-5.976937 2.197376 2.887010
-6.023733 2.277331 2.847116
-6.069607 2.357503 2.806592
-6.114316 2.437942 2.765301
-6.157999 2.518585 2.723316
-6.200976 2.599331 2.680802
-6.243574 2.680084 2.637921
-6.286119 2.760754 2.594832
-6.328937 2.841252 2.551692
-6.372251 2.921512 2.508603
-6.416025 3.001530 2.465530
-6.460189 3.081311 2.422414
-6.504672 3.160861 2.379201
-6.549404 3.240186 2.335832
-6.594321 3.319293 2.292254
-6.639426 3.398167 2.248450
-6.684757 3.476786 2.204422
-6.730355 3.555127 2.160173
-6.776257 3.633165 2.115706
-6.822503 3.710877 2.071024
-6.869122 3.788241 2.026126
-6.916125 3.865239 1.980999
-6.963522 3.941852 1.935630
-7.011323 4.018062 1.890007
-7.059535 4.093851 1.844116
-7.108169 4.169200 1.797946
-7.157241 4.244086 1.751488
-7.206767 4.318487 1.704733
-7.256762 4.392381 1.657675
-7.307244 4.465743 1.610305
-7.358228 4.538550 1.562617
-7.409728 4.610777 1.514603
-7.461757 4.682400 1.466256
-7.514328 4.753394 1.417569
-7.567453 4.823734 1.368535
-7.621145 4.893393 1.319147
-7.675413 4.962345 1.269399
-7.730270 5.030564 1.219287
-7.785725 5.098023 1.168807
-7.841790 5.164694 1.117954
-7.898472 5.230550 1.066726
-7.955782 5.295562 1.015119
-8.013727 5.359703 0.963132
-8.072313 5.422946 0.910765
-8.131546 5.485263 0.858017
-8.191433 5.546625 0.804890
-8.251978 5.607005 0.751384
-8.313183 5.666375 0.697502
-8.375053 5.724710 0.643248
-8.437587 5.781984 0.588628
-8.500787 5.838171 0.533645
-8.564653 5.893244 0.478308
-8.629185 5.947178 0.422621
-8.694379 5.999953 0.366596
-8.760231 6.051545 0.310241
-8.826738 6.101935 0.253567
-8.893896 6.151099 0.196585
-8.961698 6.199017 0.139305
-9.030137 6.245673 0.081742
-9.099205 6.291053 0.023910
-9.168892 6.335141 -0.034178
-9.239189 6.377922 -0.092506
-9.310088 6.419383 -0.151060
-9.381576 6.459513 -0.209825
-9.453641 6.498305 -0.268783
-9.526269 6.535752 -0.327919
-9.599447 6.571849 -0.387216
-9.673163 6.606587 -0.446659
-9.747402 6.639965 -0.506229
-9.822149 6.671982 -0.565912
-9.897387 6.702641 -0.625691
-9.973100 6.731942 -0.685551
-10.049274 6.759888 -0.745474
-10.125891 6.786481 -0.805447
-10.202936 6.811729 -0.865455
-10.280390 6.835640 -0.925482
-10.358237 6.858224 -0.985517
-10.436459 6.879488 -1.045545
-10.515041 6.899442 -1.105552
-10.593965 6.918099 -1.165529
-10.673214 6.935472 -1.225462
-10.752772 6.951575 -1.285341
-10.832621 6.966423 -1.345157
-10.912746 6.980029 -1.404898
-10.993132 6.992409 -1.464557
-11.073762 7.003581 -1.524124
-11.154621 7.013562 -1.583592
-11.235695 7.022368 -1.642954
-11.316968 7.030018 -1.702203
-11.398427 7.036529 -1.761332
-11.480058 7.041921 -1.820336
-11.561849 7.046211 -1.879211
-11.643785 7.049420 -1.937951
-11.725856 7.051565 -1.996552
-11.808050 7.052665 -2.055010
-11.890354 7.052741 -2.113322
-11.972759 7.051809 -2.171484
-12.055253 7.049889 -2.229495
-12.137828 7.047000 -2.287352
-12.220473 7.043160 -2.345053
-12.303179 7.038388 -2.402596
-12.385939 7.032704 -2.459979
-12.468743 7.026124 -2.517202
-12.551584 7.018668 -2.574264
-12.634455 7.010354 -2.631165
-1.184757 -1.294871 9.106058
-1.050057 -1.137983 9.063168
-0.926719 -0.971428 9.022737
-0.818982 -0.793679 8.985787
-0.733213 -0.603534 8.953909
-0.678436 -0.401401 8.929465
-0.665206 -0.191677 8.915416
-0.700587 0.015785 8.914094
-0.782269 0.209514 8.925480
-0.900075 0.382927 8.947267
-1.042784 0.535497 8.976569
-1.201968 0.669726 9.011075
-1.372154 0.788706 9.049207
-1.183459 -1.293406 9.105647
-1.051309 -1.139490 9.063569
-1.048806 -1.136475 9.062767
-0.927851 -0.973034 9.023112
-0.925586 -0.969823 9.022362
-0.819949 -0.795397 8.986125
-0.818016 -0.791961 8.985449
-0.733943 -0.605375 8.954192
-0.732484 -0.601694 8.953627
-0.678831 -0.403352 8.929666
-0.678042 -0.399451 8.929264
-0.665162 -0.193675 8.915506
-0.665250 -0.189680 8.915327
-0.700062 0.013856 8.914056
-0.701112 0.017714 8.914133
-0.781327 0.207757 8.925325
-0.783211 0.211272 8.925635
-0.898834 0.381378 8.947023
-0.901316 0.384477 8.947510
-1.041345 0.534141 8.976265
-1.044222 0.536853 8.976874
-1.200401 0.668533 9.010729
-1.203536 0.670919 9.011421
-1.370500 0.787646 9.048831
-1.177685 -1.286895 9.103819
-1.056873 -1.146194 9.065352
-1.043414 -1.129625 9.061021
-0.932886 -0.980171 9.024780
-0.920597 -0.962653 9.020704
-0.824246 -0.803036 8.987626
-0.813719 -0.784322 8.983948
-0.737186 -0.613559 8.955447
-0.729240 -0.593510 8.952371
-0.680585 -0.412023 8.930560
-0.676288 -0.390779 8.928370
-0.664964 -0.202556 8.915904
-0.665447 -0.180799 8.914928
-0.697726 0.005277 8.913884
-0.703448 0.026293 8.914305
-0.777140 0.199943 8.924634
-0.787398 0.219086 8.926326
-0.893317 0.374489 8.945940
-0.906834 0.391366 8.948593
-1.034950 0.528113 8.974910
-1.050617 0.542881 8.978228
-1.193431 0.663230 9.009189
-1.210506 0.676223 9.012961
-1.363146 0.782935 9.047161
-1.163435 -1.270826 9.099309
-1.144536 -1.249514 9.093326
-1.125637 -1.228201 9.087344
-1.107032 -1.206619 9.081425
-1.088819 -1.184678 9.075588
-1.070605 -1.162737 9.069752
-1.030283 -1.112567 9.056751
-1.012867 -1.089944 9.051087
-0.995451 -1.067321 9.045424
-0.978274 -1.044509 9.039812
-0.961793 -1.021147 9.034354
-0.945312 -0.997785 9.028895
-0.909003 -0.944439 9.016774
-0.893626 -0.920282 9.011562
-0.878249 -0.896124 9.006350
-0.862977 -0.871899 9.001161
-0.848913 -0.846894 8.996246
-0.834849 -0.821889 8.991332
-0.804089 -0.764919 8.980467
-0.791594 -0.739028 8.975915
-0.779099 -0.713137 8.971362
-0.766604 -0.687246 8.966810
-0.755809 -0.660543 8.962657
-0.745191 -0.633756 8.958547
-0.722235 -0.572930 8.949512
-0.713857 -0.545285 8.945939
-0.705479 -0.517640 8.942366
-0.697101 -0.489995 8.938793
-0.690653 -0.461809 8.935693
-0.684913 -0.433424 8.932767
-0.672790 -0.369237 8.926372
-0.670081 -0.340338 8.924207
-0.667372 -0.311439 8.922041
-0.664664 -0.282539 8.919875
-0.663833 -0.253544 8.918192
-0.664478 -0.224474 8.916888
-0.666296 -0.158908 8.914040
-0.670463 -0.130103 8.913663
-0.674630 -0.101299 8.913286
-0.678796 -0.072495 8.912909
-0.684317 -0.043973 8.912898
-0.691962 -0.015894 8.913460
-0.709212 0.047464 8.914728
-0.719865 0.074500 8.916124
-0.730736 0.101461 8.917580
-0.741608 0.128422 8.919035
-0.753098 0.155081 8.920667
-0.766805 0.180658 8.922929
-0.797733 0.238371 8.928031
-0.813258 0.262801 8.930823
-0.829355 0.286870 8.933781
-0.845452 0.310939 8.936739
-0.861639 0.334939 8.939724
-0.879700 0.357488 8.943268
-0.920451 0.408367 8.951265
-0.939445 0.430059 8.955095
-0.959096 0.451150 8.959126
-0.978747 0.472240 8.963157
-0.998397 0.493330 8.967188
-1.019167 0.513236 8.971569
-1.066401 0.557758 8.981570
-1.087762 0.576976 8.986139
-1.109733 0.595464 8.990903
-1.131703 0.613952 8.995668
-1.153673 0.632440 9.000432
-1.176231 0.650141 9.005389
-1.227706 0.689312 9.016761
-1.250683 0.706428 9.021856
-1.274187 0.722769 9.027127
-1.297690 0.739109 9.032398
-1.321193 0.755450 9.037668
-1.344995 0.771309 9.043041
25 NaN NaN
-1.185082 -1.295237 9.106160
-1.114855 -1.216043 9.083931
-1.047178 -1.134515 9.062246
-0.982466 -1.050453 9.041201
-0.921229 -0.963647 9.020919
-0.864096 -0.873888 9.001552
-0.811842 -0.780984 8.983292
-0.765419 -0.684792 8.966378
-0.725976 -0.585276 8.951107
-0.694855 -0.482583 8.937835
-0.673532 -0.377154 8.926966
-0.663472 -0.269823 8.918922
-0.665867 -0.161868 8.914079
-0.681341 -0.054903 8.912679
-0.709731 0.049370 8.914767
-0.750107 0.149498 8.920174
-0.801017 0.244499 8.928573
-0.860812 0.333906 8.939561
-0.927905 0.417674 8.952728
-1.000912 0.496029 8.967703
-1.078688 0.569340 8.984171
-1.160319 0.638033 9.001873
-1.245084 0.702536 9.020600
-1.332416 0.763252 9.040185
-1.421869 0.820550 9.060493
-1.465881 -1.409350 7.881710
-1.366318 -1.316003 7.854169
-1.270091 -1.219045 7.827289
-1.177831 -1.118096 7.801207
-1.091205 -1.012011 7.776280
-1.010967 -0.900743 7.752686
-0.938340 -0.784060 7.730710
-0.876372 -0.661031 7.711049
-0.827707 -0.531785 7.694343
-0.794188 -0.397470 7.681078
-0.779706 -0.259479 7.672244
-0.787785 -0.120745 7.668802
-0.816121 0.015313 7.670329
-0.863541 0.145885 7.676654
-0.929421 0.267919 7.687746
-1.007749 0.381996 7.702136
-1.095957 0.488282 7.719203
-1.192949 0.586200 7.738704
-1.295832 0.677546 7.759876
-1.403274 0.763167 7.782365
-1.464442 -1.408019 7.881312
-1.367721 -1.317374 7.854559
-1.364916 -1.314631 7.853778
-1.271451 -1.220461 7.827670
-1.268731 -1.217629 7.826907
-1.179143 -1.119560 7.801579
-1.176520 -1.116633 7.800835
-1.092392 -1.013583 7.776626
-1.090019 -1.010438 7.775934
-1.012073 -0.902377 7.753015
-1.009861 -0.899110 7.752357
-0.939350 -0.785759 7.731019
-0.937330 -0.782362 7.730402
-0.877130 -0.662864 7.711302
-0.875613 -0.659198 7.710796
-0.828303 -0.533682 7.694559
-0.827111 -0.529888 7.694126
-0.794594 -0.399420 7.681251
-0.793782 -0.395519 7.680905
-0.779665 -0.261478 7.672312
-0.779747 -0.257481 7.672176
-0.787505 -0.122726 7.668811
-0.788066 -0.118765 7.668792
-0.815610 0.013380 7.670281
-0.816631 0.017246 7.670377
-0.862635 0.144109 7.676506
-0.864447 0.147662 7.676803
-0.928360 0.266235 7.687556
-0.930483 0.269604 7.687935
-1.006559 0.380404 7.701912
-1.008939 0.383587 7.702360
-1.094662 0.486779 7.718950
-1.097252 0.489785 7.719456
-1.191497 0.584857 7.738407
-1.194401 0.587543 7.739001
-1.294322 0.676273 7.759562
-1.297342 0.678819 7.760189
-1.401716 0.761957 7.782037
-1.459857 -1.403777 7.880046
-1.372189 -1.321746 7.855802
-1.360447 -1.310260 7.852535
-1.275785 -1.224973 7.828887
-1.264397 -1.213118 7.825691
-1.183321 -1.124225 7.802764
-1.172377 -1.111936 7.799658
-1.096172 -1.018594 7.777728
-1.086239 -1.005427 7.774831
-1.015598 -0.907582 7.754064
-1.006336 -0.893905 7.751308
-0.942570 -0.791170 7.732002
-0.934110 -0.776951 7.729418
-0.879548 -0.668705 7.712110
-0.873195 -0.653356 7.709988
-0.830202 -0.539727 7.695250
-0.825212 -0.523844 7.693435
-0.795888 -0.405636 7.681803
-0.792487 -0.389303 7.680352
-0.779533 -0.267846 7.672527
-0.779879 -0.251113 7.671961
-0.786613 -0.129036 7.668842
-0.788958 -0.112455 7.668761
-0.813982 0.007220 7.670129
-0.818260 0.023406 7.670529
-0.860221 0.138226 7.676154
-0.867333 0.153324 7.677277
-0.924978 0.260867 7.686952
-0.933865 0.274972 7.688540
-1.002767 0.375331 7.701198
-1.012730 0.388660 7.703074
-1.090534 0.481990 7.718144
-1.101554 0.494405 7.720310
-1.186869 0.580578 7.737462
-1.199028 0.591823 7.739946
-1.289509 0.672216 7.758564
-1.302155 0.682876 7.761188
-1.396748 0.758104 7.780994
-1.449591 -1.394280 7.877211
-1.436072 -1.381774 7.873478
-1.422553 -1.369268 7.869745
-1.409035 -1.356762 7.866012
-1.395516 -1.344256 7.862279
-1.382194 -1.331532 7.858585
-1.350443 -1.300474 7.849752
-1.337268 -1.287587 7.846087
-1.324093 -1.274699 7.842422
-1.311046 -1.261678 7.838782
-1.298268 -1.248376 7.835196
-1.285489 -1.235074 7.831610
-1.254694 -1.203017 7.822968
-1.241949 -1.189681 7.819388
-1.229630 -1.175928 7.815895
-1.217312 -1.162175 7.812402
-1.204993 -1.148422 7.808909
-1.192675 -1.134668 7.805416
-1.163432 -1.101120 7.797089
-1.151652 -1.086876 7.793706
-1.139871 -1.072633 7.790324
-1.128091 -1.058389 7.786941
-1.116311 -1.044145 7.783558
-1.104635 -1.029814 7.780197
-1.077775 -0.994207 7.772362
-1.066629 -0.979432 7.769111
-1.055484 -0.964657 7.765861
-1.044338 -0.949882 7.762610
-1.033882 -0.934583 7.759504
-1.023490 -0.919236 7.756412
-0.998444 -0.882251 7.748960
-0.988052 -0.866904 7.745868
-0.978259 -0.851151 7.742904
-0.968766 -0.835196 7.740004
-0.959272 -0.819241 7.737104
-0.949779 -0.803286 7.734204
-0.927352 -0.764570 7.727314
-0.918935 -0.747982 7.724648
-0.910519 -0.731395 7.721983
-0.902102 -0.714807 7.719317
-0.893686 -0.698219 7.716652
-0.885269 -0.681631 7.713986
-0.867782 -0.640278 7.708180
-0.860654 -0.623055 7.705799
-0.853526 -0.605833 7.703419
-0.846398 -0.588610 7.701038
-0.840053 -0.571081 7.698833
-0.834454 -0.553259 7.696797
-0.820961 -0.510311 7.691889
-0.815361 -0.492490 7.689852
-0.810235 -0.474535 7.687923
-0.806419 -0.456207 7.686295
-0.802603 -0.437880 7.684668
-0.798786 -0.419553 7.683040
-0.789626 -0.375380 7.679125
-0.787828 -0.356711 7.677968
-0.786029 -0.338042 7.676812
-0.784231 -0.319373 7.675655
-0.782432 -0.300704 7.674499
-0.780634 -0.282035 7.673342
-0.780173 -0.236855 7.671478
-0.780561 -0.218079 7.670843
-0.780948 -0.199303 7.670207
-0.781336 -0.180526 7.669572
-0.781984 -0.161770 7.669000
-0.784615 -0.143164 7.668910
-0.790956 -0.098327 7.668693
-0.793587 -0.079721 7.668603
-0.796218 -0.061115 7.668513
-0.800736 -0.042896 7.668892
-0.805536 -0.024734 7.669340
-0.810337 -0.006572 7.669789
-0.821905 0.037197 7.670869
-0.827941 0.054945 7.671631
-0.834723 0.072444 7.672581
-0.841506 0.089942 7.673532
-0.848288 0.107440 7.674482
-0.855071 0.124939 7.675432
-0.873797 0.166001 7.678338
-0.882309 0.182695 7.679735
-0.890820 0.199390 7.681132
-0.899332 0.216084 7.682529
-0.907844 0.232778 7.683926
-0.917406 0.248848 7.685599
-0.941437 0.286990 7.689892
-0.951408 0.302817 7.691674
-0.961379 0.318644 7.693455
-0.971921 0.334061 7.695389
-0.983100 0.349017 7.697494
-0.994279 0.363974 7.699600
-1.021219 0.400017 7.704673
-1.032619 0.414787 7.706839
-1.044788 0.428907 7.709214
-1.056957 0.443027 7.711590
-1.069125 0.457148 7.713965
-1.081294 0.471268 7.716340
-1.111409 0.504534 7.722284
-1.124387 0.517872 7.724884
-1.137365 0.531210 7.727485
-1.150343 0.544548 7.730085
-1.163322 0.557886 7.732685
-1.176510 0.570996 7.735345
-1.209387 0.601404 7.742063
-1.223030 0.614022 7.744851
-1.236672 0.626640 7.747639
-1.250351 0.639214 7.750437
-1.264542 0.651174 7.753382
-1.278733 0.663134 7.756327
-1.312931 0.691958 7.763424
-1.327122 0.703918 7.766370
-1.341686 0.715389 7.769423
-1.356332 0.726751 7.772501
-1.370979 0.738113 7.775579
-1.385626 0.749476 7.778656
26 NaN NaN
-1.466241 -1.409682 7.881809
-1.389733 -1.338906 7.860682
-1.315172 -1.265973 7.839940
-1.242855 -1.190693 7.819645
-1.173142 -1.112861 7.799878
-1.106477 -1.032255 7.780734
-1.043404 -0.948644 7.762337
-0.984594 -0.861798 7.744839
-0.930876 -0.771515 7.728430
-0.883253 -0.677657 7.713347
-0.842923 -0.580214 7.699877
-0.811247 -0.479393 7.688355
-0.789659 -0.375720 7.679146
-0.779486 -0.270123 7.672604
-0.781679 -0.163926 7.669010
-0.796560 -0.058695 7.668502
-0.823711 0.044032 7.671038
-0.862077 0.143015 7.676414
-0.910230 0.237457 7.684317
-0.966645 0.327002 7.694396
-1.029897 0.411628 7.706307
-1.098753 0.491527 7.719749
-1.172193 0.567003 7.734463
-1.249394 0.638407 7.750239
-1.329700 0.706091 7.766905
-1.412588 0.770392 7.784322
-1.844117 -1.440676 6.677613
-1.726966 -1.368612 6.672099
-1.611640 -1.293618 6.667364
-1.498476 -1.215352 6.663517
-1.388167 -1.133073 6.660790
-1.281485 -1.046121 6.659415
-1.178983 -0.954285 6.659510
-1.081754 -0.856901 6.661357
-0.992686 -0.752111 6.665712
-0.913332 -0.639991 6.672799
-0.846568 -0.520226 6.683109
-0.797424 -0.392675 6.697432
-0.772005 -0.259034 6.716408
-0.770955 -0.123711 6.739381
-0.794460 0.009052 6.765654
-0.842587 0.134538 6.794431
-0.908412 0.251458 6.824438
-0.987233 0.359953 6.854983
-1.076224 0.460299 6.885682
-1.173426 0.552789 6.916289
-1.276033 0.639317 6.946700
-1.382908 0.720626 6.976868
-1.842410 -1.439636 6.677531
-1.728652 -1.369685 6.672172
-1.725280 -1.367539 6.672026
-1.613302 -1.294728 6.667427
-1.609978 -1.292507 6.667300
-1.500111 -1.216503 6.663569
-1.496841 -1.214201 6.663464
-1.389731 -1.134319 6.660815
-1.386602 -1.131827 6.660765
-1.283004 -1.047422 6.659424
-1.279966 -1.044820 6.659406
-1.180447 -0.955648 6.659500
-1.177519 -0.952922 6.659521
-1.083150 -0.858332 6.661325
-1.080357 -0.855469 6.661389
-0.993894 -0.753703 6.665624
-0.991479 -0.750519 6.665801
-0.914408 -0.641672 6.672675
-0.912256 -0.638309 6.672923
-0.847477 -0.521999 6.682944
-0.845659 -0.518452 6.683274
-0.797876 -0.394605 6.697171
-0.796971 -0.390744 6.697694
-0.772173 -0.261002 6.716097
-0.771836 -0.257065 6.716719
-0.770825 -0.125675 6.739025
-0.771086 -0.121748 6.739737
-0.794041 0.007136 6.765263
-0.794878 0.010968 6.766045
-0.841699 0.132799 6.793998
-0.843476 0.136276 6.794863
-0.907350 0.249821 6.823996
-0.909473 0.253095 6.824879
-0.986034 0.358415 6.854537
-0.988432 0.361491 6.855428
-1.074830 0.458935 6.885237
-1.077618 0.461662 6.886128
-1.171963 0.551499 6.915846
-1.174889 0.554078 6.916732
-1.274513 0.638094 6.946259
-1.277553 0.640540 6.947140
-1.381342 0.719462 6.976430
-1.837019 -1.436353 6.677271
-1.733979 -1.373076 6.672403
-1.719954 -1.364148 6.671795
-1.618554 -1.298235 6.667627
-1.604726 -1.289000 6.667100
-1.505275 -1.220138 6.663733
-1.491677 -1.210565 6.663300
-1.394674 -1.138254 6.660895
-1.381660 -1.127892 6.660685
-1.287803 -1.051532 6.659451
-1.275168 -1.040710 6.659378
-1.185071 -0.959953 6.659468
-1.172895 -0.948617 6.659553
-1.087560 -0.862855 6.661223
-1.076157 -0.850755 6.661556
-0.997709 -0.758731 6.665345
-0.987663 -0.745491 6.666079
-0.917805 -0.646984 6.672285
-0.908859 -0.632997 6.673314
-0.850349 -0.527603 6.682424
-0.842787 -0.512848 6.683795
-0.799306 -0.400704 6.696346
-0.795542 -0.384646 6.698519
-0.772706 -0.267221 6.715115
-0.771304 -0.250847 6.717701
-0.770413 -0.131879 6.737902
-0.771498 -0.115544 6.740860
-0.792719 0.001082 6.764027
-0.796428 0.016950 6.767304
-0.838891 0.127306 6.792632
-0.846284 0.141769 6.796230
-0.903997 0.244651 6.822602
-0.912826 0.258265 6.826273
-0.982248 0.353557 6.853130
-0.992218 0.366349 6.856835
-1.070492 0.454565 6.883830
-1.082020 0.465970 6.887534
-1.167341 0.547426 6.914446
-1.179511 0.558152 6.918132
-1.269712 0.634230 6.944868
-1.282354 0.644405 6.948532
-1.376393 0.715785 6.975048
-1.824987 -1.429024 6.676693
-1.809145 -1.419376 6.675931
-1.793304 -1.409727 6.675169
-1.777463 -1.400078 6.674407
-1.761622 -1.390430 6.673645
-1.745865 -1.380642 6.672919
-1.708068 -1.356582 6.671279
-1.692418 -1.346620 6.670599
-1.676768 -1.336658 6.669920
-1.661133 -1.326673 6.669247
-1.645703 -1.316367 6.668660
-1.630273 -1.306062 6.668073
-1.593007 -1.281173 6.666654
-1.577577 -1.270868 6.666067
-1.562324 -1.260301 6.665552
-1.547150 -1.249618 6.665068
-1.531975 -1.238935 6.664584
-1.516801 -1.228252 6.664101
-1.480247 -1.202318 6.662970
-1.465372 -1.191218 6.662603
-1.450496 -1.180118 6.662236
-1.435621 -1.169018 6.661869
-1.420745 -1.157918 6.661502
-1.405870 -1.146818 6.661135
-1.370631 -1.119110 6.660508
-1.356109 -1.107548 6.660274
-1.341587 -1.095985 6.660040
-1.327066 -1.084423 6.659806
-1.312609 -1.072781 6.659595
-1.298511 -1.060705 6.659513
-1.264460 -1.031537 6.659316
-1.250361 -1.019460 6.659234
-1.236263 -1.007384 6.659153
-1.222563 -0.994860 6.659208
-1.208977 -0.982210 6.659302
-1.195390 -0.969561 6.659397
-1.162576 -0.939009 6.659624
-1.149243 -0.926101 6.659801
-1.136283 -0.912812 6.660100
-1.123323 -0.899524 6.660399
-1.110364 -0.886236 6.660698
-1.097404 -0.872948 6.660996
-1.066904 -0.840124 6.661965
-1.054721 -0.826127 6.662503
-1.042538 -0.812130 6.663041
-1.030355 -0.798134 6.663579
-1.018172 -0.784137 6.664117
-1.006224 -0.769953 6.664723
-0.979149 -0.734269 6.666702
-0.967939 -0.719495 6.667521
-0.956729 -0.704721 6.668340
-0.945518 -0.689946 6.669159
-0.935372 -0.674448 6.670264
-0.925388 -0.658840 6.671412
-0.901276 -0.621142 6.674186
-0.891292 -0.605533 6.675334
-0.882072 -0.589502 6.676671
-0.873634 -0.573037 6.678202
-0.865196 -0.556573 6.679732
-0.856758 -0.540108 6.681262
-0.836613 -0.500245 6.685009
-0.830097 -0.482972 6.686970
-0.823582 -0.465700 6.688931
-0.817066 -0.448428 6.690892
-0.810551 -0.431156 6.692853
-0.804035 -0.413884 6.694813
-0.792352 -0.371035 6.700360
-0.788152 -0.353116 6.702783
-0.783952 -0.335196 6.705207
-0.779751 -0.317277 6.707631
-0.775551 -0.299358 6.710055
-0.773894 -0.281098 6.712924
-0.770115 -0.236969 6.719892
-0.768551 -0.218697 6.722778
-0.766986 -0.200426 6.725663
-0.767073 -0.182180 6.728795
-0.768284 -0.163952 6.732095
-0.769494 -0.145724 6.735396
-0.772417 -0.101699 6.743366
-0.774230 -0.083571 6.746741
-0.778115 -0.065785 6.750373
-0.781999 -0.047999 6.754005
-0.785884 -0.030213 6.757636
-0.789769 -0.012427 6.761268
-0.801183 0.029895 6.770240
-0.807444 0.046938 6.774107
-0.813706 0.063981 6.777973
-0.819967 0.081024 6.781840
-0.826228 0.098068 6.785706
-0.832626 0.115049 6.789583
-0.852549 0.154027 6.799279
-0.860798 0.170166 6.803293
-0.869047 0.186304 6.807308
-0.877296 0.202443 6.811322
-0.886662 0.217922 6.815394
-0.896514 0.233113 6.819491
-0.920309 0.269803 6.829385
-0.930161 0.284994 6.833481
-0.940425 0.299889 6.837590
-0.951550 0.314164 6.841723
-0.962674 0.328439 6.845857
-0.973799 0.342714 6.849991
-1.000667 0.377192 6.859974
-1.012749 0.390661 6.864116
-1.024881 0.404088 6.868258
-1.037013 0.417514 6.872400
-1.049145 0.430941 6.876542
-1.061278 0.444367 6.880684
-1.091844 0.475585 6.890673
-1.104779 0.488243 6.894806
-1.117714 0.500901 6.898939
-1.130649 0.513559 6.903072
-1.143584 0.526218 6.907204
-1.157026 0.538334 6.911322
-1.189826 0.567243 6.921257
-1.203407 0.579212 6.925370
-1.216988 0.591182 6.929483
-1.230785 0.602898 6.933586
-1.244891 0.614252 6.937675
-1.258998 0.625606 6.941763
-1.293068 0.653028 6.951637
-1.307190 0.664362 6.955724
-1.321730 0.675166 6.959784
-1.336270 0.685971 6.963844
-1.350810 0.696775 6.967904
-1.365350 0.707579 6.971965
28 NaN NaN
-1.844543 -1.440936 6.677633
-1.752819 -1.385068 6.673221
-1.662202 -1.327387 6.669288
-1.572860 -1.267718 6.665888
-1.484997 -1.205863 6.663087
-1.398867 -1.141593 6.660963
-1.314786 -1.074646 6.659608
-1.233156 -1.004723 6.659135
-1.154492 -0.931483 6.659680
-1.079460 -0.854549 6.661410
-1.008928 -0.773517 6.664526
-0.944033 -0.687988 6.669268
-0.886243 -0.597639 6.675915
-0.837406 -0.502349 6.684771
-0.799704 -0.402402 6.696117
-0.775403 -0.298727 6.710140
-0.766353 -0.193028 6.726831
-0.773354 -0.087581 6.745922
-0.795828 0.015318 6.766933
-0.832058 0.113938 6.789307
-0.879799 0.207340 6.812541
-0.936826 0.295271 6.836253
-1.001225 0.377908 6.860182
-1.071463 0.455639 6.884161
-1.146350 0.528925 6.908088
-1.224980 0.598225 6.931904
-1.306656 0.663965 6.955575
-1.390841 0.726521 6.979083
-1.764724 -1.518395 5.165655
-1.503979 -1.353738 5.259950
-1.255854 -1.173650 5.359789
-1.027320 -0.973061 5.466742
-0.832079 -0.744703 5.582733
-0.698525 -0.481037 5.708494
-0.674499 -0.189253 5.836667
-0.784096 0.089979 5.947546
-0.986771 0.325002 6.031056
-1.236662 0.518735 6.092536
-1.763086 -1.517401 5.166229
-1.505573 -1.354789 5.259354
-1.502385 -1.352687 5.260545
-1.257355 -1.174809 5.359155
-1.254352 -1.172491 5.360423
-1.028672 -0.974367 5.466058
-1.025969 -0.971756 5.467426
-0.833163 -0.746209 5.581986
-0.830995 -0.743197 5.583479
-0.699093 -0.482778 5.707691
-0.697957 -0.479295 5.709296
-0.674223 -0.191080 5.835903
-0.674775 -0.187426 5.837432
-0.783051 0.088382 5.946948
-0.785141 0.091577 5.948143
-0.985317 0.323698 6.030622
-0.988225 0.326305 6.031490
-1.235011 0.517653 6.092215
-1.752614 -1.511049 5.169904
-1.515765 -1.361509 5.255546
-1.492274 -1.345868 5.264389
-1.266955 -1.182221 5.355100
-1.244752 -1.165079 5.364478
-1.037314 -0.982717 5.461683
-1.017327 -0.963406 5.471801
-0.840093 -0.755838 5.577211
-0.824066 -0.733569 5.588254
-0.702728 -0.493913 5.702558
-0.694322 -0.468161 5.714429
-0.672456 -0.202763 5.831013
-0.676542 -0.175742 5.842322
-0.776370 0.078168 5.943130
-0.791822 0.101790 5.951961
-0.976022 0.315366 6.027849
-0.997521 0.334638 6.034263
-1.224453 0.510735 6.090165
-1.724919 -1.494248 5.179622
-1.688019 -1.471863 5.192571
-1.651412 -1.449085 5.205663
-1.614974 -1.426081 5.218837
-1.578632 -1.402955 5.232056
-1.542718 -1.379278 5.245475
-1.465770 -1.327545 5.274659
-1.430455 -1.303131 5.288343
-1.395438 -1.278366 5.302152
-1.360812 -1.253143 5.316125
-1.326186 -1.227919 5.330097
-1.292342 -1.201821 5.344377
-1.220005 -1.144804 5.375435
-1.187115 -1.117700 5.390065
-1.154479 -1.090344 5.404781
-1.122698 -1.062144 5.419787
-1.090918 -1.033943 5.434792
-1.060168 -1.004797 5.450115
-0.995245 -0.940676 5.483582
-0.966404 -0.909899 5.499439
-0.937614 -0.879084 5.515308
-0.910748 -0.846804 5.531639
-0.883882 -0.814525 5.547969
-0.858418 -0.781301 5.564583
-0.806586 -0.707616 5.601018
-0.785226 -0.671919 5.618336
-0.763866 -0.636222 5.635654
-0.745655 -0.599027 5.653339
-0.728118 -0.561512 5.671102
-0.712338 -0.523359 5.688985
-0.685147 -0.438609 5.728009
-0.678031 -0.397996 5.746185
-0.670914 -0.357382 5.764361
-0.667852 -0.316314 5.782373
-0.667224 -0.274972 5.800286
-0.667784 -0.233661 5.818082
-0.681214 -0.144845 5.855253
-0.693255 -0.104656 5.871543
-0.706092 -0.064600 5.887705
-0.721435 -0.025331 5.903304
-0.740127 0.012887 5.918152
-0.758818 0.051105 5.933000
-0.809490 0.128801 5.962058
-0.835659 0.163205 5.974594
-0.863058 0.196868 5.986700
-0.891145 0.230019 5.998525
-0.921556 0.261442 6.009396
-0.951966 0.292866 6.020268
-1.022103 0.356674 6.041598
-1.055736 0.385145 6.050908
-1.090324 0.412650 6.059715
-1.124951 0.440112 6.068500
-1.160990 0.465961 6.076464
-1.197030 0.491810 6.084427
29 NaN NaN
-1.765134 -1.518643 5.165511
-1.674591 -1.463718 5.197282
-1.585185 -1.407275 5.229608
-1.497065 -1.349180 5.262533
-1.410416 -1.289277 5.296108
-1.325456 -1.227387 5.330392
-1.242458 -1.163308 5.365446
-1.161760 -1.096805 5.401344
-1.083785 -1.027614 5.438160
-1.009072 -0.955431 5.475979
-0.938313 -0.879923 5.514883
-0.872402 -0.800732 5.554948
-0.812501 -0.717500 5.596223
-0.760106 -0.629938 5.638702
-0.717094 -0.537929 5.682268
-0.685692 -0.441718 5.726618
-0.668244 -0.342145 5.771180
-0.666705 -0.240801 5.815093
-0.681964 -0.139886 5.857328
-0.713434 -0.041690 5.896949
-0.759264 0.052018 5.933354
-0.816997 0.140277 5.966349
-0.884201 0.222843 5.996042
-0.958799 0.299927 6.022710
-1.039153 0.371958 6.046685
-1.124010 0.439437 6.068293
-1.212432 0.502857 6.087830
-1.303707 0.562668 6.105556
-1.397299 0.619268 6.121688
-1.434655 -1.501560 4.765170
-1.252257 -1.324301 4.762614
-1.081181 -1.136121 4.762538
-0.927064 -0.933927 4.765928
-0.800782 -0.713633 4.774488
-0.719277 -0.473961 4.790333
-0.713748 -0.222603 4.816297
-0.801990 0.011398 4.851385
-0.961516 0.204361 4.890462
-1.162331 0.354853 4.929868
-1.382980 0.475076 4.968389
-1.433198 -1.500190 4.765145
-1.253648 -1.325738 4.762625
-1.250867 -1.322864 4.762604
-1.082481 -1.137641 4.762529
-1.079881 -1.134602 4.762547
-0.928150 -0.935606 4.765877
-0.925979 -0.932248 4.765979
-0.801628 -0.715443 4.774395
-0.799936 -0.711823 4.774580
-0.719745 -0.475900 4.790182
-0.718809 -0.472023 4.790484
-0.713332 -0.224542 4.816043
-0.714165 -0.220663 4.816551
-0.800985 0.009695 4.851088
-0.802995 0.013101 4.851683
-0.960122 0.202960 4.890151
-0.962910 0.205761 4.890773
-1.160646 0.353819 4.929562
-1.164015 0.355887 4.930175
-1.381200 0.474215 4.968090
-1.425616 -1.493068 4.765013
-1.260883 -1.333214 4.762679
-1.243632 -1.315388 4.762550
-1.089245 -1.145546 4.762483
-1.073117 -1.126697 4.762593
-0.933839 -0.944311 4.765620
-0.920331 -0.923514 4.766243
-0.806030 -0.724857 4.773913
-0.795534 -0.702409 4.775062
-0.722179 -0.485985 4.789399
-0.716375 -0.461938 4.791267
-0.711165 -0.234632 4.814722
-0.716332 -0.210574 4.817873
-0.795756 0.000836 4.849538
-0.808225 0.021961 4.853232
-0.952872 0.195677 4.888532
-0.970604 0.212558 4.892392
-1.151885 0.348439 4.927968
-1.172776 0.361266 4.931768
-1.371941 0.469733 4.966533
-1.406265 -1.474890 4.764675
-1.380542 -1.450725 4.764226
-1.354859 -1.426519 4.763787
-1.329683 -1.401783 4.763462
-1.304506 -1.377047 4.763138
-1.279348 -1.352294 4.762818
-1.225167 -1.296308 4.762411
-1.200762 -1.270813 4.762257
-1.176950 -1.244759 4.762232
-1.153139 -1.218704 4.762207
-1.129454 -1.192538 4.762208
-1.106507 -1.165720 4.762365
-1.056173 -1.106261 4.762776
-1.034255 -1.078597 4.763142
-1.012337 -1.050934 4.763509
-0.990748 -1.023022 4.763940
-0.970071 -0.994423 4.764551
-0.949393 -0.965825 4.765161
-0.905917 -0.901226 4.766918
-0.886756 -0.871597 4.767815
-0.868316 -0.841538 4.768841
-0.851032 -0.810788 4.770076
-0.833749 -0.780038 4.771311
-0.817263 -0.748884 4.772682
-0.784300 -0.678382 4.776293
-0.770857 -0.645840 4.778166
-0.758884 -0.612704 4.780275
-0.746911 -0.579567 4.782383
-0.736647 -0.545936 4.784744
-0.728390 -0.511722 4.787401
-0.713010 -0.435741 4.793647
-0.709312 -0.400792 4.796914
-0.705615 -0.365843 4.800182
-0.705015 -0.330839 4.803818
-0.706640 -0.295797 4.807718
-0.708265 -0.260754 4.811617
-0.721862 -0.184824 4.821245
-0.729213 -0.150595 4.825728
-0.740487 -0.117602 4.830539
-0.753388 -0.085122 4.835486
-0.766288 -0.052643 4.840432
-0.782410 -0.021775 4.845584
-0.821570 0.044572 4.857186
-0.842542 0.072388 4.862582
-0.864170 0.099748 4.868007
-0.885799 0.127109 4.873432
-0.909768 0.152380 4.878910
-0.934367 0.177089 4.884401
-0.990779 0.229318 4.896525
-1.017599 0.251597 4.902018
-1.044418 0.273876 4.907512
-1.072742 0.294201 4.912975
-1.101219 0.314328 4.918434
-1.129695 0.334455 4.923894
-1.195136 0.374996 4.935836
-1.224885 0.393202 4.941241
-1.255560 0.409824 4.946586
-1.286235 0.426445 4.951932
-1.316911 0.443067 4.957277
-1.348310 0.458295 4.962560
25 NaN NaN
-1.435020 -1.501902 4.765177
-1.356702 -1.428329 4.763811
-1.280049 -1.353018 4.762823
-1.205317 -1.275797 4.762262
-1.132821 -1.196473 4.762185
-1.062958 -1.114824 4.762662
-0.996228 -1.030603 4.763778
-0.933279 -0.943536 4.765637
-0.874948 -0.853337 4.768367
-0.822335 -0.759731 4.772127
-0.776880 -0.662513 4.777105
-0.740443 -0.561664 4.783522
-0.715318 -0.457558 4.791607
-0.704069 -0.351238 4.801548
-0.709012 -0.244659 4.813409
-0.731368 -0.140562 4.827042
-0.770603 -0.041779 4.842087
-0.824572 0.049657 4.858075
-0.890383 0.132907 4.874582
-0.965246 0.208107 4.891294
-1.046879 0.275920 4.908016
-1.133563 0.337189 4.924636
-1.224049 0.392749 4.941095
-1.317437 0.443352 4.957369
-1.413071 0.489641 4.973449
-0.924463 -1.324386 3.309030
-0.619111 -0.412969 3.261973
-1.071367 0.356388 3.520991
-0.923489 -1.322658 3.308774
-0.619211 -0.414961 3.261837
-0.619010 -0.410976 3.262109
-1.069827 0.355348 3.520251
-0.913057 -1.304175 3.306036
-0.620288 -0.436284 3.260386
-0.619818 -0.389730 3.264347
-1.053352 0.344226 3.512325
-0.867523 -1.222903 3.294138
-0.801085 -1.091637 3.277910
-0.741286 -0.956890 3.264788
-0.690545 -0.818176 3.255830
-0.651680 -0.675472 3.252226
-0.626322 -0.529768 3.254573
-0.625430 -0.296609 3.275027
-0.656294 -0.154409 3.300717
-0.709580 -0.021012 3.335054
-0.784211 0.099324 3.377205
-0.877224 0.203553 3.425652
-0.981873 0.294134 3.477775
21 NaN NaN
-0.924707 -1.324817 3.309094
-0.871562 -1.230648 3.295146
-0.821479 -1.134616 3.282652
-0.774972 -1.036605 3.271840
-0.732676 -0.936515 3.262985
-0.695381 -0.834287 3.256426
-0.664061 -0.729944 3.252569
-0.639902 -0.623654 3.251900
-0.624305 -0.515828 3.254970
-0.618821 -0.407239 3.262363
-0.624976 -0.299142 3.274610
-0.643951 -0.193283 3.292050
-0.676200 -0.091715 3.314693
-0.721212 0.003626 3.342149
-0.777602 0.091352 3.373712
-0.843508 0.170842 3.408543
-0.917009 0.242153 3.445840
-0.996407 0.305782 3.484931
-1.080330 0.362439 3.525303
-1.167715 0.412882 3.566577
-1.257763 0.457835 3.608481
-0.643269 -1.097243 1.789501
-0.537624 -0.762292 1.802612
-0.504701 -0.414549 1.834307
-0.578070 -0.077047 1.889881
-0.765026 0.208851 1.966360
-1.029280 0.423025 2.052913
-0.642557 -1.095375 1.789545
-0.538024 -0.764248 1.802485
-0.537224 -0.760337 1.802740
-0.504623 -0.416533 1.834064
-0.504780 -0.412565 1.834551
-0.577372 -0.078884 1.889508
-0.578768 -0.075210 1.890254
-0.763646 0.207485 1.965880
-0.766406 0.210217 1.966840
-1.027633 0.422008 2.052409
-0.637633 -1.082468 1.789849
-0.540787 -0.777758 1.801603
-0.534461 -0.746827 1.803621
-0.504081 -0.430237 1.832381
-0.505322 -0.398861 1.836233
-0.572550 -0.091574 1.886933
-0.583590 -0.062520 1.892830
-0.754616 0.197566 1.962627
-0.775939 0.219654 1.970157
-1.016256 0.414980 2.048932
-0.624464 -1.047946 1.790663
-0.606905 -1.001916 1.791749
-0.591313 -0.955204 1.793375
-0.575952 -0.908413 1.795064
-0.562399 -0.861102 1.797239
-0.549587 -0.813578 1.799612
-0.527070 -0.710694 1.805980
-0.518859 -0.662268 1.809539
-0.512428 -0.613577 1.813548
-0.507153 -0.564806 1.817838
-0.504651 -0.515843 1.822804
-0.502632 -0.466890 1.827882
-0.507092 -0.362247 1.840804
-0.513901 -0.313958 1.847886
-0.520710 -0.265670 1.854969
-0.532070 -0.218430 1.863004
-0.544045 -0.171332 1.871169
-0.559653 -0.125516 1.880044
-0.599754 -0.030169 1.900308
-0.621954 0.012652 1.910396
-0.646283 0.054126 1.920833
-0.673033 0.094069 1.931666
-0.700899 0.133128 1.942662
-0.731595 0.169950 1.954071
-0.801435 0.244893 1.979027
-0.835578 0.278381 1.990869
-0.872266 0.308967 2.002983
-0.908955 0.339553 2.015096
-0.947522 0.367638 2.027368
-0.986372 0.395346 2.039664
18 NaN NaN
-0.643448 -1.097710 1.789490
-0.605065 -0.997094 1.791862
-0.571488 -0.894816 1.795555
-0.543484 -0.790942 1.800742
-0.521945 -0.685638 1.807615
-0.507890 -0.579222 1.816376
-0.502421 -0.472220 1.827227
-0.506644 -0.365424 1.840338
-0.521522 -0.259912 1.855813
-0.547687 -0.157008 1.873652
-0.585259 -0.058128 1.893721
-0.633764 0.035432 1.915763
-0.692212 0.122707 1.939433
-0.759288 0.203170 1.964364
-0.833583 0.276717 1.990211
-0.913765 0.343564 2.016684
-0.998678 0.404123 2.043559
-1.087364 0.458904 2.070667
-0.350950 -0.872331 0.271732
-0.416375 -0.472021 0.345095
-0.545400 -0.091618 0.436932
-0.737024 0.256702 0.545339
-0.351155 -0.870367 0.272053
-0.415926 -0.473930 0.344700
-0.416823 -0.470112 0.345490
-0.544614 -0.093391 0.436443
-0.546186 -0.089845 0.437421
-0.735929 0.255127 0.544774
-0.352793 -0.854718 0.274617
-0.412351 -0.489144 0.341551
-0.420398 -0.454898 0.348638
-0.538352 -0.107525 0.432545
-0.552448 -0.075711 0.441319
-0.727201 0.242571 0.540263
-0.357256 -0.812083 0.281601
-0.363569 -0.755232 0.291035
-0.371810 -0.698723 0.301062
-0.380625 -0.642343 0.311262
-0.391219 -0.586360 0.322000
-0.402612 -0.530593 0.332974
-0.431448 -0.413870 0.357595
-0.446892 -0.359323 0.369752
-0.463872 -0.305350 0.382343
-0.481773 -0.251721 0.395195
-0.501422 -0.198842 0.408528
-0.521774 -0.146263 0.422055
-0.569523 -0.037215 0.451943
-0.594665 0.012892 0.466735
-0.620026 0.062866 0.481583
-0.647465 0.111574 0.496955
-0.675307 0.160009 0.512426
-0.704952 0.207230 0.528335
15 NaN NaN
-0.350898 -0.872821 0.271651
-0.362288 -0.764008 0.289477
-0.378046 -0.655972 0.308648
-0.398301 -0.548940 0.329177
-0.423157 -0.443155 0.351068
-0.452683 -0.338870 0.374310
-0.486907 -0.236340 0.398881
-0.525817 -0.135819 0.424742
-0.569356 -0.037549 0.451844
-0.617424 0.058247 0.480126
-0.669883 0.151369 0.509515
-0.726558 0.241647 0.539931
-0.787246 0.328945 0.571291
-0.851721 0.413164 0.603506
-0.919745 0.494235 0.636489
