-1.524228 0.477786 4.563141
-1.528456 0.485128 4.573265
-1.532684 0.492471 4.583388
-1.719190 0.813842 5.022116
-1.904903 1.132480 5.454727
-2.171055 1.440502 5.605396
-2.556590 1.664932 5.254663
-1.535278 0.496976 4.589600
-1.718559 0.812736 5.020573
-1.719821 0.814948 5.023658
-1.904355 1.131431 5.453115
-1.905452 1.133529 5.456340
-2.169778 1.439618 5.606656
-2.172332 1.441386 5.604136
-2.555120 1.664328 5.255878
-1.545104 0.514041 4.613129
-1.708738 0.795675 4.997040
-1.729501 0.831914 5.047318
-1.895941 1.115344 5.428382
-1.913866 1.149616 5.481073
-2.150190 1.426056 5.625988
-2.191920 1.454948 5.584805
-2.532580 1.655075 5.274524
-1.566506 0.551021 4.663790
-1.590644 0.592537 4.720335
-1.614934 0.634155 4.776738
-1.639223 0.675773 4.833143
-1.663436 0.717339 4.889618
-1.687522 0.758820 4.946209
-1.750413 0.868563 5.098423
-1.774183 0.909832 5.155303
-1.798777 0.951651 5.211418
-1.824233 0.994040 5.266714
-1.850720 1.037101 5.321006
-1.875757 1.079215 5.376707
-1.928378 1.181701 5.537210
-1.945812 1.218491 5.599198
-1.967023 1.257798 5.657667
-2.002713 1.306245 5.701055
-2.053714 1.353385 5.693955
-2.105859 1.394620 5.663913
-2.234146 1.484623 5.543230
-2.281383 1.518244 5.496953
-2.329618 1.551180 5.451213
-2.379518 1.581714 5.405632
-2.430934 1.609774 5.360168
-2.483911 1.635051 5.314803
-3.683469 1.953501 4.376157
-4.844192 2.203932 3.530525
-5.810679 2.906064 2.784252
-6.454216 4.058065 2.162620
-7.185827 5.135930 1.506868
-8.038642 6.081593 0.797865
-9.030624 6.825970 0.034133
-10.146422 7.308025 -0.768565
-11.335436 7.525022 -1.582579
-12.551580 7.511989 -2.386136
-2.558059 1.665535 5.253447
-3.681936 1.953172 4.377398
-3.685002 1.953830 4.374915
-4.842547 2.203534 3.531591
-4.845836 2.204331 3.529459
-5.809888 2.904439 2.785107
-5.811471 2.907690 2.783396
-6.453280 4.056525 2.163488
-6.455152 4.059604 2.161751
-7.184743 5.134533 1.507803
-7.186910 5.137327 1.505933
-8.037371 6.080428 0.798879
-8.039913 6.082758 0.796851
-9.029179 6.825104 0.035211
-9.032070 6.826837 0.033056
-10.144828 7.307559 -0.767451
-10.148016 7.308492 -0.769680
-11.333776 7.524917 -1.581468
-11.337095 7.525127 -1.583690
-12.549909 7.512150 -2.385049
-2.580962 1.674132 5.234931
-3.658420 1.948125 4.396447
-3.708518 1.958878 4.355866
-4.817314 2.197417 3.547938
-4.871068 2.210655 3.513190
-5.797746 2.879503 2.798227
-5.823613 2.932625 2.770277
-6.438922 4.032911 2.176813
-6.469592 4.083147 2.148390
-7.168178 5.113043 1.522125
-7.203532 5.158756 1.491586
-8.017880 6.062553 0.814432
-8.059400 6.100639 0.781300
-9.007151 6.811516 0.051684
-9.054243 6.840130 0.016535
-10.120375 7.300406 -0.750357
-10.172469 7.315645 -0.786774
-11.308356 7.522939 -1.564402
-11.362554 7.526742 -1.600737
-12.524276 7.514619 -2.368371
-2.686413 1.712452 5.150438
-2.856293 1.766968 5.017427
-3.029010 1.812558 4.884707
-3.204029 1.851334 4.752822
-3.378555 1.888038 4.619693
-3.550669 1.925040 4.483542
-3.816510 1.982332 4.269170
-3.988477 2.020872 4.133255
-4.160703 2.060567 3.998005
-4.336207 2.099704 3.866892
-4.517034 2.135953 3.742350
-4.701428 2.171128 3.622811
-4.986840 2.240107 3.439313
-5.169758 2.291963 3.323735
-5.340091 2.371691 3.205322
-5.493792 2.476991 3.083722
-5.631178 2.604500 2.964620
-5.739616 2.767268 2.859443
-5.879658 3.046714 2.710518
-5.974617 3.224568 2.616304
-6.072503 3.401064 2.522504
-6.170998 3.577017 2.428329
-6.272361 3.750676 2.332945
-6.373948 3.924158 2.237471
-6.536557 4.190180 2.086841
-6.643326 4.359180 1.989011
-6.751814 4.526611 1.890389
-6.863588 4.690972 1.790280
-6.977238 4.853514 1.689314
-7.093334 5.013615 1.587245
-7.280191 5.256251 1.425657
-7.403576 5.408623 1.320352
-7.529961 5.557578 1.213745
-7.660599 5.701470 1.105317
-7.792868 5.843354 0.996208
-7.929031 5.980179 0.885487
-8.148337 6.182896 0.710217
-8.292343 6.308653 0.596379
-8.442416 6.424922 0.480253
-8.592355 6.541442 0.364184
-8.747104 6.649519 0.246390
-8.906738 6.748426 0.126956
-9.157008 6.898290 -0.059492
-9.323739 6.981604 -0.181090
-9.491074 7.063446 -0.302870
-9.661536 7.137101 -0.425470
-9.834773 7.202902 -0.548712
-10.009067 7.265372 -0.672192
-10.284920 7.346440 -0.865099
-10.463955 7.391679 -0.989308
-10.644339 7.430914 -1.113598
-10.826062 7.463393 -1.237891
-11.008765 7.490176 -1.362114
-11.192146 7.512498 -1.486214
-11.479150 7.533655 -1.678751
-11.664044 7.543051 -1.802267
-11.849468 7.545415 -1.925295
-12.035204 7.542143 -2.047859
-12.220982 7.537743 -2.170317
-12.406922 7.525553 -2.291970
171 NaN NaN
-1.522115 0.474115 4.558080
-1.554446 0.530264 4.635497
-1.587258 0.586737 4.712475
-1.620314 0.643372 4.789229
-1.653366 0.700005 4.865986
-1.686171 0.756473 4.942971
-1.718488 0.812613 5.020401
-1.750340 0.868437 5.098250
-1.782687 0.924596 5.175652
-1.816777 0.981918 5.251431
-1.852821 1.040516 5.325312
-1.886715 1.097703 5.401261
-1.914386 1.150611 5.482602
-1.936326 1.199362 5.568232
-1.961764 1.250659 5.651274
-2.009295 1.315178 5.709057
-2.081859 1.377595 5.684386
-2.149379 1.425494 5.626788
-2.213831 1.470118 5.563182
-2.278010 1.515940 5.500152
-2.343645 1.560757 5.437913
-2.412463 1.600960 5.375986
-2.484545 1.635354 5.314260
-2.558706 1.665800 5.252912
-2.634100 1.694023 5.191999
-2.710297 1.720866 5.131462
-2.787205 1.746118 5.071141
-2.864733 1.769515 5.010865
-2.942812 1.791006 4.950592
-3.021432 1.810804 4.890441
-3.100595 1.829131 4.830535
-3.180141 1.846340 4.770805
-3.259693 1.862969 4.710919
-3.338870 1.879560 4.650527
-3.417478 1.896353 4.589452
-3.495575 1.913191 4.527737
-3.573237 1.929894 4.465439
-3.650625 1.946452 4.402761
-3.728002 1.963060 4.340084
-3.805634 1.979928 4.277793
-3.883578 1.997157 4.215993
-3.961642 2.014723 4.154438
-4.039630 2.032593 4.092876
-4.117643 2.050657 4.031401
-4.196128 2.068720 3.970531
-4.275534 2.086577 3.910806
-4.356084 2.104004 3.852505
-4.437762 2.120759 3.795592
-4.520525 2.136622 3.740005
-4.604081 2.152038 3.685488
-4.687874 2.168192 3.631552
-4.771339 2.186272 3.577722
-4.854364 2.206398 3.523935
-4.937384 2.227551 3.470534
-5.020847 2.248741 3.417844
-5.104329 2.270969 3.365617
-5.186397 2.297302 3.313084
-5.265223 2.330757 3.259686
-5.339919 2.371580 3.205454
-5.411198 2.417419 3.150614
-5.480070 2.466172 3.095202
-5.546317 2.518407 3.039782
-5.608277 2.576867 2.985678
-5.663803 2.643866 2.934620
-5.712548 2.718414 2.887172
-5.756365 2.797498 2.842285
-5.797380 2.878752 2.798622
-5.837331 2.960799 2.755453
-5.877643 3.042820 2.712570
-5.919652 3.124037 2.669790
-5.963377 3.204376 2.627069
-6.007884 3.284335 2.584443
-6.052291 3.364411 2.541929
-6.096509 3.444599 2.499432
-6.141032 3.524532 2.456772
-6.186322 3.603855 2.413784
-6.232308 3.682623 2.370513
-6.278548 3.761187 2.327142
-6.324632 3.839879 2.283837
-6.370662 3.918610 2.240547
-6.417091 3.997005 2.197072
-6.464334 4.074705 2.153231
-6.512328 4.151753 2.109053
-6.560699 4.228468 2.064708
-6.609103 4.305152 2.020345
-6.657615 4.381737 1.975929
-6.706572 4.457918 1.931308
-6.756287 4.533403 1.886344
-6.806741 4.608195 1.841046
-6.857712 4.682494 1.795514
-6.908999 4.756485 1.749836
-6.960615 4.830152 1.704007
-7.012702 4.903354 1.657965
-7.065394 4.975949 1.611653
-7.118746 5.047871 1.565046
-7.172768 5.119095 1.518139
-7.227461 5.189605 1.470933
-7.282743 5.259476 1.423465
-7.338490 5.328839 1.375794
-7.394604 5.397795 1.327964
-7.451246 5.466157 1.279905
-7.508714 5.533568 1.231486
-7.567251 5.599716 1.182608
-7.626649 5.664819 1.133364
-7.686469 5.729399 1.083944
-7.746355 5.793900 1.034499
-7.806597 5.857952 0.984905
-7.867812 5.920753 0.934906
-7.930491 5.981597 0.884307
-7.994276 6.040908 0.833267
-8.058411 6.099722 0.782091
-8.122285 6.158911 0.731021
-8.186321 6.217868 0.679886
-8.251435 6.275249 0.628325
-8.318339 6.329880 0.576079
-8.386532 6.382431 0.523358
-8.455015 6.434501 0.470536
-8.522985 6.487428 0.417903
-8.590933 6.540388 0.365276
-8.659940 6.591553 0.312260
-8.730828 6.639343 0.258583
-8.803082 6.684519 0.204456
-8.875704 6.728961 0.150213
-8.947905 6.774246 0.096105
-9.020053 6.819632 0.042011
-9.093008 6.863371 -0.012351
-9.167423 6.903972 -0.067163
-9.242932 6.942060 -0.122289
-9.318843 6.979184 -0.177523
-9.394618 7.016633 -0.232724
-9.470485 7.053847 -0.287956
-9.546970 7.089507 -0.343360
-9.624454 7.122511 -0.399016
-9.702720 7.153305 -0.454849
-9.781367 7.182960 -0.510766
-9.860096 7.212357 -0.566704
-9.939010 7.241164 -0.622687
-10.018355 7.268581 -0.678756
-10.098306 7.293950 -0.734929
-10.178765 7.317487 -0.791175
-10.259559 7.339735 -0.847466
-10.340559 7.361151 -0.903785
-10.421774 7.381662 -0.960130
-10.503259 7.401012 -1.016496
-10.585051 7.418973 -1.072875
-10.667141 7.435506 -1.129260
-10.749503 7.450632 -1.185643
-10.832108 7.464400 -1.242018
-10.914909 7.477016 -1.298377
-10.997854 7.488733 -1.354716
-11.080914 7.499717 -1.411035
-11.164126 7.509660 -1.467323
-11.247537 7.518106 -1.523558
-11.331163 7.524751 -1.579717
-11.414930 7.530064 -1.635808
-11.498759 7.534752 -1.691863
-11.582602 7.539303 -1.747908
-11.666508 7.543164 -1.803911
-11.750537 7.545472 -1.859811
-11.834706 7.545641 -1.915549
-11.918948 7.544355 -1.971164
-12.003209 7.542663 -2.026741
-12.087455 7.541294 -2.082347
-12.171717 7.539575 -2.137921
-12.256024 7.536440 -2.193361
-12.340373 7.531115 -2.248570
-12.424726 7.524065 -2.303581
-12.509071 7.516083 -2.358477
-12.593414 7.507960 -2.413356
-12.677765 7.500484 -2.468315
-12.762118 7.494449 -2.523445
