-1.494943 0.907248 16.214941
-1.499207 0.909614 16.201169
-1.503471 0.911979 16.187397
-1.680779 1.010319 15.615303
-1.856307 1.107666 15.049707
-2.035062 1.206706 14.485484
-2.252543 1.326255 13.959107
-1.506041 0.913404 16.179097
-1.680196 1.009995 15.617189
-1.681362 1.010642 15.613418
-1.855727 1.107344 15.051594
-1.856887 1.107987 15.047820
-2.034481 1.206383 14.487370
-2.035644 1.207028 14.483597
-2.250972 1.325400 13.960000
-1.515469 0.918633 16.148648
-1.670772 1.004768 15.647639
-1.690786 1.015869 15.582967
-1.846361 1.102147 15.082067
-1.866253 1.113184 15.017347
-2.025000 1.201126 14.517796
-2.045031 1.212236 14.453132
-2.226598 1.312156 13.976097
-1.535901 0.929965 16.082701
-1.558785 0.942657 16.008877
-1.581677 0.955354 15.935055
-1.604571 0.968051 15.861235
-1.627461 0.980746 15.787413
-1.650342 0.993437 15.713587
-1.711191 1.027188 15.517009
-1.734041 1.039861 15.443171
-1.756915 1.052548 15.369343
-1.779865 1.065275 15.295545
-1.802866 1.078029 15.221767
-1.825862 1.090779 15.147987
-1.886377 1.124354 14.951277
-1.908772 1.136790 14.877260
-1.931235 1.149261 14.803268
-1.954352 1.162075 14.729538
-1.978329 1.175341 14.656166
-2.002883 1.188909 14.583038
-2.063507 1.222541 14.386481
-2.081542 1.232686 14.310951
-2.096922 1.241435 14.234650
-2.116102 1.252181 14.159495
-2.143505 1.267240 14.088124
-2.181625 1.287928 14.023903
-3.689573 1.778698 14.008930
-5.170778 2.144010 13.991977
-5.837288 3.488120 13.893593
-6.484277 4.882085 13.818682
-7.379251 6.127168 13.732809
-8.576731 7.080854 13.636262
-9.997089 7.655173 13.536357
-11.512051 7.900114 13.439518
-13.048313 7.911811 13.347525
-2.254115 1.327111 13.958213
-3.687595 1.778397 14.008914
-3.691550 1.778999 14.008945
-5.169076 2.142960 13.992028
-5.172480 2.145060 13.991926
-5.836552 3.486262 13.893688
-5.838024 3.489977 13.893499
-6.483296 4.880345 13.818786
-6.485257 4.883825 13.818579
-7.377867 6.125729 13.732929
-7.380635 6.128607 13.732689
-8.574977 7.079903 13.636392
-8.578486 7.081805 13.636133
-9.995154 7.654683 13.536485
-9.999024 7.655663 13.536228
-11.510059 7.899984 13.439640
-11.514043 7.900244 13.439396
-13.046319 7.911930 13.347641
-2.279497 1.340929 13.943785
-3.655663 1.773538 14.008666
-3.723482 1.783858 14.009194
-5.141593 2.126009 13.992848
-5.199390 2.162881 13.990962
-5.824750 3.456232 13.895185
-5.849916 3.519970 13.891974
-6.467456 4.852244 13.820461
-6.501097 4.911926 13.816903
-7.355515 6.102491 13.734872
-7.402980 6.151851 13.730746
-8.546880 7.064106 13.638486
-8.606826 7.097160 13.634036
-9.963919 7.646721 13.538559
-10.030272 7.663574 13.534155
-11.477887 7.897881 13.441615
-11.546215 7.902347 13.437421
-13.014129 7.913845 13.349513
-2.404009 1.410288 13.909201
-2.606073 1.521285 13.951027
-2.819433 1.610720 13.988140
-3.046111 1.671039 13.997527
-3.277580 1.711021 14.003056
-3.509289 1.749851 14.007040
-3.870191 1.805437 14.009841
-4.102551 1.840394 14.009838
-4.335198 1.873298 14.008127
-4.567551 1.907833 14.004549
-4.795382 1.964330 14.000397
-5.012700 2.052872 13.996152
-5.317912 2.251606 13.985382
-5.462195 2.433850 13.969662
-5.533265 2.656460 13.946830
-5.607280 2.878383 13.926038
-5.690101 3.097787 13.911563
-5.771435 3.318017 13.901755
-5.904607 3.657628 13.884987
-5.993026 3.875054 13.874092
-6.087876 4.089730 13.862900
-6.185950 4.302955 13.851507
-6.286524 4.514994 13.840012
-6.395618 4.722745 13.828112
-6.574865 5.040329 13.809165
-6.696397 5.241030 13.796695
-6.826278 5.436391 13.783856
-6.963894 5.626391 13.770689
-7.103777 5.814716 13.757427
-7.254021 5.994752 13.743753
-7.505629 6.258495 13.721824
-7.672820 6.422930 13.707532
-7.850684 6.575718 13.692900
-8.035258 6.720356 13.678078
-8.224086 6.859388 13.663147
-8.419081 6.989540 13.648079
-8.737003 7.167523 13.624411
-8.944393 7.276893 13.609149
-9.158681 7.371875 13.593855
-9.377601 7.455847 13.578577
-9.597869 7.536208 13.563313
-9.821336 7.607137 13.548109
-10.174066 7.698530 13.524655
-10.402628 7.750934 13.509637
-10.632727 7.795980 13.494722
-10.864801 7.829623 13.479991
-11.097239 7.860770 13.465303
-11.330316 7.886566 13.450718
-11.693967 7.911123 13.428374
-11.928225 7.922582 13.414094
-12.162675 7.929108 13.399932
-12.397226 7.929167 13.385932
-12.631769 7.926145 13.372013
-12.866276 7.921134 13.358147
168 NaN NaN
-1.492811 0.906066 16.221827
-1.522211 0.922373 16.126871
-1.551637 0.938693 16.031925
-1.581078 0.955022 15.936985
-1.610522 0.971352 15.842046
-1.639959 0.987678 15.747104
-1.669375 1.003993 15.652154
-1.698762 1.020293 15.557193
-1.728137 1.036587 15.462226
-1.757555 1.052903 15.367277
-1.787073 1.069272 15.272368
-1.816684 1.085690 15.177496
-1.846202 1.102059 15.082587
-1.875410 1.118265 14.987554
-1.904190 1.134246 14.892353
-1.933079 1.150285 14.797194
-1.962884 1.166804 14.702402
-1.994321 1.184180 14.608294
-2.026165 1.201769 14.514360
-2.055436 1.218009 14.419363
-2.079229 1.231370 14.322424
-2.099009 1.242622 14.224297
-2.124424 1.256836 14.127942
-2.166652 1.279862 14.039819
-2.231133 1.314599 13.971277
-2.310043 1.357559 13.926422
-2.396172 1.405811 13.908401
-2.483130 1.455484 13.917272
-2.568947 1.502758 13.940546
-2.656316 1.546358 13.965209
-2.747713 1.585275 13.981591
-2.842269 1.618822 13.990225
-2.938927 1.646806 13.994414
-3.037051 1.669350 13.997290
-3.136040 1.687802 13.999883
-3.235410 1.704147 14.002195
-3.334810 1.720350 14.004224
-3.434118 1.737142 14.005960
-3.533430 1.753932 14.007387
-3.632855 1.770067 14.008488
-3.732438 1.785221 14.009263
-3.832103 1.799841 14.009749
-3.931764 1.814484 14.009989
-4.031361 1.829567 14.010012
-4.130948 1.844713 14.009769
-4.230621 1.859268 14.009185
-4.330452 1.872673 14.008192
-4.430312 1.885823 14.006828
-4.529919 1.900731 14.005212
-4.628880 1.919407 14.003468
-4.726718 1.943258 14.001682
-4.822987 1.972801 13.999880
-4.917139 2.008512 13.998079
-5.008595 2.050649 13.996248
-5.097144 2.098592 13.994174
-5.182842 2.151451 13.991617
-5.265669 2.208660 13.988340
-5.343370 2.272533 13.983940
-5.411070 2.346696 13.977878
-5.461896 2.433042 13.969744
-5.496739 2.526998 13.960183
-5.523852 2.623488 13.950171
-5.551372 2.719886 13.940402
-5.583538 2.814911 13.931396
-5.618718 2.908963 13.923456
-5.654706 3.002813 13.916833
-5.689840 3.097073 13.911596
-5.724444 3.191575 13.907256
-5.759277 3.286007 13.903214
-5.795012 3.380089 13.898926
-5.831619 3.473821 13.894320
-5.868704 3.567357 13.889564
-5.905890 3.660855 13.884823
-5.943239 3.754291 13.880155
-5.981297 3.847440 13.875498
-6.020633 3.940053 13.870784
-6.061486 4.032003 13.865974
-6.103317 4.123509 13.861102
-6.145477 4.214863 13.856209
-6.187482 4.306289 13.851329
-6.229777 4.397581 13.846439
-6.273145 4.488364 13.841500
-6.318310 4.578261 13.836475
-6.365283 4.667223 13.831364
-6.413517 4.755504 13.826193
-6.462465 4.843390 13.820989
-6.511862 4.931024 13.815765
-6.561913 5.018283 13.810511
-6.612868 5.105015 13.805216
-6.664978 5.191054 13.799870
-6.718513 5.276210 13.794459
-6.773744 5.360270 13.788975
-6.830871 5.443047 13.783409
-6.889496 5.524768 13.777779
-6.948890 5.605930 13.772118
-7.008362 5.687035 13.766453
-7.068052 5.767978 13.760779
-7.129124 5.847877 13.755048
-7.192763 5.925733 13.749215
-7.259509 6.000936 13.743264
-7.328338 6.074236 13.737235
-7.398042 6.146704 13.731175
-7.467661 6.219255 13.725119
-7.537578 6.291516 13.719052
-7.608715 6.362570 13.712943
-7.681912 6.431491 13.706765
-7.757282 6.498023 13.700518
-7.834353 6.562575 13.694220
-7.912672 6.625605 13.687888
-7.991921 6.687460 13.681530
-8.071994 6.748243 13.675151
-8.152809 6.808033 13.668754
-8.234371 6.866798 13.662338
-8.317049 6.923976 13.655897
-8.401285 6.978827 13.649424
-8.487402 7.030667 13.642917
-8.575022 7.079928 13.636389
-8.663402 7.127814 13.629851
-8.751868 7.175543 13.623313
-8.840332 7.223276 13.616774
-8.929485 7.269702 13.610228
-9.020017 7.313368 13.603674
-9.112234 7.353355 13.597116
-9.205601 7.390585 13.590562
-9.299534 7.426372 13.584013
-9.393574 7.461877 13.577465
-9.487765 7.496979 13.570918
-9.582362 7.530969 13.564377
-9.677592 7.563144 13.557846
-9.773508 7.593215 13.551330
-9.870023 7.621308 13.544831
-9.967054 7.647570 13.538349
-10.064504 7.672239 13.531885
-10.162237 7.695767 13.525433
-10.260128 7.718634 13.518990
-10.358100 7.741148 13.512552
-10.456284 7.762726 13.506125
-10.554847 7.782493 13.499724
-10.653901 7.799647 13.493363
-10.753334 7.814471 13.487040
-10.852950 7.828032 13.480740
-10.952592 7.841407 13.474443
-11.052212 7.854940 13.468143
-11.151915 7.867850 13.461854
-11.251801 7.879260 13.455595
-11.351908 7.888575 13.449377
-11.452160 7.896199 13.443194
-11.552489 7.902758 13.437035
-11.652851 7.908817 13.430888
-11.753238 7.914447 13.424749
-11.853659 7.919459 13.418625
-11.954118 7.923667 13.412520
-12.054613 7.926907 13.406438
-12.155140 7.929041 13.400383
-12.255688 7.929934 13.394359
-12.356241 7.929616 13.388366
-12.456790 7.928515 13.382394
-12.557336 7.927125 13.376429
-12.657882 7.925801 13.370463
-12.758424 7.924138 13.364506
-12.858945 7.921451 13.358577
-12.959410 7.917101 13.352694
-13.059795 7.911128 13.346858
-13.160115 7.904120 13.341052
-13.260405 7.896679 13.335260
-13.360707 7.889404 13.329463
-13.461060 7.882895 13.323642
-13.561489 7.877754 13.317782
