-1.190574 0.615704 18.875730
-1.191132 0.625744 18.874266
-1.191691 0.635784 18.872803
-1.243897 1.127390 18.813916
-1.351051 1.589149 18.788918
-1.682804 1.935200 18.903650
-2.107868 2.162367 19.002613
-1.192053 0.642286 18.871856
-1.243795 1.125414 18.814209
-1.243999 1.129366 18.813624
-1.349662 1.587799 18.788420
-1.352441 1.590498 18.789415
-1.681228 1.934041 18.903236
-1.684381 1.936358 18.904064
-2.106072 2.161575 19.002228
-1.193527 0.668752 18.867998
-1.242013 1.098954 18.817906
-1.245364 1.155829 18.809712
-1.332978 1.567657 18.783221
-1.371049 1.608576 18.796076
-1.662558 1.915653 18.897743
-1.705497 1.951877 18.909608
-2.082024 2.150965 18.997074
-1.197461 0.725457 18.860134
-1.204192 0.788880 18.852535
-1.212051 0.852235 18.845527
-1.220441 0.915558 18.838797
-1.228780 0.978885 18.832040
-1.236149 1.042268 18.824776
-1.248027 1.212526 18.801196
-1.248620 1.275850 18.790463
-1.251300 1.339254 18.780795
-1.255818 1.402727 18.772063
-1.273762 1.464318 18.770580
-1.299829 1.521700 18.774057
-1.410927 1.647317 18.810351
-1.455725 1.690129 18.827256
-1.499122 1.734535 18.843468
-1.540438 1.781323 18.858612
-1.581140 1.829031 18.872480
-1.622789 1.875969 18.885978
-1.750749 1.985134 18.921488
-1.804592 2.017460 18.934692
-1.859616 2.047835 18.947809
-1.916080 2.075590 18.960730
-1.973132 2.102202 18.973443
-2.030488 2.128227 18.986030
-3.225959 2.716888 19.197882
-4.071204 3.597523 19.285423
-4.184483 4.850722 19.320209
-4.338778 6.103678 19.379859
-4.643531 7.327665 19.446468
-5.159192 8.477173 19.521315
-5.907989 9.489191 19.603233
-6.855938 10.318065 19.688798
-7.938772 10.962521 19.774578
-9.102540 11.447611 19.858596
-2.109664 2.163159 19.002997
-3.224210 2.715936 19.197702
-3.227709 2.717840 19.198062
-4.070571 3.595629 19.285316
-4.071838 3.599417 19.285530
-4.184337 4.848729 19.320120
-4.184630 4.852714 19.320299
-4.338436 6.101710 19.379760
-4.339121 6.105646 19.379959
-4.642907 7.325768 19.446357
-4.644154 7.329562 19.446580
-5.158197 8.475442 19.521191
-5.160187 8.478903 19.521440
-5.906660 9.487702 19.603100
-5.909318 9.490680 19.603366
-6.854332 10.316880 19.688662
-6.857543 10.319250 19.688934
-7.936976 10.961653 19.774444
-7.940569 10.963390 19.774712
-9.100657 11.446950 19.858465
-2.133692 2.173850 19.008078
-3.200779 2.703182 19.195294
-3.251140 2.730595 19.200471
-4.061804 3.570369 19.283729
-4.080326 3.624782 19.286960
-4.182373 4.822042 19.318922
-4.186594 4.879401 19.321496
-4.333920 6.075341 19.378434
-4.343706 6.132003 19.381288
-4.634558 7.300360 19.444867
-4.652626 7.354928 19.448075
-5.144870 8.452267 19.519524
-5.173514 8.502078 19.523107
-5.888863 9.467763 19.601319
-5.927400 9.510359 19.605152
-6.832829 10.301013 19.686837
-6.879046 10.335117 19.690759
-7.913216 10.949424 19.772637
-7.964630 10.975023 19.776513
-9.075434 11.438106 19.856710
-2.242568 2.222993 19.030979
-2.413777 2.303911 19.066585
-2.584087 2.387084 19.101315
-2.754096 2.471642 19.134106
-2.924102 2.557699 19.162705
-3.093995 2.646012 19.184218
-3.356727 2.789941 19.211548
-3.518236 2.893750 19.227176
-3.670212 3.011569 19.238851
-3.816759 3.136119 19.250232
-3.940718 3.282006 19.263056
-4.021075 3.456017 19.276111
-4.115073 3.741126 19.292706
-4.140937 3.931449 19.297040
-4.142138 4.124106 19.297327
-4.147579 4.316686 19.298358
-4.159540 4.508911 19.303924
-4.173568 4.700865 19.313217
-4.196582 5.000501 19.326864
-4.215732 5.192030 19.335722
-4.236439 5.383392 19.344762
-4.258497 5.574600 19.353801
-4.285233 5.765196 19.363068
-4.314639 5.955397 19.372469
-4.365684 6.251473 19.387375
-4.404479 6.439957 19.397200
-4.446060 6.627842 19.407147
-4.491621 6.814784 19.417268
-4.542515 7.000335 19.427615
-4.597581 7.184685 19.438136
-4.692781 7.469531 19.454932
-4.760690 7.649511 19.465960
-4.833848 7.827412 19.477185
-4.911771 8.003268 19.488581
-4.995415 8.176460 19.500177
-5.085620 8.346312 19.511992
-5.235323 8.606553 19.530716
-5.339394 8.768233 19.542952
-5.449322 8.925996 19.555348
-5.562530 9.081413 19.567828
-5.682306 9.231779 19.580465
-5.808257 9.377036 19.593236
-6.010708 9.598590 19.613284
-6.148701 9.732412 19.626264
-6.289949 9.862830 19.639287
-6.433209 9.991006 19.652332
-6.583138 10.111296 19.665436
-6.736152 10.227675 19.678556
-6.978603 10.404483 19.699044
-7.140718 10.507804 19.712156
-7.302762 10.611241 19.725268
-7.467361 10.710508 19.738358
-7.636639 10.801614 19.751388
-7.805999 10.892588 19.764418
-8.074522 11.026488 19.784669
-8.250005 11.105030 19.797551
-8.425099 11.184433 19.810445
-8.602568 11.258324 19.823254
-8.782146 11.327021 19.835976
-8.961518 11.396252 19.848708
158 NaN NaN
-1.190294 0.610684 18.876461
-1.195825 0.710040 18.861981
-1.206364 0.809346 18.850083
-1.219512 0.908501 18.839550
-1.232569 1.007664 18.828970
-1.242844 1.106980 18.816934
-1.247970 1.206327 18.802247
-1.248897 1.305485 18.785440
-1.255965 1.404790 18.771779
-1.284609 1.500599 18.769849
-1.342458 1.580801 18.785842
-1.412306 1.648656 18.810845
-1.482451 1.715656 18.837358
-1.547133 1.788904 18.861066
-1.610677 1.863883 18.882395
-1.680308 1.933365 18.902994
-1.759537 1.991592 18.923795
-1.844876 2.040589 18.944436
-1.933287 2.084047 18.964668
-2.023026 2.124935 18.984431
-2.113326 2.164775 19.003782
-2.203535 2.204974 19.022810
-2.293246 2.246388 19.041586
-2.382538 2.288796 19.060141
-2.471553 2.331867 19.078502
-2.560407 2.375375 19.096609
-2.649166 2.419264 19.114250
-2.737891 2.463497 19.131199
-2.826621 2.508098 19.147119
-2.915362 2.553196 19.161494
-3.004095 2.598917 19.173797
-3.092724 2.645335 19.184086
-3.181098 2.692468 19.193271
-3.269078 2.740359 19.202315
-3.356260 2.789656 19.211500
-3.441816 2.841796 19.220213
-3.524745 2.898176 19.227769
-3.604791 2.958733 19.234075
-3.682909 3.021824 19.239778
-3.760181 3.085944 19.245556
-3.835275 3.152539 19.251762
-3.903585 3.225962 19.258401
-3.958924 3.309486 19.265338
-4.000782 3.400616 19.272234
-4.035298 3.494846 19.278829
-4.068543 3.589570 19.284975
-4.100411 3.684807 19.290345
-4.125720 3.782021 19.294421
-4.139250 3.881585 19.296682
-4.142649 3.982081 19.297403
-4.141911 4.082655 19.297358
-4.142462 4.183227 19.297284
-4.145815 4.283744 19.297806
-4.151191 4.384162 19.299490
-4.157779 4.484467 19.302806
-4.165001 4.584680 19.307391
-4.172411 4.684857 19.312448
-4.179651 4.785058 19.317262
-4.187025 4.885264 19.321760
-4.195162 4.985414 19.326178
-4.204578 5.085445 19.330725
-4.215009 5.185371 19.335406
-4.225851 5.285250 19.340137
-4.236628 5.385138 19.344845
-4.247692 5.484994 19.349544
-4.259720 5.584737 19.354283
-4.273244 5.684284 19.359098
-4.287968 5.783657 19.363974
-4.303307 5.882937 19.368881
-4.318829 5.982188 19.373796
-4.334894 6.081351 19.378733
-4.352111 6.180318 19.383724
-4.370932 6.278988 19.388787
-4.391088 6.377391 19.393911
-4.412109 6.475611 19.399074
-4.433675 6.573713 19.404260
-4.456077 6.671624 19.409483
-4.479767 6.769228 19.414762
-4.505059 6.866425 19.420109
-4.531789 6.963234 19.425517
-4.559682 7.059712 19.430973
-4.588565 7.155896 19.436470
-4.618578 7.251730 19.442014
-4.649928 7.347132 19.447611
-4.682769 7.442027 19.453266
-4.717116 7.536384 19.458980
-4.752956 7.630181 19.464751
-4.790255 7.723403 19.470578
-4.828927 7.816062 19.476455
-4.868873 7.908175 19.482378
-4.910101 7.999719 19.488346
-4.952858 8.090555 19.494368
-4.997423 8.180513 19.500451
-5.043864 8.269513 19.506598
-5.091815 8.357706 19.512793
-5.140860 8.445293 19.519022
-5.190901 8.532313 19.525282
-5.242441 8.618448 19.531587
-5.296033 8.703316 19.537953
-5.351782 8.786780 19.544380
-5.409041 8.869213 19.550847
-5.467113 8.951075 19.557336
-5.525862 9.032450 19.563841
-5.586023 9.112783 19.570382
-5.648366 9.191426 19.576974
-5.712963 9.268228 19.583617
-5.778934 9.343852 19.590288
-5.845386 9.419054 19.596968
-5.912212 9.493923 19.603655
-5.980317 9.567626 19.610366
-6.050606 9.639240 19.617115
-6.123066 9.708659 19.623897
-6.196673 9.776861 19.630693
-6.270434 9.844897 19.637491
-6.344321 9.912796 19.644290
-6.419333 9.979446 19.651102
-6.496424 10.043672 19.657934
-6.575472 10.105478 19.664779
-6.655402 10.166141 19.671627
-6.735214 10.226959 19.678475
-6.814979 10.287840 19.685323
-6.895718 10.347419 19.692173
-6.978358 10.404325 19.699024
-7.062675 10.458725 19.705870
-7.147618 10.512144 19.712711
-7.232251 10.566054 19.719555
-7.316735 10.620196 19.726400
-7.402058 10.673002 19.733239
-7.489068 10.722976 19.740060
-7.577460 10.770476 19.746861
-7.666265 10.817202 19.753655
-7.754649 10.864718 19.760456
-7.842843 10.912585 19.767261
-7.931744 10.959123 19.774052
-8.022085 11.002801 19.780811
-8.113538 11.044112 19.787540
-8.205295 11.084749 19.794258
-8.296684 11.126203 19.800989
-8.387925 11.167984 19.807724
-8.479693 11.208589 19.814442
-8.572520 11.246717 19.821121
-8.666135 11.282879 19.827767
-8.759975 11.318459 19.834403
-8.853593 11.354615 19.841048
-8.947171 11.390877 19.847696
-9.041150 11.426085 19.854325
-9.135856 11.459293 19.860915
-9.231089 11.490967 19.867474
-9.326494 11.522126 19.874022
-9.421805 11.553571 19.880576
-9.517158 11.584888 19.887127
-9.612822 11.615240 19.893658
-9.708986 11.643981 19.900153
-9.805527 11.671435 19.906617
-9.902254 11.698233 19.913066
-9.998987 11.725009 19.919515
-10.095548 11.752396 19.925978
-10.191745 11.781025 19.932470
