0.138169 0.138178 0.138268 0.138582 0.139042 0.139525 0.140008 0.140490 0.140996 0.141343 0.141445 0.141456 0.141466 0.141569 0.141931 0.142459 0.143014 0.143569 0.144125 0.144707 0.145106 0.145225 0.145237 0.145248 0.145368 0.145785 0.146395 0.147038 0.147680 0.148322 0.148999 0.149462 0.149599 0.149613 0.149627 0.149765 0.150251 0.150961 0.151710 0.152460 0.153210 0.154001 0.154543 0.154704 0.154720 0.154736 0.154898 0.155465 0.156294 0.157155 0.158015 0.158876 0.159766 0.160374 0.160552 0.160569 0.160587 0.160766 0.161387 0.162295 0.163216 0.164137 0.165059 0.165986 0.166620 0.166806 0.166825 0.166844 0.167032 0.167681 0.168630 0.169598 0.170566 0.171534 0.172533 0.173217 0.173419 0.173439 0.173459 0.173662 0.174370 0.175404 0.176489 0.177573 0.178658 0.179795 0.180573 0.180803 0.180826 0.180849 0.181083 0.181897 0.183087 0.184319 0.185551 0.186783 0.188054 0.188924 0.189175 0.189200 0.189226 0.189482 0.190365 0.191654 0.192951 0.194248 0.195544 0.196843 0.197731 0.197990 0.198016 0.198042 0.198300 0.199177 0.200458 0.201703 0.202948 0.204192 0.205348 0.206138 0.206358 0.206380 0.206402 0.206621 0.207322 0.208347 0.209179 0.210011 0.210842 0.211444 0.211856 0.211960 0.211970 0.211980 0.212080 0.212363 0.212778 0.212943 0.213109 0.213274 0.213287 0.213295 0.213291 0.213291 0.213290 0.213285 0.213214 0.213110 0.212945 0.212780 0.212615 0.212347 0.212163 0.212105 0.212100 0.212094 0.212034 0.211805 0.211469 0.211076 0.210682 0.210288 0.209796 0.209459 0.209352 0.209342 0.209331 0.209223 0.208817 0.208223 0.207502 0.206780 0.206058 0.205187 0.204591 0.204407 0.204388 0.204370 0.204185 0.203512 0.202529 0.201430 0.200330 0.199231 0.198041 0.197227 0.196982 0.196958 0.196933 0.196688 0.195829 0.194574 0.193278 0.191983 0.190688 0.189380 0.188486 0.188228 0.188202 0.188176 0.187919 0.187049 0.185777 0.184564 0.183351 0.182138 0.181002 0.180225 0.180005 0.179983 0.179961 0.179742 0.179012 0.177945 0.176957 0.175969 0.174982 0.174065 0.173438 0.173261 0.173243 0.173226 0.173050 0.172463 0.171606 0.170803 0.170000 0.169197 0.168442 0.167925 0.167777 0.167763 0.167748 0.167602 0.167112 0.166396 0.165714 0.165032 0.164350 0.163698 0.163251 0.163124 0.163111 0.163099 0.162970 0.162537 0.161903 0.161295 0.160687 0.160079 0.159489 0.159086 0.158970 0.158959 0.158947 0.158832 0.158440 0.157867 0.157308 0.156749 0.156189 0.155645 0.155273 0.155165 0.155154 0.155143 0.155036 0.154669 0.154134 0.153612 0.153090 0.152567 0.152059 0.151712 0.151612 0.151602 0.151592 0.151493 0.151155 0.150662 0.150184 0.149706 0.149228 0.148766 0.148449 0.148358 0.148349 0.148340 0.148249 0.147943 0.147495 0.147064 0.146632 0.146200 0.145783 0.145497 0.145415 0.145407 0.145399 0.145317 0.145039 0.144632 0.144236 0.143840 0.143444 0.143057 0.142791 0.142715 0.142707 
0.166822 0.166809 0.166733 0.166527 0.166252 0.165947 0.165643 0.165338 0.165003 0.164752 0.164655 0.164639 0.164623 0.164526 0.164265 0.163918 0.163557 0.163196 0.162835 0.162459 0.162177 0.162068 0.162050 0.162032 0.161922 0.161631 0.161244 0.160851 0.160459 0.160067 0.159668 0.159369 0.159253 0.159234 0.159214 0.159098 0.158790 0.158381 0.158057 0.157734 0.157410 0.157239 0.157111 0.157061 0.157053 0.157045 0.156996 0.156865 0.156692 0.156522 0.156353 0.156183 0.156020 0.155897 0.155851 0.155843 
0.206365 0.206304 0.205912 0.204881 0.203507 0.202114 0.200721 0.199328 0.197963 0.196938 0.196549 0.196489 0.196429 0.196042 0.195047 0.193722 0.192461 0.191200 0.189939 0.188745 0.187850 0.187517 0.187465 0.187414 0.187084 0.186233 0.185099 0.184029 0.182958 0.181888 0.180892 0.180144 0.179870 0.179828 0.179786 0.179514 0.178814 0.177881 0.177089 0.176297 0.175506 0.175148 0.174879 0.174774 0.174758 0.174741 0.174636 0.174352 0.173974 0.173603 0.173232 0.172862 0.172509 0.172244 0.172147 0.172132 
0.212082 0.212013 0.211858 0.211563 0.211181 0.210801 0.210421 0.210041 0.209665 0.209375 0.209223 0.209156 0.209088 0.208937 0.208649 0.208274 0.207896 0.207518 0.207141 0.206769 0.206483 0.206333 0.206267 0.206200 0.206051 0.205770 0.205405 0.205039 0.204673 0.204307 0.203942 0.203660 0.203513 0.203447 0.203382 0.203235 0.202961 0.202605 0.202251 0.201898 0.201545 0.201187 0.200912 0.200768 0.200704 0.200640 0.200497 0.200228 0.199877 0.199533 0.199189 0.198845 0.198507 0.198246 0.198107 0.198045 0.197984 0.197846 0.197585 0.197247 0.196914 0.196580 0.196247 0.195920 0.195669 0.195538 0.195479 0.195421 0.195291 0.195041 0.194717 0.194397 0.194076 0.193756 0.193440 0.193198 0.193071 0.193015 0.192959 0.192832 0.192594 0.192285 0.191978 0.191670 0.191362 0.191059 0.190825 0.190703 0.190648 0.190594 0.190473 0.190243 0.189945 0.189650 0.189355 0.189060 0.188766 0.188540 0.188422 0.188370 0.188317 0.188200 0.187978 0.187690 0.187408 0.187125 0.186843 0.186563 0.186347 0.186234 0.186184 0.186134 0.186021 0.185808 0.185531 0.185259 0.184986 0.184714 0.184446 0.184239 0.184131 0.184083 0.184036 0.183928 0.183724 0.183460 0.183202 0.182943 0.182685 0.182434 0.182240 0.182140 0.182095 0.182050 0.181950 0.181757 0.181507 0.181261 0.181015 0.180769 0.180529 0.180343 0.180247 0.180204 0.180161 0.180064 0.179882 0.179646 0.179413 0.179179 0.178946 0.178716 0.178538 0.178445 0.178404 0.178369 0.178291 0.178214 0.178115 0.178016 0.177917 0.177818 0.177717 0.177639 0.177598 0.177580 0.177562 0.177521 0.177442 0.177340 0.177238 0.177136 0.177034 0.176932 0.176854 0.176813 0.176795 0.176776 0.176735 0.176657 0.176555 0.176449 0.176344 0.176238 0.176134 0.176053 0.176011 0.175993 0.175974 0.175932 0.175853 0.175751 0.175649 0.175548 0.175447 0.175346 0.175269 0.175229 0.175211 0.175193 0.175152 0.175076 0.174977 0.174879 0.174782 0.174685 0.174589 0.174515 0.174476 0.174459 0.174442 0.174403 0.174330 0.174235 0.174141 0.174046 0.173951 0.173859 0.173787 0.173750 0.173733 0.173717 0.173680 0.173610 0.173520 0.173430 0.173340 0.173250 0.173162 0.173093 0.173058 0.173043 0.173027 0.172992 0.172926 0.172840 0.172755 0.172670 0.172585 0.172501 0.172437 0.172403 0.172388 0.172373 0.172339 0.172276 0.172195 0.172115 0.172035 0.171955 0.171875 0.171815 0.171783 0.171769 
0.167757 0.167734 0.167604 0.167273 0.166833 0.166399 0.165966 0.165532 0.165101 0.164777 0.164651 0.164629 0.164606 0.164480 0.164152 0.163715 0.163273 0.162830 0.162387 0.161942 0.161608 0.161478 0.161455 0.161432 0.161302 0.161033 0.160675 0.160445 0.160215 0.159985 0.159752 0.159577 0.159510 0.159498 0.159486 0.159419 0.159248 0.159020 0.158800 0.158580 0.158359 0.158148 0.157988 0.157930 0.157919 0.157909 0.157850 0.157699 0.157498 0.157307 0.157117 0.156926 0.156747 0.156612 0.156560 0.156551 
