0.152149 0.152138 0.151980 0.151278 0.150166 0.149170 0.148174 0.147177 0.146277 0.145709 0.145588 0.145579 0.145571 0.145450 0.144908 0.144050 0.143257 0.142465 0.141672 0.140938 0.140475 0.140376 0.140369 0.140362 0.140263 0.139819 0.139115 0.138427 0.137739 0.137051 0.136371 0.135943 0.135849 0.135843 0.135836 0.135743 0.135321 0.134654 0.134013 0.133373 0.132732 0.132122 0.131736 0.131654 0.131648 0.131642 0.131560 0.131194 0.130613 0.130071 0.129529 0.128987 0.128483 0.128166 0.128098 0.128093 0.128089 0.128021 0.127723 0.127251 0.126814 0.126377 0.125940 0.125536 0.125282 0.125227 0.125224 0.125220 0.125166 0.124927 0.124548 0.124196 0.123844 0.123491 0.123164 0.122957 0.122913 0.122910 
0.152154 0.152164 0.152266 0.152552 0.152955 0.153318 0.153680 0.154043 0.154416 0.154680 0.154766 0.154775 0.154784 0.154872 0.155161 0.155568 0.156016 0.156465 0.156913 0.157400 0.157745 0.157858 0.157869 0.157881 0.157995 0.158362 0.158881 0.159424 0.159967 0.160511 0.161078 0.161480 0.161610 0.161623 0.161637 0.161767 0.162183 0.162769 0.163375 0.163980 0.164585 0.165210 0.165653 0.165796 0.165811 0.165826 0.165969 0.166424 0.167066 0.167726 0.168386 0.169045 0.169724 0.170206 0.170361 0.170377 0.170393 0.170548 0.171039 0.171730 0.172442 0.173155 0.173867 0.174597 0.175115 0.175281 0.175298 0.175316 0.175482 0.176011 0.176756 0.177511 0.178265 0.179020 0.179786 0.180330 0.180504 0.180522 0.180540 0.180715 0.181263 0.182036 0.182811 0.183585 0.184360 0.185136 0.185687 0.185864 0.185882 0.185900 0.186076 0.186633 0.187418 0.188213 0.189008 0.189803 0.190613 0.191188 0.191375 0.191394 0.191414 0.191603 0.192194 0.193026 0.193897 0.194768 0.195639 0.196560 0.197214 0.197431 0.197453 0.197475 0.197693 0.198394 0.199382 0.200445 0.201508 0.202571 0.203704 0.204508 0.204773 0.204800 0.204827 0.205096 0.205948 0.207149 0.208421 0.209693 0.210965 0.212285 0.213221 0.213522 0.213553 0.213584 0.213890 0.214855 0.216217 0.217577 0.218937 0.220298 0.221631 0.222577 0.222877 0.222908 0.222938 0.223236 0.224150 0.225438 0.226657 0.227876 0.229095 0.230219 0.231017 0.231262 0.231287 0.231311 0.231554 0.232276 0.233295 0.234168 0.235040 0.235912 0.236621 0.237124 0.237264 0.237278 0.237293 0.237434 0.237811 0.238343 0.238685 0.239027 0.239370 0.239510 0.239610 0.239626 0.239628 0.239628 0.239635 0.239577 0.239494 0.239265 0.239036 0.238808 0.238395 0.238103 0.237991 0.237980 
0.152152 0.152151 0.152149 0.151838 0.151346 0.150580 0.149815 0.149049 0.148476 0.148114 0.148041 0.148036 0.148031 0.147956 0.147644 0.147149 0.146712 0.146275 0.145838 0.145429 0.145171 0.145113 0.145109 0.145105 0.145047 0.144768 0.144326 0.143781 0.143237 0.142693 0.141899 0.141398 0.141266 0.141257 0.141248 0.141113 0.140439 0.139370 0.137785 0.136200 0.134614 0.132089 0.130495 0.130149 0.130126 0.130103 0.129763 0.128361 0.126139 0.124578 0.123017 0.121456 0.120461 0.119834 0.119721 0.119714 0.119707 0.119597 0.119183 0.118527 0.118116 0.117705 0.117294 0.117027 0.116858 0.116826 0.116824 0.116822 0.116790 0.116662 0.116460 0.116305 0.116150 0.115995 0.115872 0.115794 0.115778 0.115777 0.115776 0.115760 0.115694 0.115588 0.115499 0.115410 0.115321 0.115246 0.115198 0.115189 0.115188 0.115187 0.115178 0.115136 0.115071 0.115016 0.114960 0.114905 0.114858 0.114829 0.114823 0.114822 0.114822 0.114816 0.114790 0.114750 0.114717 0.114683 0.114649 0.114621 0.114604 0.114600 0.114600 0.114600 0.114596 0.114581 0.114557 0.114536 0.114516 0.114496 0.114478 0.114467 0.114465 0.114465 0.114465 0.114463 0.114453 0.114438 0.114425 0.114412 0.114398 0.114387 0.114379 0.114378 0.114377 
0.125223 0.125221 0.125204 0.125156 0.125093 0.125022 0.124951 0.124880 0.124803 0.124745 0.124722 0.124719 0.124716 0.124694 0.124643 0.124576 0.124517 0.124459 0.124400 0.124346 0.124305 0.124290 0.124288 0.124286 0.124271 0.124233 0.124183 0.124138 0.124092 0.124047 0.124007 0.123978 0.123967 0.123966 0.123964 0.123955 0.123929 0.123895 0.123867 0.123838 0.123810 0.123785 0.123766 0.123760 0.123759 
0.135841 0.135837 0.135807 0.135726 0.135618 0.135504 0.135389 0.135275 0.135155 0.135065 0.135029 0.135024 0.135019 0.134984 0.134887 0.134759 0.134622 0.134486 0.134349 0.134205 0.134097 0.134056 0.134050 0.134044 0.134002 0.133889 0.133738 0.133582 0.133426 0.133270 0.133109 0.132989 0.132943 0.132937 0.132930 0.132885 0.132799 0.132686 0.132582 0.132478 0.132374 0.132281 0.132210 0.132184 0.132180 0.132176 0.132150 0.132086 0.132002 0.131923 0.131845 0.131767 0.131697 0.131644 0.131625 0.131622 0.131620 0.131602 0.131555 0.131491 0.131437 0.131382 0.131327 0.131278 0.131241 0.131229 0.131227 
0.140369 0.140367 0.140359 0.140336 0.140306 0.140272 0.140237 0.140203 0.140164 0.140134 0.140121 0.140119 0.140116 0.140102 0.140072 0.140032 0.139997 0.139962 0.139927 0.139891 0.139864 0.139852 0.139850 0.139847 0.139836 0.139806 0.139767 0.139720 0.139674 0.139627 0.139573 0.139532 0.139514 0.139509 0.139505 0.139487 0.139439 0.139375 0.139303 0.139230 0.139158 0.139080 0.139020 0.138994 0.138988 0.138983 0.138956 0.138890 0.138802 0.138706 0.138610 0.138514 0.138412 0.138335 0.138305 0.138298 0.138293 0.138269 0.138210 0.138132 0.138056 0.137979 0.137903 0.137829 0.137774 0.137752 0.137747 0.137742 0.137721 0.137667 0.137595 0.137527 0.137459 0.137391 0.137325 0.137275 0.137256 0.137252 0.137248 0.137228 0.137181 0.137117 0.137056 0.136996 0.136935 0.136877 0.136832 0.136815 0.136811 0.136808 0.136790 0.136747 0.136690 0.136637 0.136583 0.136529 0.136478 0.136439 0.136424 0.136421 0.136417 0.136402 0.136364 0.136314 0.136267 0.136219 0.136172 0.136126 0.136091 0.136077 0.136074 0.136071 0.136057 0.136023 0.135977 0.135933 0.135888 0.135844 0.135801 0.135768 0.135755 0.135752 
0.145579 0.145578 0.145575 0.145551 0.145520 0.145458 0.145396 0.145334 0.145236 0.145163 0.145135 0.145130 0.145125 0.145097 0.145032 0.144945 0.144880 0.144815 0.144750 0.144680 0.144627 0.144606 0.144602 0.144599 0.144577 0.144520 0.144444 0.144362 0.144279 0.144196 0.144106 0.144039 0.144012 0.144008 0.144003 0.143976 0.143900 0.143800 0.143690 0.143579 0.143469 0.143346 0.143253 0.143221 0.143215 0.143210 0.143178 0.143086 0.142965 0.142825 0.142685 0.142546 0.142391 0.142274 0.142225 0.142216 0.142208 0.142158 0.142033 0.141866 0.141717 0.141568 0.141418 0.141278 0.141172 0.141132 0.141125 0.141119 0.141079 0.140983 0.140855 0.140738 0.140620 0.140503 0.140398 0.140319 0.140291 0.140286 0.140281 0.140252 0.140180 0.140084 0.139997 0.139911 0.139824 0.139743 0.139682 0.139661 0.139657 0.139653 0.139632 0.139577 0.139503 0.139434 0.139365 0.139296 0.139231 0.139183 0.139164 0.139161 0.139158 0.139139 0.139092 0.139029 0.138968 0.138906 0.138844 0.138784 0.138738 0.138721 0.138718 
0.154773 0.154768 0.154755 0.154727 0.154691 0.154654 0.154617 0.154579 0.154540 0.154510 0.154495 0.154489 0.154483 0.154468 0.154436 0.154394 0.154351 0.154308 0.154265 0.154220 0.154185 0.154168 0.154162 0.154155 0.154138 0.154101 0.154054 0.154005 0.153955 0.153906 0.153856 0.153818 0.153799 0.153792 0.153784 0.153765 0.153726 0.153674 0.153621 0.153568 0.153515 0.153460 0.153419 0.153398 0.153390 0.153382 0.153362 0.153320 0.153265 0.153209 0.153153 0.153097 0.153041 0.152998 0.152977 0.152968 0.152960 0.152939 0.152896 0.152840 0.152782 0.152724 0.152666 0.152608 0.152563 0.152541 0.152533 0.152524 0.152502 0.152458 0.152399 0.152341 0.152282 0.152224 0.152166 0.152122 0.152100 0.152092 0.152083 0.152062 0.152018 0.151960 0.151900 0.151840 0.151780 0.151719 0.151671 0.151649 0.151640 0.151631 0.151609 0.151564 0.151506 0.151449 0.151392 0.151335 0.151280 0.151237 0.151216 0.151208 0.151200 0.151180 0.151139 0.151086 0.151035 0.150983 0.150931 0.150880 0.150840 0.150821 0.150814 0.150807 0.150788 0.150750 0.150700 0.150649 0.150598 0.150547 0.150493 0.150452 0.150432 0.150424 0.150416 0.150396 0.150355 0.150302 0.150249 0.150195 0.150141 0.150083 0.150039 0.150018 0.150009 0.150000 0.149979 0.149934 0.149875 0.149816 0.149756 0.149697 0.149634 0.149586 0.149561 0.149551 0.149541 0.149516 0.149465 0.149399 0.149331 0.149264 0.149197 0.149128 0.149074 0.149047 0.149037 0.149026 0.148999 0.148944 0.148871 0.148798 0.148725 0.148652 0.148578 0.148521 0.148492 0.148481 0.148469 0.148440 0.148380 0.148302 0.148223 0.148144 0.148066 0.147987 0.147926 0.147896 0.147885 0.147872 0.147842 0.147778 0.147696 0.147613 0.147531 0.147448 0.147366 0.147303 0.147272 0.147260 0.147247 0.147216 0.147151 0.147066 0.146981 0.146896 0.146811 0.146734 0.146676 0.146651 0.146641 0.146631 0.146607 0.146558 0.146495 0.146434 0.146372 0.146311 0.146251 0.146205 0.146183 0.146174 0.146165 0.146143 0.146101 0.146045 0.145992 0.145940 0.145887 0.145835 0.145795 0.145775 0.145767 0.145760 0.145740 0.145702 0.145652 0.145607 0.145561 0.145516 0.145470 0.145436 0.145419 0.145412 0.145406 0.145389 0.145355 0.145310 0.145272 0.145233 0.145194 0.145155 0.145126 0.145111 0.145105 0.145099 0.145085 0.145055 0.145016 0.144981 0.144946 0.144911 0.144877 0.144851 0.144838 0.144833 0.144828 0.144815 0.144789 0.144755 0.144724 0.144693 0.144662 0.144632 0.144609 0.144597 0.144593 0.144588 0.144577 0.144554 0.144524 0.144495 0.144467 0.144439 0.144412 0.144392 0.144382 0.144378 0.144374 0.144364 0.144343 0.144317 0.144291 0.144266 0.144240 0.144217 0.144198 0.144190 0.144186 0.144183 0.144174 0.144155 0.144132 0.144108 0.144084 0.144061 0.144039 0.144023 0.144015 0.144011 0.144008 0.144000 0.143983 0.143961 0.143939 0.143917 0.143896 0.143876 0.143861 0.143853 0.143850 0.143847 0.143840 0.143824 0.143804 0.143784 0.143763 0.143743 0.143724 0.143709 0.143702 0.143699 0.143696 0.143689 0.143675 0.143656 0.143636 0.143617 0.143597 0.143578 0.143564 0.143557 0.143554 0.143552 0.143545 0.143531 0.143512 0.143493 0.143475 0.143456 0.143437 0.143423 0.143416 0.143413 
0.161622 0.161615 0.161599 0.161566 0.161523 0.161479 0.161434 0.161390 0.161343 0.161308 0.161289 0.161282 0.161274 0.161256 0.161218 0.161168 0.161116 0.161064 0.161012 0.160959 0.160918 0.160898 0.160889 0.160881 0.160860 0.160817 0.160762 0.160704 0.160646 0.160589 0.160530 0.160485 0.160462 0.160452 0.160443 0.160420 0.160373 0.160313 0.160250 0.160187 0.160124 0.160059 0.160010 0.159985 0.159974 0.159964 0.159939 0.159888 0.159822 0.159754 0.159686 0.159618 0.159549 0.159497 0.159470 0.159459 0.159448 0.159421 0.159367 0.159298 0.159226 0.159155 0.159084 0.159011 0.158955 0.158927 0.158916 0.158904 0.158876 0.158820 0.158746 0.158673 0.158599 0.158526 0.158451 0.158393 0.158364 0.158352 0.158340 0.158311 0.158253 0.158177 0.158101 0.158026 0.157950 0.157873 0.157814 0.157784 0.157771 0.157759 0.157729 0.157669 0.157591 0.157514 0.157436 0.157358 0.157280 0.157220 0.157189 0.157177 0.157164 0.157133 0.157072 0.156991 0.156911 0.156830 0.156749 0.156668 0.156606 0.156575 0.156562 0.156549 0.156516 0.156452 0.156369 0.156285 0.156201 0.156117 0.156033 0.155968 0.155936 0.155923 0.155909 0.155876 0.155811 0.155724 0.155638 0.155551 0.155464 0.155377 0.155310 0.155277 0.155263 0.155249 0.155215 0.155147 0.155059 0.154970 0.154880 0.154790 0.154700 0.154631 0.154597 0.154582 0.154568 0.154533 0.154464 0.154374 0.154283 0.154193 0.154102 0.154011 0.153941 0.153906 0.153891 0.153877 0.153842 0.153772 0.153681 0.153590 0.153499 0.153407 0.153316 0.153246 0.153211 0.153197 0.153182 0.153147 0.153077 0.152986 0.152896 0.152805 0.152714 0.152626 0.152558 0.152533 0.152523 0.152513 0.152488 0.152440 0.152377 0.152315 0.152254 0.152192 0.152136 0.152093 0.152071 0.152062 0.152054 0.152032 0.151990 0.151935 0.151881 0.151827 0.151774 0.151723 0.151685 0.151666 0.151659 0.151651 0.151633 0.151596 0.151549 0.151502 0.151455 0.151408 0.151362 0.151326 0.151310 0.151303 0.151297 0.151281 0.151249 0.151207 0.151166 0.151124 0.151083 0.151042 0.151010 0.150994 0.150988 0.150982 0.150967 0.150939 0.150902 0.150866 0.150829 0.150793 0.150756 0.150728 0.150714 0.150708 0.150702 0.150688 0.150662 0.150629 0.150596 0.150563 0.150530 0.150497 0.150471 0.150459 0.150453 0.150448 0.150435 0.150410 0.150378 0.150348 0.150318 0.150288 0.150258 0.150234 0.150223 0.150218 0.150213 0.150201 0.150178 0.150148 0.150121 0.150094 0.150066 0.150039 0.150019 0.150008 0.150004 0.150000 0.149989 0.149968 0.149941 0.149915 0.149889 0.149864 0.149839 0.149820 0.149810 0.149806 0.149802 0.149793 0.149774 0.149749 0.149725 0.149701 0.149677 0.149654 0.149637 0.149628 0.149624 0.149621 0.149612 0.149594 0.149571 0.149548 0.149525 0.149502 0.149481 0.149465 0.149457 0.149454 0.149451 0.149443 0.149427 0.149406 0.149384 0.149363 0.149342 0.149322 0.149306 0.149299 0.149296 0.149292 0.149285 0.149270 0.149250 0.149230 0.149210 0.149189 0.149169 0.149154 0.149147 0.149144 0.149141 0.149133 0.149119 0.149100 0.149081 0.149062 0.149043 0.149023 0.149009 0.149001 0.148998 0.148995 0.148988 0.148974 0.148956 0.148937 0.148919 0.148900 0.148881 0.148867 0.148860 0.148857 
0.175295 0.175279 0.175201 0.175000 0.174733 0.174444 0.174155 0.173867 0.173555 0.173321 0.173224 0.173204 0.173184 0.173087 0.172841 0.172514 0.172181 0.171847 0.171513 0.171173 0.170918 0.170815 0.170794 0.170773 0.170671 0.170409 0.170062 0.169709 0.169356 0.169002 0.168653 0.168389 0.168284 0.168263 0.168241 0.168137 0.167874 0.167525 0.167178 0.166830 0.166483 0.166137 0.165877 0.165774 0.165753 0.165732 0.165629 0.165372 0.165030 0.164691 0.164352 0.164014 0.163678 0.163424 0.163325 0.163305 0.163285 0.163187 0.162941 0.162615 0.162299 0.161983 0.161667 0.161392 0.161185 0.161119 0.161105 0.161092 0.161027 0.160866 0.160653 0.160465 0.160277 0.160089 0.159923 0.159798 0.159750 0.159740 0.159731 0.159683 0.159570 0.159419 0.159280 0.159142 0.159003 0.158880 0.158787 0.158750 0.158743 0.158735 0.158699 0.158612 0.158498 0.158390 0.158281 0.158173 0.158072 0.157995 0.157965 0.157959 0.157953 0.157925 0.157855 0.157762 0.157672 0.157583 0.157494 0.157407 0.157342 0.157319 0.157314 0.157309 0.157285 0.157224 0.157142 0.157065 0.156987 0.156909 0.156833 0.156776 0.156753 0.156749 0.156744 0.156722 0.156665 0.156589 0.156515 0.156441 0.156368 0.156295 0.156240 0.156217 0.156213 
0.191386 0.191351 0.191059 0.190243 0.189154 0.188029 0.186904 0.185779 0.184650 0.183804 0.183499 0.183463 0.183426 0.183119 0.182298 0.181202 0.180166 0.179131 0.178096 0.177124 0.176396 0.176138 0.176107 0.176077 0.175822 0.175148 0.174248 0.173405 0.172562 0.171719 0.170956 0.170384 0.170219 0.170199 0.170179 0.170018 0.169619 0.169085 0.168644 0.168202 0.167761 0.167395 0.167121 0.167030 0.167019 0.167008 0.166917 0.166680 0.166363 0.166079 0.165795 0.165510 0.165257 0.165067 0.165003 0.164995 0.164987 0.164922 0.164748 0.164515 0.164297 0.164079 0.163860 0.163655 0.163501 0.163446 0.163440 
0.231254 0.231126 0.230503 0.228978 0.226952 0.225062 0.223171 0.221280 0.219516 0.218187 0.217675 0.217570 0.217464 0.216951 0.215701 0.214041 0.212510 0.210979 0.209448 0.208017 0.206939 0.206524 0.206439 0.206355 0.205945 0.204953 0.203634 0.202433 0.201232 0.200031 0.198916 0.198077 0.197752 0.197686 0.197620 0.197299 0.196518 0.195480 0.194527 0.193574 0.192621 0.191748 0.191091 0.190835 0.190783 0.190731 0.190478 0.189867 0.189055 0.188297 0.187539 0.186781 0.186077 0.185546 0.185341 0.185299 0.185258 0.185063 0.184582 0.183942 0.183353 0.182765 0.182176 0.181644 0.181244 0.181123 0.181098 0.181074 0.180954 0.180660 0.180270 0.179943 0.179616 0.179288 0.179005 0.178792 0.178715 0.178700 0.178684 0.178608 0.178423 0.178176 0.177969 0.177762 0.177555 0.177376 0.177241 0.177188 0.177177 0.177166 0.177113 0.176989 0.176824 0.176675 0.176526 0.176376 0.176244 0.176144 0.176103 0.176094 0.176086 0.176045 0.175957 0.175840 0.175729 0.175618 0.175508 0.175405 0.175329 0.175297 0.175291 0.175285 0.175257 0.175189 0.175100 0.175013 0.174927 0.174840 0.174755 0.174691 0.174669 0.174665 
