-1.478629 0.713290 18.250068
-1.477745 0.718838 18.261503
-1.476861 0.724385 18.272939
-1.439558 0.971761 18.778949
-1.405001 1.218555 19.278792
-1.440550 1.508689 19.720205
-1.838385 1.886386 19.705130
-1.476316 0.727812 18.280003
-1.439696 0.970889 18.777155
-1.439421 0.972632 18.780744
-1.405172 1.217712 19.276987
-1.404830 1.219397 19.280598
-1.439417 1.507109 19.719735
-1.441683 1.510268 19.720675
-1.836677 1.885346 19.705088
-1.474224 0.740941 18.307067
-1.441769 0.957745 18.750097
-1.437252 0.985693 18.807834
-1.407754 1.205013 19.249761
-1.402248 1.232097 19.307823
-1.425787 1.484183 19.705923
-1.458764 1.534085 19.727756
-1.810930 1.869667 19.704459
-1.469830 0.769375 18.365428
-1.465041 0.801314 18.430709
-1.460370 0.833355 18.495949
-1.455706 0.865402 18.561186
-1.451007 0.897419 18.626436
-1.446232 0.929370 18.691712
-1.432529 1.013842 18.866308
-1.427369 1.045460 18.931717
-1.422589 1.077406 18.996994
-1.418312 1.109785 19.062091
-1.415064 1.143041 19.126807
-1.411567 1.176086 19.191618
-1.394164 1.257219 19.367256
-1.383987 1.284316 19.434090
-1.374094 1.311677 19.500860
-1.371673 1.345571 19.565150
-1.379043 1.386595 19.623617
-1.397273 1.434940 19.674363
-1.495797 1.585427 19.742472
-1.542687 1.641145 19.741204
-1.591995 1.693889 19.733404
-1.643702 1.743858 19.722131
-1.698376 1.790637 19.710857
-1.756919 1.833584 19.705892
-3.136227 2.485457 19.785366
-4.194601 3.394294 19.771938
-4.408882 4.790497 19.845593
-4.590961 6.209062 19.915156
-4.976586 7.584504 19.994867
-5.663109 8.834498 20.086876
-6.642576 9.870358 20.186454
-7.837307 10.650562 20.286928
-9.146856 11.220196 20.384535
-1.840093 1.887426 19.705171
-3.134425 2.484590 19.785336
-3.138030 2.486323 19.785396
-4.193746 3.392486 19.771971
-4.195455 3.396102 19.771905
-4.408737 4.788505 19.845501
-4.409028 4.792490 19.845685
-4.590596 6.207098 19.915053
-4.591325 6.211026 19.915259
-4.975902 7.582628 19.994749
-4.977270 7.586379 19.994985
-5.661920 8.832895 20.086740
-5.664297 8.836101 20.087012
-6.641017 9.869114 20.186313
-6.644136 9.871602 20.186595
-7.835540 10.649635 20.286790
-7.839073 10.651489 20.287067
-9.144972 11.219540 20.384401
-1.865840 1.903106 19.705800
-3.107253 2.471527 19.784884
-3.165160 2.499474 19.785722
-4.181568 3.364910 19.772330
-4.208336 3.423359 19.771408
-4.406541 4.758465 19.844113
-4.411224 4.822530 19.847073
-4.585105 6.177491 19.913503
-4.596816 6.240633 19.916809
-4.965591 7.554350 19.992970
-4.988202 7.614416 19.996790
-5.644430 8.808420 20.084706
-5.682214 8.860267 20.089057
-6.617504 9.850359 20.184187
-6.667649 9.890358 20.188721
-7.808905 10.635657 20.284699
-7.865708 10.665467 20.289157
-9.116562 11.209641 20.382391
-1.988683 1.965114 19.713718
-2.189834 2.049236 19.727600
-2.390165 2.135226 19.741937
-2.588380 2.225799 19.757707
-2.786259 2.317186 19.772967
-2.983088 2.411598 19.782057
-3.288672 2.560788 19.786562
-3.479707 2.666725 19.786470
-3.663263 2.785151 19.784301
-3.838870 2.915030 19.780029
-4.001880 3.060074 19.775999
-4.125009 3.239177 19.773569
-4.269305 3.547016 19.769171
-4.343486 3.751647 19.773008
-4.355198 3.968751 19.792239
-4.365024 4.185984 19.812891
-4.382602 4.403240 19.827942
-4.397411 4.621000 19.838034
-4.422449 4.959822 19.853503
-4.444453 5.176964 19.863792
-4.467911 5.393954 19.874137
-4.494267 5.610595 19.884668
-4.525910 5.826515 19.895476
-4.561051 6.041887 19.906467
-4.623834 6.375668 19.923996
-4.672192 6.588416 19.935661
-4.725068 6.800086 19.947548
-4.781532 7.010806 19.959607
-4.848681 7.218322 19.972161
-4.920017 7.424453 19.984903
-5.042354 7.740933 20.005216
-5.135607 7.938055 20.018862
-5.229795 8.134732 20.032543
-5.334137 8.326139 20.046590
-5.448006 8.512061 20.060956
-5.566180 8.695258 20.075451
-5.765627 8.969666 20.098446
-5.904086 9.138009 20.113464
-6.046692 9.302858 20.128569
-6.196145 9.461449 20.143789
-6.354731 9.610951 20.159128
-6.514435 9.759276 20.174481
-6.777203 9.973524 20.198443
-6.952700 10.102772 20.213844
-7.129717 10.229888 20.229236
-7.313218 10.347459 20.244569
-7.499498 10.460628 20.259864
-7.687963 10.570107 20.275117
-7.988397 10.727699 20.298690
-8.184371 10.823135 20.313744
-8.381979 10.915142 20.328737
-8.582345 11.000977 20.343613
-8.784529 11.082491 20.358401
-8.987235 11.162692 20.373160
163 NaN NaN
-1.479071 0.710517 18.244350
-1.472096 0.754304 18.334614
-1.465467 0.798391 18.424758
-1.459018 0.842633 18.514839
-1.452581 0.886886 18.604917
-1.445988 0.931003 18.695048
-1.439072 0.974842 18.785292
-1.431773 1.018348 18.875667
-1.424677 1.062030 18.965972
-1.418622 1.106610 19.055912
-1.414138 1.152528 19.145270
-1.409172 1.198038 19.234808
-1.400563 1.240386 19.325594
-1.386388 1.277677 19.417890
-1.372730 1.315446 19.510058
-1.371042 1.363556 19.598042
-1.393668 1.428714 19.670372
-1.437578 1.504545 19.718973
-1.494355 1.583713 19.742511
-1.558964 1.660487 19.740763
-1.628791 1.731100 19.725205
-1.704246 1.795660 19.709646
-1.785667 1.854283 19.703843
-1.871511 1.906559 19.705938
-1.960675 1.952660 19.711775
-2.052373 1.993435 19.718135
-2.145341 2.031246 19.724519
-2.238382 2.068866 19.730962
-2.330602 2.108435 19.737517
-2.422108 2.149594 19.744308
-2.513285 2.191414 19.751475
-2.604462 2.233163 19.759041
-2.695612 2.275002 19.766453
-2.786595 2.317343 19.772991
-2.877290 2.360495 19.778044
-2.967792 2.404197 19.781647
-3.058291 2.447988 19.784071
-3.148916 2.491557 19.785577
-3.239315 2.535614 19.786387
-3.328898 2.581306 19.786705
-3.417070 2.629662 19.786711
-3.503616 2.680872 19.786378
-3.588550 2.734708 19.785567
-3.671887 2.790974 19.784155
-3.753559 2.849616 19.782262
-3.833469 2.910633 19.780169
-3.911445 2.974100 19.778145
-3.985694 3.041866 19.776352
-4.052456 3.116965 19.774894
-4.106915 3.201367 19.773888
-4.150313 3.292051 19.773123
-4.189958 3.384468 19.772118
-4.232913 3.475366 19.770459
-4.278448 3.565016 19.768848
-4.318643 3.657144 19.769082
-4.344149 3.754167 19.773113
-4.353470 3.853926 19.780961
-4.354946 3.953998 19.790748
-4.356652 4.054033 19.800859
-4.362415 4.153989 19.810246
-4.370561 4.253883 19.818503
-4.378950 4.353867 19.825298
-4.386358 4.454016 19.830661
-4.393090 4.554255 19.835177
-4.399582 4.654520 19.839469
-4.406270 4.754764 19.843942
-4.413594 4.854956 19.848571
-4.421990 4.955060 19.853278
-4.431635 5.055050 19.858006
-4.442089 5.154960 19.862745
-4.452821 5.254839 19.867494
-4.463542 5.354719 19.872254
-4.474660 5.454554 19.877045
-4.486709 5.554277 19.881890
-4.500070 5.653830 19.886802
-4.514574 5.753221 19.891773
-4.529927 5.852482 19.896788
-4.545899 5.951643 19.901836
-4.562530 6.050694 19.906919
-4.579935 6.149610 19.912043
-4.598249 6.248359 19.917214
-4.617712 6.346885 19.922443
-4.638604 6.445113 19.927744
-4.661119 6.542978 19.933126
-4.684894 6.640541 19.938569
-4.709336 6.737938 19.944045
-4.733977 6.835285 19.949532
-4.759393 6.932429 19.955055
-4.786687 7.029055 19.960667
-4.816815 7.124826 19.966410
-4.849203 7.219854 19.972255
-4.882358 7.314615 19.978134
-4.914926 7.409581 19.983987
-4.947439 7.504567 19.989838
-4.981828 7.598880 19.995771
-5.019925 7.691742 20.001859
-5.061565 7.783067 20.008091
-5.104884 7.873606 20.014387
-5.148074 7.964207 20.020678
-5.190917 8.054974 20.026956
-5.234894 8.145192 20.033275
-5.281522 8.234058 20.039692
-5.331196 8.321252 20.046215
-5.382939 8.407231 20.052807
-5.435742 8.492564 20.059431
-5.489169 8.577504 20.066074
-5.543647 8.661772 20.072748
-5.599664 8.745019 20.079468
-5.657537 8.826983 20.086240
-5.717292 8.907580 20.093061
-5.778925 8.986747 20.099928
-5.842280 9.064540 20.106832
-5.906866 9.141313 20.113762
-5.972159 9.217485 20.120707
-6.037989 9.293192 20.127664
-6.105113 9.367749 20.134643
-6.174410 9.440283 20.141658
-6.246278 9.510270 20.148706
-6.319699 9.578629 20.155770
-6.393428 9.646655 20.162838
-6.466672 9.715204 20.169902
-6.540399 9.783233 20.176970
-6.616001 9.849160 20.184051
-6.694418 9.911711 20.191141
-6.774779 9.971753 20.198231
-6.855774 10.030941 20.205319
-6.936372 10.090667 20.212408
-7.016961 10.150407 20.219497
-7.098481 10.208864 20.226581
-7.181700 10.264877 20.233653
-7.266373 10.318672 20.240708
-7.351844 10.371195 20.247752
-7.437554 10.423328 20.254792
-7.523495 10.475078 20.261828
-7.609973 10.525927 20.268855
-7.697261 10.575374 20.275864
-7.785388 10.623315 20.282854
-7.874221 10.669935 20.289825
-7.963639 10.715428 20.296779
-8.053530 10.759981 20.303718
-8.143795 10.803774 20.310644
-8.234344 10.846979 20.317561
-8.325230 10.889470 20.324464
-8.416641 10.930823 20.331347
-8.508749 10.970603 20.338200
-8.601495 11.008880 20.345022
-8.694570 11.046354 20.351827
-8.787675 11.083755 20.358631
-8.880766 11.121188 20.365435
-8.974171 11.157835 20.372222
-9.068219 11.192799 20.378971
-9.162975 11.225812 20.385675
-9.258099 11.257755 20.392352
-9.353246 11.289631 20.399027
-9.448263 11.321890 20.405712
-9.543405 11.353779 20.412388
-9.638969 11.384386 20.419032
-9.735098 11.413179 20.425627
-9.831613 11.440661 20.432188
-9.928308 11.467511 20.438730
-10.024989 11.494410 20.445274
-10.121463 11.522037 20.451838
-10.217519 11.551070 20.458441
