0.008748
16
0.007824
12
0.003912
31
0.008748
17
0.003314
8
A9
0.001827
15
A8
0.002452
14
A5
0.000715
49
A3
0.001929
19
A2
0.001977
19
A1
0.002683
15
D1
0.002818
13
D4
0.001453
24
D6
0.003779
9
D7
0.002329
15
D8
0.001429
25
D9
0.002986
12
D13
0.002623
13
D17
0.002161
14
D23
0.001123
23
D30
