0.131684 0.131690 0.131776 0.132170 0.132793 0.133425 0.134056 0.134687 0.135324 0.135725 0.135814 0.135820 0.135826 0.135914 0.136317 0.136955 0.137596 0.138236 0.138876 0.139524 0.139933 0.140024 0.140030 0.140036 0.140127 0.140541 0.141197 0.141854 0.142511 0.143169 0.143822 0.144234 0.144323 0.144330 0.144336 0.144427 0.144836 0.145486 0.146137 0.146788 0.147439 0.148097 0.148513 0.148604 0.148611 0.148617 0.148708 0.149124 0.149784 0.150433 0.151082 0.151731 0.152364 0.152763 0.152849 0.152855 0.152862 0.152948 0.153332 0.153941 0.154514 0.155087 0.155660 0.156193 0.156529 0.156600 0.156605 
0.131682 0.131680 0.131659 0.131597 0.131510 0.131419 0.131328 0.131237 0.131139 0.131069 0.131046 0.131044 0.131041 0.131018 0.130944 0.130840 0.130733 0.130626 0.130520 0.130413 0.130336 0.130312 0.130309 0.130307 0.130282 0.130207 0.130102 0.129997 0.129893 0.129789 0.129683 0.129607 0.129583 0.129580 
0.131682 0.131681 0.131668 0.131550 0.131364 0.130929 0.130494 0.130059 0.129478 0.129112 0.129026 0.129021 0.129015 0.128928 0.128540 0.127926 0.127373 0.126821 0.126269 0.125821 0.125537 0.125481 0.125477 0.125474 0.125419 0.125196 0.124843 0.124542 0.124242 0.123942 0.123636 0.123443 0.123399 0.123396 0.123393 0.123350 0.123149 0.122830 0.122483 0.122137 0.121790 0.121385 0.121129 0.121069 0.121064 0.121060 0.120999 0.120689 0.120199 0.119626 0.119054 0.118482 0.117943 0.117602 0.117533 0.117528 0.117523 0.117455 0.117165 0.116706 0.116327 0.115949 0.115571 0.115264 0.115070 0.115032 0.115029 0.115027 0.114990 0.114846 0.114618 0.114471 0.114324 0.114177 0.114076 0.114012 0.114000 0.113999 0.113998 0.113986 0.113932 0.113848 0.113769 0.113691 0.113612 0.113537 0.113490 0.113480 0.113479 0.113478 0.113468 0.113423 0.113352 0.113288 0.113223 0.113158 0.113102 0.113066 0.113059 0.113058 0.113058 0.113050 0.113021 0.112974 0.112940 0.112906 0.112871 0.112847 0.112831 0.112828 0.112828 0.112828 0.112824 0.112812 0.112791 0.112774 0.112757 0.112740 0.112726 0.112717 0.112715 0.112715 0.112715 0.112713 0.112705 0.112692 0.112682 0.112672 0.112662 0.112654 0.112649 0.112648 0.112648 0.112648 0.112647 0.112643 0.112637 0.112633 0.112629 0.112625 0.112622 0.112620 0.112620 0.112620 
0.148611 0.148611 0.148612 0.148615 0.148619 0.148622 0.148625 0.148629 0.148631 0.148632 0.148633 0.148633 0.148633 0.148634 0.148635 0.148636 0.148635 0.148633 0.148632 0.148629 0.148627 0.148626 0.148626 0.148625 0.148624 0.148621 0.148617 0.148611 0.148606 0.148600 0.148593 0.148587 0.148585 0.148584 0.148584 0.148581 0.148574 0.148565 0.148554 0.148544 0.148534 0.148522 0.148513 0.148509 0.148508 0.148507 0.148503 0.148493 0.148481 0.148466 0.148452 0.148438 0.148424 0.148413 0.148408 0.148407 0.148406 0.148404 0.148402 0.148399 0.148399 0.148398 0.148398 0.148400 0.148401 0.148402 0.148402 0.148402 0.148403 0.148406 0.148410 0.148414 0.148419 0.148424 0.148430 0.148435 0.148436 0.148437 0.148437 0.148439 0.148443 0.148449 0.148455 0.148461 0.148467 0.148472 0.148477 0.148479 0.148479 0.148480 0.148481 0.148485 0.148490 0.148495 0.148499 0.148504 0.148507 0.148510 0.148511 0.148511 0.148511 0.148512 0.148515 0.148518 0.148519 0.148521 0.148523 0.148524 0.148525 0.148525 0.148525 0.148525 0.148525 0.148524 0.148524 0.148523 0.148522 0.148521 0.148519 0.148517 0.148516 0.148516 0.148516 0.148515 0.148513 0.148510 0.148506 0.148503 0.148499 0.148494 0.148491 0.148489 0.148488 0.148488 0.148486 0.148482 0.148476 0.148470 0.148463 0.148456 0.148449 0.148444 0.148442 0.148441 
0.144328 0.144319 0.144296 0.144245 0.144178 0.144112 0.144045 0.143979 0.143913 0.143863 0.143839 0.143831 0.143823 0.143800 0.143750 0.143686 0.143621 0.143557 0.143493 0.143429 0.143380 0.143357 0.143349 0.143341 0.143319 0.143271 0.143208 0.143145 0.143083 0.143020 0.142959 0.142912 0.142890 0.142882 0.142875 0.142853 0.142806 0.142745 0.142685 0.142625 0.142565 0.142506 0.142461 0.142439 0.142432 0.142424 0.142403 0.142358 0.142298 0.142240 0.142182 0.142123 0.142066 0.142022 0.142001 0.141994 0.141987 0.141966 0.141923 0.141865 0.141809 0.141753 0.141697 0.141641 0.141598 0.141578 0.141571 0.141564 0.141544 0.141503 0.141448 0.141394 0.141341 0.141288 0.141235 0.141195 0.141176 0.141169 0.141162 0.141143 0.141105 0.141056 0.141007 0.140958 0.140909 0.140865 0.140831 0.140816 0.140811 0.140807 0.140794 0.140768 0.140734 0.140701 0.140668 0.140636 0.140606 0.140583 0.140574 0.140571 0.140568 0.140560 0.140542 0.140518 0.140496 0.140473 0.140450 0.140433 0.140420 0.140415 0.140413 0.140411 0.140406 0.140396 0.140382 0.140368 0.140355 0.140342 0.140335 0.140330 0.140328 0.140327 0.140326 0.140324 0.140319 0.140312 0.140308 0.140304 0.140299 0.140299 0.140300 0.140300 0.140300 0.140300 0.140300 0.140300 0.140300 0.140304 0.140308 0.140311 0.140317 0.140321 0.140323 0.140324 0.140325 0.140327 0.140331 0.140336 0.140347 0.140357 0.140367 0.140378 0.140386 0.140390 0.140391 0.140393 0.140396 0.140406 0.140418 0.140433 0.140448 0.140463 0.140478 0.140489 0.140495 0.140497 0.140498 0.140504 0.140518 0.140536 0.140554 0.140573 0.140592 0.140610 0.140625 0.140632 0.140634 0.140637 0.140644 0.140661 0.140683 0.140705 0.140728 0.140750 0.140774 0.140792 0.140801 0.140804 
0.140028 0.140022 0.139993 0.139920 0.139823 0.139725 0.139627 0.139529 0.139431 0.139357 0.139327 0.139321 0.139315 0.139285 0.139211 0.139113 0.139016 0.138920 0.138824 0.138729 0.138658 0.138630 0.138624 0.138618 0.138590 0.138521 0.138429 0.138343 0.138256 0.138169 0.138085 0.138021 0.137997 0.137991 0.137986 0.137961 0.137899 0.137817 0.137735 0.137654 0.137572 0.137489 0.137427 0.137403 0.137398 0.137393 0.137369 0.137308 0.137227 0.137147 0.137068 0.136988 0.136910 0.136850 0.136829 0.136824 0.136820 0.136798 0.136753 0.136694 0.136646 0.136598 0.136550 0.136511 0.136482 0.136475 0.136474 0.136472 0.136465 0.136448 0.136426 0.136413 0.136401 0.136388 0.136382 0.136377 0.136379 0.136380 0.136380 0.136382 0.136386 0.136392 0.136405 0.136418 0.136431 0.136448 0.136461 0.136468 0.136470 0.136471 0.136479 0.136497 0.136522 0.136552 0.136582 0.136612 0.136645 0.136670 0.136682 0.136684 
0.135819 0.135817 0.135808 0.135787 0.135758 0.135728 0.135698 0.135668 0.135636 0.135613 0.135603 0.135600 0.135597 0.135587 0.135562 0.135528 0.135491 0.135455 0.135418 0.135380 0.135351 0.135339 0.135336 0.135333 0.135320 0.135289 0.135248 0.135206 0.135163 0.135121 0.135078 0.135045 0.135031 0.135027 0.135024 0.135010 0.134979 0.134938 0.134898 0.134859 0.134820 0.134782 0.134754 0.134743 0.134740 0.134737 0.134726 0.134705 0.134677 0.134650 0.134622 0.134594 0.134566 0.134544 0.134535 0.134533 0.134531 0.134522 0.134500 0.134471 0.134444 0.134417 0.134391 0.134362 0.134341 0.134332 0.134330 0.134327 0.134318 0.134295 0.134265 0.134234 0.134202 0.134170 0.134137 0.134113 0.134102 0.134099 0.134097 0.134086 0.134060 0.134027 0.133992 0.133958 0.133924 0.133891 0.133867 0.133858 0.133856 0.133854 0.133847 0.133829 0.133806 0.133792 0.133778 0.133764 0.133752 0.133743 0.133741 0.133741 0.133741 0.133739 0.133736 0.133732 0.133731 0.133730 0.133729 0.133732 0.133734 0.133735 0.133735 0.133736 0.133736 0.133741 0.133748 0.133755 0.133762 0.133769 0.133780 0.133788 0.133792 0.133792 0.133793 0.133797 0.133804 0.133815 0.133828 0.133842 0.133856 0.133870 0.133881 0.133886 0.133887 0.133889 0.133894 0.133906 0.133923 0.133940 0.133958 0.133976 0.133995 0.134010 0.134016 0.134018 
0.131044 0.131045 0.131047 0.131053 0.131060 0.131065 0.131071 0.131076 0.131080 0.131083 0.131084 0.131084 0.131085 0.131086 0.131087 0.131089 0.131089 0.131089 0.131090 0.131088 0.131087 0.131086 0.131086 0.131086 0.131085 0.131082 0.131079 0.131074 0.131068 0.131063 0.131056 0.131051 0.131049 0.131048 0.131048 0.131046 0.131040 0.131033 0.131026 0.131020 0.131013 0.131007 0.131002 0.131000 0.131000 0.130999 0.130998 0.130994 0.130989 0.130986 0.130982 0.130979 0.130978 0.130977 0.130976 0.130976 0.130976 0.130976 0.130976 0.130975 0.130974 0.130974 0.130973 0.130971 0.130970 0.130970 0.130970 0.130970 0.130969 0.130967 0.130964 0.130960 0.130956 0.130952 0.130947 0.130943 0.130941 0.130940 0.130940 0.130938 0.130933 0.130927 0.130919 0.130912 0.130905 0.130897 0.130890 0.130888 0.130887 0.130886 0.130883 0.130877 0.130868 0.130858 0.130849 0.130839 0.130838 0.130837 0.130838 0.130838 0.130839 0.130839 0.130841 0.130844 0.130850 0.130856 0.130862 0.130869 0.130874 0.130876 0.130877 0.130877 0.130880 0.130887 0.130896 0.130905 0.130914 0.130923 0.130934 0.130942 0.130946 0.130947 0.130948 0.130951 0.130959 0.130969 0.130980 0.130991 0.131003 0.131013 0.131021 0.131025 0.131026 0.131027 0.131030 0.131039 0.131049 0.131061 0.131072 0.131083 0.131095 0.131104 0.131107 0.131108 0.131109 0.131113 0.131122 0.131134 0.131147 0.131159 0.131171 0.131184 0.131194 0.131198 0.131199 
0.129580 0.129579 0.129572 0.129553 0.129529 0.129501 0.129474 0.129447 0.129420 0.129399 0.129391 0.129389 0.129388 0.129379 0.129358 0.129330 0.129302 0.129274 0.129246 0.129219 0.129198 0.129191 0.129189 0.129188 0.129180 0.129161 0.129134 0.129110 0.129085 0.129061 0.129037 0.129019 0.129013 0.129012 0.129011 0.129005 0.129000 0.128994 0.129000 0.129006 0.129012 0.129022 0.129030 0.129033 0.129033 0.129034 0.129038 0.129050 0.129064 0.129082 0.129100 0.129118 0.129140 0.129156 0.129162 0.129163 0.129164 0.129170 0.129189 0.129213 0.129240 0.129267 0.129294 0.129324 0.129347 0.129356 0.129357 
