0.253481 0.253406 0.252367 0.247448 0.239654 0.232956 0.226258 0.219560 0.214171 0.210770 0.210087 0.210038 0.209989 0.209315 0.206509 0.202064 0.198448 0.194833 0.191217 0.188151 0.186215 0.185812 0.185783 0.185754 0.185354 0.183610 0.180848 0.178416 0.175984 0.173552 0.171400 0.170042 0.169758 0.169738 0.169717 0.169436 0.168226 0.166310 0.164623 0.162935 0.161247 0.159738 0.158785 0.158585 0.158571 0.158557 0.158358 0.157494 0.156125 0.154873 0.153622 0.152370 0.151223 0.150499 0.150345 0.150333 
0.253502 0.253511 0.253598 0.253440 0.253220 0.251893 0.250567 0.249240 0.247118 0.245592 0.245028 0.244970 0.244911 0.244332 0.242498 0.239947 0.237191 0.234434 0.231678 0.228794 0.226721 0.226039 0.225969 0.225899 0.225228 0.223149 0.220257 0.217401 0.214544 0.211687 0.208971 0.207017 0.206461 0.206403 0.206343 0.205757 0.204301 0.202277 0.200927 0.199577 0.198227 0.197033 0.196174 0.195919 0.195893 0.195867 0.195612 0.194824 0.193727 0.192540 0.191354 0.190167 0.188939 0.188056 0.187761 0.187731 
0.253532 0.253659 0.255516 0.260089 0.267334 0.266623 0.265912 0.265201 0.260545 0.257607 0.256836 0.256784 0.256725 0.255867 0.250604 0.242264 0.234710 0.227156 0.219602 0.213274 0.209280 0.208462 0.208406 0.208351 0.207540 0.204151 0.198780 0.194421 0.190062 0.185703 0.182406 0.180324 0.179929 0.179902 0.179876 0.179489 0.177945 0.175498 0.173601 0.171705 0.169809 0.167931 0.166747 0.166462 0.166443 0.166422 0.166127 0.164479 0.161868 0.157545 0.153221 0.148897 0.144336 0.141457 0.140862 0.140821 0.140781 0.140192 0.137723 0.133812 0.131150 0.128488 0.125827 0.124478 0.123626 0.123479 0.123469 0.123459 0.123316 0.122764 0.121889 0.121269 0.120649 0.120029 0.119537 0.119226 0.119165 0.119161 0.119157 0.119097 0.118847 0.118451 0.118141 0.117830 0.117520 0.117261 0.117098 0.117065 0.117062 0.117060 0.117027 0.116880 0.116649 0.116441 0.116233 0.116025 0.115837 0.115719 0.115694 0.115692 0.115690 0.115666 0.115559 0.115389 0.115245 0.115101 0.114957 0.114841 0.114768 0.114753 0.114752 0.114751 0.114737 0.114678 0.114583 0.114510 0.114436 0.114362 0.114304 0.114268 0.114260 0.114260 0.114259 0.114252 0.114222 0.114174 0.114135 0.114097 0.114058 0.114028 0.114009 0.114005 0.114005 0.114004 0.114001 0.113985 0.113960 0.113941 0.113922 0.113903 0.113888 0.113879 0.113878 0.113878 0.113877 0.113876 0.113869 0.113858 0.113851 0.113844 0.113838 0.113834 0.113831 0.113831 0.113831 
0.169733 0.169716 0.169663 0.169549 0.169398 0.169249 0.169099 0.168949 0.168792 0.168673 0.168617 0.168598 0.168579 0.168523 0.168402 0.168242 0.168083 0.167925 0.167767 0.167605 0.167482 0.167426 0.167407 0.167388 0.167332 0.167211 0.167052 0.166892 0.166732 0.166572 0.166413 0.166291 0.166236 0.166218 0.166199 0.166144 0.166024 0.165865 0.165704 0.165542 0.165380 0.165218 0.165095 0.165039 0.165020 0.165001 0.164945 0.164822 0.164659 0.164493 0.164328 0.164162 0.163995 0.163868 0.163810 0.163791 0.163771 0.163713 0.163588 0.163424 0.163259 0.163095 0.162930 0.162779 0.162664 0.162617 0.162601 0.162586 0.162539 0.162438 0.162307 0.162180 0.162053 0.161926 0.161807 0.161716 0.161676 0.161662 0.161649 0.161608 0.161522 0.161409 0.161301 0.161194 0.161086 0.160984 0.160906 0.160871 0.160859 0.160848 0.160813 0.160738 0.160639 0.160545 0.160452 0.160359 0.160269 0.160201 0.160170 0.160160 0.160150 0.160119 0.160052 0.159965 0.159883 0.159801 0.159718 0.159638 0.159576 0.159549 0.159540 0.159531 0.159503 0.159444 0.159366 0.159290 0.159214 0.159138 0.159063 0.159005 0.158979 0.158970 0.158962 0.158937 0.158884 0.158814 0.158743 0.158673 0.158603 0.158535 0.158483 0.158460 0.158452 0.158445 0.158422 0.158372 0.158306 0.158240 0.158174 0.158108 0.158047 0.157999 0.157978 0.157970 0.157963 0.157942 0.157894 0.157831 0.157770 0.157709 0.157648 0.157588 0.157543 0.157523 0.157516 0.157509 0.157488 0.157443 0.157384 0.157327 0.157269 0.157212 0.157155 0.157111 0.157091 0.157085 0.157078 0.157058 0.157014 0.156957 0.156901 0.156845 0.156790 0.156733 0.156690 0.156670 0.156663 
0.210022 0.209957 0.209660 0.208909 0.207911 0.206881 0.205850 0.204820 0.203778 0.202992 0.202682 0.202614 0.202546 0.202233 0.201461 0.200436 0.199430 0.198424 0.197418 0.196468 0.195752 0.195470 0.195409 0.195347 0.195064 0.194384 0.193482 0.192651 0.191819 0.190988 0.190229 0.189658 0.189435 0.189387 0.189339 0.189117 0.188589 0.187888 0.187243 0.186598 0.185953 0.185325 0.184852 0.184664 0.184623 0.184582 0.184393 0.183920 0.183293 0.182660 0.182027 0.181394 0.180761 0.180285 0.180093 0.180052 0.180010 0.179820 0.179352 0.178730 0.178119 0.177508 0.176897 0.176304 0.175858 0.175686 0.175648 0.175611 0.175440 0.175019 0.174461 0.173950 0.173439 0.172929 0.172545 0.172256 0.172162 0.172142 0.172122 0.172029 0.171804 0.171505 0.171268 0.171030 0.170793 0.170582 0.170424 0.170375 0.170364 0.170353 0.170304 0.170179 0.170013 0.169871 0.169728 0.169586 0.169456 0.169358 0.169327 0.169321 0.169314 0.169283 0.169204 0.169098 0.169006 0.168914 0.168822 0.168739 0.168676 0.168657 0.168652 0.168648 0.168629 0.168580 0.168515 0.168465 0.168415 0.168365 0.168322 0.168289 0.168279 0.168277 
0.244929 0.244766 0.244067 0.242400 0.240190 0.238047 0.235904 0.233761 0.231694 0.230134 0.229503 0.229355 0.229208 0.228579 0.227041 0.225001 0.223033 0.221065 0.219097 0.217161 0.215700 0.215104 0.214965 0.214824 0.214224 0.212715 0.210715 0.208714 0.206713 0.204711 0.203508 0.202601 0.202336 0.202274 0.202213 0.201953 0.201345 0.200539 0.199776 0.199012 0.198249 0.197503 0.196940 0.196712 0.196659 0.196606 0.196379 0.195831 0.195106 0.194390 0.193674 0.192958 0.192260 0.191733 0.191516 0.191465 0.191415 0.191199 0.190672 0.189974 0.189276 0.188577 0.187879 0.187184 0.186661 0.186447 0.186397 0.186347 0.186131 0.185608 0.184914 0.184237 0.183560 0.182883 0.182220 0.181720 0.181519 0.181472 0.181426 0.181227 0.180767 0.180159 0.179604 0.179049 0.178495 0.178018 0.177659 0.177517 0.177484 0.177451 0.177311 0.177002 0.176592 0.176230 0.175869 0.175508 0.175214 0.174993 0.174903 0.174882 0.174861 0.174772 0.174562 0.174285 0.174052 0.173820 0.173587 0.173372 0.173210 0.173148 0.173134 0.173119 0.173058 0.172904 0.172702 0.172522 0.172343 0.172164 0.171992 0.171863 0.171816 0.171805 0.171793 0.171746 0.171628 0.171472 0.171328 0.171184 0.171040 0.170901 0.170796 0.170755 0.170745 
0.195879 0.195823 0.195586 0.195056 0.194352 0.193707 0.193061 0.192416 0.191752 0.191251 0.191045 0.190996 0.190947 0.190741 0.190229 0.189551 0.188861 0.188172 0.187482 0.186805 0.186293 0.186084 0.186035 0.185985 0.185777 0.185274 0.184608 0.183962 0.183317 0.182671 0.182059 0.181597 0.181412 0.181368 0.181325 0.181141 0.180703 0.180122 0.179589 0.179056 0.178523 0.178038 0.177672 0.177552 0.177523 0.177495 0.177376 0.177099 0.176731 0.176431 0.176130 0.175830 0.175566 0.175367 0.175286 0.175267 0.175250 0.175178 0.175029 0.174831 0.174648 0.174464 0.174281 0.174128 0.174012 0.173963 0.173951 0.173939 0.173889 0.173783 0.173643 0.173503 0.173362 0.173222 0.173108 0.173021 0.172984 0.172975 0.172966 0.172929 0.172837 0.172715 0.172609 0.172504 0.172399 0.172298 0.172222 0.172194 0.172187 
