0.184327 0.184353 0.184731 0.186463 0.189208 0.191834 0.194460 0.197085 0.199449 0.200941 0.201252 0.201273 0.201294 0.201602 0.202924 0.205019 0.206692 0.208364 0.210037 0.211255 0.212024 0.212168 0.212178 
0.184319 0.184314 0.184265 0.184069 0.183787 0.183259 0.182731 0.182204 0.181454 0.180932 0.180755 0.180737 0.180720 0.180543 0.179945 0.179086 0.178186 0.177285 0.176385 0.175479 0.174848 0.174659 0.174639 0.174620 0.174432 0.173814 0.172927 0.172074 0.171221 0.170368 0.169554 0.168987 0.168818 0.168801 0.168784 0.168615 0.168074 0.167295 0.166552 0.165809 0.165065 0.164354 0.163859 0.163710 0.163695 0.163680 0.163533 0.163055 0.162368 0.161707 0.161045 0.160384 0.159746 0.159301 0.159168 0.159154 0.159141 0.159008 0.158579 0.157961 0.157362 0.156763 0.156165 0.155585 0.155182 0.155061 0.155048 0.155036 0.154915 0.154524 0.153961 0.153418 0.152874 0.152331 0.151804 0.151438 0.151327 0.151316 0.151305 0.151195 0.150840 0.150330 0.149837 0.149343 0.148850 0.148376 0.148046 0.147947 0.147937 0.147927 0.147828 0.147510 0.147053 0.146612 0.146172 0.145731 0.145310 0.145017 0.144929 0.144920 0.144911 0.144824 0.144541 0.144135 0.143746 0.143357 0.142967 0.142594 0.142334 0.142256 0.142248 0.142240 0.142162 0.141910 0.141549 0.141197 0.140846 0.140495 0.140154 0.139917 0.139846 0.139839 0.139831 0.139760 0.139528 0.139195 0.138870 0.138544 0.138219 0.137900 0.137679 0.137612 0.137605 0.137598 0.137532 0.137315 0.137003 0.136698 0.136392 0.136087 0.135788 0.135580 0.135518 0.135512 0.135505 0.135443 0.135241 0.134950 0.134666 0.134383 0.134100 0.133824 0.133632 0.133575 0.133569 0.133563 0.133506 0.133319 0.133050 0.132789 0.132529 0.132268 0.132015 0.131839 0.131786 0.131780 0.131775 0.131722 0.131551 0.131305 0.131066 0.130827 0.130588 0.130356 0.130195 0.130146 0.130141 
0.184325 0.184344 0.184629 0.185282 0.186317 0.185588 0.184859 0.184130 0.182633 0.181689 0.181440 0.181423 0.181407 0.181160 0.180008 0.178184 0.176480 0.174776 0.173072 0.171583 0.170644 0.170447 0.170434 0.170421 0.170225 0.169333 0.167920 0.166478 0.165035 0.163592 0.161909 0.160847 0.160562 0.160543 0.160524 0.160238 0.158872 0.156707 0.153754 0.150801 0.147849 0.144599 0.142548 0.142095 0.142065 0.142035 0.141582 0.139434 0.136031 0.133105 0.130179 0.127253 0.125298 0.124065 0.123842 0.123828 0.123814 0.123600 0.122796 0.121522 0.120733 0.119943 0.119154 0.118656 0.118342 0.118282 0.118279 0.118275 0.118217 0.117988 0.117624 0.117357 0.117091 0.116824 0.116620 0.116492 0.116466 0.116464 0.116462 0.116437 0.116330 0.116160 0.116020 0.115881 0.115742 0.115626 0.115552 0.115537 0.115536 0.115535 0.115521 0.115457 0.115356 0.115270 0.115184 0.115098 0.115025 0.114978 0.114969 0.114968 0.114967 0.114958 0.114917 0.114852 0.114797 0.114741 0.114685 0.114637 0.114607 0.114601 0.114601 0.114600 0.114594 0.114568 0.114526 0.114491 0.114456 0.114421 0.114392 0.114373 0.114369 0.114369 
0.201262 0.201218 0.201073 0.200742 0.200307 0.199860 0.199414 0.198967 0.198508 0.198160 0.198004 0.197956 0.197908 0.197751 0.197397 0.196932 0.196464 0.195996 0.195527 0.195059 0.194703 0.194546 0.194498 0.194449 0.194292 0.193938 0.193470 0.193007 0.192543 0.192080 0.191627 0.191284 0.191134 0.191088 0.191042 0.190892 0.190558 0.190117 0.189690 0.189264 0.188838 0.188422 0.188107 0.187969 0.187927 0.187885 0.187749 0.187449 0.187054 0.186678 0.186302 0.185926 0.185567 0.185294 0.185176 0.185139 0.185103 0.184986 0.184732 0.184397 0.184076 0.183754 0.183433 0.183127 0.182894 0.182794 0.182763 0.182733 0.182635 0.182421 0.182140 0.181881 0.181623 0.181364 0.181122 0.180939 0.180860 0.180835 0.180811 0.180733 0.180562 0.180337 0.180114 0.179890 0.179667 0.179444 0.179275 0.179199 0.179176 0.179153 0.179077 0.178905 0.178677 0.178447 0.178217 0.177987 0.177751 0.177572 0.177492 0.177467 0.177442 0.177362 0.177183 0.176947 0.176710 0.176473 0.176236 0.176004 0.175827 0.175750 0.175726 0.175702 0.175625 0.175451 0.175222 0.174999 0.174776 0.174553 0.174338 0.174175 0.174101 0.174078 0.174056 0.173982 0.173816 0.173598 0.173397 0.173196 0.172996 0.172800 0.172651 0.172586 0.172566 0.172546 0.172481 0.172350 0.172178 0.172011 0.171844 0.171677 0.171528 0.171414 0.171369 0.171355 0.171341 0.171296 0.171196 0.171064 0.170947 0.170829 0.170712 0.170615 0.170541 0.170509 0.170499 0.170489 0.170457 0.170386 0.170293 0.170221 0.170149 0.170077 0.170007 0.169954 0.169930 0.169923 0.169916 0.169892 0.169853 0.169801 0.169751 0.169701 0.169650 0.169607 0.169575 0.169563 0.169560 0.169556 0.169545 0.169518 0.169483 0.169451 0.169419 0.169387 0.169363 0.169345 0.169336 0.169334 0.169331 0.169323 0.169303 0.169278 0.169261 0.169244 0.169227 0.169210 0.169197 0.169190 0.169188 0.169186 0.169180 0.169171 0.169160 0.169149 0.169138 0.169127 0.169118 0.169111 0.169109 0.169108 0.169108 0.169106 0.169102 0.169097 0.169092 0.169087 0.169083 0.169080 0.169078 0.169077 0.169077 0.169076 0.169075 0.169072 0.169069 0.169070 0.169071 0.169071 0.169072 0.169072 0.169072 0.169072 0.169072 0.169072 0.169074 0.169077 0.169079 0.169082 0.169084 0.169086 0.169088 0.169089 0.169090 
0.180734 0.180718 0.180633 0.180408 0.180108 0.179777 0.179446 0.179114 0.178755 0.178485 0.178376 0.178357 0.178337 0.178227 0.177935 0.177547 0.177144 0.176741 0.176337 0.175925 0.175615 0.175494 0.175472 0.175450 0.175329 0.175015 0.174597 0.174188 0.173778 0.173368 0.172978 0.172685 0.172575 0.172555 0.172536 0.172427 0.172152 0.171787 0.171447 0.171107 0.170768 0.170462 0.170232 0.170147 0.170132 0.170117 0.170033 0.169830 0.169561 0.169300 0.169040 0.168779 0.168519 0.168323 0.168248 0.168235 0.168221 0.168146 0.167952 0.167693 0.167429 0.167165 0.166901 0.166633 0.166432 0.166357 0.166343 0.166330 0.166254 0.166059 0.165800 0.165564 0.165329 0.165094 0.164893 0.164742 0.164685 0.164675 0.164665 0.164609 0.164483 0.164317 0.164188 0.164059 0.163930 0.163828 0.163752 0.163729 0.163725 0.163720 0.163697 0.163640 0.163563 0.163511 0.163460 0.163409 0.163375 0.163349 0.163339 0.163337 0.163335 0.163325 0.163309 0.163287 0.163272 0.163257 0.163242 0.163233 0.163225 0.163224 0.163224 0.163223 0.163222 0.163219 0.163215 0.163217 0.163218 0.163220 0.163226 0.163230 0.163231 0.163231 0.163231 0.163232 0.163239 0.163247 0.163256 0.163264 0.163272 0.163280 0.163286 0.163289 0.163290 
0.174635 0.174618 0.174552 0.174391 0.174178 0.173955 0.173732 0.173509 0.173278 0.173104 0.173029 0.173010 0.172991 0.172916 0.172736 0.172497 0.172252 0.172007 0.171763 0.171514 0.171325 0.171246 0.171226 0.171205 0.171125 0.170934 0.170680 0.170426 0.170172 0.169918 0.169665 0.169474 0.169395 0.169374 0.169354 0.169274 0.169084 0.168832 0.168583 0.168335 0.168086 0.167841 0.167657 0.167580 0.167560 0.167540 0.167464 0.167283 0.167043 0.166811 0.166578 0.166345 0.166121 0.165951 0.165882 0.165864 0.165846 0.165777 0.165617 0.165404 0.165200 0.164996 0.164792 0.164593 0.164443 0.164381 0.164365 0.164349 0.164286 0.164142 0.163950 0.163772 0.163593 0.163414 0.163240 0.163108 0.163054 0.163039 0.163025 0.162971 0.162841 0.162669 0.162503 0.162338 0.162172 0.162008 0.161884 0.161833 0.161821 0.161808 0.161757 0.161637 0.161479 0.161327 0.161175 0.161023 0.160879 0.160770 0.160725 0.160714 0.160702 0.160658 0.160564 0.160440 0.160325 0.160209 0.160094 0.159998 0.159926 0.159896 0.159889 0.159881 0.159852 0.159784 0.159694 0.159622 0.159551 0.159479 0.159413 0.159363 0.159346 0.159341 0.159337 0.159320 0.159280 0.159228 0.159182 0.159137 0.159091 0.159053 0.159024 0.159012 0.159009 0.159006 0.158994 0.158972 0.158943 0.158916 0.158889 0.158862 0.158844 0.158830 0.158824 0.158822 0.158821 0.158815 0.158800 0.158781 0.158769 0.158756 0.158744 0.158732 0.158722 0.158721 0.158720 0.158720 0.158718 0.158713 0.158707 0.158702 0.158696 0.158691 0.158688 0.158685 0.158684 0.158684 0.158684 0.158682 0.158682 0.158681 0.158681 0.158681 0.158681 0.158683 0.158684 0.158685 0.158685 
0.151314 0.151304 0.151258 0.151147 0.150999 0.150851 0.150704 0.150556 0.150409 0.150298 0.150253 0.150243 0.150233 0.150188 0.150077 0.149930 0.149786 0.149642 0.149497 0.149356 0.149249 0.149207 0.149197 0.149188 0.149145 0.149041 0.148902 0.148768 0.148633 0.148498 0.148368 0.148270 0.148231 0.148222 0.148214 0.148175 0.148081 0.147957 0.147837 0.147716 0.147595 0.147477 0.147389 0.147353 0.147344 0.147336 0.147300 0.147215 0.147101 0.146990 0.146878 0.146767 0.146662 0.146583 0.146550 0.146543 0.146536 0.146504 0.146432 0.146338 0.146258 0.146178 0.146098 0.146033 0.145984 0.145966 0.145961 0.145957 0.145938 0.145899 0.145846 0.145802 0.145759 0.145715 0.145685 0.145663 0.145654 0.145652 0.145650 0.145641 0.145624 0.145601 0.145585 0.145569 0.145553 0.145547 0.145543 0.145542 0.145541 0.145541 0.145539 0.145538 0.145536 0.145539 0.145543 0.145547 0.145559 0.145568 0.145572 0.145572 0.145573 0.145577 0.145587 0.145601 0.145620 0.145638 0.145657 0.145681 0.145699 0.145706 0.145708 0.145710 0.145717 0.145737 0.145762 0.145792 0.145823 0.145853 0.145886 0.145912 0.145923 0.145925 
