0.198229 0.198264 0.198825 0.201219 0.205013 0.207458 0.209904 0.212349 0.213286 0.213877 0.213934 0.213937 0.213941 0.213995 0.214079 0.214212 0.213719 0.213225 0.212732 0.211622 0.210922 0.210742 0.210730 0.210719 0.210534 0.209588 0.208088 0.206282 0.204477 0.202671 0.200591 0.199278 0.198983 0.198964 0.198946 0.198652 0.197272 0.195086 0.192863 0.190640 0.188416 0.186246 0.184876 0.184581 0.184563 
0.198210 0.198172 0.197765 0.196117 0.193555 0.191190 0.188826 0.186461 0.184299 0.182909 0.182588 0.182558 0.182528 0.182209 0.180931 0.178941 0.177182 0.175422 0.173663 0.172143 0.171166 0.170943 0.170922 
0.198225 0.198246 0.198592 0.198270 0.197760 0.193599 0.189438 0.185277 0.180764 0.177916 0.177329 0.177294 0.177260 0.176675 0.174244 0.170391 0.167345 0.164299 0.161253 0.158872 0.157370 0.157076 0.157058 0.157042 0.156756 0.155573 0.153698 0.152205 0.150712 0.149219 0.147827 0.146949 0.146756 0.146744 0.146733 0.146538 0.145572 0.144039 0.142016 0.139992 0.137969 0.135362 0.133716 0.133350 0.133328 0.133306 0.132942 0.131367 0.128873 0.127051 0.125229 0.123407 0.122151 0.121359 0.121205 0.121196 0.121187 0.121036 0.120427 0.119462 0.118818 0.118174 0.117531 0.117109 0.116843 0.116794 0.116791 0.116788 0.116740 0.116551 0.116251 0.116021 0.115791 0.115561 0.115372 0.115252 0.115227 0.115226 0.115225 0.115200 0.115092 0.114921 0.114768 0.114615 0.114462 0.114329 0.114245 0.114228 0.114227 0.114226 0.114209 0.114138 0.114026 0.113941 0.113855 0.113770 0.113706 0.113666 0.113658 0.113658 0.113657 0.113649 0.113617 0.113566 0.113526 0.113486 0.113446 0.113415 0.113396 0.113392 0.113392 0.113391 0.113388 0.113372 0.113347 0.113328 0.113309 0.113290 0.113276 0.113268 0.113266 0.113266 0.113266 0.113265 0.113259 0.113249 0.113245 0.113240 0.113235 0.113229 0.113225 0.113223 0.113223 
0.198950 0.198891 0.198675 0.198179 0.197523 0.196891 0.196259 0.195627 0.195026 0.194571 0.194384 0.194333 0.194282 0.194097 0.193680 0.193128 0.192598 0.192068 0.191537 0.191020 0.190629 0.190466 0.190422 0.190377 0.190215 0.189841 0.189347 0.188878 0.188409 0.187940 0.187494 0.187157 0.187015 0.186977 0.186938 0.186797 0.186477 0.186054 0.185649 0.185243 0.184837 0.184450 0.184157 0.184037 0.184005 0.183972 0.183853 0.183583 0.183226 0.182909 0.182591 0.182273 0.181984 0.181766 0.181677 0.181653 0.181629 0.181541 0.181351 0.181100 0.180860 0.180620 0.180380 0.180166 0.180004 0.179938 0.179920 0.179902 0.179837 0.179687 0.179488 0.179311 0.179134 0.178957 0.178785 0.178655 0.178599 0.178584 0.178568 0.178512 0.178400 0.178252 0.178104 0.177957 0.177809 0.177682 0.177585 0.177543 0.177532 0.177521 0.177479 0.177381 0.177252 0.177141 0.177029 0.176918 0.176807 0.176722 0.176688 0.176679 0.176670 0.176640 0.176567 0.176471 0.176375 0.176279 0.176184 0.176098 0.176034 0.176006 0.175998 0.175991 0.175963 0.175898 0.175813 0.175738 0.175664 0.175589 0.175514 0.175457 0.175435 0.175429 0.175423 0.175402 0.175351 0.175283 0.175216 0.175149 0.175083 0.175017 0.174968 0.174946 0.174940 
0.213912 0.213814 0.213329 0.212125 0.210525 0.208986 0.207447 0.205907 0.204453 0.203359 0.202934 0.202848 0.202763 0.202343 0.201326 0.199975 0.198770 0.197565 0.196360 0.195298 0.194499 0.194197 0.194136 0.194076 0.193783 0.193096 0.192183 0.191404 0.190626 0.189847 0.189189 0.188694 0.188508 0.188470 0.188432 0.188245 0.187778 0.187159 0.186527 0.185895 0.185264 0.184619 0.184134 0.183942 0.183902 0.183863 0.183671 0.183189 0.182549 0.181936 0.181324 0.180711 0.180141 0.179712 0.179545 0.179511 0.179477 0.179311 0.178921 0.178404 0.177964 0.177524 0.177084 0.176737 0.176476 0.176376 0.176356 0.176335 0.176237 0.176033 0.175762 0.175544 0.175326 0.175109 0.174942 0.174817 0.174767 0.174756 0.174746 0.174695 0.174605 0.174485 0.174388 0.174290 0.174193 0.174119 0.174063 0.174040 0.174035 0.174032 0.174017 0.173983 0.173938 0.173905 0.173873 0.173841 0.173821 0.173807 0.173809 0.173809 
0.182556 0.182545 0.182511 0.182429 0.182322 0.182200 0.182078 0.181956 0.181820 0.181717 0.181670 0.181655 0.181640 0.181591 0.181477 0.181326 0.181161 0.180996 0.180830 0.180649 0.180512 0.180450 0.180431 0.180412 0.180349 0.180208 0.180022 0.179829 0.179637 0.179444 0.179241 0.179086 0.179021 0.179001 0.178981 0.178917 0.178773 0.178584 0.178403 0.178222 0.178041 0.177869 0.177738 0.177679 0.177661 0.177643 0.177584 0.177452 0.177278 0.177121 0.176964 0.176807 0.176670 0.176567 0.176523 0.176510 0.176497 0.176454 0.176364 0.176245 0.176135 0.176024 0.175914 0.175804 0.175721 0.175680 0.175667 0.175655 0.175615 0.175538 0.175435 0.175339 0.175242 0.175145 0.175047 0.174972 0.174939 0.174929 0.174919 0.174885 0.174805 0.174700 0.174591 0.174482 0.174373 0.174253 0.174161 0.174119 0.174106 0.174092 0.174049 0.173950 0.173818 0.173679 0.173540 0.173401 0.173257 0.173148 0.173100 0.173085 0.173071 0.173023 0.172914 0.172771 0.172626 0.172481 0.172336 0.172185 0.172071 0.172021 0.172006 0.171990 0.171940 0.171827 0.171679 0.171531 0.171383 0.171235 0.171085 0.170971 0.170920 0.170905 0.170890 0.170841 0.170732 0.170589 0.170445 0.170302 0.170159 0.170023 0.169920 0.169875 0.169862 0.169848 0.169803 0.169704 0.169574 0.169485 0.169396 0.169307 0.169235 0.169181 0.169157 0.169150 0.169142 0.169119 0.169066 0.168998 0.168945 0.168893 0.168840 0.168789 0.168751 0.168733 0.168728 0.168723 0.168705 0.168673 0.168631 0.168591 0.168552 0.168512 0.168471 0.168439 0.168429 0.168425 0.168422 0.168412 0.168386 0.168353 0.168317 0.168281 0.168246 0.168217 0.168195 0.168185 0.168182 0.168179 0.168169 0.168145 0.168113 0.168083 0.168053 0.168022 0.167994 0.167973 0.167963 0.167960 0.167957 0.167947 0.167924 0.167893 0.167866 0.167840 0.167813 0.167785 0.167765 0.167755 0.167753 0.167750 0.167740 0.167723 0.167701 0.167677 0.167654 0.167630 0.167608 0.167591 0.167585 0.167583 
0.170916 0.170892 0.170819 0.170660 0.170451 0.170247 0.170043 0.169838 0.169636 0.169483 0.169413 0.169390 0.169366 0.169297 0.169144 0.168944 0.168748 0.168551 0.168354 0.168163 0.168018 0.167952 0.167931 0.167909 0.167844 0.167703 0.167518 0.167338 0.167158 0.166978 0.166805 0.166673 0.166614 0.166594 0.166574 0.166514 0.166385 0.166215 0.166050 0.165885 0.165721 0.165560 0.165438 0.165382 0.165364 0.165345 0.165290 0.165168 0.165008 0.164852 0.164696 0.164539 0.164384 0.164266 0.164212 0.164194 0.164176 0.164123 0.164007 0.163854 0.163702 0.163550 0.163398 0.163247 0.163132 0.163080 0.163063 0.163046 0.162994 0.162881 0.162733 0.162585 0.162437 0.162289 0.162147 0.162040 0.161991 0.161975 0.161958 0.161909 0.161802 0.161662 0.161525 0.161389 0.161252 0.161122 0.161023 0.160977 0.160962 0.160947 0.160902 0.160804 0.160675 0.160557 0.160439 0.160321 0.160227 0.160156 0.160130 0.160122 0.160113 0.160088 0.160037 0.159971 0.159919 0.159867 0.159816 0.159766 0.159727 0.159710 0.159704 0.159699 0.159682 0.159657 0.159625 0.159592 0.159559 0.159526 0.159496 0.159473 0.159467 0.159465 0.159463 0.159457 0.159442 0.159422 0.159401 0.159380 0.159359 0.159348 0.159341 0.159337 0.159336 0.159335 0.159332 0.159323 0.159311 0.159300 0.159289 0.159279 0.159272 0.159268 0.159265 0.159264 0.159263 0.159261 0.159254 0.159244 0.159242 0.159239 0.159236 0.159234 0.159232 0.159231 0.159231 0.159231 0.159230 0.159228 0.159226 0.159230 0.159233 0.159237 0.159239 0.159240 0.159241 0.159241 
