0.145612 0.145606 0.145536 0.145221 0.144722 0.144184 0.143646 0.143109 0.142527 0.142160 0.142077 0.142070 0.142063 0.141980 0.141605 0.141011 0.140419 0.139828 0.139236 0.138651 0.138282 0.138200 0.138193 0.138187 0.138105 0.137741 0.137164 0.136598 0.136032 0.135466 0.134913 0.134563 0.134486 0.134480 0.134474 0.134397 0.134054 0.133512 0.132988 0.132464 0.131940 0.131435 0.131116 0.131047 0.131041 0.131036 0.130967 0.130660 0.130174 0.129716 0.129258 0.128799 0.128368 0.128096 0.128036 0.128032 0.128027 0.127968 0.127711 0.127304 0.126926 0.126547 0.126169 0.125816 0.125593 0.125545 0.125541 0.125537 0.125489 0.125278 0.124944 0.124633 0.124321 0.124010 0.123718 0.123534 0.123494 0.123491 
0.145617 0.145631 0.145744 0.146055 0.146470 0.146877 0.147285 0.147692 0.148077 0.148366 0.148468 0.148480 0.148493 0.148594 0.148866 0.149229 0.149566 0.149904 0.150242 0.150560 0.150798 0.150884 0.150894 0.150904 0.150990 0.151221 0.151529 0.151829 0.152130 0.152431 0.152731 0.152956 0.153038 0.153048 0.153058 0.153140 0.153367 0.153669 0.153979 0.154288 0.154597 0.154912 0.155149 0.155236 0.155247 0.155257 0.155345 0.155588 0.155912 0.156244 0.156575 0.156907 0.157248 0.157503 0.157597 0.157608 0.157620 0.157714 0.157977 0.158328 0.158687 0.159047 0.159406 0.159776 0.160053 0.160155 0.160167 0.160180 0.160282 0.160566 0.160946 0.161336 0.161725 0.162115 0.162515 0.162815 0.162925 0.162939 0.162952 0.163063 0.163371 0.163782 0.164205 0.164628 0.165050 0.165485 0.165810 0.165931 0.165945 0.165960 0.166080 0.166415 0.166861 0.167320 0.167779 0.168237 0.168708 0.169061 0.169192 0.169208 0.169223 0.169355 0.169719 0.170205 0.170704 0.171203 0.171702 0.172213 0.172595 0.172736 0.172753 0.172770 0.172911 0.173303 0.173827 0.174366 0.174904 0.175443 0.175994 0.176406 0.176558 0.176576 0.176595 0.176747 0.177171 0.177736 0.178313 0.178889 0.179466 0.180054 0.180494 0.180657 0.180677 0.180696 0.180859 0.181309 0.181910 0.182520 0.183130 0.183741 0.184363 0.184829 0.185001 0.185022 0.185042 0.185214 0.185685 0.186314 0.186960 0.187607 0.188253 0.188909 0.189401 0.189582 0.189603 0.189625 0.189807 0.190307 0.190975 0.191650 0.192326 0.193001 0.193688 0.194202 0.194390 0.194413 0.194436 0.194625 0.195145 0.195840 0.196544 0.197248 0.197952 0.198662 0.199193 0.199389 0.199412 0.199436 0.199632 0.200170 0.200888 0.201608 0.202328 0.203048 0.203773 0.204316 0.204515 0.204539 0.204562 0.204761 0.205306 0.206033 0.206755 0.207476 0.208197 0.208917 0.209456 0.209652 0.209676 0.209699 0.209895 0.210419 0.211119 0.211786 0.212452 0.213118 0.213762 0.214245 0.214419 0.214440 0.214461 0.214634 0.215089 0.215697 0.216267 0.216837 0.217407 0.217925 0.218314 0.218444 0.218460 0.218475 0.218603 0.218929 0.219364 0.219745 0.220127 0.220508 0.220819 0.221052 0.221129 0.221138 0.221147 0.221222 0.221400 0.221638 0.221779 0.221920 0.222061 0.222135 0.222191 0.222203 0.222205 0.222206 0.222217 0.222215 0.222212 0.222138 0.222065 0.221991 0.221835 0.221719 0.221667 0.221661 0.221654 0.221599 0.221429 0.221203 0.220920 0.220638 0.220356 0.220015 0.219759 0.219659 0.219647 0.219634 0.219532 0.219235 0.218838 0.218392 0.217947 0.217502 0.217016 0.216651 0.216514 0.216497 0.216481 0.216341 0.215948 0.215422 0.214859 0.214297 0.213734 0.213140 0.212696 0.212532 0.212512 
0.145613 0.145610 0.145570 0.145504 0.145400 0.145007 0.144614 0.144221 0.143791 0.143520 0.143455 0.143450 0.143445 0.143378 0.143130 0.142737 0.142429 0.142121 0.141812 0.141587 0.141444 0.141415 0.141413 0.141411 0.141383 0.141264 0.141074 0.140896 0.140719 0.140541 0.140344 0.140219 0.140189 0.140186 0.140184 0.140153 0.139986 0.139720 0.139241 0.138762 0.138283 0.137305 0.136688 0.136510 0.136496 0.136482 0.136297 0.135310 0.133748 0.131881 0.130014 0.128146 0.126138 0.124870 0.124613 0.124593 0.124574 0.124327 0.123361 0.121829 0.120959 0.120089 0.119219 0.118727 0.118417 0.118361 0.118356 0.118352 0.118297 0.118080 0.117736 0.117492 0.117249 0.117005 0.116822 0.116707 0.116684 0.116682 0.116680 0.116658 0.116562 0.116411 0.116284 0.116157 0.116031 0.115922 0.115853 0.115839 0.115838 0.115837 0.115823 0.115762 0.115666 0.115584 0.115502 0.115420 0.115350 0.115306 0.115297 0.115297 0.115296 0.115287 0.115249 0.115189 0.115138 0.115087 0.115036 0.114992 0.114965 0.114959 0.114959 0.114958 0.114953 0.114929 0.114891 0.114858 0.114826 0.114793 0.114765 0.114748 0.114744 0.114744 0.114744 0.114740 0.114724 0.114699 0.114678 0.114656 0.114635 0.114616 0.114604 0.114602 0.114602 0.114602 0.114599 0.114588 0.114572 0.114557 0.114542 0.114527 0.114513 0.114504 0.114502 0.114502 
0.125540 0.125538 0.125527 0.125495 0.125452 0.125405 0.125357 0.125310 0.125257 0.125218 0.125203 0.125200 0.125198 0.125182 0.125139 0.125082 0.125019 0.124957 0.124894 0.124827 0.124777 0.124757 0.124754 0.124751 0.124732 0.124678 0.124607 0.124537 0.124468 0.124398 0.124343 0.124301 0.124286 0.124283 0.124281 0.124265 0.124226 0.124173 0.124123 0.124073 0.124023 0.123976 0.123941 0.123928 0.123925 0.123923 0.123910 0.123878 0.123834 0.123793 0.123753 0.123712 0.123676 0.123648 0.123638 0.123636 0.123635 0.123625 0.123600 0.123566 0.123536 0.123505 0.123475 0.123447 0.123426 0.123419 0.123418 
0.134479 0.134475 0.134439 0.134327 0.134169 0.133995 0.133821 0.133648 0.133455 0.133317 0.133270 0.133265 0.133260 0.133212 0.133061 0.132850 0.132620 0.132390 0.132161 0.131914 0.131737 0.131678 0.131672 0.131666 0.131607 0.131453 0.131238 0.131075 0.130912 0.130750 0.130605 0.130501 0.130467 0.130464 0.130461 0.130428 0.130335 0.130205 0.130088 0.129972 0.129856 0.129753 0.129680 0.129658 0.129655 
0.138193 0.138193 0.138191 0.138180 0.138166 0.138136 0.138107 0.138077 0.138037 0.138006 0.137995 0.137993 0.137992 0.137980 0.137944 0.137897 0.137835 0.137774 0.137712 0.137632 0.137573 0.137548 0.137544 0.137541 0.137515 0.137440 0.137339 0.137216 0.137094 0.136972 0.136828 0.136720 0.136678 0.136673 0.136667 0.136624 0.136501 0.136338 0.136217 0.136096 0.135976 0.135880 0.135807 0.135782 0.135778 0.135775 0.135749 0.135682 0.135594 0.135511 0.135427 0.135344 0.135266 0.135207 0.135187 0.135184 0.135182 0.135161 0.135108 0.135036 0.134970 0.134904 0.134838 0.134776 0.134729 0.134712 0.134710 0.134708 0.134691 0.134646 0.134587 0.134530 0.134473 0.134416 0.134361 0.134319 0.134304 0.134302 
0.142070 0.142069 0.142066 0.142054 0.142038 0.142008 0.141979 0.141949 0.141907 0.141875 0.141861 0.141858 0.141856 0.141842 0.141802 0.141749 0.141686 0.141623 0.141560 0.141490 0.141438 0.141417 0.141413 0.141409 0.141387 0.141328 0.141251 0.141177 0.141102 0.141028 0.140962 0.140912 0.140894 0.140891 0.140888 0.140870 0.140824 0.140762 0.140691 0.140620 0.140549 0.140467 0.140405 0.140381 0.140376 0.140371 0.140344 0.140272 0.140175 0.140068 0.139961 0.139854 0.139734 0.139645 0.139608 0.139602 0.139595 0.139558 0.139461 0.139331 0.139190 0.139050 0.138909 0.138760 0.138647 0.138603 0.138595 0.138586 0.138541 0.138454 0.138339 0.138232 0.138125 0.138018 0.137918 0.137843 0.137815 0.137810 0.137805 0.137777 0.137707 0.137614 0.137529 0.137444 0.137359 0.137280 0.137220 0.137197 0.137193 0.137189 0.137167 0.137112 0.137040 0.136971 0.136903 0.136834 0.136770 0.136723 0.136705 0.136702 0.136698 0.136681 0.136636 0.136576 0.136520 0.136465 0.136409 0.136356 0.136317 0.136301 0.136298 0.136295 0.136280 0.136243 0.136193 0.136143 0.136094 0.136045 0.135997 0.135961 0.135948 0.135945 
0.148480 0.148481 0.148482 0.148483 0.148483 0.148475 0.148466 0.148458 0.148439 0.148424 0.148417 0.148415 0.148413 0.148405 0.148383 0.148352 0.148312 0.148271 0.148230 0.148181 0.148143 0.148125 0.148121 0.148116 0.148097 0.148048 0.147983 0.147911 0.147840 0.147768 0.147692 0.147635 0.147610 0.147604 0.147597 0.147572 0.147513 0.147436 0.147359 0.147282 0.147205 0.147127 0.147068 0.147043 0.147037 0.147030 0.147005 0.146945 0.146866 0.146805 0.146743 0.146682 0.146619 0.146572 0.146551 0.146546 0.146541 0.146521 0.146472 0.146407 0.146341 0.146274 0.146207 0.146138 0.146087 0.146065 0.146059 0.146054 0.146031 0.145977 0.145905 0.145830 0.145754 0.145679 0.145598 0.145537 0.145511 0.145504 0.145498 0.145472 0.145419 0.145349 0.145273 0.145197 0.145122 0.145038 0.144975 0.144948 0.144941 0.144934 0.144906 0.144839 0.144750 0.144651 0.144553 0.144454 0.144351 0.144273 0.144239 0.144231 0.144222 0.144186 0.144101 0.143989 0.143872 0.143756 0.143640 0.143517 0.143424 0.143385 0.143375 0.143366 0.143326 0.143229 0.143101 0.142970 0.142838 0.142706 0.142592 0.142506 0.142474 0.142465 0.142457 0.142424 0.142348 0.142246 0.142151 0.142056 0.141961 0.141869 0.141799 0.141772 0.141765 0.141758 0.141732 0.141669 0.141586 0.141506 0.141427 0.141347 0.141273 0.141217 0.141193 0.141187 0.141181 0.141158 0.141105 0.141036 0.140969 0.140902 0.140835 0.140774 0.140727 0.140708 0.140703 0.140699 0.140679 0.140634 0.140573 0.140517 0.140460 0.140404 0.140348 0.140306 0.140289 0.140285 0.140281 0.140265 0.140226 0.140175 0.140124 0.140074 0.140024 0.139976 0.139940 0.139924 0.139921 0.139917 0.139901 0.139866 0.139820 0.139774 0.139728 0.139682 0.139638 0.139605 0.139591 0.139588 0.139584 0.139570 0.139537 0.139492 0.139449 0.139406 0.139363 0.139320 0.139287 0.139273 0.139270 0.139267 0.139253 0.139221 0.139179 0.139136 0.139093 0.139050 0.139007 0.138975 0.138961 0.138958 
0.153047 0.153041 0.153009 0.152919 0.152800 0.152664 0.152528 0.152392 0.152242 0.152130 0.152087 0.152079 0.152072 0.152028 0.151910 0.151753 0.151588 0.151424 0.151259 0.151095 0.150973 0.150925 0.150917 0.150909 0.150861 0.150734 0.150564 0.150412 0.150260 0.150108 0.149966 0.149859 0.149818 0.149811 0.149804 0.149764 0.149648 0.149495 0.149319 0.149143 0.148967 0.148776 0.148632 0.148574 0.148565 0.148555 0.148495 0.148337 0.148126 0.147898 0.147670 0.147442 0.147200 0.147019 0.146949 0.146938 0.146926 0.146857 0.146694 0.146476 0.146296 0.146116 0.145935 0.145776 0.145657 0.145613 0.145606 0.145598 0.145555 0.145450 0.145310 0.145186 0.145063 0.144939 0.144829 0.144746 0.144717 0.144712 0.144707 0.144678 0.144603 0.144504 0.144417 0.144329 0.144241 0.144161 0.144101 0.144081 0.144077 0.144074 0.144053 0.143998 0.143926 0.143859 0.143793 0.143727 0.143665 0.143618 0.143600 0.143597 0.143594 0.143577 0.143532 0.143473 0.143414 0.143355 0.143296 0.143239 0.143195 0.143179 0.143176 
0.157607 0.157599 0.157573 0.157511 0.157428 0.157341 0.157254 0.157167 0.157074 0.157003 0.156972 0.156963 0.156955 0.156924 0.156851 0.156756 0.156655 0.156553 0.156452 0.156349 0.156272 0.156237 0.156228 0.156218 0.156183 0.156102 0.155995 0.155886 0.155777 0.155669 0.155557 0.155473 0.155436 0.155426 0.155416 0.155379 0.155296 0.155186 0.155077 0.154968 0.154859 0.154750 0.154667 0.154630 0.154619 0.154609 0.154573 0.154489 0.154379 0.154267 0.154155 0.154044 0.153927 0.153839 0.153801 0.153790 0.153779 0.153741 0.153650 0.153531 0.153406 0.153281 0.153157 0.153029 0.152932 0.152890 0.152878 0.152865 0.152822 0.152721 0.152587 0.152451 0.152315 0.152179 0.152039 0.151934 0.151889 0.151876 0.151863 0.151818 0.151711 0.151570 0.151446 0.151322 0.151198 0.151087 0.151004 0.150969 0.150960 0.150950 0.150916 0.150837 0.150732 0.150634 0.150536 0.150437 0.150344 0.150273 0.150243 0.150235 0.150227 0.150197 0.150131 0.150044 0.149962 0.149879 0.149797 0.149721 0.149663 0.149639 0.149632 0.149626 0.149602 0.149547 0.149476 0.149408 0.149340 0.149273 0.149208 0.149160 0.149139 0.149133 0.149127 0.149106 0.149062 0.149003 0.148946 0.148888 0.148830 0.148777 0.148736 0.148720 0.148715 0.148710 0.148693 0.148654 0.148602 0.148554 0.148507 0.148459 0.148412 0.148377 0.148361 0.148357 0.148353 0.148338 0.148306 0.148264 0.148221 0.148179 0.148137 0.148098 0.148069 0.148056 0.148053 0.148049 0.148037 0.148007 0.147969 0.147933 0.147897 0.147861 0.147826 0.147799 0.147787 0.147784 0.147781 0.147770 0.147745 0.147712 0.147679 0.147645 0.147612 0.147581 0.147557 0.147547 0.147544 
0.165942 0.165927 0.165883 0.165784 0.165653 0.165519 0.165385 0.165250 0.165112 0.165007 0.164959 0.164944 0.164929 0.164881 0.164775 0.164635 0.164493 0.164352 0.164210 0.164066 0.163956 0.163907 0.163891 0.163875 0.163825 0.163715 0.163570 0.163421 0.163273 0.163125 0.162975 0.162862 0.162811 0.162794 0.162778 0.162727 0.162612 0.162462 0.162311 0.162160 0.162008 0.161858 0.161743 0.161691 0.161674 0.161657 0.161605 0.161489 0.161336 0.161184 0.161031 0.160879 0.160724 0.160607 0.160553 0.160536 0.160519 0.160466 0.160348 0.160193 0.160037 0.159881 0.159725 0.159568 0.159448 0.159395 0.159377 0.159360 0.159306 0.159187 0.159031 0.158873 0.158716 0.158558 0.158400 0.158280 0.158226 0.158208 0.158191 0.158137 0.158016 0.157857 0.157699 0.157541 0.157383 0.157226 0.157106 0.157052 0.157035 0.157018 0.156964 0.156846 0.156690 0.156534 0.156379 0.156224 0.156071 0.155955 0.155903 0.155886 0.155869 0.155817 0.155702 0.155551 0.155405 0.155259 0.155113 0.155011 0.154934 0.154900 0.154889 0.154878 0.154844 0.154770 0.154672 0.154585 0.154497 0.154409 0.154324 0.154259 0.154231 0.154221 0.154212 0.154183 0.154125 0.154049 0.153975 0.153902 0.153828 0.153757 0.153702 0.153680 0.153673 0.153666 0.153644 0.153595 0.153531 0.153468 0.153404 0.153340 0.153284 0.153241 0.153222 0.153216 0.153210 0.153191 0.153147 0.153089 0.153036 0.152982 0.152929 0.152879 0.152841 0.152824 0.152818 0.152813 0.152795 0.152757 0.152707 0.152662 0.152618 0.152573 0.152527 0.152492 0.152477 0.152472 0.152467 0.152451 0.152420 0.152379 0.152338 0.152297 0.152256 0.152216 0.152186 0.152174 0.152170 0.152166 0.152153 0.152125 0.152089 0.152052 0.152016 0.151979 0.151946 0.151921 0.151910 0.151906 0.151903 0.151891 0.151866 0.151832 0.151800 0.151768 0.151736 0.151705 0.151682 0.151671 0.151668 0.151664 0.151653 0.151630 0.151599 0.151570 0.151541 0.151512 0.151482 0.151459 0.151449 0.151446 0.151442 0.151433 0.151412 0.151385 0.151357 0.151329 0.151301 0.151274 0.151253 0.151244 0.151241 
0.176571 0.176551 0.176473 0.176288 0.176044 0.175792 0.175540 0.175288 0.175029 0.174832 0.174749 0.174727 0.174705 0.174621 0.174424 0.174162 0.173896 0.173630 0.173364 0.173098 0.172896 0.172810 0.172787 0.172764 0.172677 0.172472 0.172201 0.171927 0.171652 0.171377 0.171109 0.170906 0.170820 0.170798 0.170775 0.170690 0.170486 0.170218 0.169951 0.169683 0.169416 0.169148 0.168944 0.168859 0.168836 0.168813 0.168728 0.168526 0.168258 0.167994 0.167729 0.167464 0.167202 0.167003 0.166919 0.166896 0.166874 0.166789 0.166590 0.166327 0.166067 0.165806 0.165545 0.165287 0.165091 0.165009 0.164987 0.164965 0.164883 0.164690 0.164434 0.164183 0.163931 0.163680 0.163433 0.163246 0.163168 0.163147 0.163126 0.163048 0.162865 0.162623 0.162432 0.162240 0.162048 0.161884 0.161759 0.161708 0.161695 0.161681 0.161630 0.161521 0.161376 0.161237 0.161099 0.160961 0.160840 0.160748 0.160709 0.160699 0.160689 0.160651 0.160561 0.160442 0.160336 0.160230 0.160125 0.160021 0.159943 0.159914 0.159906 0.159898 0.159869 0.159799 0.159707 0.159617 0.159527 0.159437 0.159353 0.159290 0.159263 0.159256 0.159249 0.159222 0.159162 0.159083 0.159007 0.158932 0.158857 0.158786 0.158732 0.158710 0.158704 0.158699 0.158676 0.158624 0.158555 0.158489 0.158424 0.158358 0.158294 0.158245 0.158224 0.158219 0.158213 0.158193 0.158148 0.158089 0.158028 0.157968 0.157907 0.157850 0.157807 0.157789 0.157784 0.157779 0.157760 0.157716 0.157657 0.157602 0.157546 0.157491 0.157434 0.157391 0.157374 0.157369 0.157364 0.157347 0.157305 0.157250 0.157194 0.157139 0.157083 0.157027 0.156985 0.156967 0.156962 
0.194402 0.194358 0.194036 0.193163 0.191999 0.190837 0.189675 0.188512 0.187371 0.186516 0.186204 0.186161 0.186119 0.185810 0.184989 0.183895 0.182877 0.181858 0.180840 0.179882 0.179163 0.178906 0.178871 0.178837 0.178586 0.177929 0.177051 0.176218 0.175385 0.174552 0.173762 0.173170 0.172956 0.172927 0.172898 0.172685 0.172133 0.171396 0.170830 0.170265 0.169700 0.169235 0.168886 0.168772 0.168757 0.168742 0.168629 0.168342 0.167958 0.167633 0.167307 0.166981 0.166702 0.166493 0.166419 0.166409 0.166398 0.166324 0.166139 0.165892 0.165670 0.165448 0.165226 0.165026 0.164876 0.164824 0.164817 0.164810 0.164759 0.164621 0.164437 0.164265 0.164093 0.163922 0.163757 0.163634 0.163589 0.163582 
0.222173 0.222045 0.221584 0.220538 0.219157 0.217863 0.216570 0.215276 0.214060 0.213140 0.212758 0.212652 0.212548 0.212172 0.211322 0.210199 0.209141 0.208083 0.207024 0.206024 0.205267 0.204958 0.204873 0.204789 0.204484 0.203796 0.202887 0.202050 0.201214 0.200377 0.199601 0.199013 0.198767 0.198699 0.198632 0.198387 0.197830 0.197093 0.196406 0.195719 0.195032 0.194398 0.193918 0.193717 0.193662 0.193607 0.193409 0.192952 0.192348 0.191762 0.191176 0.190590 0.190037 0.189618 0.189442 0.189393 0.189345 0.189170 0.188769 0.188239 0.187737 0.187235 0.186734 0.186244 0.185873 0.185720 0.185678 0.185637 0.185490 0.185149 0.184699 0.184273 0.183847 0.183420 0.183045 0.182761 0.182643 0.182610 0.182578 0.182461 0.182194 0.181841 0.181547 0.181253 0.180959 0.180676 0.180462 0.180378 0.180356 0.180334 0.180256 0.180077 0.179839 0.179617 0.179394 0.179172 0.178985 0.178845 0.178784 0.178767 0.178751 0.178690 0.178547 0.178359 0.178202 0.178045 0.177888 0.177731 0.177612 0.177568 0.177556 0.177545 0.177504 0.177407 0.177279 0.177152 0.177025 0.176899 0.176787 0.176703 0.176667 0.176656 0.176646 0.176609 0.176523 0.176410 0.176316 0.176222 0.176128 0.176031 0.175958 0.175931 0.175923 0.175916 0.175890 0.175828 0.175746 0.175664 0.175583 0.175502 0.175430 0.175375 0.175351 0.175344 0.175338 0.175314 0.175257 0.175183 0.175117 0.175052 0.174986 0.174918 0.174867 0.174848 0.174843 
