0.266468 0.266441 0.266084 0.264249 0.261343 0.257405 0.253466 0.249527 0.244546 0.241401 0.240690 0.240635 0.240580 0.239869 0.236651 0.231554 0.226987 0.222420 0.217853 0.213767 0.211187 0.210642 0.210599 0.210557 0.210006 0.207628 0.203861 0.200393 0.196925 0.193457 0.190303 0.188311 0.187890 0.187858 0.187825 0.187406 0.185599 0.182736 0.180220 0.177705 0.175189 0.173015 0.171643 0.171357 0.171335 0.171313 0.171032 0.169823 0.167909 0.166234 0.164560 0.162886 0.161394 0.160452 0.160252 0.160237 0.160221 0.160025 0.159159 0.157786 0.156533 0.155279 0.154025 0.152868 0.152137 0.151980 0.151968 
0.266458 0.266386 0.265732 0.263580 0.260705 0.257474 0.254243 0.251012 0.247660 0.245152 0.244241 0.244142 0.244042 0.243124 0.240581 0.237182 0.233939 0.230696 0.227453 0.224306 0.221951 0.221099 0.221006 0.220915 0.220073 0.217842 0.214861 0.212325 0.209789 0.207253 0.205335 0.203899 0.203459 0.203411 0.203364 0.202937 0.201816 0.200318 0.198964 0.197610 0.196255 0.194931 0.193939 0.193582 0.193543 
0.266521 0.266704 0.269248 0.276279 0.287419 0.283004 0.278589 0.274174 0.268405 0.264764 0.263603 0.263520 0.263416 0.261982 0.255970 0.246447 0.238037 0.229627 0.221217 0.213929 0.209329 0.208383 0.208315 0.208248 0.207317 0.203237 0.196773 0.191577 0.186381 0.181185 0.177529 0.175221 0.174789 0.174757 0.174727 0.174303 0.172579 0.169847 0.167625 0.165403 0.163181 0.161164 0.159890 0.159613 0.159593 0.159573 0.159293 0.157948 0.155818 0.153002 0.150186 0.147370 0.144257 0.142291 0.141898 0.141869 0.141841 0.141454 0.139860 0.137335 0.135031 0.132727 0.130422 0.128338 0.127023 0.126747 0.126727 0.126707 0.126434 0.125304 0.123513 0.122548 0.121582 0.120617 0.120070 0.119724 0.119660 0.119655 0.119651 0.119589 0.119327 0.118911 0.118584 0.118257 0.117930 0.117651 0.117475 0.117438 0.117436 0.117433 0.117397 0.117236 0.116981 0.116744 0.116507 0.116270 0.116055 0.115919 0.115891 0.115889 0.115887 0.115858 0.115733 0.115534 0.115356 0.115178 0.115001 0.114859 0.114770 0.114754 0.114753 0.114752 0.114736 0.114674 0.114576 0.114502 0.114429 0.114356 0.114297 0.114260 0.114252 0.114251 0.114251 0.114243 0.114212 0.114161 0.114119 0.114076 0.114034 0.113998 0.113975 0.113970 0.113970 0.113970 0.113965 0.113946 0.113915 0.113890 0.113865 0.113840 0.113820 0.113808 0.113805 0.113805 0.113805 0.113802 0.113792 0.113776 0.113765 0.113755 0.113744 0.113739 0.113735 0.113735 0.113735 
0.171328 0.171299 0.171105 0.170594 0.169914 0.169244 0.168574 0.167904 0.167254 0.166766 0.166586 0.166559 0.166533 0.166355 0.165889 0.165269 0.164667 0.164064 0.163461 0.162876 0.162438 0.162276 0.162252 0.162228 0.162067 0.161649 0.161090 0.160575 0.160060 0.159545 0.159169 0.158887 0.158789 0.158775 0.158760 0.158664 0.158427 0.158110 0.157836 0.157561 0.157287 0.157053 0.156877 0.156812 0.156802 0.156793 0.156728 0.156574 0.156368 0.156183 0.155997 0.155812 0.155648 0.155525 0.155479 0.155472 0.155466 0.155424 0.155314 0.155168 0.155037 0.154906 0.154774 0.154653 0.154562 0.154531 0.154527 
0.210581 0.210507 0.210062 0.208895 0.207341 0.205786 0.204231 0.202677 0.201162 0.200024 0.199595 0.199523 0.199452 0.199025 0.197928 0.196467 0.195095 0.193723 0.192351 0.191081 0.190128 0.189777 0.189719 0.189661 0.189315 0.188445 0.187285 0.186248 0.185211 0.184173 0.183223 0.182509 0.182245 0.182200 0.182157 0.181896 0.181234 0.180353 0.179495 0.178636 0.177778 0.176959 0.176344 0.176116 0.176078 0.176040 0.175814 0.175235 0.174464 0.173774 0.173085 0.172395 0.171842 0.171426 0.171274 0.171248 0.171223 0.171074 0.170741 0.170298 0.169925 0.169552 0.169179 0.168876 0.168649 0.168567 0.168553 0.168540 0.168459 0.168270 0.168019 0.167803 0.167587 0.167371 0.167190 0.167054 0.167007 0.166999 0.166991 0.166944 0.166831 0.166679 0.166557 0.166436 0.166315 0.166216 0.166142 0.166121 0.166117 
0.240601 0.240462 0.239988 0.238899 0.237461 0.236030 0.234600 0.233169 0.231754 0.230682 0.230221 0.230087 0.229953 0.229496 0.228454 0.227080 0.225716 0.224352 0.222989 0.221644 0.220624 0.220184 0.220055 0.219927 0.219488 0.218484 0.217158 0.215862 0.214567 0.213271 0.212002 0.211039 0.210622 0.210500 0.210379 0.209965 0.209028 0.207792 0.206589 0.205387 0.204184 0.203045 0.202182 0.201834 0.201732 0.201633 0.201296 0.200577 0.199630 0.198870 0.198109 0.197349 0.196807 0.196396 0.196220 0.196168 0.196116 0.195938 0.195536 0.195006 0.194498 0.193989 0.193481 0.192976 0.192593 0.192427 0.192379 0.192331 0.192167 0.191793 0.191301 0.190815 0.190328 0.189841 0.189350 0.188978 0.188816 0.188768 0.188721 0.188560 0.188186 0.187693 0.187203 0.186713 0.186223 0.185727 0.185351 0.185184 0.185136 0.185087 0.184921 0.184540 0.184038 0.183540 0.183042 0.182544 0.182049 0.181674 0.181512 0.181465 0.181418 0.181258 0.180893 0.180412 0.179953 0.179493 0.179033 0.178587 0.178249 0.178104 0.178061 0.178023 0.177891 0.177598 0.177211 0.176845 0.176479 0.176113 0.175808 0.175576 0.175478 0.175450 0.175421 0.175324 0.175107 0.174820 0.174580 0.174339 0.174098 0.173878 0.173711 0.173638 0.173617 0.173596 0.173523 0.173379 0.173187 0.173009 0.172831 0.172653 0.172491 0.172368 0.172321 0.172307 0.172294 0.172247 0.172138 0.171995 0.171858 0.171722 0.171585 0.171464 0.171371 0.171330 0.171318 0.171307 0.171266 0.171173 0.171050 0.170946 0.170843 0.170740 0.170634 0.170554 0.170520 0.170510 0.170501 0.170472 0.170405 0.170316 0.170226 0.170137 0.170047 0.169973 0.169916 0.169891 0.169884 0.169877 0.169853 0.169796 0.169721 0.169654 0.169588 0.169521 0.169459 0.169412 0.169391 0.169385 
0.244106 0.243959 0.242898 0.240080 0.236320 0.232772 0.229225 0.225677 0.222187 0.219570 0.218590 0.218455 0.218320 0.217343 0.214712 0.211203 0.208417 0.205630 0.202844 0.201452 0.200408 0.200030 0.199978 0.199926 0.199549 0.198542 0.197198 0.195906 0.194614 0.193322 0.192062 0.191118 0.190766 0.190718 0.190670 0.190320 0.189389 0.188147 0.186903 0.185659 0.184415 0.183240 0.182359 0.182046 0.182003 0.181960 0.181650 0.180898 0.179894 0.179089 0.178284 0.177479 0.176876 0.176423 0.176260 0.176238 0.176219 0.176079 0.175707 0.175212 0.174803 0.174395 0.173986 0.173611 0.173330 0.173235 0.173222 
0.193526 0.193458 0.193178 0.192530 0.191671 0.190870 0.190068 0.189267 0.188518 0.187953 0.187726 0.187670 0.187615 0.187389 0.186861 0.186161 0.185502 0.184843 0.184185 0.183567 0.183100 0.182911 0.182865 0.182819 0.182631 0.182187 0.181598 0.181055 0.180512 0.179968 0.179453 0.179063 0.178913 0.178876 0.178840 0.178691 0.178338 0.177870 0.177443 0.177015 0.176587 0.176195 0.175899 0.175779 0.175749 0.175724 0.175620 0.175442 0.175207 0.174993 0.174779 0.174565 0.174398 0.174271 0.174218 0.174205 0.174192 0.174138 0.174015 0.173853 0.173722 0.173591 0.173460 0.173340 0.173250 0.173217 0.173209 0.173201 0.173167 0.173081 0.172968 0.172868 0.172769 0.172669 0.172565 0.172487 0.172455 0.172447 0.172441 0.172415 0.172348 0.172259 0.172167 0.172075 0.171982 0.171902 0.171841 0.171815 0.171809 
