-2.343267 -1.499966 14.064348
-1.945854 -1.440555 15.325404
-1.414378 -1.425120 16.540616
-1.017685 -1.365484 17.801836
-0.947366 -1.206944 19.114603
-0.957302 -1.025663 20.428433
-0.904327 -0.861906 21.743655
-0.851923 -0.697989 23.058877
-2.342895 -1.499805 14.066306
-1.946629 -1.440587 15.323561
-1.945078 -1.440523 15.327247
-1.415143 -1.425156 16.538768
-1.413613 -1.425085 16.542463
-1.018019 -1.365656 17.799871
-1.017350 -1.365311 17.803800
-0.947326 -1.207225 19.112623
-0.947405 -1.206664 19.116583
-0.957346 -1.025920 20.426450
-0.957258 -1.025406 20.430416
-0.904425 -0.862148 21.741672
-0.904229 -0.861665 21.745638
-0.851966 -0.698247 23.056894
-2.337680 -1.497545 14.093753
-1.957347 -1.441087 15.297666
-1.934207 -1.440075 15.353079
-1.425945 -1.425627 16.512908
-1.402895 -1.424585 16.568358
-1.022776 -1.368055 17.772354
-1.012667 -1.362890 17.831329
-0.946772 -1.211150 19.084876
-0.947959 -1.202739 19.144331
-0.957963 -1.029521 20.398660
-0.956641 -1.021804 20.458206
-0.905798 -0.865537 21.713882
-0.902857 -0.858276 21.773428
-0.852566 -0.701853 23.029104
-2.312552 -1.487674 14.218498
-2.265237 -1.474352 14.414633
-2.209694 -1.463619 14.608764
-2.147127 -1.455139 14.800866
-2.078695 -1.448573 14.991039
-2.005498 -1.443584 15.179481
-1.884289 -1.438173 15.470540
-1.803479 -1.435746 15.655903
-1.721353 -1.433767 15.840693
-1.638794 -1.431936 16.025292
-1.556679 -1.429954 16.210086
-1.475892 -1.427519 16.395458
-1.354710 -1.422099 16.686530
-1.281557 -1.417095 16.874990
-1.213182 -1.410510 17.065183
-1.150685 -1.402008 17.257309
-1.095227 -1.391247 17.451466
-1.048012 -1.377894 17.647625
-0.993381 -1.351253 17.956960
-0.970514 -1.330544 18.156800
-0.955614 -1.307523 18.357145
-0.947290 -1.282628 18.557651
-0.944170 -1.256272 18.758124
-0.944920 -1.228843 18.958478
-0.950752 -1.184789 19.270675
-0.955597 -1.156235 19.470818
-0.959817 -1.127852 19.670999
-0.962206 -1.099971 19.871280
-0.962278 -1.072729 20.071663
-0.960235 -1.046073 20.272115
-0.953427 -1.005516 20.584765
-0.947088 -0.980061 20.785284
-0.939521 -0.954951 20.985803
-0.930984 -0.930115 21.186318
-0.921735 -0.905480 21.386826
-0.912035 -0.880973 21.587329
-0.896629 -0.842837 21.899981
-0.886965 -0.818320 22.100484
-0.877779 -0.793667 22.300993
-0.869331 -0.768806 22.501509
-0.861880 -0.743664 22.702028
-0.855683 -0.718168 22.902546
99 NaN NaN
-2.343360 -1.500007 14.063858
-2.324502 -1.491834 14.163105
-2.303186 -1.484413 14.261913
-2.279565 -1.477706 14.360247
-2.253791 -1.471672 14.458083
-2.226019 -1.466271 14.555408
-2.196400 -1.461459 14.652218
-2.165084 -1.457194 14.748519
-2.132219 -1.453433 14.844323
-2.097945 -1.450134 14.939650
-2.062404 -1.447253 15.034526
-2.025727 -1.444749 15.128979
-1.988048 -1.442579 15.223045
-1.949491 -1.440705 15.316762
-1.910180 -1.439085 15.410169
-1.870235 -1.437679 15.503311
-1.829772 -1.436449 15.596231
-1.788906 -1.435356 15.688977
-1.747750 -1.434363 15.781595
-1.706415 -1.433430 15.874135
-1.665012 -1.432521 15.966644
-1.623649 -1.431598 16.059171
-1.582438 -1.430623 16.151765
-1.541490 -1.429559 16.244475
-1.500916 -1.428367 16.337347
-1.460832 -1.427009 16.430430
-1.421352 -1.425446 16.523767
-1.382596 -1.423638 16.617403
-1.344686 -1.421546 16.711378
-1.307748 -1.419129 16.805731
-1.271911 -1.416346 16.900499
-1.237309 -1.413154 16.995711
-1.204080 -1.409512 17.091394
-1.172364 -1.405377 17.187570
-1.142309 -1.400706 17.284253
-1.114063 -1.395455 17.381449
-1.087777 -1.389583 17.479159
-1.063605 -1.383047 17.577371
-1.041700 -1.375808 17.676063
-1.022216 -1.367826 17.775205
-1.005279 -1.359072 17.874748
-0.990826 -1.349574 17.974615
-0.978691 -1.339392 18.074723
-0.968701 -1.328582 18.175002
-0.960681 -1.317202 18.275396
-0.954455 -1.305307 18.375857
-0.949848 -1.292952 18.476350
-0.946686 -1.280190 18.576849
-0.944799 -1.267070 18.677333
-0.944017 -1.253643 18.777792
-0.944174 -1.239956 18.878219
-0.945107 -1.226055 18.978613
-0.946655 -1.211985 19.078975
-0.948657 -1.197790 19.179312
-0.950957 -1.183514 19.279631
-0.953398 -1.169200 19.379941
-0.955825 -1.154889 19.480252
-0.958080 -1.140625 19.580574
-0.960007 -1.126451 19.680915
-0.961449 -1.112410 19.781283
-0.962293 -1.098534 19.881680
-0.962549 -1.084819 19.982104
-0.962246 -1.071259 20.082547
-0.961414 -1.057846 20.183008
-0.960085 -1.044571 20.283482
-0.958289 -1.031426 20.383966
-0.956058 -1.018402 20.484456
-0.953422 -1.005492 20.584952
-0.950414 -0.992687 20.685450
-0.947066 -0.979976 20.785950
-0.943409 -0.967353 20.886450
-0.939476 -0.954808 20.986949
-0.935300 -0.942331 21.087448
-0.930913 -0.929914 21.187944
-0.926347 -0.917547 21.288439
-0.921636 -0.905222 21.388932
-0.916813 -0.892928 21.489424
-0.911909 -0.880657 21.589914
-0.906958 -0.868400 21.690404
-0.901994 -0.856146 21.790894
-0.897048 -0.843887 21.891384
-0.892154 -0.831614 21.991875
-0.887344 -0.819316 22.092367
-0.882652 -0.806985 22.192860
-0.878110 -0.794612 22.293355
-0.873752 -0.782187 22.393852
-0.869609 -0.769700 22.494350
-0.865714 -0.757144 22.594850
-0.862100 -0.744509 22.695350
-0.858798 -0.731786 22.795850
-0.855842 -0.718965 22.896348
-0.853263 -0.706039 22.996843
-0.851092 -0.692999 23.097333
-0.849362 -0.679836 23.197815
-0.848103 -0.666541 23.298287
-0.847346 -0.653107 23.398745
-0.847122 -0.639525 23.499187
-0.847461 -0.625788 23.599606
-0.848392 -0.611887 23.700000
-2.342885 -1.499927 14.063725
-1.805555 -1.414441 13.852105
-1.372267 -1.360942 13.469369
-1.143720 -1.357579 12.935264
-1.088984 -1.391589 12.354500
-1.112043 -1.442125 11.771762
-1.141143 -1.496118 11.189538
-1.140676 -1.545722 10.606208
-1.123548 -1.587930 10.022501
-1.109695 -1.620537 9.438101
-1.106633 -1.640702 8.852985
-1.108487 -1.644550 8.267535
-1.109635 -1.628746 7.682287
-1.111712 -1.598818 7.097571
-1.120993 -1.566216 6.513071
-1.140222 -1.539930 5.928492
-1.152629 -1.514772 5.343702
-1.133998 -1.480363 4.759670
-1.068362 -1.429765 4.180228
-0.968965 -1.367628 3.606645
-0.853798 -1.300386 3.036549
-0.734866 -1.232239 2.467330
-0.614299 -1.163781 1.898492
-0.493172 -1.095216 1.329786
-0.372542 -1.026746 0.760962
-0.253466 -0.958571 0.191776
-2.340983 -1.499609 14.063193
-1.807293 -1.414698 13.853062
-1.803818 -1.414184 13.851149
-1.373436 -1.361043 13.470989
-1.371099 -1.360841 13.467749
-1.144123 -1.357508 12.937222
-1.143316 -1.357651 12.933306
-1.088971 -1.391431 12.356494
-1.088997 -1.391747 12.352507
-1.111920 -1.441941 11.773749
-1.112166 -1.442309 11.769774
-1.141093 -1.495938 11.191529
-1.141193 -1.496297 11.187547
-1.140719 -1.545564 10.608201
-1.140633 -1.545879 10.604215
-1.123610 -1.587804 10.024496
-1.123485 -1.588057 10.020506
-1.109724 -1.620442 9.440098
-1.109667 -1.620632 9.436103
-1.106631 -1.640658 8.854985
-1.106634 -1.640747 8.850986
-1.108479 -1.644571 8.269535
-1.108494 -1.644530 8.265535
-1.109633 -1.628834 7.684285
-1.109638 -1.628659 7.680289
-1.111698 -1.598931 7.099568
-1.111726 -1.598706 7.095574
-1.120944 -1.566320 6.515068
-1.121043 -1.566112 6.511074
-1.140154 -1.540012 5.930489
-1.140290 -1.539848 5.926495
-1.152631 -1.514870 5.345699
-1.152626 -1.514675 5.341704
-1.134128 -1.480503 4.761660
-1.133868 -1.480223 4.757679
-1.068650 -1.429960 4.182198
-1.068074 -1.429571 4.178258
-0.969342 -1.367852 3.608597
-0.968589 -1.367403 3.604694
-0.854201 -1.300619 3.038495
-0.853395 -1.300154 3.034604
-0.735276 -1.232472 2.469274
-0.734456 -1.232005 2.465387
-0.614713 -1.164015 1.900435
-0.613886 -1.163547 1.896549
-0.493585 -1.095450 1.331728
-0.492758 -1.094982 1.327843
-0.372952 -1.026980 0.762906
-0.372132 -1.026513 0.759018
-0.253868 -0.958803 0.193722
-2.322430 -1.496506 14.058007
-1.824245 -1.417204 13.862393
-1.786865 -1.411678 13.841817
-1.384836 -1.362027 13.486795
-1.359698 -1.359857 13.451943
-1.148059 -1.356813 12.956321
-1.139380 -1.358346 12.914207
-1.089196 -1.389967 12.375950
-1.089123 -1.393285 12.333055
-1.110721 -1.440147 11.793143
-1.113368 -1.444106 11.750381
-1.140606 -1.494186 11.210957
-1.141680 -1.498049 11.168119
-1.141139 -1.544028 10.627649
-1.140214 -1.547415 10.584767
-1.124236 -1.586537 10.043958
-1.122871 -1.589293 10.001042
-1.110005 -1.619515 9.459587
-1.109413 -1.621529 9.416613
-1.106620 -1.640222 8.874493
-1.106645 -1.641182 8.831477
-1.108406 -1.644773 8.289047
-1.108568 -1.644327 8.246024
-1.109612 -1.629661 7.703780
-1.109660 -1.627806 7.660794
-1.111561 -1.600030 7.119049
-1.111891 -1.597597 7.076094
-1.120459 -1.567332 6.534548
-1.121527 -1.565099 6.491594
-1.139495 -1.540811 5.949975
-1.140949 -1.539049 5.907009
-1.152645 -1.515818 5.365189
-1.152603 -1.513724 5.322214
-1.135397 -1.481870 4.781084
-1.132323 -1.478760 4.738282
-1.071457 -1.431860 4.201414
-1.065266 -1.427670 4.159042
-0.973017 -1.370043 3.627635
-0.964914 -1.365212 3.585656
-0.858130 -1.302883 3.057473
-0.849466 -1.297890 3.015626
-0.739268 -1.234749 2.488238
-0.730454 -1.229727 2.446425
-0.618745 -1.166299 1.919389
-0.609854 -1.161263 1.877595
-0.497620 -1.097735 1.350682
-0.488723 -1.092697 1.308889
-0.376950 -1.029257 0.781868
-0.368134 -1.024235 0.740056
-0.257804 -0.961069 0.212699
-2.265175 -1.486929 14.042002
-2.185560 -1.473788 14.017272
-2.106731 -1.460974 13.990008
-2.028837 -1.448530 13.960031
-1.952048 -1.436501 13.927155
-1.876653 -1.424969 13.891003
-1.736303 -1.404498 13.809919
-1.667024 -1.394913 13.762752
-1.600387 -1.386102 13.711776
-1.536755 -1.378142 13.656922
-1.477124 -1.371266 13.597581
-1.421794 -1.365505 13.534141
-1.326820 -1.357374 13.401617
-1.284374 -1.354758 13.328757
-1.246574 -1.353222 13.253303
-1.214466 -1.352970 13.175243
-1.186692 -1.353673 13.095577
-1.163017 -1.355264 13.014617
-1.127717 -1.360592 12.855185
-1.114770 -1.364451 12.771866
-1.105103 -1.368989 12.688144
-1.097951 -1.374047 12.604206
-1.093050 -1.379568 12.520134
-1.090147 -1.385501 12.435993
-1.089512 -1.398032 12.273027
-1.091333 -1.404961 12.188927
-1.094172 -1.412115 12.104875
-1.097848 -1.419462 12.020870
-1.102187 -1.426971 11.936911
-1.107022 -1.434612 11.852990
-1.117132 -1.449695 11.690543
-1.122313 -1.457547 11.606662
-1.127265 -1.465409 11.522769
-1.131829 -1.473253 11.438852
-1.135778 -1.481047 11.354899
-1.138858 -1.488748 11.270901
-1.142791 -1.503396 11.108151
-1.143852 -1.510811 11.024079
-1.144301 -1.518114 10.939990
-1.144092 -1.525275 10.855888
-1.143357 -1.532299 10.771778
-1.142182 -1.539187 10.687661
-1.138855 -1.552121 10.524750
-1.136676 -1.558573 10.440619
-1.134227 -1.564827 10.356480
-1.131628 -1.570912 10.272333
-1.128932 -1.576823 10.188177
-1.126192 -1.582554 10.104010
-1.120976 -1.593106 9.940976
-1.118479 -1.598231 9.856762
-1.116186 -1.603154 9.772531
-1.114143 -1.607871 9.688281
-1.112372 -1.612374 9.604014
-1.110871 -1.616655 9.519729
-1.108748 -1.624167 9.356458
-1.107968 -1.627666 9.272128
-1.107379 -1.630896 9.187785
-1.106963 -1.633849 9.103432
-1.106705 -1.636510 9.019067
-1.106613 -1.638794 8.934692
-1.106740 -1.642310 8.771272
-1.106931 -1.643642 8.686876
-1.107186 -1.644627 8.602476
-1.107493 -1.645214 8.518072
-1.107828 -1.645373 8.433667
-1.108168 -1.645146 8.349261
-1.108781 -1.643579 8.185813
-1.109044 -1.642161 8.101418
-1.109235 -1.640222 8.017034
-1.109371 -1.637859 7.932661
-1.109473 -1.635120 7.848300
-1.109557 -1.632033 7.763950
-1.109727 -1.625174 7.600636
-1.109865 -1.621189 7.516323
-1.110058 -1.616991 7.432022
-1.110324 -1.612611 7.347729
-1.110678 -1.608078 7.263445
-1.111137 -1.603422 7.179169
-1.112444 -1.594161 7.015978
-1.113358 -1.589335 6.931715
-1.114451 -1.584523 6.847453
-1.115739 -1.579753 6.763191
-1.117239 -1.575055 6.678928
-1.119014 -1.570486 6.594664
-1.123217 -1.562109 6.431476
-1.125761 -1.558047 6.347205
-1.128518 -1.554159 6.262933
-1.131431 -1.550424 6.178660
-1.134425 -1.546822 6.094383
-1.137406 -1.543297 6.010103
-1.142916 -1.536585 5.846876
-1.145509 -1.533130 5.762580
-1.147798 -1.529636 5.678277
-1.149700 -1.526065 5.593967
-1.151180 -1.522393 5.509654
-1.152176 -1.518595 5.425340
-1.152526 -1.510786 5.262070
-1.151563 -1.506402 5.177783
-1.149820 -1.501766 5.093523
-1.147239 -1.496853 5.009301
-1.143757 -1.491635 4.925130
-1.139312 -1.486086 4.841025
-1.127473 -1.474216 4.678434
-1.119785 -1.467536 4.594646
-1.111157 -1.460529 4.510977
-1.101638 -1.453213 4.427430
-1.091277 -1.445605 4.344009
-1.080036 -1.437695 4.260729
-1.056077 -1.421627 4.099839
-1.042785 -1.413017 4.016933
-1.028921 -1.404213 3.934140
-1.014530 -1.395232 3.851456
-0.999570 -1.386061 3.768893
-0.984193 -1.376752 3.686423
-0.953450 -1.358410 3.526934
-0.937160 -1.348807 3.444673
-0.920635 -1.339130 3.362467
-0.903920 -1.329398 3.280307
-0.887101 -1.319639 3.198170
-0.870209 -1.309863 3.116051
-0.837338 -1.290901 2.957059
-0.820279 -1.281093 2.874978
-0.803169 -1.271275 2.792909
-0.786015 -1.261449 2.710850
-0.768820 -1.251615 2.628801
-0.751586 -1.241774 2.546760
-0.718107 -1.222696 2.387909
-0.700770 -1.212836 2.305893
-0.683407 -1.202970 2.223883
-0.666021 -1.193100 2.141878
-0.648614 -1.183226 2.059878
-0.631189 -1.173348 1.977883
-0.597400 -1.154212 1.819104
-0.579940 -1.144327 1.737116
-0.562474 -1.134442 1.655130
-0.545005 -1.124556 1.573145
-0.527537 -1.114671 1.491160
-0.510074 -1.104786 1.409173
-0.476279 -1.085648 1.250396
-0.458845 -1.075769 1.168402
-0.441426 -1.065893 1.086405
-0.424031 -1.056021 1.004403
-0.406659 -1.046154 0.922395
-0.389312 -1.036291 0.840381
-0.355800 -1.017207 0.681537
-0.338547 -1.007362 0.599501
-0.321337 -0.997525 0.517455
-0.304167 -0.987696 0.435400
-0.287040 -0.977876 0.353335
-0.269960 -0.968064 0.271259
147 NaN NaN
-2.343360 -1.500007 14.063858
-2.246751 -1.483847 14.036851
-2.151144 -1.468130 14.006260
-2.056801 -1.452930 13.971737
-1.964052 -1.438337 13.932911
-1.873298 -1.424455 13.889395
-1.785032 -1.411407 13.840808
-1.699834 -1.399328 13.786801
-1.618375 -1.388367 13.727095
-1.541386 -1.378676 13.661530
-1.469619 -1.370401 13.590113
-1.403776 -1.363661 13.513053
-1.344427 -1.358539 13.430771
-1.291943 -1.355066 13.343866
-1.246450 -1.353217 13.253055
-1.207828 -1.352919 13.159094
-1.175753 -1.354063 13.062705
-1.149750 -1.356515 12.964523
-1.129255 -1.360134 12.865078
-1.113670 -1.364779 12.764786
-1.102399 -1.370318 12.663960
-1.094872 -1.376628 12.562830
-1.090552 -1.383600 12.461553
-1.088947 -1.391136 12.360237
-1.089603 -1.399146 12.258945
-1.092104 -1.407553 12.157714
-1.096063 -1.416287 12.056556
-1.101119 -1.425281 11.955470
-1.106932 -1.434477 11.854443
-1.113174 -1.443819 11.753454
-1.119526 -1.453251 11.652481
-1.125669 -1.462720 11.551498
-1.131282 -1.472174 11.450483
-1.136035 -1.481556 11.349418
-1.139670 -1.490819 11.248295
-1.142206 -1.499942 11.147126
-1.143725 -1.508912 11.045923
-1.144313 -1.517713 10.944695
-1.144061 -1.526334 10.843450
-1.143066 -1.534761 10.742194
-1.141425 -1.542980 10.640929
-1.139241 -1.550978 10.539656
-1.136618 -1.558745 10.438376
-1.133661 -1.566267 10.337086
-1.130481 -1.573534 10.235784
-1.127185 -1.580533 10.134468
-1.123883 -1.587255 10.033132
-1.120686 -1.593690 9.931775
-1.117703 -1.599827 9.830393
-1.115044 -1.605658 9.728984
-1.112798 -1.611172 9.627547
-1.110962 -1.616353 9.526084
-1.109501 -1.621179 9.424597
-1.108379 -1.625630 9.323090
-1.107561 -1.629686 9.221562
-1.107014 -1.633326 9.120017
-1.106703 -1.636529 9.018457
-1.106594 -1.639276 8.916882
-1.106655 -1.641544 8.815296
-1.106852 -1.643313 8.713700
-1.107151 -1.644561 8.612097
-1.107521 -1.645266 8.510488
-1.107927 -1.645408 8.408878
-1.108338 -1.644962 8.307268
-1.108719 -1.643908 8.205663
-1.109038 -1.642222 8.104066
-1.109268 -1.639887 8.002481
-1.109419 -1.636937 7.900913
-1.109524 -1.633430 7.799362
-1.109618 -1.629426 7.697829
-1.109732 -1.624985 7.596315
-1.109900 -1.620168 7.494817
-1.110155 -1.615034 7.393336
-1.110530 -1.609643 7.291868
-1.111058 -1.604056 7.190412
-1.111772 -1.598333 7.088964
-1.112705 -1.592534 6.987522
-1.113891 -1.586720 6.886084
-1.115361 -1.580951 6.784647
-1.117148 -1.575287 6.683209
-1.119286 -1.569787 6.581769
-1.121807 -1.564513 6.480325
-1.124736 -1.559520 6.378879
-1.128017 -1.554802 6.277430
-1.131524 -1.550305 6.175978
-1.135131 -1.545975 6.074523
-1.138714 -1.541757 5.973062
-1.142147 -1.537598 5.871594
-1.145304 -1.533442 5.770116
-1.148060 -1.529236 5.668629
-1.150289 -1.524925 5.567134
-1.151862 -1.520454 5.465633
-1.152653 -1.515770 5.364133
-1.152533 -1.510816 5.262642
-1.151373 -1.505539 5.161175
-1.149044 -1.499883 5.059748
-1.145417 -1.493794 4.958385
-1.140363 -1.487218 4.857113
-1.133757 -1.480103 4.755968
-1.125572 -1.472435 4.654978
-1.115902 -1.464248 4.554160
-1.104845 -1.455580 4.453525
-1.092501 -1.446467 4.353080
-1.078969 -1.436945 4.252825
-1.064348 -1.427049 4.152759
-1.048736 -1.416815 4.052877
-1.032229 -1.406279 3.953171
-1.014924 -1.395473 3.853629
-0.996915 -1.384433 3.754237
-0.978295 -1.373191 3.654981
-0.959159 -1.361780 3.555842
-0.939598 -1.350235 3.456802
-0.919704 -1.338586 3.357840
-0.899569 -1.326866 3.258935
-0.879283 -1.315107 3.160066
-0.858905 -1.303330 3.061218
-0.838445 -1.291537 2.962388
-0.817909 -1.279730 2.863576
-0.797302 -1.267910 2.764781
-0.776629 -1.256077 2.666000
-0.755896 -1.244232 2.567234
-0.735109 -1.232377 2.468480
-0.714272 -1.220513 2.369738
-0.693392 -1.208641 2.271006
-0.672474 -1.196761 2.172283
-0.651524 -1.184875 2.073568
-0.630546 -1.172984 1.974859
-0.609547 -1.161089 1.876155
-0.588533 -1.149191 1.777454
-0.567508 -1.137291 1.678756
-0.546478 -1.125390 1.580060
-0.525450 -1.113490 1.481363
-0.504428 -1.101590 1.382664
-0.483418 -1.089693 1.283963
-0.462425 -1.077799 1.185257
-0.441456 -1.065910 1.086546
-0.420515 -1.054026 0.987828
-0.399609 -1.042148 0.889103
-0.378743 -1.030278 0.790367
-0.357921 -1.018417 0.691622
-0.337151 -1.006566 0.592864
-0.316437 -0.994725 0.494093
-0.295785 -0.982896 0.395308
-0.275200 -0.971079 0.296508
-0.254689 -0.959277 0.197690
-0.234255 -0.947489 0.098855
-0.213905 -0.935717 0.000000
-2.343678 -1.500392 14.063886
-3.603294 -1.678395 14.090009
-4.419983 -0.589837 14.075501
-4.862125 0.736873 14.074358
-5.311018 2.061588 14.075046
-5.774871 3.379772 14.020708
-6.338382 4.657375 13.954254
-7.091684 5.830764 13.878984
-8.095073 6.795616 13.794104
-9.318673 7.458848 13.703891
-10.664445 7.820187 13.614278
-12.053635 7.945975 13.528209
-13.448714 7.904020 13.446121
-2.344946 -1.501934 14.064000
-3.601570 -1.679409 14.090026
-3.605018 -1.677381 14.089992
-4.419447 -0.591764 14.075519
-4.420518 -0.587910 14.075483
-4.861490 0.734976 14.074359
-4.862760 0.738769 14.074357
-5.310374 2.059694 14.075048
-5.311661 2.063482 14.075044
-5.774158 3.377906 14.020795
-5.775584 3.381639 14.020621
-6.337460 4.655603 13.954355
-6.339305 4.659146 13.954153
-7.090429 5.829211 13.879099
-7.092940 5.832316 13.878869
-8.093454 6.794449 13.794231
-8.096692 6.796784 13.793977
-9.316807 7.458140 13.704021
-9.320539 7.459556 13.703761
-10.662478 7.819844 13.614404
-10.666414 7.820511 13.614152
-12.051639 7.945923 13.528330
-12.055631 7.946028 13.528089
-13.446723 7.904171 13.446236
-2.363644 -1.524657 14.065675
-3.576168 -1.694355 14.090278
-3.629522 -1.661032 14.089709
-4.411555 -0.620160 14.075786
-4.428449 -0.559524 14.075246
-4.852131 0.707027 14.074374
-4.872124 0.766717 14.074342
-5.300889 2.031788 14.075082
-5.321147 2.091388 14.075010
-5.763649 3.350398 14.022076
-5.786093 3.409146 14.019340
-6.323862 4.629495 13.955839
-6.352903 4.685254 13.952668
-7.071948 5.806314 13.880795
-7.111438 5.855200 13.877173
-8.069730 6.777062 13.796098
-8.120552 6.813986 13.792107
-9.289441 7.447363 13.705932
-9.348039 7.469988 13.701851
-10.633499 7.814800 13.616262
-10.695454 7.825200 13.612299
-12.022229 7.945144 13.530103
-12.085045 7.946631 13.526320
-13.417382 7.906395 13.447928
-2.455392 -1.622513 14.072879
-2.630912 -1.741949 14.081742
-2.830830 -1.814417 14.087566
-3.042108 -1.840489 14.090775
-3.254111 -1.820851 14.091842
-3.456967 -1.756621 14.091271
-3.738229 -1.581720 14.088334
-3.900529 -1.443430 14.086092
-4.053982 -1.295364 14.084064
-4.191693 -1.132702 14.082049
-4.299830 -0.949253 14.079706
-4.374032 -0.749438 14.077159
-4.465879 -0.430216 14.074508
-4.532331 -0.227551 14.074316
-4.603916 -0.026622 14.074748
-4.674838 0.174541 14.075008
-4.742835 0.376713 14.074820
-4.809642 0.579283 14.074493
-4.915211 0.894261 14.074312
-4.983822 1.096227 14.074197
-5.052373 1.298213 14.073823
-5.120721 1.500268 14.073447
-5.189066 1.702324 14.073681
-5.257578 1.904321 14.074751
-5.364463 2.218847 14.073731
-5.433049 2.420738 14.068151
-5.501925 2.622400 14.058903
-5.571712 2.823669 14.048028
-5.643034 3.024416 14.037496
-5.716296 3.224512 14.027916
-5.834783 3.534515 14.013371
-5.914049 3.732297 14.003569
-5.996186 3.928890 13.993494
-6.081538 4.124101 13.983299
-6.170440 4.317715 13.973003
-6.263208 4.509497 13.962546
-6.416129 4.803910 13.945832
-6.520343 4.989687 13.934810
-6.629545 5.172560 13.923569
-6.744011 5.352168 13.912101
-6.863993 5.528122 13.900397
-6.989705 5.700010 13.888452
-7.197214 5.958663 13.869377
-7.338303 6.118127 13.856829
-7.485530 6.271921 13.844059
-7.638792 6.419678 13.831084
-7.797976 6.561016 13.817920
-7.962882 6.695614 13.804587
-8.230507 6.891180 13.783543
-8.408831 7.007392 13.769886
-8.591889 7.115985 13.756145
-8.779226 7.217008 13.742346
-8.970403 7.310553 13.728513
-9.165030 7.396687 13.714668
-9.474081 7.516465 13.693128
-9.675788 7.584411 13.679336
-9.879648 7.645615 13.665593
-10.085388 7.700189 13.651910
-10.292684 7.748534 13.638298
-10.501279 7.790946 13.624763
-10.828216 7.845848 13.603850
-11.039178 7.874350 13.590536
-11.250760 7.897881 13.577314
-11.462821 7.916695 13.564186
-11.675245 7.930923 13.551155
-11.887916 7.940922 13.538219
-12.219414 7.948587 13.518259
-12.432334 7.948756 13.505562
-12.645235 7.945425 13.492956
-12.858063 7.938763 13.480439
-13.070773 7.928923 13.468012
-13.283325 7.916024 13.455672
169 NaN NaN
-2.343360 -1.500007 14.063858
-2.407157 -1.577539 14.069574
-2.480621 -1.646037 14.074608
-2.562293 -1.704571 14.078931
-2.650562 -1.752653 14.082548
-2.743851 -1.790156 14.085489
-2.840719 -1.817175 14.087803
-2.939900 -1.833906 14.089542
-3.040273 -1.840550 14.090762
-3.140816 -1.837248 14.091514
-3.240547 -1.824055 14.091848
-3.338450 -1.800926 14.091808
-3.433408 -1.767733 14.091439
-3.524393 -1.724818 14.090791
-3.611106 -1.673799 14.089931
-3.693798 -1.616474 14.088933
-3.773056 -1.554478 14.087864
-3.849659 -1.489220 14.086789
-3.924455 -1.421894 14.085764
-3.997574 -1.352752 14.084805
-4.068114 -1.280986 14.083878
-4.134935 -1.205754 14.082946
-4.196665 -1.126302 14.081971
-4.251676 -1.042073 14.080916
-4.298300 -0.952938 14.079755
-4.336886 -0.860022 14.078531
-4.369456 -0.764816 14.077333
-4.398159 -0.668364 14.076241
-4.425106 -0.571402 14.075327
-4.452367 -0.474526 14.074667
-4.481720 -0.378264 14.074321
-4.513203 -0.282676 14.074248
-4.546195 -0.187596 14.074365
-4.580064 -0.092826 14.074584
-4.614176 0.001858 14.074818
-4.647897 0.096681 14.074980
-4.680806 0.191790 14.075014
-4.713035 0.287131 14.074946
-4.744802 0.382627 14.074812
-4.776324 0.478204 14.074650
-4.807820 0.573790 14.074499
-4.839502 0.669314 14.074394
-4.871459 0.764747 14.074343
-4.903631 0.860108 14.074320
-4.935947 0.955420 14.074298
-4.968341 1.050705 14.074248
-5.000744 1.145987 14.074142
-5.033092 1.241288 14.073958
-5.065378 1.336610 14.073731
-5.097624 1.431945 14.073528
-5.129854 1.527286 14.073415
-5.162090 1.622625 14.073458
-5.194356 1.717954 14.073725
-5.226668 1.813266 14.074229
-5.259018 1.908564 14.074775
-5.291394 2.003855 14.075115
-5.323782 2.099142 14.075001
-5.356167 2.194427 14.074184
-5.388533 2.289705 14.072417
-5.420881 2.384963 14.069566
-5.453266 2.480177 14.065801
-5.485754 2.575326 14.061344
-5.518411 2.670393 14.056414
-5.551307 2.765366 14.051232
-5.584507 2.860230 14.046018
-5.618081 2.954972 14.040988
-5.652075 3.049579 14.036231
-5.686511 3.144036 14.031684
-5.721410 3.238329 14.027269
-5.756790 3.332446 14.022912
-5.792674 3.426371 14.018538
-5.829081 3.520090 14.014075
-5.866043 3.613586 14.009510
-5.903597 3.706842 14.004860
-5.941782 3.799839 14.000144
-5.980634 3.892556 13.995379
-6.020190 3.984973 13.990584
-6.060486 4.077069 13.985774
-6.101557 4.168822 13.980945
-6.143437 4.260206 13.976091
-6.186161 4.351197 13.971206
-6.229761 4.441770 13.966281
-6.274271 4.531896 13.961311
-6.319723 4.621548 13.956291
-6.366153 4.710695 13.951222
-6.413593 4.799305 13.946102
-6.462078 4.887345 13.940933
-6.511640 4.974780 13.935715
-6.562311 5.061575 13.930448
-6.614119 5.147691 13.925132
-6.667095 5.233092 13.919765
-6.721265 5.317737 13.914347
-6.776657 5.401584 13.908877
-6.833296 5.484590 13.903353
-6.891205 5.566711 13.897776
-6.950405 5.647904 13.892144
-7.010910 5.728123 13.886459
-7.072737 5.807325 13.880721
-7.135901 5.885461 13.874930
-7.200414 5.962483 13.869087
-7.266284 6.038343 13.863192
-7.333512 6.112999 13.857248
-7.402096 6.186406 13.851254
-7.472034 6.258522 13.845212
-7.543321 6.329298 13.839124
-7.615954 6.398691 13.832991
-7.689917 6.466659 13.826815
-7.765189 6.533171 13.820598
-7.841749 6.598192 13.814343
-7.919575 6.661689 13.808052
-7.998644 6.723629 13.801726
-8.078930 6.783978 13.795370
-8.160400 6.842716 13.788984
-8.243017 6.899828 13.782572
-8.326742 6.955298 13.776136
-8.411541 7.009112 13.769679
-8.497375 7.061255 13.763205
-8.584207 7.111716 13.756714
-8.671993 7.160498 13.750210
-8.760689 7.207605 13.743696
-8.850252 7.253039 13.737173
-8.940641 7.296808 13.730645
-9.031815 7.338916 13.724113
-9.123732 7.379374 13.717581
-9.216351 7.418202 13.711049
-9.309629 7.455417 13.704519
-9.403527 7.491039 13.697995
-9.498008 7.525088 13.691477
-9.593035 7.557585 13.684967
-9.688570 7.588555 13.678466
-9.784581 7.618023 13.671977
-9.881032 7.646017 13.665500
-9.977892 7.672565 13.659036
-10.075132 7.697694 13.652586
-10.172720 7.721432 13.646153
-10.270632 7.743809 13.639735
-10.368839 7.764853 13.633335
-10.467318 7.784593 13.626952
-10.566045 7.803060 13.620588
-10.664998 7.820283 13.614242
-10.764156 7.836291 13.607917
-10.863499 7.851111 13.601611
-10.963010 7.864773 13.595325
-11.062671 7.877304 13.589059
-11.162466 7.888732 13.582814
-11.262379 7.899085 13.576590
-11.362397 7.908390 13.570387
-11.462506 7.916672 13.564206
-11.562693 7.923955 13.558045
-11.662949 7.930265 13.551905
-11.763260 7.935627 13.545787
-11.863618 7.940066 13.539690
-11.964013 7.943603 13.533613
-12.064437 7.946261 13.527558
-12.164881 7.948062 13.521524
-12.265337 7.949028 13.515510
-12.365800 7.949180 13.509517
-12.466261 7.948540 13.503545
-12.566716 7.947124 13.497593
-12.667159 7.944951 13.491661
-12.767584 7.942038 13.485749
-12.867987 7.938404 13.479857
-12.968362 7.934065 13.473985
-13.068708 7.929040 13.468132
-13.169018 7.923346 13.462298
-13.269291 7.917001 13.456484
-13.369522 7.910023 13.450688
-13.469710 7.902428 13.444910
-13.569851 7.894235 13.439151
-0.904041 -0.861508 21.743558
-0.753906 -0.631270 21.693338
-0.645081 -0.376568 21.660657
-0.612642 -0.100607 21.659390
-0.685473 0.163631 21.699678
-0.843941 0.380777 21.772180
-1.048646 0.548559 21.861061
-0.902897 -0.859915 21.743168
-0.754873 -0.632993 21.693651
-0.752940 -0.629547 21.693025
-0.645562 -0.378506 21.660767
-0.644599 -0.374630 21.660547
-0.612585 -0.102604 21.659282
-0.612700 -0.098611 21.659497
-0.684544 0.161916 21.699235
-0.686401 0.165346 21.700122
-0.842650 0.379362 21.771605
-0.845232 0.382192 21.772756
-1.047086 0.547502 21.860393
-0.896436 -0.850923 21.740968
-0.760326 -0.642718 21.695417
-0.747487 -0.619821 21.691259
-0.648280 -0.389445 21.661389
-0.641882 -0.363690 21.659924
-0.612260 -0.113872 21.658675
-0.613024 -0.087343 21.660105
-0.679304 0.152236 21.696731
-0.691642 0.175027 21.702625
-0.835364 0.371376 21.768356
-0.852576 0.390113 21.776025
-1.038277 0.541533 21.856621
-0.879695 -0.827624 21.735268
-0.857420 -0.796621 21.727683
-0.835631 -0.765238 21.720309
-0.814902 -0.733029 21.713393
-0.794173 -0.700820 21.706477
-0.774455 -0.667917 21.699994
-0.733358 -0.594622 21.686682
-0.716794 -0.559787 21.681542
-0.700425 -0.524839 21.676483
-0.684458 -0.489702 21.671594
-0.671179 -0.453309 21.667831
-0.657899 -0.416917 21.664068
-0.634840 -0.335346 21.658312
-0.625471 -0.297629 21.656168
-0.619664 -0.259220 21.655475
-0.615126 -0.220564 21.655300
-0.610587 -0.181907 21.655125
-0.611419 -0.143068 21.657102
-0.615974 -0.058446 21.662507
-0.623166 -0.020458 21.666989
-0.630357 0.017531 21.671471
-0.640816 0.054436 21.677213
-0.653845 0.090490 21.683945
-0.666874 0.126543 21.690677
-0.705220 0.200109 21.709112
-0.723968 0.232984 21.717994
-0.746046 0.263403 21.728102
-0.768124 0.293822 21.738210
-0.791361 0.323145 21.748735
-0.816484 0.350682 21.759937
-0.873163 0.408833 21.785042
-0.900558 0.433743 21.797041
-0.927953 0.458653 21.809039
-0.957021 0.481277 21.821610
-0.986111 0.503871 21.834187
-1.015453 0.526069 21.846849
18 NaN NaN
-0.904327 -0.861906 21.743655
-0.842165 -0.775390 21.722489
-0.784321 -0.685512 21.703190
-0.731859 -0.591950 21.686197
-0.686188 -0.494443 21.672084
-0.649143 -0.392921 21.661587
-0.623011 -0.287727 21.655604
-0.610356 -0.179941 21.655116
-0.613477 -0.071640 21.660951
-0.633522 0.034251 21.673444
-0.669843 0.134760 21.692211
-0.720225 0.227827 21.716280
-0.781803 0.312669 21.744473
-0.851889 0.389488 21.775724
-0.928321 0.458988 21.809201
-1.009494 0.522031 21.844297
-1.094243 0.579453 21.880585
-1.181732 0.632000 21.917760
-1.017389 -1.365091 17.801924
-0.926963 -1.242736 17.829650
-0.841859 -1.116909 17.858614
-0.764378 -0.986644 17.889210
-0.695744 -0.851918 17.921512
-0.638516 -0.712469 17.955739
-0.596767 -0.568196 17.992150
-0.572345 -0.420520 18.030471
-0.573927 -0.271422 18.070665
-0.600081 -0.124894 18.111577
-0.655530 0.013324 18.151933
-0.735035 0.139908 18.190539
-0.834281 0.252606 18.226542
-0.948764 0.351016 18.259575
-1.072963 0.437847 18.290052
-1.205333 0.512782 18.317796
-1.342472 0.579397 18.343577
-1.016204 -1.363519 17.802279
-0.928098 -1.244342 17.829283
-0.925828 -1.241131 17.830016
-0.842937 -1.118550 17.858235
-0.840781 -1.115268 17.858994
-0.765312 -0.988365 17.888800
-0.763443 -0.984924 17.889619
-0.696586 -0.853682 17.921086
-0.694902 -0.850155 17.921938
-0.639120 -0.714319 17.955276
-0.637913 -0.710619 17.956202
-0.597216 -0.570085 17.991668
-0.596319 -0.566308 17.992633
-0.572405 -0.422451 18.029955
-0.572291 -0.418589 18.030987
-0.573744 -0.273343 18.070138
-0.574111 -0.269502 18.071192
-0.599646 -0.126773 18.111046
-0.600517 -0.123016 18.112107
-0.654608 0.011624 18.151422
-0.656452 0.015024 18.152443
-0.733908 0.138330 18.190050
-0.736162 0.141487 18.191028
-0.832847 0.251283 18.226104
-0.835716 0.253929 18.226980
-0.947221 0.349812 18.259163
-0.950307 0.352220 18.259988
-1.071269 0.436850 18.289686
-1.074658 0.438845 18.290417
-1.203586 0.511872 18.317452
-1.207080 0.513692 18.318141
-1.340683 0.578564 18.343251
-1.012110 -1.358085 17.803506
-0.932021 -1.249891 17.828015
-0.921904 -1.235582 17.831284
-0.846663 -1.124224 17.856922
-0.837054 -1.109595 17.860306
-0.768540 -0.994312 17.887386
-0.760215 -0.978977 17.891033
-0.699498 -0.859776 17.919614
-0.691990 -0.844060 17.923410
-0.641205 -0.720713 17.953676
-0.635827 -0.704226 17.957802
-0.598767 -0.576612 17.990001
-0.594768 -0.559780 17.994300
-0.573324 -0.429081 18.028224
-0.572105 -0.411913 18.032772
-0.573111 -0.279982 18.068316
-0.574744 -0.262863 18.073014
-0.598141 -0.133267 18.109213
-0.602021 -0.116522 18.113940
-0.651423 0.005747 18.149659
-0.659637 0.020900 18.154206
-0.730014 0.132874 18.188359
-0.740057 0.146942 18.192719
-0.827888 0.246711 18.224589
-0.840675 0.258501 18.228494
-0.941888 0.345651 18.257738
-0.955641 0.356381 18.261413
-1.065583 0.433150 18.288365
-1.080516 0.442292 18.291680
-1.197546 0.508726 18.316259
-1.213120 0.516838 18.319334
-1.334499 0.575687 18.342122
-1.002687 -1.345576 17.806331
-0.990250 -1.329068 17.810058
-0.977813 -1.312560 17.813785
-0.965377 -1.296052 17.817512
-0.952970 -1.279524 17.821246
-0.941052 -1.262665 17.825097
-0.912873 -1.222807 17.834202
-0.900955 -1.205949 17.838053
-0.889200 -1.188988 17.841941
-0.877880 -1.171753 17.845928
-0.866560 -1.154518 17.849915
-0.855241 -1.137283 17.853901
-0.828817 -1.096338 17.863400
-0.818192 -1.078700 17.867535
-0.807568 -1.061062 17.871670
-0.796944 -1.043424 17.875805
-0.786320 -1.025785 17.879940
-0.775973 -1.008002 17.884130
-0.752782 -0.965287 17.894289
-0.742974 -0.947220 17.898586
-0.733165 -0.929154 17.902883
-0.723892 -0.910838 17.907278
-0.715046 -0.892322 17.911751
-0.706201 -0.873807 17.916224
-0.685287 -0.830030 17.926800
-0.677325 -0.811160 17.931419
-0.669624 -0.792186 17.936081
-0.661923 -0.773211 17.940743
-0.654222 -0.754237 17.945405
-0.646521 -0.735262 17.950067
-0.631026 -0.689507 17.961485
-0.624690 -0.670083 17.966347
-0.618353 -0.650659 17.971208
-0.612017 -0.631235 17.976069
-0.607046 -0.611469 17.981101
-0.602336 -0.591639 17.986164
-0.591199 -0.544754 17.998137
-0.586598 -0.524906 18.003211
-0.583808 -0.504765 18.008469
-0.581018 -0.484624 18.013726
-0.578228 -0.464483 18.018983
-0.575438 -0.444343 18.024241
-0.571676 -0.396544 18.036882
-0.571110 -0.376262 18.042304
-0.570544 -0.355981 18.047727
-0.569978 -0.335699 18.053150
-0.569731 -0.315432 18.058587
-0.571654 -0.295264 18.064122
-0.576201 -0.247581 18.077208
-0.578124 -0.227413 18.082743
-0.580965 -0.207398 18.088289
-0.585536 -0.187670 18.093857
-0.590107 -0.167943 18.099426
-0.594678 -0.148215 18.104994
-0.606981 -0.102019 18.118125
-0.614195 -0.083080 18.123633
-0.621410 -0.064141 18.129140
-0.628624 -0.045202 18.134648
-0.635838 -0.026263 18.140156
-0.644089 -0.007781 18.145600
-0.666971 0.034428 18.158265
-0.676649 0.052281 18.163622
-0.686327 0.070133 18.168979
-0.697382 0.087168 18.174194
-0.709215 0.103742 18.179331
-0.721047 0.120316 18.184467
-0.749023 0.159501 18.196611
-0.762392 0.174915 18.201523
-0.776016 0.190136 18.206398
-0.789640 0.205357 18.211274
-0.803265 0.220579 18.216149
-0.816889 0.235800 18.221024
-0.852091 0.269027 18.231980
-0.867156 0.282918 18.236580
-0.882221 0.296808 18.241180
-0.897287 0.310699 18.245780
-0.913407 0.323431 18.250128
-0.929610 0.336072 18.254458
-0.967919 0.365960 18.264693
-0.984250 0.378436 18.268985
-1.001345 0.389936 18.273059
-1.018440 0.401436 18.277132
-1.035535 0.412936 18.281205
-1.052630 0.424436 18.285278
-1.094000 0.450229 18.294588
-1.111795 0.460702 18.298425
-1.129589 0.471175 18.302263
-1.147384 0.481649 18.306100
-1.165296 0.491927 18.309892
-1.183644 0.501484 18.313514
-1.227022 0.524079 18.322079
-1.245369 0.533636 18.325701
-1.263905 0.542844 18.329240
-1.282691 0.551584 18.332669
-1.301477 0.560324 18.336097
-1.320264 0.569064 18.339525
25 NaN NaN
-1.017685 -1.365484 17.801836
-0.953651 -1.280487 17.821026
-0.892287 -1.193688 17.840854
-0.834005 -1.104951 17.861380
-0.779305 -1.014140 17.882670
-0.728806 -0.921124 17.904793
-0.683267 -0.825800 17.927822
-0.643621 -0.728118 17.951822
-0.611003 -0.628127 17.976847
-0.586757 -0.526052 18.002912
-0.572397 -0.422391 18.029971
-0.569485 -0.318017 18.057878
-0.579380 -0.214240 18.086358
-0.602898 -0.112736 18.115008
-0.640019 -0.015289 18.143347
-0.689819 0.076574 18.170911
-0.750711 0.161865 18.197343
-0.820832 0.240205 18.222435
-0.898378 0.311705 18.246113
-0.981786 0.376779 18.268398
-1.069792 0.435981 18.289368
-1.161405 0.489901 18.309123
-1.255866 0.539103 18.327774
-1.352590 0.584103 18.345423
-1.451130 0.625356 18.362169
-1.414000 -1.424798 16.540677
-1.201768 -1.235724 16.577027
-1.005094 -1.031241 16.616745
-0.833340 -0.806408 16.660964
-0.705589 -0.555605 16.711077
-0.652411 -0.281262 16.766961
-0.711570 -0.008939 16.823814
-0.868019 0.224057 16.873762
-1.080464 0.411169 16.914943
-1.321930 0.561396 16.948881
-1.412491 -1.423510 16.540924
-1.203208 -1.237087 16.576764
-1.200327 -1.234362 16.577290
-1.006377 -1.032748 16.616450
-1.003812 -1.029735 16.617040
-0.834454 -0.808037 16.660642
-0.832225 -0.804779 16.661286
-0.706264 -0.557450 16.710705
-0.704914 -0.553759 16.711449
-0.652288 -0.283217 16.766557
-0.652535 -0.279308 16.767366
-0.710832 -0.010758 16.823430
-0.712308 -0.007120 16.824198
-0.866661 0.222622 16.873449
-0.869377 0.225491 16.874074
-1.078892 0.409961 16.914675
-1.082036 0.412376 16.915211
-1.320188 0.560439 16.948662
-1.403785 -1.416083 16.542348
-1.211512 -1.244943 16.575248
-1.192024 -1.226506 16.578807
-1.013771 -1.041432 16.614752
-0.996418 -1.021051 16.618738
-0.840880 -0.817431 16.658785
-0.825799 -0.795386 16.663142
-0.710154 -0.568091 16.708560
-0.701023 -0.543118 16.713594
-0.652004 -0.294483 16.764232
-0.653247 -0.268037 16.769697
-0.706577 -0.021245 16.821217
-0.716562 0.003366 16.826412
-0.858831 0.214350 16.871648
-0.877207 0.233763 16.875875
-1.069830 0.403001 16.913129
-1.091413 0.418919 16.916675
-1.310140 0.554922 16.947401
-1.381146 -1.396768 16.546049
-1.351013 -1.371061 16.550976
-1.321112 -1.345099 16.555958
-1.291623 -1.318684 16.561038
-1.262134 -1.292269 16.566118
-1.233106 -1.265374 16.571303
-1.170478 -1.206027 16.582762
-1.142610 -1.177975 16.588200
-1.114742 -1.149922 16.593638
-1.087198 -1.121572 16.599141
-1.060365 -1.092567 16.604788
-1.033532 -1.063563 16.610434
-0.977190 -0.998466 16.623156
-0.951609 -0.968397 16.629037
-0.927520 -0.937169 16.635176
-0.903431 -0.905942 16.641315
-0.879834 -0.874372 16.647530
-0.857591 -0.841859 16.653957
-0.810704 -0.769975 16.668193
-0.790756 -0.736067 16.674935
-0.770808 -0.702159 16.681678
-0.753626 -0.666838 16.688745
-0.736552 -0.631462 16.695825
-0.720273 -0.595765 16.702982
-0.690905 -0.515445 16.719173
-0.680388 -0.477771 16.726807
-0.671394 -0.439662 16.734550
-0.662400 -0.401553 16.742294
-0.658343 -0.362680 16.750255
-0.654724 -0.323740 16.758236
-0.655098 -0.238726 16.775761
-0.657562 -0.199714 16.783831
-0.663938 -0.161259 16.791835
-0.672721 -0.123146 16.799798
-0.681504 -0.085033 16.807761
-0.695513 -0.048516 16.815460
-0.729258 0.029864 16.832029
-0.749089 0.063742 16.839256
-0.768919 0.097619 16.846482
-0.791123 0.129962 16.853421
-0.815053 0.161190 16.860152
-0.838983 0.192418 16.866883
-0.897570 0.255274 16.880559
-0.925342 0.283242 16.886666
-0.954864 0.309477 16.892437
-0.984385 0.335713 16.898208
-1.014894 0.360804 16.903755
-1.046262 0.384898 16.909107
-1.116049 0.435603 16.920418
-1.148839 0.457810 16.925398
-1.181885 0.479635 16.930304
-1.215784 0.500185 16.934957
-1.249684 0.520735 16.939610
-1.284011 0.540576 16.944122
27 NaN NaN
-1.414378 -1.425120 16.540616
-1.331733 -1.354612 16.554128
-1.250854 -1.282165 16.568062
-1.172023 -1.207583 16.582460
-1.095592 -1.130645 16.597374
-1.022001 -1.051098 16.612861
-0.951811 -0.968659 16.628986
-0.885748 -0.883018 16.645821
-0.824753 -0.793856 16.663445
-0.770053 -0.700875 16.681933
-0.723239 -0.603878 16.701346
-0.686319 -0.502903 16.721701
-0.661668 -0.398449 16.742924
-0.651750 -0.291740 16.764794
-0.658501 -0.184850 16.786906
-0.682565 -0.080429 16.808723
-0.722919 0.019035 16.829719
-0.777269 0.111884 16.849525
-0.842869 0.197488 16.867976
-0.917178 0.275987 16.885070
-0.998128 0.347926 16.900894
-1.084148 0.413999 16.915572
-1.174072 0.474899 16.929231
-1.267042 0.531258 16.941993
-1.362421 0.583629 16.953962
-1.459735 0.632483 16.965230
-1.558621 0.678222 16.975876
-1.945407 -1.440331 15.325417
-1.806014 -1.369487 15.329716
-1.668303 -1.295469 15.334608
-1.532990 -1.217216 15.340301
-1.400455 -1.134414 15.346863
-1.271545 -1.046178 15.354479
-1.147686 -0.951114 15.363446
-1.029881 -0.848802 15.373881
-0.922511 -0.735876 15.386545
-0.827710 -0.612542 15.401514
-0.754951 -0.475693 15.419765
-0.711146 -0.327617 15.441280
-0.705744 -0.173981 15.465631
-0.741321 -0.024428 15.491402
-0.807466 0.114557 15.517026
-0.898847 0.238913 15.541583
-1.004083 0.352091 15.565050
-1.120454 0.454127 15.587295
-1.243678 0.548041 15.608585
-1.372161 0.634847 15.629002
-1.943620 -1.439434 15.325471
-1.807786 -1.370413 15.329657
-1.804243 -1.368560 15.329775
-1.670056 -1.296428 15.334543
-1.666549 -1.294510 15.334673
-1.534699 -1.218252 15.340221
-1.531281 -1.216180 15.340380
-1.402136 -1.135495 15.346775
-1.398774 -1.133333 15.346951
-1.273150 -1.047367 15.354370
-1.269940 -1.044990 15.354589
-1.149240 -0.952368 15.363324
-1.146133 -0.949860 15.363568
-1.031288 -0.850215 15.373726
-1.028474 -0.847389 15.374036
-0.923810 -0.737386 15.386369
-0.921211 -0.734366 15.386721
-0.828868 -0.614161 15.401313
-0.826552 -0.610924 15.401715
-0.755674 -0.477539 15.419505
-0.754228 -0.473846 15.420024
-0.711558 -0.329552 15.440991
-0.710734 -0.325681 15.441570
-0.705431 -0.175929 15.465303
-0.706058 -0.172033 15.465959
-0.740678 -0.026292 15.491070
-0.741964 -0.022563 15.491733
-0.806349 0.112928 15.516708
-0.808582 0.116185 15.517344
-0.897576 0.237400 15.541276
-0.900118 0.240426 15.541890
-1.002695 0.350681 15.564754
-1.005471 0.353500 15.565346
-1.118908 0.452889 15.587018
-1.122000 0.455366 15.587572
-1.242077 0.546872 15.608316
-1.245278 0.549209 15.608853
-1.370480 0.633792 15.628748
-1.937388 -1.436307 15.325656
-1.813964 -1.373644 15.329452
-1.798065 -1.365329 15.329980
-1.676172 -1.299774 15.334316
-1.660433 -1.291164 15.334900
-1.540659 -1.221864 15.339944
-1.525321 -1.212568 15.340657
-1.407996 -1.139264 15.346467
-1.392914 -1.129564 15.347258
-1.278747 -1.051512 15.353989
-1.264344 -1.040845 15.354970
-1.154657 -0.956740 15.362897
-1.140715 -0.945488 15.363995
-1.036463 -0.854865 15.373242
-1.023568 -0.842460 15.374578
-0.928343 -0.742652 15.385754
-0.916679 -0.729100 15.387336
-0.832907 -0.619804 15.400613
-0.822513 -0.605281 15.402415
-0.758194 -0.483980 15.418601
-0.751708 -0.467406 15.420929
-0.712994 -0.336303 15.439982
-0.709297 -0.318931 15.442579
-0.704339 -0.182722 15.464159
-0.707150 -0.165240 15.467103
-0.738437 -0.032795 15.489915
-0.744205 -0.016060 15.492889
-0.802841 0.107020 15.515584
-0.812476 0.121865 15.518451
-0.893142 0.232123 15.540206
-0.904552 0.245703 15.542960
-0.997855 0.345767 15.563721
-1.010311 0.358415 15.566379
-1.113516 0.448570 15.586053
-1.127391 0.459684 15.588537
-1.236495 0.542796 15.607380
-1.250860 0.553285 15.609789
-1.364620 0.630116 15.627862
-1.923002 -1.429087 15.326085
-1.904012 -1.419558 15.326651
-1.885022 -1.410028 15.327217
-1.866032 -1.400499 15.327783
-1.847052 -1.390950 15.328353
-1.828226 -1.381104 15.328978
-1.783803 -1.357870 15.330453
-1.764977 -1.348023 15.331078
-1.746203 -1.338081 15.331722
-1.727566 -1.327886 15.332412
-1.708929 -1.317691 15.333103
-1.690292 -1.307497 15.333793
-1.646422 -1.283251 15.335459
-1.628003 -1.272671 15.336222
-1.609585 -1.262092 15.336985
-1.591166 -1.251512 15.337749
-1.572747 -1.240933 15.338512
-1.554419 -1.230203 15.339304
-1.511561 -1.204229 15.341297
-1.493398 -1.193222 15.342142
-1.475236 -1.182215 15.342987
-1.457245 -1.170936 15.343884
-1.439386 -1.159450 15.344821
-1.421526 -1.147965 15.345757
-1.379383 -1.120863 15.347968
-1.361809 -1.108956 15.348987
-1.344313 -1.096933 15.350028
-1.326817 -1.084910 15.351070
-1.309321 -1.072887 15.352111
-1.291825 -1.060864 15.353152
-1.251423 -1.031276 15.355849
-1.234369 -1.018644 15.357011
-1.217314 -1.006013 15.358172
-1.200260 -0.993382 15.359333
-1.183674 -0.980156 15.360613
-1.167165 -0.966833 15.361913
-1.128207 -0.935395 15.364980
-1.111751 -0.922011 15.366292
-1.095926 -0.907898 15.367753
-1.080101 -0.893784 15.369214
-1.064276 -0.879671 15.370675
-1.048451 -0.865557 15.372136
-1.012242 -0.831083 15.375828
-0.997292 -0.816065 15.377478
-0.982343 -0.801048 15.379128
-0.967393 -0.786030 15.380779
-0.952617 -0.770855 15.382463
-0.938806 -0.754809 15.384336
-0.906216 -0.716943 15.388755
-0.892405 -0.700896 15.390628
-0.879151 -0.684423 15.392597
-0.866844 -0.667226 15.394730
-0.854537 -0.650029 15.396864
-0.842230 -0.632832 15.398997
-0.814369 -0.591527 15.404207
-0.804061 -0.573099 15.406639
-0.793753 -0.554671 15.409070
-0.783446 -0.536243 15.411502
-0.773138 -0.517815 15.413934
-0.764013 -0.498848 15.416512
-0.745889 -0.452538 15.423017
-0.738208 -0.432912 15.425774
-0.730527 -0.413287 15.428530
-0.725065 -0.393027 15.431501
-0.720688 -0.372457 15.434576
-0.716310 -0.351886 15.437652
-0.705981 -0.303347 15.444909
-0.705015 -0.282407 15.448216
-0.704450 -0.261423 15.451551
-0.703884 -0.240440 15.454885
-0.703319 -0.219456 15.458220
-0.702753 -0.198472 15.461554
-0.709672 -0.149557 15.469744
-0.713002 -0.128857 15.473231
-0.716331 -0.108156 15.476717
-0.719660 -0.087456 15.480203
-0.726432 -0.067624 15.483725
-0.733262 -0.047808 15.487247
-0.749380 -0.001047 15.495557
-0.756796 0.018520 15.499069
-0.766474 0.037122 15.502540
-0.776152 0.055724 15.506011
-0.785830 0.074326 15.509483
-0.795509 0.092928 15.512954
-0.821465 0.134978 15.521008
-0.833331 0.152286 15.524382
-0.845196 0.169594 15.527757
-0.857061 0.186902 15.531132
-0.869397 0.203860 15.534474
-0.882907 0.219940 15.537735
-0.914787 0.257886 15.545431
-0.928298 0.273966 15.548692
-0.942433 0.289491 15.551896
-0.957182 0.304467 15.555043
-0.971932 0.319444 15.558190
-0.986681 0.334420 15.561337
-1.022168 0.369060 15.568685
-1.037863 0.383067 15.571725
-1.053558 0.397073 15.574764
-1.069254 0.411079 15.577803
-1.084949 0.425085 15.580843
-1.101069 0.438601 15.583825
-1.139838 0.469654 15.590765
-1.156267 0.482813 15.593706
-1.172697 0.495973 15.596646
-1.189589 0.508544 15.599516
-1.206599 0.520965 15.602368
-1.223609 0.533386 15.605220
-1.263754 0.562686 15.611948
-1.281231 0.574460 15.614720
-1.298708 0.586234 15.617492
-1.316185 0.598007 15.620264
-1.333662 0.609781 15.623035
-1.351139 0.621555 15.625807
29 NaN NaN
-1.945854 -1.440555 15.325404
-1.848191 -1.391546 15.328315
-1.751373 -1.340909 15.331530
-1.655526 -1.288480 15.335081
-1.560803 -1.234072 15.339007
-1.467397 -1.177464 15.343351
-1.375551 -1.118399 15.348169
-1.285574 -1.056569 15.353524
-1.197870 -0.991612 15.359496
-1.112971 -0.923099 15.366179
-1.031595 -0.850524 15.373692
-0.954724 -0.773304 15.382177
-0.883714 -0.690799 15.391806
-0.820447 -0.602393 15.402773
-0.767470 -0.507680 15.415271
-0.728006 -0.406844 15.429435
-0.705521 -0.301186 15.445232
-0.702617 -0.193426 15.462356
-0.719716 -0.087108 15.480262
-0.754807 0.014698 15.498355
-0.804545 0.110296 15.516195
-0.865538 0.199268 15.533543
-0.934999 0.281942 15.550310
-1.010838 0.358950 15.566491
-1.091546 0.430973 15.582120
-1.176032 0.498645 15.597243
-1.263507 0.562520 15.611909
-1.353385 0.623068 15.626163
-1.445228 0.680684 15.640047
-1.805131 -1.414200 13.852214
-1.633057 -1.314733 13.896939
-1.465240 -1.209082 13.943565
-1.303008 -1.096015 13.992441
-1.148372 -0.973914 14.044014
-1.004487 -0.840661 14.098834
-0.876503 -0.693617 14.157516
-0.773898 -0.529600 14.220610
-0.711656 -0.348125 14.287402
-0.705002 -0.156997 14.354282
-0.758211 0.028578 14.415709
-0.859328 0.196679 14.468239
-0.991868 0.344730 14.511946
-1.143810 0.475310 14.548433
-1.308364 0.591359 14.579123
-1.480837 0.696452 14.605537
-1.803432 -1.413238 13.852649
-1.634736 -1.315726 13.896495
-1.631379 -1.313740 13.897383
-1.466869 -1.210144 13.943099
-1.463611 -1.208019 13.944030
-1.304570 -1.097164 13.991950
-1.301447 -1.094867 13.992933
-1.149838 -0.975170 14.043491
-1.146906 -0.972658 14.044538
-1.005808 -0.842054 14.098272
-1.003166 -0.839269 14.099396
-0.877593 -0.695180 14.156909
-0.875413 -0.692055 14.158124
-0.774822 -0.531258 14.219979
-0.772973 -0.527942 14.221241
-0.712104 -0.349958 14.286738
-0.711208 -0.346293 14.288066
-0.704806 -0.158881 14.353639
-0.705198 -0.155114 14.354926
-0.757411 0.026833 14.415149
-0.759012 0.030323 14.416269
-0.858121 0.195152 14.467779
-0.860535 0.198206 14.468699
-0.990421 0.343403 14.511569
-0.993316 0.346058 14.512322
-1.142279 0.474069 14.548091
-1.145402 0.476479 14.548746
-1.306721 0.590256 14.578836
-1.310007 0.592463 14.579411
-1.479119 0.695458 14.605292
-1.796103 -1.409084 13.854525
-1.641979 -1.320010 13.894578
-1.624136 -1.309456 13.899299
-1.473899 -1.214730 13.941090
-1.456581 -1.203433 13.946039
-1.311309 -1.102121 13.989829
-1.294707 -1.089910 13.995054
-1.156162 -0.980592 14.041233
-1.140582 -0.967236 14.046796
-1.011507 -0.848064 14.095846
-0.997466 -0.833259 14.101822
-0.882441 -0.701825 14.154312
-0.870708 -0.685311 14.160747
-0.778810 -0.538411 14.217256
-0.769203 -0.520693 14.223985
-0.714038 -0.357866 14.283874
-0.709275 -0.338384 14.290931
-0.703961 -0.167008 14.350861
-0.706044 -0.146986 14.357704
-0.753956 0.019302 14.412733
-0.762467 0.037854 14.418686
-0.852912 0.188563 14.465794
-0.865744 0.204794 14.470685
-0.984173 0.337674 14.509944
-0.999563 0.351786 14.513948
-1.135683 0.468703 14.546613
-1.152273 0.481525 14.550097
-1.299632 0.585492 14.577596
-1.317096 0.597227 14.580651
-1.471707 0.691165 14.604234
-1.778144 -1.398907 13.859122
-1.754337 -1.385415 13.865216
-1.730529 -1.371923 13.871310
-1.706781 -1.358341 13.877432
-1.683254 -1.344424 13.883657
-1.659727 -1.330508 13.889882
-1.606562 -1.298706 13.904073
-1.583356 -1.284323 13.910441
-1.560149 -1.269940 13.916810
-1.536943 -1.255558 13.923179
-1.513960 -1.240865 13.929642
-1.491125 -1.225968 13.936168
-1.439355 -1.192195 13.950962
-1.416924 -1.176767 13.957648
-1.394522 -1.161300 13.964347
-1.372119 -1.145833 13.971045
-1.349717 -1.130366 13.977744
-1.327823 -1.114268 13.984632
-1.278194 -1.077763 14.000251
-1.256500 -1.061432 14.007208
-1.235219 -1.044620 14.014309
-1.213937 -1.027807 14.021409
-1.192656 -1.010995 14.028510
-1.171659 -0.993876 14.035700
-1.125085 -0.953952 14.052329
-1.104542 -0.936341 14.059663
-1.084643 -0.918090 14.067183
-1.065004 -0.899581 14.074778
-1.045365 -0.881071 14.082372
-1.025726 -0.862562 14.089966
-0.983500 -0.818533 14.107767
-0.964986 -0.799011 14.115647
-0.946621 -0.779371 14.123560
-0.929526 -0.758716 14.131751
-0.912431 -0.738061 14.139942
-0.895336 -0.717406 14.148133
-0.859180 -0.668787 14.167173
-0.843897 -0.646882 14.175692
-0.828615 -0.624977 14.184212
-0.814489 -0.602411 14.192893
-0.801535 -0.579175 14.201738
-0.788581 -0.555939 14.210584
-0.761675 -0.502169 14.230872
-0.751695 -0.477612 14.240001
-0.741716 -0.453056 14.249131
-0.731736 -0.428500 14.258261
-0.725055 -0.402933 14.267548
-0.718775 -0.377244 14.276854
-0.705511 -0.318851 14.297948
-0.703580 -0.292471 14.307238
-0.701648 -0.266091 14.316529
-0.699716 -0.239711 14.325819
-0.699141 -0.213325 14.335032
-0.701888 -0.186924 14.344055
-0.708116 -0.127071 14.364510
-0.713683 -0.101106 14.373215
-0.720954 -0.075403 14.381729
-0.728225 -0.049701 14.390242
-0.735496 -0.023998 14.398756
-0.745489 0.000849 14.406812
-0.770933 0.056306 14.424607
-0.782223 0.080737 14.432442
-0.796652 0.103690 14.439578
-0.811080 0.126644 14.446714
-0.825508 0.149597 14.453850
-0.840148 0.172419 14.460928
-0.878508 0.220939 14.475550
-0.895429 0.242341 14.482000
-0.913142 0.263135 14.488192
-0.931971 0.283071 14.494020
-0.950801 0.303007 14.499847
-0.969630 0.322943 14.505675
-1.014871 0.365823 14.517930
-1.035164 0.384432 14.523210
-1.055458 0.403040 14.528490
-1.076666 0.420697 14.533385
-1.098092 0.438127 14.538187
-1.119519 0.455556 14.542990
-1.169108 0.493888 14.553408
-1.191426 0.510277 14.557796
-1.213744 0.526666 14.562185
-1.236203 0.542874 14.566502
-1.259231 0.558347 14.570530
-1.282260 0.573820 14.574558
-1.334771 0.608472 14.583523
-1.358376 0.623135 14.587235
-1.381980 0.637798 14.590948
-1.405585 0.652461 14.594660
-1.429467 0.666701 14.598209
-1.453545 0.680646 14.601643
29 NaN NaN
-1.805555 -1.414441 13.852105
-1.711793 -1.361305 13.876106
-1.619133 -1.306497 13.900623
-1.527738 -1.249853 13.925705
-1.437805 -1.191184 13.951405
-1.349579 -1.130270 13.977785
-1.263365 -1.066856 14.004917
-1.179556 -1.000646 14.032881
-1.098653 -0.931294 14.061766
-1.021314 -0.858404 14.091672
-0.948409 -0.781532 14.122703
-0.881097 -0.700201 14.154956
-0.820926 -0.613957 14.188498
-0.769932 -0.522487 14.223318
-0.730655 -0.425839 14.259250
-0.705944 -0.324758 14.295867
-0.698345 -0.220979 14.332416
-0.709151 -0.117125 14.367909
-0.737757 -0.016004 14.401404
-0.781923 0.080259 14.432293
-0.838715 0.170606 14.460382
-0.905330 0.254863 14.485774
-0.979468 0.333359 14.508720
-1.059376 0.406634 14.529509
-1.143754 0.475269 14.548422
-1.231643 0.539811 14.565704
-1.322334 0.600746 14.581567
-1.415294 0.658493 14.596187
-1.510117 0.713410 14.609713
-1.371898 -1.360606 13.469393
-1.221850 -1.220237 13.479984
-1.080450 -1.071385 13.493050
-0.950951 -0.912406 13.509235
-0.838467 -0.741485 13.529406
-0.751026 -0.557303 13.554642
-0.700267 -0.361013 13.585933
-0.698799 -0.159625 13.623280
-0.751687 0.033844 13.664784
-0.851053 0.208133 13.707533
-0.982960 0.359932 13.749465
-1.135759 0.491450 13.789786
-1.301945 0.606324 13.828394
-1.370422 -1.359260 13.469491
-1.223289 -1.221622 13.479875
-1.220411 -1.218853 13.480092
-1.081794 -1.072859 13.492915
-1.079105 -1.069910 13.493185
-0.952163 -0.913988 13.509066
-0.949740 -0.910823 13.509404
-0.839484 -0.743195 13.529194
-0.837451 -0.739776 13.529619
-0.751749 -0.559148 13.554373
-0.750302 -0.555458 13.554911
-0.700561 -0.362963 13.585600
-0.699972 -0.359063 13.586265
-0.698548 -0.161570 13.622892
-0.699050 -0.157679 13.623668
-0.750907 0.032049 13.664369
-0.752467 0.035638 13.665199
-0.849882 0.206566 13.707119
-0.852224 0.209701 13.707946
-0.981538 0.358583 13.749066
-0.984381 0.361281 13.749863
-1.134180 0.490283 13.789405
-1.137337 0.492618 13.790167
-1.300266 0.605301 13.828030
-1.363997 -1.353406 13.469915
-1.229551 -1.227646 13.479402
-1.214227 -1.212753 13.480588
-1.087645 -1.079274 13.492327
-1.073254 -1.063496 13.493773
-0.957434 -0.920872 13.508330
-0.944469 -0.903939 13.510140
-0.843907 -0.750631 13.528267
-0.833028 -0.732340 13.530546
-0.754897 -0.567176 13.553205
-0.747154 -0.547430 13.556079
-0.701842 -0.371447 13.584153
-0.698692 -0.350578 13.587712
-0.697457 -0.170036 13.621202
-0.700141 -0.149213 13.625358
-0.747514 0.024242 13.662564
-0.755860 0.043445 13.667004
-0.844786 0.199745 13.705321
-0.857319 0.216522 13.709744
-0.975352 0.352714 13.747333
-0.990567 0.367151 13.751597
-1.127313 0.485202 13.787747
-1.144205 0.497698 13.791824
-1.292959 0.600849 13.826444
-1.348225 -1.339033 13.470957
-1.327312 -1.319978 13.472339
-1.306400 -1.300922 13.473720
-1.285691 -1.281654 13.475162
-1.265308 -1.262045 13.476702
-1.244925 -1.242436 13.478241
-1.199317 -1.197505 13.481882
-1.179550 -1.177290 13.483598
-1.159783 -1.157075 13.485314
-1.140097 -1.136784 13.487053
-1.121053 -1.115903 13.488967
-1.102009 -1.095023 13.490882
-1.059414 -1.047301 13.495355
-1.041228 -1.025690 13.497495
-1.023041 -1.004080 13.499634
-1.004854 -0.982469 13.501774
-0.987535 -0.960184 13.504129
-0.970376 -0.937774 13.506524
-0.931951 -0.886741 13.512045
-0.916036 -0.863463 13.514731
-0.900121 -0.840185 13.517416
-0.884205 -0.816908 13.520102
-0.869163 -0.793096 13.522977
-0.854766 -0.768889 13.525993
-0.822305 -0.714011 13.532848
-0.809771 -0.688837 13.536237
-0.797237 -0.663662 13.539626
-0.784703 -0.638487 13.543015
-0.772872 -0.613018 13.546531
-0.762625 -0.586886 13.550335
-0.739426 -0.527720 13.558949
-0.731419 -0.500896 13.563114
-0.723953 -0.473905 13.567366
-0.716487 -0.446914 13.571618
-0.709155 -0.419897 13.575889
-0.704986 -0.392278 13.580600
-0.695547 -0.329747 13.591265
-0.693399 -0.302003 13.596209
-0.692971 -0.274151 13.601351
-0.692543 -0.246299 13.606493
-0.692115 -0.218447 13.611634
-0.694777 -0.190822 13.617054
-0.702821 -0.128427 13.629506
-0.707458 -0.101103 13.635074
-0.714931 -0.074392 13.640822
-0.722405 -0.047681 13.646570
-0.729878 -0.020970 13.652318
-0.739183 0.005075 13.658132
-0.764191 0.062612 13.671436
-0.775275 0.088006 13.677313
-0.789371 0.111856 13.683215
-0.803467 0.135706 13.689116
-0.817563 0.159556 13.695017
-0.832276 0.182998 13.700907
-0.869830 0.233268 13.714158
-0.886417 0.255471 13.720011
-0.904484 0.276477 13.725795
-0.923054 0.297076 13.731554
-0.941625 0.317675 13.737314
-0.960196 0.338274 13.743074
-1.005755 0.381561 13.755854
-1.025891 0.400667 13.761498
-1.046618 0.419125 13.767083
-1.067990 0.436877 13.772602
-1.089363 0.454628 13.778122
-1.110735 0.472379 13.783642
-1.161066 0.510171 13.795894
-1.183422 0.526708 13.801289
-1.205942 0.543019 13.806660
-1.229087 0.558474 13.811935
-1.252231 0.573928 13.817211
-1.275376 0.589383 13.822487
26 NaN NaN
-1.372267 -1.360942 13.469369
-1.293494 -1.289161 13.474573
-1.216714 -1.215297 13.480372
-1.142255 -1.139150 13.486836
-1.070520 -1.060497 13.494048
-1.002017 -0.979097 13.502108
-0.937386 -0.894690 13.511128
-0.877442 -0.807016 13.521243
-0.823219 -0.715848 13.532600
-0.776017 -0.621041 13.545363
-0.737434 -0.522640 13.559688
-0.709324 -0.421018 13.575698
-0.693630 -0.317050 13.593431
-0.692019 -0.212216 13.612785
-0.705391 -0.108492 13.633484
-0.733520 -0.007955 13.655119
-0.775100 0.087709 13.677240
-0.828171 0.177504 13.699458
-0.890628 0.261109 13.721497
-0.960563 0.338681 13.743188
-1.036399 0.410638 13.764444
-1.116897 0.477497 13.785233
-1.201099 0.539785 13.805556
-1.288278 0.597998 13.825428
-1.377872 0.652577 13.844873
-1.469449 0.703911 13.863920
-1.143421 -1.357179 12.935236
-0.959354 -1.092799 12.919982
-0.809640 -0.807380 12.915103
-0.717296 -0.499215 12.926224
-0.717899 -0.180001 12.960510
-0.833323 0.113520 13.019202
-1.037391 0.350951 13.092859
-1.289887 0.534708 13.172228
-1.566951 0.678463 13.253130
-1.142226 -1.355579 12.935125
-0.960438 -1.094478 12.920059
-0.958307 -1.091097 12.919917
-0.810474 -0.809198 12.915105
-0.808805 -0.805563 12.915100
-0.717707 -0.501169 12.926112
-0.716884 -0.497261 12.926336
-0.717652 -0.181967 12.960241
-0.718147 -0.178034 12.960778
-0.832373 0.111808 13.018794
-0.834274 0.115232 13.019610
-1.035987 0.349609 13.092383
-1.038796 0.352293 13.093335
-1.288251 0.533671 13.171731
-1.291523 0.535745 13.172726
-1.565196 0.677646 13.252627
-1.134583 -1.345346 12.934412
-0.967373 -1.105216 12.920550
-0.951818 -1.080078 12.919561
-0.815810 -0.820825 12.915124
-0.804197 -0.793631 12.915286
-0.720337 -0.513668 12.925398
-0.715336 -0.484609 12.927323
-0.716069 -0.194544 12.958521
-0.720953 -0.165731 12.962758
-0.826295 0.100858 13.016185
-0.841142 0.125650 13.022348
-1.027002 0.341027 13.089340
-1.048129 0.360467 13.096416
-1.277785 0.527040 13.168546
-1.302130 0.542136 13.175919
-1.553970 0.672421 13.249414
-1.114370 -1.318282 12.932526
-1.087438 -1.282221 12.930014
-1.061306 -1.245566 12.927754
-1.035528 -1.208648 12.925606
-1.010149 -1.171456 12.923582
-0.985712 -1.133616 12.921850
-0.934658 -1.050937 12.918619
-0.911794 -1.012108 12.917365
-0.890157 -0.972585 12.916475
-0.869148 -0.932709 12.915771
-0.848725 -0.892542 12.915238
-0.829922 -0.851572 12.915173
-0.792063 -0.762055 12.915794
-0.775895 -0.719981 12.916470
-0.761715 -0.677241 12.917688
-0.748698 -0.634110 12.919223
-0.736562 -0.590765 12.920989
-0.727293 -0.546722 12.923507
-0.711675 -0.451086 12.930043
-0.706799 -0.406419 12.933667
-0.704930 -0.361661 12.938012
-0.705056 -0.316842 12.942836
-0.706306 -0.272126 12.947914
-0.711883 -0.227806 12.953974
-0.729344 -0.133412 12.968199
-0.740525 -0.090348 12.975450
-0.754798 -0.048417 12.983310
-0.771366 -0.007327 12.991623
-0.788803 0.033315 13.000094
-0.810221 0.071900 13.009286
-0.860320 0.152517 13.029758
-0.885873 0.188317 13.039630
-0.913279 0.222568 13.049775
-0.942224 0.255533 13.060146
-0.971577 0.288088 13.070570
-1.003239 0.318330 13.081293
-1.073509 0.381270 13.104644
-1.107325 0.408989 13.115606
-1.142022 0.435525 13.126650
-1.177544 0.460952 13.137771
-1.213229 0.486132 13.148903
-1.250108 0.509501 13.160125
-1.330623 0.558294 13.184385
-1.368587 0.579822 13.195666
-1.406977 0.600553 13.206963
-1.445819 0.620437 13.218276
-1.484724 0.640190 13.229590
-1.524282 0.658602 13.240914
25 NaN NaN
-1.143720 -1.357579 12.935264
-1.079180 -1.271164 12.929243
-1.017407 -1.182696 12.924096
-0.958850 -1.092018 12.919946
-0.904060 -0.998974 12.916940
-0.853718 -0.903421 12.915255
-0.808664 -0.805255 12.915099
-0.769926 -0.704448 12.916720
-0.738740 -0.601115 12.920397
-0.716536 -0.495607 12.926431
-0.704855 -0.388616 12.935111
-0.705155 -0.281273 12.946664
-0.718511 -0.175136 12.961175
-0.745286 -0.072009 12.978537
-0.784963 0.026398 12.998446
-0.836261 0.118812 13.020463
-0.897471 0.204565 13.044111
-0.966812 0.283536 13.068956
-1.042669 0.355992 13.094646
-1.123693 0.422405 13.120912
-1.208809 0.483332 13.147559
-1.297178 0.539328 13.174447
-1.388151 0.590916 13.201480
-1.481229 0.638564 13.228589
-1.576023 0.682685 13.255727
-1.140391 -1.545322 10.606299
-1.020059 -1.371106 10.646081
-0.911591 -1.189722 10.687795
-0.818340 -1.000579 10.731643
-0.744814 -0.803499 10.777745
-0.696797 -0.599285 10.826011
-0.680876 -0.390596 10.875917
-0.702721 -0.182658 10.926305
-0.764352 0.017400 10.975497
-0.862591 0.203044 11.021866
-0.990594 0.370700 11.064432
-1.140855 0.519966 11.102966
-1.307118 0.652331 11.137717
-1.484799 0.769944 11.169121
-1.139248 -1.543721 10.606664
-1.021100 -1.372771 10.645699
-1.019018 -1.369442 10.646463
-0.912504 -1.191456 10.687394
-0.910679 -1.187988 10.688196
-0.819087 -1.002386 10.731221
-0.817593 -0.998772 10.732064
-0.745347 -0.805376 10.777303
-0.744281 -0.801623 10.778187
-0.697058 -0.601214 10.825552
-0.696537 -0.597355 10.826470
-0.680807 -0.392539 10.875448
-0.680946 -0.388653 10.876385
-0.702287 -0.184554 10.925841
-0.703155 -0.180761 10.926769
-0.763564 0.015616 10.975054
-0.765139 0.019185 10.975940
-0.861504 0.201416 11.021456
-0.863678 0.204671 11.022277
-0.989276 0.369243 11.064058
-0.991912 0.372157 11.064806
-1.139369 0.518671 11.102629
-1.142342 0.521261 11.103304
-1.305511 0.651179 11.137412
-1.308725 0.653482 11.138022
-1.483105 0.768916 11.168844
-1.134084 -1.536485 10.608313
-1.025991 -1.380182 10.644003
-1.014311 -1.361918 10.648190
-0.916739 -1.199237 10.685598
-0.906554 -1.180149 10.690009
-0.822463 -1.010554 10.729316
-0.814217 -0.990604 10.733969
-0.747755 -0.813858 10.775305
-0.741873 -0.793140 10.780184
-0.698234 -0.609934 10.823475
-0.695361 -0.588635 10.828547
-0.680491 -0.401323 10.873330
-0.681262 -0.379869 10.878503
-0.700325 -0.193128 10.923745
-0.705117 -0.172188 10.928865
-0.760006 0.007549 10.973052
-0.768697 0.027251 10.977943
-0.856589 0.194058 11.019600
-0.868593 0.212029 11.024132
-0.983318 0.362655 11.062370
-0.997870 0.378744 11.066494
-1.132651 0.512816 11.101103
-1.149060 0.527115 11.104830
-1.298248 0.645975 11.136033
-1.315988 0.658686 11.139401
-1.475449 0.764273 11.167593
-1.121291 -1.518559 10.612400
-1.104318 -1.494777 10.617821
-1.087345 -1.470994 10.623242
-1.070781 -1.446945 10.628734
-1.054516 -1.422701 10.634279
-1.038251 -1.398457 10.639823
-1.002650 -1.343278 10.652468
-0.987181 -1.318548 10.658143
-0.971711 -1.293819 10.663818
-0.956870 -1.268734 10.669590
-0.942297 -1.243497 10.675403
-0.927724 -1.218260 10.681216
-0.896334 -1.160729 10.694499
-0.882776 -1.134966 10.700457
-0.869217 -1.109203 10.706414
-0.856609 -1.082994 10.712495
-0.844202 -1.056691 10.718603
-0.831796 -1.030388 10.724710
-0.805853 -0.970368 10.738688
-0.794757 -0.943522 10.744949
-0.783660 -0.916675 10.751211
-0.773975 -0.889324 10.757618
-0.764369 -0.861945 10.764033
-0.754763 -0.834565 10.770449
-0.735907 -0.772125 10.785133
-0.727992 -0.744245 10.791699
-0.720214 -0.716333 10.798275
-0.714209 -0.688012 10.804980
-0.708205 -0.659692 10.811685
-0.702201 -0.631371 10.818390
-0.692446 -0.567030 10.833691
-0.688580 -0.538367 10.840516
-0.685174 -0.509666 10.847358
-0.683664 -0.480805 10.854272
-0.682155 -0.451943 10.861186
-0.680645 -0.423082 10.868100
-0.682044 -0.358107 10.883750
-0.683081 -0.329236 10.890711
-0.684976 -0.300435 10.897671
-0.688693 -0.271784 10.904626
-0.692410 -0.243133 10.911581
-0.696127 -0.214482 10.918536
-0.709978 -0.150948 10.934058
-0.716426 -0.122770 10.940948
-0.724073 -0.094913 10.947781
-0.733212 -0.067458 10.954544
-0.742351 -0.040002 10.961307
-0.751490 -0.012546 10.968070
-0.777514 0.047236 10.982903
-0.789210 0.073750 10.989485
-0.802248 0.099629 10.995937
-0.816298 0.125032 11.002293
-0.830347 0.150434 11.008648
-0.844412 0.175828 11.015002
-0.880770 0.230259 11.028730
-0.896924 0.254444 11.034830
-0.914359 0.277748 11.040740
-0.932355 0.300666 11.046568
-0.950351 0.323585 11.052395
-0.968557 0.346335 11.058186
-1.012632 0.395064 11.070678
-1.032215 0.416715 11.076229
-1.052906 0.437357 11.081556
-1.073841 0.457775 11.086834
-1.094777 0.478193 11.092112
-1.116006 0.498311 11.097322
-1.165705 0.541620 11.108610
-1.187787 0.560863 11.113625
-1.210784 0.579063 11.118406
-1.233836 0.597200 11.123172
-1.256889 0.615336 11.127939
-1.280252 0.633082 11.132616
-1.333983 0.671579 11.142818
-1.357903 0.688621 11.147336
-1.382473 0.704769 11.151651
-1.407043 0.720917 11.155966
-1.431614 0.737065 11.160280
-1.456482 0.752768 11.164493
28 NaN NaN
-1.140676 -1.545722 10.606208
-1.080186 -1.460964 10.625528
-1.022220 -1.374561 10.645288
-0.967088 -1.286429 10.665514
-0.915153 -1.196489 10.686231
-0.866834 -1.104674 10.707462
-0.822622 -1.010938 10.729227
-0.783078 -0.915267 10.751539
-0.748845 -0.817700 10.774401
-0.720641 -0.718350 10.797797
-0.699246 -0.617435 10.821689
-0.685469 -0.515306 10.846007
-0.680090 -0.412473 10.870642
-0.683786 -0.309610 10.895443
-0.697028 -0.207533 10.920223
-0.720003 -0.107143 10.944769
-0.752562 -0.009326 10.968863
-0.794233 0.085136 10.992311
-0.844289 0.175644 11.014956
-0.901848 0.261816 11.036689
-0.965973 0.343479 11.057453
-1.035755 0.420630 11.077232
-1.110359 0.493391 11.096040
-1.189051 0.561964 11.113912
-1.271202 0.626598 11.130898
-1.356282 0.687555 11.147051
-1.443845 0.745103 11.162428
-1.533524 0.799497 11.177084
-1.109356 -1.628332 7.682282
-1.049740 -1.539849 7.681366
-0.992667 -1.449704 7.680938
-0.938436 -1.357820 7.681047
-0.887410 -1.264124 7.681749
-0.840009 -1.168552 7.683108
-0.796720 -1.071065 7.685194
-0.758105 -0.971660 7.688085
-0.724804 -0.870386 7.691866
-0.697531 -0.767374 7.696623
-0.677058 -0.662861 7.702445
-0.664186 -0.557225 7.709411
-0.659684 -0.451003 7.717583
-0.664211 -0.344899 7.726994
-0.678224 -0.239758 7.737636
-0.701900 -0.136501 7.749458
-0.735084 -0.036033 7.762364
-0.777311 0.060854 7.776224
-0.827862 0.153554 7.790887
-0.885867 0.241684 7.806204
-0.950402 0.325072 7.822030
-1.020563 0.403721 7.838242
-1.095523 0.477766 7.854736
-1.174550 0.547420 7.871429
-1.257016 0.612944 7.888256
-1.342390 0.674619 7.905166
-1.108239 -1.626673 7.682265
-1.050858 -1.541508 7.681383
-1.048628 -1.538187 7.681349
-0.993736 -1.451394 7.680946
-0.991598 -1.448013 7.680930
-0.939451 -1.359544 7.681045
-0.937422 -1.356096 7.681050
-0.888363 -1.265882 7.681736
-0.886457 -1.262365 7.681763
-0.840892 -1.170346 7.683082
-0.839126 -1.166758 7.683135
-0.797523 -1.072896 7.685154
-0.795917 -1.069234 7.685235
-0.758818 -0.973527 7.688029
-0.757393 -0.969792 7.688141
-0.725414 -0.872289 7.691792
-0.724195 -0.868482 7.691939
-0.698022 -0.769310 7.696531
-0.697039 -0.765437 7.696716
-0.677417 -0.664826 7.702332
-0.676700 -0.660897 7.702558
-0.664397 -0.559210 7.709276
-0.663976 -0.555241 7.709547
-0.659731 -0.452996 7.717425
-0.659637 -0.449010 7.717742
-0.664082 -0.346887 7.726811
-0.664340 -0.342912 7.727176
-0.677911 -0.241723 7.737430
-0.678537 -0.237793 7.737842
-0.701401 -0.138424 7.749230
-0.702398 -0.134577 7.749686
-0.734405 -0.037897 7.762116
-0.735763 -0.034168 7.762612
-0.776462 0.059062 7.775958
-0.778159 0.062645 7.776489
-0.826859 0.151846 7.790607
-0.828864 0.155262 7.791167
-0.884728 0.240066 7.805912
-0.887006 0.243302 7.806495
-0.949145 0.323545 7.821730
-0.951659 0.326598 7.822330
-1.019206 0.402285 7.837936
-1.021921 0.405158 7.838549
-1.094081 0.476416 7.854425
-1.096966 0.479115 7.855048
-1.173036 0.546152 7.871115
-1.176065 0.548687 7.871744
-1.255441 0.611753 7.887940
-1.258591 0.614135 7.888572
-1.340764 0.673499 7.904848
-1.105314 -1.622332 7.682220
-1.053782 -1.545849 7.681428
-1.045830 -1.533764 7.681329
-0.996534 -1.455818 7.680966
-0.988886 -1.443537 7.680926
-0.942106 -1.364055 7.681038
-0.934793 -1.351570 7.681061
-0.890857 -1.270484 7.681699
-0.883964 -1.257763 7.681799
-0.843202 -1.175043 7.683012
-0.836815 -1.162061 7.683204
-0.799626 -1.077689 7.685047
-0.793814 -1.064442 7.685341
-0.760683 -0.978416 7.687882
-0.755528 -0.964903 7.688288
-0.727008 -0.877271 7.691600
-0.722601 -0.863500 7.692131
-0.699309 -0.774378 7.696289
-0.695752 -0.760369 7.696957
-0.678356 -0.669967 7.702037
-0.675761 -0.655756 7.702854
-0.664947 -0.564403 7.708922
-0.663426 -0.550048 7.709901
-0.659853 -0.458213 7.717010
-0.659515 -0.443794 7.718157
-0.663744 -0.352088 7.726334
-0.664678 -0.337710 7.727653
-0.677093 -0.246864 7.736891
-0.679356 -0.232652 7.738381
-0.700097 -0.143458 7.748633
-0.703702 -0.129543 7.750283
-0.732628 -0.042778 7.761466
-0.737540 -0.029287 7.763262
-0.774241 0.054374 7.775263
-0.780380 0.067334 7.777184
-0.824235 0.147377 7.789875
-0.831488 0.159731 7.791900
-0.881748 0.235831 7.805150
-0.889987 0.247536 7.807258
-0.945856 0.319550 7.820944
-0.954948 0.330593 7.823116
-1.015653 0.398526 7.837133
-1.025474 0.408917 7.839351
-1.090304 0.472884 7.853611
-1.100742 0.482647 7.855862
-1.169071 0.542834 7.870292
-1.180029 0.552005 7.872566
-1.251318 0.608636 7.887111
-1.262713 0.617253 7.889400
-1.336508 0.670568 7.904017
-1.099281 -1.613378 7.682128
-1.091388 -1.601663 7.682006
-1.083495 -1.589948 7.681885
-1.075602 -1.578233 7.681763
-1.067708 -1.566518 7.681642
-1.059815 -1.554803 7.681520
-1.040059 -1.524638 7.681286
-1.032508 -1.512699 7.681231
-1.024957 -1.500760 7.681175
-1.017406 -1.488821 7.681120
-1.009856 -1.476882 7.681064
-1.002305 -1.464943 7.681009
-0.983409 -1.434231 7.680939
-0.976244 -1.422057 7.680956
-0.969079 -1.409883 7.680973
-0.961913 -1.397709 7.680991
-0.954748 -1.385534 7.681008
-0.947583 -1.373360 7.681025
-0.929650 -1.342077 7.681136
-0.922920 -1.329657 7.681233
-0.916190 -1.317237 7.681331
-0.909460 -1.304817 7.681429
-0.902730 -1.292397 7.681527
-0.896000 -1.279977 7.681625
-0.879148 -1.248101 7.681934
-0.872912 -1.235427 7.682121
-0.866676 -1.222753 7.682308
-0.860440 -1.210079 7.682495
-0.854204 -1.197404 7.682682
-0.847969 -1.184730 7.682869
-0.832331 -1.152243 7.683397
-0.826657 -1.139310 7.683683
-0.820984 -1.126376 7.683970
-0.815310 -1.113442 7.684256
-0.809636 -1.100509 7.684542
-0.803962 -1.087575 7.684829
-0.789696 -1.054467 7.685597
-0.784663 -1.041274 7.685994
-0.779630 -1.028081 7.686390
-0.774596 -1.014887 7.686786
-0.769563 -1.001694 7.687183
-0.764530 -0.988500 7.687579
-0.751811 -0.954774 7.688613
-0.747509 -0.941328 7.689131
-0.743206 -0.927883 7.689649
-0.738903 -0.914438 7.690168
-0.734600 -0.900993 7.690686
-0.730297 -0.887548 7.691204
-0.719327 -0.853219 7.692529
-0.715854 -0.839542 7.693182
-0.712381 -0.825864 7.693834
-0.708909 -0.812187 7.694486
-0.705436 -0.798510 7.695138
-0.701964 -0.784832 7.695791
-0.693098 -0.749915 7.697456
-0.690430 -0.736069 7.698233
-0.687896 -0.722194 7.699031
-0.685361 -0.708320 7.699830
-0.682827 -0.694446 7.700628
-0.680293 -0.680572 7.701426
-0.673824 -0.645151 7.703464
-0.672020 -0.631179 7.704372
-0.670535 -0.617163 7.705327
-0.669051 -0.603147 7.706282
-0.667566 -0.589132 7.707237
-0.666082 -0.575116 7.708192
-0.662291 -0.539335 7.710631
-0.661425 -0.525286 7.711674
-0.661095 -0.511208 7.712794
-0.660765 -0.497130 7.713914
-0.660435 -0.483052 7.715034
-0.660105 -0.468974 7.716154
-0.659263 -0.433033 7.719013
-0.659400 -0.418970 7.720196
-0.660311 -0.404932 7.721484
-0.661223 -0.390894 7.722773
-0.662135 -0.376856 7.724061
-0.663047 -0.362818 7.725349
-0.665375 -0.326980 7.728638
-0.666567 -0.312977 7.729962
-0.668776 -0.299101 7.731416
-0.670986 -0.285224 7.732871
-0.673195 -0.271348 7.734325
-0.675404 -0.257471 7.735779
-0.681044 -0.222045 7.739492
-0.683328 -0.208185 7.740955
-0.686848 -0.194599 7.742567
-0.690367 -0.181014 7.744178
-0.693887 -0.167428 7.745790
-0.697407 -0.153842 7.747401
-0.706392 -0.119159 7.751515
-0.709912 -0.105573 7.753126
-0.714577 -0.092359 7.754865
-0.719372 -0.079188 7.756619
-0.724167 -0.066017 7.758372
-0.728963 -0.052845 7.760126
-0.741205 -0.019220 7.764602
-0.746001 -0.006049 7.766356
-0.751680 0.006741 7.768200
-0.757674 0.019394 7.770076
-0.763667 0.032048 7.771952
-0.769660 0.044702 7.773829
-0.784961 0.077006 7.778619
-0.790954 0.089659 7.780495
-0.797577 0.101971 7.782430
-0.804659 0.114033 7.784407
-0.811740 0.126095 7.786385
-0.818822 0.138157 7.788363
-0.836901 0.168951 7.793412
-0.843983 0.181013 7.795390
-0.851467 0.192810 7.797401
-0.859511 0.204238 7.799460
-0.867555 0.215667 7.801518
-0.875599 0.227095 7.803576
-0.896135 0.256272 7.808831
-0.904179 0.267700 7.810889
-0.912438 0.278962 7.812964
-0.921315 0.289744 7.815084
-0.930193 0.300526 7.817204
-0.939070 0.311309 7.819324
-0.961733 0.338834 7.824736
-0.970611 0.349617 7.826856
-0.979557 0.360337 7.828981
-0.989146 0.370482 7.831146
-0.998735 0.380627 7.833312
-1.008324 0.390772 7.835478
-1.032803 0.416671 7.841007
-1.042392 0.426816 7.843172
-1.051981 0.436961 7.845338
-1.062133 0.446533 7.847534
-1.072324 0.456065 7.849732
-1.082515 0.465598 7.851930
-1.108532 0.489934 7.857542
-1.118723 0.499466 7.859740
-1.128913 0.508999 7.861939
-1.139497 0.518083 7.864154
-1.150196 0.527037 7.866375
-1.160894 0.535990 7.868595
-1.188206 0.558849 7.874264
-1.198905 0.567803 7.876484
-1.209603 0.576757 7.878705
-1.220563 0.585379 7.880934
-1.231689 0.593792 7.883169
-1.242814 0.602205 7.885403
-1.271217 0.623684 7.891109
-1.282343 0.632097 7.893343
-1.293469 0.640510 7.895578
-1.304757 0.648697 7.897817
-1.316243 0.656609 7.900060
-1.327729 0.664520 7.902303
26 NaN NaN
-1.109635 -1.628746 7.682287
-1.048740 -1.538365 7.681350
-0.990487 -1.446256 7.680922
-0.935207 -1.352333 7.681055
-0.883288 -1.256515 7.681809
-0.835180 -1.158738 7.683253
-0.791409 -1.058959 7.685462
-0.752582 -0.957180 7.688520
-0.719388 -0.853462 7.692518
-0.692601 -0.747956 7.697549
-0.673054 -0.640935 7.703707
-0.661602 -0.532829 7.711074
-0.659057 -0.424246 7.719712
-0.666089 -0.315977 7.729648
-0.683128 -0.208956 7.740864
-0.710273 -0.104179 7.753292
-0.747258 -0.002596 7.766815
-0.793482 0.094996 7.781286
-0.848103 0.188030 7.796540
-0.910149 0.276182 7.812417
-0.978626 0.359351 7.828770
-1.052593 0.437609 7.845476
-1.131208 0.511145 7.862434
-1.213739 0.580218 7.879563
-1.299569 0.645123 7.896803
-1.388180 0.706160 7.914108
