0.180928 0.180902 0.180585 0.179198 0.177002 0.175188 0.173374 0.171560 0.169969 0.168965 0.168753 0.168736 0.168719 0.168509 0.167596 0.166150 0.164852 0.163554 0.162255 0.161082 0.160341 0.160183 0.160171 0.160158 0.160000 0.159306 0.158207 0.157178 0.156149 0.155120 0.154145 0.153530 0.153396 0.153385 0.153375 0.153242 0.152654 0.151723 0.150845 0.149967 0.149089 0.148264 0.147743 0.147630 0.147621 0.147612 0.147499 0.147002 0.146213 0.145470 0.144727 0.143984 0.143285 0.142844 0.142749 0.142741 0.142734 0.142639 0.142220 0.141557 0.140933 0.140309 0.139685 0.139099 0.138729 0.138649 0.138642 0.138636 0.138556 0.138203 0.137643 0.137115 0.136586 0.136057 0.135556 0.135239 0.135170 0.135165 0.135159 0.135091 0.134787 0.134305 0.133843 0.133382 0.132920 0.132477 0.132198 0.132137 0.132132 0.132127 0.132066 0.131796 0.131367 0.130954 0.130542 0.130129 0.129734 0.129484 0.129429 0.129425 0.129421 0.129366 0.129126 0.128745 0.128382 0.128018 0.127654 0.127308 0.127090 0.127042 0.127038 
0.180942 0.180970 0.181219 0.181862 0.182721 0.183500 0.184279 0.185057 0.185800 0.186356 0.186556 0.186580 0.186603 0.186802 0.187348 0.188076 0.188809 0.189542 0.190275 0.191022 0.191581 0.191785 0.191808 0.191832 0.192036 0.192597 0.193348 0.194107 0.194866 0.195625 0.196390 0.196962 0.197170 0.197195 0.197219 0.197427 0.198000 0.198765 0.199529 0.200294 0.201058 0.201818 0.202387 0.202593 0.202617 0.202641 0.202847 0.203405 0.204152 0.204884 0.205616 0.206348 0.207038 0.207555 0.207741 0.207763 0.207784 0.207969 0.208464 0.209125 0.209743 0.210362 0.210980 0.211538 0.211956 0.212098 0.212115 0.212131 0.212272 0.212622 0.213089 0.213515 0.213941 0.214367 0.214714 0.214974 0.215060 0.215070 0.215079 0.215160 0.215342 0.215584 0.215735 0.215886 0.216038 0.216075 0.216102 0.216101 0.216101 0.216101 0.216102 0.216061 0.216006 0.215840 0.215675 0.215509 0.215253 0.215062 0.214979 0.214970 0.214960 0.214881 0.214641 0.214320 0.213907 0.213494 0.213081 0.212580 0.212205 0.212061 0.212044 0.212029 0.211900 0.211519 0.211011 0.210433 0.209855 0.209276 0.208642 0.208167 0.207994 0.207974 0.207954 0.207780 0.207279 0.206609 0.205904 0.205199 0.204495 0.203768 0.203224 0.203025 0.203002 0.202978 0.202775 0.202205 0.201444 0.200693 0.199943 0.199192 0.198425 0.197851 0.197642 0.197618 
0.180934 0.180935 0.180936 0.180639 0.180168 0.179393 0.178618 0.177843 0.177140 0.176696 0.176540 0.176529 0.176519 0.176386 0.175905 0.175143 0.174432 0.173721 0.173011 0.172299 0.171850 0.171752 0.171744 0.171737 0.171642 0.171282 0.170711 0.169950 0.169189 0.168428 0.167491 0.166899 0.166764 0.166754 0.166744 0.166609 0.166005 0.165049 0.163987 0.162925 0.161862 0.160320 0.159346 0.159084 0.159064 0.159044 0.158773 0.157228 0.154780 0.151577 0.148374 0.145171 0.141972 0.139952 0.139515 0.139482 0.139450 0.139017 0.137114 0.134099 0.131749 0.129400 0.127050 0.125455 0.124448 0.124260 0.124246 0.124232 0.124049 0.123332 0.122195 0.121425 0.120655 0.119885 0.119356 0.119022 0.118957 0.118952 0.118947 0.118884 0.118627 0.118220 0.117918 0.117616 0.117313 0.117083 0.116938 0.116909 0.116907 0.116904 0.116876 0.116757 0.116568 0.116413 0.116259 0.116105 0.115976 0.115894 0.115877 0.115876 0.115875 0.115858 0.115785 0.115671 0.115571 0.115471 0.115371 0.115283 0.115227 0.115215 0.115214 0.115214 0.115202 0.115152 0.115073 0.115004 0.114934 0.114865 0.114804 0.114766 0.114758 0.114757 0.114757 0.114749 0.114715 0.114661 0.114614 0.114567 0.114520 0.114479 0.114453 0.114448 0.114447 0.114447 0.114442 0.114419 0.114383 0.114352 0.114321 0.114290 0.114264 0.114247 0.114244 0.114244 
0.135164 0.135161 0.135147 0.135113 0.135067 0.135018 0.134968 0.134919 0.134866 0.134827 0.134810 0.134806 0.134802 0.134785 0.134743 0.134686 0.134626 0.134565 0.134505 0.134442 0.134394 0.134374 0.134370 0.134365 0.134345 0.134294 0.134227 0.134155 0.134084 0.134013 0.133938 0.133882 0.133859 0.133853 0.133848 0.133825 0.133766 0.133687 0.133606 0.133524 0.133443 0.133359 0.133295 0.133269 0.133264 0.133258 0.133232 0.133178 0.133106 0.133054 0.133001 0.132949 0.132900 0.132862 0.132848 0.132845 0.132841 0.132827 0.132791 0.132744 0.132699 0.132654 0.132609 0.132566 0.132533 0.132520 0.132518 0.132515 0.132502 0.132470 0.132428 0.132388 0.132348 0.132308 0.132269 0.132240 0.132228 0.132226 0.132223 0.132212 0.132183 0.132145 0.132109 0.132073 0.132037 0.132002 0.131976 0.131966 0.131964 0.131961 0.131951 0.131926 0.131892 0.131860 0.131828 0.131795 0.131764 0.131741 0.131731 0.131729 0.131727 0.131718 0.131695 0.131664 0.131634 0.131604 0.131574 0.131545 0.131524 0.131515 0.131513 
0.147619 0.147613 0.147580 0.147492 0.147376 0.147253 0.147129 0.147006 0.146876 0.146779 0.146740 0.146732 0.146724 0.146684 0.146582 0.146445 0.146300 0.146155 0.146011 0.145861 0.145748 0.145704 0.145695 0.145686 0.145641 0.145527 0.145374 0.145218 0.145061 0.144905 0.144744 0.144624 0.144576 0.144567 0.144557 0.144510 0.144387 0.144224 0.144058 0.143893 0.143727 0.143558 0.143432 0.143381 0.143371 0.143361 0.143311 0.143182 0.143012 0.142846 0.142680 0.142515 0.142401 0.142316 0.142283 0.142276 0.142270 0.142237 0.142159 0.142056 0.141962 0.141867 0.141773 0.141685 0.141619 0.141594 0.141588 0.141583 0.141558 0.141497 0.141415 0.141338 0.141261 0.141184 0.141110 0.141054 0.141034 0.141030 0.141026 0.141005 0.140953 0.140884 0.140819 0.140754 0.140689 0.140627 0.140581 0.140563 0.140559 0.140556 0.140538 0.140493 0.140433 0.140376 0.140319 0.140262 0.140208 0.140167 0.140151 0.140148 0.140144 0.140128 0.140088 0.140035 0.139982 0.139930 0.139877 0.139825 0.139786 0.139770 0.139767 
0.153385 0.153382 0.153371 0.153342 0.153302 0.153253 0.153204 0.153155 0.153097 0.153053 0.153034 0.153029 0.153025 0.153005 0.152953 0.152883 0.152806 0.152728 0.152651 0.152565 0.152501 0.152474 0.152468 0.152462 0.152435 0.152363 0.152268 0.152167 0.152065 0.151964 0.151858 0.151777 0.151744 0.151736 0.151729 0.151696 0.151609 0.151494 0.151375 0.151256 0.151137 0.151013 0.150920 0.150882 0.150873 0.150865 0.150826 0.150729 0.150599 0.150465 0.150331 0.150197 0.150057 0.149952 0.149909 0.149899 0.149889 0.149846 0.149736 0.149591 0.149442 0.149293 0.149144 0.148989 0.148872 0.148825 0.148814 0.148803 0.148755 0.148672 0.148562 0.148467 0.148372 0.148277 0.148190 0.148124 0.148098 0.148092 0.148086 0.148060 0.147997 0.147914 0.147835 0.147756 0.147676 0.147601 0.147545 0.147522 0.147517 0.147511 0.147488 0.147433 0.147360 0.147289 0.147218 0.147146 0.147077 0.147024 0.147003 0.146998 0.146993 0.146972 0.146919 0.146849 0.146781 0.146713 0.146645 0.146579 0.146529 0.146509 0.146504 0.146499 0.146479 0.146428 0.146362 0.146296 0.146231 0.146165 0.146100 0.146051 0.146031 0.146026 0.146022 0.146002 0.145952 0.145886 0.145821 0.145756 0.145692 0.145626 0.145577 0.145557 0.145553 0.145548 0.145528 0.145478 0.145413 0.145347 0.145281 0.145216 0.145149 0.145099 0.145078 0.145074 
0.168735 0.168730 0.168708 0.168640 0.168550 0.168420 0.168290 0.168160 0.167991 0.167863 0.167808 0.167796 0.167784 0.167726 0.167571 0.167366 0.167124 0.166882 0.166640 0.166371 0.166169 0.166083 0.166064 0.166045 0.165957 0.165736 0.165444 0.165138 0.164831 0.164525 0.164223 0.163995 0.163905 0.163885 0.163865 0.163772 0.163542 0.163238 0.162937 0.162637 0.162336 0.162132 0.161978 0.161917 0.161904 0.161890 0.161826 0.161665 0.161452 0.161230 0.161008 0.160786 0.160556 0.160382 0.160311 0.160296 0.160280 0.160207 0.160023 0.159779 0.159529 0.159279 0.159029 0.158772 0.158578 0.158500 0.158483 0.158466 0.158386 0.158184 0.157916 0.157648 0.157380 0.157112 0.156848 0.156650 0.156571 0.156554 0.156537 0.156460 0.156272 0.156022 0.155790 0.155558 0.155326 0.155112 0.154950 0.154886 0.154872 0.154860 0.154800 0.154656 0.154465 0.154291 0.154116 0.153942 0.153781 0.153661 0.153613 0.153602 0.153593 0.153549 0.153443 0.153301 0.153167 0.153034 0.152900 0.152775 0.152681 0.152644 0.152636 0.152628 0.152594 0.152511 0.152400 0.152293 0.152186 0.152078 0.151976 0.151899 0.151868 0.151862 0.151855 0.151827 0.151756 0.151662 0.151570 0.151478 0.151386 0.151297 0.151230 0.151203 0.151197 0.151191 0.151166 0.151102 0.151018 0.150934 0.150850 0.150766 0.150682 0.150619 0.150594 0.150588 
0.186575 0.186557 0.186492 0.186331 0.186119 0.185885 0.185650 0.185416 0.185166 0.184977 0.184894 0.184871 0.184848 0.184765 0.184564 0.184298 0.184013 0.183727 0.183442 0.183141 0.182913 0.182812 0.182785 0.182757 0.182654 0.182409 0.182085 0.181750 0.181414 0.181079 0.180728 0.180463 0.180348 0.180317 0.180285 0.180170 0.179896 0.179533 0.179157 0.178782 0.178407 0.178031 0.177747 0.177623 0.177590 0.177556 0.177432 0.177148 0.176773 0.176397 0.176021 0.175644 0.175278 0.175000 0.174884 0.174853 0.174821 0.174706 0.174442 0.174093 0.173750 0.173408 0.173066 0.172743 0.172499 0.172392 0.172362 0.172333 0.172226 0.171982 0.171658 0.171364 0.171070 0.170776 0.170499 0.170289 0.170203 0.170179 0.170156 0.170072 0.169874 0.169613 0.169354 0.169096 0.168838 0.168585 0.168394 0.168309 0.168285 0.168262 0.168177 0.167977 0.167712 0.167443 0.167174 0.166904 0.166628 0.166419 0.166329 0.166305 0.166281 0.166191 0.165980 0.165700 0.165413 0.165126 0.164839 0.164552 0.164335 0.164240 0.164214 0.164188 0.164094 0.163876 0.163587 0.163302 0.163017 0.162732 0.162458 0.162250 0.162169 0.162146 0.162124 0.162043 0.161860 0.161619 0.161398 0.161178 0.160957 0.160753 0.160599 0.160540 0.160524 0.160508 0.160449 0.160312 0.160131 0.159963 0.159795 0.159628 0.159477 0.159363 0.159314 0.159301 0.159288 0.159240 0.159135 0.158997 0.158871 0.158745 0.158618 0.158499 0.158408 0.158372 0.158363 0.158353 0.158318 0.158235 0.158126 0.158024 0.157921 0.157819 0.157724 0.157652 0.157621 0.157613 0.157604 0.157574 0.157506 0.157416 0.157331 0.157246 0.157161 0.157080 0.157019 0.156994 0.156987 0.156981 0.156956 0.156898 0.156821 0.156747 0.156674 0.156600 0.156530 0.156476 0.156453 0.156447 0.156441 0.156418 0.156367 0.156300 0.156234 0.156168 0.156103 0.156039 0.155990 0.155970 0.155965 0.155960 0.155940 0.155892 0.155830 0.155770 0.155709 0.155648 0.155588 0.155542 0.155522 0.155516 
0.191803 0.191781 0.191687 0.191443 0.191119 0.190751 0.190382 0.190014 0.189600 0.189288 0.189157 0.189127 0.189096 0.188964 0.188620 0.188163 0.187682 0.187202 0.186721 0.186218 0.185839 0.185682 0.185646 0.185610 0.185452 0.185052 0.184523 0.183969 0.183416 0.182863 0.182307 0.181888 0.181720 0.181681 0.181643 0.181478 0.181070 0.180529 0.179991 0.179453 0.178915 0.178389 0.177992 0.177837 0.177801 0.177766 0.177613 0.177250 0.176769 0.176312 0.175856 0.175399 0.174984 0.174671 0.174549 0.174521 0.174493 0.174373 0.174091 0.173716 0.173332 0.172948 0.172563 0.172168 0.171870 0.171745 0.171716 0.171688 0.171564 0.171263 0.170863 0.170456 0.170050 0.169643 0.169237 0.168931 0.168811 0.168784 0.168756 0.168636 0.168346 0.167962 0.167601 0.167240 0.166879 0.166545 0.166292 0.166197 0.166176 0.166154 0.166061 0.165839 0.165544 0.165278 0.165012 0.164746 0.164505 0.164324 0.164252 0.164236 0.164221 0.164155 0.163998 0.163790 0.163600 0.163410 0.163220 0.163048 0.162919 0.162867 0.162855 0.162844 0.162792 0.162680 0.162531 0.162388 0.162246 0.162103 0.161974 0.161877 0.161838 0.161829 0.161820 0.161780 0.161690 0.161571 0.161459 0.161347 0.161235 0.161134 0.161059 0.161028 0.161021 0.161014 0.160983 0.160911 0.160815 0.160726 0.160636 0.160546 0.160465 0.160404 0.160379 0.160374 
0.212095 0.212014 0.211611 0.210596 0.209248 0.207931 0.206614 0.205298 0.204022 0.203063 0.202687 0.202612 0.202537 0.202164 0.201233 0.199996 0.198807 0.197619 0.196430 0.195304 0.194457 0.194133 0.194068 0.194003 0.193682 0.192886 0.191829 0.190826 0.189823 0.188820 0.187889 0.187188 0.186918 0.186864 0.186810 0.186542 0.185885 0.185012 0.184188 0.183364 0.182540 0.181762 0.181176 0.180950 0.180905 0.180860 0.180637 0.180092 0.179368 0.178686 0.178004 0.177322 0.176677 0.176192 0.176011 0.175975 0.175939 0.175759 0.175312 0.174718 0.174175 0.173633 0.173091 0.172665 0.172345 0.172239 0.172217 0.172196 0.172091 0.171832 0.171488 0.171199 0.170911 0.170623 0.170382 0.170201 0.170129 0.170115 0.170100 0.170028 0.169858 0.169632 0.169426 0.169220 0.169014 0.168835 0.168700 0.168646 0.168636 0.168625 0.168570 0.168451 0.168294 0.168146 0.167998 0.167850 0.167714 0.167612 0.167577 0.167570 0.167564 0.167531 0.167447 0.167335 0.167239 0.167143 0.167047 0.166962 0.166898 0.166877 0.166872 
0.207950 0.207855 0.207567 0.206943 0.206122 0.205327 0.204533 0.203739 0.202978 0.202400 0.202143 0.202059 0.201975 0.201720 0.201170 0.200447 0.199754 0.199062 0.198369 0.197713 0.197214 0.196992 0.196919 0.196846 0.196625 0.196150 0.195525 0.194925 0.194326 0.193727 0.193154 0.192718 0.192524 0.192460 0.192396 0.192202 0.191785 0.191237 0.190718 0.190200 0.189681 0.189180 0.188799 0.188628 0.188572 0.188517 0.188348 0.187991 0.187522 0.187071 0.186619 0.186168 0.185733 0.185403 0.185260 0.185213 0.185166 0.185024 0.184717 0.184312 0.183920 0.183529 0.183137 0.182775 0.182499 0.182376 0.182335 0.182295 0.182173 0.181908 0.181560 0.181230 0.180900 0.180569 0.180261 0.180026 0.179921 0.179886 0.179852 0.179747 0.179520 0.179221 0.178949 0.178677 0.178406 0.178146 0.177948 0.177859 0.177830 0.177801 0.177713 0.177529 0.177288 0.177066 0.176845 0.176623 0.176409 0.176246 0.176173 0.176149 0.176128 0.176067 0.175988 0.175885 0.175780 0.175676 0.175572 0.175472 0.175396 0.175365 0.175354 0.175344 0.175313 0.175242 0.175148 0.175053 0.174958 0.174862 0.174780 0.174718 0.174688 0.174679 0.174669 0.174639 0.174571 0.174482 0.174397 0.174312 0.174228 0.174145 0.174082 0.174053 0.174043 0.174033 0.174003 0.173936 0.173847 0.173769 0.173691 0.173613 0.173527 0.173462 0.173431 0.173421 0.173411 0.173379 0.173318 0.173237 0.173160 0.173084 0.173007 0.172932 0.172875 0.172851 0.172843 0.172835 0.172810 0.172757 0.172686 0.172613 0.172540 0.172467 0.172402 0.172353 0.172332 0.172325 0.172317 0.172296 0.172246 0.172182 0.172120 0.172058 0.171995 0.171941 0.171900 0.171881 0.171875 
