0.122266 0.122269 0.122304 0.122466 0.122724 0.123001 0.123277 0.123554 0.123852 0.124039 0.124082 0.124086 0.124089 0.124132 0.124332 0.124647 0.124986 0.125325 0.125664 0.126029 0.126260 0.126312 0.126316 0.126321 0.126374 0.126619 0.127008 0.127426 0.127845 0.128263 0.128707 0.128987 0.129050 0.129055 0.129061 0.129124 0.129414 0.129874 0.130346 0.130818 0.131290 0.131775 0.132080 0.132149 0.132154 0.132160 0.132229 0.132544 0.133043 0.133566 0.134090 0.134614 0.135169 0.135519 0.135598 0.135605 0.135611 0.135691 0.136059 0.136642 0.137259 0.137876 0.138493 0.139145 0.139557 0.139651 0.139658 0.139666 0.139760 0.140193 0.140879 0.141608 0.142337 0.143066 0.143834 0.144319 0.144428 0.144437 0.144446 0.144556 0.145055 0.145847 0.146658 0.147469 0.148280 0.149106 0.149628 0.149744 0.149754 0.149764 0.149881 0.150414 0.151259 0.152141 0.153023 0.153905 0.154838 0.155427 0.155561 0.155572 0.155583 0.155718 0.156342 0.157330 0.158392 0.159454 0.160516 0.161661 0.162385 0.162550 0.162564 0.162577 0.162743 0.163516 0.164740 0.166053 0.167366 0.168679 0.170065 0.170940 0.171137 0.171153 0.171170 0.171367 0.172270 0.173699 0.175180 0.176661 0.178141 0.179689 0.180666 0.180887 0.180906 0.180924 0.181146 0.182178 0.183812 0.185602 0.187391 0.189180 0.191148 0.192390 0.192673 0.192696 0.192720 0.193004 0.194305 0.196367 0.198452 0.200538 0.202623 0.204632 0.205901 0.206172 0.206194 0.206216 0.206485 0.207613 0.209399 0.210652 0.211905 0.213157 0.213669 0.213993 0.214024 0.214027 0.214029 0.214056 0.214028 0.213983 0.213473 0.212964 0.212454 0.211648 0.211139 0.211016 0.211006 
0.126317 0.126320 0.126334 0.126369 0.126415 0.126457 0.126499 0.126540 0.126577 0.126605 0.126616 0.126618 0.126620 0.126630 0.126654 0.126686 0.126714 0.126741 0.126769 0.126791 0.126808 0.126814 0.126816 0.126817 0.126823 0.126836 0.126854 0.126868 0.126881 0.126894 0.126902 0.126908 0.126910 0.126911 0.126911 0.126913 0.126915 0.126919 0.126917 0.126915 0.126913 0.126907 0.126901 0.126899 0.126898 0.126898 0.126895 0.126892 0.126889 0.126891 0.126893 0.126895 0.126896 0.126897 0.126898 0.126898 0.126898 0.126898 0.126897 0.126897 0.126895 0.126893 0.126891 0.126888 0.126885 0.126884 0.126884 0.126883 0.126882 0.126878 0.126873 0.126866 0.126859 0.126851 0.126843 0.126836 0.126834 0.126833 
0.135605 0.135607 0.135613 0.135627 0.135646 0.135661 0.135676 0.135691 0.135703 0.135712 0.135715 0.135716 0.135716 0.135720 0.135725 0.135733 0.135737 0.135741 0.135745 0.135745 0.135745 0.135744 0.135744 0.135744 0.135743 0.135740 0.135736 0.135727 0.135719 0.135711 0.135699 0.135691 0.135686 0.135685 0.135684 0.135680 0.135668 0.135653 0.135635 0.135616 0.135598 0.135577 0.135561 0.135554 0.135552 0.135551 0.135543 0.135525 0.135501 0.135474 0.135447 0.135419 0.135389 0.135366 0.135355 0.135353 0.135350 0.135340 0.135313 0.135278 0.135239 0.135200 0.135161 0.135140 0.135125 0.135122 0.135121 0.135120 0.135118 0.135110 0.135101 0.135091 0.135080 0.135070 0.135058 0.135049 0.135045 0.135044 0.135043 0.135039 0.135030 0.135017 0.135004 0.134991 0.134979 0.134965 0.134956 0.134951 0.134950 0.134949 0.134945 0.134935 0.134921 0.134907 0.134893 0.134879 0.134864 0.134853 0.134849 0.134848 
0.139659 0.139659 0.139664 0.139671 0.139681 0.139674 0.139666 0.139658 0.139633 0.139614 0.139605 0.139603 0.139602 0.139591 0.139559 0.139516 0.139455 0.139395 0.139334 0.139260 0.139204 0.139181 0.139178 0.139174 0.139151 0.139086 0.138999 0.138902 0.138806 0.138709 0.138598 0.138514 0.138481 0.138476 0.138471 0.138438 0.138402 0.138354 0.138302 0.138251 0.138200 0.138147 0.138108 0.138093 0.138091 0.138089 0.138074 0.138035 0.137983 0.137930 0.137877 0.137824 0.137771 0.137731 0.137716 0.137714 
0.149753 0.149750 0.149732 0.149681 0.149614 0.149535 0.149457 0.149378 0.149287 0.149218 0.149190 0.149185 0.149179 0.149150 0.149072 0.148968 0.148849 0.148731 0.148612 0.148479 0.148379 0.148339 0.148331 0.148323 0.148282 0.148172 0.148024 0.147868 0.147712 0.147557 0.147396 0.147275 0.147227 0.147218 0.147210 0.147162 0.147038 0.146873 0.146759 0.146644 0.146529 0.146430 0.146356 0.146327 0.146322 0.146317 0.146289 0.146219 0.146125 0.146032 0.145939 0.145846 0.145755 0.145687 0.145661 0.145656 0.145651 0.145625 0.145559 0.145471 0.145387 0.145302 0.145218 0.145136 0.145075 0.145052 0.145047 
0.155572 0.155570 0.155559 0.155530 0.155491 0.155441 0.155390 0.155339 0.155276 0.155229 0.155209 0.155205 0.155201 0.155180 0.155122 0.155046 0.154956 0.154865 0.154775 0.154671 0.154592 0.154560 0.154554 0.154547 0.154514 0.154426 0.154308 0.154178 0.154049 0.153920 0.153781 0.153677 0.153635 0.153627 0.153619 0.153577 0.153469 0.153325 0.153177 0.153030 0.152883 0.152822 0.152776 0.152758 0.152755 0.152751 0.152733 0.152689 0.152630 0.152570 0.152510 0.152450 0.152389 0.152344 0.152326 0.152322 0.152319 0.152301 0.152256 0.152196 0.152136 0.152077 0.152017 0.151958 0.151914 0.151896 0.151893 0.151890 0.151872 0.151828 0.151769 0.151712 0.151655 0.151598 0.151542 0.151500 0.151483 0.151480 
0.192691 0.192667 0.192464 0.191865 0.191065 0.190121 0.189178 0.188234 0.187186 0.186402 0.186104 0.186068 0.186033 0.185730 0.184891 0.183771 0.182581 0.181392 0.180203 0.178917 0.177953 0.177583 0.177539 0.177495 0.177123 0.176672 0.176069 0.175591 0.175112 0.174634 0.174124 0.173743 0.173602 0.173585 0.173569 0.173428 0.173041 0.172525 0.172015 0.171505 0.170996 0.170503 0.170133 0.170002 0.169986 
