-1.370248 0.737093 6.647565
-1.376519 0.743257 6.638391
-1.382790 0.749421 6.629217
-1.659802 1.023048 6.221572
-1.933120 1.293932 5.817745
-2.273836 1.553107 5.461214
-2.672377 1.749058 5.126069
-1.386666 0.753231 6.623547
-1.658814 1.022078 6.223015
-1.660789 1.024018 6.220128
-1.932078 1.292972 5.819157
-1.934162 1.294893 5.816334
-2.272502 1.552234 5.462422
-2.275171 1.553980 5.460007
-2.670841 1.748556 5.127248
-1.401528 0.767838 6.601808
-1.643947 1.007472 6.244751
-1.675715 1.038615 6.198425
-1.916390 1.278506 5.840405
-1.949849 1.309359 5.795086
-2.252772 1.538613 5.480642
-2.295257 1.567119 5.441820
-2.647723 1.741003 5.145006
-1.433512 0.799371 6.554848
-1.469222 0.834682 6.502231
-1.504851 0.870005 6.449569
-1.540483 0.905327 6.396909
-1.576146 0.940645 6.344267
-1.611873 0.975953 6.291660
-1.707944 1.070109 6.151606
-1.743835 1.105391 6.099094
-1.779371 1.140728 6.046381
-1.814496 1.176129 5.993433
-1.849044 1.211616 5.940164
-1.884188 1.247013 5.887229
-1.985908 1.340153 5.750688
-2.027950 1.374311 5.702170
-2.071964 1.408125 5.655160
-2.117419 1.441830 5.609469
-2.163558 1.475505 5.564445
-2.210291 1.509092 5.519968
-2.338633 1.595414 5.402572
-2.388265 1.625160 5.358501
-2.438889 1.653178 5.314449
-2.490564 1.679349 5.270492
-2.543636 1.703048 5.226765
-2.598311 1.723706 5.183488
-3.781209 2.022738 4.265858
-4.926483 2.278595 3.449915
-5.802186 3.042945 2.712179
-6.441185 4.167817 2.102125
-7.162874 5.222456 1.460341
-8.004789 6.147058 0.768061
-8.982668 6.876475 0.024750
-10.078107 7.359258 -0.754392
-11.245442 7.588563 -1.545946
-12.440738 7.592566 -2.329977
-2.673912 1.749559 5.124889
-3.779677 2.022396 4.267097
-3.782742 2.023081 4.264619
-4.924862 2.278099 3.450976
-4.928104 2.279090 3.448854
-5.801402 3.041308 2.713019
-5.802969 3.044582 2.711338
-6.440238 4.166285 2.102995
-6.442131 4.169349 2.101255
-7.161812 5.221033 1.461261
-7.163935 5.223880 1.459421
-8.003501 6.145909 0.769072
-8.006077 6.148207 0.767050
-8.981211 6.875619 0.025819
-8.984125 6.877332 0.023681
-10.076516 7.358756 -0.753289
-10.079698 7.359759 -0.755495
-11.243785 7.588386 -1.544840
-11.247099 7.588740 -1.547052
-12.439063 7.592728 -2.328896
-2.697030 1.757112 5.107131
-3.756606 2.017243 4.285752
-3.805877 2.028300 4.246063
-4.900337 2.271238 3.467041
-4.952516 2.286552 3.432878
-5.789602 3.016661 2.725672
-5.814769 3.069230 2.698685
-6.425988 4.143217 2.116096
-6.456381 4.192417 2.088154
-7.145828 5.199598 1.475114
-7.180185 5.245037 1.445454
-7.984249 6.128420 0.784246
-8.025466 6.165502 0.751826
-8.959271 6.862722 0.041917
-9.006065 6.890229 0.007582
-10.052557 7.351203 -0.736682
-10.103657 7.367313 -0.772101
-11.218834 7.585722 -1.528191
-11.272119 7.590810 -1.563681
-12.413841 7.595027 -2.312606
-2.802990 1.790867 5.025897
-2.971206 1.841926 4.896662
-3.142581 1.882035 4.767737
-3.314644 1.918720 4.638655
-3.484376 1.956817 4.506931
-3.651306 1.993842 4.371369
-3.912083 2.052622 4.161834
-4.081515 2.092745 4.030319
-4.251122 2.133162 3.899117
-4.425439 2.171765 3.773736
-4.606620 2.207479 3.657506
-4.787518 2.243353 3.540896
-5.063966 2.321762 3.360047
-5.239490 2.379959 3.244230
-5.397123 2.466262 3.121542
-5.527231 2.589558 2.997471
-5.644480 2.733033 2.882686
-5.738188 2.902591 2.783196
-5.871522 3.180200 2.640141
-5.966309 3.353556 2.547532
-6.062960 3.526287 2.455684
-6.161187 3.697627 2.362906
-6.259994 3.868490 2.269863
-6.360936 4.037619 2.175958
-6.521430 4.298022 2.028303
-6.626690 4.463410 1.932508
-6.735474 4.625601 1.835176
-6.844104 4.787940 1.737916
-6.956752 4.946411 1.638903
-7.072941 5.101354 1.538372
-7.255909 5.340289 1.380986
-7.379565 5.487166 1.277309
-7.503326 5.633925 1.173585
-7.631841 5.775073 1.067919
-7.764069 5.911636 0.960773
-7.897462 6.046677 0.853164
-8.114376 6.244247 0.682112
-8.256314 6.367436 0.571249
-8.402624 6.483876 0.458814
-8.552227 6.594918 0.345230
-8.704054 6.702068 0.230879
-8.859628 6.802313 0.115316
-9.107057 6.947817 -0.066238
-9.269542 7.033622 -0.183903
-9.434709 7.113037 -0.302318
-9.602080 7.186773 -0.421314
-9.771492 7.254866 -0.540781
-9.943225 7.315851 -0.660771
-10.213718 7.400062 -0.848123
-10.389660 7.445740 -0.968799
-10.566986 7.485405 -1.089609
-10.745055 7.521465 -1.210447
-10.924645 7.548981 -1.331269
-11.104882 7.572397 -1.452019
-11.386713 7.598603 -1.639654
-11.568568 7.607981 -1.759881
-11.750562 7.615640 -1.880009
-11.933121 7.613962 -1.999503
-12.115767 7.610313 -2.118837
-12.298478 7.603830 -2.237917
170 NaN NaN
-1.367112 0.734011 6.652152
-1.416636 0.782687 6.579707
-1.465913 0.831402 6.507121
-1.515070 0.880135 6.434466
-1.564230 0.928869 6.361813
-1.613520 0.977581 6.289234
-1.663065 1.026254 6.216801
-1.712837 1.074889 6.144500
-1.762313 1.123572 6.072028
-1.810866 1.172399 5.999031
-1.858530 1.221359 5.925538
-1.907327 1.270148 5.852681
-1.959597 1.318347 5.781884
-2.016653 1.365633 5.714235
-2.077374 1.412281 5.649382
-2.140364 1.458760 5.586600
-2.204689 1.505199 5.525154
-2.270290 1.550787 5.464425
-2.337224 1.594570 5.403823
-2.405696 1.635607 5.343024
-2.476273 1.672967 5.282267
-2.549484 1.705659 5.221947
-2.625183 1.733639 5.162321
-2.702220 1.758808 5.103145
-2.779496 1.783317 5.044002
-2.856526 1.808070 4.984641
-2.933790 1.831779 4.925160
-3.011823 1.852941 4.865727
-3.090718 1.871152 4.806452
-3.170020 1.887793 4.747254
-3.249283 1.904390 4.687992
-3.328178 1.921688 4.628439
-3.406523 1.939303 4.568258
-3.484151 1.956767 4.507112
-3.561104 1.973886 4.445020
-3.637714 1.990832 4.382460
-3.714342 2.007803 4.319927
-3.791223 2.024975 4.257761
-3.868444 2.042497 4.196117
-3.946073 2.060509 4.135131
-4.024030 2.078976 4.074701
-4.102071 2.097668 4.014448
-4.179972 2.116346 3.954010
-4.258069 2.134803 3.893758
-4.337255 2.152859 3.834825
-4.418347 2.170326 3.778363
-4.501199 2.187138 3.724301
-4.584874 2.203373 3.671338
-4.668492 2.219164 3.618152
-4.751629 2.235414 3.564355
-4.834220 2.253684 3.510370
-4.916151 2.275436 3.456677
-4.997497 2.300302 3.403439
-5.078614 2.326491 3.350484
-5.159817 2.352468 3.297554
-5.239974 2.380126 3.243906
-5.316580 2.413811 3.188598
-5.386456 2.457353 3.131355
-5.449349 2.509881 3.073493
-5.507759 2.568243 3.016487
-5.564281 2.630111 2.961292
-5.618599 2.695912 2.908505
-5.668430 2.767385 2.858792
-5.711619 2.845444 2.812927
-5.749877 2.927735 2.770114
-5.786973 3.011170 2.728491
-5.826292 3.093300 2.686328
-5.868091 3.173872 2.643540
-5.911335 3.253647 2.600691
-5.955115 3.333338 2.558234
-5.999225 3.413002 2.516065
-6.043724 3.492436 2.473872
-6.088643 3.571483 2.431399
-6.133860 3.650234 2.388694
-6.179202 3.728870 2.345907
-6.224561 3.807510 2.303147
-6.270155 3.885976 2.260318
-6.316301 3.963992 2.217257
-6.363207 4.041364 2.173857
-6.410603 4.118313 2.130239
-6.458091 4.195184 2.086583
-6.505426 4.272191 2.042999
-6.553006 4.348985 1.999308
-6.601392 4.425069 1.955263
-6.650915 4.500125 1.910719
-6.701091 4.574576 1.865892
-6.751263 4.649033 1.821070
-6.801066 4.723835 1.776410
-6.851125 4.798398 1.731637
-6.902264 4.871932 1.686390
-6.954920 4.943974 1.640487
-7.008416 5.015166 1.594227
-7.061882 5.086390 1.547981
-7.114877 5.158094 1.501937
-7.168143 5.229522 1.455774
-7.222610 5.299695 1.409097
-7.278717 5.368093 1.361732
-7.335740 5.435465 1.313988
-7.392807 5.502788 1.266226
-7.449529 5.570501 1.218606
-7.506613 5.637801 1.170834
-7.564905 5.703693 1.122566
-7.624740 5.767719 1.073676
-7.685472 5.830623 1.024433
-7.746361 5.893325 0.975127
-7.807136 5.956171 0.925864
-7.868391 6.018398 0.876410
-7.930796 6.079103 0.826509
-7.994564 6.137937 0.776090
-8.059175 6.195571 0.725358
-8.124068 6.252794 0.674519
-8.189078 6.309842 0.623633
-8.254642 6.366064 0.572541
-8.321231 6.420721 0.521079
-8.388953 6.473579 0.469219
-8.457448 6.525166 0.417091
-8.526342 6.576076 0.364822
-8.595545 6.626449 0.312443
-8.665320 6.675818 0.259869
-8.735935 6.723674 0.207018
-8.807437 6.769874 0.153887
-8.879624 6.814741 0.100539
-8.952299 6.858623 0.047034
-9.025409 6.901600 -0.006612
-9.099052 6.943452 -0.060419
-9.173320 6.983945 -0.114405
-9.248231 7.022991 -0.168568
-9.323730 7.060653 -0.222896
-9.399762 7.097002 -0.277374
-9.476279 7.132110 -0.331987
-9.553243 7.166048 -0.386713
-9.630617 7.198882 -0.441532
-9.708419 7.230522 -0.496448
-9.786706 7.260738 -0.551475
-9.865520 7.289320 -0.606623
-9.944800 7.316389 -0.661869
-10.024414 7.342330 -0.717175
-10.104252 7.367500 -0.772514
-10.184349 7.391744 -0.827892
-10.264828 7.414538 -0.883331
-10.345782 7.435403 -0.938836
-10.427128 7.454568 -0.994384
-10.508696 7.472724 -1.049946
-10.590350 7.490489 -1.105508
-10.672143 7.507586 -1.161076
-10.754221 7.523210 -1.216654
-10.836685 7.536655 -1.272229
-10.919440 7.548301 -1.327781
-11.002320 7.559120 -1.383315
-11.085202 7.569936 -1.438846
-11.168147 7.580311 -1.494367
-11.251290 7.589187 -1.549849
-11.334708 7.595688 -1.605246
-11.418306 7.600374 -1.660558
-11.501960 7.604450 -1.715836
-11.585583 7.608883 -1.771132
-11.669228 7.613059 -1.826414
-11.752991 7.615717 -1.881610
-11.836906 7.615875 -1.936636
-11.920899 7.614259 -1.991523
-12.004908 7.612222 -2.046373
-12.088895 7.610796 -2.101274
-12.172886 7.609286 -2.156169
-12.256916 7.606412 -2.210946
-12.340979 7.601190 -2.265497
-12.425037 7.594080 -2.319845
-12.509080 7.585978 -2.374078
-12.593121 7.577778 -2.428300
-12.677176 7.570371 -2.482614
-12.761240 7.564654 -2.537114
