0.283912 0.283899 0.283747 0.282193 0.279732 0.275336 0.270940 0.266543 0.260766 0.257118 0.256288 0.256214 0.256141 0.255328 0.251609 0.245720 0.240281 0.234843 0.229405 0.224670 0.221680 0.221053 0.220997 0.220942 0.220322 0.217713 0.213582 0.210077 0.206572 0.203067 0.200050 0.198145 0.197739 0.197703 0.197667 0.197263 0.195541 0.192813 0.190354 0.187895 0.185436 0.183190 0.181771 0.181468 0.181441 0.181414 0.181114 0.179795 0.177707 0.175789 0.173871 0.171953 0.170198 0.169090 0.168852 0.168830 0.168809 0.168570 0.167539 0.165908 0.164420 0.162932 0.161444 0.160096 0.159246 0.159064 0.159048 0.159032 0.158852 0.158074 0.156843 0.155748 0.154652 0.153557 0.152605 0.152004 0.151878 0.151866 0.151855 0.151730 0.151211 0.150390 0.149718 0.149046 0.148373 0.147821 0.147472 0.147399 0.147392 0.147386 0.147315 0.147009 0.146525 0.146092 0.145659 0.145226 0.144819 0.144562 0.144505 0.144500 0.144495 0.144439 0.144186 0.143786 0.143385 0.142985 0.142584 0.142179 0.141923 0.141866 0.141861 0.141856 0.141799 0.141537 0.141123 0.140702 0.140281 0.139860 0.139429 0.139158 0.139097 0.139091 0.139086 0.139025 0.138751 0.138317 0.137881 0.137446 0.137011 0.136578 0.136305 0.136244 0.136238 0.136233 0.136173 0.135902 0.135474 0.135052 0.134630 0.134208 0.133795 0.133534 0.133476 0.133471 0.133466 0.133408 0.133151 0.132744 0.132347 0.131949 0.131552 0.131168 0.130926 0.130872 0.130867 0.130863 0.130809 0.130573 0.130198 0.129838 0.129478 0.129117 0.128773 0.128555 0.128507 0.128503 0.128499 0.128451 0.128242 0.127910 0.127595 0.127280 0.126965 0.126666 0.126478 0.126437 0.126433 
0.283874 0.283710 0.282443 0.278963 0.274318 0.269777 0.265236 0.260695 0.256309 0.253023 0.251860 0.251709 0.251560 0.250408 0.247366 0.243307 0.239683 0.236060 0.232436 0.229045 0.226505 0.225589 0.225470 0.225352 0.224440 0.222077 0.218924 0.215996 0.213067 0.210139 0.207556 0.205621 0.205007 0.204927 0.204850 0.204252 0.202847 0.200972 0.199573 0.198174 0.196775 0.195606 0.194731 0.194419 0.194378 0.194338 0.194024 0.193171 0.192032 0.190891 0.189751 0.188610 0.187485 0.186642 0.186337 0.186297 
0.283977 0.284224 0.287278 0.298429 0.316093 0.321721 0.327350 0.332978 0.326728 0.322783 0.321037 0.320895 0.320762 0.319116 0.309107 0.293251 0.278011 0.262770 0.247529 0.236489 0.229519 0.228165 0.228056 0.227949 0.226623 0.221164 0.212517 0.206108 0.199698 0.193288 0.188667 0.185749 0.185177 0.185131 0.185085 0.184525 0.182239 0.178618 0.175807 0.172996 0.170185 0.167900 0.166457 0.166159 0.166135 0.166110 0.165800 0.164490 0.162415 0.160390 0.158366 0.156341 0.154141 0.152752 0.152432 0.152406 0.152380 0.152057 0.150544 0.148148 0.145699 0.143251 0.140802 0.138564 0.137151 0.136858 0.136834 0.136810 0.136520 0.135285 0.133330 0.131625 0.129921 0.128217 0.126733 0.125796 0.125603 0.125587 0.125571 0.125379 0.124589 0.123338 0.122463 0.121588 0.120713 0.120136 0.119772 0.119703 0.119698 0.119692 0.119625 0.119362 0.118944 0.118627 0.118310 0.117993 0.117737 0.117575 0.117541 0.117538 0.117535 0.117502 0.117357 0.117127 0.116917 0.116707 0.116498 0.116305 0.116183 0.116157 0.116155 0.116153 0.116127 0.116014 0.115834 0.115673 0.115512 0.115351 0.115212 0.115124 0.115106 0.115104 0.115103 0.115086 0.115012 0.114896 0.114807 0.114718 0.114630 0.114563 0.114521 0.114512 0.114511 0.114511 0.114502 0.114468 0.114414 0.114370 0.114326 0.114282 0.114245 0.114222 0.114217 0.114216 0.114216 0.114211 0.114190 0.114158 0.114129 0.114101 0.114073 0.114049 0.114033 0.114030 0.114030 0.114029 0.114026 0.114013 0.113991 0.113973 0.113955 0.113937 0.113922 0.113913 0.113911 0.113911 0.113911 0.113909 0.113901 0.113889 0.113878 0.113868 0.113858 0.113846 0.113839 0.113837 0.113837 
0.136237 0.136231 0.136207 0.136150 0.136073 0.135995 0.135918 0.135840 0.135761 0.135701 0.135676 0.135670 0.135664 0.135639 0.135578 0.135498 0.135416 0.135334 0.135253 0.135169 0.135106 0.135080 0.135074 0.135067 0.135041 0.134977 0.134892 0.134806 0.134721 0.134635 0.134547 0.134481 0.134454 0.134447 0.134440 0.134413 0.134346 0.134258 0.134168 0.134079 0.133990 0.133900 0.133832 0.133803 0.133797 0.133790 0.133761 0.133693 0.133603 0.133524 0.133446 0.133368 0.133305 0.133258 0.133239 0.133234 0.133230 0.133211 0.133167 0.133108 0.133052 0.132996 0.132939 0.132885 0.132844 0.132828 0.132823 0.132819 0.132803 0.132764 0.132714 0.132665 0.132615 0.132566 0.132520 0.132485 0.132470 0.132467 0.132463 0.132449 0.132415 0.132370 0.132327 0.132284 0.132242 0.132201 0.132171 0.132159 0.132156 0.132153 0.132140 0.132110 0.132070 0.132034 0.131997 0.131961 0.131926 0.131899 0.131889 0.131886 0.131883 0.131873 0.131848 0.131814 0.131783 0.131751 0.131720 0.131689 0.131666 0.131657 0.131655 0.131653 0.131644 0.131623 0.131594 0.131567 0.131539 0.131512 0.131486 0.131466 0.131458 0.131456 0.131454 0.131445 0.131427 0.131403 0.131379 0.131355 0.131331 0.131308 0.131291 0.131283 0.131282 
0.141860 0.141856 0.141838 0.141796 0.141740 0.141682 0.141623 0.141565 0.141503 0.141456 0.141436 0.141431 0.141425 0.141406 0.141356 0.141291 0.141222 0.141154 0.141086 0.141014 0.140959 0.140936 0.140930 0.140924 0.140901 0.140845 0.140771 0.140693 0.140616 0.140538 0.140476 0.140430 0.140416 0.140412 0.140408 0.140395 0.140362 0.140319 0.140279 0.140239 0.140199 0.140160 0.140131 0.140119 0.140116 0.140113 0.140100 0.140072 0.140034 0.139997 0.139960 0.139923 0.139885 0.139857 0.139846 0.139843 0.139840 0.139828 0.139800 0.139763 0.139726 0.139689 0.139652 0.139615 0.139587 0.139575 0.139572 0.139568 0.139556 0.139528 0.139490 0.139452 0.139414 0.139376 0.139338 0.139309 0.139297 0.139294 0.139291 0.139278 0.139249 0.139211 0.139172 0.139133 0.139094 0.139055 0.139025 0.139013 0.139009 0.139006 0.138994 0.138963 0.138924 0.138883 0.138843 0.138802 0.138761 0.138731 0.138718 0.138714 0.138711 0.138698 0.138666 0.138625 0.138583 0.138541 0.138498 0.138455 0.138422 0.138409 0.138405 0.138402 0.138388 0.138355 0.138311 0.138266 0.138221 0.138176 0.138130 0.138096 0.138081 0.138077 
0.147389 0.147378 0.147343 0.147265 0.147162 0.147060 0.146957 0.146855 0.146752 0.146674 0.146640 0.146629 0.146618 0.146583 0.146505 0.146403 0.146301 0.146200 0.146098 0.145996 0.145919 0.145884 0.145873 0.145862 0.145828 0.145751 0.145649 0.145573 0.145496 0.145419 0.145351 0.145298 0.145275 0.145268 0.145260 0.145237 0.145186 0.145119 0.145053 0.144986 0.144920 0.144854 0.144805 0.144783 0.144777 0.144770 0.144748 0.144701 0.144638 0.144575 0.144512 0.144449 0.144389 0.144344 0.144324 0.144317 0.144311 0.144291 0.144245 0.144186 0.144129 0.144071 0.144014 0.143958 0.143916 0.143897 0.143891 0.143885 0.143865 0.143823 0.143767 0.143715 0.143663 0.143611 0.143559 0.143519 0.143501 0.143496 0.143490 0.143473 0.143436 0.143388 0.143339 0.143291 0.143243 0.143196 0.143161 0.143146 0.143141 0.143136 0.143121 0.143087 0.143043 0.142999 0.142956 0.142912 0.142872 0.142841 0.142827 0.142823 0.142819 0.142805 0.142774 0.142734 0.142696 0.142657 0.142619 0.142582 0.142554 0.142542 0.142538 0.142534 0.142521 0.142494 0.142458 0.142424 0.142391 0.142357 0.142323 0.142297 0.142286 0.142282 0.142279 0.142268 0.142245 0.142214 0.142183 0.142152 0.142121 0.142091 0.142069 0.142059 0.142056 0.142053 0.142043 0.142022 0.141993 0.141964 0.141936 0.141907 0.141880 0.141859 0.141850 0.141847 0.141844 0.141835 0.141814 0.141786 0.141759 0.141733 0.141706 0.141680 0.141659 0.141650 0.141647 
0.151864 0.151853 0.151814 0.151723 0.151602 0.151480 0.151359 0.151238 0.151115 0.151022 0.150982 0.150970 0.150959 0.150919 0.150830 0.150711 0.150653 0.150595 0.150537 0.150480 0.150436 0.150417 0.150412 0.150407 0.150388 0.150343 0.150285 0.150227 0.150169 0.150110 0.150052 0.150008 0.149990 0.149985 0.149979 0.149960 0.149915 0.149855 0.149795 0.149734 0.149674 0.149613 0.149567 0.149547 0.149541 0.149536 0.149516 0.149469 0.149407 0.149345 0.149282 0.149220 0.149156 0.149108 0.149088 0.149082 0.149076 0.149055 0.149006 0.148942 0.148876 0.148811 0.148745 0.148679 0.148629 0.148608 0.148602 0.148596 0.148574 0.148524 0.148458 0.148391 0.148324 0.148257 0.148189 0.148138 0.148115 0.148109 0.148103 0.148081 0.148029 0.147960 0.147891 0.147822 0.147752 0.147682 0.147629 0.147607 0.147600 0.147594 0.147571 0.147518 0.147448 0.147377 0.147305 0.147234 0.147162 0.147107 0.147084 0.147077 
0.159043 0.159023 0.158922 0.158665 0.158323 0.157987 0.157651 0.157315 0.156986 0.156738 0.156641 0.156622 0.156603 0.156507 0.156263 0.155939 0.155638 0.155336 0.155034 0.154821 0.154660 0.154599 0.154587 0.154575 0.154515 0.154370 0.154178 0.154003 0.153829 0.153654 0.153495 0.153375 0.153329 0.153320 0.153311 0.153267 0.153159 0.153016 0.152882 0.152748 0.152613 0.152488 0.152394 0.152359 0.152352 0.152345 0.152311 0.152223 0.152106 0.152000 0.151894 0.151788 0.151691 0.151618 0.151589 0.151583 0.151578 0.151549 0.151480 0.151387 0.151301 0.151215 0.151129 0.151048 0.150987 0.150963 0.150958 0.150953 0.150930 0.150875 0.150800 0.150727 0.150654 0.150581 0.150510 0.150456 0.150436 0.150432 
0.168823 0.168795 0.168617 0.168148 0.167524 0.166924 0.166324 0.165724 0.165147 0.164713 0.164551 0.164526 0.164500 0.164338 0.163918 0.163359 0.162815 0.162272 0.161729 0.161204 0.160810 0.160664 0.160641 0.160618 0.160473 0.160096 0.159593 0.159195 0.158797 0.158399 0.158086 0.157850 0.157767 0.157754 0.157741 0.157663 0.157463 0.157197 0.156969 0.156742 0.156514 0.156316 0.156167 0.156114 0.156106 0.156098 0.156048 0.155919 0.155746 0.155598 0.155449 0.155301 0.155169 0.155071 0.155036 0.155031 0.155026 0.154994 0.154907 0.154793 0.154694 0.154595 0.154497 0.154407 0.154340 0.154317 0.154313 
0.181431 0.181392 0.181202 0.180731 0.180106 0.179491 0.178876 0.178261 0.177656 0.177201 0.177023 0.176986 0.176949 0.176772 0.176333 0.175751 0.175187 0.174624 0.174060 0.173512 0.173100 0.172938 0.172904 0.172870 0.172709 0.172311 0.171783 0.171277 0.170771 0.170264 0.169775 0.169407 0.169261 0.169231 0.169201 0.169056 0.168696 0.168218 0.167755 0.167293 0.166831 0.166388 0.166054 0.165923 0.165895 0.165868 0.165738 0.165418 0.164995 0.164623 0.164252 0.163881 0.163589 0.163369 0.163284 0.163267 0.163249 0.163165 0.162977 0.162727 0.162500 0.162274 0.162047 0.161847 0.161697 0.161637 0.161625 0.161612 0.161554 0.161425 0.161254 0.161094 0.160935 0.160775 0.160626 0.160513 0.160471 0.160462 0.160454 0.160415 0.160318 0.160190 0.160072 0.159954 0.159836 0.159725 0.159642 0.159613 0.159607 0.159600 0.159571 0.159497 0.159398 0.159310 0.159223 0.159136 0.159056 0.158996 0.158974 0.158969 
0.197687 0.197624 0.197176 0.195986 0.194399 0.192884 0.191370 0.189855 0.188437 0.187374 0.186992 0.186938 0.186886 0.186507 0.185532 0.184230 0.183055 0.181879 0.180704 0.179642 0.178846 0.178558 0.178518 0.178478 0.178195 0.177458 0.176474 0.175546 0.174618 0.173690 0.172817 0.172164 0.171928 0.171895 0.171863 0.171633 0.171066 0.170309 0.169708 0.169107 0.168506 0.168016 0.167648 0.167526 0.167509 0.167492 0.167370 0.167070 0.166669 0.166337 0.166005 0.165673 0.165396 0.165188 0.165114 0.165103 0.165093 0.165020 0.164849 0.164622 0.164431 0.164239 0.164048 0.163891 0.163773 0.163736 0.163731 
0.220973 0.220876 0.220266 0.218652 0.216501 0.214385 0.212269 0.210153 0.208119 0.206593 0.206032 0.205943 0.205854 0.205299 0.203887 0.202006 0.200341 0.198676 0.197010 0.195548 0.194450 0.194061 0.193999 0.193938 0.193560 0.192622 0.191374 0.190250 0.189127 0.188004 0.186942 0.186144 0.185845 0.185798 0.185750 0.185450 0.184654 0.183592 0.182568 0.181544 0.180520 0.179542 0.178807 0.178540 0.178498 0.178455 0.178190 0.177513 0.176610 0.175853 0.175096 0.174340 0.173797 0.173390 0.173257 0.173236 0.173218 0.173100 0.172792 0.172381 0.172054 0.171726 0.171399 0.171144 0.170953 0.170879 0.170867 0.170855 0.170782 0.170623 0.170410 0.170219 0.170028 0.169837 0.169686 0.169573 0.169532 0.169525 
0.251666 0.251492 0.250645 0.248555 0.245780 0.243143 0.240507 0.237870 0.235359 0.233468 0.232733 0.232581 0.232433 0.231708 0.229910 0.227521 0.225181 0.222841 0.220500 0.218207 0.216481 0.215811 0.215673 0.215537 0.214873 0.213197 0.210971 0.208954 0.206938 0.204921 0.203286 0.202055 0.201685 0.201609 0.201553 0.201279 0.200600 0.199697 0.198819 0.197942 0.197064 0.196217 0.195580 0.195332 0.195281 0.195230 0.194984 0.194364 0.193540 0.192729 0.191918 0.191106 0.190270 0.189640 0.189385 0.189333 0.189280 0.189024 0.188371 0.187504 0.186650 0.185795 0.184941 0.184116 0.183494 0.183251 0.183202 0.183152 0.182910 0.182327 0.181552 0.180837 0.180122 0.179406 0.178761 0.178275 0.178087 0.178048 0.178012 0.177838 0.177513 0.177081 0.176725 0.176368 0.176012 0.175709 0.175481 0.175396 0.175379 0.175364 0.175296 0.175120 0.174886 0.174681 0.174477 0.174272 0.174073 0.173923 0.173871 0.173861 0.173850 0.173798 0.173657 0.173470 0.173294 0.173118 0.172942 0.172768 0.172638 0.172590 0.172580 
