-1.585272 0.794890 10.067639
-1.591587 0.800191 10.073414
-1.597901 0.805492 10.079189
-1.925852 1.072357 10.335348
-2.272157 1.329271 10.472006
-2.652036 1.526886 10.234957
-3.079509 1.655531 10.032745
-1.602000 0.808933 10.082937
-1.924638 1.071320 10.334142
-1.927065 1.073394 10.336553
-2.270623 1.328386 10.472937
-2.273690 1.330155 10.471076
-2.650373 1.526236 10.235860
-2.653698 1.527535 10.234055
-3.077726 1.655084 10.033534
-1.618697 0.822950 10.098207
-1.907935 1.057307 10.318916
-1.943212 1.087194 10.352594
-2.249119 1.315594 10.481886
-2.294099 1.341926 10.458691
-2.628247 1.517590 10.247866
-2.676392 1.535382 10.222583
-3.054001 1.649138 10.044032
-1.655054 0.853190 10.130003
-1.697632 0.887718 10.162642
-1.740957 0.922493 10.193991
-1.784657 0.957391 10.224696
-1.828088 0.992203 10.255875
-1.870661 1.026722 10.288485
-1.977772 1.116745 10.386991
-2.015512 1.149431 10.426710
-2.055727 1.183046 10.462738
-2.098950 1.217790 10.494281
-2.150333 1.253513 10.502724
-2.202668 1.287832 10.499841
-2.337818 1.367140 10.432161
-2.385511 1.395178 10.400403
-2.433095 1.422929 10.368221
-2.480934 1.450013 10.335844
-2.530371 1.475176 10.304378
-2.580850 1.499071 10.273584
-2.725292 1.551784 10.198281
-2.780411 1.569523 10.171500
-2.835760 1.586903 10.144955
-2.891327 1.603879 10.118602
-2.947153 1.620335 10.092476
-3.003240 1.636266 10.066578
-4.218609 1.891057 9.559476
-5.379793 2.154128 9.167193
-6.327093 2.888663 8.895166
-6.920969 3.959014 8.615874
-7.552259 4.998679 8.304832
-8.285783 5.959043 7.966235
-9.154347 6.784370 7.594959
-10.156776 7.424651 7.198060
-11.262546 7.854367 6.791329
-12.428966 8.083205 6.390163
-13.620750 8.146702 6.002574
-3.081291 1.655978 10.031956
-4.216791 1.890677 9.560217
-4.220428 1.891438 9.558735
-5.377949 2.153530 9.167684
-5.381637 2.154726 9.166702
-6.326087 2.886982 8.895569
-6.328099 2.890344 8.894764
-6.920026 3.957316 8.616351
-6.921912 3.960711 8.615396
-7.551195 4.997065 8.305344
-7.553324 5.000293 8.304321
-8.284523 5.957595 7.966797
-8.287043 5.960491 7.965672
-9.152831 6.783221 7.595578
-9.155862 6.785519 7.594340
-10.155084 7.423800 7.198705
-10.158467 7.425502 7.197415
-11.260717 7.853878 6.791975
-11.264375 7.854856 6.790683
-12.427079 8.082996 6.390791
-12.430853 8.083415 6.389535
-13.618844 8.146705 6.003180
-3.105108 1.661711 10.021553
-4.192592 1.885610 9.570077
-4.244626 1.896504 9.548875
-5.353406 2.145568 9.174219
-5.406171 2.162736 9.160189
-6.312458 2.864768 8.900941
-6.341486 2.912717 8.889408
-6.907476 3.934719 8.622703
-6.934463 3.983308 8.609044
-7.537079 4.975548 8.312142
-7.567495 5.021770 8.297508
-8.267757 5.938326 7.974285
-8.303809 5.979760 7.958185
-9.132829 6.767699 7.603785
-9.176032 6.800807 7.586100
-10.132577 7.412476 7.207287
-10.180974 7.436827 7.188834
-11.236464 7.847080 6.800576
-11.288711 7.861368 6.782091
-12.401963 8.080208 6.399151
-12.455969 8.086203 6.381175
-13.593473 8.146930 6.011222
-3.214267 1.685245 9.975444
-3.388399 1.719478 9.903761
-3.562653 1.753457 9.832252
-3.736271 1.789192 9.760054
-3.909417 1.825830 9.687179
-4.082806 1.862525 9.614916
-4.354355 1.919448 9.503826
-4.528577 1.955816 9.433434
-4.705301 1.992335 9.369727
-4.884333 2.026726 9.311464
-5.063961 2.062278 9.255862
-5.241929 2.110188 9.204499
-5.517049 2.200999 9.131280
-5.688384 2.273109 9.086261
-5.846065 2.371855 9.042814
-5.980470 2.502101 9.003328
-6.113617 2.634085 8.965003
-6.243359 2.768956 8.925719
-6.401408 3.014819 8.865319
-6.495562 3.176977 8.826951
-6.586710 3.340106 8.785609
-6.674442 3.504438 8.741679
-6.761458 3.668934 8.696936
-6.850495 3.832162 8.651541
-6.991490 4.085830 8.580175
-7.083848 4.246936 8.533851
-7.178905 4.406245 8.486763
-7.273961 4.565554 8.439671
-7.372140 4.722684 8.391708
-7.473390 4.877598 8.342895
-7.632922 5.118410 8.266285
-7.740857 5.268136 8.215675
-7.849226 5.417519 8.164947
-7.959772 5.565072 8.113653
-8.076394 5.707321 8.060795
-8.193217 5.849393 8.007882
-8.382879 6.064251 7.923479
-8.509766 6.196411 7.868108
-8.636530 6.328698 7.812772
-8.769871 6.453653 7.755936
-8.906127 6.575154 7.698455
-9.043420 6.695366 7.640764
-9.267831 6.869851 7.548654
-9.414082 6.978047 7.489190
-9.563774 7.081039 7.429130
-9.717352 7.177787 7.368439
-9.872800 7.271338 7.307490
-10.031021 7.359852 7.246180
-10.283840 7.486758 7.149828
-10.448386 7.562407 7.087917
-10.615065 7.633114 7.025879
-10.784169 7.697752 6.963791
-10.954866 7.758085 6.901708
-11.126822 7.814745 6.839663
-11.399270 7.890570 6.743103
-11.574769 7.935544 6.681383
-11.751680 7.974906 6.619933
-11.930004 8.008057 6.558832
-12.108479 8.040474 6.497775
-12.288013 8.067188 6.437128
-12.569861 8.099621 6.343163
-12.750618 8.118469 6.283158
-12.932318 8.128981 6.223955
-13.114068 8.138996 6.164802
-13.295969 8.147079 6.105857
-13.478307 8.148017 6.047720
160 NaN NaN
-1.582114 0.792240 10.064752
-1.645230 0.845224 10.122473
-1.712390 0.899685 10.173954
-1.781362 0.954750 10.222330
-1.849874 1.009665 10.271515
-1.915656 1.063643 10.325219
-1.976690 1.115808 10.385853
-2.036220 1.167365 10.448503
-2.104174 1.221989 10.498094
-2.185964 1.277848 10.506298
-2.267729 1.326717 10.474693
-2.344876 1.371211 10.427878
-2.419787 1.415395 10.377228
-2.495251 1.458119 10.326155
-2.574294 1.496509 10.277142
-2.657942 1.529194 10.231752
-2.744257 1.558145 10.188856
-2.831545 1.585615 10.146954
-2.919204 1.612396 10.105382
-3.007682 1.637528 10.064528
-3.097389 1.660013 10.024833
-3.188175 1.679989 9.986256
-3.279584 1.698404 9.948378
-3.371239 1.716172 9.910785
-3.462937 1.733839 9.873248
-3.554536 1.751809 9.835614
-3.645929 1.770364 9.797765
-3.737137 1.789372 9.759693
-3.828211 1.808610 9.721416
-3.919230 1.827911 9.683041
-4.010325 1.847221 9.644852
-4.101626 1.866499 9.607142
-4.193117 1.885720 9.569864
-4.284618 1.904876 9.532579
-4.375977 1.923965 9.494911
-4.467413 1.943053 9.457432
-4.559384 1.962245 9.421347
-4.652235 1.981563 9.387663
-4.745865 2.000569 9.356016
-4.840055 2.018665 9.325514
-4.934575 2.035872 9.295522
-5.029112 2.054197 9.266265
-5.123248 2.076025 9.238164
-5.216657 2.102282 9.211451
-5.309563 2.131344 9.185895
-5.402366 2.161451 9.161182
-5.494937 2.192702 9.137031
-5.586486 2.227051 9.113222
-5.676025 2.266434 9.089603
-5.762144 2.312948 9.066317
-5.842695 2.368813 9.043795
-5.915682 2.434698 9.022543
-5.983997 2.505771 9.002282
-6.052719 2.576515 8.982267
-6.124351 2.644232 8.961960
-6.194955 2.712918 8.941348
-6.259290 2.787399 8.920575
-6.315067 2.868565 8.899978
-6.365685 2.953159 8.879725
-6.415138 3.038519 8.859782
-6.464845 3.123722 8.839801
-6.514067 3.209061 8.819210
-6.562087 3.294810 8.797519
-6.608922 3.380966 8.774866
-6.654946 3.467415 8.751675
-6.700557 3.554032 8.728289
-6.746236 3.640570 8.704748
-6.792487 3.726751 8.681013
-6.839537 3.812444 8.657086
-6.887013 3.897875 8.633061
-6.934469 3.983319 8.609041
-6.981891 4.068780 8.585016
-7.029817 4.153916 8.560840
-7.078766 4.238383 8.536372
-7.128607 4.322255 8.511652
-7.178723 4.405939 8.486853
-7.228619 4.489772 8.462115
-7.278702 4.573478 8.437324
-7.329760 4.656510 8.412260
-7.382273 4.738506 8.386793
-7.435614 4.819894 8.361099
-7.488915 4.901313 8.335414
-7.541894 4.982968 8.309816
-7.595475 5.064177 8.284055
-7.650688 5.144140 8.257854
-7.707561 5.222785 8.231211
-7.764976 5.300987 8.204422
-7.821883 5.379604 8.177767
-7.878657 5.458330 8.151148
-7.936660 5.536040 8.124207
-7.996952 5.611775 8.096675
-8.058756 5.686142 8.068758
-8.120633 5.760441 8.040821
-8.181737 5.835450 8.013079
-8.243213 5.910118 7.985245
-8.306607 5.982976 7.956935
-8.372421 6.053420 7.928037
-8.439333 6.122717 7.898876
-8.505929 6.192348 7.869789
-8.572111 6.262414 7.840801
-8.639236 6.331482 7.811595
-8.708551 6.398124 7.781886
-8.779733 6.462583 7.751762
-8.851553 6.526268 7.721499
-8.923066 6.590327 7.691303
-8.994828 6.654084 7.661056
-9.067916 6.716176 7.630534
-9.142935 6.775720 7.599621
-9.219203 6.833529 7.568464
-9.295858 6.890787 7.537236
-9.372588 6.947939 7.505999
-9.449994 7.004103 7.474642
-9.528716 7.058271 7.443057
-9.608795 7.110277 7.411245
-9.689733 7.160856 7.379302
-9.771086 7.210728 7.347303
-9.852890 7.259820 7.315245
-9.935441 7.307575 7.283088
-10.018961 7.353529 7.250808
-10.103360 7.397774 7.218426
-10.188465 7.440596 7.185978
-10.274148 7.482214 7.153484
-10.360382 7.522646 7.120950
-10.447155 7.561873 7.088376
-10.534494 7.599795 7.055767
-10.622474 7.636177 7.023131
-10.711162 7.670787 6.990482
-10.800468 7.703772 6.957832
-10.890179 7.735643 6.925186
-10.980124 7.766847 6.892541
-11.070409 7.797063 6.859906
-11.161268 7.825542 6.827303
-11.252824 7.851766 6.794761
-11.344845 7.876386 6.762272
-11.437031 7.900411 6.729803
-11.529250 7.924310 6.697337
-11.621754 7.947141 6.664916
-11.714815 7.967744 6.632604
-11.808428 7.985931 6.600428
-11.902281 8.002973 6.568323
-11.996100 8.020179 6.536205
-12.089922 8.037372 6.504088
-12.184032 8.053104 6.472071
-12.278625 8.066105 6.440258
-12.373536 8.077053 6.408613
-12.468506 8.087594 6.377002
-12.563370 8.098873 6.345327
-12.658282 8.109814 6.313681
-12.753463 8.118735 6.282218
-12.848955 8.124860 6.251025
-12.944575 8.129587 6.219975
-13.040170 8.134603 6.188896
-13.135706 8.140282 6.157747
-13.231307 8.145222 6.126676
-13.327072 8.147973 6.095843
-13.422959 8.148459 6.065271
-13.518895 8.147692 6.034849
-13.614836 8.146711 6.004454
-13.710750 8.146556 5.973958
-13.806577 8.148267 5.943243
