0.271696 0.271687 0.271549 0.270650 0.269226 0.263831 0.258435 0.253040 0.245449 0.240657 0.239593 0.239521 0.239450 0.238397 0.233825 0.226582 0.220825 0.215069 0.209312 0.204786 0.201929 0.201358 0.201319 0.201281 0.200716 0.198314 0.194508 0.191276 0.188044 0.184812 0.182037 0.180286 0.179922 0.179897 0.179873 0.179512 0.177939 0.175445 0.173208 0.170971 0.168734 0.166681 0.165385 0.165108 0.165089 0.165071 0.164795 0.163580 0.161656 0.159864 0.158072 0.156280 0.154638 0.153602 0.153383 0.153368 0.153353 0.153136 0.152183 0.150672 0.149300 0.147928 0.146556 0.145316 0.144534 0.144369 0.144358 
0.271664 0.271550 0.270404 0.266615 0.261063 0.255056 0.249050 0.243044 0.238015 0.234585 0.233674 0.233584 0.233497 0.232620 0.229929 0.225984 0.223010 0.220036 0.217062 0.214821 0.213292 0.212893 0.212853 0.212814 0.212418 0.211205 0.209427 0.207958 0.206489 0.205020 0.203762 0.202904 0.202667 0.202643 0.202620 0.202382 0.201590 0.200429 0.199330 0.198231 0.197132 0.196057 0.195323 0.195113 0.195092 0.195071 0.194860 0.194120 0.193035 0.191950 0.190865 0.189779 0.188695 0.187956 0.187743 0.187722 0.187700 0.187488 0.186760 0.185693 0.184655 0.183617 0.182580 0.181575 0.180890 0.180695 0.180675 0.180656 0.180461 0.179801 0.178832 0.177906 0.176980 0.176053 0.175169 0.174566 0.174395 0.174379 0.174362 0.174194 0.173619 0.172775 0.171975 0.171175 0.170375 0.169619 0.169103 0.168957 0.168943 0.168929 0.168785 0.168294 0.167574 0.166891 0.166208 0.165525 0.164875 0.164432 0.164305 0.164293 0.164281 0.164155 0.163729 0.163103 0.162498 0.161893 0.161287 0.160698 0.160296 0.160182 0.160170 0.160159 0.160045 0.159650 0.159072 0.158504 0.157935 0.157367 0.156810 0.156431 0.156322 0.156311 0.156301 0.156192 0.155818 0.155269 0.154735 0.154200 0.153665 0.153145 0.152791 0.152690 0.152680 0.152670 0.152569 0.152223 0.151716 0.151225 0.150734 0.150244 0.149767 0.149442 0.149349 0.149340 0.149331 0.149238 0.148923 0.148460 0.148011 0.147561 0.147112 0.146675 0.146377 0.146292 0.146284 
0.271765 0.272062 0.276671 0.296057 0.326775 0.375148 0.423522 0.471895 0.458468 0.449994 0.443453 0.443032 0.442609 0.436037 0.405979 0.358351 0.328196 0.298041 0.267885 0.251745 0.241559 0.239735 0.239618 0.239504 0.237732 0.231385 0.221328 0.214878 0.208429 0.201979 0.197097 0.194016 0.193359 0.193317 0.193274 0.192613 0.189353 0.184188 0.177430 0.170672 0.163914 0.156834 0.152365 0.151429 0.151369 0.151309 0.150377 0.146575 0.140551 0.136737 0.132923 0.129109 0.127007 0.125680 0.125448 0.125433 0.125418 0.125195 0.124361 0.123041 0.122230 0.121419 0.120609 0.120090 0.119763 0.119701 0.119697 0.119693 0.119632 0.119385 0.118994 0.118700 0.118406 0.118112 0.117882 0.117736 0.117707 0.117705 0.117703 0.117674 0.117552 0.117357 0.117197 0.117036 0.116876 0.116742 0.116658 0.116641 0.116640 0.116639 0.116622 0.116550 0.116435 0.116340 0.116244 0.116148 0.116069 0.116018 0.116008 0.116007 0.116007 0.115996 0.115953 0.115884 0.115826 0.115767 0.115709 0.115659 0.115628 0.115622 0.115621 0.115621 0.115614 0.115586 0.115542 0.115502 0.115462 0.115422 0.115383 0.115359 0.115353 0.115353 
0.153364 0.153349 0.153309 0.153225 0.153115 0.153005 0.152896 0.152786 0.152676 0.152592 0.152552 0.152537 0.152522 0.152482 0.152398 0.152288 0.152179 0.152069 0.151960 0.151851 0.151768 0.151729 0.151714 0.151699 0.151659 0.151575 0.151466 0.151358 0.151249 0.151141 0.151033 0.150951 0.150911 0.150897 0.150882 0.150842 0.150760 0.150652 0.150544 0.150437 0.150329 0.150222 0.150141 0.150101 0.150086 0.150072 0.150032 0.149950 0.149843 0.149735 0.149628 0.149521 0.149414 0.149332 0.149293 0.149279 0.149264 0.149225 0.149144 0.149038 0.148933 0.148828 0.148723 0.148619 0.148539 0.148501 0.148487 0.148472 0.148434 0.148355 0.148251 0.148148 0.148045 0.147942 0.147840 0.147761 0.147724 0.147710 0.147696 0.147659 0.147581 0.147480 0.147379 0.147278 0.147177 0.147077 0.147001 0.146965 0.146951 0.146938 0.146901 0.146826 0.146727 0.146629 0.146531 0.146433 0.146335 0.146261 0.146225 0.146212 0.146199 0.146164 0.146090 0.145994 0.145898 0.145802 0.145706 0.145611 0.145538 0.145504 0.145491 0.145478 0.145444 0.145373 0.145279 0.145187 0.145094 0.145001 0.144911 0.144842 0.144810 0.144798 0.144786 0.144754 0.144687 0.144600 0.144513 0.144426 0.144339 0.144254 0.144188 0.144158 0.144147 0.144136 0.144106 0.144046 0.143969 0.143903 0.143837 0.143771 0.143709 0.143661 0.143639 0.143632 0.143624 0.143603 0.143559 0.143502 0.143446 0.143390 0.143334 0.143282 0.143242 0.143225 0.143218 0.143212 0.143195 0.143159 0.143111 0.143064 0.143017 0.142970 0.142925 0.142891 0.142876 0.142871 0.142865 0.142851 0.142820 0.142780 0.142739 0.142699 0.142659 0.142621 0.142592 0.142579 0.142574 0.142570 0.142557 0.142530 0.142495 0.142460 0.142424 0.142389 0.142357 0.142332 0.142321 0.142317 0.142313 0.142302 0.142279 0.142250 0.142220 0.142190 0.142160 0.142132 0.142111 0.142102 0.142099 0.142095 0.142086 0.142067 0.142042 0.142016 0.141990 0.141965 0.141941 0.141923 0.141915 0.141912 0.141909 0.141901 0.141884 0.141862 0.141840 0.141818 0.141796 0.141776 0.141761 0.141754 0.141752 0.141749 0.141742 0.141728 0.141710 0.141691 0.141673 0.141654 0.141637 0.141625 0.141619 0.141617 0.141615 0.141609 0.141598 0.141582 0.141567 0.141551 0.141535 0.141521 0.141511 0.141506 0.141504 
0.165086 0.165070 0.165004 0.164846 0.164635 0.164419 0.164202 0.163985 0.163761 0.163593 0.163524 0.163508 0.163492 0.163422 0.163247 0.163014 0.162777 0.162540 0.162303 0.162062 0.161880 0.161806 0.161789 0.161772 0.161698 0.161513 0.161267 0.161021 0.160774 0.160528 0.160279 0.160091 0.160015 0.159997 0.159980 0.159904 0.159716 0.159467 0.159223 0.158978 0.158734 0.158495 0.158314 0.158242 0.158225 0.158209 0.158136 0.157960 0.157727 0.157508 0.157290 0.157071 0.156900 0.156771 0.156720 0.156708 0.156696 0.156646 0.156527 0.156370 0.156227 0.156084 0.155941 0.155817 0.155722 0.155685 0.155676 0.155667 0.155629 0.155541 0.155423 0.155314 0.155205 0.155097 0.154996 0.154920 0.154890 0.154883 0.154876 0.154845 0.154770 0.154671 0.154578 0.154486 0.154394 0.154307 0.154242 0.154216 0.154210 0.154204 0.154178 0.154113 0.154027 0.153949 0.153870 0.153791 0.153715 0.153657 0.153635 0.153630 0.153624 0.153602 0.153546 0.153472 0.153402 0.153332 0.153262 0.153192 0.153140 0.153120 0.153115 
0.201303 0.201237 0.200802 0.199677 0.198176 0.196761 0.195345 0.193930 0.192635 0.191663 0.191310 0.191257 0.191205 0.190857 0.189988 0.188831 0.187770 0.186710 0.185649 0.184640 0.183883 0.183602 0.183560 0.183517 0.183237 0.182502 0.181523 0.180591 0.179659 0.178727 0.177855 0.177200 0.176963 0.176928 0.176892 0.176657 0.176055 0.175253 0.174541 0.173828 0.173115 0.172522 0.172077 0.171927 0.171905 0.171882 0.171735 0.171377 0.170900 0.170520 0.170141 0.169761 0.169462 0.169237 0.169163 0.169152 0.169141 0.169067 0.168892 0.168658 0.168463 0.168268 0.168072 0.167916 0.167798 0.167757 0.167751 0.167745 0.167704 0.167609 0.167483 0.167376 0.167268 0.167160 0.167075 0.167012 0.166989 0.166985 0.166982 0.166958 0.166904 0.166832 0.166773 0.166714 0.166656 0.166610 0.166575 0.166562 0.166560 
0.239477 0.239303 0.238530 0.236664 0.234189 0.231862 0.229535 0.227208 0.225023 0.223376 0.222732 0.222586 0.222441 0.221797 0.220282 0.218274 0.216511 0.214748 0.212985 0.211405 0.210213 0.209753 0.209649 0.209547 0.209096 0.208049 0.206662 0.205429 0.204197 0.202965 0.201851 0.201011 0.200707 0.200638 0.200582 0.200332 0.199728 0.198928 0.198166 0.197405 0.196643 0.195911 0.195359 0.195138 0.195088 0.195038 0.194817 0.194276 0.193559 0.192855 0.192150 0.191446 0.190725 0.190182 0.189964 0.189914 0.189865 0.189648 0.189104 0.188384 0.187668 0.186951 0.186235 0.185539 0.185013 0.184803 0.184755 0.184707 0.184497 0.183990 0.183317 0.182683 0.182049 0.181415 0.180824 0.180379 0.180204 0.180164 0.180125 0.179951 0.179531 0.178974 0.178474 0.177974 0.177474 0.177029 0.176693 0.176566 0.176538 0.176509 0.176384 0.176083 0.175684 0.175355 0.175027 0.174698 0.174414 0.174200 0.174126 0.174109 0.174092 0.174018 0.173836 0.173596 0.173402 0.173207 0.173013 0.172837 0.172704 0.172659 0.172649 0.172639 0.172595 0.172485 0.172340 0.172218 0.172096 0.171975 0.171861 0.171776 0.171748 0.171741 0.171735 0.171705 0.171632 0.171536 0.171452 0.171368 0.171284 0.171206 0.171147 0.171126 0.171121 0.171117 0.171098 0.171050 0.170985 0.170925 0.170864 0.170803 0.170746 0.170702 0.170685 0.170681 0.170678 0.170664 0.170629 0.170583 0.170538 0.170493 0.170448 0.170406 0.170374 0.170361 0.170358 
0.233547 0.233403 0.232949 0.231959 0.230655 0.229426 0.228197 0.226968 0.225810 0.224931 0.224551 0.224430 0.224311 0.223937 0.223122 0.222050 0.221016 0.219982 0.218948 0.217965 0.217219 0.216893 0.216790 0.216688 0.216366 0.215671 0.214757 0.213898 0.213039 0.212180 0.211369 0.210753 0.210483 0.210398 0.210313 0.210047 0.209463 0.208695 0.207971 0.207246 0.206522 0.205848 0.205337 0.205115 0.205045 0.204974 0.204752 0.204266 0.203625 0.203018 0.202410 0.201803 0.201226 0.200788 0.200596 0.200535 0.200475 0.200285 0.199878 0.199342 0.198832 0.198322 0.197812 0.197329 0.196962 0.196802 0.196751 0.196700 0.196541 0.196194 0.195737 0.195277 0.194817 0.194357 0.193906 0.193564 0.193414 0.193366 0.193319 0.193169 0.192839 0.192404 0.191977 0.191551 0.191125 0.190710 0.190394 0.190254 0.190209 0.190165 0.190025 0.189720 0.189318 0.188919 0.188520 0.188120 0.187723 0.187422 0.187287 0.187245 0.187202 0.187067 0.186766 0.186370 0.185980 0.185590 0.185200 0.184822 0.184535 0.184408 0.184367 0.184327 0.184200 0.183919 0.183550 0.183196 0.182842 0.182488 0.182143 0.181882 0.181765 0.181728 0.181691 0.181575 0.181322 0.180990 0.180674 0.180358 0.180042 0.179733 0.179498 0.179394 0.179361 0.179330 0.179233 0.179018 0.178736 0.178461 0.178187 0.177912 0.177658 0.177466 0.177383 0.177357 0.177331 0.177250 0.177070 0.176833 0.176612 0.176391 0.176170 0.175982 0.175840 0.175777 0.175758 0.175738 0.175676 0.175541 0.175364 0.175216 0.175069 0.174921 0.174783 0.174677 0.174630 0.174615 0.174600 0.174553 0.174459 0.174335 0.174231 0.174128 0.174024 0.173922 0.173844 0.173810 0.173799 0.173791 0.173765 0.173707 0.173630 0.173550 0.173470 0.173390 0.173321 0.173268 0.173248 0.173242 0.173235 0.173215 0.173168 0.173106 0.173045 0.172983 0.172922 0.172870 0.172830 0.172812 0.172806 0.172800 0.172781 0.172738 0.172681 0.172634 0.172587 0.172539 0.172494 0.172460 0.172445 0.172440 0.172435 0.172419 0.172388 0.172347 0.172311 0.172275 0.172239 0.172202 0.172174 0.172161 0.172157 0.172154 0.172145 0.172123 0.172094 0.172062 0.172031 0.172000 0.171972 0.171951 0.171942 0.171940 0.171937 0.171928 0.171908 0.171883 0.171857 0.171832 0.171807 0.171786 0.171770 0.171762 0.171760 0.171758 0.171750 0.171732 0.171708 0.171689 0.171669 0.171649 0.171630 0.171616 0.171609 0.171607 
0.212828 0.212727 0.212509 0.212111 0.211596 0.211097 0.210598 0.210099 0.209613 0.209239 0.209039 0.208946 0.208854 0.208656 0.208294 0.207824 0.207368 0.206911 0.206454 0.206010 0.205668 0.205485 0.205401 0.205317 0.205136 0.204805 0.204377 0.203962 0.203547 0.203132 0.202729 0.202417 0.202251 0.202174 0.202098 0.201934 0.201634 0.201246 0.200871 0.200496 0.200120 0.199757 0.199477 0.199329 0.199260 0.199192 0.199045 0.198777 0.198429 0.198089 0.197749 0.197409 0.197079 0.196823 0.196687 0.196624 0.196562 0.196426 0.196180 0.195860 0.195552 0.195243 0.194935 0.194638 0.194409 0.194287 0.194231 0.194175 0.194055 0.193835 0.193551 0.193275 0.192999 0.192723 0.192454 0.192246 0.192135 0.192084 0.192033 0.191923 0.191721 0.191459 0.191206 0.190952 0.190699 0.190455 0.190266 0.190166 0.190120 0.190074 0.189975 0.189794 0.189559 0.189325 0.189091 0.188857 0.188626 0.188447 0.188352 0.188308 0.188263 0.188168 0.187993 0.187767 0.187545 0.187324 0.187102 0.186886 0.186719 0.186630 0.186588 0.186547 0.186458 0.186294 0.186082 0.185874 0.185665 0.185457 0.185251 0.185091 0.185007 0.184968 0.184929 0.184845 0.184689 0.184487 0.184286 0.184085 0.183884 0.183684 0.183530 0.183447 0.183409 0.183371 0.183288 0.183139 0.182945 0.182759 0.182572 0.182385 0.182201 0.182058 0.181982 0.181946 0.181911 0.181834 0.181693 0.181509 0.181330 0.181152 0.180973 0.180803 0.180672 0.180602 0.180569 0.180537 0.180467 0.180338 0.180171 0.180007 0.179842 0.179678 0.179516 0.179391 0.179327 0.179298 0.179269 0.179207 0.179092 0.178944 0.178798 0.178652 0.178505 0.178361 0.178250 0.178190 0.178162 0.178135 0.178075 0.177963 0.177818 0.177684 0.177551 0.177418 0.177288 0.177187 0.177133 0.177108 0.177084 0.177030 0.176932 0.176805 0.176682 0.176559 0.176437 0.176329 0.176245 0.176201 0.176180 0.176159 0.176115 0.176034 0.175929 0.175826 0.175723 0.175620 0.175519 0.175442 0.175400 0.175381 0.175365 0.175328 0.175264 0.175180 0.175097 0.175015 0.174932 0.174850 0.174788 0.174754 0.174738 0.174723 0.174689 0.174627 0.174547 0.174480 0.174412 0.174344 0.174280 0.174230 0.174203 0.174190 0.174178 0.174151 0.174102 0.174038 0.173975 0.173912 0.173849 0.173797 0.173757 0.173736 0.173727 0.173717 0.173697 0.173658 0.173609 0.173560 0.173510 0.173461 0.173412 0.173374 0.173353 0.173344 0.173334 0.173314 0.173284 0.173246 0.173207 0.173169 0.173130 0.173091 0.173061 0.173044 0.173036 0.173029 0.173012 0.172981 0.172941 0.172907 0.172873 0.172839 0.172808 0.172785 0.172772 0.172766 0.172760 0.172747 0.172723 0.172692 0.172660 0.172629 0.172597 0.172570 0.172549 0.172539 0.172534 0.172530 0.172520 0.172501 0.172477 0.172453 0.172428 0.172403 0.172378 0.172359 0.172348 0.172344 0.172339 0.172328 0.172312 0.172291 0.172272 0.172254 0.172235 0.172216 0.172202 0.172194 0.172190 0.172186 0.172178 0.172163 0.172143 0.172126 0.172109 0.172091 0.172077 0.172065 0.172059 0.172057 0.172054 0.172048 0.172036 0.172022 0.172007 0.171993 0.171978 0.171965 0.171954 0.171950 0.171948 0.171947 0.171943 0.171935 0.171926 0.171916 0.171906 0.171896 0.171886 0.171878 0.171874 0.171872 0.171870 0.171865 0.171858 0.171849 0.171843 0.171836 0.171830 0.171823 0.171818 0.171815 0.171813 0.171812 0.171809 0.171803 0.171795 0.171789 0.171782 0.171775 0.171771 0.171768 0.171766 0.171765 0.171765 0.171763 0.171759 0.171755 0.171750 0.171745 0.171739 0.171734 0.171730 0.171728 0.171727 0.171727 0.171726 0.171723 0.171720 0.171717 0.171714 0.171710 0.171706 0.171703 0.171702 0.171701 
0.202624 0.202549 0.202193 0.201330 0.200183 0.199108 0.198033 0.196958 0.195966 0.195219 0.194930 0.194869 0.194809 0.194524 0.193835 0.192920 0.192065 0.191210 0.190355 0.189559 0.188960 0.188729 0.188681 0.188633 0.188405 0.187856 0.187126 0.186438 0.185750 0.185061 0.184411 0.183921 0.183729 0.183689 0.183649 0.183459 0.182994 0.182376 0.181793 0.181209 0.180626 0.180071 0.179653 0.179490 0.179455 0.179421 0.179258 0.178862 0.178335 0.177839 0.177344 0.176848 0.176395 0.176053 0.175919 0.175891 0.175863 0.175729 0.175413 0.174993 0.174613 0.174232 0.173851 0.173521 0.173272 0.173175 0.173155 0.173135 0.173040 0.172840 0.172573 0.172351 0.172129 0.171907 0.171733 0.171603 0.171551 0.171541 0.171530 0.171479 0.171387 0.171265 0.171164 0.171063 0.170962 0.170881 0.170819 0.170794 0.170789 0.170786 0.170771 0.170733 0.170682 0.170640 0.170598 0.170556 0.170523 0.170498 0.170494 0.170493 0.170492 0.170488 0.170474 0.170456 0.170447 0.170437 0.170428 0.170425 0.170423 0.170426 0.170426 0.170427 0.170429 0.170433 0.170437 0.170450 0.170463 0.170476 0.170493 0.170505 0.170511 0.170513 0.170514 0.170520 0.170533 0.170551 0.170576 0.170601 0.170626 0.170655 0.170677 0.170686 0.170688 
0.187711 0.187670 0.187389 0.186660 0.185689 0.184783 0.183877 0.182971 0.182122 0.181484 0.181254 0.181220 0.181186 0.180959 0.180380 0.179608 0.178910 0.178213 0.177515 0.176877 0.176398 0.176221 0.176195 0.176170 0.175994 0.175538 0.174930 0.174362 0.173794 0.173225 0.172691 0.172290 0.172143 0.172122 0.172101 0.171955 0.171590 0.171103 0.170666 0.170229 0.169792 0.169442 0.169180 0.169087 0.169073 0.169060 0.168972 0.168774 0.168511 0.168318 0.168125 0.167931 0.167791 0.167685 0.167655 0.167651 0.167646 0.167619 0.167547 0.167451 0.167390 0.167329 0.167268 0.167228 0.167198 0.167191 0.167190 0.167189 0.167182 0.167165 0.167143 0.167136 0.167129 0.167122 0.167128 0.167132 0.167134 0.167135 
0.168938 0.168917 0.168788 0.168454 0.168010 0.167579 0.167147 0.166715 0.166300 0.165989 0.165873 0.165854 0.165836 0.165721 0.165426 0.165034 0.164672 0.164310 0.163948 0.163612 0.163360 0.163267 0.163252 0.163237 0.163145 0.162908 0.162593 0.162287 0.161980 0.161673 0.161370 0.161142 0.161057 0.161043 0.161029 0.160944 0.160722 0.160427 0.160143 0.159858 0.159574 0.159313 0.159117 0.159051 0.159041 0.159030 0.158965 0.158807 0.158596 0.158436 0.158275 0.158115 0.157994 0.157903 0.157873 0.157868 0.157864 0.157840 0.157778 0.157695 0.157641 0.157587 0.157533 0.157506 0.157486 0.157478 0.157477 0.157476 0.157467 0.157459 0.157449 0.157448 0.157447 0.157447 0.157459 0.157469 0.157473 0.157473 0.157474 0.157478 0.157493 0.157513 0.157538 0.157563 0.157588 0.157618 0.157640 0.157649 0.157650 
0.149338 0.149331 0.149308 0.149257 0.149191 0.149124 0.149056 0.148989 0.148921 0.148869 0.148846 0.148838 0.148830 0.148807 0.148754 0.148685 0.148615 0.148546 0.148476 0.148406 0.148353 0.148330 0.148322 0.148314 0.148290 0.148238 0.148168 0.148099 0.148030 0.147961 0.147892 0.147840 0.147817 0.147809 0.147801 0.147777 0.147725 0.147655 0.147587 0.147518 0.147449 0.147381 0.147330 0.147306 0.147299 0.147291 0.147268 0.147217 0.147151 0.147085 0.147019 0.146954 0.146889 0.146840 0.146818 0.146811 0.146804 0.146782 0.146734 0.146671 0.146608 0.146545 0.146483 0.146421 0.146373 0.146352 0.146345 0.146338 0.146317 0.146271 0.146209 0.146149 0.146089 0.146029 0.145970 0.145926 0.145905 0.145899 0.145892 0.145872 0.145827 0.145767 0.145709 0.145651 0.145593 0.145534 0.145490 0.145470 0.145464 0.145457 0.145437 0.145394 0.145338 0.145282 0.145227 0.145171 0.145115 0.145073 0.145055 0.145049 0.145044 0.145026 0.144986 0.144934 0.144890 0.144846 0.144802 0.144764 0.144735 0.144723 0.144719 0.144715 0.144703 0.144677 0.144643 0.144613 0.144584 0.144554 0.144530 0.144512 0.144504 0.144502 0.144499 0.144491 0.144474 0.144452 0.144436 0.144419 0.144403 0.144389 0.144378 0.144373 0.144371 0.144370 0.144365 0.144356 0.144345 0.144338 0.144331 0.144324 0.144317 0.144312 0.144309 0.144308 0.144308 0.144307 0.144306 0.144304 0.144302 0.144300 0.144298 0.144299 0.144299 0.144300 0.144301 0.144301 0.144302 0.144304 0.144308 0.144311 0.144315 0.144319 0.144326 0.144331 0.144333 0.144334 0.144335 0.144337 0.144342 0.144349 0.144358 0.144367 0.144376 0.144386 0.144394 0.144397 0.144398 0.144400 0.144403 0.144411 0.144422 0.144435 0.144449 0.144462 0.144475 0.144485 0.144490 0.144491 0.144493 0.144497 0.144509 0.144525 0.144541 0.144557 0.144572 0.144589 0.144601 0.144607 0.144609 
