109.295195 -2.522028 74.106975 0.132380
141.610809 64.726294 232.838193 0.131941
190.203265 158.370835 405.118820 0.131444
251.888701 288.805056 572.069650 0.130925
213.326274 204.701595 469.908586 0.131246
226.811310 227.283650 503.431605 0.131146
322.916471 306.852972 664.987054 0.130707
199.129330 148.581437 450.831815 0.131357
214.470531 208.775087 639.790662 0.130874
207.322944 223.494316 812.651717 0.130484
169.159162 272.286074 800.695795 0.130449
248.673616 216.615057 618.149965 0.130912
319.020838 234.519175 783.121155 0.130539
274.466477 236.913196 705.437869 0.130701
446.014355 361.742491 1271.218607 0.129380
320.358612 305.902896 871.465360 0.130269
197.100871 23.766729 232.861162 0.131994
303.904914 5.678868 430.829666 0.131578
295.207541 35.624545 393.105772 0.131624
327.040553 36.248029 456.961391 0.131482
344.069294 18.974613 485.239188 0.131441
410.914537 51.569335 565.254975 0.131223
488.873441 66.045379 701.460015 0.130908
638.525377 82.579307 892.459384 0.130466
323.555844 32.798315 469.935940 0.131458
369.751640 67.547720 618.527590 0.131091
459.798855 161.635491 879.652976 0.130417
582.416876 216.228857 1013.517263 0.130071
339.412533 22.847044 516.777913 0.131368
398.443738 21.177724 641.439923 0.131096
502.864406 12.644522 838.067875 0.130678
612.941096 -26.011818 1205.354084 0.129939
354.539963 32.746056 548.500148 0.131286
365.496473 25.707943 583.720852 0.131217
405.967358 18.318197 631.624237 0.131121
454.849702 -5.242029 738.966126 0.130915
716.804238 51.301444 1090.590268 0.130075
45.875055 165.252662 116.482705 0.132065
69.160091 213.165594 218.216799 0.131780
206.400348 367.482299 541.036167 0.130894
216.588774 470.074490 564.247949 0.130702
47.641544 260.761076 238.630618 0.131673
58.733349 323.577156 357.628906 0.131334
65.364860 342.033676 419.053767 0.131179
86.243066 484.074461 593.546164 0.130582
58.083710 403.924370 529.245342 0.130862
56.783424 326.169053 408.679976 0.131221
23.889786 497.645684 549.248174 0.130607
32.174716 197.917247 219.890203 0.131795
80.576804 340.781633 497.976719 0.131011
149.074495 465.094442 724.107743 0.130376
121.928824 384.526925 620.093716 0.130696
152.611529 400.737605 669.384014 0.130573
119.804206 452.686352 1040.057788 0.129712
26.522917 320.602872 448.744759 0.131139
17.097684 387.606539 550.860618 0.130833
-12.030513 423.655408 607.528035 0.130663
11.782118 419.550129 596.643138 0.130693
18.095454 377.713983 560.567244 0.130825
25.462942 381.598704 648.843686 0.130629
7.476203 382.791891 621.530244 0.130686
-15.830387 509.142008 1021.949016 0.129488
-169.209596 528.532925 984.440510 0.129342
63.838948 159.331352 -29.858934 0.132395
52.604662 189.600478 -150.215936 0.132619
30.575014 208.436982 -253.091659 0.132819
-127.832652 219.292836 -548.257047 0.133448
23.114975 206.934453 -289.098774 0.132901
-78.864751 227.565664 -556.697666 0.133458
-11.985402 298.618984 -478.288015 0.133184
56.666103 239.692065 -300.006148 0.132880
89.094314 258.657713 -414.628589 0.133109
124.088298 263.398191 -582.220171 0.133479
146.601026 309.660620 -583.578560 0.133416
87.284740 465.991984 -631.431741 0.133284
82.284028 237.133750 -115.995126 0.132480
83.111000 308.891272 -205.912428 0.132578
42.419876 365.545364 -335.552343 0.132778
-15.824805 387.963752 -468.395899 0.133029
-1.247946 486.858679 -555.475024 0.133072
126.453620 502.662561 -451.259705 0.132809
156.355150 721.400784 -729.637422 0.132603
166.064460 694.858193 -713.003008 0.132663
109.184650 300.554702 -224.864527 0.132632
230.261586 396.867860 -482.769543 0.133075
128.680223 295.926376 -301.031767 0.132808
146.171264 319.643027 -347.586595 0.132878
169.202305 403.940384 -444.737139 0.132976
244.679006 502.143246 -566.042428 0.133044
153.078901 349.822382 -398.608409 0.132949
175.754867 399.034071 -494.988707 0.133094
197.884175 486.871517 -629.312532 0.133264
200.621838 529.533890 -660.152801 0.133167
162.489640 529.023211 -952.642342 0.133853
-78.567715 76.980479 97.737161 0.132220
-131.695138 53.500269 328.275620 0.131742
-179.073410 18.110393 596.880984 0.131192
-154.599160 -96.490496 901.710405 0.130656
-127.342617 66.744825 173.506813 0.132066
-177.713630 67.435419 252.952798 0.131890
-227.209733 105.793705 343.829253 0.131643
-285.253177 149.452150 459.815216 0.131324
-337.701338 323.459122 844.376551 0.130040
-253.623566 94.115633 418.411124 0.131494
-321.570342 102.975782 564.713042 0.131136
-348.183462 67.618893 695.470068 0.130881
-430.721815 91.771276 724.546186 0.130715
-369.452334 71.993819 615.162109 0.131040
-462.196412 31.279475 847.244454 0.130517
-465.633965 29.973951 733.899743 0.130779
-191.250268 84.025149 264.692775 0.131843
-312.374170 126.503991 456.080986 0.131348
-263.425728 166.025336 415.244883 0.131411
-328.011089 213.898541 552.377555 0.130965
-349.053198 245.964802 566.189085 0.130853
-435.671536 372.564517 762.601728 0.130019
-452.000770 433.161006 895.573355 0.129501
-72.449735 97.674630 87.049095 0.132217
-94.792036 121.866379 128.778388 0.132093
-352.764971 234.534716 598.021250 0.130800
-131.543392 153.410610 241.033178 0.131805
-118.928369 286.755416 579.555575 0.130894
-162.034751 237.643777 422.051640 0.131302
-178.340905 284.975228 491.167613 0.131089
-174.450914 286.275249 506.135714 0.131054
-183.402308 286.665965 503.362505 0.131060
-211.558033 385.950262 834.224962 0.130052
-89.235050 130.162950 163.239083 0.132006
-86.883858 147.015184 241.584989 0.131813
-132.844361 198.476541 526.986184 0.131122
5.143154 213.595265 496.178955 0.131172
113.753208 326.793097 807.687662 0.130363
176.633841 346.658490 1049.926572 0.129827
-100.298328 145.354679 248.857040 0.131799
-200.849726 208.276846 542.860641 0.131075
-317.741901 271.856935 933.224268 0.129972
-400.141657 384.226544 1094.309510 0.129185
-114.237478 157.312690 328.435377 0.131609
-135.319535 182.249483 407.573421 0.131404
-180.694459 345.470294 798.695023 0.130273
-258.731407 212.453621 702.495341 0.130695
-130.160822 233.137008 452.427168 0.131240
-50.773370 432.951657 915.741493 0.129933
-193.912550 375.694138 670.387751 0.130476
153.253616 31.486289 -195.491597 0.132939
223.665303 128.219329 -363.952861 0.133185
246.872072 214.616603 -483.120075 0.133332
300.738364 316.446475 -634.977420 0.133532
288.045636 290.153501 -598.157771 0.133486
328.305271 303.428078 -719.611123 0.133743
142.904654 447.703141 -1154.093846 0.134491
232.990833 167.112619 -431.452498 0.133283
270.532490 175.405090 -572.216309 0.133590
245.084684 179.794870 -476.448769 0.133366
263.942257 175.572468 -550.808474 0.133541
291.970766 210.088937 -639.344624 0.133694
353.746777 328.582795 -805.584168 0.133904
192.941031 337.375730 -918.630899 0.134136
236.104738 111.162598 -341.726682 0.133159
374.629672 173.175616 -568.226480 0.133583
322.068570 177.831871 -506.758175 0.133438
97.659709 -21.355270 -88.569395 0.132770
127.424088 -42.190078 -174.369572 0.132993
199.426048 -298.092782 -680.343132 0.134561
190.031981 -112.302862 -337.854027 0.133467
255.586441 -158.600175 -457.082352 0.133813
270.730507 -191.746965 -508.636397 0.133984
296.761125 -218.403007 -570.574560 0.134172
349.697151 -319.872482 -807.729077 0.134910
279.794073 -216.055171 -549.741580 0.134119
305.790872 -256.355737 -632.070089 0.134379
295.678427 -257.025083 -617.276279 0.134344
337.706825 -320.517100 -874.794176 0.135079
293.371395 -332.203543 -797.646159 0.134907
249.790035 -138.082627 -429.181560 0.133717
310.219640 -137.120807 -517.845490 0.133922
412.814132 -85.667937 -709.634242 0.134292
390.682038 -120.289735 -625.668969 0.134147
424.565206 -120.522970 -695.622977 0.134311
549.501634 -76.110124 -850.371036 0.134596
263.524083 -145.982212 -447.297628 0.133771
347.341519 -201.019726 -584.432215 0.134176
427.896421 -232.375031 -658.077668 0.134396
193.161576 -22.290826 -227.176652 0.133086
412.648787 -54.747558 -542.787014 0.133852
296.063173 -24.932599 -374.930822 0.133426
345.863886 -31.349158 -461.561675 0.133633
398.273866 -8.032752 -550.168843 0.133801
550.913500 -24.964020 -850.219033 0.134516
467.513977 69.023457 -804.872629 0.134277
374.877772 -13.325628 -515.378113 0.133730
459.471062 56.987794 -730.121155 0.134120
479.564114 47.365024 -652.003831 0.133949
611.837947 147.216501 -847.146258 0.134240
687.097627 196.537200 -969.398266 0.134441
696.081873 236.126255 -1024.732028 0.134513
655.014591 114.933171 -875.333527 0.134345
340.480741 -26.157196 -435.303899 0.133565
558.051414 -27.473876 -722.988122 0.134216
408.973944 -59.054589 -553.918010 0.133884
481.990642 -88.879935 -705.351115 0.134279
592.977753 -217.730306 -959.986000 0.135083
-149.978836 -8.397472 -120.886495 0.132818
-230.856889 -52.477871 -229.954798 0.133119
-339.746594 -94.249519 -395.112156 0.133544
-537.149088 -149.971603 -970.328251 0.134952
-429.357985 -120.926533 -547.801028 0.133927
-446.875521 -122.398477 -631.573080 0.134121
-443.928441 -102.791680 -587.571662 0.133985
-471.581527 -117.393931 -631.447794 0.134106
-653.936641 -258.616313 -930.185646 0.135054
-300.563198 -85.466603 -342.186184 0.133414
-427.012250 -181.958496 -799.627083 0.134630
-360.872681 -105.844699 -454.202957 0.133694
-399.967729 -140.136266 -546.086190 0.133958
-474.389558 -136.979082 -641.691648 0.134166
-272.215277 -43.300794 -296.324396 0.133255
-467.453366 -43.281020 -548.694497 0.133782
-593.707053 -39.473682 -698.405352 0.134053
-664.864814 -75.218453 -848.184441 0.134436
-421.569325 -96.743921 -697.124835 0.134232
-111.951233 22.094619 -85.189500 0.132698
-140.592916 13.986649 -147.997263 0.132849
-214.790313 -117.130922 -756.920054 0.134427
-177.126178 30.136667 -274.056365 0.133107
-233.357732 48.429735 -525.829849 0.133644
-211.825537 259.279614 -915.442161 0.134196
-268.434422 72.485163 -687.052037 0.133971
-295.923387 -64.323307 -855.418992 0.134570
-285.957869 56.055921 -802.203755 0.134259
-406.573511 -22.208879 -933.706327 0.134649
-125.110091 38.058892 -136.880581 0.132792
-179.161340 98.098798 -363.405362 0.133211
-404.278654 252.337815 -1111.474108 0.134442
-281.835046 271.825959 -755.039920 0.133751
-129.321628 62.869823 -171.539444 0.132835
-217.230566 173.874320 -359.419022 0.133093
-141.414169 57.455944 -213.839731 0.132936
-160.284750 88.982550 -298.193113 0.133080
-179.935622 189.743801 -427.796505 0.133222
-154.206202 330.278984 -631.081897 0.133458
-232.003494 313.891094 -587.405496 0.133355
-240.056235 445.504811 -793.201053 0.133434
-368.606867 455.113034 -993.218704 0.133679
-240.805795 393.147057 -798.077264 0.133590
-176.828600 56.913693 -283.437009 0.133091
-387.186869 281.340178 -707.635650 0.133517
-237.904888 84.912400 -391.113673 0.133289
-297.743299 165.681572 -539.032190 0.133486
-289.691879 248.490950 -702.120501 0.133679
-365.441393 305.655204 -862.285588 0.133809
-410.534797 395.267817 -1113.338304 0.134056
-430.049257 373.327118 -1145.074647 0.134163
-399.715050 111.609260 -623.094609 0.133692
-571.267856 67.063556 -883.258909 0.134247
-613.151416 115.261473 -931.290485 0.134210
-14.865537 -58.468174 95.775260 0.132404
16.145592 -121.784265 208.639581 0.132234
121.705047 -177.646639 425.337406 0.131825
-17.281467 -202.012558 373.560509 0.131966
-124.291181 -376.572191 690.122154 0.131459
-59.734904 -312.813934 535.612914 0.131736
24.741065 -135.114960 246.134007 0.132168
110.185502 -204.937921 431.031311 0.131847
44.273545 -206.980664 382.197893 0.131956
56.386827 -251.637131 438.332378 0.131888
81.678507 -285.878629 492.044069 0.131813
73.047163 -282.698679 483.613273 0.131827
59.841660 -304.473404 571.275979 0.131657
108.008744 -400.070279 852.898279 0.131157
93.066808 -423.723832 839.845472 0.131214
115.206979 -472.611261 1063.850423 0.130786
95.444751 -493.396923 1132.327552 0.130658
-38.384319 -22.888520 52.478728 0.132453
-43.973284 -24.570252 91.339826 0.132368
-32.507879 -42.544595 189.222895 0.132174
35.888096 -209.244482 907.732222 0.130793
158.348907 -175.523295 868.469702 0.130846
-61.763830 -33.816377 174.840359 0.132194
-82.767906 -67.948245 267.602397 0.132031
-7.226395 -97.383840 723.087213 0.131060
-107.534026 -154.511388 442.593191 0.131748
-146.002004 -341.026287 763.253325 0.131252
-159.867703 -258.866486 701.063262 0.131294
-189.512315 -409.065501 968.934159 0.130906
-205.981621 -378.176529 929.522728 0.130942
-109.304384 -40.903337 291.810451 0.131942
-118.157937 -39.144474 526.008003 0.131420
-97.724725 -70.236377 758.603134 0.130944
-95.701040 -56.432758 986.345054 0.130426
-174.385810 -47.969155 429.620522 0.131644
-278.768724 -55.763818 624.137066 0.131220
-536.902003 -93.230052 1130.871561 0.130033
-376.771793 -32.428832 846.055992 0.130671
-408.830872 73.404713 1019.950772 0.130078
-60.401174 -46.875916 91.147112 0.132397
-101.122891 -48.710265 183.992711 0.132192
-153.094772 -0.264822 438.268879 0.131566
-199.733065 50.184185 806.268466 0.130690
-210.356522 50.543657 716.546259 0.130888
-254.163037 74.494787 801.274264 0.130671
-293.823318 70.221267 857.550787 0.130547
-145.543103 -43.177624 285.563485 0.131958
-384.760011 -20.819518 978.182848 0.130348
-394.763018 29.094727 755.690205 0.130774
-95.109256 -74.576014 143.664354 0.132315
-173.518273 -131.901987 324.998077 0.131980
-271.854682 -195.387756 566.347387 0.131515
-324.751656 -311.146468 918.248160 0.130906
-319.211967 -229.324496 695.703134 0.131276
-366.413096 -243.114360 852.467212 0.130956
-356.249059 -389.060445 1097.797187 0.130643
-255.847043 -271.896926 684.301773 0.131340
-178.702871 -109.321097 246.089235 0.132128
-296.821273 -181.869244 433.822753 0.131795
-349.675513 -225.251842 552.320022 0.131598
-439.571583 -234.751685 808.952914 0.131040
-259.117946 -147.244810 354.283368 0.131932
-288.886141 -177.197705 415.754105 0.131830
-332.933849 -245.734648 509.388592 0.131718
-365.330946 -266.694941 578.085329 0.131604
-432.729222 -409.236330 881.309191 0.131165
-323.693740 -275.102194 571.582467 0.131619
-349.563982 -349.805007 785.854236 0.131272
-305.170723 -351.293656 748.222201 0.131346
-430.928804 -187.774417 589.331828 0.131463
-617.432787 -230.640761 951.664587 0.130650
-630.301679 -194.313000 1037.632710 0.130378
-4.343345 -67.341601 -306.374916 0.133324
-62.628136 -66.449460 -611.685846 0.134024
-0.302765 -84.598930 -497.281083 0.133789
-47.843798 -283.630295 -947.121262 0.135171
3.568474 -80.104716 -535.036382 0.133871
-6.227473 -4.761696 -911.908543 0.134642
-0.312023 -83.539127 -584.248540 0.133990
3.564937 -115.341226 -737.617777 0.134401
-12.356519 -78.261800 -630.429908 0.134090
-136.122763 -123.394827 -844.553005 0.134655
-107.741347 -63.747085 -911.441639 0.134725
3.554011 -36.834253 -131.665735 0.132886
62.645707 27.275977 -263.355957 0.133096
170.694007 84.828066 -461.573650 0.133468
128.741208 109.709039 -400.746417 0.133292
306.956189 212.635017 -654.942713 0.133726
141.640538 133.786474 -441.832987 0.133351
156.191971 184.517890 -507.567517 0.133427
101.535468 261.957277 -680.686131 0.133701
175.632180 358.571997 -718.987027 0.133650
163.581562 156.690756 -524.854508 0.133507
215.915890 174.842947 -708.065919 0.133901
70.254425 175.273968 -966.594034 0.134489
-11.311779 -4.679996 -220.532159 0.133041
-55.071703 37.994819 -338.774053 0.133247
-39.607069 49.264648 -316.004463 0.133180
-101.774497 66.164272 -432.495022 0.133416
-215.022234 55.245881 -696.505622 0.134024
-325.624000 94.437316 -979.810500 0.134575
-43.401017 96.127809 -390.776707 0.133282
-46.365071 128.372480 -486.226426 0.133450
-82.369982 164.046026 -612.141360 0.133678
-7.665887 168.456267 -633.963842 0.133727
-37.493643 118.459501 -446.336132 0.133375
-158.120732 180.917065 -865.297470 0.134218
-31.422296 138.922740 -567.037539 0.133618
