0.300863 0.300850 0.300669 0.297698 0.292992 0.285396 0.277799 0.270203 0.262073 0.256941 0.255842 0.255763 0.255684 0.254597 0.249978 0.242660 0.236748 0.230835 0.224923 0.220092 0.217042 0.216419 0.216374 0.216330 0.215717 0.213080 0.208903 0.205297 0.201692 0.198087 0.194877 0.192851 0.192420 0.192389 0.192357 0.191922 0.190049 0.187081 0.184371 0.181661 0.178951 0.176501 0.174955 0.174630 0.174607 0.174583 0.174261 0.172853 0.170622 0.168701 0.166780 0.164859 0.163216 0.162179 0.161965 0.161949 0.161934 0.161720 0.160800 0.159342 0.158093 0.156845 0.155596 0.154525 0.153849 0.153708 0.153697 0.153687 0.153547 0.152936 0.151968 0.151094 0.150220 0.149346 0.148536 0.148025 0.147915 0.147907 0.147899 0.147791 0.147303 0.146530 0.145790 0.145051 0.144311 0.143596 0.143145 0.143047 0.143040 0.143032 0.142935 0.142494 0.141796 0.141115 0.140435 0.139754 0.139090 0.138671 0.138580 0.138573 
0.300849 0.300777 0.300089 0.297653 0.294279 0.289980 0.285682 0.281383 0.276564 0.273085 0.271899 0.271776 0.271660 0.270535 0.267302 0.262825 0.258779 0.254733 0.250686 0.247153 0.244601 0.243751 0.243663 0.243578 0.242750 0.240412 0.237175 0.234408 0.231641 0.228874 0.226467 0.224729 0.224184 0.224127 0.224072 0.223533 0.221990 0.219853 0.217948 0.216044 0.214139 0.212421 0.211180 0.210780 0.210739 0.210699 0.210309 0.209171 0.207595 0.206144 0.204693 0.203242 0.201903 0.200936 0.200622 0.200589 0.200557 0.200242 0.199326 0.198057 0.196851 0.195644 0.194437 0.193278 0.192441 0.192166 0.192137 0.192109 0.191835 0.191024 0.189901 0.188816 0.187732 0.186647 0.185594 0.184833 0.184583 0.184557 0.184531 0.184283 0.183548 0.182531 0.181551 0.180572 0.179592 0.178654 0.177977 0.177754 0.177731 0.177708 0.177485 0.176826 0.175914 0.175046 0.174178 0.173311 0.172481 0.171882 0.171686 0.171666 0.171646 0.171450 0.170875 0.170079 0.169313 0.168546 0.167779 0.167043 0.166511 0.166337 0.166319 0.166301 0.166128 0.165618 0.164912 0.164231 0.163551 0.162870 0.162215 0.161743 0.161588 0.161572 
0.300951 0.301296 0.306329 0.323636 0.351059 0.360428 0.369798 0.379167 0.353583 0.337435 0.333559 0.333293 0.333058 0.329635 0.314147 0.289607 0.272857 0.256107 0.239357 0.228242 0.221226 0.219913 0.219823 0.219734 0.218438 0.213402 0.205422 0.199996 0.194571 0.189145 0.185383 0.183008 0.182538 0.182506 0.182474 0.182010 0.180006 0.176832 0.173454 0.170076 0.166697 0.162377 0.159651 0.159018 0.158975 0.158930 0.158277 0.155422 0.150897 0.146633 0.142369 0.138105 0.134555 0.132315 0.131892 0.131863 0.131835 0.131421 0.129815 0.127271 0.125674 0.124076 0.122479 0.121487 0.120862 0.120745 0.120737 0.120729 0.120616 0.120180 0.119490 0.119006 0.118522 0.118039 0.117693 0.117475 0.117432 0.117429 0.117427 0.117385 0.117214 0.116942 0.116729 0.116516 0.116303 0.116131 0.116022 0.116000 0.115999 0.115997 0.115976 0.115882 0.115734 0.115607 0.115480 0.115354 0.115245 0.115176 0.115162 0.115161 0.115160 0.115146 0.115085 0.114988 0.114906 0.114823 0.114740 0.114670 0.114625 0.114616 0.114615 0.114615 0.114606 0.114567 0.114505 0.114453 0.114401 0.114349 0.114305 0.114277 0.114272 0.114271 0.114271 0.114265 0.114241 0.114204 0.114172 0.114141 0.114110 0.114083 0.114066 0.114062 0.114062 
0.153695 0.153687 0.153635 0.153497 0.153312 0.153114 0.152916 0.152717 0.152592 0.152498 0.152467 0.152462 0.152457 0.152426 0.152347 0.152242 0.152141 0.152040 0.151939 0.151838 0.151763 0.151734 0.151730 0.151725 0.151696 0.151620 0.151518 0.151414 0.151309 0.151205 0.151097 0.151016 0.150985 0.150980 0.150976 0.150945 0.150863 0.150754 0.150644 0.150535 0.150425 0.150314 0.150231 0.150200 0.150195 0.150190 0.150158 0.150075 0.149964 0.149853 0.149741 0.149629 0.149517 0.149432 0.149400 0.149395 
0.192379 0.192340 0.192215 0.191935 0.191565 0.191191 0.190816 0.190442 0.190067 0.189782 0.189654 0.189615 0.189575 0.189447 0.189162 0.188785 0.188409 0.188033 0.187657 0.187281 0.186995 0.186868 0.186828 0.186788 0.186661 0.186375 0.185999 0.185622 0.185246 0.184869 0.184500 0.184220 0.184095 0.184056 0.184018 0.183893 0.183615 0.183250 0.182886 0.182522 0.182159 0.181801 0.181530 0.181410 0.181373 0.181336 0.181217 0.180952 0.180605 0.180265 0.179926 0.179587 0.179253 0.179000 0.178888 0.178853 0.178818 0.178706 0.178457 0.178129 0.177806 0.177483 0.177160 0.176842 0.176600 0.176493 0.176460 0.176427 0.176320 0.176087 0.175779 0.175482 0.175185 0.174887 0.174596 0.174375 0.174278 0.174247 0.174217 0.174120 0.173905 0.173621 0.173341 0.173062 0.172782 0.172512 0.172307 0.172216 0.172188 0.172160 0.172069 0.171868 0.171604 0.171348 0.171091 0.170835 0.170586 0.170396 0.170312 0.170285 0.170259 0.170175 0.169989 0.169745 0.169509 0.169273 0.169037 0.168829 0.168671 0.168606 0.168586 0.168567 0.168507 0.168375 0.168202 0.168037 0.167871 0.167706 0.167555 0.167441 0.167392 0.167377 0.167361 0.167313 0.167205 0.167063 0.166929 0.166795 0.166661 0.166537 0.166443 0.166401 0.166388 0.166375 0.166334 0.166241 0.166119 0.166009 0.165899 0.165789 0.165681 0.165599 0.165563 0.165552 0.165540 0.165504 0.165430 0.165333 0.165237 0.165142 0.165046 0.164954 0.164884 0.164855 0.164845 0.164836 0.164807 0.164742 0.164656 0.164572 0.164487 0.164402 0.164324 0.164265 0.164238 0.164230 0.164221 0.164195 0.164135 0.164056 0.163983 0.163910 0.163838 0.163766 0.163712 0.163687 0.163680 0.163672 0.163648 0.163596 0.163528 0.163462 0.163396 0.163330 0.163264 0.163213 0.163193 0.163186 0.163180 0.163159 0.163113 0.163052 0.162990 0.162927 0.162865 0.162808 0.162764 0.162745 0.162739 0.162733 0.162713 0.162669 0.162611 0.162555 0.162498 0.162442 0.162386 0.162344 0.162325 0.162319 0.162313 0.162294 0.162252 0.162196 0.162143 0.162089 0.162036 0.161981 0.161939 0.161920 0.161914 
0.216364 0.216323 0.216211 0.215968 0.215650 0.215318 0.214986 0.214654 0.214307 0.214043 0.213914 0.213868 0.213821 0.213691 0.213412 0.213046 0.212665 0.212285 0.211905 0.211506 0.211201 0.211056 0.211003 0.210951 0.210805 0.210496 0.210091 0.209684 0.209277 0.208870 0.208459 0.208146 0.207996 0.207942 0.207888 0.207738 0.207420 0.207002 0.206582 0.206162 0.205741 0.205315 0.204990 0.204834 0.204778 0.204722 0.204567 0.204237 0.203804 0.203377 0.202950 0.202523 0.202095 0.201769 0.201615 0.201559 0.201503 0.201347 0.201020 0.200592 0.200172 0.199752 0.199332 0.198915 0.198596 0.198447 0.198393 0.198339 0.198190 0.197878 0.197469 0.197066 0.196663 0.196260 0.195859 0.195553 0.195410 0.195358 0.195306 0.195164 0.194864 0.194471 0.194087 0.193703 0.193319 0.192953 0.192673 0.192540 0.192492 0.192444 0.192311 0.192034 0.191671 0.191316 0.190962 0.190607 0.190259 0.189994 0.189871 0.189826 0.189782 0.189659 0.189403 0.189067 0.188741 0.188414 0.188087 0.187769 0.187527 0.187414 0.187374 0.187333 0.187222 0.186988 0.186682 0.186380 0.186078 0.185776 0.185478 0.185252 0.185145 0.185107 0.185069 0.184963 0.184739 0.184446 0.184158 0.183871 0.183584 0.183303 0.183088 0.182987 0.182951 0.182915 0.182814 0.182604 0.182328 0.182061 0.181793 0.181526 0.181263 0.181062 0.180968 0.180933 0.180899 0.180805 0.180608 0.180349 0.180104 0.179859 0.179615 0.179387 0.179214 0.179133 0.179104 0.179075 0.178995 0.178829 0.178612 0.178420 0.178228 0.178036 0.177850 0.177708 0.177642 0.177618 0.177594 0.177528 0.177396 0.177221 0.177061 0.176901 0.176741 0.176585 0.176467 0.176411 0.176391 0.176371 0.176316 0.176207 0.176064 0.175930 0.175796 0.175663 0.175530 0.175429 0.175382 0.175365 0.175348 0.175301 0.175210 0.175092 0.174978 0.174864 0.174749 0.174636 0.174550 0.174509 0.174495 0.174480 0.174439 0.174363 0.174262 0.174161 0.174059 0.173958 0.173857 0.173780 0.173744 0.173730 0.173718 0.173685 0.173617 0.173527 0.173437 0.173346 0.173256 0.173165 0.173096 0.173065 0.173053 0.173043 0.173013 0.172950 0.172868 0.172786 0.172704 0.172622 0.172539 0.172476 0.172449 0.172439 0.172429 0.172402 0.172345 0.172269 0.172192 0.172115 0.172038 0.171962 0.171904 0.171879 0.171870 0.171860 0.171835 0.171781 0.171710 0.171638 0.171567 0.171495 0.171426 0.171373 0.171349 0.171340 0.171331 0.171307 0.171256 0.171188 0.171120 0.171052 0.170983 0.170918 0.170868 0.170845 0.170836 0.170828 0.170804 0.170755 0.170689 0.170623 0.170556 0.170490 0.170427 0.170379 0.170356 0.170347 0.170339 0.170316 0.170267 0.170203 0.170137 0.170071 0.170005 0.169942 0.169894 0.169871 0.169863 
0.255730 0.255596 0.255041 0.253647 0.251800 0.249880 0.247960 0.246039 0.244133 0.242693 0.242107 0.241966 0.241825 0.241241 0.239831 0.237963 0.236141 0.234318 0.232496 0.230710 0.229362 0.228814 0.228682 0.228553 0.228014 0.226729 0.225026 0.223397 0.221769 0.220140 0.218587 0.217415 0.216946 0.216834 0.216723 0.216261 0.215181 0.213751 0.212415 0.211079 0.209744 0.208524 0.207604 0.207235 0.207146 0.207059 0.206695 0.205848 0.204725 0.203702 0.202680 0.201657 0.200751 0.200068 0.199800 0.199736 0.199671 0.199401 0.198784 0.197966 0.197226 0.196487 0.195747 0.195000 0.194435 0.194220 0.194168 0.194116 0.193900 0.193377 0.192685 0.192023 0.191362 0.190700 0.190049 0.189558 0.189358 0.189309 0.189261 0.189061 0.188581 0.187946 0.187319 0.186693 0.186066 0.185468 0.185017 0.184835 0.184791 0.184748 0.184567 0.184133 0.183559 0.183046 0.182532 0.182019 0.181554 0.181202 0.181073 0.181042 0.181012 0.180888 0.180594 0.180205 0.179867 0.179530 0.179192 0.178887 0.178656 0.178565 0.178543 0.178525 0.178447 0.178262 0.178015 0.177794 0.177573 0.177352 0.177157 0.177010 0.176949 0.176934 0.176920 0.176859 0.176731 0.176562 0.176404 0.176245 0.176086 0.175952 0.175850 0.175808 0.175798 0.175788 0.175745 0.175646 0.175515 0.175394 0.175273 0.175153 0.175042 0.174958 0.174925 0.174917 0.174909 0.174876 0.174794 0.174686 0.174589 0.174492 0.174395 0.174299 0.174226 0.174198 0.174192 0.174185 0.174157 0.174089 0.173997 0.173909 0.173821 0.173733 0.173644 0.173577 0.173549 0.173542 
0.271707 0.271434 0.269372 0.264284 0.257495 0.251849 0.246203 0.240557 0.235679 0.232023 0.230741 0.230572 0.230405 0.229147 0.225972 0.221735 0.218231 0.214727 0.211223 0.208546 0.206540 0.205890 0.205804 0.205720 0.205083 0.203718 0.201896 0.200425 0.198954 0.197484 0.196064 0.195000 0.194610 0.194558 0.194507 0.194120 0.193063 0.191653 0.190280 0.188908 0.187535 0.186271 0.185323 0.185001 0.184958 0.184917 0.184603 0.183817 0.182768 0.181985 0.181202 0.180419 0.179871 0.179461 0.179329 0.179311 0.179294 0.179164 0.178879 0.178498 0.178206 0.177913 0.177620 0.177396 0.177227 0.177179 0.177172 0.177166 0.177116 0.176982 0.176802 0.176660 0.176518 0.176375 0.176256 0.176166 0.176134 0.176130 
0.224095 0.223964 0.223319 0.221754 0.219674 0.217771 0.215869 0.213967 0.212251 0.210960 0.210468 0.210368 0.210271 0.209786 0.208621 0.207073 0.205673 0.204274 0.202874 0.201619 0.200675 0.200318 0.200247 0.200176 0.199829 0.198983 0.197860 0.196833 0.195805 0.194777 0.193825 0.193108 0.192834 0.192778 0.192724 0.192453 0.191784 0.190896 0.190054 0.189211 0.188368 0.187576 0.186979 0.186748 0.186701 0.186655 0.186427 0.185874 0.185140 0.184455 0.183770 0.183086 0.182454 0.181978 0.181808 0.181774 0.181740 0.181571 0.181153 0.180597 0.180176 0.179756 0.179336 0.179008 0.178762 0.178676 0.178658 0.178641 0.178555 0.178351 0.178079 0.177871 0.177662 0.177454 0.177300 0.177184 0.177137 0.177128 0.177118 0.177071 0.176963 0.176821 0.176705 0.176589 0.176472 0.176379 0.176308 0.176279 0.176273 0.176267 0.176238 0.176186 0.176118 0.176059 0.176001 0.175942 0.175895 0.175859 0.175850 0.175848 
0.177722 0.177689 0.177509 0.177055 0.176452 0.175886 0.175320 0.174755 0.174223 0.173824 0.173673 0.173645 0.173618 0.173468 0.173093 0.172594 0.172128 0.171662 0.171196 0.170758 0.170429 0.170302 0.170279 0.170256 0.170130 0.169828 0.169425 0.169050 0.168675 0.168300 0.167960 0.167705 0.167629 0.167615 0.167603 0.167539 0.167382 0.167174 0.167012 0.166849 0.166687 0.166565 0.166473 0.166438 0.166431 0.166425 0.166389 0.166316 0.166218 0.166131 0.166044 0.165957 0.165876 0.165816 0.165799 0.165796 0.165793 0.165776 0.165731 0.165671 0.165629 0.165587 0.165545 0.165522 0.165504 0.165497 0.165496 
