0.184171 0.184201 0.184601 0.186480 0.189455 0.192569 0.195682 0.198796 0.201852 0.203781 0.204192 0.204223 0.204254 0.204660 0.206404 0.209166 0.211416 0.213665 0.215915 0.217546 0.218575 0.218764 0.218778 0.218791 0.218969 0.219563 0.220504 0.220495 0.220487 0.220479 0.219547 0.218959 0.218792 0.218779 0.218765 0.218590 0.217642 0.216139 0.214275 0.212410 0.210545 0.208530 0.207257 0.206974 0.206952 0.206930 0.206644 0.205350 0.203300 0.201243 0.199186 0.197130 0.195109 0.193834 0.193551 0.193529 0.193507 0.193223 0.191950 0.189934 0.188033 0.186132 0.184231 0.182413 0.181266 0.181019 0.181000 
0.184158 0.184136 0.183928 0.183341 0.182556 0.181744 0.180931 0.180119 0.179266 0.178628 0.178393 0.178368 0.178343 0.178106 0.177442 0.176555 0.175647 0.174740 0.173832 0.172916 0.172231 0.171990 0.171964 0.171939 0.171699 0.171053 0.170189 0.169446 0.168703 0.167960 0.167343 0.166881 0.166723 0.166706 0.166689 0.166534 0.166112 0.165549 0.164998 0.164448 0.163898 0.163348 0.162936 0.162788 0.162772 
0.184166 0.184176 0.184314 0.184107 0.183779 0.181288 0.178798 0.176307 0.173420 0.171597 0.171182 0.171152 0.171123 0.170715 0.168930 0.166101 0.163731 0.161360 0.158989 0.157004 0.155751 0.155494 0.155475 0.155458 0.155206 0.154164 0.152512 0.151188 0.149864 0.148541 0.147388 0.146660 0.146506 0.146495 0.146484 0.146329 0.145627 0.144513 0.143398 0.142282 0.141167 0.139950 0.139182 0.139005 0.138993 0.138980 0.138803 0.137938 0.136569 0.134978 0.133387 0.131796 0.130199 0.129191 0.128982 0.128968 0.128953 0.128747 0.127873 0.126488 0.125279 0.124069 0.122860 0.121783 0.121104 0.120963 0.120953 0.120943 0.120804 0.120229 0.119319 0.118731 0.118144 0.117556 0.117190 0.116959 0.116915 0.116911 0.116908 0.116866 0.116697 0.116429 0.116222 0.116015 0.115809 0.115634 0.115524 0.115501 0.115499 0.115497 0.115474 0.115373 0.115212 0.115065 0.114917 0.114769 0.114634 0.114549 0.114531 0.114530 0.114528 0.114511 0.114433 0.114310 0.114206 0.114102 0.113998 0.113918 0.113868 0.113858 0.113857 0.113856 0.113847 0.113808 0.113746 0.113698 0.113650 0.113602 0.113564 0.113540 0.113535 0.113535 0.113535 0.113530 0.113509 0.113476 0.113449 0.113421 0.113394 0.113371 0.113356 0.113353 0.113353 0.113353 0.113350 0.113338 0.113318 0.113302 0.113286 0.113271 0.113259 0.113251 0.113249 0.113249 0.113249 0.113248 0.113242 0.113233 0.113228 0.113222 0.113217 0.113212 0.113209 0.113208 0.113208 
0.206930 0.206844 0.206553 0.205904 0.205049 0.204252 0.203454 0.202656 0.201899 0.201326 0.201084 0.201013 0.200942 0.200703 0.200169 0.199465 0.198800 0.198135 0.197470 0.196845 0.196371 0.196169 0.196110 0.196051 0.195852 0.195413 0.194834 0.194291 0.193749 0.193206 0.192679 0.192280 0.192109 0.192059 0.192009 0.191839 0.191455 0.190949 0.190456 0.189963 0.189470 0.189000 0.188644 0.188490 0.188445 0.188400 0.188247 0.187903 0.187450 0.187024 0.186599 0.186173 0.185757 0.185441 0.185305 0.185264 0.185224 0.185088 0.184796 0.184410 0.184043 0.183676 0.183309 0.182976 0.182724 0.182619 0.182589 0.182558 0.182455 0.182225 0.181920 0.181646 0.181372 0.181098 0.180851 0.180663 0.180581 0.180558 0.180534 0.180453 0.180274 0.180038 0.179833 0.179627 0.179422 0.179221 0.179068 0.179005 0.178986 0.178970 0.178915 0.178789 0.178623 0.178455 0.178286 0.178118 0.177974 0.177865 0.177818 0.177804 0.177790 0.177742 0.177633 0.177491 0.177364 0.177238 0.177111 0.176990 0.176898 0.176858 0.176846 0.176834 0.176793 0.176708 0.176595 0.176489 0.176383 0.176277 0.176174 0.176097 0.176067 0.176059 0.176050 0.176021 0.175953 0.175864 0.175775 0.175686 0.175597 0.175519 0.175460 0.175434 0.175426 0.175418 0.175392 0.175331 0.175251 0.175182 0.175112 0.175042 0.174972 0.174919 0.174895 0.174888 0.174881 0.174857 0.174811 0.174750 0.174687 0.174624 0.174562 0.174504 0.174460 0.174441 0.174436 
0.218750 0.218637 0.218073 0.216677 0.214823 0.213091 0.211359 0.209628 0.208010 0.206792 0.206325 0.206231 0.206139 0.205677 0.204560 0.203075 0.201733 0.200390 0.199047 0.197842 0.196935 0.196594 0.196526 0.196460 0.196127 0.195333 0.194279 0.193348 0.192416 0.191485 0.190666 0.190051 0.189812 0.189765 0.189717 0.189481 0.188908 0.188147 0.187410 0.186673 0.185935 0.185215 0.184672 0.184461 0.184419 0.184377 0.184166 0.183654 0.182973 0.182318 0.181664 0.181010 0.180395 0.179932 0.179752 0.179716 0.179683 0.179518 0.179110 0.178567 0.178127 0.177686 0.177245 0.176878 0.176603 0.176518 0.176501 0.176484 0.176400 0.176194 0.175920 0.175719 0.175519 0.175318 0.175165 0.175050 0.175013 0.175006 0.174998 0.174961 0.174869 0.174745 0.174664 0.174583 0.174502 0.174456 0.174421 0.174408 0.174405 0.174402 0.174388 0.174362 0.174326 0.174313 0.174300 0.174287 0.174295 0.174301 0.174303 0.174303 0.174303 0.174305 0.174324 0.174349 0.174389 0.174428 0.174468 0.174522 0.174562 0.174579 0.174582 
0.204212 0.204164 0.203885 0.203136 0.202138 0.201079 0.200019 0.198959 0.197837 0.196994 0.196665 0.196609 0.196553 0.196223 0.195341 0.194167 0.192956 0.191745 0.190533 0.189304 0.188381 0.188053 0.187997 0.187944 0.187634 0.186910 0.185946 0.185303 0.184660 0.184017 0.183480 0.183077 0.182924 0.182898 0.182872 0.182718 0.182318 0.181786 0.181249 0.180712 0.180175 0.179621 0.179205 0.179043 0.179016 0.178988 0.178826 0.178389 0.177807 0.177215 0.176623 0.176030 0.175455 0.175024 0.174865 0.174839 0.174812 0.174654 0.174251 0.173715 0.173296 0.172877 0.172458 0.172149 0.171917 0.171833 0.171819 0.171807 0.171735 0.171575 0.171361 0.171196 0.171031 0.170866 0.170749 0.170661 0.170629 0.170623 0.170618 0.170585 0.170516 0.170425 0.170354 0.170283 0.170213 0.170158 0.170118 0.170107 0.170106 0.170104 0.170093 0.170064 0.170026 0.170009 0.169992 0.169975 0.169977 0.169979 0.169980 0.169980 
0.178365 0.178354 0.178327 0.178271 0.178198 0.178119 0.178041 0.177963 0.177879 0.177815 0.177782 0.177768 0.177754 0.177721 0.177651 0.177561 0.177462 0.177364 0.177266 0.177163 0.177084 0.177043 0.177026 0.177009 0.176967 0.176883 0.176773 0.176656 0.176539 0.176422 0.176299 0.176204 0.176155 0.176135 0.176115 0.176066 0.175968 0.175839 0.175703 0.175568 0.175432 0.175290 0.175180 0.175123 0.175099 0.175075 0.175017 0.174900 0.174747 0.174586 0.174425 0.174264 0.174094 0.173964 0.173901 0.173875 0.173849 0.173786 0.173662 0.173500 0.173338 0.173177 0.173015 0.172857 0.172736 0.172676 0.172651 0.172626 0.172567 0.172457 0.172313 0.172206 0.172099 0.171993 0.171926 0.171874 0.171848 0.171837 0.171826 0.171800 0.171749 0.171681 0.171613 0.171545 0.171477 0.171409 0.171357 0.171331 0.171320 0.171309 0.171283 0.171231 0.171162 0.171094 0.171025 0.170957 0.170888 0.170836 0.170809 0.170798 0.170787 0.170761 0.170708 0.170640 0.170571 0.170503 0.170434 0.170364 0.170310 0.170282 0.170271 0.170259 0.170232 0.170177 0.170105 0.170034 0.169964 0.169893 0.169830 0.169781 0.169756 0.169746 0.169735 0.169709 0.169657 0.169589 0.169516 0.169443 0.169370 0.169291 0.169230 0.169199 0.169186 0.169173 0.169141 0.169076 0.168990 0.168901 0.168813 0.168724 0.168634 0.168565 0.168530 0.168515 0.168501 0.168466 0.168395 0.168304 0.168211 0.168119 0.168026 0.167931 0.167858 0.167821 0.167805 0.167790 0.167753 0.167679 0.167582 0.167484 0.167385 0.167287 0.167188 0.167112 0.167074 0.167058 0.167042 0.167005 0.166930 0.166832 0.166734 0.166637 0.166539 0.166440 0.166365 0.166327 0.166311 0.166296 0.166257 0.166185 0.166090 0.165996 0.165903 0.165809 0.165715 0.165643 0.165607 0.165592 0.165577 0.165541 0.165469 0.165376 0.165292 0.165208 0.165124 0.165040 0.164976 0.164943 0.164930 0.164917 0.164884 0.164823 0.164743 0.164702 0.164660 0.164619 0.164586 0.164560 0.164547 0.164542 0.164536 0.164523 0.164498 0.164464 0.164435 0.164407 0.164378 0.164361 0.164349 0.164342 0.164339 0.164337 0.164330 0.164317 0.164299 0.164281 0.164263 0.164245 0.164236 0.164230 0.164227 0.164226 0.164225 0.164222 0.164216 0.164208 0.164199 0.164190 0.164181 0.164171 0.164164 0.164163 0.164162 0.164162 0.164160 0.164157 0.164154 0.164148 0.164143 0.164137 0.164130 0.164125 0.164122 0.164120 0.164119 0.164117 0.164115 0.164113 0.164109 0.164105 0.164101 0.164099 0.164097 0.164096 0.164095 0.164094 0.164092 0.164089 0.164084 0.164081 0.164078 0.164075 0.164070 0.164067 0.164064 0.164064 0.164063 0.164061 0.164057 0.164052 0.164051 0.164049 0.164048 0.164046 0.164045 0.164045 0.164044 0.164044 0.164043 0.164042 0.164040 0.164039 0.164038 0.164037 0.164038 0.164039 0.164039 0.164039 0.164039 0.164039 0.164039 0.164040 0.164040 0.164040 0.164040 0.164043 0.164045 0.164046 0.164046 
0.166700 0.166679 0.166610 0.166458 0.166257 0.166065 0.165872 0.165680 0.165496 0.165357 0.165296 0.165277 0.165259 0.165199 0.165066 0.164891 0.164721 0.164552 0.164382 0.164215 0.164088 0.164032 0.164015 0.163997 0.163941 0.163817 0.163653 0.163491 0.163329 0.163168 0.163005 0.162882 0.162827 0.162809 0.162792 0.162737 0.162613 0.162451 0.162288 0.162126 0.161964 0.161801 0.161678 0.161623 0.161606 0.161589 0.161535 0.161414 0.161254 0.161094 0.160934 0.160774 0.160618 0.160500 0.160448 0.160432 0.160416 0.160364 0.160249 0.160097 0.159948 0.159799 0.159650 0.159510 0.159404 0.159357 0.159342 0.159327 0.159280 0.159174 0.159035 0.158940 0.158845 0.158750 0.158674 0.158616 0.158591 0.158583 0.158575 0.158550 0.158502 0.158438 0.158390 0.158341 0.158293 0.158244 0.158207 0.158190 0.158185 0.158182 0.158172 0.158152 0.158125 0.158096 0.158067 0.158038 0.158018 0.158003 0.157998 0.157997 0.157995 0.157991 0.157979 0.157963 0.157949 0.157935 0.157921 0.157916 0.157912 0.157909 0.157909 0.157908 0.157906 0.157899 0.157891 0.157888 0.157885 0.157883 0.157880 0.157878 0.157877 0.157876 0.157876 0.157874 0.157874 0.157873 0.157877 0.157881 0.157885 0.157888 0.157890 0.157890 0.157891 
