0.152584 0.152594 0.152738 0.153365 0.154357 0.155255 0.156152 0.157049 0.157840 0.158339 0.158443 0.158450 0.158458 0.158560 0.159003 0.159705 0.160376 0.161047 0.161718 0.162417 0.162859 0.162958 0.162965 0.162972 0.163070 0.163532 0.164264 0.165045 0.165826 0.166607 0.167410 0.167917 0.168028 0.168036 0.168044 0.168155 0.168654 0.169443 0.170154 0.170864 0.171575 0.172106 0.172441 0.172502 0.172506 0.172510 0.172570 0.172786 0.173130 0.173317 0.173504 0.173691 0.173842 0.173937 0.173960 0.173961 0.173963 0.173989 0.174140 0.174378 0.174771 0.175163 0.175556 0.176045 0.176353 0.176422 0.176427 0.176432 0.176502 0.176815 0.177310 0.177713 0.178117 0.178521 0.178776 0.178936 0.178962 0.178964 0.178966 0.178990 0.179051 0.179148 0.179023 0.178899 0.178774 0.178408 0.178176 0.178112 0.178107 0.178102 0.178036 0.177675 0.177105 0.176306 0.175507 0.174709 0.173716 0.173090 0.172944 0.172933 
0.152579 0.152568 0.152463 0.152131 0.151664 0.151227 0.150789 0.150352 0.149933 0.149635 0.149542 0.149532 0.149522 0.149428 0.149137 0.148728 0.148328 0.147928 0.147528 0.147138 0.146861 0.146773 0.146764 0.146754 0.146665 0.146396 0.146018 0.145657 0.145296 0.144935 0.144589 0.144343 0.144265 0.144257 0.144249 0.144172 0.143936 0.143603 0.143280 0.142957 0.142634 0.142318 0.142093 0.142021 0.142014 0.142007 0.141935 0.141715 0.141405 0.141100 0.140795 0.140490 0.140192 0.139979 0.139912 0.139905 0.139898 0.139830 0.139622 0.139329 0.139042 0.138755 0.138469 0.138187 0.137987 0.137923 0.137916 0.137910 0.137846 0.137649 0.137373 0.137101 0.136828 0.136556 0.136289 0.136099 0.136039 0.136032 0.136026 0.135966 0.135779 0.135516 0.135259 0.135002 0.134744 0.134493 0.134313 0.134256 0.134251 0.134245 0.134188 0.134012 0.133765 0.133523 0.133282 0.133040 0.132804 0.132636 0.132582 0.132577 0.132571 0.132518 0.132353 0.132121 0.131895 0.131668 0.131441 0.131219 0.131060 0.131010 0.131005 0.131000 0.130950 0.130795 0.130577 0.130363 0.130150 0.129936 0.129727 0.129579 0.129531 0.129526 
0.152583 0.152591 0.152703 0.152891 0.153189 0.152663 0.152137 0.151610 0.150695 0.150118 0.149986 0.149977 0.149968 0.149828 0.149169 0.148124 0.147159 0.146193 0.145227 0.144298 0.143711 0.143586 0.143578 0.143570 0.143445 0.142916 0.142079 0.141362 0.140644 0.139927 0.139209 0.138757 0.138651 0.138644 0.138637 0.138526 0.137987 0.137133 0.135993 0.134854 0.133714 0.132240 0.131310 0.131092 0.131077 0.131063 0.130845 0.129839 0.128246 0.126586 0.124926 0.123265 0.121878 0.121002 0.120834 0.120822 0.120811 0.120648 0.120028 0.119046 0.118434 0.117823 0.117211 0.116832 0.116593 0.116548 0.116545 0.116542 0.116498 0.116325 0.116052 0.115857 0.115661 0.115466 0.115319 0.115226 0.115208 0.115207 0.115205 0.115187 0.115111 0.114990 0.114890 0.114790 0.114690 0.114605 0.114552 0.114541 0.114540 0.114539 0.114528 0.114480 0.114405 0.114339 0.114272 0.114206 0.114148 0.114111 0.114104 0.114103 0.114103 0.114095 0.114062 0.114011 0.113966 0.113922 0.113877 0.113839 0.113815 0.113810 0.113810 0.113810 0.113805 0.113784 0.113751 0.113724 0.113697 0.113670 0.113648 0.113634 0.113631 0.113631 0.113630 0.113628 0.113616 0.113597 0.113583 0.113568 0.113553 0.113540 0.113532 0.113530 0.113530 
0.176422 0.176404 0.176311 0.176081 0.175774 0.175502 0.175231 0.174959 0.174744 0.174583 0.174528 0.174518 0.174507 0.174452 0.174317 0.174137 0.173984 0.173831 0.173678 0.173551 0.173455 0.173417 0.173409 0.173402 0.173364 0.173285 0.173180 0.173088 0.172995 0.172903 0.172819 0.172757 0.172737 0.172734 0.172730 0.172710 0.172658 0.172588 0.172537 0.172485 0.172434 0.172398 0.172372 0.172361 0.172359 0.172357 0.172346 0.172326 0.172300 0.172282 0.172265 0.172247 0.172239 0.172233 0.172233 0.172233 0.172233 0.172235 0.172238 0.172243 0.172251 0.172259 0.172267 0.172282 0.172294 0.172299 0.172300 
0.172499 0.172473 0.172385 0.172187 0.171925 0.171667 0.171408 0.171150 0.170901 0.170711 0.170629 0.170605 0.170580 0.170498 0.170313 0.170069 0.169834 0.169598 0.169363 0.169135 0.168963 0.168888 0.168865 0.168843 0.168768 0.168602 0.168382 0.168174 0.167966 0.167758 0.167556 0.167402 0.167339 0.167320 0.167302 0.167241 0.167106 0.166928 0.166758 0.166588 0.166417 0.166273 0.166164 0.166118 0.166104 0.166091 0.166045 0.165943 0.165807 0.165689 0.165570 0.165452 0.165345 0.165263 0.165228 0.165217 0.165207 0.165171 0.165100 0.165005 0.164925 0.164846 0.164766 0.164688 0.164629 0.164611 0.164605 0.164600 0.164581 0.164538 0.164482 0.164427 0.164372 0.164316 0.164280 0.164253 0.164241 0.164237 0.164233 0.164221 0.164193 0.164155 0.164129 0.164103 0.164077 0.164055 0.164038 0.164030 0.164028 0.164026 0.164019 0.164010 0.163998 0.163990 0.163982 0.163974 0.163966 0.163960 0.163961 0.163961 0.163962 0.163962 0.163964 0.163967 0.163969 0.163972 0.163975 0.163986 0.163995 0.163999 0.164000 0.164001 0.164004 0.164012 0.164022 0.164038 0.164054 0.164070 0.164086 0.164099 0.164104 0.164106 0.164107 0.164113 0.164128 0.164149 0.164171 0.164194 0.164216 0.164238 0.164256 0.164265 0.164267 0.164270 0.164279 0.164299 0.164325 0.164351 0.164377 0.164403 0.164432 0.164454 0.164464 0.164467 
0.168031 0.168009 0.167868 0.167510 0.167033 0.166587 0.166142 0.165697 0.165269 0.164949 0.164831 0.164813 0.164795 0.164677 0.164367 0.163953 0.163561 0.163168 0.162776 0.162413 0.162140 0.162047 0.162032 0.162018 0.161925 0.161694 0.161386 0.161139 0.160892 0.160645 0.160450 0.160304 0.160257 0.160250 0.160243 0.160196 0.160085 0.159937 0.159829 0.159722 0.159614 0.159537 0.159480 0.159462 0.159459 0.159456 0.159438 0.159400 0.159349 0.159318 0.159288 0.159258 0.159246 0.159237 0.159235 0.159234 0.159234 0.159231 0.159232 0.159234 0.159243 0.159251 0.159260 0.159279 0.159292 0.159297 0.159297 
0.162960 0.162939 0.162836 0.162580 0.162240 0.161919 0.161598 0.161276 0.160976 0.160750 0.160664 0.160647 0.160631 0.160546 0.160341 0.160069 0.159833 0.159598 0.159362 0.159125 0.158947 0.158877 0.158864 0.158850 0.158780 0.158601 0.158364 0.158124 0.157884 0.157645 0.157404 0.157223 0.157152 0.157138 0.157124 0.157053 0.156874 0.156636 0.156405 0.156173 0.155942 0.155725 0.155562 0.155503 0.155491 0.155480 0.155422 0.155276 0.155083 0.154918 0.154753 0.154588 0.154453 0.154351 0.154314 0.154307 0.154300 0.154263 0.154179 0.154067 0.153979 0.153891 0.153803 0.153739 0.153692 0.153673 0.153669 0.153666 0.153647 0.153614 0.153569 0.153536 0.153502 0.153469 0.153443 0.153424 0.153421 0.153420 0.153420 0.153416 0.153408 0.153397 0.153395 0.153392 0.153390 0.153394 0.153398 0.153400 0.153401 0.153401 0.153403 0.153410 0.153418 0.153432 0.153446 0.153460 0.153478 0.153491 0.153496 0.153497 
0.158447 0.158434 0.158383 0.158257 0.158090 0.157914 0.157739 0.157564 0.157383 0.157246 0.157189 0.157175 0.157161 0.157103 0.156962 0.156775 0.156581 0.156388 0.156194 0.156009 0.155870 0.155814 0.155800 0.155786 0.155730 0.155598 0.155423 0.155279 0.155135 0.154991 0.154883 0.154801 0.154767 0.154759 0.154751 0.154717 0.154635 0.154527 0.154418 0.154309 0.154200 0.154090 0.154006 0.153972 0.153963 0.153955 0.153920 0.153837 0.153726 0.153613 0.153500 0.153387 0.153273 0.153187 0.153151 0.153142 0.153133 0.153097 0.153009 0.152893 0.152775 0.152656 0.152538 0.152417 0.152326 0.152288 0.152279 0.152269 0.152231 0.152139 0.152018 0.151894 0.151769 0.151645 0.151521 0.151427 0.151388 0.151379 0.151369 0.151330 0.151242 0.151124 0.151013 0.150901 0.150790 0.150693 0.150621 0.150591 0.150584 0.150577 0.150547 0.150481 0.150393 0.150322 0.150251 0.150179 0.150121 0.150077 0.150062 0.150058 0.150055 0.150040 0.150005 0.149958 0.149924 0.149890 0.149857 0.149828 0.149807 0.149798 0.149795 0.149794 0.149789 0.149778 0.149762 0.149750 0.149738 0.149726 0.149721 0.149718 0.149716 0.149716 0.149715 0.149713 0.149712 0.149710 0.149711 0.149713 0.149715 0.149721 0.149725 0.149727 0.149728 0.149728 0.149731 0.149736 0.149742 0.149753 0.149763 0.149773 0.149784 0.149792 0.149797 0.149798 0.149799 0.149803 0.149814 0.149828 0.149843 0.149857 0.149872 0.149887 0.149899 0.149904 0.149905 
0.149531 0.149529 0.149511 0.149457 0.149385 0.149292 0.149199 0.149106 0.148989 0.148902 0.148866 0.148861 0.148856 0.148819 0.148711 0.148566 0.148414 0.148261 0.148108 0.147989 0.147899 0.147881 0.147879 0.147877 0.147859 0.147811 0.147747 0.147679 0.147611 0.147543 0.147467 0.147410 0.147388 0.147385 0.147382 0.147359 0.147295 0.147209 0.147110 0.147012 0.146913 0.146804 0.146722 0.146690 0.146685 0.146681 0.146649 0.146562 0.146447 0.146346 0.146245 0.146144 0.146070 0.146014 0.145998 0.145996 0.145993 0.145978 0.145944 0.145900 0.145878 0.145856 0.145834 0.145829 0.145825 0.145824 0.145824 0.145824 0.145823 0.145827 0.145832 0.145843 0.145854 0.145865 0.145881 0.145893 0.145897 0.145898 
0.146762 0.146757 0.146736 0.146684 0.146616 0.146547 0.146478 0.146409 0.146337 0.146283 0.146259 0.146253 0.146247 0.146224 0.146167 0.146091 0.146017 0.145944 0.145870 0.145797 0.145742 0.145719 0.145713 0.145707 0.145684 0.145631 0.145560 0.145493 0.145425 0.145358 0.145294 0.145246 0.145227 0.145222 0.145217 0.145197 0.145155 0.145098 0.145055 0.145012 0.144969 0.144924 0.144890 0.144876 0.144872 0.144868 0.144854 0.144819 0.144773 0.144725 0.144677 0.144629 0.144576 0.144536 0.144519 0.144515 0.144510 0.144493 0.144453 0.144400 0.144344 0.144288 0.144232 0.144174 0.144130 0.144111 0.144106 0.144101 0.144082 0.144036 0.143976 0.143914 0.143851 0.143789 0.143730 0.143686 0.143668 0.143663 0.143658 0.143640 0.143597 0.143539 0.143490 0.143441 0.143392 0.143347 0.143313 0.143302 0.143299 0.143296 0.143284 0.143257 0.143222 0.143195 0.143167 0.143139 0.143118 0.143102 0.143095 0.143093 0.143091 0.143085 0.143073 0.143058 0.143047 0.143037 0.143026 0.143022 0.143019 0.143019 0.143018 0.143018 0.143017 0.143015 0.143012 0.143014 0.143016 0.143018 0.143020 0.143022 0.143024 0.143025 0.143025 0.143027 0.143033 0.143040 0.143048 0.143056 0.143064 0.143075 0.143083 0.143086 0.143087 0.143088 0.143091 0.143100 0.143112 0.143125 0.143139 0.143152 0.143168 0.143179 0.143184 0.143186 0.143187 0.143192 0.143204 0.143220 0.143238 0.143256 0.143274 0.143293 0.143307 0.143313 0.143315 
0.142013 0.142011 0.142006 0.141997 0.141985 0.141972 0.141960 0.141947 0.141935 0.141925 0.141920 0.141918 0.141916 0.141911 0.141901 0.141888 0.141875 0.141862 0.141849 0.141836 0.141826 0.141820 0.141818 0.141816 0.141810 0.141800 0.141787 0.141773 0.141760 0.141746 0.141733 0.141722 0.141717 0.141715 0.141712 0.141707 0.141697 0.141683 0.141670 0.141657 0.141643 0.141630 0.141619 0.141614 0.141611 0.141609 0.141603 0.141593 0.141579 0.141565 0.141551 0.141537 0.141522 0.141511 0.141506 0.141503 0.141501 0.141495 0.141483 0.141469 0.141454 0.141439 0.141425 0.141410 0.141399 0.141393 0.141390 0.141388 0.141382 0.141370 0.141355 0.141339 0.141324 0.141308 0.141292 0.141280 0.141274 0.141271 0.141268 0.141262 0.141249 0.141233 0.141216 0.141200 0.141183 0.141166 0.141154 0.141147 0.141144 0.141141 0.141134 0.141121 0.141104 0.141086 0.141069 0.141051 0.141034 0.141020 0.141013 0.141010 0.141007 0.141000 0.140986 0.140968 0.140950 0.140932 0.140914 0.140895 0.140881 0.140874 0.140871 0.140868 0.140860 0.140846 0.140828 0.140810 0.140791 0.140772 0.140754 0.140740 0.140732 0.140729 0.140726 0.140718 0.140704 0.140686 0.140668 0.140650 0.140633 0.140615 0.140601 0.140594 0.140591 0.140588 0.140581 0.140567 0.140550 0.140539 0.140528 0.140517 0.140509 0.140503 0.140500 0.140499 0.140498 0.140495 0.140489 0.140482 0.140476 0.140470 0.140463 0.140459 0.140456 0.140455 0.140454 0.140454 0.140452 0.140449 0.140446 0.140442 0.140439 0.140435 0.140432 0.140430 0.140430 0.140430 0.140430 0.140429 0.140428 0.140428 0.140427 0.140425 0.140424 0.140423 0.140423 0.140422 0.140422 0.140422 0.140421 0.140421 0.140422 0.140422 0.140423 0.140423 0.140423 0.140424 0.140424 0.140424 0.140424 0.140424 0.140424 0.140424 0.140426 0.140427 0.140429 0.140431 0.140432 0.140432 0.140433 0.140433 0.140434 0.140435 0.140436 0.140438 0.140440 0.140441 0.140444 0.140446 0.140447 0.140448 0.140448 0.140449 0.140451 0.140453 0.140456 0.140458 0.140460 0.140463 0.140465 0.140466 0.140467 0.140468 0.140469 0.140472 0.140475 0.140479 0.140482 0.140485 0.140489 0.140492 0.140493 0.140493 0.140494 0.140495 0.140499 0.140503 0.140507 0.140512 0.140516 0.140521 0.140524 0.140526 0.140527 0.140527 0.140529 0.140533 0.140537 0.140542 0.140547 0.140553 0.140558 0.140562 0.140564 0.140565 0.140566 0.140568 0.140572 0.140577 0.140583 0.140588 0.140594 0.140601 0.140605 0.140608 0.140609 
0.136032 0.136028 0.136019 0.135997 0.135969 0.135941 0.135912 0.135883 0.135854 0.135832 0.135822 0.135819 0.135816 0.135806 0.135784 0.135755 0.135725 0.135696 0.135667 0.135637 0.135615 0.135605 0.135602 0.135599 0.135589 0.135566 0.135537 0.135508 0.135479 0.135450 0.135421 0.135399 0.135389 0.135386 0.135383 0.135373 0.135351 0.135322 0.135293 0.135265 0.135236 0.135207 0.135185 0.135175 0.135172 0.135169 0.135160 0.135139 0.135112 0.135084 0.135057 0.135029 0.135003 0.134982 0.134974 0.134971 0.134968 0.134959 0.134939 0.134913 0.134887 0.134861 0.134835 0.134811 0.134792 0.134784 0.134781 0.134778 0.134770 0.134751 0.134726 0.134703 0.134679 0.134656 0.134633 0.134616 0.134608 0.134605 0.134603 0.134595 0.134578 0.134556 0.134539 0.134522 0.134504 0.134497 0.134491 0.134488 0.134488 0.134487 0.134486 0.134484 0.134481 0.134478 0.134475 0.134472 0.134471 0.134470 0.134470 0.134470 0.134470 0.134470 0.134470 0.134470 0.134471 0.134472 0.134473 0.134475 0.134478 0.134479 0.134479 0.134479 0.134480 0.134483 0.134486 0.134491 0.134496 0.134501 0.134507 0.134511 0.134513 0.134513 0.134514 0.134516 0.134521 0.134527 0.134536 0.134544 0.134552 0.134560 0.134566 0.134569 0.134570 0.134571 0.134575 0.134583 0.134594 0.134605 0.134616 0.134627 0.134639 0.134648 0.134653 0.134654 0.134656 0.134661 0.134671 0.134685 0.134699 0.134713 0.134728 0.134744 0.134756 0.134762 0.134764 0.134766 0.134771 0.134784 0.134801 0.134819 0.134837 0.134855 0.134874 0.134889 0.134895 0.134897 
0.131005 0.131003 0.130998 0.130984 0.130965 0.130945 0.130925 0.130905 0.130884 0.130869 0.130862 0.130860 0.130859 0.130852 0.130836 0.130815 0.130793 0.130771 0.130749 0.130726 0.130710 0.130703 0.130701 0.130699 0.130692 0.130675 0.130652 0.130629 0.130606 0.130583 0.130561 0.130544 0.130537 0.130535 0.130533 0.130526 0.130509 0.130485 0.130463 0.130440 0.130418 0.130396 0.130379 0.130372 0.130371 0.130369 0.130362 0.130346 0.130323 0.130302 0.130281 0.130260 0.130238 0.130222 0.130216 0.130214 0.130213 0.130206 0.130191 0.130170 0.130150 0.130130 0.130110 0.130101 0.130094 0.130094 0.130094 0.130094 0.130095 0.130096 0.130098 0.130101 0.130103 0.130105 0.130108 0.130110 0.130111 0.130111 0.130111 0.130112 0.130115 0.130119 0.130123 0.130127 0.130131 0.130136 0.130140 0.130142 0.130142 0.130142 0.130144 0.130148 0.130153 0.130158 0.130163 0.130169 0.130176 0.130181 0.130183 0.130184 0.130184 0.130186 0.130191 0.130198 0.130207 0.130215 0.130223 0.130233 0.130240 0.130243 0.130244 
