0.153551 0.153540 0.153376 0.152640 0.151473 0.150393 0.149312 0.148232 0.147260 0.146647 0.146517 0.146508 0.146500 0.146370 0.145804 0.144907 0.144090 0.143273 0.142456 0.141697 0.141217 0.141114 0.141107 0.141100 0.140997 0.140530 0.139791 0.139060 0.138329 0.137597 0.136872 0.136414 0.136314 0.136308 0.136301 0.136201 0.135753 0.135044 0.134366 0.133688 0.133010 0.132367 0.131961 0.131874 0.131868 0.131863 0.131776 0.131389 0.130776 0.130207 0.129637 0.129068 0.128540 0.128206 0.128136 0.128131 0.128126 0.128056 0.127745 0.127253 0.126800 0.126347 0.125893 0.125476 0.125213 0.125157 0.125153 0.125149 0.125094 0.124847 0.124457 0.124095 0.123733 0.123372 0.123036 0.122824 0.122779 0.122776 
0.153556 0.153561 0.153615 0.153772 0.154001 0.154182 0.154362 0.154543 0.154725 0.154850 0.154892 0.154896 0.154900 0.154942 0.155123 0.155388 0.155772 0.156157 0.156541 0.157025 0.157357 0.157462 0.157473 0.157483 0.157589 0.157968 0.158521 0.159128 0.159735 0.160341 0.160990 0.161435 0.161569 0.161582 0.161595 0.161730 0.162198 0.162878 0.163595 0.164311 0.165028 0.165781 0.166297 0.166452 0.166467 0.166483 0.166638 0.167178 0.167965 0.168790 0.169615 0.170440 0.171300 0.171890 0.172066 0.172083 0.172101 0.172277 0.172888 0.173778 0.174701 0.175624 0.176548 0.177505 0.178163 0.178358 0.178377 0.178397 0.178593 0.179269 0.180255 0.181274 0.182292 0.183311 0.184361 0.185081 0.185297 0.185318 0.185340 0.185557 0.186304 0.187391 0.188529 0.189667 0.190805 0.191991 0.192805 0.193047 0.193071 0.193095 0.193338 0.194179 0.195404 0.196673 0.197942 0.199211 0.200526 0.201429 0.201698 0.201724 0.201751 0.202021 0.202950 0.204304 0.205677 0.207049 0.208421 0.209791 0.210732 0.211009 0.211037 0.211064 0.211340 0.212272 0.213629 0.214940 0.216250 0.217560 0.218779 0.219615 0.219849 0.219872 0.219896 0.220130 0.220902 0.222025 0.223012 0.223998 0.224984 0.225795 0.226351 0.226502 0.226517 0.226532 0.226680 0.227137 0.227803 0.228279 0.228756 0.229232 0.229511 0.229702 0.229743 0.229747 0.229751 0.229787 0.229842 0.229923 0.229794 0.229666 0.229537 0.229203 0.228974 0.228888 0.228879 0.228870 0.228779 0.228396 0.227839 0.227101 0.226362 0.225624 0.224697 0.224060 0.223860 0.223840 0.223820 0.223619 0.222899 0.221852 0.220679 0.219507 0.218334 0.217056 0.216178 0.215912 0.215886 0.215859 0.215591 0.214665 0.213316 0.211920 0.210525 0.209129 0.207709 0.206735 0.206444 0.206415 0.206386 0.206096 0.205117 0.203690 0.202264 0.200838 0.199412 0.197997 0.197026 0.196742 0.196714 0.196686 0.196403 0.195446 0.194051 0.192695 0.191338 0.189981 0.188666 0.187762 0.187500 0.187474 0.187448 0.187186 0.186309 0.185030 0.183798 0.182566 0.181334 0.180153 0.179342 0.179107 0.179083 0.179060 0.178826 0.178044 0.176905 0.175812 0.174719 0.173626 0.172577 0.171856 0.171648 0.171628 
0.153555 0.153556 0.153578 0.153323 0.152921 0.152050 0.151179 0.150308 0.149699 0.149315 0.149236 0.149231 0.149226 0.149149 0.148814 0.148284 0.147775 0.147266 0.146756 0.146270 0.145963 0.145896 0.145892 0.145887 0.145820 0.145498 0.144989 0.144348 0.143707 0.143067 0.142105 0.141499 0.141346 0.141337 0.141326 0.141170 0.140394 0.139163 0.136805 0.134446 0.132088 0.129404 0.127710 0.127382 0.127361 0.127340 0.127021 0.125751 0.123740 0.122451 0.121163 0.119875 0.119140 0.118676 0.118594 0.118589 0.118584 0.118504 0.118205 0.117731 0.117427 0.117124 0.116821 0.116612 0.116481 0.116455 0.116453 0.116451 0.116426 0.116322 0.116157 0.116024 0.115892 0.115760 0.115651 0.115582 0.115568 0.115567 0.115566 0.115552 0.115492 0.115397 0.115317 0.115237 0.115157 0.115089 0.115046 0.115037 0.115037 0.115036 0.115028 0.114990 0.114932 0.114882 0.114833 0.114784 0.114743 0.114717 0.114712 0.114712 0.114711 0.114706 0.114684 0.114649 0.114621 0.114592 0.114563 0.114539 0.114524 0.114521 0.114521 0.114521 0.114518 0.114505 0.114484 0.114467 0.114450 0.114433 0.114419 0.114410 0.114408 0.114408 
0.128131 0.128133 0.128138 0.128150 0.128166 0.128181 0.128196 0.128212 0.128225 0.128235 0.128239 0.128240 0.128241 0.128245 0.128254 0.128266 0.128276 0.128286 0.128296 0.128303 0.128309 0.128312 0.128313 0.128314 0.128316 0.128321 0.128328 0.128332 0.128336 0.128340 0.128343 0.128345 0.128346 0.128346 0.128347 0.128347 0.128347 0.128347 0.128345 0.128344 0.128342 0.128338 0.128335 0.128333 0.128333 0.128332 0.128330 0.128325 0.128318 0.128310 0.128301 0.128292 0.128280 0.128271 0.128267 0.128266 0.128265 0.128260 0.128251 0.128238 0.128222 0.128206 0.128191 0.128186 0.128182 0.128180 0.128180 0.128179 0.128177 0.128172 0.128165 0.128158 0.128150 0.128142 0.128134 0.128128 0.128125 0.128123 0.128122 0.128119 0.128111 0.128101 0.128090 0.128079 0.128068 0.128055 0.128045 0.128040 0.128039 0.128037 0.128033 0.128023 0.128009 0.127994 0.127979 0.127963 0.127947 0.127935 0.127929 0.127927 0.127926 0.127920 0.127907 0.127889 0.127870 0.127852 0.127833 0.127814 0.127800 0.127793 0.127791 0.127789 0.127782 0.127766 0.127746 0.127726 0.127705 0.127685 0.127663 0.127647 0.127640 0.127637 0.127635 0.127628 0.127611 0.127590 0.127568 0.127545 0.127523 0.127501 0.127484 0.127477 0.127474 0.127472 0.127464 0.127447 0.127425 0.127402 0.127379 0.127356 0.127333 0.127316 0.127308 0.127306 0.127303 0.127295 0.127278 0.127255 0.127231 0.127208 0.127184 0.127160 0.127143 0.127134 0.127132 
0.141106 0.141104 0.141090 0.141047 0.140989 0.140914 0.140838 0.140763 0.140672 0.140603 0.140576 0.140573 0.140569 0.140543 0.140472 0.140377 0.140275 0.140173 0.140071 0.139955 0.139867 0.139832 0.139827 0.139822 0.139786 0.139684 0.139547 0.139388 0.139230 0.139071 0.138893 0.138759 0.138707 0.138700 0.138693 0.138641 0.138493 0.138295 0.138101 0.137907 0.137714 0.137566 0.137456 0.137417 0.137412 0.137407 0.137369 0.137268 0.137134 0.137010 0.136886 0.136762 0.136648 0.136563 0.136532 0.136528 0.136524 0.136492 0.136414 0.136309 0.136212 0.136115 0.136018 0.135930 0.135863 0.135840 0.135837 0.135834 0.135810 0.135749 0.135666 0.135589 0.135512 0.135434 0.135360 0.135305 0.135284 0.135282 
0.146509 0.146509 0.146514 0.146511 0.146507 0.146456 0.146404 0.146353 0.146263 0.146196 0.146170 0.146166 0.146162 0.146135 0.146060 0.145959 0.145872 0.145786 0.145699 0.145624 0.145567 0.145545 0.145542 0.145539 0.145516 0.145453 0.145370 0.145278 0.145185 0.145092 0.144987 0.144909 0.144878 0.144873 0.144868 0.144835 0.144743 0.144620 0.144494 0.144367 0.144241 0.144096 0.143988 0.143945 0.143938 0.143931 0.143883 0.143754 0.143581 0.143384 0.143186 0.142989 0.142788 0.142637 0.142586 0.142579 0.142571 0.142520 0.142389 0.142214 0.142053 0.141893 0.141732 0.141586 0.141477 0.141437 0.141430 0.141425 0.141387 0.141287 0.141154 0.141033 0.140912 0.140792 0.140679 0.140595 0.140564 0.140559 0.140555 0.140525 0.140446 0.140341 0.140243 0.140145 0.140047 0.139953 0.139883 0.139857 0.139853 0.139849 0.139824 0.139756 0.139667 0.139579 0.139492 0.139404 0.139317 0.139252 0.139227 0.139223 
0.154894 0.154886 0.154847 0.154741 0.154601 0.154449 0.154296 0.154144 0.153989 0.153873 0.153827 0.153818 0.153809 0.153763 0.153645 0.153489 0.153329 0.153169 0.153010 0.152863 0.152753 0.152718 0.152711 0.152705 0.152670 0.152578 0.152455 0.152329 0.152203 0.152077 0.151945 0.151846 0.151805 0.151797 0.151790 0.151749 0.151643 0.151502 0.151350 0.151199 0.151047 0.150888 0.150769 0.150725 0.150717 0.150709 0.150665 0.150544 0.150383 0.150204 0.150024 0.149844 0.149649 0.149502 0.149445 0.149434 0.149422 0.149362 0.149205 0.148995 0.148779 0.148562 0.148346 0.148156 0.148013 0.147958 0.147948 0.147938 0.147883 0.147748 0.147568 0.147402 0.147237 0.147071 0.146923 0.146811 0.146768 0.146759 0.146751 0.146709 0.146607 0.146473 0.146350 0.146226 0.146103 0.145988 0.145902 0.145872 0.145866 0.145860 0.145830 0.145753 0.145650 0.145556 0.145462 0.145368 0.145282 0.145217 0.145193 0.145188 0.145184 0.145159 0.145098 0.145017 0.144942 0.144867 0.144792 0.144722 0.144669 0.144648 0.144644 0.144640 0.144619 0.144570 0.144504 0.144439 0.144375 0.144310 0.144248 0.144200 0.144183 0.144179 
0.161578 0.161563 0.161519 0.161423 0.161297 0.161170 0.161043 0.160916 0.160789 0.160692 0.160646 0.160631 0.160615 0.160570 0.160472 0.160344 0.160216 0.160088 0.159960 0.159830 0.159731 0.159685 0.159670 0.159654 0.159608 0.159509 0.159379 0.159250 0.159120 0.158990 0.158859 0.158760 0.158714 0.158699 0.158683 0.158638 0.158539 0.158410 0.158280 0.158151 0.158021 0.157892 0.157793 0.157748 0.157732 0.157717 0.157672 0.157574 0.157445 0.157315 0.157184 0.157054 0.156924 0.156825 0.156780 0.156764 0.156749 0.156703 0.156604 0.156474 0.156343 0.156211 0.156080 0.155949 0.155849 0.155803 0.155787 0.155772 0.155726 0.155625 0.155493 0.155361 0.155229 0.155097 0.154964 0.154863 0.154817 0.154801 0.154785 0.154738 0.154637 0.154504 0.154371 0.154238 0.154105 0.153972 0.153872 0.153825 0.153809 0.153793 0.153747 0.153646 0.153513 0.153381 0.153249 0.153117 0.152987 0.152887 0.152841 0.152826 0.152810 0.152764 0.152665 0.152535 0.152424 0.152314 0.152203 0.152108 0.152036 0.152003 0.151992 0.151980 0.151948 0.151878 0.151787 0.151701 0.151615 0.151529 0.151446 0.151384 0.151355 0.151346 0.151336 0.151308 0.151247 0.151167 0.151094 0.151021 0.150949 0.150877 0.150823 0.150798 0.150790 0.150781 0.150756 0.150705 0.150637 0.150574 0.150511 0.150448 0.150385 0.150337 0.150315 0.150308 0.150300 0.150278 0.150235 0.150179 0.150123 0.150067 0.150011 0.149955 0.149912 0.149895 0.149889 0.149883 0.149866 0.149828 0.149779 0.149730 0.149680 0.149631 0.149584 0.149549 0.149533 0.149528 0.149523 0.149508 0.149474 0.149431 0.149387 0.149343 0.149300 0.149261 0.149231 0.149218 0.149213 0.149208 0.149195 0.149165 0.149126 0.149089 0.149052 0.149015 0.148981 0.148955 0.148943 0.148939 0.148935 0.148923 0.148896 0.148862 0.148830 0.148798 0.148766 0.148736 0.148713 0.148702 0.148699 0.148695 0.148684 0.148661 0.148631 0.148604 0.148578 0.148551 0.148524 0.148504 0.148494 0.148491 0.148487 0.148478 0.148458 0.148433 0.148408 0.148384 0.148359 0.148335 0.148316 0.148307 0.148304 
0.172080 0.172065 0.172007 0.171863 0.171673 0.171473 0.171272 0.171071 0.170863 0.170707 0.170641 0.170625 0.170608 0.170542 0.170381 0.170168 0.169952 0.169736 0.169520 0.169298 0.169131 0.169061 0.169043 0.169025 0.168955 0.168786 0.168562 0.168333 0.168105 0.167876 0.167647 0.167475 0.167402 0.167384 0.167366 0.167293 0.167119 0.166888 0.166655 0.166421 0.166188 0.165953 0.165776 0.165702 0.165684 0.165665 0.165591 0.165412 0.165174 0.164938 0.164701 0.164464 0.164223 0.164041 0.163965 0.163946 0.163927 0.163851 0.163667 0.163423 0.163180 0.162938 0.162695 0.162456 0.162276 0.162201 0.162182 0.162163 0.162088 0.161909 0.161671 0.161436 0.161201 0.160967 0.160760 0.160603 0.160552 0.160539 0.160527 0.160477 0.160362 0.160209 0.160069 0.159928 0.159787 0.159660 0.159564 0.159525 0.159515 0.159505 0.159466 0.159381 0.159268 0.159161 0.159053 0.158946 0.158851 0.158780 0.158750 0.158742 0.158735 0.158705 0.158634 0.158540 0.158458 0.158375 0.158293 0.158212 0.158151 0.158127 0.158121 0.158115 0.158092 0.158035 0.157960 0.157889 0.157818 0.157747 0.157678 0.157626 0.157604 0.157598 0.157593 0.157571 0.157524 0.157461 0.157398 0.157335 0.157271 0.157212 0.157167 0.157148 0.157143 0.157139 0.157120 0.157075 0.157016 0.156959 0.156902 0.156845 0.156790 0.156748 0.156730 0.156726 0.156722 0.156704 0.156662 0.156605 0.156551 0.156496 0.156442 0.156386 0.156344 0.156327 0.156323 0.156319 0.156302 0.156261 0.156207 0.156152 0.156096 0.156041 0.155986 0.155944 0.155926 0.155921 
0.211021 0.210959 0.210581 0.209590 0.208270 0.206949 0.205628 0.204307 0.202990 0.202002 0.201627 0.201565 0.201505 0.201139 0.200182 0.198908 0.197689 0.196470 0.195251 0.194087 0.193213 0.192887 0.192834 0.192781 0.192462 0.191667 0.190608 0.189621 0.188635 0.187648 0.186754 0.186083 0.185837 0.185796 0.185756 0.185512 0.184892 0.184067 0.183300 0.182533 0.181766 0.181048 0.180509 0.180315 0.180282 0.180250 0.180057 0.179577 0.178939 0.178405 0.177871 0.177337 0.176882 0.176541 0.176415 0.176394 0.176375 0.176257 0.175965 0.175575 0.175231 0.174888 0.174544 0.174246 0.174022 0.173938 0.173925 0.173911 0.173827 0.173627 0.173361 0.173116 0.172872 0.172627 0.172403 0.172234 0.172172 0.172162 0.172152 0.172090 0.171935 0.171728 0.171534 0.171341 0.171147 0.170962 0.170823 0.170773 0.170765 
