0.010138
13
0.009068
9
0.004534
28
0.010138
15
0.001838
13
A7
0.003333
9
A5
0.002398
13
A3
0.002020
17
A2
0.001618
24
A1
0.001900
21
D1
0.001866
19
D2
0.002156
16
D4
0.002232
15
D7
0.001536
21
D10
0.001538
20
D14
0.001831
17
D17
0.002188
14
D24
