-1.154556 0.430733 3.452376
-1.156553 0.436335 3.440394
-1.158550 0.441938 3.428412
-1.244984 0.684402 2.909838
-1.330497 0.924274 2.396808
-1.416108 1.164132 1.883788
-1.513028 1.403022 1.372640
-1.159773 0.445367 3.421077
-1.244685 0.683564 2.911629
-1.245282 0.685239 2.908046
-1.330198 0.923436 2.398599
-1.330795 0.925111 2.395016
-1.415814 1.163294 1.885580
-1.416403 1.164970 1.881996
-1.512504 1.402198 1.374385
-1.164383 0.458302 3.393413
-1.240075 0.670630 2.939293
-1.249892 0.698174 2.880383
-1.325592 0.910501 2.426263
-1.335398 0.938047 2.367352
-1.411269 1.150351 1.913250
-1.420948 1.177913 1.854326
-1.504931 1.389456 1.401469
-1.174346 0.486251 3.333637
-1.185499 0.517537 3.266723
-1.196653 0.548823 3.199810
-1.207806 0.580109 3.132896
-1.218960 0.611395 3.065983
-1.230113 0.642681 2.999069
-1.259854 0.726123 2.820606
-1.271006 0.757409 2.753692
-1.282161 0.788695 2.686779
-1.293319 0.819980 2.619866
-1.304479 0.851266 2.552953
-1.315635 0.882551 2.486040
-1.345335 0.965999 2.307573
-1.356470 0.997288 2.240657
-1.367631 1.028573 2.173745
-1.378829 1.059853 2.106836
-1.390091 1.091124 2.039934
-1.401313 1.122401 1.973027
-1.430600 1.205904 1.794518
-1.441419 1.237235 1.727571
-1.452375 1.268547 1.660637
-1.464118 1.299752 1.593787
-1.476822 1.330849 1.527066
-1.490835 1.361847 1.460568
-2.046549 1.841562 0.082356
-2.504936 1.971774 -1.304939
-2.948597 2.112117 -2.685121
-3.986109 2.586213 -3.583260
-4.850973 3.416530 -4.395253
-5.177806 4.441842 -5.394907
-5.551023 5.418813 -6.426267
-6.011315 6.302235 -7.505082
-6.590254 7.038311 -8.635483
-7.297456 7.580479 -9.801281
-8.119310 7.900170 -10.974132
-9.022950 8.006399 -12.125880
-1.513552 1.403846 1.370894
-2.045799 1.841220 0.084178
-2.047300 1.841904 0.080534
-2.504493 1.971680 -1.302991
-2.505378 1.971869 -1.306887
-2.947655 2.111766 -2.683391
-2.949539 2.112467 -2.686850
-3.984598 2.585344 -3.582280
-3.987620 2.587083 -3.584239
-4.850376 3.415160 -4.393923
-4.851570 3.417899 -4.396583
-5.177342 4.440469 -5.393529
-5.178270 4.443216 -5.396284
-5.550465 5.417534 -6.424834
-5.551581 5.420092 -6.427699
-6.010620 6.301112 -7.503580
-6.012011 6.303357 -7.506584
-6.589384 7.037425 -8.633916
-6.591137 7.039180 -8.637053
-7.296394 7.579919 -9.799682
-7.298518 7.581039 -9.802881
-8.118128 7.899885 -10.972545
-8.120492 7.900456 -10.975720
-9.021681 8.006383 -12.124335
-1.521641 1.416570 1.343941
-2.034210 1.835939 0.112315
-2.058757 1.846863 0.052288
-2.497658 1.970222 -1.272908
-2.512214 1.973326 -1.336970
-2.933264 2.106437 -2.656591
-2.964083 2.117876 -2.713553
-3.961262 2.571911 -3.567153
-4.010886 2.600803 -3.599211
-4.841158 3.394012 -4.373391
-4.860788 3.439048 -4.417115
-5.170162 4.419267 -5.372251
-5.185436 4.464429 -5.417556
-5.541851 5.397783 -6.402709
-5.560201 5.439835 -6.449829
-5.999881 6.283776 -7.480386
-6.022749 6.320693 -7.529779
-6.575993 7.023648 -8.609735
-6.604773 7.052591 -8.661303
-7.279995 7.571278 -9.774979
-7.314917 7.589680 -9.827584
-8.099885 7.895450 -10.948022
-8.138745 7.904864 -11.000240
-9.002074 8.006127 -12.100474
-1.564415 1.474497 1.222272
-1.646379 1.562090 1.032994
-1.727819 1.640437 0.839505
-1.811546 1.706650 0.642498
-1.896663 1.762583 0.442888
-1.980955 1.810288 0.240804
-2.110294 1.867799 -0.077747
-2.189145 1.895687 -0.285655
-2.266345 1.918771 -0.494772
-2.336675 1.936656 -0.706782
-2.401506 1.950682 -0.920849
-2.463365 1.963057 -1.135887
-2.541466 1.979273 -1.475220
-2.587688 1.988869 -1.694287
-2.643273 2.004890 -1.910766
-2.696349 2.021184 -2.127857
-2.760824 2.042304 -2.340956
-2.865924 2.081404 -2.534792
-3.037106 2.145738 -2.831258
-3.188564 2.207274 -2.983804
-3.348064 2.272718 -3.126941
-3.509908 2.343754 -3.264341
-3.682419 2.427215 -3.380401
-3.854138 2.513138 -3.495952
-4.116483 2.666304 -3.666757
-4.279320 2.774171 -3.776594
-4.433677 2.890451 -3.889984
-4.573316 3.018588 -4.009389
-4.692699 3.155453 -4.140433
-4.790938 3.299464 -4.281041
-4.897415 3.537276 -4.512014
-4.944142 3.695317 -4.663861
-4.988845 3.853344 -4.816348
-5.037722 4.010135 -4.968835
-5.086760 4.166913 -5.121286
-5.137346 4.322109 -5.274842
-5.218339 4.561489 -5.515033
-5.271835 4.713955 -5.670329
-5.327331 4.864465 -5.826828
-5.383919 5.013885 -5.983980
-5.442149 5.161644 -6.142097
-5.502625 5.307094 -6.301506
-5.600030 5.529883 -6.551367
-5.665545 5.669969 -6.713555
-5.733972 5.806849 -6.877281
-5.802857 5.943215 -7.041244
-5.876087 6.074596 -7.207358
-5.951981 6.202841 -7.374745
-6.073484 6.398158 -7.636680
-6.156921 6.517051 -7.807349
-6.241391 6.634610 -7.978430
-6.329703 6.747077 -8.150973
-6.421278 6.855081 -8.324678
-6.515181 6.959799 -8.499148
-6.667823 7.113082 -8.772520
-6.770086 7.205278 -8.949343
-6.874142 7.294633 -9.126572
-6.982745 7.376428 -9.304701
-7.093749 7.454108 -9.483220
-7.206020 7.529515 -9.661906
-7.390155 7.628986 -9.940717
-7.509597 7.690783 -10.119984
-7.633317 7.743595 -10.299193
-7.759234 7.791590 -10.478265
-7.886430 7.836587 -10.657196
-8.016748 7.874062 -10.835614
-8.222685 7.924123 -11.112435
-8.357385 7.950000 -11.289659
-8.494094 7.970067 -11.466096
-8.632071 7.986297 -11.641947
-8.771172 7.998978 -11.817197
-8.912360 8.004676 -11.991139
202 NaN NaN
-1.153558 0.427932 3.458368
-1.168538 0.469957 3.368485
-1.183519 0.511982 3.278603
-1.198501 0.554007 3.188722
-1.213483 0.596032 3.098840
-1.228465 0.638057 3.008958
-1.243444 0.680083 2.919076
-1.258423 0.722108 2.829193
-1.273402 0.764134 2.739311
-1.288388 0.806158 2.649429
-1.303379 0.848182 2.559549
-1.318365 0.890206 2.469667
-1.333331 0.932234 2.379783
-1.348273 0.974264 2.289897
-1.363235 1.016292 2.200013
-1.378274 1.058309 2.110137
-1.393400 1.100315 2.020271
-1.408452 1.142330 1.930396
-1.423220 1.184384 1.840492
-1.437657 1.226482 1.750555
-1.452374 1.268543 1.660646
-1.468147 1.310459 1.570850
-1.485886 1.352152 1.481319
-1.507079 1.393664 1.392463
-1.533358 1.435000 1.304902
-1.565579 1.475978 1.219174
-1.601717 1.516075 1.134588
-1.639139 1.554804 1.049919
-1.675833 1.591731 0.964136
-1.712058 1.626514 0.877265
-1.748649 1.658838 0.789601
-1.786194 1.688508 0.701403
-1.824364 1.715823 0.612714
-1.862617 1.741213 0.523489
-1.900547 1.765021 0.433692
-1.938263 1.787252 0.343401
-1.975995 1.807820 0.252724
-2.013859 1.826666 0.161728
-2.051511 1.843822 0.070311
-2.088494 1.859341 -0.021669
-2.124497 1.873309 -0.114285
-2.159787 1.885958 -0.207365
-2.194783 1.897555 -0.300693
-2.229704 1.908304 -0.394150
-2.263972 1.918137 -0.487948
-2.296803 1.926919 -0.582362
-2.327672 1.934585 -0.677531
-2.357124 1.941358 -0.773218
-2.385983 1.947536 -0.869126
-2.414779 1.953372 -0.965074
-2.442889 1.958940 -1.061240
-2.469396 1.964270 -1.157873
-2.493615 1.969360 -1.255117
-2.515824 1.974096 -1.352858
-2.536546 1.978336 -1.450949
-2.556468 1.982128 -1.549225
-2.576910 1.986257 -1.647379
-2.599348 1.991695 -1.745028
-2.624583 1.999023 -1.841869
-2.650766 2.007243 -1.938389
-2.675430 2.014978 -2.035344
-2.697514 2.021529 -2.133010
-2.721432 2.028818 -2.230178
-2.753041 2.039463 -2.324752
-2.795926 2.055118 -2.414043
-2.845263 2.073650 -2.499426
-2.894996 2.092316 -2.584553
-2.941380 2.109433 -2.671869
-2.988628 2.127005 -2.758621
-3.043049 2.148034 -2.840163
-3.108165 2.174271 -2.911745
-3.179467 2.203537 -2.975976
-3.252088 2.233367 -3.038470
-3.322876 2.262248 -3.103458
-3.393097 2.291438 -3.168925
-3.465213 2.322954 -3.231145
-3.540659 2.358065 -3.287180
-3.618104 2.395570 -3.338793
-3.695973 2.433884 -3.389169
-3.773143 2.471981 -3.440769
-3.849623 2.510721 -3.492915
-3.925710 2.551447 -3.544107
-4.001528 2.595088 -3.593254
-4.076782 2.641041 -3.641152
-4.151144 2.688360 -3.689112
-4.224314 2.736400 -3.738177
-4.296001 2.785625 -3.788244
-4.365900 2.836776 -3.838902
-4.433626 2.890407 -3.889943
-4.498546 2.946425 -3.942052
-4.559918 3.004546 -3.996113
-4.617084 3.064463 -4.052760
-4.669944 3.125981 -4.111825
-4.718567 3.188958 -4.172956
-4.762960 3.253312 -4.235847
-4.802838 3.319094 -4.300264
-4.837826 3.386367 -4.365969
-4.867773 3.455074 -4.432675
-4.893456 3.524846 -4.500057
-4.915904 3.595327 -4.567860
-4.936200 3.666221 -4.635912
-4.955581 3.737226 -4.704118
-4.975323 3.808046 -4.772412
-4.996348 3.878476 -4.840725
-5.018283 3.948650 -4.909017
-5.040461 4.018796 -4.977260
-5.062403 4.089052 -5.045464
-5.084316 4.159235 -5.113754
-5.106558 4.229084 -5.182279
-5.129376 4.298425 -5.251131
-5.152592 4.367415 -5.320201
-5.175931 4.436293 -5.389342
-5.199215 4.505216 -5.458456
-5.222602 4.574031 -5.527643
-5.246332 4.642514 -5.597043
-5.270574 4.710501 -5.666752
-5.295240 4.778073 -5.736716
-5.320184 4.845369 -5.806846
-5.345304 4.912491 -5.877081
-5.370642 4.979393 -5.947447
-5.396279 5.045995 -6.017990
-5.422288 5.112220 -6.088751
-5.448725 5.178008 -6.159760
-5.475640 5.243304 -6.231043
-5.503046 5.308089 -6.302605
-5.530820 5.372488 -6.374373
-5.558807 5.436661 -6.446261
-5.586937 5.500682 -6.518228
-5.615457 5.564287 -6.590410
-5.644688 5.627127 -6.662977
-5.674806 5.688994 -6.736015
-5.705479 5.750245 -6.809341
-5.736254 5.811381 -6.882721
-5.766872 5.872693 -6.956021
-5.797787 5.933670 -7.029473
-5.829621 5.993606 -7.103387
-5.862755 6.052035 -7.177934
-5.896708 6.109492 -7.252868
-5.930809 6.166771 -7.327872
-5.964628 6.224387 -7.402745
-5.998641 6.281773 -7.477706
-6.033531 6.338098 -7.553066
-6.069749 6.392781 -7.629007
-6.106903 6.446279 -7.705341
-6.144411 6.499323 -7.781818
-6.181879 6.552418 -7.858280
-6.219598 6.605190 -7.934841
-6.258015 6.657051 -8.011677
-6.297447 6.707561 -8.088897
-6.337732 6.756914 -8.166425
-6.378603 6.805458 -8.244157
-6.419858 6.853465 -8.322020
-6.461536 6.900876 -8.400023
-6.503732 6.947551 -8.478191
-6.546538 6.993345 -8.556548
-6.590047 7.038107 -8.635113
-6.634348 7.081681 -8.713903
-6.679467 7.124005 -8.792910
-6.725182 7.165400 -8.872066
-6.771223 7.206288 -8.951299
-6.817446 7.246891 -9.030571
-6.864187 7.286662 -9.109961
-6.911888 7.324855 -9.189552
-6.960792 7.361015 -9.269363
-7.010445 7.395877 -9.349291
-7.060250 7.430478 -9.429238
-7.109842 7.465459 -9.509152
-7.159739 7.499899 -9.589111
-7.210657 7.532482 -9.669200
-7.263026 7.562336 -9.749418
-7.316308 7.590413 -9.829680
-7.369772 7.618131 -9.909946
-7.422936 7.646444 -9.990203
-7.476237 7.674480 -10.070467
-7.530322 7.700912 -10.150747
-7.585607 7.724815 -10.231003
-7.641722 7.746903 -10.311205
-7.698142 7.768306 -10.391380
-7.754507 7.789824 -10.471563
-7.811040 7.810950 -10.551731
-7.868099 7.830856 -10.631838
-7.925924 7.848935 -10.711828
-7.984367 7.865492 -10.791700
-8.043199 7.881062 -10.871485
-8.102252 7.896051 -10.951218
-8.161557 7.910373 -11.030886
-8.221193 7.923815 -11.110461
-8.281222 7.936193 -11.189912
-8.341666 7.947416 -11.269220
-8.402535 7.957420 -11.348366
-8.463814 7.966208 -11.427339
-8.525404 7.974057 -11.506170
-8.587187 7.981316 -11.584908
-8.649095 7.988187 -11.663581
-8.711240 7.994310 -11.742128
-8.773773 7.999180 -11.820455
-8.836781 8.002458 -11.898483
-8.900160 8.004451 -11.976254
-8.963768 8.005627 -12.053855
-9.027471 8.006458 -12.131382
-9.091142 8.007412 -12.208936
-9.154647 8.008959 -12.286614
