-2.137374 -1.552216 19.787468
-1.857649 -1.460098 21.036187
-1.577924 -1.367979 22.284906
-1.298199 -1.275860 23.533625
-2.136938 -1.552073 19.789414
-1.858085 -1.460241 21.034240
-1.857213 -1.459954 21.038134
-1.578360 -1.368123 22.282960
-1.577488 -1.367835 22.286853
-1.298635 -1.276004 23.531679
-2.131016 -1.550123 19.815849
-1.864006 -1.462191 21.007806
-1.851291 -1.458004 21.064568
-1.584281 -1.370073 22.256525
-1.571566 -1.365885 22.313287
-1.304556 -1.277954 23.505244
-2.104103 -1.541260 19.935990
-2.061466 -1.527219 20.126325
-2.018830 -1.513177 20.316660
-1.976193 -1.499136 20.506995
-1.933556 -1.485095 20.697329
-1.890919 -1.471054 20.887664
-1.824378 -1.449141 21.184710
-1.781742 -1.435100 21.375044
-1.739105 -1.421059 21.565379
-1.696468 -1.407018 21.755714
-1.653831 -1.392977 21.946049
-1.611194 -1.378936 22.136383
-1.544653 -1.357022 22.433429
-1.502017 -1.342981 22.623764
-1.459380 -1.328940 22.814098
-1.416743 -1.314899 23.004433
-1.374106 -1.300858 23.194768
-1.331469 -1.286817 23.385103
40 NaN NaN
-2.137483 -1.552252 19.786981
-2.115007 -1.544850 19.887315
-2.092531 -1.537449 19.987649
-2.070056 -1.530047 20.087983
-2.047580 -1.522645 20.188316
-2.025104 -1.515244 20.288650
-2.002628 -1.507842 20.388984
-1.980153 -1.500440 20.489318
-1.957677 -1.493039 20.589652
-1.935201 -1.485637 20.689985
-1.912725 -1.478235 20.790319
-1.890250 -1.470834 20.890653
-1.867774 -1.463432 20.990987
-1.845298 -1.456030 21.091321
-1.822823 -1.448629 21.191655
-1.800347 -1.441227 21.291988
-1.777871 -1.433825 21.392322
-1.755395 -1.426424 21.492656
-1.732920 -1.419022 21.592990
-1.710444 -1.411620 21.693324
-1.687968 -1.404219 21.793657
-1.665492 -1.396817 21.893991
-1.643017 -1.389415 21.994325
-1.620541 -1.382014 22.094659
-1.598065 -1.374612 22.194993
-1.575590 -1.367210 22.295327
-1.553114 -1.359809 22.395660
-1.530638 -1.352407 22.495994
-1.508162 -1.345005 22.596328
-1.485687 -1.337603 22.696662
-1.463211 -1.330202 22.796996
-1.440735 -1.322800 22.897329
-1.418259 -1.315398 22.997663
-1.395784 -1.307997 23.097997
-1.373308 -1.300595 23.198331
-1.350832 -1.293193 23.298665
-1.328356 -1.285792 23.398999
-1.305881 -1.278390 23.499332
-1.283405 -1.270988 23.599666
-1.260929 -1.263587 23.700000
-2.137169 -1.552195 19.786596
-1.823228 -1.497493 19.349673
-1.573771 -1.460169 18.871257
-1.387437 -1.438946 18.363849
-1.257176 -1.431235 17.838745
-1.172440 -1.433774 17.304262
-1.122914 -1.443499 16.765389
-1.098317 -1.457572 16.224860
-1.089580 -1.475187 15.683924
-1.088212 -1.497033 15.143064
-1.085582 -1.523606 14.602421
-1.078301 -1.551268 14.061874
-1.069534 -1.570912 13.521010
-1.062913 -1.573221 12.979790
-1.060409 -1.553886 12.438864
-1.060156 -1.520607 11.898590
-1.059749 -1.482761 11.358610
-1.057547 -1.448191 10.818416
-1.055160 -1.418652 10.277925
-1.055046 -1.394251 9.737173
-1.059498 -1.375163 9.196227
-1.068834 -1.361433 8.655180
-1.082525 -1.353190 8.114114
-1.100011 -1.350509 7.573101
-1.120409 -1.352447 7.032186
-1.142643 -1.357308 6.491359
-1.165598 -1.363317 5.950574
-1.188177 -1.368726 5.409767
-1.209259 -1.371753 4.868882
-2.135914 -1.551966 19.785056
-1.824264 -1.497661 19.351375
-1.822191 -1.497325 19.347971
-1.574584 -1.460278 18.873082
-1.572959 -1.460059 18.869433
-1.388001 -1.438994 18.365767
-1.386872 -1.438898 18.361931
-1.257566 -1.431243 17.840707
-1.256786 -1.431228 17.836784
-1.172690 -1.433751 17.306246
-1.172190 -1.433797 17.302278
-1.123040 -1.443453 16.767385
-1.122788 -1.443545 16.763394
-1.098374 -1.457514 16.226858
-1.098260 -1.457630 16.222862
-1.089596 -1.475116 15.685923
-1.089564 -1.475258 15.681925
-1.088214 -1.496943 15.145062
-1.088209 -1.497123 15.141066
-1.085601 -1.523501 14.604419
-1.085563 -1.523711 14.600424
-1.078334 -1.551177 14.063872
-1.078269 -1.551359 14.059876
-1.069564 -1.570867 13.523009
-1.069503 -1.570958 13.519010
-1.062930 -1.573251 12.981789
-1.062896 -1.573192 12.977790
-1.060412 -1.553992 12.440862
-1.060406 -1.553780 12.436867
-1.060156 -1.520744 11.900585
-1.060156 -1.520470 11.896595
-1.059753 -1.482899 11.360605
-1.059745 -1.482623 11.356615
-1.057557 -1.448309 10.820413
-1.057537 -1.448073 10.816420
-1.055167 -1.418752 10.279922
-1.055154 -1.418551 10.275927
-1.055038 -1.394330 9.739171
-1.055055 -1.394173 9.735174
-1.059472 -1.375224 9.198226
-1.059524 -1.375103 9.194228
-1.068792 -1.361474 8.657179
-1.068876 -1.361391 8.653181
-1.082466 -1.353209 8.116113
-1.082584 -1.353172 8.112115
-1.099940 -1.350510 7.575100
-1.100081 -1.350509 7.571103
-1.120330 -1.352434 7.034184
-1.120488 -1.352460 7.030187
-1.142558 -1.357286 6.493357
-1.142727 -1.357329 6.489361
-1.165513 -1.363295 5.952572
-1.165683 -1.363339 5.948576
-1.188095 -1.368709 5.411766
-1.188259 -1.368744 5.407769
-1.209185 -1.371749 4.870881
-2.123832 -1.549765 19.770235
-1.834242 -1.499281 19.367755
-1.812213 -1.495705 19.331591
-1.582402 -1.461332 18.890638
-1.565140 -1.459006 18.851876
-1.393622 -1.439502 18.384167
-1.381441 -1.438436 18.343471
-1.261320 -1.431315 17.859585
-1.253032 -1.431156 17.817906
-1.175096 -1.433532 17.325342
-1.169860 -1.434032 17.283173
-1.124255 -1.443008 16.786589
-1.121573 -1.443990 16.744190
-1.098926 -1.456956 16.246090
-1.097709 -1.458188 16.203630
-1.089747 -1.474431 15.705158
-1.089457 -1.475968 15.662691
-1.088238 -1.496079 15.164290
-1.088186 -1.497988 15.121837
-1.085784 -1.522490 14.623639
-1.085380 -1.524723 14.581204
-1.078637 -1.550264 14.083096
-1.077958 -1.552233 14.040651
-1.069859 -1.570427 13.542249
-1.069209 -1.571397 13.499770
-1.063098 -1.573532 13.001035
-1.062731 -1.572897 12.958545
-1.060445 -1.554996 12.460083
-1.060376 -1.552759 12.417646
-1.060153 -1.522063 11.919788
-1.060159 -1.519152 11.877392
-1.059792 -1.484229 11.379807
-1.059695 -1.481314 11.337411
-1.057653 -1.449442 10.839627
-1.057440 -1.446939 10.797205
-1.055228 -1.419717 10.299146
-1.055093 -1.417587 10.256704
-1.054987 -1.395122 9.758403
-1.055137 -1.393415 9.715941
-1.059220 -1.375804 9.217463
-1.059776 -1.374523 9.174990
-1.068386 -1.361875 8.676419
-1.069281 -1.360991 8.633942
-1.081910 -1.353405 8.135352
-1.083151 -1.352992 8.092877
-1.099260 -1.350513 7.594336
-1.100761 -1.350506 7.551867
-1.119570 -1.352310 7.053416
-1.121253 -1.352592 7.010955
-1.141747 -1.357081 6.512587
-1.143538 -1.357535 6.470132
-1.164697 -1.363081 5.971802
-1.166499 -1.363553 5.929347
-1.187307 -1.368541 5.430997
-1.189036 -1.368896 5.388538
-1.208478 -1.371708 4.890116
-2.088459 -1.543320 19.726837
-2.041140 -1.534814 19.666419
-1.994968 -1.526629 19.605078
-1.949954 -1.518768 19.542833
-1.906474 -1.511332 19.479453
-1.864351 -1.504266 19.415129
-1.783328 -1.491050 19.283428
-1.745042 -1.485019 19.216640
-1.708297 -1.479395 19.148961
-1.672760 -1.474089 19.080618
-1.638427 -1.469097 19.011638
-1.605352 -1.464431 18.942017
-1.543378 -1.456208 18.799967
-1.514300 -1.452561 18.728530
-1.486369 -1.449203 18.656619
-1.459963 -1.446224 18.584117
-1.434750 -1.443539 18.511183
-1.410616 -1.441118 18.437877
-1.365538 -1.437083 18.289420
-1.344976 -1.435522 18.215008
-1.325391 -1.434192 18.140329
-1.306766 -1.433086 18.065401
-1.289169 -1.432220 17.990219
-1.272777 -1.431630 17.914762
-1.242432 -1.431033 17.762556
-1.228588 -1.431017 17.686588
-1.215851 -1.431243 17.610427
-1.203891 -1.431638 17.534143
-1.192661 -1.432189 17.457749
-1.182139 -1.432889 17.381254
-1.163491 -1.434812 17.227183
-1.155205 -1.435968 17.150419
-1.147514 -1.437241 17.073596
-1.140479 -1.438640 16.996711
-1.134133 -1.440168 16.919768
-1.128293 -1.441786 16.842788
-1.118015 -1.445294 16.687960
-1.113755 -1.447179 16.610881
-1.109895 -1.449125 16.533784
-1.106416 -1.451131 16.456670
-1.103303 -1.453196 16.379541
-1.100644 -1.455343 16.302398
-1.096286 -1.459866 16.147316
-1.094541 -1.462216 16.070152
-1.093100 -1.464648 15.992985
-1.091935 -1.467168 15.915816
-1.090970 -1.469760 15.838647
-1.090188 -1.472426 15.761478
-1.089156 -1.478055 15.606373
-1.088841 -1.480989 15.529211
-1.088615 -1.484004 15.452051
-1.088462 -1.487101 15.374894
-1.088370 -1.490316 15.297742
-1.088293 -1.493622 15.220594
-1.088108 -1.500536 15.065538
-1.087948 -1.504135 14.988403
-1.087697 -1.507846 14.911274
-1.087349 -1.511651 14.834149
-1.086893 -1.515547 14.757030
-1.086307 -1.519534 14.679916
-1.084764 -1.527700 14.524929
-1.083864 -1.531776 14.447822
-1.082887 -1.535836 14.370717
-1.081815 -1.539828 14.293608
-1.080689 -1.543740 14.216497
-1.079518 -1.547553 14.139381
-1.077047 -1.554792 13.984359
-1.075782 -1.558097 13.907221
-1.074510 -1.561203 13.830075
-1.073237 -1.564091 13.752921
-1.071976 -1.566692 13.675756
-1.070742 -1.568948 13.598580
-1.068365 -1.572552 13.443431
-1.067252 -1.573826 13.366230
-1.066222 -1.574581 13.289022
-1.065263 -1.574934 13.211810
-1.064382 -1.574864 13.134597
-1.063587 -1.574355 13.057384
-1.062331 -1.571628 12.902204
-1.061831 -1.569637 12.825012
-1.061405 -1.567261 12.747831
-1.061064 -1.564440 12.670665
-1.060794 -1.561225 12.593513
-1.060577 -1.557708 12.516375
-1.060288 -1.549771 12.361369
-1.060214 -1.545368 12.284275
-1.060168 -1.540764 12.207194
-1.060144 -1.535977 12.130123
-1.060138 -1.531024 12.053063
-1.060146 -1.525881 11.976016
-1.060163 -1.515250 11.821170
-1.060161 -1.509853 11.744140
-1.060140 -1.504408 11.667113
-1.060093 -1.498956 11.590087
-1.060016 -1.493521 11.513059
-1.059906 -1.488121 11.436029
-1.059533 -1.477511 11.281183
-1.059277 -1.472378 11.204135
-1.058985 -1.467336 11.127081
-1.058660 -1.462389 11.050022
-1.058303 -1.457571 10.972954
-1.057931 -1.452846 10.895880
-1.057158 -1.443630 10.740946
-1.056774 -1.439217 10.663854
-1.056403 -1.434906 10.586756
-1.056048 -1.430690 10.509653
-1.055715 -1.426568 10.432545
-1.055416 -1.422562 10.355431
-1.054949 -1.414838 10.200414
-1.054787 -1.411140 10.123283
-1.054683 -1.407545 10.046148
-1.054664 -1.404080 9.969007
-1.054714 -1.400712 9.891862
-1.054840 -1.397441 9.814712
-1.055376 -1.391198 9.659628
-1.055805 -1.388263 9.582466
-1.056330 -1.385426 9.505301
-1.056953 -1.382687 9.428133
-1.057696 -1.380073 9.350962
-1.058548 -1.377574 9.273788
-1.060540 -1.372853 9.118663
-1.061678 -1.370667 9.041483
-1.062931 -1.368612 8.964302
-1.064269 -1.366657 8.887119
-1.065692 -1.364802 8.809936
-1.067201 -1.363050 8.732751
-1.070548 -1.359919 8.577609
-1.072333 -1.358515 8.500423
-1.074195 -1.357212 8.423238
-1.076158 -1.356044 8.346052
-1.078204 -1.354992 8.268868
-1.080323 -1.354041 8.191684
-1.084812 -1.352464 8.036546
-1.087173 -1.351870 7.959366
-1.089600 -1.351381 7.882186
-1.092094 -1.350994 7.805009
-1.094654 -1.350716 7.727833
-1.097298 -1.350568 7.650659
-1.102779 -1.350538 7.495546
-1.105585 -1.350650 7.418378
-1.108458 -1.350868 7.341213
-1.111378 -1.351161 7.264049
-1.114341 -1.351522 7.186888
-1.117344 -1.351946 7.109729
-1.123513 -1.353012 6.954645
-1.126633 -1.353622 6.877491
-1.129781 -1.354277 6.800339
-1.132957 -1.354978 6.723189
-1.136162 -1.355725 6.646040
-1.139386 -1.356501 6.568892
-1.145914 -1.358137 6.413828
-1.149183 -1.358986 6.336683
-1.152459 -1.359846 6.259538
-1.155740 -1.360713 6.182393
-1.159023 -1.361584 6.105249
-1.162305 -1.362452 6.028105
-1.168883 -1.364169 5.873043
-1.172143 -1.365003 5.795898
-1.175388 -1.365813 5.718751
-1.178613 -1.366590 5.641603
-1.181818 -1.367337 5.564455
-1.185002 -1.368050 5.487305
-1.191313 -1.369341 5.332228
-1.194402 -1.369904 5.255073
-1.197458 -1.370413 5.177916
-1.200479 -1.370865 5.100758
-1.203447 -1.371234 5.023596
-1.206368 -1.371529 4.946433
156 NaN NaN
-2.137483 -1.552252 19.786981
-2.074207 -1.540723 19.709353
-2.013057 -1.529795 19.629954
-1.954080 -1.519474 19.548848
-1.897316 -1.509765 19.466104
-1.842795 -1.500670 19.381797
-1.790537 -1.492186 19.296006
-1.740555 -1.484312 19.208812
-1.692850 -1.477041 19.120300
-1.647415 -1.470365 19.030555
-1.604234 -1.464274 18.939663
-1.563284 -1.458755 18.847708
-1.524533 -1.453796 18.754773
-1.487943 -1.449380 18.660939
-1.453468 -1.445491 18.566285
-1.421059 -1.442111 18.470883
-1.390660 -1.439221 18.374806
-1.362214 -1.436801 18.278120
-1.335657 -1.434831 18.180888
-1.310924 -1.433291 18.083168
-1.287951 -1.432160 17.985013
-1.266667 -1.431417 17.886475
-1.247005 -1.431041 17.787598
-1.228895 -1.431011 17.688424
-1.212266 -1.431307 17.588992
-1.197050 -1.431908 17.489335
-1.183176 -1.432794 17.389484
-1.170576 -1.433944 17.289467
-1.159182 -1.435340 17.189308
-1.148926 -1.436960 17.089030
-1.139742 -1.438787 16.988652
-1.131562 -1.440801 16.888190
-1.124323 -1.442983 16.787660
-1.117959 -1.445314 16.687073
-1.112407 -1.447777 16.586442
-1.107604 -1.450354 16.485775
-1.103494 -1.453042 16.385080
-1.100022 -1.455845 16.284364
-1.097136 -1.458768 16.183634
-1.094779 -1.461815 16.082893
-1.092898 -1.464990 15.982146
-1.091436 -1.468298 15.881396
-1.090338 -1.471743 15.780646
-1.089549 -1.475330 15.679898
-1.089011 -1.479063 15.579154
-1.088668 -1.482947 15.478415
-1.088466 -1.486985 15.377681
-1.088346 -1.491182 15.276954
-1.088252 -1.495542 15.176234
-1.088129 -1.500070 15.075521
-1.087919 -1.504769 14.974816
-1.087567 -1.509644 14.874120
-1.087018 -1.514699 14.773433
-1.086252 -1.519904 14.672756
-1.085293 -1.525203 14.572085
-1.084163 -1.530533 14.471418
-1.082887 -1.535835 14.370751
-1.081487 -1.541046 14.270081
-1.079988 -1.546107 14.169404
-1.078412 -1.550957 14.068718
-1.076783 -1.555535 13.968021
-1.075125 -1.559779 13.867309
-1.073461 -1.563630 13.766582
-1.071814 -1.567026 13.665838
-1.070208 -1.569906 13.565077
-1.068666 -1.572208 13.464301
-1.067213 -1.573870 13.363511
-1.065872 -1.574833 13.262710
-1.064666 -1.575033 13.161903
-1.063619 -1.574409 13.061095
-1.062744 -1.572937 12.960296
-1.062027 -1.570667 12.859509
-1.061454 -1.567660 12.758741
-1.061008 -1.563977 12.657995
-1.060674 -1.559679 12.557273
-1.060436 -1.554827 12.456575
-1.060280 -1.549481 12.355902
-1.060188 -1.543702 12.255254
-1.060146 -1.537551 12.154627
-1.060138 -1.531088 12.054019
-1.060149 -1.524373 11.953429
-1.060162 -1.517467 11.852851
-1.060163 -1.510429 11.752282
-1.060136 -1.503320 11.651718
-1.060065 -1.496200 11.551155
-1.059936 -1.489129 11.450589
-1.059731 -1.482166 11.350015
-1.059441 -1.475364 11.249431
-1.059076 -1.468732 11.148835
-1.058652 -1.462274 11.048228
-1.058185 -1.455988 10.947611
-1.057690 -1.449876 10.846983
-1.057185 -1.443939 10.746344
-1.056684 -1.438177 10.645696
-1.056204 -1.432591 10.545037
-1.055760 -1.427183 10.444368
-1.055370 -1.421952 10.343690
-1.055049 -1.416899 10.243003
-1.054812 -1.412026 10.142306
-1.054677 -1.407333 10.041601
-1.054658 -1.402820 9.940887
-1.054773 -1.398489 9.840166
-1.055037 -1.394340 9.739437
-1.055465 -1.390375 9.638701
-1.056074 -1.386592 9.537959
-1.056865 -1.382994 9.437212
-1.057836 -1.379582 9.336459
-1.058982 -1.376355 9.235703
-1.060300 -1.373314 9.134943
-1.061786 -1.370461 9.034179
-1.063437 -1.367795 8.933413
-1.065249 -1.365318 8.832645
-1.067218 -1.363030 8.731876
-1.069341 -1.360932 8.631105
-1.071614 -1.359024 8.530334
-1.074034 -1.357308 8.429563
-1.076597 -1.355783 8.328793
-1.079300 -1.354452 8.228023
-1.082138 -1.353314 8.127255
-1.085108 -1.352370 8.026488
-1.088207 -1.351620 7.925724
-1.091431 -1.351066 7.824962
-1.094775 -1.350703 7.724204
-1.098231 -1.350518 7.623449
-1.101792 -1.350501 7.522697
-1.105452 -1.350640 7.421949
-1.109203 -1.350924 7.321204
-1.113038 -1.351342 7.220463
-1.116949 -1.351882 7.119726
-1.120930 -1.352532 7.018992
-1.124974 -1.353283 6.918261
-1.129073 -1.354121 6.817533
-1.133220 -1.355036 6.716808
-1.137408 -1.356017 6.616085
-1.141630 -1.357051 6.515364
-1.145879 -1.358128 6.414645
-1.150148 -1.359237 6.313927
-1.154429 -1.360365 6.213209
-1.158715 -1.361502 6.112492
-1.163000 -1.362636 6.011775
-1.167276 -1.363756 5.911057
-1.171535 -1.364851 5.810338
-1.175772 -1.365909 5.709618
-1.179978 -1.366918 5.608896
-1.184147 -1.367868 5.508172
-1.188272 -1.368747 5.407446
-1.192344 -1.369543 5.306716
-1.196358 -1.370246 5.205984
-1.200306 -1.370844 5.105249
-1.204181 -1.371325 5.004509
-1.207975 -1.371679 4.903767
-1.211682 -1.371893 4.803020
-1.215295 -1.371957 4.702271
-1.218805 -1.371859 4.601517
-1.222207 -1.371588 4.500760
-1.225493 -1.371132 4.400000
-2.137838 -1.552603 19.786962
-3.400981 -1.740011 19.764840
-4.155631 -0.646329 19.776189
-4.222303 0.723090 19.778111
-4.294288 2.093544 19.780043
-4.374342 3.463560 19.780782
-4.452136 4.832441 19.835116
-4.626132 6.191446 19.901709
-4.990791 7.510321 19.978256
-5.626100 8.719743 20.066244
-6.541556 9.732853 20.161951
-7.663471 10.513168 20.258968
-8.904324 11.088809 20.353438
-10.207821 11.506294 20.444339
-2.139260 -1.554008 19.786887
-3.399213 -1.740946 19.764835
-3.402749 -1.739076 19.764846
-4.155308 -0.648303 19.776179
-4.155954 -0.644356 19.776199
-4.222167 0.721095 19.778107
-4.222440 0.725086 19.778116
-4.294177 2.091547 19.780041
-4.294399 2.095541 19.780045
-4.374218 3.461564 19.780778
-4.374461 3.465557 19.780797
-4.451975 4.830450 19.835027
-4.452297 4.834433 19.835204
-4.625756 6.189485 19.901605
-4.626508 6.193408 19.901813
-4.990085 7.508453 19.978137
-4.991496 7.512189 19.978376
-5.624957 8.718108 20.066108
-5.627244 8.721378 20.066379
-6.540059 9.731535 20.161809
-6.543066 9.734157 20.162092
-7.661733 10.512189 20.258828
-7.665210 10.514147 20.259108
-8.902459 11.088101 20.353303
-8.906190 11.089516 20.353573
-10.205894 11.505776 20.444209
-2.159839 -1.574337 19.785793
-3.373624 -1.754479 19.764756
-3.428338 -1.725543 19.764924
-4.150118 -0.676772 19.776020
-4.160635 -0.615790 19.776346
-4.220192 0.692215 19.778045
-4.224374 0.753968 19.778176
-4.292571 2.062644 19.780010
-4.296005 2.124444 19.780076
-4.372421 3.432673 19.780735
-4.376190 3.494452 19.781016
-4.449647 4.801625 19.833749
-4.454625 4.863258 19.836483
-4.620428 6.161072 19.900108
-4.631947 6.221800 19.903316
-4.979872 7.481423 19.976404
-5.001863 7.539159 19.980115
-5.608406 8.694440 20.064147
-5.643795 8.745046 20.068340
-6.518391 9.712450 20.159757
-6.565055 9.752872 20.164146
-7.636572 10.498020 20.256800
-7.690371 10.528316 20.261135
-8.875492 11.077762 20.351347
-8.933196 11.099754 20.355527
-10.177997 11.498282 20.442327
-2.258381 -1.661841 19.781036
-2.436898 -1.769733 19.774833
-2.634136 -1.838084 19.770238
-2.840990 -1.866970 19.767112
-3.049669 -1.856779 19.765288
-3.252680 -1.807272 19.764619
-3.538494 -1.652860 19.765553
-3.696905 -1.516499 19.767066
-3.835809 -1.360237 19.769032
-3.954675 -1.188260 19.771221
-4.050394 -1.002440 19.773354
-4.119608 -0.805224 19.775141
-4.178253 -0.484925 19.776917
-4.192323 -0.276186 19.777389
-4.195247 -0.066956 19.777427
-4.194981 0.142305 19.777326
-4.199717 0.351500 19.777414
-4.211308 0.560436 19.777765
-4.232632 0.885787 19.778425
-4.243804 1.094750 19.778741
-4.253699 1.303778 19.779009
-4.263667 1.512802 19.779291
-4.274244 1.721797 19.779588
-4.285348 1.930764 19.779862
-4.303379 2.256316 19.780232
-4.315125 2.465248 19.780590
-4.326804 2.674183 19.781143
-4.338637 2.883110 19.781598
-4.351049 3.092004 19.781469
-4.364154 3.300854 19.780776
-4.383849 3.626298 19.782542
-4.394532 3.835202 19.788298
-4.404092 4.044044 19.797436
-4.413969 4.252801 19.808093
-4.425581 4.461483 19.818442
-4.439565 4.670060 19.827932
-4.465989 4.994711 19.842444
-4.485940 5.202789 19.852223
-4.508671 5.410567 19.862285
-4.534593 5.617963 19.872491
-4.564054 5.824879 19.882826
-4.597358 6.031201 19.893350
-4.657628 6.351171 19.910221
-4.702239 6.555314 19.921367
-4.751883 6.758277 19.932762
-4.806932 6.959826 19.944418
-4.867717 7.159702 19.956347
-4.934481 7.357642 19.968554
-5.051060 7.661466 19.988130
-5.134235 7.853037 20.001045
-5.224149 8.041519 20.014229
-5.320923 8.226553 20.027670
-5.424602 8.407791 20.041354
-5.535158 8.584899 20.055263
-5.720888 8.851907 20.077331
-5.848663 9.016990 20.091716
-5.982782 9.176946 20.106242
-6.122960 9.331607 20.120882
-6.268889 9.480845 20.135609
-6.420245 9.624569 20.150400
-6.666036 9.837479 20.173517
-6.829648 9.967077 20.188369
-6.997428 10.091236 20.203211
-7.169034 10.210056 20.218028
-7.344143 10.323658 20.232806
-7.522448 10.432186 20.247535
-7.806035 10.591409 20.270363
-7.991283 10.687633 20.284926
-8.178791 10.779386 20.299414
-8.368349 10.866841 20.313824
-8.559762 10.950173 20.328153
-8.752852 11.029558 20.342398
-9.056668 11.145796 20.364426
-9.253356 11.215842 20.378454
-9.451222 11.282509 20.392399
-9.650160 11.345922 20.406258
-9.850074 11.406211 20.420033
-10.050856 11.463558 20.433726
178 NaN NaN
-2.137483 -1.552252 19.786981
-2.209193 -1.623091 19.783169
-2.288386 -1.685480 19.779735
-2.373881 -1.738937 19.776687
-2.464487 -1.783215 19.774022
-2.559071 -1.818235 19.771729
-2.656588 -1.844021 19.769793
-2.756088 -1.860636 19.768193
-2.856691 -1.868142 19.766912
-2.957566 -1.866569 19.765930
-3.057889 -1.855906 19.765231
-3.156813 -1.836094 19.764799
-3.253428 -1.807047 19.764618
-3.346738 -1.768698 19.764674
-3.435923 -1.721532 19.764948
-3.520580 -1.666642 19.765412
-3.600550 -1.605117 19.766040
-3.675840 -1.537940 19.766805
-3.746556 -1.465960 19.767682
-3.812844 -1.389880 19.768649
-3.874643 -1.310113 19.769680
-3.931618 -1.226833 19.770746
-3.983389 -1.140223 19.771813
-4.029554 -1.050500 19.772850
-4.069695 -0.957927 19.773821
-4.103407 -0.862824 19.774694
-4.130729 -0.765687 19.775448
-4.152229 -0.667094 19.776082
-4.168546 -0.567507 19.776594
-4.180327 -0.467280 19.776985
-4.188204 -0.366668 19.777255
-4.192793 -0.265851 19.777404
-4.194842 -0.164948 19.777449
-4.195259 -0.064024 19.777426
-4.194976 0.036901 19.777373
-4.194931 0.137826 19.777326
-4.196066 0.238744 19.777324
-4.199148 0.339621 19.777397
-4.203977 0.440430 19.777538
-4.210021 0.541173 19.777725
-4.216749 0.641874 19.777937
-4.223635 0.742564 19.778153
-4.230157 0.843278 19.778353
-4.236023 0.944033 19.778525
-4.241351 1.044817 19.778674
-4.246302 1.145621 19.778809
-4.251037 1.246435 19.778937
-4.255718 1.347252 19.779065
-4.260498 1.448064 19.779199
-4.265433 1.548869 19.779342
-4.270514 1.649666 19.779486
-4.275726 1.750457 19.779629
-4.281058 1.851241 19.779764
-4.286495 1.952020 19.779888
-4.292024 2.052794 19.779999
-4.297623 2.153564 19.780108
-4.303267 2.254332 19.780229
-4.308934 2.355098 19.780377
-4.314600 2.455864 19.780567
-4.320241 2.556631 19.780811
-4.325863 2.657400 19.781097
-4.331511 2.758167 19.781371
-4.337234 2.858929 19.781578
-4.343080 2.959685 19.781662
-4.349098 3.060431 19.781567
-4.355323 3.161164 19.781256
-4.361687 3.261888 19.780868
-4.368064 3.362611 19.780632
-4.374329 3.463342 19.780780
-4.380354 3.564084 19.781545
-4.386014 3.664837 19.783159
-4.391206 3.765594 19.785812
-4.396019 3.866340 19.789409
-4.400616 3.967068 19.793736
-4.405164 4.067774 19.798577
-4.409827 4.168461 19.803716
-4.414771 4.269130 19.808941
-4.420161 4.369782 19.814035
-4.426109 4.470416 19.818872
-4.432617 4.571025 19.823502
-4.439674 4.671602 19.828001
-4.447266 4.772144 19.832441
-4.455383 4.872643 19.836899
-4.464015 4.973096 19.841443
-4.473185 5.073496 19.846094
-4.482940 5.173837 19.850834
-4.493329 5.274111 19.855645
-4.504398 5.374309 19.860510
-4.516195 5.474423 19.865411
-4.528765 5.574441 19.870335
-4.542145 5.674353 19.875285
-4.556367 5.774147 19.880269
-4.571468 5.873809 19.885293
-4.587480 5.973327 19.890364
-4.604439 6.072685 19.895490
-4.622381 6.171867 19.900672
-4.641345 6.270855 19.905913
-4.661371 6.369632 19.911211
-4.682498 6.468175 19.916567
-4.704765 6.566464 19.921981
-4.728210 6.664475 19.927452
-4.752870 6.762185 19.932983
-4.778780 6.859566 19.938574
-4.805978 6.956593 19.944227
-4.834498 7.053235 19.949942
-4.864375 7.149463 19.955722
-4.895641 7.245244 19.961567
-4.928325 7.340546 19.967476
-4.962458 7.435336 19.973451
-4.998066 7.529576 19.979490
-5.035178 7.623231 19.985594
-5.073820 7.716260 19.991763
-5.114008 7.808628 19.997996
-5.155759 7.900296 20.004291
-5.199087 7.991224 20.010648
-5.244007 8.081372 20.017066
-5.290532 8.170698 20.023543
-5.338667 8.259163 20.030079
-5.388410 8.346729 20.036670
-5.439757 8.433360 20.043315
-5.492705 8.519018 20.050012
-5.547251 8.603664 20.056759
-5.603385 8.687261 20.063552
-5.661090 8.769778 20.070390
-5.720343 8.851187 20.077269
-5.781122 8.931459 20.084187
-5.843406 9.010567 20.091141
-5.907173 9.088481 20.098127
-5.972393 9.165180 20.105144
-6.039030 9.240649 20.112188
-6.107050 9.314872 20.119256
-6.176417 9.387835 20.126345
-6.247098 9.459524 20.133452
-6.319056 9.529930 20.140575
-6.392252 9.599046 20.147711
-6.466643 9.666874 20.154857
-6.542190 9.733411 20.162011
-6.618853 9.798659 20.169170
-6.696593 9.862620 20.176332
-6.775370 9.925297 20.183496
-6.855144 9.986702 20.190658
-6.935876 10.046843 20.197817
-7.017526 10.105732 20.204972
-7.100057 10.163379 20.212121
-7.183433 10.219800 20.219261
-7.267617 10.275007 20.226392
-7.352575 10.329018 20.233513
-7.438273 10.381850 20.240622
-7.524677 10.433519 20.247719
-7.611756 10.484045 20.254801
-7.699480 10.533446 20.261869
-7.787819 10.581739 20.268921
-7.876746 10.628946 20.275958
-7.966232 10.675085 20.282977
-8.056251 10.720176 20.289980
-8.146779 10.764241 20.296964
-8.237793 10.807298 20.303930
-8.329269 10.849367 20.310878
-8.421185 10.890466 20.317807
-8.513522 10.930617 20.324717
-8.606258 10.969839 20.331607
-8.699375 11.008151 20.338478
-8.792856 11.045572 20.345330
-8.886682 11.082121 20.352162
-8.980839 11.117815 20.358974
-9.075309 11.152674 20.365766
-9.170077 11.186717 20.372538
-9.265131 11.219960 20.379291
-9.360457 11.252418 20.386024
-9.456043 11.284107 20.392737
-9.551876 11.315044 20.399431
-9.647945 11.345244 20.406105
-9.744239 11.374725 20.412760
-9.840747 11.403502 20.419395
-9.937458 11.431592 20.426011
-10.034363 11.459011 20.432609
-10.131452 11.485778 20.439188
-10.228715 11.511907 20.445748
-1.577501 -1.367726 22.284822
-1.440066 -1.284238 22.257569
-1.305342 -1.196262 22.230932
-1.174800 -1.101940 22.205240
-1.048904 -1.001265 22.180588
-0.930319 -0.891741 22.157557
-0.820701 -0.772949 22.136495
-0.725551 -0.641872 22.118574
-0.649672 -0.498525 22.104785
-0.603414 -0.342737 22.097263
-0.592792 -0.180690 22.097169
-0.621861 -0.020898 22.105228
-0.683506 0.128896 22.119873
-0.769823 0.265669 22.139437
-0.872817 0.389866 22.162275
-0.987272 0.503247 22.187337
-1.109921 0.607338 22.213968
-1.575808 -1.366716 22.284486
-1.441737 -1.285286 22.257900
-1.438396 -1.283189 22.257238
-1.306956 -1.197399 22.231250
-1.303728 -1.195125 22.230614
-1.176378 -1.103130 22.205550
-1.173222 -1.100751 22.204930
-1.050384 -1.002578 22.180876
-1.047424 -0.999951 22.180300
-0.931733 -0.893129 22.157831
-0.928905 -0.890353 22.157284
-0.821925 -0.774513 22.136727
-0.819477 -0.771384 22.136263
-0.726639 -0.643538 22.118777
-0.724464 -0.640205 22.118372
-0.650360 -0.500399 22.104903
-0.648983 -0.496651 22.104667
-0.603831 -0.344692 22.097324
-0.602998 -0.340781 22.097203
-0.592578 -0.182677 22.097099
-0.593007 -0.178703 22.097239
-0.621347 -0.022827 22.105097
-0.622376 -0.018970 22.105359
-0.682529 0.127166 22.119649
-0.684484 0.130627 22.120097
-0.768684 0.264046 22.139181
-0.770963 0.267293 22.139693
-0.871454 0.388433 22.161976
-0.874180 0.391299 22.162575
-0.985832 0.501895 22.187023
-0.988712 0.504598 22.187651
-1.108369 0.606122 22.213632
-1.569706 -1.363073 22.283275
-1.447758 -1.289066 22.259092
-1.432374 -1.279409 22.256046
-1.312845 -1.201390 22.232413
-1.297910 -1.191025 22.229468
-1.182064 -1.107417 22.206667
-1.167535 -1.096464 22.203813
-1.055736 -1.007294 22.181918
-1.042088 -0.995216 22.179261
-0.936829 -0.898132 22.158816
-0.923809 -0.885351 22.156298
-0.826337 -0.780152 22.137564
-0.815065 -0.765745 22.135426
-0.730558 -0.649544 22.119507
-0.720545 -0.634199 22.117641
-0.652842 -0.507154 22.105327
-0.646502 -0.489896 22.104243
-0.605331 -0.351739 22.097542
-0.601498 -0.333734 22.096984
-0.591803 -0.189840 22.096847
-0.593781 -0.171540 22.097491
-0.619492 -0.029777 22.104625
-0.624231 -0.012020 22.105831
-0.679004 0.120929 22.118842
-0.688008 0.136863 22.120904
-0.764576 0.258194 22.138258
-0.775070 0.273145 22.140615
-0.866541 0.383269 22.160896
-0.879093 0.396463 22.163655
-0.980641 0.497023 22.185890
-0.993903 0.509470 22.188785
-1.102776 0.601738 22.212423
-1.555473 -1.354576 22.280451
-1.536672 -1.343352 22.276720
-1.517871 -1.332128 22.272990
-1.499070 -1.320904 22.269259
-1.480358 -1.309528 22.265548
-1.461804 -1.297882 22.261874
-1.418328 -1.270593 22.253264
-1.399774 -1.258947 22.249590
-1.381470 -1.246896 22.245972
-1.363205 -1.234784 22.242363
-1.344939 -1.222672 22.238754
-1.326673 -1.210559 22.235145
-1.284339 -1.181464 22.226794
-1.266413 -1.168833 22.223261
-1.248486 -1.156202 22.219729
-1.230559 -1.143571 22.216197
-1.212852 -1.130627 22.212714
-1.195329 -1.117417 22.209272
-1.154270 -1.086464 22.201208
-1.136773 -1.073221 22.197772
-1.119737 -1.059362 22.194439
-1.102702 -1.045503 22.191106
-1.085667 -1.031644 22.187774
-1.068631 -1.017785 22.184441
-1.029643 -0.984171 22.176838
-1.013203 -0.969581 22.173637
-0.996763 -0.954992 22.170437
-0.980323 -0.940402 22.167236
-0.964418 -0.925214 22.164154
-0.948716 -0.909800 22.161116
-0.911922 -0.873682 22.153998
-0.896437 -0.858051 22.151008
-0.881662 -0.841710 22.148173
-0.866887 -0.825369 22.145338
-0.852112 -0.809027 22.142504
-0.837337 -0.792686 22.139669
-0.804774 -0.752591 22.133475
-0.791180 -0.735215 22.130897
-0.777585 -0.717839 22.128319
-0.763991 -0.700463 22.125741
-0.751777 -0.682059 22.123461
-0.739701 -0.663553 22.121211
-0.711402 -0.620190 22.115938
-0.700146 -0.601188 22.113863
-0.690022 -0.581503 22.112030
-0.679899 -0.561817 22.110198
-0.669775 -0.542131 22.108365
-0.659651 -0.522445 22.106533
-0.640713 -0.474140 22.103253
-0.633067 -0.453326 22.101946
-0.625421 -0.432513 22.100639
-0.618077 -0.411609 22.099395
-0.613454 -0.389893 22.098723
-0.608831 -0.368178 22.098051
-0.597998 -0.317295 22.096475
-0.595487 -0.295294 22.096242
-0.594307 -0.273113 22.096286
-0.593127 -0.250933 22.096329
-0.591947 -0.228752 22.096373
-0.590767 -0.206571 22.096417
-0.595587 -0.154833 22.098079
-0.597973 -0.132763 22.098856
-0.600358 -0.110693 22.099634
-0.603735 -0.088818 22.100613
-0.609450 -0.067403 22.102068
-0.615165 -0.045988 22.103523
-0.628557 0.004191 22.106933
-0.636581 0.024779 22.108853
-0.645144 0.045174 22.110882
-0.653706 0.065568 22.112911
-0.662269 0.085963 22.114940
-0.670832 0.106358 22.116969
-0.696228 0.151411 22.122787
-0.707087 0.170627 22.125274
-0.717946 0.189844 22.127761
-0.729685 0.208480 22.130422
-0.742340 0.226512 22.133265
-0.754996 0.244543 22.136107
-0.784650 0.286795 22.142767
-0.798701 0.303714 22.145882
-0.812751 0.320634 22.148997
-0.826801 0.337553 22.152112
-0.840851 0.354473 22.155228
-0.855082 0.371224 22.158378
-0.890552 0.408508 22.166173
-0.905690 0.424419 22.169499
-0.920827 0.440330 22.172826
-0.936544 0.455634 22.176264
-0.952538 0.470646 22.179755
-0.968533 0.485659 22.183246
-1.006137 0.520688 22.191452
-1.022817 0.534902 22.195074
-1.039496 0.549117 22.198697
-1.056176 0.563332 22.202319
-1.072855 0.577546 22.205941
-1.089729 0.591513 22.209601
26 NaN NaN
-1.577924 -1.367979 22.284906
-1.487027 -1.313714 22.266869
-1.397325 -1.257410 22.249104
-1.309016 -1.198851 22.231656
-1.222349 -1.137786 22.214579
-1.137636 -1.073924 22.197941
-1.055280 -1.006923 22.181829
-0.975804 -0.936391 22.166357
-0.899896 -0.861877 22.151671
-0.828475 -0.782885 22.137969
-0.762766 -0.698898 22.125509
-0.704400 -0.609460 22.114633
-0.655481 -0.514336 22.105778
-0.618540 -0.413784 22.099463
-0.596210 -0.308899 22.096216
-0.590513 -0.201782 22.096426
-0.602033 -0.095195 22.100179
-0.629639 0.008245 22.107208
-0.671010 0.106781 22.117011
-0.723483 0.199644 22.129030
-0.784649 0.286793 22.142766
-0.852563 0.368576 22.157825
-0.925737 0.445492 22.173905
-1.003058 0.518064 22.190783
-1.083693 0.586782 22.208295
-1.167013 0.652084 22.226316
-1.822794 -1.497264 19.349772
-1.626488 -1.390723 19.395457
-1.435427 -1.276327 19.444228
-1.251471 -1.152381 19.496742
-1.077530 -1.016645 19.553858
-0.918369 -0.866222 19.616674
-0.782043 -0.697759 19.686423
-0.681831 -0.508956 19.763843
-0.635727 -0.303068 19.847367
-0.656389 -0.093419 19.931450
-0.738132 0.103656 20.009599
-0.863225 0.280678 20.079057
-1.015867 0.438325 20.140325
-1.186072 0.579773 20.194821
-1.821062 -1.496346 19.350166
-1.628180 -1.391704 19.395038
-1.624795 -1.389743 19.395875
-1.437065 -1.277383 19.443780
-1.433789 -1.275271 19.444677
-1.253036 -1.153529 19.496258
-1.249907 -1.151234 19.497226
-1.078990 -1.017906 19.553329
-1.076071 -1.015384 19.554386
-0.919672 -0.867623 19.616091
-0.917066 -0.864821 19.617256
-0.783104 -0.699327 19.685777
-0.780983 -0.696191 19.687070
-0.682515 -0.510696 19.763133
-0.681147 -0.507216 19.764554
-0.635884 -0.304917 19.846620
-0.635571 -0.301219 19.848113
-0.655970 -0.095235 19.930725
-0.656808 -0.091602 19.932175
-0.737248 0.101988 20.008940
-0.739016 0.105325 20.010258
-0.862030 0.279184 20.078473
-0.864420 0.282171 20.079641
-1.014473 0.436988 20.139807
-1.017262 0.439662 20.140843
-1.184500 0.578619 20.194379
-1.812848 -1.491996 19.352034
-1.636227 -1.396311 19.393068
-1.616775 -1.385096 19.397860
-1.444831 -1.282387 19.441655
-1.426023 -1.270267 19.446802
-1.260453 -1.158969 19.493962
-1.242490 -1.145794 19.499521
-1.085909 -1.023883 19.550825
-1.069152 -1.009407 19.556890
-0.925848 -0.874263 19.613330
-0.910890 -0.858180 19.620017
-0.788129 -0.706759 19.682714
-0.775958 -0.688759 19.690132
-0.685755 -0.518945 19.759767
-0.677907 -0.498968 19.767920
-0.636625 -0.313681 19.843082
-0.634830 -0.292456 19.851651
-0.653983 -0.103844 19.927288
-0.658794 -0.082994 19.935611
-0.733058 0.094078 20.005816
-0.743206 0.113234 20.013381
-0.856364 0.272106 20.075705
-0.870086 0.289249 20.082409
-1.007866 0.430650 20.137350
-1.024072 0.445809 20.143220
-1.177259 0.572908 20.192185
-1.792284 -1.481106 19.356711
-1.764982 -1.466647 19.362920
-1.737679 -1.452188 19.369130
-1.710572 -1.437421 19.375460
-1.683569 -1.422489 19.381856
-1.656566 -1.407558 19.388251
-1.596692 -1.373460 19.402830
-1.570031 -1.358012 19.409428
-1.543369 -1.342565 19.416027
-1.517069 -1.326595 19.422830
-1.490799 -1.310582 19.429650
-1.464530 -1.294569 19.436470
-1.406578 -1.257737 19.452122
-1.380764 -1.241102 19.459186
-1.355052 -1.224334 19.466303
-1.329770 -1.207013 19.473635
-1.304487 -1.189691 19.480968
-1.279204 -1.172370 19.488301
-1.223920 -1.132174 19.505268
-1.199265 -1.114092 19.512898
-1.174960 -1.095616 19.520682
-1.151056 -1.076689 19.528641
-1.127151 -1.057761 19.536600
-1.103247 -1.038834 19.544560
-1.051828 -0.994442 19.563161
-1.028829 -0.974574 19.571486
-1.006645 -0.953933 19.580111
-0.984751 -0.933018 19.588841
-0.962857 -0.912103 19.597572
-0.941312 -0.890891 19.606417
-0.895426 -0.841553 19.626930
-0.874913 -0.819465 19.636113
-0.856081 -0.796120 19.645777
-0.837249 -0.772776 19.655442
-0.818418 -0.749431 19.665107
-0.800711 -0.725367 19.675045
-0.763376 -0.670151 19.697802
-0.747424 -0.645052 19.708131
-0.733378 -0.618953 19.718836
-0.719332 -0.592855 19.729541
-0.705286 -0.566756 19.740245
-0.693869 -0.539597 19.751339
-0.669793 -0.478315 19.776348
-0.661200 -0.450295 19.787748
-0.654332 -0.421798 19.799315
-0.647464 -0.393302 19.810882
-0.640943 -0.364755 19.822465
-0.638480 -0.335624 19.834225
-0.632975 -0.270513 19.860509
-0.634366 -0.241344 19.872228
-0.636518 -0.212169 19.883940
-0.638671 -0.182993 19.895652
-0.642409 -0.154016 19.907260
-0.649011 -0.125399 19.918684
-0.664213 -0.061554 19.944162
-0.674790 -0.033964 19.955115
-0.685366 -0.006375 19.966068
-0.695943 0.021215 19.977021
-0.708640 0.047983 19.987613
-0.722567 0.074275 19.997996
-0.754752 0.132498 20.020969
-0.771406 0.157397 20.030753
-0.788059 0.182297 20.040536
-0.804713 0.207196 20.050319
-0.823343 0.230853 20.059574
-0.842177 0.254383 20.068775
-0.885421 0.306123 20.088981
-0.905994 0.328367 20.097640
-0.926567 0.350612 20.106299
-0.947390 0.372645 20.114869
-0.969355 0.393713 20.123034
-0.991321 0.414781 20.131200
-1.041465 0.460877 20.149036
-1.064556 0.480882 20.156757
-1.087647 0.500888 20.164479
-1.111153 0.520461 20.172021
-1.135163 0.539511 20.179344
-1.159174 0.558560 20.186668
29 NaN NaN
-1.823228 -1.497493 19.349673
-1.728166 -1.447150 19.371293
-1.634145 -1.395160 19.393561
-1.541313 -1.341374 19.416535
-1.449848 -1.285620 19.440282
-1.359966 -1.227701 19.464877
-1.271938 -1.167392 19.490408
-1.186098 -1.104435 19.516973
-1.102870 -1.038536 19.544685
-1.022797 -0.969363 19.573670
-0.946573 -0.896547 19.604065
-0.875100 -0.819698 19.636016
-0.809546 -0.738433 19.669660
-0.751402 -0.652442 19.705100
-0.702517 -0.561611 19.742356
-0.665034 -0.466201 19.781291
-0.641138 -0.367055 19.821536
-0.632569 -0.265712 19.862447
-0.640056 -0.164215 19.903189
-0.663025 -0.064653 19.942932
-0.699829 0.031350 19.981045
-0.748300 0.122851 20.017179
-0.806265 0.209518 20.051231
-0.871827 0.291425 20.083260
-0.943447 0.368864 20.113403
-1.019919 0.442211 20.141831
-1.100312 0.511860 20.168714
-1.183908 0.578184 20.194213
-1.270151 0.641519 20.218471
-1.256832 -1.430872 17.838758
-1.143117 -1.308533 17.843227
-1.034471 -1.181728 17.848736
-0.933019 -1.049169 17.855649
-0.840656 -0.910266 17.864220
-0.760335 -0.764212 17.874831
-0.698046 -0.609944 17.888185
-0.657736 -0.448828 17.904486
-0.652978 -0.283425 17.924706
-0.684315 -0.121631 17.947910
-0.755412 0.026942 17.973246
-0.856104 0.157185 17.999107
-0.977525 0.268841 18.024618
-1.112887 0.363416 18.049320
-1.256433 0.445426 18.073231
-1.406371 0.515429 18.096249
-1.255457 -1.429421 17.838809
-1.144454 -1.310019 17.843168
-1.141780 -1.307047 17.843285
-1.035713 -1.183294 17.848659
-1.033229 -1.180163 17.848814
-0.934200 -1.050781 17.855560
-0.931837 -1.047558 17.855738
-0.841676 -0.911982 17.864103
-0.839635 -0.908550 17.864338
-0.761247 -0.765987 17.874696
-0.759423 -0.762438 17.874966
-0.698659 -0.611839 17.888006
-0.697433 -0.608048 17.888363
-0.658131 -0.450777 17.904280
-0.657575 -0.446848 17.904718
-0.652854 -0.285404 17.924447
-0.653103 -0.281446 17.924965
-0.683585 -0.123469 17.947611
-0.685045 -0.119793 17.948209
-0.754416 0.025235 17.972938
-0.756407 0.028649 17.973554
-0.854721 0.155773 17.998799
-0.857487 0.158597 17.999415
-0.976013 0.267567 18.024314
-0.979036 0.270115 18.024921
-1.111205 0.362374 18.049030
-1.114569 0.364458 18.049610
-1.254690 0.444487 18.072948
-1.258215 0.446290 18.073508
-1.404555 0.514637 18.095978
-1.250406 -1.424087 17.838994
-1.149367 -1.315480 17.842953
-1.136867 -1.301586 17.843500
-1.040276 -1.189047 17.848374
-1.028666 -1.174410 17.849098
-0.938540 -1.056702 17.855233
-0.927497 -1.041637 17.856065
-0.845425 -0.918288 17.863672
-0.835886 -0.902245 17.864769
-0.764600 -0.772507 17.874200
-0.756070 -0.755917 17.875462
-0.700911 -0.618803 17.887350
-0.695180 -0.601084 17.889019
-0.659631 -0.457931 17.903528
-0.656984 -0.439573 17.905571
-0.652397 -0.292676 17.923494
-0.653560 -0.274174 17.925918
-0.680904 -0.130222 17.946512
-0.687726 -0.113040 17.949309
-0.750759 0.018962 17.971806
-0.760064 0.034922 17.974686
-0.849640 0.150586 17.997667
-0.862567 0.163784 18.000547
-0.970460 0.262886 18.023201
-0.984590 0.274797 18.026034
-1.105024 0.358544 18.047963
-1.120750 0.368287 18.050677
-1.248302 0.441006 18.071905
-1.264762 0.449466 18.074529
-1.397881 0.511728 18.094979
-1.238554 -1.411574 17.839430
-1.222891 -1.395037 17.840007
-1.207228 -1.378500 17.840583
-1.191565 -1.361963 17.841159
-1.176126 -1.345222 17.841782
-1.160893 -1.328291 17.842449
-1.125341 -1.288775 17.844005
-1.110200 -1.271764 17.844690
-1.095467 -1.254402 17.845458
-1.080733 -1.237039 17.846226
-1.066000 -1.219677 17.846994
-1.051266 -1.202314 17.847761
-1.017959 -1.160913 17.849766
-1.003810 -1.143076 17.850649
-0.989661 -1.125239 17.851532
-0.975637 -1.107309 17.852438
-0.962180 -1.088951 17.853452
-0.948723 -1.070593 17.854466
-0.917314 -1.027746 17.856832
-0.904557 -1.008906 17.857973
-0.891929 -0.989977 17.859137
-0.879301 -0.971048 17.860301
-0.866673 -0.952120 17.861465
-0.854221 -0.933082 17.862660
-0.827090 -0.887451 17.865781
-0.815466 -0.867901 17.867118
-0.803842 -0.848350 17.868455
-0.793252 -0.828239 17.869961
-0.782858 -0.808022 17.871499
-0.772465 -0.787805 17.873037
-0.748976 -0.740268 17.876743
-0.740103 -0.719357 17.878512
-0.731230 -0.698445 17.880281
-0.722358 -0.677534 17.882050
-0.713485 -0.656623 17.883820
-0.706196 -0.635141 17.885811
-0.689896 -0.584746 17.890558
-0.682912 -0.563154 17.892592
-0.677105 -0.541264 17.894776
-0.672454 -0.519081 17.897106
-0.667802 -0.496899 17.899436
-0.663151 -0.474716 17.901765
-0.655596 -0.422505 17.907572
-0.653763 -0.399949 17.910217
-0.651929 -0.377393 17.912861
-0.650095 -0.354837 17.915506
-0.649906 -0.332286 17.918307
-0.651324 -0.309738 17.921260
-0.654633 -0.257112 17.928152
-0.656660 -0.234657 17.931152
-0.661566 -0.212641 17.934370
-0.666471 -0.190625 17.937589
-0.671376 -0.168609 17.940807
-0.676282 -0.146593 17.944026
-0.694017 -0.097197 17.951887
-0.702331 -0.076259 17.955296
-0.710644 -0.055321 17.958704
-0.719501 -0.034651 17.962130
-0.730840 -0.015202 17.965640
-0.742179 0.004246 17.969150
-0.768644 0.049638 17.977342
-0.782087 0.067659 17.980874
-0.795908 0.085425 17.984409
-0.809728 0.103191 17.987945
-0.823549 0.120956 17.991481
-0.837720 0.138417 17.995012
-0.874487 0.175954 18.003202
-0.890240 0.192036 18.006711
-0.905993 0.208119 18.010221
-0.922990 0.222872 18.013682
-0.940210 0.237387 18.017135
-0.957430 0.251902 18.020588
-0.998189 0.285058 18.028611
-1.016514 0.298168 18.031993
-1.034839 0.311277 18.035376
-1.053165 0.324387 18.038758
-1.071490 0.337496 18.042141
-1.090524 0.349560 18.045460
-1.135250 0.377271 18.053180
-1.154413 0.389144 18.056488
-1.173904 0.400465 18.059757
-1.193708 0.411257 18.062991
-1.213512 0.422048 18.066224
-1.233317 0.432840 18.069458
-1.280125 0.456917 18.076922
-1.300426 0.466764 18.080085
-1.320728 0.476611 18.083247
-1.341030 0.486458 18.086410
-1.361530 0.495885 18.089539
-1.382223 0.504904 18.092636
26 NaN NaN
-1.257176 -1.431235 17.838745
-1.184041 -1.354019 17.841436
-1.112916 -1.274965 17.844548
-1.044121 -1.193894 17.848134
-0.978057 -1.110610 17.852256
-0.915225 -1.024896 17.856990
-0.856264 -0.936518 17.862425
-0.801993 -0.845241 17.868668
-0.753469 -0.750856 17.875847
-0.712050 -0.653240 17.884106
-0.679452 -0.552457 17.893600
-0.657745 -0.448936 17.904473
-0.649189 -0.343692 17.916813
-0.655802 -0.238507 17.930589
-0.678684 -0.135813 17.945602
-0.717465 -0.038142 17.961500
-0.770369 0.052595 17.977875
-0.834863 0.135499 17.994375
-0.908388 0.210563 18.010754
-0.988769 0.278320 18.026872
-1.074320 0.339521 18.042663
-1.163788 0.394952 18.058106
-1.256253 0.445338 18.073203
-1.351043 0.491315 18.087970
-1.447662 0.533425 18.102428
-1.545738 0.572129 18.116599
-1.098025 -1.457173 16.224935
-0.921353 -1.198927 16.273122
-0.776634 -0.922007 16.323342
-0.681460 -0.624984 16.375262
-0.661895 -0.314191 16.426993
-0.740086 -0.012396 16.474076
-0.908587 0.251769 16.512045
-1.136874 0.468631 16.540298
-1.398979 0.644730 16.560752
-1.096856 -1.455578 16.225235
-0.922413 -1.200594 16.272813
-0.920313 -1.197247 16.273431
-0.777461 -0.923799 16.323021
-0.775806 -0.920215 16.323664
-0.681923 -0.626902 16.374931
-0.680997 -0.623067 16.375592
-0.661814 -0.316163 16.426672
-0.661975 -0.312219 16.427315
-0.739365 -0.014240 16.473797
-0.740808 -0.010552 16.474356
-0.907353 0.250211 16.511829
-0.909821 0.253328 16.512261
-1.135333 0.467367 16.540140
-1.138416 0.469896 16.540455
-1.397267 0.643701 16.560638
-1.089502 -1.445542 16.227124
-0.929083 -1.211088 16.270871
-0.914063 -1.186504 16.275400
-0.782667 -0.935076 16.320998
-0.771186 -0.908691 16.325708
-0.684835 -0.638967 16.372853
-0.678844 -0.610852 16.377670
-0.661305 -0.328574 16.424648
-0.663299 -0.299880 16.429301
-0.734825 -0.025844 16.472036
-0.745918 0.000802 16.476057
-0.899586 0.240402 16.510468
-0.917838 0.262927 16.513579
-1.125633 0.459411 16.539146
-1.148191 0.477757 16.541431
-1.386498 0.637230 16.559923
-1.070102 -1.419067 16.232105
-1.044258 -1.383797 16.238742
-1.019188 -1.347988 16.245442
-0.994467 -1.311939 16.252171
-0.970116 -1.275649 16.258927
-0.946677 -1.238770 16.265750
-0.897574 -1.158162 16.280595
-0.875607 -1.120405 16.287514
-0.854742 -1.082051 16.294497
-0.834475 -1.043372 16.301513
-0.814694 -1.004459 16.308552
-0.796399 -0.964826 16.315661
-0.759175 -0.878217 16.331108
-0.743174 -0.837619 16.338301
-0.728787 -0.796451 16.345536
-0.715455 -0.754912 16.352798
-0.702754 -0.713196 16.360068
-0.692518 -0.670795 16.367371
-0.673833 -0.578495 16.383152
-0.667158 -0.535389 16.390456
-0.662750 -0.492034 16.397726
-0.660101 -0.448485 16.404972
-0.658174 -0.404926 16.412196
-0.659963 -0.361312 16.419309
-0.668183 -0.267454 16.434474
-0.674689 -0.224254 16.441365
-0.683706 -0.181553 16.448093
-0.695013 -0.139305 16.454673
-0.706891 -0.097237 16.461204
-0.722847 -0.056456 16.467392
-0.761117 0.030000 16.480365
-0.781365 0.068899 16.486104
-0.803447 0.106757 16.491612
-0.827492 0.143501 16.496874
-0.851805 0.180058 16.502096
-0.879099 0.214528 16.506878
-0.940365 0.287096 16.516823
-0.970375 0.319293 16.521143
-1.001376 0.350525 16.525273
-1.033628 0.380537 16.529161
-1.065956 0.410464 16.533034
-1.100045 0.438424 16.536525
-1.174908 0.497321 16.543781
-1.210502 0.523384 16.546912
-1.246588 0.548754 16.549913
-1.283417 0.573082 16.552719
-1.320245 0.597409 16.555525
-1.358090 0.620157 16.558038
26 NaN NaN
-1.098317 -1.457572 16.224860
-1.036256 -1.372876 16.240797
-0.976892 -1.286310 16.256954
-0.920608 -1.197754 16.273338
-0.867861 -1.107091 16.289955
-0.819198 -1.014216 16.306802
-0.775270 -0.919052 16.323872
-0.736850 -0.821574 16.341144
-0.704840 -0.721840 16.358579
-0.680267 -0.620042 16.376113
-0.664242 -0.516560 16.393646
-0.657883 -0.412023 16.411039
-0.662176 -0.307335 16.428112
-0.677793 -0.203648 16.444652
-0.704931 -0.102246 16.460444
-0.743230 -0.004363 16.475295
-0.791832 0.089006 16.489070
-0.849552 0.177212 16.501701
-0.915075 0.259963 16.513182
-0.987125 0.337264 16.523555
-1.064561 0.409320 16.532891
-1.146411 0.476453 16.541274
-1.231875 0.539036 16.548793
-1.320307 0.597450 16.555529
-1.411186 0.652066 16.561562
-1.504095 0.703225 16.566961
-1.087920 -1.496633 15.143134
-1.005049 -1.381147 15.163435
-0.926783 -1.262615 15.184398
-0.854191 -1.140664 15.206114
-0.789311 -1.014612 15.228749
-0.732524 -0.884881 15.252230
-0.686407 -0.751183 15.276661
-0.653929 -0.613734 15.302055
-0.636068 -0.473799 15.328191
-0.637386 -0.332900 15.354867
-0.659313 -0.193743 15.381598
-0.700783 -0.059002 15.407857
-0.763608 0.067446 15.432945
-0.843013 0.184537 15.456572
-0.935473 0.292031 15.478627
-1.040060 0.388245 15.498774
-1.152281 0.475773 15.517421
-1.270596 0.555225 15.534653
-1.394154 0.626616 15.550458
-1.521127 0.691995 15.565189
-1.086753 -1.495034 15.143415
-1.006168 -1.382779 15.163147
-1.003931 -1.379514 15.163723
-0.927847 -1.264282 15.184103
-0.925718 -1.260948 15.184694
-0.855121 -1.142406 15.205802
-0.853261 -1.138921 15.206426
-0.790157 -1.016395 15.228427
-0.788464 -1.012829 15.229070
-0.733274 -0.886705 15.251899
-0.731773 -0.883057 15.252561
-0.686915 -0.753085 15.276310
-0.685900 -0.749280 15.277011
-0.654286 -0.615669 15.301695
-0.653572 -0.611799 15.302414
-0.636253 -0.475756 15.327825
-0.635883 -0.471841 15.328558
-0.637171 -0.334853 15.354494
-0.637601 -0.330947 15.355241
-0.658882 -0.195660 15.381227
-0.659745 -0.191826 15.381969
-0.700137 -0.060859 15.407494
-0.701429 -0.057144 15.408220
-0.762576 0.065766 15.432608
-0.764640 0.069126 15.433282
-0.841823 0.182962 15.456252
-0.844203 0.186112 15.456892
-0.934150 0.290563 15.478325
-0.936858 0.293442 15.478920
-1.038535 0.386979 15.498506
-1.041585 0.389512 15.499042
-1.150682 0.474598 15.517168
-1.153879 0.476949 15.517673
-1.268888 0.554209 15.534429
-1.272304 0.556240 15.534877
-1.392405 0.625670 15.550246
-1.395903 0.627562 15.550669
-1.519344 0.691111 15.564989
-1.082945 -1.489814 15.144331
-1.009820 -1.388106 15.162208
-1.000279 -1.374187 15.164663
-0.931320 -1.269723 15.183138
-0.922245 -1.255507 15.185658
-0.858186 -1.148077 15.204786
-0.850227 -1.133234 15.207446
-0.792920 -1.022214 15.227378
-0.785701 -1.007011 15.230119
-0.735722 -0.892657 15.250819
-0.729325 -0.877105 15.253641
-0.688571 -0.759293 15.275167
-0.684244 -0.743072 15.278155
-0.655450 -0.621982 15.300523
-0.652408 -0.605486 15.303587
-0.636856 -0.482143 15.326628
-0.635279 -0.465455 15.329755
-0.636469 -0.341226 15.353276
-0.638303 -0.324574 15.356459
-0.657474 -0.201917 15.380018
-0.661153 -0.185569 15.383178
-0.698028 -0.066920 15.406308
-0.703571 -0.051096 15.409404
-0.759210 0.060285 15.431509
-0.768006 0.074607 15.434382
-0.837939 0.177822 15.455208
-0.848087 0.191252 15.457937
-0.929831 0.285771 15.477338
-0.941538 0.297895 15.479849
-1.033561 0.382847 15.497632
-1.046560 0.393644 15.499916
-1.145466 0.470763 15.516346
-1.159095 0.480783 15.518495
-1.263368 0.550812 15.533683
-1.277879 0.559554 15.535607
-1.386697 0.622582 15.549556
-1.401611 0.630650 15.551360
-1.513526 0.688228 15.564335
-1.074348 -1.478028 15.146401
-1.063019 -1.462498 15.149127
-1.051691 -1.446967 15.151854
-1.040362 -1.431437 15.154580
-1.029033 -1.415907 15.157307
-1.018063 -1.400132 15.160087
-0.992036 -1.362161 15.166784
-0.981174 -1.346313 15.169580
-0.970311 -1.330465 15.172375
-0.959825 -1.314377 15.175223
-0.949493 -1.298191 15.178092
-0.939161 -1.282005 15.180961
-0.914405 -1.243225 15.187836
-0.904468 -1.226806 15.190756
-0.894742 -1.210262 15.193704
-0.885017 -1.193718 15.196653
-0.875291 -1.177175 15.199601
-0.865566 -1.160631 15.202549
-0.843376 -1.120394 15.209747
-0.834349 -1.103474 15.212779
-0.825321 -1.086554 15.215811
-0.816294 -1.069635 15.218844
-0.807379 -1.052660 15.221888
-0.799158 -1.035350 15.225009
-0.779463 -0.993874 15.232488
-0.771243 -0.976564 15.235609
-0.763098 -0.959221 15.238738
-0.755815 -0.941513 15.241952
-0.748532 -0.923804 15.245166
-0.741249 -0.906096 15.248380
-0.723823 -0.863658 15.256083
-0.717629 -0.845556 15.259391
-0.711436 -0.827454 15.262700
-0.705243 -0.809353 15.266008
-0.699050 -0.791251 15.269317
-0.692856 -0.773150 15.272626
-0.680505 -0.729057 15.280736
-0.675578 -0.710587 15.284138
-0.670651 -0.692118 15.287540
-0.665724 -0.673648 15.290941
-0.661544 -0.655019 15.294387
-0.658079 -0.636236 15.297876
-0.649779 -0.591232 15.306234
-0.646314 -0.572450 15.309722
-0.643606 -0.553567 15.313243
-0.641811 -0.534566 15.316804
-0.640015 -0.515564 15.320365
-0.638219 -0.496562 15.323926
-0.634655 -0.451005 15.332477
-0.634724 -0.431928 15.336086
-0.634792 -0.412851 15.339696
-0.634861 -0.393774 15.343306
-0.634930 -0.374697 15.346916
-0.634998 -0.355620 15.350525
-0.639888 -0.310187 15.359210
-0.641976 -0.291227 15.362835
-0.644064 -0.272267 15.366461
-0.646152 -0.253308 15.370086
-0.650105 -0.234655 15.373688
-0.654295 -0.216042 15.377286
-0.664332 -0.171444 15.385909
-0.668522 -0.152831 15.389508
-0.674444 -0.134700 15.393048
-0.680718 -0.116668 15.396575
-0.686993 -0.098636 15.400103
-0.693267 -0.080604 15.403631
-0.709825 -0.038010 15.411996
-0.718068 -0.020766 15.415411
-0.726310 -0.003521 15.418827
-0.734552 0.013723 15.422242
-0.742794 0.030967 15.425657
-0.751609 0.047909 15.429026
-0.775607 0.086983 15.436864
-0.785623 0.103291 15.440135
-0.795639 0.119599 15.443407
-0.806064 0.135636 15.446634
-0.817618 0.150927 15.449742
-0.829172 0.166218 15.452849
-0.856854 0.202856 15.460295
-0.868680 0.217930 15.463367
-0.881529 0.232186 15.466302
-0.894379 0.246442 15.469238
-0.907229 0.260697 15.472174
-0.920079 0.274953 15.475110
-0.952103 0.307948 15.481948
-0.966025 0.321195 15.484713
-0.979948 0.334442 15.487478
-0.993870 0.347689 15.490243
-1.007793 0.360936 15.493008
-1.022329 0.373518 15.495658
-1.057791 0.402973 15.501890
-1.072592 0.415267 15.504491
-1.087393 0.427560 15.507092
-1.102654 0.439287 15.509595
-1.118172 0.450696 15.512042
-1.133690 0.462105 15.514489
-1.170871 0.489441 15.520352
-1.186730 0.500378 15.522716
-1.202835 0.510976 15.525021
-1.218939 0.521574 15.527325
-1.235043 0.532172 15.529630
-1.251147 0.542769 15.531934
-1.290464 0.567035 15.537257
-1.307049 0.576894 15.539430
-1.323633 0.586753 15.541604
-1.340218 0.596611 15.543778
-1.356830 0.606423 15.545943
-1.373811 0.615610 15.547997
-1.414497 0.637622 15.552918
-1.431477 0.646809 15.554972
-1.448462 0.655989 15.557025
-1.465771 0.664566 15.558970
-1.483081 0.673143 15.560915
-1.500391 0.681720 15.562859
27 NaN NaN
-1.088212 -1.497033 15.143064
-1.026417 -1.412320 15.157937
-0.967165 -1.325875 15.173185
-0.910807 -1.237588 15.188835
-0.857759 -1.147351 15.204915
-0.808519 -1.055063 15.221455
-0.763684 -0.960646 15.238479
-0.723961 -0.864061 15.256009
-0.690183 -0.765337 15.274054
-0.663313 -0.664610 15.292606
-0.644420 -0.562181 15.311629
-0.634628 -0.458566 15.331046
-0.635002 -0.354547 15.350728
-0.646387 -0.251175 15.370494
-0.669228 -0.149693 15.390115
-0.703435 -0.051381 15.409348
-0.748373 0.042640 15.427969
-0.802985 0.131561 15.445806
-0.865988 0.214944 15.462752
-0.936063 0.292686 15.478762
-1.011992 0.364932 15.493842
-1.092716 0.431981 15.508028
-1.177354 0.494208 15.521374
-1.265191 0.552012 15.533944
-1.355651 0.605785 15.545800
-1.448273 0.655896 15.557004
-1.542690 0.702679 15.567612
-1.085316 -1.523188 14.602486
-0.933344 -1.267112 14.642599
-0.810798 -0.996458 14.686589
-0.729848 -0.711526 14.734912
-0.706183 -0.417268 14.787325
-0.753547 -0.126483 14.842081
-0.873468 0.142991 14.896006
-1.052486 0.378514 14.946244
-1.270833 0.579470 14.991854
-1.084251 -1.521515 14.602745
-0.934292 -1.268852 14.642323
-0.932396 -1.265373 14.642875
-0.811508 -0.998303 14.686284
-0.810088 -0.994614 14.686894
-0.730214 -0.713463 14.734576
-0.729482 -0.709588 14.735248
-0.706082 -0.419232 14.786964
-0.706284 -0.415303 14.787686
-0.752917 -0.128346 14.841716
-0.754176 -0.124620 14.842445
-0.872519 0.141265 14.895653
-0.874416 0.144716 14.896359
-1.051176 0.377038 14.945921
-1.053797 0.379989 14.946566
-1.269291 0.578230 14.991564
-1.077850 -1.511461 14.604302
-0.939992 -1.279304 14.640665
-0.926697 -1.254921 14.644533
-0.815776 -1.009389 14.684451
-0.805820 -0.983527 14.688728
-0.732415 -0.725106 14.732555
-0.727282 -0.697945 14.737269
-0.705476 -0.431040 14.784796
-0.706890 -0.403496 14.789854
-0.749136 -0.139544 14.839526
-0.757958 -0.113422 14.844636
-0.866819 0.130897 14.893533
-0.880895 0.154624 14.898428
-1.043296 0.368170 14.943982
-1.061677 0.388857 14.948506
-1.260025 0.570774 14.989823
-1.061088 -1.485131 14.608379
-1.038768 -1.450069 14.613808
-1.017095 -1.414626 14.619333
-0.995926 -1.378885 14.624933
-0.974790 -1.343125 14.630539
-0.954917 -1.306676 14.636322
-0.912738 -1.227066 14.649004
-0.894326 -1.189888 14.654981
-0.876122 -1.152617 14.660983
-0.859364 -1.114697 14.667163
-0.842606 -1.076777 14.673344
-0.826954 -1.038422 14.679650
-0.795120 -0.954334 14.693578
-0.782359 -0.914959 14.700190
-0.769598 -0.875585 14.706802
-0.758490 -0.835754 14.713565
-0.748126 -0.795719 14.720397
-0.738176 -0.755596 14.727263
-0.721520 -0.667455 14.742562
-0.716211 -0.626525 14.749768
-0.711530 -0.585507 14.757016
-0.707684 -0.544435 14.764309
-0.706280 -0.503205 14.771733
-0.704877 -0.461976 14.779157
-0.708477 -0.372575 14.795532
-0.711896 -0.331532 14.803124
-0.717687 -0.290729 14.810772
-0.723478 -0.249926 14.818419
-0.732329 -0.209706 14.826089
-0.741852 -0.169614 14.833764
-0.767861 -0.084099 14.850372
-0.781048 -0.045051 14.858011
-0.797442 -0.007234 14.865560
-0.814110 0.030479 14.873102
-0.832017 0.067590 14.880587
-0.851893 0.103745 14.887981
-0.897984 0.180500 14.903840
-0.920739 0.214956 14.911046
-0.944724 0.248554 14.918147
-0.970009 0.281245 14.925138
-0.995294 0.313936 14.932130
-1.022663 0.344947 14.938903
-1.083411 0.411070 14.953447
-1.112764 0.440272 14.959975
-1.142199 0.469389 14.966491
-1.173152 0.496943 14.972788
-1.204104 0.524497 14.979084
-1.235758 0.551249 14.985264
26 NaN NaN
-1.085582 -1.523606 14.602421
-1.028984 -1.434699 14.616188
-0.975305 -1.344068 14.630389
-0.924910 -1.251644 14.645053
-0.878223 -1.157372 14.660208
-0.835731 -1.061220 14.675880
-0.797992 -0.963196 14.692090
-0.765636 -0.863360 14.708854
-0.739359 -0.761852 14.726177
-0.719906 -0.658914 14.744044
-0.708041 -0.554922 14.762421
-0.704483 -0.450399 14.781241
-0.709840 -0.346020 14.800409
-0.724520 -0.242582 14.819796
-0.748661 -0.140950 14.839251
-0.782091 -0.041965 14.858615
-0.824346 0.053638 14.877734
-0.874735 0.145297 14.896478
-0.932425 0.232652 14.914746
-0.996531 0.315535 14.932472
-1.066194 0.393941 14.949617
-1.140618 0.467982 14.966170
-1.219102 0.537847 14.982135
-1.301036 0.603771 14.997528
-1.385904 0.666007 15.012376
-1.473274 0.724813 15.026705
-1.078016 -1.550877 14.062001
-0.926088 -1.331868 14.132546
-0.793289 -1.101213 14.204326
-0.689048 -0.856711 14.277037
-0.626161 -0.598669 14.349416
-0.622693 -0.332507 14.418396
-0.695431 -0.074591 14.478201
-0.838677 0.155421 14.524288
-1.035137 0.345738 14.555214
-1.261414 0.501683 14.574516
-1.505847 0.628696 14.584676
-1.076876 -1.549315 14.062510
-0.927133 -1.333494 14.132030
-0.925043 -1.330243 14.133062
-0.794133 -1.102949 14.203800
-0.792445 -1.099478 14.204852
-0.689699 -0.858527 14.276508
-0.688397 -0.854896 14.277565
-0.626386 -0.600588 14.348900
-0.625936 -0.596750 14.349932
-0.622527 -0.334440 14.417912
-0.622858 -0.330573 14.418879
-0.694609 -0.076373 14.477817
-0.696253 -0.072808 14.478585
-0.837487 0.153842 14.523990
-0.839867 0.157001 14.524585
-1.033589 0.344486 14.555034
-1.036686 0.346991 14.555394
-1.259677 0.500696 14.574422
-1.263152 0.502669 14.574610
-1.504037 0.627849 14.584625
-1.070516 -1.540603 14.065345
-0.932960 -1.342557 14.129153
-0.919216 -1.321179 14.135939
-0.798838 -1.112626 14.200869
-0.787741 -1.089800 14.207783
-0.693327 -0.868653 14.273561
-0.684768 -0.844770 14.280513
-0.627643 -0.611290 14.346024
-0.624679 -0.586048 14.352809
-0.621605 -0.345223 14.415216
-0.623780 -0.319791 14.421575
-0.690024 -0.086312 14.475677
-0.700838 -0.062869 14.480724
-0.830850 0.145033 14.522332
-0.847281 0.165207 14.526016
-1.024954 0.337499 14.554030
-1.045321 0.353978 14.556398
-1.250015 0.495155 14.573886
-1.272840 0.508169 14.575133
-1.493939 0.623123 14.584340
-1.054074 -1.518080 14.072676
-1.032197 -1.488112 14.082429
-1.010585 -1.457965 14.092204
-0.989567 -1.427413 14.102029
-0.968549 -1.396860 14.111854
-0.948025 -1.365991 14.121715
-0.904151 -1.297746 14.143377
-0.885101 -1.265972 14.153335
-0.866168 -1.234129 14.163300
-0.847356 -1.202219 14.173271
-0.829699 -1.169671 14.183299
-0.812042 -1.137123 14.193328
-0.775576 -1.064780 14.215362
-0.759392 -1.031492 14.225446
-0.744375 -0.997680 14.235556
-0.729900 -0.963625 14.245680
-0.715426 -0.929570 14.255803
-0.702709 -0.894831 14.265940
-0.676017 -0.818387 14.288128
-0.665859 -0.782804 14.298246
-0.655702 -0.747220 14.308365
-0.646820 -0.711314 14.318448
-0.639370 -0.675047 14.328493
-0.631920 -0.638779 14.338537
-0.621430 -0.558380 14.360247
-0.617322 -0.521549 14.370127
-0.616556 -0.484427 14.379774
-0.615789 -0.447304 14.389421
-0.616050 -0.410190 14.398971
-0.619221 -0.373100 14.408245
-0.628897 -0.292223 14.428214
-0.636271 -0.255609 14.436977
-0.643644 -0.218995 14.445739
-0.654658 -0.183211 14.453952
-0.666306 -0.147572 14.462068
-0.678171 -0.112008 14.470145
-0.712692 -0.037173 14.486257
-0.730130 -0.003794 14.493255
-0.749670 0.028566 14.499795
-0.769210 0.060926 14.506336
-0.790864 0.091960 14.512339
-0.813692 0.122260 14.518044
-0.866518 0.186368 14.529696
-0.892113 0.214522 14.534592
-0.918237 0.242185 14.539312
-0.946102 0.268225 14.543452
-0.973968 0.294265 14.547593
-1.002629 0.319436 14.551435
-1.067646 0.372041 14.558992
-1.098563 0.394542 14.561938
-1.129744 0.416711 14.564773
-1.160950 0.438843 14.567596
-1.193318 0.459308 14.569882
-1.225686 0.479773 14.572168
-1.297888 0.522388 14.576484
-1.331213 0.541306 14.578283
-1.365013 0.559371 14.579817
-1.399114 0.576891 14.581183
-1.433216 0.594410 14.582548
-1.467831 0.610906 14.583603
27 NaN NaN
-1.078301 -1.551268 14.061874
-1.017036 -1.467344 14.089188
-0.958177 -1.381781 14.116703
-0.902044 -1.294469 14.144417
-0.849024 -1.205294 14.172323
-0.799577 -1.114146 14.200408
-0.754256 -1.020927 14.228646
-0.713723 -0.925563 14.256994
-0.678770 -0.828033 14.285385
-0.650329 -0.728397 14.313717
-0.629470 -0.626852 14.341840
-0.617369 -0.523790 14.369545
-0.615222 -0.419866 14.396552
-0.624100 -0.316043 14.422513
-0.644739 -0.213557 14.447041
-0.677343 -0.113802 14.469759
-0.721487 -0.018107 14.490362
-0.776184 0.072475 14.508670
-0.840091 0.157297 14.524641
-0.911748 0.236121 14.538348
-0.989768 0.309031 14.549940
-1.072938 0.376322 14.559608
-1.160249 0.438400 14.567547
-1.250889 0.495708 14.573948
-1.344212 0.548685 14.578984
-1.439711 0.597746 14.582808
-1.536986 0.643268 14.585556
-1.069268 -1.570490 13.521044
-0.898327 -1.276560 13.545395
-0.764315 -0.964554 13.573341
-0.685263 -0.635068 13.605612
-0.684988 -0.297175 13.642277
-0.780680 0.026366 13.681624
-0.964596 0.309741 13.720510
-1.208939 0.544082 13.756743
-1.488800 0.735606 13.789898
-1.068205 -1.568802 13.521180
-0.899215 -1.278345 13.545241
-0.897438 -1.274775 13.545550
-0.764949 -0.966443 13.573164
-0.763681 -0.962666 13.573518
-0.685527 -0.637040 13.605410
-0.684999 -0.633096 13.605815
-0.684753 -0.299149 13.642052
-0.685222 -0.295202 13.642501
-0.779904 0.024538 13.681391
-0.781457 0.028194 13.681857
-0.963268 0.308262 13.720291
-0.965924 0.311221 13.720729
-1.207368 0.542860 13.756541
-1.210509 0.545304 13.756945
-1.487085 0.734594 13.789712
-1.061061 -1.557458 13.522096
-0.905181 -1.290340 13.544202
-0.891472 -1.262781 13.546588
-0.769208 -0.979131 13.571975
-0.759422 -0.949977 13.574707
-0.687300 -0.650290 13.604050
-0.683226 -0.619846 13.607174
-0.683180 -0.312407 13.640544
-0.686795 -0.281943 13.644010
-0.774687 0.012254 13.679828
-0.787094 0.040277 13.683418
-0.954703 0.298028 13.718801
-0.974845 0.321160 13.722202
-1.196819 0.534650 13.755184
-1.221058 0.553515 13.758302
-1.475561 0.727797 13.788465
-1.042030 -1.527240 13.524535
-1.016661 -1.486957 13.527786
-0.992322 -1.446056 13.531151
-0.968184 -1.405034 13.534537
-0.944861 -1.363558 13.538008
-0.922108 -1.321764 13.541539
-0.875576 -1.230828 13.549354
-0.854811 -1.188037 13.553081
-0.835392 -1.144621 13.556936
-0.815973 -1.101205 13.560791
-0.798547 -1.056968 13.564822
-0.781139 -1.012723 13.568856
-0.748077 -0.916176 13.577875
-0.734621 -0.870621 13.582225
-0.722092 -0.824792 13.586646
-0.710723 -0.778692 13.591147
-0.701130 -0.732179 13.595772
-0.692023 -0.685586 13.600427
-0.678676 -0.584534 13.610806
-0.676038 -0.537156 13.615833
-0.673400 -0.489778 13.620859
-0.673951 -0.442373 13.626029
-0.675298 -0.394960 13.631235
-0.678989 -0.347728 13.636524
-0.692967 -0.246958 13.648080
-0.702930 -0.200615 13.653551
-0.713788 -0.154511 13.659035
-0.728115 -0.109334 13.664572
-0.742442 -0.064156 13.670109
-0.760791 -0.020469 13.675662
-0.803916 0.071599 13.687561
-0.826341 0.113355 13.693084
-0.850912 0.153842 13.698564
-0.876850 0.193520 13.704017
-0.903908 0.232405 13.709434
-0.932931 0.269901 13.714786
-0.998612 0.347636 13.726126
-1.030329 0.382899 13.731355
-1.064274 0.416044 13.736453
-1.098219 0.449190 13.741551
-1.133631 0.480758 13.746542
-1.169487 0.511849 13.751501
-1.249163 0.575386 13.761918
-1.287194 0.603787 13.766681
-1.326011 0.631139 13.771366
-1.365023 0.658206 13.776027
-1.404981 0.683888 13.780581
-1.444938 0.709570 13.785134
27 NaN NaN
-1.069534 -1.570912 13.521010
-1.012504 -1.480355 13.528319
-0.958242 -1.388137 13.535932
-0.907094 -1.294185 13.543870
-0.859461 -1.198434 13.552158
-0.815809 -1.100838 13.560823
-0.776676 -1.001382 13.569890
-0.742680 -0.900096 13.579381
-0.714516 -0.797082 13.589319
-0.692953 -0.692535 13.599714
-0.678802 -0.586780 13.610568
-0.672872 -0.480299 13.621864
-0.675902 -0.373743 13.633564
-0.688458 -0.267929 13.645605
-0.710848 -0.163783 13.657899
-0.743044 -0.062258 13.670341
-0.784675 0.035773 13.682822
-0.835073 0.129613 13.695235
-0.893368 0.218789 13.707490
-0.958600 0.303061 13.719520
-1.029811 0.382393 13.731277
-1.106111 0.456896 13.742736
-1.186709 0.526782 13.753883
-1.270924 0.592322 13.764718
-1.358181 0.653808 13.775248
-1.448004 0.711540 13.785483
-1.539994 0.765806 13.795438
-1.060130 -1.553473 12.438824
-0.955435 -1.393944 12.424016
-0.859363 -1.228929 12.411328
-0.774194 -1.057891 12.401278
-0.703035 -0.880435 12.394553
-0.650522 -0.696496 12.392155
-0.623415 -0.507252 12.395479
-0.627010 -0.316554 12.405481
-0.665911 -0.130492 12.422855
-0.740600 0.043594 12.447351
-0.847465 0.199136 12.477873
-0.978104 0.334347 12.512527
-1.124927 0.451070 12.549769
-1.282933 0.551671 12.588637
-1.448663 0.638641 12.628507
-1.059016 -1.551819 12.438665
-0.956504 -1.395628 12.424164
-0.954366 -1.392260 12.423867
-0.860321 -1.230680 12.411450
-0.858405 -1.227177 12.411207
-0.775005 -1.059717 12.401364
-0.773383 -1.056065 12.401192
-0.703649 -0.882338 12.394593
-0.702421 -0.878532 12.394513
-0.651012 -0.698435 12.392166
-0.650033 -0.694557 12.392143
-0.623595 -0.509243 12.395422
-0.623235 -0.505261 12.395537
-0.626798 -0.318538 12.405339
-0.627223 -0.314571 12.405623
-0.665265 -0.132371 12.422626
-0.666556 -0.128613 12.423085
-0.739562 0.041912 12.447047
-0.741638 0.045277 12.447656
-0.846266 0.197570 12.477539
-0.848663 0.200702 12.478207
-0.976661 0.333015 12.512152
-0.979548 0.335680 12.512902
-1.123323 0.449945 12.549369
-1.126532 0.452195 12.550169
-1.281224 0.550719 12.588223
-1.284642 0.552624 12.589051
-1.446885 0.637830 12.628085
-1.054449 -1.545042 12.438010
-0.960884 -1.402532 12.424773
-0.949985 -1.385355 12.423259
-0.864248 -1.237861 12.411947
-0.854479 -1.219997 12.410709
-0.778332 -1.067203 12.401718
-0.770056 -1.048579 12.400838
-0.706166 -0.890140 12.394757
-0.699904 -0.870731 12.394349
-0.653021 -0.706384 12.392214
-0.648295 -0.686549 12.392157
-0.624333 -0.517405 12.395186
-0.622496 -0.497098 12.395773
-0.625928 -0.326670 12.404759
-0.628093 -0.306439 12.406203
-0.662620 -0.140075 12.421684
-0.669201 -0.120910 12.424027
-0.735354 0.034988 12.445806
-0.745891 0.052174 12.448905
-0.841353 0.191150 12.476172
-0.853576 0.207122 12.479575
-0.970743 0.327551 12.510614
-0.985465 0.341143 12.514440
-1.116745 0.445332 12.547731
-1.133110 0.456807 12.551807
-1.274216 0.546815 12.586526
-1.291650 0.556528 12.590748
-1.439707 0.634260 12.626368
-1.043400 -1.528647 12.436426
-1.028768 -1.506932 12.434328
-1.014135 -1.485218 12.432230
-0.999552 -1.463470 12.430145
-0.985517 -1.441351 12.428195
-0.971482 -1.419232 12.426245
-0.939587 -1.368529 12.421836
-0.926231 -1.345980 12.420053
-0.912874 -1.323431 12.418270
-0.899517 -1.300882 12.416487
-0.886328 -1.278235 12.414745
-0.873747 -1.255230 12.413151
-0.844979 -1.202628 12.409506
-0.832777 -1.179419 12.408003
-0.821088 -1.155935 12.406624
-0.809399 -1.132452 12.405246
-0.797710 -1.108968 12.403867
-0.786379 -1.085310 12.402573
-0.762009 -1.030472 12.399983
-0.751351 -1.006489 12.398850
-0.741360 -0.982224 12.397875
-0.731900 -0.957732 12.397024
-0.722440 -0.933241 12.396174
-0.712981 -0.908750 12.395323
-0.693816 -0.851859 12.393953
-0.685753 -0.826864 12.393427
-0.677690 -0.801869 12.392901
-0.670748 -0.776548 12.392633
-0.664314 -0.751081 12.392481
-0.657879 -0.725613 12.392329
-0.644866 -0.667016 12.392364
-0.640324 -0.641144 12.392639
-0.635781 -0.615273 12.392913
-0.631239 -0.589402 12.393188
-0.628485 -0.563301 12.393858
-0.626120 -0.537150 12.394615
-0.620789 -0.477351 12.396361
-0.620881 -0.451114 12.397651
-0.620972 -0.424877 12.398940
-0.621064 -0.398641 12.400229
-0.621156 -0.372404 12.401519
-0.623824 -0.346342 12.403354
-0.630197 -0.286767 12.407608
-0.633457 -0.260798 12.409566
-0.639083 -0.235256 12.412013
-0.644710 -0.209715 12.414460
-0.650336 -0.184173 12.416906
-0.656222 -0.158709 12.419405
-0.675599 -0.102275 12.426306
-0.684073 -0.077595 12.429323
-0.693366 -0.053270 12.432500
-0.704548 -0.029766 12.436043
-0.715730 -0.006262 12.439587
-0.726912 0.017242 12.443130
-0.756180 0.068859 12.451926
-0.769807 0.090957 12.455928
-0.783434 0.113055 12.459930
-0.797986 0.134484 12.464098
-0.813727 0.155052 12.468480
-0.829468 0.175620 12.472863
-0.866607 0.221644 12.483081
-0.884116 0.240657 12.487769
-0.901626 0.259669 12.492457
-0.919136 0.278681 12.497145
-0.937472 0.296832 12.501969
-0.956430 0.314336 12.506895
-0.999779 0.354359 12.518160
-1.019651 0.370755 12.523229
-1.039781 0.386840 12.528339
-1.059910 0.402924 12.533449
-1.080040 0.419009 12.538559
-1.100834 0.434174 12.543767
-1.149021 0.467965 12.555771
-1.170094 0.482742 12.561021
-1.191863 0.496433 12.566367
-1.213697 0.510020 12.571723
-1.235532 0.523606 12.577079
-1.257367 0.537193 12.582435
-1.308600 0.565973 12.594852
-1.331051 0.578481 12.600288
-1.353523 0.590946 12.605727
-1.376475 0.602481 12.611224
-1.399426 0.614016 12.616721
-1.422378 0.625551 12.622218
27 NaN NaN
-1.060409 -1.553886 12.438864
-1.000740 -1.465342 12.430310
-0.943509 -1.375149 12.422359
-0.889045 -1.283203 12.415089
-0.837745 -1.189400 12.408589
-0.790083 -1.093644 12.402967
-0.746626 -0.995857 12.398348
-0.708055 -0.895998 12.394881
-0.675180 -0.794090 12.392738
-0.648947 -0.690259 12.392117
-0.630429 -0.584789 12.393237
-0.620786 -0.478188 12.396320
-0.621160 -0.371245 12.401576
-0.632519 -0.265055 12.409159
-0.655450 -0.160957 12.419130
-0.689987 -0.060372 12.431429
-0.735561 0.035423 12.445872
-0.791105 0.125493 12.462182
-0.855269 0.209334 12.480046
-0.926649 0.286839 12.499156
-1.003937 0.358198 12.519240
-1.086007 0.423777 12.540073
-1.171929 0.484029 12.561478
-1.260957 0.539427 12.583316
-1.352497 0.590431 12.605481
-1.446083 0.637464 12.627895
-1.541343 0.680912 12.650496
-1.059471 -1.482346 11.358589
-0.904580 -1.236369 11.348166
-0.774439 -0.976398 11.344631
-0.680494 -0.701471 11.350628
-0.642447 -0.414376 11.370277
-0.678977 -0.129281 11.406352
-0.794936 0.131245 11.457723
-0.975393 0.350099 11.519387
-1.195629 0.527581 11.585864
-1.438693 0.671780 11.654167
-1.058360 -1.480685 11.358504
-0.905584 -1.238098 11.348220
-0.903577 -1.234640 11.348112
-0.775214 -0.978241 11.344623
-0.773665 -0.974554 11.344639
-0.680910 -0.703424 11.350529
-0.680079 -0.699517 11.350727
-0.642523 -0.416366 11.370099
-0.642370 -0.412385 11.370455
-0.678431 -0.131180 11.406044
-0.679524 -0.127382 11.406660
-0.793827 0.129631 11.457318
-0.796045 0.132859 11.458128
-0.974024 0.348709 11.518946
-0.976761 0.351489 11.519828
-1.194022 0.526485 11.585398
-1.197236 0.528676 11.586329
-1.436956 0.670909 11.653695
-1.051871 -1.470982 11.358008
-0.911448 -1.248199 11.348537
-0.897713 -1.224539 11.347794
-0.779739 -0.989013 11.344576
-0.769139 -0.963782 11.344685
-0.683801 -0.714728 11.350066
-0.677652 -0.688102 11.351305
-0.642971 -0.427995 11.369059
-0.641923 -0.400756 11.371494
-0.675240 -0.142275 11.404246
-0.682715 -0.116287 11.408458
-0.787347 0.120201 11.454950
-0.802524 0.142289 11.460496
-0.966030 0.340588 11.516368
-0.984756 0.359611 11.522406
-1.184633 0.520084 11.582678
-1.206624 0.535077 11.589049
-1.426808 0.665817 11.650934
-1.034956 -1.445691 11.356716
-1.012440 -1.412025 11.354996
-0.990360 -1.378071 11.353401
-0.968858 -1.343735 11.351973
-0.947356 -1.309399 11.350545
-0.926731 -1.274526 11.349364
-0.882780 -1.198015 11.347065
-0.863764 -1.162221 11.346333
-0.844748 -1.126427 11.345602
-0.826640 -1.090172 11.345118
-0.809159 -1.053598 11.344805
-0.791677 -1.017024 11.344492
-0.757343 -0.935707 11.344807
-0.742523 -0.897994 11.345199
-0.728892 -0.859823 11.345900
-0.715261 -0.821652 11.346602
-0.703449 -0.782906 11.347766
-0.692229 -0.743974 11.349079
-0.671327 -0.658352 11.352810
-0.662907 -0.618748 11.354813
-0.656385 -0.578848 11.357269
-0.651187 -0.538740 11.360040
-0.645988 -0.498632 11.362811
-0.644137 -0.458305 11.366350
-0.642464 -0.370504 11.374579
-0.644930 -0.330291 11.379069
-0.647396 -0.290078 11.383558
-0.653084 -0.250319 11.388722
-0.659821 -0.210709 11.394104
-0.666921 -0.171192 11.399558
-0.691033 -0.087370 11.413145
-0.704579 -0.049820 11.419843
-0.719838 -0.012925 11.426859
-0.735096 0.023971 11.433875
-0.753892 0.059049 11.441501
-0.772994 0.093970 11.449180
-0.819412 0.166867 11.466669
-0.841894 0.199584 11.474885
-0.866547 0.230572 11.483416
-0.891900 0.261003 11.492048
-0.917456 0.291242 11.500707
-0.945193 0.319420 11.509650
-1.006748 0.379510 11.529257
-1.036438 0.405544 11.538426
-1.066128 0.431578 11.547594
-1.097282 0.455776 11.556908
-1.128562 0.479816 11.566236
-1.160164 0.503400 11.575590
-1.231094 0.551761 11.596138
-1.264463 0.572714 11.605628
-1.298092 0.593257 11.615136
-1.331793 0.613676 11.624648
-1.366286 0.632709 11.634201
-1.400780 0.651742 11.643754
26 NaN NaN
-1.059749 -1.482761 11.358610
-0.999591 -1.392812 11.354014
-0.942142 -1.301074 11.350198
-0.887787 -1.207440 11.347257
-0.836983 -1.111809 11.345303
-0.790278 -1.014097 11.344467
-0.748329 -0.914251 11.344900
-0.711913 -0.812278 11.346774
-0.681941 -0.708275 11.350284
-0.659449 -0.602486 11.355636
-0.645563 -0.495356 11.363037
-0.641416 -0.387595 11.372671
-0.648002 -0.280200 11.384661
-0.665993 -0.174420 11.399035
-0.695563 -0.071623 11.415698
-0.736311 0.026908 11.434434
-0.787326 0.120171 11.454942
-0.847370 0.207555 11.476887
-0.915090 0.288838 11.499944
-0.989183 0.364108 11.523833
-1.068497 0.433655 11.548325
-1.152062 0.497876 11.573243
-1.239086 0.557210 11.598453
-1.328930 0.612096 11.623855
-1.421087 0.662947 11.649378
-1.515153 0.710142 11.674968
-1.054783 -1.393826 9.737169
-0.897277 -1.117746 9.736347
-0.775872 -0.824179 9.740945
-0.707105 -0.514500 9.752839
-0.710917 -0.198148 9.773785
-0.798994 0.104765 9.803870
-0.962212 0.374163 9.840707
-1.178357 0.603153 9.881213
-1.427632 0.795601 9.923287
-1.053732 -1.392125 9.737154
-0.898202 -1.119519 9.736342
-0.896351 -1.115973 9.736352
-0.776537 -0.826065 9.740902
-0.775208 -0.822293 9.740988
-0.707389 -0.516478 9.752745
-0.706821 -0.512523 9.752933
-0.710693 -0.200129 9.773631
-0.711140 -0.196167 9.773940
-0.798233 0.102927 9.803660
-0.799755 0.106603 9.804079
-0.961024 0.372572 9.840463
-0.963400 0.375753 9.840951
-1.176892 0.601817 9.880953
-1.179823 0.604488 9.881474
-1.425998 0.794480 9.923020
-1.047091 -1.381383 9.737061
-0.904047 -1.130715 9.736311
-0.890913 -1.104577 9.736444
-0.780733 -0.837974 9.740629
-0.771363 -0.810273 9.741310
-0.709180 -0.528966 9.752148
-0.705177 -0.500021 9.753548
-0.709284 -0.212642 9.772653
-0.712549 -0.183654 9.774918
-0.793427 0.091323 9.802338
-0.804560 0.118207 9.805401
-0.953521 0.362531 9.838921
-0.970903 0.385795 9.842493
-1.167636 0.593383 9.879307
-1.189079 0.612922 9.883119
-1.415674 0.787401 9.921335
-1.029562 -1.353029 9.736816
-1.006208 -1.315254 9.736490
-0.983736 -1.276954 9.736302
-0.961696 -1.238397 9.736182
-0.940029 -1.199636 9.736119
-0.919475 -1.160266 9.736229
-0.876752 -1.074399 9.736717
-0.857887 -1.034195 9.737081
-0.840120 -0.993508 9.737606
-0.823176 -0.952460 9.738253
-0.806564 -0.911287 9.738947
-0.791808 -0.869408 9.739908
-0.762155 -0.778250 9.742291
-0.749887 -0.735585 9.743598
-0.738947 -0.692592 9.745084
-0.729494 -0.649231 9.746770
-0.720205 -0.605840 9.748478
-0.713907 -0.561927 9.750574
-0.703068 -0.466806 9.755449
-0.700257 -0.422555 9.757982
-0.698857 -0.378286 9.760683
-0.699825 -0.333985 9.763668
-0.700793 -0.289684 9.766653
-0.705565 -0.245669 9.770071
-0.719101 -0.151106 9.777805
-0.728134 -0.107796 9.781684
-0.738277 -0.064783 9.785675
-0.751337 -0.022551 9.789962
-0.764397 0.019680 9.794249
-0.780743 0.060692 9.798847
-0.819356 0.147829 9.809078
-0.839793 0.186946 9.814039
-0.860792 0.225733 9.819046
-0.884399 0.262988 9.824263
-0.908005 0.300243 9.829480
-0.933717 0.336025 9.834852
-0.991899 0.411329 9.846641
-1.020676 0.444694 9.852220
-1.049613 0.477910 9.857809
-1.080431 0.509378 9.863508
-1.111248 0.540846 9.869206
-1.143206 0.571121 9.874963
-1.214093 0.634504 9.887489
-1.248104 0.662458 9.893339
-1.282115 0.690413 9.899189
-1.317339 0.716811 9.905083
-1.352589 0.743177 9.910978
-1.388427 0.768718 9.916889
25 NaN NaN
-1.055046 -1.394251 9.737173
-0.998530 -1.302835 9.736382
-0.945193 -1.209526 9.736092
-0.895453 -1.114253 9.736356
-0.849800 -1.016961 9.737237
-0.808799 -0.917629 9.738802
-0.773093 -0.816291 9.741126
-0.743409 -0.713055 9.744288
-0.720534 -0.608135 9.748368
-0.705296 -0.501884 9.753441
-0.698496 -0.394822 9.759569
-0.700837 -0.287642 9.766791
-0.712826 -0.181193 9.775111
-0.734680 -0.076414 9.784494
-0.766276 0.025754 9.794865
-0.807158 0.124480 9.806116
-0.856602 0.219120 9.818120
-0.913718 0.309259 9.830743
-0.977556 0.394700 9.843860
-1.047188 0.475433 9.857360
-1.121759 0.551579 9.871150
-1.200519 0.623347 9.885154
-1.282823 0.690994 9.899311
-1.368126 0.754798 9.913576
-1.455974 0.815035 9.927912
-1.099754 -1.350096 7.573214
-0.978398 -1.143058 7.629658
-0.876847 -0.926355 7.688618
-0.801739 -0.699866 7.750097
-0.763009 -0.465094 7.813642
-0.767512 -0.227500 7.877748
-0.821542 0.004345 7.940072
-0.924225 0.220433 7.997916
-1.065363 0.415413 8.049885
-1.235838 0.587349 8.095498
-1.426692 0.738137 8.135309
-1.098726 -1.348440 7.573666
-0.979301 -1.144779 7.629189
-0.977495 -1.141336 7.630127
-0.877592 -0.928146 7.688131
-0.876103 -0.924563 7.689105
-0.802160 -0.701753 7.749586
-0.801318 -0.697979 7.750608
-0.763148 -0.467020 7.813121
-0.762870 -0.463168 7.814162
-0.767322 -0.229423 7.877230
-0.767702 -0.225578 7.878266
-0.820836 0.002537 7.939587
-0.822247 0.006152 7.940556
-0.923219 0.218763 7.997470
-0.925231 0.222103 7.998362
-1.064117 0.413901 8.049483
-1.066609 0.416924 8.050288
-1.234342 0.586066 8.095159
-1.237335 0.588631 8.095838
-1.425083 0.736988 8.135006
-1.093517 -1.340057 7.575953
-0.983877 -1.153501 7.626814
-0.972920 -1.132614 7.632502
-0.881362 -0.937220 7.685665
-0.872333 -0.915489 7.691572
-0.804631 -0.711231 7.747016
-0.799185 -0.688419 7.753198
-0.763851 -0.476777 7.810485
-0.762167 -0.453411 7.816799
-0.766359 -0.239161 7.874606
-0.768665 -0.215840 7.880889
-0.817263 -0.006620 7.937132
-0.825820 0.015309 7.943011
-0.918123 0.210303 7.995211
-0.930327 0.230563 8.000622
-1.057806 0.406241 8.047445
-1.072920 0.424584 8.052325
-1.226760 0.579569 8.093441
-1.244917 0.595128 8.097556
-1.416933 0.731169 8.133473
-1.080294 -1.318772 7.581759
-1.062723 -1.290487 7.589475
-1.045207 -1.262172 7.597199
-1.028640 -1.233327 7.605061
-1.012073 -1.204482 7.612923
-0.995507 -1.175637 7.620785
-0.961303 -1.110472 7.638532
-0.946040 -1.080966 7.646567
-0.931879 -1.050949 7.654735
-0.917718 -1.020931 7.662902
-0.903656 -0.990873 7.671080
-0.890935 -0.960258 7.679402
-0.863113 -0.892324 7.697867
-0.852020 -0.861124 7.706340
-0.840927 -0.829923 7.714812
-0.830110 -0.798639 7.723306
-0.820853 -0.766884 7.731920
-0.811597 -0.735128 7.740534
-0.793771 -0.664149 7.759774
-0.786576 -0.631897 7.768512
-0.779913 -0.599552 7.777273
-0.775015 -0.566899 7.786109
-0.770116 -0.534245 7.794945
-0.765635 -0.501548 7.803791
-0.760383 -0.428640 7.823493
-0.758868 -0.395698 7.832391
-0.759229 -0.362699 7.841296
-0.759589 -0.329701 7.850201
-0.760664 -0.296738 7.859092
-0.763913 -0.263884 7.867944
-0.772287 -0.191274 7.887503
-0.778508 -0.158819 7.896234
-0.784729 -0.126363 7.904965
-0.791929 -0.094125 7.913632
-0.801116 -0.062329 7.922171
-0.810304 -0.030533 7.930710
-0.834892 0.038557 7.949243
-0.846946 0.069451 7.957526
-0.860109 0.099889 7.965680
-0.874851 0.129679 7.973651
-0.889594 0.159468 7.981623
-0.905184 0.188826 7.989474
-0.943266 0.252040 8.006359
-0.961540 0.279921 8.013799
-0.980918 0.307128 8.021052
-1.000296 0.334334 8.028305
-1.020493 0.360956 8.035396
-1.041784 0.386796 8.042271
-1.089895 0.443248 8.057284
-1.112841 0.467733 8.063786
-1.135787 0.492218 8.070288
-1.159456 0.516034 8.076606
-1.183822 0.539206 8.082746
-1.208187 0.562377 8.088887
-1.264165 0.611622 8.101918
-1.289744 0.633541 8.107715
-1.315934 0.654762 8.113321
-1.342549 0.675499 8.118794
-1.369163 0.696237 8.124267
-1.396240 0.716395 8.129582
25 NaN NaN
-1.100011 -1.350509 7.573101
-1.046118 -1.263759 7.596766
-0.995308 -1.175291 7.620880
-0.947965 -1.085046 7.645457
-0.904533 -0.992984 7.670506
-0.865520 -0.899093 7.696029
-0.831500 -0.803407 7.722013
-0.803112 -0.706021 7.748429
-0.781048 -0.607116 7.775226
-0.766027 -0.506984 7.802322
-0.758755 -0.406045 7.829599
-0.759861 -0.304862 7.856903
-0.769824 -0.204125 7.884046
-0.788899 -0.104610 7.910816
-0.817069 -0.007118 7.936999
-0.854031 0.087608 7.962393
-0.899235 0.178951 7.986837
-0.951958 0.266468 8.010212
-1.011381 0.349897 8.032454
-1.076673 0.429139 8.053537
-1.147041 0.504228 8.073477
-1.221766 0.575290 8.092309
-1.300213 0.642512 8.110088
-1.381836 0.706112 8.126874
-1.466173 0.766323 8.142733
-1.187864 -1.368338 5.409806
-0.983383 -1.093810 5.438464
-0.818825 -0.794768 5.474482
-0.721753 -0.469529 5.520416
-0.732048 -0.133003 5.577084
-0.867390 0.174365 5.639236
-1.094159 0.424167 5.699386
-1.186613 -1.366785 5.409960
-0.984454 -1.095488 5.438274
-0.982312 -1.092131 5.438654
-0.819604 -0.796594 5.474244
-0.818045 -0.792942 5.474721
-0.722051 -0.471484 5.520117
-0.721456 -0.467574 5.520716
-0.731658 -0.134933 5.576732
-0.732438 -0.131073 5.577436
-0.866348 0.172697 5.638873
-0.868431 0.176034 5.639599
-1.092627 0.422925 5.699053
-1.178151 -1.356281 5.411004
-0.991700 -1.106841 5.436989
-0.975066 -1.080778 5.439939
-0.824879 -0.808948 5.472630
-0.812770 -0.780588 5.476335
-0.724065 -0.484708 5.518090
-0.719442 -0.454350 5.522743
-0.729019 -0.147986 5.574349
-0.735077 -0.118020 5.579819
-0.859302 0.161411 5.636420
-0.875565 0.187259 5.642049
-1.082751 0.413974 5.696753
-1.155586 -1.328269 5.413788
-1.125504 -1.290925 5.417499
-1.096445 -1.252806 5.421423
-1.067596 -1.214528 5.425391
-1.039569 -1.175670 5.429523
-1.012147 -1.136387 5.433776
-0.955745 -1.050504 5.443366
-0.930411 -1.009897 5.448010
-0.906608 -0.968394 5.452929
-0.882805 -0.926892 5.457848
-0.861229 -0.884237 5.463143
-0.839736 -0.841539 5.468451
-0.798705 -0.747645 5.480638
-0.781921 -0.703009 5.486656
-0.766427 -0.657901 5.492859
-0.752284 -0.612417 5.499236
-0.740637 -0.566235 5.505935
-0.729434 -0.519972 5.512684
-0.714073 -0.419086 5.528149
-0.711985 -0.371658 5.535844
-0.709935 -0.324226 5.543542
-0.712032 -0.276913 5.551562
-0.715581 -0.229643 5.559696
-0.721981 -0.182795 5.567994
-0.744307 -0.083814 5.586254
-0.759417 -0.038986 5.594937
-0.775219 0.005559 5.603630
-0.795623 0.048222 5.612390
-0.816028 0.090885 5.621150
-0.840513 0.131315 5.629877
-0.897288 0.215332 5.648499
-0.926248 0.252758 5.657096
-0.956877 0.288791 5.665601
-0.989046 0.323541 5.674020
-1.021909 0.357610 5.682383
-1.056674 0.389816 5.690594
23 NaN NaN
-1.188177 -1.368726 5.409767
-1.120397 -1.284585 5.418129
-1.055394 -1.198339 5.427069
-0.993607 -1.109830 5.436650
-0.935572 -1.018896 5.446943
-0.881944 -0.925390 5.458026
-0.833523 -0.829194 5.469986
-0.791280 -0.730255 5.482910
-0.756376 -0.628642 5.496883
-0.730141 -0.524618 5.511971
-0.714019 -0.418734 5.528203
-0.709403 -0.311914 5.545540
-0.717397 -0.205466 5.563856
-0.738525 -0.100970 5.582932
-0.772549 -0.000023 5.602483
-0.818500 0.096055 5.622212
-0.874915 0.186419 5.641856
-0.940145 0.270717 5.661222
-1.012610 0.348996 5.680187
-1.090928 0.421549 5.698685
-1.173957 0.488803 5.716693
-1.260783 0.551225 5.734212
-1.350683 0.609276 5.751261
