0.131038 0.131044 0.131148 0.131640 0.132420 0.133226 0.134032 0.134839 0.135671 0.136196 0.136312 0.136319 0.136325 0.136441 0.136984 0.137843 0.138741 0.139639 0.140537 0.141464 0.142050 0.142177 0.142185 0.142192 0.142320 0.142905 0.143832 0.144738 0.145643 0.146549 0.147434 0.147992 0.148112 0.148119 0.148127 0.148247 0.148802 0.149681 0.150554 0.151426 0.152299 0.153154 0.153694 0.153811 0.153818 0.153825 0.153942 0.154466 0.155298 0.156079 0.156861 0.157643 0.158372 0.158831 0.158928 0.158934 
0.131036 0.131034 0.131016 0.130930 0.130793 0.130626 0.130460 0.130293 0.130108 0.129991 0.129964 0.129962 
0.131036 0.131035 0.131015 0.130848 0.130584 0.129993 0.129401 0.128810 0.128031 0.127540 0.127437 0.127431 0.127426 0.127323 0.126879 0.126175 0.125659 0.125144 0.124628 0.124262 0.124031 0.123983 0.123980 0.123978 0.123930 0.123705 0.123348 0.122971 0.122595 0.122218 0.121816 0.121563 0.121505 0.121501 0.121498 0.121439 0.121139 0.120664 0.119980 0.119296 0.118612 0.117895 0.117443 0.117353 0.117348 0.117343 0.117255 0.116884 0.116297 0.115865 0.115434 0.115002 0.114729 0.114557 0.114528 0.114526 0.114524 0.114496 0.114391 0.114225 0.114116 0.114006 0.113897 0.113800 0.113738 0.113725 0.113724 0.113723 0.113710 0.113648 0.113550 0.113460 0.113369 0.113279 0.113199 0.113149 0.113138 0.113138 0.113137 0.113127 0.113084 0.113017 0.112973 0.112929 0.112884 0.112856 0.112839 0.112835 0.112835 0.112835 0.112831 0.112817 0.112794 0.112775 0.112755 0.112736 0.112720 0.112709 0.112707 0.112707 0.112707 0.112705 0.112696 0.112683 0.112672 0.112662 0.112652 0.112645 0.112640 0.112640 0.112640 
0.148119 0.148118 0.148107 0.148074 0.148031 0.147979 0.147927 0.147875 0.147816 0.147771 0.147754 0.147752 0.147750 0.147732 0.147683 0.147617 0.147547 0.147477 0.147407 0.147336 0.147282 0.147262 0.147259 0.147256 0.147236 0.147178 0.147100 0.147020 0.146940 0.146860 0.146779 0.146718 0.146696 0.146693 0.146690 0.146668 0.146608 0.146528 0.146493 0.146459 0.146424 0.146411 0.146401 0.146399 0.146399 0.146399 0.146398 0.146398 0.146398 0.146405 0.146412 0.146419 0.146431 0.146440 0.146444 0.146444 0.146445 0.146448 0.146458 0.146471 0.146487 0.146502 0.146518 0.146534 0.146547 0.146552 0.146552 
0.142184 0.142180 0.142166 0.142131 0.142086 0.142039 0.141991 0.141944 0.141895 0.141857 0.141841 0.141837 0.141832 0.141816 0.141777 0.141726 0.141674 0.141621 0.141569 0.141515 0.141474 0.141456 0.141451 0.141446 0.141429 0.141387 0.141332 0.141276 0.141221 0.141165 0.141108 0.141065 0.141047 0.141042 0.141036 0.141018 0.140974 0.140917 0.140859 0.140802 0.140744 0.140686 0.140643 0.140624 0.140619 0.140614 0.140596 0.140552 0.140495 0.140438 0.140380 0.140323 0.140266 0.140222 0.140204 0.140199 0.140193 0.140175 0.140132 0.140075 0.140018 0.139961 0.139904 0.139847 0.139804 0.139786 0.139781 0.139776 0.139757 0.139714 0.139657 0.139600 0.139544 0.139487 0.139429 0.139386 0.139367 0.139362 0.139357 0.139339 0.139296 0.139239 0.139182 0.139126 0.139069 0.139013 0.138971 0.138953 0.138948 0.138943 0.138924 0.138882 0.138826 0.138772 0.138719 0.138665 0.138611 0.138571 0.138553 0.138548 0.138544 0.138527 0.138490 0.138441 0.138401 0.138361 0.138320 0.138297 0.138279 0.138271 0.138269 0.138267 0.138259 0.138243 0.138220 0.138205 0.138189 0.138174 0.138161 0.138152 0.138148 0.138147 0.138146 0.138142 0.138136 0.138129 0.138123 0.138117 0.138110 0.138108 0.138107 0.138107 0.138107 0.138107 0.138107 0.138106 0.138106 0.138108 0.138110 0.138111 0.138116 0.138119 0.138121 0.138121 0.138121 0.138123 0.138127 0.138134 0.138142 0.138150 0.138159 0.138168 0.138175 0.138179 0.138180 0.138182 0.138186 0.138195 0.138207 0.138221 0.138235 0.138249 0.138265 0.138278 0.138283 0.138285 
0.136318 0.136317 0.136311 0.136297 0.136279 0.136259 0.136240 0.136221 0.136200 0.136184 0.136177 0.136175 0.136174 0.136167 0.136150 0.136128 0.136104 0.136080 0.136057 0.136031 0.136012 0.136004 0.136002 0.135999 0.135991 0.135970 0.135943 0.135914 0.135884 0.135855 0.135824 0.135801 0.135791 0.135789 0.135786 0.135776 0.135752 0.135721 0.135687 0.135654 0.135621 0.135587 0.135562 0.135551 0.135548 0.135545 0.135534 0.135508 0.135474 0.135441 0.135407 0.135374 0.135340 0.135315 0.135305 0.135302 0.135299 0.135289 0.135264 0.135232 0.135201 0.135169 0.135137 0.135108 0.135086 0.135076 0.135074 0.135071 0.135062 0.135040 0.135011 0.134982 0.134953 0.134923 0.134893 0.134870 0.134860 0.134858 0.134855 0.134845 0.134822 0.134791 0.134758 0.134725 0.134692 0.134657 0.134631 0.134620 0.134617 0.134614 0.134603 0.134576 0.134540 0.134504 0.134467 0.134431 0.134394 0.134366 0.134354 0.134351 0.134347 0.134335 0.134307 0.134270 0.134243 0.134216 0.134189 0.134165 0.134147 0.134141 0.134139 0.134138 0.134131 0.134117 0.134099 0.134082 0.134066 0.134050 0.134037 0.134026 0.134022 0.134021 0.134020 0.134016 0.134007 0.133995 0.133986 0.133977 0.133968 0.133960 0.133954 0.133952 0.133952 0.133951 0.133949 0.133945 0.133939 0.133934 0.133929 0.133923 0.133920 0.133917 0.133916 0.133916 0.133915 0.133914 0.133912 0.133910 0.133909 0.133908 0.133907 0.133907 0.133907 0.133907 0.133907 0.133908 0.133908 0.133909 0.133911 0.133913 0.133916 0.133919 0.133923 0.133926 0.133927 0.133927 
0.129962 0.129962 0.129963 0.129963 0.129964 0.129961 0.129958 0.129955 0.129950 0.129946 0.129944 0.129943 0.129943 0.129941 0.129936 0.129929 0.129922 0.129914 0.129907 0.129900 0.129894 0.129892 0.129892 0.129891 0.129889 0.129883 0.129875 0.129866 0.129856 0.129847 0.129836 0.129827 0.129824 0.129823 0.129823 0.129819 0.129809 0.129796 0.129780 0.129765 0.129750 0.129732 0.129720 0.129715 0.129714 0.129713 0.129708 0.129695 0.129677 0.129663 0.129650 0.129637 0.129644 0.129649 0.129652 0.129652 0.129652 0.129655 0.129663 0.129673 0.129686 0.129699 0.129712 0.129726 0.129736 0.129741 0.129742 0.129742 0.129747 0.129758 0.129773 0.129788 0.129804 0.129819 0.129835 0.129847 0.129852 0.129852 
