0.137678 0.137687 0.137792 0.138282 0.139057 0.139897 0.140737 0.141577 0.142486 0.143059 0.143191 0.143202 0.143214 0.143346 0.143960 0.144931 0.145986 0.147040 0.148095 0.149244 0.149970 0.150138 0.150152 0.150167 0.150335 0.151117 0.152355 0.153718 0.155080 0.156443 0.157919 0.158851 0.159063 0.159081 0.159100 0.159312 0.160281 0.161817 0.163376 0.164935 0.166493 0.168059 0.169047 0.169268 0.169287 0.169306 0.169528 0.170533 0.172124 0.173787 0.175449 0.177111 0.178888 0.180010 0.180267 0.180290 0.180312 0.180571 0.181766 0.183658 0.185658 0.187659 0.189659 0.191728 0.193034 0.193327 0.193352 0.193378 0.193670 0.194989 0.197077 0.199133 0.201189 0.203245 0.205161 0.206371 0.206627 0.206649 0.206671 0.206924 0.207927 0.209517 0.210532 0.211548 0.212563 0.212936 0.213172 0.213193 0.213195 0.213196 0.213214 0.213190 0.213153 0.212810 0.212467 0.212124 0.211593 0.211258 0.211174 0.211166 0.211159 0.211072 0.210651 0.209985 0.209137 0.208288 0.207439 0.206339 0.205644 0.205472 0.205458 0.205442 0.205269 0.204421 0.203077 0.201480 0.199882 0.198285 0.196475 0.195333 0.195070 0.195047 0.195024 0.194760 0.193547 0.191627 0.189679 0.187731 0.185782 0.183928 0.182757 0.182505 0.182483 0.182461 0.182211 0.181131 0.179421 0.177893 0.176365 0.174837 0.173471 0.172608 0.172424 0.172408 0.172393 0.172210 0.171419 0.170166 0.169007 0.167849 0.166690 0.165600 0.164911 0.164761 0.164748 0.164735 0.164585 0.163925 0.162878 0.161874 0.160869 0.159865 0.158895 0.158283 0.158148 0.158136 0.158124 0.157989 0.157391 0.156443 0.155525 0.154607 0.153688 0.152808 0.152252 0.152131 0.152120 0.152110 0.151989 0.151460 0.150621 0.149837 0.149053 0.148268 0.147539 0.147078 0.146978 0.146969 0.146961 0.146861 0.146425 0.145734 0.145080 0.144426 0.143771 0.143142 0.142745 0.142658 0.142650 
0.159081 0.159083 0.159090 0.159090 0.159090 0.159030 0.158969 0.158909 0.158802 0.158722 0.158686 0.158681 0.158675 0.158638 0.158527 0.158380 0.158201 0.158023 0.157844 0.157639 0.157485 0.157423 0.157414 0.157404 0.157341 0.157170 0.156941 0.156690 0.156439 0.156188 0.155915 0.155710 0.155630 0.155618 0.155605 0.155526 0.155308 0.155017 0.154702 0.154386 0.154071 0.153892 0.153759 0.153727 0.153722 0.153717 0.153686 0.153600 0.153485 0.153365 0.153245 0.153124 0.153002 0.152909 0.152874 0.152869 
0.206634 0.206571 0.206382 0.205967 0.205421 0.204874 0.204327 0.203781 0.203234 0.202818 0.202630 0.202568 0.202506 0.202319 0.201915 0.201384 0.200864 0.200343 0.199822 0.199304 0.198910 0.198732 0.198673 0.198614 0.198437 0.198054 0.197549 0.197051 0.196553 0.196054 0.195565 0.195194 0.195026 0.194971 0.194916 0.194750 0.194391 0.193919 0.193457 0.192996 0.192535 0.192088 0.191747 0.191594 0.191543 0.191493 0.191340 0.191004 0.190562 0.190131 0.189701 0.189270 0.188849 0.188529 0.188383 0.188335 0.188287 0.188142 0.187827 0.187413 0.187008 0.186603 0.186199 0.185800 0.185497 0.185360 0.185315 0.185270 0.185134 0.184839 0.184451 0.184074 0.183697 0.183320 0.182955 0.182677 0.182552 0.182511 0.182470 0.182346 0.182078 0.181725 0.181384 0.181043 0.180703 0.180374 0.180125 0.180012 0.179975 0.179938 0.179826 0.179583 0.179264 0.178950 0.178637 0.178324 0.178018 0.177785 0.177680 0.177646 0.177611 0.177507 0.177280 0.176982 0.176804 0.176627 0.176450 0.176317 0.176216 0.176170 0.176155 0.176140 0.176094 0.175994 0.175862 0.175727 0.175593 0.175458 0.175322 0.175219 0.175171 0.175156 0.175140 0.175093 0.174989 0.174852 0.174715 0.174578 0.174440 0.174308 0.174208 0.174163 0.174148 0.174133 0.174087 0.173989 0.173860 0.173734 0.173608 0.173482 0.173357 0.173263 0.173220 0.173205 0.173191 0.173149 0.173057 0.172936 0.172817 0.172698 0.172578 0.172463 0.172375 0.172336 0.172323 0.172310 0.172271 0.172186 0.172075 0.171967 0.171858 0.171750 0.171645 0.171565 0.171529 0.171517 
0.211148 0.211074 0.210825 0.210262 0.209521 0.208796 0.208072 0.207347 0.206624 0.206075 0.205838 0.205768 0.205698 0.205463 0.204936 0.204242 0.203560 0.202878 0.202196 0.201535 0.201033 0.200816 0.200752 0.200688 0.200473 0.199979 0.199329 0.198701 0.198073 0.197445 0.196833 0.196369 0.196167 0.196107 0.196047 0.195846 0.195395 0.194799 0.194220 0.193640 0.193060 0.192495 0.192066 0.191880 0.191825 0.191770 0.191585 0.191165 0.190611 0.190068 0.189525 0.188981 0.188452 0.188051 0.187876 0.187824 0.187772 0.187598 0.187207 0.186690 0.186185 0.185680 0.185175 0.184684 0.184312 0.184152 0.184104 0.184057 0.183897 0.183540 0.183068 0.182617 0.182166 0.181715 0.181279 0.180949 0.180806 0.180764 0.180722 0.180582 0.180265 0.179846 0.179471 0.179096 0.178721 0.178518 0.178364 0.178296 0.178276 0.178255 0.178187 0.178031 0.177825 0.177621 0.177418 0.177215 0.177022 0.176876 0.176813 0.176795 0.176776 0.176714 0.176566 0.176371 0.176179 0.175986 0.175794 0.175606 0.175464 0.175403 0.175384 0.175366 0.175305 0.175166 0.174984 0.174806 0.174629 0.174452 0.174280 0.174149 0.174093 0.174076 0.174059 0.174003 0.173876 0.173709 0.173548 0.173387 0.173226 0.173069 0.172950 0.172900 0.172885 0.172870 0.172820 0.172706 0.172556 0.172411 0.172265 0.172120 0.171981 0.171875 0.171830 0.171816 
0.164744 0.164728 0.164684 0.164588 0.164462 0.164334 0.164206 0.164078 0.163948 0.163848 0.163800 0.163783 0.163766 0.163718 0.163614 0.163478 0.163339 0.163201 0.163063 0.162922 0.162814 0.162763 0.162745 0.162727 0.162676 0.162565 0.162420 0.162274 0.162128 0.161981 0.161831 0.161716 0.161662 0.161643 0.161623 0.161569 0.161452 0.161299 0.161144 0.160989 0.160835 0.160675 0.160553 0.160496 0.160476 0.160455 0.160398 0.160275 0.160114 0.159950 0.159786 0.159623 0.159454 0.159325 0.159264 0.159243 0.159222 0.159161 0.159030 0.158858 0.158682 0.158506 0.158330 0.158195 0.158091 0.158063 0.158053 0.158043 0.158014 0.157953 0.157873 0.157793 0.157712 0.157632 0.157550 0.157489 0.157460 0.157449 0.157439 0.157410 0.157348 0.157266 0.157185 0.157104 0.157022 0.156940 0.156878 0.156849 0.156839 0.156828 0.156799 0.156736 0.156654 0.156573 0.156492 0.156411 0.156330 0.156268 0.156239 0.156229 0.156219 0.156190 0.156129 0.156049 0.155970 0.155892 0.155813 0.155734 0.155675 0.155647 0.155637 0.155627 0.155600 0.155542 0.155466 0.155391 0.155316 0.155241 0.155166 0.155109 0.155082 0.155073 0.155063 0.155037 0.154982 0.154910 0.154839 0.154767 0.154696 0.154625 0.154571 0.154546 0.154537 0.154529 0.154504 0.154453 0.154385 0.154317 0.154250 0.154182 0.154115 0.154064 0.154041 0.154033 
