0.187997 0.187981 0.187741 0.186605 0.184805 0.182870 0.180936 0.179001 0.177093 0.175888 0.175633 0.175616 0.175600 0.175344 0.174227 0.172458 0.170871 0.169284 0.167696 0.166235 0.165312 0.165115 0.165102 
0.188005 0.188023 0.188207 0.188753 0.189586 0.190124 0.190661 0.191199 0.191717 0.192056 0.192153 0.192162 0.192172 0.192273 0.192721 0.193405 0.194360 0.195316 0.196271 0.197459 0.198238 0.198453 0.198473 0.198494 0.198707 0.199572 0.200892 0.202334 0.203775 0.205216 0.206767 0.207784 0.208049 0.208074 0.208100 0.208369 0.209438 0.211069 0.212704 0.214338 0.215973 0.217571 0.218620 0.218884 0.218910 0.218935 0.219201 0.220219 0.221773 0.223184 0.224594 0.226005 0.227290 0.228133 0.228340 0.228360 0.228379 0.228584 0.229329 0.230467 0.231435 0.232403 0.233370 0.234081 0.234547 0.234643 0.234652 0.234660 0.234751 0.234987 0.235349 0.235183 0.235017 0.234852 0.234018 0.233472 0.233291 0.233273 0.233255 0.233059 0.232105 0.230652 0.228600 0.226549 0.224498 0.222062 0.220464 0.220045 0.220005 0.219963 0.219531 0.217834 0.215246 0.212683 0.210120 0.207556 0.205107 0.203501 0.203101 0.203063 0.203025 0.202627 0.201126 0.198837 0.196725 0.194613 0.192500 0.190563 0.189292 0.188978 0.188948 0.188917 0.188605 0.187421 0.185615 0.183943 0.182270 0.180598 0.179043 0.178024 0.177773 0.177749 0.177725 0.177474 0.176520 0.175064 0.173702 0.172340 0.170978 0.169707 0.168873 0.168665 0.168644 
0.188002 0.188008 0.188103 0.186956 0.185140 0.184588 0.184036 0.183484 0.182656 0.182133 0.181952 0.181941 0.181930 0.181753 0.180747 0.179153 0.177139 0.175126 0.173113 0.171555 0.170572 0.170391 0.170380 0.170369 0.170188 0.169398 0.168147 0.166854 0.165561 0.164268 0.162340 0.161123 0.160790 0.160769 0.160749 0.160407 0.157537 0.152990 0.146924 0.140858 0.134792 0.130087 0.127118 0.126704 0.126679 0.126656 0.126276 0.125100 0.123237 0.122251 0.121265 0.120280 0.119650 0.119253 0.119178 0.119173 0.119169 0.119095 0.118804 0.118342 0.118004 0.117666 0.117327 0.117066 0.116902 0.116869 0.116867 0.116865 0.116832 0.116694 0.116474 0.116290 0.116105 0.115921 0.115765 0.115667 0.115647 0.115645 0.115644 0.115624 0.115538 0.115402 0.115286 0.115170 0.115055 0.114957 0.114896 0.114884 0.114883 0.114882 0.114870 0.114816 0.114731 0.114661 0.114590 0.114519 0.114460 0.114422 0.114415 0.114415 0.114414 0.114407 0.114375 0.114325 0.114284 0.114243 0.114202 0.114169 0.114149 0.114145 0.114145 0.114144 0.114140 0.114124 0.114099 0.114084 0.114069 0.114054 0.114044 0.114037 0.114032 0.114032 
0.175613 0.175600 0.175517 0.175273 0.174949 0.174567 0.174184 0.173802 0.173360 0.173029 0.172899 0.172879 0.172859 0.172728 0.172371 0.171896 0.171405 0.170915 0.170425 0.169933 0.169564 0.169428 0.169407 0.169386 0.169249 0.168898 0.168430 0.167980 0.167530 0.167080 0.166669 0.166361 0.166250 0.166233 0.166216 0.166106 0.165833 0.165470 0.165113 0.164756 0.164399 0.164023 0.163740 0.163623 0.163605 0.163587 0.163469 0.163160 0.162748 0.162314 0.161881 0.161447 0.161000 0.160665 0.160536 0.160516 0.160496 0.160367 0.160025 0.159571 0.159178 0.158785 0.158392 0.158066 0.157821 0.157739 0.157727 0.157714 0.157633 0.157428 0.157154 0.156933 0.156712 0.156490 0.156300 0.156158 0.156111 0.156104 0.156097 0.156050 0.155928 0.155767 0.155629 0.155492 0.155355 0.155231 0.155138 0.155107 0.155102 0.155097 0.155066 0.154983 0.154872 0.154772 0.154673 0.154573 0.154479 0.154409 0.154384 0.154381 0.154377 0.154352 0.154284 0.154193 0.154108 0.154023 0.153938 0.153853 0.153790 0.153766 0.153763 
0.192152 0.192113 0.191947 0.191535 0.190989 0.190426 0.189863 0.189300 0.188725 0.188292 0.188111 0.188069 0.188026 0.187847 0.187401 0.186811 0.186221 0.185632 0.185042 0.184466 0.184032 0.183858 0.183817 0.183776 0.183604 0.183188 0.182638 0.182120 0.181603 0.181085 0.180600 0.180234 0.180088 0.180053 0.180019 0.179875 0.179569 0.179164 0.178823 0.178482 0.178140 0.177803 0.177548 0.177443 0.177418 0.177393 0.177288 0.177035 0.176700 0.176365 0.176031 0.175697 0.175365 0.175114 0.175011 0.174987 0.174962 0.174858 0.174604 0.174268 0.173931 0.173594 0.173258 0.172917 0.172659 0.172554 0.172529 0.172504 0.172398 0.172142 0.171802 0.171459 0.171117 0.170774 0.170421 0.170155 0.170046 0.170020 0.169994 0.169885 0.169615 0.169259 0.168900 0.168540 0.168181 0.167823 0.167553 0.167443 0.167417 0.167392 0.167286 0.167040 0.166714 0.166415 0.166115 0.165816 0.165537 0.165327 0.165247 0.165228 0.165209 0.165130 0.164947 0.164703 0.164487 0.164271 0.164055 0.163853 0.163701 0.163643 0.163629 0.163617 0.163564 0.163437 0.163268 0.163113 0.162958 0.162804 0.162665 0.162561 0.162517 0.162507 0.162496 0.162453 0.162361 0.162241 0.162126 0.162011 0.161897 0.161797 0.161721 0.161690 0.161683 0.161675 0.161644 0.161572 0.161476 0.161388 0.161299 0.161210 0.161129 0.161068 0.161044 0.161038 0.161032 0.161007 0.160946 0.160865 0.160792 0.160720 0.160647 0.160575 0.160521 0.160501 0.160496 0.160491 0.160470 0.160418 0.160349 0.160282 0.160216 0.160150 0.160083 0.160033 0.160013 0.160008 0.160004 0.159985 0.159936 0.159873 0.159807 0.159742 0.159677 0.159612 0.159563 0.159542 0.159537 
0.198459 0.198404 0.198178 0.197634 0.196913 0.196191 0.195469 0.194747 0.194027 0.193483 0.193259 0.193204 0.193150 0.192926 0.192394 0.191690 0.191009 0.190328 0.189647 0.188982 0.188480 0.188277 0.188228 0.188178 0.187977 0.187500 0.186868 0.186269 0.185669 0.185070 0.184504 0.184076 0.183904 0.183861 0.183820 0.183652 0.183266 0.182754 0.182275 0.181795 0.181316 0.180863 0.180521 0.180385 0.180351 0.180318 0.180181 0.179858 0.179429 0.179016 0.178603 0.178190 0.177775 0.177461 0.177330 0.177298 0.177266 0.177136 0.176824 0.176412 0.176008 0.175605 0.175201 0.174811 0.174517 0.174397 0.174367 0.174338 0.174218 0.173937 0.173564 0.173220 0.172875 0.172531 0.172211 0.171970 0.171875 0.171851 0.171828 0.171734 0.171512 0.171218 0.170952 0.170686 0.170420 0.170169 0.169980 0.169908 0.169891 0.169873 0.169802 0.169635 0.169413 0.169207 0.169002 0.168797 0.168606 0.168461 0.168402 0.168388 0.168373 0.168314 0.168186 0.168017 0.167853 0.167689 0.167526 0.167378 0.167266 0.167220 0.167208 0.167197 0.167151 0.167044 0.166902 0.166769 0.166636 0.166503 0.166379 0.166286 0.166248 0.166239 0.166230 0.166192 0.166100 0.165978 0.165866 0.165755 0.165643 0.165533 0.165449 0.165417 0.165410 0.165402 0.165370 0.165292 0.165189 0.165089 0.164989 0.164890 0.164791 0.164717 0.164686 0.164678 0.164671 0.164640 0.164570 0.164477 0.164382 0.164288 0.164193 0.164101 0.164032 0.164003 0.163995 
0.234614 0.234463 0.233917 0.232676 0.231037 0.229507 0.227976 0.226446 0.225006 0.223915 0.223460 0.223334 0.223209 0.222757 0.221724 0.220360 0.219075 0.217790 0.216505 0.215294 0.214378 0.213999 0.213894 0.213790 0.213415 0.212563 0.211438 0.210388 0.209338 0.208289 0.207303 0.206557 0.206244 0.206158 0.206072 0.205762 0.205055 0.204122 0.203243 0.202364 0.201485 0.200667 0.200048 0.199793 0.199723 0.199654 0.199403 0.198833 0.198079 0.197375 0.196672 0.195968 0.195305 0.194803 0.194594 0.194536 0.194479 0.194272 0.193807 0.193192 0.192621 0.192049 0.191477 0.190933 0.190521 0.190350 0.190303 0.190256 0.190086 0.189696 0.189180 0.188693 0.188206 0.187719 0.187255 0.186903 0.186755 0.186715 0.186674 0.186527 0.186205 0.185780 0.185372 0.184963 0.184555 0.184184 0.183904 0.183788 0.183756 0.183725 0.183610 0.183349 0.183004 0.182700 0.182397 0.182093 0.181813 0.181600 0.181513 0.181489 0.181466 0.181384 0.181205 0.180969 0.180738 0.180507 0.180276 0.180077 0.179926 0.179862 0.179844 0.179827 0.179763 0.179616 0.179421 0.179253 0.179085 0.178917 0.178750 0.178624 0.178575 0.178562 0.178550 0.178504 0.178395 0.178251 0.178108 0.177965 0.177822 0.177694 0.177598 0.177557 0.177545 0.177534 0.177493 0.177398 0.177274 0.177164 0.177054 0.176943 0.176834 0.176751 0.176720 0.176711 0.176703 0.176671 0.176597 0.176499 0.176404 0.176309 0.176214 0.176126 0.176060 0.176031 0.176023 0.176015 0.175987 0.175923 0.175840 0.175762 0.175684 0.175606 0.175531 0.175474 0.175451 0.175445 
