0.287008 0.286966 0.286363 0.282086 0.275308 0.266398 0.257487 0.248576 0.240817 0.235919 0.234939 0.234872 0.234805 0.233843 0.229844 0.223508 0.218572 0.213636 0.208700 0.204748 0.202253 0.201745 0.201710 0.201675 0.201174 0.199032 0.195638 0.192699 0.189759 0.186820 0.184210 0.182562 0.182219 0.182195 0.182171 0.181824 0.180299 0.177883 0.175672 0.173460 0.171249 0.169266 0.168014 0.167752 0.167734 0.167716 0.167456 0.166337 0.164566 0.163016 0.161467 0.159918 0.158564 0.157709 0.157532 0.157519 0.157507 0.157332 0.156566 0.155352 0.154254 0.153155 0.152057 0.151051 0.150417 0.150281 0.150272 0.150263 0.150128 0.149525 0.148569 0.147660 0.146750 0.145840 0.144972 0.144425 0.144307 0.144298 0.144290 0.144173 0.143646 0.142812 0.142018 0.141223 0.140429 0.139675 0.139199 0.139097 0.139090 
0.287029 0.287070 0.287486 0.288196 0.289222 0.288407 0.287591 0.286775 0.284732 0.283318 0.282783 0.282729 0.282673 0.282113 0.280022 0.277001 0.273655 0.270310 0.266964 0.263367 0.260876 0.260178 0.260108 0.260048 0.259451 0.257219 0.253995 0.250799 0.247604 0.244409 0.241457 0.239413 0.238823 0.238764 0.238705 0.238119 0.236240 0.233527 0.231032 0.228537 0.226041 0.223740 0.222146 0.221685 0.221639 0.221593 0.221135 0.219637 0.217475 0.215451 0.213427 0.211404 0.209493 0.208170 0.207780 0.207740 0.207701 0.207314 0.206054 0.204235 0.202509 0.200783 0.199057 0.197415 0.196279 0.195945 0.195912 0.195879 0.195545 0.194457 0.192886 0.191409 0.189932 0.188455 0.187061 0.186096 0.185812 0.185784 0.185756 0.185474 0.184557 0.183234 0.181990 0.180746 0.179502 0.178326 0.177511 0.177271 0.177247 0.177223 0.176985 0.176209 0.175089 0.174033 0.172977 0.171922 0.170918 0.170223 0.170017 0.169997 0.169976 0.169771 0.169104 0.168141 0.167224 0.166307 0.165390 0.164517 0.163912 0.163733 0.163715 
0.287079 0.287323 0.291049 0.302076 0.319548 0.317904 0.316259 0.314614 0.299571 0.290077 0.287712 0.287557 0.287407 0.285123 0.275403 0.260002 0.248645 0.237288 0.225931 0.217493 0.212167 0.211158 0.211091 0.211026 0.210038 0.205978 0.199546 0.194960 0.190374 0.185787 0.182403 0.180268 0.179832 0.179803 0.179775 0.179342 0.177333 0.174150 0.170467 0.166783 0.163100 0.158838 0.156149 0.155523 0.155482 0.155441 0.154815 0.151843 0.147134 0.142727 0.138320 0.133913 0.130786 0.128813 0.128453 0.128429 0.128406 0.128061 0.126763 0.124705 0.123462 0.122218 0.120974 0.120199 0.119710 0.119618 0.119612 0.119607 0.119518 0.119166 0.118609 0.118213 0.117816 0.117419 0.117126 0.116941 0.116905 0.116903 0.116901 0.116865 0.116716 0.116479 0.116289 0.116099 0.115909 0.115753 0.115655 0.115634 0.115633 0.115632 0.115612 0.115527 0.115392 0.115278 0.115164 0.115050 0.114954 0.114893 0.114881 0.114880 0.114879 0.114867 0.114814 0.114730 0.114659 0.114588 0.114517 0.114457 0.114420 0.114412 0.114411 0.114411 0.114403 0.114370 0.114318 0.114275 0.114231 0.114187 0.114150 0.114127 0.114122 0.114122 0.114122 0.114117 0.114097 0.114066 0.114038 0.114010 0.113982 0.113938 0.113910 0.113900 0.113899 
0.157516 0.157500 0.157447 0.157323 0.157160 0.156997 0.156834 0.156672 0.156506 0.156381 0.156327 0.156312 0.156297 0.156243 0.156118 0.155954 0.155788 0.155621 0.155455 0.155290 0.155164 0.155111 0.155095 0.155080 0.155026 0.154900 0.154733 0.154567 0.154401 0.154235 0.154068 0.153942 0.153887 0.153872 0.153856 0.153802 0.153676 0.153510 0.153343 0.153177 0.153011 0.152845 0.152720 0.152665 0.152650 0.152635 0.152581 0.152456 0.152291 0.152126 0.151962 0.151798 0.151649 0.151535 0.151493 0.151480 0.151468 0.151426 0.151328 0.151200 0.151076 0.150953 0.150830 0.150713 0.150625 0.150588 0.150577 0.150567 0.150529 0.150445 0.150333 0.150229 0.150125 0.150021 0.149918 0.149841 0.149810 0.149802 0.149793 0.149763 0.149693 0.149601 0.149511 0.149422 0.149333 0.149253 0.149193 0.149166 0.149159 0.149151 0.149125 0.149064 0.148983 0.148913 0.148843 0.148773 0.148704 0.148652 0.148629 0.148622 0.148617 0.148596 0.148551 0.148492 0.148431 0.148371 0.148311 0.148260 0.148221 0.148205 0.148200 0.148195 0.148178 0.148140 0.148089 0.148044 0.147999 0.147955 0.147912 0.147879 0.147865 0.147861 0.147857 0.147843 0.147815 0.147778 0.147742 0.147706 0.147670 0.147637 0.147613 0.147603 0.147600 0.147597 0.147587 0.147564 0.147534 0.147506 0.147479 0.147451 0.147425 0.147406 0.147398 0.147395 0.147393 0.147385 0.147367 0.147344 0.147322 0.147301 0.147280 0.147259 0.147243 0.147237 0.147236 
0.182186 0.182151 0.182065 0.181894 0.181670 0.181449 0.181229 0.181008 0.180790 0.180623 0.180540 0.180506 0.180473 0.180390 0.180224 0.180007 0.179792 0.179578 0.179363 0.179150 0.178987 0.178905 0.178872 0.178839 0.178758 0.178596 0.178384 0.178174 0.177964 0.177753 0.177545 0.177385 0.177305 0.177272 0.177240 0.177161 0.177004 0.176799 0.176595 0.176391 0.176188 0.175986 0.175831 0.175754 0.175723 0.175691 0.175615 0.175462 0.175263 0.175065 0.174867 0.174669 0.174473 0.174323 0.174248 0.174218 0.174187 0.174113 0.173965 0.173773 0.173584 0.173394 0.173204 0.173017 0.172874 0.172802 0.172773 0.172744 0.172673 0.172532 0.172348 0.172165 0.171981 0.171798 0.171616 0.171476 0.171407 0.171378 0.171350 0.171281 0.171144 0.170966 0.170789 0.170613 0.170437 0.170263 0.170129 0.170063 0.170035 0.170008 0.169942 0.169810 0.169637 0.169466 0.169294 0.169123 0.168955 0.168827 0.168763 0.168736 0.168710 0.168646 0.168519 0.168353 0.168188 0.168024 0.167859 0.167698 0.167574 0.167513 0.167488 0.167464 0.167403 0.167281 0.167123 0.166966 0.166809 0.166653 0.166498 0.166380 0.166323 0.166299 0.166276 0.166218 0.166104 0.165955 0.165830 0.165705 0.165580 0.165467 0.165379 0.165338 0.165321 0.165305 0.165264 0.165185 0.165082 0.164983 0.164885 0.164786 0.164691 0.164619 0.164583 0.164568 0.164554 0.164519 0.164454 0.164369 0.164285 0.164201 0.164117 0.164034 0.163971 0.163939 0.163926 0.163914 0.163882 0.163824 0.163749 0.163676 0.163604 0.163531 0.163459 0.163404 0.163377 0.163365 0.163354 0.163327 0.163274 0.163206 0.163143 0.163081 0.163018 0.162955 0.162907 0.162883 0.162873 0.162863 0.162839 0.162791 0.162728 0.162673 0.162618 0.162562 0.162507 0.162464 0.162443 0.162434 0.162425 0.162404 0.162361 0.162306 0.162255 0.162204 0.162154 0.162104 0.162067 0.162048 0.162040 0.162032 0.162013 0.161975 0.161926 0.161879 0.161833 0.161787 0.161743 0.161710 0.161693 0.161686 0.161679 0.161662 0.161629 0.161584 0.161542 0.161499 0.161456 0.161416 0.161386 0.161371 0.161364 0.161358 0.161343 0.161312 0.161272 0.161232 0.161191 0.161151 0.161115 0.161088 0.161074 0.161068 0.161063 0.161049 0.161021 0.160985 0.160948 0.160911 0.160874 0.160841 0.160815 0.160802 0.160797 0.160792 0.160779 0.160754 0.160720 0.160686 0.160652 0.160618 0.160586 0.160561 0.160549 0.160544 0.160539 0.160527 0.160503 0.160472 0.160440 0.160408 0.160376 0.160344 0.160320 0.160309 0.160304 0.160300 0.160288 0.160266 0.160236 0.160206 0.160176 0.160145 0.160114 0.160090 0.160078 0.160074 0.160069 0.160058 0.160036 0.160007 0.159978 0.159948 0.159919 0.159888 0.159865 0.159853 0.159848 0.159843 0.159832 0.159810 0.159781 0.159752 0.159722 0.159693 0.159663 0.159640 0.159628 0.159623 
0.201697 0.201647 0.201495 0.201161 0.200723 0.200281 0.199840 0.199398 0.198953 0.198614 0.198458 0.198406 0.198354 0.198198 0.197857 0.197410 0.196964 0.196519 0.196073 0.195627 0.195288 0.195133 0.195081 0.195029 0.194875 0.194536 0.194092 0.193652 0.193213 0.192773 0.192340 0.192010 0.191860 0.191810 0.191761 0.191612 0.191288 0.190864 0.190444 0.190023 0.189603 0.189191 0.188878 0.188737 0.188690 0.188643 0.188503 0.188200 0.187801 0.187415 0.187028 0.186641 0.186267 0.185983 0.185856 0.185813 0.185771 0.185644 0.185370 0.185010 0.184658 0.184306 0.183954 0.183615 0.183356 0.183240 0.183202 0.183163 0.183048 0.182803 0.182481 0.182167 0.181852 0.181538 0.181230 0.180996 0.180890 0.180855 0.180819 0.180713 0.180484 0.180182 0.179888 0.179595 0.179301 0.179015 0.178797 0.178699 0.178666 0.178633 0.178535 0.178320 0.178039 0.177764 0.177489 0.177214 0.176942 0.176735 0.176641 0.176610 0.176578 0.176484 0.176287 0.176029 0.175786 0.175544 0.175301 0.175069 0.174894 0.174817 0.174792 0.174767 0.174693 0.174533 0.174323 0.174121 0.173919 0.173718 0.173533 0.173392 0.173330 0.173309 0.173288 0.173227 0.173094 0.172920 0.172754 0.172588 0.172422 0.172272 0.172158 0.172106 0.172089 0.172072 0.172020 0.171909 0.171763 0.171627 0.171492 0.171356 0.171229 0.171132 0.171088 0.171073 0.171059 0.171015 0.170920 0.170795 0.170682 0.170569 0.170456 0.170343 0.170257 0.170218 0.170205 0.170192 0.170154 0.170076 0.169975 0.169876 0.169777 0.169679 0.169580 0.169504 0.169474 0.169463 0.169453 0.169422 0.169355 0.169266 0.169177 0.169087 0.168998 0.168916 0.168853 0.168825 0.168815 0.168806 0.168778 0.168716 0.168635 0.168555 0.168476 0.168396 0.168322 0.168265 0.168240 0.168231 0.168222 0.168196 0.168139 0.168065 0.167994 0.167924 0.167854 0.167785 0.167733 0.167709 0.167700 0.167692 0.167668 0.167616 0.167546 0.167482 0.167417 0.167352 0.167286 0.167235 0.167212 0.167204 0.167196 0.167173 0.167126 0.167064 0.167001 0.166937 0.166874 0.166811 0.166762 0.166741 0.166734 0.166727 0.166706 0.166660 0.166600 0.166538 0.166475 0.166413 0.166353 0.166307 0.166287 0.166280 
0.234846 0.234741 0.234447 0.233817 0.232991 0.232145 0.231300 0.230454 0.229610 0.228965 0.228660 0.228551 0.228442 0.228136 0.227488 0.226638 0.225796 0.224955 0.224114 0.223280 0.222644 0.222343 0.222236 0.222129 0.221829 0.221192 0.220357 0.219533 0.218708 0.217884 0.217079 0.216465 0.216178 0.216076 0.215974 0.215689 0.215093 0.214311 0.213555 0.212798 0.212042 0.211288 0.210714 0.210447 0.210351 0.210257 0.209992 0.209443 0.208722 0.208038 0.207353 0.206668 0.206007 0.205503 0.205271 0.205189 0.205107 0.204878 0.204403 0.203781 0.203192 0.202604 0.202016 0.201447 0.201014 0.200815 0.200744 0.200674 0.200477 0.200071 0.199539 0.199034 0.198529 0.198024 0.197538 0.197168 0.197001 0.196942 0.196883 0.196718 0.196379 0.195935 0.195516 0.195097 0.194679 0.194268 0.193955 0.193801 0.193746 0.193695 0.193552 0.193271 0.192901 0.192535 0.192169 0.191804 0.191441 0.191164 0.191035 0.190989 0.190943 0.190814 0.190543 0.190186 0.189829 0.189472 0.189115 0.188756 0.188482 0.188353 0.188306 0.188260 0.188131 0.187860 0.187504 0.187151 0.186799 0.186446 0.186097 0.185831 0.185706 0.185662 0.185617 0.185493 0.185230 0.184885 0.184548 0.184211 0.183874 0.183542 0.183289 0.183170 0.183128 0.183086 0.182968 0.182720 0.182394 0.182084 0.181773 0.181463 0.181166 0.180939 0.180835 0.180798 0.180761 0.180658 0.180447 0.180171 0.179916 0.179661 0.179406 0.179160 0.178972 0.178885 0.178854 0.178824 0.178737 0.178569 0.178349 0.178146 0.177942 0.177739 0.177544 0.177395 0.177326 0.177301 0.177277 0.177208 0.177083 0.176919 0.176765 0.176610 0.176455 0.176306 0.176192 0.176140 0.176121 0.176103 0.176054 0.175964 0.175844 0.175723 0.175602 0.175481 0.175360 0.175268 0.175226 0.175211 0.175198 0.175162 0.175086 0.174985 0.174883 0.174781 0.174679 0.174578 0.174501 0.174471 0.174461 0.174450 0.174420 0.174357 0.174274 0.174191 0.174108 0.174025 0.173945 0.173884 0.173860 0.173851 0.173842 0.173817 0.173764 0.173693 0.173620 0.173547 0.173474 0.173406 0.173355 0.173332 0.173324 0.173316 0.173294 0.173246 0.173182 0.173118 0.173053 0.172988 0.172929 0.172884 0.172864 0.172857 0.172849 0.172829 0.172785 0.172727 0.172668 0.172609 0.172551 0.172499 0.172459 0.172440 0.172433 0.172426 0.172407 0.172367 0.172313 0.172259 0.172204 0.172150 0.172101 0.172063 0.172045 0.172039 0.172032 0.172014 0.171975 0.171924 0.171873 0.171822 0.171770 0.171722 0.171685 0.171667 0.171661 0.171654 0.171636 0.171598 0.171547 0.171497 0.171446 0.171396 0.171347 0.171309 0.171291 0.171285 
0.282666 0.282414 0.280170 0.274342 0.266556 0.260141 0.253726 0.247311 0.241820 0.237709 0.236303 0.236145 0.235990 0.234613 0.231110 0.226429 0.222541 0.218653 0.214765 0.211743 0.209481 0.208751 0.208669 0.208590 0.207886 0.206129 0.203780 0.201947 0.200114 0.198281 0.196638 0.195407 0.194967 0.194917 0.194868 0.194435 0.193235 0.191633 0.190108 0.188584 0.187059 0.185673 0.184636 0.184276 0.184235 0.184195 0.183839 0.182974 0.181818 0.180994 0.180170 0.179346 0.178761 0.178322 0.178174 0.178158 0.178143 0.178016 0.177681 0.177232 0.176866 0.176499 0.176133 0.175830 0.175603 0.175529 0.175521 0.175512 0.175437 0.175235 0.174966 0.174723 0.174480 0.174237 0.174009 0.173838 0.173778 0.173771 
0.260046 0.259802 0.258795 0.256523 0.253513 0.250902 0.248290 0.245678 0.243129 0.241204 0.240438 0.240252 0.240069 0.239313 0.237543 0.235199 0.233044 0.230888 0.228733 0.226751 0.225255 0.224664 0.224520 0.224379 0.223797 0.222453 0.220673 0.219033 0.217393 0.215753 0.214263 0.213137 0.212692 0.212584 0.212478 0.212042 0.211029 0.209688 0.208485 0.207282 0.206079 0.204999 0.204184 0.203865 0.203787 0.203711 0.203396 0.202675 0.201720 0.200883 0.200047 0.199210 0.198435 0.197850 0.197615 0.197558 0.197502 0.197271 0.196727 0.196007 0.195286 0.194564 0.193843 0.193162 0.192647 0.192438 0.192387 0.192336 0.192127 0.191623 0.190957 0.190313 0.189670 0.189026 0.188401 0.187929 0.187743 0.187698 0.187652 0.187467 0.187024 0.186438 0.185888 0.185339 0.184789 0.184274 0.183885 0.183728 0.183690 0.183652 0.183496 0.183168 0.182733 0.182336 0.181938 0.181541 0.181215 0.180969 0.180870 0.180846 0.180822 0.180725 0.180511 0.180228 0.179987 0.179746 0.179505 0.179301 0.179146 0.179089 0.179075 0.179061 0.179004 0.178866 0.178683 0.178534 0.178384 0.178234 0.178088 0.177978 0.177943 0.177934 0.177926 0.177890 0.177800 0.177682 0.177575 0.177469 0.177363 0.177267 0.177195 0.177164 0.177157 0.177149 0.177118 0.177055 0.176972 0.176892 0.176812 0.176731 0.176667 0.176619 0.176599 0.176594 0.176589 0.176568 0.176520 0.176456 0.176402 0.176348 0.176294 0.176242 0.176203 0.176188 0.176185 
0.238723 0.238562 0.237612 0.235261 0.232132 0.229338 0.226544 0.223750 0.221242 0.219357 0.218667 0.218550 0.218434 0.217755 0.216070 0.213827 0.211841 0.209854 0.207867 0.206103 0.204777 0.204296 0.204213 0.204133 0.203662 0.202500 0.200954 0.199586 0.198217 0.196848 0.195626 0.194707 0.194368 0.194310 0.194252 0.193917 0.193078 0.191962 0.190924 0.189886 0.188849 0.187894 0.187177 0.186908 0.186862 0.186817 0.186552 0.185896 0.185022 0.184230 0.183437 0.182644 0.181959 0.181444 0.181256 0.181224 0.181194 0.181017 0.180626 0.180105 0.179704 0.179302 0.178900 0.178584 0.178347 0.178270 0.178257 0.178244 0.178167 0.177982 0.177735 0.177535 0.177336 0.177136 0.176964 0.176835 0.176791 0.176784 0.176777 0.176738 0.176633 0.176494 0.176384 0.176274 0.176163 0.176081 0.176020 0.175996 0.175992 
0.195900 0.195851 0.195680 0.195290 0.194775 0.194264 0.193754 0.193244 0.192741 0.192361 0.192197 0.192150 0.192103 0.191940 0.191569 0.191079 0.190602 0.190125 0.189647 0.189182 0.188830 0.188679 0.188635 0.188592 0.188442 0.188101 0.187651 0.187216 0.186781 0.186347 0.185928 0.185612 0.185476 0.185438 0.185399 0.185264 0.184959 0.184557 0.184169 0.183780 0.183392 0.183014 0.182728 0.182606 0.182570 0.182535 0.182413 0.182139 0.181778 0.181429 0.181080 0.180731 0.180399 0.180146 0.180039 0.180008 0.179978 0.179871 0.179627 0.179306 0.178996 0.178686 0.178376 0.178077 0.177850 0.177751 0.177723 0.177694 0.177596 0.177377 0.177088 0.176816 0.176543 0.176270 0.176005 0.175805 0.175723 0.175700 0.175677 0.175595 0.175411 0.175166 0.174933 0.174700 0.174466 0.174254 0.174094 0.174025 0.174005 0.173985 0.173916 0.173787 0.173615 0.173484 0.173353 0.173222 0.173100 0.173007 0.172970 0.172959 0.172950 0.172917 0.172842 0.172742 0.172640 0.172539 0.172437 0.172359 0.172299 0.172273 0.172266 0.172258 0.172230 0.172167 0.172083 0.172016 0.171949 0.171883 0.171817 0.171767 0.171745 0.171739 0.171732 0.171711 0.171671 0.171619 0.171560 0.171502 0.171443 0.171398 0.171363 0.171348 0.171344 0.171340 0.171325 0.171291 0.171246 0.171208 0.171171 0.171133 0.171099 0.171073 0.171061 0.171058 0.171054 0.171043 0.171024 0.170998 0.170976 0.170955 0.170933 0.170917 0.170906 0.170902 0.170901 
0.169993 0.169978 0.169910 0.169739 0.169513 0.169285 0.169057 0.168828 0.168600 0.168428 0.168358 0.168342 0.168326 0.168257 0.168085 0.167857 0.167630 0.167403 0.167176 0.166950 0.166780 0.166711 0.166696 0.166680 0.166612 0.166445 0.166225 0.166007 0.165790 0.165573 0.165359 0.165199 0.165134 0.165119 0.165105 0.165040 0.164884 0.164677 0.164475 0.164273 0.164071 0.163875 0.163728 0.163668 0.163655 0.163641 0.163582 0.163440 0.163253 0.163071 0.162889 0.162708 0.162535 0.162405 0.162352 0.162340 0.162331 0.162291 0.162228 0.162144 0.162069 0.161994 0.161918 0.161849 0.161797 0.161776 0.161771 0.161766 0.161744 0.161693 0.161626 0.161562 0.161498 0.161435 0.161374 0.161328 0.161308 0.161303 0.161299 0.161278 0.161229 0.161163 0.161093 0.161024 0.160954 0.160889 0.160840 0.160820 0.160815 0.160811 0.160790 0.160740 0.160672 0.160605 0.160537 0.160470 0.160407 0.160359 0.160339 0.160335 
