0.132854 0.132848 0.132763 0.132362 0.131727 0.131065 0.130402 0.129739 0.129111 0.128714 0.128632 0.128626 0.128621 0.128539 0.128189 0.127636 0.127153 0.126670 0.126187 0.125749 0.125473 0.125414 0.125410 0.125406 0.125348 0.125090 0.124680 0.124303 0.123927 0.123550 0.123205 0.122986 0.122940 0.122937 
0.132856 0.132860 0.132897 0.133015 0.133186 0.133363 0.133539 0.133716 0.133904 0.134034 0.134075 0.134079 0.134083 0.134124 0.134272 0.134487 0.134744 0.135001 0.135258 0.135555 0.135760 0.135824 0.135831 0.135837 0.135902 0.136128 0.136455 0.136803 0.137152 0.137500 0.137863 0.138114 0.138189 0.138196 0.138204 0.138280 0.138537 0.138909 0.139292 0.139675 0.140058 0.140451 0.140722 0.140804 0.140812 0.140820 0.140902 0.141180 0.141583 0.141999 0.142415 0.142831 0.143262 0.143559 0.143649 0.143658 0.143667 0.143757 0.144065 0.144511 0.144974 0.145437 0.145900 0.146379 0.146709 0.146809 0.146818 0.146828 0.146928 0.147268 0.147761 0.148268 0.148775 0.149283 0.149804 0.150164 0.150272 0.150283 0.150294 0.150402 0.150771 0.151307 0.151858 0.152410 0.152961 0.153529 0.153920 0.154038 0.154049 0.154061 0.154179 0.154582 0.155167 0.155770 0.156373 0.156977 0.157601 0.158032 0.158161 0.158174 0.158187 0.158317 0.158763 0.159409 0.160078 0.160747 0.161416 0.162111 0.162590 0.162734 0.162749 0.162763 0.162908 0.163402 0.164120 0.164864 0.165609 0.166353 0.167123 0.167654 0.167814 0.167830 0.167846 0.168006 0.168554 0.169348 0.170170 0.170992 0.171814 0.172665 0.173251 0.173427 0.173445 0.173463 0.173641 0.174247 0.175126 0.176035 0.176944 0.177854 0.178797 0.179447 0.179644 0.179664 0.179684 0.179882 0.180558 0.181538 0.182553 0.183567 0.184581 0.185639 0.186368 0.186587 0.186609 0.186630 0.186850 0.187603 0.188695 0.189832 0.190969 0.192106 0.193286 0.194100 0.194346 0.194371 0.194395 0.194642 0.195491 0.196723 0.198004 0.199286 0.200567 0.201905 0.202828 0.203107 0.203135 0.203163 0.203443 0.204401 0.205790 0.207235 0.208679 0.210124 0.211624 0.212658 0.212967 0.212998 0.213029 0.213340 0.214409 0.215960 0.217524 0.219087 0.220651 0.222221 0.223303 0.223627 0.223660 0.223692 0.224016 0.225085 0.226634 0.228130 0.229625 0.231120 0.232516 0.233478 0.233758 0.233786 0.233814 0.234091 0.234988 0.236288 0.237385 0.238482 0.239579 0.240476 0.241093 0.241265 0.241282 0.241299 0.241467 0.241922 0.242584 0.242934 0.243285 0.243635 0.243722 0.243781 0.243775 0.243774 0.243773 0.243760 0.243624 0.243425 0.242956 0.242486 0.242016 0.241235 0.240696 0.240506 0.240487 
0.132855 0.132854 0.132840 0.132729 0.132553 0.132096 0.131638 0.131181 0.130838 0.130621 0.130579 0.130576 0.130574 0.130534 0.130362 0.130089 0.129860 0.129631 0.129402 0.129195 0.129063 0.129035 0.129033 0.129031 0.129003 0.128866 0.128649 0.128360 0.128071 0.127781 0.127354 0.127084 0.127015 0.127011 0.127006 0.126936 0.126555 0.125951 0.125218 0.124484 0.123751 0.123115 0.122713 0.122621 0.122615 0.122608 0.122511 0.122028 0.121263 0.120560 0.119857 0.119154 0.118640 0.118315 0.118253 0.118249 0.118245 0.118185 0.117939 0.117550 0.117252 0.116954 0.116656 0.116419 0.116269 0.116239 0.116237 0.116235 0.116205 0.116081 0.115883 0.115725 0.115566 0.115407 0.115282 0.115204 0.115188 0.115187 0.115186 0.115170 0.115106 0.115004 0.114924 0.114845 0.114765 0.114702 0.114662 0.114654 0.114654 0.114653 0.114645 0.114612 0.114558 0.114514 0.114469 0.114425 0.114387 0.114363 0.114358 0.114358 0.114357 0.114353 0.114332 0.114298 0.114270 0.114241 0.114212 0.114188 0.114172 0.114169 0.114168 0.114168 0.114165 0.114151 0.114129 0.114110 0.114091 0.114072 0.114056 0.114045 0.114043 0.114043 0.114043 0.114040 0.114031 0.114016 0.114003 0.113990 0.113977 0.113968 0.113963 0.113962 0.113962 
0.125411 0.125412 0.125421 0.125443 0.125472 0.125492 0.125511 0.125531 0.125541 0.125549 0.125550 0.125551 0.125551 0.125552 0.125553 0.125554 0.125548 0.125541 0.125534 0.125519 0.125507 0.125502 0.125502 0.125501 0.125496 0.125480 0.125460 0.125435 0.125409 0.125384 0.125353 0.125329 0.125320 0.125319 0.125317 0.125308 0.125281 0.125245 0.125204 0.125163 0.125121 0.125074 0.125039 0.125025 0.125023 0.125021 0.125006 0.124966 0.124913 0.124852 0.124792 0.124732 0.124667 0.124617 0.124598 0.124595 0.124592 0.124573 0.124519 0.124448 0.124372 0.124296 0.124220 0.124141 0.124082 0.124059 0.124056 0.124053 0.124030 0.123986 0.123927 0.123875 0.123823 0.123770 0.123722 0.123686 0.123673 0.123671 0.123669 0.123656 0.123622 0.123577 0.123535 0.123492 0.123450 0.123410 0.123380 0.123370 0.123368 0.123367 0.123356 0.123329 0.123292 0.123258 0.123224 0.123190 0.123158 0.123134 0.123125 0.123124 
0.128627 0.128631 0.128645 0.128680 0.128726 0.128768 0.128810 0.128852 0.128888 0.128915 0.128925 0.128927 0.128930 0.128940 0.128962 0.128992 0.129015 0.129039 0.129063 0.129081 0.129095 0.129100 0.129102 0.129103 0.129108 0.129118 0.129132 0.129140 0.129148 0.129156 0.129158 0.129160 0.129161 0.129161 0.129161 0.129161 0.129160 0.129160 0.129156 0.129152 0.129148 0.129142 0.129137 0.129135 0.129134 0.129134 0.129131 0.129125 0.129116 0.129107 0.129097 0.129088 0.129079 0.129072 0.129069 0.129068 0.129068 0.129065 0.129057 0.129047 0.129036 0.129024 0.129013 0.129000 0.128990 0.128986 0.128985 0.128983 0.128979 0.128967 0.128950 0.128930 0.128911 0.128891 0.128867 0.128848 0.128840 0.128838 0.128836 0.128828 0.128807 0.128779 0.128746 0.128713 0.128680 0.128643 0.128616 0.128604 0.128601 0.128598 0.128586 0.128555 0.128515 0.128470 0.128425 0.128379 0.128331 0.128294 0.128278 0.128274 0.128270 0.128253 0.128213 0.128159 0.128111 0.128063 0.128015 0.127975 0.127945 0.127932 0.127929 0.127927 0.127914 0.127884 0.127845 0.127805 0.127766 0.127727 0.127689 0.127660 0.127648 0.127645 0.127642 0.127631 0.127602 0.127564 0.127526 0.127489 0.127451 0.127414 0.127386 0.127375 0.127372 0.127369 0.127358 0.127330 0.127293 0.127257 0.127221 0.127185 0.127150 0.127123 0.127112 0.127109 0.127107 0.127096 0.127069 0.127035 0.127000 0.126966 0.126932 0.126898 0.126872 0.126862 0.126860 0.126857 0.126847 0.126822 0.126789 0.126757 0.126724 0.126692 0.126659 0.126635 0.126625 0.126623 
0.138195 0.138192 0.138176 0.138137 0.138085 0.138032 0.137978 0.137924 0.137867 0.137824 0.137806 0.137802 0.137797 0.137779 0.137734 0.137673 0.137611 0.137548 0.137486 0.137419 0.137369 0.137348 0.137343 0.137338 0.137317 0.137264 0.137195 0.137122 0.137048 0.136975 0.136898 0.136840 0.136816 0.136810 0.136804 0.136779 0.136719 0.136639 0.136556 0.136472 0.136388 0.136302 0.136237 0.136209 0.136202 0.136195 0.136168 0.136099 0.136009 0.135916 0.135823 0.135730 0.135636 0.135564 0.135534 0.135527 0.135520 0.135490 0.135417 0.135319 0.135220 0.135122 0.135023 0.134946 0.134888 0.134867 0.134862 0.134857 0.134836 0.134786 0.134720 0.134655 0.134591 0.134527 0.134466 0.134420 0.134402 0.134397 0.134392 0.134374 0.134328 0.134268 0.134212 0.134155 0.134098 0.134042 0.134000 0.133984 0.133980 0.133976 0.133959 0.133919 0.133866 0.133814 0.133763 0.133712 0.133662 0.133624 0.133608 0.133605 0.133601 0.133587 0.133551 0.133505 0.133459 0.133413 0.133368 0.133324 0.133291 0.133277 0.133274 0.133271 0.133257 0.133226 0.133185 0.133145 0.133105 0.133064 0.133027 0.132999 0.132987 0.132984 0.132981 0.132970 0.132942 0.132905 0.132870 0.132835 0.132800 0.132766 0.132741 0.132730 0.132728 
0.140811 0.140808 0.140794 0.140756 0.140706 0.140649 0.140591 0.140534 0.140471 0.140424 0.140404 0.140400 0.140396 0.140376 0.140324 0.140256 0.140181 0.140105 0.140030 0.139949 0.139888 0.139862 0.139857 0.139852 0.139826 0.139760 0.139672 0.139577 0.139483 0.139388 0.139286 0.139210 0.139178 0.139172 0.139165 0.139133 0.139052 0.138945 0.138831 0.138717 0.138603 0.138482 0.138391 0.138354 0.138347 0.138339 0.138302 0.138208 0.138083 0.137983 0.137882 0.137782 0.137699 0.137636 0.137612 0.137607 0.137602 0.137577 0.137517 0.137437 0.137360 0.137284 0.137207 0.137133 0.137077 0.137054 0.137050 0.137045 0.137023 0.136970 0.136899 0.136829 0.136760 0.136690 0.136622 0.136571 0.136551 0.136547 0.136543 0.136524 0.136475 0.136410 0.136347 0.136285 0.136222 0.136161 0.136115 0.136098 0.136094 0.136091 0.136073 0.136030 0.135972 0.135916 0.135861 0.135805 0.135751 0.135711 0.135695 0.135692 0.135689 0.135673 0.135634 0.135581 0.135531 0.135481 0.135430 0.135381 0.135344 0.135330 0.135327 
0.143657 0.143652 0.143635 0.143595 0.143542 0.143489 0.143435 0.143381 0.143324 0.143281 0.143261 0.143256 0.143250 0.143230 0.143186 0.143127 0.143066 0.143005 0.142944 0.142881 0.142833 0.142812 0.142806 0.142800 0.142779 0.142730 0.142666 0.142599 0.142533 0.142466 0.142398 0.142347 0.142323 0.142316 0.142309 0.142286 0.142233 0.142162 0.142090 0.142018 0.141946 0.141872 0.141815 0.141790 0.141783 0.141776 0.141751 0.141693 0.141617 0.141538 0.141460 0.141381 0.141301 0.141240 0.141213 0.141205 0.141197 0.141170 0.141107 0.141024 0.140940 0.140855 0.140771 0.140684 0.140619 0.140589 0.140581 0.140572 0.140543 0.140476 0.140387 0.140297 0.140207 0.140117 0.140025 0.139956 0.139925 0.139916 0.139907 0.139877 0.139806 0.139714 0.139620 0.139526 0.139432 0.139337 0.139266 0.139234 0.139225 0.139215 0.139184 0.139121 0.139038 0.138973 0.138908 0.138842 0.138781 0.138734 0.138714 0.138708 0.138702 0.138681 0.138635 0.138575 0.138517 0.138460 0.138403 0.138347 0.138304 0.138285 0.138280 0.138274 0.138256 0.138215 0.138162 0.138110 0.138058 0.138006 0.137955 0.137916 0.137900 0.137896 0.137891 0.137875 0.137838 0.137790 0.137743 0.137695 0.137648 0.137603 0.137569 0.137555 0.137550 0.137546 0.137531 0.137497 0.137452 0.137410 0.137368 0.137326 0.137285 0.137253 0.137240 0.137235 0.137231 0.137218 0.137189 0.137150 0.137112 0.137074 0.137036 0.137000 0.136972 0.136960 0.136957 0.136953 0.136942 0.136915 0.136880 0.136846 0.136812 0.136778 0.136745 0.136720 0.136709 0.136706 0.136703 0.136692 0.136667 0.136635 0.136605 0.136574 0.136544 0.136513 0.136489 0.136480 0.136477 0.136474 0.136464 0.136442 0.136413 0.136384 0.136355 0.136326 0.136298 0.136277 0.136268 0.136265 0.136262 0.136253 0.136232 0.136204 0.136177 0.136150 0.136123 0.136097 0.136077 0.136068 0.136065 
0.146817 0.146813 0.146792 0.146737 0.146663 0.146580 0.146497 0.146414 0.146325 0.146258 0.146230 0.146224 0.146219 0.146191 0.146119 0.146023 0.145921 0.145818 0.145716 0.145608 0.145527 0.145494 0.145487 0.145481 0.145448 0.145362 0.145249 0.145128 0.145007 0.144887 0.144758 0.144661 0.144622 0.144614 0.144607 0.144568 0.144466 0.144331 0.144188 0.144046 0.143903 0.143755 0.143643 0.143599 0.143590 0.143581 0.143536 0.143419 0.143264 0.143104 0.142944 0.142784 0.142621 0.142498 0.142448 0.142439 0.142429 0.142380 0.142254 0.142088 0.141950 0.141811 0.141673 0.141574 0.141500 0.141472 0.141467 0.141461 0.141434 0.141364 0.141272 0.141188 0.141104 0.141019 0.140943 0.140885 0.140862 0.140858 0.140853 0.140831 0.140776 0.140703 0.140635 0.140567 0.140499 0.140437 0.140390 0.140371 0.140368 0.140364 0.140345 0.140301 0.140243 0.140188 0.140133 0.140078 0.140026 0.139987 0.139971 0.139968 0.139965 0.139951 0.139916 0.139868 0.139822 0.139776 0.139730 0.139685 0.139652 0.139639 0.139637 0.139634 0.139621 0.139589 0.139545 0.139503 0.139461 0.139418 0.139376 0.139344 0.139331 0.139329 
0.150282 0.150278 0.150268 0.150246 0.150218 0.150189 0.150160 0.150131 0.150100 0.150076 0.150064 0.150060 0.150055 0.150043 0.150018 0.149985 0.149951 0.149916 0.149882 0.149846 0.149819 0.149805 0.149800 0.149794 0.149780 0.149751 0.149713 0.149673 0.149634 0.149594 0.149554 0.149523 0.149508 0.149502 0.149496 0.149480 0.149448 0.149407 0.149364 0.149321 0.149278 0.149234 0.149201 0.149184 0.149178 0.149171 0.149155 0.149121 0.149077 0.149031 0.148985 0.148940 0.148893 0.148857 0.148839 0.148832 0.148824 0.148806 0.148770 0.148722 0.148671 0.148620 0.148568 0.148518 0.148479 0.148459 0.148451 0.148444 0.148424 0.148385 0.148334 0.148282 0.148229 0.148176 0.148123 0.148082 0.148062 0.148054 0.148046 0.148025 0.147984 0.147930 0.147874 0.147819 0.147763 0.147706 0.147662 0.147640 0.147631 0.147622 0.147600 0.147556 0.147498 0.147439 0.147379 0.147319 0.147258 0.147211 0.147188 0.147178 0.147169 0.147146 0.147098 0.147036 0.146973 0.146910 0.146846 0.146781 0.146731 0.146707 0.146697 0.146687 0.146662 0.146611 0.146545 0.146479 0.146412 0.146346 0.146278 0.146226 0.146200 0.146190 0.146179 0.146154 0.146101 0.146033 0.145965 0.145896 0.145828 0.145758 0.145705 0.145678 0.145668 0.145657 0.145631 0.145577 0.145507 0.145437 0.145367 0.145297 0.145227 0.145173 0.145146 0.145135 0.145124 0.145097 0.145043 0.144972 0.144923 0.144875 0.144826 0.144781 0.144747 0.144730 0.144724 0.144717 0.144701 0.144668 0.144626 0.144583 0.144541 0.144499 0.144458 0.144427 0.144412 0.144406 0.144400 0.144385 0.144356 0.144317 0.144279 0.144241 0.144202 0.144165 0.144136 0.144122 0.144117 0.144112 0.144099 0.144072 0.144037 0.144002 0.143968 0.143933 0.143898 0.143871 0.143858 0.143853 0.143848 0.143836 0.143812 0.143780 0.143748 0.143716 0.143684 0.143652 0.143628 0.143616 0.143611 0.143606 0.143595 0.143572 0.143543 0.143513 0.143484 0.143455 0.143425 0.143402 0.143391 0.143386 0.143382 0.143371 0.143350 0.143322 0.143295 0.143268 0.143241 0.143214 0.143193 0.143183 0.143178 0.143174 0.143164 0.143144 0.143118 0.143093 0.143068 0.143043 0.143018 0.142998 0.142989 0.142985 0.142981 0.142971 0.142953 0.142928 0.142905 0.142882 0.142858 0.142835 0.142817 0.142808 0.142805 0.142801 0.142792 0.142774 0.142751 0.142729 0.142707 0.142686 0.142664 0.142647 0.142639 0.142635 0.142632 0.142623 0.142607 0.142584 0.142564 0.142543 0.142522 0.142501 0.142485 0.142477 0.142474 0.142471 0.142463 0.142446 0.142425 0.142405 0.142384 0.142364 0.142344 0.142328 0.142320 0.142317 0.142314 0.142306 0.142290 0.142270 0.142250 0.142229 0.142209 0.142189 0.142174 0.142167 0.142164 0.142161 0.142153 0.142137 0.142117 0.142097 0.142077 0.142057 0.142037 0.142022 0.142014 0.142011 
0.158172 0.158163 0.158132 0.158058 0.157961 0.157859 0.157758 0.157657 0.157551 0.157470 0.157434 0.157424 0.157414 0.157379 0.157295 0.157184 0.157070 0.156956 0.156842 0.156725 0.156636 0.156598 0.156587 0.156576 0.156537 0.156445 0.156324 0.156202 0.156079 0.155956 0.155829 0.155732 0.155691 0.155679 0.155667 0.155625 0.155527 0.155398 0.155267 0.155135 0.155004 0.154873 0.154774 0.154731 0.154718 0.154706 0.154663 0.154562 0.154428 0.154292 0.154157 0.154022 0.153884 0.153779 0.153734 0.153722 0.153709 0.153664 0.153559 0.153421 0.153280 0.153140 0.152999 0.152857 0.152750 0.152704 0.152691 0.152678 0.152631 0.152522 0.152379 0.152234 0.152089 0.151944 0.151798 0.151687 0.151639 0.151626 0.151612 0.151564 0.151453 0.151306 0.151159 0.151012 0.150864 0.150717 0.150605 0.150556 0.150543 0.150529 0.150481 0.150369 0.150222 0.150075 0.149927 0.149780 0.149635 0.149525 0.149478 0.149464 0.149451 0.149404 0.149313 0.149193 0.149096 0.148999 0.148902 0.148810 0.148740 0.148711 0.148702 0.148694 0.148665 0.148601 0.148517 0.148436 0.148356 0.148276 0.148202 0.148145 0.148122 0.148115 0.148109 0.148085 0.148032 0.147961 0.147893 0.147826 0.147759 0.147696 0.147648 0.147627 0.147622 0.147616 0.147595 0.147550 0.147491 0.147434 0.147378 0.147321 0.147267 0.147226 0.147209 0.147204 0.147200 0.147183 0.147144 0.147093 0.147044 0.146996 0.146947 0.146901 0.146867 0.146852 0.146848 0.146843 0.146828 0.146795 0.146752 0.146711 0.146670 0.146629 0.146589 0.146559 0.146547 0.146543 0.146540 0.146528 0.146500 0.146463 0.146427 0.146391 0.146356 0.146322 0.146296 0.146285 0.146282 0.146279 0.146267 0.146242 0.146209 0.146178 0.146147 0.146117 0.146086 0.146063 0.146053 0.146051 0.146048 0.146039 0.146017 0.145989 0.145960 0.145932 0.145903 0.145876 0.145855 0.145846 0.145844 
0.162747 0.162740 0.162713 0.162643 0.162552 0.162449 0.162347 0.162244 0.162132 0.162047 0.162010 0.162001 0.161992 0.161956 0.161863 0.161740 0.161609 0.161478 0.161346 0.161204 0.161096 0.161051 0.161040 0.161028 0.160983 0.160870 0.160721 0.160566 0.160411 0.160256 0.160096 0.159975 0.159924 0.159911 0.159898 0.159846 0.159722 0.159557 0.159389 0.159220 0.159051 0.158881 0.158753 0.158700 0.158687 0.158674 0.158619 0.158488 0.158314 0.158138 0.157962 0.157786 0.157606 0.157470 0.157414 0.157400 0.157386 0.157329 0.157191 0.157009 0.156825 0.156641 0.156457 0.156269 0.156128 0.156068 0.156053 0.156039 0.155979 0.155836 0.155646 0.155454 0.155262 0.155070 0.154878 0.154733 0.154673 0.154658 0.154643 0.154583 0.154455 0.154284 0.154142 0.154000 0.153858 0.153723 0.153621 0.153579 0.153569 0.153559 0.153519 0.153425 0.153300 0.153182 0.153064 0.152946 0.152835 0.152751 0.152717 0.152708 0.152700 0.152666 0.152587 0.152483 0.152382 0.152282 0.152181 0.152087 0.152017 0.151988 0.151980 0.151973 0.151944 0.151875 0.151783 0.151697 0.151611 0.151525 0.151442 0.151379 0.151353 0.151347 0.151341 0.151316 0.151255 0.151174 0.151097 0.151020 0.150943 0.150868 0.150811 0.150787 0.150782 0.150776 0.150754 0.150700 0.150630 0.150560 0.150491 0.150422 0.150355 0.150305 0.150284 0.150279 0.150274 0.150253 0.150204 0.150140 0.150077 0.150013 0.149950 0.149890 0.149844 0.149825 0.149820 0.149815 0.149796 0.149750 0.149690 0.149631 0.149572 0.149513 0.149455 0.149411 0.149393 0.149389 
0.173442 0.173430 0.173373 0.173223 0.173024 0.172804 0.172584 0.172365 0.172125 0.171945 0.171870 0.171855 0.171839 0.171763 0.171565 0.171301 0.171014 0.170727 0.170440 0.170141 0.169915 0.169825 0.169807 0.169789 0.169699 0.169469 0.169164 0.168855 0.168545 0.168235 0.167914 0.167672 0.167576 0.167556 0.167537 0.167441 0.167194 0.166865 0.166538 0.166211 0.165884 0.165558 0.165313 0.165217 0.165197 0.165178 0.165080 0.164835 0.164510 0.164185 0.163859 0.163534 0.163208 0.162962 0.162865 0.162845 0.162826 0.162729 0.162482 0.162153 0.161834 0.161514 0.161195 0.160881 0.160645 0.160552 0.160533 0.160514 0.160422 0.160228 0.159971 0.159762 0.159553 0.159343 0.159160 0.159022 0.158969 0.158959 0.158948 0.158896 0.158772 0.158609 0.158455 0.158301 0.158148 0.158004 0.157896 0.157854 0.157846 0.157838 0.157799 0.157701 0.157571 0.157449 0.157326 0.157204 0.157087 0.156998 0.156965 0.156959 0.156952 0.156919 0.156836 0.156725 0.156621 0.156517 0.156413 0.156314 0.156240 0.156211 0.156205 0.156199 0.156170 0.156098 0.156003 0.155910 0.155818 0.155726 0.155637 0.155570 0.155543 0.155538 0.155533 0.155506 0.155440 0.155353 0.155267 0.155180 0.155094 0.155007 0.154943 0.154917 0.154912 
0.186603 0.186582 0.186495 0.186276 0.185984 0.185673 0.185361 0.185050 0.184720 0.184472 0.184366 0.184340 0.184315 0.184209 0.183947 0.183601 0.183246 0.182892 0.182537 0.182170 0.181893 0.181778 0.181750 0.181722 0.181606 0.181319 0.180939 0.180552 0.180166 0.179779 0.179395 0.179105 0.178987 0.178958 0.178930 0.178811 0.178523 0.178141 0.177754 0.177367 0.176981 0.176596 0.176306 0.176187 0.176159 0.176131 0.176012 0.175727 0.175348 0.174974 0.174600 0.174226 0.173858 0.173581 0.173467 0.173439 0.173412 0.173300 0.173030 0.172673 0.172321 0.171969 0.171616 0.171268 0.171005 0.170899 0.170874 0.170849 0.170743 0.170490 0.170153 0.169824 0.169495 0.169166 0.168845 0.168603 0.168504 0.168480 0.168457 0.168358 0.168125 0.167816 0.167514 0.167212 0.166910 0.166691 0.166526 0.166461 0.166446 0.166430 0.166366 0.166217 0.166020 0.165844 0.165669 0.165493 0.165339 0.165224 0.165178 0.165166 0.165155 0.165109 0.164997 0.164848 0.164718 0.164588 0.164459 0.164336 0.164243 0.164208 0.164199 0.164191 0.164155 0.164068 0.163953 0.163846 0.163740 0.163634 0.163530 0.163451 0.163423 0.163416 0.163409 0.163380 0.163309 0.163214 0.163124 0.163033 0.162943 0.162855 0.162789 0.162761 0.162755 0.162748 0.162722 0.162661 0.162581 0.162501 0.162421 0.162341 0.162265 0.162207 0.162183 0.162177 0.162171 0.162147 0.162091 0.162017 0.161943 0.161869 0.161795 0.161724 0.161671 0.161649 0.161643 0.161638 0.161615 0.161561 0.161488 0.161417 0.161346 0.161274 0.161203 0.161150 0.161128 0.161122 
0.203125 0.203085 0.202779 0.201906 0.200742 0.199497 0.198252 0.197007 0.195710 0.194738 0.194378 0.194331 0.194284 0.193924 0.192952 0.191655 0.190389 0.189122 0.187856 0.186650 0.185746 0.185421 0.185379 0.185337 0.185017 0.184185 0.183075 0.182069 0.181063 0.180057 0.179145 0.178462 0.178220 0.178188 0.178157 0.177921 0.177296 0.176462 0.175726 0.174990 0.174255 0.173649 0.173195 0.173039 0.173018 0.172998 0.172844 0.172462 0.171953 0.171519 0.171085 0.170651 0.170269 0.169983 0.169886 0.169873 0.169860 0.169763 0.169512 0.169179 0.168871 0.168564 0.168257 0.167978 0.167769 0.167695 0.167685 0.167676 0.167604 0.167409 0.167149 0.166903 0.166657 0.166410 0.166172 0.165994 0.165928 0.165919 
0.241247 0.241109 0.240610 0.239468 0.237960 0.236509 0.235059 0.233608 0.232218 0.231166 0.230722 0.230599 0.230476 0.230036 0.229026 0.227692 0.226407 0.225123 0.223839 0.222624 0.221704 0.221317 0.221210 0.221103 0.220719 0.219839 0.218677 0.217561 0.216446 0.215330 0.214263 0.213456 0.213116 0.213022 0.212928 0.212591 0.211821 0.210804 0.209837 0.208871 0.207904 0.206986 0.206290 0.206001 0.205921 0.205842 0.205558 0.204915 0.204066 0.203249 0.202433 0.201616 0.200835 0.200244 0.199995 0.199926 0.199857 0.199610 0.199044 0.198297 0.197590 0.196883 0.196176 0.195514 0.195013 0.194807 0.194749 0.194694 0.194493 0.194044 0.193451 0.192883 0.192314 0.191746 0.191208 0.190801 0.190629 0.190581 0.190533 0.190362 0.189970 0.189451 0.188977 0.188503 0.188028 0.187573 0.187228 0.187086 0.187046 0.187009 0.186873 0.186561 0.186150 0.185750 0.185351 0.184952 0.184589 0.184314 0.184198 0.184165 0.184133 0.184017 0.183758 0.183415 0.183122 0.182829 0.182535 0.182257 0.182047 0.181965 0.181943 0.181922 0.181847 0.181671 0.181439 0.181213 0.180987 0.180761 0.180566 0.180419 0.180356 0.180339 0.180321 0.180259 0.180114 0.179923 0.179758 0.179593 0.179429 0.179263 0.179138 0.179088 0.179074 0.179061 0.179015 0.178907 0.178763 0.178622 0.178481 0.178340 0.178214 0.178119 0.178078 0.178067 0.178056 0.178015 0.177919 0.177792 0.177681 0.177570 0.177459 0.177348 0.177263 0.177230 0.177221 0.177212 0.177181 0.177106 0.177008 0.176909 0.176811 0.176712 0.176624 0.176557 0.176528 0.176520 0.176511 0.176482 0.176414 0.176324 0.176245 0.176166 0.176087 0.176006 0.175945 0.175921 0.175914 
