-1.372350 0.381843 3.743807
-1.372922 0.384942 3.735055
-1.373495 0.388041 3.726303
-1.402513 0.545095 3.282725
-1.431276 0.700766 2.843053
-1.460028 0.856436 2.403379
-1.488737 1.012101 1.963701
-1.373874 0.390090 3.720516
-1.402390 0.544429 3.284607
-1.402636 0.545761 3.280843
-1.431153 0.700100 2.844934
-1.431399 0.701433 2.841171
-1.459905 0.855770 2.405261
-1.460151 0.857103 2.401497
-1.488616 1.011435 1.965583
-1.375439 0.398561 3.696590
-1.400825 0.535957 3.308533
-1.404201 0.554232 3.256917
-1.429587 0.691629 2.868860
-1.432965 0.709904 2.817245
-1.458338 0.847299 2.429186
-1.461718 0.865574 2.377572
-1.487073 1.002967 1.989511
-1.378781 0.416654 3.645490
-1.382521 0.436896 3.588318
-1.386261 0.457138 3.531147
-1.390002 0.477380 3.473976
-1.393742 0.497622 3.416804
-1.397482 0.517865 3.359633
-1.407544 0.572325 3.205817
-1.411284 0.592567 3.148646
-1.415023 0.612809 3.091474
-1.418763 0.633052 3.034303
-1.422503 0.653294 2.977132
-1.426243 0.673536 2.919960
-1.436308 0.727997 2.766145
-1.440049 0.748239 2.708974
-1.443788 0.768481 2.651802
-1.447525 0.788723 2.594630
-1.451261 0.808965 2.537459
-1.454998 0.829206 2.480287
-1.465066 0.883667 2.326472
-1.468820 0.903912 2.269302
-1.472574 0.924156 2.212132
-1.476325 0.944399 2.154962
-1.480057 0.964640 2.097790
-1.483778 0.984880 2.040616
-1.610778 1.420355 0.849439
-2.019316 1.735722 -0.225210
-2.354232 1.843859 -1.367335
-2.655724 1.891818 -2.522279
-3.392129 2.162544 -3.404520
-4.318158 2.642583 -3.986080
-4.990381 3.357847 -4.643896
-5.253581 4.179915 -5.472083
-5.536969 4.983994 -6.311360
-5.867054 5.731932 -7.184465
-6.258750 6.399994 -8.095754
-6.725346 6.962217 -9.042273
-7.276602 7.394206 -10.011288
-7.909242 7.684762 -10.982891
-8.610019 7.833119 -11.940198
-1.488859 1.012767 1.961819
-1.610190 1.419582 0.851187
-1.611366 1.421128 0.847691
-2.018674 1.735425 -0.223339
-2.019958 1.736020 -0.227081
-2.353765 1.843783 -1.365392
-2.354699 1.843935 -1.369278
-2.654981 1.891616 -2.520433
-2.656467 1.892020 -2.524125
-3.390647 2.161939 -3.403321
-3.393611 2.163150 -3.405718
-4.316685 2.641616 -3.985132
-4.319630 2.643550 -3.987027
-4.989840 3.356504 -4.642517
-4.990922 3.359190 -4.645276
-5.253132 4.178543 -5.470700
-5.254031 4.181288 -5.473467
-5.536466 4.982686 -6.309934
-5.537473 4.985303 -6.312786
-5.866459 5.730735 -7.182977
-5.867648 5.733129 -7.185953
-6.258022 6.398979 -8.094193
-6.259479 6.401010 -8.097316
-6.724486 6.961398 -9.040664
-6.726207 6.963036 -9.043882
-7.275619 7.393584 -10.009660
-7.277584 7.394828 -10.012915
-7.908119 7.684402 -10.981275
-7.910364 7.685122 -10.984507
-8.608803 7.832979 -11.938616
-1.490404 1.021236 1.937891
-1.602714 1.409748 0.873415
-1.619547 1.431062 0.825773
-2.010513 1.731641 -0.199554
-2.028114 1.739822 -0.250865
-2.347833 1.842817 -1.340683
-2.360631 1.844901 -1.393987
-2.645536 1.889046 -2.496963
-2.665912 1.894589 -2.547595
-3.371804 2.154241 -3.388079
-3.412455 2.170848 -3.420961
-4.297969 2.629318 -3.973086
-4.338346 2.655848 -3.999074
-4.982959 3.339425 -4.624977
-4.997803 3.376269 -4.662815
-5.247415 4.161094 -5.453107
-5.259748 4.198737 -5.491060
-5.530062 4.966042 -6.291805
-5.543876 5.001947 -6.330914
-5.858906 5.715511 -7.164061
-5.875207 5.748346 -7.204873
-6.248833 6.385967 -8.074371
-6.268737 6.413924 -8.117170
-6.713717 6.950716 -9.020255
-6.737151 6.973445 -9.064341
-7.263166 7.385609 -9.988973
-7.290079 7.402732 -10.033605
-7.893850 7.679825 -10.960730
-7.924639 7.689683 -11.005051
-8.593348 7.831201 -11.918501
-1.497447 1.059565 1.829615
-1.509078 1.120345 1.658147
-1.520335 1.181076 1.486637
-1.529479 1.241530 1.314904
-1.543829 1.302655 1.143805
-1.573122 1.366496 0.975755
-1.660757 1.476046 0.728210
-1.728261 1.539779 0.571414
-1.790439 1.590339 0.407703
-1.851963 1.638379 0.242969
-1.913637 1.681888 0.077075
-1.973474 1.714348 -0.091983
-2.064847 1.757236 -0.358521
-2.121683 1.782030 -0.529933
-2.175520 1.800133 -0.703143
-2.226529 1.814896 -0.877525
-2.274840 1.827698 -1.052828
-2.320438 1.837869 -1.229027
-2.386406 1.848256 -1.506088
-2.424255 1.851377 -1.684375
-2.459977 1.853023 -1.863123
-2.504029 1.859076 -2.039834
-2.556745 1.869909 -2.213991
-2.608427 1.880277 -2.388487
-2.719674 1.911964 -2.647750
-2.817085 1.946079 -2.798004
-2.912496 1.979061 -2.949784
-3.022497 2.018885 -3.088925
-3.153573 2.069138 -3.204933
-3.287787 2.121007 -3.316834
-3.500635 2.208859 -3.484321
-3.645097 2.274952 -3.573704
-3.788959 2.342112 -3.663275
-3.931432 2.413180 -3.751997
-4.072948 2.491792 -3.835756
-4.212104 2.575035 -3.919029
-4.421674 2.713403 -4.053709
-4.547685 2.810900 -4.142211
-4.663268 2.915471 -4.236595
-4.769204 3.026014 -4.335466
-4.866697 3.141682 -4.437061
-4.946300 3.262133 -4.548047
-5.026011 3.453358 -4.743443
-5.065496 3.575667 -4.872710
-5.103962 3.700533 -4.999817
-5.143161 3.827837 -5.124266
-5.182283 3.955318 -5.248557
-5.221831 4.081846 -5.373686
-5.285715 4.277592 -5.570747
-5.327126 4.402155 -5.697237
-5.369216 4.525915 -5.824289
-5.412325 4.648502 -5.952134
-5.456525 4.769825 -6.080810
-5.501477 4.890263 -6.210057
-5.573282 5.076755 -6.413263
-5.621520 5.193267 -6.544897
-5.670453 5.308930 -6.677026
-5.719646 5.424274 -6.809336
-5.771141 5.536768 -6.943208
-5.824874 5.646426 -7.078553
-5.909735 5.816796 -7.290691
-5.966220 5.922884 -7.427743
-6.024671 6.026369 -7.565960
-6.084444 6.128096 -7.704917
-6.145317 6.228311 -7.844495
-6.207935 6.326117 -7.985000
-6.310770 6.472161 -8.207081
-6.377472 6.564221 -8.349582
-6.445740 6.654043 -8.492751
-6.517853 6.738255 -8.637441
-6.591602 6.820011 -8.782726
-6.665695 6.901291 -8.928100
-6.787039 7.019981 -9.157009
-6.867403 7.091639 -9.304104
-6.949014 7.161373 -9.451435
-7.032411 7.228224 -9.599101
-7.118433 7.290812 -9.747126
-7.206857 7.349435 -9.895361
-7.346929 7.437971 -10.127244
-7.439561 7.489290 -10.275595
-7.535297 7.535002 -10.423833
-7.631346 7.580136 -10.572049
-7.728731 7.622730 -10.720132
-7.829386 7.658888 -10.867733
-7.989347 7.710094 -11.097995
-8.092991 7.739974 -11.244941
-8.198719 7.765239 -11.391270
-8.306024 7.786798 -11.537046
-8.414364 7.805829 -11.682409
-8.523664 7.822475 -11.827343
205 NaN NaN
-1.372064 0.380294 3.748183
-1.378235 0.413699 3.653835
-1.384407 0.447103 3.559488
-1.390580 0.480508 3.465141
-1.396752 0.513913 3.370794
-1.402924 0.547318 3.276447
-1.409095 0.580723 3.182099
-1.415267 0.614127 3.087752
-1.421438 0.647532 2.993405
-1.427611 0.680937 2.899058
-1.433785 0.714342 2.804711
-1.439958 0.747747 2.710364
-1.446128 0.781151 2.616016
-1.452293 0.814555 2.521668
-1.458460 0.847959 2.427321
-1.464639 0.881365 2.332974
-1.470835 0.914773 2.238630
-1.477026 0.948180 2.144285
-1.483177 0.981582 2.049935
-1.489261 1.014976 1.955578
-1.495356 1.048370 1.861222
-1.501598 1.081784 1.766883
-1.508088 1.115230 1.672572
-1.514559 1.148673 1.578258
-1.520508 1.182049 1.483887
-1.525527 1.215302 1.389418
-1.530538 1.248554 1.294949
-1.537410 1.282048 1.200685
-1.547989 1.316011 1.106940
-1.563731 1.350943 1.014289
-1.585830 1.387541 0.923610
-1.615304 1.426307 0.835986
-1.650645 1.465917 0.750923
-1.688414 1.503749 0.666090
-1.725277 1.537289 0.579096
-1.760029 1.566297 0.489627
-1.793675 1.592897 0.398987
-1.827354 1.619286 0.308297
-1.861451 1.645740 0.217783
-1.895528 1.670476 0.126780
-1.929080 1.691619 0.034688
-1.961903 1.708915 -0.058467
-1.994250 1.724102 -0.152160
-2.026433 1.739021 -0.245952
-2.058512 1.754307 -0.339721
-2.090191 1.768952 -0.433727
-2.121145 1.781838 -0.528229
-2.151174 1.792525 -0.623303
-2.180302 1.801627 -0.718822
-2.208578 1.809842 -0.814677
-2.236037 1.817573 -0.910810
-2.262671 1.824701 -1.007221
-2.288471 1.831055 -1.103913
-2.313440 1.836530 -1.200876
-2.337605 1.841153 -1.298086
-2.360999 1.844960 -1.395521
-2.383570 1.847969 -1.493177
-2.405080 1.850143 -1.591094
-2.425269 1.851442 -1.689307
-2.444491 1.852137 -1.787722
-2.464663 1.853291 -1.885939
-2.487945 1.856099 -1.983425
-2.515404 1.861181 -2.079727
-2.544982 1.867452 -2.175336
-2.574122 1.873538 -2.271090
-2.601777 1.878845 -2.367331
-2.631780 1.885304 -2.462782
-2.669004 1.895430 -2.555279
-2.716217 1.910761 -2.642347
-2.769325 1.929252 -2.725360
-2.823408 1.948307 -2.807622
-2.875349 1.966227 -2.891503
-2.928335 1.984533 -2.974635
-2.987256 2.005643 -3.052906
-3.055036 2.031113 -3.122182
-3.128293 2.059345 -3.184542
-3.203021 2.088295 -3.244816
-3.276410 2.116560 -3.307023
-3.349227 2.145018 -3.369817
-3.423522 2.175369 -3.429913
-3.500723 2.208897 -3.484383
-3.579920 2.244811 -3.534303
-3.659714 2.281711 -3.582540
-3.739018 2.318510 -3.631650
-3.817697 2.355694 -3.681473
-3.896036 2.394455 -3.730619
-3.974225 2.435817 -3.777842
-4.052063 2.479542 -3.823497
-4.129231 2.524802 -3.868793
-4.205453 2.570873 -3.914867
-4.280539 2.617865 -3.961866
-4.354341 2.666358 -4.009370
-4.426673 2.716896 -4.057001
-4.497030 2.769687 -4.105141
-4.564670 2.824719 -4.154640
-4.628833 2.881925 -4.206254
-4.689570 2.941095 -4.259770
-4.747620 3.001985 -4.314336
-4.803694 3.064412 -4.369230
-4.856929 3.128381 -4.425154
-4.905055 3.193908 -4.483814
-4.945597 3.260688 -4.546617
-4.978366 3.328025 -4.613270
-5.005497 3.395365 -4.682426
-5.029238 3.462481 -4.753042
-5.051154 3.529577 -4.824268
-5.072185 3.597160 -4.895299
-5.093242 3.665740 -4.965360
-5.114686 3.735341 -5.034288
-5.136307 3.805506 -5.102588
-5.157874 3.875772 -5.170800
-5.179354 3.945847 -5.239235
-5.200942 4.015639 -5.307926
-5.222847 4.085067 -5.376884
-5.245133 4.154130 -5.446087
-5.267677 4.222938 -5.515459
-5.290342 4.291610 -5.584928
-5.313078 4.360181 -5.654472
-5.335967 4.428567 -5.724148
-5.359098 4.496670 -5.794022
-5.382537 4.564418 -5.864136
-5.406306 4.631788 -5.934505
-5.430421 4.698757 -6.005138
-5.454861 4.765348 -6.076015
-5.479528 4.831672 -6.147065
-5.504318 4.897847 -6.218210
-5.529229 4.963878 -6.289447
-5.554480 5.029507 -6.360935
-5.580319 5.094439 -6.432848
-5.606839 5.158550 -6.505248
-5.633749 5.222185 -6.577924
-5.660702 5.285767 -6.650631
-5.687531 5.349497 -6.723253
-5.714607 5.412927 -6.796046
-5.742391 5.475487 -6.869322
-5.771162 5.536811 -6.943260
-5.800608 5.597274 -7.017640
-5.830302 5.657421 -7.092179
-5.859950 5.717631 -7.166685
-5.889757 5.777638 -7.241290
-5.920052 5.837017 -7.316202
-5.951084 5.895428 -7.391570
-5.982792 5.952943 -7.467345
-6.015032 6.009752 -7.543428
-6.047676 6.066027 -7.619735
-6.080672 6.121830 -7.696238
-6.113991 6.177190 -7.772922
-6.147635 6.232094 -7.849792
-6.181788 6.286297 -7.926934
-6.216697 6.339461 -8.004458
-6.252539 6.391330 -8.082434
-6.289048 6.442252 -8.160724
-6.325786 6.492836 -8.239126
-6.362406 6.543577 -8.317483
-6.399227 6.594029 -8.395930
-6.436879 6.643302 -8.474731
-6.475894 6.690598 -8.554077
-6.516024 6.736232 -8.633841
-6.556632 6.781141 -8.713775
-6.597156 6.826184 -8.793676
-6.637709 6.871198 -8.873580
-6.678813 6.915396 -8.953656
-6.720945 6.958030 -9.034044
-6.764098 6.999078 -9.114716
-6.807951 7.039034 -9.195560
-6.852201 7.078385 -9.276484
-6.896776 7.117246 -9.357467
-6.941776 7.155438 -9.438533
-6.987305 7.192775 -9.519701
-7.033479 7.229064 -9.600981
-7.080422 7.264104 -9.682367
-7.128247 7.297707 -9.763845
-7.176831 7.330052 -9.845384
-7.225836 7.361686 -9.926951
-7.274935 7.393151 -10.008527
-7.324203 7.424321 -10.090114
-7.374152 7.454322 -10.171723
-7.425284 7.482248 -10.253334
-7.477594 7.508048 -10.334901
-7.530493 7.532757 -10.416427
-7.583388 7.557471 -10.497954
-7.636162 7.582412 -10.579490
-7.689357 7.606562 -10.660991
-7.743541 7.628811 -10.742377
-7.798871 7.648790 -10.823583
-7.854903 7.667332 -10.904650
-7.911169 7.685381 -10.985667
-7.967464 7.703363 -11.066679
-8.024030 7.720764 -11.147628
-8.081151 7.736971 -11.228435
-8.138972 7.751636 -11.309037
-8.197383 7.764961 -11.389448
-8.256247 7.777214 -11.469698
-8.315463 7.788615 -11.549816
-8.374986 7.799261 -11.629809
-8.434783 7.809234 -11.709685
-8.494861 7.818516 -11.789433
-8.555317 7.826825 -11.869002
-8.616262 7.833838 -11.948323
-8.677741 7.839380 -12.027347
-8.739635 7.843751 -12.106121
-8.801801 7.847338 -12.184720
-8.864103 7.850529 -12.263229
-8.926409 7.853713 -12.341735
-8.988586 7.857276 -12.420326
