-2.102608 -1.363296 1.090489
-1.710304 -1.364204 2.411033
-1.287776 -1.399314 3.722644
-1.012227 -1.271942 5.065244
-0.830232 -1.045610 6.413103
-0.646513 -0.821049 7.761038
-2.102146 -1.363178 1.092432
-1.710941 -1.364126 2.409139
-1.709667 -1.364283 2.412927
-1.288315 -1.399347 3.720718
-1.287237 -1.399281 3.724569
-1.012509 -1.272253 5.063288
-1.011946 -1.271632 5.067199
-0.830497 -1.045938 6.411148
-0.829968 -1.045283 6.415058
-0.646779 -0.821375 7.759083
-2.095428 -1.361459 1.120669
-1.720203 -1.362982 2.381601
-1.700404 -1.365427 2.440465
-1.296150 -1.399830 3.692721
-1.279403 -1.398797 3.752566
-1.016715 -1.276645 5.034855
-1.007855 -1.267120 5.095630
-0.834342 -1.050703 6.382724
-0.826120 -1.040520 6.443483
-0.650649 -0.826116 7.730658
-2.064026 -1.354428 1.249404
-2.010394 -1.347571 1.452571
-1.952656 -1.345302 1.654717
-1.891575 -1.346811 1.855888
-1.827887 -1.351295 2.056208
-1.762282 -1.357985 2.255847
-1.657939 -1.370872 2.566071
-1.590618 -1.379547 2.765063
-1.523803 -1.387633 2.964250
-1.458164 -1.394362 3.163876
-1.394384 -1.398952 3.364163
-1.333169 -1.400613 3.565293
-1.244614 -1.395514 3.880581
-1.193453 -1.385923 4.084276
-1.147483 -1.370658 4.288857
-1.106472 -1.350052 4.494025
-1.069680 -1.324964 4.699497
-1.036342 -1.296246 4.905086
-0.989463 -1.246240 5.225381
-0.961465 -1.211980 5.430923
-0.934196 -1.176970 5.636437
-0.906953 -1.141933 5.841949
-0.879501 -1.107112 6.047471
-0.851866 -1.072479 6.253000
-0.808522 -1.018821 6.573210
-0.780564 -0.984520 6.778751
-0.752534 -0.950293 6.984294
-0.724464 -0.916107 7.189839
-0.696385 -0.881930 7.395384
-0.668330 -0.847729 7.600928
80 NaN NaN
-2.102723 -1.363326 1.090004
-2.079452 -1.357370 1.187823
-2.055003 -1.352708 1.285424
-2.029462 -1.349251 1.382796
-2.002917 -1.346913 1.479933
-1.975454 -1.345602 1.576834
-1.947157 -1.345229 1.673502
-1.918111 -1.345706 1.769948
-1.888396 -1.346943 1.866184
-1.858094 -1.348852 1.962225
-1.827282 -1.351344 2.058090
-1.796039 -1.354333 2.153802
-1.764440 -1.357732 2.249383
-1.732561 -1.361456 2.344859
-1.700475 -1.365418 2.440256
-1.668257 -1.369535 2.535602
-1.635979 -1.373720 2.630924
-1.603714 -1.377890 2.726252
-1.571535 -1.381961 2.821614
-1.539516 -1.385846 2.917036
-1.507730 -1.389462 3.012547
-1.476251 -1.392722 3.108173
-1.445156 -1.395541 3.203938
-1.414520 -1.397831 3.299865
-1.384422 -1.399506 3.395974
-1.354940 -1.400477 3.492284
-1.326157 -1.400656 3.588810
-1.298153 -1.399954 3.685562
-1.271013 -1.398280 3.782548
-1.244823 -1.395546 3.879771
-1.219668 -1.391662 3.977227
-1.195636 -1.386540 4.074909
-1.172814 -1.380094 4.172802
-1.151223 -1.372311 4.270878
-1.130791 -1.363279 4.369095
-1.111437 -1.353093 4.467417
-1.093077 -1.341849 4.565815
-1.075628 -1.329642 4.664264
-1.059004 -1.316567 4.762744
-1.043120 -1.302715 4.861241
-1.027892 -1.288181 4.959743
-1.013235 -1.273054 5.058242
-0.999063 -1.257423 5.156734
-0.985291 -1.241379 5.255216
-0.971837 -1.225009 5.353688
-0.958614 -1.208399 5.452152
-0.945539 -1.191638 5.550609
-0.932527 -1.174812 5.649064
-0.919498 -1.158004 5.747520
-0.906418 -1.141248 5.845978
-0.893289 -1.124542 5.944438
-0.880115 -1.107883 6.042900
-0.866899 -1.091267 6.141363
-0.853644 -1.074691 6.239828
-0.840353 -1.058151 6.338295
-0.827031 -1.041644 6.436762
-0.813681 -1.025166 6.535231
-0.800306 -1.008714 6.633700
-0.786909 -0.992283 6.732171
-0.773494 -0.975872 6.830641
-0.760065 -0.959475 6.929113
-0.746625 -0.943090 7.027585
-0.733177 -0.926712 7.126057
-0.719725 -0.910339 7.224529
-0.706272 -0.893967 7.323001
-0.692822 -0.877591 7.421473
-0.679378 -0.861210 7.519945
-0.665944 -0.844818 7.618417
-0.652523 -0.828412 7.716888
-0.639119 -0.811990 7.815358
-0.625735 -0.795547 7.913828
-0.612374 -0.779079 8.012297
-0.599041 -0.762584 8.110765
-0.585738 -0.746057 8.209232
-0.572468 -0.729496 8.307697
-0.559237 -0.712896 8.406161
-0.546045 -0.696254 8.504624
-0.532898 -0.679567 8.603085
-0.519798 -0.662832 8.701543
-0.506749 -0.646044 8.800000
-2.102315 -1.363225 1.089733
-1.560688 -1.228970 0.730984
-1.019062 -1.094715 0.372234
-0.477436 -0.960460 0.013485
-2.100682 -1.362820 1.088652
-1.562321 -1.229375 0.732065
-1.559056 -1.228565 0.729902
-1.020695 -1.095120 0.373316
-1.017429 -1.094310 0.371153
-0.479069 -0.960865 0.014566
-2.084369 -1.358776 1.077847
-1.578634 -1.233418 0.742870
-1.542743 -1.224522 0.719097
-1.037008 -1.099164 0.384121
-1.001116 -1.090267 0.360348
-0.495382 -0.964909 0.025371
-2.029651 -1.345213 1.041604
-1.950391 -1.325567 0.989106
-1.871132 -1.305921 0.936608
-1.791872 -1.286274 0.884110
-1.712612 -1.266628 0.831611
-1.633353 -1.246981 0.779113
-1.488024 -1.210958 0.682854
-1.408765 -1.191312 0.630356
-1.329505 -1.171666 0.577858
-1.250245 -1.152019 0.525360
-1.170986 -1.132373 0.472862
-1.091726 -1.112727 0.420364
-0.946398 -1.076704 0.324105
-0.867138 -1.057057 0.271607
-0.787879 -1.037411 0.219109
-0.708619 -1.017765 0.166610
-0.629359 -0.998118 0.114112
-0.550100 -0.978472 0.061614
20 NaN NaN
-2.102723 -1.363326 1.090004
-2.016110 -1.341857 1.032635
-1.929497 -1.320388 0.975267
-1.842884 -1.298919 0.917898
-1.756271 -1.277450 0.860529
-1.669658 -1.255981 0.803161
-1.583045 -1.234512 0.745792
-1.496432 -1.213043 0.688423
-1.409819 -1.191574 0.631055
-1.323207 -1.170105 0.573686
-1.236594 -1.148635 0.516318
-1.149981 -1.127166 0.458949
-1.063368 -1.105697 0.401580
-0.976755 -1.084228 0.344212
-0.890142 -1.062759 0.286843
-0.803529 -1.041290 0.229474
-0.716916 -1.019821 0.172106
-0.630303 -0.998352 0.114737
-0.543690 -0.976883 0.057369
-0.457077 -0.955414 0.000000
-2.103149 -1.363584 1.089962
-3.225616 -1.479166 0.356823
-3.728785 -0.748738 -0.789066
-4.037392 0.295734 -1.750797
-4.343633 1.339616 -2.715739
-4.649151 2.389195 -3.674754
-4.954734 3.439322 -4.633107
-5.270923 4.452329 -5.627215
-5.638648 5.410145 -6.657261
-6.089895 6.269986 -7.738659
-6.651420 6.984143 -8.872482
-7.336757 7.509912 -10.040245
-8.138297 7.821949 -11.210695
-9.027024 7.924770 -12.355452
-2.104853 -1.364618 1.089795
-3.224641 -1.479929 0.358393
-3.226592 -1.478402 0.355252
-3.728229 -0.749990 -0.787610
-3.729341 -0.747485 -0.790523
-4.036974 0.294308 -1.749459
-4.037810 0.297161 -1.752135
-4.343216 1.338172 -2.714420
-4.344049 1.341061 -2.717058
-4.648730 2.387750 -3.673438
-4.649573 2.390641 -3.676070
-4.954317 3.437903 -4.631760
-4.955150 3.440741 -4.634453
-5.270458 4.450967 -5.625826
-5.271387 4.453691 -5.628604
-5.638092 5.408884 -6.655812
-5.639204 5.411405 -6.658711
-6.089208 6.268886 -7.737136
-6.090581 6.271086 -7.740181
-6.650562 6.983284 -8.870893
-6.652277 6.985003 -8.874072
-7.335734 7.509326 -10.038630
-7.337781 7.510498 -10.041861
-8.137125 7.821672 -11.209098
-8.139469 7.822225 -11.212292
-9.025759 7.924757 -12.353903
-2.130914 -1.380419 1.087238
-3.209728 -1.491609 0.382404
-3.241505 -1.466723 0.331241
-3.719733 -0.769148 -0.765335
-3.737577 -0.727774 -0.812405
-4.030581 0.272491 -1.729001
-4.044202 0.318978 -1.772593
-4.336846 1.316081 -2.694251
-4.350423 1.363148 -2.737229
-4.642288 2.365642 -3.653310
-4.656013 2.412751 -3.696196
-4.947947 3.416204 -4.611171
-4.961520 3.462440 -4.655043
-5.263410 4.430078 -5.604629
-5.278493 4.474521 -5.649841
-5.629592 5.389603 -6.633645
-5.647705 5.430686 -6.680878
-6.078711 6.252066 -7.713849
-6.101237 6.287697 -7.763546
-6.637452 6.970139 -8.846589
-6.665388 6.998148 -8.898376
-7.320088 7.500362 -10.013927
-7.353528 7.519276 -10.066565
-8.119214 7.817414 -11.184677
-8.157393 7.826454 -11.236710
-9.006411 7.924554 -12.330218
-2.251732 -1.448491 1.069538
-2.447954 -1.532495 1.010986
-2.642328 -1.584978 0.918856
-2.826876 -1.604541 0.798210
-2.993524 -1.589211 0.653538
-3.134309 -1.538321 0.490571
-3.304688 -1.408917 0.220557
-3.392405 -1.307675 0.043836
-3.470143 -1.200305 -0.133987
-3.543191 -1.091422 -0.312891
-3.613356 -0.978485 -0.490416
-3.679975 -0.854562 -0.661823
-3.773972 -0.635058 -0.910745
-3.826029 -0.479558 -1.060031
-3.871910 -0.316599 -1.203323
-3.914800 -0.151507 -1.345111
-3.957801 0.011513 -1.489241
-4.001933 0.172106 -1.635734
-4.073730 0.418658 -1.866341
-4.121063 0.576506 -2.014809
-4.168247 0.735166 -2.162457
-4.215040 0.894698 -2.309288
-4.261486 1.054726 -2.455688
-4.307701 1.214952 -2.601946
-4.379649 1.464199 -2.829595
-4.426090 1.624209 -2.976016
-4.472658 1.784173 -3.122448
-4.519312 1.944175 -3.268811
-4.566029 2.104264 -3.415059
-4.612783 2.264474 -3.561162
-4.685475 2.513959 -3.788314
-4.732057 2.674369 -3.934252
-4.778622 2.834949 -4.080009
-4.825316 2.995837 -4.225385
-4.872103 3.156664 -4.370798
-4.918725 3.316424 -4.517434
-4.990681 3.561227 -4.749845
-5.037185 3.717051 -4.900694
-5.084424 3.872497 -5.051706
-5.132505 4.027416 -5.202992
-5.181469 4.181389 -5.354959
-5.231375 4.334223 -5.507766
-5.311225 4.569644 -5.747190
-5.364157 4.719243 -5.902166
-5.418541 4.867269 -6.058145
-5.474437 5.013623 -6.215163
-5.531958 5.158159 -6.373274
-5.591221 5.300731 -6.532521
-5.687227 5.518222 -6.782720
-5.751516 5.654957 -6.945105
-5.817932 5.789144 -7.108752
-5.886575 5.920618 -7.273678
-5.957569 6.049172 -7.439906
-6.031053 6.174574 -7.607453
-6.150397 6.363219 -7.870672
-6.230421 6.480036 -8.041398
-6.313189 6.593120 -8.213324
-6.398773 6.702291 -8.386397
-6.487164 6.807475 -8.560522
-6.578405 6.908527 -8.735622
-6.726157 7.057159 -9.009825
-6.824912 7.146850 -9.187023
-6.926579 7.231940 -9.364842
-7.031150 7.312320 -9.543167
-7.138595 7.387899 -9.721884
-7.248961 7.458449 -9.900877
-7.426249 7.558269 -10.179646
-7.543597 7.616036 -10.358778
-7.663519 7.668768 -10.537760
-7.786002 7.716278 -10.716470
-7.910855 7.758737 -10.894810
-8.037945 7.796214 -11.072685
-8.239849 7.844786 -11.348339
-8.372168 7.869620 -11.524612
-8.506275 7.889727 -11.700133
-8.642046 7.905216 -11.874841
-8.779361 7.916198 -12.048682
-8.918112 7.922768 -12.221606
189 NaN NaN
-2.102723 -1.363326 1.090004
-2.188492 -1.415331 1.081590
-2.276398 -1.461424 1.064837
-2.365470 -1.501393 1.040304
-2.454849 -1.535095 1.008536
-2.543764 -1.562407 0.970034
-2.631494 -1.583197 0.925250
-2.717334 -1.597303 0.874588
-2.800562 -1.604517 0.818418
-2.880402 -1.604590 0.757105
-2.955996 -1.597239 0.691041
-3.026395 -1.582180 0.620691
-3.090950 -1.559636 0.546813
-3.149824 -1.530694 0.470447
-3.203499 -1.496487 0.392434
-3.252597 -1.458035 0.313381
-3.297797 -1.416220 0.233708
-3.339733 -1.371773 0.153671
-3.378880 -1.325281 0.073381
-3.415733 -1.277307 -0.007124
-3.450830 -1.228396 -0.087851
-3.484734 -1.179082 -0.168843
-3.517961 -1.129770 -0.250118
-3.550632 -1.080111 -0.331405
-3.582710 -1.029458 -0.412314
-3.614146 -0.977170 -0.492430
-3.644876 -0.922629 -0.571306
-3.674820 -0.865271 -0.648465
-3.703852 -0.804959 -0.723696
-3.731825 -0.741882 -0.797038
-3.758593 -0.676231 -0.868548
-3.784010 -0.608183 -0.938289
-3.807933 -0.537906 -1.006328
-3.830337 -0.465669 -1.072814
-3.851488 -0.391985 -1.138115
-3.871707 -0.317376 -1.202658
-3.891325 -0.242342 -1.266893
-3.910673 -0.167368 -1.331281
-3.930054 -0.092885 -1.396226
-3.949593 -0.018980 -1.461781
-3.969344 0.054398 -1.527861
-3.989361 0.127302 -1.594387
-4.009699 0.199783 -1.661275
-4.030407 0.271898 -1.728445
-4.051456 0.343733 -1.795808
-4.072754 0.415401 -1.863272
-4.094210 0.487013 -1.930744
-4.115731 0.558683 -1.998134
-4.137225 0.630525 -2.065350
-4.158636 0.702595 -2.132348
-4.179962 0.774865 -2.199157
-4.201209 0.847297 -2.265815
-4.222380 0.919855 -2.332361
-4.243481 0.992502 -2.398832
-4.264518 1.065205 -2.465262
-4.285509 1.137942 -2.531669
-4.306475 1.210698 -2.598064
-4.327436 1.283453 -2.664460
-4.348413 1.356191 -2.730871
-4.369423 1.428895 -2.797308
-4.390473 1.501566 -2.863769
-4.411556 1.574211 -2.930247
-4.432669 1.646841 -2.996733
-4.453807 1.719464 -3.063218
-4.474964 1.792090 -3.129694
-4.496139 1.864725 -3.196155
-4.517328 1.937374 -3.262595
-4.538530 2.010040 -3.329013
-4.559743 2.082728 -3.395404
-4.580965 2.155441 -3.461764
-4.602194 2.228181 -3.528092
-4.623424 2.300945 -3.594393
-4.644646 2.373729 -3.660675
-4.665854 2.446529 -3.726945
-4.687040 2.519339 -3.793210
-4.708199 2.592157 -3.859475
-4.729337 2.664991 -3.925729
-4.750469 2.737857 -3.991950
-4.771610 2.810771 -4.058114
-4.792775 2.883749 -4.124201
-4.813977 2.956806 -4.190189
-4.835216 3.029911 -4.256111
-4.856465 3.102968 -4.322084
-4.877699 3.175875 -4.388227
-4.898890 3.248529 -4.454661
-4.920011 3.320827 -4.521505
-4.941043 3.392683 -4.588852
-4.962017 3.464131 -4.656648
-4.982983 3.535255 -4.724789
-5.003992 3.606134 -4.793169
-5.025095 3.676854 -4.861686
-5.046342 3.747496 -4.930239
-5.067762 3.818089 -4.998788
-5.089356 3.888600 -5.067368
-5.111126 3.958991 -5.136014
-5.133071 4.029226 -5.204765
-5.155192 4.099268 -5.273656
-5.177492 4.169085 -5.342717
-5.199984 4.238667 -5.411954
-5.222680 4.308008 -5.481365
-5.245596 4.377103 -5.550950
-5.268745 4.445945 -5.620706
-5.292141 4.514530 -5.690634
-5.315797 4.582846 -5.760738
-5.339722 4.650879 -5.831025
-5.363928 4.718613 -5.901505
-5.388423 4.786032 -5.972186
-5.413220 4.853123 -6.043074
-5.438327 4.919869 -6.114179
-5.463757 4.986256 -6.185503
-5.489520 5.052272 -6.257053
-5.515627 5.117903 -6.328832
-5.542090 5.183133 -6.400845
-5.568919 5.247950 -6.473096
-5.596125 5.312338 -6.545589
-5.623718 5.376281 -6.618328
-5.651708 5.439766 -6.691317
-5.680107 5.502775 -6.764560
-5.708924 5.565294 -6.838060
-5.738168 5.627306 -6.911819
-5.767851 5.688796 -6.985840
-5.797981 5.749748 -7.060124
-5.828568 5.810146 -7.134674
-5.859621 5.869974 -7.209490
-5.891151 5.929215 -7.284574
-5.923165 5.987853 -7.359925
-5.955672 6.045873 -7.435543
-5.988681 6.103258 -7.511428
-6.022200 6.159992 -7.587579
-6.056238 6.216057 -7.663993
-6.090801 6.271439 -7.740671
-6.125899 6.326121 -7.817607
-6.161536 6.380087 -7.894800
-6.197721 6.433321 -7.972246
-6.234461 6.485807 -8.049941
-6.271761 6.537530 -8.127881
-6.309628 6.588474 -8.206060
-6.348066 6.638624 -8.284473
-6.387082 6.687966 -8.363113
-6.426679 6.736484 -8.441975
-6.466864 6.784163 -8.521051
-6.507640 6.830989 -8.600333
-6.549009 6.876949 -8.679815
-6.590975 6.922031 -8.759487
-6.633542 6.966219 -8.839341
-6.676711 7.009500 -8.919367
-6.720485 7.051863 -8.999557
-6.764864 7.093295 -9.079900
-6.809848 7.133786 -9.160386
-6.855438 7.173325 -9.241004
-6.901633 7.211899 -9.321745
-6.948434 7.249498 -9.402598
-6.995837 7.286114 -9.483550
-7.043840 7.321737 -9.564592
-7.092440 7.356360 -9.645712
-7.141633 7.389975 -9.726898
-7.191417 7.422572 -9.808139
-7.241786 7.454146 -9.889423
-7.292733 7.484692 -9.970740
-7.344252 7.514205 -10.052078
-7.396337 7.542681 -10.133425
-7.448981 7.570115 -10.214771
-7.502176 7.596503 -10.296104
-7.555913 7.621844 -10.377413
-7.610183 7.646139 -10.458688
-7.664975 7.669386 -10.539919
-7.720281 7.691586 -10.621095
-7.776091 7.712738 -10.702206
-7.832393 7.732845 -10.783242
-7.889177 7.751911 -10.864194
-7.946430 7.769939 -10.945053
-8.004141 7.786934 -11.025810
-8.062299 7.802900 -11.106456
-8.120893 7.817842 -11.186984
-8.179909 7.831767 -11.267384
-8.239335 7.844684 -11.347651
-8.299161 7.856599 -11.427776
-8.359372 7.867521 -11.507754
-8.419959 7.877458 -11.587576
-8.480909 7.886419 -11.667238
-8.542209 7.894415 -11.746733
-8.603849 7.901456 -11.826055
-8.665816 7.907555 -11.905200
-8.728100 7.912721 -11.984164
-8.790689 7.916966 -12.062940
-8.853573 7.920300 -12.141525
-8.916741 7.922734 -12.219916
-8.980182 7.924279 -12.298107
-9.043887 7.924946 -12.376097
-0.830062 -1.045150 6.413197
-0.773102 -0.881431 6.446584
-0.729931 -0.713801 6.480910
-0.704029 -0.542812 6.516093
-0.700002 -0.370118 6.551833
-0.718627 -0.198433 6.587575
-0.763880 -0.031579 6.622565
-0.834276 0.126560 6.655983
-0.926367 0.273731 6.687331
-1.039023 0.406517 6.715891
-1.165649 0.526590 6.741947
-1.303616 0.634139 6.765514
-0.829381 -1.043307 6.413573
-0.773691 -0.883304 6.446202
-0.772514 -0.879558 6.446967
-0.730296 -0.715727 6.480515
-0.729566 -0.711874 6.481306
-0.704261 -0.544758 6.515692
-0.703797 -0.540867 6.516494
-0.699926 -0.372075 6.551427
-0.700078 -0.368161 6.552239
-0.718198 -0.200346 6.587175
-0.719055 -0.196521 6.587975
-0.763271 -0.033443 6.622173
-0.764489 -0.029714 6.622957
-0.833326 0.124838 6.655617
-0.835225 0.128282 6.656348
-0.925209 0.272139 6.686990
-0.927599 0.275272 6.687662
-1.037677 0.405071 6.715579
-1.040369 0.407964 6.716203
-1.164124 0.525326 6.741671
-1.167174 0.527854 6.742223
-1.302022 0.632959 6.765255
-0.826766 -1.036231 6.415014
-0.775950 -0.890496 6.444733
-0.770254 -0.872366 6.448436
-0.731699 -0.723123 6.478995
-0.728163 -0.704478 6.482825
-0.705154 -0.552229 6.514153
-0.702904 -0.533396 6.518033
-0.699633 -0.379589 6.549867
-0.700372 -0.360646 6.553799
-0.716553 -0.207689 6.585638
-0.720700 -0.189178 6.589512
-0.760932 -0.040602 6.620668
-0.766828 -0.022555 6.624461
-0.829680 0.118226 6.654213
-0.838872 0.134894 6.657752
-0.920988 0.265864 6.685651
-0.932327 0.281189 6.688932
-1.032509 0.399517 6.714380
-1.045536 0.413517 6.717402
-1.158267 0.520472 6.740611
-1.173031 0.532707 6.743283
-1.295900 0.628429 6.764259
-0.820551 -1.019415 6.418440
-0.812330 -0.997172 6.422972
-0.804109 -0.974928 6.427503
-0.795889 -0.952685 6.432035
-0.788424 -0.930194 6.436625
-0.781321 -0.907587 6.441242
-0.764884 -0.855275 6.451926
-0.758401 -0.832499 6.456585
-0.752562 -0.809549 6.461285
-0.746724 -0.786599 6.465985
-0.740885 -0.763649 6.470685
-0.735046 -0.740699 6.475386
-0.724829 -0.686900 6.486436
-0.720419 -0.663648 6.491212
-0.716009 -0.640397 6.495988
-0.712889 -0.616957 6.500815
-0.710083 -0.593471 6.505654
-0.707276 -0.569984 6.510494
-0.701884 -0.515557 6.521720
-0.700859 -0.491935 6.526604
-0.699833 -0.468313 6.531488
-0.698808 -0.444691 6.536372
-0.698014 -0.421070 6.541259
-0.698936 -0.397447 6.546161
-0.701068 -0.342788 6.557505
-0.701990 -0.319166 6.562407
-0.704856 -0.295703 6.567295
-0.707861 -0.272251 6.572182
-0.710865 -0.248799 6.577068
-0.713870 -0.225348 6.581955
-0.724609 -0.171728 6.593163
-0.729781 -0.148645 6.597994
-0.734952 -0.125562 6.602824
-0.740667 -0.102623 6.607630
-0.748020 -0.080119 6.612361
-0.755373 -0.057615 6.617091
-0.772522 -0.005592 6.628029
-0.781996 0.016135 6.632619
-0.791470 0.037863 6.637208
-0.800943 0.059590 6.641798
-0.810417 0.081317 6.646387
-0.821014 0.102513 6.650877
-0.847538 0.150607 6.661088
-0.859001 0.171392 6.665501
-0.871149 0.191775 6.669837
-0.884418 0.211501 6.674048
-0.897687 0.231226 6.678258
-0.910957 0.250951 6.682468
-0.943565 0.295251 6.691950
-0.958430 0.313852 6.695942
-0.973295 0.332452 6.699934
-0.988160 0.351053 6.703926
-1.003983 0.368861 6.707763
-1.020228 0.386319 6.711531
-1.057817 0.426716 6.720251
-1.074660 0.443603 6.723906
-1.092080 0.459939 6.727453
-1.109500 0.476275 6.731000
-1.126920 0.492610 6.734546
-1.144348 0.508937 6.738091
-1.186950 0.544242 6.745803
-1.205361 0.559501 6.749135
-1.223772 0.574759 6.752468
-1.242867 0.589181 6.755634
-1.262110 0.603422 6.758764
-1.281353 0.617663 6.761893
20 NaN NaN
-0.830232 -1.045610 6.413103
-0.793236 -0.945507 6.433497
-0.761267 -0.843766 6.454277
-0.734993 -0.740487 6.475429
-0.715147 -0.635855 6.496921
-0.702519 -0.530172 6.518698
-0.697904 -0.423883 6.540675
-0.702051 -0.317597 6.562733
-0.715569 -0.212081 6.584719
-0.738835 -0.108228 6.606452
-0.771918 -0.006979 6.627736
-0.814541 0.090775 6.648385
-0.866115 0.184293 6.668240
-0.925819 0.273045 6.687184
-0.992706 0.356741 6.705147
-1.065805 0.435300 6.722104
-1.144195 0.508810 6.738063
-1.227048 0.577474 6.753061
-1.313646 0.641562 6.767146
-1.403380 0.701380 6.780375
-1.287444 -1.398949 3.722725
-1.178038 -1.276400 3.750455
-1.073859 -1.149921 3.780543
-0.977962 -1.017907 3.814109
-0.890620 -0.880945 3.850976
-0.817351 -0.737340 3.892711
-0.759167 -0.588367 3.939004
-0.725820 -0.434036 3.991492
-0.718038 -0.278115 4.048880
-0.746510 -0.126474 4.110754
-0.804438 0.015920 4.174102
-0.892935 0.142204 4.236528
-1.000199 0.254307 4.296772
-1.123668 0.350426 4.353725
-1.256343 0.435243 4.407972
-1.286117 -1.397489 3.723051
-1.179322 -1.277894 3.750109
-1.176754 -1.274906 3.750801
-1.075093 -1.151452 3.780175
-1.072680 -1.148354 3.780935
-0.979066 -1.019521 3.813687
-0.976858 -1.016294 3.814530
-0.891640 -0.882605 3.850523
-0.889659 -0.879257 3.851450
-0.818148 -0.739097 3.892183
-0.816554 -0.735583 3.893238
-0.759815 -0.590172 3.938434
-0.758570 -0.586552 3.939587
-0.726075 -0.435907 3.990831
-0.725566 -0.432166 3.992154
-0.718047 -0.279987 4.048176
-0.718038 -0.276244 4.049584
-0.745981 -0.128248 4.109997
-0.747039 -0.124700 4.111511
-0.803655 0.014245 4.173340
-0.805222 0.017595 4.174864
-0.891743 0.140777 4.235790
-0.894126 0.143631 4.237265
-0.998860 0.253005 4.296057
-1.001539 0.255609 4.297487
-1.122122 0.349347 4.353059
-1.125215 0.351506 4.354391
-1.254725 0.434258 4.407329
-1.281249 -1.392138 3.724247
-1.184030 -1.283369 3.748839
-1.172046 -1.269431 3.752070
-1.079615 -1.157062 3.778823
-1.068375 -1.142597 3.782378
-0.983113 -1.025436 3.812141
-0.972811 -1.010379 3.816076
-0.895379 -0.888688 3.848862
-0.886290 -0.872996 3.853240
-0.821067 -0.745538 3.890250
-0.813635 -0.729142 3.895172
-0.762189 -0.596786 3.936343
-0.756855 -0.579790 3.941844
-0.727007 -0.442763 3.988407
-0.724634 -0.425310 3.994578
-0.718080 -0.286851 4.045598
-0.718984 -0.269493 4.052284
-0.744043 -0.134752 4.107223
-0.748978 -0.118196 4.114285
-0.800782 0.008106 4.170545
-0.808873 0.023315 4.177632
-0.887376 0.135545 4.233086
-0.898493 0.148862 4.239969
-0.993951 0.248233 4.293434
-1.006823 0.260005 4.300031
-1.116453 0.345391 4.350616
-1.130883 0.355462 4.356834
-1.248795 0.430648 4.404972
-1.269836 -1.379593 3.727050
-1.254755 -1.363015 3.730753
-1.239674 -1.346437 3.734457
-1.224593 -1.329859 3.738161
-1.209655 -1.313170 3.741931
-1.195068 -1.296206 3.745864
-1.161008 -1.256594 3.755046
-1.146422 -1.239630 3.758978
-1.132252 -1.222363 3.763095
-1.118241 -1.204981 3.767282
-1.104229 -1.187598 3.771469
-1.090218 -1.170216 3.775655
-1.058282 -1.129100 3.785761
-1.044945 -1.111264 3.790232
-1.031608 -1.093428 3.794703
-1.018271 -1.075592 3.799174
-1.005141 -1.057629 3.803728
-0.992602 -1.039303 3.808517
-0.963322 -0.996512 3.819700
-0.950782 -0.978186 3.824490
-0.938906 -0.959497 3.829527
-0.927320 -0.940648 3.834674
-0.915733 -0.921800 3.839820
-0.904147 -0.902951 3.844967
-0.878391 -0.858317 3.857437
-0.867952 -0.838920 3.862983
-0.857514 -0.819522 3.868530
-0.847076 -0.800124 3.874076
-0.836960 -0.780597 3.879726
-0.827913 -0.760640 3.885716
-0.806789 -0.714040 3.899705
-0.797742 -0.694084 3.905696
-0.789824 -0.673769 3.912012
-0.782468 -0.653277 3.918488
-0.775112 -0.632785 3.924965
-0.767756 -0.612293 3.931442
-0.752834 -0.563937 3.947136
-0.747520 -0.542988 3.954128
-0.742207 -0.522039 3.961120
-0.736893 -0.501090 3.968113
-0.732080 -0.480080 3.975212
-0.729192 -0.458838 3.982723
-0.722449 -0.409235 4.000262
-0.719561 -0.387993 4.007773
-0.718467 -0.366736 4.015591
-0.718364 -0.345471 4.023578
-0.718261 -0.324207 4.031566
-0.718158 -0.302942 4.039554
-0.721200 -0.253667 4.058615
-0.724129 -0.232752 4.066981
-0.727058 -0.211837 4.075347
-0.729987 -0.190922 4.083713
-0.733490 -0.170150 4.092122
-0.739497 -0.150000 4.100718
-0.753523 -0.102948 4.120790
-0.759530 -0.082798 4.129386
-0.767347 -0.063354 4.138020
-0.776247 -0.044332 4.146678
-0.785147 -0.025310 4.155336
-0.794047 -0.006289 4.163994
-0.817524 0.036678 4.184118
-0.828957 0.054337 4.192689
-0.840390 0.071996 4.201259
-0.851822 0.089654 4.209830
-0.863605 0.107071 4.218369
-0.877136 0.123280 4.226746
-0.908733 0.161128 4.246309
-0.922264 0.177336 4.254687
-0.936810 0.192685 4.262912
-0.952020 0.207471 4.271037
-0.967230 0.222258 4.279161
-0.982441 0.237044 4.287286
-1.019332 0.270190 4.305969
-1.035862 0.283649 4.313817
-1.052392 0.297109 4.321664
-1.068923 0.310569 4.329512
-1.085599 0.323858 4.337320
-1.103163 0.336115 4.344888
-1.144174 0.364737 4.362562
-1.161737 0.376995 4.370130
-1.179769 0.388632 4.377544
-1.198143 0.399817 4.384845
-1.216517 0.411001 4.392146
-1.234891 0.422185 4.399448
23 NaN NaN
-1.287776 -1.399314 3.722644
-1.213879 -1.318082 3.740793
-1.142406 -1.234961 3.760061
-1.073753 -1.149789 3.780575
-1.008403 -1.062396 3.802481
-0.946965 -0.972607 3.825948
-0.890198 -0.880259 3.851163
-0.839057 -0.785223 3.878337
-0.794738 -0.687456 3.907686
-0.758703 -0.587074 3.939413
-0.732676 -0.484466 3.973662
-0.718533 -0.380435 4.010445
-0.718029 -0.276310 4.049557
-0.732370 -0.173909 4.090519
-0.761780 -0.075251 4.132605
-0.805359 0.017889 4.174998
-0.861347 0.104367 4.216971
-0.927622 0.183753 4.258004
-1.002129 0.256183 4.297803
-1.083110 0.322120 4.336247
-1.169156 0.382173 4.373327
-1.259179 0.436969 4.409099
-1.352349 0.487103 4.443644
-1.709876 -1.363961 2.411121
-1.427320 -1.195496 2.472481
-1.159207 -1.008116 2.542825
-0.916228 -0.793979 2.626092
-0.723540 -0.541447 2.728550
-0.639722 -0.246352 2.854691
-0.723672 0.045258 2.986912
-0.928935 0.282033 3.100493
-1.189013 0.469600 3.194893
-1.708166 -1.362985 2.411473
-1.428986 -1.196535 2.472098
-1.425655 -1.194456 2.472863
-1.160770 -1.009282 2.542382
-1.157643 -1.006950 2.543267
-0.917606 -0.795327 2.625561
-0.914849 -0.792630 2.626624
-0.724530 -0.543053 2.727887
-0.722550 -0.539840 2.729212
-0.639881 -0.248179 2.853894
-0.639562 -0.244524 2.855489
-0.722818 0.043617 2.986151
-0.724525 0.046898 2.987674
-0.927538 0.280747 3.099864
-0.930331 0.283319 3.101123
-1.187382 0.468569 3.194365
-1.696866 -1.356542 2.413797
-1.439988 -1.203404 2.469573
-1.414839 -1.187339 2.475506
-1.171099 -1.016988 2.539458
-1.147577 -0.998959 2.546329
-0.926713 -0.804236 2.622052
-0.906143 -0.783401 2.630293
-0.731071 -0.553668 2.723510
-0.716647 -0.528949 2.733740
-0.640933 -0.260251 2.848626
-0.639190 -0.232470 2.860780
-0.717177 0.032778 2.981122
-0.730356 0.057638 2.992667
-0.918312 0.272251 3.095704
-0.939557 0.291815 3.105283
-1.176611 0.461756 3.190876
-1.666835 -1.339420 2.419974
-1.626809 -1.316597 2.428208
-1.587117 -1.293285 2.436672
-1.547578 -1.269748 2.445242
-1.508201 -1.245986 2.453918
-1.469228 -1.221657 2.462863
-1.386096 -1.168427 2.482530
-1.347786 -1.143219 2.491891
-1.309971 -1.117391 2.501548
-1.272445 -1.091202 2.511377
-1.235135 -1.064758 2.521329
-1.198549 -1.037465 2.531687
-1.120985 -0.977547 2.554551
-1.085542 -0.949009 2.565509
-1.050916 -0.919653 2.576865
-1.016885 -0.889702 2.588509
-0.983169 -0.859466 2.600293
-0.950913 -0.827911 2.612725
-0.883644 -0.758363 2.640297
-0.853657 -0.724991 2.653631
-0.825219 -0.690552 2.667506
-0.798178 -0.655150 2.681868
-0.771623 -0.619473 2.696373
-0.748454 -0.581876 2.711877
-0.703077 -0.499084 2.746276
-0.684990 -0.459279 2.762983
-0.670004 -0.418573 2.780228
-0.658428 -0.376876 2.798064
-0.647459 -0.335097 2.815963
-0.643730 -0.292335 2.834625
-0.642801 -0.200563 2.874994
-0.647615 -0.158035 2.893940
-0.655965 -0.116197 2.912742
-0.668968 -0.075268 2.931356
-0.682204 -0.034424 2.949942
-0.702186 0.003971 2.967757
-0.749459 0.084276 3.005265
-0.774920 0.119780 3.022055
-0.801972 0.154195 3.038437
-0.831566 0.186867 3.054167
-0.861160 0.219539 3.069898
-0.893793 0.249672 3.084648
-0.965781 0.312725 3.115681
-1.000783 0.340547 3.129521
-1.036376 0.367710 3.143098
-1.073151 0.393557 3.156149
-1.109925 0.419403 3.169199
-1.147985 0.443651 3.181604
25 NaN NaN
-1.710304 -1.364204 2.411033
-1.614187 -1.309401 2.430804
-1.519243 -1.252879 2.451384
-1.425658 -1.194458 2.472862
-1.333663 -1.133926 2.495342
-1.243553 -1.071037 2.518945
-1.155700 -1.005500 2.543818
-1.070595 -0.936973 2.570131
-0.988883 -0.865056 2.598091
-0.911436 -0.789291 2.627939
-0.839440 -0.709170 2.659953
-0.774526 -0.624184 2.694430
-0.718917 -0.533944 2.731644
-0.675516 -0.438428 2.771735
-0.647747 -0.338404 2.814520
-0.638806 -0.235855 2.859272
-0.650350 -0.133873 2.904704
-0.681537 -0.035707 2.949347
-0.729475 0.056410 2.992087
-0.790579 0.141617 3.032381
-0.861617 0.220044 3.070141
-0.940074 0.292291 3.105516
-1.024111 0.359090 3.138745
-1.112410 0.421150 3.170081
-1.204023 0.479094 3.199755
-1.560274 -1.228764 0.731173
-1.337341 -1.113270 0.835955
-1.123397 -0.987132 0.946963
-0.923885 -0.846107 1.066463
-0.745596 -0.686857 1.195947
-0.606614 -0.502101 1.338288
-0.531461 -0.291396 1.490939
-0.556825 -0.067875 1.640669
-0.672253 0.140419 1.769537
-0.848727 0.319863 1.871609
-1.558617 -1.227938 0.731930
-1.338951 -1.114155 0.835163
-1.335731 -1.112385 0.836746
-1.124920 -0.988113 0.946116
-1.121890 -0.986135 0.947819
-0.925287 -0.847203 1.065552
-0.922482 -0.845011 1.067375
-0.746741 -0.688147 1.194934
-0.744457 -0.685565 1.196962
-0.607448 -0.503555 1.337198
-0.605781 -0.500646 1.339379
-0.531529 -0.293043 1.489806
-0.531394 -0.289749 1.492072
-0.556282 -0.069494 1.639626
-0.557367 -0.066257 1.641711
-0.671060 0.139032 1.768728
-0.673446 0.141806 1.770346
-0.847297 0.318637 1.870937
-1.549484 -1.223386 0.736099
-1.347824 -1.119030 0.830803
-1.326859 -1.107510 0.841107
-1.133446 -0.993382 0.941526
-1.113584 -0.980635 0.952540
-0.933016 -0.853246 1.060526
-0.914753 -0.838968 1.072401
-0.753612 -0.694872 1.189542
-0.738178 -0.678440 1.202558
-0.612041 -0.511573 1.331187
-0.601187 -0.492628 1.345389
-0.533402 -0.301903 1.483537
-0.531023 -0.280672 1.498315
-0.553289 -0.078413 1.633882
-0.560360 -0.057338 1.647456
-0.665261 0.131000 1.763915
-0.680020 0.149449 1.774803
-0.839417 0.311876 1.867235
-1.525922 -1.211643 0.746857
-1.494576 -1.196022 0.761168
-1.463329 -1.180275 0.775553
-1.432400 -1.164124 0.790178
-1.401471 -1.147972 0.804803
-1.370715 -1.131609 0.819552
-1.303967 -1.094931 0.852358
-1.273890 -1.077760 0.867579
-1.243988 -1.060385 0.882920
-1.214086 -1.043010 0.898262
-1.184703 -1.025062 0.913934
-1.155442 -1.006977 0.929686
-1.092156 -0.966448 0.964720
-1.063649 -0.947574 0.980923
-1.035371 -0.928476 0.997252
-1.007763 -0.908722 1.013952
-0.980154 -0.888967 1.030652
-0.952957 -0.868837 1.047561
-0.894812 -0.823377 1.085366
-0.869207 -0.801863 1.103035
-0.843997 -0.780018 1.120885
-0.818787 -0.758172 1.138734
-0.794923 -0.735304 1.157126
-0.771340 -0.712223 1.175631
-0.721977 -0.660057 1.216996
-0.700426 -0.635603 1.236203
-0.679574 -0.610739 1.255608
-0.660582 -0.584790 1.275539
-0.641589 -0.558840 1.295470
-0.623892 -0.532260 1.315681
-0.589337 -0.471941 1.360895
-0.576478 -0.443317 1.381940
-0.564742 -0.414267 1.403146
-0.553006 -0.385216 1.424352
-0.545416 -0.355063 1.445830
-0.538558 -0.324716 1.467356
-0.530064 -0.257252 1.514423
-0.528790 -0.226098 1.535851
-0.529287 -0.194914 1.557094
-0.533903 -0.163659 1.577906
-0.538519 -0.132403 1.598719
-0.545569 -0.101425 1.619060
-0.568080 -0.034326 1.662278
-0.582086 -0.004630 1.680935
-0.597325 0.024764 1.699242
-0.612564 0.054157 1.717549
-0.631404 0.082199 1.734515
-0.650732 0.110058 1.751299
-0.696982 0.169169 1.786303
-0.719546 0.195403 1.801601
-0.742939 0.221119 1.816449
-0.768023 0.245778 1.830379
-0.793108 0.270438 1.844309
-0.819087 0.294433 1.857682
26 NaN NaN
-1.560688 -1.228970 0.730984
-1.470628 -1.184087 0.772102
-1.381764 -1.137680 0.814121
-1.294270 -1.089602 0.857124
-1.208357 -1.039682 0.901201
-1.124288 -0.987722 0.946456
-1.042386 -0.933496 0.993008
-0.963066 -0.876740 1.040988
-0.886852 -0.817154 1.090541
-0.814427 -0.754395 1.141821
-0.746679 -0.688086 1.194982
-0.684771 -0.617840 1.250154
-0.630219 -0.543305 1.307402
-0.584944 -0.464272 1.366644
-0.551245 -0.380858 1.427534
-0.531557 -0.293736 1.489329
-0.527899 -0.204313 1.550835
-0.541148 -0.114602 1.610573
-0.570629 -0.026727 1.667172
-0.614383 0.057666 1.719734
-0.669887 0.137668 1.767933
-0.734694 0.213014 1.811871
-0.806749 0.283848 1.851884
-0.884441 0.350505 1.888391
-0.966552 0.413390 1.921807
-1.052167 0.472902 1.952513
-1.018706 -1.094369 0.372295
-0.921504 -0.998249 0.389318
-0.829502 -0.897440 0.407891
-0.744111 -0.791325 0.428272
-0.667284 -0.679255 0.450765
-0.604062 -0.559624 0.476138
-0.556778 -0.433565 0.504275
-0.529923 -0.302348 0.535185
-0.527716 -0.168943 0.568429
-0.556293 -0.038982 0.603042
-0.608997 0.083190 0.637454
-0.681312 0.195320 0.670772
-0.768507 0.296988 0.702550
-0.867840 0.387579 0.732434
-1.017283 -1.092985 0.372539
-0.922868 -0.999688 0.389056
-0.920140 -0.996810 0.389579
-0.830795 -0.898940 0.407609
-0.828209 -0.895941 0.408173
-0.745315 -0.792892 0.427967
-0.742906 -0.789758 0.428577
-0.668354 -0.680909 0.450429
-0.666330 -0.677534 0.451127
-0.604838 -0.561424 0.475743
-0.603286 -0.557823 0.476532
-0.557331 -0.435439 0.503846
-0.556225 -0.431692 0.504704
-0.530205 -0.304274 0.534723
-0.529641 -0.300423 0.535646
-0.527610 -0.170874 0.567938
-0.528068 -0.167039 0.568931
-0.555634 -0.040802 0.602539
-0.556951 -0.037162 0.603546
-0.608075 0.081485 0.636960
-0.609919 0.084895 0.637947
-0.680178 0.193743 0.670295
-0.682445 0.196898 0.671250
-0.767169 0.295574 0.702099
-0.769930 0.298324 0.702988
-0.866322 0.386346 0.732015
-1.012785 -1.088609 0.373308
-0.927181 -1.004236 0.388230
-0.915827 -0.992262 0.390405
-0.834882 -0.903681 0.406718
-0.824122 -0.891200 0.409063
-0.749122 -0.797846 0.427003
-0.739099 -0.784803 0.429542
-0.671812 -0.686097 0.449380
-0.663316 -0.672096 0.452270
-0.607291 -0.567116 0.474496
-0.600833 -0.552131 0.477780
-0.559080 -0.441361 0.502490
-0.554476 -0.425769 0.506060
-0.531097 -0.310360 0.533264
-0.528749 -0.294336 0.537106
-0.527521 -0.177004 0.566396
-0.529182 -0.161022 0.570518
-0.553552 -0.046555 0.600947
-0.559033 -0.031408 0.605137
-0.605161 0.076096 0.635399
-0.612833 0.090284 0.639508
-0.676596 0.188757 0.668787
-0.686028 0.201884 0.672758
-0.763069 0.290985 0.700653
-0.774426 0.302548 0.704371
-0.861522 0.382449 0.730692
-1.002745 -1.078842 0.375026
-0.989525 -1.065982 0.377288
-0.976305 -1.053122 0.379550
-0.963085 -1.040262 0.381812
-0.949865 -1.027402 0.384074
-0.936809 -1.014389 0.386385
-0.906200 -0.982109 0.392250
-0.893524 -0.968741 0.394678
-0.880848 -0.955374 0.397106
-0.868173 -0.942006 0.399535
-0.856016 -0.928197 0.402111
-0.844004 -0.914263 0.404730
-0.814999 -0.880618 0.411052
-0.802988 -0.866684 0.413670
-0.791192 -0.852587 0.416345
-0.780002 -0.838026 0.419180
-0.768812 -0.823466 0.422015
-0.757622 -0.808905 0.424849
-0.730600 -0.773744 0.431695
-0.720175 -0.758672 0.434713
-0.710013 -0.743424 0.437795
-0.699852 -0.728176 0.440876
-0.689691 -0.712927 0.443958
-0.679529 -0.697679 0.447040
-0.656586 -0.659956 0.454822
-0.647726 -0.643973 0.458182
-0.638865 -0.627989 0.461542
-0.630005 -0.612006 0.464902
-0.621145 -0.596023 0.468262
-0.612768 -0.579821 0.471711
-0.595356 -0.539426 0.480564
-0.588146 -0.522698 0.484230
-0.580936 -0.505969 0.487896
-0.573725 -0.489241 0.491562
-0.568122 -0.471987 0.495477
-0.562983 -0.454581 0.499462
-0.550573 -0.412549 0.509087
-0.545434 -0.395143 0.513073
-0.540951 -0.377612 0.517138
-0.538330 -0.359723 0.521427
-0.535709 -0.341835 0.525717
-0.533088 -0.323947 0.530006
-0.526758 -0.280750 0.540363
-0.526287 -0.262764 0.544833
-0.526546 -0.244746 0.549363
-0.526806 -0.226727 0.553894
-0.527065 -0.208708 0.558425
-0.527324 -0.190690 0.562955
-0.531668 -0.147589 0.574062
-0.534942 -0.129904 0.578728
-0.538215 -0.112218 0.583394
-0.541488 -0.094533 0.588059
-0.544762 -0.076847 0.592725
-0.548905 -0.059399 0.597394
-0.563681 -0.018565 0.608690
-0.569799 -0.001655 0.613368
-0.575918 0.015255 0.618045
-0.582037 0.032165 0.622723
-0.590092 0.048227 0.627329
-0.598657 0.064066 0.631916
-0.619338 0.102314 0.642992
-0.627902 0.118153 0.647579
-0.637010 0.133664 0.652123
-0.647539 0.148318 0.656555
-0.658069 0.162973 0.660988
-0.668598 0.177627 0.665421
-0.694025 0.213014 0.676124
-0.705711 0.226782 0.680419
-0.717762 0.240272 0.684670
-0.729814 0.253761 0.688921
-0.741865 0.267250 0.693173
-0.753916 0.280739 0.697424
-0.784462 0.311977 0.707460
-0.797677 0.324391 0.711526
-0.810891 0.336806 0.715592
-0.824105 0.349220 0.719659
-0.837319 0.361634 0.723725
-0.850809 0.373750 0.727737
18 NaN NaN
-1.019062 -1.094715 0.372234
-0.940615 -1.018403 0.385656
-0.865398 -0.939080 0.400066
-0.794126 -0.856404 0.415602
-0.727730 -0.770010 0.432422
-0.667442 -0.679540 0.450705
-0.614879 -0.584720 0.470638
-0.572111 -0.485496 0.492383
-0.541634 -0.382274 0.516020
-0.526093 -0.276215 0.541451
-0.527631 -0.169402 0.568308
-0.547035 -0.064565 0.595965
-0.583312 0.035687 0.623697
-0.634098 0.129611 0.650897
-0.696551 0.216529 0.677188
-0.768041 0.296550 0.702407
-0.846440 0.370202 0.726532
-0.930130 0.438159 0.749614
