21.543325 -106.506071 -24.678768 0.162201
24.383081 -149.977313 -86.548694 0.162748
83.801498 -268.157122 -243.096040 0.164364
206.061316 -481.598112 -537.141626 0.167575
126.977624 -362.715095 -382.139533 0.165752
176.075643 -536.647716 -716.549573 0.168614
199.162942 -462.259226 -547.859716 0.167372
75.129447 -214.906507 -180.603219 0.163680
131.620089 -278.981125 -288.496552 0.164670
246.370564 -402.630753 -577.806393 0.166839
264.793504 -401.024434 -500.772488 0.166653
122.619502 -268.601944 -276.330774 0.164523
160.918319 -322.807081 -375.086409 0.165377
196.477719 -368.788658 -457.453117 0.166117
240.006211 -397.236296 -532.785294 0.166663
155.702801 -343.261334 -631.934581 0.166206
90.078576 -186.299195 -178.705287 0.163437
217.813681 -332.926960 -425.925326 0.165689
271.464981 -299.395885 -575.289639 0.165758
67.998850 -166.006620 -177.657754 0.163211
45.019705 -189.630298 -276.631448 0.163639
22.831583 -194.239058 -323.142084 0.163757
23.864752 -199.441983 -408.760107 0.164019
12.349888 -246.907010 -754.067870 0.165241
39.359438 -237.260600 -613.287398 0.164889
51.747849 -288.767524 -819.849203 0.165879
145.525026 -306.634426 -1040.341428 0.166675
28.951801 -212.572394 -410.433093 0.164155
-142.149655 -359.721888 -1056.353224 0.166610
50.352219 -341.862571 -691.845623 0.166138
21.152493 -243.093102 -404.310467 0.164412
6.380851 -322.469566 -561.347232 0.165544
-4.103194 -367.944295 -668.368481 0.166238
11.112474 -393.419453 -785.293449 0.166812
-5.868925 -429.856896 -852.166020 0.167313
9.646821 -387.688811 -673.926476 0.166491
207.203927 -486.473391 -1020.057149 0.168729
108.202953 -596.468598 -987.117656 0.169828
3.011666 -312.536740 -535.758203 0.165376
-110.951766 -326.863140 -953.960107 0.166160
-21.373017 -345.404957 -596.608218 0.165796
-32.701133 -371.137199 -649.737863 0.166158
-78.479439 -459.428344 -794.890847 0.167303
81.741604 -192.526090 -260.380395 0.163690
146.297972 -224.466498 -359.684349 0.164343
245.351301 -300.055566 -571.002330 0.165730
243.954124 -293.395659 -518.236128 0.165536
98.019152 -199.384351 -284.353207 0.163842
87.888618 -222.407756 -373.411885 0.164264
147.481139 -387.398652 -802.599814 0.167055
134.218303 -286.973831 -515.194153 0.165317
72.904926 -457.191989 -670.025045 0.167380
188.666647 150.361329 -217.260818 0.160258
220.907854 288.320872 -495.113621 0.158325
257.359497 193.097815 -369.681521 0.159652
315.554195 211.607204 -472.556932 0.159385
366.107669 318.504354 -651.310549 0.157758
344.249678 230.779535 -522.606361 0.159060
373.319648 259.762054 -580.949650 0.158578
400.865938 281.224989 -625.247139 0.158207
410.046713 318.514725 -668.100604 0.157646
450.630059 431.280486 -812.661665 0.156030
390.403330 394.035629 -963.646848 0.157035
473.426241 358.796957 -811.522475 0.157034
405.361309 293.073674 -677.887109 0.158096
376.343193 245.054653 -590.961153 0.158839
393.297965 258.928727 -655.685825 0.158667
401.168226 246.120214 -655.840761 0.158857
316.221388 273.474077 -621.955058 0.158604
381.024286 382.953651 -880.942726 0.157096
400.135222 384.058170 -929.403268 0.157102
-141.436952 -124.016191 269.529983 0.161205
-446.725113 -306.250176 805.876070 0.160166
-316.820327 -197.845699 540.187979 0.160578
-38.833814 -89.630069 120.063068 0.161553
-48.540269 -203.012831 317.628556 0.161927
-77.704185 -318.616789 517.752187 0.162224
-67.551963 -356.741425 566.829662 0.162420
-54.953390 -393.599671 613.368966 0.162624
-72.690925 -390.771501 645.286136 0.162442
-30.240370 -382.551764 679.870193 0.162354
-45.162122 -436.222568 808.918029 0.162338
-16.511208 -104.628342 218.757150 0.161450
10.557776 -184.982941 481.090172 0.161392
-25.310013 -248.609018 682.976981 0.161208
4.236039 -350.998421 859.500512 0.161529
-0.771217 -285.413036 773.962195 0.161260
-24.940587 -244.060550 694.122879 0.161134
73.818736 -139.010112 394.327846 0.161382
219.288157 -316.849977 755.220624 0.161963
237.476669 -225.079604 674.731601 0.161449
-186.634888 -229.329540 -48.511825 0.162866
-293.686191 -301.688796 -207.336163 0.163608
-366.507023 -370.863389 -331.488870 0.164282
-609.163298 -500.793135 -694.998417 0.165270
-431.237141 -421.090715 -440.745881 0.164745
-407.664926 -477.835731 -516.870890 0.165528
-459.070811 -397.673224 -530.030910 0.164652
84.621586 -95.215103 51.440190 0.162009
119.387321 -172.540904 166.955929 0.162412
142.554165 -278.447771 299.855170 0.163003
150.658576 -381.903156 423.328407 0.163597
174.679945 -357.366779 427.066105 0.163387
111.956040 -379.361292 579.189755 0.162978
124.426908 -116.925316 112.555502 0.162088
166.696227 -125.344642 172.493942 0.162051
236.763569 -127.278499 257.933166 0.161898
315.644034 -134.555095 370.401271 0.161689
405.969100 -175.265345 498.777349 0.161681
242.172493 -204.680133 403.627009 0.162141
170.426949 -140.534737 179.037732 0.162167
196.668647 -175.428351 245.704650 0.162309
192.391259 -199.398518 295.779278 0.162368
289.796837 -297.085412 475.566050 0.162797
211.081189 -213.097763 324.459948 0.162426
282.877632 -251.488769 421.920611 0.162542
261.726824 -228.712910 404.387553 0.162372
186.013749 -227.290141 415.579155 0.162241
239.730930 -299.180663 626.384069 0.162268
241.451543 -360.343509 898.948607 0.161870
193.043577 -187.395032 260.966796 0.162366
177.865322 -247.375422 373.217859 0.162542
293.445182 -284.826091 575.597199 0.162360
-153.894083 -44.135074 -206.829627 0.161773
-217.271154 -71.550891 -420.823033 0.162356
-297.190154 -81.329084 -611.841732 0.162656
-322.789597 -71.277485 -684.487196 0.162652
-316.583322 -48.624354 -807.636466 0.162727
-304.344921 -44.701489 -865.693428 0.162840
-449.591385 28.205900 -1345.078406 0.162693
-315.967946 -40.012008 -1119.175715 0.163241
-363.225899 -47.139917 -1274.890535 0.163447
-364.766778 -54.876662 -1273.269750 0.163507
-323.366791 -77.231759 -699.644378 0.162733
-287.406527 -100.204084 -599.488086 0.162817
-375.655349 -177.292898 -1016.346592 0.164079
-288.424867 -126.470833 -665.576833 0.163181
-404.681442 -240.089422 -1051.041017 0.164609
-431.625051 -185.539852 -1054.242566 0.164049
-240.088731 -82.937429 -421.716674 0.162399
-460.922366 -184.962349 -918.783470 0.163685
-523.545538 -124.109512 -802.928194 0.162753
-75.099973 36.256054 21.302561 0.160709
-125.621149 86.373230 186.380167 0.159783
-205.447000 155.926577 334.645419 0.158708
-222.420635 176.293344 378.511450 0.158377
-328.447394 246.511967 558.683192 0.156001
-305.698260 164.253521 560.442103 0.157555
-233.724803 182.433623 379.542608 0.158195
-225.822019 192.079981 411.465538 0.157943
-276.860376 287.300913 597.774725 0.155463
-319.034874 228.278991 582.991941 0.156293
-426.373705 249.767150 747.693481 0.154875
-471.207899 298.751689 840.385429 0.153698
-247.989756 194.203944 406.299432 0.157807
-239.086637 199.845710 438.682065 0.157646
-232.406432 239.602940 517.042919 0.156701
-331.284190 416.205609 791.415193 0.152787
-255.819143 279.630371 671.908441 0.155475
-221.200393 427.972170 759.723744 0.153024
-253.323439 208.939997 443.052463 0.157387
-255.637770 252.010078 516.121693 0.156384
-280.606093 252.212346 565.994248 0.156135
-355.514978 368.460416 836.134064 0.153261
-423.247815 538.359571 1161.233919 0.150008
-391.351420 480.426574 1075.846661 0.151030
-311.713441 351.091514 890.546689 0.153538
-195.693229 138.996057 418.964721 0.158630
-233.514904 143.143519 592.135966 0.158058
-222.982662 134.768325 571.788987 0.158194
-99.901961 31.873553 165.240735 0.160322
-110.494322 34.629149 314.609127 0.159876
-90.909094 77.318588 505.139435 0.159050
-100.477241 160.071577 871.917057 0.157354
-79.695828 101.349089 673.004232 0.158408
-125.848892 57.362168 425.641108 0.159362
-180.900189 67.932141 509.134497 0.158946
-197.665769 86.369087 582.752462 0.158568
-350.650923 244.204250 948.338920 0.154803
-231.272030 168.859797 880.069377 0.156950
-233.627717 26.033809 672.796186 0.158698
-306.173007 105.782469 782.667249 0.157678
-87.371740 -1.187900 355.415057 0.160089
-29.397422 -31.489239 526.780908 0.159941
6.327750 -36.027504 657.224287 0.159645
16.522641 -60.061607 667.538316 0.159817
55.331756 -126.971062 820.716300 0.159918
-108.656745 28.689571 32.519143 0.160675
-178.122591 5.953978 123.048563 0.160484
-269.316650 -14.271095 260.961424 0.160090
-441.542863 0.748391 595.605458 0.158732
-332.987115 -29.293619 349.681069 0.159831
-558.650702 -152.435078 703.684815 0.159169
-358.540937 -40.700586 397.894642 0.159730
-282.125482 -62.839385 274.786498 0.160398
-340.514913 -144.466050 418.437201 0.160482
-362.608497 -183.225470 490.021102 0.160504
-380.482267 -276.704226 643.459157 0.160671
-463.765997 -262.529456 652.309912 0.160307
-368.876355 -169.555662 479.843656 0.160418
-402.755895 -182.175820 519.636182 0.160307
-417.050126 -230.620914 595.911919 0.160387
-424.272606 -193.275759 548.972471 0.160244
-452.004919 -223.123106 604.492516 0.160213
-588.083995 -293.980509 814.157146 0.159643
-514.394765 -212.895321 684.601648 0.159732
-337.983092 -140.300747 411.928350 0.160475
-249.607212 11.053005 266.792370 0.159918
-396.343423 -13.281623 495.490097 0.159188
-454.095629 -38.507218 603.647864 0.158953
-660.759363 -85.505948 885.054131 0.157100
-510.905039 23.703663 681.300961 0.157658
122.073721 111.407519 -426.063680 0.161535
145.177619 168.056202 -698.309854 0.161103
155.267637 202.343999 -850.689651 0.160727
251.247413 295.720324 -1080.565944 0.159226
219.704811 239.473104 -1012.907301 0.160193
204.075002 230.892087 -1178.393333 0.160678
213.998622 167.212356 -977.114169 0.161497
213.338743 30.100291 -228.312438 0.161865
349.560792 59.256366 -517.830832 0.162278
469.598127 124.973216 -807.553100 0.161021
389.614481 49.472055 -694.735536 0.162701
389.984950 19.622633 -502.243458 0.162664
78.819533 22.582226 -16.721416 0.161195
204.679575 105.665368 -196.558276 0.161018
311.217549 187.466258 -351.356940 0.159560
366.149576 219.541973 -437.502254 0.159004
444.303918 371.535911 -826.200653 0.156971
546.551099 310.732482 -704.963373 0.157273
340.661444 228.810916 -415.331517 0.158877
355.906632 264.425244 -467.740300 0.158328
369.689705 307.995126 -534.905068 0.157690
462.608998 384.059723 -730.745558 0.156547
434.867461 366.818143 -707.572833 0.156868
383.885506 397.058636 -742.251636 0.156626
512.015638 313.447967 -690.780515 0.157360
304.027154 179.452139 -346.917793 0.159717
327.369276 182.136960 -382.103050 0.159677
346.679801 197.435224 -467.711750 0.159527
369.076572 183.511311 -430.394418 0.159619
475.787717 225.575713 -582.162800 0.158756
510.742766 191.297597 -589.226890 0.159181
322.002345 191.720107 -393.879391 0.159547
325.083334 207.454918 -444.338564 0.159367
337.405825 271.742329 -574.065455 0.158474
335.508319 240.456623 -564.719512 0.159004
362.614901 287.710868 -726.815036 0.158423
335.781216 262.716160 -714.329256 0.158910
444.898773 214.821040 -625.327536 0.159164
110.274449 23.374935 -64.386741 0.161363
199.325751 75.074818 -228.060722 0.161491
287.101025 136.112637 -391.462334 0.160678
295.916284 153.740900 -427.519037 0.160400
284.445226 192.678180 -509.242897 0.159900
349.466331 382.730020 -823.771627 0.157092
321.195671 240.667744 -693.067376 0.159298
363.977984 333.031815 -985.631746 0.158128
362.698101 272.215398 -873.059659 0.158957
290.457957 171.108384 -485.817057 0.160224
434.401719 259.086424 -798.209103 0.158773
418.982576 244.101990 -685.996234 0.158881
341.698585 134.996502 -469.160412 0.160697
413.917447 131.425795 -555.913237 0.160670
466.028793 141.766808 -630.785788 0.160385
319.553733 153.812071 -517.350475 0.160521
286.364081 -54.550724 -304.437234 0.162807
427.494788 -140.769770 -547.811653 0.164176
482.252222 -157.383615 -570.177158 0.164367
-288.728927 183.003809 -79.419368 0.159119
-377.311861 410.946497 -467.595724 0.155439
-512.707075 483.180790 -622.515560 0.154051
-75.742322 132.966542 99.971446 0.159731
-93.021490 155.548304 156.184648 0.159379
-113.294586 177.182592 230.173358 0.158983
-155.769515 202.513569 331.752383 0.158194
-213.342756 218.878508 471.817850 0.157293
-319.753865 203.744767 858.648322 0.155882
-358.002114 263.180994 936.304641 0.154512
-219.888198 224.656797 412.283285 0.157324
-254.993607 240.044594 527.205635 0.156572
-260.495549 247.727202 460.567319 0.156585
-330.015157 288.010423 558.848698 0.155308
-562.827094 257.574048 854.394315 0.153713
-482.227196 379.984726 771.962898 0.152744
-283.568737 287.708954 532.852781 0.155601
-153.628334 223.753686 362.962319 0.157688
-208.079029 254.976572 488.025308 0.156589
-244.969819 264.655176 675.939944 0.155764
-245.882236 287.041026 652.419433 0.155445
-308.014449 443.878129 959.482350 0.152062
-119.131365 180.844730 208.254386 0.159000
-108.041753 240.617753 294.633387 0.157605
-77.001911 295.290792 388.065968 0.156373
-55.456518 363.097850 519.206593 0.154903
64.355379 422.858528 887.163279 0.153051
-90.951414 334.168939 410.695777 0.155629
-131.790129 209.643727 245.791158 0.158326
-281.601420 453.173498 701.330680 0.152638
-145.363325 255.176288 305.348688 0.157250
-147.240170 343.309877 450.852147 0.155289
-184.597427 472.570947 723.225042 0.152543
-210.180496 512.425765 763.438429 0.151833
-140.298415 356.945824 463.898724 0.155041
-73.012019 225.349682 294.140327 0.157917
-53.470786 326.071781 549.527662 0.155440
-34.520412 367.584699 556.519597 0.154746
-55.135751 28.057413 105.397486 0.160595
-142.720468 -11.503433 278.555407 0.160277
-215.935215 -102.220175 531.059618 0.160114
-266.904803 -191.359154 724.063963 0.160080
-390.722988 -240.855275 981.997443 0.159292
-449.716121 -146.239143 800.606518 0.159098
-69.672013 30.121940 154.204382 0.160423
-73.123448 43.798049 283.919184 0.159958
-141.998366 60.388984 544.878545 0.158973
-70.846033 58.174231 447.594578 0.159396
-97.242146 75.440002 663.336756 0.158599
-135.527585 90.003928 881.688732 0.157777
-145.386662 52.809996 984.803115 0.157715
-145.892827 82.094675 1093.344635 0.157168
-121.626151 144.027622 922.292118 0.157286
-58.750336 73.687316 538.293217 0.159040
-37.397230 86.379994 641.007469 0.158685
-2.028855 67.139903 1078.116192 0.157550
-27.622874 101.591498 736.569173 0.158307
-48.740071 112.167302 885.771190 0.157746
12.384904 228.184001 1098.392192 0.155557
53.759737 127.913129 860.743105 0.157877
-116.421888 52.659514 237.367262 0.159931
-540.940926 121.915163 861.026582 0.155572
-241.263612 178.960233 489.117051 0.157898
-294.712031 325.558678 727.084147 0.154421
-290.593903 303.059752 684.500642 0.154904
-290.510173 387.524926 803.335621 0.153302
-388.656619 525.534328 990.655950 0.150672
-31.031410 34.514412 228.220739 0.160261
-28.136533 46.798298 422.196040 0.159632
-30.470724 59.614144 549.275261 0.159166
-27.840142 68.815138 690.119805 0.158689
-19.354733 64.586402 780.160169 0.158466
-3.310025 -6.216180 938.553530 0.158524
38.699765 33.225084 1139.725711 0.157655
-28.418085 87.410172 807.238177 0.158201
-34.245470 109.572069 917.088365 0.157693
-33.688097 139.519566 948.406204 0.157381
18.145652 111.047605 796.092753 0.158136
55.528988 0.469287 877.393428 0.158763
45.914354 47.886736 504.975317 0.159516
211.840654 34.105337 824.537753 0.158903
196.170401 93.980214 839.042783 0.158324
