0.273820 0.273752 0.272875 0.267937 0.260114 0.252003 0.243892 0.235780 0.229233 0.225100 0.224276 0.224212 0.224149 0.223336 0.219969 0.214635 0.210332 0.206028 0.201725 0.198126 0.195854 0.195383 0.195346 0.195310 0.194845 0.192835 0.189651 0.186863 0.184074 0.181285 0.178819 0.177262 0.176933 0.176907 0.176882 0.176555 0.175138 0.172892 0.170861 0.168831 0.166800 0.164936 0.163760 0.163509 0.163489 0.163470 0.163220 0.162122 0.160383 0.158787 0.157191 0.155595 0.154134 0.153212 0.153016 0.153001 0.152986 0.152791 0.151944 0.150603 0.149377 0.148152 0.146926 0.145812 0.145109 0.144959 0.144947 0.144936 0.144786 0.144134 0.143101 0.142153 0.141205 0.140257 0.139385 0.138835 0.138717 0.138708 
0.273839 0.273833 0.273780 0.273192 0.272405 0.270769 0.269132 0.267496 0.265274 0.263610 0.263011 0.262945 0.262878 0.262263 0.260589 0.258351 0.256087 0.253823 0.251559 0.249408 0.247798 0.247231 0.247169 0.247107 0.246543 0.245031 0.243011 0.241095 0.239180 0.237264 0.235445 0.234083 0.233598 0.233545 0.233492 0.233008 0.231719 0.229996 0.228408 0.226819 0.225231 0.223735 0.222616 0.222221 0.222178 0.222135 0.221745 0.220694 0.219290 0.217987 0.216685 0.215382 0.214171 0.213266 0.212947 0.212912 0.212878 0.212564 0.211723 0.210599 0.209544 0.208488 0.207432 0.206449 0.205714 0.205455 0.205426 0.205398 0.205139 0.204448 0.203524 0.202651 0.201778 0.200905 0.200079 0.199461 0.199243 0.199219 0.199195 0.198978 0.198388 0.197601 0.196844 0.196088 0.195331 0.194601 0.194054 0.193860 0.193839 0.193818 0.193628 0.193099 0.192393 0.191691 0.190990 0.190289 0.189604 0.189092 0.188906 0.188886 0.188866 0.188681 0.188176 0.187502 0.186836 0.186169 0.185503 0.184841 0.184346 0.184168 0.184149 0.184130 0.183953 0.183468 0.182820 0.182181 0.181542 0.180902 0.180277 0.179809 0.179641 0.179622 0.179604 0.179438 0.178981 0.178370 0.177777 0.177184 0.176591 0.176013 0.175580 0.175426 0.175410 0.175393 0.175240 0.174821 0.174261 0.173718 0.173175 0.172632 0.172105 0.171710 0.171569 0.171554 0.171538 0.171398 0.171015 0.170503 0.170006 0.169508 0.169011 0.168528 0.168167 0.168038 0.168024 0.168009 0.167881 0.167529 0.167059 0.166600 0.166141 0.165683 0.165234 0.164898 0.164778 0.164764 0.164751 0.164631 0.164303 0.163864 0.163435 0.163005 0.162576 0.162154 0.161839 0.161726 0.161713 0.161701 0.161589 0.161279 0.160866 0.160459 0.160053 0.159647 0.159247 0.158948 0.158840 0.158829 0.158817 0.158710 0.158416 0.158024 0.157638 0.157251 0.156865 0.156486 0.156203 0.156101 0.156090 0.156079 0.155977 0.155698 0.155326 0.154961 0.154596 0.154230 0.153872 0.153604 0.153508 0.153498 0.153487 0.153392 0.153130 0.152779 0.152436 0.152092 0.151749 0.151413 0.151161 0.151071 0.151061 0.151051 0.150961 0.150714 0.150384 0.150062 0.149740 0.149418 0.149102 0.148866 0.148781 0.148772 0.148763 0.148678 0.148446 0.148136 0.147833 0.147530 0.147227 0.146930 0.146708 0.146628 0.146619 0.146611 0.146531 0.146313 0.146022 0.145736 0.145450 0.145164 0.144883 0.144673 0.144597 0.144589 
0.273894 0.274119 0.277224 0.287839 0.304657 0.307997 0.311338 0.314678 0.306591 0.301486 0.300200 0.300107 0.299968 0.298048 0.289669 0.276395 0.265348 0.254300 0.243253 0.233996 0.228154 0.227031 0.226950 0.226870 0.225764 0.221411 0.214514 0.209782 0.205050 0.200318 0.196593 0.194242 0.193750 0.193715 0.193680 0.193192 0.190966 0.187439 0.183400 0.179360 0.175320 0.169965 0.166585 0.165624 0.165555 0.165483 0.164485 0.159912 0.152667 0.147320 0.141973 0.136626 0.133219 0.131068 0.130689 0.130661 0.130635 0.130273 0.128929 0.126799 0.125542 0.124285 0.123027 0.122236 0.121736 0.121642 0.121635 0.121629 0.121537 0.121175 0.120601 0.120179 0.119757 0.119336 0.119012 0.118808 0.118766 0.118763 0.118761 0.118720 0.118550 0.118281 0.118061 0.117841 0.117621 0.117440 0.117326 0.117303 0.117302 0.117300 0.117277 0.117180 0.117027 0.116900 0.116773 0.116646 0.116540 0.116473 0.116459 0.116458 0.116457 0.116444 0.116386 0.116294 0.116216 0.116138 0.116060 0.115994 0.115952 0.115943 0.115942 0.115942 0.115933 0.115896 0.115838 0.115788 0.115738 0.115688 0.115644 0.115617 0.115611 0.115611 0.115610 0.115605 0.115581 0.115542 0.115508 0.115474 0.115440 0.115410 0.115391 0.115387 0.115387 0.115386 0.115382 0.115365 0.115337 0.115311 0.115284 0.115258 0.115232 0.115216 0.115212 0.115212 
0.152998 0.152986 0.152935 0.152807 0.152637 0.152464 0.152290 0.152117 0.151939 0.151805 0.151750 0.151738 0.151725 0.151670 0.151532 0.151349 0.151163 0.150976 0.150789 0.150599 0.150456 0.150398 0.150384 0.150371 0.150313 0.150169 0.149977 0.149788 0.149599 0.149410 0.149223 0.149081 0.149024 0.149011 0.148998 0.148941 0.148800 0.148613 0.148425 0.148238 0.148050 0.147869 0.147732 0.147677 0.147665 0.147653 0.147598 0.147471 0.147303 0.147171 0.147040 0.146908 0.146791 0.146703 0.146667 0.146659 0.146651 0.146616 0.146539 0.146436 0.146340 0.146244 0.146149 0.146064 0.146000 0.145974 0.145968 0.145962 0.145936 0.145877 0.145799 0.145727 0.145656 0.145585 0.145522 0.145474 0.145454 0.145449 0.145445 0.145425 0.145378 0.145317 0.145260 0.145203 0.145145 0.145096 0.145060 0.145044 0.145041 0.145037 0.145022 0.144987 0.144940 0.144897 0.144853 0.144810 0.144773 0.144745 0.144733 0.144731 0.144728 0.144716 0.144689 0.144652 0.144619 0.144585 0.144552 0.144522 0.144499 0.144490 0.144488 
0.163487 0.163477 0.163450 0.163394 0.163321 0.163245 0.163169 0.163094 0.163008 0.162942 0.162912 0.162902 0.162891 0.162861 0.162798 0.162715 0.162631 0.162547 0.162463 0.162376 0.162310 0.162278 0.162266 0.162254 0.162222 0.162153 0.162064 0.161973 0.161881 0.161790 0.161697 0.161626 0.161591 0.161578 0.161565 0.161531 0.161457 0.161361 0.161263 0.161165 0.161068 0.160966 0.160889 0.160852 0.160838 0.160825 0.160787 0.160709 0.160606 0.160503 0.160400 0.160297 0.160192 0.160113 0.160075 0.160060 0.160046 0.160008 0.159928 0.159823 0.159717 0.159612 0.159506 0.159399 0.159317 0.159278 0.159264 0.159249 0.159210 0.159129 0.159021 0.158914 0.158806 0.158699 0.158591 0.158508 0.158469 0.158454 0.158440 0.158400 0.158318 0.158210 0.158103 0.157997 0.157890 0.157785 0.157705 0.157666 0.157652 0.157638 0.157600 0.157521 0.157416 0.157313 0.157211 0.157108 0.157006 0.156928 0.156891 0.156877 0.156864 0.156827 0.156750 0.156649 0.156568 0.156487 0.156406 0.156334 0.156278 0.156252 0.156243 0.156233 0.156207 0.156153 0.156083 0.156018 0.155952 0.155887 0.155824 0.155776 0.155753 0.155745 0.155737 0.155714 0.155667 0.155606 0.155550 0.155495 0.155439 0.155384 0.155342 0.155322 0.155314 0.155307 0.155287 0.155245 0.155191 0.155141 0.155092 0.155042 0.154993 0.154955 0.154937 0.154930 0.154923 0.154905 0.154868 0.154819 0.154772 0.154725 0.154678 0.154630 0.154594 0.154577 0.154571 0.154564 0.154547 0.154512 0.154466 0.154421 0.154376 0.154331 0.154285 0.154250 0.154234 0.154227 0.154221 0.154205 0.154171 0.154128 0.154085 0.154042 0.154000 0.153956 0.153923 0.153908 0.153902 0.153896 0.153880 0.153849 0.153809 0.153768 0.153727 0.153685 0.153644 0.153612 0.153597 0.153592 0.153586 0.153572 0.153542 0.153504 0.153465 0.153426 0.153386 0.153347 0.153317 0.153303 0.153298 0.153293 0.153279 0.153251 0.153213 0.153175 0.153138 0.153100 0.153062 0.153033 0.153020 0.153015 0.153010 0.152997 0.152969 0.152933 0.152895 0.152858 0.152821 0.152785 0.152758 0.152745 0.152741 
0.195336 0.195294 0.195143 0.194789 0.194322 0.193851 0.193379 0.192908 0.192430 0.192068 0.191913 0.191870 0.191828 0.191673 0.191310 0.190831 0.190354 0.189877 0.189401 0.188928 0.188570 0.188417 0.188375 0.188332 0.188179 0.187825 0.187358 0.186899 0.186441 0.185983 0.185533 0.185192 0.185049 0.185010 0.184971 0.184829 0.184499 0.184064 0.183633 0.183202 0.182771 0.182350 0.182031 0.181898 0.181861 0.181824 0.181691 0.181381 0.180971 0.180564 0.180157 0.179750 0.179351 0.179049 0.178921 0.178885 0.178850 0.178723 0.178426 0.178035 0.177652 0.177269 0.176886 0.176511 0.176227 0.176108 0.176075 0.176042 0.175923 0.175647 0.175282 0.174927 0.174571 0.174216 0.173874 0.173615 0.173506 0.173476 0.173446 0.173337 0.173085 0.172753 0.172438 0.172123 0.171808 0.171504 0.171273 0.171179 0.171153 0.171127 0.171035 0.170821 0.170539 0.170270 0.170001 0.169732 0.169501 0.169327 0.169258 0.169238 0.169220 0.169151 0.168993 0.168784 0.168605 0.168426 0.168247 0.168075 0.167944 0.167894 0.167880 0.167867 0.167820 0.167710 0.167565 0.167428 0.167290 0.167153 0.167035 0.166946 0.166908 0.166897 0.166887 0.166849 0.166760 0.166644 0.166546 0.166448 0.166350 0.166250 0.166174 0.166146 0.166138 0.166131 0.166104 0.166039 0.165953 0.165869 0.165784 0.165699 0.165623 0.165566 0.165541 0.165534 0.165527 0.165502 0.165445 0.165370 0.165306 0.165243 0.165179 0.165114 0.165065 0.165047 0.165042 0.165037 0.165020 0.164978 0.164923 0.164870 0.164816 0.164763 0.164716 0.164681 0.164665 0.164661 0.164657 0.164642 0.164607 0.164560 0.164521 0.164481 0.164441 0.164401 0.164371 0.164360 0.164357 0.164354 0.164343 0.164317 0.164283 0.164250 0.164216 0.164183 0.164152 0.164130 0.164120 0.164117 
0.224188 0.224090 0.223589 0.222298 0.220581 0.218877 0.217172 0.215468 0.213798 0.212542 0.212054 0.211959 0.211864 0.211379 0.210187 0.208603 0.207118 0.205634 0.204149 0.202797 0.201780 0.201399 0.201325 0.201252 0.200877 0.199950 0.198718 0.197601 0.196484 0.195366 0.194392 0.193658 0.193392 0.193339 0.193288 0.193027 0.192382 0.191524 0.190747 0.189969 0.189191 0.188407 0.187816 0.187582 0.187536 0.187490 0.187257 0.186666 0.185881 0.185091 0.184302 0.183512 0.182746 0.182170 0.181947 0.181904 0.181860 0.181639 0.181088 0.180355 0.179661 0.178967 0.178273 0.177624 0.177135 0.176948 0.176911 0.176874 0.176688 0.176239 0.175642 0.175102 0.174562 0.174022 0.173550 0.173195 0.173071 0.173047 0.173024 0.172906 0.172617 0.172233 0.171917 0.171600 0.171284 0.171026 0.170833 0.170767 0.170754 0.170741 0.170675 0.170511 0.170294 0.170125 0.169956 0.169787 0.169654 0.169553 0.169513 0.169505 0.169497 0.169456 0.169365 0.169244 0.169143 0.169041 0.168940 0.168851 0.168784 0.168758 0.168752 0.168748 0.168726 0.168672 0.168601 0.168536 0.168471 0.168406 0.168348 0.168305 0.168291 0.168289 0.168286 0.168272 0.168234 0.168185 0.168142 0.168100 0.168057 0.168021 0.167994 0.167983 0.167981 
0.262892 0.262679 0.261394 0.258150 0.253830 0.249913 0.245996 0.242078 0.238414 0.235663 0.234669 0.234504 0.234340 0.233351 0.230808 0.227421 0.224294 0.221167 0.218041 0.215481 0.213558 0.212927 0.212823 0.212721 0.212109 0.210626 0.208651 0.207144 0.205637 0.204130 0.202913 0.202000 0.201663 0.201607 0.201552 0.201220 0.200373 0.199245 0.198181 0.197116 0.196052 0.195051 0.194300 0.194015 0.193968 0.193921 0.193636 0.192891 0.191899 0.190895 0.189891 0.188887 0.187876 0.187117 0.186829 0.186781 0.186734 0.186446 0.185707 0.184722 0.183792 0.182862 0.181932 0.181075 0.180432 0.180194 0.180154 0.180115 0.179879 0.179298 0.178525 0.177838 0.177151 0.176464 0.175898 0.175472 0.175322 0.175297 0.175272 0.175123 0.174784 0.174333 0.173977 0.173621 0.173265 0.172986 0.172776 0.172708 0.172697 0.172686 0.172618 0.172452 0.172232 0.172056 0.171880 0.171705 0.171550 0.171435 0.171397 0.171391 0.171384 0.171346 0.171245 0.171111 0.171004 0.170896 0.170789 0.170694 0.170622 0.170595 0.170590 0.170587 0.170564 0.170503 0.170423 0.170354 0.170285 0.170217 0.170158 0.170114 0.170096 0.170094 
0.247117 0.246914 0.245928 0.243538 0.240364 0.237444 0.234524 0.231605 0.228983 0.227009 0.226256 0.226101 0.225948 0.225210 0.223451 0.221117 0.219057 0.216997 0.214937 0.213144 0.211794 0.211291 0.211187 0.211087 0.210601 0.209458 0.207940 0.206584 0.205228 0.203872 0.202674 0.201772 0.201433 0.201364 0.201295 0.200966 0.200201 0.199184 0.198359 0.197533 0.196707 0.195894 0.195283 0.195042 0.194993 0.194944 0.194705 0.194112 0.193325 0.192552 0.191779 0.191006 0.190225 0.189637 0.189391 0.189340 0.189289 0.189040 0.188427 0.187612 0.186835 0.186057 0.185280 0.184538 0.183980 0.183762 0.183717 0.183672 0.183458 0.182934 0.182239 0.181590 0.180942 0.180293 0.179689 0.179234 0.179068 0.179034 0.179000 0.178838 0.178439 0.177908 0.177449 0.176990 0.176532 0.176143 0.175850 0.175753 0.175734 0.175714 0.175618 0.175381 0.175067 0.174826 0.174586 0.174345 0.174159 0.174019 0.173971 0.173961 0.173951 0.173903 0.173781 0.173620 0.173499 0.173379 0.173258 0.173164 0.173092 0.173063 0.173056 0.173050 0.173021 0.172953 0.172863 0.172790 0.172717 0.172644 0.172588 0.172546 0.172529 0.172525 0.172521 0.172504 0.172466 0.172417 0.172371 0.172325 0.172278 0.172239 0.172210 0.172198 0.172195 0.172193 0.172180 0.172156 0.172124 0.172092 0.172060 0.172029 0.171999 0.171978 0.171969 0.171967 
0.222145 0.222013 0.221447 0.220113 0.218345 0.216733 0.215122 0.213511 0.212049 0.210947 0.210519 0.210420 0.210322 0.209901 0.208895 0.207562 0.206343 0.205124 0.203904 0.202795 0.201958 0.201633 0.201557 0.201483 0.201163 0.200404 0.199398 0.198479 0.197559 0.196640 0.195807 0.195178 0.194933 0.194876 0.194821 0.194580 0.194006 0.193246 0.192535 0.191824 0.191113 0.190451 0.189951 0.189750 0.189704 0.189658 0.189457 0.188965 0.188313 0.187684 0.187054 0.186425 0.185826 0.185375 0.185195 0.185153 0.185111 0.184930 0.184490 0.183907 0.183352 0.182798 0.182243 0.181722 0.181329 0.181175 0.181140 0.181104 0.180951 0.180583 0.180095 0.179652 0.179209 0.178766 0.178351 0.178039 0.177919 0.177891 0.177863 0.177744 0.177462 0.177088 0.176767 0.176445 0.176124 0.175836 0.175618 0.175545 0.175528 0.175512 0.175439 0.175264 0.175032 0.174835 0.174638 0.174441 0.174269 0.174139 0.174087 0.174075 0.174066 0.174025 0.173926 0.173794 0.173679 0.173563 0.173448 0.173348 0.173273 0.173241 0.173234 0.173226 0.173194 0.173136 0.173058 0.172985 0.172913 0.172841 0.172783 0.172739 0.172721 0.172717 0.172712 0.172694 0.172659 0.172613 0.172569 0.172525 0.172482 0.172450 0.172426 0.172416 0.172414 0.172411 0.172401 0.172381 0.172354 0.172331 0.172309 0.172286 0.172273 0.172263 0.172258 0.172257 0.172256 0.172252 0.172242 0.172229 0.172220 0.172212 0.172204 0.172199 0.172195 0.172194 0.172194 
0.199205 0.199149 0.198964 0.198548 0.198001 0.197470 0.196938 0.196407 0.195888 0.195495 0.195323 0.195271 0.195218 0.195047 0.194662 0.194156 0.193665 0.193174 0.192683 0.192209 0.191850 0.191693 0.191646 0.191598 0.191443 0.191097 0.190641 0.190203 0.189764 0.189325 0.188901 0.188580 0.188441 0.188398 0.188356 0.188219 0.187911 0.187505 0.187111 0.186717 0.186323 0.185946 0.185660 0.185535 0.185497 0.185460 0.185336 0.185060 0.184696 0.184347 0.183997 0.183648 0.183313 0.183058 0.182948 0.182914 0.182881 0.182771 0.182528 0.182209 0.181899 0.181589 0.181279 0.180975 0.180744 0.180645 0.180615 0.180586 0.180488 0.180269 0.179981 0.179699 0.179417 0.179134 0.178870 0.178669 0.178581 0.178555 0.178528 0.178441 0.178244 0.177985 0.177738 0.177492 0.177246 0.177010 0.176831 0.176752 0.176728 0.176705 0.176627 0.176457 0.176234 0.176025 0.175815 0.175605 0.175401 0.175246 0.175184 0.175166 0.175147 0.175085 0.174947 0.174766 0.174586 0.174407 0.174228 0.174072 0.173954 0.173903 0.173887 0.173872 0.173821 0.173709 0.173561 0.173432 0.173303 0.173173 0.173053 0.172962 0.172922 0.172909 0.172897 0.172857 0.172777 0.172671 0.172577 0.172482 0.172387 0.172296 0.172227 0.172202 0.172194 0.172187 0.172162 0.172105 0.172030 0.171955 0.171881 0.171806 0.171745 0.171698 0.171677 0.171671 0.171664 0.171644 0.171597 0.171535 0.171483 0.171432 0.171380 0.171331 0.171293 0.171276 0.171271 0.171265 0.171248 0.171214 0.171169 0.171125 0.171082 0.171039 0.170998 0.170966 0.170955 0.170952 0.170949 0.170938 0.170912 0.170879 0.170847 0.170815 0.170782 0.170756 0.170737 0.170728 0.170725 0.170723 0.170714 0.170694 0.170668 0.170648 0.170627 0.170607 0.170587 0.170572 0.170565 0.170563 0.170561 0.170554 0.170542 0.170526 0.170512 0.170497 0.170482 0.170469 0.170459 0.170456 0.170455 0.170454 0.170450 0.170443 0.170433 0.170424 0.170415 0.170406 0.170400 0.170396 0.170393 0.170393 
0.184141 0.184111 0.183960 0.183580 0.183075 0.182567 0.182059 0.181552 0.181052 0.180676 0.180531 0.180501 0.180472 0.180328 0.179969 0.179492 0.179028 0.178564 0.178101 0.177652 0.177314 0.177182 0.177155 0.177129 0.176997 0.176673 0.176241 0.175837 0.175432 0.175028 0.174643 0.174353 0.174240 0.174217 0.174194 0.174082 0.173806 0.173441 0.173091 0.172740 0.172390 0.172059 0.171810 0.171714 0.171695 0.171676 0.171582 0.171348 0.171037 0.170745 0.170452 0.170160 0.169886 0.169680 0.169603 0.169587 0.169572 0.169495 0.169303 0.169049 0.168822 0.168595 0.168369 0.168180 0.168038 0.167985 0.167974 0.167963 0.167910 0.167789 0.167629 0.167494 0.167360 0.167226 0.167114 0.167031 0.166998 0.166992 0.166985 0.166953 0.166887 0.166799 0.166724 0.166649 0.166574 0.166505 0.166453 0.166437 0.166434 0.166431 0.166415 0.166375 0.166322 0.166280 0.166237 0.166195 0.166160 0.166133 0.166124 0.166122 0.166121 0.166111 0.166088 0.166057 0.166033 0.166010 0.165987 0.165971 0.165959 0.165954 0.165953 0.165952 0.165947 0.165938 0.165926 0.165918 0.165910 0.165902 0.165898 0.165894 0.165892 0.165892 
0.168020 0.168004 0.167937 0.167773 0.167555 0.167334 0.167113 0.166892 0.166669 0.166501 0.166431 0.166415 0.166398 0.166328 0.166161 0.165938 0.165717 0.165495 0.165273 0.165053 0.164888 0.164820 0.164803 0.164787 0.164720 0.164557 0.164342 0.164133 0.163924 0.163715 0.163511 0.163357 0.163294 0.163279 0.163264 0.163201 0.163051 0.162852 0.162665 0.162477 0.162289 0.162108 0.161971 0.161916 0.161903 0.161890 0.161835 0.161704 0.161531 0.161366 0.161202 0.161037 0.160877 0.160757 0.160708 0.160697 0.160686 0.160639 0.160526 0.160377 0.160233 0.160089 0.159945 0.159807 0.159703 0.159660 0.159650 0.159639 0.159596 0.159499 0.159370 0.159255 0.159140 0.159024 0.158930 0.158859 0.158831 0.158824 0.158817 0.158789 0.158726 0.158642 0.158571 0.158499 0.158428 0.158370 0.158327 0.158310 0.158306 0.158302 0.158285 0.158245 0.158191 0.158152 0.158113 0.158073 0.158039 0.158013 0.158005 0.158003 0.158001 0.157992 0.157972 0.157944 0.157924 0.157904 0.157884 0.157865 0.157851 0.157847 0.157846 0.157845 0.157842 0.157834 0.157823 0.157815 0.157806 0.157798 0.157793 0.157789 0.157787 0.157787 0.157786 0.157784 0.157784 0.157784 0.157784 0.157785 0.157785 0.157788 0.157791 0.157792 0.157792 0.157792 0.157793 0.157796 0.157800 0.157806 0.157811 0.157817 0.157825 0.157831 0.157834 0.157834 
0.148771 0.148767 0.148747 0.148693 0.148621 0.148545 0.148469 0.148393 0.148314 0.148255 0.148231 0.148227 0.148222 0.148198 0.148137 0.148055 0.147973 0.147890 0.147807 0.147721 0.147657 0.147631 0.147627 0.147622 0.147596 0.147532 0.147447 0.147362 0.147276 0.147191 0.147105 0.147041 0.147016 0.147011 0.147006 0.146981 0.146917 0.146832 0.146747 0.146661 0.146576 0.146491 0.146427 0.146402 0.146397 0.146392 0.146367 0.146303 0.146219 0.146136 0.146054 0.145971 0.145891 0.145830 0.145806 0.145802 0.145797 0.145775 0.145730 0.145671 0.145633 0.145595 0.145558 0.145531 0.145511 0.145505 0.145504 0.145503 0.145497 0.145483 0.145464 0.145455 0.145446 0.145437 0.145434 0.145431 0.145430 0.145430 0.145430 0.145429 0.145430 0.145432 0.145436 0.145440 0.145444 0.145451 0.145456 0.145459 0.145460 0.145461 0.145464 0.145471 0.145481 0.145494 0.145506 0.145519 0.145533 0.145545 0.145549 0.145550 0.145551 0.145555 0.145568 0.145584 0.145602 0.145620 0.145638 0.145657 0.145671 0.145676 0.145677 
