0.008129
13
0.007271
14
0.003635
33
0.008129
19
0.003582
6
A10
0.002548
9
A8
0.001834
15
A4
0.004778
7
A3
0.003207
11
A2
0.003854
10
A1
0.002298
17
D1
0.001869
18
D3
0.002094
16
D4
0.001613
21
D5
0.004366
7
D6
0.001465
22
D8
0.002055
14
D22
