0.131574 0.131570 0.131512 0.131260 0.130862 0.130508 0.130153 0.129798 0.129466 0.129257 0.129211 0.129207 0.129204 0.129157 0.128945 0.128610 0.128283 0.127955 0.127628 0.127312 0.127113 0.127069 0.127066 0.127063 0.127019 0.126822 0.126509 0.126195 0.125881 0.125566 0.125249 0.125048 0.125004 0.125001 0.124997 0.124953 0.124753 0.124437 0.124128 0.123820 0.123512 0.123216 0.123029 0.122989 0.122986 0.122983 0.122943 0.122764 0.122480 0.122214 0.121947 0.121680 0.121431 0.121274 0.121241 0.121238 0.121236 0.121202 0.121055 0.120821 0.120604 0.120386 0.120169 0.119967 0.119840 0.119813 0.119811 0.119809 0.119782 0.119661 0.119471 0.119293 0.119116 0.118938 0.118772 0.118667 0.118644 0.118643 
0.131577 0.131583 0.131646 0.131813 0.132043 0.132233 0.132422 0.132612 0.132782 0.132905 0.132947 0.132951 0.132955 0.132996 0.133115 0.133278 0.133444 0.133610 0.133776 0.133953 0.134081 0.134126 0.134131 0.134135 0.134180 0.134318 0.134506 0.134707 0.134908 0.135109 0.135322 0.135476 0.135530 0.135536 0.135541 0.135596 0.135757 0.135979 0.136209 0.136440 0.136670 0.136910 0.137084 0.137144 0.137150 0.137157 0.137217 0.137397 0.137643 0.137896 0.138148 0.138401 0.138660 0.138849 0.138914 0.138921 0.138928 0.138993 0.139187 0.139453 0.139726 0.139999 0.140271 0.140551 0.140755 0.140825 0.140832 0.140840 0.140910 0.141119 0.141406 0.141699 0.141992 0.142286 0.142586 0.142805 0.142880 0.142888 0.142896 0.142972 0.143197 0.143505 0.143820 0.144135 0.144449 0.144772 0.145007 0.145087 0.145096 0.145104 0.145185 0.145427 0.145757 0.146096 0.146435 0.146774 0.147121 0.147375 0.147462 0.147471 0.147480 0.147567 0.147827 0.148183 0.148549 0.148915 0.149281 0.149655 0.149928 0.150022 0.150031 0.150041 0.150136 0.150417 0.150802 0.151198 0.151594 0.151990 0.152398 0.152695 0.152798 0.152808 0.152819 0.152922 0.153228 0.153648 0.154082 0.154516 0.154949 0.155398 0.155725 0.155839 0.155850 0.155862 0.155976 0.156315 0.156779 0.157261 0.157743 0.158225 0.158724 0.159087 0.159214 0.159227 0.159240 0.159366 0.159743 0.160261 0.160796 0.161331 0.161866 0.162421 0.162825 0.162965 0.162979 0.162994 0.163135 0.163552 0.164125 0.164715 0.165305 0.165896 0.166504 0.166947 0.167099 0.167115 0.167131 0.167284 0.167737 0.168358 0.168998 0.169638 0.170277 0.170931 0.171408 0.171572 0.171589 0.171606 0.171770 0.172258 0.172926 0.173617 0.174309 0.175000 0.175702 0.176213 0.176390 0.176408 0.176426 0.176603 0.177125 0.177841 0.178572 0.179302 0.180032 0.180774 0.181315 0.181498 0.181517 0.181536 0.181720 0.182265 0.183014 0.183773 0.184533 0.185293 0.186060 0.186619 0.186809 0.186829 0.186849 0.187039 0.187598 0.188364 0.189124 0.189885 0.190645 0.191400 0.191951 0.192138 0.192157 0.192177 0.192364 0.192902 0.193641 0.194365 0.195089 0.195813 0.196507 0.197013 0.197181 0.197199 0.197216 0.197385 0.197869 0.198534 0.199146 0.199758 0.200369 0.200937 0.201350 0.201481 0.201494 0.201507 0.201635 0.201995 0.202489 0.202911 0.203333 0.203755 0.204088 0.204331 0.204406 0.204414 0.204421 0.204494 0.204685 0.204947 0.205112 0.205276 0.205441 0.205502 0.205546 0.205548 0.205548 0.205548 0.205547 0.205534 0.205516 0.205404 0.205292 0.205181 0.204983 0.204840 0.204783 0.204777 0.204771 0.204712 0.204503 0.204217 0.203854 0.203492 0.203130 0.202698 0.202383 0.202269 0.202258 0.202246 0.202130 0.201770 0.201276 0.200731 0.200186 0.199641 0.199035 0.198593 0.198443 0.198427 0.198412 0.198260 0.197802 0.197174 0.196504 0.195835 0.195165 0.194470 0.193963 0.193788 0.193770 
0.131574 0.131572 0.131537 0.131277 0.130864 0.130570 0.130276 0.129983 0.129797 0.129680 0.129655 0.129653 0.129652 0.129627 0.129521 0.129353 0.129200 0.129047 0.128894 0.128746 0.128653 0.128632 0.128630 0.128629 0.128608 0.128508 0.128349 0.128138 0.127928 0.127717 0.127396 0.127194 0.127141 0.127137 0.127133 0.127078 0.126801 0.126363 0.125483 0.124603 0.123723 0.122409 0.121580 0.121401 0.121389 0.121377 0.121205 0.120528 0.119456 0.118722 0.117987 0.117253 0.116810 0.116531 0.116481 0.116478 0.116474 0.116426 0.116243 0.115952 0.115762 0.115572 0.115382 0.115248 0.115164 0.115148 0.115146 0.115145 0.115129 0.115063 0.114959 0.114875 0.114792 0.114708 0.114640 0.114596 0.114588 0.114587 0.114586 0.114578 0.114541 0.114482 0.114433 0.114384 0.114334 0.114293 0.114268 0.114262 0.114262 0.114262 0.114256 0.114234 0.114198 0.114169 0.114139 0.114109 0.114085 0.114069 0.114066 0.114066 0.114066 0.114062 0.114049 0.114028 0.114011 0.113995 0.113978 0.113964 0.113956 0.113954 0.113954 0.113954 0.113952 0.113945 0.113935 0.113927 0.113919 0.113911 0.113905 0.113901 0.113901 0.113901 0.113901 0.113900 0.113898 0.113894 0.113892 0.113890 0.113889 0.113890 0.113891 0.113892 0.113892 
0.119811 0.119811 0.119813 0.119818 0.119824 0.119828 0.119832 0.119835 0.119836 0.119837 0.119836 0.119836 0.119836 0.119836 0.119834 0.119831 0.119825 0.119818 0.119812 0.119802 0.119795 0.119791 0.119791 0.119791 0.119789 0.119786 0.119782 0.119775 0.119768 0.119761 0.119752 0.119744 0.119742 0.119741 0.119740 0.119737 0.119729 0.119719 0.119706 0.119693 0.119680 0.119665 0.119654 0.119649 0.119648 0.119647 0.119643 0.119630 0.119613 0.119596 0.119578 0.119561 0.119542 0.119528 0.119523 0.119522 0.119521 0.119515 0.119501 0.119481 0.119462 0.119443 0.119423 0.119404 0.119389 0.119383 0.119382 
0.125000 0.124999 0.124994 0.124983 0.124969 0.124954 0.124940 0.124925 0.124911 0.124900 0.124894 0.124892 0.124891 0.124885 0.124873 0.124858 0.124842 0.124827 0.124811 0.124795 0.124782 0.124776 0.124774 0.124772 0.124767 0.124754 0.124737 0.124720 0.124703 0.124685 0.124667 0.124654 0.124647 0.124645 0.124643 0.124637 0.124623 0.124604 0.124585 0.124566 0.124547 0.124528 0.124513 0.124506 0.124503 0.124501 0.124494 0.124479 0.124459 0.124438 0.124417 0.124397 0.124375 0.124359 0.124352 0.124349 0.124346 0.124339 0.124322 0.124300 0.124278 0.124255 0.124233 0.124210 0.124192 0.124184 0.124181 0.124179 0.124171 0.124153 0.124129 0.124105 0.124081 0.124057 0.124032 0.124014 0.124005 0.124002 0.123999 0.123991 0.123971 0.123946 0.123921 0.123895 0.123870 0.123844 0.123825 0.123815 0.123812 0.123809 0.123800 0.123780 0.123753 0.123729 0.123705 0.123681 0.123664 0.123650 0.123644 0.123642 0.123640 0.123634 0.123621 0.123604 0.123588 0.123571 0.123554 0.123538 0.123526 0.123520 0.123518 0.123516 0.123511 0.123498 0.123482 0.123467 0.123452 0.123436 0.123421 0.123410 0.123405 0.123403 0.123401 0.123396 0.123384 0.123369 0.123355 0.123341 0.123327 0.123312 0.123302 0.123297 0.123295 0.123293 0.123288 0.123278 0.123264 0.123251 0.123238 0.123225 0.123212 0.123202 0.123197 0.123195 0.123194 0.123189 0.123180 0.123168 0.123156 0.123144 0.123132 0.123120 0.123110 0.123106 0.123105 0.123103 0.123099 0.123091 0.123080 0.123069 0.123058 0.123048 0.123037 0.123029 0.123025 0.123024 0.123023 0.123020 0.123012 0.123002 0.122992 0.122983 0.122973 0.122964 0.122957 0.122954 0.122953 0.122951 0.122948 0.122942 0.122933 0.122924 0.122915 0.122906 0.122898 0.122892 0.122889 0.122888 0.122887 0.122885 0.122878 0.122870 0.122863 0.122855 0.122847 0.122840 0.122834 0.122832 0.122831 0.122830 0.122827 0.122822 0.122814 0.122808 0.122801 0.122794 0.122787 0.122782 0.122780 0.122779 
0.127066 0.127065 0.127062 0.127055 0.127045 0.127033 0.127021 0.127009 0.126995 0.126985 0.126981 0.126980 0.126979 0.126975 0.126964 0.126950 0.126937 0.126923 0.126910 0.126895 0.126884 0.126879 0.126878 0.126877 0.126872 0.126859 0.126841 0.126818 0.126796 0.126774 0.126747 0.126726 0.126718 0.126716 0.126715 0.126706 0.126683 0.126652 0.126616 0.126581 0.126545 0.126505 0.126475 0.126462 0.126460 0.126457 0.126445 0.126410 0.126364 0.126314 0.126264 0.126213 0.126159 0.126118 0.126104 0.126102 0.126099 0.126088 0.126061 0.126025 0.125990 0.125955 0.125920 0.125886 0.125860 0.125850 0.125848 0.125846 0.125836 0.125811 0.125778 0.125746 0.125714 0.125682 0.125651 0.125627 0.125618 0.125617 0.125615 0.125606 0.125583 0.125553 0.125524 0.125496 0.125468 0.125441 0.125421 0.125413 0.125411 0.125409 0.125401 0.125382 0.125356 0.125332 0.125307 0.125282 0.125259 0.125241 0.125234 0.125233 0.125232 0.125225 0.125208 0.125185 0.125163 0.125141 0.125118 0.125096 0.125080 0.125073 0.125072 0.125071 0.125064 0.125048 0.125027 0.125006 0.124985 0.124964 0.124943 0.124928 0.124922 0.124921 
0.129207 0.129208 0.129211 0.129217 0.129224 0.129230 0.129235 0.129241 0.129244 0.129247 0.129248 0.129248 0.129249 0.129249 0.129250 0.129250 0.129249 0.129247 0.129246 0.129242 0.129240 0.129238 0.129238 0.129237 0.129236 0.129232 0.129227 0.129222 0.129217 0.129212 0.129206 0.129201 0.129199 0.129199 0.129198 0.129198 0.129196 0.129193 0.129190 0.129188 0.129185 0.129182 0.129179 0.129178 0.129177 0.129177 0.129175 0.129172 0.129169 0.129165 0.129161 0.129156 0.129152 0.129148 0.129146 0.129146 0.129145 0.129143 0.129139 0.129134 0.129129 0.129123 0.129118 0.129112 0.129107 0.129105 0.129104 0.129103 0.129101 0.129096 0.129089 0.129082 0.129075 0.129068 0.129060 0.129054 0.129051 0.129050 0.129049 0.129046 0.129039 0.129031 0.129022 0.129013 0.129004 0.128994 0.128986 0.128983 0.128981 0.128980 0.128976 0.128968 0.128958 0.128946 0.128935 0.128923 0.128910 0.128901 0.128896 0.128894 0.128893 0.128888 0.128880 0.128871 0.128861 0.128851 0.128842 0.128830 0.128821 0.128816 0.128815 0.128813 0.128809 0.128799 0.128787 0.128772 0.128758 0.128743 0.128727 0.128714 0.128708 0.128706 0.128704 0.128698 0.128685 0.128668 0.128649 0.128630 0.128611 0.128590 0.128574 0.128567 0.128564 0.128561 0.128553 0.128537 0.128516 0.128492 0.128467 0.128443 0.128417 0.128398 0.128388 0.128385 0.128382 0.128372 0.128353 0.128327 0.128297 0.128268 0.128239 0.128209 0.128187 0.128178 0.128175 0.128172 0.128164 0.128147 0.128124 0.128101 0.128078 0.128055 0.128032 0.128014 0.128006 0.128003 0.128000 0.127992 0.127975 0.127952 0.127930 0.127907 0.127885 0.127863 0.127846 0.127838 0.127835 0.127832 0.127824 0.127808 0.127786 0.127764 0.127743 0.127722 0.127700 0.127684 0.127676 0.127673 0.127671 0.127663 0.127647 0.127626 0.127606 0.127585 0.127565 0.127544 0.127529 0.127521 0.127518 0.127516 0.127508 0.127493 0.127473 0.127454 0.127434 0.127415 0.127395 0.127380 0.127373 0.127370 0.127367 0.127360 0.127346 0.127327 0.127308 0.127290 0.127271 0.127252 0.127238 0.127231 0.127228 0.127226 0.127219 0.127206 0.127188 0.127170 0.127152 0.127134 0.127116 0.127102 0.127096 0.127093 0.127091 0.127085 0.127072 0.127055 0.127038 0.127021 0.127005 0.126988 0.126975 0.126969 0.126967 0.126965 0.126959 0.126946 0.126930 0.126913 0.126897 0.126881 0.126864 0.126852 0.126846 0.126844 0.126842 0.126836 0.126824 0.126808 0.126792 0.126776 0.126760 0.126744 0.126732 0.126727 0.126725 0.126723 0.126717 0.126705 0.126690 0.126674 0.126658 0.126642 0.126627 0.126615 0.126609 0.126607 0.126605 0.126599 0.126587 0.126572 0.126556 0.126540 0.126525 0.126509 0.126497 0.126492 0.126489 
0.132950 0.132949 0.132942 0.132927 0.132906 0.132883 0.132861 0.132838 0.132813 0.132794 0.132786 0.132783 0.132781 0.132772 0.132751 0.132724 0.132692 0.132661 0.132630 0.132596 0.132570 0.132559 0.132556 0.132553 0.132542 0.132516 0.132481 0.132445 0.132409 0.132373 0.132336 0.132309 0.132297 0.132294 0.132291 0.132279 0.132253 0.132218 0.132189 0.132159 0.132130 0.132101 0.132079 0.132069 0.132067 0.132064 0.132055 0.132032 0.132002 0.131972 0.131943 0.131913 0.131882 0.131859 0.131849 0.131846 0.131843 0.131833 0.131810 0.131779 0.131747 0.131715 0.131684 0.131652 0.131628 0.131618 0.131615 0.131612 0.131602 0.131577 0.131544 0.131510 0.131476 0.131442 0.131406 0.131379 0.131367 0.131364 0.131361 0.131349 0.131321 0.131285 0.131250 0.131216 0.131181 0.131150 0.131126 0.131116 0.131113 0.131110 0.131099 0.131071 0.131035 0.130997 0.130959 0.130921 0.130880 0.130849 0.130836 0.130832 0.130828 0.130814 0.130781 0.130738 0.130692 0.130645 0.130599 0.130550 0.130513 0.130497 0.130493 0.130489 0.130473 0.130433 0.130382 0.130328 0.130274 0.130220 0.130164 0.130121 0.130102 0.130097 0.130092 0.130073 0.130029 0.129971 0.129921 0.129871 0.129821 0.129776 0.129742 0.129728 0.129724 0.129720 0.129706 0.129674 0.129632 0.129592 0.129552 0.129512 0.129474 0.129445 0.129433 0.129430 0.129427 0.129415 0.129388 0.129353 0.129319 0.129285 0.129251 0.129220 0.129196 0.129186 0.129183 0.129180 0.129170 0.129147 0.129117 0.129089 0.129060 0.129032 0.129005 0.128984 0.128976 0.128974 0.128972 0.128963 0.128944 0.128919 0.128895 0.128870 0.128846 0.128823 0.128806 0.128799 0.128796 0.128794 0.128787 0.128770 0.128748 0.128728 0.128707 0.128686 0.128666 0.128650 0.128644 0.128642 0.128641 0.128635 0.128620 0.128601 0.128582 0.128564 0.128545 0.128527 0.128514 0.128508 0.128506 0.128505 0.128499 0.128485 0.128467 0.128450 0.128433 0.128416 0.128399 0.128386 0.128380 0.128379 0.128378 0.128372 0.128360 0.128343 0.128326 0.128309 0.128292 0.128275 0.128263 0.128257 0.128256 
0.134130 0.134128 0.134120 0.134101 0.134075 0.134048 0.134020 0.133993 0.133963 0.133941 0.133932 0.133929 0.133927 0.133917 0.133894 0.133863 0.133830 0.133797 0.133765 0.133730 0.133705 0.133693 0.133690 0.133687 0.133676 0.133649 0.133613 0.133576 0.133539 0.133501 0.133465 0.133438 0.133430 0.133428 0.133425 0.133417 0.133395 0.133367 0.133337 0.133308 0.133278 0.133246 0.133223 0.133212 0.133210 0.133207 0.133197 0.133172 0.133138 0.133102 0.133065 0.133029 0.132991 0.132963 0.132952 0.132949 0.132946 0.132935 0.132907 0.132871 0.132832 0.132793 0.132754 0.132711 0.132678 0.132664 0.132661 0.132657 0.132643 0.132606 0.132557 0.132505 0.132454 0.132403 0.132346 0.132303 0.132285 0.132280 0.132275 0.132257 0.132213 0.132155 0.132093 0.132030 0.131968 0.131914 0.131874 0.131857 0.131853 0.131848 0.131832 0.131792 0.131739 0.131687 0.131636 0.131584 0.131534 0.131497 0.131481 0.131477 0.131473 0.131457 0.131421 0.131373 0.131326 0.131279 0.131232 0.131188 0.131155 0.131141 0.131137 0.131134 0.131120 0.131087 0.131043 0.131002 0.130961 0.130921 0.130880 0.130849 0.130837 0.130834 0.130831 0.130819 0.130790 0.130752 0.130715 0.130679 0.130642 0.130607 0.130580 0.130569 0.130566 0.130563 0.130552 0.130527 0.130493 0.130460 0.130427 0.130395 0.130363 0.130340 0.130330 0.130327 0.130325 0.130315 0.130292 0.130262 0.130232 0.130203 0.130174 0.130145 0.130123 0.130114 0.130112 0.130110 0.130101 0.130080 0.130053 0.130025 0.129998 0.129970 0.129944 0.129924 0.129915 0.129913 0.129911 0.129902 0.129882 0.129856 0.129829 0.129803 0.129777 0.129751 0.129731 0.129723 0.129721 
0.135535 0.135534 0.135526 0.135507 0.135481 0.135451 0.135421 0.135392 0.135359 0.135335 0.135325 0.135322 0.135320 0.135309 0.135282 0.135246 0.135208 0.135170 0.135131 0.135092 0.135062 0.135050 0.135047 0.135045 0.135032 0.135000 0.134959 0.134919 0.134880 0.134841 0.134802 0.134773 0.134761 0.134758 0.134755 0.134743 0.134711 0.134668 0.134621 0.134573 0.134525 0.134473 0.134434 0.134417 0.134413 0.134409 0.134391 0.134346 0.134287 0.134220 0.134154 0.134088 0.134017 0.133964 0.133941 0.133936 0.133931 0.133907 0.133849 0.133771 0.133688 0.133605 0.133522 0.133455 0.133405 0.133386 0.133382 0.133378 0.133359 0.133313 0.133251 0.133192 0.133134 0.133075 0.133018 0.132976 0.132959 0.132956 0.132952 0.132936 0.132895 0.132842 0.132791 0.132740 0.132689 0.132640 0.132603 0.132588 0.132585 0.132582 0.132568 0.132533 0.132486 0.132442 0.132397 0.132352 0.132309 0.132276 0.132263 0.132261 0.132258 0.132246 0.132214 0.132173 0.132134 0.132095 0.132055 0.132017 0.131989 0.131978 0.131975 0.131973 0.131962 0.131934 0.131898 0.131863 0.131828 0.131793 0.131758 0.131732 0.131722 0.131720 0.131718 0.131707 0.131682 0.131648 0.131615 0.131582 0.131549 0.131517 0.131492 0.131483 0.131481 
0.137150 0.137148 0.137133 0.137091 0.137034 0.136968 0.136901 0.136835 0.136762 0.136707 0.136686 0.136682 0.136679 0.136658 0.136598 0.136519 0.136435 0.136351 0.136267 0.136175 0.136106 0.136079 0.136075 0.136071 0.136044 0.135965 0.135859 0.135741 0.135622 0.135503 0.135369 0.135269 0.135230 0.135225 0.135219 0.135181 0.135071 0.134924 0.134785 0.134647 0.134508 0.134413 0.134342 0.134317 0.134314 0.134310 0.134286 0.134223 0.134140 0.134066 0.133993 0.133920 0.133854 0.133805 0.133787 0.133785 0.133783 0.133765 0.133721 0.133662 0.133608 0.133554 0.133500 0.133451 0.133415 0.133401 0.133399 0.133397 0.133384 0.133350 0.133305 0.133262 0.133219 0.133176 0.133136 0.133106 0.133094 0.133092 
0.142887 0.142883 0.142866 0.142827 0.142775 0.142720 0.142665 0.142610 0.142551 0.142506 0.142487 0.142482 0.142477 0.142457 0.142410 0.142348 0.142283 0.142217 0.142152 0.142085 0.142035 0.142013 0.142007 0.142001 0.141979 0.141927 0.141858 0.141788 0.141717 0.141647 0.141574 0.141519 0.141495 0.141489 0.141482 0.141459 0.141402 0.141326 0.141250 0.141173 0.141097 0.141018 0.140958 0.140933 0.140926 0.140919 0.140894 0.140834 0.140755 0.140673 0.140592 0.140511 0.140429 0.140366 0.140340 0.140333 0.140326 0.140299 0.140234 0.140149 0.140063 0.139977 0.139890 0.139801 0.139734 0.139705 0.139697 0.139689 0.139661 0.139592 0.139502 0.139410 0.139317 0.139224 0.139130 0.139060 0.139029 0.139021 0.139013 0.138983 0.138910 0.138815 0.138719 0.138622 0.138526 0.138436 0.138368 0.138346 0.138340 0.138335 0.138313 0.138263 0.138196 0.138136 0.138075 0.138014 0.137956 0.137912 0.137895 0.137890 0.137885 0.137868 0.137828 0.137775 0.137725 0.137674 0.137623 0.137576 0.137540 0.137525 0.137521 0.137517 0.137501 0.137467 0.137421 0.137379 0.137337 0.137294 0.137254 0.137223 0.137211 0.137207 0.137204 0.137192 0.137163 0.137125 0.137089 0.137053 0.137017 0.136982 0.136956 0.136944 0.136941 0.136938 0.136927 0.136903 0.136870 0.136839 0.136807 0.136776 0.136747 0.136724 0.136715 0.136713 0.136710 0.136701 0.136679 0.136650 0.136622 0.136595 0.136567 0.136540 0.136519 0.136511 0.136508 0.136506 0.136497 0.136478 0.136453 0.136427 0.136401 0.136376 0.136351 0.136333 0.136325 0.136323 0.136321 0.136313 0.136294 0.136269 0.136246 0.136222 0.136198 0.136174 0.136155 0.136147 0.136145 
0.150031 0.150027 0.150011 0.149968 0.149911 0.149845 0.149778 0.149711 0.149634 0.149575 0.149550 0.149544 0.149539 0.149513 0.149447 0.149359 0.149263 0.149167 0.149070 0.148966 0.148887 0.148853 0.148846 0.148838 0.148804 0.148719 0.148606 0.148486 0.148366 0.148246 0.148119 0.148024 0.147984 0.147975 0.147966 0.147927 0.147828 0.147697 0.147563 0.147428 0.147294 0.147156 0.147053 0.147010 0.147001 0.146992 0.146949 0.146843 0.146702 0.146559 0.146416 0.146272 0.146127 0.146018 0.145974 0.145964 0.145954 0.145909 0.145798 0.145650 0.145497 0.145344 0.145192 0.145035 0.144917 0.144869 0.144859 0.144848 0.144800 0.144681 0.144523 0.144385 0.144247 0.144108 0.143993 0.143906 0.143872 0.143865 0.143857 0.143824 0.143742 0.143634 0.143533 0.143432 0.143331 0.143238 0.143167 0.143139 0.143133 0.143127 0.143099 0.143031 0.142942 0.142857 0.142773 0.142688 0.142608 0.142549 0.142524 0.142519 0.142514 0.142490 0.142432 0.142355 0.142281 0.142207 0.142133 0.142062 0.142009 0.141987 0.141983 0.141978 0.141956 0.141905 0.141836 0.141769 0.141703 0.141636 0.141572 0.141523 0.141504 0.141499 0.141495 0.141476 0.141428 0.141366 0.141304 0.141242 0.141180 0.141120 0.141074 0.141056 0.141052 0.141048 0.141029 0.140984 0.140925 0.140865 0.140805 0.140746 0.140686 0.140641 0.140623 0.140619 
0.171585 0.171570 0.171520 0.171399 0.171239 0.171068 0.170897 0.170726 0.170544 0.170406 0.170344 0.170327 0.170309 0.170247 0.170103 0.169912 0.169710 0.169508 0.169307 0.169096 0.168937 0.168866 0.168845 0.168825 0.168753 0.168584 0.168360 0.168139 0.167918 0.167697 0.167470 0.167298 0.167223 0.167201 0.167179 0.167104 0.166931 0.166702 0.166470 0.166237 0.166004 0.165770 0.165592 0.165516 0.165494 0.165472 0.165396 0.165220 0.164988 0.164756 0.164524 0.164292 0.164060 0.163885 0.163808 0.163786 0.163764 0.163688 0.163512 0.163281 0.163052 0.162824 0.162595 0.162369 0.162197 0.162123 0.162102 0.162080 0.162006 0.161835 0.161609 0.161384 0.161159 0.160934 0.160712 0.160543 0.160470 0.160448 0.160427 0.160354 0.160187 0.159966 0.159747 0.159528 0.159309 0.159092 0.158927 0.158856 0.158836 0.158815 0.158744 0.158581 0.158366 0.158191 0.158016 0.157841 0.157681 0.157559 0.157511 0.157497 0.157483 0.157435 0.157325 0.157181 0.157043 0.156906 0.156768 0.156642 0.156547 0.156506 0.156494 0.156482 0.156442 0.156349 0.156227 0.156116 0.156004 0.155893 0.155784 0.155701 0.155665 0.155655 0.155646 0.155612 0.155537 0.155438 0.155340 0.155242 0.155143 0.155053 0.154985 0.154955 0.154947 0.154938 0.154909 0.154841 0.154751 0.154667 0.154583 0.154500 0.154417 0.154355 0.154328 0.154320 0.154312 0.154285 0.154227 0.154151 0.154074 0.153998 0.153921 0.153849 0.153794 0.153770 0.153763 0.153757 0.153733 0.153679 0.153607 0.153538 0.153469 0.153401 0.153333 0.153282 0.153260 0.153254 0.153247 0.153225 0.153176 0.153111 0.153046 0.152982 0.152918 0.152855 0.152807 0.152787 0.152781 
