-1.509134 0.985457 10.939173
-1.521111 0.992629 10.933173
-1.533089 0.999800 10.927173
-2.022384 1.292221 10.682625
-2.480129 1.573655 10.388458
-2.999864 1.763771 10.129491
-3.552282 1.889005 9.895530
-1.540260 1.004093 10.923581
-2.020818 1.291279 10.683438
-2.023950 1.293163 10.681811
-2.478661 1.572738 10.389460
-2.481598 1.574573 10.387457
-2.998127 1.763208 10.130308
-3.001600 1.764335 10.128674
-3.550478 1.888602 9.896293
-1.566253 1.019655 10.910561
-1.995006 1.275751 10.696851
-2.049762 1.308691 10.668399
-2.454455 1.557615 10.405972
-2.505804 1.589696 10.370945
-2.969499 1.753924 10.143783
-3.030256 1.773555 10.115220
-3.520729 1.881959 9.908870
-1.622697 1.053365 10.882462
-1.685950 1.091082 10.851098
-1.749240 1.128785 10.819789
-1.812515 1.166494 10.788459
-1.875713 1.204232 10.757009
-1.938798 1.242009 10.725380
-2.105222 1.341984 10.637951
-2.166664 1.378730 10.602183
-2.227240 1.414881 10.564374
-2.286766 1.450647 10.524565
-2.345102 1.486998 10.483546
-2.402767 1.524264 10.442402
-2.561726 1.618685 10.337159
-2.627564 1.646698 10.301592
-2.696423 1.670235 10.268344
-2.767037 1.690781 10.236741
-2.837673 1.711412 10.205241
-2.907425 1.733689 10.172923
-3.093529 1.791004 10.086868
-3.165322 1.808198 10.055986
-3.237861 1.823502 10.025815
-3.310761 1.837840 9.996028
-3.383582 1.852434 9.966172
-3.456117 1.867805 9.936012
-4.982275 2.212716 9.326693
-6.189310 3.047319 8.929092
-6.921699 4.394353 8.576429
-7.764710 5.661328 8.179688
-8.793832 6.764678 7.740756
-10.032526 7.602902 7.262853
-11.430352 8.120106 6.768841
-12.907733 8.343599 6.282322
-3.554087 1.889407 9.894767
-4.980410 2.212328 9.327300
-4.984141 2.213105 9.326086
-6.188302 3.045640 8.929498
-6.190319 3.048998 8.928687
-6.920717 4.392679 8.576912
-6.922680 4.396028 8.575947
-7.763518 5.659813 8.180220
-7.765901 5.662844 8.179155
-8.792400 6.763409 7.741339
-8.795264 6.765946 7.740172
-10.030847 7.602011 7.263475
-10.034205 7.603792 7.262230
-11.428507 8.119655 6.769468
-11.432197 8.120557 6.768214
-12.905829 8.343513 6.282926
-3.583811 1.896094 9.882156
-4.949649 2.205940 9.337312
-5.014899 2.219509 9.316074
-6.171682 3.017956 8.936180
-6.205960 3.077306 8.922283
-6.904528 4.365074 8.584863
-6.938869 4.423632 8.567995
-7.744128 5.634610 8.188943
-7.785543 5.687832 8.170375
-8.768792 6.742494 7.750958
-8.818940 6.786777 7.730541
-10.003180 7.587293 7.273733
-10.061889 7.618478 7.251971
-11.398088 8.112225 6.779802
-11.462559 8.128203 6.757873
-12.874428 8.342094 6.292890
-3.720005 1.927511 9.823596
-3.935192 1.977838 9.729643
-4.151228 2.028017 9.637592
-4.368326 2.077941 9.547920
-4.585664 2.127894 9.458889
-4.807965 2.177736 9.383075
-5.154873 2.256495 9.271629
-5.372557 2.335111 9.207705
-5.590695 2.413244 9.145028
-5.776264 2.550821 9.083687
-5.940419 2.715766 9.024445
-6.091157 2.893670 8.968069
-6.275534 3.208761 8.893270
-6.384564 3.417141 8.844783
-6.494435 3.623763 8.790940
-6.604288 3.829748 8.734660
-6.716623 4.034354 8.678247
-6.830943 4.237684 8.621219
-7.013945 4.550046 8.531279
-7.135290 4.748750 8.472497
-7.260225 4.944954 8.412835
-7.388159 5.138987 8.352444
-7.520489 5.329711 8.291000
-7.656235 5.517758 8.228748
-7.876468 5.802100 8.129875
-8.023180 5.980825 8.065105
-8.175711 6.154109 7.999050
-8.332349 6.323364 7.932106
-8.494118 6.487244 7.864089
-8.661619 6.644789 7.794906
-8.930569 6.878949 7.685752
-9.110396 7.021127 7.614248
-9.294273 7.157594 7.542054
-9.484646 7.284309 7.468817
-9.677022 7.407774 7.395284
-9.876266 7.519191 7.320849
-10.190529 7.683093 7.204683
-10.399437 7.774415 7.129333
-10.609210 7.863705 7.053925
-10.823714 7.940657 6.978368
-11.039947 8.012741 6.902790
-11.258329 8.077924 6.827300
-11.602092 8.163372 6.710349
-11.825589 8.208918 6.635431
-12.050469 8.247951 6.560803
-12.275939 8.283581 6.486377
-12.503192 8.307818 6.412678
-12.730404 8.332340 6.338960
160 NaN NaN
-1.503145 0.981872 10.942173
-1.582719 1.029514 10.902313
-1.662463 1.077091 10.862715
-1.742282 1.124639 10.823234
-1.822082 1.172195 10.783722
-1.901766 1.219795 10.744033
-1.981238 1.267468 10.704004
-2.060260 1.315006 10.662944
-2.138396 1.361889 10.619511
-2.215124 1.407601 10.572477
-2.290193 1.452705 10.522274
-2.363670 1.498594 10.470450
-2.436039 1.546109 10.418533
-2.510137 1.592403 10.367990
-2.589487 1.632829 10.320568
-2.675348 1.664104 10.277777
-2.764398 1.690010 10.237918
-2.853475 1.716027 10.198194
-2.941120 1.744720 10.157141
-3.028760 1.773143 10.115890
-3.118084 1.797776 10.075865
-3.209258 1.817892 10.037496
-3.301210 1.835925 9.999944
-3.393047 1.854331 9.962291
-3.484469 1.873862 9.924199
-3.575544 1.894199 9.885696
-3.666349 1.915020 9.846817
-3.756949 1.936112 9.807607
-3.847405 1.957300 9.768116
-3.937812 1.978451 9.728495
-4.028370 1.999561 9.689199
-4.119292 2.020649 9.650739
-4.210586 2.041711 9.613157
-4.301943 2.062710 9.575694
-4.393051 2.083613 9.537575
-4.484087 2.104508 9.499279
-4.575701 2.125595 9.462508
-4.668426 2.146993 9.428834
-4.762123 2.168094 9.397754
-4.856389 2.187921 9.367568
-4.950829 2.206168 9.336929
-5.044988 2.225775 9.306280
-5.138201 2.250696 9.276683
-5.229851 2.282575 9.248899
-5.320933 2.317083 9.222368
-5.412977 2.349226 9.196224
-5.505682 2.379314 9.169940
-5.596101 2.415402 9.143444
-5.679455 2.465615 9.117158
-5.753929 2.528736 9.091688
-5.823487 2.597513 9.066771
-5.892534 2.666802 9.041827
-5.960945 2.736755 9.016994
-6.026371 2.809708 8.992810
-6.086776 2.887219 8.969789
-6.142148 2.968761 8.948054
-6.193024 3.053505 8.927599
-6.240324 3.140537 8.908158
-6.285773 3.228602 8.888940
-6.331228 3.316522 8.869079
-6.377435 3.403800 8.848149
-6.423876 3.490708 8.826224
-6.470016 3.577550 8.803416
-6.515890 3.664366 8.779978
-6.561907 3.751028 8.756257
-6.608423 3.837428 8.732552
-6.655436 3.923569 8.708882
-6.702808 4.009498 8.685160
-6.750461 4.095237 8.661316
-6.798490 4.180730 8.637340
-6.847022 4.265901 8.613232
-6.896109 4.350718 8.588999
-6.945669 4.435227 8.564655
-6.995614 4.519482 8.540214
-7.045978 4.603455 8.515664
-7.096919 4.687036 8.490970
-7.148578 4.770122 8.466099
-7.200907 4.852739 8.441065
-7.253750 4.934990 8.415906
-7.307003 5.016946 8.390647
-7.360825 5.098487 8.365249
-7.415453 5.179427 8.339658
-7.471008 5.259664 8.313845
-7.527289 5.339338 8.287860
-7.584051 5.418632 8.261762
-7.641273 5.497559 8.235555
-7.699270 5.575857 8.209167
-7.758358 5.653248 8.182527
-7.818491 5.729747 8.155647
-7.879310 5.805646 8.128612
-7.940514 5.881205 8.101489
-8.002310 5.956231 8.074234
-8.065157 6.030292 8.046744
-8.129353 6.103074 8.018958
-8.194564 6.174864 7.990953
-8.260295 6.246135 7.962836
-8.326351 6.317076 7.934649
-8.393224 6.387178 7.906291
-8.461474 6.455820 7.877646
-8.531149 6.522891 7.848710
-8.601655 6.589016 7.819609
-8.672424 6.654838 7.790455
-8.743603 6.720179 7.761220
-8.815877 6.784207 7.731774
-8.889784 6.846196 7.702022
-8.964942 6.906553 7.672041
-9.040612 6.966222 7.641969
-9.116344 7.025806 7.611885
-9.192698 7.084534 7.581693
-9.270440 7.141283 7.551269
-9.349803 7.195598 7.520584
-9.430059 7.248509 7.489762
-9.510437 7.301224 7.458921
-9.590894 7.353810 7.428068
-9.672218 7.404967 7.397091
-9.755108 7.453406 7.365906
-9.839292 7.499461 7.334563
-9.923937 7.544629 7.303166
-10.008419 7.590114 7.271787
-10.093170 7.635072 7.240378
-10.178994 7.677858 7.208863
-10.266285 7.717472 7.177225
-10.354392 7.755197 7.145531
-10.442546 7.792808 7.113832
-10.530511 7.830872 7.082143
-10.618958 7.867772 7.050430
-10.708565 7.901704 7.018674
-10.799250 7.932642 6.986903
-10.890308 7.962473 6.955134
-10.981147 7.992958 6.923362
-11.071963 8.023512 6.891590
-11.163405 8.052144 6.859833
-11.255877 8.077320 6.828134
-11.348961 8.100226 6.796492
-11.442086 8.122972 6.764854
-11.534956 8.146700 6.733187
-11.627988 8.169803 6.701540
-11.721680 8.190195 6.669988
-11.816074 8.207328 6.638581
-11.910722 8.223144 6.607240
-12.005230 8.239700 6.575860
-12.099609 8.256914 6.544447
-12.194252 8.272750 6.513107
-12.289437 8.285371 6.481960
-12.384978 8.295507 6.450982
-12.480571 8.305245 6.420032
-12.576016 8.316102 6.389002
-12.671468 8.326909 6.357975
-12.767169 8.335728 6.327097
-12.863176 8.341585 6.296461
-12.959308 8.345931 6.265957
-13.055417 8.350558 6.235427
-13.151468 8.355927 6.204832
-13.247572 8.360637 6.174295
-13.343816 8.363229 6.143957
-13.440165 8.363596 6.113840
-13.536553 8.362730 6.083852
-13.632946 8.361651 6.053887
-13.729317 8.361377 6.023836
-13.825616 8.362932 5.993599
