0.132210 0.132216 0.132288 0.132609 0.133118 0.133631 0.134144 0.134657 0.135169 0.135493 0.135565 0.135571 0.135578 0.135650 0.135971 0.136481 0.136987 0.137493 0.137999 0.138506 0.138827 0.138899 0.138905 0.138911 0.138983 0.139308 0.139824 0.140352 0.140881 0.141410 0.141947 0.142287 0.142363 0.142370 0.142377 0.142453 0.142795 0.143335 0.143875 0.144414 0.144953 0.145491 0.145831 0.145907 0.145913 0.145920 0.145996 0.146338 0.146879 0.147430 0.147981 0.148532 0.149093 0.149447 0.149527 0.149534 0.149541 0.149621 0.149980 0.150550 0.151124 0.151697 0.152270 0.152845 0.153208 0.153288 0.153295 0.153302 0.153382 0.153740 0.154307 0.154867 0.155427 0.155987 0.156533 0.156877 0.156953 0.156960 
0.132208 0.132205 0.132185 0.132131 0.132059 0.131986 0.131914 0.131841 0.131766 0.131710 0.131689 0.131686 0.131683 0.131662 0.131604 0.131526 0.131445 0.131364 0.131283 0.131201 0.131139 0.131116 0.131113 0.131110 0.131086 0.131023 0.130939 0.130854 0.130770 0.130686 0.130602 0.130539 0.130515 0.130513 0.130510 0.130487 0.130424 0.130342 0.130260 0.130177 0.130095 0.130014 0.129953 0.129931 0.129928 
0.132208 0.132207 0.132195 0.132088 0.131918 0.131491 0.131064 0.130638 0.130166 0.129868 0.129798 0.129792 0.129786 0.129717 0.129401 0.128900 0.128448 0.127996 0.127543 0.127134 0.126876 0.126820 0.126815 0.126811 0.126756 0.126520 0.126146 0.125830 0.125513 0.125197 0.124928 0.124759 0.124723 0.124720 0.124717 0.124680 0.124518 0.124261 0.123995 0.123729 0.123464 0.123184 0.123008 0.122968 0.122965 0.122962 0.122922 0.122736 0.122441 0.122105 0.121770 0.121435 0.121038 0.120787 0.120728 0.120723 0.120718 0.120658 0.120366 0.119904 0.119431 0.118957 0.118483 0.118064 0.117800 0.117744 0.117739 0.117735 0.117679 0.117432 0.117042 0.116671 0.116300 0.115929 0.115591 0.115378 0.115334 0.115331 0.115327 0.115284 0.115120 0.114859 0.114697 0.114536 0.114374 0.114263 0.114193 0.114179 0.114178 0.114177 0.114164 0.114108 0.114020 0.113946 0.113871 0.113797 0.113730 0.113687 0.113678 0.113678 0.113677 0.113668 0.113628 0.113564 0.113504 0.113444 0.113384 0.113327 0.113290 0.113282 0.113282 0.113281 0.113273 0.113239 0.113184 0.113132 0.113080 0.113028 0.112982 0.112953 0.112947 0.112946 0.112946 0.112940 0.112916 0.112877 0.112849 0.112820 0.112791 0.112768 0.112754 0.112751 0.112751 0.112750 0.112748 0.112735 0.112716 0.112700 0.112683 0.112667 0.112653 0.112644 0.112642 0.112642 0.112641 0.112640 0.112632 0.112619 0.112609 0.112598 0.112588 0.112580 0.112574 0.112573 0.112573 0.112573 0.112572 0.112568 0.112561 0.112556 0.112551 0.112546 0.112544 0.112542 0.112542 0.112542 0.112542 0.112542 0.112541 0.112540 0.112542 0.112544 0.112546 0.112549 0.112551 0.112552 0.112552 
0.149532 0.149526 0.149505 0.149457 0.149393 0.149329 0.149265 0.149201 0.149139 0.149092 0.149072 0.149066 0.149060 0.149040 0.148994 0.148933 0.148874 0.148816 0.148758 0.148699 0.148655 0.148636 0.148631 0.148626 0.148607 0.148564 0.148507 0.148450 0.148393 0.148337 0.148282 0.148241 0.148223 0.148218 0.148213 0.148194 0.148152 0.148096 0.148042 0.147989 0.147936 0.147883 0.147843 0.147828 0.147823 0.147819 0.147805 0.147773 0.147731 0.147691 0.147651 0.147611 0.147577 0.147552 0.147541 0.147538 0.147535 0.147525 0.147502 0.147471 0.147448 0.147424 0.147400 0.147378 0.147362 0.147355 0.147353 0.147352 0.147346 0.147335 0.147320 0.147306 0.147292 0.147278 0.147269 0.147262 0.147259 0.147259 0.147258 0.147255 0.147249 0.147241 0.147237 0.147234 0.147230 0.147227 0.147225 0.147224 0.147224 0.147224 0.147224 0.147225 0.147227 0.147228 0.147229 0.147231 0.147235 0.147239 0.147240 0.147241 0.147241 0.147243 0.147246 0.147251 0.147259 0.147266 0.147274 0.147282 0.147288 0.147290 0.147291 0.147292 0.147296 0.147304 0.147314 0.147325 0.147336 0.147347 0.147360 0.147370 0.147374 0.147375 0.147377 0.147381 0.147390 0.147403 0.147418 0.147433 0.147448 0.147462 0.147474 0.147479 0.147480 
0.142369 0.142364 0.142347 0.142308 0.142256 0.142203 0.142150 0.142097 0.142044 0.142003 0.141986 0.141981 0.141976 0.141959 0.141919 0.141866 0.141812 0.141759 0.141706 0.141653 0.141613 0.141596 0.141591 0.141587 0.141570 0.141530 0.141479 0.141428 0.141377 0.141326 0.141277 0.141239 0.141223 0.141219 0.141214 0.141198 0.141161 0.141112 0.141063 0.141014 0.140966 0.140917 0.140880 0.140864 0.140860 0.140855 0.140839 0.140803 0.140755 0.140706 0.140658 0.140609 0.140561 0.140524 0.140508 0.140504 0.140499 0.140483 0.140446 0.140397 0.140348 0.140300 0.140252 0.140203 0.140166 0.140150 0.140146 0.140141 0.140125 0.140090 0.140044 0.139998 0.139951 0.139905 0.139867 0.139838 0.139829 0.139826 0.139823 0.139813 0.139792 0.139763 0.139742 0.139720 0.139699 0.139682 0.139668 0.139663 0.139661 0.139659 0.139654 0.139646 0.139635 0.139626 0.139618 0.139609 0.139606 0.139604 0.139603 0.139603 0.139603 0.139603 0.139602 0.139601 0.139603 0.139606 0.139609 0.139614 0.139617 0.139619 0.139619 0.139620 0.139621 0.139628 0.139636 0.139646 0.139656 0.139666 0.139679 0.139688 0.139693 0.139694 0.139696 0.139700 0.139711 0.139725 0.139741 0.139757 0.139773 0.139791 0.139805 0.139811 0.139813 0.139814 0.139820 0.139835 0.139856 0.139877 0.139899 0.139920 0.139943 0.139961 0.139969 0.139971 0.139973 0.139982 0.140001 0.140026 0.140053 0.140079 0.140106 0.140135 0.140156 0.140166 0.140169 
0.138905 0.138903 0.138893 0.138866 0.138829 0.138788 0.138747 0.138706 0.138662 0.138629 0.138615 0.138613 0.138610 0.138597 0.138563 0.138517 0.138474 0.138430 0.138386 0.138343 0.138311 0.138300 0.138297 0.138295 0.138284 0.138255 0.138217 0.138183 0.138148 0.138114 0.138080 0.138054 0.138043 0.138041 0.138039 0.138028 0.137998 0.137958 0.137913 0.137868 0.137823 0.137772 0.137733 0.137718 0.137715 0.137712 0.137696 0.137654 0.137598 0.137538 0.137478 0.137418 0.137355 0.137308 0.137289 0.137286 0.137283 0.137265 0.137217 0.137155 0.137125 0.137095 0.137065 0.137049 0.137037 0.137034 0.137033 0.137033 0.137030 0.137023 0.137014 0.137011 0.137009 0.137006 0.137008 0.137010 0.137010 0.137010 0.137010 0.137010 0.137015 0.137020 0.137028 0.137036 0.137044 0.137054 0.137061 0.137065 0.137065 0.137066 0.137070 0.137080 0.137094 0.137111 0.137128 0.137145 0.137165 0.137181 0.137187 0.137188 
0.135571 0.135571 0.135570 0.135569 0.135566 0.135564 0.135561 0.135558 0.135554 0.135551 0.135550 0.135550 0.135549 0.135548 0.135544 0.135539 0.135534 0.135528 0.135522 0.135515 0.135510 0.135508 0.135507 0.135506 0.135503 0.135497 0.135489 0.135479 0.135470 0.135460 0.135449 0.135440 0.135436 0.135434 0.135433 0.135429 0.135419 0.135406 0.135391 0.135377 0.135363 0.135346 0.135333 0.135326 0.135324 0.135322 0.135315 0.135302 0.135284 0.135266 0.135248 0.135230 0.135212 0.135199 0.135193 0.135191 0.135189 0.135183 0.135172 0.135159 0.135152 0.135145 0.135138 0.135131 0.135126 0.135124 0.135123 0.135122 0.135120 0.135115 0.135108 0.135101 0.135094 0.135087 0.135080 0.135075 0.135073 0.135072 0.135071 0.135069 0.135063 0.135056 0.135049 0.135042 0.135034 0.135027 0.135021 0.135018 0.135017 0.135016 0.135014 0.135008 0.135000 0.134994 0.134987 0.134981 0.134975 0.134971 0.134969 0.134968 0.134967 0.134965 0.134959 0.134952 0.134944 0.134935 0.134927 0.134917 0.134910 0.134906 0.134905 0.134904 0.134900 0.134891 0.134880 0.134868 0.134856 0.134844 0.134831 0.134821 0.134816 0.134814 0.134813 0.134808 0.134797 0.134783 0.134768 0.134753 0.134738 0.134722 0.134710 0.134704 0.134703 0.134701 0.134695 0.134683 0.134667 0.134651 0.134634 0.134617 0.134601 0.134588 0.134583 0.134581 0.134579 0.134573 0.134561 0.134545 0.134536 0.134527 0.134517 0.134516 0.134515 0.134515 0.134514 0.134514 0.134514 0.134514 0.134513 0.134513 0.134514 0.134515 0.134518 0.134520 0.134521 0.134522 0.134522 0.134523 0.134526 0.134529 0.134534 0.134538 0.134543 0.134549 0.134553 0.134554 0.134555 0.134556 0.134557 0.134561 0.134566 0.134573 0.134579 0.134586 0.134592 0.134597 0.134599 0.134599 0.134600 0.134602 0.134607 0.134614 0.134621 0.134628 0.134636 0.134643 0.134648 0.134651 0.134651 0.134652 0.134655 0.134661 0.134669 0.134677 0.134686 0.134694 0.134702 0.134708 0.134711 0.134712 0.134713 0.134716 0.134723 0.134732 0.134741 0.134751 0.134760 0.134770 0.134778 0.134781 0.134782 0.134784 0.134787 0.134795 0.134806 0.134816 0.134827 0.134838 0.134849 0.134858 0.134862 0.134863 
0.131687 0.131688 0.131694 0.131706 0.131721 0.131736 0.131750 0.131765 0.131778 0.131788 0.131792 0.131793 0.131795 0.131799 0.131808 0.131820 0.131831 0.131842 0.131853 0.131863 0.131870 0.131874 0.131874 0.131875 0.131878 0.131885 0.131893 0.131900 0.131907 0.131914 0.131919 0.131923 0.131925 0.131925 0.131926 0.131927 0.131930 0.131934 0.131937 0.131939 0.131941 0.131942 0.131942 0.131942 0.131942 0.131942 0.131941 0.131941 0.131939 0.131937 0.131935 0.131933 0.131930 0.131927 0.131926 0.131926 0.131925 0.131924 0.131922 0.131919 0.131917 0.131916 0.131914 0.131917 0.131919 0.131920 0.131921 0.131921 0.131923 0.131926 0.131929 0.131933 0.131937 0.131940 0.131944 0.131946 0.131947 0.131948 0.131948 0.131949 0.131952 0.131955 0.131958 0.131961 0.131964 0.131968 0.131970 0.131972 0.131973 0.131973 0.131975 0.131979 0.131985 0.131989 0.131994 0.131998 0.132002 0.132005 0.132006 0.132006 0.132006 0.132007 0.132009 0.132011 0.132011 0.132011 0.132011 0.132011 0.132010 0.132010 0.132010 0.132010 0.132009 0.132008 0.132006 0.132002 0.131999 0.131996 0.131992 0.131989 0.131987 0.131987 0.131986 0.131985 0.131981 0.131975 0.131969 0.131963 0.131957 0.131950 0.131944 0.131942 0.131941 0.131940 0.131938 0.131932 0.131924 0.131918 0.131912 0.131906 0.131908 0.131909 0.131910 0.131910 0.131910 0.131911 0.131913 0.131917 0.131922 0.131927 0.131931 0.131936 0.131939 0.131941 0.131942 0.131942 0.131944 0.131949 0.131955 0.131960 0.131966 0.131972 0.131978 0.131983 0.131985 0.131986 0.131986 0.131988 0.131993 0.131999 0.132005 0.132010 0.132016 0.132022 0.132026 0.132028 0.132028 0.132029 0.132030 0.132034 0.132039 0.132045 0.132050 0.132055 0.132061 0.132065 0.132067 0.132067 0.132068 0.132070 0.132074 0.132079 0.132085 0.132090 0.132096 0.132101 0.132105 0.132107 0.132107 0.132108 0.132110 0.132114 0.132120 0.132126 0.132131 0.132137 0.132144 0.132148 0.132151 0.132151 
0.129928 0.129928 0.129928 0.129928 0.129928 0.129927 0.129926 0.129925 0.129923 0.129922 0.129921 0.129921 0.129921 0.129920 0.129918 0.129915 0.129911 0.129908 0.129904 0.129900 0.129897 0.129896 0.129895 0.129895 0.129893 0.129890 0.129885 0.129880 0.129875 0.129869 0.129864 0.129859 0.129857 0.129856 0.129856 0.129854 0.129849 0.129843 0.129836 0.129830 0.129823 0.129816 0.129811 0.129808 0.129808 0.129807 0.129804 0.129799 0.129791 0.129783 0.129775 0.129768 0.129760 0.129753 0.129751 0.129750 0.129749 0.129746 0.129739 0.129731 0.129722 0.129713 0.129704 0.129695 0.129688 0.129685 0.129684 0.129683 0.129679 0.129672 0.129662 0.129653 0.129643 0.129633 0.129622 0.129615 0.129611 0.129610 0.129609 0.129606 0.129598 0.129588 0.129577 0.129567 0.129556 0.129546 0.129538 0.129535 0.129534 0.129533 0.129529 0.129521 0.129510 0.129505 0.129500 0.129495 0.129496 0.129498 0.129498 0.129498 0.129499 0.129499 0.129501 0.129503 0.129506 0.129510 0.129514 0.129517 0.129519 0.129521 0.129521 0.129521 0.129523 0.129526 0.129532 0.129536 0.129541 0.129545 0.129550 0.129554 0.129556 0.129556 0.129557 0.129559 0.129563 0.129568 0.129574 0.129579 0.129585 0.129590 0.129595 0.129597 0.129597 0.129598 0.129600 0.129604 0.129609 0.129615 0.129621 0.129627 0.129633 0.129638 0.129640 0.129640 0.129641 0.129643 0.129648 0.129654 0.129661 0.129668 0.129674 0.129681 0.129686 0.129689 0.129690 
