0.209266 0.209287 0.209584 0.210650 0.212337 0.212505 0.212672 0.212840 0.212028 0.211515 0.211382 0.211373 0.211364 0.211228 0.210550 0.209475 0.208091 0.206707 0.205323 0.203468 0.202296 0.202006 0.201986 0.201966 0.201675 0.200218 0.197909 0.195134 0.192359 0.189584 0.186564 0.184658 0.184241 0.184212 0.184183 0.183763 0.181883 0.178904 0.176128 0.173352 0.170575 0.168085 0.166514 0.166187 0.166165 0.166142 0.165818 0.164414 0.162190 0.160239 0.158288 0.156336 0.154625 0.153545 0.153319 0.153304 0.153288 0.153065 0.152087 0.150539 0.149152 0.147765 0.146378 0.145128 0.144339 0.144173 0.144161 
0.209274 0.209325 0.209832 0.211239 0.213278 0.214442 0.215606 0.216770 0.217448 0.217915 0.218030 0.218041 0.218052 0.218157 0.218434 0.218836 0.219120 0.219404 0.219689 0.219861 0.219980 0.220007 0.220010 0.220012 0.220038 0.220081 0.220143 0.220075 0.220007 0.219940 0.219726 0.219579 0.219522 0.219517 0.219511 0.219451 0.219209 0.218858 0.218348 0.217839 0.217329 0.216657 0.216194 0.216042 0.216026 0.216011 0.215857 0.215309 0.214514 0.213592 0.212669 0.211747 0.210729 0.210027 0.209811 0.209789 0.209767 0.209547 0.208798 0.207713 0.206603 0.205493 0.204383 0.203260 0.202484 0.202254 0.202231 0.202208 0.201978 0.201222 0.200127 0.199044 0.197961 0.196878 0.195825 0.195098 0.194883 0.194862 0.194840 0.194627 0.193920 0.192897 0.191897 0.190897 0.189897 0.188914 0.188236 0.188034 0.188014 0.187994 0.187793 0.187127 0.186162 0.185204 0.184247 0.183290 0.182348 0.181698 0.181505 0.181486 0.181466 0.181273 0.180629 0.179696 0.178779 0.177862 0.176945 0.176051 0.175433 0.175252 0.175233 0.175215 0.175034 0.174431 0.173557 0.172713 0.171870 0.171027 0.170210 0.169646 0.169481 0.169464 0.169448 0.169283 0.168739 0.167951 0.167194 0.166436 0.165678 0.164949 0.164446 0.164299 0.164284 0.164269 0.164123 0.163639 0.162938 0.162262 0.161587 0.160912 0.160262 0.159814 0.159682 0.159669 0.159656 0.159524 0.159090 0.158461 0.157856 0.157251 0.156645 0.156058 0.155653 0.155534 0.155522 0.155510 0.155391 0.154999 0.154431 0.153881 0.153332 0.152783 0.152250 0.151882 0.151774 0.151763 0.151752 0.151644 0.151287 0.150769 0.150266 0.149763 0.149260 0.148772 0.148435 0.148336 0.148326 
0.209274 0.209325 0.210101 0.209774 0.209256 0.203765 0.198274 0.192783 0.188326 0.185513 0.184922 0.184884 0.184847 0.184278 0.181959 0.178285 0.175338 0.172390 0.169442 0.167176 0.165746 0.165464 0.165445 0.165427 0.165151 0.163989 0.162148 0.160468 0.158789 0.157110 0.155271 0.154110 0.153838 0.153821 0.153803 0.153531 0.152270 0.150272 0.146916 0.143560 0.140204 0.136382 0.133971 0.133508 0.133478 0.133449 0.133000 0.131202 0.128352 0.126515 0.124678 0.122842 0.121755 0.121070 0.120947 0.120939 0.120931 0.120812 0.120360 0.119644 0.119183 0.118721 0.118260 0.117945 0.117747 0.117709 0.117706 0.117704 0.117666 0.117513 0.117269 0.117079 0.116890 0.116700 0.116548 0.116452 0.116432 0.116431 0.116430 0.116411 0.116330 0.116201 0.116094 0.115987 0.115880 0.115791 0.115734 0.115723 0.115722 0.115721 0.115710 0.115661 0.115583 0.115518 0.115452 0.115387 0.115332 0.115297 0.115290 0.115289 0.115289 0.115282 0.115252 0.115204 0.115164 0.115124 0.115084 0.115051 0.115030 0.115025 0.115025 0.115025 0.115020 0.115002 0.114973 0.114948 0.114922 0.114897 0.114876 0.114862 0.114859 0.114859 
0.166160 0.166142 0.166070 0.165895 0.165665 0.165432 0.165199 0.164965 0.164726 0.164545 0.164470 0.164452 0.164433 0.164359 0.164175 0.163931 0.163687 0.163442 0.163198 0.162945 0.162754 0.162675 0.162655 0.162635 0.162556 0.162364 0.162110 0.161848 0.161585 0.161323 0.161054 0.160850 0.160764 0.160742 0.160721 0.160635 0.160428 0.160154 0.159871 0.159589 0.159306 0.159023 0.158809 0.158717 0.158695 0.158672 0.158580 0.158360 0.158069 0.157774 0.157480 0.157185 0.156888 0.156664 0.156571 0.156548 0.156525 0.156433 0.156203 0.155899 0.155595 0.155292 0.154989 0.154682 0.154450 0.154354 0.154330 0.154307 0.154213 0.153987 0.153689 0.153448 0.153207 0.152966 0.152794 0.152664 0.152611 0.152597 0.152584 0.152530 0.152401 0.152231 0.152068 0.151904 0.151741 0.151581 0.151460 0.151411 0.151399 0.151387 0.151338 0.151220 0.151064 0.150910 0.150757 0.150603 0.150451 0.150336 0.150289 0.150277 0.150266 0.150220 0.150110 0.149965 0.149821 0.149677 0.149532 0.149393 0.149287 0.149243 0.149232 0.149221 0.149178 0.149077 0.148943 0.148812 0.148681 0.148550 0.148426 0.148332 0.148293 0.148283 0.148274 0.148235 0.148142 0.148020 0.147903 0.147785 0.147668 0.147554 0.147469 0.147434 0.147425 
0.201978 0.201945 0.201735 0.201172 0.200423 0.199630 0.198836 0.198042 0.197206 0.196578 0.196341 0.196303 0.196264 0.196018 0.195366 0.194496 0.193620 0.192744 0.191869 0.190988 0.190328 0.190084 0.190045 0.190005 0.189756 0.189089 0.188201 0.187316 0.186430 0.185544 0.184629 0.183942 0.183686 0.183645 0.183604 0.183346 0.182643 0.181706 0.180758 0.179810 0.178863 0.177891 0.177162 0.176892 0.176850 0.176807 0.176539 0.175815 0.174850 0.173915 0.172980 0.172046 0.171500 0.171091 0.170939 0.170915 0.170891 0.170740 0.170358 0.169849 0.169365 0.168880 0.168396 0.167932 0.167583 0.167451 0.167430 0.167409 0.167277 0.166944 0.166499 0.166072 0.165644 0.165217 0.164810 0.164505 0.164391 0.164373 0.164355 0.164242 0.163959 0.163582 0.163226 0.162869 0.162513 0.162181 0.161932 0.161839 0.161825 0.161810 0.161718 0.161482 0.161168 0.160869 0.160569 0.160269 0.159984 0.159769 0.159689 0.159677 
0.211361 0.211313 0.211113 0.210626 0.209981 0.209332 0.208682 0.208033 0.207365 0.206862 0.206654 0.206604 0.206553 0.206346 0.205831 0.205149 0.204473 0.203797 0.203122 0.202440 0.201926 0.201718 0.201667 0.201617 0.201410 0.200916 0.200261 0.199603 0.198945 0.198287 0.197642 0.197156 0.196952 0.196903 0.196854 0.196653 0.196172 0.195536 0.194913 0.194291 0.193668 0.193082 0.192640 0.192467 0.192425 0.192382 0.192201 0.191911 0.191527 0.191138 0.190748 0.190359 0.189934 0.189614 0.189479 0.189447 0.189414 0.189279 0.188985 0.188595 0.188201 0.187807 0.187413 0.186947 0.186595 0.186447 0.186412 0.186376 0.186227 0.185859 0.185372 0.184842 0.184313 0.183784 0.183230 0.182812 0.182632 0.182588 0.182545 0.182365 0.181932 0.181359 0.180767 0.180176 0.179584 0.178997 0.178553 0.178367 0.178323 0.178279 0.178098 0.177749 0.177287 0.176854 0.176420 0.175987 0.175577 0.175267 0.175142 0.175112 0.175082 0.174958 0.174669 0.174285 0.173919 0.173553 0.173187 0.172846 0.172588 0.172482 0.172456 0.172431 0.172325 0.172073 0.171740 0.171426 0.171112 0.170798 0.170496 0.170268 0.170177 0.170155 0.170133 0.170043 0.169823 0.169532 0.169255 0.168977 0.168700 0.168427 0.168221 0.168140 0.168120 0.168101 0.168022 0.167830 0.167577 0.167332 0.167087 0.166842 0.166606 0.166428 0.166355 0.166337 0.166320 0.166246 0.166076 0.165851 0.165631 0.165412 0.165192 0.164984 0.164826 0.164761 0.164746 0.164730 0.164665 0.164509 0.164302 0.164103 0.163903 0.163704 0.163511 0.163365 0.163306 0.163292 
0.218030 0.217983 0.217740 0.217115 0.216284 0.215442 0.214600 0.213757 0.212883 0.212224 0.211959 0.211907 0.211856 0.211592 0.210932 0.210056 0.209177 0.208299 0.207420 0.206575 0.205939 0.205702 0.205656 0.205611 0.205378 0.204798 0.204028 0.203295 0.202562 0.201830 0.201138 0.200618 0.200423 0.200385 0.200346 0.200140 0.199639 0.198973 0.198390 0.197808 0.197225 0.196742 0.196378 0.196244 0.196219 0.196194 0.196065 0.195764 0.195365 0.194962 0.194560 0.194157 0.193715 0.193382 0.193249 0.193223 0.193197 0.193063 0.192679 0.192168 0.191576 0.190985 0.190394 0.189758 0.189280 0.189093 0.189057 0.189017 0.188815 0.188294 0.187601 0.186871 0.186140 0.185409 0.184655 0.184089 0.183858 0.183813 0.183769 0.183540 0.182964 0.182199 0.181409 0.180620 0.179830 0.179032 0.178431 0.178199 0.178154 0.178110 0.177879 0.177516 0.177034 0.176593 0.176151 0.175710 0.175291 0.174976 0.174852 0.174829 0.174806 0.174688 0.174393 0.174001 0.173622 0.173243 0.172863 0.172494 0.172215 0.172110 0.172090 0.172069 0.171964 0.171697 0.171342 0.171002 0.170662 0.170323 0.170003 0.169762 0.169669 0.169650 0.169632 0.169539 0.169308 0.169001 0.168705 0.168410 0.168114 0.167831 0.167617 0.167534 0.167517 0.167502 0.167420 0.167214 0.166940 0.166674 0.166408 0.166142 0.165884 0.165691 0.165616 0.165601 
0.219992 0.219921 0.219418 0.218098 0.216338 0.214625 0.212911 0.211198 0.209571 0.208351 0.207903 0.207839 0.207777 0.207334 0.206176 0.204631 0.203179 0.201727 0.200274 0.198967 0.197987 0.197660 0.197613 0.197569 0.197255 0.196421 0.195308 0.194309 0.193310 0.192312 0.191245 0.190446 0.190136 0.190093 0.190048 0.189729 0.188890 0.187770 0.186590 0.185410 0.184229 0.183050 0.182165 0.181835 0.181788 0.181742 0.181415 0.180732 0.179821 0.179073 0.178324 0.177575 0.176916 0.176422 0.176243 0.176218 0.176193 0.176014 0.175566 0.174968 0.174420 0.173871 0.173323 0.172810 0.172426 0.172291 0.172272 0.172253 0.172119 0.171763 0.171287 0.170850 0.170413 0.169975 0.169568 0.169263 0.169153 0.169138 0.169122 0.169012 0.168724 0.168340 0.167976 0.167611 0.167247 0.166900 0.166640 0.166544 0.166530 
0.219499 0.219426 0.219139 0.218458 0.217557 0.216671 0.215786 0.214900 0.214027 0.213367 0.213096 0.213028 0.212960 0.212690 0.212041 0.211182 0.210341 0.209500 0.208659 0.207828 0.207200 0.206941 0.206876 0.206811 0.206555 0.205952 0.205154 0.204372 0.203591 0.202810 0.202059 0.201493 0.201254 0.201194 0.201134 0.200898 0.200349 0.199621 0.198926 0.198232 0.197537 0.196871 0.196367 0.196165 0.196114 0.196061 0.195854 0.195350 0.194684 0.194051 0.193417 0.192784 0.192154 0.191678 0.191484 0.191434 0.191385 0.191191 0.190720 0.190096 0.189469 0.188841 0.188214 0.187587 0.187114 0.186917 0.186867 0.186818 0.186622 0.186161 0.185550 0.184936 0.184322 0.183707 0.183105 0.182649 0.182456 0.182407 0.182358 0.182166 0.181712 0.181110 0.180525 0.179940 0.179354 0.178787 0.178358 0.178183 0.178139 0.178095 0.177920 0.177583 0.177136 0.176811 0.176485 0.176160 0.175869 0.175648 0.175558 0.175535 0.175512 0.175421 0.175205 0.174920 0.174655 0.174391 0.174126 0.173873 0.173681 0.173605 0.173586 0.173567 0.173491 0.173307 0.173063 0.172833 0.172604 0.172374 0.172148 0.171976 0.171906 0.171888 0.171871 0.171805 0.171647 0.171437 0.171231 0.171025 0.170820 0.170628 0.170483 0.170422 0.170407 0.170391 0.170331 0.170192 0.170008 0.169829 0.169649 0.169470 0.169303 0.169177 0.169124 0.169111 0.169098 0.169046 0.168920 0.168755 0.168599 0.168443 0.168286 0.168133 0.168017 0.167971 0.167960 0.167948 0.167902 0.167792 0.167645 0.167502 0.167360 0.167217 0.167075 0.166968 0.166923 0.166911 0.166900 0.166855 0.166753 0.166617 0.166482 0.166348 0.166213 0.166082 0.165984 0.165942 0.165932 
0.209775 0.209721 0.209420 0.208630 0.207578 0.206493 0.205409 0.204324 0.203219 0.202389 0.202065 0.202007 0.201949 0.201625 0.200796 0.199693 0.198600 0.197507 0.196415 0.195339 0.194530 0.194219 0.194162 0.194107 0.193798 0.193019 0.191982 0.190982 0.189982 0.188983 0.188023 0.187302 0.187031 0.186982 0.186934 0.186665 0.185980 0.185069 0.184201 0.183333 0.182464 0.181638 0.181017 0.180780 0.180737 0.180695 0.180459 0.179858 0.179059 0.178286 0.177512 0.176738 0.176003 0.175450 0.175255 0.175220 0.175195 0.175052 0.174710 0.174254 0.173835 0.173416 0.172997 0.172611 0.172321 0.172214 0.172195 0.172176 0.172070 0.171801 0.171445 0.171111 0.170777 0.170443 0.170122 0.169881 0.169788 0.169771 0.169755 0.169664 0.169438 0.169137 0.168849 0.168561 0.168273 0.168001 0.167797 0.167720 0.167706 0.167692 0.167615 0.167421 0.167162 0.166918 0.166674 0.166430 0.166198 0.166023 0.165957 0.165945 0.165934 0.165870 0.165706 0.165486 0.165275 0.165063 0.164851 0.164649 0.164497 0.164438 0.164428 
0.188008 0.187985 0.187908 0.187731 0.187498 0.187255 0.187013 0.186771 0.186515 0.186321 0.186233 0.186207 0.186180 0.186092 0.185889 0.185622 0.185342 0.185063 0.184784 0.184493 0.184272 0.184173 0.184143 0.184113 0.184015 0.183790 0.183493 0.183189 0.182885 0.182581 0.182273 0.182039 0.181934 0.181903 0.181870 0.181765 0.181526 0.181211 0.180895 0.180579 0.180263 0.179941 0.179696 0.179587 0.179554 0.179521 0.179412 0.179166 0.178842 0.178512 0.178182 0.177852 0.177527 0.177280 0.177171 0.177138 0.177105 0.176996 0.176747 0.176418 0.176094 0.175771 0.175447 0.175131 0.174892 0.174785 0.174752 0.174719 0.174612 0.174372 0.174056 0.173744 0.173432 0.173120 0.172807 0.172570 0.172466 0.172434 0.172403 0.172299 0.172066 0.171760 0.171462 0.171163 0.170864 0.170575 0.170355 0.170259 0.170230 0.170201 0.170105 0.169889 0.169604 0.169323 0.169042 0.168761 0.168486 0.168277 0.168185 0.168157 0.168129 0.168037 0.167833 0.167563 0.167300 0.167037 0.166774 0.166517 0.166321 0.166235 0.166209 0.166183 0.166097 0.165903 0.165649 0.165444 0.165239 0.165035 0.164880 0.164764 0.164713 0.164697 0.164682 0.164631 0.164522 0.164379 0.164242 0.164105 0.163969 0.163836 0.163736 0.163693 0.163680 0.163667 0.163625 0.163529 0.163402 0.163277 0.163152 0.163027 0.162909 0.162819 0.162779 0.162767 0.162755 0.162716 0.162626 0.162509 0.162396 0.162283 0.162170 0.162058 0.161973 0.161936 0.161924 0.161913 0.161875 0.161795 0.161688 0.161583 0.161478 0.161373 0.161270 0.161192 0.161159 0.161149 0.161138 0.161105 0.161030 0.160930 0.160832 0.160734 0.160637 0.160543 0.160472 0.160441 0.160431 0.160422 0.160391 0.160320 0.160227 0.160138 0.160049 0.159961 0.159873 0.159806 0.159776 0.159767 0.159758 0.159728 0.159664 0.159579 0.159495 0.159411 0.159327 0.159246 0.159184 0.159157 0.159149 0.159141 0.159114 0.159054 0.158975 0.158896 0.158818 0.158740 0.158663 0.158606 0.158580 0.158572 0.158564 0.158539 0.158480 0.158404 0.158330 0.158256 0.158182 0.158107 0.158050 0.158025 0.158017 
0.155520 0.155512 0.155453 0.155290 0.155073 0.154835 0.154597 0.154359 0.154103 0.153911 0.153837 0.153827 0.153817 0.153743 0.153538 0.153264 0.152979 0.152694 0.152409 0.152115 0.151894 0.151811 0.151800 0.151788 0.151704 0.151478 0.151176 0.150873 0.150570 0.150267 0.149965 0.149738 0.149654 0.149643 0.149631 0.149547 0.149321 0.149018 0.148721 0.148423 0.148126 0.147877 0.147690 0.147650 0.147644 0.147639 0.147599 0.147498 0.147362 0.147241 0.147120 0.146999 0.146893 0.146814 0.146785 0.146781 0.146777 0.146748 0.146677 0.146583 0.146499 0.146415 0.146331 0.146259 0.146204 0.146186 0.146184 0.146181 0.146163 0.146116 0.146053 0.145999 0.145946 0.145892 0.145844 0.145809 0.145796 0.145794 
