-1.428236 0.808667 7.883673
-1.432374 0.811028 7.870393
-1.436512 0.813389 7.857113
-1.611182 0.913038 7.296524
-1.783927 1.011590 6.742103
-1.956614 1.110098 6.187655
-2.136400 1.212494 5.636487
-1.439021 0.814820 7.849062
-1.610595 0.912704 7.298406
-1.611769 0.913373 7.294641
-1.783341 1.011255 6.743985
-1.784514 1.011925 6.740220
-1.956024 1.109761 6.189536
-1.957203 1.110434 6.185774
-2.135672 1.212079 5.638303
-1.448325 0.820128 7.819200
-1.601291 0.907395 7.328268
-1.621073 0.918681 7.264780
-1.774034 1.005946 6.773846
-1.793822 1.017236 6.710360
-1.946718 1.104451 6.219397
-1.966548 1.115773 6.155930
-2.124111 1.205496 5.667104
-1.468460 0.831615 7.754581
-1.490999 0.844474 7.682242
-1.513538 0.857332 7.609903
-1.536078 0.870191 7.537564
-1.558617 0.883050 7.465226
-1.581156 0.895909 7.392887
-1.641208 0.930169 7.200161
-1.663748 0.943028 7.127822
-1.686287 0.955886 7.055483
-1.708824 0.968743 6.983144
-1.731361 0.981600 6.910804
-1.753899 0.994458 6.838464
-1.813964 1.028728 6.645745
-1.836513 1.041594 6.573410
-1.859051 1.054451 6.501070
-1.881571 1.067296 6.428723
-1.904078 1.080131 6.356370
-1.926580 1.092962 6.284014
-1.986773 1.127327 6.091352
-2.009460 1.140295 6.019079
-2.032043 1.153185 5.946759
-2.054448 1.165944 5.874361
-2.076797 1.178634 5.801934
-2.099921 1.191732 5.729824
-3.207694 1.605374 4.666411
-4.397108 1.814995 3.758324
-5.650324 2.187567 3.036679
-6.455715 3.273081 2.398843
-7.163216 4.425935 1.726006
-7.978611 5.461348 0.989479
-8.936885 6.295252 0.175816
-10.033887 6.853381 -0.695273
-11.226747 7.116000 -1.580601
-12.463377 7.121696 -2.446363
-2.137129 1.212909 5.634672
-3.206112 1.605101 4.667603
-3.209276 1.605647 4.665218
-4.395470 1.814720 3.759439
-4.398760 1.815260 3.757228
-5.648874 2.186435 3.037465
-5.651773 2.188699 3.035893
-6.454825 3.271512 2.399706
-6.456605 3.274651 2.397980
-7.162213 4.424476 1.726936
-7.164220 4.427393 1.725075
-7.977432 5.460104 0.990510
-7.979790 5.462591 0.988447
-8.935512 6.294331 0.176942
-8.938258 6.296172 0.174690
-10.032358 6.852845 -0.694101
-10.035416 6.853917 -0.696446
-11.225131 7.115825 -1.579437
-11.228364 7.116175 -1.581766
-12.461730 7.121834 -2.445238
-2.151427 1.221112 5.607662
-3.181017 1.600776 4.686524
-3.234437 1.609774 4.646340
-4.369651 1.810261 3.777326
-4.424964 1.819472 3.739849
-5.625494 2.169127 3.050121
-5.674769 2.206648 3.023424
-6.440863 3.246492 2.413327
-6.470719 3.299547 2.384289
-7.146331 4.401306 1.741680
-7.180137 4.450525 1.710310
-7.958748 5.440354 1.006859
-7.998494 5.482314 0.972088
-8.913748 6.279706 0.194800
-8.960036 6.310769 0.156827
-10.008103 6.844342 -0.675503
-10.059670 6.862420 -0.715043
-11.199490 7.113049 -1.560962
-11.254004 7.118951 -1.600241
-12.435592 7.124025 -2.427391
-2.230806 1.266844 5.495519
-2.387434 1.355559 5.351828
-2.545415 1.434163 5.203581
-2.712920 1.492446 5.056515
-2.888793 1.538460 4.914730
-3.066546 1.579592 4.773800
-3.349684 1.628748 4.559569
-3.530988 1.659860 4.420585
-3.711500 1.690517 4.280470
-3.892265 1.721899 4.140845
-4.072489 1.755220 4.000972
-4.252595 1.789408 3.861169
-4.545641 1.837970 3.660696
-4.738458 1.865468 3.537335
-4.934192 1.904560 3.422089
-5.133077 1.948613 3.314134
-5.331747 1.998472 3.208574
-5.516501 2.092975 3.109131
-5.779379 2.290162 2.966399
-5.939654 2.427816 2.874281
-6.070640 2.589015 2.775761
-6.171522 2.769770 2.674349
-6.275114 2.949681 2.574087
-6.377362 3.131282 2.475499
-6.535863 3.413394 2.321313
-6.639605 3.593348 2.221259
-6.744934 3.771779 2.120158
-6.853325 3.947309 2.017220
-6.962230 4.122339 1.913971
-7.073964 4.294539 1.809019
-7.253361 4.556384 1.642461
-7.371217 4.722132 1.533871
-7.492459 4.884076 1.423297
-7.617242 5.041868 1.310669
-7.743481 5.197897 1.197203
-7.873684 5.348900 1.081494
-8.084186 5.572902 0.897108
-8.222356 5.713022 0.777016
-8.366046 5.844828 0.654017
-8.512496 5.972248 0.529633
-8.661548 6.095306 0.403964
-8.814745 6.211020 0.276351
-9.059916 6.377711 0.074889
-9.220129 6.479765 -0.055719
-9.386094 6.569148 -0.188402
-9.554047 6.653837 -0.321729
-9.723844 6.733876 -0.455550
-9.897414 6.803654 -0.590279
-10.171252 6.900328 -0.800384
-10.349617 6.955172 -0.935759
-10.530732 7.000001 -1.071157
-10.713040 7.040077 -1.206486
-10.896286 7.076006 -1.341668
-11.081915 7.100173 -1.476218
-11.371811 7.130396 -1.684862
-11.559457 7.141820 -1.818307
-11.747905 7.146757 -1.951035
-11.936770 7.147688 -2.083264
-12.126019 7.144175 -2.214888
-12.315737 7.133473 -2.345438
178 NaN NaN
-1.426167 0.807487 7.890313
-1.455605 0.824281 7.795838
-1.485042 0.841075 7.701363
-1.514478 0.857869 7.606887
-1.543915 0.874662 7.512411
-1.573351 0.891456 7.417936
-1.602789 0.908250 7.323461
-1.632226 0.925044 7.228986
-1.661664 0.941839 7.134511
-1.691100 0.958632 7.040035
-1.720534 0.975424 6.945558
-1.749967 0.992215 6.851081
-1.779406 1.009010 6.756607
-1.808854 1.025812 6.662137
-1.838304 1.042616 6.567667
-1.867736 1.059406 6.473189
-1.897135 1.076172 6.378697
-1.926522 1.092929 6.284200
-1.955965 1.109727 6.189727
-1.985531 1.126616 6.095309
-2.015161 1.143553 6.000919
-2.044607 1.160354 5.906448
-2.073635 1.176843 5.811793
-2.103834 1.193949 5.717623
-2.140386 1.214764 5.626557
-2.188935 1.242676 5.543471
-2.250586 1.278261 5.472868
-2.318994 1.317351 5.410718
-2.389059 1.356466 5.350430
-2.457764 1.393064 5.287086
-2.526185 1.426191 5.221557
-2.596350 1.455282 5.155964
-2.669688 1.480094 5.092107
-2.745354 1.501714 5.029813
-2.822082 1.521609 4.968242
-2.898899 1.541013 4.906624
-2.975892 1.559740 4.845016
-3.053528 1.577060 4.783808
-3.132171 1.592358 4.723352
-3.211565 1.606041 4.663492
-3.291189 1.619036 4.603781
-3.370567 1.632216 4.543785
-3.449572 1.645766 4.483380
-3.528317 1.659403 4.422656
-3.606920 1.672850 4.361706
-3.685480 1.686107 4.300659
-3.764078 1.699427 4.239675
-3.842791 1.713063 4.178909
-3.921556 1.727130 4.118309
-4.000149 1.741572 4.057574
-4.078339 1.756323 3.996395
-4.156298 1.771258 3.934967
-4.234828 1.786157 3.874263
-4.314760 1.800783 3.815353
-4.396444 1.814888 3.758764
-4.479349 1.828212 3.703780
-4.562873 1.840507 3.649498
-4.646628 1.851981 3.595391
-4.730767 1.864143 3.542037
-4.815488 1.878736 3.490247
-4.900847 1.896817 3.440649
-4.986796 1.916773 3.392811
-5.073377 1.936370 3.345975
-5.160522 1.954241 3.299495
-5.247527 1.973530 3.253334
-5.333247 1.998917 3.207777
-5.415976 2.034332 3.163446
-5.495133 2.078781 3.120705
-5.571330 2.129397 3.079432
-5.645504 2.183805 3.039292
-5.718255 2.240593 2.999845
-5.790002 2.298776 2.960587
-5.861088 2.357538 2.920992
-5.930110 2.418119 2.880517
-5.994095 2.483126 2.838713
-6.049575 2.554636 2.795467
-6.096677 2.631508 2.751404
-6.139527 2.710760 2.707170
-6.182504 2.790025 2.663083
-6.227465 2.868359 2.619308
-6.273235 2.946417 2.575877
-6.318467 3.024979 2.532796
-6.362582 3.104320 2.489983
-6.406228 3.183942 2.447209
-6.450164 3.263291 2.404227
-6.494819 3.342056 2.360913
-6.539924 3.420452 2.317395
-6.585122 3.498770 2.273834
-6.630226 3.577158 2.230301
-6.675526 3.655354 2.186627
-6.721398 3.733016 2.142599
-6.768086 3.809909 2.098083
-6.815330 3.886269 2.053235
-6.862753 3.962456 2.008282
-6.910071 4.038744 1.963391
-6.957516 4.114907 1.918421
-7.005492 4.190545 1.873130
-7.054342 4.265303 1.827316
-7.103974 4.339255 1.781035
-7.154100 4.412687 1.734461
-7.204460 4.485871 1.687748
-7.255046 4.558814 1.640901
-7.306002 4.631355 1.593834
-7.357475 4.703332 1.546462
-7.409576 4.774609 1.498722
-7.462392 4.845073 1.450564
-7.516001 4.914617 1.401945
-7.570304 4.983336 1.352926
-7.625015 5.051562 1.303671
-7.679852 5.119635 1.254343
-7.734853 5.187506 1.204921
-7.790522 5.254548 1.155119
-7.847378 5.320074 1.104647
-7.905564 5.383835 1.053434
-7.964541 5.446511 1.001785
-8.023715 5.508910 0.950028
-8.082792 5.571448 0.898325
-8.142228 5.633481 0.846428
-8.202592 5.694182 0.794032
-8.264249 5.752955 0.740949
-8.326933 5.810139 0.687333
-8.390259 5.866302 0.633393
-8.453926 5.921919 0.579287
-8.517957 5.976941 0.525003
-8.582473 6.031151 0.470478
-8.647595 6.084323 0.415653
-8.713470 6.136179 0.360467
-8.780248 6.186411 0.304869
-8.848035 6.234769 0.248830
-8.916587 6.281647 0.192465
-8.985488 6.327828 0.135949
-9.054373 6.374032 0.079431
-9.123436 6.419874 0.022837
-9.193276 6.464128 -0.034062
-9.264431 6.505563 -0.091448
-9.336825 6.544167 -0.149263
-9.409869 6.581203 -0.207288
-9.483017 6.617988 -0.265343
-9.556124 6.654885 -0.323379
-9.629557 6.690984 -0.381504
-9.703694 6.725279 -0.439823
-9.778687 6.757273 -0.498357
-9.854345 6.787386 -0.557034
-9.930468 6.816139 -0.615792
-10.006917 6.843926 -0.674594
-10.083653 6.870828 -0.733432
-10.160654 6.896882 -0.792306
-10.237936 6.922007 -0.851214
-10.315635 6.945726 -0.910157
-10.393892 6.967480 -0.969117
-10.472762 6.986934 -1.028066
-10.552027 7.004801 -1.086987
-10.631430 7.022096 -1.145896
-10.710783 7.039593 -1.204813
-10.790247 7.056617 -1.263716
-10.870102 7.071929 -1.322559
-10.950540 7.084453 -1.381264
-11.031426 7.094599 -1.439817
-11.112518 7.103551 -1.498281
-11.193626 7.112414 -1.556737
-11.274747 7.121197 -1.615186
-11.356003 7.129154 -1.673566
-11.437497 7.135554 -1.731804
-11.519232 7.140219 -1.789869
-11.601145 7.143478 -1.847780
-11.683180 7.145675 -1.905569
-11.765304 7.147047 -1.963257
-11.847500 7.147704 -2.020854
-11.929755 7.147744 -2.078371
-12.012073 7.147090 -2.135795
-12.094477 7.145380 -2.193071
-12.176984 7.142228 -2.250139
-12.259583 7.137496 -2.306963
-12.342237 7.131574 -2.363595
-12.424921 7.124919 -2.420105
-12.507614 7.117988 -2.476567
-12.590301 7.111237 -2.533060
-12.672964 7.105123 -2.589660
