0.132020 0.132014 0.131924 0.131513 0.130862 0.130246 0.129629 0.129013 0.128476 0.128136 0.128066 0.128061 0.128056 0.127987 0.127687 0.127211 0.126786 0.126361 0.125936 0.125547 0.125302 0.125249 0.125246 0.125242 0.125190 0.124960 0.124595 0.124257 0.123918 0.123580 0.123267 0.123069 0.123027 0.123024 
0.132023 0.132028 0.132072 0.132216 0.132423 0.132642 0.132862 0.133082 0.133322 0.133488 0.133541 0.133547 0.133552 0.133605 0.133786 0.134047 0.134330 0.134614 0.134897 0.135201 0.135412 0.135478 0.135484 0.135491 0.135557 0.135779 0.136098 0.136431 0.136763 0.137095 0.137439 0.137677 0.137751 0.137758 0.137765 0.137839 0.138082 0.138433 0.138790 0.139148 0.139506 0.139869 0.140122 0.140199 0.140207 0.140215 0.140292 0.140549 0.140919 0.141295 0.141671 0.142048 0.142431 0.142698 0.142779 0.142787 0.142796 0.142877 0.143149 0.143540 0.143940 0.144339 0.144738 0.145145 0.145428 0.145515 0.145523 0.145532 0.145619 0.145906 0.146320 0.146740 0.147160 0.147580 0.148004 0.148298 0.148388 0.148397 0.148406 0.148496 0.148794 0.149222 0.149651 0.150081 0.150511 0.150940 0.151239 0.151330 0.151339 0.151348 0.151439 0.151740 0.152173 0.152608 0.153044 0.153479 0.153921 0.154229 0.154324 0.154333 0.154343 0.154437 0.154751 0.155202 0.155670 0.156137 0.156604 0.157095 0.157436 0.157542 0.157552 0.157563 0.157670 0.158032 0.158553 0.159109 0.159666 0.160222 0.160820 0.161236 0.161368 0.161381 0.161394 0.161526 0.161970 0.162609 0.163294 0.163979 0.164664 0.165391 0.165897 0.166053 0.166069 0.166085 0.166242 0.166772 0.167534 0.168331 0.169128 0.169925 0.170759 0.171339 0.171517 0.171535 0.171553 0.171732 0.172328 0.173185 0.174067 0.174950 0.175832 0.176742 0.177375 0.177568 0.177588 0.177607 0.177801 0.178448 0.179377 0.180337 0.181296 0.182256 0.183232 0.183910 0.184117 0.184138 0.184159 0.184366 0.185059 0.186057 0.187082 0.188107 0.189132 0.190181 0.190910 0.191131 0.191154 0.191176 0.191398 0.192135 0.193196 0.194282 0.195368 0.196454 0.197557 0.198323 0.198557 0.198581 0.198605 0.198840 0.199615 0.200731 0.201851 0.202971 0.204091 0.205210 0.205987 0.206221 0.206244 0.206268 0.206500 0.207265 0.208366 0.209422 0.210479 0.211535 0.212523 0.213210 0.213416 0.213437 0.213457 0.213662 0.214304 0.215227 0.216055 0.216882 0.217710 0.218368 0.218826 0.218951 0.218963 0.218976 0.219097 0.219457 0.219976 0.220330 0.220684 0.221038 0.221223 0.221351 0.221374 0.221376 0.221378 0.221397 0.221416 0.221444 0.221305 0.221167 0.221028 0.220717 0.220501 0.220424 0.220417 0.220408 0.220329 0.220025 0.219589 0.219033 0.218477 0.217921 0.217265 0.216810 0.216662 0.216647 
0.132022 0.132020 0.132000 0.131905 0.131755 0.131443 0.131132 0.130821 0.130454 0.130222 0.130178 0.130175 0.130173 0.130131 0.129937 0.129630 0.129388 0.129147 0.128905 0.128719 0.128602 0.128578 0.128577 0.128575 0.128552 0.128446 0.128279 0.128081 0.127882 0.127684 0.127401 0.127223 0.127176 0.127173 0.127170 0.127121 0.126813 0.126326 0.125506 0.124687 0.123867 0.123015 0.122477 0.122369 0.122362 0.122355 0.122251 0.121807 0.121104 0.120497 0.119889 0.119281 0.118750 0.118415 0.118349 0.118344 0.118340 0.118275 0.118015 0.117603 0.117305 0.117006 0.116708 0.116488 0.116350 0.116322 0.116321 0.116319 0.116292 0.116180 0.116003 0.115859 0.115716 0.115572 0.115453 0.115379 0.115363 0.115362 0.115361 0.115346 0.115282 0.115181 0.115096 0.115012 0.114928 0.114858 0.114815 0.114806 0.114805 0.114804 0.114796 0.114759 0.114700 0.114651 0.114601 0.114552 0.114511 0.114485 0.114480 0.114480 0.114479 0.114474 0.114451 0.114415 0.114385 0.114354 0.114323 0.114296 0.114280 0.114276 0.114276 0.114276 0.114272 0.114258 0.114234 0.114214 0.114193 0.114173 0.114155 0.114144 0.114141 0.114141 0.114141 0.114138 0.114128 0.114111 0.114095 0.114079 0.114062 0.114046 0.114036 0.114033 0.114033 
0.125246 0.125249 0.125256 0.125272 0.125293 0.125313 0.125332 0.125351 0.125368 0.125381 0.125387 0.125389 0.125390 0.125396 0.125407 0.125421 0.125433 0.125446 0.125458 0.125468 0.125476 0.125480 0.125481 0.125482 0.125485 0.125491 0.125499 0.125506 0.125513 0.125519 0.125525 0.125529 0.125530 0.125531 0.125531 0.125533 0.125536 0.125540 0.125542 0.125545 0.125548 0.125549 0.125550 0.125550 0.125550 0.125550 0.125551 0.125551 0.125552 0.125552 0.125552 0.125552 0.125551 0.125550 0.125550 0.125550 0.125550 0.125549 0.125548 0.125546 0.125543 0.125539 0.125536 0.125531 0.125528 0.125525 0.125525 0.125524 0.125522 0.125517 0.125510 0.125501 0.125493 0.125485 0.125474 0.125466 0.125462 0.125461 0.125460 0.125456 0.125447 0.125435 0.125421 0.125406 0.125391 0.125376 0.125364 0.125358 0.125357 0.125355 0.125349 0.125335 0.125317 0.125297 0.125277 0.125257 0.125236 0.125219 0.125211 0.125209 0.125207 0.125199 0.125181 0.125157 0.125132 0.125107 0.125082 0.125059 0.125042 0.125036 0.125034 0.125032 0.125026 0.125012 0.124994 0.124975 0.124956 0.124937 0.124919 0.124904 0.124898 0.124896 0.124894 0.124888 0.124874 0.124855 0.124836 0.124817 0.124799 0.124780 0.124766 0.124760 0.124758 0.124756 0.124750 0.124735 0.124717 0.124698 0.124679 0.124660 0.124641 0.124627 0.124621 0.124619 0.124617 0.124611 0.124596 0.124577 0.124559 0.124540 0.124521 0.124502 0.124488 0.124482 0.124480 0.124478 0.124472 0.124458 0.124440 0.124421 0.124403 0.124384 0.124366 0.124353 0.124347 0.124345 0.124343 0.124337 0.124323 0.124305 0.124287 0.124270 0.124252 0.124234 0.124221 0.124215 0.124214 0.124212 0.124206 0.124193 0.124176 0.124158 0.124141 0.124124 0.124107 0.124094 0.124089 0.124087 
0.128062 0.128067 0.128086 0.128129 0.128186 0.128237 0.128288 0.128340 0.128385 0.128419 0.128433 0.128436 0.128439 0.128452 0.128482 0.128522 0.128556 0.128590 0.128624 0.128652 0.128673 0.128681 0.128683 0.128685 0.128693 0.128711 0.128734 0.128753 0.128771 0.128790 0.128806 0.128818 0.128823 0.128824 0.128825 0.128829 0.128839 0.128852 0.128862 0.128872 0.128883 0.128893 0.128900 0.128903 0.128903 0.128904 0.128906 0.128912 0.128919 0.128926 0.128934 0.128941 0.128949 0.128954 0.128956 0.128957 0.128957 0.128959 0.128962 0.128966 0.128968 0.128970 0.128973 0.128971 0.128969 0.128968 0.128968 0.128968 0.128967 0.128963 0.128958 0.128948 0.128938 0.128928 0.128913 0.128901 0.128896 0.128895 0.128893 0.128888 0.128874 0.128856 0.128832 0.128808 0.128784 0.128757 0.128737 0.128727 0.128724 0.128722 0.128711 0.128686 0.128652 0.128613 0.128574 0.128535 0.128498 0.128470 0.128462 0.128460 0.128458 0.128450 0.128429 0.128402 0.128375 0.128347 0.128320 0.128292 0.128271 0.128262 0.128260 0.128258 0.128249 0.128227 0.128199 0.128170 0.128141 0.128112 0.128083 0.128061 0.128052 0.128050 0.128048 0.128038 0.128016 0.127986 0.127956 0.127926 0.127896 0.127865 0.127842 0.127833 0.127831 0.127828 0.127819 0.127796 0.127765 0.127734 0.127704 0.127673 0.127642 0.127618 0.127609 0.127606 0.127604 0.127594 0.127571 0.127540 0.127510 0.127479 0.127448 0.127417 0.127394 0.127385 0.127382 0.127380 0.127370 0.127347 0.127316 0.127285 0.127254 0.127223 0.127192 0.127168 0.127158 0.127156 
0.137758 0.137756 0.137753 0.137745 0.137734 0.137723 0.137711 0.137699 0.137686 0.137676 0.137671 0.137669 0.137667 0.137662 0.137651 0.137636 0.137620 0.137604 0.137588 0.137570 0.137557 0.137550 0.137548 0.137545 0.137539 0.137524 0.137505 0.137484 0.137464 0.137443 0.137421 0.137404 0.137396 0.137393 0.137390 0.137382 0.137364 0.137340 0.137316 0.137291 0.137267 0.137240 0.137220 0.137211 0.137207 0.137204 0.137194 0.137173 0.137145 0.137117 0.137088 0.137059 0.137029 0.137006 0.136995 0.136991 0.136987 0.136975 0.136951 0.136920 0.136887 0.136855 0.136822 0.136788 0.136762 0.136749 0.136745 0.136740 0.136728 0.136701 0.136666 0.136629 0.136592 0.136555 0.136517 0.136488 0.136474 0.136469 0.136464 0.136450 0.136420 0.136380 0.136339 0.136299 0.136258 0.136216 0.136184 0.136168 0.136163 0.136157 0.136142 0.136109 0.136067 0.136022 0.135977 0.135933 0.135887 0.135852 0.135836 0.135830 0.135824 0.135807 0.135772 0.135725 0.135677 0.135629 0.135581 0.135532 0.135495 0.135477 0.135471 0.135464 0.135447 0.135409 0.135359 0.135308 0.135258 0.135207 0.135156 0.135116 0.135098 0.135091 0.135085 0.135066 0.135026 0.134974 0.134921 0.134868 0.134816 0.134762 0.134722 0.134702 0.134696 0.134689 0.134671 0.134645 0.134611 0.134578 0.134545 0.134511 0.134478 0.134453 0.134441 0.134437 0.134433 0.134421 0.134397 0.134366 0.134334 0.134303 0.134272 0.134240 0.134216 0.134206 0.134202 0.134198 0.134187 0.134165 0.134135 0.134105 0.134075 0.134045 0.134016 0.133994 0.133983 0.133980 0.133976 0.133966 0.133944 0.133916 0.133888 0.133859 0.133831 0.133803 0.133782 0.133773 0.133769 0.133766 0.133756 0.133735 0.133708 0.133681 0.133654 0.133627 0.133601 0.133582 0.133573 0.133569 0.133566 0.133557 0.133537 0.133512 0.133486 0.133461 0.133435 0.133411 0.133393 0.133384 0.133381 0.133378 0.133369 0.133351 0.133327 0.133303 0.133280 0.133256 0.133233 0.133216 0.133208 0.133205 0.133202 0.133194 0.133177 0.133154 0.133132 0.133110 0.133088 0.133067 0.133051 0.133043 0.133041 0.133038 0.133030 0.133014 0.132993 0.132973 0.132952 0.132932 0.132912 0.132897 0.132890 0.132887 0.132884 0.132877 0.132862 0.132842 0.132823 0.132804 0.132786 0.132767 0.132753 0.132746 0.132744 0.132741 0.132734 0.132720 0.132702 0.132684 0.132666 0.132649 0.132631 0.132618 0.132611 0.132609 0.132607 0.132600 0.132587 0.132570 0.132554 0.132537 0.132521 0.132504 0.132492 0.132486 0.132484 
0.142787 0.142787 0.142785 0.142778 0.142770 0.142754 0.142738 0.142723 0.142701 0.142684 0.142677 0.142675 0.142673 0.142665 0.142643 0.142613 0.142577 0.142541 0.142505 0.142463 0.142431 0.142418 0.142415 0.142412 0.142397 0.142360 0.142311 0.142255 0.142200 0.142145 0.142084 0.142037 0.142018 0.142014 0.142009 0.141989 0.141937 0.141868 0.141793 0.141718 0.141643 0.141562 0.141501 0.141476 0.141470 0.141465 0.141439 0.141372 0.141284 0.141191 0.141098 0.141004 0.140906 0.140831 0.140801 0.140794 0.140787 0.140756 0.140677 0.140572 0.140464 0.140356 0.140248 0.140136 0.140052 0.140032 0.140028 0.140024 0.140004 0.139958 0.139896 0.139836 0.139777 0.139717 0.139660 0.139617 0.139599 0.139595 0.139592 0.139574 0.139533 0.139478 0.139423 0.139368 0.139313 0.139259 0.139218 0.139201 0.139198 0.139194 0.139177 0.139138 0.139086 0.139033 0.138981 0.138929 0.138876 0.138837 0.138821 0.138817 0.138814 0.138798 0.138760 0.138710 0.138661 0.138612 0.138562 0.138514 0.138478 0.138463 0.138460 0.138456 0.138442 0.138406 0.138359 0.138312 0.138265 0.138219 0.138173 0.138138 0.138124 0.138121 0.138118 0.138103 0.138069 0.138023 0.137977 0.137931 0.137885 0.137839 0.137804 0.137789 0.137786 
0.148396 0.148390 0.148375 0.148343 0.148301 0.148258 0.148215 0.148172 0.148128 0.148094 0.148078 0.148071 0.148065 0.148048 0.148012 0.147964 0.147915 0.147866 0.147818 0.147768 0.147731 0.147712 0.147705 0.147698 0.147680 0.147640 0.147589 0.147537 0.147485 0.147432 0.147379 0.147338 0.147318 0.147310 0.147303 0.147283 0.147240 0.147184 0.147127 0.147070 0.147013 0.146954 0.146910 0.146888 0.146880 0.146872 0.146850 0.146804 0.146743 0.146683 0.146623 0.146563 0.146502 0.146455 0.146432 0.146424 0.146415 0.146392 0.146343 0.146279 0.146214 0.146150 0.146085 0.146018 0.145967 0.145942 0.145933 0.145923 0.145898 0.145846 0.145777 0.145708 0.145638 0.145569 0.145498 0.145444 0.145417 0.145407 0.145397 0.145371 0.145315 0.145243 0.145169 0.145096 0.145023 0.144948 0.144891 0.144863 0.144853 0.144843 0.144815 0.144757 0.144682 0.144605 0.144529 0.144453 0.144376 0.144316 0.144288 0.144277 0.144267 0.144238 0.144179 0.144101 0.144022 0.143944 0.143866 0.143787 0.143727 0.143707 0.143700 0.143692 0.143672 0.143631 0.143577 0.143524 0.143470 0.143417 0.143367 0.143328 0.143310 0.143303 0.143297 0.143278 0.143241 0.143191 0.143143 0.143094 0.143045 0.142999 0.142964 0.142947 0.142940 0.142934 0.142917 0.142882 0.142836 0.142791 0.142747 0.142702 0.142659 0.142627 0.142611 0.142605 0.142599 0.142584 0.142551 0.142508 0.142466 0.142424 0.142382 0.142342 0.142312 0.142297 0.142292 0.142286 0.142271 0.142241 0.142200 0.142161 0.142122 0.142082 0.142045 0.142016 0.142002 0.141997 0.141992 0.141978 0.141949 0.141911 0.141875 0.141838 0.141801 0.141765 0.141738 0.141725 0.141720 0.141716 0.141703 0.141675 0.141640 0.141606 0.141571 0.141537 0.141504 0.141478 0.141466 0.141461 0.141457 0.141444 0.141419 0.141385 0.141353 0.141321 0.141289 0.141257 0.141233 0.141222 0.141218 0.141213 0.141202 0.141178 0.141146 0.141116 0.141085 0.141055 0.141025 0.141002 0.140991 0.140987 0.140983 0.140972 0.140949 0.140919 0.140889 0.140860 0.140831 0.140802 0.140780 0.140769 0.140766 0.140762 0.140751 0.140729 0.140700 0.140671 0.140643 0.140615 0.140587 0.140565 0.140555 0.140551 0.140547 0.140537 0.140515 0.140486 0.140458 0.140430 0.140402 0.140374 0.140352 0.140342 0.140338 0.140334 0.140324 0.140302 0.140273 0.140246 0.140218 0.140190 0.140162 0.140141 0.140130 0.140126 
0.151337 0.151329 0.151296 0.151214 0.151107 0.150996 0.150885 0.150774 0.150659 0.150573 0.150537 0.150528 0.150520 0.150483 0.150392 0.150270 0.150148 0.150025 0.149902 0.149776 0.149682 0.149643 0.149633 0.149624 0.149585 0.149489 0.149362 0.149231 0.149099 0.148968 0.148830 0.148726 0.148683 0.148672 0.148662 0.148618 0.148512 0.148371 0.148225 0.148078 0.147932 0.147782 0.147669 0.147621 0.147610 0.147598 0.147551 0.147435 0.147281 0.147125 0.146969 0.146813 0.146657 0.146538 0.146489 0.146477 0.146465 0.146416 0.146296 0.146137 0.146021 0.145905 0.145790 0.145682 0.145600 0.145567 0.145559 0.145551 0.145519 0.145443 0.145343 0.145246 0.145150 0.145053 0.144963 0.144894 0.144866 0.144859 0.144852 0.144825 0.144760 0.144674 0.144591 0.144507 0.144424 0.144347 0.144288 0.144264 0.144258 0.144252 0.144228 0.144170 0.144093 0.144020 0.143947 0.143875 0.143805 0.143752 0.143731 0.143726 0.143721 0.143700 0.143649 0.143582 0.143519 0.143456 0.143393 0.143331 0.143284 0.143266 0.143262 0.143257 0.143239 0.143195 0.143136 0.143080 0.143024 0.142968 0.142912 0.142871 0.142853 0.142849 0.142845 0.142829 0.142789 0.142737 0.142685 0.142632 0.142580 0.142529 0.142490 0.142474 0.142470 0.142466 0.142449 0.142412 0.142361 0.142310 0.142260 0.142209 0.142158 0.142121 0.142105 0.142101 
0.154331 0.154322 0.154269 0.154130 0.153944 0.153752 0.153559 0.153366 0.153165 0.153014 0.152957 0.152947 0.152938 0.152880 0.152722 0.152511 0.152286 0.152061 0.151836 0.151593 0.151411 0.151341 0.151330 0.151319 0.151249 0.151057 0.150801 0.150535 0.150269 0.150003 0.149737 0.149537 0.149479 0.149469 0.149460 0.149403 0.149258 0.149066 0.148892 0.148719 0.148545 0.148390 0.148274 0.148232 0.148226 0.148219 0.148177 0.148071 0.147931 0.147804 0.147677 0.147550 0.147432 0.147344 0.147313 0.147308 0.147302 0.147271 0.147190 0.147082 0.146984 0.146886 0.146788 0.146697 0.146628 0.146604 0.146600 0.146596 0.146572 0.146508 0.146423 0.146344 0.146264 0.146185 0.146108 0.146051 0.146029 0.146026 
0.161377 0.161361 0.161317 0.161225 0.161105 0.160986 0.160867 0.160748 0.160630 0.160541 0.160497 0.160482 0.160466 0.160423 0.160332 0.160213 0.160096 0.159979 0.159862 0.159748 0.159660 0.159618 0.159603 0.159588 0.159546 0.159458 0.159343 0.159230 0.159117 0.159003 0.158890 0.158804 0.158762 0.158747 0.158732 0.158691 0.158603 0.158489 0.158374 0.158259 0.158143 0.158025 0.157935 0.157892 0.157876 0.157861 0.157818 0.157728 0.157609 0.157491 0.157373 0.157254 0.157134 0.157041 0.156998 0.156982 0.156966 0.156922 0.156829 0.156708 0.156586 0.156463 0.156341 0.156218 0.156124 0.156079 0.156063 0.156047 0.156002 0.155908 0.155785 0.155662 0.155539 0.155415 0.155292 0.155199 0.155155 0.155139 0.155125 0.155087 0.155009 0.154906 0.154807 0.154708 0.154609 0.154514 0.154441 0.154407 0.154394 0.154382 0.154348 0.154276 0.154183 0.154096 0.154009 0.153922 0.153838 0.153774 0.153744 0.153733 0.153722 0.153692 0.153630 0.153549 0.153474 0.153399 0.153325 0.153252 0.153196 0.153170 0.153161 0.153151 0.153125 0.153073 0.153004 0.152940 0.152877 0.152814 0.152751 0.152703 0.152680 0.152672 0.152663 0.152641 0.152596 0.152538 0.152482 0.152427 0.152371 0.152316 0.152274 0.152254 0.152247 0.152240 0.152220 0.152183 0.152135 0.152087 0.152040 0.151992 0.151945 0.151909 0.151892 0.151885 0.151880 0.151865 0.151833 0.151792 0.151751 0.151710 0.151668 0.151626 0.151595 0.151582 0.151577 0.151572 0.151559 0.151531 0.151495 0.151459 0.151423 0.151386 0.151352 0.151325 0.151314 0.151309 0.151305 0.151294 0.151270 0.151239 0.151207 0.151176 0.151144 0.151115 0.151093 0.151083 0.151079 0.151075 0.151065 0.151044 0.151017 0.150989 0.150961 0.150933 0.150909 0.150890 0.150881 0.150878 0.150875 0.150866 0.150847 0.150823 0.150799 0.150774 0.150750 0.150728 0.150711 0.150703 0.150700 0.150697 0.150689 0.150672 0.150650 0.150628 0.150607 0.150585 0.150565 0.150550 0.150543 0.150540 0.150537 0.150530 0.150515 0.150494 0.150475 0.150455 0.150436 0.150417 0.150403 0.150396 0.150394 
0.171529 0.171505 0.171378 0.171053 0.170621 0.170191 0.169762 0.169332 0.168906 0.168585 0.168461 0.168437 0.168414 0.168289 0.167972 0.167550 0.167143 0.166736 0.166329 0.165927 0.165624 0.165507 0.165485 0.165464 0.165347 0.165050 0.164655 0.164268 0.163881 0.163494 0.163110 0.162821 0.162709 0.162688 0.162667 0.162555 0.162268 0.161887 0.161516 0.161145 0.160774 0.160437 0.160183 0.160097 0.160081 0.160065 0.159980 0.159776 0.159505 0.159266 0.159026 0.158787 0.158575 0.158416 0.158359 0.158348 0.158338 0.158283 0.158144 0.157958 0.157793 0.157628 0.157462 0.157318 0.157209 0.157169 0.157162 0.157154 0.157114 0.157017 0.156887 0.156771 0.156654 0.156538 0.156435 0.156357 0.156326 0.156321 0.156315 0.156285 0.156217 0.156126 0.156042 0.155957 0.155872 0.155794 0.155735 0.155714 0.155710 0.155706 0.155684 0.155629 0.155556 0.155490 0.155424 0.155358 0.155296 0.155250 0.155231 0.155228 
0.191143 0.191103 0.190864 0.190235 0.189398 0.188571 0.187745 0.186919 0.186089 0.185466 0.185232 0.185192 0.185153 0.184921 0.184319 0.183517 0.182743 0.181970 0.181196 0.180459 0.179905 0.179696 0.179661 0.179625 0.179419 0.178891 0.178189 0.177523 0.176857 0.176190 0.175557 0.175082 0.174906 0.174876 0.174846 0.174670 0.174217 0.173614 0.173040 0.172466 0.171891 0.171351 0.170946 0.170793 0.170766 0.170740 0.170588 0.170274 0.169855 0.169497 0.169139 0.168781 0.168473 0.168241 0.168156 0.168142 0.168128 0.168043 0.167842 0.167574 0.167336 0.167098 0.166861 0.166646 0.166486 0.166429 0.166420 0.166410 0.166354 0.166209 0.166016 0.165841 0.165666 0.165491 0.165331 0.165211 0.165164 0.165156 0.165149 0.165108 0.164997 0.164851 0.164712 0.164574 0.164436 0.164308 0.164212 0.164174 0.164168 0.164162 0.164124 0.164032 0.163909 0.163790 0.163672 0.163553 0.163435 0.163347 0.163313 0.163308 
0.220387 0.220268 0.219917 0.219167 0.218183 0.217245 0.216308 0.215371 0.214481 0.213804 0.213500 0.213398 0.213297 0.212997 0.212359 0.211522 0.210725 0.209927 0.209130 0.208371 0.207793 0.207534 0.207447 0.207361 0.207105 0.206561 0.205846 0.205171 0.204496 0.203821 0.203180 0.202692 0.202473 0.202399 0.202326 0.202110 0.201648 0.201042 0.200469 0.199896 0.199323 0.198777 0.198361 0.198174 0.198111 0.198049 0.197864 0.197472 0.196958 0.196470 0.195983 0.195495 0.195027 0.194670 0.194509 0.194455 0.194402 0.194244 0.193909 0.193468 0.193042 0.192616 0.192190 0.191773 0.191455 0.191313 0.191265 0.191217 0.191076 0.190771 0.190370 0.189978 0.189587 0.189195 0.188826 0.188545 0.188417 0.188374 0.188331 0.188204 0.187929 0.187567 0.187222 0.186876 0.186531 0.186203 0.185953 0.185839 0.185801 0.185763 0.185649 0.185403 0.185079 0.184780 0.184480 0.184181 0.183895 0.183678 0.183580 0.183547 0.183514 0.183417 0.183219 0.182959 0.182720 0.182482 0.182244 0.182016 0.181842 0.181765 0.181739 0.181715 0.181646 0.181499 0.181307 0.181117 0.180926 0.180736 0.180557 0.180421 0.180365 0.180346 0.180327 0.180270 0.180149 0.179990 0.179837 0.179683 0.179530 0.179400 0.179301 0.179256 0.179240 0.179225 0.179179 0.179080 0.178948 0.178825 0.178702 0.178578 0.178465 0.178380 0.178340 0.178327 0.178314 0.178274 0.178188 0.178075 0.177977 0.177879 0.177781 0.177685 0.177611 0.177577 0.177566 0.177554 0.177520 0.177451 0.177360 0.177277 0.177194 0.177111 0.177027 0.176963 0.176933 0.176923 0.176914 0.176887 0.176833 0.176761 0.176687 0.176613 0.176540 0.176468 0.176414 0.176391 0.176384 0.176376 0.176354 0.176304 0.176240 0.176174 0.176108 0.176042 0.175986 0.175943 0.175923 0.175916 0.175910 0.175890 0.175846 0.175788 0.175733 0.175678 0.175623 0.175572 0.175533 0.175515 0.175509 0.175503 0.175485 0.175445 0.175393 0.175345 0.175298 0.175250 0.175202 0.175165 0.175147 0.175141 
