0.015536
12
0.013896
3
0.006948
23
0.015536
12
0.002404
16
D1
0.002448
14
D5
0.003516
11
D8
0.004475
9
D10
0.002635
14
D11
0.001088
31
D12
0.001986
17
D13
0.001396
23
D14
0.001511
20
D15
0.002007
15
D16
0.001851
13
D19
0.001216
17
D21
