0.187104 0.187075 0.186756 0.185362 0.183155 0.181158 0.179161 0.177164 0.175430 0.174336 0.174096 0.174075 0.174053 0.173812 0.172798 0.171192 0.169765 0.168337 0.166910 0.165643 0.164842 0.164672 0.164657 0.164641 0.164472 0.163737 0.162574 0.161509 0.160445 0.159380 0.158391 0.157767 0.157631 0.157619 0.157607 0.157472 0.156879 0.155941 0.155050 0.154159 0.153269 0.152417 0.151879 0.151760 0.151749 0.151739 0.151620 0.151098 0.150270 0.149471 0.148671 0.147872 0.147101 0.146615 0.146507 0.146498 0.146488 0.146381 0.145912 0.145169 0.144459 0.143749 0.143039 0.142372 0.141951 0.141859 0.141851 0.141843 0.141752 0.141351 0.140716 0.140130 0.139544 0.138958 0.138415 0.138072 0.137998 0.137992 0.137985 0.137911 0.137590 0.137081 0.136603 0.136125 0.135647 0.135193 0.134906 0.134843 0.134838 0.134832 0.134769 0.134495 0.134060 0.133645 0.133231 0.132816 0.132418 0.132167 0.132112 0.132107 0.132102 0.132047 0.131804 0.131419 0.131045 0.130671 0.130298 0.129936 0.129707 0.129657 0.129652 0.129648 0.129597 0.129374 0.129021 0.128682 0.128342 0.128003 0.127679 0.127474 0.127430 0.127426 0.127422 0.127377 0.127182 0.126873 0.126584 0.126295 0.126006 0.125738 0.125569 0.125532 0.125529 0.125526 0.125489 0.125332 0.125082 0.124852 0.124622 0.124392 0.124175 0.124038 0.124008 0.124006 0.124003 0.123973 0.123842 0.123634 0.123433 0.123232 0.123030 0.122834 0.122711 0.122683 0.122681 0.122678 0.122651 0.122529 0.122336 0.122147 0.121959 0.121770 0.121586 0.121470 0.121444 0.121442 0.121439 0.121414 0.121301 0.121121 0.120947 0.120774 0.120600 0.120433 0.120327 0.120304 0.120302 0.120300 0.120277 0.120175 0.120014 0.119860 0.119705 0.119551 0.119403 0.119310 0.119290 0.119288 
0.187117 0.187139 0.187312 0.187729 0.188285 0.188782 0.189279 0.189777 0.190227 0.190565 0.190684 0.190700 0.190715 0.190832 0.191135 0.191539 0.191907 0.192275 0.192643 0.192973 0.193220 0.193308 0.193319 0.193330 0.193414 0.193634 0.193928 0.194183 0.194439 0.194695 0.194922 0.195093 0.195151 0.195159 
0.187112 0.187117 0.187182 0.187074 0.186904 0.186242 0.185581 0.184919 0.184526 0.184277 0.184168 0.184159 0.184149 0.184030 0.183539 0.182760 0.181970 0.181180 0.180390 0.179423 0.178813 0.178677 0.178666 0.178656 0.178526 0.177928 0.176979 0.175945 0.174911 0.173877 0.172693 0.171945 0.171778 0.171764 0.171751 0.171585 0.170843 0.169668 0.168601 0.167533 0.166466 0.165311 0.164582 0.164406 0.164391 0.164377 0.164193 0.163238 0.161726 0.159014 0.156303 0.153592 0.149954 0.147658 0.147161 0.147121 0.147081 0.146589 0.144443 0.141043 0.138020 0.134998 0.131975 0.129653 0.128186 0.127913 0.127890 0.127869 0.127603 0.126575 0.124946 0.123874 0.122802 0.121730 0.120994 0.120528 0.120439 0.120432 0.120425 0.120338 0.119990 0.119440 0.119035 0.118631 0.118227 0.117926 0.117735 0.117698 0.117695 0.117692 0.117654 0.117503 0.117263 0.117074 0.116885 0.116696 0.116543 0.116446 0.116427 0.116425 0.116423 0.116404 0.116320 0.116187 0.116071 0.115955 0.115839 0.115735 0.115670 0.115656 0.115655 0.115653 0.115639 0.115579 0.115484 0.115398 0.115312 0.115226 0.115149 0.115100 0.115090 0.115089 0.115089 0.115078 0.115035 0.114965 0.114904 0.114844 0.114783 0.114730 0.114697 0.114690 0.114689 0.114689 0.114682 0.114652 0.114604 0.114563 0.114522 0.114480 0.114444 0.114422 0.114417 0.114417 0.114416 0.114412 0.114392 0.114360 0.114334 0.114308 0.114282 0.114259 0.114245 0.114241 0.114241 
0.120302 0.120302 0.120303 0.120303 0.120304 0.120303 0.120303 0.120303 0.120301 0.120300 0.120299 0.120299 0.120298 0.120298 0.120296 0.120293 0.120288 0.120283 0.120278 0.120272 0.120268 0.120266 0.120265 0.120264 0.120262 0.120255 0.120247 0.120241 0.120236 0.120230 0.120226 0.120222 0.120221 0.120220 0.120220 0.120218 0.120215 0.120210 0.120204 0.120198 0.120192 0.120185 0.120180 0.120178 0.120177 0.120177 0.120174 0.120168 0.120161 0.120153 0.120145 0.120137 0.120128 0.120121 0.120118 0.120117 0.120117 0.120114 0.120107 0.120097 0.120087 0.120077 0.120067 0.120056 0.120048 0.120044 0.120043 0.120042 0.120039 0.120030 0.120019 0.120007 0.119996 0.119984 0.119973 0.119964 0.119960 0.119959 0.119958 0.119954 0.119945 0.119933 0.119921 0.119909 0.119897 0.119885 0.119875 0.119872 0.119870 0.119869 0.119865 0.119856 0.119844 0.119832 0.119820 0.119808 0.119795 0.119786 0.119782 0.119781 
0.124005 0.124001 0.123989 0.123963 0.123928 0.123893 0.123858 0.123823 0.123796 0.123776 0.123768 0.123766 0.123763 0.123755 0.123737 0.123713 0.123689 0.123665 0.123642 0.123619 0.123602 0.123594 0.123592 0.123589 0.123581 0.123564 0.123541 0.123519 0.123498 0.123476 0.123454 0.123438 0.123431 0.123428 0.123426 0.123419 0.123403 0.123382 0.123362 0.123341 0.123321 0.123301 0.123286 0.123279 0.123277 0.123274 0.123268 0.123254 0.123235 0.123216 0.123197 0.123178 0.123160 0.123147 0.123141 0.123139 0.123137 0.123131 0.123118 0.123101 0.123084 0.123067 0.123050 0.123034 0.123022 0.123017 0.123015 0.123013 0.123008 0.122996 0.122980 0.122965 0.122951 0.122936 0.122922 0.122911 0.122906 0.122905 0.122903 0.122899 0.122888 0.122874 0.122862 0.122849 0.122837 0.122824 0.122814 0.122810 0.122809 0.122807 0.122803 0.122795 0.122784 0.122773 0.122762 0.122750 0.122740 0.122732 0.122728 0.122727 0.122726 0.122723 0.122716 0.122706 0.122696 0.122687 0.122677 0.122669 0.122663 0.122660 0.122659 
0.127426 0.127427 0.127430 0.127439 0.127451 0.127465 0.127480 0.127494 0.127520 0.127540 0.127546 0.127548 0.127549 0.127555 0.127571 0.127591 0.127602 0.127614 0.127626 0.127630 0.127633 0.127633 0.127633 0.127633 0.127631 0.127625 0.127617 0.127600 0.127583 0.127566 0.127539 0.127519 0.127510 0.127508 0.127507 0.127498 0.127472 0.127438 0.127398 0.127357 0.127316 0.127270 0.127236 0.127222 0.127220 0.127217 0.127203 0.127165 0.127114 0.127061 0.127007 0.126954 0.126897 0.126855 0.126838 0.126835 
0.129652 0.129652 0.129651 0.129648 0.129644 0.129637 0.129631 0.129625 0.129615 0.129607 0.129604 0.129603 0.129602 0.129598 0.129588 0.129575 0.129573 0.129572 0.129570 0.129572 0.129572 0.129573 0.129573 0.129573 0.129573 0.129573 0.129574 0.129572 0.129570 0.129568 0.129565 0.129563 0.129562 0.129562 0.129561 0.129559 0.129553 0.129546 0.129538 0.129530 0.129522 0.129510 0.129502 0.129498 0.129497 0.129496 0.129492 0.129482 0.129468 0.129452 0.129436 0.129420 0.129401 0.129387 0.129381 0.129379 0.129377 0.129371 0.129356 0.129336 0.129313 0.129291 0.129269 0.129245 0.129228 0.129220 0.129219 0.129217 0.129209 0.129189 0.129163 0.129137 0.129111 0.129084 0.129056 0.129035 0.129026 0.129024 0.129022 0.129013 0.128991 0.128963 0.128933 0.128903 0.128873 0.128842 0.128818 0.128808 0.128806 0.128803 0.128793 0.128769 0.128737 0.128703 0.128670 0.128636 0.128602 0.128576 0.128565 0.128562 
0.132106 0.132104 0.132094 0.132071 0.132042 0.132011 0.131980 0.131949 0.131914 0.131888 0.131877 0.131873 0.131870 0.131858 0.131831 0.131796 0.131757 0.131719 0.131680 0.131640 0.131610 0.131596 0.131592 0.131588 0.131575 0.131554 0.131526 0.131501 0.131476 0.131451 0.131426 0.131407 0.131399 0.131397 0.131394 0.131386 0.131368 0.131343 0.131319 0.131294 0.131270 0.131246 0.131228 0.131220 0.131218 0.131215 0.131207 0.131189 0.131165 0.131141 0.131117 0.131093 0.131068 0.131050 0.131042 0.131040 0.131037 0.131029 0.131011 0.130987 0.130963 0.130938 0.130914 0.130890 0.130872 0.130864 0.130862 0.130859 0.130851 0.130833 0.130809 0.130785 0.130762 0.130739 0.130715 0.130697 0.130689 0.130687 0.130685 0.130677 0.130660 0.130637 0.130614 0.130591 0.130568 0.130546 0.130529 0.130522 0.130520 0.130517 0.130510 0.130493 0.130471 0.130449 0.130427 0.130405 0.130383 0.130367 0.130360 0.130357 0.130355 0.130348 0.130332 0.130310 0.130288 0.130266 0.130244 0.130223 0.130206 0.130199 0.130197 0.130195 0.130188 0.130171 0.130149 0.130128 0.130106 0.130084 0.130062 0.130046 0.130038 0.130036 
0.137990 0.137983 0.137969 0.137943 0.137910 0.137878 0.137845 0.137813 0.137781 0.137756 0.137742 0.137735 0.137728 0.137715 0.137690 0.137657 0.137625 0.137592 0.137559 0.137526 0.137500 0.137486 0.137479 0.137472 0.137458 0.137432 0.137399 0.137366 0.137333 0.137300 0.137267 0.137241 0.137226 0.137219 0.137212 0.137197 0.137171 0.137137 0.137103 0.137069 0.137035 0.137001 0.136974 0.136959 0.136952 0.136945 0.136931 0.136904 0.136870 0.136835 0.136800 0.136765 0.136730 0.136703 0.136688 0.136681 0.136674 0.136659 0.136631 0.136596 0.136561 0.136526 0.136491 0.136455 0.136428 0.136412 0.136405 0.136397 0.136382 0.136354 0.136318 0.136282 0.136246 0.136210 0.136174 0.136147 0.136131 0.136124 0.136116 0.136101 0.136073 0.136036 0.136000 0.135963 0.135926 0.135890 0.135861 0.135846 0.135838 0.135830 0.135815 0.135786 0.135749 0.135713 0.135676 0.135639 0.135602 0.135573 0.135557 0.135549 0.135542 0.135526 0.135497 0.135460 0.135422 0.135385 0.135348 0.135311 0.135282 0.135266 0.135259 0.135251 0.135235 0.135208 0.135173 0.135143 0.135113 0.135083 0.135053 0.135029 0.135017 0.135011 0.135004 0.134992 0.134969 0.134939 0.134910 0.134881 0.134852 0.134824 0.134802 0.134790 0.134784 0.134778 0.134766 0.134745 0.134717 0.134689 0.134662 0.134634 0.134607 0.134585 0.134574 0.134568 0.134563 0.134552 0.134532 0.134506 0.134480 0.134454 0.134429 0.134403 0.134384 0.134373 0.134367 0.134362 0.134351 0.134332 0.134306 0.134282 0.134258 0.134234 0.134211 0.134193 0.134182 0.134178 0.134173 0.134163 0.134145 0.134121 0.134098 0.134075 0.134052 0.134029 0.134011 0.134002 0.133998 0.133993 0.133984 0.133968 0.133947 0.133926 0.133905 0.133884 0.133863 0.133846 0.133837 0.133833 0.133829 0.133820 0.133803 0.133782 0.133763 0.133744 0.133725 0.133706 0.133691 0.133683 0.133679 0.133675 0.133667 0.133653 0.133634 0.133615 0.133596 0.133577 0.133559 0.133546 0.133538 0.133535 0.133531 0.133524 0.133511 0.133494 0.133477 0.133460 0.133443 0.133426 0.133413 0.133405 0.133402 0.133398 0.133391 0.133379 0.133362 0.133347 0.133332 0.133317 0.133302 0.133291 0.133284 0.133281 0.133278 0.133271 0.133260 0.133245 0.133230 0.133215 0.133200 0.133187 0.133177 0.133171 0.133168 0.133166 0.133160 0.133150 0.133136 0.133123 0.133110 0.133096 0.133083 0.133073 0.133067 0.133064 0.133062 0.133056 0.133047 0.133035 0.133023 0.133012 0.133000 0.132989 0.132980 0.132975 0.132972 0.132970 0.132965 0.132955 0.132944 0.132933 0.132921 0.132910 0.132900 0.132892 0.132887 0.132885 0.132883 0.132879 0.132871 0.132861 0.132850 0.132840 0.132830 0.132819 0.132811 0.132807 0.132805 0.132803 0.132799 0.132792 0.132783 0.132774 0.132765 0.132756 0.132747 0.132740 0.132736 0.132734 0.132732 0.132728 0.132721 0.132712 0.132703 0.132695 0.132686 0.132678 0.132672 0.132669 0.132667 0.132665 0.132662 0.132655 0.132647 0.132639 0.132631 0.132622 0.132614 0.132608 0.132605 0.132604 0.132602 0.132599 0.132593 0.132586 0.132579 0.132571 0.132564 0.132557 0.132551 0.132548 0.132546 0.132545 0.132542 0.132536 0.132528 0.132522 0.132515 0.132508 0.132502 0.132497 0.132494 0.132493 
0.141849 0.141842 0.141806 0.141716 0.141596 0.141473 0.141351 0.141228 0.141109 0.141019 0.140983 0.140975 0.140968 0.140932 0.140842 0.140722 0.140599 0.140477 0.140354 0.140230 0.140136 0.140097 0.140089 0.140081 0.140043 0.139947 0.139819 0.139687 0.139556 0.139425 0.139290 0.139189 0.139148 0.139140 0.139131 0.139090 0.138987 0.138850 0.138710 0.138570 0.138429 0.138292 0.138189 0.138155 0.138148 0.138141 0.138108 0.138026 0.137916 0.137814 0.137711 0.137609 0.137514 0.137442 0.137414 0.137408 0.137402 0.137374 0.137308 0.137219 0.137136 0.137054 0.136971 0.136894 0.136836 0.136813 0.136808 0.136803 0.136780 0.136726 0.136655 0.136588 0.136520 0.136452 0.136389 0.136341 0.136322 0.136318 0.136314 0.136296 0.136252 0.136194 0.136139 0.136084 0.136029 0.135976 0.135936 0.135921 0.135918 0.135915 0.135901 0.135864 0.135816 0.135770 0.135724 0.135677 0.135633 0.135600 0.135587 0.135585 0.135582 0.135569 0.135538 0.135495 0.135455 0.135415 0.135374 0.135335 0.135306 0.135294 0.135292 
0.151747 0.151739 0.151710 0.151642 0.151552 0.151458 0.151365 0.151271 0.151173 0.151099 0.151067 0.151058 0.151049 0.151016 0.150939 0.150838 0.150732 0.150627 0.150521 0.150413 0.150331 0.150295 0.150285 0.150275 0.150239 0.150154 0.150042 0.149928 0.149814 0.149700 0.149583 0.149494 0.149455 0.149444 0.149434 0.149395 0.149306 0.149189 0.149070 0.148950 0.148831 0.148712 0.148622 0.148583 0.148572 0.148561 0.148522 0.148430 0.148308 0.148185 0.148063 0.147941 0.147817 0.147724 0.147683 0.147672 0.147661 0.147621 0.147528 0.147405 0.147281 0.147157 0.147033 0.146911 0.146818 0.146778 0.146767 0.146755 0.146716 0.146621 0.146497 0.146373 0.146249 0.146125 0.145999 0.145903 0.145862 0.145850 0.145839 0.145798 0.145702 0.145577 0.145449 0.145322 0.145194 0.145067 0.144970 0.144928 0.144917 0.144905 0.144863 0.144766 0.144638 0.144510 0.144382 0.144254 0.144150 0.144072 0.144040 0.144031 0.144022 0.143991 0.143919 0.143824 0.143735 0.143645 0.143556 0.143470 0.143405 0.143377 0.143369 0.143362 0.143334 0.143274 0.143195 0.143118 0.143042 0.142965 0.142894 0.142839 0.142816 0.142810 0.142804 0.142781 0.142728 0.142659 0.142593 0.142528 0.142463 0.142399 0.142351 0.142331 0.142325 0.142319 0.142299 0.142254 0.142195 0.142138 0.142080 0.142022 0.141967 0.141926 0.141909 0.141904 0.141899 0.141882 0.141841 0.141788 0.141738 0.141687 0.141637 0.141588 0.141550 0.141534 0.141530 0.141525 0.141509 0.141474 0.141428 0.141382 0.141337 0.141291 0.141247 0.141214 0.141200 0.141196 0.141192 0.141179 0.141146 0.141103 0.141062 0.141020 0.140979 0.140938 0.140908 0.140894 0.140891 0.140887 0.140874 0.140844 0.140805 0.140766 0.140727 0.140689 0.140650 0.140622 0.140609 0.140606 0.140603 0.140590 0.140562 0.140524 0.140487 0.140450 0.140412 0.140375 0.140347 0.140335 0.140331 
0.174074 0.174070 0.174056 0.174011 0.173950 0.173861 0.173772 0.173683 0.173564 0.173474 0.173433 0.173422 0.173412 0.173370 0.173260 0.173114 0.172941 0.172767 0.172594 0.172391 0.172237 0.172170 0.172153 0.172136 0.172068 0.171898 0.171674 0.171426 0.171179 0.170932 0.170659 0.170454 0.170365 0.170342 0.170320 0.170231 0.170017 0.169733 0.169442 0.169151 0.168860 0.168565 0.168342 0.168250 0.168227 0.168205 0.168114 0.167891 0.167597 0.167311 0.167024 0.166738 0.166457 0.166245 0.166159 0.166138 0.166116 0.166031 0.165829 0.165561 0.165309 0.165058 0.164806 0.164603 0.164450 0.164385 0.164369 0.164352 0.164287 0.164131 0.163923 0.163709 0.163494 0.163280 0.163058 0.162891 0.162820 0.162802 0.162784 0.162712 0.162537 0.162306 0.162075 0.161843 0.161612 0.161373 0.161193 0.161116 0.161097 0.161077 0.160998 0.160806 0.160552 0.160293 0.160034 0.159775 0.159522 0.159331 0.159253 0.159233 0.159214 0.159137 0.158953 0.158710 0.158481 0.158252 0.158023 0.157811 0.157652 0.157589 0.157574 0.157558 0.157496 0.157350 0.157157 0.156982 0.156806 0.156631 0.156469 0.156347 0.156298 0.156285 0.156273 0.156225 0.156119 0.155980 0.155846 0.155711 0.155577 0.155458 0.155368 0.155330 0.155321 0.155312 0.155275 0.155189 0.155076 0.154971 0.154867 0.154762 0.154666 0.154593 0.154564 0.154557 0.154550 0.154520 0.154450 0.154357 0.154272 0.154186 0.154100 0.154015 0.153951 0.153927 0.153921 0.153915 0.153891 0.153832 0.153755 0.153679 0.153604 0.153528 0.153456 0.153401 0.153378 0.153373 0.153367 0.153344 0.153292 0.153223 0.153153 0.153084 0.153015 0.152949 0.152899 0.152878 0.152872 
