-2.078518 -1.405673 1.020142
-1.731597 -1.386193 2.168213
-1.334012 -1.404620 3.300692
-1.035948 -1.349317 4.460511
-0.882211 -1.191492 5.640173
-0.758684 -1.012914 6.820813
-0.636256 -0.833589 8.001455
-2.078055 -1.405556 1.022085
-1.732257 -1.386165 2.166325
-1.730938 -1.386222 2.170100
-1.334636 -1.404619 3.298792
-1.333388 -1.404622 3.302593
-1.036295 -1.349517 4.458552
-1.035601 -1.349117 4.462471
-0.882419 -1.191788 5.638206
-0.882002 -1.191197 5.642140
-0.758888 -1.013213 6.818846
-0.758480 -1.012615 6.822780
-0.636460 -0.833887 7.999488
-2.072150 -1.404061 1.046856
-1.740671 -1.385800 2.142246
-1.722487 -1.386615 2.194166
-1.342598 -1.404596 3.274558
-1.325427 -1.404645 3.326827
-1.040720 -1.352066 4.433559
-1.031176 -1.346568 4.487463
-0.885077 -1.195560 5.613118
-0.879344 -1.187424 5.667228
-0.761490 -1.017023 6.793758
-0.755879 -1.008804 6.847868
-0.639071 -0.837691 7.974400
-2.044841 -1.397719 1.158855
-1.998117 -1.390194 1.335518
-1.947583 -1.385471 1.511231
-1.893668 -1.383259 1.685988
-1.837124 -1.383016 1.859926
-1.778510 -1.384333 2.033174
-1.683958 -1.388606 2.302988
-1.622400 -1.392159 2.475182
-1.560608 -1.395891 2.647289
-1.499127 -1.399384 2.819511
-1.438460 -1.402259 2.992033
-1.379110 -1.404133 3.165026
-1.290256 -1.404098 3.436797
-1.236839 -1.401514 3.611702
-1.186803 -1.396423 3.787546
-1.140654 -1.388479 3.964340
-1.098947 -1.377309 4.142059
-1.061843 -1.362836 4.320562
-1.012154 -1.334320 4.600682
-0.984810 -1.312974 4.780260
-0.960175 -1.289750 4.959997
-0.937714 -1.265030 5.139820
-0.916894 -1.239185 5.319684
-0.897196 -1.212574 5.499564
-0.867336 -1.170336 5.780782
-0.848388 -1.143214 5.960666
-0.829518 -1.116038 6.140550
-0.810717 -1.088817 6.320434
-0.791972 -1.061557 6.500319
-0.773275 -1.034264 6.680203
-0.744109 -0.991553 6.961423
-0.725476 -0.964217 7.141307
-0.706849 -0.936877 7.321192
-0.688216 -0.909541 7.501076
-0.669564 -0.882217 7.680960
-0.650883 -0.854914 7.860845
80 NaN NaN
-2.078634 -1.405702 1.019657
-2.055149 -1.399758 1.118178
-2.030256 -1.394835 1.216409
-2.004059 -1.390864 1.314344
-1.976660 -1.387776 1.411982
-1.948162 -1.385501 1.509328
-1.918665 -1.383968 1.606389
-1.888268 -1.383106 1.703182
-1.857069 -1.382846 1.799722
-1.825163 -1.383117 1.896031
-1.792645 -1.383851 1.992133
-1.759608 -1.384978 2.088054
-1.726143 -1.386430 2.183821
-1.692340 -1.388139 2.279466
-1.658288 -1.390037 2.375020
-1.624076 -1.392058 2.470513
-1.589792 -1.394133 2.565980
-1.555524 -1.396197 2.661452
-1.521359 -1.398181 2.756963
-1.487386 -1.400020 2.852546
-1.453693 -1.401645 2.948231
-1.420370 -1.402989 3.044050
-1.387507 -1.403983 3.140032
-1.355197 -1.404560 3.236205
-1.323532 -1.404650 3.332594
-1.292608 -1.404183 3.429222
-1.262521 -1.403090 3.526108
-1.233368 -1.401301 3.623270
-1.205251 -1.398744 3.720718
-1.178269 -1.395349 3.818462
-1.152525 -1.391047 3.916503
-1.128122 -1.385768 4.014839
-1.105162 -1.379444 4.113460
-1.083673 -1.372063 4.212339
-1.063573 -1.363691 4.311431
-1.044769 -1.354399 4.410695
-1.027168 -1.344259 4.510097
-1.010675 -1.333341 4.609607
-0.995194 -1.321717 4.709200
-0.980631 -1.309456 4.808854
-0.966889 -1.296626 4.908554
-0.953873 -1.283296 5.008286
-0.941489 -1.269532 5.108039
-0.929641 -1.255400 5.207805
-0.918235 -1.240965 5.307581
-0.907178 -1.226293 5.407360
-0.896375 -1.211447 5.507142
-0.885733 -1.196491 5.606925
-0.875161 -1.181488 5.706709
-0.864620 -1.166465 5.806492
-0.854105 -1.151422 5.906275
-0.843616 -1.136363 6.006059
-0.833151 -1.121287 6.105842
-0.822707 -1.106197 6.205626
-0.812283 -1.091093 6.305410
-0.801877 -1.075977 6.405193
-0.791487 -1.060850 6.504977
-0.781111 -1.045714 6.604760
-0.770747 -1.030570 6.704544
-0.760393 -1.015418 6.804328
-0.750048 -1.000261 6.904112
-0.739708 -0.985100 7.003895
-0.729373 -0.969936 7.103679
-0.719040 -0.954770 7.203463
-0.708708 -0.939604 7.303246
-0.698374 -0.924439 7.403030
-0.688036 -0.909277 7.502814
-0.677693 -0.894118 7.602597
-0.667342 -0.878964 7.702381
-0.656982 -0.863817 7.802165
-0.646611 -0.848677 7.901948
-0.636227 -0.833547 8.001732
-0.625827 -0.818427 8.101516
-0.615410 -0.803318 8.201299
-0.604975 -0.788222 8.301083
-0.594518 -0.773141 8.400866
-0.584038 -0.758075 8.500650
-0.573534 -0.743026 8.600433
-0.563003 -0.727995 8.700217
-0.552443 -0.712983 8.800000
-2.078216 -1.405677 1.019384
-1.683903 -1.382226 0.761419
-1.289591 -1.358774 0.503454
-0.895278 -1.335322 0.245489
-2.076545 -1.405578 1.018290
-1.685575 -1.382325 0.762512
-1.682232 -1.382126 0.760325
-1.291262 -1.358873 0.504548
-1.287919 -1.358674 0.502360
-0.896950 -1.335421 0.246583
-2.061490 -1.404682 1.008441
-1.700630 -1.383220 0.772361
-1.667177 -1.381231 0.750476
-1.306317 -1.359769 0.514397
-1.272865 -1.357779 0.492512
-0.912004 -1.336317 0.256432
-2.019917 -1.402210 0.981244
-1.964374 -1.398907 0.944907
-1.908831 -1.395603 0.908570
-1.853288 -1.392300 0.872233
-1.797745 -1.388996 0.835896
-1.742202 -1.385693 0.799559
-1.625605 -1.378758 0.723279
-1.570062 -1.375455 0.686942
-1.514519 -1.372151 0.650605
-1.458976 -1.368848 0.614268
-1.403433 -1.365545 0.577931
-1.347889 -1.362241 0.541594
-1.231292 -1.355306 0.465314
-1.175749 -1.352003 0.428977
-1.120206 -1.348700 0.392640
-1.064663 -1.345396 0.356303
-1.009120 -1.342093 0.319966
-0.953577 -1.338789 0.283629
19 NaN NaN
-2.078634 -1.405702 1.019657
-1.992045 -1.400552 0.963009
-1.905456 -1.395402 0.906362
-1.818867 -1.390253 0.849714
-1.732279 -1.385103 0.793067
-1.645690 -1.379953 0.736419
-1.559101 -1.374803 0.679771
-1.472512 -1.369653 0.623124
-1.385923 -1.364503 0.566476
-1.299334 -1.359353 0.509828
-1.212746 -1.354203 0.453181
-1.126157 -1.349054 0.396533
-1.039568 -1.343904 0.339886
-0.952979 -1.338754 0.283238
-0.866390 -1.333604 0.226590
-0.779801 -1.328454 0.169943
-0.693213 -1.323304 0.113295
-0.606624 -1.318154 0.056648
-0.520035 -1.313004 0.000000
-2.079060 -1.405961 1.019614
-3.138806 -1.595503 0.445211
-3.664247 -1.006554 -0.566495
-3.986786 -0.126971 -1.446292
-4.261029 0.799290 -2.301841
-4.540464 1.730723 -3.150188
-4.824239 2.662813 -3.996369
-5.104800 3.588424 -4.850470
-5.387857 4.481181 -5.738156
-5.712209 5.326001 -6.657794
-6.099228 6.092101 -7.620737
-6.566907 6.746139 -8.629035
-7.127218 7.258253 -9.671295
-7.783048 7.608299 -10.724675
-8.522886 7.790611 -11.764861
-2.080763 -1.406994 1.019443
-3.137536 -1.596045 0.446658
-3.140076 -1.594962 0.443764
-3.663606 -1.007622 -0.564929
-3.664887 -1.005487 -0.568060
-3.986392 -0.128443 -1.444997
-3.987180 -0.125499 -1.447588
-4.260594 0.797849 -2.300524
-4.261465 0.800730 -2.303158
-4.540027 1.729280 -3.148873
-4.540901 1.732165 -3.151503
-4.823798 2.661366 -3.995061
-4.824680 2.664260 -3.997678
-5.104387 3.587020 -4.849106
-5.105215 3.589826 -4.851835
-5.387394 4.479825 -5.736760
-5.388320 4.482537 -5.739551
-5.711665 5.324742 -6.656338
-5.712753 5.327260 -6.659249
-6.098571 6.090991 -7.619209
-6.099886 6.093211 -7.622266
-6.566111 6.745230 -8.627441
-6.567702 6.747049 -8.630629
-7.126272 7.257585 -9.669664
-7.128164 7.258920 -9.672925
-7.781958 7.607894 -10.723048
-7.784138 7.608703 -10.726303
-8.521689 7.790447 -11.763268
-2.104026 -1.421108 1.017100
-3.120197 -1.603439 0.466419
-3.156593 -1.586679 0.423682
-3.654862 -1.022195 -0.543553
-3.673621 -0.990873 -0.589413
-3.981010 -0.148542 -1.427310
-3.992563 -0.105399 -1.465275
-4.254651 0.778175 -2.282539
-4.267408 0.820404 -2.321143
-4.534060 1.709584 -3.130921
-4.546867 1.751862 -3.169455
-4.817783 2.641613 -3.977188
-4.830702 2.684017 -4.015544
-5.098758 3.567842 -4.830497
-5.110875 3.608970 -4.870470
-5.381072 4.461312 -5.717705
-5.394682 4.501007 -5.758635
-5.704233 5.307552 -6.636461
-5.720190 5.344445 -6.679129
-6.089591 6.075833 -7.598343
-6.108865 6.108369 -7.643132
-6.555253 6.732815 -8.605674
-6.578560 6.759463 -8.652396
-7.113360 7.248467 -9.647394
-7.141078 7.268035 -9.695196
-7.767148 7.602222 -10.700816
-7.799024 7.614225 -10.748523
-8.505347 7.788179 -11.741505
-2.210897 -1.482294 1.002390
-2.384647 -1.561465 0.956756
-2.559172 -1.617635 0.886467
-2.729634 -1.649501 0.794368
-2.891093 -1.655225 0.682833
-3.037777 -1.632549 0.554422
-3.227074 -1.544295 0.330746
-3.324924 -1.465191 0.179722
-3.408365 -1.376113 0.025544
-3.481524 -1.281447 -0.130569
-3.549197 -1.184832 -0.287981
-3.614640 -1.086821 -0.445470
-3.712384 -0.920563 -0.684107
-3.771240 -0.800291 -0.828134
-3.825620 -0.669979 -0.965027
-3.874186 -0.531395 -1.095864
-3.917065 -0.387044 -1.222412
-3.956597 -0.240522 -1.347560
-4.017232 -0.014732 -1.546438
-4.057116 0.127353 -1.676492
-4.098451 0.268045 -1.807606
-4.141118 0.408025 -1.939055
-4.184376 0.548087 -2.070223
-4.227544 0.688904 -2.200611
-4.294364 0.909946 -2.402825
-4.336856 1.051999 -2.532090
-4.379215 1.194122 -2.661320
-4.421620 1.336204 -2.790581
-4.464209 1.478165 -2.919914
-4.506983 1.620043 -3.049277
-4.574022 1.841420 -3.251054
-4.617151 1.983352 -3.380240
-4.660410 2.125363 -3.509295
-4.703775 2.267464 -3.638216
-4.747158 2.409629 -3.767060
-4.790466 2.551831 -3.895889
-4.858138 2.773870 -4.096724
-4.901980 2.916380 -4.225031
-4.946136 3.058898 -4.353221
-4.989814 3.200798 -4.482255
-5.032157 3.341394 -4.613146
-5.073152 3.480537 -4.746006
-5.136736 3.695975 -4.955193
-5.178452 3.833576 -5.089429
-5.220981 3.970688 -5.223911
-5.264154 4.107046 -5.358951
-5.307945 4.242489 -5.494714
-5.352492 4.376959 -5.631193
-5.423850 4.584709 -5.845582
-5.470887 4.716370 -5.983951
-5.519018 4.846742 -6.123163
-5.568318 4.975712 -6.263269
-5.618866 5.103176 -6.404305
-5.670746 5.229024 -6.546305
-5.754552 5.421884 -6.769897
-5.810180 5.543068 -6.914511
-5.867395 5.662219 -7.060189
-5.926266 5.779219 -7.206949
-5.986858 5.893945 -7.354798
-6.049231 6.006277 -7.503742
-6.150287 6.176454 -7.738343
-6.217488 6.282102 -7.890050
-6.286665 6.384936 -8.042801
-6.357874 6.484826 -8.196567
-6.431163 6.581659 -8.351308
-6.506558 6.675349 -8.506970
-6.628471 6.815070 -8.751557
-6.709416 6.900268 -8.909297
-6.792576 6.981991 -9.067720
-6.877970 7.060165 -9.226745
-6.965613 7.134714 -9.386285
-7.055511 7.205573 -9.546251
-7.200272 7.308663 -9.796495
-7.295926 7.369813 -9.957127
-7.393794 7.427095 -10.117851
-7.493843 7.480477 -10.278575
-7.596033 7.529933 -10.439207
-7.700310 7.575456 -10.599661
-7.867045 7.638639 -10.849484
-7.976376 7.674094 -11.009112
-8.087547 7.705655 -11.168287
-8.200475 7.733354 -11.326942
-8.315071 7.757241 -11.485020
-8.431248 7.777365 -11.642467
189 NaN NaN
-2.078634 -1.405702 1.019657
-2.164099 -1.457557 1.011051
-2.251643 -1.503831 0.994849
-2.340441 -1.544342 0.971558
-2.429758 -1.578939 0.941651
-2.518929 -1.607477 0.905551
-2.607327 -1.629790 0.863631
-2.694328 -1.645674 0.816223
-2.779288 -1.654882 0.763630
-2.861506 -1.657123 0.706154
-2.940209 -1.652074 0.644120
-3.014527 -1.639403 0.577914
-3.083638 -1.619029 0.508085
-3.147348 -1.591861 0.435475
-3.205859 -1.559060 0.360833
-3.259535 -1.521700 0.284707
-3.308816 -1.480731 0.207468
-3.354166 -1.436977 0.129349
-3.396072 -1.391079 0.050536
-3.435095 -1.343570 -0.028803
-3.471861 -1.294967 -0.108558
-3.507031 -1.245762 -0.188665
-3.541284 -1.196424 -0.269088
-3.575034 -1.146985 -0.349661
-3.608286 -1.096829 -0.429997
-3.641005 -1.045292 -0.509674
-3.673142 -0.991728 -0.588241
-3.704630 -0.935517 -0.665203
-3.735364 -0.876239 -0.740141
-3.765161 -0.814045 -0.813068
-3.793827 -0.749192 -0.884107
-3.821177 -0.681919 -0.953395
-3.847027 -0.612450 -1.021075
-3.871209 -0.541009 -1.087302
-3.893823 -0.467981 -1.152343
-3.915194 -0.393871 -1.216579
-3.935667 -0.319164 -1.280415
-3.955589 -0.244329 -1.344274
-3.975311 -0.169824 -1.408582
-3.995093 -0.095948 -1.473591
-4.015032 -0.022668 -1.539224
-4.035203 0.050092 -1.605364
-4.055681 0.122405 -1.671897
-4.076544 0.194351 -1.738710
-4.097835 0.266009 -1.805696
-4.119479 0.337480 -1.872768
-4.141377 0.408868 -1.939847
-4.163427 0.480277 -2.006853
-4.185528 0.551814 -2.073706
-4.207588 0.623572 -2.140336
-4.229576 0.695554 -2.206747
-4.251492 0.767721 -2.272982
-4.273338 0.840029 -2.339084
-4.295114 0.912440 -2.405098
-4.316822 0.984912 -2.471067
-4.338474 1.057417 -2.537018
-4.360092 1.129939 -2.602961
-4.381701 1.202464 -2.668905
-4.403324 1.274976 -2.734857
-4.424984 1.347462 -2.800827
-4.446699 1.419911 -2.866819
-4.468467 1.492331 -2.932825
-4.490282 1.564731 -2.998838
-4.512140 1.637119 -3.064849
-4.534036 1.709506 -3.130850
-4.555967 1.781899 -3.196832
-4.577931 1.854303 -3.262790
-4.599928 1.926723 -3.328721
-4.621959 1.999160 -3.394621
-4.644024 2.071619 -3.460486
-4.666123 2.144102 -3.526313
-4.688250 2.216609 -3.592104
-4.710391 2.289136 -3.657868
-4.732533 2.361679 -3.723614
-4.754662 2.434233 -3.789352
-4.776765 2.506795 -3.855091
-4.798842 2.579364 -3.920830
-4.820928 2.651951 -3.986547
-4.843062 2.724568 -4.052215
-4.865281 2.797226 -4.117808
-4.887624 2.869936 -4.183301
-4.910116 2.942702 -4.248682
-4.932676 3.015455 -4.314052
-4.955185 3.088105 -4.379555
-4.977521 3.160557 -4.445336
-4.999564 3.232715 -4.511538
-5.021193 3.304482 -4.578298
-5.042385 3.375824 -4.645651
-5.063268 3.446807 -4.713480
-5.083984 3.517505 -4.781656
-5.104673 3.587996 -4.850053
-5.125478 3.658360 -4.918547
-5.146519 3.728660 -4.987035
-5.167808 3.798885 -5.055522
-5.189321 3.869001 -5.124052
-5.211034 3.938970 -5.192667
-5.232922 4.008758 -5.261412
-5.254963 4.078330 -5.330328
-5.277153 4.147663 -5.399435
-5.299513 4.216751 -5.468733
-5.322063 4.285588 -5.538219
-5.344823 4.354168 -5.607890
-5.367812 4.422486 -5.677744
-5.391050 4.490532 -5.747780
-5.414546 4.558293 -5.818005
-5.438308 4.625754 -5.888430
-5.462344 4.692900 -5.959063
-5.486663 4.759715 -6.029913
-5.511272 4.826183 -6.100988
-5.536182 4.892291 -6.172294
-5.561403 4.958024 -6.243837
-5.586947 5.023368 -6.315621
-5.612825 5.088309 -6.387651
-5.639047 5.152833 -6.459931
-5.665624 5.216924 -6.532466
-5.692566 5.280568 -6.605259
-5.719882 5.343749 -6.678316
-5.747583 5.406452 -6.751639
-5.775676 5.468659 -6.825234
-5.804173 5.530357 -6.899104
-5.833081 5.591528 -6.973250
-5.862410 5.652157 -7.047676
-5.892170 5.712228 -7.122383
-5.922367 5.771725 -7.197373
-5.953013 5.830632 -7.272647
-5.984114 5.888931 -7.348206
-6.015679 5.946608 -7.424050
-6.047715 6.003647 -7.500178
-6.080231 6.060031 -7.576590
-6.113234 6.115744 -7.653285
-6.146731 6.170771 -7.730261
-6.180729 6.225095 -7.807516
-6.215235 6.278701 -7.885046
-6.250256 6.331575 -7.962848
-6.285798 6.383701 -8.040918
-6.321867 6.435064 -8.119251
-6.358469 6.485648 -8.197844
-6.395609 6.535441 -8.276689
-6.433293 6.584429 -8.355780
-6.471526 6.632597 -8.435110
-6.510313 6.679931 -8.514673
-6.549659 6.726420 -8.594460
-6.589568 6.772049 -8.674463
-6.630043 6.816809 -8.754673
-6.671089 6.860686 -8.835079
-6.712709 6.903669 -8.915674
-6.754907 6.945745 -8.996446
-6.797684 6.986906 -9.077385
-6.841044 7.027141 -9.158479
-6.884988 7.066440 -9.239718
-6.929518 7.104794 -9.321089
-6.974635 7.142193 -9.402582
-7.020341 7.178629 -9.484182
-7.066633 7.214093 -9.565880
-7.113513 7.248580 -9.647661
-7.160979 7.282081 -9.729514
-7.209030 7.314589 -9.811426
-7.257665 7.346098 -9.893383
-7.306879 7.376602 -9.975375
-7.356669 7.406099 -10.057388
-7.407031 7.434582 -10.139410
-7.457960 7.462048 -10.221429
-7.509451 7.488493 -10.303432
-7.561499 7.513914 -10.385408
-7.614095 7.538312 -10.467345
-7.667232 7.561684 -10.549231
-7.720902 7.584030 -10.631056
-7.775098 7.605350 -10.712809
-7.829811 7.625644 -10.794478
-7.885030 7.644915 -10.876055
-7.940745 7.663167 -10.957528
-7.996945 7.680402 -11.038890
-8.053621 7.696623 -11.120130
-8.110762 7.711835 -11.201240
-8.168356 7.726043 -11.282211
-8.226391 7.739254 -11.363035
-8.284855 7.751474 -11.443706
-8.343737 7.762711 -11.524216
-8.403026 7.772972 -11.604558
-8.462709 7.782264 -11.684726
-8.522774 7.790597 -11.764713
-8.583209 7.797983 -11.844515
-8.644002 7.804430 -11.924126
-8.705142 7.809949 -12.003541
-8.766616 7.814550 -12.082755
-8.828415 7.818243 -12.161765
-8.890526 7.821037 -12.240566
-8.952940 7.822944 -12.319155
-9.015645 7.823972 -12.397528
-0.758560 -1.012453 6.820664
-0.712037 -0.821800 6.761062
-0.685154 -0.625533 6.708130
-0.682720 -0.425349 6.664162
-0.709518 -0.224830 6.631845
-0.768579 -0.029605 6.613605
-0.859363 0.153899 6.610603
-0.977582 0.320747 6.622181
-1.117057 0.468904 6.646298
-1.271859 0.598861 6.680470
-0.758064 -1.010609 6.820069
-0.712446 -0.823674 6.761628
-0.711629 -0.819925 6.760495
-0.685352 -0.627461 6.708623
-0.684955 -0.623605 6.707636
-0.682657 -0.427309 6.664557
-0.682784 -0.423390 6.663767
-0.709145 -0.226777 6.632114
-0.709891 -0.222883 6.631577
-0.767877 -0.031474 6.613724
-0.769282 -0.027736 6.613485
-0.858353 0.152173 6.610569
-0.860373 0.155625 6.610638
-0.976321 0.319204 6.622007
-0.978842 0.322290 6.622355
-1.115614 0.467550 6.646010
-1.118501 0.470258 6.646586
-1.270288 0.597683 6.680093
-0.755911 -1.002606 6.817487
-0.714219 -0.831808 6.764086
-0.710081 -0.811726 6.758114
-0.686213 -0.635828 6.710766
-0.684094 -0.615237 6.705494
-0.682381 -0.435813 6.666274
-0.683059 -0.414885 6.662051
-0.707529 -0.235225 6.633280
-0.711507 -0.214435 6.630411
-0.764828 -0.039585 6.614243
-0.772331 -0.019626 6.612966
-0.853969 0.144683 6.610419
-0.864757 0.163116 6.610787
-0.970852 0.312505 6.621252
-0.984311 0.328989 6.623110
-1.109347 0.461675 6.644759
-1.124767 0.476133 6.647837
-1.263468 0.592568 6.678457
-0.750626 -0.982969 6.811150
-0.743621 -0.956934 6.802750
-0.736615 -0.930899 6.794349
-0.730106 -0.904693 6.786110
-0.724337 -0.878230 6.778114
-0.718569 -0.851768 6.770117
-0.706784 -0.791462 6.752439
-0.702412 -0.764596 6.744916
-0.698040 -0.737731 6.737393
-0.693930 -0.710806 6.729963
-0.691128 -0.683583 6.722993
-0.688327 -0.656361 6.716023
-0.683179 -0.594513 6.700676
-0.682134 -0.567011 6.694350
-0.681088 -0.539509 6.688025
-0.680042 -0.512007 6.681699
-0.680809 -0.484350 6.676067
-0.681705 -0.456682 6.670484
-0.684685 -0.394012 6.658220
-0.687695 -0.366336 6.653483
-0.690705 -0.338659 6.648747
-0.693715 -0.310983 6.644010
-0.698301 -0.283441 6.639934
-0.703561 -0.255956 6.636141
-0.715980 -0.193796 6.627772
-0.723569 -0.166736 6.625004
-0.731157 -0.139677 6.622236
-0.738746 -0.112617 6.619468
-0.747426 -0.085873 6.617206
-0.757346 -0.059487 6.615517
-0.779813 0.000277 6.611692
-0.791948 0.025767 6.611085
-0.804117 0.051243 6.610493
-0.816285 0.076719 6.609902
-0.828949 0.101934 6.609566
-0.843211 0.126302 6.610052
-0.875515 0.181496 6.611154
-0.891195 0.204924 6.612411
-0.907341 0.228044 6.613921
-0.923487 0.251163 6.615431
-0.939639 0.274277 6.616944
-0.957432 0.296069 6.619400
-0.997732 0.345425 6.624962
-1.016256 0.366515 6.627862
-1.035457 0.386956 6.631172
-1.054657 0.407398 6.634482
-1.073858 0.427839 6.637793
-1.093972 0.447257 6.641689
-1.140143 0.490551 6.650908
-1.160811 0.509300 6.655169
-1.182182 0.527141 6.659909
-1.203553 0.544982 6.664648
-1.224924 0.562822 6.669387
-1.246733 0.580017 6.674440
20 NaN NaN
-0.758684 -1.012914 6.820813
-0.732416 -0.915294 6.789314
-0.710789 -0.816074 6.759331
-0.694397 -0.715344 6.731125
-0.683893 -0.613282 6.704993
-0.679972 -0.510173 6.681277
-0.683332 -0.406448 6.660348
-0.694616 -0.302695 6.642592
-0.714334 -0.199665 6.628372
-0.742781 -0.098231 6.617996
-0.779963 0.000677 6.611667
-0.825579 0.096176 6.609451
-0.879043 0.187524 6.611274
-0.939570 0.274192 6.616935
-1.006273 0.355886 6.626141
-1.078258 0.432523 6.638551
-1.154686 0.504187 6.653811
-1.234813 0.571078 6.671580
-1.318002 0.633466 6.691544
-1.403720 0.691652 6.713424
-1.035695 -1.348896 4.460418
-0.923515 -1.154360 4.419004
-0.827171 -0.950531 4.383032
-0.753121 -0.736531 4.354750
-0.711055 -0.513091 4.337559
-0.713593 -0.285415 4.335934
-0.770950 -0.066043 4.353588
-0.881465 0.129451 4.390113
-1.031644 0.293089 4.440872
-1.206720 0.426482 4.500680
-1.034681 -1.347213 4.460044
-0.924405 -1.156120 4.419336
-0.922624 -1.152600 4.418673
-0.827891 -0.952376 4.383304
-0.826450 -0.948685 4.382759
-0.753600 -0.738463 4.354939
-0.752642 -0.734598 4.354561
-0.711194 -0.515085 4.337630
-0.710917 -0.511097 4.337489
-0.713284 -0.287389 4.335848
-0.713903 -0.283441 4.336021
-0.770157 -0.067862 4.353331
-0.771742 -0.064225 4.353845
-0.880276 0.127894 4.389714
-0.882655 0.131008 4.390512
-1.030190 0.291807 4.440377
-1.033097 0.294371 4.441366
-1.205108 0.425435 4.500127
-1.029871 -1.339222 4.458273
-0.928808 -1.164369 4.420968
-0.918398 -1.144246 4.417102
-0.831311 -0.961138 4.384598
-0.823030 -0.939923 4.381465
-0.755876 -0.747637 4.355837
-0.750366 -0.725425 4.353663
-0.711849 -0.524550 4.337964
-0.710262 -0.501632 4.337155
-0.711815 -0.296760 4.335437
-0.715372 -0.274071 4.336431
-0.766396 -0.076492 4.352110
-0.775504 -0.055594 4.355067
-0.874628 0.120502 4.387818
-0.888303 0.138400 4.392407
-1.023292 0.285721 4.438030
-1.039995 0.300457 4.443714
-1.197455 0.420467 4.497503
-1.017823 -1.319207 4.453835
-1.001828 -1.292635 4.447943
-0.985833 -1.266063 4.442050
-0.970380 -1.239137 4.436344
-0.955281 -1.211980 4.430759
-0.940181 -1.184824 4.425175
-0.907812 -1.123321 4.413165
-0.893757 -1.095539 4.407939
-0.879702 -1.067758 4.402713
-0.866611 -1.039457 4.397818
-0.853784 -1.011013 4.393015
-0.840958 -0.982569 4.388211
-0.814465 -0.917979 4.378225
-0.803093 -0.888844 4.373923
-0.791721 -0.859710 4.369621
-0.782019 -0.829902 4.365896
-0.772381 -0.800068 4.362193
-0.762742 -0.770235 4.358490
-0.744667 -0.702449 4.351415
-0.737101 -0.671945 4.348430
-0.729891 -0.641358 4.345568
-0.724796 -0.610274 4.343442
-0.719702 -0.579191 4.341315
-0.714607 -0.548107 4.339189
-0.708620 -0.477924 4.336319
-0.706441 -0.446450 4.335208
-0.705352 -0.414951 4.334480
-0.706528 -0.383403 4.334543
-0.707704 -0.351855 4.334606
-0.708880 -0.320307 4.334670
-0.719050 -0.250601 4.337460
-0.723935 -0.219441 4.338825
-0.730785 -0.188764 4.340884
-0.739536 -0.158555 4.343614
-0.748287 -0.128345 4.346343
-0.757038 -0.098135 4.349073
-0.784925 -0.033977 4.358126
-0.797433 -0.005277 4.362187
-0.812292 0.022078 4.367086
-0.828195 0.048836 4.372357
-0.844098 0.075593 4.377628
-0.860481 0.101988 4.383071
-0.902450 0.156914 4.397155
-0.921231 0.181494 4.403457
-0.942050 0.204133 4.410494
-0.963159 0.226494 4.417636
-0.984268 0.248856 4.424778
-1.006015 0.270478 4.432151
-1.057272 0.315700 4.449593
-1.080290 0.335828 4.457427
-1.104645 0.354110 4.465750
-1.128999 0.372392 4.474073
-1.153354 0.390674 4.482396
-1.178287 0.408024 4.490931
21 NaN NaN
-1.035948 -1.349317 4.460511
-0.979519 -1.255574 4.439725
-0.926252 -1.159771 4.420022
-0.876671 -1.061766 4.401586
-0.831423 -0.961425 4.384640
-0.791308 -0.858653 4.369465
-0.757310 -0.753419 4.356403
-0.730623 -0.645829 4.345874
-0.712656 -0.536204 4.338375
-0.704970 -0.425212 4.334459
-0.709116 -0.313978 4.334682
-0.726336 -0.204123 4.339497
-0.757185 -0.097625 4.349119
-0.801282 0.003554 4.363437
-0.857352 0.097893 4.382021
-0.923579 0.184566 4.404245
-0.998023 0.263426 4.429431
-1.078925 0.334804 4.456961
-1.164830 0.399288 4.486318
-1.254598 0.457562 4.517095
-1.347357 0.510300 4.548980
-1.333661 -1.404276 3.300606
-1.245956 -1.317855 3.279013
-1.160414 -1.229013 3.258637
-1.077459 -1.137450 3.239690
-0.997651 -1.042815 3.222445
-0.921736 -0.944700 3.207259
-0.850727 -0.842641 3.194600
-0.786034 -0.736143 3.185098
-0.729767 -0.624691 3.179664
-0.685952 -0.507718 3.179969
-0.657767 -0.386392 3.187092
-0.649653 -0.263034 3.202434
-0.664991 -0.141944 3.226683
-0.704068 -0.028317 3.259171
-0.763649 0.074022 3.298046
-0.838808 0.163857 3.341185
-0.925164 0.241690 3.386934
-1.019391 0.308821 3.434180
-1.118626 0.367708 3.482160
-1.221464 0.419709 3.530526
-1.332254 -1.402897 3.300258
-1.247333 -1.319268 3.279343
-1.244580 -1.316442 3.278682
-1.161755 -1.230463 3.258947
-1.159073 -1.227562 3.258326
-1.078759 -1.138943 3.239978
-1.076160 -1.135957 3.239402
-0.998901 -1.044355 3.222706
-0.996402 -1.041275 3.222184
-0.922923 -0.946293 3.207487
-0.920548 -0.943107 3.207030
-0.851839 -0.844293 3.194790
-0.849616 -0.840989 3.194410
-0.787048 -0.737861 3.185240
-0.785019 -0.734426 3.184956
-0.730520 -0.626542 3.179683
-0.729039 -0.622828 3.179657
-0.686467 -0.509648 3.179882
-0.685436 -0.505787 3.180056
-0.658012 -0.388367 3.186892
-0.657523 -0.384417 3.187293
-0.649571 -0.265006 3.202106
-0.649735 -0.261063 3.202763
-0.664557 -0.143842 3.226227
-0.665424 -0.140046 3.227139
-0.703303 -0.030076 3.258605
-0.704832 -0.026557 3.259736
-0.762612 0.072439 3.297399
-0.764687 0.075605 3.298693
-0.837565 0.162455 3.340484
-0.840050 0.165258 3.341886
-0.923667 0.240598 3.386180
-0.926660 0.242781 3.387689
-1.017818 0.307853 3.433414
-1.020965 0.309790 3.434946
-1.116997 0.366844 3.481387
-1.120256 0.368572 3.482932
-1.219792 0.418934 3.529750
-1.328122 -1.398847 3.299238
-1.251377 -1.323418 3.280314
-1.240536 -1.312292 3.277712
-1.165696 -1.234725 3.259861
-1.155132 -1.223301 3.257412
-1.082577 -1.143328 3.240824
-1.072342 -1.131572 3.238555
-1.002571 -1.048879 3.223473
-0.992732 -1.036752 3.221417
-0.926413 -0.950972 3.208160
-0.917059 -0.938428 3.206357
-0.855103 -0.849146 3.195347
-0.846351 -0.836136 3.193852
-0.790029 -0.742907 3.185657
-0.782039 -0.729380 3.184539
-0.733135 -0.631798 3.179924
-0.726902 -0.617355 3.179637
-0.687982 -0.515319 3.179627
-0.683921 -0.500116 3.180311
-0.658730 -0.394169 3.186303
-0.656804 -0.378616 3.187881
-0.649332 -0.270796 3.201141
-0.649974 -0.255273 3.203728
-0.663283 -0.149419 3.224886
-0.666699 -0.134469 3.228480
-0.701057 -0.035244 3.256942
-0.707078 -0.021389 3.261399
-0.759565 0.067789 3.295499
-0.767734 0.080255 3.300594
-0.833915 0.158336 3.338426
-0.843700 0.169377 3.343944
-0.919489 0.237094 3.384006
-0.931057 0.245988 3.389904
-1.013196 0.305007 3.431164
-1.025586 0.312635 3.437196
-1.112209 0.364304 3.479118
-1.125043 0.371112 3.485202
-1.214880 0.416654 3.527470
-1.319154 -1.390057 3.297023
-1.307372 -1.378510 3.294113
-1.295590 -1.366963 3.291203
-1.283809 -1.355415 3.288293
-1.272027 -1.343868 3.285383
-1.260245 -1.332321 3.282473
-1.231759 -1.303285 3.275605
-1.220229 -1.291453 3.272837
-1.208699 -1.279620 3.270069
-1.197169 -1.267787 3.267301
-1.185639 -1.255955 3.264533
-1.174248 -1.243973 3.261843
-1.146580 -1.214053 3.255430
-1.135345 -1.201904 3.252826
-1.124110 -1.189754 3.250222
-1.112875 -1.177605 3.247618
-1.101747 -1.165347 3.245073
-1.090862 -1.152844 3.242661
-1.064057 -1.122055 3.236719
-1.053172 -1.109553 3.234306
-1.042287 -1.097051 3.231893
-1.031463 -1.084491 3.229513
-1.020999 -1.071594 3.227326
-1.010535 -1.058696 3.225138
-0.984767 -1.026934 3.219752
-0.974304 -1.014037 3.217565
-0.963840 -1.001139 3.215377
-0.953882 -0.987807 3.213455
-0.943934 -0.974467 3.211537
-0.933985 -0.961126 3.209620
-0.909486 -0.928274 3.204897
-0.899537 -0.914933 3.202980
-0.890113 -0.901187 3.201330
-0.880805 -0.887351 3.199739
-0.871497 -0.873514 3.198149
-0.862189 -0.859678 3.196558
-0.839266 -0.825604 3.192641
-0.830489 -0.811407 3.191314
-0.821991 -0.797020 3.190126
-0.813493 -0.782633 3.188938
-0.804995 -0.768245 3.187750
-0.796497 -0.753858 3.186561
-0.776085 -0.718133 3.183882
-0.768630 -0.703147 3.183195
-0.761175 -0.688162 3.182508
-0.753720 -0.673176 3.181821
-0.746265 -0.658191 3.181134
-0.738810 -0.643205 3.180447
-0.722262 -0.605478 3.179592
-0.716167 -0.589875 3.179534
-0.710072 -0.574272 3.179476
-0.703976 -0.558669 3.179418
-0.697881 -0.543066 3.179360
-0.691786 -0.527462 3.179302
-0.680634 -0.487809 3.180865
-0.676315 -0.471640 3.181592
-0.671996 -0.455471 3.182319
-0.667677 -0.439302 3.183047
-0.663358 -0.423133 3.183774
-0.660289 -0.406759 3.185025
-0.655245 -0.366025 3.189159
-0.653197 -0.349484 3.190838
-0.651148 -0.332943 3.192516
-0.649100 -0.316402 3.194195
-0.648129 -0.299874 3.196296
-0.648812 -0.283364 3.199047
-0.650494 -0.242705 3.205822
-0.651177 -0.226195 3.208573
-0.651861 -0.209685 3.211324
-0.653252 -0.193322 3.214332
-0.656885 -0.177422 3.218154
-0.660518 -0.161522 3.221977
-0.669464 -0.122366 3.231390
-0.673097 -0.106466 3.235212
-0.676970 -0.090667 3.239114
-0.683374 -0.075932 3.243854
-0.689778 -0.061196 3.248594
-0.696182 -0.046461 3.253334
-0.711953 -0.010173 3.265007
-0.718357 0.004563 3.269747
-0.726890 0.017922 3.275119
-0.735577 0.031180 3.280538
-0.744265 0.044438 3.285956
-0.752952 0.057697 3.291375
-0.774346 0.090347 3.304718
-0.784367 0.102430 3.310485
-0.794773 0.114172 3.316354
-0.805180 0.125914 3.322222
-0.815587 0.137656 3.328091
-0.825994 0.149398 3.333959
-0.852386 0.177458 3.348583
-0.864033 0.187809 3.354732
-0.875681 0.198161 3.360880
-0.887328 0.208512 3.367029
-0.898976 0.218863 3.373177
-0.910623 0.229214 3.379326
-0.940598 0.252946 3.394713
-0.953134 0.262089 3.401030
-0.965669 0.271231 3.407346
-0.978204 0.280373 3.413663
-0.990740 0.289515 3.419980
-1.003275 0.298657 3.426297
-1.035617 0.318811 3.442079
-1.048794 0.326924 3.448494
-1.061971 0.335037 3.454910
-1.075148 0.343150 3.461325
-1.088326 0.351263 3.467740
-1.101819 0.358793 3.474193
-1.135434 0.376623 3.490127
-1.149084 0.383864 3.496598
-1.162734 0.391104 3.503069
-1.176384 0.398345 3.509539
-1.190213 0.405210 3.516024
-1.204219 0.411708 3.522523
23 NaN NaN
-1.334012 -1.404620 3.300692
-1.255946 -1.328106 3.281411
-1.179546 -1.249702 3.263071
-1.105102 -1.169200 3.245817
-1.032979 -1.086360 3.229830
-0.963649 -1.000904 3.215337
-0.897734 -0.912515 3.202632
-0.836064 -0.820845 3.192094
-0.779766 -0.725532 3.184222
-0.730382 -0.626265 3.179670
-0.690013 -0.522924 3.179285
-0.661417 -0.415865 3.184101
-0.647859 -0.306382 3.195212
-0.652380 -0.197141 3.213414
-0.676414 -0.091947 3.238702
-0.718791 0.005562 3.270068
-0.776300 0.093329 3.305937
-0.845213 0.171084 3.344797
-0.922360 0.239645 3.385522
-1.005399 0.300207 3.427368
-1.092699 0.353955 3.469870
-1.183137 0.401927 3.512740
-1.275933 0.444981 3.555802
-1.731169 -1.385945 2.168281
-1.574952 -1.293511 2.193866
-1.422531 -1.195501 2.221414
-1.275092 -1.090792 2.251332
-1.135002 -0.977340 2.284373
-1.004168 -0.854371 2.320850
-0.887248 -0.719387 2.361739
-0.791777 -0.570259 2.407980
-0.725265 -0.407948 2.459495
-0.701734 -0.235632 2.515678
-0.725104 -0.064013 2.573118
-0.788828 0.098129 2.628707
-0.885992 0.244554 2.680162
-1.003227 0.376980 2.727630
-1.134405 0.497179 2.771500
-1.729455 -1.384950 2.168555
-1.576642 -1.294542 2.193579
-1.573262 -1.292481 2.194153
-1.424161 -1.196616 2.221097
-1.420901 -1.194387 2.221730
-1.276683 -1.091956 2.250998
-1.273500 -1.089628 2.251666
-1.136491 -0.978621 2.283997
-1.133513 -0.976059 2.284749
-1.005500 -0.855799 2.320421
-1.002836 -0.852942 2.321280
-0.888469 -0.720902 2.361277
-0.886026 -0.717872 2.362201
-0.792677 -0.571963 2.407446
-0.790877 -0.568555 2.408515
-0.725665 -0.409813 2.458892
-0.724865 -0.406084 2.460098
-0.701825 -0.237530 2.515054
-0.701643 -0.233734 2.516302
-0.724578 -0.065840 2.572498
-0.725631 -0.062186 2.573738
-0.787836 0.096490 2.628133
-0.789819 0.099769 2.629280
-0.884836 0.243016 2.679617
-0.887148 0.246093 2.680707
-1.001842 0.375623 2.727138
-1.004611 0.378337 2.728122
-1.132941 0.495899 2.771031
-1.722673 -1.381015 2.169640
-1.583331 -1.298620 2.192444
-1.566573 -1.288402 2.195288
-1.430614 -1.201028 2.219844
-1.414449 -1.189975 2.222983
-1.282984 -1.096563 2.249676
-1.267228 -1.084988 2.253001
-1.142385 -0.983692 2.282508
-1.127619 -0.970988 2.286237
-1.010773 -0.861454 2.318720
-0.997563 -0.847288 2.322981
-0.893305 -0.726897 2.359450
-0.881190 -0.711877 2.364028
-0.796241 -0.578707 2.405331
-0.787313 -0.561810 2.410630
-0.727249 -0.417192 2.456504
-0.723281 -0.398704 2.462486
-0.702185 -0.245042 2.512584
-0.701283 -0.226222 2.518773
-0.722493 -0.073072 2.570042
-0.727716 -0.054955 2.576193
-0.784450 0.089741 2.625796
-0.793745 0.106258 2.631548
-0.880261 0.236926 2.677461
-0.891723 0.252182 2.682864
-0.996362 0.370253 2.725190
-1.010091 0.383707 2.730070
-1.127147 0.490836 2.769174
-1.706419 -1.371584 2.172241
-1.684906 -1.359102 2.175682
-1.663393 -1.346620 2.179124
-1.641879 -1.334137 2.182566
-1.620578 -1.321330 2.186122
-1.599361 -1.308394 2.189723
-1.550543 -1.278629 2.198009
-1.529520 -1.265410 2.201709
-1.508648 -1.251973 2.205487
-1.487776 -1.238536 2.209265
-1.466904 -1.225098 2.213042
-1.446077 -1.211600 2.216841
-1.398986 -1.179402 2.225986
-1.378520 -1.165409 2.229960
-1.358053 -1.151416 2.233934
-1.338049 -1.136830 2.238119
-1.318065 -1.122217 2.242313
-1.298082 -1.107604 2.246507
-1.252568 -1.073424 2.256356
-1.233165 -1.058117 2.260798
-1.213763 -1.042811 2.265239
-1.194360 -1.027505 2.269681
-1.175205 -1.011927 2.274220
-1.156510 -0.995843 2.278941
-1.113494 -0.958836 2.289804
-1.094972 -0.942580 2.294587
-1.077152 -0.925623 2.299624
-1.059331 -0.908666 2.304661
-1.041511 -0.891710 2.309699
-1.023690 -0.874753 2.314736
-0.984926 -0.833739 2.327057
-0.968201 -0.815805 2.332451
-0.951475 -0.797871 2.337846
-0.935570 -0.779297 2.343478
-0.920232 -0.760280 2.349274
-0.904894 -0.741264 2.355071
-0.870380 -0.696995 2.368602
-0.856814 -0.676808 2.374841
-0.843248 -0.656622 2.381080
-0.829682 -0.636435 2.387319
-0.816115 -0.616248 2.393558
-0.804782 -0.594871 2.400261
-0.778772 -0.545647 2.415699
-0.767468 -0.524253 2.422409
-0.758541 -0.501913 2.429506
-0.750080 -0.479387 2.436680
-0.741619 -0.456861 2.443854
-0.733157 -0.434335 2.451028
-0.719484 -0.381020 2.468208
-0.714459 -0.357613 2.475782
-0.709435 -0.334207 2.483356
-0.705329 -0.310701 2.490991
-0.704188 -0.286873 2.498827
-0.703047 -0.263045 2.506663
-0.700775 -0.208234 2.524699
-0.703640 -0.184575 2.532607
-0.706506 -0.160916 2.540514
-0.709372 -0.137258 2.548421
-0.712237 -0.113599 2.556328
-0.717497 -0.090401 2.564159
-0.732712 -0.037626 2.582077
-0.739325 -0.014689 2.589865
-0.747515 0.007712 2.597525
-0.757350 0.029554 2.605053
-0.767185 0.051397 2.612581
-0.777019 0.073239 2.620109
-0.803152 0.121810 2.636984
-0.815602 0.142394 2.644179
-0.828053 0.162977 2.651374
-0.840504 0.183561 2.658569
-0.854784 0.203018 2.665451
-0.869296 0.222333 2.672292
-0.902688 0.266775 2.688033
-0.918384 0.285211 2.694621
-0.934506 0.303331 2.701119
-0.950628 0.321451 2.707617
-0.966750 0.339571 2.714114
-0.983229 0.357384 2.720522
-1.023225 0.396576 2.734738
-1.040607 0.413610 2.740917
-1.058120 0.430517 2.747057
-1.076500 0.446578 2.752947
-1.094880 0.462639 2.758836
-1.113260 0.478701 2.764725
24 NaN NaN
-1.731597 -1.386193 2.168213
-1.635778 -1.330597 2.183542
-1.541279 -1.272981 2.199581
-1.448317 -1.213132 2.216406
-1.357164 -1.150807 2.234107
-1.268160 -1.085724 2.252787
-1.181745 -1.017554 2.272569
-1.098485 -0.945923 2.293594
-1.019123 -0.870406 2.316027
-0.944640 -0.790542 2.340051
-0.876341 -0.705864 2.365861
-0.815939 -0.615985 2.393639
-0.765617 -0.520750 2.423507
-0.727958 -0.420493 2.455436
-0.705599 -0.316338 2.489137
-0.700522 -0.210321 2.524002
-0.713272 -0.105053 2.559184
-0.742700 -0.002981 2.593839
-0.786475 0.094240 2.627347
-0.841905 0.185877 2.659379
-0.906522 0.271878 2.689840
-0.978313 0.352567 2.718774
-1.055724 0.428423 2.746290
-1.137580 0.499953 2.772517
-1.683485 -1.382033 0.761613
-1.363762 -1.225303 0.913869
-1.059993 -1.045077 1.072453
-0.786182 -0.828644 1.239402
-0.575046 -0.557422 1.414528
-0.514399 -0.219016 1.580668
-0.661899 0.115948 1.691528
-0.930901 0.388085 1.743074
-1.681811 -1.381260 0.762388
-1.365380 -1.226165 0.913068
-1.362145 -1.224441 0.914669
-1.061482 -1.046111 1.071609
-1.058504 -1.044043 1.073297
-0.787486 -0.829876 1.238517
-0.784878 -0.827412 1.240286
-0.575762 -0.559052 1.413618
-0.574330 -0.555791 1.415438
-0.514192 -0.220853 1.579905
-0.514606 -0.217179 1.581432
-0.660671 0.114413 1.691162
-0.663127 0.117484 1.691893
-0.929368 0.386812 1.742904
-1.669209 -1.375448 0.768227
-1.377557 -1.232651 0.907039
-1.349968 -1.217955 0.920698
-1.072925 -1.053606 1.065321
-1.047293 -1.036258 1.079654
-0.797302 -0.839149 1.231859
-0.775061 -0.818139 1.246945
-0.581787 -0.570991 1.406754
-0.568938 -0.543516 1.422289
-0.512635 -0.234682 1.574158
-0.516164 -0.203350 1.587179
-0.651438 0.102845 1.688403
-0.672374 0.129043 1.694646
-0.917828 0.377227 1.741621
-1.635116 -1.359724 0.784023
-1.589647 -1.338707 0.805110
-1.544602 -1.316990 0.826400
-1.499571 -1.295250 0.847695
-1.455034 -1.272726 0.869212
-1.410499 -1.250197 0.890730
-1.317099 -1.200302 0.937036
-1.273815 -1.175904 0.959062
-1.230598 -1.151413 0.981113
-1.188098 -1.125920 1.003424
-1.145657 -1.100349 1.025754
-1.104082 -1.073630 1.048371
-1.016964 -1.015200 1.096850
-0.976688 -0.986873 1.119847
-0.937557 -0.957209 1.143143
-0.898627 -0.927327 1.166483
-0.861139 -0.895883 1.190146
-0.823858 -0.864236 1.213846
-0.749038 -0.792578 1.265031
-0.716208 -0.756786 1.289424
-0.683988 -0.720518 1.313872
-0.654511 -0.682108 1.338564
-0.625732 -0.643236 1.363281
-0.600612 -0.601939 1.388131
-0.554351 -0.510308 1.440823
-0.536636 -0.465311 1.465406
-0.524338 -0.418189 1.489535
-0.513958 -0.370607 1.513374
-0.510239 -0.321425 1.536204
-0.508421 -0.272093 1.558610
-0.523177 -0.166187 1.601893
-0.537830 -0.117064 1.619953
-0.554743 -0.068522 1.637171
-0.577193 -0.021402 1.652326
-0.601312 0.025010 1.666736
-0.629965 0.069502 1.679121
-0.697388 0.160314 1.702092
-0.732017 0.201114 1.711292
-0.768946 0.240211 1.719141
-0.806760 0.278521 1.726411
-0.846368 0.315235 1.732509
-0.886608 0.351297 1.738153
27 NaN NaN
-1.683903 -1.382226 0.761419
-1.591894 -1.339790 0.804048
-1.500788 -1.295866 0.847107
-1.410708 -1.250309 0.890626
-1.321805 -1.202954 0.934641
-1.234260 -1.153609 0.979190
-1.148303 -1.102050 1.024315
-1.064217 -1.048010 1.070058
-0.982368 -0.991178 1.116465
-0.903227 -0.931185 1.163580
-0.827413 -0.867594 1.211434
-0.755753 -0.799898 1.260042
-0.689364 -0.727522 1.309369
-0.629761 -0.649859 1.359295
-0.578978 -0.566373 1.409532
-0.539638 -0.476813 1.459516
-0.514789 -0.381600 1.508272
-0.507277 -0.282249 1.554390
-0.518634 -0.181417 1.596294
-0.548236 -0.082178 1.632778
-0.593603 0.013039 1.663404
-0.651520 0.102973 1.688438
-0.719002 0.187334 1.708525
-0.793672 0.266390 1.724397
-0.873769 0.340633 1.736727
-0.958015 0.410605 1.746086
-1.045487 0.476813 1.752939
-1.289195 -1.358469 0.503468
-1.021897 -1.138719 0.515144
-0.782905 -0.889263 0.534451
-0.598451 -0.599116 0.565692
-0.523291 -0.267800 0.614090
-0.606993 0.058486 0.676568
-0.810764 0.329039 0.740996
-1.287611 -1.357248 0.503523
-1.023354 -1.140086 0.515052
-1.020439 -1.137352 0.515236
-0.784135 -0.890833 0.534304
-0.781674 -0.887693 0.534598
-0.599230 -0.600943 0.565459
-0.597672 -0.597289 0.565925
-0.523244 -0.269772 0.613756
-0.523338 -0.265829 0.614424
-0.606085 0.056745 0.676192
-0.607901 0.060228 0.676945
-0.809381 0.327640 0.740632
-1.276825 -1.348937 0.503901
-1.033390 -1.149275 0.514456
-1.010513 -1.128043 0.515861
-0.792517 -0.901525 0.533301
-0.773293 -0.877001 0.535601
-0.604538 -0.613389 0.563875
-0.592364 -0.584843 0.567509
-0.522924 -0.283199 0.611478
-0.523659 -0.252402 0.616702
-0.599900 0.044882 0.673625
-0.614086 0.072091 0.679512
-0.799965 0.318113 0.738153
-1.248033 -1.326752 0.504910
-1.209646 -1.297175 0.506256
-1.171919 -1.266776 0.507800
-1.134384 -1.236139 0.509403
-1.097318 -1.204953 0.511141
-1.060789 -1.173138 0.513036
-0.984018 -1.103196 0.517532
-0.948695 -1.070068 0.519759
-0.914827 -1.035481 0.522367
-0.880966 -1.000887 0.524977
-0.848340 -0.965168 0.527892
-0.816276 -0.928937 0.530945
-0.750921 -0.848461 0.538276
-0.721706 -0.809980 0.541973
-0.694698 -0.769938 0.546139
-0.667691 -0.729895 0.550305
-0.643939 -0.687925 0.555099
-0.620511 -0.645762 0.559956
-0.578197 -0.551623 0.571739
-0.561801 -0.506499 0.577752
-0.548575 -0.460314 0.584241
-0.536257 -0.413954 0.590844
-0.529815 -0.366471 0.598187
-0.523373 -0.318987 0.605530
-0.524514 -0.216563 0.622782
-0.530804 -0.169392 0.631268
-0.539665 -0.122527 0.639945
-0.551099 -0.076382 0.648743
-0.567078 -0.031509 0.657755
-0.583391 0.013216 0.666774
-0.630596 0.103756 0.686363
-0.656923 0.143392 0.695470
-0.683765 0.182720 0.704575
-0.712814 0.220394 0.713610
-0.743417 0.256902 0.722595
-0.774832 0.292683 0.731535
21 NaN NaN
-1.289591 -1.358774 0.503454
-1.200996 -1.290509 0.506559
-1.114365 -1.219800 0.510257
-1.030059 -1.146374 0.514629
-0.948536 -1.069919 0.519769
-0.870389 -0.990082 0.525793
-0.796393 -0.906469 0.532838
-0.727564 -0.818665 0.541070
-0.665245 -0.726269 0.550682
-0.611193 -0.628993 0.561888
-0.567622 -0.526826 0.574897
-0.537119 -0.420308 0.589861
-0.522265 -0.310818 0.606793
-0.524893 -0.200654 0.625480
-0.545323 -0.092601 0.645486
-0.582171 0.010877 0.666268
-0.632939 0.108250 0.687335
-0.694863 0.198980 0.708339
-0.765474 0.283214 0.729071
-0.842796 0.361449 0.749430
-0.925321 0.434299 0.769375
