0.183250 0.183281 0.183696 0.185682 0.188830 0.192292 0.195754 0.199216 0.202819 0.205093 0.205594 0.205631 0.205668 0.206160 0.208389 0.211919 0.215245 0.218571 0.221897 0.224690 0.226452 0.226798 0.226824 0.226849 0.227184 0.228435 0.230418 0.230888 0.231358 0.231828 0.230690 0.229972 0.229747 0.229730 0.229713 0.229481 0.228163 0.226076 0.223422 0.220767 0.218113 0.215289 0.213507 0.213114 0.213085 0.213056 0.212663 0.210888 0.208075 0.205373 0.202671 0.199968 0.197438 0.195840 0.195495 0.195470 0.195445 0.195102 0.193579 0.191166 0.188953 0.186740 0.184527 0.182473 0.181177 0.180899 0.180878 
0.183237 0.183214 0.182992 0.182346 0.181465 0.180561 0.179656 0.178752 0.177811 0.177119 0.176877 0.176851 0.176826 0.176582 0.175870 0.174900 0.173902 0.172905 0.171908 0.170902 0.170164 0.169913 0.169887 0.169861 0.169614 0.168932 0.168004 0.167255 0.166506 0.165758 0.165144 0.164693 0.164543 0.164528 
0.183245 0.183254 0.183384 0.183159 0.182801 0.180374 0.177947 0.175519 0.172595 0.170749 0.170333 0.170304 0.170276 0.169862 0.168052 0.165183 0.162791 0.160399 0.158007 0.156018 0.154762 0.154512 0.154495 0.154478 0.154233 0.153217 0.151606 0.150317 0.149027 0.147738 0.146586 0.145859 0.145701 0.145690 0.145679 0.145520 0.144814 0.143694 0.142547 0.141401 0.140254 0.139000 0.138207 0.138023 0.138010 0.137997 0.137810 0.136898 0.135452 0.133833 0.132213 0.130594 0.129044 0.128066 0.127865 0.127851 0.127837 0.127640 0.126796 0.125460 0.124290 0.123120 0.121950 0.120930 0.120286 0.120156 0.120147 0.120138 0.120010 0.119502 0.118698 0.118195 0.117693 0.117190 0.116869 0.116667 0.116629 0.116626 0.116624 0.116587 0.116435 0.116194 0.116001 0.115808 0.115615 0.115446 0.115339 0.115317 0.115315 0.115314 0.115291 0.115192 0.115035 0.114892 0.114748 0.114604 0.114474 0.114392 0.114375 0.114374 0.114372 0.114356 0.114283 0.114168 0.114076 0.113985 0.113894 0.113826 0.113784 0.113776 0.113775 0.113775 0.113766 0.113733 0.113680 0.113639 0.113598 0.113556 0.113523 0.113501 0.113497 0.113497 0.113496 0.113492 0.113474 0.113444 0.113420 0.113395 0.113371 0.113350 0.113338 0.113335 0.113335 0.113335 0.113332 0.113321 0.113304 0.113291 0.113277 0.113264 0.113254 0.113248 0.113247 0.113247 
0.195459 0.195416 0.195307 0.195086 0.194798 0.194515 0.194232 0.193949 0.193668 0.193454 0.193349 0.193307 0.193266 0.193161 0.192948 0.192671 0.192396 0.192122 0.191848 0.191576 0.191368 0.191268 0.191229 0.191189 0.191090 0.190888 0.190625 0.190367 0.190109 0.189851 0.189598 0.189405 0.189311 0.189274 0.189238 0.189144 0.188956 0.188710 0.188470 0.188230 0.187990 0.187756 0.187578 0.187488 0.187453 0.187418 0.187330 0.187151 0.186917 0.186688 0.186459 0.186229 0.186004 0.185831 0.185746 0.185713 0.185680 0.185595 0.185426 0.185204 0.184986 0.184767 0.184549 0.184333 0.184167 0.184086 0.184055 0.184023 0.183943 0.183782 0.183573 0.183368 0.183163 0.182958 0.182755 0.182600 0.182525 0.182495 0.182466 0.182392 0.182252 0.182069 0.181895 0.181720 0.181545 0.181375 0.181245 0.181183 0.181159 0.181135 0.181074 0.180957 0.180804 0.180658 0.180511 0.180365 0.180221 0.180111 0.180058 0.180037 0.180016 0.179962 0.179858 0.179721 0.179592 0.179462 0.179333 0.179205 0.179107 0.179060 0.179041 0.179022 0.178975 0.178883 0.178762 0.178651 0.178539 0.178428 0.178317 0.178233 0.178191 0.178175 0.178159 0.178118 0.178036 0.177928 0.177828 0.177728 0.177628 0.177527 0.177450 0.177412 0.177397 0.177382 0.177345 0.177269 0.177171 0.177081 0.176991 0.176902 0.176812 0.176744 0.176710 0.176697 0.176684 0.176650 0.176582 0.176493 0.176412 0.176331 0.176251 0.176169 0.176107 0.176076 0.176064 0.176052 0.176021 0.175960 0.175879 0.175805 0.175731 0.175656 0.175581 0.175524 0.175496 0.175484 0.175473 0.175445 0.175387 0.175312 0.175243 0.175174 0.175105 0.175036 0.174983 0.174957 0.174947 0.174936 0.174910 0.174857 0.174788 0.174724 0.174660 0.174596 0.174533 0.174484 0.174460 0.174450 0.174441 0.174416 0.174367 0.174302 0.174241 0.174181 0.174120 0.174060 0.174014 0.173991 0.173982 0.173973 0.173950 0.173903 0.173842 0.173784 0.173726 0.173668 0.173610 0.173566 0.173544 0.173535 0.173526 0.173504 0.173459 0.173401 0.173344 0.173287 0.173231 0.173175 0.173132 0.173110 0.173102 
0.229696 0.229560 0.228664 0.226404 0.223392 0.220737 0.218082 0.215426 0.213043 0.211256 0.210617 0.210520 0.210425 0.209795 0.208208 0.206094 0.204235 0.202377 0.200519 0.198878 0.197647 0.197214 0.197148 0.197084 0.196659 0.195585 0.194154 0.192900 0.191646 0.190392 0.189286 0.188456 0.188163 0.188119 0.188075 0.187787 0.187059 0.186088 0.185237 0.184387 0.183536 0.182817 0.182277 0.182092 0.182064 0.182037 0.181854 0.181428 0.180861 0.180410 0.179958 0.179507 0.179153 0.178887 0.178794 0.178780 0.178766 0.178672 0.178461 0.178180 0.177942 0.177705 0.177467 0.177287 0.177151 0.177100 0.177092 0.177084 0.177034 0.176930 0.176792 0.176685 0.176578 0.176471 0.176402 0.176350 0.176331 0.176328 
0.226794 0.226676 0.226214 0.225134 0.223703 0.222335 0.220967 0.219600 0.218281 0.217284 0.216874 0.216769 0.216665 0.216258 0.215306 0.214045 0.212842 0.211640 0.210437 0.209291 0.208424 0.208070 0.207979 0.207890 0.207538 0.206720 0.205637 0.204603 0.203570 0.202537 0.201560 0.200822 0.200522 0.200445 0.200369 0.200071 0.199374 0.198452 0.197582 0.196713 0.195843 0.195026 0.194408 0.194158 0.194094 0.194030 0.193782 0.193204 0.192439 0.191717 0.190994 0.190271 0.189592 0.189079 0.188870 0.188817 0.188764 0.188557 0.188079 0.187445 0.186842 0.186239 0.185636 0.185054 0.184614 0.184436 0.184390 0.184345 0.184168 0.183756 0.183210 0.182694 0.182178 0.181662 0.181171 0.180801 0.180647 0.180608 0.180569 0.180417 0.180066 0.179602 0.179160 0.178719 0.178277 0.177875 0.177571 0.177447 0.177416 0.177384 0.177261 0.176971 0.176586 0.176252 0.175918 0.175583 0.175310 0.175104 0.175032 0.175014 0.174996 0.174924 0.174759 0.174539 0.174352 0.174165 0.173978 0.173822 0.173704 0.173654 0.173641 0.173629 0.173579 0.173480 0.173350 0.173225 0.173100 0.172975 0.172882 0.172811 0.172782 0.172774 0.172767 0.172737 0.172665 0.172571 0.172501 0.172431 0.172361 0.172290 0.172236 0.172220 0.172216 0.172212 0.172195 0.172156 0.172104 0.172061 0.172017 0.171974 0.171939 0.171913 0.171902 0.171899 0.171896 0.171885 0.171871 0.171852 0.171835 0.171818 0.171802 0.171802 0.171803 0.171804 0.171804 
0.205617 0.205561 0.205373 0.204939 0.204366 0.203792 0.203218 0.202645 0.202061 0.201618 0.201423 0.201365 0.201307 0.201112 0.200666 0.200077 0.199484 0.198890 0.198297 0.197700 0.197248 0.197050 0.196992 0.196933 0.196735 0.196283 0.195687 0.195083 0.194480 0.193876 0.193277 0.192823 0.192622 0.192562 0.192503 0.192302 0.191853 0.191260 0.190688 0.190116 0.189544 0.188980 0.188553 0.188367 0.188312 0.188257 0.188072 0.187659 0.187114 0.186614 0.186113 0.185613 0.185148 0.184795 0.184647 0.184603 0.184559 0.184412 0.184081 0.183645 0.183242 0.182840 0.182437 0.182068 0.181787 0.181665 0.181628 0.181592 0.181471 0.181205 0.180854 0.180537 0.180220 0.179904 0.179599 0.179367 0.179267 0.179238 0.179208 0.179109 0.178883 0.178586 0.178274 0.177963 0.177651 0.177345 0.177113 0.177013 0.176983 0.176953 0.176852 0.176618 0.176310 0.175999 0.175687 0.175375 0.175062 0.174824 0.174719 0.174688 0.174658 0.174553 0.174316 0.174002 0.173699 0.173396 0.173093 0.172803 0.172583 0.172486 0.172457 0.172428 0.172331 0.172112 0.171822 0.171552 0.171282 0.171012 0.170750 0.170551 0.170464 0.170439 0.170413 0.170327 0.170160 0.169941 0.169763 0.169586 0.169409 0.169259 0.169145 0.169104 0.169091 0.169079 0.169038 0.168945 0.168823 0.168714 0.168605 0.168496 0.168411 0.168346 0.168318 0.168309 0.168301 0.168272 0.168206 0.168119 0.168060 0.168000 0.167940 0.167877 0.167830 0.167809 0.167803 0.167796 0.167775 0.167742 0.167699 0.167651 0.167602 0.167554 0.167514 0.167484 0.167473 0.167469 0.167466 0.167454 0.167426 0.167390 0.167359 0.167327 0.167296 0.167271 0.167252 0.167243 0.167241 0.167238 0.167229 0.167210 0.167184 0.167168 0.167152 0.167136 0.167118 0.167105 0.167099 0.167097 
0.176848 0.176834 0.176780 0.176642 0.176461 0.176255 0.176050 0.175845 0.175620 0.175451 0.175377 0.175358 0.175339 0.175264 0.175073 0.174821 0.174542 0.174262 0.173983 0.173672 0.173438 0.173336 0.173311 0.173285 0.173182 0.172923 0.172581 0.172216 0.171850 0.171484 0.171134 0.170869 0.170770 0.170746 0.170734 0.170686 0.170571 0.170420 0.170267 0.170115 0.169962 0.169807 0.169690 0.169641 0.169628 0.169616 0.169567 0.169449 0.169293 0.169133 0.168973 0.168813 0.168651 0.168529 0.168477 0.168463 0.168450 0.168397 0.168270 0.168101 0.167928 0.167755 0.167581 0.167404 0.167270 0.167215 0.167201 0.167188 0.167134 0.166991 0.166802 0.166603 0.166405 0.166206 0.166000 0.165844 0.165778 0.165762 0.165745 0.165679 0.165520 0.165309 0.165099 0.164889 0.164680 0.164470 0.164311 0.164248 0.164232 0.164216 0.164153 0.164014 0.163830 0.163684 0.163538 0.163391 0.163276 0.163188 0.163152 0.163143 0.163134 0.163098 0.163026 0.162930 0.162849 0.162768 0.162686 0.162623 0.162576 0.162557 0.162553 0.162548 0.162530 0.162487 0.162430 0.162387 0.162343 0.162299 0.162254 0.162220 0.162205 0.162201 0.162199 0.162188 0.162162 0.162126 0.162088 0.162049 0.162011 0.161981 0.161959 0.161949 0.161946 0.161944 0.161933 0.161910 0.161879 0.161852 0.161825 0.161798 0.161773 0.161753 0.161747 0.161745 
0.164522 0.164501 0.164421 0.164237 0.163994 0.163767 0.163540 0.163312 0.163099 0.162937 0.162870 0.162852 0.162834 0.162767 0.162613 0.162408 0.162207 0.162006 0.161806 0.161609 0.161460 0.161397 0.161381 0.161364 0.161302 0.161153 0.160957 0.160763 0.160570 0.160376 0.160184 0.160040 0.159978 0.159962 0.159946 0.159884 0.159745 0.159560 0.159378 0.159196 0.159015 0.158860 0.158743 0.158698 0.158687 0.158675 0.158630 0.158528 0.158393 0.158285 0.158177 0.158069 0.157971 0.157896 0.157867 0.157859 0.157853 0.157831 0.157779 0.157710 0.157648 0.157586 0.157525 0.157484 0.157453 0.157440 0.157436 0.157433 0.157419 0.157391 0.157354 0.157332 0.157310 0.157289 0.157272 0.157259 0.157257 0.157257 0.157256 0.157254 0.157248 0.157240 0.157239 0.157237 0.157235 0.157238 0.157240 0.157240 0.157240 0.157240 0.157240 0.157249 0.157260 0.157273 0.157285 0.157298 0.157319 0.157335 0.157342 0.157344 
