0.168450 0.168473 0.168799 0.170352 0.172812 0.175498 0.178185 0.180872 0.183783 0.185620 0.186035 0.186065 0.186094 0.186512 0.188474 0.191583 0.194973 0.198362 0.201751 0.205414 0.207726 0.208245 0.208282 0.208319 0.208844 0.211293 0.215172 0.219285 0.223398 0.227511 0.231680 0.234311 0.234868 0.234908 0.234947 0.235496 0.237950 0.241838 0.244879 0.247921 0.250963 0.252617 0.253661 0.253792 0.253801 0.253809 0.253921 0.254010 0.254152 0.252645 0.251139 0.249633 0.246809 0.245027 0.244585 0.244554 0.244522 0.244083 0.241945 0.238557 0.234789 0.231021 0.227253 0.223572 0.221248 0.220752 0.220717 0.220682 0.220189 0.217975 0.214466 0.211246 0.208027 0.204807 0.201917 0.200092 0.199708 0.199681 0.199654 0.199273 0.197572 0.194878 0.192433 0.189987 0.187542 0.185298 0.183882 0.183581 0.183559 0.183538 0.183238 0.181912 0.179811 0.177880 0.175950 0.174019 0.172226 0.171095 0.170854 0.170837 0.170820 0.170580 0.169518 0.167834 0.166266 0.164698 0.163130 0.161665 0.160741 0.160544 0.160530 0.160516 0.160319 0.159447 0.158065 0.156776 0.155487 0.154198 0.152993 0.152232 0.152069 0.152058 0.152046 0.151884 0.151165 0.150026 0.148961 0.147896 0.146831 0.145839 0.145213 0.145079 0.145069 0.145060 0.144926 0.144334 0.143397 0.142523 0.141648 0.140773 0.139954 0.139437 0.139327 0.139319 0.139311 0.139201 0.138709 0.137931 0.137193 0.136455 0.135717 0.135006 0.134557 0.134460 0.134453 0.134446 0.134349 0.133911 0.133217 0.132541 0.131865 0.131188 0.130530 0.130115 0.130025 0.130019 0.130012 0.129922 0.129521 0.128884 0.128289 0.127695 0.127101 0.126558 0.126215 0.126143 0.126138 0.126133 0.126061 0.125749 0.125253 0.124811 0.124370 0.123928 0.123535 0.123287 0.123235 0.123232 
0.123233 0.123239 0.123257 0.123295 0.123346 0.123395 0.123445 0.123494 0.123541 0.123577 0.123593 0.123598 0.123603 0.123619 0.123654 0.123699 0.123743 0.123786 0.123830 0.123872 0.123903 0.123917 0.123922 0.123926 0.123940 0.123970 0.124010 0.124048 0.124086 0.124123 0.124159 0.124186 0.124198 0.124202 0.124206 0.124218 0.124244 0.124277 0.124310 0.124342 0.124374 0.124405 0.124428 0.124438 0.124442 0.124445 0.124455 0.124477 0.124505 0.124532 0.124559 0.124586 0.124611 0.124630 0.124639 0.124641 0.124644 0.124652 0.124670 0.124693 0.124715 0.124736 0.124757 0.124777 0.124791 0.124798 0.124800 0.124802 0.124808 0.124822 0.124839 0.124855 0.124870 0.124886 0.124900 0.124911 0.124915 0.124917 0.124918 0.124923 0.124932 0.124943 0.124954 0.124964 0.124974 0.124982 0.124989 0.124991 0.124992 0.124993 0.124995 0.125000 0.125007 0.125012 0.125017 0.125021 0.125024 0.125026 0.125027 0.125027 0.125028 0.125028 0.125029 0.125031 0.125030 0.125029 0.125029 0.125027 0.125025 0.125024 0.125024 0.125023 0.125022 0.125019 0.125015 0.125009 0.125004 0.124998 0.124991 0.124986 0.124983 0.124982 0.124981 0.124978 0.124971 0.124961 0.124951 0.124941 0.124930 0.124918 0.124909 0.124904 0.124903 0.124901 0.124897 0.124886 0.124873 0.124858 0.124842 0.124827 0.124810 0.124798 0.124792 0.124790 0.124788 0.124782 0.124768 0.124751 0.124731 0.124711 0.124691 0.124671 0.124655 0.124648 0.124646 0.124643 0.124636 0.124619 0.124597 0.124574 0.124551 0.124528 0.124509 0.124494 0.124489 0.124488 0.124486 0.124482 0.124471 0.124458 0.124444 0.124431 0.124417 0.124403 0.124392 0.124387 0.124385 0.124384 0.124379 0.124368 0.124354 0.124339 0.124324 0.124308 0.124293 0.124281 0.124276 0.124274 0.124273 0.124267 0.124255 0.124240 0.124223 0.124207 0.124191 0.124174 0.124162 0.124156 0.124154 0.124153 0.124147 0.124134 0.124117 0.124100 0.124083 0.124065 0.124048 0.124034 0.124028 0.124026 0.124025 0.124018 0.124005 0.123987 0.123969 0.123951 0.123933 0.123915 0.123901 0.123895 0.123893 0.123890 0.123884 0.123870 0.123852 0.123833 0.123815 0.123796 0.123778 0.123763 0.123757 0.123755 
0.126140 0.126146 0.126190 0.126301 0.126450 0.126581 0.126712 0.126843 0.126957 0.127042 0.127072 0.127076 0.127081 0.127110 0.127182 0.127279 0.127361 0.127443 0.127526 0.127593 0.127644 0.127661 0.127664 0.127666 0.127683 0.127723 0.127777 0.127816 0.127855 0.127894 0.127919 0.127937 0.127943 0.127943 0.127944 0.127949 0.127957 0.127968 0.127966 0.127964 0.127961 0.127945 0.127932 0.127927 0.127926 0.127925 0.127919 0.127897 0.127868 0.127827 0.127786 0.127745 0.127692 0.127652 0.127636 0.127633 0.127631 0.127613 0.127565 0.127500 0.127424 0.127349 0.127274 0.127199 0.127144 0.127131 0.127129 0.127127 0.127114 0.127080 0.127033 0.126983 0.126933 0.126884 0.126830 0.126790 0.126775 0.126773 0.126770 0.126755 0.126712 0.126656 0.126597 0.126537 0.126478 0.126417 0.126371 0.126354 0.126352 0.126349 0.126332 0.126285 0.126223 0.126161 0.126098 0.126036 0.125973 0.125925 0.125908 0.125905 
0.130020 0.130025 0.130037 0.130058 0.130086 0.130114 0.130141 0.130168 0.130195 0.130216 0.130226 0.130231 0.130236 0.130246 0.130266 0.130292 0.130316 0.130341 0.130366 0.130390 0.130408 0.130418 0.130422 0.130427 0.130436 0.130454 0.130477 0.130499 0.130521 0.130543 0.130565 0.130581 0.130590 0.130593 0.130597 0.130605 0.130621 0.130641 0.130661 0.130680 0.130700 0.130718 0.130732 0.130739 0.130742 0.130746 0.130753 0.130766 0.130784 0.130801 0.130818 0.130835 0.130851 0.130863 0.130870 0.130872 0.130875 0.130881 0.130893 0.130908 0.130922 0.130936 0.130950 0.130964 0.130974 0.130980 0.130982 0.130984 0.130990 0.130999 0.131012 0.131024 0.131035 0.131047 0.131058 0.131066 0.131070 0.131072 0.131074 0.131078 0.131086 0.131096 0.131105 0.131114 0.131123 0.131132 0.131138 0.131141 0.131142 0.131144 0.131147 0.131153 0.131160 0.131167 0.131173 0.131180 0.131185 0.131189 0.131192 0.131193 0.131193 0.131195 0.131199 0.131204 0.131208 0.131212 0.131216 0.131220 0.131222 0.131223 0.131224 0.131224 0.131225 0.131227 0.131229 0.131231 0.131232 0.131234 0.131235 0.131235 0.131236 0.131236 0.131236 0.131236 0.131236 0.131235 0.131234 0.131233 0.131232 0.131231 0.131229 0.131229 0.131228 0.131228 0.131227 0.131225 0.131223 0.131219 0.131216 0.131212 0.131208 0.131204 0.131203 0.131202 0.131201 0.131199 0.131195 0.131190 0.131185 0.131179 0.131173 0.131166 0.131161 0.131158 0.131157 0.131156 0.131153 0.131147 0.131140 0.131132 0.131124 0.131116 0.131107 0.131101 0.131097 0.131095 0.131093 0.131089 0.131082 0.131072 0.131062 0.131051 0.131041 0.131030 0.131021 0.131017 0.131015 0.131013 0.131008 0.130999 0.130987 0.130974 0.130962 0.130949 0.130936 0.130926 0.130921 0.130918 0.130916 0.130910 0.130900 0.130886 0.130872 0.130857 0.130842 0.130827 0.130815 0.130809 0.130806 0.130803 0.130797 0.130785 0.130769 0.130753 0.130736 0.130720 0.130703 0.130690 0.130682 0.130679 0.130676 0.130669 0.130655 0.130637 0.130619 0.130601 0.130583 0.130564 0.130549 0.130541 0.130538 0.130534 0.130526 0.130511 0.130491 0.130471 0.130451 0.130431 0.130411 0.130395 0.130387 0.130383 0.130379 0.130371 0.130354 0.130333 0.130311 0.130289 0.130267 0.130245 0.130227 0.130218 0.130214 0.130210 0.130201 0.130183 0.130161 0.130137 0.130114 0.130090 0.130066 0.130048 0.130038 0.130034 0.130032 0.130027 0.130017 0.130005 0.129993 0.129981 0.129968 0.129956 0.129946 0.129941 0.129939 0.129937 0.129931 0.129922 0.129909 0.129897 0.129884 0.129871 0.129858 0.129849 0.129843 0.129841 0.129839 0.129833 0.129823 0.129810 0.129797 0.129784 0.129771 0.129758 0.129748 0.129742 0.129740 0.129738 0.129732 0.129722 0.129708 0.129695 0.129681 0.129667 0.129654 0.129643 0.129637 0.129635 0.129632 0.129627 0.129616 0.129602 0.129588 0.129574 0.129559 0.129545 0.129534 0.129528 0.129525 0.129523 0.129517 0.129505 0.129491 0.129476 0.129461 0.129446 0.129431 0.129420 0.129414 0.129411 0.129408 0.129402 0.129391 0.129376 0.129361 0.129345 0.129330 0.129315 0.129303 0.129297 0.129294 0.129291 0.129285 0.129273 0.129258 0.129242 0.129227 0.129211 0.129195 0.129183 0.129177 0.129174 0.129171 0.129165 0.129153 0.129137 0.129121 0.129105 0.129089 0.129073 0.129060 0.129054 0.129051 0.129048 0.129041 0.129029 0.129013 0.128997 0.128980 0.128964 0.128948 0.128935 0.128929 0.128926 0.128923 0.128916 0.128904 0.128887 0.128871 0.128854 0.128838 0.128821 0.128809 0.128802 0.128799 0.128796 0.128789 0.128776 0.128760 0.128743 0.128726 0.128709 0.128692 0.128679 0.128672 0.128669 0.128666 0.128659 0.128646 0.128629 0.128612 0.128595 0.128578 0.128560 0.128547 0.128540 0.128537 0.128534 0.128527 0.128514 0.128496 0.128479 0.128461 0.128444 0.128426 0.128413 0.128405 0.128402 0.128399 0.128392 0.128378 0.128360 0.128341 0.128323 0.128305 0.128286 0.128272 0.128265 0.128261 
0.134454 0.134458 0.134470 0.134499 0.134536 0.134571 0.134606 0.134642 0.134674 0.134699 0.134709 0.134712 0.134715 0.134726 0.134749 0.134779 0.134807 0.134835 0.134862 0.134888 0.134907 0.134915 0.134917 0.134920 0.134927 0.134944 0.134966 0.134986 0.135005 0.135025 0.135041 0.135054 0.135059 0.135060 0.135062 0.135066 0.135077 0.135090 0.135100 0.135111 0.135121 0.135129 0.135134 0.135136 0.135137 0.135138 0.135140 0.135143 0.135147 0.135148 0.135150 0.135152 0.135150 0.135149 0.135148 0.135147 0.135147 0.135146 0.135142 0.135138 0.135130 0.135122 0.135115 0.135104 0.135096 0.135092 0.135091 0.135090 0.135086 0.135075 0.135061 0.135045 0.135028 0.135011 0.134992 0.134977 0.134971 0.134969 0.134967 0.134960 0.134943 0.134921 0.134896 0.134871 0.134846 0.134818 0.134797 0.134788 0.134785 0.134783 0.134773 0.134750 0.134720 0.134687 0.134654 0.134621 0.134586 0.134559 0.134547 0.134544 0.134540 0.134528 0.134500 0.134462 0.134422 0.134382 0.134343 0.134301 0.134269 0.134255 0.134251 0.134247 0.134232 0.134199 0.134155 0.134109 0.134063 0.134017 0.133969 0.133932 0.133916 0.133912 0.133907 0.133891 0.133853 0.133803 0.133751 0.133700 0.133648 0.133595 0.133555 0.133537 0.133532 0.133527 0.133509 0.133467 0.133413 0.133365 0.133318 0.133270 0.133242 0.133221 0.133212 0.133209 0.133206 0.133197 0.133176 0.133148 0.133120 0.133092 0.133064 0.133036 0.133014 0.133005 0.133002 0.133000 0.132990 0.132968 0.132940 0.132910 0.132881 0.132852 0.132822 0.132799 0.132790 0.132787 0.132784 0.132774 0.132751 0.132721 0.132691 0.132661 0.132631 0.132600 0.132577 0.132567 0.132564 0.132561 0.132551 0.132528 0.132497 0.132466 0.132435 0.132404 0.132373 0.132349 0.132339 0.132336 0.132333 0.132323 0.132299 0.132268 0.132237 0.132206 0.132175 0.132144 0.132121 0.132111 0.132108 0.132105 0.132095 0.132072 0.132041 0.132010 0.131980 0.131949 0.131919 0.131896 0.131886 0.131883 0.131880 0.131870 0.131847 0.131817 0.131787 0.131757 0.131727 0.131697 0.131674 0.131664 0.131661 
0.139320 0.139324 0.139344 0.139393 0.139458 0.139512 0.139565 0.139619 0.139661 0.139693 0.139704 0.139706 0.139708 0.139719 0.139743 0.139775 0.139796 0.139817 0.139838 0.139848 0.139856 0.139858 0.139859 0.139859 0.139860 0.139860 0.139860 0.139850 0.139841 0.139831 0.139811 0.139796 0.139789 0.139788 0.139787 0.139779 0.139757 0.139728 0.139690 0.139651 0.139613 0.139565 0.139530 0.139515 0.139512 0.139509 0.139494 0.139452 0.139396 0.139332 0.139268 0.139204 0.139133 0.139080 0.139058 0.139054 0.139049 0.139027 0.138968 0.138890 0.138805 0.138721 0.138636 0.138546 0.138477 0.138450 0.138445 0.138440 0.138412 0.138340 0.138244 0.138143 0.138043 0.137942 0.137837 0.137758 0.137726 0.137720 0.137714 0.137683 0.137601 0.137492 0.137379 0.137265 0.137152 0.137073 0.137014 0.136999 0.136997 0.136994 0.136980 0.136944 0.136895 0.136847 0.136799 0.136750 0.136701 0.136664 0.136650 0.136647 0.136644 0.136629 0.136592 0.136543 0.136493 0.136443 0.136394 0.136344 0.136306 0.136292 0.136289 0.136286 0.136272 0.136234 0.136184 0.136135 0.136086 0.136037 0.135989 0.135953 0.135939 0.135936 0.135934 0.135919 0.135883 0.135835 0.135788 0.135741 0.135693 0.135646 0.135611 0.135597 0.135594 0.135592 0.135578 0.135543 0.135497 0.135450 0.135404 0.135357 0.135312 0.135277 0.135264 0.135261 
0.145071 0.145076 0.145101 0.145163 0.145244 0.145309 0.145375 0.145440 0.145489 0.145526 0.145538 0.145540 0.145542 0.145554 0.145578 0.145610 0.145626 0.145642 0.145658 0.145657 0.145657 0.145655 0.145655 0.145654 0.145652 0.145640 0.145625 0.145596 0.145568 0.145539 0.145497 0.145466 0.145452 0.145449 0.145446 0.145431 0.145390 0.145335 0.145267 0.145200 0.145132 0.145052 0.144993 0.144968 0.144964 0.144959 0.144934 0.144865 0.144774 0.144674 0.144573 0.144473 0.144364 0.144281 0.144248 0.144242 0.144235 0.144202 0.144113 0.143995 0.143869 0.143743 0.143617 0.143484 0.143384 0.143345 0.143337 0.143330 0.143290 0.143185 0.143046 0.142903 0.142759 0.142615 0.142466 0.142355 0.142311 0.142302 0.142294 0.142250 0.142135 0.141983 0.141871 0.141758 0.141646 0.141571 0.141515 0.141493 0.141489 0.141485 0.141463 0.141408 0.141333 0.141259 0.141185 0.141110 0.141036 0.140980 0.140959 0.140955 0.140951 0.140929 0.140873 0.140798 0.140724 0.140649 0.140575 0.140500 0.140443 0.140421 0.140417 0.140413 0.140391 0.140335 0.140260 0.140186 0.140111 0.140037 0.139963 0.139907 0.139885 0.139881 0.139877 0.139856 0.139800 0.139727 0.139653 0.139579 0.139505 0.139431 0.139375 0.139354 0.139349 
0.152059 0.152064 0.152094 0.152164 0.152258 0.152322 0.152387 0.152451 0.152484 0.152509 0.152515 0.152516 0.152516 0.152521 0.152524 0.152529 0.152507 0.152485 0.152464 0.152414 0.152377 0.152360 0.152357 0.152354 0.152336 0.152281 0.152207 0.152111 0.152016 0.151920 0.151803 0.151715 0.151679 0.151673 0.151667 0.151629 0.151525 0.151387 0.151231 0.151076 0.150921 0.150749 0.150621 0.150570 0.150562 0.150553 0.150502 0.150364 0.150180 0.149984 0.149788 0.149593 0.149388 0.149235 0.149174 0.149164 0.149154 0.149094 0.148933 0.148719 0.148499 0.148279 0.148059 0.147834 0.147664 0.147599 0.147589 0.147578 0.147513 0.147367 0.147173 0.147043 0.146913 0.146783 0.146658 0.146565 0.146530 0.146524 0.146518 0.146484 0.146393 0.146272 0.146153 0.146035 0.145916 0.145798 0.145710 0.145677 0.145671 0.145666 0.145632 0.145545 0.145428 0.145313 0.145198 0.145083 0.144969 0.144884 0.144851 0.144846 0.144841 0.144808 0.144724 0.144613 0.144502 0.144392 0.144282 0.144174 0.144092 0.144061 0.144056 
0.160530 0.160532 0.160538 0.160548 0.160562 0.160570 0.160578 0.160586 0.160587 0.160588 0.160587 0.160587 0.160587 0.160586 0.160581 0.160575 0.160563 0.160551 0.160539 0.160520 0.160505 0.160498 0.160496 0.160494 0.160486 0.160468 0.160443 0.160412 0.160380 0.160349 0.160312 0.160284 0.160271 0.160267 0.160263 0.160249 0.160216 0.160173 0.160125 0.160077 0.160029 0.159976 0.159935 0.159916 0.159910 0.159904 0.159884 0.159839 0.159779 0.159715 0.159650 0.159586 0.159516 0.159463 0.159439 0.159431 0.159423 0.159399 0.159343 0.159269 0.159191 0.159113 0.159035 0.158953 0.158891 0.158862 0.158853 0.158844 0.158815 0.158749 0.158663 0.158572 0.158481 0.158391 0.158296 0.158225 0.158192 0.158182 0.158171 0.158138 0.158064 0.157967 0.157866 0.157766 0.157666 0.157562 0.157484 0.157448 0.157437 0.157426 0.157390 0.157310 0.157204 0.157096 0.156987 0.156879 0.156769 0.156685 0.156647 0.156635 0.156623 0.156585 0.156500 0.156388 0.156274 0.156161 0.156047 0.155933 0.155845 0.155806 0.155793 0.155781 0.155741 0.155653 0.155536 0.155418 0.155300 0.155182 0.155064 0.154974 0.154933 0.154921 0.154908 0.154867 0.154777 0.154658 0.154539 0.154419 0.154300 0.154181 0.154090 0.154049 0.154036 0.154023 0.153982 0.153891 0.153771 0.153651 0.153532 0.153413 0.153293 0.153203 0.153162 0.153149 0.153136 0.153095 0.153006 0.152887 0.152769 0.152651 0.152533 0.152416 0.152328 0.152288 0.152275 0.152263 0.152223 0.152171 0.152102 0.152037 0.151972 0.151907 0.151846 0.151800 0.151779 0.151773 0.151766 0.151745 0.151700 0.151639 0.151582 0.151526 0.151469 0.151412 0.151370 0.151350 0.151344 0.151338 0.151319 0.151278 0.151224 0.151171 0.151118 0.151065 0.151012 0.150972 0.150955 0.150949 0.150944 0.150926 0.150888 0.150837 0.150786 0.150735 0.150685 0.150635 0.150598 0.150581 0.150576 0.150570 0.150554 0.150516 0.150466 0.150418 0.150369 0.150320 0.150272 0.150235 0.150219 0.150213 0.150208 0.150192 0.150156 0.150109 0.150063 0.150017 0.149971 0.149924 0.149889 0.149873 0.149868 0.149863 0.149848 0.149814 0.149769 0.149725 0.149680 0.149635 0.149592 0.149559 0.149544 0.149540 0.149535 0.149520 0.149488 0.149444 0.149402 0.149359 0.149317 0.149275 0.149244 0.149230 0.149225 
0.170837 0.170840 0.170847 0.170862 0.170881 0.170892 0.170904 0.170915 0.170917 0.170919 0.170918 0.170918 0.170918 0.170916 0.170910 0.170903 0.170886 0.170869 0.170853 0.170826 0.170806 0.170796 0.170793 0.170789 0.170779 0.170752 0.170718 0.170674 0.170630 0.170586 0.170535 0.170496 0.170477 0.170471 0.170465 0.170446 0.170400 0.170340 0.170273 0.170205 0.170138 0.170064 0.170008 0.169982 0.169973 0.169965 0.169938 0.169875 0.169793 0.169702 0.169612 0.169522 0.169422 0.169346 0.169311 0.169300 0.169289 0.169253 0.169173 0.169067 0.168955 0.168843 0.168731 0.168614 0.168525 0.168484 0.168471 0.168458 0.168417 0.168323 0.168199 0.168069 0.167938 0.167808 0.167675 0.167574 0.167528 0.167513 0.167499 0.167452 0.167347 0.167208 0.167066 0.166925 0.166784 0.166638 0.166527 0.166477 0.166461 0.166445 0.166395 0.166281 0.166131 0.165978 0.165825 0.165673 0.165517 0.165398 0.165345 0.165329 0.165312 0.165258 0.165139 0.164981 0.164820 0.164659 0.164498 0.164336 0.164213 0.164158 0.164141 0.164124 0.164069 0.163945 0.163782 0.163619 0.163456 0.163293 0.163126 0.162999 0.162942 0.162924 0.162906 0.162850 0.162725 0.162560 0.162396 0.162233 0.162069 0.161905 0.161780 0.161725 0.161707 0.161690 0.161634 0.161510 0.161347 0.161185 0.161022 0.160860 0.160699 0.160576 0.160521 0.160504 0.160487 0.160432 0.160310 0.160150 0.159991 0.159832 0.159673 0.159515 0.159395 0.159341 0.159324 0.159308 0.159254 0.159160 0.159036 0.158938 0.158840 0.158742 0.158650 0.158580 0.158549 0.158540 0.158530 0.158500 0.158434 0.158347 0.158262 0.158177 0.158093 0.158010 0.157947 0.157919 0.157910 0.157902 0.157874 0.157811 0.157729 0.157650 0.157570 0.157490 0.157411 0.157351 0.157324 0.157315 0.157307 0.157280 0.157221 0.157144 0.157068 0.156992 0.156917 0.156842 0.156785 0.156760 0.156752 0.156744 0.156719 0.156663 0.156589 0.156515 0.156442 0.156368 0.156295 0.156240 0.156216 0.156208 0.156200 0.156175 0.156120 0.156047 0.155976 0.155904 0.155833 0.155762 0.155708 0.155684 0.155676 0.155669 0.155645 0.155591 0.155521 0.155452 0.155383 0.155314 0.155245 0.155192 0.155169 0.155162 0.155154 0.155131 0.155080 0.155012 0.154945 0.154877 0.154809 0.154743 0.154692 0.154670 0.154663 0.154656 0.154633 0.154583 0.154517 0.154451 0.154385 0.154320 0.154254 0.154205 0.154183 0.154176 
0.183559 0.183555 0.183524 0.183402 0.183239 0.182958 0.182677 0.182397 0.182014 0.181728 0.181611 0.181596 0.181580 0.181460 0.181099 0.180617 0.180055 0.179494 0.178932 0.178314 0.177852 0.177678 0.177656 0.177633 0.177458 0.176972 0.176323 0.175640 0.174958 0.174276 0.173573 0.173047 0.172856 0.172832 0.172807 0.172617 0.172108 0.171429 0.170766 0.170104 0.169441 0.168807 0.168333 0.168162 0.168140 0.168118 0.167948 0.167494 0.166887 0.166384 0.165881 0.165378 0.164982 0.164685 0.164581 0.164568 0.164555 0.164456 0.164195 0.163847 0.163524 0.163202 0.162879 0.162580 0.162356 0.162276 0.162266 0.162256 0.162176 0.161967 0.161687 0.161420 0.161152 0.160885 0.160628 0.160436 0.160366 0.160357 
0.199679 0.199669 0.199615 0.199453 0.199239 0.198956 0.198673 0.198390 0.198039 0.197775 0.197664 0.197643 0.197621 0.197507 0.197190 0.196770 0.196295 0.195821 0.195346 0.194827 0.194437 0.194280 0.194251 0.194221 0.194063 0.193643 0.193084 0.192498 0.191911 0.191324 0.190717 0.190260 0.190079 0.190045 0.190011 0.189829 0.189359 0.188733 0.188101 0.187468 0.186835 0.186201 0.185725 0.185538 0.185503 0.185468 0.185282 0.184808 0.184179 0.183560 0.182942 0.182324 0.181720 0.181266 0.181094 0.181062 0.181030 0.180858 0.180421 0.179841 0.179288 0.178736 0.178184 0.177662 0.177269 0.177119 0.177091 0.177063 0.176914 0.176543 0.176051 0.175586 0.175122 0.174657 0.174216 0.173885 0.173759 0.173736 0.173713 0.173590 0.173298 0.172909 0.172610 0.172312 0.172013 0.171747 0.171546 0.171472 0.171457 0.171443 0.171369 0.171185 0.170940 0.170712 0.170484 0.170255 0.170045 0.169887 0.169826 0.169814 0.169803 0.169743 0.169595 0.169398 0.169210 0.169021 0.168832 0.168651 0.168516 0.168465 0.168455 0.168445 0.168394 0.168263 0.168089 0.167924 0.167759 0.167594 0.167436 0.167316 0.167269 0.167260 
0.220709 0.220677 0.220570 0.220319 0.219987 0.219634 0.219281 0.218928 0.218553 0.218269 0.218141 0.218103 0.218064 0.217934 0.217631 0.217233 0.216810 0.216387 0.215964 0.215514 0.215173 0.215019 0.214972 0.214926 0.214770 0.214406 0.213927 0.213422 0.212916 0.212411 0.211887 0.211489 0.211314 0.211262 0.211209 0.211034 0.210636 0.210110 0.209583 0.209056 0.208529 0.208001 0.207601 0.207425 0.207372 0.207320 0.207144 0.206743 0.206214 0.205682 0.205151 0.204620 0.204084 0.203678 0.203498 0.203444 0.203391 0.203212 0.202805 0.202269 0.201731 0.201193 0.200655 0.200126 0.199725 0.199550 0.199497 0.199445 0.199270 0.198874 0.198351 0.197836 0.197320 0.196805 0.196296 0.195911 0.195742 0.195691 0.195640 0.195472 0.195093 0.194593 0.194104 0.193614 0.193125 0.192645 0.192281 0.192124 0.192077 0.192030 0.191873 0.191522 0.191060 0.190608 0.190156 0.189704 0.189265 0.188932 0.188787 0.188743 0.188700 0.188556 0.188231 0.187802 0.187391 0.186980 0.186569 0.186170 0.185867 0.185737 0.185698 0.185659 0.185532 0.185247 0.184870 0.184501 0.184132 0.183763 0.183414 0.183149 0.183034 0.182999 0.182965 0.182851 0.182595 0.182257 0.181937 0.181618 0.181298 0.180989 0.180755 0.180653 0.180622 0.180591 0.180490 0.180268 0.179976 0.179698 0.179420 0.179142 0.178875 0.178673 0.178589 0.178563 0.178538 0.178454 0.178265 0.178016 0.177810 0.177604 0.177398 0.177230 0.177103 0.177047 0.177031 0.177014 0.176959 0.176836 0.176673 0.176530 0.176387 0.176244 0.176101 0.175993 0.175946 0.175931 0.175919 0.175875 0.175779 0.175651 0.175522 0.175392 0.175263 0.175144 0.175054 0.175015 0.175003 0.174991 0.174952 0.174862 0.174743 0.174630 0.174517 0.174404 0.174293 0.174208 0.174170 0.174159 0.174148 0.174110 0.174030 0.173924 0.173821 0.173717 0.173614 0.173510 0.173430 0.173397 0.173387 0.173378 0.173345 0.173270 0.173171 0.173074 0.172977 0.172880 0.172787 0.172716 0.172684 0.172675 0.172665 0.172634 0.172561 0.172465 0.172376 0.172287 0.172198 0.172108 0.172039 0.172009 0.171999 0.171991 0.171962 0.171898 0.171813 0.171726 0.171640 0.171553 0.171471 0.171408 0.171380 0.171372 0.171363 0.171336 0.171272 0.171187 0.171105 0.171022 0.170940 0.170857 0.170794 0.170766 0.170758 
0.244528 0.244427 0.243828 0.242274 0.240204 0.238168 0.236133 0.234097 0.232138 0.230667 0.230112 0.230018 0.229924 0.229372 0.227935 0.226021 0.224194 0.222367 0.220540 0.218795 0.217484 0.216991 0.216907 0.216824 0.216334 0.215081 0.213412 0.211829 0.210245 0.208661 0.207177 0.206063 0.205650 0.205580 0.205510 0.205100 0.204059 0.202673 0.201371 0.200069 0.198767 0.197553 0.196641 0.196304 0.196247 0.196191 0.195861 0.195025 0.193911 0.192904 0.191898 0.190892 0.189960 0.189260 0.189002 0.188958 0.188915 0.188659 0.188034 0.187202 0.186448 0.185695 0.184941 0.184270 0.183766 0.183580 0.183548 0.183517 0.183332 0.182878 0.182273 0.181774 0.181276 0.180777 0.180398 0.180113 0.180013 0.179996 0.179979 0.179879 0.179624 0.179285 0.178987 0.178688 0.178390 0.178109 0.177898 0.177823 0.177811 0.177798 0.177724 0.177530 0.177271 0.177034 0.176796 0.176558 0.176333 0.176163 0.176097 0.176086 0.176075 0.176011 0.175856 0.175650 0.175452 0.175253 0.175055 0.174871 0.174733 0.174681 0.174672 0.174663 0.174610 0.174479 0.174305 0.174139 0.173974 0.173808 0.173645 0.173522 0.173476 0.173468 
0.253759 0.253590 0.252366 0.249270 0.245138 0.241539 0.237939 0.234339 0.231179 0.228810 0.227983 0.227870 0.227758 0.226948 0.224863 0.222082 0.219542 0.217001 0.214460 0.212164 0.210443 0.209830 0.209746 0.209664 0.209067 0.207542 0.205508 0.203673 0.201838 0.200003 0.198347 0.197107 0.196672 0.196612 0.196553 0.196124 0.195033 0.193578 0.192305 0.191032 0.189759 0.188666 0.187846 0.187556 0.187516 0.187478 0.187205 0.186500 0.185560 0.184792 0.184025 0.183258 0.182641 0.182178 0.182026 0.182005 0.181984 0.181835 0.181540 0.181147 0.180845 0.180544 0.180242 0.179994 0.179809 0.179746 0.179738 0.179730 0.179673 0.179520 0.179314 0.179156 0.178997 0.178839 0.178713 0.178618 0.178587 0.178583 0.178578 0.178547 0.178479 0.178388 0.178324 0.178260 0.178196 0.178162 0.178136 0.178129 0.178128 
0.234879 0.234766 0.234078 0.232317 0.229971 0.227767 0.225562 0.223357 0.221275 0.219712 0.219133 0.219038 0.218944 0.218371 0.216919 0.214985 0.213193 0.211402 0.209610 0.207920 0.206651 0.206181 0.206104 0.206028 0.205562 0.204382 0.202810 0.201359 0.199908 0.198457 0.197113 0.196104 0.195734 0.195673 0.195612 0.195242 0.194302 0.193050 0.191910 0.190769 0.189629 0.188579 0.187790 0.187504 0.187457 0.187411 0.187127 0.186408 0.185450 0.184591 0.183732 0.182873 0.182116 0.181548 0.181337 0.181303 0.181269 0.181061 0.180564 0.179901 0.179321 0.178740 0.178159 0.177682 0.177325 0.177197 0.177175 0.177155 0.177028 0.176742 0.176360 0.176169 0.175978 0.175788 0.175663 0.175570 0.175542 0.175537 0.175533 0.175504 0.175433 0.175337 0.175269 0.175201 0.175133 0.175079 0.175039 0.175030 0.175028 0.175027 0.175017 0.174997 0.174970 0.174972 0.174974 0.174976 0.175002 0.175021 0.175027 0.175028 
0.208267 0.208209 0.208066 0.207778 0.207402 0.207027 0.206652 0.206277 0.205902 0.205615 0.205472 0.205415 0.205358 0.205215 0.204930 0.204558 0.204186 0.203814 0.203442 0.203070 0.202786 0.202644 0.202587 0.202530 0.202389 0.202105 0.201734 0.201365 0.200996 0.200626 0.200257 0.199974 0.199833 0.199777 0.199720 0.199579 0.199296 0.198927 0.198558 0.198190 0.197821 0.197458 0.197180 0.197042 0.196987 0.196932 0.196794 0.196519 0.196160 0.195805 0.195451 0.195097 0.194746 0.194478 0.194345 0.194291 0.194238 0.194105 0.193840 0.193493 0.193150 0.192808 0.192465 0.192128 0.191870 0.191742 0.191690 0.191639 0.191512 0.191256 0.190923 0.190594 0.190264 0.189934 0.189611 0.189363 0.189241 0.189191 0.189142 0.189020 0.188776 0.188458 0.188144 0.187830 0.187516 0.187208 0.186973 0.186857 0.186810 0.186763 0.186648 0.186417 0.186115 0.185817 0.185519 0.185222 0.184929 0.184705 0.184596 0.184552 0.184508 0.184399 0.184181 0.183897 0.183616 0.183335 0.183054 0.182777 0.182565 0.182461 0.182419 0.182378 0.182276 0.182070 0.181803 0.181541 0.181279 0.181017 0.180760 0.180562 0.180465 0.180426 0.180387 0.180290 0.180100 0.179853 0.179610 0.179367 0.179124 0.178885 0.178702 0.178611 0.178575 0.178539 0.178449 0.178272 0.178042 0.177819 0.177596 0.177373 0.177153 0.176985 0.176902 0.176868 0.176835 0.176752 0.176588 0.176372 0.176169 0.175966 0.175764 0.175564 0.175411 0.175336 0.175305 0.175275 0.175200 0.175050 0.174854 0.174670 0.174485 0.174300 0.174121 0.173984 0.173916 0.173889 0.173861 0.173794 0.173659 0.173483 0.173316 0.173149 0.172981 0.172823 0.172702 0.172642 0.172618 0.172595 0.172535 0.172417 0.172263 0.172114 0.171965 0.171816 0.171681 0.171577 0.171526 0.171506 0.171485 0.171434 0.171332 0.171199 0.171068 0.170937 0.170806 0.170689 0.170601 0.170558 0.170540 0.170523 0.170480 0.170394 0.170282 0.170172 0.170062 0.169952 0.169850 0.169772 0.169737 0.169723 0.169709 0.169674 0.169605 0.169514 0.169458 0.169402 0.169345 0.169304 0.169272 0.169261 0.169256 0.169252 0.169242 0.169220 0.169192 0.169161 0.169131 0.169101 0.169069 0.169044 0.169032 0.169027 0.169022 0.169011 0.168995 0.168975 0.168952 0.168929 0.168906 0.168880 0.168861 0.168850 0.168846 0.168842 0.168832 0.168816 0.168794 0.168776 0.168757 0.168738 0.168719 0.168704 0.168696 0.168693 0.168689 0.168681 0.168664 0.168643 0.168629 0.168616 0.168602 0.168588 0.168576 0.168570 0.168568 0.168566 0.168560 0.168547 0.168530 0.168521 0.168511 0.168501 0.168491 0.168484 0.168481 0.168479 0.168478 0.168475 0.168467 0.168456 0.168449 0.168443 0.168436 0.168432 0.168429 0.168427 0.168426 0.168425 0.168424 0.168420 0.168416 0.168413 0.168410 0.168407 0.168411 0.168414 0.168415 0.168415 0.168416 0.168417 0.168419 0.168422 0.168424 0.168427 0.168429 0.168439 0.168448 0.168452 0.168453 
0.186057 0.186024 0.185796 0.185186 0.184372 0.183560 0.182749 0.181938 0.181132 0.180528 0.180303 0.180271 0.180239 0.180014 0.179409 0.178604 0.177804 0.177004 0.176204 0.175434 0.174857 0.174645 0.174614 0.174584 0.174373 0.173816 0.173075 0.172360 0.171644 0.170929 0.170253 0.169745 0.169561 0.169535 0.169508 0.169326 0.168856 0.168230 0.167650 0.167070 0.166490 0.165968 0.165576 0.165433 0.165413 0.165393 0.165252 0.164904 0.164440 0.164028 0.163617 0.163205 0.162848 0.162580 0.162489 0.162476 0.162463 0.162376 0.162147 0.161842 0.161725 0.161609 0.161492 0.161412 0.161351 0.161334 0.161332 0.161329 0.161312 0.161273 0.161220 0.161187 0.161154 0.161121 0.161096 0.161077 0.161073 0.161073 
0.168449 0.168442 0.168421 0.168370 0.168303 0.168227 0.168151 0.168075 0.167990 0.167926 0.167896 0.167887 0.167878 0.167847 0.167775 0.167680 0.167575 0.167471 0.167366 0.167254 0.167169 0.167131 0.167119 0.167107 0.167068 0.166978 0.166860 0.166736 0.166612 0.166488 0.166357 0.166258 0.166214 0.166200 0.166186 0.166141 0.166037 0.165900 0.165757 0.165614 0.165470 0.165325 0.165214 0.165164 0.165149 0.165134 0.165084 0.164970 0.164819 0.164667 0.164515 0.164362 0.164207 0.164088 0.164036 0.164019 0.164003 0.163950 0.163830 0.163672 0.163512 0.163353 0.163194 0.163034 0.162913 0.162859 0.162843 0.162827 0.162773 0.162651 0.162491 0.162331 0.162170 0.162010 0.161851 0.161730 0.161676 0.161660 0.161644 0.161590 0.161469 0.161309 0.161153 0.160997 0.160841 0.160685 0.160566 0.160514 0.160498 0.160482 0.160430 0.160315 0.160164 0.160014 0.159865 0.159715 0.159568 0.159457 0.159409 0.159394 0.159379 0.159331 0.159222 0.159078 0.158938 0.158799 0.158659 0.158523 0.158420 0.158375 0.158361 0.158347 0.158302 0.158201 0.158069 0.157942 0.157815 0.157688 0.157563 0.157468 0.157426 0.157414 0.157401 0.157362 0.157273 0.157155 0.157039 0.156923 0.156807 0.156699 0.156616 0.156580 0.156569 0.156558 0.156522 0.156441 0.156335 0.156233 0.156132 0.156030 0.155954 0.155895 0.155882 0.155878 0.155873 0.155860 0.155831 0.155792 0.155756 0.155719 0.155683 0.155644 0.155615 0.155604 0.155601 0.155597 0.155586 0.155560 0.155525 0.155489 0.155452 0.155415 0.155381 0.155355 0.155343 0.155340 0.155336 0.155324 0.155296 0.155259 0.155222 0.155185 0.155149 0.155110 0.155080 0.155067 0.155062 0.155058 0.155044 0.155015 0.154976 0.154935 0.154894 0.154853 0.154811 0.154779 0.154766 0.154762 0.154758 0.154744 0.154713 0.154672 0.154630 0.154588 0.154546 0.154506 0.154475 0.154461 0.154457 0.154453 0.154439 0.154407 0.154364 0.154325 0.154285 0.154245 0.154204 0.154173 0.154159 0.154155 
