-2.234360 -1.440834 5.512767
-1.834163 -1.422023 6.748731
-1.384968 -1.413269 7.968814
-1.120306 -1.367370 9.238802
-1.013298 -1.291137 10.532464
-0.924236 -1.211557 11.827386
-2.233895 -1.440775 5.514712
-1.834877 -1.422031 6.746863
-1.833449 -1.422014 6.750599
-1.385576 -1.413300 7.966909
-1.384360 -1.413239 7.970720
-1.120536 -1.367475 9.236818
-1.120075 -1.367265 9.240786
-1.013439 -1.291259 10.530473
-1.013156 -1.291015 10.534456
-0.924372 -1.211680 11.825395
-2.227498 -1.439957 5.541453
-1.844698 -1.422150 6.721168
-1.823584 -1.421905 6.776278
-1.393941 -1.413720 7.940707
-1.376039 -1.412809 7.996935
-1.123708 -1.368917 9.209531
-1.116904 -1.365823 9.268073
-1.015384 -1.292931 10.503085
-1.011212 -1.289343 10.561844
-0.926241 -1.213366 11.798002
-2.197469 -1.436426 5.662864
-2.144810 -1.431851 5.853905
-2.086699 -1.428380 6.043385
-2.024096 -1.425827 6.231448
-1.957932 -1.424010 6.418299
-1.889113 -1.422745 6.604194
-1.778513 -1.421447 6.893001
-1.706857 -1.420776 7.077827
-1.635606 -1.420019 7.262808
-1.565611 -1.419000 7.448266
-1.497736 -1.417538 7.634506
-1.432870 -1.415452 7.821808
-1.339906 -1.410507 8.116704
-1.286995 -1.405982 8.307678
-1.240457 -1.400182 8.500267
-1.200770 -1.393031 8.694341
-1.167274 -1.384674 8.889534
-1.139088 -1.375296 9.085522
-1.103645 -1.359043 9.392306
-1.084993 -1.347859 9.589339
-1.068504 -1.336270 9.786542
-1.053309 -1.324440 9.983835
-1.038647 -1.312511 10.181163
-1.024298 -1.300524 10.378510
-1.002425 -1.281727 10.686427
-0.988670 -1.269629 10.883809
-0.975067 -1.257503 11.081201
-0.961572 -1.245357 11.278598
-0.948138 -1.233200 11.475999
-0.934721 -1.221039 11.673402
78 NaN NaN
-2.234476 -1.440849 5.512281
-2.210978 -1.437847 5.610513
-2.185739 -1.435193 5.708322
-2.158890 -1.432861 5.805710
-2.130559 -1.430829 5.902684
-2.100877 -1.429071 5.999259
-2.069970 -1.427564 6.095453
-2.037963 -1.426282 6.191290
-2.004981 -1.425201 6.286799
-1.971145 -1.424297 6.382010
-1.936574 -1.423546 6.476958
-1.901387 -1.422923 6.571681
-1.865699 -1.422405 6.666217
-1.829625 -1.421968 6.760606
-1.793279 -1.421587 6.854892
-1.756773 -1.421241 6.949115
-1.720219 -1.420904 7.043321
-1.683730 -1.420553 7.137551
-1.647418 -1.420166 7.231850
-1.611396 -1.419718 7.326259
-1.575777 -1.419185 7.420821
-1.540677 -1.418544 7.515576
-1.506211 -1.417771 7.610562
-1.472498 -1.416842 7.705816
-1.439657 -1.415732 7.801373
-1.407811 -1.414417 7.897263
-1.377083 -1.412873 7.993514
-1.347599 -1.411075 8.090149
-1.319487 -1.408998 8.187186
-1.292876 -1.406619 8.284638
-1.267895 -1.403913 8.382512
-1.244675 -1.400856 8.480808
-1.223284 -1.397438 8.579506
-1.203634 -1.393678 8.678554
-1.185611 -1.389602 8.777898
-1.169099 -1.385233 8.877492
-1.153979 -1.380597 8.977295
-1.140133 -1.375716 9.077272
-1.127444 -1.370616 9.177391
-1.115793 -1.365318 9.277626
-1.105064 -1.359847 9.377954
-1.095138 -1.354224 9.478357
-1.085900 -1.348472 9.578819
-1.077235 -1.342613 9.679325
-1.069026 -1.336669 9.779864
-1.061160 -1.330661 9.880427
-1.053520 -1.324611 9.981006
-1.046003 -1.318538 10.081592
-1.038572 -1.312449 10.182183
-1.031221 -1.306345 10.282780
-1.023946 -1.300227 10.383381
-1.016740 -1.294097 10.483986
-1.009596 -1.287954 10.584595
-1.002510 -1.281801 10.685207
-0.995476 -1.275639 10.785823
-0.988487 -1.269468 10.886441
-0.981537 -1.263289 10.987061
-0.974621 -1.257105 11.087684
-0.967733 -1.250915 11.188308
-0.960866 -1.244721 11.288933
-0.954015 -1.238524 11.389559
-0.947173 -1.232326 11.490185
-0.940335 -1.226127 11.590812
-0.933495 -1.219928 11.691439
-0.926646 -1.213731 11.792065
-0.919782 -1.207537 11.892690
-0.912898 -1.201346 11.993315
-0.905988 -1.195161 12.093937
-0.899045 -1.188981 12.194558
-0.892063 -1.182809 12.295177
-0.885038 -1.176644 12.395793
-0.877961 -1.170490 12.496406
-0.870829 -1.164345 12.597015
-0.863635 -1.158212 12.697621
-0.856372 -1.152092 12.798223
-0.849036 -1.145985 12.898821
-0.841620 -1.139894 12.999413
-0.834119 -1.133818 13.100000
-2.234050 -1.440819 5.512022
-1.795193 -1.405994 5.170480
-1.461923 -1.368936 4.725077
-1.232685 -1.331961 4.217413
-1.079274 -1.296020 3.681385
-0.972429 -1.261051 3.133875
-0.887527 -1.226624 2.582425
-0.803008 -1.192207 2.030911
-0.711738 -1.157616 1.480481
-0.617972 -1.122961 0.930472
-0.526288 -1.088360 0.380111
-2.232344 -1.440700 5.510985
-1.796586 -1.406125 5.171910
-1.793800 -1.405864 5.169051
-1.462886 -1.369069 4.726825
-1.460960 -1.368802 4.723330
-1.233354 -1.332092 4.219293
-1.232016 -1.331831 4.215532
-1.079711 -1.296146 3.683332
-1.078837 -1.295893 3.679437
-0.972760 -1.261174 3.135844
-0.972098 -1.260927 3.131907
-0.887819 -1.226747 2.584400
-0.887236 -1.226501 2.580451
-0.803324 -1.192330 2.032882
-0.802692 -1.192083 2.028940
-0.712072 -1.157740 1.482449
-0.711403 -1.157492 1.478513
-0.618307 -1.123085 0.932440
-0.617638 -1.122838 0.928504
-0.526605 -1.088483 0.382082
-2.215836 -1.439551 5.500946
-1.810064 -1.407385 5.185742
-1.780322 -1.404604 5.155219
-1.472785 -1.370361 4.743404
-1.451641 -1.367512 4.706416
-1.239828 -1.333356 4.237488
-1.225541 -1.330566 4.197337
-1.084131 -1.297373 3.702134
-1.074612 -1.294670 3.660589
-0.975965 -1.262373 3.154893
-0.968893 -1.259728 3.112858
-0.890638 -1.227936 2.603511
-0.884416 -1.225312 2.561340
-0.806382 -1.193525 2.051955
-0.799633 -1.190888 2.009866
-0.715302 -1.158939 1.501493
-0.708168 -1.156292 1.459468
-0.621546 -1.124285 0.951483
-0.614399 -1.121638 0.909461
-0.529681 -1.089679 0.401153
-2.166449 -1.436111 5.470913
-2.099705 -1.431269 5.426928
-2.034638 -1.426346 5.380516
-1.971339 -1.421350 5.331713
-1.910062 -1.416279 5.280376
-1.851306 -1.411134 5.226188
-1.741117 -1.400813 5.112798
-1.688583 -1.395541 5.052575
-1.638615 -1.390236 4.990195
-1.591166 -1.384909 4.925895
-1.545851 -1.379571 4.860083
-1.502646 -1.374226 4.792864
-1.423761 -1.363650 4.655813
-1.387243 -1.358319 4.584732
-1.352591 -1.352999 4.512724
-1.319744 -1.347695 4.439869
-1.288665 -1.342408 4.366233
-1.259773 -1.337147 4.291711
-1.207008 -1.326797 4.142613
-1.182434 -1.321599 4.066556
-1.159324 -1.316426 3.990037
-1.137685 -1.311279 3.913088
-1.117144 -1.306155 3.835839
-1.097635 -1.301050 3.758322
-1.061971 -1.291012 3.604200
-1.045360 -1.285970 3.526005
-1.029461 -1.280945 3.447660
-1.014224 -1.275935 3.369183
-0.999604 -1.270941 3.290587
-0.985701 -1.265963 3.211860
-0.959563 -1.256148 3.055822
-0.946927 -1.251203 2.976880
-0.934625 -1.246266 2.897884
-0.922629 -1.241338 2.818840
-0.910795 -1.236414 2.739772
-0.899070 -1.231492 2.660688
-0.875980 -1.221756 2.504164
-0.864211 -1.216833 2.425086
-0.852296 -1.211907 2.346030
-0.840214 -1.206976 2.267000
-0.827956 -1.202040 2.187997
-0.815496 -1.197100 2.109026
-0.790390 -1.187311 1.952816
-0.777515 -1.182359 1.873913
-0.764527 -1.177405 1.795028
-0.751407 -1.172448 1.716165
-0.738205 -1.167488 1.637316
-0.724931 -1.162527 1.558479
-0.698490 -1.152704 1.402492
-0.685059 -1.147738 1.323682
-0.671608 -1.142772 1.244875
-0.658147 -1.137806 1.166070
-0.644687 -1.132840 1.087265
-0.631242 -1.127874 1.008457
-0.604743 -1.118050 0.852480
-0.591425 -1.113087 0.773651
-0.578168 -1.108126 0.694811
-0.565010 -1.103168 0.615954
-0.551951 -1.098212 0.537081
-0.538996 -1.093258 0.458191
60 NaN NaN
-2.234476 -1.440849 5.512281
-2.148090 -1.434832 5.459749
-2.064427 -1.428670 5.402997
-1.983740 -1.422376 5.342102
-1.906258 -1.415964 5.277189
-1.832175 -1.409452 5.208432
-1.761640 -1.402857 5.136047
-1.694755 -1.396197 5.060281
-1.631573 -1.389489 4.981404
-1.572096 -1.382748 4.899698
-1.516282 -1.375991 4.815449
-1.464048 -1.369230 4.728934
-1.415278 -1.362475 4.640418
-1.369831 -1.355737 4.550149
-1.327546 -1.349022 4.458354
-1.288246 -1.342337 4.365239
-1.251748 -1.335684 4.270987
-1.217864 -1.329067 4.175762
-1.186405 -1.322488 4.079705
-1.157181 -1.315946 3.982941
-1.130007 -1.309442 3.885579
-1.104699 -1.302974 3.787713
-1.081076 -1.296541 3.689424
-1.058963 -1.290141 3.590781
-1.038187 -1.283771 3.491847
-1.018600 -1.277428 3.392668
-1.000080 -1.271111 3.293283
-0.982498 -1.264817 3.193725
-0.965725 -1.258543 3.094028
-0.949627 -1.252286 2.994217
-0.934070 -1.246044 2.894320
-0.918918 -1.239812 2.794360
-0.904036 -1.233587 2.694359
-0.889285 -1.227365 2.594339
-0.874528 -1.221143 2.494319
-0.859627 -1.214918 2.394321
-0.844453 -1.208685 2.294364
-0.828974 -1.202444 2.194455
-0.813218 -1.196197 2.094589
-0.797212 -1.189942 1.994764
-0.780983 -1.183682 1.894975
-0.764559 -1.177417 1.795218
-0.747967 -1.171148 1.695489
-0.731235 -1.164875 1.595784
-0.714390 -1.158599 1.496098
-0.697460 -1.152322 1.396427
-0.680471 -1.146042 1.296766
-0.663450 -1.139762 1.197110
-0.646425 -1.133482 1.097455
-0.629423 -1.127202 0.997796
-0.612471 -1.120924 0.898128
-0.595596 -1.114648 0.798447
-0.578825 -1.108374 0.698749
-0.562186 -1.102103 0.599028
-0.545706 -1.095837 0.499280
-0.529412 -1.089575 0.399502
-0.513331 -1.083319 0.299689
-0.497492 -1.077069 0.199836
-0.481922 -1.070826 0.099941
-0.466649 -1.064591 0.000000
-2.234832 -1.441189 5.512368
-3.428018 -1.622206 5.183729
-4.182803 -0.756339 4.424475
-4.782744 0.350664 3.856785
-5.392640 1.463513 3.307243
-6.008311 2.573500 2.758403
-6.614246 3.667016 2.167463
-7.282663 4.702404 1.541085
-8.050387 5.626584 0.858567
-8.940799 6.374134 0.113218
-9.948042 6.889484 -0.678077
-11.037966 7.156678 -1.483034
-12.169028 7.202462 -2.275287
-2.236255 -1.442551 5.512716
-3.426617 -1.623133 5.184815
-3.429418 -1.621279 5.182643
-4.181960 -0.757818 4.425524
-4.183647 -0.754859 4.423426
-4.781868 0.349055 3.857588
-4.783620 0.352272 3.855982
-5.391751 1.461905 3.308032
-5.393529 1.465122 3.306454
-6.007450 2.571897 2.759233
-6.009173 2.575102 2.757572
-6.613334 3.665466 2.168337
-6.615157 3.668567 2.166588
-7.281630 4.700975 1.542029
-7.283696 4.703833 1.540141
-8.049184 5.625368 0.859604
-8.051590 5.627800 0.857530
-8.939425 6.373204 0.114335
-8.942173 6.375064 0.112102
-9.946516 6.888920 -0.676914
-9.949569 6.890049 -0.679239
-11.036350 7.156467 -1.481875
-11.039583 7.156889 -1.484194
-12.167379 7.202544 -2.274159
-2.257001 -1.462403 5.517786
-3.406198 -1.636643 5.200651
-3.449455 -1.607340 5.166723
-4.169660 -0.779384 4.440815
-4.195947 -0.733293 4.408135
-4.769080 0.325597 3.869266
-4.796395 0.375723 3.844273
-5.378789 1.438451 3.319527
-5.406489 1.488570 3.294946
-5.994892 2.548531 2.771339
-6.021703 2.598464 2.745429
-6.600043 3.642860 2.181087
-6.628449 3.691172 2.153839
-7.266593 4.680119 1.555780
-7.298754 4.724666 1.526378
-8.031842 5.607369 0.874620
-8.069123 5.645529 0.842415
-8.919390 6.359648 0.130616
-8.962260 6.388517 0.095801
-9.924258 6.880692 -0.659970
-9.971827 6.898277 -0.696183
-11.012796 7.153351 -1.464973
-11.063144 7.159964 -1.501093
-12.143344 7.203466 -2.257675
-2.356776 -1.548171 5.535749
-2.537664 -1.654976 5.536251
-2.734161 -1.723442 5.505844
-2.934635 -1.753240 5.449212
-3.129367 -1.743422 5.369933
-3.307523 -1.691330 5.270971
-3.534301 -1.536366 5.092774
-3.659865 -1.414044 4.975601
-3.783608 -1.287688 4.860746
-3.903961 -1.157504 4.746597
-4.014249 -1.020552 4.630296
-4.112167 -0.875411 4.512825
-4.251574 -0.632299 4.341678
-4.339688 -0.466289 4.246112
-4.429149 -0.295971 4.159784
-4.521346 -0.124257 4.079273
-4.615737 0.047319 4.001024
-4.710201 0.218224 3.921414
-4.854539 0.482671 3.790453
-4.946502 0.652025 3.704819
-5.039118 0.821742 3.620619
-5.132350 0.991697 3.537588
-5.225918 1.161620 3.454870
-5.319622 1.331376 3.371965
-5.465642 1.595595 3.242390
-5.559455 1.765098 3.159089
-5.653708 1.934480 3.076041
-5.748670 2.103701 2.993473
-5.843594 2.272799 2.910610
-5.937114 2.441852 2.826078
-6.078498 2.705010 2.689415
-6.168366 2.873457 2.599858
-6.259317 3.041245 2.510159
-6.351685 3.208223 2.420397
-6.445208 3.374287 2.330135
-6.539747 3.539318 2.239043
-6.689563 3.793952 2.095387
-6.787722 3.955580 2.002049
-6.887600 4.115584 1.907746
-6.989310 4.273791 1.812373
-7.092977 4.430015 1.715847
-7.198742 4.584058 1.618101
-7.367980 4.819223 1.463275
-7.479696 4.966744 1.362146
-7.594001 5.111247 1.259565
-7.710943 5.252559 1.155522
-7.830612 5.390440 1.049990
-7.953085 5.524645 0.942950
-8.149595 5.725827 0.773196
-8.279477 5.849537 0.662315
-8.412306 5.968718 0.549976
-8.548086 6.083139 0.436223
-8.686825 6.192540 0.321108
-8.828487 6.296706 0.204708
-9.054797 6.448228 0.021060
-9.203531 6.538420 -0.098145
-9.354866 6.622912 -0.218250
-9.508679 6.701626 -0.339131
-9.664841 6.774500 -0.460662
-9.823209 6.841503 -0.582717
-10.073991 6.934086 -0.773609
-10.237337 6.986029 -0.896441
-10.402327 7.032228 -1.019368
-10.568807 7.072767 -1.142284
-10.736619 7.107755 -1.265094
-10.905611 7.137320 -1.387711
-11.170879 7.172941 -1.578164
-11.342252 7.189286 -1.699956
-11.514339 7.200641 -1.821308
-11.687007 7.207279 -1.942183
-11.860151 7.209367 -2.062540
-12.033672 7.207073 -2.182349
172 NaN NaN
-2.234476 -1.440849 5.512281
-2.305974 -1.509265 5.529754
-2.385411 -1.570101 5.539128
-2.471082 -1.622627 5.540628
-2.561329 -1.666473 5.534695
-2.654662 -1.701516 5.521870
-2.749786 -1.727751 5.502694
-2.845567 -1.745193 5.477658
-2.940974 -1.753812 5.447188
-3.035003 -1.753492 5.411643
-3.126602 -1.744017 5.371340
-3.214591 -1.725079 5.326589
-3.297594 -1.696323 5.277748
-3.374263 -1.657773 5.225417
-3.444664 -1.611192 5.170819
-3.509880 -1.558762 5.115065
-3.571375 -1.502367 5.058935
-3.630758 -1.443587 5.002968
-3.689670 -1.383792 4.947578
-3.748839 -1.323630 4.892864
-3.807673 -1.262811 4.838516
-3.865453 -1.200975 4.784187
-3.921432 -1.137780 4.729541
-3.974835 -1.072923 4.674270
-4.025052 -1.006198 4.618243
-4.072400 -0.937585 4.561997
-4.117494 -0.867082 4.506237
-4.160949 -0.794659 4.451646
-4.203369 -0.720278 4.398907
-4.245345 -0.643914 4.348712
-4.287273 -0.565726 4.301360
-4.329305 -0.486100 4.256567
-4.371597 -0.405405 4.213981
-4.414314 -0.323987 4.173236
-4.457636 -0.242170 4.133953
-4.501709 -0.160242 4.095752
-4.546407 -0.078332 4.058242
-4.591488 0.003504 4.021031
-4.636712 0.085215 3.983719
-4.681841 0.166751 3.945911
-4.726636 0.248054 3.907217
-4.771007 0.329117 3.867543
-4.815067 0.410000 3.827159
-4.858941 0.490775 3.786360
-4.902760 0.571517 3.745436
-4.946653 0.652303 3.704678
-4.990724 0.733191 3.664318
-5.034970 0.814169 3.624330
-5.079360 0.895204 3.584621
-5.123864 0.976268 3.545094
-5.168449 1.057329 3.505656
-5.213088 1.138359 3.466213
-5.257758 1.219345 3.426719
-5.302451 1.300295 3.387174
-5.347156 1.381214 3.347578
-5.391863 1.462107 3.307933
-5.436562 1.542981 3.268242
-5.481253 1.623841 3.228511
-5.525972 1.704682 3.188773
-5.570761 1.785499 3.149065
-5.615662 1.866288 3.109426
-5.660716 1.947042 3.069891
-5.705961 2.027757 3.030493
-5.751332 2.108435 2.991165
-5.796687 2.189085 2.951763
-5.841879 2.269718 2.912138
-5.886763 2.350341 2.872145
-5.931191 2.430960 2.831637
-5.975030 2.511575 2.790487
-6.018343 2.592165 2.748732
-6.061307 2.672697 2.706509
-6.104105 2.753143 2.663954
-6.146920 2.833475 2.621203
-6.189935 2.913668 2.578390
-6.233294 2.993697 2.535617
-6.276997 3.073548 2.492862
-6.321014 3.153210 2.450076
-6.365315 3.232670 2.407209
-6.409868 3.311919 2.364211
-6.454645 3.390944 2.321035
-6.499647 3.469731 2.277658
-6.544901 3.548262 2.234080
-6.590435 3.626520 2.190303
-6.636278 3.704487 2.146329
-6.682457 3.782145 2.102160
-6.728998 3.859475 2.057796
-6.775916 3.936458 2.013226
-6.823222 4.013076 1.968440
-6.870929 4.089311 1.923425
-6.919049 4.165144 1.878169
-6.967593 4.240554 1.832663
-7.016577 4.315522 1.786897
-7.066014 4.390027 1.740864
-7.115922 4.464046 1.694556
-7.166316 4.537559 1.647967
-7.217210 4.610542 1.601091
-7.268618 4.682973 1.553922
-7.320556 4.754828 1.506452
-7.373034 4.826085 1.458675
-7.426066 4.896718 1.410584
-7.479664 4.966703 1.362176
-7.533839 5.036015 1.313442
-7.588604 5.104628 1.264381
-7.643968 5.172518 1.214986
-7.699942 5.239659 1.165255
-7.756536 5.306023 1.115186
-7.813758 5.371584 1.064774
-7.871618 5.436316 1.014019
-7.930122 5.500192 0.962919
-7.989277 5.563186 0.911475
-8.049088 5.625271 0.859687
-8.109562 5.686420 0.807554
-8.170702 5.746606 0.755080
-8.232512 5.805802 0.702266
-8.294993 5.863985 0.649116
-8.358146 5.921130 0.595635
-8.421971 5.977210 0.541828
-8.486470 6.032201 0.487699
-8.551640 6.086077 0.433254
-8.617478 6.138819 0.378503
-8.683979 6.190404 0.323453
-8.751139 6.240813 0.268113
-8.818953 6.290022 0.212492
-8.887414 6.338013 0.156600
-8.956515 6.384768 0.100448
-9.026245 6.430272 0.044047
-9.096594 6.474512 -0.012590
-9.167554 6.517472 -0.069451
-9.239113 6.559137 -0.126524
-9.311259 6.599496 -0.183795
-9.383978 6.638543 -0.241252
-9.457256 6.676270 -0.298880
-9.531079 6.712671 -0.356665
-9.605433 6.747737 -0.414594
-9.680303 6.781465 -0.472653
-9.755672 6.813855 -0.530828
-9.831524 6.844907 -0.589106
-9.907841 6.874622 -0.647472
-9.984608 6.903002 -0.705914
-10.061808 6.930049 -0.764417
-10.139423 6.955768 -0.822970
-10.217435 6.980168 -0.881560
-10.295827 7.003256 -0.940174
-10.374581 7.025041 -0.998802
-10.453681 7.045531 -1.057431
-10.533109 7.064737 -1.116050
-10.612849 7.082673 -1.174650
-10.692883 7.099350 -1.233219
-10.773194 7.114784 -1.291750
-10.853768 7.128988 -1.350233
-10.934587 7.141976 -1.408658
-11.015637 7.153764 -1.467019
-11.096903 7.164369 -1.525307
-11.178368 7.173809 -1.583515
-11.260020 7.182099 -1.641638
-11.341845 7.189256 -1.699668
-11.423829 7.195300 -1.757600
-11.505960 7.200247 -1.815429
-11.588224 7.204117 -1.873149
-11.670611 7.206927 -1.930756
-11.753108 7.208696 -1.988247
-11.835705 7.209443 -2.045616
-11.918391 7.209186 -2.102862
-12.001156 7.207942 -2.159979
-12.083991 7.205730 -2.216967
-12.166886 7.202568 -2.273822
-12.249832 7.198475 -2.330542
-12.332823 7.193468 -2.387125
-12.415848 7.187565 -2.443569
-12.498902 7.180786 -2.499873
-12.581977 7.173146 -2.556037
-12.665066 7.164666 -2.612058
-1.384615 -1.412945 7.968956
-1.204512 -1.239665 8.043329
-1.039263 -1.053195 8.120092
-0.895972 -0.850455 8.199386
-0.784770 -0.629405 8.280683
-0.718746 -0.391201 8.362125
-0.716878 -0.142959 8.439332
-0.780941 0.099632 8.507233
-0.903561 0.322431 8.562288
-1.066821 0.520821 8.605118
-1.256136 0.696904 8.638044
-1.383203 -1.411646 7.969520
-1.205839 -1.241045 8.042749
-1.203185 -1.238286 8.043909
-1.040478 -1.054668 8.119496
-1.038049 -1.051722 8.120688
-0.896936 -0.852094 8.198767
-0.895008 -0.848816 8.200005
-0.785486 -0.631164 8.280055
-0.784053 -0.627646 8.281310
-0.718928 -0.393098 8.361516
-0.718564 -0.389305 8.362734
-0.716624 -0.144861 8.438771
-0.717133 -0.141056 8.439893
-0.780265 0.097813 8.506746
-0.781616 0.101450 8.507720
-0.902411 0.320835 8.561925
-0.904710 0.324027 8.562651
-1.065465 0.519380 8.604826
-1.068176 0.522262 8.605409
-1.254583 0.695661 8.637836
-1.375699 -1.404742 7.972521
-1.212891 -1.248375 8.039668
-1.196133 -1.230955 8.046990
-1.046931 -1.062497 8.116329
-1.031596 -1.043893 8.123855
-0.902061 -0.860805 8.195478
-0.889883 -0.840104 8.203294
-0.789292 -0.640510 8.276721
-0.780247 -0.618300 8.284645
-0.720865 -0.403010 8.358220
-0.717596 -0.379228 8.365970
-0.715272 -0.154973 8.435789
-0.718485 -0.130944 8.442874
-0.776678 0.088148 8.504160
-0.785203 0.111115 8.510306
-0.896301 0.312356 8.559995
-0.910821 0.332507 8.564582
-1.058260 0.511721 8.603276
-1.075381 0.529921 8.606959
-1.246522 0.688840 8.636644
-1.356470 -1.387052 7.980210
-1.330900 -1.363530 7.990435
-1.305416 -1.339924 8.000675
-1.280564 -1.315701 8.011035
-1.255713 -1.291478 8.021394
-1.230963 -1.267161 8.031771
-1.178062 -1.212169 8.054887
-1.154344 -1.186920 8.065435
-1.131259 -1.161124 8.076080
-1.108175 -1.135327 8.086725
-1.085457 -1.109236 8.097419
-1.063468 -1.082560 8.108212
-1.015749 -1.023320 8.132051
-0.995035 -0.995699 8.142991
-0.974322 -0.968077 8.153930
-0.954423 -0.939907 8.164947
-0.935204 -0.911281 8.176027
-0.915984 -0.882654 8.187107
-0.876750 -0.817781 8.211722
-0.859286 -0.788098 8.222928
-0.843387 -0.757592 8.234211
-0.827991 -0.726823 8.245518
-0.812595 -0.696053 8.256825
-0.799046 -0.664462 8.268175
-0.770493 -0.594348 8.293191
-0.760258 -0.561520 8.304545
-0.750113 -0.528659 8.315899
-0.739967 -0.495798 8.327253
-0.732972 -0.462097 8.338507
-0.726062 -0.428373 8.349758
-0.715116 -0.353403 8.374264
-0.711819 -0.319064 8.385292
-0.709249 -0.284675 8.396252
-0.709844 -0.250069 8.406917
-0.710439 -0.215463 8.417582
-0.711808 -0.180886 8.428149
-0.721949 -0.105031 8.450514
-0.728132 -0.070806 8.460421
-0.736676 -0.036925 8.469950
-0.745219 -0.003045 8.479479
-0.755259 0.030449 8.488718
-0.767484 0.063382 8.497531
-0.796423 0.135133 8.516470
-0.811949 0.166846 8.524527
-0.827475 0.198558 8.532585
-0.844775 0.229417 8.540174
-0.863165 0.259751 8.547475
-0.881554 0.290085 8.554777
-0.926479 0.354237 8.569528
-0.947299 0.383132 8.576104
-0.969812 0.410840 8.582119
-0.992668 0.438307 8.588020
-1.015524 0.465774 8.593921
-1.039797 0.492095 8.599304
-1.093905 0.549492 8.610907
-1.119865 0.574300 8.615628
-1.145825 0.599108 8.620349
-1.171842 0.623859 8.625045
-1.198978 0.647471 8.629260
-1.226114 0.671083 8.633474
27 NaN NaN
-1.384968 -1.413269 7.968814
-1.308376 -1.342809 7.999441
-1.233936 -1.270252 8.030472
-1.161958 -1.195428 8.061924
-1.092812 -1.118159 8.093809
-1.026948 -1.038254 8.126137
-0.964906 -0.955521 8.158903
-0.907341 -0.869779 8.192090
-0.855037 -0.780875 8.225655
-0.808927 -0.688722 8.259518
-0.770084 -0.593345 8.293549
-0.739703 -0.494942 8.327549
-0.719011 -0.393961 8.361239
-0.709138 -0.291145 8.394258
-0.710919 -0.187535 8.426189
-0.724710 -0.084376 8.456604
-0.750290 0.017062 8.485135
-0.786893 0.115667 8.511524
-0.833383 0.210627 8.535651
-0.888454 0.301466 8.557516
-0.950807 0.388000 8.577212
-1.019259 0.470263 8.594885
-1.092790 0.548426 8.610705
-1.170545 0.622731 8.624844
-1.251825 0.693454 8.637468
-1.336061 0.760875 8.648729
-1.422791 0.825263 8.658764
-1.833737 -1.421784 6.748839
-1.731802 -1.364397 6.774720
-1.631203 -1.304885 6.801017
-1.532154 -1.243027 6.827766
-1.434919 -1.178564 6.855005
-1.339831 -1.111197 6.882779
-1.247314 -1.040578 6.911133
-1.157911 -0.966301 6.940117
-1.072334 -0.887898 6.969777
-0.991588 -0.804788 7.000161
-0.917502 -0.715982 7.031332
-0.851452 -0.621330 7.063184
-0.795733 -0.520491 7.095564
-0.753144 -0.413588 7.128142
-0.726689 -0.301563 7.160351
-0.718870 -0.186435 7.191397
-0.730756 -0.071087 7.220408
-0.761477 0.041501 7.246697
-0.808890 0.148959 7.269867
-0.870217 0.249857 7.289838
-0.941537 0.344481 7.307103
-1.020584 0.433195 7.321995
-1.105622 0.516541 7.334844
-1.195356 0.595095 7.345936
-1.288819 0.669402 7.355517
-1.385286 0.739946 7.363792
-1.832034 -1.420829 6.749270
-1.733486 -1.365383 6.774283
-1.730118 -1.363411 6.775158
-1.632864 -1.305906 6.800573
-1.629542 -1.303864 6.801462
-1.533789 -1.244086 6.827314
-1.530518 -1.241968 6.828217
-1.436524 -1.179665 6.854546
-1.433314 -1.177463 6.855464
-1.341401 -1.112345 6.882311
-1.338261 -1.110050 6.883246
-1.248842 -1.041777 6.910656
-1.245786 -1.039379 6.911610
-1.159389 -0.967557 6.939630
-1.156433 -0.965044 6.940604
-1.073751 -0.889219 6.969280
-1.070917 -0.886577 6.970274
-0.992863 -0.806238 6.999645
-0.990338 -0.803315 7.000680
-0.918636 -0.717542 7.030802
-0.916369 -0.714422 7.031862
-0.852440 -0.622983 7.062646
-0.850464 -0.619676 7.063723
-0.796538 -0.522239 7.095020
-0.794928 -0.518743 7.096108
-0.753723 -0.415423 7.127598
-0.752564 -0.411752 7.128685
-0.727002 -0.303465 7.159818
-0.726376 -0.299661 7.160883
-0.718888 -0.188369 7.190887
-0.718851 -0.184501 7.191906
-0.730474 -0.073009 7.219934
-0.731039 -0.069164 7.220883
-0.760915 0.039631 7.246265
-0.762040 0.043371 7.247128
-0.807886 0.147263 7.269528
-0.809894 0.150656 7.270206
-0.869054 0.248257 7.289542
-0.871379 0.251458 7.290135
-0.940250 0.342972 7.306843
-0.942824 0.345990 7.307362
-1.019198 0.431770 7.321769
-1.021969 0.434619 7.322222
-1.104157 0.515193 7.334645
-1.107086 0.517888 7.335042
-1.193828 0.593816 7.345762
-1.196884 0.596374 7.346109
-1.287240 0.668184 7.355365
-1.290398 0.670620 7.355669
-1.383664 0.738783 7.363659
-1.827184 -1.418112 6.750498
-1.738280 -1.368191 6.773037
-1.725324 -1.360603 6.776404
-1.637594 -1.308813 6.799308
-1.624812 -1.300958 6.802726
-1.538445 -1.247100 6.826029
-1.525863 -1.238953 6.829503
-1.441094 -1.182799 6.853238
-1.428744 -1.174329 6.856772
-1.345870 -1.115611 6.880979
-1.333792 -1.106783 6.884578
-1.253191 -1.045190 6.909299
-1.241436 -1.035965 6.912968
-1.163596 -0.971134 6.938245
-1.152226 -0.961467 6.941989
-1.077785 -0.892980 6.967865
-1.066883 -0.882817 6.971689
-0.996684 -0.810203 6.998198
-0.986780 -0.799123 7.002158
-0.921864 -0.721983 7.029294
-0.913141 -0.709981 7.033370
-0.855252 -0.627690 7.061112
-0.847652 -0.614969 7.065257
-0.798828 -0.527216 7.093470
-0.792637 -0.513766 7.097657
-0.755373 -0.420648 7.126052
-0.750915 -0.406527 7.130231
-0.727894 -0.308880 7.158303
-0.725484 -0.294246 7.162399
-0.718939 -0.193874 7.189437
-0.718800 -0.178996 7.193357
-0.729670 -0.078481 7.218583
-0.731843 -0.063692 7.222234
-0.759313 0.034307 7.245038
-0.763642 0.048695 7.248355
-0.805495 0.142214 7.268457
-0.812751 0.155485 7.271170
-0.865746 0.243701 7.288697
-0.874687 0.256013 7.290980
-0.936586 0.338678 7.306105
-0.946489 0.350284 7.308100
-1.015253 0.427717 7.321124
-1.025914 0.438673 7.322867
-1.099989 0.511357 7.334081
-1.111255 0.521725 7.335606
-1.189479 0.590175 7.345268
-1.201232 0.600016 7.346603
-1.282744 0.664718 7.354933
-1.294894 0.674087 7.356102
-1.379048 0.735473 7.363281
-1.816795 -1.412290 6.753129
-1.803160 -1.404650 6.756582
-1.789525 -1.397010 6.760034
-1.775890 -1.389370 6.763486
-1.762256 -1.381730 6.766939
-1.748621 -1.374090 6.770391
-1.715055 -1.354588 6.779072
-1.701579 -1.346695 6.782574
-1.688102 -1.338801 6.786076
-1.674625 -1.330908 6.789579
-1.661148 -1.323014 6.793081
-1.647725 -1.315039 6.796599
-1.614681 -1.294732 6.805436
-1.601384 -1.286561 6.808992
-1.588088 -1.278391 6.812547
-1.574792 -1.270220 6.816103
-1.561506 -1.262034 6.819662
-1.548418 -1.253558 6.823275
-1.515889 -1.232495 6.832256
-1.502801 -1.224020 6.835870
-1.489713 -1.215545 6.839483
-1.476624 -1.207069 6.843097
-1.463730 -1.198324 6.846761
-1.450883 -1.189513 6.850437
-1.418955 -1.167615 6.859573
-1.406107 -1.158804 6.863249
-1.393260 -1.149993 6.866925
-1.380572 -1.140974 6.870639
-1.368008 -1.131791 6.874383
-1.355444 -1.122608 6.878127
-1.324219 -1.099786 6.887431
-1.311655 -1.090603 6.891174
-1.299196 -1.081291 6.894941
-1.286967 -1.071695 6.898757
-1.274738 -1.062098 6.902574
-1.262510 -1.052502 6.906391
-1.232118 -1.028653 6.915876
-1.219916 -1.019026 6.919698
-1.208089 -1.008969 6.923592
-1.196262 -0.998912 6.927487
-1.184435 -0.988855 6.931382
-1.172608 -0.978798 6.935277
-1.143214 -0.953803 6.944957
-1.131788 -0.943323 6.948920
-1.120447 -0.932751 6.952899
-1.109107 -0.922179 6.956877
-1.097766 -0.911607 6.960855
-1.086426 -0.901035 6.964834
-1.058587 -0.874429 6.974771
-1.047844 -0.863283 6.978837
-1.037101 -0.852136 6.982903
-1.026357 -0.840990 6.986969
-1.015614 -0.829843 6.991035
-1.004871 -0.818697 6.995100
-0.979158 -0.790143 7.005323
-0.969156 -0.778358 7.009478
-0.959154 -0.766573 7.013633
-0.949151 -0.754788 7.017788
-0.939149 -0.743003 7.021942
-0.929147 -0.731218 7.026097
-0.906227 -0.700467 7.036600
-0.897153 -0.687982 7.040840
-0.888079 -0.675497 7.045080
-0.879004 -0.663012 7.049320
-0.869930 -0.650527 7.053560
-0.861276 -0.637773 7.057826
-0.841628 -0.604886 7.068543
-0.833723 -0.591654 7.072855
-0.825818 -0.578421 7.077167
-0.817912 -0.565188 7.081479
-0.810176 -0.551868 7.085796
-0.803736 -0.537877 7.090152
-0.787730 -0.503106 7.100976
-0.781290 -0.489114 7.105332
-0.774850 -0.475123 7.109688
-0.768410 -0.461132 7.114043
-0.763543 -0.446531 7.118392
-0.758906 -0.431842 7.122739
-0.747381 -0.395334 7.133544
-0.742744 -0.380644 7.137892
-0.738107 -0.365954 7.142239
-0.734816 -0.350927 7.146533
-0.732310 -0.335704 7.150794
-0.729803 -0.320480 7.155056
-0.723575 -0.282646 7.165646
-0.721068 -0.267422 7.169908
-0.719487 -0.252100 7.174097
-0.719341 -0.236622 7.178175
-0.719196 -0.221145 7.182252
-0.719050 -0.205668 7.186330
-0.718689 -0.167202 7.196464
-0.718910 -0.151739 7.200498
-0.721169 -0.136355 7.204296
-0.723429 -0.120971 7.208094
-0.725689 -0.105587 7.211892
-0.727948 -0.090203 7.215689
-0.733564 -0.051970 7.225128
-0.737871 -0.036967 7.228608
-0.742374 -0.021999 7.232058
-0.746877 -0.007032 7.235509
-0.751379 0.007935 7.238959
-0.755882 0.022902 7.242409
-0.768376 0.059669 7.250733
-0.774818 0.073995 7.253809
-0.781260 0.088320 7.256885
-0.787702 0.102646 7.259961
-0.794144 0.116972 7.263037
-0.800586 0.131298 7.266113
-0.818872 0.165830 7.273235
-0.826905 0.179407 7.275946
-0.834938 0.192983 7.278656
-0.842971 0.206559 7.281367
-0.851004 0.220136 7.284077
-0.859037 0.233712 7.286788
-0.881774 0.265773 7.292789
-0.891075 0.278581 7.295163
-0.900376 0.291390 7.297538
-0.909677 0.304198 7.299912
-0.918978 0.317006 7.302286
-0.928737 0.329478 7.304524
-0.954338 0.359484 7.309682
-0.964639 0.371558 7.311757
-0.974940 0.383632 7.313832
-0.985241 0.395706 7.315908
-0.995711 0.407635 7.317927
-1.006802 0.419032 7.319741
-1.034366 0.447357 7.324250
-1.045456 0.458754 7.326064
-1.056547 0.470151 7.327878
-1.067638 0.481549 7.329692
-1.079339 0.492353 7.331285
-1.091058 0.503138 7.332872
-1.120185 0.529943 7.336815
-1.131905 0.540728 7.338402
-1.143625 0.551513 7.339988
-1.155711 0.561902 7.341432
-1.167937 0.572138 7.342821
-1.180163 0.582375 7.344210
-1.210548 0.607816 7.347662
-1.222774 0.618052 7.349051
-1.235198 0.628054 7.350357
-1.247837 0.637800 7.351573
-1.260475 0.647546 7.352790
-1.273114 0.657292 7.354006
-1.304524 0.681513 7.357029
-1.317242 0.691156 7.358210
-1.330221 0.700462 7.359275
-1.343200 0.709769 7.360339
-1.356179 0.719075 7.361404
-1.369158 0.728381 7.362469
29 NaN NaN
-1.834163 -1.422023 6.748731
-1.742387 -1.370597 6.771970
-1.651674 -1.317465 6.795543
-1.562176 -1.262467 6.819477
-1.474078 -1.205421 6.843800
-1.387605 -1.146114 6.868544
-1.303037 -1.084305 6.893742
-1.220727 -1.019715 6.919431
-1.141122 -0.952025 6.945646
-1.064795 -0.880871 6.972422
-0.992490 -0.805851 6.999786
-0.925175 -0.726539 7.027747
-0.864112 -0.642521 7.056279
-0.810919 -0.553482 7.085294
-0.767591 -0.459355 7.114596
-0.736399 -0.360545 7.143840
-0.719544 -0.258162 7.172500
-0.718565 -0.154082 7.199920
-0.733762 -0.050626 7.225460
-0.764047 0.050040 7.248665
-0.807383 0.146412 7.269358
-0.861430 0.237757 7.287595
-0.924016 0.323944 7.303572
-0.993338 0.405197 7.317539
-1.067982 0.481902 7.329748
-1.146861 0.554492 7.340427
-1.229150 0.623391 7.349775
-1.314218 0.688988 7.357962
-1.401577 0.751627 7.365129
-1.794781 -1.405781 5.170667
-1.592930 -1.297961 5.263888
-1.397392 -1.181458 5.360027
-1.210499 -1.054203 5.459610
-1.036018 -0.913345 5.563253
-0.881693 -0.754013 5.671735
-0.758939 -0.572330 5.784614
-0.687841 -0.366241 5.898798
-0.691914 -0.144680 6.005182
-0.778351 0.069126 6.091066
-0.920709 0.260073 6.154516
-1.096277 0.427528 6.199845
-1.291304 0.575672 6.231873
-1.793134 -1.404927 5.171415
-1.594536 -1.298873 5.263120
-1.591325 -1.297049 5.264656
-1.398944 -1.182441 5.359236
-1.395840 -1.180475 5.360818
-1.211978 -1.055272 5.458792
-1.209020 -1.053134 5.460428
-1.037370 -0.914544 5.562397
-1.034710 -0.912104 5.564119
-0.882812 -0.755404 5.670834
-0.880574 -0.752622 5.672636
-0.759760 -0.573900 5.783687
-0.758117 -0.570760 5.785541
-0.688205 -0.367981 5.897882
-0.687477 -0.364501 5.899714
-0.691473 -0.146465 6.004408
-0.692441 -0.142904 6.005935
-0.777345 0.067499 6.090483
-0.779356 0.070754 6.091649
-0.919398 0.258626 6.154083
-0.922021 0.261519 6.154949
-1.094780 0.426241 6.199527
-1.097774 0.428816 6.200164
-1.289650 0.574566 6.231674
-1.784777 -1.400596 5.175211
-1.602685 -1.303502 5.259223
-1.583176 -1.292420 5.268553
-1.406820 -1.187427 5.355221
-1.387965 -1.175488 5.364832
-1.219483 -1.060698 5.454641
-1.201514 -1.047709 5.464580
-1.044354 -0.920516 5.558087
-1.028073 -0.905809 5.568515
-0.888491 -0.762465 5.666263
-0.874895 -0.745561 5.677208
-0.763930 -0.581868 5.778983
-0.753947 -0.562792 5.790245
-0.690053 -0.376811 5.893233
-0.685629 -0.355670 5.904363
-0.690303 -0.155632 6.000211
-0.695114 -0.133888 6.009754
-0.772242 0.059240 6.087524
-0.784459 0.079013 6.094608
-0.912743 0.251285 6.151884
-0.928676 0.268860 6.157148
-1.087184 0.419707 6.197910
-1.105370 0.435349 6.201781
-1.281464 0.568683 6.230492
-1.763553 -1.389596 5.184850
-1.735347 -1.374977 5.197659
-1.707142 -1.360359 5.210469
-1.679239 -1.345301 5.223429
-1.651363 -1.330203 5.236404
-1.623488 -1.315105 5.249378
-1.562482 -1.280665 5.278449
-1.534981 -1.265043 5.291601
-1.507787 -1.249008 5.304891
-1.480714 -1.232811 5.318234
-1.453641 -1.216614 5.331577
-1.426821 -1.200092 5.345025
-1.367963 -1.162824 5.375028
-1.341683 -1.145628 5.388694
-1.315677 -1.128096 5.402465
-1.289671 -1.110565 5.416237
-1.263878 -1.092787 5.430085
-1.238546 -1.074477 5.444097
-1.182711 -1.033647 5.475208
-1.158180 -1.014467 5.489478
-1.133648 -0.995287 5.503748
-1.109231 -0.975990 5.518050
-1.085661 -0.955836 5.532596
-1.062090 -0.935682 5.547142
-1.011216 -0.889821 5.579679
-0.988816 -0.868574 5.594516
-0.966415 -0.847328 5.609352
-0.945343 -0.824953 5.624464
-0.924382 -0.802483 5.639600
-0.903421 -0.780013 5.654735
-0.860472 -0.727628 5.688818
-0.841305 -0.703797 5.704247
-0.823777 -0.678885 5.719867
-0.806864 -0.653565 5.735558
-0.789952 -0.628246 5.751250
-0.774521 -0.602105 5.767037
-0.743356 -0.542555 5.802191
-0.731167 -0.514834 5.818084
-0.720635 -0.486385 5.833992
-0.710103 -0.457936 5.849900
-0.700982 -0.429042 5.865736
-0.694746 -0.399239 5.881426
-0.682613 -0.332936 5.915977
-0.681315 -0.302229 5.931100
-0.680017 -0.271521 5.946223
-0.679437 -0.240783 5.961216
-0.683385 -0.209847 5.975383
-0.687333 -0.178911 5.989550
-0.701903 -0.110992 6.019453
-0.710924 -0.080565 6.032342
-0.719946 -0.050138 6.045231
-0.733215 -0.020755 6.056751
-0.746726 0.008568 6.068193
-0.760238 0.037891 6.079635
-0.797420 0.099988 6.102123
-0.814643 0.127863 6.112109
-0.834082 0.154558 6.121073
-0.854249 0.180867 6.129703
-0.874417 0.207175 6.138333
-0.895841 0.232643 6.146300
-0.945577 0.287502 6.162732
-0.969032 0.311480 6.169565
-0.993276 0.334827 6.175933
-1.017519 0.358173 6.182300
-1.042254 0.381063 6.188347
-1.067891 0.403114 6.193804
-1.125062 0.451523 6.205603
-1.151803 0.472414 6.210274
-1.178544 0.493304 6.214945
-1.205424 0.514033 6.219510
-1.233050 0.533888 6.223500
-1.260676 0.553742 6.227490
29 NaN NaN
-1.795193 -1.405994 5.170480
-1.704774 -1.359132 5.211544
-1.615412 -1.310732 5.253137
-1.527251 -1.260652 5.295298
-1.440463 -1.208730 5.338071
-1.355256 -1.154777 5.381506
-1.271889 -1.098578 5.425654
-1.190683 -1.039880 5.470571
-1.112045 -0.978396 5.516314
-1.036489 -0.913791 5.562940
-0.964685 -0.845688 5.610497
-0.897500 -0.773666 5.659011
-0.836069 -0.697286 5.708463
-0.781867 -0.616143 5.758750
-0.736770 -0.529969 5.809620
-0.703029 -0.438825 5.860586
-0.683054 -0.343360 5.910844
-0.678897 -0.245017 5.959277
-0.691540 -0.145944 6.004647
-0.720434 -0.048492 6.045928
-0.763717 0.045442 6.082581
-0.818900 0.134753 6.114577
-0.883527 0.219059 6.142231
-0.955511 0.298459 6.166014
-1.033215 0.373289 6.186423
-1.115393 0.443970 6.203914
-1.201112 0.510934 6.218887
-1.289668 0.574580 6.231677
-1.380530 0.635264 6.242565
-1.461546 -1.368607 4.725078
-1.334336 -1.256085 4.725451
-1.211131 -1.139214 4.726858
-1.093615 -1.016652 4.729669
-0.983488 -0.887504 4.734195
-0.883244 -0.750640 4.740873
-0.798809 -0.603795 4.750677
-0.735089 -0.447218 4.764137
-0.708178 -0.281122 4.783061
-0.725206 -0.114926 4.807017
-0.792065 0.037897 4.834893
-0.896280 0.167992 4.864025
-1.023357 0.276565 4.892918
-1.165028 0.365733 4.920908
-1.314363 0.441800 4.948038
-1.460037 -1.367294 4.725079
-1.335816 -1.257431 4.725442
-1.332856 -1.254739 4.725461
-1.212537 -1.140636 4.726831
-1.209725 -1.137792 4.726886
-1.094974 -1.018120 4.729630
-1.092257 -1.015185 4.729708
-0.984718 -0.889080 4.734127
-0.982258 -0.885929 4.734264
-0.884385 -0.752280 4.740786
-0.882102 -0.749000 4.740959
-0.799692 -0.605585 4.750541
-0.797927 -0.602005 4.750814
-0.735528 -0.449158 4.763930
-0.734649 -0.445278 4.764343
-0.708302 -0.283103 4.782813
-0.708055 -0.279142 4.783309
-0.724583 -0.116799 4.806697
-0.725829 -0.113052 4.807336
-0.791105 0.036175 4.834555
-0.793024 0.039619 4.835230
-0.894864 0.166622 4.863682
-0.897696 0.169362 4.864368
-1.021804 0.275352 4.892580
-1.024911 0.277779 4.893256
-1.163307 0.364767 4.920583
-1.166749 0.366698 4.921232
-1.312551 0.441013 4.947727
-1.454422 -1.362407 4.725085
-1.341323 -1.262439 4.725408
-1.327349 -1.249731 4.725495
-1.217770 -1.145930 4.726727
-1.204492 -1.132498 4.726990
-1.100030 -1.023582 4.729484
-1.087201 -1.009723 4.729854
-0.989297 -0.894944 4.733873
-0.977679 -0.880064 4.734517
-0.888634 -0.758385 4.740463
-0.877853 -0.742896 4.741283
-0.802975 -0.612247 4.750034
-0.794643 -0.595343 4.751321
-0.737861 -0.456184 4.763266
-0.733012 -0.438056 4.765113
-0.708762 -0.290476 4.781889
-0.707594 -0.271769 4.784233
-0.722262 -0.123772 4.805509
-0.728150 -0.106079 4.808525
-0.787534 0.029765 4.833298
-0.796595 0.046029 4.836487
-0.889593 0.161523 4.862404
-0.902968 0.174461 4.865646
-1.016023 0.270834 4.891321
-1.030747 0.282221 4.894511
-1.156900 0.361173 4.919376
-1.173156 0.370292 4.922440
-1.305832 0.438029 4.946564
-1.441196 -1.350897 4.725099
-1.423712 -1.335681 4.725118
-1.406228 -1.320465 4.725136
-1.388744 -1.305249 4.725154
-1.371441 -1.289831 4.725220
-1.354294 -1.274236 4.725327
-1.314378 -1.237934 4.725576
-1.297315 -1.222250 4.725704
-1.280560 -1.206236 4.725912
-1.263806 -1.190222 4.726119
-1.247052 -1.174208 4.726326
-1.230297 -1.158193 4.726534
-1.192167 -1.120030 4.727233
-1.175875 -1.103548 4.727555
-1.159582 -1.087066 4.727877
-1.143421 -1.070458 4.728231
-1.127680 -1.053452 4.728686
-1.111938 -1.036447 4.729140
-1.075293 -0.996858 4.730198
-1.060162 -0.979312 4.730793
-1.045087 -0.961718 4.731402
-1.030012 -0.944123 4.732010
-1.014937 -0.926528 4.732619
-1.000081 -0.908756 4.733276
-0.966896 -0.866252 4.735115
-0.952640 -0.847994 4.735905
-0.938385 -0.829735 4.736695
-0.925099 -0.810772 4.737689
-0.911870 -0.791766 4.738695
-0.898642 -0.772761 4.739701
-0.868660 -0.728001 4.742205
-0.856740 -0.708164 4.743471
-0.844820 -0.688327 4.744737
-0.832899 -0.668490 4.746003
-0.820979 -0.648653 4.747268
-0.810709 -0.627937 4.748839
-0.786909 -0.579653 4.752516
-0.776686 -0.558912 4.754095
-0.767912 -0.537569 4.755919
-0.759912 -0.515903 4.757875
-0.751912 -0.494238 4.759831
-0.743912 -0.472573 4.761786
-0.729156 -0.421049 4.766925
-0.724059 -0.398565 4.769321
-0.718962 -0.376082 4.771716
-0.713865 -0.353599 4.774112
-0.711280 -0.330794 4.776837
-0.709847 -0.307840 4.779713
-0.706510 -0.254405 4.786409
-0.706651 -0.231523 4.789456
-0.709489 -0.208763 4.792794
-0.712326 -0.186003 4.796132
-0.715164 -0.163243 4.799471
-0.718001 -0.140483 4.802809
-0.733615 -0.089656 4.811324
-0.740840 -0.067946 4.815024
-0.748064 -0.046236 4.818725
-0.756885 -0.025245 4.822512
-0.768004 -0.005289 4.826425
-0.779123 0.014668 4.830338
-0.805291 0.060934 4.839454
-0.819469 0.078830 4.843444
-0.833647 0.096727 4.847433
-0.847824 0.114623 4.851423
-0.862002 0.132519 4.855412
-0.877178 0.149513 4.859396
-0.915383 0.186471 4.868654
-0.931795 0.202347 4.872631
-0.948408 0.217994 4.876601
-0.966407 0.232060 4.880519
-0.984407 0.246126 4.884438
-1.002407 0.260193 4.888357
-1.045219 0.291685 4.897417
-1.064348 0.304195 4.901259
-1.083478 0.316705 4.905100
-1.102608 0.329215 4.908942
-1.121865 0.341519 4.912771
-1.141811 0.352709 4.916531
-1.188245 0.378757 4.925284
-1.208191 0.389947 4.929044
-1.228640 0.400202 4.932738
-1.249189 0.410272 4.936419
-1.269738 0.420342 4.940099
-1.290287 0.430411 4.943780
24 NaN NaN
-1.461923 -1.368936 4.725077
-1.380614 -1.298174 4.725163
-1.300873 -1.225652 4.725660
-1.222957 -1.151178 4.726625
-1.147190 -1.074530 4.728122
-1.073985 -0.995446 4.730235
-1.003882 -0.913625 4.733065
-0.937594 -0.828721 4.736739
-0.876081 -0.740350 4.741417
-0.820657 -0.648117 4.747303
-0.773127 -0.551694 4.754644
-0.735945 -0.450995 4.763734
-0.712262 -0.346527 4.774865
-0.705605 -0.239914 4.788225
-0.718781 -0.134234 4.803726
-0.752327 -0.033427 4.820908
-0.803971 0.059267 4.839083
-0.869849 0.142424 4.857620
-0.946132 0.216215 4.876105
-1.029811 0.281609 4.894323
-1.118756 0.339775 4.912185
-1.211505 0.391806 4.929669
-1.307061 0.438631 4.946784
-1.404731 0.481016 4.963553
-0.887283 -1.226202 2.582538
-0.795829 -1.061551 2.626806
-0.718359 -0.890630 2.673669
-0.659227 -0.713391 2.723368
-0.624180 -0.530753 2.775929
-0.619987 -0.345510 2.830873
-0.655066 -0.163937 2.886769
-0.728833 0.005907 2.941188
-0.836294 0.157987 2.992071
-0.969515 0.290078 3.038343
-1.120801 0.403159 3.079896
-0.886306 -1.224517 2.582989
-0.796735 -1.063272 2.626340
-0.794923 -1.059830 2.627271
-0.719087 -0.892425 2.673172
-0.717630 -0.888834 2.674165
-0.659712 -0.715257 2.722838
-0.658741 -0.711525 2.723898
-0.624336 -0.532666 2.775368
-0.624023 -0.528840 2.776491
-0.619795 -0.347413 2.830297
-0.620247 -0.343613 2.831452
-0.654579 -0.165789 2.886193
-0.655553 -0.162085 2.887346
-0.727908 0.004221 2.940638
-0.729758 0.007593 2.941738
-0.835020 0.156529 2.991570
-0.837567 0.159446 2.992572
-0.968001 0.288849 3.037898
-0.971028 0.291307 3.038788
-1.119132 0.402129 3.079502
-0.882266 -1.217543 2.584856
-0.800483 -1.070392 2.624415
-0.791175 -1.052710 2.629196
-0.722100 -0.899851 2.671118
-0.714617 -0.881409 2.676220
-0.661720 -0.722977 2.720643
-0.656733 -0.703805 2.726093
-0.624984 -0.540580 2.773045
-0.623375 -0.520926 2.778814
-0.619620 -0.355337 2.827928
-0.621321 -0.335767 2.833844
-0.652563 -0.173450 2.883806
-0.657568 -0.154424 2.889732
-0.724083 -0.002752 2.938362
-0.733583 0.014567 2.944014
-0.829751 0.150496 2.989499
-0.842836 0.165478 2.994642
-0.961739 0.283764 3.036058
-0.977290 0.296391 3.040628
-1.112497 0.397499 3.077778
-0.872469 -1.200635 2.589380
-0.859491 -1.178237 2.595374
-0.846514 -1.155839 2.601368
-0.833647 -1.133386 2.607384
-0.821609 -1.110520 2.613566
-0.809571 -1.087654 2.619748
-0.782476 -1.035274 2.633935
-0.771528 -1.011921 2.640319
-0.760580 -0.988568 2.646703
-0.749632 -0.965214 2.653087
-0.739083 -0.941705 2.659539
-0.729406 -0.917855 2.666137
-0.707311 -0.863404 2.681201
-0.698459 -0.839283 2.687923
-0.690269 -0.814944 2.694744
-0.682078 -0.790605 2.701565
-0.673888 -0.766266 2.708386
-0.666589 -0.741694 2.715323
-0.651864 -0.685088 2.731413
-0.645415 -0.660294 2.738460
-0.640493 -0.635215 2.745672
-0.636073 -0.610042 2.752938
-0.631652 -0.584869 2.760204
-0.627232 -0.559696 2.767469
-0.621804 -0.501738 2.784446
-0.619723 -0.476322 2.791906
-0.617642 -0.450905 2.799366
-0.618076 -0.425455 2.806967
-0.618636 -0.400003 2.814576
-0.619197 -0.374551 2.822184
-0.623925 -0.316743 2.839645
-0.627374 -0.291542 2.847328
-0.630823 -0.266342 2.855012
-0.634733 -0.241232 2.862693
-0.641205 -0.216628 2.870357
-0.647678 -0.192024 2.878021
-0.663638 -0.136225 2.895468
-0.673110 -0.112572 2.903005
-0.682582 -0.088919 2.910541
-0.692054 -0.065266 2.918078
-0.702522 -0.042057 2.925535
-0.714808 -0.019660 2.932844
-0.742858 0.031474 2.949532
-0.756635 0.053000 2.956659
-0.771425 0.073933 2.963663
-0.786214 0.094867 2.970667
-0.801004 0.115800 2.977671
-0.816976 0.135870 2.984479
-0.855611 0.180105 2.999663
-0.872534 0.199480 3.006314
-0.890858 0.217616 3.012669
-0.909542 0.235434 3.018948
-0.928225 0.253252 3.025227
-0.946909 0.271070 3.031506
-0.992472 0.308718 3.045089
-1.012582 0.325047 3.050999
-1.032693 0.341376 3.056909
-1.053941 0.356328 3.062468
-1.075197 0.371273 3.068025
-1.096452 0.386217 3.073583
20 NaN NaN
-0.887527 -1.226624 2.582425
-0.835059 -1.136068 2.606659
-0.786389 -1.043621 2.631654
-0.742127 -0.949206 2.657464
-0.703003 -0.852786 2.684138
-0.669893 -0.754393 2.711714
-0.643821 -0.654166 2.740202
-0.625953 -0.552415 2.769571
-0.617542 -0.449686 2.799724
-0.619808 -0.346823 2.830473
-0.633746 -0.244985 2.861524
-0.659900 -0.145560 2.892493
-0.698176 -0.049979 2.922949
-0.747825 0.040530 2.952487
-0.807596 0.125131 2.980792
-0.875993 0.203441 3.007674
-0.951516 0.275463 3.033054
-1.032810 0.341471 3.056944
-1.118736 0.401886 3.079409
-1.208368 0.457187 3.100544
-0.526177 -1.087872 0.380123
-0.501398 -0.976959 0.383033
-0.481656 -0.865154 0.388688
-0.467535 -0.752705 0.397355
-0.459644 -0.639961 0.409303
-0.458600 -0.527390 0.424784
-0.464980 -0.415588 0.444014
-0.479265 -0.305273 0.467140
-0.501784 -0.197260 0.494218
-0.532655 -0.092399 0.525188
-0.571755 0.008491 0.559869
-0.618719 0.104704 0.597972
-0.672983 0.195704 0.639126
-0.734078 0.280929 0.683008
-0.801089 0.360320 0.729134
-0.873065 0.434101 0.777042
-0.525735 -1.085922 0.380171
-0.501759 -0.978924 0.382941
-0.501037 -0.974994 0.383125
-0.481927 -0.867130 0.388548
-0.481385 -0.863177 0.388829
-0.467706 -0.754688 0.397162
-0.467363 -0.750722 0.397548
-0.459707 -0.641945 0.409053
-0.459582 -0.637978 0.409553
-0.458545 -0.529365 0.424474
-0.458656 -0.525415 0.425094
-0.464798 -0.417544 0.443641
-0.465161 -0.413631 0.444387
-0.478950 -0.307199 0.466702
-0.479579 -0.303347 0.467578
-0.501333 -0.199143 0.493716
-0.502235 -0.195377 0.494721
-0.532067 -0.094225 0.524623
-0.533243 -0.090573 0.525754
-0.571033 0.006734 0.559244
-0.572477 0.010248 0.560494
-0.617870 0.103025 0.597292
-0.619568 0.106382 0.598652
-0.672016 0.194112 0.638397
-0.673950 0.197295 0.639855
-0.732909 0.279522 0.682200
-0.735247 0.282336 0.683816
-0.799837 0.359005 0.728296
-0.802341 0.361635 0.729972
-0.871741 0.432876 0.776179
-0.524523 -1.080580 0.380301
-0.502748 -0.984307 0.382689
-0.500048 -0.969610 0.383377
-0.482670 -0.872545 0.388163
-0.480643 -0.857762 0.389214
-0.468176 -0.760122 0.396633
-0.466893 -0.745288 0.398078
-0.459879 -0.647378 0.408369
-0.459410 -0.632544 0.410237
-0.458393 -0.534776 0.423625
-0.458808 -0.520004 0.425943
-0.464300 -0.422904 0.442619
-0.465659 -0.408271 0.445408
-0.478088 -0.312476 0.465504
-0.480441 -0.298071 0.468777
-0.500097 -0.204300 0.492339
-0.503470 -0.190220 0.496097
-0.530456 -0.099228 0.523073
-0.534854 -0.085570 0.527303
-0.569056 0.001919 0.557531
-0.574454 0.015063 0.562207
-0.615544 0.098427 0.595428
-0.621894 0.110980 0.600515
-0.669367 0.189751 0.636399
-0.676812 0.201475 0.641937
-0.729827 0.275547 0.680033
-0.738450 0.286192 0.686029
-0.796406 0.355402 0.726000
-0.805772 0.365238 0.732268
-0.868112 0.429519 0.773816
-0.521970 -1.069325 0.380577
-0.518625 -1.054575 0.380938
-0.515279 -1.039824 0.381299
-0.511933 -1.025074 0.381659
-0.508587 -1.010323 0.382020
-0.505242 -0.995573 0.382381
-0.497964 -0.958268 0.383909
-0.495233 -0.943403 0.384605
-0.492502 -0.928539 0.385302
-0.489771 -0.913674 0.385999
-0.487040 -0.898809 0.386695
-0.484309 -0.883945 0.387392
-0.479079 -0.846353 0.390025
-0.477029 -0.831401 0.391088
-0.474980 -0.816449 0.392151
-0.472930 -0.801496 0.393214
-0.470880 -0.786544 0.394277
-0.469167 -0.771569 0.395518
-0.465903 -0.733841 0.399192
-0.464605 -0.718838 0.400653
-0.463307 -0.703836 0.402114
-0.462009 -0.688833 0.403575
-0.460714 -0.673830 0.405038
-0.460240 -0.658826 0.406927
-0.459048 -0.621096 0.411678
-0.458574 -0.606093 0.413568
-0.458100 -0.591089 0.415457
-0.457626 -0.576085 0.417346
-0.457653 -0.561117 0.419491
-0.458073 -0.546176 0.421836
-0.459128 -0.508604 0.427732
-0.459547 -0.493663 0.430077
-0.459967 -0.478722 0.432422
-0.460500 -0.463798 0.434823
-0.461875 -0.448998 0.437645
-0.463250 -0.434197 0.440466
-0.466709 -0.396978 0.447561
-0.468084 -0.382178 0.450383
-0.469459 -0.367377 0.453204
-0.471514 -0.352733 0.456357
-0.473894 -0.338163 0.459667
-0.476273 -0.323593 0.462978
-0.482256 -0.286954 0.471303
-0.484636 -0.272384 0.474613
-0.487258 -0.257891 0.478039
-0.490670 -0.243650 0.481839
-0.494082 -0.229408 0.485639
-0.497494 -0.215167 0.489440
-0.506074 -0.179353 0.498997
-0.509486 -0.165112 0.502797
-0.513719 -0.151210 0.506976
-0.518167 -0.137396 0.511254
-0.522615 -0.123582 0.515532
-0.527063 -0.109768 0.519809
-0.538248 -0.075030 0.530567
-0.543051 -0.061399 0.535003
-0.548511 -0.048105 0.539733
-0.553970 -0.034812 0.544463
-0.559430 -0.021518 0.549193
-0.564890 -0.008224 0.553922
-0.578620 0.025206 0.565816
-0.584955 0.037956 0.570923
-0.591377 0.050652 0.576068
-0.597800 0.063348 0.581213
-0.604222 0.076044 0.586358
-0.610644 0.088740 0.591503
-0.627212 0.120361 0.604614
-0.634527 0.132401 0.610129
-0.641841 0.144442 0.615645
-0.649156 0.156483 0.621160
-0.656471 0.168523 0.626675
-0.663786 0.180564 0.632191
-0.683010 0.210135 0.646391
-0.691134 0.221485 0.652228
-0.699258 0.232836 0.658066
-0.707381 0.244186 0.663904
-0.715505 0.255537 0.669741
-0.723629 0.266887 0.675579
-0.745197 0.294316 0.690692
-0.754040 0.304963 0.696803
-0.762883 0.315610 0.702914
-0.771727 0.326256 0.709026
-0.780570 0.336903 0.715137
-0.789413 0.347550 0.721248
-0.813000 0.372829 0.737105
-0.822474 0.382777 0.743444
-0.831947 0.392726 0.749783
-0.841420 0.402674 0.756123
-0.850894 0.412622 0.762462
-0.860467 0.422446 0.768836
18 NaN NaN
-0.526288 -1.088360 0.380111
-0.503009 -0.985728 0.382622
-0.484007 -0.882303 0.387469
-0.469746 -0.778271 0.394866
-0.460716 -0.673890 0.405031
-0.457418 -0.569506 0.418175
-0.460336 -0.465562 0.434487
-0.469903 -0.362597 0.454115
-0.486456 -0.261239 0.477145
-0.510191 -0.162167 0.503583
-0.541132 -0.066071 0.533341
-0.579113 0.026408 0.566244
-0.623791 0.114729 0.602034
-0.674678 0.198494 0.640404
-0.731195 0.277458 0.681015
-0.792718 0.351529 0.723532
-0.858627 0.420744 0.767637
-0.928336 0.485236 0.813045
