-1.772022 0.574169 14.116971
-1.777897 0.583470 14.116242
-1.783773 0.592770 14.115512
-2.073176 1.033237 14.082964
-2.432416 1.394418 14.083853
-2.904641 1.607650 14.130875
-3.420731 1.691947 14.128637
-1.787509 0.598686 14.115048
-2.072113 1.031549 14.083097
-2.074239 1.034926 14.082831
-2.430612 1.393585 14.083624
-2.434220 1.395250 14.084083
-2.902697 1.607181 14.130841
-2.906584 1.608120 14.130910
-3.418755 1.691636 14.128655
-1.802598 0.622571 14.113175
-2.057065 1.007639 14.084983
-2.089286 1.058836 14.080946
-2.405073 1.381800 14.080376
-2.459755 1.407040 14.087340
-2.875179 1.600535 14.130355
-2.934451 1.612979 14.130889
-3.390858 1.686805 14.128749
-1.835413 0.673697 14.109258
-1.872828 0.730487 14.105080
-1.910719 0.786969 14.101046
-1.948682 0.843405 14.097033
-1.986632 0.899850 14.093017
-2.024046 0.956639 14.088839
-2.121339 1.110431 14.076826
-2.157597 1.167921 14.072374
-2.197240 1.223240 14.069122
-2.242803 1.273554 14.068174
-2.293150 1.319020 14.069279
-2.351172 1.354392 14.074236
-2.514324 1.432853 14.095240
-2.574477 1.463565 14.103898
-2.633380 1.496762 14.112308
-2.692580 1.529757 14.119303
-2.753396 1.559689 14.124991
-2.816055 1.586107 14.129269
-2.994687 1.621798 14.130381
-3.062185 1.631056 14.129645
-3.129643 1.640561 14.128977
-3.196847 1.651783 14.128789
-3.263898 1.663873 14.128812
-3.330919 1.676137 14.128852
-4.747073 1.883793 14.099499
-5.642343 2.769673 14.028269
-6.130921 4.016025 13.961769
-6.753959 5.199521 13.893365
-7.585694 6.243796 13.815582
-8.652021 7.045303 13.729714
-9.886220 7.553879 13.641601
-11.198778 7.804904 13.555906
-12.535013 7.859575 13.474208
-3.422706 1.692258 14.128620
-4.745127 1.883337 14.099564
-4.749019 1.884249 14.099435
-5.641672 2.767795 14.028418
-5.643015 2.771551 14.028120
-6.130113 4.014198 13.961865
-6.131735 4.017849 13.961672
-6.752912 5.197821 13.893473
-6.755006 5.201222 13.893257
-7.584309 6.242358 13.815704
-7.587078 6.245234 13.815460
-8.650294 7.044303 13.729845
-8.653748 7.046304 13.729583
-9.884303 7.553323 13.641732
-9.888137 7.554434 13.641471
-11.196793 7.804701 13.556031
-11.200764 7.805107 13.555781
-12.533017 7.859623 13.474327
-3.450674 1.696664 14.128376
-4.717573 1.876888 14.100474
-4.776574 1.890698 14.098525
-5.632160 2.741211 14.030533
-5.652526 2.798135 14.026005
-6.118668 3.988336 13.963226
-6.143306 4.043654 13.960304
-6.738083 5.173750 13.894998
-6.769830 5.225297 13.891733
-7.564709 6.221998 13.817428
-7.606678 6.265594 13.813735
-8.625849 7.030138 13.731702
-8.678445 7.060019 13.727723
-9.857224 7.545266 13.643580
-9.915272 7.562304 13.639625
-11.168681 7.801823 13.557797
-11.228876 7.807985 13.554015
-12.504762 7.860302 13.476004
-3.578240 1.715877 14.126968
-3.780619 1.744438 14.124140
-3.982988 1.773040 14.121054
-4.185376 1.801360 14.116850
-4.387695 1.829897 14.111087
-4.590133 1.857396 14.104528
-4.897770 1.933930 14.094166
-5.073855 2.037363 14.087214
-5.255908 2.130004 14.081455
-5.417634 2.252165 14.072271
-5.517043 2.429505 14.057385
-5.589381 2.619919 14.040677
-5.697068 2.918920 14.017533
-5.767840 3.110374 14.006734
-5.839055 3.301762 13.997842
-5.912906 3.492128 13.988525
-5.988612 3.681754 13.978976
-6.067042 3.870263 13.969394
-6.196122 4.161198 13.954067
-6.281768 4.346518 13.944094
-6.373295 4.528981 13.933831
-6.467741 4.709957 13.923422
-6.564530 4.889669 13.912901
-6.669727 5.064554 13.901981
-6.838003 5.334606 13.884757
-6.954409 5.502167 13.873329
-7.078620 5.664071 13.861560
-7.201614 5.826906 13.849842
-7.334670 5.981506 13.837714
-7.476105 6.128550 13.825263
-7.699411 6.354901 13.805755
-7.854483 6.487410 13.792845
-8.011957 6.617077 13.779864
-8.173797 6.741163 13.766765
-8.342998 6.855037 13.753487
-8.515300 6.964182 13.740150
-8.792021 7.120612 13.719237
-8.974894 7.210895 13.705770
-9.160581 7.295243 13.692298
-9.349016 7.373247 13.678834
-9.540556 7.443271 13.665403
-9.734337 7.506895 13.652015
-10.039454 7.596228 13.631235
-10.237997 7.642944 13.618030
-10.437089 7.687325 13.604857
-10.637346 7.726014 13.591772
-10.839125 7.755949 13.578838
-11.040975 7.785452 13.565912
-11.357202 7.818572 13.546023
-11.560617 7.834165 13.533387
-11.764076 7.849051 13.520768
-11.968001 7.855128 13.508362
-12.171992 7.859087 13.496011
-12.375992 7.862134 13.483683
152 NaN NaN
-1.769085 0.569519 14.117336
-1.822803 0.654557 14.110666
-1.878159 0.738578 14.104485
-1.934338 0.822070 14.098551
-1.990486 0.905582 14.092609
-2.045751 0.989661 14.086400
-2.099325 1.074788 14.079688
-2.152173 1.160353 14.072819
-2.210791 1.242148 14.068011
-2.282574 1.312573 14.068376
-2.368286 1.364825 14.075698
-2.459201 1.406778 14.087260
-2.549540 1.449511 14.100338
-2.636681 1.498622 14.112780
-2.724281 1.547414 14.123003
-2.816875 1.586453 14.129325
-2.914772 1.610097 14.131054
-3.014501 1.624699 14.130215
-3.114415 1.638018 14.129020
-3.213842 1.654621 14.128741
-3.312970 1.672943 14.128883
-3.412217 1.690606 14.128712
-3.511791 1.706293 14.127841
-3.611558 1.720683 14.126530
-3.711382 1.734661 14.125102
-3.811190 1.748755 14.123716
-3.910990 1.762896 14.122258
-4.010799 1.776958 14.120589
-4.110617 1.790909 14.118607
-4.210427 1.804862 14.116261
-4.310209 1.818937 14.113504
-4.409976 1.833049 14.110392
-4.509784 1.846826 14.107122
-4.609679 1.859967 14.103897
-4.709307 1.874953 14.100747
-4.807357 1.897904 14.097508
-4.900829 1.935149 14.094053
-4.988423 1.984852 14.090519
-5.074257 2.037610 14.087198
-5.163045 2.085188 14.084314
-5.253876 2.128821 14.081539
-5.340874 2.179434 14.077955
-5.414557 2.247559 14.072649
-5.470341 2.331068 14.065784
-5.513881 2.421615 14.058076
-5.551254 2.514874 14.049906
-5.585647 2.609265 14.041587
-5.618881 2.704092 14.033486
-5.652744 2.798743 14.025956
-5.687487 2.893130 14.019166
-5.722531 2.987461 14.013194
-5.757374 3.081918 14.008087
-5.792138 3.176435 14.003594
-5.827264 3.270827 13.999305
-5.863134 3.364932 13.994855
-5.899705 3.458757 13.990209
-5.936745 3.552394 13.985483
-5.974080 3.645915 13.980777
-6.011921 3.739233 13.976087
-6.050633 3.832192 13.971366
-6.090489 3.924661 13.966576
-6.131237 4.016739 13.961731
-6.172436 4.108615 13.956860
-6.213790 4.200420 13.951983
-6.255765 4.291941 13.947079
-6.299071 4.382836 13.942108
-6.344185 4.472842 13.937048
-6.390529 4.562218 13.931926
-6.437232 4.651407 13.926787
-6.483756 4.740690 13.921656
-6.530963 4.829611 13.916493
-6.580076 4.917485 13.911238
-6.631815 5.003831 13.905859
-6.685124 5.089216 13.900407
-6.738564 5.174519 13.894948
-6.791343 5.260235 13.889520
-6.844838 5.345501 13.884060
-6.900868 5.429109 13.878484
-6.960357 5.510284 13.872756
-7.021737 5.590039 13.866947
-7.083054 5.669843 13.861140
-7.143345 5.750428 13.855376
-7.204336 5.830480 13.849583
-7.268176 5.908259 13.843673
-7.335807 5.982758 13.837613
-7.405520 6.055314 13.831473
-7.475354 6.127754 13.825329
-7.544424 6.200926 13.819214
-7.614206 6.273415 13.813072
-7.686448 6.343434 13.806845
-7.761799 6.410091 13.800513
-7.838977 6.474626 13.794124
-7.916600 6.538625 13.787722
-7.994132 6.602734 13.781324
-8.072508 6.665803 13.774902
-8.152762 6.726453 13.768430
-8.235196 6.784102 13.761904
-8.319074 6.839631 13.755346
-8.403648 6.894094 13.748775
-8.488650 6.947885 13.742197
-8.574466 7.000364 13.735605
-8.661498 7.050795 13.728994
-8.749847 7.098881 13.722367
-8.839262 7.144956 13.715730
-8.929496 7.189405 13.709088
-9.020411 7.232443 13.702444
-9.111983 7.274065 13.695800
-9.204195 7.314250 13.689156
-9.297078 7.352858 13.682515
-9.390710 7.389614 13.675879
-9.485148 7.424245 13.669254
-9.580285 7.456913 13.662642
-9.675875 7.488235 13.656040
-9.771704 7.518822 13.649443
-9.867805 7.548538 13.642854
-9.964416 7.576556 13.636282
-10.061720 7.602065 13.629738
-10.159596 7.625300 13.623222
-10.257739 7.647387 13.616723
-10.355899 7.669399 13.610224
-10.454132 7.691088 13.603730
-10.552699 7.711195 13.597260
-10.651791 7.728543 13.590835
-10.751275 7.743521 13.584452
-10.850889 7.757613 13.578086
-10.950436 7.772170 13.571711
-11.049977 7.786772 13.565335
-11.149725 7.799882 13.558988
-11.249809 7.810128 13.552700
-11.350110 7.818058 13.546463
-11.450463 7.825322 13.540241
-11.550756 7.833353 13.534001
-11.651031 7.841608 13.527757
-11.751408 7.848518 13.521543
-11.851936 7.852747 13.515393
-11.952535 7.854889 13.509297
-12.053148 7.856443 13.503216
-12.153746 7.858657 13.497117
-12.254341 7.861027 13.491015
-12.354957 7.862306 13.484941
-12.455579 7.861485 13.478924
-12.556181 7.859066 13.472951
-12.656769 7.856123 13.466994
-12.757366 7.853502 13.461027
-12.857961 7.850779 13.455064
-12.958525 7.847092 13.449128
-13.059020 7.841779 13.443240
-13.159440 7.835172 13.437391
-13.259817 7.827906 13.431563
-13.360192 7.820618 13.425736
-13.460608 7.813942 13.419890
-13.561096 7.808516 13.414005
