0.272227 0.272206 0.271931 0.270006 0.266955 0.261462 0.255970 0.250477 0.243877 0.239712 0.238812 0.238745 0.238679 0.237787 0.234030 0.228078 0.223330 0.218582 0.213833 0.209975 0.207539 0.207042 0.207005 0.206969 0.206476 0.204361 0.201009 0.198103 0.195198 0.192292 0.189734 0.188119 0.187780 0.187755 0.187731 0.187394 0.185920 0.183585 0.181462 0.179339 0.177216 0.175292 0.174077 0.173819 0.173800 0.173781 0.173523 0.172401 0.170623 0.169006 0.167389 0.165771 0.164292 0.163358 0.163160 0.163145 
0.272235 0.272248 0.272369 0.272341 0.272303 0.271266 0.270229 0.269192 0.267227 0.265789 0.265261 0.265206 0.265150 0.264612 0.262965 0.260714 0.258131 0.255547 0.252964 0.250371 0.248473 0.247842 0.247776 0.247711 0.247086 0.245277 0.242805 0.240401 0.237996 0.235592 0.233368 0.231741 0.231205 0.231149 0.231094 0.230566 0.229094 0.227082 0.225260 0.223437 0.221615 0.219942 0.218718 0.218316 0.218274 0.218232 0.217833 0.216704 0.215161 0.213733 0.212305 0.210877 0.209544 0.208569 0.208244 0.208210 0.208176 0.207851 0.206932 0.205676 0.204483 0.203290 0.202097 0.200947 0.200106 0.199820 0.199790 0.199760 0.199472 0.198652 0.197532 0.196441 0.195350 0.194259 0.193186 0.192400 0.192133 0.192105 0.192077 0.191810 0.191040 0.189988 0.188962 0.187936 0.186910 0.185909 0.185177 0.184929 0.184903 0.184878 0.184631 0.183924 0.182957 0.182024 0.181090 0.180156 0.179251 0.178588 0.178366 0.178343 0.178320 0.178099 0.177463 0.176593 0.175762 0.174932 0.174101 0.173299 0.172713 0.172514 0.172494 0.172473 0.172276 0.171709 0.170935 0.170189 0.169443 0.168696 0.167982 0.167460 0.167282 0.167264 0.167245 0.167069 0.166561 0.165868 0.165201 0.164533 0.163865 0.163220 0.162748 0.162587 0.162571 
0.272280 0.272472 0.275244 0.281103 0.290385 0.284410 0.278435 0.272460 0.263694 0.258161 0.256723 0.256624 0.256530 0.255177 0.249317 0.240032 0.232038 0.224044 0.216049 0.208948 0.204465 0.203560 0.203498 0.203435 0.202533 0.198962 0.193304 0.189479 0.185654 0.181829 0.179053 0.177302 0.176945 0.176920 0.176896 0.176542 0.174970 0.172479 0.169745 0.167012 0.164278 0.160785 0.158580 0.157827 0.157775 0.157720 0.156927 0.153426 0.147878 0.142918 0.137959 0.132999 0.129922 0.127979 0.127665 0.127643 0.127622 0.127319 0.126228 0.124499 0.123395 0.122292 0.121188 0.120452 0.119987 0.119898 0.119891 0.119885 0.119798 0.119446 0.118889 0.118476 0.118064 0.117651 0.117342 0.117146 0.117108 0.117105 0.117103 0.117065 0.116906 0.116654 0.116449 0.116244 0.116039 0.115868 0.115760 0.115737 0.115736 0.115734 0.115712 0.115617 0.115467 0.115339 0.115211 0.115083 0.114975 0.114906 0.114893 0.114892 0.114891 0.114877 0.114818 0.114724 0.114645 0.114567 0.114488 0.114422 0.114381 0.114372 0.114371 0.114371 0.114362 0.114326 0.114269 0.114220 0.114171 0.114122 0.114081 0.114054 0.114049 0.114049 0.114048 0.114043 0.114020 0.113984 0.113954 0.113923 0.113893 0.113868 0.113853 0.113850 0.113850 
0.206988 0.206917 0.206399 0.205030 0.203203 0.201455 0.199707 0.197960 0.196322 0.195094 0.194650 0.194590 0.194530 0.194093 0.192973 0.191479 0.190119 0.188760 0.187400 0.186206 0.185311 0.184992 0.184949 0.184906 0.184592 0.183800 0.182744 0.181786 0.180829 0.179872 0.178994 0.178336 0.178100 0.178068 0.178036 0.177802 0.177202 0.176401 0.175708 0.175015 0.174322 0.173739 0.173302 0.173146 0.173125 0.173106 0.172961 0.172586 0.172085 0.171659 0.171233 0.170807 0.170434 0.170154 0.170058 0.170045 0.170031 0.169935 0.169690 0.169364 0.169068 0.168773 0.168477 0.168214 0.168017 0.167944 0.167934 0.167925 0.167858 0.167674 0.167430 0.167202 0.166975 0.166747 0.166527 0.166363 0.166303 0.166295 
0.238711 0.238576 0.237879 0.236120 0.233781 0.231472 0.229163 0.226853 0.224606 0.222914 0.222264 0.222138 0.222011 0.221363 0.219750 0.217606 0.215568 0.213530 0.211492 0.209676 0.208310 0.207797 0.207697 0.207600 0.207098 0.205919 0.204351 0.202989 0.201627 0.200265 0.199366 0.198689 0.198429 0.198378 0.198328 0.198069 0.197413 0.196542 0.195699 0.194857 0.194014 0.193195 0.192578 0.192336 0.192289 0.192242 0.192001 0.191395 0.190589 0.189802 0.189014 0.188227 0.187439 0.186846 0.186615 0.186570 0.186525 0.186293 0.185711 0.184937 0.184187 0.183438 0.182689 0.181986 0.181457 0.181257 0.181218 0.181180 0.180983 0.180513 0.179888 0.179333 0.178778 0.178223 0.177737 0.177372 0.177250 0.177226 0.177203 0.177082 0.176786 0.176393 0.176065 0.175737 0.175409 0.175124 0.174910 0.174832 0.174817 0.174802 0.174725 0.174533 0.174278 0.174060 0.173842 0.173624 0.173437 0.173296 0.173240 0.173229 0.173218 0.173162 0.173030 0.172856 0.172692 0.172529 0.172365 0.172211 0.172095 0.172051 0.172042 0.172034 0.171993 0.171888 0.171748 0.171614 0.171479 0.171344 0.171213 0.171115 0.171078 0.171070 
0.265163 0.264991 0.264287 0.262617 0.260405 0.258286 0.256166 0.254047 0.251974 0.250408 0.249765 0.249608 0.249452 0.248811 0.247256 0.245197 0.243204 0.241210 0.239217 0.237291 0.235837 0.235246 0.235102 0.234959 0.234371 0.232969 0.231113 0.229272 0.227431 0.225590 0.223745 0.222351 0.221788 0.221650 0.221515 0.220960 0.219675 0.217974 0.216371 0.214768 0.213165 0.211721 0.210632 0.210253 0.210161 0.210072 0.209707 0.209092 0.208277 0.207550 0.206823 0.206096 0.205396 0.204868 0.204654 0.204602 0.204550 0.204337 0.203823 0.203143 0.202482 0.201820 0.201159 0.200511 0.200021 0.199820 0.199772 0.199723 0.199523 0.199046 0.198415 0.197794 0.197174 0.196553 0.195942 0.195481 0.195289 0.195242 0.195196 0.195005 0.194546 0.193938 0.193330 0.192723 0.192116 0.191515 0.191062 0.190876 0.190830 0.190785 0.190599 0.190148 0.189550 0.188959 0.188368 0.187778 0.187197 0.186759 0.186581 0.186537 0.186494 0.186315 0.185893 0.185334 0.184807 0.184281 0.183754 0.183274 0.182911 0.182769 0.182734 0.182700 0.182559 0.182231 0.181797 0.181421 0.181045 0.180669 0.180321 0.180058 0.179963 0.179940 0.179918 0.179828 0.179615 0.179334 0.179079 0.178824 0.178569 0.178341 0.178170 0.178099 0.178082 0.178065 0.177995 0.177849 0.177655 0.177471 0.177287 0.177103 0.176947 0.176829 0.176780 0.176768 0.176756 0.176707 0.176589 0.176433 0.176298 0.176163 0.176028 0.175898 0.175799 0.175761 0.175752 0.175743 0.175705 0.175612 0.175488 0.175374 0.175261 0.175147 0.175035 0.174951 0.174916 0.174908 0.174900 0.174869 0.174792 0.174691 0.174591 0.174490 0.174390 0.174295 0.174222 0.174192 0.174184 
0.247728 0.247539 0.246594 0.244245 0.241124 0.238185 0.235247 0.232309 0.229573 0.227514 0.226753 0.226601 0.226452 0.225708 0.223842 0.221363 0.219096 0.216828 0.214561 0.212664 0.211236 0.210716 0.210611 0.210508 0.209989 0.208770 0.207150 0.205822 0.204494 0.203166 0.202247 0.201556 0.201290 0.201237 0.201183 0.200918 0.200252 0.199367 0.198511 0.197656 0.196800 0.195960 0.195328 0.195080 0.195030 0.194981 0.194733 0.194104 0.193267 0.192423 0.191579 0.190735 0.189901 0.189274 0.189033 0.188985 0.188937 0.188697 0.188097 0.187301 0.186552 0.185803 0.185055 0.184369 0.183853 0.183665 0.183627 0.183590 0.183404 0.182951 0.182349 0.181856 0.181362 0.180868 0.180486 0.180197 0.180088 0.180066 0.180044 0.179936 0.179702 0.179391 0.179137 0.178882 0.178628 0.178423 0.178268 0.178206 0.178194 0.178182 0.178119 0.177999 0.177838 0.177695 0.177551 0.177408 0.177276 0.177177 0.177147 0.177141 0.177135 0.177105 0.177026 0.176921 0.176828 0.176735 0.176642 0.176562 0.176502 0.176481 0.176477 0.176473 0.176452 0.176396 0.176322 0.176260 0.176198 0.176136 0.176081 0.176039 0.176022 0.176019 
0.218247 0.218140 0.217882 0.217377 0.216719 0.216082 0.215446 0.214809 0.214193 0.213722 0.213487 0.213390 0.213294 0.213061 0.212603 0.212007 0.211426 0.210846 0.210266 0.209704 0.209273 0.209059 0.208971 0.208883 0.208672 0.208259 0.207721 0.207201 0.206680 0.206160 0.205659 0.205275 0.205086 0.205007 0.204929 0.204740 0.204372 0.203891 0.203424 0.202957 0.202490 0.202041 0.201696 0.201526 0.201455 0.201385 0.201216 0.200888 0.200460 0.200050 0.199639 0.199229 0.198832 0.198527 0.198376 0.198314 0.198252 0.198102 0.197809 0.197428 0.197060 0.196692 0.196324 0.195966 0.195692 0.195554 0.195497 0.195441 0.195303 0.195035 0.194685 0.194353 0.194020 0.193688 0.193363 0.193113 0.192989 0.192937 0.192886 0.192762 0.192519 0.192202 0.191891 0.191580 0.191269 0.190964 0.190729 0.190614 0.190566 0.190518 0.190403 0.190177 0.189882 0.189593 0.189303 0.189014 0.188728 0.188509 0.188399 0.188354 0.188309 0.188201 0.187991 0.187716 0.187447 0.187177 0.186907 0.186641 0.186438 0.186335 0.186293 0.186251 0.186149 0.185954 0.185699 0.185453 0.185207 0.184960 0.184717 0.184531 0.184437 0.184399 0.184360 0.184267 0.184084 0.183845 0.183626 0.183407 0.183187 0.182971 0.182806 0.182723 0.182689 0.182655 0.182572 0.182410 0.182199 0.182005 0.181811 0.181617 0.181433 0.181292 0.181221 0.181192 0.181164 0.181097 0.180970 0.180804 0.180652 0.180499 0.180347 0.180217 0.180117 0.180067 0.180047 0.180026 0.179977 0.179882 0.179757 0.179637 0.179517 0.179396 0.179303 0.179231 0.179195 0.179180 0.179165 0.179129 0.179059 0.178966 0.178875 0.178784 0.178692 0.178613 0.178551 0.178525 0.178515 0.178504 0.178478 0.178425 0.178357 0.178291 0.178225 0.178159 0.178091 0.178039 0.178017 0.178009 0.178001 0.177982 0.177943 0.177893 0.177841 0.177789 0.177737 0.177684 0.177644 0.177623 0.177615 0.177606 0.177585 0.177556 0.177519 0.177481 0.177442 0.177404 0.177364 0.177333 0.177318 0.177311 0.177305 0.177289 0.177261 0.177226 0.177198 0.177171 0.177143 0.177114 0.177092 0.177081 0.177076 0.177071 0.177060 0.177036 0.177006 0.176986 0.176966 0.176945 0.176926 0.176912 0.176905 0.176902 0.176898 0.176891 0.176876 0.176855 0.176840 0.176825 0.176810 0.176798 0.176790 0.176785 0.176783 0.176781 0.176777 0.176768 0.176756 0.176746 0.176735 0.176725 0.176721 0.176718 0.176716 0.176716 0.176715 0.176714 0.176711 0.176707 0.176702 0.176698 0.176694 0.176696 0.176698 0.176699 0.176700 
0.184894 0.184858 0.184715 0.184381 0.183939 0.183511 0.183084 0.182657 0.182245 0.181933 0.181805 0.181772 0.181739 0.181612 0.181314 0.180920 0.180539 0.180158 0.179777 0.179412 0.179136 0.179022 0.178992 0.178963 0.178850 0.178583 0.178230 0.177894 0.177558 0.177221 0.176892 0.176642 0.176537 0.176510 0.176483 0.176377 0.176129 0.175801 0.175483 0.175166 0.174849 0.174546 0.174318 0.174223 0.174198 0.174174 0.174079 0.173855 0.173558 0.173279 0.173000 0.172720 0.172446 0.172238 0.172158 0.172137 0.172117 0.172037 0.171848 0.171598 0.171361 0.171125 0.170888 0.170674 0.170512 0.170445 0.170428 0.170414 0.170359 0.170265 0.170140 0.170041 0.169942 0.169842 0.169764 0.169706 0.169685 0.169680 0.169674 0.169653 0.169602 0.169534 0.169481 0.169428 0.169375 0.169326 0.169290 0.169273 0.169269 0.169265 0.169252 0.169229 0.169200 0.169169 0.169138 0.169107 0.169088 0.169074 0.169067 0.169065 0.169064 0.169057 0.169042 0.169022 0.169015 0.169009 0.169002 0.168995 0.168990 0.168992 0.168992 0.168993 0.168995 0.168999 0.169005 0.169016 0.169027 0.169038 0.169056 0.169069 0.169074 0.169076 
0.167259 0.167239 0.167101 0.166741 0.166260 0.165799 0.165338 0.164877 0.164432 0.164098 0.163975 0.163957 0.163940 0.163818 0.163494 0.163063 0.162648 0.162233 0.161818 0.161427 0.161135 0.161028 0.161013 0.160998 0.160891 0.160624 0.160268 0.160081 0.159895 0.159709 0.159574 0.159473 0.159444 0.159439 0.159435 0.159407 0.159327 0.159221 0.159133 0.159045 0.158957 0.158871 0.158807 0.158785 0.158782 
