-2.282871 -1.505828 9.911257
-1.857426 -1.556375 11.022025
-1.431737 -1.597516 12.133052
-1.089813 -1.569350 13.272117
-0.918561 -1.414031 14.438101
-0.850930 -1.157544 15.598632
-0.748482 -0.886240 16.753274
-0.682607 -0.729193 17.929969
-0.719645 -0.741936 19.119311
-0.779088 -0.792260 20.307351
-0.822469 -0.818645 21.496880
-0.863385 -0.841336 22.686582
-2.282198 -1.505890 9.913140
-1.858164 -1.556281 11.020169
-1.856689 -1.556469 11.023882
-1.432408 -1.597486 12.131168
-1.431066 -1.597545 12.134936
-1.090263 -1.569492 13.270173
-1.089364 -1.569207 13.274060
-0.918708 -1.414403 14.436141
-0.918414 -1.413658 14.440061
-0.851063 -1.158017 15.596693
-0.850797 -1.157071 15.600571
-0.748664 -0.886647 16.751325
-0.748300 -0.885833 16.755224
-0.682621 -0.729294 17.927971
-0.682593 -0.729093 17.931966
-0.719539 -0.741843 19.117316
-0.719752 -0.742029 19.121306
-0.779005 -0.792200 20.305354
-0.779172 -0.792320 20.309348
-0.822403 -0.818611 21.494882
-0.822536 -0.818679 21.498879
-0.863310 -0.841289 22.684584
-2.273688 -1.506673 9.936966
-1.867502 -1.555091 10.996672
-1.847352 -1.557653 11.047380
-1.440904 -1.597112 12.107327
-1.422570 -1.597919 12.158777
-1.095951 -1.571295 13.245574
-1.083675 -1.567405 13.298660
-0.920580 -1.419098 14.411339
-0.916558 -1.408948 14.464862
-0.852631 -1.163967 15.572140
-0.849116 -1.151085 15.625108
-0.750965 -0.891796 16.726648
-0.746038 -0.880803 16.779928
-0.682795 -0.730567 17.902691
-0.682418 -0.727820 17.957246
-0.718193 -0.740665 19.092067
-0.721097 -0.743206 19.146555
-0.777952 -0.791443 20.280074
-0.780225 -0.793076 20.334628
-0.821562 -0.818170 21.469587
-0.823375 -0.819115 21.524174
-0.862365 -0.840694 22.659296
-2.234950 -1.510363 10.044661
-2.172185 -1.517031 10.214720
-2.107968 -1.524521 10.384203
-2.042576 -1.532628 10.553207
-1.976396 -1.541085 10.721888
-1.909721 -1.549683 10.890366
-1.805138 -1.562924 11.153694
-1.738467 -1.570959 11.322202
-1.672325 -1.578377 11.490946
-1.606980 -1.584996 11.660033
-1.542702 -1.590622 11.829564
-1.479769 -1.595055 11.999634
-1.384790 -1.599070 12.266869
-1.326795 -1.599377 12.438741
-1.271288 -1.597689 12.611424
-1.218578 -1.593803 12.784943
-1.169004 -1.587495 12.959312
-1.122921 -1.578536 13.134523
-1.059080 -1.558417 13.410132
-1.024014 -1.541356 13.587276
-0.993803 -1.520827 13.764942
-0.968423 -1.496833 13.942931
-0.947325 -1.469644 14.121027
-0.930013 -1.439446 14.299047
-0.908601 -1.387188 14.577002
-0.897522 -1.351003 14.754404
-0.887706 -1.313012 14.931504
-0.878529 -1.273484 15.108302
-0.869339 -1.232634 15.284799
-0.859467 -1.190777 15.461023
-0.841220 -1.123954 15.736076
-0.827241 -1.080820 15.911713
-0.811814 -1.037896 16.087280
-0.795372 -0.995702 16.262932
-0.778433 -0.954742 16.438828
-0.761473 -0.915481 16.615109
-0.736031 -0.858699 16.891837
-0.721174 -0.826096 17.069656
-0.708078 -0.797159 17.248245
-0.697262 -0.772431 17.427614
-0.689183 -0.752363 17.607702
-0.684249 -0.737381 17.788397
-0.682633 -0.723665 18.071679
-0.684981 -0.720297 18.253024
-0.689515 -0.720431 18.434360
-0.695805 -0.723392 18.615619
-0.703500 -0.728627 18.796774
-0.712257 -0.735593 18.977823
-0.727281 -0.748697 19.260767
-0.737188 -0.757615 19.441672
-0.746913 -0.766296 19.622599
-0.756163 -0.774274 19.803583
-0.764859 -0.781421 19.984629
-0.773030 -0.787782 20.165729
-0.784900 -0.796368 20.448995
-0.791998 -0.801121 20.630190
-0.798780 -0.805398 20.811408
-0.805296 -0.809279 20.992645
-0.811596 -0.812835 21.173897
-0.817737 -0.816154 21.355158
-0.827164 -0.821080 21.638605
-0.833162 -0.824184 21.819875
-0.839200 -0.827348 22.001142
-0.845336 -0.830658 22.182404
-0.851629 -0.834205 22.363656
-0.858131 -0.838064 22.544894
141 NaN NaN
-2.283039 -1.505812 9.910787
-2.249150 -1.508934 10.005671
-2.214676 -1.512403 10.100332
-2.179681 -1.516177 10.194790
-2.144224 -1.520214 10.289065
-2.108364 -1.524473 10.383177
-2.072156 -1.528913 10.477148
-2.035657 -1.533496 10.570999
-1.998918 -1.538184 10.664751
-1.961993 -1.542940 10.758427
-1.924931 -1.547726 10.852047
-1.887783 -1.552506 10.945634
-1.850598 -1.557246 11.039208
-1.813425 -1.561908 11.132790
-1.776312 -1.566459 11.226402
-1.739307 -1.570862 11.320063
-1.702459 -1.575084 11.413795
-1.665814 -1.579089 11.507616
-1.629422 -1.582841 11.601546
-1.593332 -1.586307 11.695602
-1.557592 -1.589449 11.789804
-1.522252 -1.592233 11.884168
-1.487363 -1.594622 11.978711
-1.452977 -1.596580 12.073447
-1.419145 -1.598070 12.168391
-1.385921 -1.599054 12.263556
-1.353359 -1.599495 12.358954
-1.321516 -1.599353 12.454594
-1.290449 -1.598591 12.550487
-1.260216 -1.597168 12.646638
-1.230876 -1.595044 12.743053
-1.202491 -1.592180 12.839734
-1.175123 -1.588535 12.936681
-1.148836 -1.584068 13.033893
-1.123695 -1.578737 13.131364
-1.099764 -1.572503 13.229085
-1.077111 -1.565325 13.327046
-1.055803 -1.557161 13.425231
-1.035907 -1.547974 13.523622
-1.017490 -1.537725 13.622195
-1.000618 -1.526375 13.720925
-0.985312 -1.513915 13.819775
-0.971477 -1.500391 13.918703
-0.959002 -1.485857 14.017668
-0.947773 -1.470371 14.116638
-0.937676 -1.453985 14.215586
-0.928595 -1.436755 14.314489
-0.920415 -1.418735 14.413330
-0.913022 -1.399977 14.512095
-0.906300 -1.380533 14.610776
-0.900137 -1.360453 14.709366
-0.894418 -1.339786 14.807862
-0.889032 -1.318583 14.906262
-0.883868 -1.296889 15.004567
-0.878813 -1.274752 15.102780
-0.873759 -1.252219 15.200902
-0.868594 -1.229334 15.298937
-0.863211 -1.206144 15.396888
-0.857498 -1.182693 15.494759
-0.851347 -1.159027 15.592551
-0.844649 -1.135191 15.690266
-0.837340 -1.111239 15.787908
-0.829479 -1.087252 15.885499
-0.821149 -1.063312 15.983063
-0.812430 -1.039505 16.080626
-0.803403 -1.015913 16.178212
-0.794148 -0.992621 16.275850
-0.784748 -0.969713 16.373564
-0.775283 -0.947275 16.471381
-0.765835 -0.925393 16.569326
-0.756488 -0.904155 16.667422
-0.747324 -0.883649 16.765690
-0.738428 -0.863966 16.864151
-0.729885 -0.845195 16.962822
-0.721781 -0.827431 17.061715
-0.714203 -0.810766 17.160841
-0.707239 -0.795297 17.260205
-0.700978 -0.781119 17.359808
-0.695507 -0.768327 17.459646
-0.690917 -0.757020 17.559706
-0.687295 -0.747292 17.659971
-0.684698 -0.739198 17.760414
-0.683084 -0.732667 17.860991
-0.682388 -0.727598 17.961663
-0.682545 -0.723891 18.062396
-0.683492 -0.721445 18.163164
-0.685162 -0.720157 18.263945
-0.687493 -0.719928 18.364720
-0.690419 -0.720656 18.465477
-0.693877 -0.722242 18.566208
-0.697805 -0.724586 18.666907
-0.702141 -0.727591 18.767571
-0.706823 -0.731161 18.868202
-0.711791 -0.735198 18.968802
-0.716984 -0.739607 19.069374
-0.722343 -0.744295 19.169925
-0.727808 -0.749167 19.270462
-0.733321 -0.754129 19.370992
-0.738821 -0.759088 19.471522
-0.744250 -0.763949 19.572062
-0.749548 -0.768619 19.672617
-0.754670 -0.773024 19.773193
-0.759614 -0.777163 19.873790
-0.764390 -0.781050 19.974404
-0.769006 -0.784698 20.075036
-0.773472 -0.788121 20.175681
-0.777797 -0.791332 20.276340
-0.781990 -0.794345 20.377011
-0.786060 -0.797174 20.477692
-0.790016 -0.799833 20.578382
-0.793869 -0.802336 20.679080
-0.797627 -0.804697 20.779786
-0.801299 -0.806930 20.880497
-0.804895 -0.809049 20.981213
-0.808425 -0.811069 21.081934
-0.811898 -0.813004 21.182659
-0.815324 -0.814867 21.283386
-0.818711 -0.816674 21.384116
-0.822070 -0.818438 21.484848
-0.825411 -0.820173 21.585581
-0.828742 -0.821895 21.686314
-0.832073 -0.823618 21.787047
-0.835415 -0.825355 21.887780
-0.838775 -0.827121 21.988511
-0.842165 -0.828931 22.089241
-0.845593 -0.830798 22.189968
-0.849070 -0.832738 22.290692
-0.852603 -0.834763 22.391413
-0.856204 -0.836890 22.492129
-0.859882 -0.839130 22.592840
-0.863645 -0.841500 22.693545
-0.867504 -0.844012 22.794243
-0.871467 -0.846681 22.894933
-0.875545 -0.849522 22.995613
-0.879746 -0.852547 23.096283
-0.884079 -0.855771 23.196941
-0.888554 -0.859207 23.297586
-0.893180 -0.862870 23.398216
-0.897967 -0.866772 23.498830
-0.902922 -0.870928 23.599425
-0.908055 -0.875350 23.700000
-2.282596 -1.505935 9.910588
-1.890964 -1.609222 9.684230
-1.563134 -1.681190 9.363788
-1.313533 -1.719864 8.974118
-1.141196 -1.728602 8.542740
-1.041773 -1.710979 8.089056
-1.007627 -1.671045 7.627050
-1.013281 -1.618047 7.164848
-1.025634 -1.562890 6.702981
-1.025003 -1.511917 6.240474
-1.015274 -1.463901 5.777740
-1.003212 -1.416646 5.314980
-0.995550 -1.367956 4.852281
-2.280827 -1.506427 9.909796
-1.892529 -1.608841 9.685416
-1.889399 -1.609604 9.683045
-1.564349 -1.680967 9.365361
-1.561920 -1.681414 9.362215
-1.314447 -1.719760 8.975893
-1.312618 -1.719967 8.972342
-1.141755 -1.728631 8.544660
-1.140637 -1.728573 8.540819
-1.042066 -1.711102 8.091031
-1.041480 -1.710857 8.087081
-1.007656 -1.671256 7.629039
-1.007598 -1.670834 7.625061
-1.013221 -1.618286 7.166833
-1.013341 -1.617807 7.162863
-1.025610 -1.563118 6.704968
-1.025658 -1.562662 6.700994
-1.025027 -1.512130 6.242463
-1.024980 -1.511705 6.238486
-1.015326 -1.464104 5.779729
-1.015222 -1.463698 5.775751
-1.003260 -1.416851 5.316969
-1.003167 -1.416441 5.312991
-0.995565 -1.368172 4.854269
-2.265095 -1.510802 9.902745
-1.906446 -1.605447 9.695959
-1.875482 -1.612998 9.672502
-1.575517 -1.678819 9.379029
-1.551118 -1.683406 9.348225
-1.322580 -1.718843 8.991685
-1.304485 -1.720884 8.956551
-1.146741 -1.728887 8.561731
-1.135667 -1.728312 8.523744
-1.044672 -1.712191 8.108591
-1.038875 -1.709767 8.069521
-1.007914 -1.673128 7.646724
-1.007340 -1.668962 7.607376
-1.012686 -1.620414 7.184483
-1.013881 -1.615677 7.145213
-1.025396 -1.565143 6.722637
-1.025873 -1.560637 6.683325
-1.025236 -1.514018 6.260147
-1.024724 -1.509832 6.220800
-1.015785 -1.465911 5.797418
-1.014763 -1.461891 5.758063
-1.003697 -1.418665 5.334657
-1.002766 -1.414615 5.295303
-0.995696 -1.370085 4.871951
-2.221709 -1.522868 9.883302
-2.164432 -1.538580 9.855674
-2.107853 -1.553878 9.826368
-2.052753 -1.568352 9.793999
-1.998417 -1.582420 9.760226
-1.945196 -1.595902 9.724451
-1.837834 -1.622005 9.642409
-1.788658 -1.633498 9.600650
-1.741233 -1.644180 9.556734
-1.694804 -1.654407 9.511661
-1.650174 -1.663825 9.464612
-1.607132 -1.672551 9.416005
-1.521330 -1.688898 9.309643
-1.483113 -1.695580 9.256857
-1.445976 -1.701816 9.203235
-1.411115 -1.707128 9.148002
-1.377523 -1.711935 9.091964
-1.345122 -1.716268 9.035170
-1.283242 -1.722960 8.912399
-1.255683 -1.725418 8.852997
-1.230331 -1.727042 8.792596
-1.206002 -1.728284 8.731776
-1.183144 -1.728979 8.670366
-1.162135 -1.728996 8.608303
-1.121960 -1.727593 8.476652
-1.105386 -1.726011 8.413281
-1.089777 -1.724088 8.349674
-1.075872 -1.721564 8.285686
-1.063392 -1.718544 8.221436
-1.051857 -1.715196 8.157020
-1.033033 -1.706307 8.020945
-1.025690 -1.701527 7.956006
-1.020162 -1.696138 7.890933
-1.015529 -1.690451 7.825822
-1.011750 -1.684480 7.760674
-1.009422 -1.678032 7.695505
-1.006629 -1.663798 7.558602
-1.006674 -1.656576 7.493473
-1.007105 -1.649230 7.428359
-1.008073 -1.641710 7.363269
-1.009534 -1.634032 7.298208
-1.011210 -1.626284 7.233159
-1.015478 -1.609769 7.096545
-1.017597 -1.601879 7.031527
-1.019665 -1.594007 6.966505
-1.021543 -1.586195 6.901470
-1.023276 -1.578429 6.836425
-1.024569 -1.570805 6.771353
-1.026433 -1.555061 6.634595
-1.026765 -1.547746 6.569476
-1.026888 -1.540499 6.504348
-1.026808 -1.533318 6.439213
-1.026381 -1.526249 6.374068
-1.025811 -1.519226 6.308918
-1.023941 -1.504691 6.172025
-1.022814 -1.497850 6.106864
-1.021538 -1.491057 6.041699
-1.020115 -1.484312 5.976533
-1.018622 -1.477591 5.911366
-1.017022 -1.470904 5.846198
-1.013485 -1.456912 5.709282
-1.011743 -1.450271 5.644113
-1.010000 -1.443631 5.578944
-1.008259 -1.436990 5.513775
-1.006559 -1.430336 5.448606
-1.004904 -1.423667 5.383437
-1.001660 -1.409580 5.246524
-1.000272 -1.402824 5.181358
-0.998975 -1.396038 5.116193
-0.997889 -1.389183 5.051032
-0.996919 -1.382291 4.985873
-0.996118 -1.375344 4.920718
60 NaN NaN
-2.283039 -1.505812 9.910787
-2.192503 -1.530990 9.870214
-2.104127 -1.554885 9.824438
-2.018225 -1.577402 9.773541
-1.935095 -1.598460 9.717662
-1.855006 -1.617991 9.656990
-1.778194 -1.635944 9.591765
-1.704855 -1.652285 9.522257
-1.635144 -1.666997 9.448767
-1.569171 -1.680077 9.371607
-1.507011 -1.691538 9.291097
-1.448700 -1.701401 9.207551
-1.394246 -1.709698 9.121275
-1.343633 -1.716467 9.032561
-1.296827 -1.721749 8.941681
-1.253778 -1.725587 8.848891
-1.214432 -1.728028 8.754424
-1.178726 -1.729113 8.658497
-1.146600 -1.728886 8.561306
-1.117995 -1.727385 8.463032
-1.092856 -1.724647 8.363841
-1.071134 -1.720704 8.263885
-1.052790 -1.715586 8.163308
-1.037795 -1.709316 8.062242
-1.026098 -1.701925 7.960817
-1.017463 -1.693507 7.859164
-1.011559 -1.684180 7.757394
-1.008043 -1.674067 7.655588
-1.006560 -1.663289 7.553800
-1.006753 -1.651968 7.452059
-1.008264 -1.640221 7.350378
-1.010738 -1.628164 7.248751
-1.013817 -1.615914 7.147164
-1.017149 -1.603583 7.045594
-1.020380 -1.591284 6.944018
-1.023158 -1.579130 6.842410
-1.025176 -1.567220 6.740756
-1.026410 -1.555563 6.639060
-1.026929 -1.544136 6.537332
-1.026804 -1.532917 6.435579
-1.026105 -1.521884 6.333808
-1.024904 -1.511015 6.232025
-1.023271 -1.500286 6.130232
-1.021278 -1.489674 6.028433
-1.018997 -1.479157 5.926631
-1.016498 -1.468711 5.824826
-1.013852 -1.458312 5.723021
-1.011131 -1.447938 5.621214
-1.008407 -1.437565 5.519408
-1.005749 -1.427171 5.417602
-1.003231 -1.416731 5.315798
-1.000922 -1.406222 5.213995
-0.998895 -1.395622 5.112196
-0.997220 -1.384906 5.010403
-0.995969 -1.374053 4.908618
-0.995213 -1.363039 4.806845
-0.995022 -1.351842 4.705090
-0.995468 -1.340439 4.603359
-0.996621 -1.328807 4.501659
-0.998552 -1.316925 4.400000
-2.283385 -1.506171 9.910823
-3.447145 -1.751680 9.805442
-4.316563 -0.902589 9.464086
-4.893502 0.209050 9.212175
-5.482386 1.313436 8.954610
-6.083193 2.411771 8.698786
-6.661164 3.514926 8.414109
-7.272312 4.593682 8.105844
-7.973229 5.607639 7.771657
-8.801292 6.507134 7.404871
-9.771862 7.234081 7.008165
-10.864988 7.747043 6.596120
-12.036223 8.045736 6.186128
-13.244181 8.161006 5.788559
-2.284769 -1.507607 9.910967
-3.445339 -1.752416 9.805888
-3.448950 -1.750945 9.804996
-4.315560 -0.904265 9.464518
-4.317565 -0.900913 9.463654
-4.892571 0.207329 9.212588
-4.894434 0.210771 9.211762
-5.481457 1.311711 8.955013
-5.483315 1.315161 8.954207
-6.082227 2.410065 8.699179
-6.084159 2.413478 8.698393
-6.660251 3.513209 8.414576
-6.662077 3.516643 8.413643
-7.271300 4.592030 8.106343
-7.273323 4.595334 8.105345
-7.972042 5.606125 7.772204
-7.974416 5.609152 7.771109
-8.799880 6.505851 7.405471
-8.802703 6.508417 7.404270
-9.770240 7.233099 7.008803
-9.773494 7.235043 7.007527
-10.863205 7.746407 6.596767
-10.866770 7.747679 6.595473
-12.034352 8.045424 6.186761
-12.038094 8.046047 6.185495
-13.242277 8.160956 5.789169
-2.303496 -1.527037 9.912923
-3.420915 -1.762367 9.811926
-3.473375 -1.740994 9.798958
-4.301995 -0.926933 9.470366
-4.331130 -0.878245 9.457806
-4.880004 0.184029 9.218174
-4.907031 0.234055 9.206175
-5.468892 1.288378 8.960465
-5.495891 1.338489 8.948758
-6.069159 2.386977 8.704494
-6.097227 2.436565 8.693078
-6.647932 3.489961 8.420886
-6.674429 3.539873 8.407331
-7.257621 4.569684 8.113093
-7.287112 4.617602 8.098563
-7.955985 5.585645 7.779606
-7.990472 5.629632 7.763707
-8.780785 6.488490 7.413597
-8.821798 6.525778 7.396144
-9.748365 7.219709 7.017418
-9.795578 7.248071 6.998886
-10.839092 7.737809 6.605523
-10.890883 7.756277 6.586717
-12.009037 8.041209 6.195330
-12.063409 8.050262 6.176926
-13.216527 8.160111 5.797431
-2.392725 -1.610975 9.920281
-2.555149 -1.717342 9.923057
-2.735475 -1.789236 9.915368
-2.925394 -1.826769 9.898101
-3.118004 -1.830419 9.872041
-3.306922 -1.800013 9.837738
-3.577785 -1.683542 9.769034
-3.730451 -1.574208 9.717946
-3.870025 -1.449829 9.663513
-4.001166 -1.317453 9.606903
-4.124095 -1.177201 9.550865
-4.236835 -1.027085 9.499214
-4.390544 -0.773635 9.432555
-4.478901 -0.604075 9.395511
-4.564045 -0.432743 9.359052
-4.648711 -0.261378 9.321650
-4.734651 -0.090898 9.283130
-4.823134 0.078021 9.243513
-4.964244 0.339884 9.180857
-5.054281 0.507990 9.141270
-5.143500 0.676672 9.102287
-5.232525 0.845497 9.063475
-5.321939 1.014069 9.024460
-5.411877 1.182315 8.985244
-5.553139 1.444438 8.924029
-5.644020 1.612195 8.884891
-5.734966 1.779908 8.845714
-5.825891 1.947610 8.806445
-5.917292 2.115084 8.767302
-6.009911 2.281994 8.728625
-6.156390 2.541537 8.668692
-6.248223 2.708545 8.628597
-6.336112 2.876989 8.585776
-6.421266 3.046299 8.540875
-6.506046 3.215571 8.495127
-6.592448 3.384064 8.449545
-6.730797 3.645281 8.378592
-6.820995 3.811680 8.332670
-6.912301 3.977314 8.286174
-7.005023 4.142011 8.239155
-7.099460 4.305592 8.191662
-7.195790 4.467920 8.143670
-7.350194 4.718484 8.067621
-7.451898 4.877026 8.018089
-7.555957 5.033820 7.967891
-7.662525 5.188694 7.917004
-7.771743 5.341471 7.865401
-7.883740 5.491968 7.813056
-8.064428 5.721803 7.729813
-8.184082 5.865550 7.675482
-8.306917 6.006281 7.620358
-8.433047 6.143742 7.564432
-8.562491 6.277757 7.507724
-8.695294 6.408105 7.450246
-8.909300 6.603765 7.359066
-9.050765 6.723762 7.299745
-9.195569 6.839371 7.239776
-9.343658 6.950416 7.179208
-9.494959 7.056731 7.118099
-9.649368 7.158190 7.056509
-9.896310 7.306560 6.959578
-10.058120 7.395098 6.897065
-10.222552 7.478488 6.834315
-10.389447 7.556700 6.771398
-10.558629 7.629746 6.708378
-10.729927 7.697651 6.645319
-11.001124 7.793425 6.546960
-11.177049 7.848426 6.484061
-11.354480 7.898546 6.421313
-11.533259 7.943898 6.358756
-11.713244 7.984553 6.296429
-11.894285 8.020664 6.234363
-12.178628 8.068380 6.138065
-12.361772 8.093554 6.076774
-12.545533 8.114715 6.015816
-12.729813 8.132008 5.955204
-12.914522 8.145576 5.894947
-13.099576 8.155554 5.835053
171 NaN NaN
-2.283039 -1.505812 9.910787
-2.352640 -1.578026 9.918056
-2.430256 -1.641824 9.922364
-2.514543 -1.696666 9.923731
-2.604157 -1.742296 9.922244
-2.697836 -1.778658 9.918025
-2.794443 -1.805808 9.911204
-2.892959 -1.823839 9.901905
-2.992459 -1.832827 9.890235
-3.092071 -1.832801 9.876282
-3.190931 -1.823721 9.860116
-3.288134 -1.805486 9.841795
-3.382687 -1.777941 9.821375
-3.473480 -1.740951 9.798932
-3.559730 -1.695223 9.774704
-3.641400 -1.642387 9.749056
-3.718852 -1.584025 9.722292
-3.792687 -1.521529 9.694629
-3.863634 -1.456089 9.666212
-3.932446 -1.388679 9.637146
-3.999317 -1.319489 9.607739
-4.064027 -1.248218 9.578470
-4.126319 -1.174573 9.549843
-4.185908 -1.098296 9.522385
-4.242486 -1.019183 9.496642
-4.295840 -0.937219 9.473020
-4.346283 -0.852923 9.451273
-4.394317 -0.766876 9.430959
-4.440474 -0.679584 9.411628
-4.485306 -0.591488 9.392824
-4.529369 -0.502990 9.374090
-4.573109 -0.414381 9.355121
-4.616780 -0.325797 9.335878
-4.660616 -0.237359 9.316345
-4.704853 -0.149188 9.296510
-4.749726 -0.061410 9.276361
-4.795380 0.025892 9.255908
-4.841659 0.112815 9.235240
-4.888335 0.199500 9.214466
-4.935186 0.286091 9.193691
-4.981988 0.372732 9.173020
-5.028534 0.459559 9.152550
-5.074799 0.546584 9.132282
-5.120872 0.633742 9.112155
-5.166848 0.720970 9.092104
-5.212820 0.808203 9.072068
-5.258882 0.895378 9.051982
-5.305092 0.982455 9.031813
-5.351446 1.069440 9.011582
-5.397935 1.156344 8.991311
-5.444550 1.243178 8.971026
-5.491280 1.329952 8.950751
-5.538115 1.416677 8.930506
-5.585029 1.503363 8.910282
-5.631995 1.590023 8.890066
-5.678986 1.676669 8.869843
-5.725972 1.763311 8.849599
-5.772930 1.849961 8.829319
-5.819903 1.936599 8.809022
-5.866991 2.023181 8.788755
-5.914299 2.109661 8.768563
-5.961930 2.195992 8.748494
-6.009985 2.282127 8.728595
-6.058454 2.368064 8.708849
-6.107052 2.453925 8.689081
-6.155451 2.539846 8.669093
-6.203320 2.625965 8.648684
-6.250325 2.712410 8.627657
-6.296177 2.799279 8.605846
-6.341000 2.886502 8.583319
-6.385116 2.973944 8.560250
-6.428851 3.061478 8.536810
-6.472535 3.148985 8.513170
-6.516499 3.236342 8.489499
-6.561007 3.323451 8.465932
-6.606060 3.410304 8.442451
-6.651588 3.496917 8.419002
-6.697524 3.583309 8.395529
-6.743799 3.669496 8.371975
-6.790348 3.755499 8.348284
-6.837160 3.841314 8.324434
-6.884279 3.926918 8.300430
-6.931749 4.012288 8.276281
-6.979615 4.097397 8.251996
-7.027922 4.182219 8.227582
-7.076709 4.266732 8.203047
-7.125996 4.350916 8.178383
-7.175796 4.434756 8.153581
-7.226126 4.518237 8.128633
-7.277000 4.601340 8.103530
-7.328432 4.684050 8.078264
-7.380441 4.766345 8.052828
-7.433050 4.848204 8.027219
-7.486281 4.929604 8.001433
-7.540155 5.010522 7.975467
-7.594695 5.090934 7.949318
-7.649920 5.170816 7.922982
-7.705850 5.250142 7.896456
-7.762502 5.328889 7.869736
-7.819894 5.407030 7.842817
-7.878043 5.484538 7.815698
-7.936967 5.561388 7.788374
-7.996680 5.637551 7.760845
-8.057199 5.712999 7.733106
-8.118538 5.787705 7.705159
-8.180711 5.861637 7.677000
-8.243730 5.934767 7.648630
-8.307609 6.007065 7.620048
-8.372357 6.078501 7.591255
-8.437981 6.149046 7.562252
-8.504492 6.218669 7.533039
-8.571896 6.287338 7.503619
-8.640199 6.355024 7.473993
-8.709403 6.421698 7.444165
-8.779511 6.487331 7.414140
-8.850523 6.551894 7.383920
-8.922438 6.615359 7.353510
-8.995257 6.677694 7.322916
-9.068975 6.738875 7.292143
-9.143583 6.798878 7.261199
-9.219074 6.857679 7.230089
-9.295441 6.915254 7.198822
-9.372674 6.971576 7.167405
-9.450763 7.026627 7.135845
-9.529690 7.080389 7.104152
-9.609441 7.132846 7.072335
-9.690000 7.183982 7.040403
-9.771352 7.233779 7.008365
-9.853477 7.282226 6.976230
-9.936356 7.329312 6.944009
-10.019967 7.375032 6.911710
-10.104288 7.419380 6.879344
-10.189298 7.462348 6.846919
-10.274975 7.503932 6.814446
-10.361296 7.544131 6.781935
-10.448236 7.582949 6.749393
-10.535770 7.620389 6.716830
-10.623875 7.656454 6.684254
-10.712528 7.691148 6.651675
-10.801703 7.724477 6.619100
-10.891378 7.756453 6.586537
-10.981527 7.787087 6.553993
-11.072126 7.816390 6.521476
-11.163154 7.844373 6.488991
-11.254588 7.871049 6.456547
-11.346404 7.896433 6.424147
-11.438581 7.920543 6.391799
-11.531098 7.943395 6.359506
-11.623934 7.965005 6.327274
-11.717069 7.985390 6.295108
-11.810484 8.004569 6.263011
-11.904160 8.022561 6.230987
-11.998078 8.039385 6.199040
-12.092223 8.055060 6.167172
-12.186576 8.069606 6.135388
-12.281122 8.083042 6.103688
-12.375846 8.095388 6.072076
-12.470734 8.106665 6.040554
-12.565770 8.116893 6.009123
-12.660942 8.126091 5.977784
-12.756237 8.134279 5.946540
-12.851643 8.141477 5.915391
-12.947149 8.147703 5.884339
-13.042744 8.152976 5.853383
-13.138418 8.157316 5.822526
-13.234160 8.160742 5.791767
-13.329962 8.163272 5.761106
-13.425814 8.164925 5.730544
-13.521709 8.165721 5.700080
-13.617638 8.165679 5.669716
-13.713594 8.164817 5.639449
-0.822255 -0.818426 21.497275
-0.688871 -0.660764 21.764619
-0.600836 -0.470304 22.028790
-0.590708 -0.238623 22.272158
-0.692785 0.022652 22.455334
-0.893328 0.275138 22.550396
-1.145543 0.498016 22.573843
-0.821397 -0.817549 21.498855
-0.689524 -0.661802 21.763039
-0.688218 -0.659725 21.766198
-0.601146 -0.471560 22.027265
-0.600527 -0.469047 22.030315
-0.590459 -0.240112 22.270846
-0.590958 -0.237133 22.273469
-0.691875 0.021090 22.454479
-0.693695 0.024215 22.456188
-0.891978 0.273708 22.550030
-0.894678 0.276567 22.550762
-1.143969 0.496784 22.573858
-0.815678 -0.811707 21.509386
-0.693877 -0.668725 21.752510
-0.683865 -0.652802 21.776728
-0.603211 -0.479936 22.017100
-0.598462 -0.460671 22.040480
-0.588795 -0.250040 22.262105
-0.592621 -0.227205 22.282211
-0.685810 0.010673 22.448781
-0.699760 0.034631 22.461886
-0.882978 0.264178 22.547592
-0.903677 0.286097 22.553200
-1.133599 0.488405 22.573691
-0.800459 -0.796161 21.537410
-0.780173 -0.775438 21.574764
-0.761016 -0.753769 21.612171
-0.742094 -0.731903 21.649589
-0.724082 -0.709312 21.687011
-0.706757 -0.686173 21.724437
-0.672281 -0.634381 21.804747
-0.657296 -0.609506 21.842053
-0.644096 -0.583380 21.879194
-0.630896 -0.557254 21.916336
-0.620227 -0.529497 21.953098
-0.609703 -0.501646 21.989838
-0.592967 -0.438382 22.067528
-0.587845 -0.407550 22.102950
-0.584320 -0.375906 22.137914
-0.582226 -0.343649 22.172348
-0.583131 -0.310109 22.205672
-0.584369 -0.276458 22.238843
-0.597048 -0.200788 22.305473
-0.608072 -0.164394 22.333557
-0.619315 -0.127950 22.361516
-0.634309 -0.091086 22.386885
-0.650887 -0.054043 22.411161
-0.669670 -0.017044 22.433620
-0.717341 0.062112 22.475647
-0.743103 0.098360 22.491731
-0.769150 0.134516 22.507491
-0.798366 0.169651 22.519668
-0.827581 0.204786 22.531844
-0.859031 0.238819 22.541105
-0.929114 0.310449 22.557467
-0.963109 0.342848 22.563022
-0.997832 0.374613 22.567347
-1.033407 0.405635 22.570232
-1.069227 0.436392 22.572652
-1.106007 0.466110 22.573245
21 NaN NaN
-0.822469 -0.818645 21.496880
-0.776669 -0.771858 21.581216
-0.733949 -0.722491 21.665695
-0.694835 -0.670250 21.750190
-0.659978 -0.614814 21.834508
-0.630179 -0.555834 21.918354
-0.606423 -0.492965 22.001289
-0.589890 -0.425905 22.082671
-0.581934 -0.354485 22.161581
-0.583977 -0.278798 22.236782
-0.597289 -0.199345 22.306744
-0.622656 -0.117123 22.369822
-0.660058 -0.033553 22.424589
-0.708596 0.049806 22.470187
-0.766727 0.131601 22.506481
-0.832661 0.210894 22.533961
-0.904707 0.287188 22.553479
-0.981445 0.360324 22.566018
-1.061754 0.430354 22.572531
-1.144787 0.497445 22.573871
-1.229906 0.561813 22.570768
-0.682504 -0.728789 17.930244
-0.636908 -0.450845 18.113504
-0.675892 -0.163231 18.281717
-0.814804 0.110450 18.416469
-1.036157 0.345918 18.507089
-1.307102 0.538073 18.558587
-0.682095 -0.727171 17.931347
-0.636873 -0.452550 18.112458
-0.636943 -0.449140 18.114549
-0.675273 -0.164914 18.280831
-0.676511 -0.161549 18.282604
-0.813634 0.108957 18.415837
-0.815974 0.111943 18.417102
-1.034627 0.344687 18.506708
-1.037686 0.347149 18.507470
-1.305380 0.537074 18.558398
-0.679375 -0.716428 17.938668
-0.637674 -0.463732 18.105342
-0.637177 -0.437820 18.121494
-0.672168 -0.176215 18.274612
-0.680624 -0.150376 18.288492
-0.806482 0.098747 18.411300
-0.823747 0.121861 18.421304
-1.024716 0.336291 18.503978
-1.047843 0.355325 18.510002
-1.294009 0.530346 18.557063
-0.672140 -0.687856 17.958140
-0.662498 -0.649772 17.984094
-0.655051 -0.611103 18.009865
-0.648462 -0.572204 18.035564
-0.643103 -0.533055 18.061112
-0.640001 -0.493447 18.086383
-0.637799 -0.407714 18.139961
-0.638628 -0.367585 18.164577
-0.642797 -0.327274 18.188476
-0.647962 -0.286908 18.212160
-0.655004 -0.246603 18.235340
-0.664811 -0.206387 18.257778
-0.691562 -0.120662 18.304153
-0.706141 -0.081055 18.325027
-0.724573 -0.042345 18.344390
-0.743837 -0.003828 18.363425
-0.765101 0.033994 18.381534
-0.788744 0.070991 18.398541
-0.844418 0.148236 18.432480
-0.871971 0.183392 18.447375
-0.902462 0.216773 18.460444
-0.933373 0.249901 18.473250
-0.965710 0.281966 18.485045
-0.999423 0.313005 18.495862
-1.074856 0.377070 18.516737
-1.110861 0.406053 18.525713
-1.148582 0.433223 18.533141
-1.186441 0.460247 18.540445
-1.225135 0.486248 18.546909
-1.264486 0.511444 18.552710
17 NaN NaN
-0.682607 -0.729193 17.929969
-0.659788 -0.639070 17.991388
-0.644197 -0.547023 18.052200
-0.636857 -0.453304 18.111995
-0.638819 -0.358357 18.170238
-0.651040 -0.262858 18.226271
-0.674241 -0.167717 18.279353
-0.708730 -0.074021 18.328735
-0.754302 0.017096 18.373766
-0.810235 0.104621 18.414000
-0.875422 0.187795 18.449241
-0.948560 0.266177 18.479542
-1.028332 0.339619 18.505138
-1.113532 0.408203 18.526379
-1.203123 0.472155 18.543664
-1.296249 0.531780 18.557393
-1.392217 0.587417 18.567949
-0.748311 -0.885791 16.753412
-0.698952 -0.750278 16.795060
-0.660478 -0.611638 16.837767
-0.635977 -0.470195 16.881456
-0.630318 -0.327014 16.925837
-0.643877 -0.184412 16.970193
-0.680769 -0.045748 17.013517
-0.741391 0.085055 17.054593
-0.821604 0.205862 17.092726
-0.920431 0.313379 17.126886
-1.032362 0.408537 17.157317
-1.153590 0.492760 17.184431
-1.282856 0.565348 17.207999
-1.416951 0.629484 17.228984
-0.747624 -0.883996 16.753964
-0.699531 -0.752108 16.794497
-0.698372 -0.748449 16.795623
-0.660932 -0.613499 16.837193
-0.660023 -0.609777 16.838341
-0.636116 -0.472101 16.880866
-0.635838 -0.468289 16.882046
-0.630264 -0.328924 16.925244
-0.630371 -0.325105 16.926429
-0.643610 -0.186305 16.969604
-0.644143 -0.182520 16.970783
-0.680047 -0.047527 17.012959
-0.681490 -0.043968 17.014075
-0.740452 0.083371 17.054063
-0.742330 0.086739 17.055123
-0.820469 0.204291 17.092230
-0.822739 0.207432 17.093222
-0.918991 0.312057 17.126464
-0.921871 0.314701 17.127308
-1.030811 0.407335 17.156932
-1.033913 0.409740 17.157703
-1.151951 0.491669 17.184079
-1.155241 0.493832 17.184777
-1.281092 0.564451 17.207706
-1.284619 0.566245 17.208292
-1.415145 0.628670 17.228717
-0.745307 -0.877930 16.755827
-0.701487 -0.758288 16.792596
-0.696416 -0.742269 16.797525
-0.662466 -0.619786 16.835255
-0.658489 -0.603490 16.840279
-0.636587 -0.478539 16.878872
-0.635368 -0.461852 16.884040
-0.630084 -0.335373 16.923241
-0.630551 -0.318656 16.928432
-0.642710 -0.192697 16.967613
-0.645043 -0.176127 16.972773
-0.677610 -0.053539 17.011074
-0.683927 -0.037956 17.015960
-0.737280 0.077681 17.052272
-0.745502 0.092429 17.056914
-0.816636 0.198987 17.090553
-0.826572 0.212736 17.094899
-0.914127 0.307590 17.125039
-0.926736 0.319168 17.128733
-1.025572 0.403273 17.155629
-1.039152 0.413801 17.159006
-1.146414 0.487984 17.182891
-1.161012 0.497173 17.185860
-1.275136 0.561420 17.206718
-1.290575 0.569275 17.209280
-1.409041 0.625918 17.227813
-0.740012 -0.864072 16.760084
-0.733028 -0.845793 16.765699
-0.726044 -0.827515 16.771314
-0.719060 -0.809237 16.776929
-0.712076 -0.790959 16.782544
-0.705958 -0.772407 16.788251
-0.691946 -0.728149 16.801870
-0.686050 -0.709527 16.807600
-0.680154 -0.690905 16.813331
-0.675217 -0.672039 16.819145
-0.670594 -0.653095 16.824985
-0.665971 -0.634150 16.830826
-0.654984 -0.589126 16.844707
-0.651421 -0.569987 16.850617
-0.648283 -0.550770 16.856554
-0.645146 -0.531553 16.862492
-0.642009 -0.512336 16.868429
-0.638872 -0.493119 16.874367
-0.634294 -0.447144 16.888595
-0.632878 -0.427746 16.894602
-0.631461 -0.408348 16.900610
-0.630045 -0.388949 16.906617
-0.629130 -0.369542 16.912631
-0.629673 -0.350108 16.918666
-0.630963 -0.303921 16.933007
-0.631506 -0.284487 16.939042
-0.632518 -0.265090 16.945068
-0.635230 -0.245827 16.951067
-0.637942 -0.226565 16.957066
-0.640654 -0.207302 16.963065
-0.647508 -0.161599 16.977301
-0.652525 -0.142768 16.983185
-0.657543 -0.123937 16.989068
-0.662560 -0.105106 16.994952
-0.667578 -0.086276 17.000835
-0.672595 -0.067445 17.006719
-0.689495 -0.024220 17.020267
-0.696839 -0.006104 17.025947
-0.704183 0.012012 17.031628
-0.711527 0.030128 17.037308
-0.720474 0.047540 17.042784
-0.730032 0.064683 17.048180
-0.752750 0.105426 17.061006
-0.762309 0.122570 17.066402
-0.773231 0.138919 17.071564
-0.784780 0.154902 17.076616
-0.796330 0.170886 17.081669
-0.807880 0.186869 17.086722
-0.836428 0.224043 17.098487
-0.849681 0.238770 17.103164
-0.862934 0.253497 17.107841
-0.876187 0.268224 17.112517
-0.889440 0.282951 17.117194
-0.903015 0.297387 17.121783
-0.937848 0.329372 17.131989
-0.952505 0.342830 17.136284
-0.967162 0.356288 17.140578
-0.982032 0.369516 17.144803
-0.997818 0.381755 17.148728
-1.013604 0.393994 17.152653
-1.051120 0.423081 17.161982
-1.067039 0.435151 17.165856
-1.083721 0.446254 17.169436
-1.100403 0.457358 17.173016
-1.117085 0.468462 17.176596
-1.133767 0.479565 17.180176
-1.174196 0.504806 17.188335
-1.191585 0.514873 17.191599
-1.208975 0.524941 17.194864
-1.226364 0.535008 17.198128
-1.243753 0.545075 17.201392
-1.261528 0.554497 17.204460
-1.304183 0.576199 17.211538
-1.322131 0.585331 17.214517
-1.340079 0.594462 17.217495
-1.358315 0.603049 17.220307
-1.376706 0.611340 17.223029
-1.395097 0.619632 17.225750
20 NaN NaN
-0.748482 -0.886240 16.753274
-0.710645 -0.787212 16.783695
-0.678703 -0.686322 16.814741
-0.653658 -0.583691 16.846383
-0.636663 -0.479591 16.878546
-0.628991 -0.374517 16.911087
-0.631931 -0.269259 16.943770
-0.646618 -0.164939 16.976258
-0.673789 -0.062964 17.008118
-0.713558 0.035138 17.038879
-0.765323 0.127975 17.068104
-0.827873 0.214536 17.095468
-0.899653 0.294300 17.120798
-0.979045 0.367200 17.144060
-1.064558 0.433499 17.165323
-1.154931 0.493653 17.184719
-1.249141 0.548194 17.202404
-1.346381 0.597669 17.218541
-1.446025 0.642592 17.233286
-1.547587 0.683435 17.246780
-0.850754 -1.157077 15.598660
-0.801243 -1.021632 15.607237
-0.759306 -0.883810 15.617822
-0.726816 -0.743679 15.630820
-0.706669 -0.601571 15.646818
-0.699146 -0.458617 15.665718
-0.707733 -0.316271 15.688076
-0.734051 -0.176736 15.713934
-0.777267 -0.042084 15.742809
-0.839677 0.084076 15.774689
-0.917721 0.200649 15.808632
-1.008679 0.307065 15.843957
-1.111993 0.401224 15.880240
-1.223238 0.485714 15.916878
-1.341041 0.560780 15.953606
-1.464246 0.626725 15.990210
-1.591026 0.685652 16.026593
-0.850047 -1.155209 15.598773
-0.801872 -1.023526 15.607103
-0.800615 -1.019738 15.607371
-0.759845 -0.885729 15.617665
-0.758766 -0.881890 15.617979
-0.727139 -0.745641 15.630608
-0.726493 -0.741716 15.631031
-0.706861 -0.603547 15.646576
-0.706476 -0.599595 15.647060
-0.699192 -0.460598 15.665443
-0.699099 -0.456637 15.665992
-0.707443 -0.318220 15.687732
-0.708022 -0.314323 15.688420
-0.733578 -0.178642 15.713556
-0.734524 -0.174830 15.714312
-0.776608 -0.043928 15.742399
-0.777926 -0.040241 15.743219
-0.838669 0.082412 15.774228
-0.840686 0.085741 15.775150
-0.916562 0.199092 15.808153
-0.918881 0.202206 15.809111
-1.007310 0.305697 15.843459
-1.010083 0.308399 15.844458
-1.110495 0.399999 15.879734
-1.113491 0.402449 15.880746
-1.221663 0.484591 15.916370
-1.224813 0.486837 15.917387
-1.339351 0.559840 15.953098
-1.342732 0.561721 15.954113
-1.462512 0.625865 15.989705
-1.465979 0.627585 15.990716
-1.589258 0.684865 16.026090
-0.847731 -1.149086 15.599144
-0.803931 -1.029736 15.606663
-0.798555 -1.013528 15.607810
-0.761613 -0.892023 15.617149
-0.756998 -0.875597 15.618495
-0.728198 -0.752075 15.629916
-0.725434 -0.735282 15.631723
-0.707493 -0.610025 15.645784
-0.705845 -0.593117 15.647852
-0.699344 -0.467091 15.664543
-0.698947 -0.450143 15.666892
-0.706493 -0.324609 15.686604
-0.708972 -0.307933 15.689548
-0.732027 -0.184891 15.712316
-0.736075 -0.168580 15.715552
-0.774449 -0.049971 15.741055
-0.780088 -0.034198 15.744564
-0.835364 0.076954 15.772715
-0.843991 0.091198 15.776663
-0.912759 0.193986 15.806581
-0.922684 0.207312 15.810682
-1.003074 0.300959 15.841845
-1.014687 0.312770 15.846100
-1.105585 0.395983 15.878076
-1.118402 0.406466 15.882404
-1.216499 0.480910 15.914704
-1.229977 0.490518 15.919053
-1.333808 0.556757 15.951435
-1.348275 0.564804 15.955777
-1.456829 0.623044 15.988048
-1.471662 0.630406 15.992372
-1.583459 0.682284 16.024443
-0.842493 -1.135238 15.599982
-0.835590 -1.116988 15.601086
-0.828687 -1.098737 15.602191
-0.821783 -1.080487 15.603296
-0.814880 -1.062236 15.604400
-0.808590 -1.043779 15.605669
-0.793897 -0.999485 15.608804
-0.787757 -0.980977 15.610114
-0.781618 -0.962469 15.611423
-0.776153 -0.943768 15.612909
-0.770883 -0.925011 15.614446
-0.765612 -0.906255 15.615983
-0.752999 -0.861365 15.619661
-0.748470 -0.842437 15.621386
-0.744189 -0.823452 15.623173
-0.739908 -0.804467 15.624961
-0.735627 -0.785482 15.626748
-0.731346 -0.766497 15.628536
-0.723040 -0.720732 15.633288
-0.719884 -0.701555 15.635350
-0.716728 -0.682378 15.637413
-0.713572 -0.663202 15.639476
-0.710803 -0.643985 15.641630
-0.708921 -0.624676 15.643992
-0.704416 -0.578466 15.649645
-0.702534 -0.559157 15.652007
-0.701050 -0.539836 15.654458
-0.700596 -0.520482 15.657141
-0.700142 -0.501129 15.659824
-0.699689 -0.481776 15.662507
-0.699002 -0.435478 15.669013
-0.700127 -0.416202 15.672033
-0.701252 -0.396926 15.675052
-0.702377 -0.377650 15.678071
-0.703502 -0.358373 15.681091
-0.704627 -0.339097 15.684110
-0.711121 -0.293484 15.692099
-0.713952 -0.274441 15.695460
-0.716784 -0.255398 15.698822
-0.719615 -0.236355 15.702183
-0.723897 -0.217650 15.705815
-0.728519 -0.199024 15.709511
-0.739583 -0.154448 15.718357
-0.744206 -0.135822 15.722052
-0.750253 -0.117677 15.725993
-0.756690 -0.099664 15.730000
-0.763127 -0.081651 15.734007
-0.769564 -0.063639 15.738014
-0.786312 -0.021137 15.747812
-0.794514 -0.003922 15.752093
-0.802717 0.013293 15.756374
-0.810920 0.030507 15.760656
-0.819122 0.047722 15.764937
-0.827889 0.064612 15.769295
-0.851466 0.103541 15.780083
-0.861317 0.119807 15.784591
-0.871169 0.136073 15.789098
-0.881491 0.152006 15.793662
-0.892825 0.167223 15.798345
-0.904159 0.182440 15.803028
-0.931284 0.218858 15.814236
-0.942995 0.233755 15.818956
-0.955620 0.247877 15.823766
-0.968245 0.262000 15.828576
-0.980870 0.276122 15.833386
-0.993495 0.290244 15.838196
-1.025098 0.322655 15.849813
-1.038819 0.335683 15.854707
-1.052540 0.348712 15.859601
-1.066261 0.361740 15.864495
-1.079982 0.374768 15.869389
-1.094479 0.386900 15.874325
-1.129507 0.415549 15.886155
-1.144143 0.427519 15.891099
-1.158779 0.439490 15.896042
-1.174037 0.450640 15.901004
-1.189428 0.461612 15.905970
-1.204820 0.472585 15.910936
-1.241656 0.498844 15.922821
-1.257541 0.509077 15.927789
-1.273553 0.519121 15.932758
-1.289565 0.529164 15.937728
-1.305578 0.539208 15.942697
-1.321590 0.549252 15.947666
-1.360810 0.571776 15.959539
-1.377331 0.580965 15.964497
-1.393852 0.590154 15.969455
-1.410372 0.599343 15.974413
-1.427039 0.608258 15.979364
-1.443977 0.616665 15.984302
-1.484514 0.636785 15.996119
-1.501452 0.645191 16.001056
-1.518502 0.653367 16.005985
-1.535783 0.661060 16.010896
-1.553065 0.668753 16.015806
-1.570347 0.676447 16.020717
23 NaN NaN
-0.850930 -1.157544 15.598632
-0.813516 -1.058630 15.604618
-0.780243 -0.958322 15.611717
-0.751679 -0.856669 15.620046
-0.728478 -0.753781 15.629733
-0.711376 -0.649858 15.640911
-0.701176 -0.545223 15.653711
-0.698718 -0.440353 15.668250
-0.704813 -0.335905 15.684610
-0.720155 -0.232726 15.702824
-0.745201 -0.131812 15.722848
-0.780077 -0.034221 15.744559
-0.824518 0.059047 15.767753
-0.877894 0.147177 15.792176
-0.939306 0.229628 15.817550
-1.007715 0.306150 15.843613
-1.082068 0.376748 15.870133
-1.161383 0.441620 15.896921
-1.244795 0.501082 15.923834
-1.331572 0.555514 15.950764
-1.421108 0.605315 15.977635
-1.512909 0.650878 16.004396
-1.606572 0.692573 16.031010
-0.918334 -1.413591 14.438025
-0.872872 -1.325498 14.422789
-0.830247 -1.235927 14.407995
-0.790801 -1.144834 14.393706
-0.754949 -1.052187 14.380001
-0.723166 -0.957977 14.366971
-0.696004 -0.862239 14.354726
-0.674083 -0.765068 14.343392
-0.658093 -0.666646 14.333116
-0.648769 -0.567267 14.324063
-0.646860 -0.467370 14.316410
-0.653061 -0.367553 14.310336
-0.667937 -0.268574 14.306004
-0.691830 -0.171311 14.303545
-0.724786 -0.076692 14.303036
-0.766523 0.014408 14.304486
-0.816458 0.101262 14.307835
-0.873787 0.183363 14.312965
-0.937590 0.260444 14.319715
-1.007094 0.332282 14.327952
-1.081304 0.399065 14.337471
-1.159324 0.461165 14.348070
-1.240510 0.518880 14.359602
-1.324326 0.572524 14.371941
-1.410329 0.622414 14.384977
-1.498154 0.668852 14.398618
-0.917428 -1.411835 14.437721
-0.873779 -1.327255 14.423093
-0.871966 -1.323741 14.422485
-0.831094 -1.237715 14.408289
-0.829400 -1.234139 14.407700
-0.791581 -1.146654 14.393990
-0.790022 -1.143014 14.393423
-0.755650 -1.054040 14.380272
-0.754247 -1.050334 14.379730
-0.723780 -0.959863 14.367228
-0.722553 -0.956091 14.366715
-0.696517 -0.864157 14.354965
-0.695491 -0.860321 14.354486
-0.674481 -0.767016 14.343611
-0.673685 -0.763120 14.343172
-0.658359 -0.668618 14.333311
-0.657826 -0.664673 14.332921
-0.648887 -0.569256 14.324231
-0.648651 -0.565277 14.323895
-0.646813 -0.469365 14.316547
-0.646907 -0.465375 14.316274
-0.652834 -0.369538 14.310436
-0.653288 -0.365569 14.310235
-0.667521 -0.270529 14.306065
-0.668353 -0.266619 14.305942
-0.691220 -0.173216 14.303566
-0.692439 -0.169406 14.303524
-0.723988 -0.078526 14.303015
-0.725583 -0.074858 14.303057
-0.765549 0.012662 14.304425
-0.767497 0.016154 14.304548
-0.815326 0.099616 14.307736
-0.817590 0.102908 14.307935
-0.872518 0.181823 14.312831
-0.875057 0.184903 14.313098
-0.936204 0.259011 14.319550
-0.938976 0.261876 14.319879
-1.005708 0.330850 14.327788
-1.008480 0.333715 14.328117
-1.079821 0.397736 14.337280
-1.082787 0.400393 14.337662
-1.157761 0.459936 14.347856
-1.160887 0.462395 14.348283
-1.238882 0.517743 14.359369
-1.242139 0.520017 14.359835
-1.322644 0.571472 14.371691
-1.326009 0.573576 14.372190
-1.408602 0.621440 14.384713
-1.412056 0.623388 14.385241
-1.496391 0.667949 14.398343
-0.915157 -1.407434 14.436960
-0.876050 -1.331656 14.423854
-0.869746 -1.319314 14.421732
-0.833215 -1.242193 14.409027
-0.827279 -1.229660 14.406963
-0.793532 -1.151214 14.394701
-0.788071 -1.138455 14.392712
-0.757409 -1.058682 14.380952
-0.752488 -1.045691 14.379051
-0.725318 -0.964588 14.367870
-0.721015 -0.951366 14.366072
-0.697802 -0.868963 14.355564
-0.694206 -0.855515 14.353887
-0.675477 -0.771895 14.344160
-0.672689 -0.758241 14.342624
-0.659026 -0.673560 14.333801
-0.657159 -0.659732 14.332431
-0.649183 -0.574240 14.324652
-0.648355 -0.560293 14.323475
-0.646695 -0.474362 14.316888
-0.647024 -0.460378 14.315932
-0.652267 -0.374510 14.310689
-0.653855 -0.360597 14.309982
-0.666478 -0.275428 14.306220
-0.669396 -0.261721 14.305787
-0.689694 -0.177988 14.303618
-0.693965 -0.164634 14.303472
-0.721990 -0.083120 14.302963
-0.727581 -0.070263 14.303109
-0.763110 0.008288 14.304271
-0.769936 0.020528 14.304702
-0.812491 0.095493 14.307487
-0.820426 0.107031 14.308184
-0.869338 0.177966 14.312495
-0.878237 0.188760 14.313434
-0.932997 0.255179 14.319208
-0.942448 0.265465 14.320290
-1.002236 0.327261 14.327377
-1.012131 0.337111 14.328577
-1.076106 0.394409 14.336803
-1.086503 0.403720 14.338139
-1.153845 0.456856 14.347322
-1.164803 0.465475 14.348818
-1.234801 0.514894 14.358786
-1.246219 0.522866 14.360418
-1.318429 0.568836 14.371066
-1.330224 0.576212 14.372815
-1.404277 0.618999 14.384053
-1.416381 0.625829 14.385901
-1.491974 0.665686 14.397651
-0.910572 -1.398550 14.435424
-0.904585 -1.386948 14.433417
-0.898597 -1.375346 14.431410
-0.892610 -1.363744 14.429404
-0.886622 -1.352142 14.427397
-0.880635 -1.340540 14.425390
-0.865463 -1.310273 14.420242
-0.859870 -1.298465 14.418297
-0.854277 -1.286657 14.416352
-0.848684 -1.274850 14.414407
-0.843091 -1.263042 14.412462
-0.837498 -1.251235 14.410517
-0.823200 -1.220522 14.405506
-0.818054 -1.208501 14.403632
-0.812909 -1.196480 14.401758
-0.807763 -1.184460 14.399884
-0.802618 -1.172439 14.398010
-0.797472 -1.160419 14.396136
-0.784139 -1.129246 14.391278
-0.779503 -1.117008 14.389487
-0.774867 -1.104769 14.387696
-0.770231 -1.092531 14.385905
-0.765595 -1.080292 14.384114
-0.760959 -1.068054 14.382323
-0.748938 -1.036320 14.377679
-0.744638 -1.023955 14.375944
-0.740584 -1.011498 14.374250
-0.736530 -0.999041 14.372556
-0.732476 -0.986584 14.370862
-0.728422 -0.974127 14.369168
-0.717911 -0.941827 14.364775
-0.713948 -0.929340 14.363096
-0.710560 -0.916671 14.361516
-0.707172 -0.904002 14.359935
-0.703784 -0.891333 14.358355
-0.700396 -0.878664 14.356775
-0.691612 -0.845814 14.352676
-0.688224 -0.833145 14.351096
-0.685368 -0.820339 14.349609
-0.682741 -0.807475 14.348162
-0.680115 -0.794611 14.346715
-0.677488 -0.781746 14.345268
-0.670678 -0.748390 14.341515
-0.668051 -0.735526 14.340068
-0.665651 -0.722619 14.338662
-0.663892 -0.709591 14.337371
-0.662132 -0.696563 14.336080
-0.660373 -0.683536 14.334790
-0.655812 -0.649755 14.331442
-0.654053 -0.636728 14.330152
-0.652294 -0.623700 14.328861
-0.651340 -0.610581 14.327719
-0.650560 -0.597441 14.326610
-0.649780 -0.584302 14.325501
-0.647758 -0.550232 14.322625
-0.646978 -0.537093 14.321516
-0.646199 -0.523953 14.320407
-0.645838 -0.510800 14.319378
-0.646148 -0.497625 14.318478
-0.646458 -0.484451 14.317578
-0.647262 -0.450289 14.315243
-0.647572 -0.437114 14.314343
-0.647882 -0.423939 14.313442
-0.648192 -0.410765 14.312542
-0.649625 -0.397654 14.311864
-0.651121 -0.384546 14.311198
-0.655001 -0.350560 14.309473
-0.656497 -0.337453 14.308807
-0.657993 -0.324345 14.308142
-0.659489 -0.311238 14.307476
-0.661624 -0.298230 14.306942
-0.664373 -0.285316 14.306533
-0.671500 -0.251832 14.305474
-0.674249 -0.238919 14.305065
-0.676998 -0.226005 14.304657
-0.679747 -0.213092 14.304248
-0.682590 -0.200203 14.303860
-0.686613 -0.187622 14.303723
-0.697046 -0.155001 14.303367
-0.701069 -0.142420 14.303230
-0.705093 -0.129839 14.303093
-0.709116 -0.117258 14.302956
-0.713140 -0.104678 14.302819
-0.717956 -0.092395 14.302857
-0.731615 -0.060988 14.303215
-0.736882 -0.048875 14.303353
-0.742150 -0.036763 14.303492
-0.747417 -0.024650 14.303630
-0.752685 -0.012537 14.303768
-0.758186 -0.000541 14.303960
-0.774860 0.029358 14.305013
-0.781290 0.040889 14.305419
-0.787721 0.052420 14.305825
-0.794152 0.063951 14.306231
-0.800582 0.075482 14.306637
-0.807013 0.087013 14.307043
-0.826150 0.115355 14.308687
-0.833626 0.126226 14.309344
-0.841102 0.137096 14.310001
-0.848577 0.147966 14.310658
-0.856053 0.158837 14.311314
-0.863529 0.169707 14.311971
-0.884657 0.196547 14.314111
-0.893041 0.206716 14.314995
-0.901425 0.216885 14.315879
-0.909809 0.227054 14.316763
-0.918193 0.237223 14.317647
-0.926577 0.247392 14.318531
-0.949457 0.272710 14.321121
-0.958611 0.282171 14.322206
-0.967765 0.291632 14.323291
-0.976919 0.301094 14.324376
-0.986072 0.310555 14.325461
-0.995226 0.320016 14.326546
-1.019631 0.343829 14.329541
-1.029426 0.352601 14.330801
-1.039221 0.361374 14.332060
-1.049016 0.370146 14.333319
-1.058811 0.378919 14.334579
-1.068605 0.387691 14.335838
-1.094323 0.410042 14.339195
-1.104647 0.418161 14.340604
-1.114970 0.426281 14.342014
-1.125293 0.434400 14.343423
-1.135617 0.442519 14.344833
-1.145940 0.450639 14.346242
-1.172780 0.471590 14.349918
-1.183537 0.479100 14.351456
-1.194294 0.486611 14.352994
-1.205051 0.494122 14.354532
-1.215808 0.501632 14.356070
-1.226564 0.509143 14.357608
-1.254456 0.528617 14.361596
-1.265472 0.535719 14.363214
-1.276584 0.542668 14.364861
-1.287696 0.549617 14.366509
-1.298808 0.556566 14.368157
-1.309920 0.563515 14.369804
-1.338733 0.581534 14.374077
-1.349929 0.588334 14.375752
-1.361333 0.594768 14.377494
-1.372737 0.601203 14.379235
-1.384141 0.607637 14.380977
-1.395544 0.614072 14.382719
-1.425114 0.630756 14.387235
-1.436517 0.637191 14.388977
-1.448125 0.643225 14.390788
-1.459769 0.649190 14.392610
-1.471414 0.655155 14.394433
-1.483058 0.661119 14.396255
25 NaN NaN
-0.918561 -1.414031 14.438101
-0.870467 -1.320838 14.421983
-0.825543 -1.225995 14.406359
-0.784213 -1.129442 14.391307
-0.746976 -1.031139 14.376921
-0.714415 -0.931085 14.363314
-0.687203 -0.829330 14.350620
-0.666109 -0.726011 14.338998
-0.651981 -0.621384 14.328631
-0.645719 -0.515865 14.319725
-0.648208 -0.410068 14.312494
-0.660222 -0.304819 14.307150
-0.682293 -0.201130 14.303870
-0.714599 -0.100116 14.302769
-0.756893 -0.002859 14.303878
-0.808528 0.089731 14.307139
-0.868557 0.177020 14.312413
-0.935885 0.258681 14.319513
-1.009397 0.334663 14.328225
-1.088062 0.405117 14.338340
-1.170975 0.470329 14.349660
-1.257372 0.530653 14.362013
-1.346625 0.586469 14.375247
-1.438222 0.638153 14.389237
-1.531751 0.686062 14.403877
-1.431403 -1.597196 12.133243
-1.247935 -1.413479 12.241241
-1.079828 -1.216632 12.350968
-0.934006 -1.003576 12.462129
-0.820811 -0.771856 12.573477
-0.754076 -0.521721 12.682008
-0.754755 -0.259423 12.780951
-0.828192 -0.001738 12.862844
-0.967594 0.234281 12.922676
-1.152013 0.442276 12.962450
-1.364721 0.624393 12.986498
-1.430068 -1.595918 12.134007
-1.249196 -1.414825 12.240468
-1.246674 -1.412133 12.242015
-1.080934 -1.218100 12.350181
-1.078721 -1.215164 12.351755
-0.934968 -1.005140 12.461336
-0.933045 -1.002012 12.462923
-0.821454 -0.773579 12.572691
-0.820169 -0.770133 12.574264
-0.754414 -0.523541 12.681249
-0.753737 -0.519902 12.682766
-0.754506 -0.261296 12.780296
-0.755005 -0.257549 12.781606
-0.827350 -0.003486 12.862361
-0.829034 0.000011 12.863328
-0.966450 0.232682 12.922312
-0.968738 0.235881 12.923039
-1.150571 0.440906 12.962236
-1.153455 0.443645 12.962664
-1.363154 0.623157 12.986361
-1.422494 -1.588668 12.138339
-1.256347 -1.422460 12.236079
-1.239523 -1.404498 12.246404
-1.087211 -1.226427 12.345714
-1.072444 -1.206837 12.356222
-0.940421 -1.014012 12.456838
-0.927592 -0.993139 12.467421
-0.825098 -0.783353 12.568233
-0.816524 -0.760359 12.578722
-0.756333 -0.533861 12.676947
-0.752685 -0.509417 12.686948
-0.753090 -0.271920 12.776580
-0.756420 -0.246925 12.785321
-0.822574 -0.013404 12.859619
-0.833810 0.009928 12.866069
-0.959961 0.223608 12.920250
-0.975227 0.244954 12.925102
-1.142393 0.433139 12.961022
-1.161633 0.451412 12.963878
-1.354271 0.616146 12.985581
-1.402854 -1.569868 12.149572
-1.376718 -1.544850 12.164522
-1.350810 -1.519619 12.179503
-1.325359 -1.493961 12.194550
-1.299909 -1.468302 12.209597
-1.274892 -1.442258 12.224699
-1.220978 -1.384700 12.257784
-1.197153 -1.357633 12.273021
-1.173351 -1.330546 12.288261
-1.149750 -1.303299 12.303519
-1.126945 -1.275417 12.318849
-1.104141 -1.247534 12.334179
-1.056167 -1.185243 12.367803
-1.034506 -1.156507 12.383215
-1.013956 -1.127002 12.398684
-0.993613 -1.097353 12.414164
-0.973378 -1.067637 12.429647
-0.954561 -1.037020 12.445171
-0.914309 -0.969641 12.479093
-0.897266 -0.938007 12.494628
-0.880223 -0.906374 12.510163
-0.864649 -0.873996 12.525671
-0.849671 -0.841315 12.541167
-0.834693 -0.808635 12.556663
-0.807074 -0.735014 12.590285
-0.795478 -0.700933 12.605599
-0.785680 -0.666204 12.620779
-0.775882 -0.631476 12.635959
-0.767931 -0.596234 12.650945
-0.761309 -0.560622 12.665791
-0.750384 -0.482145 12.697735
-0.747322 -0.445853 12.712088
-0.745129 -0.409477 12.726291
-0.745944 -0.372808 12.739972
-0.746760 -0.336138 12.753653
-0.749419 -0.299471 12.766944
-0.760091 -0.219374 12.794957
-0.768518 -0.183084 12.806893
-0.777489 -0.146852 12.818693
-0.786837 -0.110700 12.830383
-0.799725 -0.075306 12.841042
-0.812613 -0.039911 12.851701
-0.846196 0.035647 12.873179
-0.862678 0.069871 12.882640
-0.881509 0.103063 12.891217
-0.901169 0.135891 12.899482
-0.920829 0.168719 12.907747
-0.943134 0.200079 12.914901
-0.992933 0.267894 12.930043
-1.017631 0.297658 12.936090
-1.042329 0.327423 12.942138
-1.068200 0.356263 12.947590
-1.094822 0.384513 12.952661
-1.121445 0.412762 12.957732
-1.182840 0.471555 12.967025
-1.211395 0.498020 12.971016
-1.240945 0.523471 12.974413
-1.270495 0.548921 12.977811
-1.300576 0.573770 12.980869
-1.331233 0.597965 12.983560
29 NaN NaN
-1.431737 -1.597516 12.133052
-1.359286 -1.528164 12.174492
-1.288736 -1.457038 12.216203
-1.220328 -1.384005 12.258183
-1.154348 -1.308921 12.300428
-1.091134 -1.231632 12.342923
-1.031092 -1.151977 12.385645
-0.974704 -1.069794 12.428553
-0.922546 -0.984929 12.471584
-0.875306 -0.897249 12.514645
-0.833792 -0.806670 12.557595
-0.798937 -0.713192 12.600240
-0.771783 -0.616947 12.642310
-0.753432 -0.518258 12.683451
-0.744946 -0.417694 12.723226
-0.747206 -0.316087 12.761133
-0.760740 -0.214501 12.796661
-0.785596 -0.114110 12.829356
-0.821306 -0.016036 12.858891
-0.866978 0.078800 12.885108
-0.921460 0.169772 12.908012
-0.983517 0.256547 12.927737
-1.051968 0.339040 12.944499
-1.125756 0.417337 12.958553
-1.203980 0.491633 12.970163
-1.285887 0.562178 12.979581
-1.370866 0.629243 12.987037
-1.458416 0.693100 12.992741
-1.548132 0.754005 12.996875
-1.857013 -1.556105 11.021945
-1.690758 -1.445178 10.989514
-1.528823 -1.327783 10.958061
-1.372508 -1.202715 10.927868
-1.223744 -1.068424 10.899355
-1.085496 -0.922958 10.873156
-0.962466 -0.764006 10.850266
-0.862156 -0.589412 10.832252
-0.795801 -0.398939 10.821418
-0.776580 -0.197912 10.820385
-0.812738 0.000526 10.830649
-0.895759 0.183633 10.850286
-1.011770 0.347121 10.876392
-1.149363 0.492298 10.906651
-1.301071 0.622136 10.939578
-1.462313 0.739497 10.974277
-1.855362 -1.555024 11.021622
-1.692390 -1.446290 10.989832
-1.689127 -1.444066 10.989196
-1.530406 -1.328966 10.958368
-1.527240 -1.326599 10.957754
-1.374026 -1.203984 10.928161
-1.370990 -1.201446 10.927576
-1.225172 -1.069798 10.899628
-1.222316 -1.067051 10.899083
-1.086794 -0.924460 10.873400
-1.084199 -0.921455 10.872912
-0.963566 -0.765664 10.850467
-0.961366 -0.762349 10.850064
-0.862951 -0.591242 10.832389
-0.861362 -0.587582 10.832116
-0.796141 -0.400909 10.821459
-0.795460 -0.396969 10.821377
-0.776422 -0.199901 10.820324
-0.776805 -0.195926 10.820459
-0.812236 -0.001406 10.830519
-0.813239 0.002457 10.830780
-0.894808 0.181887 10.850066
-0.896710 0.185379 10.850506
-1.010523 0.345582 10.876114
-1.013018 0.348660 10.876669
-1.147929 0.490939 10.906338
-1.150797 0.493657 10.906964
-1.299517 0.620923 10.939243
-1.302625 0.623350 10.939914
-1.460678 0.738400 10.973927
-1.848271 -1.550383 11.020238
-1.699395 -1.451064 10.991197
-1.682121 -1.439291 10.987831
-1.537203 -1.334046 10.959686
-1.520444 -1.321519 10.956436
-1.380543 -1.209432 10.929416
-1.364472 -1.195998 10.926321
-1.231302 -1.075696 10.900797
-1.216185 -1.061153 10.897913
-1.092364 -0.930911 10.874447
-1.078628 -0.915005 10.871865
-0.968291 -0.772783 10.851331
-0.956641 -0.755230 10.849200
-0.866364 -0.599100 10.832974
-0.857949 -0.579724 10.831531
-0.797603 -0.409369 10.821637
-0.793998 -0.388509 10.821200
-0.776695 -0.208483 10.820256
-0.777770 -0.187400 10.820780
-0.810085 -0.009700 10.829959
-0.815448 0.010732 10.831352
-0.890726 0.174392 10.849122
-0.900792 0.192874 10.851449
-1.005168 0.338976 10.874923
-1.018373 0.355266 10.877861
-1.141774 0.485105 10.904994
-1.156952 0.499491 10.908308
-1.292845 0.615712 10.937802
-1.309296 0.628560 10.941355
-1.453658 0.733689 10.972422
-1.830917 -1.539026 11.016849
-1.807914 -1.523971 11.012358
-1.784910 -1.508915 11.007866
-1.761992 -1.493728 11.003394
-1.739266 -1.478239 10.998966
-1.716540 -1.462750 10.994538
-1.665206 -1.427262 10.984542
-1.642796 -1.411300 10.980185
-1.620386 -1.395338 10.975828
-1.597976 -1.379375 10.971471
-1.575885 -1.362958 10.967186
-1.553836 -1.346478 10.962911
-1.503937 -1.308915 10.953239
-1.482306 -1.291867 10.949057
-1.460676 -1.274820 10.944876
-1.439046 -1.257772 10.940694
-1.417637 -1.240439 10.936562
-1.396494 -1.222765 10.932489
-1.348522 -1.182664 10.923248
-1.327882 -1.164383 10.919287
-1.307312 -1.146017 10.915341
-1.286742 -1.127652 10.911396
-1.266194 -1.109262 10.907455
-1.246306 -1.090129 10.903660
-1.201181 -1.046719 10.895050
-1.181665 -1.027201 10.891337
-1.162597 -1.007218 10.887722
-1.143529 -0.987235 10.884107
-1.124461 -0.967252 10.880492
-1.105998 -0.946697 10.877010
-1.064995 -0.899219 10.869302
-1.046959 -0.878263 10.865912
-1.030113 -0.856300 10.862781
-1.013267 -0.834336 10.859650
-0.996421 -0.812373 10.856518
-0.979853 -0.790203 10.853447
-0.945079 -0.737810 10.847085
-0.929753 -0.714718 10.844281
-0.915575 -0.690902 10.841722
-0.902144 -0.666615 10.839324
-0.888713 -0.642329 10.836925
-0.875283 -0.618042 10.834526
-0.849596 -0.560493 10.830099
-0.838524 -0.535002 10.828200
-0.827985 -0.509307 10.826414
-0.819807 -0.482710 10.825123
-0.811629 -0.456112 10.823833
-0.803451 -0.429514 10.822543
-0.790419 -0.367805 10.820766
-0.785675 -0.340362 10.820191
-0.780932 -0.312918 10.819616
-0.779136 -0.285170 10.819649
-0.778250 -0.257329 10.819869
-0.777364 -0.229487 10.820089
-0.780133 -0.166532 10.821565
-0.783264 -0.138872 10.822605
-0.786396 -0.111212 10.823645
-0.790860 -0.083812 10.824954
-0.797840 -0.056906 10.826771
-0.804819 -0.029999 10.828588
-0.823287 0.030139 10.833236
-0.833677 0.055864 10.835734
-0.844068 0.081589 10.838232
-0.854458 0.107314 10.840730
-0.867492 0.131733 10.843751
-0.880735 0.156048 10.846812
-0.911590 0.210703 10.853917
-0.927134 0.233551 10.857428
-0.942679 0.256399 10.860940
-0.958223 0.279247 10.864452
-0.974691 0.301378 10.868142
-0.992063 0.322809 10.872007
-1.031478 0.371433 10.880777
-1.050192 0.391645 10.884899
-1.069010 0.411762 10.889041
-1.087828 0.431880 10.893183
-1.106740 0.451900 10.897344
-1.126709 0.470826 10.901704
-1.172017 0.513769 10.911598
-1.192452 0.532157 10.916046
-1.213345 0.550015 10.920581
-1.234238 0.567873 10.925115
-1.255130 0.585731 10.929649
-1.276517 0.602961 10.934276
-1.325625 0.641312 10.944881
-1.347317 0.658146 10.949565
-1.369577 0.674194 10.954353
-1.391838 0.690242 10.959141
-1.414098 0.706290 10.963929
-1.436478 0.722160 10.968739
30 NaN NaN
-1.857426 -1.556375 11.022025
-1.768935 -1.498460 11.004747
-1.681511 -1.438875 10.987712
-1.595302 -1.377471 10.970951
-1.510485 -1.314076 10.954505
-1.427276 -1.248496 10.938419
-1.345943 -1.180508 10.922751
-1.266815 -1.109860 10.907574
-1.190312 -1.036263 10.892976
-1.116965 -0.959396 10.879071
-1.047453 -0.878907 10.866004
-0.982658 -0.794429 10.853960
-0.923712 -0.705617 10.843176
-0.872062 -0.612217 10.833951
-0.829489 -0.514199 10.826651
-0.798048 -0.411942 10.821691
-0.779814 -0.306450 10.819480
-0.776407 -0.199441 10.820327
-0.788443 -0.093129 10.824325
-0.815272 0.010297 10.831309
-0.855218 0.109196 10.840913
-0.906138 0.202691 10.852685
-0.965917 0.290555 10.866190
-1.032729 0.372976 10.881055
-1.105109 0.450353 10.896987
-1.181918 0.523154 10.913760
-1.262285 0.591846 10.931202
-1.345540 0.656865 10.949182
-1.431170 0.718598 10.967601
-1.518773 0.777385 10.986381
-1.562752 -1.680871 9.363825
-1.439794 -1.576659 9.375998
-1.320064 -1.468804 9.388580
-1.205103 -1.355954 9.401724
-1.095019 -1.238406 9.415395
-0.992059 -1.114672 9.429759
-0.896931 -0.984904 9.444796
-0.813074 -0.847727 9.460658
-0.742413 -0.703414 9.477308
-0.689966 -0.551725 9.494764
-0.659100 -0.394305 9.512831
-0.654332 -0.234116 9.531160
-0.677427 -0.075440 9.549258
-0.726704 0.077198 9.566612
-0.799565 0.220369 9.582834
-0.890011 0.353297 9.597848
-0.995167 0.475184 9.611569
-1.110221 0.587919 9.624223
-1.233820 0.691394 9.635800
-1.363011 0.787901 9.646569
-1.561221 -1.679592 9.363975
-1.441296 -1.577971 9.375845
-1.438292 -1.575348 9.376151
-1.321534 -1.470151 9.388423
-1.318594 -1.467457 9.388737
-1.206495 -1.357381 9.401558
-1.203711 -1.354527 9.401890
-1.096363 -1.239877 9.415224
-1.093676 -1.236934 9.415566
-0.993281 -1.116245 9.429577
-0.990837 -1.113099 9.429941
-0.898076 -0.986533 9.444608
-0.895786 -0.983275 9.444985
-0.814019 -0.849478 9.460456
-0.812129 -0.845976 9.460860
-0.743230 -0.705228 9.477099
-0.741597 -0.701601 9.477517
-0.690453 -0.553652 9.494543
-0.689480 -0.549798 9.494985
-0.659385 -0.396272 9.512605
-0.658816 -0.392338 9.513056
-0.654160 -0.236095 9.530934
-0.654505 -0.232136 9.531386
-0.677021 -0.077386 9.549037
-0.677832 -0.073494 9.549480
-0.725880 0.075387 9.566406
-0.727528 0.079009 9.566817
-0.798570 0.218645 9.582639
-0.800560 0.222093 9.583029
-0.888752 0.351753 9.597674
-0.891271 0.354841 9.598022
-0.993809 0.473725 9.611405
-0.996526 0.476642 9.611733
-1.108713 0.586613 9.624077
-1.111728 0.589226 9.624370
-1.232256 0.690154 9.635662
-1.235383 0.692633 9.635939
-1.361360 0.786778 9.646444
-1.555744 -1.675016 9.364509
-1.446672 -1.582664 9.375297
-1.432916 -1.570654 9.376699
-1.326796 -1.474971 9.387861
-1.313413 -1.462553 9.389309
-1.211475 -1.362487 9.400964
-1.198731 -1.349421 9.402485
-1.101171 -1.245144 9.414612
-1.088868 -1.231667 9.416179
-0.997654 -1.121873 9.428924
-0.986464 -1.107470 9.430594
-0.902172 -0.992364 9.443933
-0.891689 -0.977445 9.445660
-0.817402 -0.855745 9.459732
-0.808747 -0.839710 9.461584
-0.746151 -0.711720 9.476351
-0.738676 -0.695109 9.478266
-0.692194 -0.560550 9.493750
-0.687738 -0.542901 9.495778
-0.660402 -0.403310 9.511798
-0.657799 -0.385299 9.513863
-0.653543 -0.243180 9.530125
-0.655121 -0.225051 9.532195
-0.675569 -0.084349 9.548243
-0.679284 -0.066530 9.550273
-0.722933 0.068906 9.565671
-0.730476 0.085490 9.567552
-0.795009 0.212475 9.581941
-0.804120 0.228262 9.583727
-0.884245 0.346228 9.597052
-0.895777 0.360367 9.598645
-0.988948 0.468504 9.610818
-1.001387 0.481863 9.612320
-1.103319 0.581938 9.623554
-1.117123 0.593901 9.624893
-1.226661 0.685719 9.635166
-1.240979 0.697069 9.636435
-1.355526 0.782659 9.645985
-1.542995 -1.664365 9.365754
-1.526157 -1.650298 9.367397
-1.509318 -1.636230 9.369041
-1.492480 -1.622163 9.370685
-1.475710 -1.608017 9.372337
-1.459184 -1.593588 9.374022
-1.420403 -1.559730 9.377974
-1.403877 -1.545302 9.379658
-1.387559 -1.530645 9.381368
-1.371386 -1.515827 9.383096
-1.355213 -1.501009 9.384825
-1.339040 -1.486190 9.386553
-1.301472 -1.451015 9.390653
-1.285701 -1.435775 9.392429
-1.269930 -1.420535 9.394204
-1.254160 -1.405296 9.395980
-1.238389 -1.390056 9.397755
-1.223067 -1.374371 9.399581
-1.187138 -1.337537 9.403868
-1.171828 -1.321841 9.405694
-1.156701 -1.305974 9.407540
-1.141921 -1.289784 9.409423
-1.127141 -1.273593 9.411305
-1.112361 -1.257403 9.413187
-1.078118 -1.219027 9.417647
-1.063954 -1.202301 9.419589
-1.049791 -1.185576 9.421531
-1.035628 -1.168850 9.423473
-1.021464 -1.152125 9.425415
-1.007832 -1.134974 9.427405
-0.976286 -1.094370 9.432113
-0.962843 -1.077067 9.434120
-0.949490 -1.059699 9.436134
-0.936896 -1.041777 9.438210
-0.924302 -1.023855 9.440285
-0.911708 -1.005933 9.442361
-0.882630 -0.963564 9.447267
-0.871040 -0.944985 9.449415
-0.859450 -0.926406 9.451564
-0.847860 -0.907827 9.453713
-0.836271 -0.889248 9.455861
-0.825274 -0.870329 9.458048
-0.800875 -0.825125 9.463268
-0.790478 -0.805862 9.465493
-0.780081 -0.786599 9.467717
-0.770911 -0.766737 9.470007
-0.761931 -0.746782 9.472308
-0.752950 -0.726828 9.474609
-0.732272 -0.679844 9.480025
-0.724966 -0.659226 9.482398
-0.717659 -0.638608 9.484771
-0.710353 -0.617990 9.487144
-0.703047 -0.597372 9.489517
-0.696248 -0.576602 9.491906
-0.683685 -0.526848 9.497622
-0.678331 -0.505646 9.500058
-0.672978 -0.484444 9.502494
-0.669026 -0.462968 9.504958
-0.665899 -0.441330 9.507439
-0.662771 -0.419693 9.509920
-0.655433 -0.368917 9.515742
-0.654754 -0.347067 9.518242
-0.654076 -0.325217 9.520742
-0.653398 -0.303368 9.523242
-0.652719 -0.281518 9.525742
-0.652107 -0.259670 9.528242
-0.656557 -0.208561 9.534078
-0.658454 -0.186782 9.536564
-0.660350 -0.165003 9.539051
-0.663266 -0.143371 9.541519
-0.667728 -0.121964 9.543958
-0.672191 -0.100557 9.546397
-0.682663 -0.050322 9.552120
-0.688986 -0.029409 9.554498
-0.695870 -0.008645 9.556859
-0.702755 0.012119 9.559219
-0.709639 0.032884 9.561579
-0.716523 0.053648 9.563940
-0.737337 0.100574 9.569263
-0.746398 0.120496 9.571523
-0.755460 0.140418 9.573782
-0.764829 0.160184 9.576023
-0.775775 0.179150 9.578169
-0.786721 0.198116 9.580316
-0.812408 0.242622 9.585352
-0.824201 0.261056 9.587436
-0.836736 0.279025 9.589465
-0.849271 0.296994 9.591494
-0.861806 0.314963 9.593523
-0.874341 0.332931 9.595552
-0.906267 0.373228 9.600094
-0.920121 0.390213 9.602008
-0.933975 0.407199 9.603921
-0.947829 0.424185 9.605835
-0.962692 0.440303 9.607648
-0.977635 0.456352 9.609452
-1.012700 0.494015 9.613686
-1.027908 0.509806 9.615461
-1.043749 0.524981 9.617163
-1.059589 0.540157 9.618866
-1.075430 0.555333 9.620569
-1.091270 0.570508 9.622271
-1.129679 0.604782 9.626111
-1.146262 0.619153 9.627720
-1.162845 0.633524 9.629330
-1.179428 0.647895 9.630939
-1.196436 0.661760 9.632489
-1.213637 0.675395 9.634013
-1.254003 0.707392 9.637588
-1.271233 0.720990 9.639108
-1.288952 0.733953 9.640553
-1.306672 0.746917 9.641999
-1.324391 0.759880 9.643445
-1.342110 0.772844 9.644891
30 NaN NaN
-1.563134 -1.681190 9.363788
-1.479312 -1.611162 9.371970
-1.397045 -1.539336 9.380355
-1.316536 -1.465571 9.388957
-1.238028 -1.389708 9.397796
-1.161812 -1.311573 9.406889
-1.088239 -1.230978 9.416259
-1.017735 -1.147721 9.425926
-0.950820 -1.061591 9.435915
-0.888131 -0.972382 9.446247
-0.830442 -0.879906 9.456942
-0.778693 -0.784028 9.468014
-0.733998 -0.684715 9.479464
-0.697638 -0.582107 9.491274
-0.670997 -0.476602 9.503395
-0.655433 -0.368939 9.515739
-0.652058 -0.260227 9.528179
-0.661494 -0.151869 9.540551
-0.683697 -0.045362 9.552685
-0.717951 0.057954 9.564429
-0.763042 0.157088 9.575673
-0.817515 0.251470 9.586354
-0.879899 0.340899 9.596451
-0.948853 0.425440 9.605977
-1.023230 0.505324 9.614958
-1.102077 0.580862 9.623433
-1.184624 0.652398 9.631443
-1.270249 0.720270 9.639027
-1.358455 0.784802 9.646224
-1.448839 0.846287 9.653068
-1.024751 -1.511491 6.240539
-0.779585 -1.010495 6.318406
-0.680654 -0.465866 6.409954
-0.819345 0.066042 6.509052
-1.178829 0.487296 6.597812
-1.023741 -1.509784 6.240797
-0.780234 -1.012362 6.318105
-0.778936 -1.008627 6.318707
-0.680647 -0.467836 6.409608
-0.680662 -0.463896 6.410300
-0.818467 0.064278 6.508706
-0.820223 0.067805 6.509398
-1.177288 0.486052 6.597530
-1.013949 -1.493242 6.243298
-0.786521 -1.030466 6.315185
-0.772649 -0.990524 6.321627
-0.680578 -0.486928 6.406253
-0.680731 -0.444804 6.413655
-0.809959 0.047186 6.505355
-0.829893 0.084268 6.512686
-1.162356 0.473996 6.594799
-0.984473 -1.443444 6.250828
-0.945126 -1.373527 6.261483
-0.907441 -1.302739 6.272360
-0.871526 -1.231061 6.283466
-0.838330 -1.158132 6.294904
-0.807550 -1.084209 6.306615
-0.754091 -0.935915 6.330450
-0.732015 -0.859066 6.343034
-0.713606 -0.781334 6.355924
-0.698713 -0.702916 6.369078
-0.687558 -0.623906 6.382491
-0.681398 -0.544373 6.396201
-0.684389 -0.387511 6.423865
-0.692939 -0.308345 6.438116
-0.707350 -0.230000 6.452465
-0.728139 -0.153142 6.466815
-0.753846 -0.077824 6.481097
-0.784348 -0.004270 6.495266
-0.859928 0.133321 6.522535
-0.904854 0.199220 6.535955
-0.953335 0.262634 6.549084
-1.005209 0.323433 6.561894
-1.061058 0.380695 6.574247
-1.119308 0.435543 6.586275
25 NaN NaN
-1.025003 -1.511917 6.240474
-0.971354 -1.421281 6.254179
-0.920677 -1.329013 6.268292
-0.873343 -1.235053 6.282840
-0.829784 -1.139358 6.297848
-0.790496 -1.041909 6.313340
-0.756048 -0.942728 6.329335
-0.727083 -0.841895 6.345846
-0.704312 -0.739574 6.362873
-0.688498 -0.636037 6.380400
-0.680416 -0.531694 6.398387
-0.680795 -0.427111 6.416764
-0.690242 -0.323011 6.435430
-0.709146 -0.220238 6.454253
-0.737608 -0.119693 6.473077
-0.775403 -0.022240 6.491743
-0.822005 0.071385 6.510100
-0.876658 0.160644 6.528021
-0.938474 0.245216 6.545414
-1.006532 0.324983 6.562221
-1.079945 0.399992 6.578413
-1.157908 0.470405 6.593985
-1.239716 0.536455 6.608950
-1.324769 0.598416 6.623330
-1.412559 0.656571 6.637154
