0.179747 0.179777 0.180206 0.182199 0.185356 0.188441 0.191526 0.194610 0.197311 0.199016 0.199356 0.199379 0.199402 0.199737 0.201068 0.203176 0.204551 0.205925 0.207300 0.208292 0.208918 0.209046 0.209055 0.209064 0.209192 0.209729 0.210581 0.211287 0.211993 0.212699 0.213156 0.213445 0.213488 0.213491 0.213494 0.213532 0.213620 0.213759 0.213400 0.213040 0.212680 0.211822 0.211281 0.211132 0.211122 0.211111 0.210958 0.210164 0.208905 0.207277 0.205648 0.204020 0.202133 0.200942 0.200676 0.200658 
0.179737 0.179726 0.179618 0.179227 0.178666 0.177958 0.177250 0.176542 0.175727 0.175160 0.174983 0.174966 0.174948 0.174769 0.174168 0.173304 0.172464 0.171624 0.170784 0.170014 0.169479 0.169322 0.169306 0.169290 0.169135 0.168639 0.167927 0.167251 0.166574 0.165898 0.165234 0.164772 0.164633 0.164619 
0.179741 0.179747 0.179839 0.179415 0.178743 0.176136 0.173528 0.170920 0.168022 0.166193 0.165788 0.165761 0.165735 0.165341 0.163696 0.161090 0.158919 0.156747 0.154576 0.152808 0.151692 0.151471 0.151457 0.151442 0.151223 0.150310 0.148863 0.147631 0.146398 0.145166 0.144025 0.143306 0.143152 0.143142 0.143132 0.142979 0.142275 0.141161 0.139985 0.138810 0.137635 0.136279 0.135423 0.135218 0.135205 0.135191 0.134983 0.133962 0.132344 0.130717 0.129089 0.127462 0.126036 0.125137 0.124946 0.124933 0.124921 0.124731 0.123887 0.122551 0.121398 0.120246 0.119094 0.118400 0.117961 0.117890 0.117885 0.117881 0.117812 0.117550 0.117134 0.116856 0.116577 0.116299 0.116087 0.115953 0.115926 0.115924 0.115923 0.115895 0.115776 0.115586 0.115409 0.115233 0.115057 0.114894 0.114792 0.114770 0.114769 0.114767 0.114746 0.114651 0.114501 0.114368 0.114235 0.114101 0.113996 0.113929 0.113917 0.113916 0.113915 0.113903 0.113854 0.113778 0.113723 0.113669 0.113614 0.113571 0.113544 0.113539 0.113538 0.113538 0.113532 0.113509 0.113473 0.113442 0.113411 0.113380 0.113354 0.113337 0.113334 0.113334 0.113333 0.113330 0.113316 0.113294 0.113276 0.113259 0.113241 0.113228 0.113219 0.113218 0.113218 0.113218 0.113216 0.113210 0.113201 0.113196 0.113192 0.113187 0.113183 0.113180 0.113179 0.113179 
0.211098 0.211004 0.210553 0.209458 0.208003 0.206657 0.205311 0.203965 0.202738 0.201813 0.201460 0.201387 0.201314 0.200965 0.200114 0.198984 0.197938 0.196891 0.195845 0.194878 0.194150 0.193872 0.193814 0.193758 0.193490 0.192835 0.191964 0.191156 0.190348 0.189541 0.188794 0.188232 0.188016 0.187971 0.187927 0.187713 0.187191 0.186498 0.185861 0.185224 0.184587 0.184010 0.183574 0.183405 0.183370 0.183335 0.183167 0.182778 0.182261 0.181839 0.181417 0.180995 0.180644 0.180380 0.180276 0.180254 0.180233 0.180130 0.179899 0.179592 0.179317 0.179043 0.178769 0.178531 0.178352 0.178281 0.178266 0.178251 0.178180 0.178025 0.177818 0.177626 0.177435 0.177243 0.177068 0.176937 0.176886 0.176875 0.176866 0.176821 0.176706 0.176553 0.176411 0.176270 0.176129 0.175997 0.175898 0.175864 0.175857 0.175850 0.175815 0.175728 0.175611 0.175508 0.175404 0.175300 0.175203 0.175129 0.175103 0.175097 
0.209031 0.208939 0.208462 0.207285 0.205720 0.204289 0.202858 0.201427 0.200135 0.199162 0.198797 0.198726 0.198656 0.198297 0.197433 0.196285 0.195268 0.194250 0.193233 0.192337 0.191662 0.191413 0.191365 0.191318 0.191074 0.190464 0.189653 0.188888 0.188123 0.187358 0.186606 0.186040 0.185819 0.185777 0.185734 0.185515 0.184974 0.184254 0.183562 0.182870 0.182177 0.181513 0.181013 0.180830 0.180795 0.180760 0.180578 0.180124 0.179521 0.179000 0.178479 0.177958 0.177548 0.177240 0.177134 0.177114 0.177093 0.176989 0.176736 0.176401 0.176155 0.175909 0.175663 0.175484 0.175350 0.175297 0.175287 0.175277 0.175224 0.175116 0.174973 0.174857 0.174741 0.174625 0.174537 0.174471 0.174444 0.174439 0.174434 0.174411 0.174369 0.174312 0.174270 0.174228 0.174187 0.174159 0.174139 0.174138 0.174138 
0.199369 0.199326 0.199068 0.198369 0.197437 0.196433 0.195428 0.194423 0.193345 0.192535 0.192219 0.192167 0.192114 0.191794 0.190946 0.189816 0.188689 0.187562 0.186435 0.185513 0.184820 0.184587 0.184549 0.184512 0.184290 0.183755 0.183044 0.182524 0.182004 0.181485 0.180971 0.180584 0.180436 0.180411 0.180387 0.180239 0.179859 0.179354 0.178796 0.178239 0.177681 0.177074 0.176619 0.176441 0.176412 0.176383 0.176206 0.175744 0.175129 0.174520 0.173911 0.173302 0.172729 0.172298 0.172139 0.172113 0.172087 0.171928 0.171550 0.171047 0.170726 0.170406 0.170085 0.169851 0.169675 0.169625 0.169617 0.169608 0.169557 0.169425 0.169249 0.169121 0.168993 0.168865 0.168758 0.168677 0.168645 0.168639 0.168635 0.168610 0.168546 0.168461 0.168387 0.168312 0.168237 0.168184 0.168144 0.168130 0.168127 
0.174961 0.174941 0.174859 0.174654 0.174382 0.174092 0.173801 0.173511 0.173207 0.172977 0.172880 0.172857 0.172833 0.172736 0.172493 0.172172 0.171833 0.171495 0.171156 0.170803 0.170537 0.170428 0.170402 0.170376 0.170267 0.170002 0.169650 0.169294 0.168938 0.168582 0.168260 0.168016 0.167922 0.167900 0.167878 0.167785 0.167573 0.167292 0.167054 0.166816 0.166578 0.166385 0.166239 0.166181 0.166167 0.166153 0.166094 0.165949 0.165758 0.165566 0.165374 0.165182 0.164995 0.164855 0.164795 0.164781 0.164766 0.164705 0.164552 0.164348 0.164134 0.163919 0.163705 0.163484 0.163317 0.163247 0.163231 0.163214 0.163144 0.162973 0.162747 0.162520 0.162293 0.162067 0.161848 0.161682 0.161614 0.161598 0.161581 0.161513 0.161349 0.161132 0.160951 0.160771 0.160590 0.160455 0.160354 0.160318 0.160310 0.160301 0.160266 0.160183 0.160072 0.159993 0.159913 0.159834 0.159764 0.159710 0.159697 0.159694 0.159691 0.159678 0.159643 0.159598 0.159562 0.159526 0.159490 0.159461 0.159439 0.159429 0.159427 0.159424 0.159414 0.159400 0.159381 0.159360 0.159339 0.159318 0.159304 0.159294 0.159289 0.159288 0.159287 0.159281 0.159273 0.159261 0.159251 0.159242 0.159232 0.159230 0.159228 0.159227 0.159227 
