0.188716 0.188696 0.188387 0.186950 0.184673 0.182378 0.180083 0.177788 0.175586 0.174196 0.173903 0.173885 0.173866 0.173576 0.172305 0.170292 0.168613 0.166934 0.165254 0.163821 0.162917 0.162729 0.162717 
0.188725 0.188740 0.188897 0.189324 0.189982 0.190301 0.190619 0.190938 0.191242 0.191439 0.191498 0.191503 0.191509 0.191568 0.191913 0.192445 0.193302 0.194159 0.195017 0.196117 0.196833 0.197015 0.197033 0.197051 0.197243 0.198043 0.199274 0.200643 0.202012 0.203381 0.204835 0.205780 0.206023 0.206047 0.206070 0.206314 0.207292 0.208797 0.210283 0.211768 0.213253 0.214670 0.215591 0.215815 0.215837 0.215858 0.216081 0.216916 0.218200 0.219375 0.220550 0.221725 0.222739 0.223398 0.223561 0.223577 0.223592 0.223753 0.224367 0.225311 0.226099 0.226887 0.227675 0.228183 0.228512 0.228573 0.228578 0.228584 0.228638 0.228691 0.228773 0.228159 0.227545 0.226932 0.225532 0.224621 0.224333 0.224306 0.224278 0.223989 0.222647 0.220583 0.218033 0.215483 0.212933 0.210192 0.208409 0.207968 0.207926 0.207884 0.207444 0.205696 0.203009 0.200517 0.198026 0.195535 0.193283 0.191819 0.191473 0.191440 0.191407 0.191063 0.189741 0.187708 0.185885 0.184061 0.182238 0.180578 0.179499 0.179241 0.179216 0.179191 0.178934 0.177935 0.176398 0.174981 0.173564 0.172146 0.170829 0.169973 0.169765 0.169745 0.169725 0.169517 0.168706 0.167458 0.166284 0.165111 0.163937 0.162829 0.162109 0.161933 0.161916 
0.188723 0.188730 0.188852 0.187887 0.186358 0.185477 0.184596 0.183714 0.182821 0.182257 0.182107 0.182098 0.182088 0.181923 0.181018 0.179586 0.177713 0.175840 0.173968 0.172345 0.171321 0.171121 0.171109 0.171097 0.170902 0.170024 0.168632 0.167018 0.165404 0.163790 0.161458 0.159986 0.159611 0.159589 0.159566 0.159184 0.157071 0.153722 0.148044 0.142365 0.136687 0.132198 0.129365 0.128907 0.128879 0.128854 0.128425 0.126937 0.124580 0.123303 0.122026 0.120750 0.119997 0.119522 0.119431 0.119425 0.119420 0.119337 0.119008 0.118485 0.118117 0.117748 0.117379 0.117103 0.116929 0.116895 0.116893 0.116891 0.116857 0.116714 0.116488 0.116301 0.116115 0.115928 0.115773 0.115674 0.115654 0.115653 0.115652 0.115632 0.115547 0.115412 0.115298 0.115184 0.115069 0.114974 0.114913 0.114901 0.114900 0.114899 0.114887 0.114835 0.114752 0.114682 0.114613 0.114543 0.114486 0.114449 0.114442 0.114441 0.114441 0.114434 0.114403 0.114354 0.114314 0.114274 0.114234 0.114203 0.114183 0.114180 0.114179 
0.173881 0.173865 0.173780 0.173543 0.173229 0.172873 0.172516 0.172160 0.171758 0.171455 0.171331 0.171308 0.171285 0.171163 0.170857 0.170450 0.170045 0.169639 0.169234 0.168853 0.168567 0.168459 0.168439 0.168419 0.168312 0.168098 0.167812 0.167559 0.167306 0.167052 0.166795 0.166602 0.166525 0.166510 0.166496 0.166419 0.166222 0.165960 0.165688 0.165417 0.165145 0.164860 0.164645 0.164561 0.164545 0.164529 0.164444 0.164221 0.163924 0.163612 0.163300 0.162987 0.162671 0.162433 0.162336 0.162318 0.162300 0.162201 0.161948 0.161612 0.161263 0.160913 0.160564 0.160235 0.159987 0.159894 0.159876 0.159859 0.159766 0.159538 0.159234 0.158966 0.158697 0.158428 0.158196 0.158022 0.157956 0.157944 0.157932 0.157868 0.157722 0.157529 0.157357 0.157185 0.157014 0.156865 0.156753 0.156714 0.156707 0.156699 0.156660 0.156561 0.156430 0.156316 0.156202 0.156088 0.155988 0.155912 0.155882 0.155877 0.155871 0.155842 0.155773 0.155681 0.155595 0.155508 0.155421 0.155338 0.155276 0.155254 0.155250 0.155246 0.155223 0.155165 0.155088 0.155014 0.154941 0.154867 0.154796 0.154742 0.154721 0.154718 0.154714 0.154692 0.154639 0.154568 0.154497 0.154426 0.154356 0.154285 0.154232 0.154210 0.154206 
0.191493 0.191454 0.191307 0.190952 0.190484 0.189997 0.189510 0.189023 0.188512 0.188126 0.187961 0.187917 0.187873 0.187708 0.187313 0.186790 0.186269 0.185747 0.185226 0.184714 0.184328 0.184164 0.184121 0.184078 0.183915 0.183538 0.183039 0.182570 0.182100 0.181630 0.181324 0.181092 0.180999 0.180975 0.180950 0.180857 0.180636 0.180343 0.180051 0.179759 0.179467 0.179170 0.178945 0.178850 0.178825 0.178800 0.178705 0.178481 0.178185 0.177886 0.177586 0.177286 0.176987 0.176761 0.176664 0.176638 0.176612 0.176515 0.176285 0.175981 0.175675 0.175368 0.175062 0.174751 0.174515 0.174415 0.174389 0.174362 0.174262 0.174024 0.173708 0.173390 0.173072 0.172754 0.172435 0.172193 0.172092 0.172065 0.172038 0.171936 0.171697 0.171380 0.171068 0.170755 0.170443 0.170141 0.169912 0.169817 0.169792 0.169768 0.169675 0.169461 0.169178 0.168909 0.168641 0.168372 0.168129 0.167946 0.167870 0.167849 0.167830 0.167754 0.167583 0.167356 0.167153 0.166950 0.166747 0.166561 0.166421 0.166367 0.166352 0.166338 0.166284 0.166157 0.165990 0.165839 0.165689 0.165538 0.165398 0.165293 0.165249 0.165237 0.165225 0.165181 0.165091 0.164971 0.164852 0.164734 0.164616 0.164514 0.164438 0.164404 0.164396 0.164387 0.164353 0.164274 0.164170 0.164078 0.163987 0.163895 0.163804 0.163735 0.163709 0.163702 0.163695 0.163669 0.163606 0.163524 0.163444 0.163363 0.163283 0.163206 0.163149 0.163124 0.163117 0.163111 0.163086 0.163030 0.162956 0.162883 0.162811 0.162738 0.162669 0.162616 0.162594 0.162589 0.162583 0.162561 0.162508 0.162437 0.162369 0.162302 0.162234 0.162164 0.162112 0.162090 0.162084 
0.223545 0.223419 0.222510 0.220199 0.217117 0.214431 0.211745 0.209059 0.206723 0.204971 0.204358 0.204273 0.204190 0.203592 0.202113 0.200140 0.198463 0.196786 0.195109 0.193693 0.192632 0.192251 0.192198 0.192147 0.191773 0.190823 0.189557 0.188423 0.187290 0.186156 0.185136 0.184371 0.184114 0.184078 0.184043 0.183789 0.183158 0.182317 0.181638 0.180960 0.180281 0.179738 0.179330 0.179186 0.179167 0.179147 0.179004 0.178664 0.178212 0.177829 0.177447 0.177065 0.176733 0.176484 0.176403 0.176392 0.176381 0.176300 0.176088 0.175804 0.175558 0.175312 0.175066 0.174847 0.174682 0.174623 0.174615 
