-2.301521 -1.350550 5.373002
-1.787928 -1.491738 6.746502
-1.185384 -1.775642 8.068966
-0.855151 -1.645027 9.489061
-0.773057 -1.148337 10.882243
-0.640720 -0.740766 12.299674
-0.570388 -0.524255 13.762443
-0.553404 -0.487291 15.242937
-0.551443 -0.522132 16.724198
-2.301053 -1.350399 5.374941
-1.788757 -1.491328 6.744729
-1.787098 -1.492149 6.748276
-1.186103 -1.775415 8.067114
-1.184664 -1.775869 8.070819
-0.855317 -1.645594 9.487150
-0.854998 -1.644441 9.490967
-0.773210 -1.148993 10.880360
-0.772904 -1.147681 10.884126
-0.640874 -0.741190 12.297726
-0.640567 -0.740341 12.301622
-0.570435 -0.524415 13.760450
-0.570342 -0.524103 13.764437
-0.553410 -0.487260 15.240937
-0.553398 -0.487322 15.244937
-0.551450 -0.522105 16.722198
-2.293758 -1.348038 5.405116
-1.801668 -1.484945 6.717127
-1.774187 -1.498533 6.775877
-1.197304 -1.771876 8.038282
-1.173463 -1.779408 8.099651
-0.858070 -1.654194 9.457355
-0.852621 -1.635322 9.520640
-0.775584 -1.159208 10.851046
-0.770527 -1.137469 10.913441
-0.643259 -0.747798 12.267395
-0.638181 -0.733733 12.331953
-0.571218 -0.527062 13.729439
-0.569634 -0.521726 13.795472
-0.553503 -0.486778 15.209807
-0.553305 -0.487806 15.276067
-0.551556 -0.521683 16.691068
-2.258520 -1.339833 5.543064
-2.193667 -1.340056 5.759509
-2.119276 -1.354804 5.972382
-2.037805 -1.380757 6.181572
-1.951009 -1.415400 6.387348
-1.860354 -1.456498 6.590264
-1.714510 -1.528687 6.901882
-1.619386 -1.577449 7.101032
-1.524367 -1.626028 7.300277
-1.430489 -1.672631 7.500529
-1.338871 -1.715363 7.702677
-1.250681 -1.752323 7.907459
-1.123708 -1.793123 8.232619
-1.051581 -1.804370 8.446470
-0.989134 -1.801030 8.663573
-0.938444 -1.780715 8.882785
-0.899863 -1.743557 9.102294
-0.871725 -1.692181 9.320550
-0.842505 -1.592453 9.656309
-0.829894 -1.519552 9.869874
-0.819846 -1.442368 10.082071
-0.810331 -1.363206 10.293566
-0.799533 -1.284028 10.504992
-0.785861 -1.206640 10.716911
-0.758812 -1.091758 11.048055
-0.738860 -1.021814 11.262054
-0.717745 -0.955296 11.477032
-0.696207 -0.892606 11.693114
-0.675043 -0.834035 11.910386
-0.655015 -0.779779 12.128880
-0.627823 -0.704580 12.471201
-0.613398 -0.662447 12.692789
-0.601093 -0.624951 12.915336
-0.590707 -0.592020 13.138702
-0.582056 -0.563617 13.362763
-0.574988 -0.539830 13.587417
-0.566553 -0.511495 13.937716
-0.562495 -0.498784 14.163342
-0.559348 -0.490384 14.389186
-0.556957 -0.485630 14.615145
-0.555215 -0.484003 14.841155
-0.554017 -0.484988 15.067174
-0.552995 -0.490580 15.418685
-0.552697 -0.495896 15.644647
-0.552550 -0.501943 15.870591
-0.552446 -0.508197 16.096529
-0.552271 -0.514107 16.322477
-0.551915 -0.519151 16.548445
129 NaN NaN
-2.301639 -1.350588 5.372518
-2.277973 -1.342928 5.470417
-2.251867 -1.338775 5.567907
-2.223523 -1.337909 5.664857
-2.193144 -1.340093 5.761168
-2.160926 -1.345083 5.856775
-2.127061 -1.352631 5.951644
-2.091729 -1.362495 6.045763
-2.055099 -1.374439 6.139142
-2.017328 -1.388237 6.231809
-1.978563 -1.403672 6.323805
-1.938939 -1.420537 6.415182
-1.898580 -1.438637 6.506001
-1.857604 -1.457784 6.596327
-1.816119 -1.477799 6.686232
-1.774228 -1.498512 6.775790
-1.732030 -1.519758 6.865079
-1.689617 -1.541375 6.954177
-1.647080 -1.563208 7.043163
-1.604509 -1.585099 7.132118
-1.561993 -1.606895 7.221123
-1.519622 -1.628441 7.310258
-1.477486 -1.649577 7.399603
-1.435681 -1.670143 7.489235
-1.394305 -1.689972 7.579231
-1.353463 -1.708891 7.669666
-1.313264 -1.726721 7.760608
-1.273828 -1.743271 7.852124
-1.235282 -1.758344 7.944272
-1.197763 -1.771731 8.037102
-1.161420 -1.783213 8.130651
-1.126413 -1.792560 8.224944
-1.092915 -1.799535 8.319986
-1.061107 -1.803894 8.415761
-1.031183 -1.805390 8.512228
-1.003342 -1.803781 8.609313
-0.977785 -1.798832 8.706912
-0.954714 -1.790327 8.804883
-0.934213 -1.778216 8.903046
-0.916136 -1.762749 9.001216
-0.900294 -1.744221 9.099242
-0.886487 -1.722929 9.197016
-0.874509 -1.699161 9.294461
-0.864154 -1.673193 9.391530
-0.855219 -1.645290 9.488204
-0.847508 -1.615702 9.584481
-0.840828 -1.584662 9.680378
-0.834993 -1.552393 9.775924
-0.829825 -1.519103 9.871159
-0.825146 -1.484992 9.966127
-0.820788 -1.450250 10.060883
-0.816582 -1.415061 10.155480
-0.812361 -1.379607 10.249977
-0.807961 -1.344065 10.344434
-0.803213 -1.308615 10.438907
-0.797948 -1.273438 10.533456
-0.792022 -1.238699 10.628127
-0.785443 -1.204463 10.722938
-0.778270 -1.170759 10.817897
-0.770564 -1.137616 10.913011
-0.762388 -1.105062 11.008289
-0.753805 -1.073127 11.103741
-0.744879 -1.041839 11.199375
-0.735677 -1.011225 11.295201
-0.726264 -0.981314 11.391228
-0.716709 -0.952132 11.487466
-0.707079 -0.923708 11.583922
-0.697443 -0.896069 11.680606
-0.687870 -0.869239 11.777524
-0.678430 -0.843247 11.874682
-0.669192 -0.818116 11.972087
-0.660225 -0.793873 12.069741
-0.651600 -0.770541 12.167648
-0.643384 -0.748144 12.265808
-0.635643 -0.726704 12.364220
-0.628394 -0.706225 12.462873
-0.621616 -0.686700 12.561754
-0.615293 -0.668121 12.660846
-0.609404 -0.650482 12.760137
-0.603931 -0.633776 12.859613
-0.598856 -0.617995 12.959261
-0.594160 -0.603133 13.059069
-0.589826 -0.589184 13.159024
-0.585836 -0.576142 13.259117
-0.582170 -0.564001 13.359335
-0.578813 -0.552756 13.459668
-0.575747 -0.542402 13.560107
-0.572953 -0.532933 13.660640
-0.570415 -0.524346 13.761260
-0.568115 -0.516635 13.861957
-0.566037 -0.509798 13.962721
-0.564163 -0.503831 14.063545
-0.562477 -0.498730 14.164419
-0.560965 -0.494468 14.265335
-0.559618 -0.491001 14.366284
-0.558426 -0.488281 14.467258
-0.557380 -0.486263 14.568250
-0.556469 -0.484899 14.669254
-0.555684 -0.484142 14.770266
-0.555016 -0.483944 14.871281
-0.554454 -0.484257 14.972297
-0.553988 -0.485035 15.073310
-0.553609 -0.486229 15.174320
-0.553306 -0.487792 15.275326
-0.553071 -0.489675 15.376325
-0.552891 -0.491832 15.477320
-0.552759 -0.494214 15.578309
-0.552664 -0.496774 15.679295
-0.552596 -0.499464 15.780277
-0.552544 -0.502236 15.881256
-0.552501 -0.505043 15.982235
-0.552454 -0.507837 16.083214
-0.552395 -0.510570 16.184195
-0.552313 -0.513195 16.285178
-0.552199 -0.515664 16.386166
-0.552042 -0.517929 16.487158
-0.551833 -0.519943 16.588156
-0.551562 -0.521657 16.689158
-0.551219 -0.523025 16.790166
-0.550794 -0.523998 16.891178
-0.550277 -0.524529 16.992193
-0.549658 -0.524569 17.093209
-0.548928 -0.524072 17.194223
-0.548075 -0.522990 17.295231
-0.547092 -0.521275 17.396229
-0.545968 -0.518880 17.497212
-0.544692 -0.515759 17.598173
-0.543256 -0.511864 17.699105
-0.541650 -0.507150 17.800000
-2.301198 -1.350758 5.372353
-1.627898 -1.568503 4.933308
-1.190151 -1.615986 4.222135
-0.953174 -1.549113 3.418221
-0.815950 -1.431497 2.595727
-0.685411 -1.310589 1.772477
-0.540378 -1.196764 0.950611
-0.401302 -1.080020 0.128141
-2.299436 -1.351436 5.371694
-1.629225 -1.568207 4.934775
-1.626570 -1.568800 4.931842
-1.190910 -1.616040 4.223984
-1.189392 -1.615932 4.220285
-0.953587 -1.549349 3.420164
-0.952761 -1.548876 3.416279
-0.816236 -1.431796 2.597684
-0.815664 -1.431198 2.593770
-0.685747 -1.310864 1.774429
-0.685075 -1.310315 1.770524
-0.540724 -1.197033 0.952562
-0.540033 -1.196494 0.948660
-0.401610 -1.080308 0.130096
-2.281048 -1.358512 5.364814
-1.643078 -1.565111 4.950073
-1.612718 -1.571895 4.916544
-1.198828 -1.616604 4.243285
-1.181473 -1.615369 4.200985
-0.957897 -1.551813 3.440434
-0.948450 -1.546412 3.396009
-0.819220 -1.434913 2.618102
-0.812675 -1.428083 2.573352
-0.689254 -1.313726 1.794801
-0.681567 -1.307453 1.750152
-0.544329 -1.199847 0.972924
-0.536427 -1.193680 0.928298
-0.404826 -1.083312 0.150496
-2.208392 -1.386424 5.337414
-2.099456 -1.426343 5.287597
-1.993486 -1.463079 5.229650
-1.891167 -1.496316 5.163598
-1.793159 -1.525796 5.089661
-1.700838 -1.550738 5.007222
-1.559048 -1.583378 4.854966
-1.482102 -1.597449 4.755864
-1.410929 -1.607790 4.652091
-1.345394 -1.614621 4.544367
-1.286062 -1.617733 4.432933
-1.231792 -1.617906 4.318911
-1.151677 -1.612308 4.124104
-1.109348 -1.605841 4.005296
-1.070757 -1.597374 3.885341
-1.036066 -1.586855 3.764358
-1.004381 -1.574782 3.642699
-0.975404 -1.561325 3.520510
-0.932513 -1.536115 3.315700
-0.909482 -1.519679 3.192609
-0.888303 -1.502332 3.069310
-0.868378 -1.484372 2.945890
-0.849393 -1.465954 2.822389
-0.831027 -1.447236 2.698838
-0.800853 -1.415768 2.492617
-0.782402 -1.397091 2.369073
-0.763366 -1.378698 2.245576
-0.743743 -1.360591 2.122128
-0.723596 -1.342738 1.998727
-0.702940 -1.325135 1.875375
-0.667649 -1.296158 1.669602
-0.646111 -1.278987 1.546339
-0.624375 -1.261913 1.423098
-0.602504 -1.244905 1.299872
-0.580561 -1.227933 1.176653
-0.558626 -1.210956 1.053434
-0.522223 -1.182525 0.847778
-0.500639 -1.165376 0.724520
-0.479304 -1.148105 0.601237
-0.458337 -1.130654 0.477915
-0.437769 -1.113007 0.354554
-0.417661 -1.095136 0.231150
60 NaN NaN
-2.301639 -1.350588 5.372518
-2.211630 -1.385226 5.338843
-2.123110 -1.417975 5.299769
-2.036465 -1.448629 5.255184
-1.952098 -1.476994 5.205062
-1.870409 -1.502899 5.149472
-1.791771 -1.526208 5.088586
-1.716509 -1.546826 5.022669
-1.644884 -1.564708 4.952067
-1.577077 -1.579859 4.877183
-1.513190 -1.592328 4.798455
-1.453246 -1.602203 4.716330
-1.397197 -1.609603 4.631245
-1.344943 -1.614665 4.543609
-1.296338 -1.617540 4.453800
-1.251209 -1.618385 4.362153
-1.209363 -1.617353 4.268961
-1.170598 -1.614596 4.174480
-1.134709 -1.610257 4.078927
-1.101493 -1.604474 3.982488
-1.070750 -1.597372 3.885319
-1.042289 -1.589071 3.787550
-1.015926 -1.579682 3.689293
-0.991483 -1.569307 3.590639
-0.968790 -1.558042 3.491664
-0.947690 -1.545977 3.392432
-0.928022 -1.533197 3.292995
-0.909619 -1.519790 3.193398
-0.892307 -1.505846 3.093679
-0.875906 -1.491455 2.993870
-0.860235 -1.476710 2.893995
-0.845105 -1.461701 2.794075
-0.830331 -1.446520 2.694128
-0.815723 -1.431259 2.594169
-0.801090 -1.416010 2.494212
-0.786243 -1.400864 2.394271
-0.771011 -1.385905 2.294360
-0.755360 -1.371150 2.194483
-0.739329 -1.356579 2.094639
-0.722956 -1.342175 1.994826
-0.706280 -1.327920 1.895043
-0.689337 -1.313794 1.795285
-0.672167 -1.299781 1.695551
-0.654806 -1.285861 1.595837
-0.637292 -1.272016 1.496139
-0.619662 -1.258227 1.396454
-0.601954 -1.244478 1.296777
-0.584204 -1.230749 1.197105
-0.566449 -1.217022 1.097433
-0.548727 -1.203280 0.997758
-0.531075 -1.189503 0.898075
-0.513529 -1.175673 0.798380
-0.496128 -1.161773 0.698670
-0.478908 -1.147783 0.598941
-0.461907 -1.133687 0.499190
-0.445163 -1.119465 0.399413
-0.428713 -1.105098 0.299608
-0.412596 -1.090570 0.199772
-0.396849 -1.075861 0.099903
-0.381512 -1.060953 0.000000
-2.301996 -1.350916 5.372640
-3.550885 -1.341237 4.857916
-4.293495 -0.229743 4.050478
-4.964104 1.061632 3.450933
-5.628470 2.354662 2.847620
-6.310463 3.611294 2.190098
-7.065012 4.801602 1.490605
-7.947475 5.856286 0.728245
-8.990983 6.685352 -0.103799
-10.180562 7.214568 -0.982616
-11.458605 7.432786 -1.870793
-2.303426 -1.352225 5.373131
-3.549742 -1.342421 4.859053
-3.552028 -1.340053 4.856779
-4.292656 -0.231401 4.051219
-4.294334 -0.228086 4.049737
-4.963255 1.059991 3.451698
-4.964954 1.063274 3.450169
-5.627630 2.353018 2.848389
-5.629311 2.356305 2.846850
-6.309561 3.609729 2.190958
-6.311364 3.612858 2.189239
-7.063984 4.800157 1.491529
-7.066047 4.803041 1.489677
-7.946257 5.855067 0.729258
-7.948694 5.857506 0.727231
-8.989553 6.684482 -0.102704
-8.992413 6.686221 -0.104894
-10.178981 7.214093 -0.981486
-10.182147 7.215025 -0.983747
-11.456952 7.432685 -1.869671
-2.327004 -1.373821 5.381214
-3.530896 -1.361941 4.877797
-3.570891 -1.320512 4.838072
-4.278825 -0.258730 4.063444
-4.308166 -0.200756 4.037515
-4.949257 1.032931 3.464325
-4.978955 1.090341 3.437563
-5.613771 2.325919 2.861084
-5.643173 2.383397 2.834141
-6.294701 3.583924 2.205130
-6.326227 3.638662 2.175065
-7.047096 4.776254 1.506729
-7.083108 4.826765 1.474391
-7.926165 5.834953 0.745973
-7.968801 5.877599 0.710510
-8.965980 6.670136 -0.084645
-9.015991 6.700557 -0.122954
-10.152956 7.206143 -0.962855
-10.208290 7.222552 -1.002389
-11.429697 7.431020 -1.851179
-2.442670 -1.467162 5.408430
-2.655090 -1.575684 5.398468
-2.879290 -1.630182 5.335843
-3.096117 -1.628945 5.234763
-3.286676 -1.564446 5.105600
-3.442930 -1.448828 4.965414
-3.658384 -1.229330 4.754394
-3.793837 -1.080621 4.623205
-3.914684 -0.923813 4.487392
-4.020020 -0.756825 4.350752
-4.118482 -0.576502 4.226598
-4.216349 -0.383581 4.122425
-4.372715 -0.075306 3.982133
-4.477029 0.122692 3.894968
-4.580932 0.319707 3.805137
-4.682607 0.515878 3.711005
-4.783512 0.711974 3.615888
-4.884965 0.908609 3.522485
-5.043285 1.214739 3.379608
-5.145082 1.411831 3.287549
-5.246707 1.608858 3.195160
-5.348151 1.805872 3.102547
-5.449311 2.003218 3.010332
-5.550149 2.201123 2.918965
-5.707100 2.507218 2.774533
-5.809118 2.701277 2.676487
-5.912109 2.893132 2.575161
-6.015974 3.084208 2.473257
-6.120824 3.274961 2.371756
-6.226980 3.464794 2.269891
-6.394964 3.756864 2.109678
-6.505441 3.942805 2.005263
-6.617915 4.127000 1.899888
-6.732743 4.309050 1.793336
-6.849993 4.488809 1.685537
-6.969918 4.665959 1.576372
-7.161985 4.935308 1.403904
-7.289634 5.104471 1.290901
-7.420594 5.269979 1.176285
-7.554951 5.431580 1.060041
-7.693039 5.588702 0.942043
-7.834744 5.741280 0.822384
-8.062519 5.968124 0.633093
-8.214011 6.107281 0.509145
-8.369510 6.240404 0.383543
-8.528833 6.367423 0.256424
-8.691938 6.488039 0.127874
-8.858874 6.601741 -0.002053
-9.125192 6.764687 -0.206218
-9.301013 6.860268 -0.338987
-9.479921 6.948670 -0.472604
-9.661901 7.029324 -0.606973
-9.846542 7.102657 -0.741904
-10.033670 7.168505 -0.877268
-10.328730 7.256041 -1.088083
-10.521114 7.303035 -1.223941
-10.715113 7.342930 -1.359772
-10.910480 7.376022 -1.495473
-11.107068 7.402128 -1.630936
-11.304607 7.421881 -1.766089
172 NaN NaN
-2.301639 -1.350588 5.372518
-2.373394 -1.416311 5.397118
-2.453613 -1.475195 5.410217
-2.540247 -1.525862 5.411987
-2.631185 -1.567461 5.403170
-2.724524 -1.599567 5.384810
-2.818653 -1.621996 5.358010
-2.912210 -1.634627 5.323808
-3.003975 -1.637287 5.283129
-3.092737 -1.629679 5.236810
-3.177171 -1.611363 5.185660
-3.255720 -1.581816 5.130561
-3.327353 -1.541622 5.072802
-3.392815 -1.493289 5.013921
-3.453682 -1.439289 4.955007
-3.511836 -1.381683 4.896754
-3.569252 -1.322213 4.839649
-3.627241 -1.262037 4.783876
-3.685257 -1.201108 4.728955
-3.742431 -1.139182 4.674269
-3.797868 -1.076029 4.619200
-3.850637 -1.011466 4.563160
-3.899981 -0.945366 4.505808
-3.946236 -0.877559 4.447874
-3.990116 -0.807804 4.390405
-4.032328 -0.735842 4.334430
-4.073558 -0.661420 4.281000
-4.114437 -0.584363 4.231162
-4.155280 -0.504981 4.185078
-4.196203 -0.423872 4.142179
-4.237353 -0.341576 4.101830
-4.278903 -0.258576 4.063372
-4.321042 -0.175315 4.026137
-4.363903 -0.092151 3.989514
-4.407319 -0.009161 3.953150
-4.451044 0.073653 3.916755
-4.494833 0.156291 3.880041
-4.538439 0.238753 3.842717
-4.581629 0.321035 3.804520
-4.624374 0.403162 3.765500
-4.666799 0.485189 3.725925
-4.709032 0.567178 3.686065
-4.751206 0.649190 3.646190
-4.793450 0.731288 3.606567
-4.835841 0.813506 3.567352
-4.878354 0.895823 3.528479
-4.920952 0.978214 3.489856
-4.963598 1.060653 3.451389
-5.006255 1.143116 3.412984
-5.048890 1.225579 3.374557
-5.091493 1.308035 3.336077
-5.134064 1.390481 3.297544
-5.176606 1.472917 3.258953
-5.219117 1.555339 3.220302
-5.261600 1.637747 3.181588
-5.304050 1.720152 3.142833
-5.346462 1.802583 3.104089
-5.388825 1.885068 3.065409
-5.431133 1.967638 3.026850
-5.473377 2.050322 2.988465
-5.515556 2.133130 2.950275
-5.557704 2.215972 2.912127
-5.599867 2.298733 2.873818
-5.642090 2.381293 2.835145
-5.684416 2.463532 2.795903
-5.726886 2.545323 2.755892
-5.769531 2.626583 2.714991
-5.812348 2.707372 2.673345
-5.855330 2.787789 2.631153
-5.898470 2.867937 2.588611
-5.941766 2.947919 2.545915
-5.985213 3.027840 2.503258
-6.028818 3.107744 2.460730
-6.072602 3.187589 2.418277
-6.116585 3.267329 2.375832
-6.160790 3.346917 2.333330
-6.205236 3.426304 2.290707
-6.249945 3.505448 2.247904
-6.294932 3.584329 2.204910
-6.340211 3.662941 2.161729
-6.385797 3.741277 2.118371
-6.431703 3.819330 2.074841
-6.477945 3.897093 2.031146
-6.524537 3.974554 1.987286
-6.571495 4.051693 1.943251
-6.618834 4.128491 1.899029
-6.666571 4.204928 1.854609
-6.714720 4.280982 1.809977
-6.763297 4.356634 1.765125
-6.812317 4.431862 1.720043
-6.861795 4.506648 1.674727
-6.911744 4.580973 1.629170
-6.962180 4.654817 1.583368
-7.013116 4.728160 1.537314
-7.064566 4.800981 1.491005
-7.116543 4.873258 1.444433
-7.169061 4.944969 1.397594
-7.222132 5.016092 1.350482
-7.275770 5.086602 1.303092
-7.329986 5.156478 1.255420
-7.384792 5.225694 1.207461
-7.440198 5.294228 1.159214
-7.496215 5.362055 1.110674
-7.552853 5.429150 1.061840
-7.610123 5.495490 1.012709
-7.668031 5.561048 0.963280
-7.726587 5.625800 0.913553
-7.785798 5.689722 0.863526
-7.845669 5.752788 0.813201
-7.906206 5.814973 0.762577
-7.967417 5.876249 0.711656
-8.029303 5.936594 0.660439
-8.091867 5.995983 0.608930
-8.155112 6.054391 0.557132
-8.219038 6.111795 0.505049
-8.283647 6.168169 0.452684
-8.348939 6.223489 0.400042
-8.414910 6.277734 0.347129
-8.481557 6.330883 0.293951
-8.548876 6.382914 0.240515
-8.616862 6.433806 0.186828
-8.685511 6.483537 0.132897
-8.754816 6.532088 0.078730
-8.824767 6.579444 0.024336
-8.895354 6.625589 -0.030277
-8.966569 6.670507 -0.085098
-9.038399 6.714182 -0.140119
-9.110836 6.756598 -0.195329
-9.183865 6.797746 -0.250720
-9.257472 6.837617 -0.306279
-9.331642 6.876202 -0.361996
-9.406361 6.913492 -0.417862
-9.481614 6.949480 -0.473864
-9.557386 6.984159 -0.529994
-9.633658 7.017527 -0.586239
-9.710414 7.049586 -0.642588
-9.787635 7.080332 -0.699032
-9.865306 7.109768 -0.755560
-9.943407 7.137891 -0.812161
-10.021922 7.164706 -0.868824
-10.100832 7.190221 -0.925541
-10.180118 7.214440 -0.982300
-10.259762 7.237372 -1.039093
-10.339747 7.259023 -1.095909
-10.420055 7.279402 -1.152740
-10.500669 7.298519 -1.209577
-10.581570 7.316388 -1.266412
-10.662742 7.333020 -1.323236
-10.744168 7.348428 -1.380041
-10.825833 7.362625 -1.436820
-10.907719 7.375625 -1.493566
-10.989812 7.387444 -1.550272
-11.072097 7.398097 -1.606930
-11.154559 7.407601 -1.663536
-11.237184 7.415972 -1.720083
-11.319959 7.423226 -1.776565
-11.402870 7.429381 -1.832977
-11.485905 7.434453 -1.889315
-11.569052 7.438462 -1.945574
-11.652300 7.441423 -2.001748
-11.735636 7.443356 -2.057836
-11.819052 7.444277 -2.113832
-11.902536 7.444205 -2.169733
-11.986079 7.443156 -2.225535
-12.069673 7.441149 -2.281236
-12.153308 7.438202 -2.336834
-12.236976 7.434331 -2.392324
-12.320669 7.429555 -2.447706
-12.404380 7.423891 -2.502977
-12.488102 7.417356 -2.558136
-12.571828 7.409968 -2.613181
-12.655552 7.401744 -2.668110
-0.640686 -0.740473 12.300078
-0.630986 -0.621995 12.459717
-0.637986 -0.495421 12.613076
-0.664854 -0.360788 12.756974
-0.714466 -0.219096 12.887296
-0.788443 -0.072650 12.999520
-0.886203 0.075090 13.089840
-1.005206 0.220202 13.155803
-1.140553 0.359620 13.198377
-1.287454 0.491926 13.220508
-1.442353 0.616726 13.225214
-0.640551 -0.739303 12.301694
-0.631038 -0.623209 12.458128
-0.630933 -0.620782 12.461306
-0.637845 -0.496724 12.611566
-0.638128 -0.494117 12.614587
-0.664479 -0.362178 12.755585
-0.665228 -0.359399 12.758363
-0.713828 -0.220553 12.886083
-0.715103 -0.217640 12.888510
-0.787537 -0.074137 12.998534
-0.789348 -0.071164 13.000506
-0.885058 0.073621 13.089113
-0.887349 0.076560 13.090568
-1.003959 0.218756 13.155207
-1.006453 0.221648 13.156400
-1.139146 0.358243 13.198026
-1.141961 0.360997 13.198728
-1.285936 0.490630 13.220369
-1.288971 0.493221 13.220647
-1.440764 0.615512 13.225251
-0.639976 -0.734348 12.308538
-0.631261 -0.628347 12.451401
-0.630710 -0.615643 12.468034
-0.637245 -0.502243 12.605171
-0.638728 -0.488598 12.620982
-0.662893 -0.368061 12.749704
-0.666814 -0.353515 12.764244
-0.711130 -0.226720 12.880945
-0.717802 -0.211473 12.893648
-0.783704 -0.080429 12.994361
-0.793182 -0.064872 13.004679
-0.880400 0.067375 13.085815
-0.892199 0.082782 13.093646
-0.998680 0.212635 13.152681
-1.011762 0.227758 13.158882
-1.133188 0.352412 13.196540
-1.147919 0.366828 13.200214
-1.279512 0.485144 13.219780
-1.295395 0.498708 13.221235
-1.434035 0.610373 13.225403
-0.638575 -0.722263 12.325228
-0.636719 -0.706249 12.347346
-0.634862 -0.690234 12.369465
-0.633243 -0.674095 12.391505
-0.632523 -0.657487 12.413249
-0.631804 -0.640879 12.434993
-0.630845 -0.602783 12.484186
-0.631389 -0.585563 12.505454
-0.631932 -0.568344 12.526723
-0.632475 -0.551124 12.547991
-0.633843 -0.533540 12.568905
-0.635782 -0.515703 12.589574
-0.640191 -0.475138 12.636578
-0.643536 -0.456743 12.656562
-0.647005 -0.438299 12.676485
-0.650475 -0.419855 12.696408
-0.653944 -0.401411 12.716330
-0.659025 -0.382411 12.735362
-0.670682 -0.339166 12.778586
-0.676340 -0.319997 12.797260
-0.683229 -0.300474 12.815164
-0.690118 -0.280951 12.833068
-0.697006 -0.261429 12.850971
-0.704548 -0.241760 12.868413
-0.724384 -0.196433 12.906179
-0.733106 -0.176501 12.922786
-0.743098 -0.156377 12.938379
-0.753674 -0.136166 12.953504
-0.764250 -0.115955 12.968630
-0.774826 -0.095743 12.983755
-0.802532 -0.049525 13.014858
-0.814924 -0.029187 13.028348
-0.827432 -0.008851 13.041718
-0.841539 0.011451 13.053463
-0.855647 0.031753 13.065208
-0.869755 0.052055 13.076952
-0.904027 0.097957 13.101154
-0.919703 0.118067 13.111104
-0.935378 0.138178 13.121053
-0.951680 0.158140 13.130196
-0.968743 0.177924 13.138359
-0.985805 0.197707 13.146522
-1.025538 0.242360 13.163737
-1.043793 0.261711 13.170172
-1.062049 0.281063 13.176607
-1.080304 0.300414 13.183041
-1.099397 0.319344 13.188114
-1.118655 0.338190 13.192916
-1.162586 0.380960 13.203592
-1.182673 0.399259 13.206880
-1.202761 0.417557 13.210168
-1.222848 0.435856 13.213456
-1.243081 0.454032 13.216444
-1.263845 0.471763 13.218345
-1.311063 0.512088 13.222670
-1.332123 0.529511 13.223886
-1.353433 0.546676 13.224528
-1.374742 0.563841 13.225171
-1.396052 0.581006 13.225814
-1.417624 0.597839 13.225776
21 NaN NaN
-0.640720 -0.740766 12.299674
-0.633393 -0.677567 12.386960
-0.630554 -0.612029 12.472766
-0.632697 -0.544079 12.556693
-0.640348 -0.473693 12.638253
-0.654037 -0.400915 12.716866
-0.674263 -0.325884 12.791862
-0.701443 -0.248855 12.862502
-0.735857 -0.170215 12.928023
-0.777584 -0.090474 12.987699
-0.826471 -0.010234 13.040918
-0.882131 0.069866 13.087255
-0.943978 0.149209 13.126511
-1.011299 0.227266 13.158718
-1.083330 0.303621 13.184108
-1.159321 0.377986 13.203057
-1.238585 0.450191 13.216032
-1.320519 0.520163 13.223536
-1.404610 0.587900 13.226072
-1.490436 0.653449 13.224122
-1.577650 0.716890 13.218129
-0.854994 -1.644557 9.488991
-0.818372 -1.533766 9.472712
-0.785283 -1.421680 9.457828
-0.756072 -1.308336 9.444478
-0.731118 -1.193800 9.432814
-0.710832 -1.078176 9.423004
-0.695653 -0.961619 9.415223
-0.686037 -0.844343 9.409660
-0.682585 -0.726628 9.406557
-0.686177 -0.608883 9.406273
-0.696716 -0.491598 9.408777
-0.714517 -0.375307 9.414202
-0.739783 -0.260596 9.422639
-0.772583 -0.148078 9.434123
-0.812834 -0.038354 9.448631
-0.860304 0.068022 9.466078
-0.914874 0.170414 9.486425
-0.976146 0.268333 9.509520
-1.043142 0.361808 9.534971
-1.115283 0.450736 9.562548
-1.192000 0.535112 9.592023
-1.272749 0.615013 9.623178
-1.357029 0.690571 9.655810
-1.444390 0.761960 9.689736
-0.854366 -1.642679 9.488712
-0.818947 -1.535664 9.472970
-0.817797 -1.531868 9.472454
-0.785800 -1.423598 9.458063
-0.784765 -1.419763 9.457593
-0.756526 -1.310273 9.444688
-0.755617 -1.306400 9.444267
-0.731505 -1.195754 9.432998
-0.730731 -1.191846 9.432631
-0.711145 -1.080146 9.423158
-0.710520 -1.076207 9.422850
-0.695885 -0.963602 9.415345
-0.695421 -0.959637 9.415101
-0.686183 -0.846336 9.409747
-0.685891 -0.842350 9.409572
-0.682538 -0.728628 9.406567
-0.682632 -0.724629 9.406546
-0.686026 -0.610877 9.406242
-0.686329 -0.606889 9.406305
-0.696455 -0.493580 9.408702
-0.696977 -0.489617 9.408853
-0.714143 -0.377268 9.414081
-0.714891 -0.373346 9.414323
-0.739294 -0.262528 9.422471
-0.740272 -0.258664 9.422806
-0.771979 -0.149972 9.433909
-0.773187 -0.146183 9.434337
-0.812118 -0.040203 9.448371
-0.813551 -0.036505 9.448891
-0.859479 0.066226 9.465774
-0.861130 0.069818 9.466382
-0.913848 0.168741 9.486038
-0.915901 0.172087 9.486811
-0.975031 0.266728 9.509097
-0.977261 0.269939 9.509943
-1.041945 0.360272 9.534514
-1.044338 0.363344 9.535427
-1.114013 0.449269 9.562061
-1.116553 0.452202 9.563035
-1.190665 0.533715 9.591509
-1.193335 0.536510 9.592537
-1.271356 0.613683 9.622640
-1.274142 0.616343 9.623717
-1.355585 0.689306 9.655251
-1.358474 0.691835 9.656370
-1.442899 0.760758 9.689157
-0.852600 -1.637397 9.487928
-0.820564 -1.541001 9.473695
-0.816180 -1.526530 9.471729
-0.787255 -1.428990 9.458724
-0.783310 -1.414371 9.456931
-0.757805 -1.315717 9.445280
-0.754338 -1.300956 9.443676
-0.732592 -1.201247 9.433513
-0.729644 -1.186353 9.432116
-0.712024 -1.085684 9.423590
-0.709641 -1.070669 9.422417
-0.696538 -0.969177 9.415688
-0.694768 -0.954062 9.414758
-0.686592 -0.851939 9.409993
-0.685482 -0.836746 9.409326
-0.682647 -0.734248 9.406693
-0.682763 -0.719007 9.406516
-0.685600 -0.616484 9.406153
-0.686755 -0.601282 9.406393
-0.695721 -0.499151 9.408489
-0.697711 -0.484045 9.409065
-0.713091 -0.382782 9.413741
-0.715943 -0.367832 9.414664
-0.737919 -0.267961 9.422000
-0.741647 -0.253231 9.423277
-0.770281 -0.155300 9.433307
-0.774884 -0.140856 9.434939
-0.810102 -0.045402 9.447641
-0.815566 -0.031306 9.449622
-0.857157 0.061175 9.464918
-0.863452 0.074868 9.467238
-0.911082 0.163959 9.485001
-0.918786 0.176790 9.487897
-0.971895 0.262214 9.507907
-0.980397 0.274453 9.511132
-1.038581 0.355952 9.533231
-1.047702 0.367664 9.536711
-1.110443 0.445145 9.560692
-1.120123 0.456326 9.564404
-1.186910 0.529785 9.590064
-1.197089 0.540440 9.593983
-1.267438 0.609943 9.621126
-1.278060 0.620083 9.625230
-1.351522 0.685751 9.653676
-1.362537 0.695391 9.657945
-1.438709 0.757380 9.687529
-0.848838 -1.626142 9.486258
-0.843903 -1.611377 9.484066
-0.838968 -1.596612 9.481875
-0.834032 -1.581848 9.479684
-0.829097 -1.567083 9.477492
-0.824162 -1.552318 9.475301
-0.812735 -1.515156 9.470183
-0.808216 -1.500236 9.468156
-0.803696 -1.485315 9.466129
-0.799176 -1.470395 9.464102
-0.794657 -1.455474 9.462074
-0.790355 -1.440480 9.460133
-0.780210 -1.402880 9.455522
-0.776143 -1.387807 9.453674
-0.772076 -1.372734 9.451826
-0.768009 -1.357661 9.449977
-0.764105 -1.342539 9.448193
-0.760530 -1.327319 9.446540
-0.751613 -1.289353 9.442416
-0.748039 -1.274133 9.440762
-0.744464 -1.258914 9.439109
-0.740986 -1.243669 9.437493
-0.737947 -1.228312 9.436053
-0.734908 -1.212954 9.434612
-0.727328 -1.174646 9.431017
-0.724289 -1.159288 9.429576
-0.721267 -1.143928 9.428142
-0.718810 -1.128447 9.426932
-0.716353 -1.112966 9.425722
-0.713897 -1.097485 9.424513
-0.707768 -1.058868 9.421495
-0.705311 -1.043387 9.420285
-0.703408 -1.027814 9.419296
-0.701582 -1.012229 9.418337
-0.699756 -0.996644 9.417378
-0.697930 -0.981058 9.416419
-0.693376 -0.942181 9.414028
-0.692044 -0.926538 9.413266
-0.690900 -0.910873 9.412579
-0.689755 -0.895209 9.411891
-0.688610 -0.879545 9.411204
-0.687465 -0.863880 9.410517
-0.685030 -0.824779 9.408970
-0.684616 -0.809068 9.408575
-0.684203 -0.793357 9.408180
-0.683789 -0.777646 9.407785
-0.683376 -0.761935 9.407389
-0.682962 -0.746224 9.406994
-0.683042 -0.707026 9.406453
-0.683408 -0.691309 9.406370
-0.683775 -0.675592 9.406287
-0.684141 -0.659875 9.406204
-0.684508 -0.644158 9.406121
-0.684874 -0.628442 9.406037
-0.687662 -0.589333 9.406582
-0.688853 -0.573659 9.406829
-0.690043 -0.557985 9.407077
-0.691234 -0.542311 9.407324
-0.692425 -0.526637 9.407571
-0.694157 -0.511025 9.408037
-0.699276 -0.472172 9.409517
-0.701328 -0.456596 9.410111
-0.703380 -0.441021 9.410705
-0.705432 -0.425446 9.411298
-0.707909 -0.409947 9.412063
-0.710849 -0.394533 9.413015
-0.718184 -0.356082 9.415389
-0.721125 -0.340667 9.416341
-0.724065 -0.325253 9.417292
-0.727302 -0.309913 9.418364
-0.731146 -0.294725 9.419680
-0.734989 -0.279538 9.420997
-0.744576 -0.241654 9.424281
-0.748420 -0.226467 9.425597
-0.752424 -0.211332 9.426979
-0.757170 -0.196439 9.428661
-0.761917 -0.181546 9.430343
-0.766663 -0.166653 9.432025
-0.778503 -0.129502 9.436221
-0.783273 -0.114619 9.437913
-0.788907 -0.100085 9.439956
-0.794541 -0.085551 9.441999
-0.800174 -0.071016 9.444041
-0.805808 -0.056482 9.446084
-0.819861 -0.020226 9.451179
-0.826246 -0.006057 9.453528
-0.832737 0.008060 9.455919
-0.839228 0.022178 9.458311
-0.845718 0.036296 9.460703
-0.852209 0.050413 9.463095
-0.868991 0.085291 9.469303
-0.876296 0.098944 9.472027
-0.883600 0.112596 9.474751
-0.890905 0.126248 9.477476
-0.898209 0.139900 9.480200
-0.905514 0.153552 9.482924
-0.924934 0.186814 9.490212
-0.932999 0.199962 9.493248
-0.941064 0.213111 9.496284
-0.949130 0.226260 9.499320
-0.957195 0.239409 9.502357
-0.965260 0.252557 9.505393
-0.987080 0.284073 9.513666
-0.995847 0.296693 9.516991
-1.004613 0.309312 9.520316
-1.013380 0.321932 9.523640
-1.022146 0.334551 9.526965
-1.031411 0.346746 9.530495
-1.054872 0.376870 9.539446
-1.064277 0.388946 9.543034
-1.073682 0.401022 9.546622
-1.083087 0.413097 9.550210
-1.092854 0.424828 9.553949
-1.102835 0.436357 9.557775
-1.127731 0.465114 9.567321
-1.137712 0.476643 9.571147
-1.147692 0.488171 9.574974
-1.157919 0.499440 9.578903
-1.168415 0.510425 9.582943
-1.178910 0.521411 9.586984
-1.205090 0.548814 9.597063
-1.215585 0.559800 9.601103
-1.226230 0.570611 9.605207
-1.237183 0.581065 9.609438
-1.248136 0.591520 9.613669
-1.259088 0.601974 9.617901
-1.286410 0.628052 9.628456
-1.297434 0.638415 9.632717
-1.308791 0.648355 9.637118
-1.320149 0.658294 9.641519
-1.331506 0.668234 9.645920
-1.342864 0.678174 9.650321
-1.371204 0.702955 9.661303
-1.382919 0.712400 9.665855
-1.394634 0.721845 9.670406
-1.406349 0.731290 9.674957
-1.418064 0.740735 9.679508
-1.429778 0.750180 9.684060
28 NaN NaN
-0.855151 -1.645027 9.489061
-0.822352 -1.546903 9.474497
-0.792316 -1.447746 9.461024
-0.765287 -1.347574 9.448740
-0.741532 -1.246428 9.437752
-0.721337 -1.144369 9.428176
-0.705011 -1.041491 9.420137
-0.692876 -0.937919 9.413765
-0.685268 -0.833823 9.409198
-0.682520 -0.729420 9.406571
-0.684955 -0.624980 9.406019
-0.692866 -0.520824 9.407663
-0.706501 -0.417325 9.411608
-0.726041 -0.314897 9.417932
-0.751580 -0.213980 9.426680
-0.783119 -0.115019 9.437857
-0.820553 -0.018440 9.451430
-0.863683 0.075370 9.467323
-0.912221 0.166087 9.485426
-0.965815 0.253461 9.505601
-1.024069 0.337319 9.527694
-1.086567 0.417566 9.551538
-1.152891 0.494176 9.576967
-1.222635 0.567179 9.603818
-1.295420 0.636653 9.631937
-1.370897 0.702707 9.661184
-1.448749 0.765475 9.691430
-1.528694 0.825102 9.722559
-1.185104 -1.775269 8.068786
-1.106539 -1.669266 8.018065
-1.031183 -1.560592 7.968147
-0.959498 -1.449040 7.919182
-0.892644 -1.333985 7.871521
-0.831202 -1.215355 7.825386
-0.775765 -1.093157 7.781015
-0.727857 -0.967031 7.738955
-0.689626 -0.836687 7.700015
-0.661635 -0.702828 7.664549
-0.645537 -0.565982 7.633316
-0.645662 -0.426980 7.608204
-0.661195 -0.287927 7.589266
-0.692627 -0.150806 7.577060
-0.741361 -0.018353 7.572643
-0.805319 0.107522 7.575528
-0.881514 0.226095 7.584646
-0.968347 0.336540 7.599504
-1.064371 0.438235 7.619636
-1.166703 0.532690 7.643610
-1.274093 0.620446 7.670827
-1.386088 0.701155 7.701168
-1.183984 -1.773776 8.068067
-1.107624 -1.670789 8.018775
-1.105455 -1.667743 8.017354
-1.032228 -1.562146 7.968848
-1.030138 -1.559037 7.967446
-0.960498 -1.450628 7.919871
-0.958497 -1.447451 7.918492
-0.893537 -1.335648 7.872181
-0.891750 -1.332322 7.870861
-0.832032 -1.217059 7.826027
-0.830373 -1.213652 7.824745
-0.776521 -1.094902 7.781634
-0.775010 -1.091411 7.780396
-0.728431 -0.968862 7.739517
-0.727282 -0.965199 7.738393
-0.690089 -0.838560 7.700540
-0.689163 -0.834813 7.699490
-0.661972 -0.704740 7.665030
-0.661299 -0.700916 7.664068
-0.645730 -0.567925 7.633745
-0.645382 -0.564033 7.632901
-0.645524 -0.428953 7.608505
-0.645800 -0.425008 7.607902
-0.660875 -0.289888 7.589493
-0.661515 -0.285965 7.589040
-0.692123 -0.152736 7.577207
-0.693130 -0.148876 7.576913
-0.740511 -0.020163 7.572630
-0.742210 -0.016542 7.572656
-0.804319 0.105792 7.575440
-0.806319 0.109252 7.575616
-0.880383 0.224452 7.584489
-0.882644 0.227737 7.584802
-0.967011 0.335077 7.599233
-0.969683 0.338003 7.599776
-1.062957 0.436857 7.619318
-1.065785 0.439613 7.619954
-1.165224 0.531392 7.643251
-1.168182 0.533987 7.643969
-1.272560 0.619223 7.670433
-1.275626 0.621669 7.671221
-1.384473 0.700065 7.700717
-1.180374 -1.768964 8.065747
-1.111120 -1.675698 8.021067
-1.101959 -1.662834 8.015062
-1.035597 -1.567158 7.971107
-1.026770 -1.554025 7.965187
-0.963724 -1.455750 7.922093
-0.955272 -1.442329 7.916271
-0.896419 -1.341010 7.874308
-0.888868 -1.326961 7.868734
-0.834705 -1.222550 7.828094
-0.827699 -1.208161 7.822678
-0.778957 -1.100528 7.783631
-0.772574 -1.085785 7.778400
-0.730282 -0.974767 7.741329
-0.725431 -0.959295 7.736581
-0.691582 -0.844600 7.702233
-0.687670 -0.828774 7.697797
-0.663056 -0.710904 7.666581
-0.660214 -0.694752 7.662517
-0.646354 -0.574192 7.635130
-0.645271 -0.557697 7.631709
-0.645078 -0.435311 7.609477
-0.646246 -0.418650 7.606930
-0.659844 -0.296210 7.590224
-0.662546 -0.279643 7.588309
-0.690499 -0.158958 7.577682
-0.694754 -0.142655 7.576439
-0.737772 -0.026000 7.572587
-0.744949 -0.010705 7.572699
-0.801097 0.100215 7.575156
-0.809541 0.114829 7.575900
-0.876739 0.219158 7.583985
-0.886289 0.233032 7.585306
-0.962715 0.330348 7.598365
-0.973990 0.342721 7.600650
-1.058398 0.432414 7.618292
-1.070344 0.444055 7.620980
-1.160455 0.527209 7.642095
-1.172950 0.538170 7.645126
-1.267618 0.615282 7.669163
-1.280684 0.625431 7.672570
-1.379265 0.696552 7.699263
-1.172258 -1.758145 8.060531
-1.161567 -1.743893 8.053660
-1.150876 -1.729641 8.046789
-1.140184 -1.715388 8.039918
-1.129493 -1.701136 8.033047
-1.118979 -1.686734 8.026220
-1.094099 -1.651798 8.009909
-1.083746 -1.637259 8.003122
-1.073392 -1.622721 7.996335
-1.063123 -1.608114 7.989569
-1.053146 -1.593270 7.982878
-1.043170 -1.578426 7.976186
-1.019197 -1.542757 7.960107
-1.009220 -1.527913 7.953416
-0.999635 -1.512770 7.946828
-0.990082 -1.497601 7.940248
-0.980529 -1.482433 7.933668
-0.970976 -1.467264 7.927087
-0.948318 -1.430600 7.911356
-0.939242 -1.415087 7.904905
-0.930167 -1.399573 7.898455
-0.921091 -1.384060 7.892004
-0.912016 -1.368547 7.885553
-0.902940 -1.353034 7.879102
-0.882390 -1.314908 7.863952
-0.873855 -1.299029 7.857652
-0.865321 -1.283151 7.851353
-0.856786 -1.267273 7.845053
-0.848635 -1.251157 7.838864
-0.840716 -1.234894 7.832742
-0.821688 -1.195817 7.818031
-0.813770 -1.179554 7.811909
-0.806077 -1.163164 7.805854
-0.798863 -1.146501 7.799942
-0.791648 -1.129839 7.794030
-0.784434 -1.113177 7.788118
-0.767114 -1.073128 7.773917
-0.760706 -1.056054 7.768255
-0.754298 -1.038981 7.762592
-0.747890 -1.021907 7.756929
-0.741482 -1.004833 7.751267
-0.735074 -0.987760 7.745604
-0.721270 -0.946021 7.732508
-0.715787 -0.928534 7.727142
-0.710305 -0.911047 7.721776
-0.704822 -0.893560 7.716410
-0.699360 -0.876066 7.711051
-0.694938 -0.858179 7.706038
-0.684313 -0.815195 7.693992
-0.679891 -0.797308 7.688980
-0.675470 -0.779421 7.683967
-0.671918 -0.761269 7.679256
-0.668706 -0.743015 7.674662
-0.665494 -0.724761 7.670068
-0.657776 -0.680896 7.659030
-0.655139 -0.662513 7.654644
-0.653293 -0.643955 7.650544
-0.651447 -0.625396 7.646443
-0.649601 -0.606838 7.642343
-0.647755 -0.588280 7.638242
-0.645022 -0.543453 7.629031
-0.644695 -0.524689 7.625503
-0.644367 -0.505926 7.621975
-0.644039 -0.487162 7.618446
-0.643711 -0.468398 7.614918
-0.644076 -0.449606 7.611663
-0.647248 -0.404355 7.604745
-0.648568 -0.385524 7.601866
-0.649888 -0.366693 7.598986
-0.651420 -0.347875 7.596195
-0.654473 -0.329150 7.594031
-0.657527 -0.310425 7.591867
-0.664864 -0.265428 7.586666
-0.667917 -0.246703 7.584502
-0.672418 -0.228224 7.582964
-0.677228 -0.209798 7.581559
-0.682038 -0.191372 7.580153
-0.686848 -0.172946 7.578748
-0.699305 -0.128924 7.575779
-0.705822 -0.110987 7.575148
-0.712340 -0.093049 7.574517
-0.718858 -0.075111 7.573886
-0.725375 -0.057174 7.573255
-0.731893 -0.039236 7.572624
-0.751106 0.002417 7.572795
-0.759217 0.019704 7.572921
-0.767329 0.036991 7.573048
-0.775440 0.054277 7.573174
-0.784307 0.071158 7.573677
-0.793851 0.087676 7.574518
-0.816786 0.127368 7.576538
-0.826331 0.143886 7.577379
-0.836161 0.160212 7.578369
-0.846956 0.175893 7.579863
-0.857750 0.191573 7.581357
-0.868544 0.207254 7.582851
-0.894483 0.244935 7.586441
-0.906270 0.259816 7.588477
-0.918130 0.274636 7.590555
-0.929991 0.289457 7.592632
-0.941851 0.304277 7.594710
-0.953711 0.319098 7.596788
-0.983673 0.353327 7.602617
-0.996430 0.367298 7.605208
-1.009186 0.381270 7.607799
-1.021942 0.395241 7.610389
-1.034698 0.409213 7.612980
-1.048148 0.422427 7.615986
-1.080594 0.454042 7.623286
-1.094097 0.467199 7.626324
-1.107599 0.480355 7.629362
-1.121491 0.493028 7.632643
-1.135613 0.505416 7.636069
-1.149735 0.517805 7.639494
-1.183670 0.547574 7.647726
-1.197962 0.559727 7.651262
-1.212598 0.571400 7.655023
-1.227235 0.583074 7.658785
-1.241871 0.594747 7.662546
-1.256507 0.606420 7.666308
-1.292119 0.633791 7.675646
-1.307184 0.644803 7.679699
-1.322248 0.655816 7.683752
-1.337312 0.666828 7.687805
-1.352377 0.677841 7.691858
-1.367558 0.688654 7.695993
29 NaN NaN
-1.185384 -1.775642 8.068966
-1.124409 -1.694359 8.029779
-1.065361 -1.611443 7.991070
-1.008463 -1.526787 7.952909
-0.953981 -1.440281 7.915382
-0.902223 -1.351808 7.878592
-0.853552 -1.261255 7.842665
-0.808394 -1.168513 7.807752
-0.767250 -1.073491 7.774037
-0.730708 -0.976125 7.741745
-0.699444 -0.876407 7.711146
-0.674230 -0.774408 7.682562
-0.655915 -0.670321 7.656369
-0.645390 -0.564506 7.632990
-0.643521 -0.457525 7.612874
-0.651046 -0.350167 7.596460
-0.668453 -0.243417 7.584122
-0.695873 -0.138371 7.576112
-0.733029 -0.036110 7.572513
-0.779272 0.062444 7.573234
-0.833688 0.156618 7.578027
-0.895234 0.246026 7.586544
-0.962863 0.330533 7.598391
-1.035602 0.410203 7.613164
-1.112600 0.485228 7.630487
-1.193133 0.555875 7.650021
-1.276601 0.622446 7.671471
-1.362512 0.685250 7.694584
-1.450465 0.744584 7.719145
-1.787515 -1.491475 6.746401
-1.597419 -1.367120 6.699932
-1.412670 -1.234335 6.655322
-1.235347 -1.091062 6.613237
-1.068892 -0.934446 6.574754
-0.919408 -0.760594 6.541731
-0.798312 -0.564956 6.517513
-0.726105 -0.346020 6.507803
-0.728007 -0.116126 6.518958
-0.807932 0.097868 6.550810
-0.941982 0.280953 6.596102
-1.106834 0.435093 6.648516
-1.288570 0.567573 6.704567
-1.785865 -1.490420 6.745997
-1.599029 -1.368240 6.700323
-1.595808 -1.366000 6.699542
-1.414227 -1.235535 6.655694
-1.411114 -1.233136 6.654950
-1.236827 -1.092361 6.613583
-1.233866 -1.089764 6.612890
-1.070260 -0.935871 6.575064
-1.067523 -0.933020 6.574444
-0.920599 -0.762181 6.541984
-0.918218 -0.759007 6.541477
-0.799204 -0.566739 6.517676
-0.797420 -0.563173 6.517351
-0.726499 -0.347981 6.507820
-0.725711 -0.344059 6.507785
-0.727726 -0.118099 6.518789
-0.728287 -0.114153 6.519126
-0.807054 0.096100 6.550487
-0.808810 0.099635 6.551133
-0.940730 0.279449 6.595688
-0.943296 0.282396 6.596530
-1.105301 0.433900 6.648040
-1.108367 0.436286 6.648992
-1.286940 0.566527 6.704071
-1.777930 -1.485350 6.744051
-1.606776 -1.373618 6.702202
-1.588066 -1.360617 6.697664
-1.421711 -1.241301 6.657483
-1.403629 -1.227370 6.653161
-1.243947 -1.098605 6.615251
-1.226746 -1.083520 6.611223
-1.076839 -0.942723 6.576555
-1.060944 -0.926168 6.572954
-0.926322 -0.769810 6.543204
-0.912494 -0.751377 6.540258
-0.803491 -0.575310 6.518457
-0.793132 -0.554602 6.516569
-0.728392 -0.357408 6.507905
-0.723817 -0.334632 6.507701
-0.726378 -0.127585 6.517980
-0.729636 -0.104667 6.519935
-0.802831 0.087602 6.548934
-0.813033 0.108133 6.552686
-0.934712 0.272218 6.593701
-0.949894 0.289062 6.598650
-1.097992 0.428085 6.645763
-1.115737 0.442022 6.651282
-1.279101 0.561496 6.701684
-1.758000 -1.472615 6.739166
-1.731536 -1.455704 6.732678
-1.705072 -1.438793 6.726190
-1.678812 -1.421542 6.719774
-1.652646 -1.404135 6.713391
-1.626480 -1.386727 6.707009
-1.568619 -1.347096 6.692947
-1.542796 -1.329141 6.686684
-1.516982 -1.311174 6.680423
-1.491556 -1.292615 6.674297
-1.466131 -1.274056 6.668171
-1.440705 -1.255497 6.662045
-1.384833 -1.212888 6.648667
-1.359873 -1.193657 6.642700
-1.335111 -1.174157 6.636800
-1.310704 -1.154176 6.631019
-1.286296 -1.134194 6.625238
-1.261888 -1.114213 6.619457
-1.208864 -1.067837 6.607036
-1.185118 -1.047013 6.601476
-1.161933 -1.025527 6.596101
-1.138994 -1.003752 6.590806
-1.116055 -0.981976 6.585512
-1.093364 -0.959932 6.580298
-1.044419 -0.908959 6.569210
-1.022518 -0.886066 6.564253
-1.001828 -0.861994 6.559682
-0.981138 -0.837922 6.555112
-0.960448 -0.813851 6.550542
-0.940698 -0.788972 6.546267
-0.898118 -0.732215 6.537195
-0.879800 -0.706204 6.533366
-0.862787 -0.679237 6.529939
-0.845773 -0.652270 6.526513
-0.828759 -0.625303 6.523086
-0.814259 -0.596837 6.520419
-0.782364 -0.533074 6.514607
-0.770577 -0.503364 6.512743
-0.759809 -0.473197 6.511180
-0.749041 -0.443031 6.509617
-0.739463 -0.412524 6.508397
-0.733148 -0.381084 6.508116
-0.719350 -0.310924 6.507571
-0.718283 -0.278895 6.508759
-0.717217 -0.246865 6.509947
-0.716150 -0.214836 6.511135
-0.718493 -0.183047 6.513249
-0.722990 -0.151410 6.515948
-0.735113 -0.081382 6.522517
-0.744822 -0.051090 6.526585
-0.754532 -0.020798 6.530653
-0.764241 0.009494 6.534721
-0.778142 0.037917 6.539854
-0.792225 0.066259 6.545034
-0.826182 0.127875 6.557212
-0.843680 0.154067 6.563230
-0.861178 0.180259 6.569248
-0.879448 0.205828 6.575449
-0.899522 0.229943 6.582079
-0.919595 0.254058 6.588708
-0.966463 0.305805 6.603976
-0.988466 0.328037 6.611049
-1.010469 0.350269 6.618121
-1.033404 0.371442 6.625401
-1.056864 0.392017 6.632797
-1.080325 0.412591 6.640193
-1.134246 0.456429 6.657033
-1.158825 0.475560 6.664670
-1.183403 0.494691 6.672306
-1.208835 0.512595 6.680120
-1.234286 0.530470 6.687939
-1.259737 0.548345 6.695757
28 NaN NaN
-1.787928 -1.491738 6.746502
-1.696712 -1.433451 6.724141
-1.606525 -1.373451 6.702141
-1.517520 -1.311567 6.680553
-1.429886 -1.247600 6.659438
-1.343858 -1.181317 6.638871
-1.259732 -1.112448 6.618947
-1.177891 -1.040675 6.599784
-1.098830 -0.965625 6.581536
-1.023206 -0.886866 6.564405
-0.951903 -0.803908 6.548654
-0.886121 -0.716223 6.534639
-0.827499 -0.623306 6.522832
-0.778239 -0.524828 6.513855
-0.741152 -0.420932 6.508472
-0.719409 -0.312684 6.507505
-0.715737 -0.202433 6.511595
-0.731219 -0.093533 6.520885
-0.764646 0.010758 6.534891
-0.813148 0.108365 6.552729
-0.873426 0.198594 6.573460
-0.942589 0.281682 6.596302
-1.018410 0.358293 6.620674
-1.099261 0.429198 6.646163
-1.183968 0.495131 6.672482
-1.271687 0.556738 6.699428
-1.361797 0.614569 6.726856
-1.453839 0.669086 6.754662
-1.627515 -1.568202 4.933420
-1.468401 -1.440245 4.980682
-1.316169 -1.305068 5.030406
-1.172970 -1.161404 5.083012
-1.041994 -1.007746 5.138990
-0.928038 -0.842503 5.198841
-0.838257 -0.664558 5.262867
-0.782494 -0.474721 5.330655
-0.771277 -0.278059 5.400278
-0.809954 -0.084387 5.468200
-0.894061 0.096358 5.530967
-1.012760 0.259285 5.586993
-1.155342 0.404428 5.636427
-1.314015 0.533999 5.680152
-1.625982 -1.566997 4.933865
-1.469905 -1.441482 4.980226
-1.466898 -1.439007 4.981139
-1.317601 -1.306379 5.029924
-1.314737 -1.303757 5.030888
-1.174306 -1.162801 5.082501
-1.171634 -1.160006 5.083523
-1.043199 -1.009245 5.138445
-1.040788 -1.006246 5.139535
-0.929058 -0.844121 5.198256
-0.927017 -0.840885 5.199426
-0.839012 -0.666301 5.262242
-0.837503 -0.662814 5.263493
-0.782876 -0.476571 5.329996
-0.782112 -0.472872 5.331313
-0.771189 -0.279944 5.399613
-0.771364 -0.276175 5.400942
-0.809381 -0.086196 5.467568
-0.810528 -0.082578 5.468831
-0.893087 0.094707 5.530397
-0.895036 0.098009 5.531538
-1.011501 0.257815 5.586490
-1.014018 0.260756 5.587496
-1.153893 0.403122 5.635984
-1.156791 0.405733 5.636869
-1.312439 0.532832 5.679760
-1.619210 -1.561673 4.935834
-1.476547 -1.446949 4.978208
-1.460369 -1.433421 4.983197
-1.323926 -1.312170 5.027797
-1.308461 -1.297920 5.033031
-1.180210 -1.168975 5.080243
-1.165730 -1.153832 5.085780
-1.048524 -1.015872 5.136035
-1.035463 -0.999619 5.141945
-0.933565 -0.851268 5.195673
-0.922510 -0.833738 5.202009
-0.842345 -0.674003 5.259478
-0.834170 -0.655112 5.266257
-0.784565 -0.484741 5.327088
-0.780423 -0.464701 5.334222
-0.770803 -0.288268 5.396677
-0.771751 -0.267850 5.403878
-0.806849 -0.094188 5.464777
-0.813060 -0.074586 5.471622
-0.888782 0.087415 5.527876
-0.899341 0.105301 5.534059
-1.005940 0.251318 5.584266
-1.019579 0.267252 5.589719
-1.147493 0.397353 5.634029
-1.163191 0.411503 5.638825
-1.305476 0.527676 5.678028
-1.602524 -1.548554 4.940684
-1.580395 -1.531156 4.947117
-1.558266 -1.513757 4.953549
-1.536323 -1.496154 4.960052
-1.514618 -1.478288 4.966645
-1.492913 -1.460421 4.973237
-1.444366 -1.419566 4.988298
-1.423144 -1.401192 4.995064
-1.401921 -1.382819 5.001829
-1.380853 -1.364290 5.008647
-1.360183 -1.345365 5.015601
-1.339512 -1.326440 5.022554
-1.293354 -1.283198 5.038427
-1.273321 -1.263673 5.045584
-1.253287 -1.244148 5.052741
-1.233344 -1.224544 5.059925
-1.214051 -1.204367 5.067302
-1.194758 -1.184190 5.074680
-1.151765 -1.138141 5.091504
-1.133339 -1.117254 5.099121
-1.114913 -1.096368 5.106738
-1.096487 -1.075482 5.114355
-1.079048 -1.053855 5.122221
-1.061646 -1.032200 5.130096
-1.022967 -0.982866 5.148026
-1.006782 -0.960385 5.156177
-0.990597 -0.937905 5.164328
-0.974412 -0.915424 5.172479
-0.959401 -0.892237 5.180865
-0.944672 -0.868880 5.189307
-0.912027 -0.815801 5.208481
-0.899044 -0.791536 5.217222
-0.886060 -0.767270 5.225962
-0.873076 -0.743005 5.234703
-0.861451 -0.718152 5.243633
-0.850559 -0.692982 5.252666
-0.826455 -0.635964 5.273122
-0.818045 -0.609952 5.282420
-0.809635 -0.583941 5.291718
-0.801225 -0.557930 5.301016
-0.794243 -0.531578 5.310416
-0.788726 -0.504876 5.319921
-0.776412 -0.444547 5.341394
-0.774158 -0.417413 5.351009
-0.771903 -0.390279 5.360624
-0.769649 -0.363145 5.370239
-0.768588 -0.335988 5.379847
-0.769851 -0.308783 5.389442
-0.772703 -0.247336 5.411113
-0.777161 -0.220439 5.420558
-0.782005 -0.193580 5.429985
-0.786849 -0.166720 5.439411
-0.792332 -0.139998 5.448781
-0.800608 -0.113881 5.457900
-0.819301 -0.054892 5.478499
-0.829870 -0.029550 5.487315
-0.841253 -0.004483 5.496024
-0.852635 0.020584 5.504733
-0.864103 0.045612 5.513427
-0.878173 0.069444 5.521664
-0.909950 0.123272 5.540270
-0.925333 0.146342 5.548222
-0.941653 0.168867 5.555969
-0.957974 0.191392 5.563715
-0.974294 0.213918 5.571462
-0.992237 0.235309 5.578788
-1.033282 0.283261 5.595198
-1.052100 0.303966 5.602269
-1.071784 0.323964 5.609080
-1.091467 0.343963 5.615891
-1.111151 0.363961 5.622702
-1.131721 0.383136 5.629210
-1.178963 0.425719 5.643643
-1.200151 0.444290 5.649930
-1.222075 0.462094 5.655937
-1.244000 0.479898 5.661944
-1.265925 0.497703 5.667950
-1.288317 0.514971 5.673761
27 NaN NaN
-1.627898 -1.568503 4.933308
-1.545834 -1.503983 4.957163
-1.465343 -1.437727 4.981611
-1.386642 -1.369590 5.006700
-1.309988 -1.299409 5.032485
-1.235698 -1.227005 5.059025
-1.164153 -1.152183 5.086383
-1.095826 -1.074732 5.114629
-1.031296 -0.994434 5.143831
-0.971282 -0.911076 5.174056
-0.916667 -0.824472 5.205358
-0.868528 -0.734505 5.237764
-0.828145 -0.641191 5.271253
-0.796969 -0.544766 5.305722
-0.776516 -0.445792 5.340952
-0.768160 -0.345226 5.376589
-0.772839 -0.244401 5.412148
-0.790793 -0.144856 5.447084
-0.821466 -0.048058 5.480885
-0.863657 0.044857 5.513166
-0.915813 0.133202 5.543703
-0.976319 0.216712 5.572423
-1.043696 0.295428 5.599362
-1.116681 0.369579 5.624615
-1.194237 0.439488 5.648310
-1.275538 0.505509 5.670584
-1.359922 0.567991 5.691567
-1.189872 -1.615583 4.222035
-1.094697 -1.474473 4.187809
-1.006064 -1.328703 4.155697
-0.926370 -1.177275 4.126485
-0.857419 -1.020100 4.100775
-0.801682 -0.857139 4.079395
-0.763875 -0.688546 4.063927
-0.745432 -0.516298 4.054884
-0.753939 -0.343087 4.054851
-0.787504 -0.173280 4.063269
-0.848264 -0.011840 4.080934
-0.931882 0.137854 4.106450
-1.033862 0.274538 4.138334
-1.150787 0.397241 4.175455
-1.188759 -1.613971 4.221635
-1.095764 -1.476120 4.188194
-1.093631 -1.472825 4.187424
-1.007015 -1.330428 4.156044
-1.005114 -1.326978 4.155350
-0.927250 -1.179042 4.126809
-0.925490 -1.175509 4.126161
-0.858121 -1.021954 4.101041
-0.856716 -1.018247 4.100509
-0.802275 -0.859035 4.079625
-0.801089 -0.855243 4.079165
-0.764195 -0.690515 4.064067
-0.763555 -0.686577 4.063787
-0.745433 -0.518297 4.054918
-0.745457 -0.514298 4.054859
-0.753719 -0.345075 4.054811
-0.754158 -0.341100 4.054892
-0.786890 -0.175176 4.063095
-0.788118 -0.171385 4.063443
-0.847467 -0.013659 4.080697
-0.849062 -0.010021 4.081171
-0.930776 0.136223 4.106107
-0.932988 0.139484 4.106794
-1.032634 0.273007 4.137948
-1.035091 0.276068 4.138720
-1.149373 0.395901 4.175004
-1.184539 -1.607862 4.220120
-1.099803 -1.482363 4.189650
-1.089591 -1.466582 4.185968
-1.010616 -1.336964 4.157359
-1.001512 -1.320442 4.154035
-0.930582 -1.185736 4.128036
-0.922158 -1.168815 4.124933
-0.860784 -1.028976 4.102050
-0.854054 -1.011225 4.099500
-0.804521 -0.866219 4.080497
-0.798843 -0.848059 4.078293
-0.765409 -0.697976 4.064598
-0.762341 -0.679116 4.063256
-0.746024 -0.525844 4.055241
-0.745553 -0.506722 4.054765
-0.752888 -0.352605 4.054658
-0.754989 -0.333570 4.055045
-0.784564 -0.182357 4.062435
-0.790445 -0.164204 4.064103
-0.844445 -0.020549 4.079800
-0.852083 -0.003131 4.082068
-0.926584 0.130047 4.104806
-0.937180 0.145661 4.108095
-1.027981 0.267208 4.136486
-1.039744 0.281867 4.140182
-1.144014 0.390824 4.173294
-1.174551 -1.593401 4.216534
-1.161342 -1.574277 4.211792
-1.148134 -1.555153 4.207049
-1.134925 -1.536030 4.202307
-1.122013 -1.516685 4.197660
-1.109366 -1.497142 4.193099
-1.080028 -1.451803 4.182519
-1.067505 -1.432174 4.177998
-1.055499 -1.412185 4.173643
-1.043492 -1.392196 4.169289
-1.031486 -1.372207 4.164935
-1.019479 -1.352218 4.160581
-0.992987 -1.304970 4.150922
-0.981712 -1.284510 4.146805
-0.970438 -1.264050 4.142688
-0.959336 -1.243489 4.138628
-0.948904 -1.222535 4.134785
-0.938471 -1.201581 4.130942
-0.914269 -1.152970 4.122027
-0.904683 -1.131571 4.118460
-0.895223 -1.110106 4.114935
-0.885763 -1.088641 4.111409
-0.876302 -1.067176 4.107883
-0.867087 -1.045599 4.104437
-0.847751 -0.994602 4.097113
-0.839416 -0.972619 4.093955
-0.831081 -0.950636 4.090798
-0.823899 -0.928205 4.088019
-0.816868 -0.905716 4.085290
-0.809837 -0.883226 4.082561
-0.794356 -0.830793 4.076503
-0.788831 -0.807833 4.074270
-0.783306 -0.784873 4.072038
-0.777782 -0.761913 4.069806
-0.772257 -0.738952 4.067573
-0.768281 -0.715637 4.065854
-0.759469 -0.661455 4.062001
-0.755670 -0.638099 4.060340
-0.752971 -0.614591 4.059045
-0.751122 -0.590964 4.058032
-0.749272 -0.567337 4.057019
-0.747423 -0.543710 4.056007
-0.745781 -0.488788 4.054543
-0.746083 -0.465071 4.054250
-0.746385 -0.441354 4.053956
-0.746686 -0.417637 4.053663
-0.748320 -0.394003 4.053817
-0.750921 -0.370430 4.054296
-0.756956 -0.315744 4.055407
-0.760141 -0.292273 4.056084
-0.765105 -0.269113 4.057361
-0.770068 -0.245952 4.058638
-0.775032 -0.222792 4.059915
-0.779995 -0.199631 4.061192
-0.795952 -0.147204 4.065664
-0.803235 -0.124724 4.067730
-0.810518 -0.102244 4.069795
-0.818374 -0.080003 4.072056
-0.827833 -0.058432 4.074866
-0.837292 -0.036861 4.077675
-0.859236 0.013181 4.084193
-0.870518 0.033754 4.087629
-0.881936 0.054252 4.091112
-0.893353 0.074751 4.094595
-0.904771 0.095249 4.098078
-0.916662 0.115424 4.101726
-0.947102 0.160284 4.111175
-0.960223 0.179621 4.115248
-0.973344 0.198958 4.119321
-0.987832 0.217175 4.123871
-1.002399 0.235328 4.128448
-1.016966 0.253481 4.133025
-1.051499 0.294885 4.143902
-1.067273 0.311880 4.148903
-1.083047 0.328875 4.153904
-1.098822 0.345870 4.158905
-1.114596 0.362865 4.163905
-1.131330 0.378805 4.169245
23 NaN NaN
-1.190151 -1.615986 4.222135
-1.128678 -1.526984 4.200064
-1.069821 -1.436030 4.178837
-1.013944 -1.343003 4.158574
-0.961475 -1.247784 4.139416
-0.912924 -1.150269 4.121532
-0.868899 -1.050378 4.105124
-0.830113 -0.948082 4.090431
-0.797396 -0.843429 4.077731
-0.771689 -0.736592 4.067344
-0.754015 -0.627922 4.059616
-0.745410 -0.517997 4.054905
-0.746813 -0.407660 4.053539
-0.758914 -0.297998 4.055768
-0.782004 -0.190257 4.061709
-0.815885 -0.085679 4.071317
-0.859890 0.014673 4.084387
-0.913009 0.110040 4.100592
-0.974058 0.200010 4.119543
-1.041838 0.284477 4.140840
-1.115240 0.363560 4.164110
-1.193299 0.437523 4.189024
-1.275203 0.506708 4.215306
-0.540251 -1.196318 0.950800
-0.485530 -0.978208 1.042506
-0.456438 -0.755094 1.133670
-0.458497 -0.529367 1.222802
-0.496723 -0.305272 1.307730
-0.575597 -0.089363 1.385417
-0.691823 0.112301 1.453792
-0.840011 0.295512 1.511717
-1.013290 0.458758 1.559272
-0.539744 -1.194537 0.951554
-0.485862 -0.980030 1.041752
-0.485199 -0.976385 1.043259
-0.456557 -0.756946 1.132925
-0.456319 -0.753242 1.134414
-0.458366 -0.531227 1.222079
-0.458628 -0.527507 1.223525
-0.496313 -0.307105 1.307044
-0.497173 -0.303446 1.308408
-0.574755 -0.091077 1.384822
-0.576439 -0.087650 1.386012
-0.690723 0.110714 1.453272
-0.692924 0.113889 1.454311
-0.838696 0.294071 1.511276
-0.841325 0.296953 1.512158
-1.011809 0.457465 1.558906
-0.537207 -1.185628 0.955330
-0.487520 -0.989146 1.037981
-0.483541 -0.967269 1.047030
-0.457153 -0.766211 1.129199
-0.455723 -0.743977 1.138140
-0.457713 -0.540531 1.218461
-0.459282 -0.518204 1.227143
-0.494259 -0.316276 1.303617
-0.499954 -0.294421 1.311706
-0.570543 -0.099648 1.381844
-0.580651 -0.079078 1.388990
-0.685219 0.102776 1.450672
-0.698428 0.121827 1.456911
-0.832120 0.286862 1.509070
-0.847901 0.304162 1.514364
-1.004398 0.450999 1.557076
-0.530782 -1.163066 0.964892
-0.522246 -1.133090 0.977595
-0.513710 -1.103114 0.990299
-0.506453 -1.072808 1.003007
-0.499323 -1.042469 1.015716
-0.492193 -1.012129 1.028425
-0.479342 -0.944185 1.056580
-0.473764 -0.913513 1.069267
-0.469376 -0.882644 1.081916
-0.465504 -0.851688 1.094549
-0.461632 -0.820733 1.107181
-0.458662 -0.789673 1.119766
-0.454214 -0.720515 1.147574
-0.453196 -0.689283 1.160034
-0.453218 -0.657987 1.172418
-0.453241 -0.626690 1.184802
-0.453857 -0.595393 1.197128
-0.456057 -0.564090 1.209300
-0.461576 -0.494683 1.236226
-0.466082 -0.463520 1.248116
-0.470589 -0.432357 1.260006
-0.475245 -0.401213 1.271873
-0.482153 -0.370356 1.283405
-0.489060 -0.339500 1.294937
-0.506996 -0.271565 1.320059
-0.516353 -0.241199 1.331156
-0.525709 -0.210833 1.342253
-0.537144 -0.181042 1.352918
-0.548941 -0.151352 1.363507
-0.560738 -0.121662 1.374097
-0.591318 -0.057374 1.396531
-0.605489 -0.028536 1.406549
-0.621107 -0.000343 1.416170
-0.637533 0.027490 1.425568
-0.653960 0.055322 1.434967
-0.671280 0.082674 1.444088
-0.712367 0.141929 1.463495
-0.731707 0.168117 1.471956
-0.752130 0.193619 1.480040
-0.772553 0.219122 1.488123
-0.793344 0.244354 1.496063
-0.815468 0.268608 1.503484
-0.864884 0.322139 1.519807
-0.888509 0.345134 1.526583
-0.912133 0.368129 1.533359
-0.935765 0.391117 1.540131
-0.960699 0.412872 1.546287
-0.985632 0.434626 1.552443
19 NaN NaN
-0.540378 -1.196764 0.950611
-0.512935 -1.100392 0.991452
-0.490013 -1.002855 1.032310
-0.472079 -0.904252 1.073099
-0.459631 -0.804736 1.113708
-0.453185 -0.704528 1.154002
-0.453257 -0.603921 1.193812
-0.460329 -0.503299 1.232939
-0.474816 -0.403125 1.271158
-0.497021 -0.303940 1.308227
-0.527096 -0.206330 1.343898
-0.565016 -0.110895 1.377937
-0.610569 -0.018199 1.410140
-0.663370 0.071266 1.440351
-0.722900 0.157119 1.468471
-0.788550 0.239099 1.494455
-0.859672 0.317066 1.518312
-0.935618 0.390989 1.540095
-1.015773 0.460923 1.559885
