0.137930 0.137939 0.138061 0.138634 0.139541 0.140537 0.141533 0.142528 0.143622 0.144313 0.144470 0.144482 0.144494 0.144653 0.145400 0.146583 0.147888 0.149193 0.150498 0.151946 0.152859 0.153069 0.153084 0.153100 0.153311 0.154306 0.155883 0.157586 0.159289 0.160993 0.162773 0.163897 0.164148 0.164166 0.164185 0.164436 0.165580 0.167392 0.169264 0.171136 0.173008 0.175005 0.176265 0.176552 0.176574 0.176595 0.176884 0.178246 0.180403 0.182810 0.185217 0.187624 0.190244 0.191897 0.192271 0.192299 0.192327 0.192702 0.194448 0.197213 0.200122 0.203031 0.205940 0.208838 0.210667 0.211059 0.211088 0.211116 0.211486 0.213067 0.215572 0.217043 0.218515 0.219986 0.220428 0.220708 0.220728 0.220729 0.220730 0.220749 0.220668 0.220540 0.220008 0.219476 0.218943 0.218156 0.217659 0.217533 0.217523 0.217514 0.217384 0.216697 0.215609 0.213939 0.212269 0.210598 0.208357 0.206943 0.206605 0.206579 0.206554 0.206214 0.204580 0.201992 0.199178 0.196363 0.193549 0.190749 0.188982 0.188607 0.188579 0.188551 0.188179 0.186576 0.184035 0.181878 0.179721 0.177563 0.175742 0.174592 0.174353 0.174335 0.174318 0.174081 0.173061 0.171446 0.169993 0.168540 0.167087 0.165744 0.164896 0.164714 0.164700 0.164686 0.164505 0.163699 0.162423 0.161212 0.160000 0.158789 0.157626 0.156892 0.156733 0.156721 0.156709 0.156550 0.155838 0.154710 0.153641 0.152572 0.151503 0.150510 0.149884 0.149751 0.149741 0.149731 0.149598 0.149015 0.148093 0.147247 0.146401 0.145555 0.144769 0.144273 0.144166 0.144158 
0.164166 0.164163 0.164150 0.164114 0.164066 0.164001 0.163936 0.163870 0.163797 0.163741 0.163717 0.163711 0.163705 0.163680 0.163617 0.163533 0.163440 0.163347 0.163255 0.163155 0.163079 0.163047 0.163039 0.163031 0.162999 0.162916 0.162807 0.162689 0.162570 0.162451 0.162324 0.162228 0.162188 0.162178 0.162168 0.162127 0.162025 0.161891 0.161749 0.161607 0.161465 0.161318 0.161206 0.161160 0.161148 0.161136 0.161089 0.160972 0.160817 0.160660 0.160503 0.160346 0.160184 0.160063 0.160011 0.159998 0.159985 0.159933 0.159806 0.159637 0.159462 0.159286 0.159111 0.158928 0.158790 0.158731 0.158717 0.158702 0.158643 0.158561 0.158451 0.158392 0.158334 0.158275 0.158215 0.158170 0.158151 0.158146 0.158141 0.158121 0.158075 0.158013 0.157947 0.157882 0.157816 0.157749 0.157698 0.157678 0.157672 0.157667 0.157647 0.157597 0.157532 0.157467 0.157402 0.157337 0.157273 0.157224 0.157204 0.157199 0.157194 0.157174 0.157126 0.157062 0.157000 0.156937 0.156875 0.156814 0.156768 0.156749 0.156745 
0.211065 0.210970 0.210564 0.209600 0.208323 0.207116 0.205909 0.204701 0.203562 0.202703 0.202363 0.202284 0.202206 0.201870 0.201068 0.200005 0.199016 0.198027 0.197039 0.196117 0.195421 0.195148 0.195084 0.195021 0.194752 0.194097 0.193228 0.192389 0.191550 0.190711 0.189901 0.189291 0.189046 0.188989 0.188932 0.188687 0.188097 0.187315 0.186561 0.185808 0.185054 0.184336 0.183795 0.183580 0.183530 0.183481 0.183268 0.182764 0.182095 0.181473 0.180851 0.180230 0.179651 0.179215 0.179043 0.179002 0.178962 0.178792 0.178383 0.177840 0.177330 0.176820 0.176310 0.176010 0.175784 0.175695 0.175675 0.175655 0.175568 0.175371 0.175110 0.174852 0.174595 0.174338 0.174088 0.173900 0.173825 0.173808 0.173791 0.173717 0.173540 0.173305 0.173083 0.172861 0.172639 0.172425 0.172264 0.172200 0.172185 
0.217503 0.217420 0.217181 0.216668 0.215996 0.215334 0.214672 0.214011 0.213355 0.212855 0.212623 0.212543 0.212463 0.212232 0.211740 0.211094 0.210459 0.209825 0.209190 0.208556 0.208074 0.207852 0.207775 0.207699 0.207478 0.207007 0.206388 0.205781 0.205174 0.204567 0.203967 0.203511 0.203303 0.203231 0.203160 0.202953 0.202513 0.201936 0.201370 0.200804 0.200238 0.199686 0.199266 0.199075 0.199009 0.198943 0.198753 0.198348 0.197816 0.197290 0.196765 0.196239 0.195726 0.195335 0.195157 0.195096 0.195035 0.194858 0.194480 0.193984 0.193498 0.193013 0.192527 0.192053 0.191692 0.191526 0.191469 0.191412 0.191248 0.190893 0.190426 0.189971 0.189516 0.189061 0.188617 0.188278 0.188122 0.188068 0.188014 0.187858 0.187526 0.187090 0.186665 0.186239 0.185814 0.185398 0.185081 0.184935 0.184885 0.184835 0.184691 0.184382 0.183977 0.183583 0.183188 0.182793 0.182409 0.182117 0.181983 0.181937 0.181891 0.181758 0.181476 0.181105 0.180743 0.180381 0.180019 0.179668 0.179400 0.179277 0.179235 0.179192 0.179070 0.178808 0.178464 0.178192 0.177921 0.177650 0.177500 0.177387 0.177334 0.177316 0.177297 0.177245 0.177129 0.176978 0.176824 0.176670 0.176517 0.176362 0.176245 0.176190 0.176171 0.176152 0.176097 0.175980 0.175825 0.175673 0.175521 0.175369 0.175218 0.175103 0.175049 0.175031 0.175013 0.174960 0.174847 0.174699 0.174553 0.174406 0.174260 0.174116 0.174007 0.173957 0.173939 0.173922 0.173872 0.173766 0.173626 0.173488 0.173350 0.173212 0.173079 0.172977 0.172930 0.172914 0.172897 0.172851 0.172751 0.172620 0.172491 0.172363 0.172235 0.172110 0.172016 0.171972 0.171958 0.171943 0.171899 0.171807 0.171685 0.171567 0.171448 0.171330 0.171215 0.171127 0.171087 0.171073 
0.164697 0.164687 0.164649 0.164558 0.164437 0.164310 0.164182 0.164054 0.163914 0.163808 0.163762 0.163749 0.163736 0.163689 0.163577 0.163431 0.163272 0.163114 0.162955 0.162792 0.162668 0.162613 0.162598 0.162582 0.162526 0.162393 0.162217 0.162034 0.161852 0.161669 0.161477 0.161331 0.161268 0.161250 0.161233 0.161170 0.161021 0.160824 0.160615 0.160406 0.160198 0.159983 0.159821 0.159750 0.159730 0.159710 0.159637 0.159465 0.159238 0.159002 0.158766 0.158530 0.158324 0.158168 0.158135 0.158126 0.158117 0.158084 0.158008 0.157907 0.157803 0.157700 0.157596 0.157492 0.157413 0.157378 0.157369 0.157359 0.157324 0.157244 0.157137 0.157030 0.156922 0.156815 0.156706 0.156623 0.156588 0.156578 0.156568 0.156533 0.156450 0.156341 0.156232 0.156123 0.156014 0.155905 0.155823 0.155788 0.155779 0.155769 0.155734 0.155652 0.155544 0.155436 0.155329 0.155221 0.155115 0.155035 0.155001 0.154991 0.154982 0.154947 0.154868 0.154763 0.154660 0.154557 0.154454 0.154352 0.154275 0.154243 0.154234 
