0.258437 0.258447 0.258600 0.258539 0.258441 0.254438 0.250435 0.246432 0.239011 0.234328 0.233266 0.233201 0.233135 0.232061 0.227231 0.219578 0.213893 0.208207 0.202521 0.198315 0.195661 0.195129 0.195096 0.195064 0.194536 0.192320 0.188808 0.185854 0.182901 0.179947 0.177421 0.175826 0.175498 0.175477 0.175457 0.175130 0.173688 0.171402 0.169293 0.167184 0.165076 0.163094 0.161844 0.161578 0.161562 0.161545 0.161279 0.160080 0.158179 0.156413 0.154647 0.152881 0.151260 0.150237 0.150022 0.150009 0.149996 0.149784 0.148840 0.147344 0.145995 0.144647 0.143298 0.142084 0.141318 0.141157 0.141148 
0.258422 0.258371 0.257830 0.254081 0.248160 0.240895 0.233630 0.226365 0.220957 0.217531 0.216864 0.216802 0.216741 0.216091 0.213651 0.209797 0.207268 0.204738 0.202208 0.200571 0.199534 0.199329 0.199309 0.199290 0.199084 0.198259 0.196955 0.195831 0.194707 0.193583 0.192475 0.191773 0.191614 0.191599 0.191584 0.191426 0.190693 0.189535 0.188289 0.187042 0.185795 0.184485 0.183655 0.183467 0.183449 0.183432 0.183244 0.182412 0.181099 0.179815 0.178531 0.177247 0.176010 0.175227 0.175054 0.175037 0.175021 0.174848 0.174099 0.172915 0.171780 0.170646 0.169512 0.168424 0.167735 0.167581 0.167567 0.167553 0.167400 0.166734 0.165683 0.164664 0.163644 0.162625 0.161638 0.161014 0.160874 0.160861 0.160848 0.160707 0.160097 0.159134 0.158205 0.157276 0.156347 0.155451 0.154884 0.154758 0.154746 0.154735 0.154609 0.154064 0.153203 0.152383 0.151562 0.150742 0.149967 0.149476 0.149367 0.149357 0.149347 0.149238 0.148773 0.148038 0.147353 0.146668 0.145983 0.145346 0.144942 0.144854 0.144846 0.144837 0.144750 0.144372 0.143777 0.143219 0.142661 0.142104 0.141575 0.141240 0.141165 0.141159 0.141152 0.141077 0.140754 0.140243 0.139748 0.139252 0.138757 0.138275 0.137969 0.137901 0.137895 0.137888 0.137820 0.137521 0.137048 0.136588 0.136128 0.135668 0.135220 0.134937 0.134873 0.134867 0.134862 0.134798 0.134522 0.134085 0.133660 0.133236 0.132811 0.132398 0.132137 0.132078 0.132073 0.132067 0.132009 0.131753 0.131349 0.130956 0.130563 0.130169 0.129786 0.129543 0.129488 0.129483 
0.258483 0.258697 0.262404 0.277564 0.301588 0.322871 0.344154 0.365437 0.343873 0.330265 0.326296 0.326067 0.325847 0.322024 0.306266 0.281294 0.263805 0.246317 0.228828 0.219248 0.213204 0.212148 0.212087 0.212029 0.211016 0.207002 0.200641 0.195523 0.190406 0.185289 0.179590 0.175994 0.175132 0.175083 0.175032 0.174155 0.169563 0.162284 0.154878 0.147471 0.140064 0.135211 0.132148 0.131624 0.131594 0.131565 0.131062 0.129274 0.126440 0.124949 0.123457 0.121966 0.121149 0.120633 0.120541 0.120536 0.120531 0.120442 0.120093 0.119540 0.119155 0.118769 0.118384 0.118097 0.117915 0.117879 0.117877 0.117875 0.117840 0.117691 0.117454 0.117261 0.117068 0.116875 0.116716 0.116616 0.116595 0.116594 0.116593 0.116573 0.116488 0.116353 0.116243 0.116133 0.116023 0.115934 0.115878 0.115867 0.115866 0.115866 0.115855 0.115808 0.115733 0.115672 0.115611 0.115550 0.115500 0.115468 0.115462 0.115462 0.115461 0.115455 0.115427 0.115384 0.115346 0.115308 0.115270 0.115236 0.115214 0.115209 0.115209 
0.161558 0.161542 0.161464 0.161264 0.160997 0.160724 0.160451 0.160178 0.159898 0.159688 0.159604 0.159587 0.159571 0.159486 0.159272 0.158987 0.158700 0.158413 0.158126 0.157838 0.157622 0.157537 0.157520 0.157503 0.157418 0.157204 0.156919 0.156642 0.156365 0.156088 0.155849 0.155670 0.155604 0.155591 0.155578 0.155513 0.155356 0.155149 0.154960 0.154772 0.154584 0.154413 0.154285 0.154235 0.154226 0.154217 0.154171 0.154059 0.153910 0.153773 0.153636 0.153498 0.153368 0.153270 0.153235 0.153229 0.153222 0.153187 0.153098 0.152980 0.152871 0.152762 0.152654 0.152553 0.152477 0.152448 0.152442 0.152436 0.152407 0.152333 0.152235 0.152145 0.152055 0.151965 0.151883 0.151821 0.151796 0.151791 0.151786 0.151761 0.151701 0.151621 0.151545 0.151468 0.151391 0.151315 0.151258 0.151235 0.151230 
0.195081 0.195020 0.194703 0.193925 0.192890 0.191970 0.191049 0.190128 0.189323 0.188717 0.188490 0.188446 0.188403 0.188177 0.187615 0.186867 0.186129 0.185392 0.184654 0.183923 0.183373 0.183157 0.183116 0.183074 0.182857 0.182306 0.181572 0.180865 0.180157 0.179450 0.178776 0.178269 0.178075 0.178038 0.178002 0.177812 0.177337 0.176704 0.176122 0.175539 0.174957 0.174434 0.174041 0.173897 0.173870 0.173842 0.173700 0.173348 0.172881 0.172482 0.172083 0.171684 0.171356 0.171110 0.171016 0.170998 0.170980 0.170886 0.170677 0.170398 0.170162 0.169926 0.169690 0.169487 0.169334 0.169277 0.169266 0.169257 0.169209 0.169086 0.168922 0.168781 0.168639 0.168498 0.168377 0.168286 0.168255 0.168249 0.168243 0.168212 0.168132 0.168025 0.167938 0.167852 0.167765 0.167697 0.167645 0.167625 0.167621 0.167617 0.167596 0.167550 0.167490 0.167437 0.167385 0.167332 0.167285 0.167249 0.167236 0.167233 
0.233157 0.232982 0.232270 0.230601 0.228390 0.226292 0.224194 0.222096 0.220126 0.218638 0.218058 0.217916 0.217776 0.217207 0.215890 0.214147 0.212641 0.211135 0.209629 0.208400 0.207472 0.207206 0.207140 0.207075 0.206811 0.206190 0.205367 0.204578 0.203789 0.203000 0.202245 0.201675 0.201443 0.201386 0.201329 0.201099 0.200554 0.199832 0.199134 0.198436 0.197739 0.197063 0.196553 0.196346 0.196295 0.196244 0.196038 0.195542 0.194885 0.194244 0.193602 0.192960 0.192326 0.191847 0.191650 0.191602 0.191554 0.191358 0.190888 0.190265 0.189650 0.189035 0.188420 0.187812 0.187354 0.187160 0.187112 0.187064 0.186869 0.186397 0.185773 0.185163 0.184554 0.183945 0.183361 0.182921 0.182743 0.182700 0.182657 0.182482 0.182069 0.181521 0.181000 0.180480 0.179959 0.179473 0.179105 0.178957 0.178920 0.178884 0.178737 0.178407 0.177971 0.177569 0.177168 0.176766 0.176438 0.176191 0.176092 0.176067 0.176043 0.175944 0.175712 0.175406 0.175167 0.174928 0.174690 0.174478 0.174318 0.174265 0.174252 0.174239 0.174186 0.174058 0.173890 0.173748 0.173607 0.173466 0.173339 0.173244 0.173204 0.173194 0.173186 0.173151 0.173082 0.172990 0.172901 0.172812 0.172723 0.172649 0.172593 0.172569 0.172563 0.172557 0.172533 0.172480 0.172410 0.172350 0.172289 0.172229 0.172177 0.172138 0.172123 0.172119 0.172115 0.172100 0.172062 0.172012 0.171971 0.171930 0.171889 0.171848 0.171816 0.171806 0.171804 0.171801 0.171791 0.171764 0.171727 0.171695 0.171662 0.171629 0.171599 0.171576 0.171566 0.171564 
0.216773 0.216660 0.216057 0.214582 0.212622 0.210881 0.209141 0.207401 0.205842 0.204670 0.204235 0.204154 0.204074 0.203647 0.202614 0.201241 0.200003 0.198766 0.197528 0.196418 0.195583 0.195277 0.195220 0.195164 0.194864 0.194106 0.193098 0.192175 0.191251 0.190328 0.189456 0.188800 0.188549 0.188502 0.188455 0.188205 0.187576 0.186739 0.185945 0.185151 0.184357 0.183610 0.183048 0.182831 0.182791 0.182750 0.182533 0.182004 0.181300 0.180645 0.179990 0.179335 0.178730 0.178275 0.178112 0.178082 0.178051 0.177889 0.177483 0.176943 0.176479 0.176015 0.175551 0.175185 0.174910 0.174810 0.174791 0.174772 0.174673 0.174457 0.174169 0.173941 0.173714 0.173486 0.173303 0.173166 0.173123 0.173115 0.173108 0.173070 0.172971 0.172840 0.172736 0.172633 0.172529 0.172449 0.172388 0.172366 0.172362 0.172358 0.172335 0.172282 0.172210 0.172157 0.172104 0.172051 0.172008 0.171976 0.171962 0.171960 0.171958 0.171948 0.171924 0.171894 0.171870 0.171846 0.171822 0.171806 0.171795 0.171791 0.171791 0.171790 0.171787 0.171778 0.171767 0.171762 0.171757 0.171752 0.171751 0.171750 0.171748 0.171748 
0.191589 0.191551 0.191349 0.190835 0.190153 0.189485 0.188817 0.188149 0.187510 0.187030 0.186846 0.186811 0.186776 0.186593 0.186133 0.185520 0.184935 0.184349 0.183763 0.183197 0.182771 0.182610 0.182580 0.182550 0.182390 0.181990 0.181457 0.180946 0.180436 0.179926 0.179436 0.179068 0.178927 0.178901 0.178875 0.178735 0.178385 0.177919 0.177479 0.177039 0.176599 0.176188 0.175878 0.175760 0.175738 0.175715 0.175596 0.175306 0.174920 0.174562 0.174205 0.173847 0.173522 0.173277 0.173188 0.173172 0.173155 0.173067 0.172849 0.172558 0.172315 0.172072 0.171828 0.171658 0.171531 0.171482 0.171473 0.171464 0.171416 0.171320 0.171192 0.171095 0.170998 0.170901 0.170828 0.170774 0.170759 0.170756 0.170754 0.170739 0.170698 0.170644 0.170609 0.170575 0.170540 0.170519 0.170502 0.170495 0.170494 0.170493 0.170486 0.170477 0.170466 0.170456 0.170446 0.170436 0.170431 0.170427 0.170429 0.170429 0.170430 0.170431 0.170434 0.170437 0.170447 0.170456 0.170466 0.170482 0.170494 0.170498 0.170499 0.170499 0.170503 0.170516 0.170534 0.170554 0.170574 0.170595 0.170617 0.170634 0.170642 0.170643 
0.160859 0.160851 0.160820 0.160746 0.160648 0.160547 0.160446 0.160345 0.160241 0.160163 0.160129 0.160121 0.160112 0.160079 0.159999 0.159892 0.159783 0.159674 0.159565 0.159456 0.159373 0.159339 0.159330 0.159322 0.159287 0.159206 0.159099 0.158991 0.158883 0.158775 0.158666 0.158584 0.158550 0.158541 0.158533 0.158499 0.158420 0.158315 0.158213 0.158110 0.158008 0.157907 0.157830 0.157798 0.157790 0.157782 0.157749 0.157673 0.157572 0.157475 0.157377 0.157279 0.157184 0.157113 0.157083 0.157075 0.157067 0.157037 0.156966 0.156872 0.156779 0.156687 0.156595 0.156505 0.156436 0.156408 0.156401 0.156394 0.156366 0.156299 0.156211 0.156125 0.156040 0.155955 0.155871 0.155807 0.155780 0.155773 0.155767 0.155742 0.155684 0.155607 0.155543 0.155478 0.155414 0.155361 0.155322 0.155306 0.155302 0.155298 0.155282 0.155250 0.155206 0.155169 0.155133 0.155096 0.155068 0.155047 0.155039 0.155037 0.155035 0.155027 0.155008 0.154984 0.154967 0.154950 0.154933 0.154919 0.154908 0.154905 0.154904 0.154904 0.154901 0.154894 0.154886 0.154879 0.154873 0.154866 0.154863 0.154860 0.154859 0.154859 0.154859 0.154858 0.154858 0.154858 0.154858 0.154857 0.154857 0.154860 0.154863 0.154864 0.154864 0.154864 0.154865 0.154867 0.154870 0.154874 0.154879 0.154884 0.154889 0.154893 0.154895 0.154896 0.154896 0.154898 0.154903 0.154908 0.154915 0.154921 0.154928 0.154934 0.154938 0.154940 0.154940 0.154941 0.154943 0.154949 0.154956 0.154961 0.154967 0.154973 0.154979 0.154983 0.154985 0.154985 
