-2.300004 -1.485480 10.801482
-1.783267 -1.429203 11.831388
-1.284810 -1.367980 12.869566
-1.051470 -1.241323 13.987134
-1.035232 -1.067568 15.127915
-0.971165 -0.903433 16.268454
-0.900921 -0.740557 17.408851
-2.299218 -1.485353 10.803316
-1.784213 -1.429287 11.829627
-1.782321 -1.429120 11.833148
-1.285528 -1.368125 12.867705
-1.284092 -1.367835 12.871427
-1.051561 -1.241612 13.985157
-1.051379 -1.241035 13.989111
-1.035290 -1.067863 15.125938
-1.035175 -1.067273 15.129892
-0.971306 -0.903711 16.266478
-0.971024 -0.903155 16.270429
-0.900994 -0.740850 17.406873
-2.289558 -1.483789 10.825868
-1.795841 -1.430314 11.807993
-1.770692 -1.428092 11.854783
-1.294353 -1.369907 12.844830
-1.275267 -1.366054 12.894303
-1.053051 -1.245082 13.960866
-1.050261 -1.237488 14.013411
-1.035998 -1.071492 15.101634
-1.034467 -1.063643 15.154196
-0.973040 -0.907131 16.242196
-0.969289 -0.899734 16.294712
-0.901978 -0.744423 17.382571
-2.245336 -1.476891 10.927425
-2.171586 -1.466953 11.086696
-2.093947 -1.458073 11.244174
-2.013607 -1.449939 11.400335
-1.931510 -1.442294 11.555605
-1.848434 -1.434925 11.710368
-1.718367 -1.423406 11.952548
-1.636437 -1.415715 12.107903
-1.556287 -1.407528 12.264158
-1.478791 -1.398608 12.421706
-1.404942 -1.388697 12.580934
-1.335459 -1.377622 12.742032
-1.237859 -1.357392 12.998431
-1.184668 -1.342159 13.165286
-1.139822 -1.324909 13.334363
-1.104214 -1.305506 13.505386
-1.078109 -1.283971 13.677883
-1.060716 -1.260557 13.851237
-1.045831 -1.221352 14.123126
-1.041962 -1.195160 14.296922
-1.040823 -1.168428 14.470678
-1.040821 -1.141472 14.644405
-1.040480 -1.114583 14.818141
-1.038502 -1.088015 14.991914
-1.030760 -1.047361 15.263918
-1.023340 -1.021882 15.437708
-1.014365 -0.996718 15.611470
-1.004093 -0.971819 15.785200
-0.992783 -0.947134 15.958896
-0.980813 -0.922585 16.132566
-0.961427 -0.884300 16.404338
-0.949084 -0.859827 16.577993
-0.937158 -0.835269 16.751666
-0.925928 -0.810567 16.925364
-0.915672 -0.785665 17.099094
-0.906803 -0.760480 17.272859
73 NaN NaN
-2.300201 -1.485512 10.801023
-2.260246 -1.479043 10.894302
-2.218582 -1.473028 10.986861
-2.175441 -1.467411 11.078767
-2.131037 -1.462137 11.170090
-2.085570 -1.457155 11.260905
-2.039229 -1.452415 11.351290
-1.992192 -1.447869 11.441325
-1.944627 -1.443470 11.531091
-1.896698 -1.439174 11.620667
-1.848560 -1.434936 11.710134
-1.800367 -1.430714 11.799572
-1.752269 -1.426465 11.889059
-1.704416 -1.422147 11.978675
-1.656957 -1.417719 12.068494
-1.610044 -1.413138 12.158593
-1.563832 -1.408362 12.249042
-1.518479 -1.403348 12.339913
-1.474150 -1.398054 12.431271
-1.431014 -1.392435 12.523179
-1.389250 -1.386448 12.615695
-1.349043 -1.380046 12.708871
-1.310587 -1.373183 12.802750
-1.274085 -1.365815 12.897367
-1.239748 -1.357895 12.992747
-1.207795 -1.349378 13.088899
-1.178450 -1.340218 13.185821
-1.151943 -1.330374 13.283490
-1.128503 -1.319806 13.381864
-1.108355 -1.308479 13.480881
-1.091532 -1.296403 13.580429
-1.077767 -1.283655 13.680363
-1.066754 -1.270314 13.780561
-1.058180 -1.256458 13.880928
-1.051734 -1.242161 13.981394
-1.047107 -1.227492 14.081906
-1.043995 -1.212518 14.182432
-1.042097 -1.197301 14.282952
-1.041121 -1.181901 14.383458
-1.040778 -1.166378 14.483949
-1.040781 -1.150786 14.584430
-1.040848 -1.135182 14.684909
-1.040694 -1.119621 14.785394
-1.040036 -1.104159 14.885893
-1.038623 -1.088846 14.986407
-1.036426 -1.073688 15.086930
-1.033499 -1.058676 15.187457
-1.029898 -1.043800 15.287981
-1.025680 -1.029048 15.388501
-1.020901 -1.014410 15.489011
-1.015617 -0.999874 15.589512
-1.009888 -0.985430 15.690001
-1.003772 -0.971065 15.790479
-0.997326 -0.956767 15.890945
-0.990610 -0.942526 15.991402
-0.983683 -0.928327 16.091851
-0.976603 -0.914161 16.192294
-0.969431 -0.900013 16.292733
-0.962225 -0.885872 16.393170
-0.955045 -0.871727 16.493608
-0.947949 -0.857563 16.594050
-0.940998 -0.843370 16.694498
-0.934250 -0.829135 16.794954
-0.927765 -0.814845 16.895419
-0.921601 -0.800490 16.995896
-0.915816 -0.786057 17.096383
-0.910470 -0.771534 17.196882
-0.905620 -0.756910 17.297392
-0.901322 -0.742174 17.397910
-0.897636 -0.727315 17.498434
-0.894615 -0.712322 17.598961
-0.892317 -0.697185 17.699485
-0.890796 -0.681893 17.800000
-2.299881 -1.485507 10.800638
-2.030308 -1.481038 10.451423
-1.792683 -1.475271 10.079744
-1.588122 -1.468254 9.688901
-1.417588 -1.460033 9.282076
-1.281568 -1.450665 8.862470
-1.181677 -1.440172 8.432856
-1.118751 -1.428599 7.996331
-1.092939 -1.416026 7.556051
-1.096764 -1.402794 7.114984
-1.118466 -1.389324 6.674403
-1.147035 -1.375980 6.234195
-1.172300 -1.362919 5.793781
-1.186239 -1.349887 5.352880
-1.180455 -1.336582 4.911837
-1.147756 -1.322755 4.472018
-1.089250 -1.308422 4.034860
-1.013319 -1.293783 3.600368
-0.928556 -1.279011 3.167502
-0.841932 -1.264236 2.735002
-0.755147 -1.249480 2.302534
-0.668263 -1.234738 1.870085
-0.581337 -1.220000 1.437644
-0.494430 -1.205260 1.005200
-0.407600 -1.190510 0.572741
-0.320908 -1.175743 0.140254
-2.298603 -1.485489 10.799100
-2.031455 -1.481062 10.453061
-2.029162 -1.481015 10.449784
-1.793694 -1.475300 10.081469
-1.791671 -1.475243 10.078019
-1.588961 -1.468289 9.690716
-1.587284 -1.468219 9.687085
-1.418284 -1.460073 9.283950
-1.416891 -1.459993 9.280202
-1.282118 -1.450710 8.864392
-1.281017 -1.450621 8.860548
-1.182039 -1.440222 8.434823
-1.181314 -1.440122 8.430890
-1.118958 -1.428654 7.998320
-1.118545 -1.428545 7.994343
-1.092967 -1.416085 7.558050
-1.092911 -1.415967 7.554053
-1.096696 -1.402855 7.116982
-1.096831 -1.402733 7.112986
-1.118346 -1.389385 6.676399
-1.118586 -1.389262 6.672408
-1.146907 -1.376040 6.236190
-1.147162 -1.375920 6.232200
-1.172204 -1.362978 5.795778
-1.172396 -1.362860 5.791784
-1.186204 -1.349946 5.354879
-1.186270 -1.349828 5.350881
-1.180540 -1.336643 4.913834
-1.180369 -1.336520 4.909840
-1.147962 -1.322818 4.474006
-1.147550 -1.322691 4.470030
-1.089567 -1.308488 4.036833
-1.088932 -1.308356 4.032886
-1.013689 -1.293850 3.602332
-1.012949 -1.293716 3.598404
-0.928948 -1.279078 3.169462
-0.928164 -1.278944 3.165542
-0.842325 -1.264303 2.736962
-0.841539 -1.264169 2.733042
-0.755540 -1.249547 2.304494
-0.754753 -1.249413 2.300574
-0.668656 -1.234804 1.872045
-0.667869 -1.234671 1.868125
-0.581731 -1.220067 1.439604
-0.580943 -1.219933 1.435685
-0.494824 -1.205327 1.007160
-0.494036 -1.205193 1.003240
-0.407994 -1.190577 0.574700
-0.407207 -1.190443 0.570781
-0.321300 -1.175810 0.142214
-2.287775 -1.485338 10.786065
-2.041170 -1.481260 10.466946
-2.019447 -1.480817 10.435900
-1.802266 -1.475543 10.096086
-1.783099 -1.475000 10.063402
-1.596127 -1.468583 9.706070
-1.580178 -1.467923 9.671703
-1.424186 -1.460410 9.299833
-1.410989 -1.459655 9.264320
-1.286786 -1.451087 8.880679
-1.276551 -1.450237 8.844206
-1.185113 -1.440648 8.451483
-1.178241 -1.439696 8.414230
-1.120707 -1.429117 8.015170
-1.116796 -1.428082 7.977493
-1.093391 -1.416582 7.574984
-1.092671 -1.415467 7.537115
-1.096126 -1.403370 7.133912
-1.097401 -1.402218 7.096057
-1.117329 -1.389902 6.693307
-1.119610 -1.388745 6.655500
-1.145827 -1.376545 6.253095
-1.148243 -1.375415 6.215295
-1.171391 -1.363477 5.812698
-1.173209 -1.362361 5.774865
-1.185914 -1.350449 5.371816
-1.186389 -1.349323 5.333942
-1.181268 -1.337163 4.930757
-1.179641 -1.336000 4.892916
-1.149710 -1.323359 4.490854
-1.145803 -1.322150 4.453182
-1.092208 -1.309045 4.053563
-1.086241 -1.307798 4.016164
-1.016827 -1.294415 3.618976
-1.009812 -1.293150 3.581759
-0.932265 -1.279646 3.186071
-0.924844 -1.278376 3.148933
-0.845655 -1.264870 2.753569
-0.838208 -1.263602 2.716436
-0.758875 -1.250113 2.321099
-0.751419 -1.248847 2.283968
-0.671994 -1.235370 1.888650
-0.664531 -1.234105 1.851520
-0.585069 -1.220633 1.456209
-0.577605 -1.219367 1.419080
-0.498160 -1.205893 1.023765
-0.490700 -1.204627 0.986635
-0.411325 -1.191144 0.591307
-0.403876 -1.189877 0.554174
-0.324626 -1.176378 0.158822
-2.258067 -1.484923 10.750304
-2.218835 -1.484349 10.702184
-2.180169 -1.483751 10.653605
-2.142334 -1.483118 10.604379
-2.104886 -1.482469 10.554858
-2.068260 -1.481785 10.504724
-1.992858 -1.480271 10.397766
-1.958301 -1.479503 10.346185
-1.924203 -1.478718 10.294303
-1.890690 -1.477909 10.242038
-1.858037 -1.477067 10.189235
-1.825782 -1.476209 10.136188
-1.760309 -1.474306 10.022885
-1.730030 -1.473374 9.968685
-1.700755 -1.472404 9.913937
-1.671952 -1.471417 9.858942
-1.643751 -1.470408 9.803633
-1.616434 -1.469368 9.747886
-1.560684 -1.467109 9.629502
-1.535395 -1.465997 9.572807
-1.510520 -1.464870 9.515928
-1.486677 -1.463708 9.458609
-1.463319 -1.462529 9.401093
-1.440582 -1.461330 9.343327
-1.395136 -1.458718 9.220625
-1.374630 -1.457444 9.162031
-1.354892 -1.456145 9.103177
-1.335581 -1.454832 9.044181
-1.317336 -1.453486 8.984845
-1.299592 -1.452123 8.925362
-1.264606 -1.449175 8.799286
-1.249005 -1.447745 8.739206
-1.234212 -1.446291 8.678920
-1.220214 -1.444812 8.618447
-1.206659 -1.443321 8.557872
-1.194212 -1.441796 8.497060
-1.169809 -1.438528 8.368523
-1.159655 -1.436937 8.307289
-1.149956 -1.435332 8.245983
-1.141100 -1.433704 8.184548
-1.133072 -1.432052 8.123002
-1.125506 -1.430387 8.061397
-1.112670 -1.426793 7.931203
-1.107497 -1.425063 7.869352
-1.103427 -1.423304 7.807420
-1.099784 -1.421535 7.745462
-1.096921 -1.419746 7.683463
-1.094761 -1.417940 7.621437
-1.092013 -1.414093 7.490647
-1.091607 -1.412249 7.428586
-1.091595 -1.410396 7.366522
-1.092307 -1.408530 7.304463
-1.093289 -1.406659 7.242408
-1.094761 -1.404781 7.180362
-1.099052 -1.400803 7.049616
-1.101672 -1.398909 6.987608
-1.104537 -1.397014 6.925612
-1.107607 -1.395116 6.863625
-1.111017 -1.393219 6.801657
-1.114541 -1.391322 6.739694
-1.122552 -1.387329 6.609122
-1.126501 -1.385439 6.547185
-1.130555 -1.383555 6.485255
-1.134631 -1.381676 6.423326
-1.138728 -1.379802 6.361398
-1.142791 -1.377939 6.299467
-1.151207 -1.374029 6.168918
-1.155041 -1.372185 6.106972
-1.158806 -1.370345 6.045022
-1.162390 -1.368510 5.983061
-1.165825 -1.366677 5.921092
-1.169135 -1.364846 5.859116
-1.175280 -1.360992 5.728439
-1.177868 -1.359164 5.666428
-1.180104 -1.357334 5.604404
-1.182160 -1.355502 5.542374
-1.183792 -1.353667 5.480331
-1.185117 -1.351828 5.418281
-1.186717 -1.347937 5.287472
-1.186877 -1.346082 5.225409
-1.186628 -1.344221 5.163346
-1.185794 -1.342349 5.101289
-1.184669 -1.340472 5.039236
-1.182868 -1.338583 4.977199
-1.177619 -1.334572 4.846490
-1.174027 -1.332648 4.784532
-1.170040 -1.330715 4.722601
-1.165474 -1.328770 4.660708
-1.160163 -1.326810 4.598876
-1.154503 -1.324843 4.537075
-1.140477 -1.320656 4.407020
-1.133235 -1.318657 4.345385
-1.125257 -1.316645 4.283841
-1.116999 -1.314628 4.222335
-1.108330 -1.312604 4.160885
-1.099169 -1.310570 4.099507
-1.078857 -1.306266 3.970287
-1.068672 -1.304214 3.909071
-1.058298 -1.302160 3.847887
-1.047497 -1.300098 3.786776
-1.036543 -1.298034 3.725694
-1.025365 -1.295966 3.664652
-1.001136 -1.291598 3.536110
-0.989385 -1.289521 3.475176
-0.977509 -1.287443 3.414266
-0.965560 -1.285365 3.353370
-0.953479 -1.283284 3.292501
-0.941368 -1.281204 3.231637
-0.915725 -1.276819 3.103370
-0.903546 -1.274739 3.042520
-0.891362 -1.272660 2.981671
-0.879174 -1.270581 2.920823
-0.866983 -1.268503 2.859976
-0.854787 -1.266425 2.799129
-0.829073 -1.262047 2.670876
-0.816867 -1.259970 2.610031
-0.804660 -1.257894 2.549187
-0.792450 -1.255818 2.488343
-0.780237 -1.253742 2.427500
-0.768023 -1.251667 2.366657
-0.742269 -1.247294 2.238411
-0.730048 -1.245219 2.177570
-0.717825 -1.243145 2.116728
-0.705601 -1.241071 2.055887
-0.693376 -1.238997 1.995046
-0.681149 -1.236923 1.934206
-0.655375 -1.232552 1.805965
-0.643146 -1.230479 1.745125
-0.630916 -1.228405 1.684284
-0.618686 -1.226332 1.623445
-0.606456 -1.224259 1.562605
-0.594226 -1.222185 1.501765
-0.568448 -1.217815 1.373524
-0.556219 -1.215741 1.312684
-0.543991 -1.213668 1.251844
-0.531764 -1.211594 1.191003
-0.519538 -1.209520 1.130163
-0.507313 -1.207446 1.069322
-0.481549 -1.203074 0.941078
-0.469328 -1.200999 0.880237
-0.457110 -1.198924 0.819394
-0.444894 -1.196849 0.758552
-0.432679 -1.194774 0.697709
-0.420468 -1.192698 0.636865
-0.394736 -1.188322 0.508616
-0.382533 -1.186245 0.447770
-0.370332 -1.184168 0.386925
-0.358135 -1.182091 0.326078
-0.345941 -1.180013 0.265231
-0.333750 -1.177934 0.204384
112 NaN NaN
-2.300201 -1.485512 10.801023
-2.235860 -1.484613 10.723573
-2.173155 -1.483643 10.644793
-2.112098 -1.482603 10.564730
-2.052703 -1.481495 10.483429
-1.994979 -1.480318 10.400932
-1.938939 -1.479073 10.317284
-1.884592 -1.477762 10.232527
-1.831948 -1.476384 10.146703
-1.781018 -1.474941 10.059852
-1.731810 -1.473433 9.972014
-1.684335 -1.471860 9.883229
-1.638603 -1.470224 9.793536
-1.594622 -1.468525 9.702971
-1.552403 -1.466764 9.611574
-1.511955 -1.464940 9.519379
-1.473290 -1.463055 9.426425
-1.436418 -1.461110 9.332746
-1.401349 -1.459104 9.238378
-1.368095 -1.457038 9.143357
-1.336669 -1.454913 9.047717
-1.307081 -1.452729 8.951494
-1.279347 -1.450486 8.854722
-1.253478 -1.448185 8.757435
-1.229489 -1.445827 8.659670
-1.207394 -1.443411 8.561461
-1.187208 -1.440938 8.462843
-1.168948 -1.438409 8.363851
-1.152628 -1.435824 8.264523
-1.138267 -1.433183 8.164895
-1.125880 -1.430486 8.065003
-1.115487 -1.427735 7.964885
-1.107099 -1.424930 7.864582
-1.100647 -1.422073 7.764136
-1.096004 -1.419172 7.663591
-1.093037 -1.416231 7.562985
-1.091613 -1.413256 7.462345
-1.091595 -1.410252 7.361696
-1.092847 -1.407224 7.261055
-1.095234 -1.404177 7.160435
-1.098619 -1.401116 7.059844
-1.102869 -1.398044 6.959287
-1.107848 -1.394968 6.858762
-1.113424 -1.391890 6.758269
-1.119464 -1.388816 6.657803
-1.125836 -1.385749 6.557357
-1.132409 -1.382693 6.456924
-1.139052 -1.379654 6.356494
-1.145637 -1.376633 6.256061
-1.152057 -1.373632 6.155616
-1.158220 -1.370645 6.055154
-1.164032 -1.367669 5.954672
-1.169399 -1.364700 5.854164
-1.174229 -1.361735 5.753629
-1.178426 -1.358770 5.653066
-1.181895 -1.355801 5.552475
-1.184541 -1.352825 5.451859
-1.186267 -1.349838 5.351224
-1.186977 -1.346837 5.250577
-1.186574 -1.343818 5.149929
-1.184961 -1.340778 5.049294
-1.182040 -1.337715 4.948689
-1.177715 -1.334624 4.848136
-1.171889 -1.331502 4.747659
-1.164483 -1.328348 4.647288
-1.155537 -1.325163 4.547043
-1.145155 -1.321949 4.446937
-1.133442 -1.318710 4.346979
-1.120504 -1.315447 4.247173
-1.106444 -1.312163 4.147520
-1.091367 -1.308861 4.048015
-1.075375 -1.305543 3.948654
-1.058571 -1.302212 3.849428
-1.041054 -1.298868 3.750325
-1.022926 -1.295515 3.651333
-1.004284 -1.292154 3.552436
-0.985228 -1.288787 3.453618
-0.965856 -1.285416 3.354862
-0.946264 -1.282042 3.256149
-0.926550 -1.278668 3.157461
-0.906802 -1.275295 3.058779
-0.887042 -1.271923 2.960100
-0.867273 -1.268552 2.861423
-0.847495 -1.265183 2.762747
-0.827708 -1.261814 2.664073
-0.807914 -1.258447 2.565401
-0.788113 -1.255081 2.466729
-0.768305 -1.251715 2.368060
-0.748491 -1.248350 2.269391
-0.728673 -1.244986 2.170723
-0.708850 -1.241622 2.072056
-0.689024 -1.238259 1.973390
-0.669195 -1.234896 1.874724
-0.649364 -1.231533 1.776059
-0.629531 -1.228170 1.677394
-0.609698 -1.224808 1.578729
-0.589864 -1.221446 1.480064
-0.570031 -1.218083 1.381400
-0.550200 -1.214721 1.282734
-0.530370 -1.211358 1.184069
-0.510543 -1.207994 1.085403
-0.490720 -1.204631 0.986736
-0.470901 -1.201266 0.888068
-0.451087 -1.197902 0.789400
-0.431278 -1.194536 0.690730
-0.411476 -1.191170 0.592059
-0.391681 -1.187802 0.493387
-0.371893 -1.184434 0.394713
-0.352113 -1.181065 0.296037
-0.332343 -1.177694 0.197360
-0.312582 -1.174323 0.098681
-0.292832 -1.170950 0.000000
-2.300546 -1.485873 10.801027
-3.416958 -1.731239 10.633030
-4.253823 -0.942154 10.229901
-4.799197 0.113607 9.901944
-5.352107 1.165118 9.570688
-5.910801 2.213759 9.240007
-6.470484 3.266673 8.926529
-7.043315 4.319478 8.636388
-7.689381 5.322573 8.325892
-8.444147 6.236310 7.988078
-9.329956 7.009470 7.620930
-10.340663 7.595968 7.232191
-11.442556 7.979037 6.836648
-12.595059 8.175826 6.447265
-13.767981 8.219534 6.070528
-2.301929 -1.487318 10.801044
-3.415192 -1.731999 10.633581
-3.418724 -1.730479 10.632479
-4.252796 -0.943753 10.230524
-4.254849 -0.940554 10.229277
-4.798302 0.111901 9.902481
-4.800091 0.115314 9.901407
-5.351209 1.163413 9.571223
-5.353004 1.166823 9.570153
-5.909886 2.212064 9.240546
-5.911717 2.215453 9.239468
-6.469602 3.264934 8.926975
-6.471365 3.268412 8.926084
-7.042338 4.317801 8.636872
-7.044292 4.321155 8.635904
-7.688259 5.321002 8.326415
-7.690503 5.324144 8.325370
-8.442813 6.234935 7.988652
-8.445481 6.237685 7.987504
-9.328410 7.008362 7.621547
-9.331503 7.010578 7.620313
-10.338939 7.595181 7.232831
-10.342387 7.596755 7.231551
-11.440720 7.978568 6.837287
-11.444392 7.979507 6.836009
-12.593166 8.175650 6.447886
-12.596952 8.176002 6.446644
-13.766074 8.219572 6.071127
-2.320015 -1.506227 10.801262
-3.391940 -1.741607 10.640717
-3.441829 -1.720535 10.625270
-4.239368 -0.964678 10.238680
-4.268278 -0.919629 10.221122
-4.786600 0.089577 9.909509
-4.811793 0.137638 9.894379
-5.339463 1.141104 9.578227
-5.364776 1.189115 9.563137
-5.897933 2.189874 9.247576
-5.923693 2.237624 9.232416
-6.458070 3.242180 8.932802
-6.482898 3.291166 8.920256
-7.029562 4.295861 8.643205
-7.057068 4.343095 8.629571
-7.673581 5.300447 8.333254
-7.705285 5.344614 8.318504
-8.425517 6.216776 7.996122
-8.462941 6.255671 7.979996
-9.308173 6.993868 7.629617
-9.351739 7.025072 7.612242
-10.316388 7.584885 7.241205
-10.364938 7.607052 7.223176
-11.416698 7.972429 6.845652
-11.468437 7.985560 6.827647
-12.568434 8.173087 6.456037
-12.621718 8.178301 6.438516
-13.741113 8.220049 6.078966
-2.405769 -1.587907 10.800910
-2.561578 -1.691619 10.792319
-2.734598 -1.761626 10.774229
-2.916719 -1.798227 10.747505
-3.101186 -1.802020 10.712785
-3.281972 -1.774241 10.670693
-3.543310 -1.669586 10.591368
-3.690654 -1.568705 10.533519
-3.824196 -1.451744 10.472111
-3.948297 -1.326073 10.407940
-4.065728 -1.194945 10.342138
-4.175389 -1.056768 10.277379
-4.326316 -0.822361 10.185885
-4.411132 -0.662732 10.134501
-4.491462 -0.499873 10.086064
-4.571144 -0.336488 10.038313
-4.651811 -0.173711 9.990150
-4.733896 -0.011908 9.941106
-4.865264 0.238541 9.862209
-4.950291 0.398147 9.811021
-5.034902 0.558085 9.760183
-5.118783 0.718598 9.709950
-5.202409 0.879329 9.659989
-5.286278 1.039907 9.609944
-5.418208 1.290144 9.531298
-5.503100 1.450027 9.480757
-5.588208 1.609780 9.430164
-5.673429 1.769498 9.379654
-5.758653 1.929289 9.329379
-5.843924 2.089114 9.279293
-5.978173 2.337994 9.200272
-6.065289 2.496310 9.148595
-6.152654 2.654555 9.097122
-6.239002 2.814013 9.047737
-6.323277 2.975651 9.001993
-6.405993 3.138900 8.959200
-6.535537 3.394083 8.893560
-6.620263 3.556152 8.850220
-6.706404 3.717240 8.806018
-6.793739 3.877582 8.761445
-6.882217 4.037261 8.716746
-6.972035 4.196119 8.671797
-7.115595 4.442165 8.600675
-7.209811 4.598086 8.554463
-7.306013 4.752626 8.507710
-7.404267 4.905707 8.460429
-7.504705 5.057187 8.412588
-7.607459 5.206914 8.364152
-7.772940 5.436912 8.287216
-7.882198 5.581399 8.237128
-7.994183 5.723545 8.186367
-8.109064 5.863102 8.134901
-8.226899 5.999905 8.082728
-8.347725 6.133797 8.029852
-8.542595 6.336688 7.945845
-8.671324 6.462234 7.891183
-8.803179 6.584188 7.835846
-8.938156 6.702373 7.779857
-9.076240 6.816608 7.723243
-9.217503 6.926571 7.666016
-9.444151 7.089784 7.575539
-9.592967 7.188509 7.516995
-9.744552 7.282664 7.458028
-9.898790 7.372161 7.398690
-10.055555 7.456935 7.339039
-10.214705 7.536957 7.279132
-10.467803 7.652317 7.185165
-10.632465 7.719931 7.124860
-10.798972 7.782809 7.064503
-10.967166 7.841021 7.004144
-11.136895 7.894640 6.943830
-11.308015 7.943750 6.883604
-11.577811 8.011621 6.789790
-11.751878 8.049611 6.729962
-11.926877 8.083437 6.670347
-12.102706 8.113130 6.610976
-12.279233 8.138945 6.551864
-12.456359 8.161007 6.493030
-12.734062 8.188250 6.401705
-12.912337 8.201255 6.343641
-13.090925 8.210952 6.285895
-13.269764 8.217458 6.228472
-13.448796 8.220834 6.171383
-13.627967 8.221205 6.114630
173 NaN NaN
-2.300201 -1.485512 10.801023
-2.369854 -1.558330 10.801863
-2.447628 -1.622378 10.799799
-2.532190 -1.676974 10.794849
-2.622126 -1.721792 10.787106
-2.716070 -1.756781 10.776703
-2.812780 -1.782068 10.763786
-2.911148 -1.797861 10.748492
-3.010192 -1.804382 10.730940
-3.109010 -1.801817 10.711224
-3.206745 -1.790290 10.689418
-3.302527 -1.769856 10.665577
-3.395430 -1.740505 10.639746
-3.484428 -1.702200 10.611979
-3.568741 -1.655501 10.582466
-3.648326 -1.601901 10.551549
-3.723544 -1.542911 10.519509
-3.794995 -1.479878 10.486536
-3.863406 -1.413967 10.452741
-3.929571 -1.346185 10.418174
-3.993962 -1.277029 10.382982
-4.056406 -1.206217 10.347579
-4.116635 -1.133394 10.312425
-4.174357 -1.058230 10.278003
-4.229253 -0.980438 10.244823
-4.280997 -0.899811 10.213397
-4.329682 -0.816609 10.183842
-4.375882 -0.731475 10.155831
-4.420231 -0.644988 10.128995
-4.463385 -0.557655 10.102953
-4.506006 -0.469941 10.077316
-4.548693 -0.382243 10.051732
-4.591647 -0.294702 10.026059
-4.634929 -0.207371 10.000225
-4.678600 -0.120301 9.974162
-4.722718 -0.033547 9.947801
-4.767340 0.052836 9.921075
-4.812436 0.138863 9.893994
-4.857860 0.224638 9.866667
-4.903464 0.310277 9.839210
-4.949096 0.395896 9.811740
-4.994607 0.481612 9.784370
-5.039873 0.567521 9.757199
-5.084919 0.653602 9.730209
-5.129826 0.739795 9.703344
-5.174676 0.826038 9.676545
-5.219551 0.912271 9.649755
-5.264531 0.998434 9.622916
-5.309659 1.084495 9.595998
-5.354921 1.170463 9.569010
-5.400300 1.256352 9.541965
-5.445780 1.342173 9.514875
-5.491343 1.427939 9.487751
-5.536972 1.513664 9.460607
-5.582651 1.599362 9.433462
-5.628363 1.685050 9.406339
-5.674093 1.770742 9.379261
-5.719823 1.856454 9.352249
-5.765538 1.942203 9.325324
-5.811259 2.027968 9.298465
-5.857053 2.113689 9.271587
-5.902991 2.199300 9.244605
-5.949143 2.284736 9.217433
-5.995580 2.369928 9.189983
-6.042336 2.454843 9.162220
-6.089268 2.539630 9.134362
-6.136176 2.624497 9.106706
-6.182858 2.709651 9.079555
-6.229108 2.795292 9.053212
-6.274723 2.881603 9.027973
-6.319680 2.968583 9.003872
-6.364180 3.056030 8.980629
-6.408439 3.143747 8.957947
-6.452678 3.231541 8.935527
-6.497118 3.319224 8.913070
-6.541969 3.406615 8.890294
-6.587292 3.493660 8.867131
-6.633053 3.580393 8.843659
-6.679213 3.666851 8.819958
-6.725739 3.753072 8.796105
-6.772593 3.839094 8.772180
-6.819759 3.924940 8.748235
-6.867265 4.010589 8.724254
-6.915149 4.096008 8.700209
-6.963447 4.181168 8.676071
-7.012195 4.266037 8.651813
-7.061428 4.350583 8.627410
-7.111171 4.434786 8.602850
-7.161440 4.518629 8.578136
-7.212254 4.602098 8.553268
-7.263628 4.685178 8.528247
-7.315580 4.767851 8.503074
-7.368128 4.850100 8.477750
-7.421292 4.931903 8.452268
-7.475095 5.013237 8.426623
-7.529557 5.094076 8.400809
-7.584698 5.174397 8.374819
-7.640540 5.254174 8.348649
-7.697100 5.333383 8.322296
-7.754396 5.411997 8.295755
-7.812446 5.489991 8.269024
-7.871268 5.567339 8.242101
-7.930876 5.644013 8.214983
-7.991287 5.719986 8.187668
-8.052515 5.795230 8.160154
-8.114574 5.869715 8.132440
-8.177477 5.943413 8.104524
-8.241236 6.016293 8.076405
-8.305864 6.088325 8.048082
-8.371368 6.159479 8.019556
-8.437756 6.229726 7.990826
-8.505035 6.299036 7.961895
-8.573212 6.367379 7.932763
-8.642291 6.434723 7.903432
-8.712275 6.501038 7.873905
-8.783165 6.566297 7.844184
-8.854958 6.630473 7.814274
-8.927653 6.693536 7.784178
-9.001249 6.755459 7.753900
-9.075739 6.816213 7.723446
-9.151118 6.875775 7.692821
-9.227373 6.934123 7.662031
-9.304496 6.991234 7.631084
-9.382475 7.047086 7.599985
-9.461300 7.101656 7.568741
-9.540955 7.154926 7.537361
-9.621423 7.206883 7.505853
-9.702686 7.257513 7.474225
-9.784727 7.306801 7.442485
-9.867527 7.354734 7.410642
-9.951066 7.401301 7.378705
-10.035323 7.446498 7.346683
-10.120274 7.490321 7.314586
-10.205898 7.532765 7.282421
-10.292170 7.573827 7.250199
-10.379071 7.613505 7.217928
-10.466573 7.651801 7.185616
-10.554654 7.688722 7.153274
-10.643288 7.724272 7.120908
-10.732453 7.758458 7.088528
-10.822124 7.791285 7.056141
-10.912278 7.822763 7.023756
-11.002890 7.852904 6.991379
-11.093938 7.881721 6.959018
-11.185399 7.909227 6.926680
-11.277251 7.935435 6.894371
-11.369471 7.960359 6.862097
-11.462039 7.984016 6.829864
-11.554933 8.006424 6.797678
-11.648134 8.027599 6.765543
-11.741623 8.047559 6.733464
-11.835379 8.066321 6.701447
-11.929386 8.083906 6.669494
-12.023625 8.100332 6.637610
-12.118081 8.115618 6.605798
-12.212736 8.129784 6.574062
-12.307575 8.142849 6.542404
-12.402584 8.154834 6.510826
-12.497748 8.165758 6.479332
-12.593055 8.175640 6.447923
-12.688490 8.184501 6.416601
-12.784042 8.192361 6.385368
-12.879700 8.199239 6.354225
-12.975451 8.205154 6.323174
-13.071286 8.210123 6.292215
-13.167195 8.214167 6.261350
-13.263168 8.217303 6.230579
-13.359196 8.219550 6.199903
-13.455271 8.220927 6.169322
-13.551385 8.221451 6.138836
-13.647530 8.221143 6.108446
-13.743699 8.220019 6.078152
-13.839886 8.218098 6.047953
-1.034957 -1.067175 15.127774
-0.889174 -0.841721 15.050633
-0.776373 -0.596334 14.980268
-0.721538 -0.329182 14.923812
-0.754239 -0.055499 14.892322
-0.883336 0.190483 14.893576
-1.077761 0.388092 14.921474
-1.305028 0.544196 14.965354
-1.033853 -1.065605 15.127211
-0.890126 -0.843397 15.051167
-0.888222 -0.840045 15.050098
-0.776949 -0.598196 14.980719
-0.775797 -0.594473 14.979817
-0.721700 -0.331145 14.924155
-0.721376 -0.327218 14.923468
-0.753566 -0.057380 14.892406
-0.754912 -0.053617 14.892238
-0.882187 0.188849 14.893481
-0.884486 0.192117 14.893671
-1.076211 0.386858 14.921201
-1.079311 0.389326 14.921748
-1.303347 0.543168 14.965011
-1.027629 -1.056747 15.124033
-0.895497 -0.852851 15.054182
-0.882852 -0.830591 15.047084
-0.780196 -0.608698 14.983262
-0.772550 -0.583971 14.977274
-0.722616 -0.342223 14.926094
-0.720460 -0.316141 14.921530
-0.749772 -0.067996 14.892878
-0.758706 -0.043001 14.891765
-0.875702 0.179631 14.892946
-0.890970 0.201335 14.894206
-1.067468 0.379896 14.919656
-1.088054 0.396289 14.923292
-1.293864 0.537368 14.963072
-1.011504 -1.033797 15.115799
-0.990047 -1.003259 15.104843
-0.968988 -0.972428 15.093961
-0.948867 -0.940909 15.083253
-0.928745 -0.909389 15.072546
-0.909410 -0.877344 15.061992
-0.868939 -0.806098 15.039273
-0.852120 -0.772502 15.029232
-0.835562 -0.738751 15.019245
-0.819144 -0.704929 15.009289
-0.804987 -0.669956 14.999829
-0.790829 -0.634983 14.990369
-0.764136 -0.556762 14.970686
-0.752940 -0.520557 14.961919
-0.744035 -0.483638 14.953724
-0.736481 -0.446299 14.945865
-0.728926 -0.408960 14.938007
-0.724987 -0.370923 14.931115
-0.719117 -0.287379 14.916804
-0.721072 -0.248882 14.911590
-0.723027 -0.210385 14.906377
-0.727182 -0.172083 14.901845
-0.734703 -0.134080 14.898356
-0.742225 -0.096076 14.894867
-0.768536 -0.015499 14.890541
-0.781617 0.021097 14.888912
-0.799594 0.055576 14.889052
-0.817726 0.089989 14.889249
-0.836547 0.123971 14.889714
-0.858902 0.155750 14.891559
-0.909577 0.223726 14.896352
-0.935262 0.252757 14.899598
-0.960947 0.281787 14.902843
-0.988501 0.308884 14.906934
-1.016727 0.335284 14.911328
-1.044954 0.361684 14.915723
-1.110707 0.414326 14.927293
-1.141292 0.437677 14.932846
-1.172881 0.459546 14.938919
-1.204470 0.481415 14.944992
-1.236607 0.502351 14.951369
-1.269297 0.522344 14.958051
21 NaN NaN
-1.035232 -1.067568 15.127915
-0.974972 -0.981803 15.097146
-0.918464 -0.893284 15.067074
-0.866472 -0.801756 15.037889
-0.819975 -0.706980 15.009843
-0.780221 -0.608779 14.983282
-0.748788 -0.507129 14.958667
-0.727581 -0.402310 14.936608
-0.718724 -0.295125 14.917853
-0.724210 -0.187097 14.903223
-0.745315 -0.080466 14.893433
-0.782017 0.022217 14.888862
-0.832899 0.118786 14.889413
-0.895645 0.207980 14.894592
-0.967750 0.289475 14.903703
-1.047001 0.363598 14.916042
-1.131640 0.430995 14.930990
-1.220347 0.492407 14.948045
-1.312151 0.548552 14.966810
-1.406341 0.600075 14.986979
-1.502393 0.647538 15.008310
-1.782846 -1.428945 11.831306
-1.613203 -1.322695 11.798321
-1.447775 -1.209901 11.765726
-1.287929 -1.089209 11.733684
-1.135768 -0.958809 11.702459
-0.994667 -0.816310 11.672495
-0.870286 -0.658702 11.644588
-0.773382 -0.482447 11.620348
-0.721015 -0.288002 11.602616
-0.728903 -0.086754 11.594519
-0.797298 0.103008 11.596954
-0.910115 0.270578 11.607763
-1.050330 0.415971 11.624134
-1.207019 0.543167 11.644076
-1.374293 0.655691 11.666451
-1.548231 0.757253 11.690440
-1.781165 -1.427912 11.830980
-1.614865 -1.323760 11.798645
-1.611542 -1.321631 11.797996
-1.449387 -1.211041 11.766046
-1.446163 -1.208762 11.765406
-1.289474 -1.090440 11.733997
-1.286385 -1.087977 11.733372
-1.137214 -0.960157 11.702761
-1.134322 -0.957460 11.702157
-0.995962 -0.817808 11.672779
-0.993373 -0.814813 11.672211
-0.871332 -0.660388 11.644839
-0.869239 -0.657017 11.644336
-0.774245 -0.484236 11.620574
-0.772518 -0.480657 11.620122
-0.721348 -0.289969 11.602763
-0.720681 -0.286036 11.602469
-0.728548 -0.088722 11.594552
-0.729258 -0.084786 11.594486
-0.796356 0.101245 11.596881
-0.798239 0.104771 11.597027
-0.908812 0.269067 11.607618
-0.911417 0.272089 11.607907
-1.048822 0.414671 11.623945
-1.051838 0.417272 11.624322
-1.205443 0.541953 11.643872
-1.208628 0.544335 11.644287
-1.372621 0.654618 11.666225
-1.375966 0.656764 11.666678
-1.546495 0.756289 11.690198
-1.773934 -1.423472 11.829578
-1.622011 -1.328339 11.800039
-1.604396 -1.317052 11.796602
-1.456322 -1.215940 11.767420
-1.439228 -1.203863 11.764032
-1.296116 -1.095736 11.735342
-1.279743 -1.082681 11.732027
-1.143433 -0.965955 11.704059
-1.128104 -0.951662 11.700859
-1.001529 -0.824250 11.673999
-0.987806 -0.808371 11.670991
-0.876015 -0.667508 11.645945
-0.864740 -0.649767 11.643254
-0.777958 -0.491933 11.621547
-0.768991 -0.472882 11.619176
-0.722783 -0.298426 11.603395
-0.719247 -0.277579 11.601837
-0.727019 -0.097184 11.594695
-0.730787 -0.076323 11.594343
-0.792308 0.093663 11.596566
-0.802287 0.112353 11.597341
-0.903211 0.262570 11.606997
-0.917018 0.278586 11.608529
-1.042337 0.409079 11.623135
-1.058322 0.422863 11.625132
-1.198665 0.536731 11.642996
-1.215637 0.549233 11.645216
-1.365428 0.650003 11.665253
-1.383158 0.661378 11.667650
-1.539031 0.752144 11.689159
-1.756231 -1.412599 11.826146
-1.732763 -1.398188 11.821596
-1.709296 -1.383776 11.817047
-1.685888 -1.369269 11.812502
-1.662697 -1.354409 11.807978
-1.639506 -1.339549 11.803453
-1.587072 -1.305575 11.793205
-1.564199 -1.290222 11.788709
-1.541326 -1.274868 11.784214
-1.518453 -1.259515 11.779718
-1.495802 -1.243834 11.775244
-1.473298 -1.227935 11.770784
-1.422252 -1.191868 11.760668
-1.400150 -1.175405 11.756248
-1.378080 -1.158897 11.751831
-1.356010 -1.142389 11.747414
-1.333939 -1.125882 11.742998
-1.312377 -1.108703 11.738633
-1.263481 -1.069714 11.728735
-1.242121 -1.052286 11.724393
-1.221184 -1.034333 11.720096
-1.200248 -1.016380 11.715799
-1.179311 -0.998427 11.711502
-1.158657 -0.980151 11.707237
-1.112879 -0.937467 11.697681
-1.092698 -0.918650 11.693469
-1.073174 -0.899145 11.689332
-1.053929 -0.879349 11.685229
-1.034684 -0.859553 11.681125
-1.015438 -0.839757 11.677021
-0.974177 -0.792600 11.668003
-0.956110 -0.771695 11.664042
-0.938181 -0.750677 11.660099
-0.921623 -0.728525 11.656329
-0.905065 -0.706372 11.652559
-0.888507 -0.684220 11.648789
-0.853725 -0.632017 11.640606
-0.839123 -0.608489 11.637095
-0.824522 -0.584961 11.633584
-0.811147 -0.560735 11.630243
-0.799098 -0.535756 11.627086
-0.787048 -0.510777 11.623929
-0.762387 -0.452989 11.617156
-0.753633 -0.426621 11.614478
-0.744879 -0.400252 11.611801
-0.736125 -0.373884 11.609123
-0.730951 -0.346575 11.606993
-0.726295 -0.319130 11.604942
-0.716707 -0.256785 11.600446
-0.716780 -0.228902 11.599156
-0.716852 -0.201020 11.597865
-0.716924 -0.173137 11.596575
-0.718318 -0.145368 11.595508
-0.723278 -0.117903 11.595045
-0.734528 -0.055604 11.593993
-0.742188 -0.028862 11.594010
-0.751623 -0.002595 11.594341
-0.761058 0.023673 11.594673
-0.770493 0.049940 11.595005
-0.782398 0.075100 11.595796
-0.812198 0.130916 11.598112
-0.825335 0.155522 11.599132
-0.841339 0.178336 11.600710
-0.857349 0.201146 11.602290
-0.873359 0.223956 11.603869
-0.889498 0.246663 11.605474
-0.930732 0.294493 11.610052
-0.948909 0.315579 11.612069
-0.967721 0.336057 11.614220
-0.987528 0.355582 11.616580
-1.007336 0.375106 11.618940
-1.027143 0.394630 11.621300
-1.074198 0.436554 11.627115
-1.095243 0.454701 11.629744
-1.116287 0.472848 11.632372
-1.138073 0.490060 11.635167
-1.160071 0.507005 11.638010
-1.182070 0.523949 11.640852
-1.232796 0.561224 11.647490
-1.255542 0.577118 11.650505
-1.278288 0.593013 11.653520
-1.301133 0.608755 11.656559
-1.324476 0.623731 11.659715
-1.347818 0.638706 11.662871
-1.401006 0.672276 11.670089
-1.424833 0.686443 11.673363
-1.448659 0.700610 11.676638
-1.472486 0.714776 11.679912
-1.496532 0.728547 11.683241
-1.520756 0.741997 11.686614
29 NaN NaN
-1.783267 -1.429203 11.831388
-1.690795 -1.372414 11.813460
-1.599412 -1.313859 11.795630
-1.509283 -1.253359 11.777916
-1.420609 -1.190707 11.760342
-1.333644 -1.125660 11.742938
-1.248707 -1.057934 11.725745
-1.166211 -0.987194 11.708813
-1.086693 -0.913051 11.692215
-1.010865 -0.835053 11.676046
-0.939685 -0.752690 11.660441
-0.874455 -0.665420 11.645590
-0.816939 -0.572741 11.631760
-0.769484 -0.474367 11.619327
-0.735018 -0.370548 11.608784
-0.716693 -0.262523 11.600712
-0.716977 -0.152796 11.595634
-0.736495 -0.044712 11.593810
-0.773635 0.058686 11.595115
-0.825363 0.155575 11.599135
-0.888418 0.245411 11.605354
-0.960024 0.328471 11.613303
-1.038059 0.405390 11.622601
-1.120973 0.476889 11.632958
-1.207648 0.543651 11.644157
-1.297273 0.606279 11.656037
-1.389250 0.665286 11.668474
-1.483135 0.721108 11.681375
-1.578588 0.774109 11.694667
-1.587734 -1.467949 9.688976
-1.427082 -1.338656 9.720951
-1.273355 -1.201583 9.754458
-1.128812 -1.055305 9.789755
-0.996845 -0.898117 9.827133
-0.882625 -0.728216 9.866863
-0.793940 -0.544391 9.909025
-0.741411 -0.347824 9.953110
-0.735757 -0.144740 9.997509
-0.781007 0.053772 10.039709
-0.870735 0.237689 10.077678
-0.993213 0.402956 10.110809
-1.137915 0.550306 10.139510
-1.297524 0.682250 10.164500
-1.467359 0.801417 10.186464
-1.586180 -1.466727 9.689279
-1.428606 -1.339913 9.720641
-1.425557 -1.337399 9.721261
-1.274806 -1.202920 9.754133
-1.271903 -1.200247 9.754784
-1.130166 -1.056736 9.789411
-1.127458 -1.053874 9.790099
-0.998063 -0.899661 9.826768
-0.995627 -0.896573 9.827498
-0.883648 -0.729890 9.866474
-0.881603 -0.726542 9.867252
-0.794680 -0.546203 9.908612
-0.793201 -0.542579 9.909437
-0.741751 -0.349748 9.952683
-0.741070 -0.345900 9.953538
-0.735605 -0.146689 9.997088
-0.735909 -0.142791 9.997930
-0.780366 0.051918 10.039321
-0.781649 0.055626 10.040098
-0.869707 0.236008 10.077336
-0.871763 0.239370 10.078021
-0.991919 0.401460 10.110514
-0.994508 0.404452 10.111105
-1.136445 0.548974 10.139254
-1.139386 0.551637 10.139765
-1.295936 0.681055 10.164277
-1.299113 0.683444 10.164723
-1.465689 0.800335 10.186268
-1.579338 -1.461348 9.690613
-1.435317 -1.345446 9.719277
-1.418957 -1.331741 9.722650
-1.281198 -1.208803 9.752700
-1.265552 -1.194322 9.756225
-1.136127 -1.063037 9.787897
-1.121497 -1.047573 9.791613
-1.003424 -0.906457 9.825160
-0.990265 -0.889777 9.829106
-0.888151 -0.737260 9.864761
-0.877100 -0.719172 9.868965
-0.797934 -0.554180 9.906797
-0.789947 -0.534602 9.911253
-0.743252 -0.358217 9.950801
-0.739570 -0.337431 9.955419
-0.734934 -0.155270 9.995233
-0.736580 -0.134210 9.999785
-0.777542 0.043756 10.037608
-0.784472 0.063787 10.041811
-0.865182 0.228607 10.075830
-0.876287 0.246771 10.079527
-0.986223 0.394875 10.109213
-1.000204 0.411038 10.112406
-1.129972 0.543113 10.138129
-1.145858 0.557499 10.140890
-1.288943 0.675797 10.163296
-1.306106 0.688702 10.165704
-1.458335 0.795571 10.185403
-1.562494 -1.448104 9.693898
-1.540156 -1.430542 9.698253
-1.517819 -1.412980 9.702608
-1.495666 -1.395200 9.707007
-1.473754 -1.377134 9.711462
-1.451841 -1.359069 9.715917
-1.402799 -1.317706 9.726091
-1.381372 -1.299093 9.730654
-1.359945 -1.280480 9.735217
-1.338670 -1.261707 9.739811
-1.317802 -1.242498 9.744491
-1.296934 -1.223288 9.749171
-1.250305 -1.179346 9.759850
-1.230085 -1.159486 9.764656
-1.209866 -1.139626 9.769462
-1.189726 -1.119691 9.774283
-1.170264 -1.099120 9.779226
-1.150802 -1.078549 9.784170
-1.107404 -1.031555 9.795437
-1.088836 -1.010209 9.800529
-1.070268 -0.988863 9.805620
-1.051700 -0.967516 9.810711
-1.034131 -0.945378 9.815951
-1.016625 -0.923189 9.821201
-0.977684 -0.872602 9.833147
-0.961451 -0.849505 9.838565
-0.945217 -0.826408 9.843982
-0.928984 -0.803311 9.849400
-0.913939 -0.779466 9.854953
-0.899237 -0.755404 9.860545
-0.866612 -0.700705 9.873238
-0.853761 -0.675646 9.879003
-0.840910 -0.650587 9.884769
-0.828058 -0.625528 9.890534
-0.816570 -0.599865 9.896399
-0.805945 -0.573820 9.902327
-0.782361 -0.514817 9.915744
-0.774385 -0.487873 9.921806
-0.766410 -0.460928 9.927867
-0.758435 -0.433984 9.933928
-0.751843 -0.406721 9.940026
-0.746945 -0.379069 9.946169
-0.735876 -0.316579 9.960051
-0.734415 -0.288535 9.966198
-0.732957 -0.260492 9.972345
-0.731499 -0.232448 9.978492
-0.731094 -0.204413 9.984613
-0.733283 -0.176397 9.990667
-0.738231 -0.113083 10.004351
-0.743467 -0.085472 10.010245
-0.749290 -0.057939 10.016109
-0.755112 -0.030406 10.021973
-0.761371 -0.002987 10.027802
-0.770590 0.023661 10.033392
-0.791424 0.083882 10.046027
-0.802681 0.109738 10.051397
-0.814904 0.135218 10.056662
-0.827128 0.160698 10.061927
-0.839352 0.186177 10.067192
-0.854041 0.210385 10.072121
-0.887428 0.264993 10.083236
-0.903289 0.288460 10.087976
-0.920170 0.311274 10.092550
-0.937051 0.334088 10.097124
-0.953933 0.356901 10.101698
-0.972196 0.378660 10.106010
-1.014231 0.427253 10.115609
-1.033323 0.448321 10.119750
-1.053319 0.468593 10.123696
-1.073315 0.488864 10.127643
-1.093312 0.509136 10.131589
-1.114036 0.528681 10.135360
-1.161794 0.571931 10.143659
-1.183103 0.590874 10.147285
-1.205167 0.608980 10.150710
-1.227231 0.627085 10.154136
-1.249295 0.645190 10.157561
-1.271725 0.662850 10.160881
-1.323324 0.701649 10.168119
-1.346171 0.718798 10.171318
-1.369644 0.735119 10.174321
-1.393117 0.751440 10.177324
-1.416589 0.767761 10.180327
-1.440229 0.783843 10.183274
29 NaN NaN
-1.588122 -1.468254 9.688901
-1.505194 -1.403055 9.705070
-1.423844 -1.335987 9.721609
-1.344298 -1.266888 9.738549
-1.266828 -1.195575 9.755922
-1.191765 -1.121846 9.773765
-1.119516 -1.045479 9.792117
-1.050586 -0.966236 9.811017
-0.985602 -0.883866 9.830505
-0.925341 -0.798129 9.850616
-0.870772 -0.708815 9.871372
-0.823072 -0.615805 9.892771
-0.783642 -0.519145 9.914771
-0.754046 -0.419155 9.937264
-0.735872 -0.316553 9.960057
-0.730462 -0.212505 9.982864
-0.738584 -0.108565 10.005327
-0.760186 -0.006413 10.027083
-0.794392 0.092462 10.047827
-0.839752 0.187012 10.067364
-0.894580 0.276691 10.085617
-0.957236 0.361365 10.102593
-1.026276 0.441178 10.118359
-1.100503 0.516425 10.133008
-1.178952 0.587469 10.146641
-1.260860 0.654680 10.159356
-1.345622 0.718417 10.171247
-1.432762 0.779007 10.182396
-1.521899 0.836745 10.192877
-1.181405 -1.439752 8.432844
-1.024354 -1.178885 8.426686
-0.897749 -0.902036 8.426635
-0.814447 -0.609592 8.434742
-0.790669 -0.307226 8.453212
-0.839557 -0.008983 8.483136
-0.960563 0.266938 8.523082
-1.139156 0.508737 8.569826
-1.356082 0.716213 8.620240
-1.180320 -1.438073 8.432792
-1.025321 -1.180635 8.426714
-1.023386 -1.177135 8.426659
-0.898474 -0.903899 8.426615
-0.897024 -0.900172 8.426656
-0.814821 -0.611555 8.434658
-0.814072 -0.607629 8.434826
-0.790571 -0.309217 8.453050
-0.790767 -0.305235 8.453375
-0.838935 -0.010869 8.482897
-0.840179 -0.007098 8.483376
-0.959499 0.265271 8.522786
-0.961627 0.268605 8.523377
-1.137875 0.507235 8.569508
-1.140437 0.510240 8.570145
-1.354579 0.714938 8.619903
-1.173718 -1.427862 8.432477
-1.031206 -1.191280 8.426880
-1.017502 -1.166490 8.426493
-0.902885 -0.915235 8.426492
-0.892613 -0.888837 8.426779
-0.817097 -0.623493 8.434145
-0.811797 -0.595691 8.435339
-0.789973 -0.321325 8.452059
-0.791365 -0.293126 8.454366
-0.835153 -0.022337 8.481438
-0.843961 0.004371 8.484835
-0.953678 0.254736 8.521067
-0.968101 0.278746 8.525173
-1.130084 0.498096 8.567573
-1.148279 0.519331 8.572084
-1.345434 0.707185 8.617851
-1.156394 -1.401070 8.431652
-1.133324 -1.365389 8.430553
-1.110927 -1.329285 8.429593
-1.089036 -1.292862 8.428740
-1.067206 -1.256404 8.427898
-1.046645 -1.219209 8.427317
-1.003100 -1.138012 8.426264
-0.984044 -1.100021 8.425985
-0.965268 -1.061897 8.425761
-0.947919 -1.023095 8.425818
-0.930570 -0.984293 8.425875
-0.914458 -0.944976 8.426170
-0.881660 -0.858875 8.427218
-0.868444 -0.818487 8.428061
-0.855228 -0.778099 8.428903
-0.843891 -0.737168 8.430090
-0.833156 -0.696063 8.431387
-0.823068 -0.654816 8.432799
-0.805825 -0.564368 8.436685
-0.800577 -0.522263 8.438944
-0.795710 -0.480103 8.441268
-0.792027 -0.437866 8.443790
-0.790526 -0.395487 8.446675
-0.789025 -0.353108 8.449560
-0.792934 -0.261356 8.456965
-0.796778 -0.219233 8.460696
-0.802593 -0.177323 8.464730
-0.808409 -0.135413 8.468765
-0.817774 -0.094214 8.473321
-0.827339 -0.053055 8.477906
-0.853884 0.034462 8.488661
-0.867327 0.074446 8.493788
-0.883983 0.113154 8.499340
-0.900639 0.151862 8.504892
-0.919001 0.189718 8.510657
-0.938806 0.226852 8.516603
-0.985086 0.305352 8.529885
-1.007705 0.340786 8.536160
-1.031955 0.375061 8.542614
-1.057043 0.408741 8.549159
-1.082421 0.442183 8.555734
-1.109643 0.474117 8.562496
-1.170096 0.542036 8.577290
-1.199151 0.572273 8.584224
-1.228604 0.602099 8.591191
-1.259224 0.630718 8.598258
-1.289844 0.659337 8.605324
-1.321438 0.686842 8.612467
25 NaN NaN
-1.181677 -1.440172 8.432856
-1.123422 -1.350074 8.430081
-1.068145 -1.258103 8.427925
-1.016227 -1.164184 8.426457
-0.968111 -1.068254 8.425752
-0.924304 -0.970281 8.425895
-0.885390 -0.870272 8.426980
-0.852021 -0.768298 8.429108
-0.824917 -0.664517 8.432382
-0.804840 -0.559201 8.436907
-0.792555 -0.452764 8.442775
-0.788765 -0.345778 8.450059
-0.794039 -0.238968 8.458796
-0.808720 -0.133172 8.468980
-0.832866 -0.029273 8.480556
-0.866227 0.071889 8.493421
-0.908274 0.169606 8.507437
-0.958274 0.263352 8.522447
-1.015380 0.352808 8.538290
-1.078719 0.437841 8.554814
-1.147451 0.518469 8.571887
-1.220811 0.594815 8.589392
-1.298125 0.667076 8.607236
-1.378813 0.735485 8.625341
-1.462382 0.800288 8.643646
-1.092681 -1.415600 7.556009
-0.970941 -1.203462 7.536078
-0.867717 -0.981473 7.520135
-0.789533 -0.749264 7.509516
-0.745250 -0.508153 7.505991
-0.747725 -0.263262 7.512059
-0.802693 -0.025335 7.528642
-0.908769 0.193694 7.555186
-1.056237 0.386388 7.589546
-1.233840 0.550748 7.629391
-1.430352 0.691100 7.672533
-1.091651 -1.413895 7.555838
-0.971850 -1.205237 7.536222
-0.970032 -1.201686 7.535933
-0.868467 -0.983324 7.520246
-0.866967 -0.979622 7.520025
-0.790072 -0.751189 7.509582
-0.788993 -0.747340 7.509450
-0.745514 -0.510135 7.506000
-0.745060 -0.506163 7.505998
-0.747450 -0.265241 7.511959
-0.748000 -0.261284 7.512160
-0.802024 -0.027212 7.528463
-0.803361 -0.023459 7.528820
-0.907750 0.191990 7.554940
-0.909788 0.195397 7.555431
-1.054948 0.384888 7.589250
-1.057526 0.387888 7.589843
-1.232288 0.549534 7.629047
-1.235392 0.551962 7.629734
-1.428692 0.690045 7.672172
-1.086450 -1.405290 7.554976
-0.976438 -1.214196 7.536951
-0.965444 -1.192728 7.535204
-0.872252 -0.992662 7.520803
-0.863181 -0.970284 7.519467
-0.792796 -0.760900 7.509915
-0.786269 -0.737629 7.509117
-0.746845 -0.520138 7.506043
-0.744561 -0.496085 7.506125
-0.746063 -0.275223 7.511450
-0.749387 -0.251301 7.512669
-0.798652 -0.036680 7.527562
-0.806733 -0.013990 7.529721
-0.902609 0.183396 7.553699
-0.914930 0.203991 7.556672
-1.048442 0.377319 7.587756
-1.064535 0.394971 7.591429
-1.224457 0.543410 7.627316
-1.243224 0.558086 7.631465
-1.420314 0.684724 7.670348
-1.073255 -1.383462 7.552789
-1.055723 -1.354456 7.549884
-1.038191 -1.325450 7.546979
-1.021539 -1.295915 7.544264
-1.004974 -1.266326 7.541569
-0.988409 -1.236738 7.538873
-0.953807 -1.170001 7.533354
-0.938343 -1.139803 7.530897
-0.923761 -1.109160 7.528628
-0.909557 -1.078329 7.526441
-0.895352 -1.047497 7.524254
-0.881854 -1.016350 7.522217
-0.853580 -0.946596 7.518053
-0.841639 -0.914802 7.516348
-0.830544 -0.882682 7.514822
-0.819448 -0.850562 7.513296
-0.808888 -0.818270 7.511883
-0.799706 -0.785535 7.510760
-0.779982 -0.712837 7.508402
-0.772995 -0.679553 7.507738
-0.766008 -0.646268 7.507073
-0.759201 -0.612952 7.506446
-0.754712 -0.579233 7.506300
-0.750223 -0.545514 7.506154
-0.743292 -0.470519 7.506449
-0.741607 -0.436547 7.506878
-0.739922 -0.402574 7.507307
-0.740897 -0.368602 7.508277
-0.742291 -0.334631 7.509333
-0.743684 -0.300659 7.510388
-0.752906 -0.225978 7.513960
-0.757582 -0.192327 7.515675
-0.764474 -0.159128 7.517831
-0.772522 -0.126163 7.520216
-0.780570 -0.093198 7.522602
-0.790098 -0.060700 7.525277
-0.815288 0.010029 7.532006
-0.828066 0.041333 7.535315
-0.842563 0.071890 7.538957
-0.857060 0.102447 7.542599
-0.872235 0.132624 7.546370
-0.889566 0.161594 7.550552
-0.928577 0.225376 7.559933
-0.948389 0.252635 7.564580
-0.968201 0.279893 7.569228
-0.988081 0.307096 7.573888
-1.010010 0.332608 7.578926
-1.031939 0.358120 7.583964
-1.082375 0.412883 7.595463
-1.106080 0.436683 7.600823
-1.129785 0.460484 7.606183
-1.154705 0.482941 7.611760
-1.179884 0.505112 7.617383
-1.205064 0.527282 7.623007
-1.263090 0.573623 7.635857
-1.289489 0.594267 7.641694
-1.316507 0.614043 7.647636
-1.343913 0.633277 7.653645
-1.371319 0.652511 7.659654
-1.399062 0.671223 7.665720
24 NaN NaN
-1.092939 -1.416026 7.556051
-1.036615 -1.322843 7.546717
-0.983398 -1.227788 7.538058
-0.933719 -1.130774 7.530162
-0.888087 -1.031728 7.523135
-0.847100 -0.930610 7.517099
-0.811457 -0.827431 7.512197
-0.781964 -0.722280 7.508590
-0.759522 -0.615367 7.506457
-0.745105 -0.507065 7.505987
-0.739693 -0.397957 7.507366
-0.744168 -0.288856 7.510755
-0.759185 -0.180793 7.516263
-0.785028 -0.074933 7.523923
-0.821533 0.027563 7.533674
-0.868089 0.125693 7.545369
-0.923749 0.218733 7.558800
-0.987380 0.306281 7.573727
-1.057816 0.388225 7.589909
-1.133959 0.464675 7.607127
-1.214842 0.535891 7.625190
-1.299643 0.602208 7.643939
-1.387683 0.663996 7.663242
-1.478405 0.721624 7.682997
-1.146751 -1.375581 6.234296
-1.065378 -1.258873 6.263926
-0.989340 -1.138921 6.294705
-0.919598 -1.015519 6.326733
-0.859048 -0.887791 6.360383
-0.808014 -0.756381 6.395486
-0.768300 -0.621509 6.432056
-0.744904 -0.483356 6.470258
-0.738022 -0.343774 6.509572
-0.749298 -0.204649 6.549536
-0.783158 -0.069240 6.589414
-0.836063 0.060166 6.628404
-0.905883 0.181819 6.665920
-0.992250 0.293117 6.701206
-1.090163 0.395146 6.734358
-1.196988 0.488569 6.765449
-1.311764 0.572868 6.794292
-1.431959 0.649922 6.821312
-1.145618 -1.373983 6.234701
-1.066456 -1.260505 6.263509
-1.064300 -1.257240 6.264343
-0.990354 -1.140590 6.294275
-0.988326 -1.137252 6.295135
-0.920539 -1.017227 6.326289
-0.918700 -1.013791 6.327185
-0.859806 -0.889580 6.359908
-0.858290 -0.886002 6.360858
-0.808658 -0.758210 6.394994
-0.807370 -0.754553 6.395977
-0.768811 -0.623375 6.431549
-0.767788 -0.619643 6.432564
-0.745091 -0.485273 6.469721
-0.744718 -0.481438 6.470794
-0.738017 -0.345698 6.509026
-0.738027 -0.341850 6.510119
-0.749087 -0.206560 6.548985
-0.749510 -0.202738 6.550087
-0.782523 -0.071057 6.588871
-0.783793 -0.067423 6.589956
-0.835230 0.058427 6.627875
-0.836896 0.061906 6.628934
-0.904871 0.180171 6.665409
-0.906894 0.183467 6.666431
-0.990953 0.291668 6.700740
-0.993547 0.294566 6.701673
-1.088757 0.393795 6.733914
-1.091569 0.396497 6.734802
-1.195492 0.487311 6.765028
-1.198484 0.489827 6.765870
-1.310133 0.571775 6.793912
-1.313395 0.573961 6.794672
-1.430278 0.648901 6.820950
-1.141884 -1.368723 6.236033
-1.070006 -1.265880 6.262136
-1.060749 -1.251865 6.265716
-0.993695 -1.146088 6.292858
-0.984985 -1.131755 6.296552
-0.923639 -1.022852 6.324825
-0.915880 -1.008034 6.328698
-0.862302 -0.895471 6.358343
-0.855793 -0.880111 6.362423
-0.810778 -0.764233 6.393376
-0.805250 -0.748530 6.397595
-0.770496 -0.629519 6.429877
-0.766573 -0.613403 6.434282
-0.745705 -0.491589 6.467955
-0.744104 -0.475122 6.472560
-0.737999 -0.352034 6.507227
-0.738045 -0.335513 6.511918
-0.748390 -0.212853 6.547169
-0.750721 -0.196530 6.551901
-0.780431 -0.077042 6.587083
-0.785885 -0.061438 6.591744
-0.832487 0.052698 6.626131
-0.839639 0.067635 6.630677
-0.901541 0.174742 6.663725
-0.910496 0.188722 6.668076
-0.986681 0.286895 6.699202
-0.997819 0.299338 6.703211
-1.084125 0.389345 6.732453
-1.096201 0.400948 6.736263
-1.190564 0.483166 6.763640
-1.203490 0.493881 6.767236
-1.304760 0.568175 6.792660
-1.318768 0.577561 6.795924
-1.424739 0.645540 6.819759
-1.133426 -1.356808 6.239052
-1.122279 -1.341103 6.243031
-1.111131 -1.325398 6.247009
-1.099983 -1.309693 6.250988
-1.088836 -1.293988 6.254967
-1.078049 -1.278056 6.259025
-1.052707 -1.239689 6.268826
-1.042106 -1.223640 6.272926
-1.031506 -1.207591 6.277026
-1.021211 -1.191365 6.281189
-1.011236 -1.174952 6.285419
-1.001262 -1.158539 6.289649
-0.977418 -1.119303 6.299761
-0.967672 -1.102769 6.304035
-0.958419 -1.085975 6.308404
-0.949165 -1.069181 6.312773
-0.939912 -1.052387 6.317142
-0.930659 -1.035593 6.321511
-0.909492 -0.994993 6.332125
-0.901072 -0.977804 6.336641
-0.892652 -0.960615 6.341158
-0.884232 -0.943427 6.345675
-0.875812 -0.926238 6.350191
-0.867957 -0.908816 6.354799
-0.850139 -0.866767 6.365967
-0.842685 -0.849178 6.370639
-0.835232 -0.831589 6.375311
-0.828242 -0.813838 6.380048
-0.821912 -0.795856 6.384879
-0.815581 -0.777875 6.389711
-0.800447 -0.734888 6.401260
-0.794431 -0.716818 6.406130
-0.789401 -0.698473 6.411121
-0.784372 -0.680128 6.416111
-0.779342 -0.661783 6.421101
-0.774312 -0.643437 6.426091
-0.763892 -0.599253 6.438183
-0.760359 -0.580603 6.443324
-0.756826 -0.561953 6.448465
-0.753293 -0.543302 6.453606
-0.749760 -0.524652 6.458747
-0.747097 -0.505896 6.463955
-0.742712 -0.460816 6.476560
-0.740878 -0.441958 6.481832
-0.739044 -0.423101 6.487105
-0.737855 -0.404224 6.492411
-0.737908 -0.385305 6.497782
-0.737960 -0.366387 6.503153
-0.738084 -0.321160 6.515992
-0.738487 -0.302264 6.521372
-0.740568 -0.283475 6.526793
-0.742649 -0.264686 6.532214
-0.744730 -0.245897 6.537635
-0.746811 -0.227108 6.543056
-0.753890 -0.182541 6.556007
-0.758067 -0.164101 6.561418
-0.762244 -0.145662 6.566830
-0.766421 -0.127222 6.572242
-0.770598 -0.108783 6.577654
-0.775694 -0.090598 6.583033
-0.790622 -0.047882 6.595794
-0.796867 -0.030014 6.601132
-0.803112 -0.012147 6.606471
-0.809893 0.005511 6.611772
-0.818083 0.022616 6.616977
-0.826273 0.039721 6.622182
-0.845853 0.080612 6.634626
-0.854229 0.097621 6.639812
-0.864172 0.113828 6.644837
-0.874114 0.130034 6.649862
-0.884056 0.146241 6.654888
-0.893998 0.162447 6.659913
-0.919194 0.200281 6.671729
-0.930659 0.215516 6.676544
-0.942124 0.230751 6.681359
-0.953589 0.245987 6.686174
-0.965054 0.261222 6.690989
-0.977005 0.276086 6.695720
-1.007496 0.310148 6.706693
-1.020250 0.324396 6.711283
-1.033004 0.338644 6.715873
-1.045980 0.352693 6.720416
-1.059807 0.365979 6.724780
-1.073635 0.379265 6.729143
-1.106691 0.411027 6.739573
-1.120551 0.424280 6.743928
-1.135263 0.436654 6.748071
-1.149976 0.449029 6.752213
-1.164689 0.461403 6.756355
-1.179402 0.473778 6.760498
-1.215205 0.502626 6.770219
-1.230645 0.514153 6.774152
-1.246086 0.525680 6.778085
-1.261527 0.537206 6.782018
-1.276968 0.548733 6.785951
-1.292591 0.560022 6.789825
-1.330937 0.585714 6.798760
-1.346977 0.596461 6.802497
-1.363017 0.607208 6.806235
-1.379124 0.617859 6.809948
-1.395659 0.627894 6.813504
-1.412194 0.637928 6.817061
24 NaN NaN
-1.147035 -1.375980 6.234195
-1.085032 -1.288629 6.256324
-1.026074 -1.199367 6.279127
-0.970600 -1.108083 6.302652
-0.919136 -1.014680 6.326951
-0.872308 -0.919083 6.352072
-0.830857 -0.821264 6.378053
-0.795651 -0.721266 6.404920
-0.767680 -0.619249 6.432671
-0.748035 -0.515542 6.461258
-0.737838 -0.410693 6.490574
-0.738128 -0.305511 6.520435
-0.749697 -0.201052 6.550574
-0.772918 -0.098539 6.580660
-0.807635 0.000795 6.610337
-0.853169 0.095893 6.639276
-0.908448 0.186001 6.667216
-0.972198 0.270715 6.693990
-1.043120 0.349946 6.719514
-1.120015 0.423829 6.743777
-1.201836 0.492647 6.766814
-1.287710 0.556752 6.788688
-1.376920 0.616522 6.809474
-1.468885 0.672329 6.829254
-1.171989 -1.362532 5.793843
-1.068174 -1.230041 5.815089
-0.971020 -1.092739 5.837141
-0.883595 -0.949222 5.860238
-0.807790 -0.799469 5.884388
-0.748033 -0.642825 5.909714
-0.709546 -0.479973 5.936121
-0.697384 -0.313202 5.963253
-0.719264 -0.147619 5.990302
-0.773012 0.010818 6.016293
-0.859864 0.154281 6.039951
-0.968322 0.282698 6.061230
-1.094931 0.393941 6.079769
-1.232340 0.491928 6.096185
-1.378074 0.577521 6.110608
-1.170748 -1.360984 5.794092
-1.069366 -1.231627 5.814835
-1.066983 -1.228455 5.815344
-0.972085 -1.094411 5.836872
-0.969956 -1.091067 5.837410
-0.884579 -0.950941 5.859961
-0.882611 -0.947503 5.860515
-0.808562 -0.801291 5.884094
-0.807018 -0.797648 5.884682
-0.748666 -0.644697 5.909411
-0.747400 -0.640952 5.910017
-0.709816 -0.481929 5.935803
-0.709277 -0.478017 5.936439
-0.697426 -0.315176 5.962931
-0.697343 -0.311229 5.963574
-0.718790 -0.149536 5.989989
-0.719738 -0.145701 5.990616
-0.772282 0.008981 6.015991
-0.773743 0.012656 6.016594
-0.858702 0.152674 6.039686
-0.861026 0.155887 6.040217
-0.966869 0.281341 6.061004
-0.969774 0.284054 6.061455
-1.093378 0.392698 6.079562
-1.096485 0.395184 6.079977
-1.230645 0.490880 6.096009
-1.234035 0.492975 6.096361
-1.376329 0.576556 6.110445
-1.166130 -1.355226 5.795015
-1.073797 -1.237527 5.813888
-1.062552 -1.222556 5.816291
-0.976045 -1.100628 5.835873
-0.965996 -1.084850 5.838410
-0.888238 -0.957335 5.858931
-0.878952 -0.941109 5.861544
-0.811434 -0.808065 5.883000
-0.804146 -0.790874 5.885776
-0.751022 -0.651662 5.908284
-0.745044 -0.633987 5.911144
-0.710819 -0.489204 5.934621
-0.708273 -0.470742 5.937621
-0.697582 -0.322516 5.961736
-0.697187 -0.303888 5.964769
-0.717026 -0.156668 5.988821
-0.721502 -0.138570 5.991784
-0.769564 0.002149 6.014869
-0.777099 0.019193 6.017670
-0.854382 0.146700 6.038698
-0.865346 0.161861 6.041204
-0.961608 0.276163 6.060143
-0.975175 0.289100 6.062295
-1.087601 0.388076 6.078790
-1.102262 0.399806 6.080749
-1.224341 0.486986 6.095353
-1.240338 0.496869 6.097016
-1.369841 0.572968 6.109839
-1.155255 -1.341668 5.797188
-1.140881 -1.323746 5.800061
-1.126506 -1.305824 5.802934
-1.112132 -1.287902 5.805806
-1.098025 -1.269778 5.808713
-1.084232 -1.251417 5.811659
-1.052117 -1.208666 5.818519
-1.038366 -1.190275 5.821471
-1.025248 -1.171437 5.824497
-1.012131 -1.152600 5.827523
-0.999013 -1.133763 5.830549
-0.985895 -1.114925 5.833575
-0.956671 -1.070212 5.840765
-0.944345 -1.050861 5.843877
-0.932019 -1.031510 5.846989
-0.919693 -1.012159 5.850102
-0.908245 -0.992291 5.853301
-0.896855 -0.972390 5.856506
-0.870335 -0.926054 5.863969
-0.859547 -0.905838 5.867227
-0.849272 -0.885354 5.870531
-0.838996 -0.864871 5.873835
-0.828720 -0.844387 5.877138
-0.818445 -0.823904 5.880442
-0.797383 -0.774924 5.888353
-0.788444 -0.753839 5.891759
-0.779504 -0.732755 5.895165
-0.771236 -0.711422 5.898614
-0.763903 -0.689742 5.902122
-0.756570 -0.668063 5.905630
-0.739537 -0.617575 5.913800
-0.734130 -0.595352 5.917403
-0.728724 -0.573129 5.921006
-0.723318 -0.550906 5.924609
-0.717912 -0.528683 5.928212
-0.713182 -0.506335 5.931838
-0.705911 -0.453611 5.940404
-0.702788 -0.430966 5.944083
-0.699665 -0.408321 5.947762
-0.698918 -0.385494 5.951479
-0.698433 -0.362647 5.955200
-0.697949 -0.339800 5.958921
-0.698297 -0.286667 5.967579
-0.700735 -0.263943 5.971289
-0.703173 -0.241220 5.975000
-0.705610 -0.218496 5.978710
-0.708048 -0.195772 5.982420
-0.712873 -0.173460 5.986071
-0.725655 -0.121778 5.994534
-0.731144 -0.099580 5.998168
-0.737786 -0.077743 6.001748
-0.746245 -0.056476 6.005241
-0.754705 -0.035208 6.008734
-0.763164 -0.013940 6.012226
-0.785535 0.034339 6.020166
-0.796686 0.054360 6.023464
-0.807838 0.074380 6.026763
-0.818990 0.094401 6.030061
-0.830761 0.114037 6.033299
-0.844209 0.132633 6.036373
-0.875519 0.175928 6.043530
-0.888967 0.194524 6.046603
-0.904053 0.211833 6.049473
-0.919374 0.228958 6.052314
-0.934696 0.246083 6.055154
-0.950017 0.263208 6.057994
-0.987892 0.300980 6.064273
-1.004703 0.316685 6.066886
-1.021514 0.332389 6.069500
-1.038325 0.348094 6.072114
-1.056018 0.362806 6.074569
-1.073999 0.377193 6.076972
-1.115864 0.410689 6.082567
-1.134172 0.424651 6.084902
-1.153070 0.437843 6.087113
-1.171969 0.451036 6.089324
-1.190867 0.464228 6.091536
-1.209765 0.477420 6.093747
-1.255181 0.506040 6.098559
-1.274802 0.518162 6.100598
-1.294423 0.530284 6.102637
-1.314177 0.542184 6.104641
-1.334371 0.553352 6.106527
-1.354565 0.564520 6.108413
23 NaN NaN
-1.172300 -1.362919 5.793781
-1.104364 -1.278217 5.807359
-1.039176 -1.191438 5.821284
-0.977181 -1.102411 5.835586
-0.918929 -1.010959 5.850295
-0.865101 -0.916908 5.865442
-0.816542 -0.820110 5.881054
-0.774298 -0.720476 5.897148
-0.739650 -0.618039 5.913725
-0.714107 -0.513043 5.930748
-0.699354 -0.406068 5.948129
-0.697065 -0.298150 5.965704
-0.708579 -0.190827 5.983228
-0.734504 -0.085994 6.000393
-0.774457 0.014451 6.016889
-0.827130 0.109016 6.032469
-0.890656 0.196860 6.046990
-0.963043 0.277767 6.060409
-1.042475 0.351970 6.072759
-1.127442 0.419953 6.084114
-1.216749 0.482295 6.094564
-1.309473 0.539582 6.104202
-1.404908 0.592361 6.113114
-1.185939 -1.349491 5.352824
-1.098763 -1.232330 5.336732
-1.016849 -1.111299 5.321776
-0.941611 -0.985857 5.308257
-0.875824 -0.855036 5.296757
-0.820345 -0.719385 5.287445
-0.778903 -0.578697 5.281086
-0.755991 -0.433766 5.278592
-0.752957 -0.287103 5.280200
-0.774892 -0.142287 5.286899
-0.821539 -0.003750 5.298569
-0.888784 0.125678 5.314324
-0.975411 0.242519 5.333862
-1.075366 0.347753 5.355956
-1.184839 0.442689 5.379845
-1.302567 0.526779 5.405262
-1.184738 -1.347907 5.352602
-1.099911 -1.233954 5.336942
-1.097616 -1.230706 5.336521
-1.017934 -1.112967 5.321974
-1.015763 -1.109631 5.321579
-0.942538 -0.987621 5.308420
-0.940683 -0.984092 5.308094
-0.876650 -0.856852 5.296899
-0.874999 -0.853219 5.296616
-0.821048 -0.721253 5.287560
-0.819641 -0.717516 5.287329
-0.779288 -0.580659 5.281135
-0.778518 -0.576735 5.281037
-0.756174 -0.435757 5.278599
-0.755808 -0.431774 5.278585
-0.752913 -0.289103 5.280160
-0.753001 -0.285104 5.280239
-0.774354 -0.144208 5.286759
-0.775429 -0.140365 5.287038
-0.820765 -0.005585 5.298383
-0.822312 -0.001915 5.298756
-0.887800 0.123952 5.314096
-0.889767 0.127405 5.314552
-0.974104 0.241033 5.333572
-0.976718 0.244005 5.334153
-1.073942 0.346383 5.355644
-1.076789 0.349123 5.356269
-1.183323 0.441427 5.379515
-1.186354 0.443952 5.380175
-1.300919 0.525702 5.404908
-1.180750 -1.342646 5.351865
-1.103723 -1.239350 5.337642
-1.093804 -1.225310 5.335822
-1.021541 -1.118508 5.322629
-1.012157 -1.104091 5.320924
-0.945666 -0.993454 5.308973
-0.937603 -0.978232 5.307551
-0.879391 -0.862884 5.297369
-0.872258 -0.847187 5.296146
-0.823384 -0.727460 5.287945
-0.817305 -0.711309 5.286944
-0.780566 -0.587175 5.281298
-0.777240 -0.570218 5.280874
-0.756783 -0.442372 5.278624
-0.755199 -0.425159 5.278560
-0.752766 -0.295742 5.280029
-0.753148 -0.278464 5.280370
-0.772567 -0.150589 5.286296
-0.777216 -0.133984 5.287501
-0.818195 -0.011679 5.297763
-0.824882 0.004179 5.299375
-0.884532 0.118218 5.313339
-0.893035 0.133138 5.315309
-0.969763 0.236099 5.332607
-0.981059 0.248940 5.335118
-1.069215 0.341833 5.354605
-1.081516 0.353673 5.357307
-1.178289 0.437234 5.378419
-1.191624 0.447831 5.381315
-1.295447 0.522125 5.403731
-1.171691 -1.330695 5.350189
-1.159748 -1.314939 5.347980
-1.147805 -1.299183 5.345771
-1.135862 -1.283426 5.343561
-1.123919 -1.267670 5.341352
-1.112381 -1.251606 5.339231
-1.085146 -1.213054 5.334233
-1.073731 -1.196896 5.332138
-1.062316 -1.180738 5.330043
-1.051333 -1.164276 5.328041
-1.040533 -1.147684 5.326079
-1.029733 -1.131092 5.324117
-1.003965 -1.091507 5.319436
-0.993624 -1.074619 5.317572
-0.983546 -1.057562 5.315765
-0.973467 -1.040505 5.313958
-0.963389 -1.023448 5.312151
-0.953310 -1.006392 5.310344
-0.930606 -0.964920 5.306319
-0.921380 -0.947369 5.304694
-0.912155 -0.929818 5.303070
-0.902930 -0.912267 5.301445
-0.893828 -0.894654 5.299847
-0.885618 -0.876588 5.298438
-0.866031 -0.833483 5.295077
-0.857821 -0.815417 5.293668
-0.849680 -0.797321 5.292274
-0.842684 -0.778734 5.291123
-0.835687 -0.760146 5.289971
-0.828691 -0.741559 5.288819
-0.811998 -0.697211 5.286070
-0.806441 -0.678128 5.285221
-0.800894 -0.659041 5.284374
-0.795348 -0.639955 5.283527
-0.789801 -0.620869 5.282680
-0.784254 -0.601782 5.281833
-0.774337 -0.555415 5.280504
-0.770510 -0.535899 5.280016
-0.766682 -0.516382 5.279528
-0.762855 -0.496866 5.279040
-0.759990 -0.477208 5.278751
-0.758166 -0.457398 5.278679
-0.753816 -0.410133 5.278505
-0.751993 -0.390323 5.278433
-0.751114 -0.370482 5.278554
-0.751553 -0.350596 5.278947
-0.751993 -0.330711 5.279339
-0.752433 -0.310825 5.279731
-0.754348 -0.263460 5.280844
-0.757226 -0.243795 5.281733
-0.760103 -0.224130 5.282622
-0.762981 -0.204465 5.283511
-0.765859 -0.184801 5.284400
-0.768737 -0.165136 5.285289
-0.781274 -0.119489 5.288554
-0.786625 -0.100378 5.289941
-0.791975 -0.081267 5.291329
-0.797325 -0.062156 5.292717
-0.804661 -0.043773 5.294500
-0.812357 -0.025522 5.296356
-0.830720 0.018023 5.300783
-0.838416 0.036274 5.302638
-0.847752 0.053678 5.304817
-0.857538 0.070850 5.307084
-0.867324 0.088022 5.309352
-0.877110 0.105193 5.311619
-0.901735 0.145304 5.317278
-0.913289 0.161287 5.319890
-0.924844 0.177270 5.322502
-0.936399 0.193252 5.325114
-0.947953 0.209235 5.327726
-0.959903 0.224888 5.330414
-0.990919 0.260150 5.337310
-1.003919 0.274929 5.340200
-1.016919 0.289708 5.343090
-1.030162 0.304246 5.346026
-1.044319 0.317872 5.349136
-1.058477 0.331498 5.352246
-1.092255 0.364008 5.359666
-1.106546 0.377478 5.362801
-1.121623 0.390036 5.366083
-1.136699 0.402594 5.369365
-1.151776 0.415151 5.372648
-1.166853 0.427709 5.375930
-1.203614 0.456620 5.383907
-1.219421 0.468206 5.387324
-1.235227 0.479792 5.390741
-1.251034 0.491378 5.394158
-1.266841 0.502965 5.397575
-1.283015 0.514000 5.401059
22 NaN NaN
-1.186239 -1.349887 5.352880
-1.121137 -1.264000 5.340838
-1.058914 -1.175922 5.329419
-1.000044 -1.085483 5.318723
-0.945108 -0.992511 5.308873
-0.894825 -0.896848 5.300018
-0.850079 -0.798381 5.292340
-0.811948 -0.697077 5.286062
-0.781720 -0.593063 5.281446
-0.760865 -0.486716 5.278786
-0.750930 -0.378780 5.278390
-0.753325 -0.270447 5.280528
-0.769002 -0.163323 5.285371
-0.798148 -0.059219 5.292930
-0.840075 0.040208 5.303038
-0.893392 0.133764 5.315392
-0.956352 0.220851 5.329625
-1.027194 0.301390 5.345375
-1.104351 0.375651 5.362323
-1.186524 0.444093 5.380212
-1.272679 0.507244 5.398837
-1.362013 0.565634 5.418041
-1.088959 -1.308028 4.034960
-1.011782 -1.201974 4.062166
-0.939514 -1.092817 4.090497
-0.873100 -0.980326 4.120064
-0.814082 -0.864159 4.151039
-0.765043 -0.743898 4.183660
-0.726940 -0.620187 4.217785
-0.702000 -0.493579 4.253356
-0.694018 -0.365192 4.290224
-0.705604 -0.237341 4.327837
-0.736148 -0.112687 4.365396
-0.785149 0.006248 4.402146
-0.852505 0.116433 4.437203
-0.933993 0.217342 4.470221
-1.026103 0.309414 4.501164
-1.126523 0.393153 4.530074
-1.234186 0.468205 4.556797
-1.087794 -1.306453 4.035364
-1.012889 -1.203587 4.061749
-1.010675 -1.200361 4.062582
-0.940555 -1.094469 4.090066
-0.938474 -1.091164 4.090928
-0.874063 -0.982021 4.119617
-0.872137 -0.978631 4.120512
-0.814847 -0.865943 4.150557
-0.813317 -0.862375 4.151521
-0.765681 -0.745726 4.183159
-0.764404 -0.742070 4.184161
-0.727430 -0.622055 4.217265
-0.726450 -0.618319 4.218304
-0.702317 -0.495480 4.252819
-0.701684 -0.491679 4.253892
-0.693917 -0.367109 4.289663
-0.694120 -0.363275 4.290785
-0.705269 -0.239231 4.327274
-0.705939 -0.235452 4.328401
-0.735579 -0.114521 4.364838
-0.736717 -0.110853 4.365954
-0.784356 0.004495 4.401601
-0.785941 0.008002 4.402691
-0.851340 0.114887 4.436701
-0.853671 0.117979 4.437705
-0.932685 0.215907 4.469744
-0.935302 0.218777 4.470697
-1.024677 0.308086 4.500714
-1.027529 0.310742 4.501615
-1.125003 0.391925 4.529648
-1.128044 0.394380 4.530500
-1.232528 0.467154 4.556416
-1.084191 -1.301578 4.036612
-1.016314 -1.208577 4.060459
-1.007249 -1.195371 4.063872
-0.943774 -1.099583 4.088731
-0.935254 -1.086050 4.092263
-0.877043 -0.987266 4.118233
-0.869158 -0.973386 4.121896
-0.817291 -0.871431 4.149078
-0.810950 -0.856855 4.153013
-0.767657 -0.751382 4.181609
-0.762428 -0.736413 4.185710
-0.728946 -0.627837 4.215659
-0.724934 -0.612538 4.219911
-0.703297 -0.501361 4.251159
-0.700704 -0.485798 4.255553
-0.693604 -0.373042 4.287928
-0.694433 -0.357342 4.292520
-0.704234 -0.245078 4.325530
-0.706974 -0.229604 4.330144
-0.733817 -0.120197 4.363111
-0.738479 -0.105177 4.367681
-0.781904 -0.000932 4.399914
-0.788393 0.013428 4.404378
-0.847733 0.110104 4.435148
-0.857277 0.122763 4.439259
-0.928634 0.211466 4.468270
-0.939353 0.223218 4.472172
-1.020265 0.303977 4.499319
-1.031942 0.314852 4.503010
-1.120298 0.388127 4.528329
-1.132980 0.397898 4.531747
-1.227397 0.463900 4.555236
-1.076211 -1.290782 4.039375
-1.065711 -1.276577 4.043012
-1.055211 -1.262371 4.046648
-1.044710 -1.248166 4.050285
-1.034210 -1.233960 4.053922
-1.023901 -1.219630 4.057603
-0.999663 -1.184318 4.066728
-0.989681 -1.169775 4.070487
-0.979698 -1.155232 4.074245
-0.969716 -1.140689 4.078003
-0.960287 -1.125813 4.081884
-0.950905 -1.110910 4.085774
-0.928123 -1.074724 4.095220
-0.918741 -1.059820 4.099110
-0.909692 -1.044735 4.103069
-0.901009 -1.029450 4.107102
-0.892325 -1.014166 4.111135
-0.883642 -0.998882 4.115168
-0.862585 -0.961758 4.124966
-0.854722 -0.946076 4.129152
-0.846858 -0.930394 4.133338
-0.838995 -0.914712 4.137524
-0.831131 -0.899030 4.141710
-0.823268 -0.883349 4.145896
-0.805708 -0.844629 4.156317
-0.798810 -0.828542 4.160665
-0.791912 -0.812455 4.165014
-0.785014 -0.796368 4.169362
-0.778117 -0.780281 4.173710
-0.772034 -0.763910 4.178178
-0.758052 -0.723886 4.189142
-0.752293 -0.707401 4.193658
-0.746535 -0.690917 4.198173
-0.741139 -0.674335 4.202734
-0.736721 -0.657488 4.207417
-0.732304 -0.640640 4.212100
-0.721577 -0.599734 4.223470
-0.717159 -0.582887 4.228152
-0.714033 -0.565799 4.232964
-0.711178 -0.548661 4.237803
-0.708322 -0.531523 4.242642
-0.705467 -0.514385 4.247481
-0.699219 -0.472710 4.259281
-0.698150 -0.455405 4.264250
-0.697082 -0.438101 4.269220
-0.696013 -0.420797 4.274189
-0.694945 -0.403492 4.279158
-0.693876 -0.386188 4.284128
-0.695126 -0.344204 4.296362
-0.696039 -0.326915 4.301418
-0.696952 -0.309627 4.306474
-0.697865 -0.292339 4.311530
-0.698925 -0.275068 4.316588
-0.701942 -0.258028 4.321669
-0.709266 -0.216654 4.334005
-0.712283 -0.199614 4.339086
-0.715300 -0.182574 4.344167
-0.719646 -0.165848 4.349218
-0.724781 -0.149308 4.354252
-0.729915 -0.132768 4.359285
-0.742381 -0.092607 4.371507
-0.747890 -0.076202 4.376518
-0.755036 -0.060389 4.381433
-0.762182 -0.044576 4.386349
-0.769327 -0.028762 4.391264
-0.776473 -0.012949 4.396179
-0.795169 0.024782 4.407983
-0.804124 0.039703 4.412722
-0.813079 0.054623 4.417462
-0.822034 0.069544 4.422201
-0.830989 0.084464 4.426941
-0.839944 0.099385 4.431680
-0.865265 0.133357 4.442699
-0.875774 0.147297 4.447226
-0.886284 0.161237 4.451753
-0.896794 0.175177 4.456279
-0.907860 0.188689 4.460707
-0.919663 0.201630 4.465004
-0.948323 0.233054 4.475437
-0.960127 0.245995 4.479734
-0.971931 0.258937 4.484031
-0.984775 0.270926 4.488099
-0.997633 0.282901 4.492164
-1.010492 0.294876 4.496229
-1.041714 0.323953 4.506100
-1.055034 0.335437 4.510044
-1.068745 0.346506 4.513885
-1.082456 0.357576 4.517727
-1.096167 0.368645 4.521568
-1.109878 0.379714 4.525410
-1.143922 0.405678 4.534507
-1.158320 0.415916 4.538139
-1.172717 0.426153 4.541771
-1.187115 0.436390 4.545403
-1.201512 0.446627 4.549035
-1.216034 0.456695 4.552623
22 NaN NaN
-1.089250 -1.308422 4.034860
-1.027578 -1.224987 4.056219
-0.968948 -1.139570 4.078293
-0.913842 -1.052039 4.101142
-0.862843 -0.962272 4.124828
-0.816661 -0.870174 4.149413
-0.776152 -0.775700 4.174948
-0.742336 -0.678899 4.201466
-0.716394 -0.579972 4.228963
-0.699629 -0.479346 4.257375
-0.693355 -0.377753 4.286550
-0.698713 -0.276263 4.316231
-0.716422 -0.176236 4.346057
-0.746561 -0.079143 4.375604
-0.788510 0.013686 4.404458
-0.841082 0.101282 4.432283
-0.902789 0.183129 4.458862
-0.972099 0.259122 4.484092
-1.047610 0.329443 4.507963
-1.128129 0.394449 4.530524
-1.212684 0.454570 4.551853
-1.300499 0.510254 4.572045
-0.754926 -1.249046 2.302646
-0.642046 -1.005987 2.365535
-0.560088 -0.751948 2.432288
-0.526445 -0.488457 2.502984
-0.555266 -0.225241 2.575379
-0.660911 0.018310 2.644609
-0.829603 0.226073 2.705897
-1.042745 0.392092 2.757097
-0.754045 -1.247307 2.303094
-0.642769 -1.007791 2.365065
-0.641323 -1.004182 2.366005
-0.560465 -0.753846 2.431783
-0.559711 -0.750050 2.432794
-0.526492 -0.490387 2.502461
-0.526399 -0.486527 2.503508
-0.554681 -0.227082 2.574862
-0.555851 -0.223400 2.575897
-0.659905 0.016650 2.644129
-0.661917 0.019971 2.645089
-0.828139 0.224769 2.705501
-0.831067 0.227377 2.706293
-1.041098 0.391009 2.756755
-0.749135 -1.237624 2.305587
-0.646798 -1.017841 2.362446
-0.637294 -0.994132 2.368624
-0.563219 -0.764278 2.429024
-0.557611 -0.739478 2.435609
-0.526753 -0.501135 2.499545
-0.526138 -0.475779 2.506423
-0.552180 -0.237522 2.571952
-0.559108 -0.213144 2.578778
-0.654304 0.007400 2.641454
-0.667518 0.029221 2.647764
-0.820225 0.217278 2.703239
-0.839220 0.234639 2.708500
-1.031927 0.384979 2.754855
-0.736444 -1.212594 2.312033
-0.719559 -1.179293 2.320609
-0.703021 -1.145838 2.329237
-0.687542 -1.111914 2.338022
-0.672063 -1.077990 2.346808
-0.657211 -1.043819 2.355678
-0.626881 -0.968154 2.375392
-0.614373 -0.933135 2.384560
-0.602405 -0.897934 2.393792
-0.590436 -0.862732 2.403024
-0.580340 -0.827009 2.412452
-0.570565 -0.791196 2.421913
-0.552182 -0.712153 2.442885
-0.544960 -0.675797 2.452566
-0.538685 -0.639309 2.462310
-0.534414 -0.602542 2.472187
-0.530144 -0.565775 2.482064
-0.527427 -0.528917 2.492010
-0.525464 -0.447996 2.513959
-0.527547 -0.411129 2.524043
-0.530425 -0.374287 2.534143
-0.533303 -0.337445 2.544244
-0.539980 -0.301106 2.554315
-0.546945 -0.264806 2.564384
-0.567529 -0.186635 2.586226
-0.578731 -0.151365 2.596135
-0.591601 -0.116704 2.605926
-0.606976 -0.082958 2.615539
-0.622351 -0.049212 2.625152
-0.639825 -0.016510 2.634541
-0.681997 0.053131 2.654677
-0.704254 0.083023 2.663437
-0.726962 0.112627 2.672133
-0.749696 0.142210 2.680823
-0.775328 0.169491 2.688969
-0.800959 0.196773 2.697116
-0.860295 0.253412 2.714203
-0.888335 0.278388 2.721792
-0.917305 0.302314 2.729120
-0.947290 0.325093 2.736166
-0.977275 0.347872 2.743212
-1.008220 0.369391 2.749943
20 NaN NaN
-0.755147 -1.249480 2.302534
-0.706838 -1.154204 2.327070
-0.662553 -1.057147 2.352205
-0.622917 -0.958265 2.377969
-0.588678 -0.857559 2.404381
-0.560716 -0.755108 2.431447
-0.540055 -0.651109 2.459140
-0.527840 -0.545940 2.487392
-0.525275 -0.440218 2.516068
-0.533505 -0.334852 2.544954
-0.553423 -0.231042 2.573749
-0.585459 -0.130186 2.602085
-0.629425 -0.033684 2.629576
-0.684514 0.057288 2.655878
-0.749456 0.141953 2.680746
-0.822766 0.219983 2.704047
-0.902971 0.291425 2.725752
-0.988746 0.356586 2.745908
-1.078975 0.415915 2.764604
-1.172755 0.469915 2.781952
-0.494343 -1.204769 1.005170
-0.463173 -1.005777 0.993994
-0.449068 -0.804678 0.987852
-0.454485 -0.603114 0.987486
-0.481571 -0.403443 0.993557
-0.531659 -0.208625 1.006488
-0.604823 -0.021841 1.026333
-0.699731 0.154084 1.052723
-0.813978 0.317131 1.084966
-0.944824 0.466029 1.122264
-0.493995 -1.202803 1.005047
-0.463437 -1.007757 0.994091
-0.462909 -1.003797 0.993896
-0.449143 -0.806676 0.987893
-0.448994 -0.802680 0.987810
-0.454342 -0.605109 0.987464
-0.454627 -0.601120 0.987509
-0.481189 -0.405404 0.993464
-0.481952 -0.401482 0.993651
-0.531029 -0.210516 1.006320
-0.532288 -0.206734 1.006656
-0.603954 -0.023626 1.026093
-0.605692 -0.020055 1.026572
-0.698649 0.152430 1.052418
-0.700814 0.155738 1.053027
-0.812801 0.315549 1.084633
-0.815175 0.318697 1.085305
-0.943485 0.464594 1.121881
-0.492504 -1.194388 1.004523
-0.464569 -1.016234 0.994509
-0.461777 -0.995320 0.993478
-0.449464 -0.815231 0.988072
-0.448673 -0.794126 0.987631
-0.453732 -0.613649 0.987366
-0.455237 -0.592580 0.987606
-0.479555 -0.413799 0.993062
-0.483586 -0.393086 0.994053
-0.528334 -0.218611 1.005601
-0.534983 -0.198639 1.007376
-0.600236 -0.031270 1.025066
-0.609410 -0.012411 1.027599
-0.694014 0.145350 1.051115
-0.705449 0.162818 1.054331
-0.807762 0.308776 1.083206
-0.820580 0.325157 1.086843
-0.937753 0.458448 1.120244
-0.488857 -1.173808 1.003242
-0.484024 -1.146530 1.001544
-0.479190 -1.119252 0.999846
-0.474672 -1.091920 0.998241
-0.471004 -1.064442 0.996886
-0.467336 -1.036965 0.995531
-0.459842 -0.974487 0.992701
-0.457438 -0.946854 0.991720
-0.455034 -0.919221 0.990738
-0.452631 -0.891588 0.989756
-0.451286 -0.863880 0.989087
-0.450247 -0.836151 0.988508
-0.448128 -0.773202 0.987266
-0.448553 -0.745451 0.987120
-0.448977 -0.717699 0.986975
-0.449401 -0.689948 0.986829
-0.450262 -0.662216 0.986813
-0.452240 -0.634534 0.987128
-0.456730 -0.571695 0.987844
-0.459798 -0.544129 0.988484
-0.463406 -0.516622 0.989284
-0.467015 -0.489114 0.990084
-0.470624 -0.461606 0.990884
-0.475559 -0.434330 0.992079
-0.487582 -0.372555 0.995036
-0.493178 -0.345415 0.996428
-0.500194 -0.318623 0.998244
-0.507209 -0.291831 1.000060
-0.514225 -0.265039 1.001876
-0.521743 -0.238408 1.003843
-0.541574 -0.178841 1.009134
-0.550310 -0.152601 1.011465
-0.560195 -0.126819 1.014141
-0.570620 -0.101254 1.016979
-0.581046 -0.075689 1.019817
-0.591472 -0.050123 1.022655
-0.618504 0.006283 1.030110
-0.630557 0.031061 1.033437
-0.642896 0.055677 1.036851
-0.656489 0.079576 1.040644
-0.670082 0.103475 1.044436
-0.683675 0.127374 1.048228
-0.716785 0.180133 1.057519
-0.731809 0.203084 1.061744
-0.746834 0.226034 1.065970
-0.762765 0.248298 1.070471
-0.779101 0.270254 1.075094
-0.795437 0.292211 1.079718
-0.833799 0.340955 1.090603
-0.851320 0.361895 1.095588
-0.868841 0.382835 1.100573
-0.886571 0.403575 1.105621
-0.905153 0.423497 1.110930
-0.923734 0.443418 1.116238
18 NaN NaN
-0.494430 -1.205260 1.005200
-0.475664 -1.099352 0.998608
-0.461423 -0.992668 0.993347
-0.452091 -0.885384 0.989535
-0.448059 -0.777728 0.987289
-0.449707 -0.669988 0.986725
-0.457385 -0.562518 0.987949
-0.471395 -0.455727 0.991054
-0.491957 -0.350080 0.996112
-0.519192 -0.246070 1.003162
-0.553107 -0.144201 1.012211
-0.593580 -0.044954 1.023228
-0.640373 0.051240 1.036147
-0.693143 0.144021 1.050870
-0.751473 0.233120 1.067275
-0.814894 0.318361 1.085225
-0.882917 0.399658 1.104577
-0.955059 0.477002 1.125188
