63.215742 -45.793296 -122.937757 0.124997
90.890014 -57.682965 -229.645256 0.125174
141.443380 -148.040497 -505.571716 0.125697
209.509417 -326.047264 -1026.692354 0.126756
162.795466 -212.854209 -741.858174 0.126149
349.938895 -314.299691 -1122.028936 0.126916
175.015378 -311.399785 -1008.193792 0.126706
121.491414 -129.044355 -387.045388 0.125488
157.200609 -207.709640 -544.370094 0.125817
284.421895 -373.398231 -839.385436 0.126484
224.173922 -387.615342 -859.250334 0.126530
126.298763 -192.081932 -537.322328 0.125788
127.020124 -243.829176 -689.153980 0.126088
129.953414 -291.634864 -817.593227 0.126352
119.550832 -345.142000 -919.437637 0.126581
18.444394 -226.862630 -946.287470 0.126492
74.516671 -137.571353 -362.346975 0.125450
99.899944 -308.904713 -762.616041 0.126273
-18.720110 -353.810350 -853.617324 0.126455
228.661696 -127.883505 -105.352538 0.125058
286.800853 -110.644226 -182.303863 0.125165
310.516097 -87.883874 -221.600841 0.125207
354.758925 -95.115702 -295.151990 0.125330
549.324136 -110.877242 -566.365391 0.125776
467.694453 -131.671489 -468.069007 0.125638
587.108441 -166.974935 -631.119112 0.125933
672.382089 -290.222171 -823.290345 0.126367
357.679935 -103.037794 -287.092360 0.125325
734.656823 35.557546 -830.929715 0.126051
522.554838 -163.762256 -600.944882 0.125883
365.120432 -98.360355 -319.929986 0.125372
469.627443 -103.086427 -487.195227 0.125643
540.465313 -104.744149 -583.553483 0.125798
604.540864 -133.547671 -676.846090 0.125976
647.925946 -123.113285 -732.915191 0.126056
533.643272 -122.492810 -629.440627 0.125890
569.739815 -371.894029 -1023.213056 0.126796
636.703344 -276.223901 -1137.248508 0.126895
454.013085 -96.024923 -466.550406 0.125603
656.410945 12.161964 -883.004553 0.126168
492.077344 -75.776403 -549.508050 0.125717
521.067001 -68.990829 -618.677365 0.125822
537.903544 -27.475331 -862.745392 0.126181
267.601292 -152.007351 -174.894143 0.125189
292.270929 -235.034243 -277.726916 0.125425
384.827222 -372.254272 -467.978502 0.125862
346.966288 -365.197675 -463.074756 0.125846
264.379959 -171.649078 -205.984303 0.125254
308.761952 -167.832476 -289.921212 0.125385
548.541398 -287.024897 -677.568593 0.126125
375.675548 -238.362788 -454.297477 0.125714
506.897389 -202.179171 -768.505858 0.126196
27.090110 -208.217407 334.670352 0.124442
24.504392 -229.587635 750.988141 0.123862
37.731186 -285.549665 534.804629 0.124212
44.698373 -352.915314 663.245775 0.124080
9.773134 -395.654209 960.278678 0.123685
37.609677 -383.656870 737.893910 0.123995
27.221249 -413.273267 830.355547 0.123884
16.161034 -441.901665 901.857062 0.123802
-6.740329 -445.521454 988.420629 0.123678
-66.868992 -472.718250 1262.710262 0.123306
53.519394 -420.705200 1352.381262 0.123173
13.043292 -517.986022 1171.505702 0.123482
33.942506 -447.970402 961.732999 0.123726
44.017924 -420.637818 823.621617 0.123903
51.790529 -439.957408 904.281509 0.123804
63.539219 -452.203850 889.818340 0.123836
73.130879 -349.822332 863.302561 0.123798
82.011933 -414.420573 1232.571269 0.123336
100.394334 -439.096110 1280.145153 0.123291
-30.978495 156.052923 -377.959739 0.125201
10.827434 489.788320 -1142.173345 0.126112
-6.364603 351.371035 -754.887274 0.125615
-39.145886 39.981938 -176.898761 0.124993
-18.952037 35.515830 -492.798283 0.125488
1.829951 53.688956 -813.185673 0.125991
18.967996 35.084483 -904.751192 0.126163
35.110853 13.863166 -992.012265 0.126333
22.788003 36.645309 -1020.890195 0.126358
-21.993694 -7.043034 -1032.691100 0.126414
-50.034858 7.620937 -1203.565128 0.126689
-69.227829 15.510507 -286.732261 0.125177
-129.458275 -18.651262 -614.768081 0.125714
-164.216072 20.381700 -873.878337 0.126094
-155.242323 -27.758978 -1152.423458 0.126616
-174.784607 -11.675192 -999.149306 0.126333
-173.930755 21.670060 -878.846696 0.126099
-125.303783 -88.394549 -486.326364 0.125571
-138.342944 -279.690312 -1019.839738 0.126641
-178.868821 -285.327349 -844.745771 0.126332
120.254691 178.476217 -366.480714 0.125184
166.504556 290.646869 -618.575919 0.125483
229.389302 360.749427 -817.188757 0.125745
412.793130 609.479389 -1297.048045 0.126021
263.662038 427.037212 -984.406574 0.125960
226.952949 396.940471 -1124.439259 0.126219
158.025346 475.562345 -1057.940785 0.126005
11.558765 -112.635194 -128.760109 0.125056
30.887969 -165.225102 -325.124810 0.125410
79.735281 -211.112463 -571.274247 0.125855
129.772169 -239.068500 -807.582553 0.126282
94.229300 -260.184910 -777.391956 0.126248
74.220532 -186.295206 -906.037201 0.126390
5.073247 -161.423570 -211.629873 0.125224
1.604061 -211.910691 -279.176862 0.125374
-0.314230 -294.639673 -381.990350 0.125612
12.105330 -390.157440 -508.650224 0.125914
40.843034 -505.148622 -642.897539 0.126266
116.303810 -324.436314 -480.400026 0.125819
-1.322515 -217.762955 -302.165838 0.125415
10.306641 -254.310002 -407.633955 0.125619
26.237475 -254.048324 -486.076671 0.125747
103.243046 -390.051132 -716.673493 0.126277
29.412253 -278.130739 -527.153703 0.125837
24.595884 -366.877657 -664.818085 0.126154
7.469055 -337.110585 -620.064928 0.126045
-14.725826 -244.836170 -626.141391 0.125962
-59.664429 -311.322420 -896.719989 0.126477
-140.359805 -310.779440 -1208.442616 0.127007
10.250773 -251.443974 -435.157722 0.125660
61.674820 -246.914702 -589.103498 0.125916
-46.759771 -374.615011 -838.428636 0.126444
228.317607 148.635553 93.837883 0.124531
350.092948 205.366610 263.295973 0.124250
447.744271 286.665603 430.239424 0.123958
476.951910 314.525348 506.748697 0.123833
517.026980 305.001559 644.476862 0.123651
538.573097 288.389871 703.532094 0.123583
592.949554 461.920980 1249.024128 0.122629
568.765723 298.989841 992.167140 0.123195
574.518610 353.242584 1176.275411 0.122904
579.914154 353.485384 1166.526059 0.122914
488.527729 313.088457 514.539577 0.123823
452.530071 272.288377 407.670794 0.123999
656.665702 342.446866 788.027270 0.123376
494.238898 265.286335 464.435071 0.123925
714.709614 362.185683 801.411253 0.123284
688.502951 403.673099 830.408613 0.123195
350.000077 230.967923 262.044771 0.124233
640.054417 444.241737 644.150244 0.123391
484.440986 544.384000 678.489932 0.123240
36.787488 88.496212 -6.549162 0.124708
67.630698 150.341438 -216.960716 0.124974
72.038267 252.319848 -431.636704 0.125214
56.634067 276.658533 -497.764595 0.125292
25.524539 413.983294 -731.164630 0.125525
136.691824 363.799666 -658.070865 0.125477
63.787024 289.863255 -503.240406 0.125289
63.205028 281.748453 -547.210560 0.125365
-5.299410 361.673088 -789.989180 0.125662
96.578313 392.041235 -755.540313 0.125598
126.327481 517.708307 -975.002446 0.125777
78.022671 582.353604 -1065.622531 0.125772
66.120019 307.820230 -541.199055 0.125332
61.893614 298.493007 -581.997560 0.125404
19.068888 300.547865 -684.192327 0.125555
-69.385794 449.056751 -1115.556047 0.126090
27.508619 331.917461 -852.428397 0.125796
-28.238995 315.454291 -1151.243567 0.126293
70.696904 315.310093 -591.489842 0.125405
55.362365 325.027279 -713.390969 0.125585
97.307929 349.419141 -749.877835 0.125628
132.512771 447.382412 -1124.219313 0.126153
126.068173 548.321791 -1620.012542 0.126803
151.051853 500.733582 -1468.489582 0.126647
179.105986 387.919744 -1151.397745 0.126263
137.310061 230.834458 -487.714330 0.125328
221.651092 265.702881 -649.165948 0.125559
216.922760 252.848604 -622.272845 0.125528
102.310663 109.272653 -138.141980 0.124894
167.527941 114.155842 -280.661387 0.125113
223.696617 89.252008 -501.650506 0.125483
336.450800 96.630602 -925.557486 0.126169
285.323528 71.352144 -681.187442 0.125790
197.102925 131.380022 -410.145861 0.125300
221.047044 194.718822 -503.013065 0.125392
241.457992 214.216142 -590.666703 0.125514
237.196894 414.119721 -1094.063174 0.126154
320.130387 254.102185 -951.372008 0.126067
322.914407 239.582472 -638.260818 0.125572
307.731744 336.563423 -806.220108 0.125757
199.998121 78.641178 -287.969075 0.125158
275.031952 -2.559504 -429.064549 0.125454
316.574230 -50.346319 -556.840735 0.125703
338.324930 -67.890168 -546.113877 0.125703
432.908338 -133.192189 -638.439150 0.125915
18.431295 129.458305 -28.524323 0.124705
32.930217 207.013546 -156.598550 0.124832
87.313683 305.660236 -314.074366 0.124991
225.467514 493.959471 -661.006441 0.125306
123.845713 374.602240 -420.238178 0.125097
253.216808 610.661538 -917.538809 0.125445
127.767156 402.942576 -482.287891 0.125168
78.214044 316.125991 -402.384514 0.125114
112.199409 371.232999 -641.324973 0.125440
120.674907 391.684042 -754.680586 0.125601
142.688047 399.003594 -1006.771995 0.126006
162.734720 496.581583 -1017.894257 0.125889
124.656464 400.222904 -730.736043 0.125557
142.422192 436.562024 -787.927564 0.125617
190.583682 441.815149 -898.780678 0.125800
150.916505 459.614420 -832.279243 0.125669
169.760603 486.517751 -926.566664 0.125761
236.092856 630.693385 -1199.579583 0.125861
142.496660 564.724220 -1002.002420 0.125707
130.054788 366.561279 -617.370685 0.125409
-10.619164 297.335231 -298.116168 0.124960
-23.381758 469.262532 -574.162150 0.125219
-23.598518 534.485094 -716.775548 0.125334
-5.554924 770.725438 -1085.261451 0.125314
-78.604374 615.658049 -737.981814 0.125146
252.505612 -161.695028 434.537130 0.124286
336.757670 -192.519685 745.431579 0.123873
381.019135 -205.757952 922.697424 0.123639
375.765366 -307.357923 1254.635995 0.123258
405.782086 -280.452885 1123.199506 0.123419
504.788168 -275.087433 1259.230425 0.123236
450.139805 -287.704800 1010.963312 0.123580
-117.529663 -233.999650 235.623776 0.124582
-261.560856 -373.823580 481.860626 0.124301
-429.726372 -487.252818 717.915852 0.124092
-337.135005 -413.065757 656.087780 0.124104
-204.463907 -433.223084 500.424966 0.124345
-20.379058 -87.901082 44.090713 0.124769
-74.280129 -220.074096 336.471505 0.124431
-133.169234 -328.976398 597.876085 0.124120
-182.418122 -384.024716 702.788259 0.123995
-430.819114 -427.971603 1080.450569 0.123524
-324.574349 -568.875777 1035.352495 0.123726
-157.119142 -355.912813 708.577949 0.123975
-173.598441 -367.675195 800.429124 0.123850
-189.861970 -376.792675 914.642499 0.123694
-203.584599 -475.802338 1200.069288 0.123404
-182.724650 -447.636842 1150.839324 0.123440
-166.232312 -385.858438 1202.738683 0.123311
-181.558599 -545.211180 1098.005862 0.123615
-119.671751 -323.083552 583.941296 0.124138
-123.298139 -349.884188 623.860424 0.124099
-168.875743 -365.311878 690.508659 0.124004
-132.106650 -397.893647 680.943125 0.124048
-175.124043 -513.654522 879.566839 0.123890
-153.202132 -561.671783 879.557265 0.123941
-113.093642 -343.653126 643.284824 0.124070
-106.796955 -346.190093 709.313750 0.123979
-108.484405 -352.899672 903.906064 0.123710
-82.582107 -357.532565 858.921871 0.123781
-51.874966 -387.671031 1063.022884 0.123524
-31.159101 -361.480680 1021.500321 0.123568
-74.592571 -490.715702 908.157937 0.123817
-14.553285 -125.658131 97.166543 0.124721
-20.922699 -223.890607 325.220412 0.124460
-32.736399 -318.843674 561.879611 0.124186
-34.828314 -326.903890 616.618913 0.124113
-27.000127 -309.689509 733.650384 0.123935
-77.490213 -357.738336 1251.931214 0.123244
6.188535 -351.430346 962.343036 0.123650
52.584635 -396.633787 1340.211662 0.123173
50.953290 -402.146122 1169.692476 0.123408
-28.553189 -319.161394 693.050478 0.123999
-19.355776 -479.798603 1110.272165 0.123531
-71.173804 -457.054162 996.807738 0.123658
-29.941567 -383.783954 658.685509 0.124095
-34.216391 -468.960466 766.028494 0.124005
-32.125623 -529.518635 860.139810 0.123927
6.658475 -359.863747 699.688399 0.124026
17.529833 -346.744784 395.463935 0.124460
84.900810 -531.840240 667.330449 0.124227
52.506940 -594.519637 735.670454 0.124181
-36.234011 367.072397 233.858571 0.124130
-232.828916 522.706820 752.372180 0.123178
-81.097405 672.656613 1085.009030 0.122548
-148.371893 123.314164 89.347601 0.124515
-173.606105 149.475119 148.531707 0.124406
-208.580637 180.246206 206.921048 0.124295
-245.972911 237.966261 291.662149 0.124128
-291.678468 313.462649 421.701917 0.123888
-420.838757 453.059083 815.629716 0.123071
-482.574406 512.806604 835.213635 0.122906
-257.453513 317.704868 382.191736 0.123941
-302.516219 366.477566 498.713696 0.123731
-265.001819 369.312765 454.901541 0.123803
-290.334144 459.271661 576.230552 0.123480
-236.665803 724.010555 967.493363 0.122557
-318.615044 653.369281 866.199363 0.122755
-276.288464 402.681043 569.222246 0.123597
-276.585005 241.692641 316.661519 0.124087
-329.179411 316.106414 424.786400 0.123879
-411.967835 370.908666 594.618705 0.123498
-404.754878 373.765138 561.614982 0.123544
-500.495299 477.427037 878.672237 0.122891
-193.805785 185.771668 213.825888 0.124283
-252.770548 186.964855 339.175255 0.124099
-315.844752 164.496819 463.832420 0.123937
-400.670450 157.451194 615.836442 0.123726
-627.967306 50.789981 852.183804 0.123363
-329.847683 187.292254 540.797349 0.123815
-214.298567 206.637286 275.512081 0.124178
-409.536055 436.253730 847.122664 0.123065
-249.367934 232.347040 371.411708 0.124021
-344.767364 256.660696 552.926008 0.123749
-508.818841 336.122617 826.630627 0.123157
-524.629272 372.990936 917.770319 0.122973
-296.766508 244.231311 621.640225 0.123670
-278.671194 146.947450 274.203992 0.124216
-440.534401 155.569484 516.401369 0.123856
-440.517945 138.121518 591.482105 0.123766
-88.100275 79.175547 -57.774797 0.124775
-101.385072 179.514148 -278.624341 0.125019
-117.303667 257.131072 -624.355501 0.125478
-109.171100 305.736750 -912.320205 0.125892
-147.054387 450.677731 -1225.559630 0.126250
-86.979935 524.247175 -971.704136 0.125758
-104.712012 98.609937 -104.755319 0.124826
-173.177421 112.656609 -211.687875 0.124964
-276.833742 208.589731 -451.418327 0.125227
-260.511306 122.322393 -348.032552 0.125147
-365.709296 168.366051 -533.802597 0.125373
-462.903002 227.151497 -728.548324 0.125603
-470.344255 235.282895 -869.588025 0.125816
-554.884828 249.665395 -932.947095 0.125809
-504.309556 222.201130 -783.132198 0.125682
-313.950848 116.397756 -416.182621 0.125247
-373.122991 99.906240 -497.305309 0.125374
-570.731022 79.951516 -917.900713 0.126014
-428.925136 96.974795 -570.065131 0.125478
-496.150518 131.361243 -702.366362 0.125640
-661.409171 93.112903 -887.941841 0.125859
-503.874564 13.144520 -660.028723 0.125678
-127.075044 159.213629 -195.751391 0.124908
-230.463407 681.301256 -844.757933 0.125060
-235.898159 334.889402 -499.814196 0.125194
-375.464613 432.425027 -808.364190 0.125470
-347.208748 421.445634 -762.250937 0.125455
-423.649925 440.697297 -938.471022 0.125598
-442.355248 575.255682 -1293.071749 0.125809
-161.663270 60.449430 -158.804620 0.124930
-263.886663 70.952959 -324.118313 0.125154
-332.420870 83.586650 -428.472885 0.125290
-406.583070 90.614961 -548.367144 0.125455
-449.050858 85.271067 -634.236532 0.125585
-461.299068 59.410875 -859.586325 0.125967
-605.551402 32.078074 -993.800347 0.126162
-471.766221 101.452706 -641.831139 0.125577
-534.643101 118.631237 -725.636015 0.125679
-562.181120 124.887016 -748.389388 0.125698
-481.842460 50.507413 -609.218243 0.125569
-442.238827 -11.594113 -794.392608 0.125932
-297.208137 -12.292120 -403.878952 0.125341
-432.465791 -193.358690 -718.062010 0.125973
-474.876882 -162.574439 -690.752391 0.125891
