0.178486 0.178514 0.179001 0.181389 0.185173 0.189288 0.193404 0.197520 0.201809 0.204516 0.205100 0.205133 0.205167 0.205749 0.208374 0.212535 0.216066 0.219597 0.223127 0.225381 0.226804 0.227019 0.227031 0.227043 0.227249 0.227706 0.228430 0.227333 0.226236 0.225138 0.222757 0.221255 0.220887 0.220866 0.220844 0.220472 0.218617 0.215677 0.212427 0.209176 0.205925 0.202642 0.200570 0.200126 0.200101 0.200075 0.199632 0.197641 0.194486 0.191613 0.188739 0.185866 0.183299 0.181679 0.181343 0.181323 
0.178475 0.178457 0.178253 0.177305 0.175804 0.174085 0.172366 0.170648 0.168891 0.167782 0.167550 0.167530 
0.178481 0.178489 0.178641 0.178185 0.177462 0.174652 0.171842 0.169032 0.165150 0.162701 0.162172 0.162143 0.162114 0.161591 0.159429 0.156003 0.153714 0.151426 0.149137 0.147671 0.146745 0.146560 0.146550 0.146540 0.146355 0.145528 0.144218 0.142941 0.141665 0.140388 0.139122 0.138322 0.138144 0.138134 0.138125 0.137946 0.137055 0.135642 0.133383 0.131123 0.128863 0.126575 0.125132 0.124860 0.124845 0.124830 0.124562 0.123440 0.121661 0.120534 0.119408 0.118282 0.117684 0.117306 0.117242 0.117238 0.117235 0.117174 0.116946 0.116586 0.116357 0.116129 0.115900 0.115703 0.115579 0.115551 0.115550 0.115548 0.115521 0.115394 0.115192 0.115002 0.114813 0.114623 0.114448 0.114338 0.114315 0.114314 0.114313 0.114290 0.114196 0.114046 0.113965 0.113884 0.113803 0.113755 0.113725 0.113719 0.113719 0.113719 0.113713 0.113688 0.113648 0.113614 0.113580 0.113546 0.113516 0.113498 0.113494 0.113494 0.113494 0.113490 0.113474 0.113448 0.113426 0.113405 0.113384 0.113366 0.113355 0.113353 0.113353 
0.220836 0.220719 0.220295 0.219328 0.218052 0.216846 0.215641 0.214435 0.213306 0.212452 0.212097 0.211999 0.211902 0.211551 0.210762 0.209719 0.208730 0.207740 0.206751 0.205810 0.205098 0.204802 0.204720 0.204639 0.204346 0.203678 0.202795 0.201962 0.201129 0.200296 0.199523 0.198938 0.198696 0.198630 0.198564 0.198325 0.197782 0.197065 0.196386 0.195707 0.195028 0.194383 0.193894 0.193693 0.193637 0.193582 0.193382 0.192927 0.192326 0.191766 0.191206 0.190645 0.190109 0.189703 0.189532 0.189484 0.189437 0.189267 0.188887 0.188384 0.187902 0.187419 0.186936 0.186489 0.186150 0.186009 0.185970 0.185931 0.185791 0.185469 0.185044 0.184652 0.184260 0.183868 0.183491 0.183206 0.183085 0.183052 0.183021 0.182910 0.182677 0.182370 0.182082 0.181794 0.181506 0.181266 0.181085 0.181010 0.180989 0.180969 0.180894 0.180721 0.180492 0.180294 0.180097 0.179899 0.179706 0.179559 0.179504 0.179489 0.179474 0.179422 0.179301 0.179140 0.178987 0.178834 0.178680 0.178544 0.178440 0.178397 0.178385 0.178373 0.178330 0.178232 0.178102 0.177983 0.177863 0.177744 0.177629 0.177542 0.177510 0.177501 0.177492 0.177460 0.177384 0.177283 0.177189 0.177096 0.177002 0.176915 0.176850 0.176822 0.176814 0.176806 0.176777 0.176717 0.176636 0.176561 0.176485 0.176409 0.176340 0.176287 0.176267 0.176261 0.176255 0.176235 0.176185 0.176121 0.176062 0.176003 0.175944 0.175887 0.175844 0.175825 0.175820 
0.227000 0.226877 0.226454 0.225501 0.224244 0.223043 0.221843 0.220642 0.219489 0.218615 0.218242 0.218134 0.218026 0.217656 0.216825 0.215727 0.214678 0.213628 0.212578 0.211577 0.210818 0.210496 0.210402 0.210309 0.209989 0.209266 0.208312 0.207401 0.206490 0.205578 0.204705 0.204044 0.203762 0.203680 0.203599 0.203320 0.202695 0.201870 0.201083 0.200296 0.199510 0.198761 0.198194 0.197953 0.197883 0.197814 0.197575 0.197038 0.196328 0.195650 0.194971 0.194292 0.193646 0.193156 0.192946 0.192885 0.192824 0.192616 0.192151 0.191537 0.190953 0.190369 0.189785 0.189228 0.188806 0.188626 0.188574 0.188522 0.188344 0.187943 0.187415 0.186905 0.186396 0.185887 0.185395 0.185022 0.184862 0.184816 0.184770 0.184612 0.184259 0.183794 0.183344 0.182895 0.182445 0.182020 0.181699 0.181561 0.181521 0.181481 0.181344 0.181033 0.180623 0.180236 0.179849 0.179463 0.179094 0.178814 0.178694 0.178660 0.178625 0.178505 0.178248 0.177909 0.177591 0.177273 0.176954 0.176658 0.176434 0.176345 0.176319 0.176294 0.176206 0.176030 0.175798 0.175606 0.175414 0.175222 0.175065 0.174947 0.174896 0.174881 0.174866 0.174815 0.174704 0.174557 0.174445 0.174333 0.174221 0.174108 0.174023 0.173993 0.173985 0.173977 0.173951 0.173890 0.173810 0.173729 0.173647 0.173566 0.173510 0.173467 0.173448 0.173442 0.173436 0.173417 0.173372 0.173313 0.173274 0.173235 0.173196 0.173158 0.173130 0.173117 0.173113 0.173109 0.173096 0.173080 0.173058 0.173036 0.173013 0.172991 0.172981 0.172974 0.172972 0.172972 0.172972 0.172970 0.172967 0.172963 0.172967 0.172971 0.172976 0.172987 0.172995 0.172998 0.172999 
0.205119 0.205060 0.204778 0.204067 0.203122 0.202169 0.201215 0.200262 0.199315 0.198602 0.198317 0.198257 0.198198 0.197912 0.197196 0.196246 0.195299 0.194352 0.193405 0.192481 0.191785 0.191512 0.191454 0.191398 0.191126 0.190459 0.189573 0.188722 0.187872 0.187022 0.186229 0.185631 0.185399 0.185351 0.185303 0.185074 0.184522 0.183790 0.183113 0.182437 0.181761 0.181148 0.180686 0.180506 0.180469 0.180432 0.180254 0.179832 0.179270 0.178741 0.178212 0.177683 0.177168 0.176779 0.176627 0.176595 0.176564 0.176413 0.176039 0.175541 0.175045 0.174550 0.174054 0.173565 0.173197 0.173054 0.173024 0.172994 0.172852 0.172500 0.172032 0.171593 0.171153 0.170713 0.170306 0.170000 0.169883 0.169858 0.169834 0.169716 0.169432 0.169054 0.168793 0.168533 0.168272 0.168091 0.167954 0.167903 0.167893 0.167882 0.167832 0.167720 0.167571 0.167457 0.167343 0.167228 0.167154 0.167098 0.167074 0.167069 0.167064 0.167039 0.166986 0.166916 0.166859 0.166803 0.166746 0.166708 0.166679 0.166667 0.166665 0.166662 0.166650 0.166628 0.166598 0.166579 0.166559 0.166540 0.166534 0.166529 0.166527 0.166526 
0.167526 0.167509 0.167440 0.167273 0.167052 0.166835 0.166617 0.166399 0.166189 0.166030 0.165965 0.165948 0.165932 0.165868 0.165717 0.165516 0.165327 0.165138 0.164948 0.164770 0.164636 0.164582 0.164569 0.164555 0.164502 0.164377 0.164212 0.164051 0.163890 0.163730 0.163571 0.163451 0.163401 0.163389 0.163376 0.163327 0.163206 0.163047 0.162885 0.162722 0.162560 0.162395 0.162270 0.162218 0.162205 0.162192 0.162139 0.162014 0.161848 0.161680 0.161511 0.161343 0.161179 0.161055 0.161004 0.160991 0.160978 0.160927 0.160803 0.160639 0.160484 0.160328 0.160173 0.160020 0.159904 0.159860 0.159849 0.159838 0.159795 0.159704 0.159585 0.159512 0.159440 0.159367 0.159311 0.159268 0.159251 0.159247 0.159243 0.159226 0.159198 0.159160 0.159127 0.159094 0.159060 0.159044 0.159032 0.159026 0.159025 0.159023 0.159017 0.159002 0.158982 0.158975 0.158967 0.158960 0.158950 0.158942 0.158941 0.158941 0.158940 0.158939 0.158934 0.158927 0.158922 0.158917 0.158912 0.158908 0.158906 0.158904 0.158904 0.158903 0.158901 0.158903 0.158905 0.158906 0.158907 0.158908 0.158915 0.158921 0.158923 0.158923 
