0.132841 0.132836 0.132759 0.132421 0.131885 0.131411 0.130936 0.130461 0.130039 0.129772 0.129715 0.129712 0.129708 0.129652 0.129402 0.129005 0.128629 0.128253 0.127877 0.127514 0.127284 0.127234 0.127231 0.127228 0.127178 0.126951 0.126590 0.126231 0.125872 0.125512 0.125155 0.124930 0.124882 0.124878 0.124875 0.124826 0.124606 0.124258 0.123923 0.123589 0.123255 0.122936 0.122735 0.122692 0.122690 0.122687 0.122644 0.122453 0.122151 0.121871 0.121590 0.121309 0.121050 0.120886 0.120852 0.120849 0.120847 0.120813 0.120660 0.120418 0.120194 0.119971 0.119747 0.119541 0.119410 0.119383 0.119381 
0.132843 0.132848 0.132897 0.133054 0.133284 0.133505 0.133726 0.133947 0.134179 0.134337 0.134383 0.134387 0.134392 0.134439 0.134609 0.134859 0.135133 0.135406 0.135680 0.135973 0.136172 0.136230 0.136236 0.136242 0.136300 0.136509 0.136817 0.137139 0.137461 0.137783 0.138117 0.138344 0.138409 0.138416 0.138422 0.138488 0.138722 0.139066 0.139422 0.139778 0.140134 0.140501 0.140750 0.140822 0.140829 0.140836 0.140908 0.141165 0.141542 0.141932 0.142321 0.142710 0.143112 0.143385 0.143463 0.143471 0.143478 0.143557 0.143837 0.144250 0.144675 0.145099 0.145524 0.145963 0.146261 0.146347 0.146355 0.146364 0.146450 0.146756 0.147207 0.147673 0.148139 0.148606 0.149088 0.149415 0.149509 0.149519 0.149528 0.149623 0.149961 0.150458 0.150972 0.151487 0.152001 0.152535 0.152898 0.153002 0.153013 0.153023 0.153128 0.153502 0.154054 0.154626 0.155199 0.155771 0.156367 0.156772 0.156890 0.156901 0.156913 0.157031 0.157451 0.158069 0.158712 0.159356 0.159999 0.160671 0.161126 0.161259 0.161272 0.161285 0.161419 0.161896 0.162599 0.163335 0.164071 0.164807 0.165578 0.166102 0.166254 0.166269 0.166284 0.166437 0.166983 0.167787 0.168621 0.169455 0.170288 0.171154 0.171742 0.171913 0.171929 0.171947 0.172119 0.172724 0.173613 0.174538 0.175462 0.176387 0.177337 0.177982 0.178169 0.178187 0.178206 0.178397 0.179065 0.180048 0.181058 0.182067 0.183077 0.184114 0.184818 0.185021 0.185041 
0.132842 0.132842 0.132835 0.132725 0.132551 0.132201 0.131850 0.131499 0.131162 0.130949 0.130908 0.130906 0.130903 0.130863 0.130691 0.130418 0.130205 0.129993 0.129781 0.129602 0.129489 0.129464 0.129463 0.129461 0.129436 0.129314 0.129119 0.128854 0.128588 0.128323 0.127878 0.127598 0.127523 0.127518 0.127514 0.127437 0.126998 0.126302 0.125315 0.124328 0.123342 0.122120 0.121348 0.121181 0.121170 0.121159 0.120994 0.120312 0.119231 0.118509 0.117788 0.117067 0.116640 0.116371 0.116324 0.116321 0.116318 0.116272 0.116096 0.115818 0.115640 0.115462 0.115285 0.115164 0.115087 0.115073 0.115072 0.115071 0.115056 0.114997 0.114903 0.114828 0.114753 0.114678 0.114617 0.114579 0.114571 0.114571 0.114570 0.114563 0.114530 0.114478 0.114435 0.114391 0.114348 0.114313 0.114290 0.114286 0.114286 0.114285 0.114281 0.114262 0.114232 0.114207 0.114183 0.114158 0.114139 0.114127 0.114124 0.114124 0.114124 0.114121 0.114111 0.114095 0.114082 0.114070 0.114057 0.114047 0.114041 0.114040 0.114039 0.114039 0.114038 0.114033 0.114025 0.114018 0.114011 0.114005 0.113998 0.113994 0.113993 0.113993 
0.120850 0.120850 0.120853 0.120861 0.120870 0.120878 0.120886 0.120894 0.120900 0.120905 0.120907 0.120907 0.120908 0.120909 0.120912 0.120916 0.120918 0.120920 0.120922 0.120922 0.120922 0.120921 0.120921 0.120921 0.120921 0.120919 0.120916 0.120911 0.120906 0.120902 0.120893 0.120887 0.120885 0.120884 0.120883 0.120881 0.120873 0.120862 0.120850 0.120837 0.120825 0.120818 0.120812 0.120810 0.120809 0.120809 0.120807 0.120801 0.120793 0.120783 0.120773 0.120763 0.120752 0.120743 0.120740 0.120739 0.120738 0.120734 0.120725 0.120713 0.120699 0.120684 0.120670 0.120655 0.120643 0.120638 0.120637 0.120636 0.120631 0.120619 0.120602 0.120585 0.120567 0.120550 0.120532 0.120519 0.120513 0.120512 0.120511 0.120505 0.120492 0.120474 0.120455 0.120437 0.120419 0.120401 0.120387 0.120381 0.120380 0.120379 0.120373 0.120359 0.120341 0.120323 0.120304 0.120286 0.120268 0.120254 0.120248 0.120247 0.120246 0.120240 0.120227 0.120208 0.120190 0.120172 0.120154 0.120136 0.120123 0.120117 0.120116 
0.127231 0.127229 0.127220 0.127196 0.127164 0.127127 0.127090 0.127053 0.127012 0.126982 0.126970 0.126968 0.126966 0.126954 0.126921 0.126878 0.126833 0.126788 0.126743 0.126696 0.126660 0.126645 0.126643 0.126641 0.126627 0.126587 0.126535 0.126478 0.126421 0.126364 0.126301 0.126254 0.126235 0.126232 0.126229 0.126210 0.126159 0.126091 0.126018 0.125944 0.125871 0.125793 0.125734 0.125713 0.125710 0.125707 0.125691 0.125649 0.125592 0.125539 0.125486 0.125433 0.125383 0.125345 0.125331 0.125329 0.125327 0.125313 0.125278 0.125230 0.125186 0.125142 0.125098 0.125056 0.125025 0.125013 0.125011 0.125009 0.124998 0.124968 0.124930 0.124893 0.124857 0.124820 0.124787 0.124762 0.124753 0.124751 0.124750 0.124740 0.124717 0.124686 0.124657 0.124628 0.124599 0.124572 0.124552 0.124544 0.124543 
0.129712 0.129712 0.129716 0.129721 0.129727 0.129712 0.129698 0.129683 0.129654 0.129632 0.129623 0.129622 0.129620 0.129611 0.129581 0.129540 0.129499 0.129458 0.129417 0.129380 0.129352 0.129341 0.129340 0.129338 0.129327 0.129294 0.129250 0.129195 0.129141 0.129087 0.129031 0.128988 0.128972 0.128969 0.128967 0.128950 0.128896 0.128824 0.128735 0.128647 0.128559 0.128471 0.128405 0.128381 0.128378 0.128375 0.128351 0.128288 0.128203 0.128122 0.128041 0.127960 0.127883 0.127826 0.127805 0.127802 0.127800 0.127779 0.127725 0.127654 0.127587 0.127520 0.127453 0.127391 0.127344 0.127327 0.127325 0.127323 0.127306 0.127262 0.127204 0.127149 0.127093 0.127038 0.126985 0.126945 0.126931 0.126929 
0.134387 0.134385 0.134376 0.134351 0.134317 0.134280 0.134242 0.134204 0.134163 0.134131 0.134118 0.134116 0.134113 0.134100 0.134066 0.134021 0.133972 0.133924 0.133875 0.133824 0.133785 0.133769 0.133766 0.133763 0.133748 0.133708 0.133654 0.133599 0.133544 0.133489 0.133431 0.133388 0.133372 0.133368 0.133365 0.133348 0.133307 0.133252 0.133200 0.133147 0.133095 0.133043 0.133003 0.132988 0.132985 0.132981 0.132965 0.132923 0.132868 0.132806 0.132745 0.132683 0.132615 0.132564 0.132543 0.132539 0.132535 0.132514 0.132457 0.132381 0.132299 0.132217 0.132135 0.132047 0.131981 0.131953 0.131948 0.131943 0.131915 0.131844 0.131748 0.131648 0.131547 0.131447 0.131342 0.131263 0.131231 0.131225 0.131220 0.131194 0.131137 0.131061 0.130991 0.130921 0.130851 0.130787 0.130738 0.130719 0.130715 0.130712 0.130693 0.130648 0.130589 0.130533 0.130477 0.130422 0.130368 0.130328 0.130314 0.130311 0.130309 0.130295 0.130258 0.130210 0.130165 0.130120 0.130075 0.130033 0.130002 0.129990 0.129988 0.129986 0.129974 0.129944 0.129905 0.129868 0.129831 0.129794 0.129759 0.129732 0.129722 0.129720 0.129718 0.129708 0.129682 0.129649 0.129616 0.129583 0.129550 0.129517 0.129493 0.129484 0.129482 
0.136236 0.136235 0.136231 0.136218 0.136201 0.136176 0.136152 0.136128 0.136096 0.136073 0.136063 0.136061 0.136060 0.136050 0.136022 0.135984 0.135941 0.135898 0.135855 0.135808 0.135773 0.135759 0.135756 0.135754 0.135739 0.135702 0.135653 0.135600 0.135547 0.135494 0.135436 0.135393 0.135376 0.135373 0.135370 0.135353 0.135304 0.135238 0.135164 0.135089 0.135015 0.134930 0.134866 0.134840 0.134836 0.134831 0.134805 0.134734 0.134639 0.134535 0.134431 0.134327 0.134216 0.134133 0.134099 0.134093 0.134089 0.134066 0.134007 0.133930 0.133858 0.133785 0.133713 0.133646 0.133596 0.133577 0.133573 0.133570 0.133551 0.133504 0.133441 0.133381 0.133321 0.133261 0.133204 0.133162 0.133146 0.133143 0.133140 0.133124 0.133083 0.133029 0.132978 0.132927 0.132875 0.132826 0.132789 0.132775 0.132773 0.132771 0.132757 0.132722 0.132676 0.132631 0.132586 0.132541 0.132498 0.132466 0.132453 0.132451 0.132449 0.132437 0.132405 0.132363 0.132321 0.132279 0.132238 0.132196 0.132165 0.132153 0.132151 
0.143470 0.143467 0.143454 0.143422 0.143379 0.143332 0.143284 0.143237 0.143184 0.143144 0.143126 0.143122 0.143118 0.143100 0.143057 0.143000 0.142940 0.142880 0.142820 0.142755 0.142707 0.142686 0.142681 0.142675 0.142655 0.142604 0.142536 0.142465 0.142393 0.142321 0.142246 0.142190 0.142165 0.142159 0.142153 0.142129 0.142071 0.141993 0.141914 0.141834 0.141754 0.141672 0.141610 0.141584 0.141577 0.141570 0.141544 0.141479 0.141393 0.141305 0.141217 0.141130 0.141039 0.140970 0.140941 0.140934 0.140927 0.140898 0.140828 0.140735 0.140640 0.140545 0.140451 0.140353 0.140280 0.140248 0.140240 0.140232 0.140201 0.140126 0.140027 0.139927 0.139826 0.139726 0.139625 0.139548 0.139517 0.139509 0.139504 0.139482 0.139430 0.139362 0.139296 0.139231 0.139165 0.139103 0.139056 0.139037 0.139032 0.139027 0.139008 0.138964 0.138905 0.138849 0.138793 0.138737 0.138685 0.138645 0.138629 0.138625 0.138620 0.138604 0.138565 0.138513 0.138464 0.138415 0.138366 0.138318 0.138282 0.138268 0.138264 0.138261 0.138246 0.138211 0.138165 0.138121 0.138077 0.138032 0.137988 0.137955 0.137942 0.137938 0.137935 0.137921 0.137890 0.137849 0.137807 0.137766 0.137725 0.137685 0.137655 0.137642 0.137639 0.137636 0.137623 0.137594 0.137554 0.137516 0.137478 0.137439 0.137402 0.137373 0.137361 0.137358 0.137355 0.137343 0.137315 0.137277 0.137240 0.137203 0.137165 0.137128 0.137099 0.137088 0.137085 0.137082 0.137070 0.137042 0.137005 0.136968 0.136931 0.136893 0.136855 0.136827 0.136815 0.136812 
0.171924 0.171901 0.171812 0.171594 0.171306 0.171013 0.170721 0.170429 0.170129 0.169902 0.169807 0.169783 0.169760 0.169664 0.169431 0.169123 0.168811 0.168498 0.168186 0.167874 0.167638 0.167540 0.167516 0.167491 0.167394 0.167160 0.166850 0.166541 0.166233 0.165925 0.165617 0.165384 0.165287 0.165262 0.165238 0.165141 0.164910 0.164604 0.164301 0.163998 0.163694 0.163397 0.163172 0.163079 0.163056 0.163032 0.162939 0.162719 0.162426 0.162137 0.161848 0.161559 0.161272 0.161055 0.160966 0.160943 0.160921 0.160831 0.160618 0.160337 0.160060 0.159783 0.159505 0.159235 0.159031 0.158946 0.158925 0.158904 0.158819 0.158619 0.158353 0.158139 0.157925 0.157711 0.157531 0.157395 0.157341 0.157328 0.157314 0.157261 0.157136 0.156971 0.156821 0.156672 0.156522 0.156381 0.156274 0.156232 0.156221 0.156211 0.156171 0.156075 0.155948 0.155826 0.155705 0.155583 0.155470 0.155385 0.155349 0.155340 0.155332 0.155296 0.155217 0.155113 0.155011 0.154909 0.154808 0.154716 0.154646 0.154617 0.154609 0.154602 0.154573 0.154504 0.154412 0.154328 0.154244 0.154159 0.154078 0.154017 0.153992 0.153986 0.153980 0.153956 0.153896 0.153818 0.153744 0.153670 0.153596 0.153523 0.153468 0.153447 0.153441 0.153436 0.153415 0.153364 0.153296 0.153230 0.153163 0.153096 0.153031 0.152981 0.152960 0.152955 
