-14.787398 -59.302884 194.172893 0.167604
-42.718485 -139.898371 404.202537 0.167446
-171.478203 -260.498544 761.229029 0.167110
-56.614705 -220.126837 605.417168 0.167210
-1.859092 -79.869759 581.881012 0.166258
-35.669728 -40.221699 145.841110 0.167706
-55.071820 -46.271358 209.710077 0.167579
-139.994607 -63.030766 418.853234 0.167166
-347.491938 -136.335977 883.428287 0.166275
-206.435335 -77.941183 590.735562 0.166787
-262.021388 -131.213793 794.167031 0.166427
-231.568643 -81.298711 679.853219 0.166527
-281.801964 -94.272712 1015.068719 0.165328
-278.600258 -96.345150 804.893331 0.166228
-58.820772 -158.103289 605.384512 0.166818
-70.153137 -22.293817 250.961116 0.167317
-144.043052 10.954941 460.648323 0.166553
-255.182320 65.017336 706.731101 0.165329
-339.983165 135.830386 1030.177224 0.163565
-338.550383 130.383015 897.998659 0.164148
-386.406622 161.381658 977.914395 0.163675
-405.601734 159.206021 1002.443794 0.163641
-209.956276 47.449826 619.379318 0.165805
-203.110644 71.424056 674.966560 0.165357
-246.079523 157.246247 781.040717 0.164214
-73.717953 -8.080405 525.531386 0.166226
-162.189816 -31.924796 1001.503932 0.164711
-92.723265 -19.747086 833.067428 0.165142
-122.475940 -91.414660 1060.773215 0.164685
-84.007877 -35.127624 980.205523 0.164597
-36.367418 -142.447059 239.476205 0.168059
-64.473729 -243.264083 570.652183 0.167523
5.437034 -319.663621 679.173613 0.167385
-45.781524 -121.733621 85.727259 0.168492
-67.578390 -221.116801 198.133213 0.168835
-77.163493 -327.765410 319.305220 0.169140
-99.483801 -407.013791 425.280054 0.169314
-130.074076 -512.780064 636.163987 0.169190
-158.241327 -495.757656 549.556874 0.169530
-90.345203 -427.484529 437.920314 0.169381
-116.622638 -394.961372 437.125227 0.169224
-184.568654 -216.959778 352.377722 0.168537
-382.249161 -317.470764 701.920811 0.168399
-310.932417 -266.485609 569.048626 0.168310
-422.425212 -335.733985 765.299979 0.168540
-411.438848 -302.777049 748.355333 0.168262
61.893225 -260.275000 -149.796577 0.169976
45.653019 -306.255904 -217.012173 0.170593
124.105612 -475.608478 -588.471794 0.172930
40.091068 -325.901984 -246.248228 0.170855
39.463484 -528.300121 -475.887874 0.173274
44.503336 -341.219765 -268.155388 0.171033
53.066954 -408.601412 -401.256390 0.171980
54.088256 -527.053000 -670.184333 0.173808
79.850664 -609.715499 -697.800159 0.174605
27.404226 -356.474277 -306.038898 0.171324
-54.095677 -424.299577 -432.771664 0.172486
-44.059405 -393.231785 -425.857803 0.172190
-78.771064 -426.568933 -515.223196 0.172819
-71.832241 -456.742110 -548.139614 0.173148
-70.123136 -454.741471 -553.654344 0.173143
-131.093950 -485.501479 -698.381768 0.173962
-227.041973 -545.064709 -909.064415 0.175258
-194.421978 -556.160883 -927.611708 0.175313
58.855840 -317.959938 -221.766824 0.170661
90.971459 -355.440317 -294.480135 0.171099
159.565089 -480.001738 -610.148109 0.172929
202.510408 -437.317450 -462.957211 0.171975
179.042328 -458.266020 -468.502517 0.172251
142.293503 -101.885035 -339.889571 0.169151
249.763415 -108.568811 -611.476773 0.169580
390.124763 -92.131994 -916.102712 0.169619
359.068961 40.439518 -1057.888520 0.169089
180.351117 -122.050207 -466.942180 0.169535
178.471429 -122.010423 -505.819504 0.169647
202.941687 -128.409146 -599.105985 0.169858
244.622496 -145.531050 -708.429374 0.170118
299.528872 -158.855148 -852.750130 0.170348
310.371373 -224.727025 -1050.938161 0.171237
237.541272 -204.846470 -912.522100 0.171074
180.062987 -125.501660 -550.581139 0.169787
203.972577 -199.524014 -862.387711 0.171042
192.400295 -217.524488 -908.487920 0.171328
266.895318 -120.687496 -606.943411 0.169597
-126.869677 59.926344 -132.471304 0.168204
-354.268038 26.762544 -467.456515 0.169814
-237.794967 103.553471 -277.982296 0.168418
-306.477444 143.507248 -401.719480 0.168412
-374.105939 169.594096 -524.818569 0.168606
-484.229136 242.244656 -746.152643 0.168780
-346.526821 175.207470 -440.175143 0.168262
-462.211054 256.766892 -624.152440 0.168245
-432.532270 235.458378 -571.222946 0.168223
-73.769588 41.675115 -82.580307 0.168020
-120.094214 111.459236 -280.125752 0.168277
-172.514379 201.478536 -479.713770 0.167909
-179.270137 227.132747 -531.838243 0.167737
-307.308216 317.107972 -833.011485 0.167617
-177.221846 267.605063 -704.155036 0.167677
-230.279315 266.765540 -837.662456 0.168060
-148.856464 219.708340 -610.705633 0.168027
-91.776701 43.586763 -123.504812 0.168186
-157.204137 4.663303 -326.618698 0.169251
-334.379006 -25.486884 -821.127440 0.171210
-290.264750 -65.196264 -753.330350 0.171270
-93.789377 38.212782 -157.415345 0.168333
-129.445956 45.688318 -227.009136 0.168595
-169.150896 66.906031 -293.893611 0.168763
-340.298976 70.985952 -504.797489 0.169473
-565.327759 140.807217 -809.419715 0.170313
-566.640458 146.068591 -815.337646 0.170283
-655.454756 193.304383 -975.751535 0.170770
-613.727330 173.133299 -901.263329 0.170502
-120.734159 16.504491 -218.229213 0.168743
-185.523219 -14.845751 -313.840721 0.169430
-222.375960 -56.381681 -504.263502 0.170366
-235.479379 -84.686388 -446.518684 0.170443
-256.530654 -156.021984 -581.209405 0.171389
-252.093433 -191.116294 -584.969282 0.171646
-264.599777 -309.281857 -754.544676 0.173035
-195.240376 -293.960525 -748.764719 0.172720
-183.408360 -12.419696 -299.573043 0.169366
-262.002865 -142.080160 -562.285485 0.171250
-216.423231 -29.293458 -346.043756 0.169712
-239.781539 -45.309716 -401.562885 0.170049
-292.921951 -72.628318 -520.442418 0.170721
-344.880478 -62.468125 -545.592069 0.170821
-543.684091 -82.426463 -795.695473 0.172352
-534.273524 -23.726075 -825.813265 0.171818
-362.082146 -157.440729 -585.488712 0.171690
45.195723 164.300771 -161.340975 0.167104
141.356807 222.556051 -341.385803 0.166955
303.280009 418.463267 -693.672450 0.164003
273.617848 282.227161 -629.109912 0.166093
372.431879 355.674356 -901.764877 0.164920
457.462715 287.475819 -1084.200259 0.165702
59.159677 205.591459 -234.138437 0.167007
32.635046 278.681466 -344.687168 0.166373
-16.845390 351.711453 -480.689570 0.165787
-72.543446 397.584970 -610.016435 0.165619
-38.887620 408.628108 -579.674925 0.165314
-127.051992 405.935484 -680.460323 0.165811
171.464380 344.721590 -556.437436 0.165466
292.692461 531.262190 -915.726121 0.162956
298.931164 530.270396 -996.448512 0.163073
19.782495 101.844446 -42.061676 0.167222
5.805749 150.540210 -154.347326 0.167286
-17.084042 201.336934 -313.033922 0.167477
-75.033545 226.192231 -432.978152 0.167456
-326.676272 227.643809 -842.038466 0.168684
-87.969752 304.899113 -586.229610 0.166808
-46.385923 228.313751 -406.284932 0.167354
-68.062439 244.032702 -474.908490 0.167326
-170.988993 278.869812 -699.751330 0.167520
-86.368537 305.278814 -598.772847 0.166833
-40.711977 240.750277 -446.902196 0.167293
-52.868503 259.292845 -511.199531 0.167212
-82.860760 339.479321 -784.964046 0.166809
13.597122 329.726497 -502.775466 0.166093
72.784075 252.008692 -261.869431 0.166449
169.386525 451.276220 -607.765901 0.164062
160.255562 417.574276 -547.379228 0.164433
16.657920 124.859783 -88.915921 0.167225
1.314807 238.287245 -287.939978 0.166856
-15.861151 361.790171 -459.573595 0.165591
-12.706229 502.887734 -608.678662 0.164109
-25.904924 481.752481 -656.353919 0.164515
-78.252582 412.993177 -546.421896 0.165292
62.007420 179.825889 -218.409750 0.167123
121.494598 256.483286 -348.604192 0.166525
276.036473 443.252764 -622.748188 0.163654
260.272129 464.796818 -643.736565 0.163490
159.293148 233.944313 -375.975707 0.166844
249.439560 293.326138 -520.579976 0.165804
420.434410 425.501125 -831.473900 0.163451
382.326661 352.220186 -714.628144 0.164524
239.645458 261.023226 -491.932343 0.166318
299.457586 258.060052 -561.849475 0.166188
268.938887 264.816283 -557.611886 0.166250
92.194191 -271.557953 -311.530165 0.170489
92.312707 1.533228 -10.816054 0.167576
177.340619 45.077847 -149.103886 0.167457
273.310695 130.952635 -371.236656 0.167240
357.032302 212.458138 -613.616646 0.166698
327.858534 183.931658 -522.858374 0.167132
247.332920 115.528856 -300.319545 0.167224
320.540905 108.131825 -441.416604 0.167414
422.047223 267.913203 -598.238063 0.165290
118.168467 3.290014 -47.626075 0.167604
364.117479 299.940888 -585.517459 0.165152
179.983275 7.463408 -147.909553 0.167696
287.639561 30.076064 -314.229260 0.167680
501.122294 74.750954 -667.929646 0.167482
475.789794 44.337669 -590.662244 0.167602
338.434095 -9.723150 -372.902336 0.167928
488.524471 -21.488197 -558.635962 0.167900
444.085176 -23.177098 -515.064559 0.167990
503.456262 -23.594248 -595.560221 0.167939
498.023526 -33.084010 -597.014358 0.168030
-98.757695 15.088496 64.661842 0.167795
-138.131971 4.724334 127.431847 0.167764
-295.762823 -3.872037 323.443012 0.167442
-442.498519 64.693734 576.024305 0.166213
-448.434118 3.464104 502.820750 0.167035
-498.816139 6.952199 559.678161 0.166955
-584.479352 58.591974 697.041215 0.166283
-523.383859 11.675830 588.011656 0.166889
-614.689887 3.340285 717.217323 0.166786
-571.562183 22.716655 652.790268 0.166718
-558.544250 -46.591055 664.305096 0.167210
-293.881800 -31.548210 406.265320 0.167368
-500.094576 -88.972823 789.779903 0.166820
-516.688257 -35.958857 821.202699 0.166311
-133.228862 20.135557 138.661186 0.167611
-206.964395 39.508541 265.992521 0.167225
-410.348844 85.349567 524.037307 0.166146
-560.493439 111.281076 709.123406 0.165704
-564.558203 108.575086 708.989868 0.165742
-285.413900 91.597965 435.672870 0.166177
-354.763145 173.435842 619.063766 0.164897
-438.056677 259.969226 817.199560 0.163640
-397.522126 224.039455 720.687095 0.164189
-331.086256 202.323586 636.518492 0.164523
-287.344139 310.416237 802.887526 0.162843
-299.824938 279.342222 744.056029 0.163364
-177.456587 34.170824 238.729876 0.167303
-310.878469 40.280850 485.783810 0.166484
-445.959309 37.105130 729.592760 0.165862
-467.213460 50.984767 767.685316 0.165657
-520.585761 33.863981 934.893882 0.165270
-538.524058 48.168237 902.904064 0.165349
-192.478451 46.403254 308.054271 0.167005
-250.498592 102.464621 705.236853 0.165002
-209.646237 65.165174 380.861063 0.166558
-234.189590 82.935546 494.667348 0.165978
-339.781116 73.801811 858.442762 0.164781
-270.518974 105.487680 650.839713 0.165214
-222.658555 137.501218 683.831499 0.164736
60.328275 -16.954033 189.650624 0.167121
140.220589 -29.370096 421.031900 0.166135
180.455681 -51.773394 552.616209 0.165664
171.583289 -99.307018 661.330009 0.165566
255.249986 -92.001357 721.512351 0.165025
252.038309 -108.932471 868.050287 0.164546
231.053299 8.150746 482.387033 0.165399
108.336812 -14.715145 180.598245 0.166995
419.903067 41.708882 633.710466 0.164032
314.301900 -36.272940 431.647062 0.165598
