-2.374070 -1.397921 10.425327
-1.872876 -1.457720 11.475361
-1.303371 -1.580389 12.487867
-0.944121 -1.517821 13.588565
-0.871356 -1.230550 14.718009
-0.774507 -0.960533 15.850439
-0.645056 -0.714344 16.985354
-2.373420 -1.397839 10.427217
-1.873868 -1.457493 11.473639
-1.871884 -1.457946 11.477082
-1.304270 -1.580251 12.486086
-1.302471 -1.580528 12.489648
-0.944395 -1.518203 13.586621
-0.943847 -1.517439 13.590509
-0.871442 -1.231070 14.716080
-0.871271 -1.230031 14.719938
-0.774727 -0.960956 15.848497
-0.774288 -0.960110 15.852381
-0.645258 -0.714780 16.983413
-2.365335 -1.396817 10.450714
-1.886204 -1.454678 11.452228
-1.859548 -1.460761 11.498493
-1.315451 -1.578530 12.463938
-1.291569 -1.581992 12.511952
-0.947807 -1.522954 13.562448
-0.940435 -1.512689 13.614682
-0.872509 -1.237533 14.692088
-0.870126 -1.223623 14.743941
-0.777455 -0.966216 15.824342
-0.771560 -0.954850 15.876536
-0.647767 -0.720201 16.959270
-2.327727 -1.393119 10.556523
-2.261636 -1.392893 10.721767
-2.188467 -1.398943 10.883907
-2.109828 -1.409980 11.043201
-2.027152 -1.424775 11.200134
-1.941472 -1.442414 11.355157
-1.803511 -1.473769 11.595025
-1.714238 -1.494866 11.747574
-1.625079 -1.515852 11.900205
-1.536788 -1.535997 12.053452
-1.450316 -1.554393 12.207949
-1.366549 -1.570215 12.364206
-1.243209 -1.587777 12.613215
-1.170980 -1.592983 12.775804
-1.106000 -1.591784 12.941494
-1.049401 -1.583414 13.109995
-1.002516 -1.567006 13.280855
-0.965854 -1.542422 13.453261
-0.926773 -1.489917 13.723862
-0.910336 -1.450003 13.896536
-0.898601 -1.406674 14.068779
-0.890121 -1.361014 14.240618
-0.883475 -1.314053 14.412188
-0.877055 -1.266932 14.583724
-0.864292 -1.195140 14.852488
-0.853162 -1.151375 15.024668
-0.839750 -1.109255 15.197097
-0.824485 -1.068480 15.369694
-0.807640 -1.028860 15.542414
-0.789470 -0.990213 15.715221
-0.759095 -0.931186 15.985679
-0.738948 -0.893998 16.158588
-0.718587 -0.856970 16.331505
-0.698314 -0.819875 16.504419
-0.678469 -0.782464 16.677313
-0.659336 -0.744526 16.850174
78 NaN NaN
-2.374233 -1.397942 10.424855
-2.341081 -1.393751 10.521201
-2.305024 -1.392045 10.616576
-2.266379 -1.392595 10.710947
-2.225448 -1.395171 10.804317
-2.182516 -1.399550 10.896716
-2.137844 -1.405518 10.988198
-2.091678 -1.412870 11.078834
-2.044240 -1.421411 11.168706
-1.995739 -1.430958 11.257908
-1.946367 -1.441334 11.346537
-1.896304 -1.452374 11.434698
-1.845719 -1.463917 11.522496
-1.794774 -1.475808 11.610039
-1.743624 -1.487898 11.697435
-1.692423 -1.500039 11.784794
-1.641320 -1.512083 11.872224
-1.590468 -1.523884 11.959834
-1.540022 -1.535293 12.047729
-1.490141 -1.546157 12.136014
-1.440992 -1.556321 12.224792
-1.392750 -1.565621 12.314160
-1.345604 -1.573888 12.404212
-1.299754 -1.580946 12.495031
-1.255414 -1.586610 12.586693
-1.212816 -1.590686 12.679261
-1.172208 -1.592974 12.772779
-1.133853 -1.593268 12.867270
-1.098031 -1.591359 12.962729
-1.065032 -1.587040 13.059123
-1.035150 -1.580109 13.156375
-1.008679 -1.570381 13.254373
-0.985739 -1.557820 13.352937
-0.966092 -1.542671 13.451850
-0.949432 -1.525217 13.550932
-0.935444 -1.505738 13.650052
-0.923806 -1.484504 13.749115
-0.914202 -1.461771 13.848065
-0.906320 -1.437783 13.946872
-0.899860 -1.412769 14.045528
-0.894527 -1.386947 14.144043
-0.890038 -1.360525 14.242441
-0.886114 -1.333701 14.340755
-0.882484 -1.306671 14.439024
-0.878876 -1.279625 14.537289
-0.875021 -1.252753 14.635593
-0.870646 -1.226249 14.733975
-0.865502 -1.200293 14.832465
-0.859542 -1.174920 14.931061
-0.852816 -1.150097 15.029748
-0.845374 -1.125790 15.128512
-0.837269 -1.101963 15.227341
-0.828557 -1.078578 15.326223
-0.819291 -1.055597 15.425150
-0.809527 -1.032981 15.524114
-0.799322 -1.010688 15.623106
-0.788732 -0.988679 15.722121
-0.777815 -0.966910 15.821154
-0.766629 -0.945341 15.920200
-0.755231 -0.923928 16.019257
-0.743681 -0.902628 16.118320
-0.732037 -0.881397 16.217387
-0.720357 -0.860193 16.316455
-0.708701 -0.838972 16.415523
-0.697126 -0.817691 16.514587
-0.685691 -0.796305 16.613645
-0.674455 -0.774772 16.712694
-0.663476 -0.753050 16.811730
-0.652812 -0.731095 16.910749
-0.642520 -0.708867 17.009747
-0.632657 -0.686322 17.108717
-0.623280 -0.663422 17.207652
-0.614445 -0.640127 17.306545
-0.606207 -0.616397 17.405386
-0.598620 -0.592195 17.504165
-0.591736 -0.567486 17.602869
-0.585609 -0.542233 17.701486
-0.580287 -0.516403 17.800000
-2.373824 -1.397907 10.424569
-2.024250 -1.369335 10.142361
-1.729030 -1.347459 9.803216
-1.495467 -1.332720 9.418541
-1.321001 -1.324492 9.003381
-1.199711 -1.321885 8.569497
-1.122686 -1.323788 8.125520
-1.082104 -1.329267 7.676712
-1.070372 -1.337531 7.226223
-1.079263 -1.347941 6.775679
-1.100033 -1.359864 6.325543
-1.123728 -1.372589 5.875567
-1.141178 -1.384727 5.425302
-1.143181 -1.394492 4.974674
-1.119862 -1.399961 4.524620
-1.068216 -1.400443 4.076874
-0.996549 -1.397376 3.631860
-0.915374 -1.392630 3.188479
-0.833686 -1.387816 2.745190
-0.754069 -1.383394 2.301521
-0.675800 -1.379227 1.857609
-0.598089 -1.375166 1.413597
-0.520154 -1.371062 0.969626
-0.441210 -1.366767 0.525835
-0.360484 -1.362136 0.082368
-2.372188 -1.397769 10.423427
-2.025687 -1.369447 10.143748
-2.022814 -1.369222 10.140974
-1.730231 -1.347543 9.804813
-1.727829 -1.347375 9.801619
-1.496363 -1.332770 9.420328
-1.494571 -1.332671 9.416753
-1.321670 -1.324517 9.005266
-1.320332 -1.324466 9.001497
-1.200137 -1.321885 8.571451
-1.199285 -1.321885 8.567543
-1.122952 -1.323772 8.127502
-1.122420 -1.323804 8.123537
-1.082208 -1.329236 7.678709
-1.082001 -1.329299 7.674715
-1.070377 -1.337489 7.228223
-1.070368 -1.337572 7.224224
-1.079187 -1.347890 6.777677
-1.079339 -1.347991 6.773681
-1.099928 -1.359809 6.327539
-1.100138 -1.359919 6.323546
-1.123632 -1.372532 5.877564
-1.123823 -1.372645 5.873570
-1.141126 -1.384677 5.427301
-1.141229 -1.384778 5.423303
-1.143233 -1.394459 4.976673
-1.143130 -1.394526 4.972675
-1.120032 -1.399948 4.526613
-1.119692 -1.399973 4.522627
-1.068487 -1.400449 4.078855
-1.067941 -1.400437 4.074893
-0.996896 -1.397395 3.633830
-0.996202 -1.397358 3.629891
-0.915741 -1.392652 3.190445
-0.915007 -1.392607 3.186513
-0.834043 -1.387836 2.747158
-0.833329 -1.387796 2.743222
-0.754419 -1.383413 2.303490
-0.753718 -1.383375 2.299552
-0.676145 -1.379245 1.859578
-0.675454 -1.379209 1.855639
-0.598434 -1.375184 1.415567
-0.597745 -1.375148 1.411627
-0.520502 -1.371080 0.971595
-0.519806 -1.371043 0.967656
-0.441563 -1.366787 0.527803
-0.440857 -1.366748 0.523866
-0.360848 -1.362158 0.084334
-2.358058 -1.396580 10.413557
-2.038095 -1.370417 10.155732
-2.010406 -1.368252 10.128991
-1.740609 -1.348271 9.818607
-1.717844 -1.346693 9.787539
-1.504102 -1.333199 9.435769
-1.486832 -1.332241 9.401312
-1.327452 -1.324735 9.021545
-1.314702 -1.324264 8.985165
-1.203820 -1.321886 8.588331
-1.195602 -1.321885 8.550663
-1.125249 -1.323634 8.144625
-1.120123 -1.323943 8.106414
-1.083102 -1.328962 7.695961
-1.081106 -1.329572 7.657463
-1.070415 -1.337131 7.245496
-1.070329 -1.337930 7.206950
-1.078530 -1.347454 6.794936
-1.079996 -1.348427 6.756422
-1.099023 -1.359332 6.344786
-1.101043 -1.360396 6.306299
-1.122784 -1.372045 5.894814
-1.124651 -1.373131 5.856320
-1.140682 -1.384244 5.444567
-1.141674 -1.385211 5.406037
-1.143505 -1.394143 4.993945
-1.142685 -1.394813 4.955406
-1.121501 -1.399839 4.543827
-1.118224 -1.400082 4.505413
-1.070834 -1.400495 4.095972
-1.065425 -1.400361 4.057800
-0.999892 -1.397557 3.650845
-0.993206 -1.397196 3.612876
-0.918910 -1.392844 3.207428
-0.911840 -1.392416 3.169530
-0.837128 -1.388012 2.764157
-0.830244 -1.387620 2.726224
-0.757443 -1.383578 2.320499
-0.750696 -1.383211 2.282542
-0.679128 -1.379402 1.876595
-0.672471 -1.379053 1.838622
-0.601411 -1.375339 1.432585
-0.594767 -1.374992 1.394609
-0.523505 -1.371241 0.988609
-0.516803 -1.370883 0.950643
-0.444615 -1.366956 0.544808
-0.437805 -1.366578 0.506861
-0.363991 -1.362344 0.101322
-2.319209 -1.393309 10.386421
-2.267996 -1.389030 10.349237
-2.217548 -1.384851 10.310991
-2.168451 -1.380845 10.271016
-2.120009 -1.376924 10.230248
-2.072730 -1.373149 10.188109
-1.976667 -1.365631 10.095669
-1.932888 -1.362287 10.049871
-1.890252 -1.359081 10.003013
-1.848372 -1.355966 9.955458
-1.808335 -1.353069 9.906327
-1.769140 -1.350271 9.856531
-1.690772 -1.344862 9.748552
-1.655315 -1.342496 9.696005
-1.621110 -1.340273 9.642616
-1.588403 -1.338219 9.588299
-1.556490 -1.336254 9.533507
-1.526167 -1.334467 9.477806
-1.465742 -1.331081 9.358770
-1.439191 -1.329708 9.301165
-1.413567 -1.328436 9.243147
-1.388840 -1.327261 9.184731
-1.365741 -1.326261 9.125651
-1.343349 -1.325336 9.066302
-1.300050 -1.323795 8.939984
-1.280879 -1.323211 8.879512
-1.262912 -1.322752 8.818666
-1.245960 -1.322398 8.757534
-1.229634 -1.322110 8.696227
-1.214690 -1.321963 8.634568
-1.185477 -1.321884 8.504255
-1.173298 -1.322018 8.441990
-1.161652 -1.322206 8.379627
-1.150788 -1.322473 8.317119
-1.140928 -1.322839 8.254448
-1.131563 -1.323254 8.191702
-1.114635 -1.324403 8.059235
-1.107482 -1.325036 7.996199
-1.101260 -1.325758 7.933064
-1.095601 -1.326535 7.869879
-1.090408 -1.327357 7.806652
-1.086151 -1.328268 7.743357
-1.078647 -1.330323 7.610033
-1.076130 -1.331400 7.546647
-1.073953 -1.332511 7.483251
-1.072357 -1.333678 7.419837
-1.071288 -1.334898 7.356413
-1.070522 -1.336148 7.292986
-1.070615 -1.338955 7.159463
-1.071124 -1.340337 7.096035
-1.072190 -1.341779 7.032615
-1.073479 -1.343247 6.969201
-1.075056 -1.344747 6.905793
-1.077013 -1.346291 6.842397
-1.081801 -1.349626 6.708972
-1.084460 -1.351261 6.645604
-1.087240 -1.352913 6.582241
-1.090234 -1.354598 6.518889
-1.093343 -1.356303 6.455544
-1.096534 -1.358022 6.392202
-1.103569 -1.361719 6.258885
-1.106966 -1.363495 6.195556
-1.110371 -1.365290 6.132228
-1.113758 -1.367089 6.068899
-1.117107 -1.368894 6.005568
-1.120367 -1.370696 5.942233
-1.126928 -1.374467 5.808893
-1.129802 -1.376233 5.745538
-1.132568 -1.377985 5.682178
-1.135037 -1.379699 5.618804
-1.137323 -1.381386 5.555423
-1.139407 -1.383045 5.492034
-1.142690 -1.386370 5.358563
-1.143805 -1.387880 5.295146
-1.144447 -1.389315 5.231721
-1.144836 -1.390708 5.168293
-1.144712 -1.392018 5.104862
-1.144138 -1.393252 5.041432
-1.141462 -1.395603 4.907928
-1.139359 -1.396578 4.844527
-1.136868 -1.397487 4.781138
-1.133494 -1.398242 4.717787
-1.129718 -1.398926 4.654460
-1.125313 -1.399500 4.591171
-1.113923 -1.400335 4.458110
-1.107614 -1.400573 4.394980
-1.100718 -1.400707 4.331913
-1.093485 -1.400781 4.268882
-1.085563 -1.400734 4.205933
-1.077285 -1.400623 4.143032
-1.058508 -1.400150 4.010807
-1.049031 -1.399826 3.948075
-1.039243 -1.399448 3.885391
-1.029053 -1.398998 3.822772
-1.018687 -1.398517 3.760181
-1.008018 -1.397982 3.697642
-0.984922 -1.396743 3.566107
-0.973654 -1.396102 3.503674
-0.962274 -1.395442 3.441261
-0.950813 -1.394767 3.378864
-0.939230 -1.394071 3.316489
-0.927624 -1.393372 3.254119
-0.903138 -1.391891 3.122837
-0.891539 -1.391194 3.060465
-0.879989 -1.390507 2.998084
-0.868497 -1.389830 2.935692
-0.857036 -1.389160 2.873295
-0.845640 -1.388501 2.810885
-0.821768 -1.387138 2.679489
-0.810503 -1.386504 2.617055
-0.799266 -1.385876 2.554616
-0.788060 -1.385253 2.492172
-0.776899 -1.384640 2.429720
-0.765759 -1.384030 2.367263
-0.742412 -1.382765 2.235772
-0.731354 -1.382171 2.173301
-0.720324 -1.381582 2.110825
-0.709313 -1.380996 2.048345
-0.698315 -1.380413 1.985864
-0.687341 -1.379834 1.923378
-0.664269 -1.378622 1.791837
-0.653328 -1.378050 1.729346
-0.642390 -1.377478 1.666853
-0.631457 -1.376907 1.604360
-0.620527 -1.376337 1.541866
-0.609596 -1.375767 1.479373
-0.586577 -1.374564 1.347823
-0.575634 -1.373991 1.285331
-0.564679 -1.373416 1.222842
-0.553714 -1.372840 1.160354
-0.542740 -1.372261 1.097868
-0.531743 -1.371678 1.035387
-0.508545 -1.370442 0.903868
-0.497485 -1.369847 0.841398
-0.486409 -1.369249 0.778930
-0.475301 -1.368645 0.716468
-0.464163 -1.368036 0.654011
-0.453005 -1.367423 0.591558
-0.429381 -1.366106 0.460117
-0.418116 -1.365472 0.397683
-0.406788 -1.364827 0.335261
-0.395433 -1.364176 0.272844
-0.384036 -1.363518 0.210435
-0.372579 -1.362848 0.148036
109 NaN NaN
-2.374233 -1.397942 10.424855
-2.291671 -1.390991 10.367185
-2.211402 -1.384341 10.306331
-2.133581 -1.378007 10.242345
-2.058354 -1.372001 10.175297
-1.985855 -1.366333 10.105281
-1.916198 -1.361013 10.032411
-1.849479 -1.356046 9.956817
-1.785776 -1.351437 9.878643
-1.725140 -1.347187 9.798046
-1.667605 -1.343295 9.715189
-1.613182 -1.339758 9.630241
-1.561859 -1.336571 9.543370
-1.513611 -1.333727 9.454742
-1.468392 -1.331218 9.364521
-1.426145 -1.329034 9.272862
-1.386801 -1.327164 9.179913
-1.350279 -1.325597 9.085813
-1.316494 -1.324322 8.990691
-1.285354 -1.323325 8.894668
-1.256766 -1.322595 8.797851
-1.230631 -1.322119 8.700342
-1.206852 -1.321886 8.602230
-1.185334 -1.321884 8.503598
-1.165978 -1.322100 8.404518
-1.148692 -1.322524 8.305057
-1.133383 -1.323145 8.205274
-1.119963 -1.323952 8.105220
-1.108344 -1.324936 8.004942
-1.098443 -1.326086 7.904482
-1.090180 -1.327393 7.803875
-1.083475 -1.328849 7.703155
-1.078249 -1.330445 7.602349
-1.074412 -1.332175 7.501483
-1.071872 -1.334032 7.400578
-1.070537 -1.336010 7.299652
-1.070310 -1.338100 7.198720
-1.071094 -1.340297 7.097793
-1.072791 -1.342592 6.996879
-1.075300 -1.344979 6.895984
-1.078524 -1.347450 6.795111
-1.082361 -1.349998 6.694261
-1.086711 -1.352616 6.593435
-1.091475 -1.355296 6.492628
-1.096552 -1.358032 6.391838
-1.101843 -1.360817 6.291061
-1.107248 -1.363643 6.190291
-1.112667 -1.366501 6.089522
-1.117997 -1.369373 5.988749
-1.123132 -1.372239 5.887966
-1.127970 -1.375079 5.787167
-1.132406 -1.377872 5.686349
-1.136334 -1.380599 5.585508
-1.139650 -1.383238 5.484642
-1.142248 -1.385770 5.383753
-1.144021 -1.388173 5.282843
-1.144862 -1.390427 5.181917
-1.144665 -1.392511 5.080985
-1.143320 -1.394403 4.980057
-1.140720 -1.396082 4.879151
-1.136756 -1.397528 4.778285
-1.131321 -1.398717 4.677485
-1.124312 -1.399631 4.576779
-1.115731 -1.400267 4.476193
-1.105690 -1.400645 4.375740
-1.094309 -1.400786 4.275430
-1.081704 -1.400711 4.175266
-1.067993 -1.400439 4.075248
-1.053292 -1.399991 3.975370
-1.037719 -1.399389 3.875626
-1.021386 -1.398652 3.776005
-1.004409 -1.397801 3.676491
-0.986900 -1.396855 3.577071
-0.968972 -1.395836 3.477727
-0.950735 -1.394763 3.378439
-0.932302 -1.393655 3.279187
-0.913783 -1.392533 3.179952
-0.895288 -1.391417 3.080712
-0.876909 -1.390323 2.981451
-0.858656 -1.389253 2.882166
-0.840522 -1.388206 2.782858
-0.822497 -1.387179 2.683531
-0.804573 -1.386171 2.584186
-0.786741 -1.385180 2.484823
-0.768992 -1.384205 2.385446
-0.751318 -1.383245 2.286055
-0.733711 -1.382297 2.186652
-0.716160 -1.381359 2.087239
-0.698658 -1.380431 1.987817
-0.681196 -1.379510 1.888389
-0.663764 -1.378596 1.788955
-0.646355 -1.377685 1.689517
-0.628958 -1.376777 1.590076
-0.611566 -1.375869 1.490635
-0.594170 -1.374961 1.391195
-0.576761 -1.374051 1.291757
-0.559329 -1.373136 1.192323
-0.541866 -1.372215 1.092894
-0.524364 -1.371287 0.993472
-0.506813 -1.370349 0.894059
-0.489205 -1.369401 0.794657
-0.471531 -1.368441 0.695266
-0.453782 -1.367466 0.595888
-0.435950 -1.366475 0.496526
-0.418025 -1.365467 0.397181
-0.400000 -1.364440 0.297853
-0.381865 -1.363392 0.198546
-0.363612 -1.362322 0.099261
-0.345232 -1.361228 -0.000000
-2.374579 -1.398301 10.424882
-3.494767 -1.550661 10.239624
-4.253757 -0.657188 9.844274
-4.786202 0.433897 9.549821
-5.327215 1.519270 9.249438
-5.868089 2.604559 8.948469
-6.419983 3.687310 8.658785
-7.018564 4.742819 8.362057
-7.702277 5.738723 8.045478
-8.503902 6.632280 7.703293
-9.438729 7.372617 7.336067
-10.491983 7.920420 6.952433
-11.626569 8.266799 6.564845
-12.803605 8.432934 6.183230
-2.375967 -1.399737 10.424988
-3.493156 -1.551675 10.240240
-3.496377 -1.549648 10.239008
-4.252865 -0.658905 9.844781
-4.254649 -0.655472 9.843767
-4.785323 0.432169 9.550312
-4.787082 0.435625 9.549329
-5.326348 1.517534 9.249920
-5.328082 1.521007 9.248956
-5.867223 2.602823 8.948955
-5.868955 2.606296 8.947984
-6.419073 3.685591 8.659249
-6.420893 3.689030 8.658322
-7.017543 4.741171 8.362547
-7.019585 4.744468 8.361568
-7.701096 5.737197 8.046004
-7.703458 5.740248 8.044952
-8.502520 6.630950 7.703861
-8.505283 6.633610 7.702726
-9.437128 7.371582 7.336672
-9.440330 7.373653 7.335463
-10.490224 7.919698 6.953053
-10.493742 7.921141 6.951812
-11.624708 8.266403 6.565463
-11.628429 8.267196 6.564228
-12.801703 8.432791 6.183833
-2.394345 -1.418760 10.426396
-3.471830 -1.565101 10.248396
-3.517704 -1.536221 10.230852
-4.241046 -0.681639 9.851498
-4.266163 -0.632524 9.837262
-4.773671 0.409288 9.556815
-4.798733 0.458506 9.542826
-5.314860 1.494536 9.256303
-5.339570 1.544005 9.242573
-5.855760 2.579825 8.955383
-5.880422 2.629292 8.941560
-6.407024 3.662815 8.665391
-6.432942 3.711805 8.652180
-7.004136 4.719259 8.369008
-7.033107 4.766300 8.355079
-7.685449 5.716994 8.052975
-7.719105 5.760452 8.037981
-8.484222 6.613335 7.711378
-8.523786 6.650992 7.695170
-9.415926 7.357870 7.344676
-9.461532 7.387364 7.327458
-10.466928 7.910139 6.961270
-10.517095 7.930559 6.943593
-11.600073 8.261126 6.573641
-11.653070 8.272446 6.556050
-12.776519 8.430899 6.191821
-2.482106 -1.500361 10.430693
-2.643407 -1.599934 10.425290
-2.822244 -1.660564 10.406011
-3.008308 -1.682889 10.374867
-3.193282 -1.668259 10.333665
-3.369368 -1.616800 10.283762
-3.609778 -1.469115 10.192808
-3.742804 -1.348346 10.130006
-3.866516 -1.218992 10.065139
-3.982968 -1.083154 10.000125
-4.090162 -0.938548 9.938298
-4.185976 -0.783719 9.882937
-4.317267 -0.527594 9.808568
-4.396287 -0.359980 9.764800
-4.475320 -0.192232 9.721563
-4.555388 -0.025101 9.677852
-4.637258 0.140790 9.632780
-4.720714 0.305519 9.586371
-4.851392 0.562482 9.513466
-4.933974 0.727795 9.467573
-5.015971 0.893522 9.422122
-5.097952 1.059264 9.376697
-5.180234 1.224799 9.331060
-5.262735 1.390179 9.285259
-5.391688 1.648364 9.213610
-5.474223 1.813714 9.167762
-5.556701 1.979118 9.122005
-5.639107 2.144583 9.076343
-5.721460 2.310053 9.030598
-5.803783 2.475459 8.984572
-5.932505 2.733644 8.912508
-6.015304 2.899004 8.867178
-6.098605 3.064440 8.823060
-6.182520 3.229790 8.779791
-6.267148 3.394820 8.736687
-6.352590 3.559317 8.693156
-6.487995 3.814913 8.624185
-6.576169 3.977684 8.579624
-6.665703 4.139643 8.534820
-6.756708 4.300692 8.489702
-6.849313 4.460715 8.444191
-6.943653 4.619595 8.398242
-7.094780 4.865149 8.325564
-7.194192 5.020544 8.278411
-7.295815 5.174345 8.230748
-7.399776 5.326405 8.182547
-7.506196 5.476575 8.133786
-7.615190 5.624694 8.084445
-7.790879 5.851463 8.006180
-7.907047 5.993473 7.955269
-8.026142 6.132806 7.903737
-8.148241 6.269276 7.851579
-8.273397 6.402701 7.798798
-8.401656 6.532894 7.745398
-8.608244 6.729289 7.660791
-8.744550 6.850348 7.605866
-8.883983 6.967531 7.550382
-9.026505 7.080677 7.494367
-9.172058 7.189641 7.437854
-9.320654 7.294161 7.380866
-9.558404 7.448481 7.291045
-9.714158 7.541382 7.233064
-9.872492 7.629610 7.174774
-10.033266 7.713124 7.116225
-10.196343 7.791890 7.057462
-10.361575 7.865897 6.998533
-10.623580 7.971958 6.906279
-10.793642 8.033862 6.847129
-10.965319 8.091131 6.787969
-11.138465 8.143826 6.728836
-11.312968 8.191921 6.669770
-11.488652 8.235635 6.610803
-11.765069 8.295411 6.518978
-11.943209 8.328370 6.460390
-12.122103 8.357343 6.401993
-12.301648 8.382450 6.343806
-12.481751 8.403814 6.285845
-12.662324 8.421559 6.228123
173 NaN NaN
-2.374233 -1.397942 10.424855
-2.443876 -1.470026 10.430191
-2.522502 -1.532415 10.431224
-2.608403 -1.584257 10.428039
-2.699790 -1.625185 10.420863
-2.794983 -1.655183 10.409994
-2.892488 -1.674430 10.395747
-2.991001 -1.683166 10.378415
-3.089353 -1.681595 10.358254
-3.186437 -1.669843 10.335485
-3.281133 -1.647931 10.310306
-3.372220 -1.615794 10.282904
-3.458429 -1.573538 10.253521
-3.539281 -1.522638 10.222600
-3.615092 -1.465081 10.190562
-3.686583 -1.402653 10.157692
-3.754684 -1.336870 10.124155
-3.820420 -1.269009 10.090031
-3.884351 -1.199642 10.055509
-3.946252 -1.128434 10.021038
-4.005802 -1.054994 9.987119
-4.062641 -0.978963 9.954279
-4.116379 -0.900047 9.923075
-4.166707 -0.818131 9.893985
-4.213964 -0.733736 9.866889
-4.258782 -0.647521 9.841418
-4.301829 -0.560054 9.817179
-4.343786 -0.471833 9.793775
-4.385336 -0.383304 9.770808
-4.426912 -0.294747 9.747997
-4.468647 -0.206261 9.725202
-4.510658 -0.117935 9.702290
-4.553059 -0.029861 9.679129
-4.595966 0.057865 9.655586
-4.639445 0.145182 9.631572
-4.683368 0.232170 9.607182
-4.727557 0.318959 9.582557
-4.771833 0.405677 9.557842
-4.816020 0.492455 9.533176
-4.859947 0.579418 9.508698
-4.903568 0.666598 9.484447
-4.946963 0.753937 9.460365
-4.990218 0.841375 9.436389
-5.033419 0.928852 9.412456
-5.076652 1.016307 9.388504
-5.119983 1.103696 9.364484
-5.163404 1.191022 9.340400
-5.206894 1.278300 9.316266
-5.250431 1.365543 9.292093
-5.293995 1.452767 9.267896
-5.337563 1.539986 9.243688
-5.381125 1.627207 9.219480
-5.424678 1.714435 9.195279
-5.468218 1.801674 9.171095
-5.511742 1.888928 9.146936
-5.555248 1.976201 9.122810
-5.598733 2.063492 9.098717
-5.642200 2.150795 9.074629
-5.685652 2.238097 9.050517
-5.729093 2.325391 9.026352
-5.772526 2.412665 9.002102
-5.815955 2.499912 8.977746
-5.859401 2.587135 8.953337
-5.902890 2.674350 8.928973
-5.946452 2.761568 8.904753
-5.990114 2.848803 8.880775
-6.033903 2.936067 8.857138
-6.077844 3.023356 8.833876
-6.121949 3.110638 8.810899
-6.166235 3.197876 8.788106
-6.210714 3.285038 8.765395
-6.255401 3.372087 8.742664
-6.300310 3.458991 8.719813
-6.345460 3.545725 8.696794
-6.390871 3.632283 8.673625
-6.436567 3.718658 8.650331
-6.482569 3.804842 8.626935
-6.528898 3.890828 8.603458
-6.575577 3.976609 8.579920
-6.622627 4.062169 8.556319
-6.670067 4.147493 8.532642
-6.717917 4.232562 8.508876
-6.766198 4.317360 8.485011
-6.814928 4.401868 8.461033
-6.864128 4.486069 8.436935
-6.913818 4.569947 8.412712
-6.964019 4.653483 8.388364
-7.014750 4.736660 8.363888
-7.066032 4.819461 8.339281
-7.117884 4.901865 8.314541
-7.170326 4.983855 8.289665
-7.223376 5.065409 8.264649
-7.277055 5.146506 8.239488
-7.331381 5.227124 8.214178
-7.386372 5.307242 8.188715
-7.442046 5.386837 8.163097
-7.498420 5.465885 8.137319
-7.555511 5.544364 8.111380
-7.613336 5.622249 8.085276
-7.671912 5.699515 8.059007
-7.731253 5.776136 8.032569
-7.791373 5.852088 8.005961
-7.852287 5.927345 7.979181
-7.914008 6.001879 7.952229
-7.976546 6.075664 7.925104
-8.039915 6.148673 7.897804
-8.104124 6.220877 7.870329
-8.169182 6.292250 7.842679
-8.235096 6.362765 7.814856
-8.301873 6.432394 7.786859
-8.369519 6.501108 7.758690
-8.438039 6.568880 7.730350
-8.507436 6.635681 7.701842
-8.577710 6.701487 7.673167
-8.648861 6.766272 7.644328
-8.720887 6.830008 7.615330
-8.793788 6.892671 7.586174
-8.867560 6.954232 7.556864
-8.942196 7.014670 7.527405
-9.017688 7.073963 7.497802
-9.094027 7.132091 7.468059
-9.171204 7.189030 7.438182
-9.249209 7.244761 7.408176
-9.328031 7.299262 7.378046
-9.407654 7.352520 7.347799
-9.488062 7.404522 7.317442
-9.569238 7.455251 7.286980
-9.651167 7.504696 7.256420
-9.733833 7.552841 7.225768
-9.817215 7.599679 7.195032
-9.901293 7.645205 7.164219
-9.986045 7.689412 7.133336
-10.071452 7.732297 7.102389
-10.157492 7.773854 7.071385
-10.244144 7.814081 7.040332
-10.331386 7.852979 7.009237
-10.419193 7.890552 6.978105
-10.507544 7.926805 6.946944
-10.596416 7.961739 6.915761
-10.685788 7.995361 6.884562
-10.775637 8.027677 6.853353
-10.865940 8.058697 6.822139
-10.956674 8.088432 6.790928
-11.047819 8.116893 6.759724
-11.139354 8.144090 6.728533
-11.231257 8.170036 6.697361
-11.323509 8.194744 6.666211
-11.416088 8.218230 6.635090
-11.508976 8.240510 6.604000
-11.602155 8.261597 6.572947
-11.695605 8.281509 6.541935
-11.789309 8.300262 6.510967
-11.883250 8.317872 6.480047
-11.977412 8.334358 6.449178
-12.071779 8.349737 6.418363
-12.166335 8.364028 6.387605
-12.261067 8.377247 6.356907
-12.355960 8.389414 6.326272
-12.451000 8.400546 6.295701
-12.546175 8.410662 6.265196
-12.641473 8.419780 6.234760
-12.736882 8.427920 6.204394
-12.832391 8.435098 6.174099
-12.927989 8.441332 6.143878
-13.023666 8.446639 6.113731
-13.119414 8.451038 6.083660
-13.215222 8.454545 6.053665
-13.311082 8.457178 6.023748
-13.406987 8.458955 5.993908
-13.502928 8.459893 5.964148
-13.598897 8.460009 5.934466
-13.694889 8.459320 5.904863
-13.790897 8.457845 5.875340
-0.871157 -1.230092 14.717986
-0.788113 -1.028012 14.709219
-0.723679 -0.819128 14.705829
-0.683958 -0.604228 14.709383
-0.676669 -0.386216 14.721737
-0.709496 -0.171518 14.744505
-0.786119 0.030161 14.778027
-0.902804 0.209742 14.820718
-1.050339 0.363190 14.869873
-1.219058 0.491555 14.922998
-1.401638 0.598270 14.978379
-0.870361 -1.228260 14.717895
-0.788836 -1.029876 14.709288
-0.787466 -1.026121 14.709171
-0.724219 -0.821054 14.705846
-0.723199 -0.817188 14.705829
-0.684255 -0.606206 14.709333
-0.683687 -0.602249 14.709441
-0.676649 -0.388212 14.721600
-0.676689 -0.384221 14.721873
-0.709093 -0.173462 14.744270
-0.709900 -0.169573 14.744739
-0.785313 0.028360 14.777695
-0.786925 0.031961 14.778358
-0.901649 0.208162 14.820308
-0.903960 0.211322 14.821128
-1.048926 0.361852 14.869411
-1.051752 0.364528 14.870335
-1.217472 0.490440 14.922505
-1.220643 0.492670 14.923492
-1.399940 0.597344 14.977868
-0.866716 -1.219873 14.717479
-0.792144 -1.038406 14.709606
-0.784547 -1.017447 14.708966
-0.726691 -0.829868 14.705924
-0.721244 -0.808244 14.705897
-0.685614 -0.615256 14.709100
-0.683010 -0.593129 14.709859
-0.676557 -0.397344 14.720978
-0.677598 -0.375152 14.722708
-0.707245 -0.182364 14.743197
-0.712579 -0.160918 14.746016
-0.781624 0.020121 14.776177
-0.791311 0.039810 14.780035
-0.896361 0.200928 14.818433
-0.909732 0.218137 14.823104
-1.042459 0.355727 14.867296
-1.058516 0.370294 14.872505
-1.210215 0.485337 14.920247
-1.228072 0.497500 14.925777
-1.392169 0.593106 14.975531
-0.857659 -1.199034 14.716444
-0.845642 -1.171384 14.715071
-0.833625 -1.143733 14.713698
-0.822169 -1.115844 14.712489
-0.811265 -1.087722 14.711442
-0.800361 -1.059600 14.710395
-0.777293 -0.995896 14.708456
-0.767669 -0.967299 14.707779
-0.758044 -0.938702 14.707102
-0.749129 -0.909884 14.706627
-0.740980 -0.880825 14.706372
-0.732832 -0.851767 14.706116
-0.716387 -0.786025 14.706066
-0.709943 -0.756541 14.706290
-0.703499 -0.727058 14.706514
-0.697952 -0.697413 14.706986
-0.693471 -0.667577 14.707754
-0.688991 -0.637741 14.708521
-0.681326 -0.570470 14.710898
-0.679093 -0.540404 14.712276
-0.676859 -0.510338 14.713654
-0.675725 -0.480253 14.715325
-0.676027 -0.450144 14.717378
-0.676329 -0.420035 14.719431
-0.679935 -0.352625 14.724803
-0.683036 -0.322733 14.727584
-0.686136 -0.292841 14.730364
-0.690469 -0.263174 14.733456
-0.696561 -0.233827 14.736994
-0.702654 -0.204481 14.740531
-0.719483 -0.139489 14.749250
-0.728644 -0.111055 14.753541
-0.737804 -0.082620 14.757832
-0.748138 -0.054682 14.762401
-0.760299 -0.027517 14.767404
-0.772460 -0.000352 14.772407
-0.802580 0.059104 14.784286
-0.817533 0.084706 14.789926
-0.832486 0.110308 14.795566
-0.848355 0.135262 14.801407
-0.865789 0.159109 14.807590
-0.883223 0.182956 14.813773
-0.924470 0.234726 14.828097
-0.944026 0.256738 14.834722
-0.963581 0.278751 14.841347
-0.983751 0.300130 14.848093
-1.005071 0.320320 14.855067
-1.026392 0.340511 14.862040
-1.075669 0.384197 14.877962
-1.098431 0.402645 14.885204
-1.121192 0.421093 14.892445
-1.144332 0.439014 14.899752
-1.168258 0.455837 14.907195
-1.192184 0.472659 14.914638
-1.246809 0.509053 14.931500
-1.271673 0.524383 14.939094
-1.296536 0.539713 14.946688
-1.321626 0.554634 14.954315
-1.347245 0.568605 14.962020
-1.372863 0.582577 14.969725
22 NaN NaN
-0.871356 -1.230550 14.718009
-0.827670 -1.130030 14.713018
-0.788030 -1.027798 14.709211
-0.753043 -0.923843 14.706750
-0.723423 -0.818212 14.705821
-0.699998 -0.711041 14.706636
-0.683713 -0.602593 14.709425
-0.675594 -0.493316 14.714434
-0.676692 -0.383891 14.721895
-0.687960 -0.275263 14.731999
-0.710098 -0.168621 14.744854
-0.743385 -0.065297 14.760446
-0.787575 0.033414 14.778626
-0.841912 0.126448 14.799122
-0.905268 0.213112 14.821592
-0.976341 0.293113 14.845670
-1.053833 0.366498 14.871016
-1.136567 0.433554 14.897336
-1.223537 0.494705 14.924392
-1.313919 0.550430 14.951997
-1.407047 0.601220 14.980006
-1.502393 0.647538 15.008310
-1.872452 -1.457462 11.475425
-1.687410 -1.342542 11.504400
-1.507462 -1.220375 11.535667
-1.334364 -1.089401 11.569739
-1.170866 -0.947544 11.607308
-1.021495 -0.792088 11.649307
-0.894039 -0.619823 11.696903
-0.801802 -0.428482 11.751142
-0.763853 -0.221631 11.811491
-0.794301 -0.014309 11.873881
-0.886420 0.175442 11.932767
-1.020355 0.340940 11.985615
-1.179611 0.484573 12.032676
-1.354352 0.610758 12.074987
-1.539062 0.723291 12.113523
-1.870758 -1.456432 11.475684
-1.689062 -1.343635 11.504121
-1.685758 -1.341450 11.504678
-1.509058 -1.221543 11.535365
-1.505867 -1.219208 11.535969
-1.335882 -1.090661 11.569407
-1.332846 -1.088142 11.570071
-1.172272 -0.948918 11.606939
-1.169460 -0.946171 11.607677
-1.022731 -0.793604 11.648891
-1.020258 -0.790572 11.649722
-0.895006 -0.621509 11.696430
-0.893072 -0.618138 11.697377
-0.802340 -0.430332 11.750607
-0.801264 -0.426631 11.751676
-0.763794 -0.223547 11.810921
-0.763912 -0.219715 11.812062
-0.793634 -0.016111 11.873327
-0.794969 -0.012506 11.874434
-0.885310 0.173855 11.932265
-0.887530 0.177028 11.933268
-1.018973 0.339565 11.985168
-1.021737 0.342315 11.986061
-1.178064 0.483370 12.032276
-1.181157 0.485776 12.033076
-1.352701 0.609690 12.074624
-1.356004 0.611826 12.075350
-1.537341 0.722329 12.113189
-1.862971 -1.451696 11.476874
-1.696749 -1.348520 11.502885
-1.678166 -1.336429 11.505958
-1.516482 -1.226789 11.534014
-1.498534 -1.213843 11.537358
-1.342937 -1.096357 11.567912
-1.325870 -1.082355 11.571595
-1.178777 -0.955188 11.605259
-1.162997 -0.939858 11.609371
-1.028414 -0.800571 11.646981
-1.014576 -0.783605 11.651633
-0.899450 -0.629255 11.694254
-0.888628 -0.610392 11.699553
-0.804813 -0.438837 11.748151
-0.798791 -0.418126 11.754132
-0.763521 -0.232352 11.808299
-0.764185 -0.210910 11.814683
-0.790565 -0.024393 11.870783
-0.798038 -0.004224 11.876978
-0.880209 0.166565 11.929959
-0.892631 0.184318 11.935574
-1.012623 0.333245 11.983116
-1.028088 0.348635 11.988114
-1.170956 0.477841 12.030437
-1.188266 0.491306 12.034915
-1.345112 0.604780 12.072956
-1.363593 0.616736 12.077018
-1.529430 0.717908 12.111657
-1.843606 -1.439920 11.479832
-1.817908 -1.424292 11.483757
-1.792211 -1.408665 11.487682
-1.766680 -1.392788 11.491686
-1.741284 -1.376712 11.495753
-1.715887 -1.360635 11.499820
-1.659287 -1.323943 11.509140
-1.634234 -1.307375 11.513362
-1.609181 -1.290807 11.517585
-1.584378 -1.273898 11.521915
-1.559721 -1.256789 11.526309
-1.535064 -1.239681 11.530703
-1.480299 -1.200502 11.540812
-1.456101 -1.182798 11.545395
-1.431902 -1.165094 11.549979
-1.408085 -1.146923 11.554711
-1.384426 -1.128560 11.559505
-1.360766 -1.110196 11.564299
-1.308522 -1.067963 11.575385
-1.285501 -1.048866 11.580415
-1.262480 -1.029768 11.585444
-1.240059 -1.010029 11.590681
-1.217804 -0.990113 11.595975
-1.195548 -0.970196 11.601269
-1.146927 -0.924160 11.613585
-1.125602 -0.903328 11.619177
-1.104277 -0.882496 11.624768
-1.083938 -0.860784 11.630649
-1.063758 -0.838930 11.636576
-1.043577 -0.817075 11.642503
-1.000445 -0.766279 11.656383
-0.981692 -0.743288 11.662687
-0.962940 -0.720297 11.668992
-0.945878 -0.696137 11.675690
-0.928927 -0.671900 11.682414
-0.911975 -0.647663 11.689137
-0.877578 -0.591129 11.704964
-0.862914 -0.565568 11.712145
-0.848299 -0.539984 11.719333
-0.836533 -0.513096 11.726988
-0.824767 -0.486209 11.734643
-0.813001 -0.459321 11.742298
-0.792640 -0.396976 11.760239
-0.784479 -0.368911 11.768344
-0.776740 -0.340766 11.776484
-0.772874 -0.311897 11.784946
-0.769008 -0.283028 11.793409
-0.765142 -0.254158 11.801871
-0.764864 -0.189012 11.821202
-0.765765 -0.159955 11.829853
-0.767542 -0.130997 11.838498
-0.773259 -0.102484 11.847121
-0.778975 -0.073972 11.855744
-0.784691 -0.045460 11.864366
-0.805670 0.016371 11.883304
-0.815798 0.043702 11.891698
-0.826912 0.070616 11.899996
-0.840765 0.096376 11.908028
-0.854617 0.122136 11.916060
-0.868469 0.147897 11.924091
-0.905317 0.202446 11.941308
-0.922150 0.226503 11.948917
-0.939786 0.249985 11.956377
-0.958944 0.272378 11.963556
-0.978101 0.294770 11.970736
-0.997258 0.317163 11.977915
-1.043880 0.364350 11.993218
-1.064837 0.385205 11.999990
-1.086386 0.405475 12.006606
-1.108743 0.424948 12.013008
-1.131099 0.444421 12.019409
-1.153455 0.463894 12.025811
-1.205942 0.505056 12.039487
-1.229399 0.523302 12.045555
-1.253296 0.541005 12.051474
-1.277630 0.558167 12.057244
-1.301965 0.575329 12.063015
-1.326299 0.592490 12.068785
-1.382465 0.628945 12.081167
-1.407508 0.645147 12.086672
-1.432887 0.660857 12.092040
-1.458511 0.676207 12.097309
-1.484136 0.691557 12.102577
-1.509760 0.706907 12.107845
30 NaN NaN
-1.872876 -1.457720 11.475361
-1.780767 -1.401706 11.489430
-1.689738 -1.344081 11.504007
-1.599940 -1.284695 11.519142
-1.511560 -1.223374 11.534891
-1.424827 -1.159918 11.551319
-1.340026 -1.094098 11.568502
-1.257513 -1.025648 11.586530
-1.177746 -0.954266 11.605504
-1.101316 -0.879604 11.625545
-1.028992 -0.801279 11.646786
-0.961789 -0.718885 11.669379
-0.901045 -0.632035 11.693473
-0.848503 -0.540448 11.719201
-0.806352 -0.444126 11.746624
-0.777120 -0.343605 11.775652
-0.763277 -0.240227 11.805955
-0.766502 -0.136187 11.836929
-0.786971 -0.034092 11.867804
-0.823240 0.063787 11.897867
-0.872860 0.156063 11.926637
-0.933171 0.242253 11.953898
-1.001817 0.322492 11.979624
-1.076918 0.397228 12.003895
-1.157040 0.467016 12.026837
-1.241110 0.532411 12.048585
-1.328327 0.593921 12.069266
-1.418088 0.651992 12.088998
-1.509931 0.707010 12.107881
-1.603503 0.759306 12.126004
-2.023799 -1.369128 10.142422
-1.844350 -1.285060 10.167024
-1.667992 -1.195057 10.192892
-1.495694 -1.097944 10.220268
-1.328919 -0.992151 10.249468
-1.169967 -0.875569 10.280906
-1.022641 -0.745384 10.315112
-0.893475 -0.598083 10.352698
-0.794620 -0.430004 10.394140
-0.744255 -0.242744 10.438530
-0.755121 -0.049432 10.482481
-0.822390 0.133343 10.522339
-0.929362 0.297847 10.556829
-1.061226 0.444570 10.586505
-1.208706 0.576574 10.612344
-1.366439 0.696832 10.635188
-1.531445 0.807405 10.655596
-2.021995 -1.368299 10.142666
-1.846140 -1.285917 10.166774
-1.842561 -1.284202 10.167273
-1.669746 -1.195982 10.192628
-1.666239 -1.194132 10.193156
-1.497399 -1.098951 10.219987
-1.493990 -1.096936 10.220550
-1.330554 -0.993262 10.249165
-1.327283 -0.991040 10.249771
-1.171499 -0.876811 10.280575
-1.168435 -0.874326 10.281236
-1.024008 -0.746797 10.314748
-1.021273 -0.743970 10.315477
-0.894567 -0.599709 10.352293
-0.892383 -0.596457 10.353103
-0.795509 -0.431744 10.393715
-0.793732 -0.428263 10.394565
-0.744573 -0.244667 10.438080
-0.743937 -0.240821 10.438980
-0.754761 -0.051352 10.482052
-0.755481 -0.047512 10.482910
-0.821492 0.131595 10.521966
-0.823287 0.135091 10.522713
-0.928130 0.296304 10.556512
-0.930594 0.299391 10.557146
-1.059795 0.443199 10.586234
-1.062657 0.445941 10.586776
-1.207150 0.575339 10.612108
-1.210261 0.577809 10.612581
-1.364829 0.695666 10.634969
-1.368077 0.697960 10.635397
-1.529776 0.806321 10.655398
-2.014338 -1.364783 10.143699
-1.853735 -1.289557 10.165714
-1.834965 -1.280562 10.168333
-1.677189 -1.199908 10.191507
-1.658796 -1.190206 10.194277
-1.504634 -1.103228 10.218792
-1.486755 -1.092660 10.221745
-1.337495 -0.997977 10.247878
-1.320342 -0.986325 10.251058
-1.178001 -0.882086 10.279174
-1.161933 -0.869051 10.282638
-1.029814 -0.752794 10.313201
-1.015468 -0.737973 10.317024
-0.899452 -0.606432 10.350608
-0.887747 -0.589556 10.354822
-0.799280 -0.439133 10.391910
-0.790423 -0.420686 10.396399
-0.745922 -0.252828 10.436171
-0.742587 -0.232660 10.440889
-0.753234 -0.059502 10.480231
-0.757009 -0.039362 10.484732
-0.817682 0.124176 10.520380
-0.827097 0.142509 10.524298
-0.922903 0.289751 10.555167
-0.935821 0.305943 10.558491
-1.053722 0.437381 10.585082
-1.068730 0.451760 10.587928
-1.200549 0.570097 10.611104
-1.216863 0.583050 10.613585
-1.358035 0.690664 10.634026
-1.375030 0.702750 10.636287
-1.522690 0.801722 10.654556
-1.995650 -1.356203 10.146221
-1.970884 -1.344832 10.149563
-1.946118 -1.333461 10.152906
-1.921403 -1.321987 10.156270
-1.896837 -1.310214 10.159698
-1.872272 -1.298441 10.163127
-1.816574 -1.271399 10.170980
-1.792238 -1.259186 10.174502
-1.767901 -1.246972 10.178025
-1.743565 -1.234759 10.181547
-1.719423 -1.222189 10.185146
-1.695352 -1.209490 10.188771
-1.640667 -1.180564 10.197026
-1.616904 -1.167329 10.200765
-1.593141 -1.154094 10.204504
-1.569377 -1.140859 10.208244
-1.545692 -1.127497 10.212010
-1.522291 -1.113665 10.215875
-1.469097 -1.082223 10.224662
-1.445951 -1.067998 10.228609
-1.422982 -1.053499 10.232614
-1.400013 -1.039000 10.236620
-1.377044 -1.024501 10.240625
-1.354435 -1.009483 10.244738
-1.303403 -0.974819 10.254198
-1.280996 -0.959512 10.258371
-1.259181 -0.943415 10.262708
-1.237366 -0.927318 10.267045
-1.215550 -0.911220 10.271382
-1.193869 -0.894959 10.275752
-1.146065 -0.856178 10.286059
-1.125036 -0.839118 10.290593
-1.104546 -0.821460 10.295248
-1.084506 -0.803305 10.300003
-1.064466 -0.785150 10.304758
-1.044425 -0.766995 10.309514
-1.001300 -0.723336 10.320798
-0.982525 -0.703938 10.325800
-0.963790 -0.684504 10.330810
-0.946654 -0.663710 10.336083
-0.929518 -0.642916 10.341356
-0.912382 -0.622123 10.346629
-0.876435 -0.572714 10.359016
-0.861443 -0.550394 10.364575
-0.846452 -0.528074 10.370134
-0.832875 -0.504956 10.375833
-0.820679 -0.481060 10.381670
-0.808483 -0.457164 10.387506
-0.783904 -0.401561 10.400974
-0.775263 -0.376215 10.407036
-0.766623 -0.350869 10.413099
-0.757983 -0.325523 10.419162
-0.753579 -0.299138 10.425336
-0.749215 -0.272744 10.431511
-0.741036 -0.212608 10.445528
-0.741367 -0.185844 10.451648
-0.741699 -0.159081 10.457768
-0.742031 -0.132318 10.463888
-0.744565 -0.105748 10.469897
-0.749506 -0.079390 10.475787
-0.760737 -0.019474 10.489176
-0.769165 0.006011 10.494761
-0.778171 0.031350 10.500297
-0.787177 0.056690 10.505832
-0.796182 0.082029 10.511367
-0.808384 0.106072 10.516510
-0.836396 0.160614 10.528168
-0.849603 0.184119 10.533158
-0.864516 0.206683 10.537881
-0.879430 0.229246 10.542605
-0.894344 0.251809 10.547328
-0.910145 0.273762 10.551885
-0.948579 0.321933 10.561773
-0.965486 0.343124 10.566123
-0.983657 0.363285 10.570199
-1.002101 0.383222 10.574216
-1.020546 0.403160 10.578233
-1.038990 0.423097 10.582249
-1.083551 0.465959 10.590739
-1.103194 0.484778 10.594463
-1.123122 0.503298 10.598112
-1.143712 0.521126 10.601581
-1.164302 0.538955 10.605051
-1.184892 0.556783 10.608521
-1.232974 0.595843 10.616034
-1.254325 0.612796 10.619281
-1.275676 0.629750 10.622528
-1.297512 0.646099 10.625622
-1.319484 0.662278 10.628673
-1.341456 0.678456 10.631724
-1.391997 0.714438 10.638459
-1.414483 0.729928 10.641336
-1.436969 0.745418 10.644214
-1.459566 0.760749 10.647052
-1.482482 0.775623 10.649776
-1.505398 0.790498 10.652500
31 NaN NaN
-2.024250 -1.369335 10.142361
-1.927722 -1.325015 10.155388
-1.831975 -1.279129 10.168751
-1.737122 -1.231525 10.182480
-1.643302 -1.182032 10.196611
-1.550684 -1.130448 10.211185
-1.459481 -1.076538 10.226250
-1.369960 -1.020029 10.241860
-1.282465 -0.960596 10.258079
-1.197444 -0.897859 10.274982
-1.115487 -0.831372 10.292652
-1.037389 -0.760620 10.311183
-0.964224 -0.685030 10.330676
-0.897454 -0.604008 10.351223
-0.839050 -0.517054 10.372878
-0.791546 -0.423980 10.395611
-0.757902 -0.325285 10.419218
-0.740913 -0.222530 10.443259
-0.742204 -0.118348 10.467082
-0.761439 -0.015727 10.490013
-0.796511 0.082952 10.511569
-0.844510 0.176415 10.531545
-0.902615 0.264323 10.549948
-0.968496 0.346896 10.566897
-1.040372 0.424591 10.582550
-1.116921 0.497929 10.597067
-1.197166 0.567411 10.610589
-1.280380 0.633485 10.623243
-1.366016 0.696540 10.635134
-1.453655 0.756912 10.646350
-1.542972 0.814886 10.656967
-1.495083 -1.332405 9.418600
-1.302202 -1.167983 9.449451
-1.121021 -0.991228 9.482601
-0.957053 -0.798984 9.518635
-0.822291 -0.586172 9.558495
-0.733965 -0.351536 9.602405
-0.717624 -0.102356 9.648989
-0.792739 0.136112 9.693513
-0.937029 0.342157 9.731935
-1.122471 0.514200 9.763975
-1.331725 0.657829 9.790690
-1.554149 0.780992 9.813571
-1.493549 -1.331144 9.418836
-1.303667 -1.169322 9.449200
-1.300737 -1.166645 9.449702
-1.122390 -0.992661 9.482332
-1.119651 -0.989795 9.482870
-0.958284 -0.800533 9.518345
-0.955821 -0.797435 9.518925
-0.823171 -0.587938 9.558165
-0.821412 -0.584406 9.558826
-0.734440 -0.353445 9.602048
-0.733489 -0.349627 9.602762
-0.717534 -0.104320 9.648622
-0.717714 -0.100392 9.649356
-0.791793 0.134379 9.693190
-0.793684 0.137844 9.693837
-0.935718 0.340672 9.731658
-0.938340 0.343642 9.732212
-1.120941 0.512933 9.763739
-1.124000 0.515466 9.764211
-1.330016 0.656807 9.790500
-1.333433 0.658851 9.790880
-1.552373 0.780090 9.813404
-1.485541 -1.324564 9.420071
-1.311311 -1.176307 9.447890
-1.293092 -1.159660 9.451013
-1.129535 -1.000139 9.480930
-1.112506 -0.982317 9.484272
-0.964710 -0.808618 9.516830
-0.949876 -0.789003 9.520505
-0.827758 -0.597153 9.556439
-0.816825 -0.575191 9.560551
-0.736924 -0.363411 9.600184
-0.731005 -0.339661 9.604627
-0.717065 -0.114570 9.646706
-0.719446 -0.090296 9.651242
-0.786859 0.125337 9.691503
-0.798618 0.146886 9.695524
-0.928878 0.332922 9.730214
-0.945180 0.351393 9.733656
-1.112958 0.506322 9.762509
-1.132203 0.521805 9.765391
-1.321100 0.651472 9.789508
-1.342349 0.664186 9.791872
-1.543100 0.775379 9.812529
-1.465092 -1.307759 9.423225
-1.437907 -1.285419 9.427417
-1.410733 -1.263067 9.431612
-1.384117 -1.240074 9.435926
-1.357502 -1.217080 9.440240
-1.330887 -1.194086 9.444555
-1.273570 -1.141823 9.454359
-1.247637 -1.118088 9.458811
-1.222460 -1.093580 9.463408
-1.197283 -1.069071 9.468004
-1.172105 -1.044563 9.472601
-1.147782 -1.019238 9.477349
-1.094298 -0.963184 9.487859
-1.071144 -0.936818 9.492802
-1.047990 -0.910453 9.497744
-1.024836 -0.884088 9.502686
-1.002935 -0.856710 9.507817
-0.981120 -0.829263 9.512961
-0.934703 -0.767462 9.524541
-0.914532 -0.738826 9.529906
-0.894361 -0.710190 9.535270
-0.876121 -0.680333 9.540862
-0.857992 -0.650406 9.546467
-0.839863 -0.620480 9.552072
-0.805109 -0.551656 9.564957
-0.789535 -0.520371 9.570814
-0.777015 -0.487794 9.576911
-0.764636 -0.455157 9.583019
-0.752258 -0.422521 9.589126
-0.743266 -0.388859 9.595424
-0.724663 -0.314213 9.609387
-0.720794 -0.279599 9.615859
-0.717078 -0.244959 9.622336
-0.713362 -0.210320 9.628812
-0.714272 -0.175543 9.635312
-0.715866 -0.140745 9.641815
-0.724782 -0.064624 9.656037
-0.731875 -0.030496 9.662411
-0.738969 0.003632 9.668786
-0.750652 0.036475 9.674917
-0.762926 0.069152 9.681017
-0.775201 0.101830 9.687117
-0.811219 0.169977 9.699831
-0.827970 0.200673 9.705558
-0.847986 0.229391 9.710914
-0.868368 0.257887 9.716227
-0.888751 0.286383 9.721540
-0.911409 0.313129 9.726525
-0.962648 0.371186 9.737344
-0.987864 0.395647 9.741901
-1.013276 0.419926 9.746423
-1.038688 0.444204 9.750945
-1.065471 0.466994 9.755188
-1.092572 0.489438 9.759366
-1.153576 0.537464 9.768304
-1.181990 0.558281 9.772177
-1.210404 0.579097 9.776050
-1.239665 0.598735 9.779702
-1.269112 0.618115 9.783306
-1.298559 0.637495 9.786910
-1.365120 0.677811 9.794404
-1.395390 0.695923 9.797770
-1.426212 0.713105 9.800963
-1.457148 0.730095 9.804119
-1.488085 0.747086 9.807275
-1.519419 0.763348 9.810295
27 NaN NaN
-1.495467 -1.332720 9.418541
-1.411220 -1.263488 9.431533
-1.328740 -1.192231 9.444903
-1.248312 -1.118745 9.458688
-1.170289 -1.042795 9.472932
-1.095119 -0.964118 9.487684
-1.023368 -0.882416 9.503000
-0.955768 -0.797367 9.518938
-0.893266 -0.708636 9.535562
-0.837097 -0.615912 9.552927
-0.788846 -0.518987 9.571073
-0.750502 -0.417892 9.589993
-0.724389 -0.313117 9.609592
-0.712883 -0.205858 9.629647
-0.717818 -0.098125 9.649780
-0.739779 0.007532 9.669514
-0.777786 0.108711 9.688401
-0.829663 0.203774 9.706137
-0.892797 0.292040 9.722595
-0.964740 0.373555 9.737786
-1.043475 0.448777 9.751796
-1.127448 0.518322 9.764743
-1.215494 0.582827 9.776744
-1.306743 0.642882 9.787912
-1.400547 0.699009 9.798344
-1.496416 0.751661 9.808125
-1.593975 0.801225 9.817328
-1.122395 -1.323381 8.125519
-1.052709 -1.224973 8.125507
-0.986820 -1.124000 8.126676
-0.925370 -1.020301 8.129188
-0.869141 -0.913739 8.133227
-0.819082 -0.804232 8.139005
-0.776329 -0.691797 8.146759
-0.742213 -0.576617 8.156742
-0.718534 -0.459088 8.169275
-0.707582 -0.340066 8.184713
-0.709890 -0.221017 8.202948
-0.726283 -0.103574 8.223912
-0.756851 0.010503 8.247362
-0.800895 0.119636 8.272913
-0.857073 0.222675 8.300113
-0.923703 0.319003 8.328515
-0.999406 0.408144 8.357758
-1.082389 0.490380 8.387504
-1.170921 0.566503 8.417509
-1.263944 0.637026 8.447625
-1.360614 0.702467 8.477752
-1.460263 0.763319 8.507823
-1.121233 -1.321754 8.125517
-1.053817 -1.226638 8.125492
-1.051602 -1.223308 8.125521
-0.987865 -1.125705 8.126642
-0.985776 -1.122295 8.126711
-0.926342 -1.022048 8.129132
-0.924399 -1.018554 8.129244
-0.870028 -0.915530 8.133147
-0.868254 -0.911949 8.133307
-0.819870 -0.806067 8.138897
-0.818294 -0.802397 8.139112
-0.777002 -0.693675 8.146621
-0.775656 -0.689919 8.146897
-0.742752 -0.578535 8.156570
-0.741673 -0.574698 8.156915
-0.718744 -0.461061 8.169025
-0.718324 -0.457115 8.169525
-0.707597 -0.342045 8.184421
-0.707566 -0.338088 8.185004
-0.709698 -0.222979 8.202615
-0.710083 -0.219054 8.203281
-0.725877 -0.105497 8.223540
-0.726689 -0.101651 8.224284
-0.756238 0.008644 8.246955
-0.757465 0.012363 8.247768
-0.800087 0.117859 8.272478
-0.801702 0.121414 8.273348
-0.856092 0.220993 8.299656
-0.858054 0.224357 8.300571
-0.922572 0.317422 8.328041
-0.924834 0.320583 8.328989
-0.998045 0.406765 8.357265
-1.000768 0.409524 8.358250
-1.080941 0.489093 8.387007
-1.083837 0.491667 8.388001
-1.169402 0.565302 8.417010
-1.172440 0.567704 8.418008
-1.262366 0.635903 8.447125
-1.265522 0.638148 8.448125
-1.358987 0.701416 8.477253
-1.362241 0.703517 8.478252
-1.458595 0.762334 8.507325
-1.117909 -1.317098 8.125510
-1.056984 -1.231402 8.125449
-1.048435 -1.218544 8.125564
-0.990852 -1.130583 8.126545
-0.982789 -1.117417 8.126808
-0.929120 -1.027046 8.128973
-0.921620 -1.013556 8.129404
-0.872564 -0.920653 8.132918
-0.865718 -0.906826 8.133536
-0.822124 -0.811316 8.138590
-0.816039 -0.797149 8.139420
-0.778928 -0.699048 8.146226
-0.773731 -0.684547 8.147293
-0.744294 -0.584022 8.156077
-0.740131 -0.569212 8.157408
-0.719705 -0.466660 8.168393
-0.717725 -0.451471 8.170241
-0.707641 -0.347704 8.183586
-0.707523 -0.332428 8.185839
-0.709147 -0.228593 8.201662
-0.710634 -0.213440 8.204234
-0.724717 -0.110997 8.222476
-0.727849 -0.096152 8.225349
-0.754482 0.003325 8.245792
-0.759221 0.017682 8.248931
-0.797776 0.112776 8.271233
-0.804013 0.126497 8.274593
-0.853286 0.216183 8.298347
-0.860860 0.229167 8.301879
-0.919339 0.312902 8.326686
-0.928124 0.325057 8.330349
-0.994192 0.402779 8.355859
-1.004662 0.413471 8.359659
-1.076800 0.485412 8.385586
-1.087979 0.495349 8.389423
-1.165056 0.561867 8.415582
-1.176786 0.571140 8.419436
-1.257852 0.632693 8.445696
-1.270036 0.641358 8.449555
-1.354333 0.698412 8.475824
-1.366895 0.706521 8.479680
-1.453824 0.759517 8.505899
-1.110773 -1.307105 8.125497
-1.101407 -1.293987 8.125479
-1.092040 -1.280870 8.125461
-1.082674 -1.267753 8.125443
-1.073308 -1.254636 8.125425
-1.063942 -1.241518 8.125407
-1.041635 -1.208319 8.125656
-1.032711 -1.194898 8.125776
-1.023786 -1.181477 8.125897
-1.014862 -1.168055 8.126017
-1.005937 -1.154634 8.126138
-0.997264 -1.141054 8.126335
-0.976377 -1.106946 8.127018
-0.967960 -1.093203 8.127294
-0.959544 -1.079460 8.127569
-0.951127 -1.065717 8.127845
-0.942914 -1.051856 8.128181
-0.935085 -1.037775 8.128630
-0.915655 -1.002828 8.129746
-0.907826 -0.988746 8.130196
-0.899997 -0.974664 8.130646
-0.892303 -0.960513 8.131134
-0.885156 -0.946081 8.131780
-0.878009 -0.931648 8.132426
-0.860273 -0.895831 8.134028
-0.853126 -0.881398 8.134674
-0.846019 -0.866948 8.135331
-0.839667 -0.852159 8.136197
-0.833316 -0.837371 8.137064
-0.826964 -0.822583 8.137930
-0.811200 -0.785882 8.140080
-0.804848 -0.771094 8.140946
-0.799334 -0.755991 8.142036
-0.793910 -0.740854 8.143150
-0.788485 -0.725717 8.144264
-0.783060 -0.710580 8.145377
-0.769598 -0.673014 8.148141
-0.764989 -0.657634 8.149463
-0.760643 -0.642175 8.150852
-0.756297 -0.626716 8.152241
-0.751951 -0.611258 8.153630
-0.747605 -0.595799 8.155019
-0.737578 -0.557271 8.158650
-0.734476 -0.541545 8.160341
-0.731374 -0.525819 8.162032
-0.728273 -0.510093 8.163723
-0.725171 -0.494367 8.165414
-0.722069 -0.478641 8.167105
-0.716438 -0.439355 8.171776
-0.714749 -0.423453 8.173791
-0.713060 -0.407551 8.175806
-0.711371 -0.391649 8.177820
-0.709682 -0.375747 8.179835
-0.707993 -0.359845 8.181850
-0.707428 -0.320280 8.187630
-0.707304 -0.304335 8.189981
-0.707180 -0.288390 8.192332
-0.707056 -0.272445 8.194684
-0.706933 -0.256500 8.197035
-0.707965 -0.240643 8.199616
-0.711815 -0.201390 8.206280
-0.713367 -0.185573 8.208965
-0.714918 -0.169756 8.211650
-0.716470 -0.153939 8.214335
-0.718958 -0.138298 8.217192
-0.722227 -0.122802 8.220191
-0.730339 -0.084346 8.227634
-0.733608 -0.068851 8.230633
-0.736877 -0.053355 8.233632
-0.740818 -0.038064 8.236742
-0.745765 -0.023078 8.240019
-0.750713 -0.008092 8.243295
-0.762990 0.029099 8.251428
-0.767938 0.044085 8.254704
-0.773284 0.058901 8.258040
-0.779795 0.073223 8.261547
-0.786305 0.087544 8.265054
-0.792816 0.101865 8.268561
-0.808973 0.137407 8.277265
-0.815637 0.151644 8.280792
-0.823544 0.165198 8.284478
-0.831450 0.178751 8.288165
-0.839356 0.192304 8.291852
-0.847263 0.205857 8.295538
-0.866884 0.239493 8.304688
-0.875952 0.252257 8.308502
-0.885063 0.264993 8.312321
-0.894175 0.277728 8.316139
-0.903286 0.290464 8.319958
-0.912397 0.303199 8.323777
-0.935840 0.334134 8.333328
-0.945967 0.346047 8.337239
-0.956094 0.357961 8.341149
-0.966222 0.369875 8.345059
-0.976349 0.381789 8.348969
-0.986476 0.393703 8.352880
-1.013021 0.421943 8.362684
-1.023993 0.433062 8.366653
-1.034964 0.444182 8.370623
-1.045936 0.455302 8.374593
-1.056908 0.466422 8.378563
-1.067909 0.477510 8.382534
-1.096869 0.503251 8.392474
-1.108538 0.513623 8.396480
-1.120207 0.523995 8.400485
-1.131876 0.534367 8.404490
-1.143545 0.544740 8.408496
-1.155728 0.554492 8.412517
-1.186114 0.578514 8.422501
-1.198358 0.588194 8.426525
-1.210601 0.597874 8.430548
-1.222845 0.607553 8.434571
-1.235444 0.616758 8.438598
-1.248162 0.625803 8.442626
-1.279726 0.648249 8.452624
-1.292445 0.657293 8.456653
-1.305163 0.666337 8.460681
-1.318118 0.675034 8.464708
-1.331231 0.683499 8.468733
-1.344343 0.691963 8.472758
-1.376885 0.712970 8.482747
-1.389998 0.721435 8.486772
-1.403259 0.729661 8.490793
-1.416700 0.737597 8.494809
-1.430142 0.745534 8.498824
-1.443583 0.753471 8.502840
25 NaN NaN
-1.122686 -1.323788 8.125520
-1.060589 -1.236824 8.125400
-1.001423 -1.147845 8.126199
-0.945625 -1.056732 8.128025
-0.893722 -0.963378 8.131006
-0.846343 -0.867700 8.135287
-0.804235 -0.769667 8.141030
-0.768277 -0.669328 8.148412
-0.739470 -0.566860 8.157619
-0.718910 -0.462627 8.168827
-0.707715 -0.357235 8.182181
-0.706894 -0.251564 8.197763
-0.717175 -0.146749 8.215556
-0.738837 -0.044065 8.235430
-0.771621 0.055243 8.257144
-0.814768 0.150153 8.280386
-0.867167 0.239978 8.304820
-0.927557 0.324389 8.330130
-0.994685 0.403359 8.356049
-1.067415 0.477071 8.382365
-1.144770 0.545829 8.408916
-1.225938 0.609998 8.435587
-1.310255 0.669958 8.462294
-1.397186 0.726075 8.488979
-1.486300 0.778693 8.515601
-1.070095 -1.337126 7.226322
-0.961564 -1.173015 7.266158
-0.864958 -1.001872 7.306960
-0.783893 -0.823113 7.348691
-0.723331 -0.636662 7.391145
-0.689660 -0.443705 7.433783
-0.689871 -0.247788 7.475538
-0.729087 -0.055382 7.514801
-0.807380 0.125642 7.549890
-0.919151 0.289378 7.579797
-1.056256 0.433759 7.604445
-1.211295 0.559608 7.624341
-1.378295 0.669750 7.640354
-1.068988 -1.335508 7.226716
-0.962617 -1.174668 7.265759
-0.960512 -1.171361 7.266558
-0.865876 -1.003601 7.306550
-0.864041 -1.000143 7.307370
-0.784630 -0.824925 7.348272
-0.783155 -0.821302 7.349110
-0.723827 -0.638552 7.390720
-0.722834 -0.634772 7.391570
-0.689838 -0.445652 7.433361
-0.689482 -0.441758 7.434206
-0.689656 -0.249734 7.475133
-0.690086 -0.245841 7.475944
-0.728450 -0.057242 7.514433
-0.729725 -0.053522 7.515169
-0.806363 0.123949 7.549574
-0.808398 0.127335 7.550205
-0.917843 0.287888 7.579537
-0.920460 0.290869 7.580056
-1.054837 0.432370 7.604212
-1.057678 0.435146 7.604677
-1.209709 0.558403 7.624155
-1.212880 0.560813 7.624527
-1.376598 0.668702 7.640206
-1.064267 -1.328609 7.228398
-0.967103 -1.181716 7.264055
-0.956030 -1.164310 7.268261
-0.869787 -1.010974 7.304804
-0.860130 -0.992769 7.309116
-0.787776 -0.832646 7.346485
-0.780010 -0.813581 7.350897
-0.725944 -0.646611 7.388907
-0.720718 -0.626713 7.393383
-0.690597 -0.453951 7.431557
-0.688723 -0.433459 7.436010
-0.688741 -0.258034 7.473405
-0.691001 -0.237541 7.477672
-0.725731 -0.065170 7.512864
-0.732443 -0.045594 7.516737
-0.802024 0.116733 7.548230
-0.812736 0.134551 7.551549
-0.912374 0.281450 7.578410
-0.926038 0.297223 7.581161
-1.048785 0.426444 7.603220
-1.064119 0.440663 7.605565
-1.202950 0.553266 7.623362
-1.219640 0.565950 7.625320
-1.369362 0.664236 7.639578
-1.052734 -1.311754 7.232507
-1.037447 -1.289416 7.237952
-1.022161 -1.267077 7.243397
-1.007119 -1.244582 7.248865
-0.992591 -1.221759 7.254380
-0.978064 -1.198936 7.259895
-0.945724 -1.146703 7.272475
-0.932063 -1.123368 7.278060
-0.918403 -1.100032 7.283646
-0.904743 -1.076697 7.289231
-0.892007 -1.052861 7.294881
-0.879342 -1.028987 7.300537
-0.850996 -0.974551 7.313408
-0.839480 -0.950118 7.319132
-0.827965 -0.925685 7.324855
-0.816450 -0.901252 7.330578
-0.805645 -0.876514 7.336335
-0.795460 -0.851511 7.342120
-0.772325 -0.794716 7.355262
-0.763643 -0.769165 7.361097
-0.755001 -0.743599 7.366933
-0.746359 -0.718034 7.372769
-0.737970 -0.692393 7.378610
-0.731116 -0.666299 7.384479
-0.715546 -0.607024 7.397811
-0.709887 -0.580666 7.403683
-0.705090 -0.554118 7.409557
-0.700293 -0.527569 7.415431
-0.695496 -0.501020 7.421304
-0.692452 -0.474228 7.427152
-0.686869 -0.413182 7.440415
-0.684904 -0.386283 7.446237
-0.685052 -0.359279 7.451987
-0.685200 -0.332274 7.457737
-0.685348 -0.305269 7.463487
-0.686504 -0.278311 7.469182
-0.693238 -0.217264 7.481894
-0.696203 -0.190390 7.487491
-0.701506 -0.163867 7.492908
-0.707399 -0.137433 7.498279
-0.713291 -0.110999 7.503651
-0.719184 -0.084565 7.509022
-0.739084 -0.026224 7.520569
-0.747885 -0.000551 7.525649
-0.757812 0.024694 7.530586
-0.769367 0.049319 7.535319
-0.780922 0.073945 7.540052
-0.792478 0.098570 7.544785
-0.823336 0.152182 7.554834
-0.837384 0.175550 7.559187
-0.851471 0.198893 7.563533
-0.867692 0.220882 7.567496
-0.883913 0.242871 7.571458
-0.900135 0.264860 7.575420
-0.939666 0.312746 7.583861
-0.957729 0.333319 7.587439
-0.975791 0.353893 7.591017
-0.994813 0.373598 7.594367
-1.014407 0.392783 7.597581
-1.034001 0.411969 7.600795
-1.079854 0.454142 7.607735
-1.100708 0.472007 7.610611
-1.121563 0.489872 7.613487
-1.142659 0.507449 7.616291
-1.164547 0.524083 7.618858
-1.186435 0.540716 7.621425
-1.236725 0.577737 7.627069
-1.259460 0.593236 7.629356
-1.282195 0.608735 7.631644
-1.304930 0.624235 7.633931
-1.328250 0.638862 7.636007
-1.351682 0.653324 7.638042
25 NaN NaN
-1.070372 -1.337531 7.226223
-1.011785 -1.251914 7.247093
-0.956108 -1.164443 7.268229
-0.903755 -1.075009 7.289635
-0.855219 -0.983512 7.311310
-0.811087 -0.889874 7.333244
-0.772056 -0.794056 7.355414
-0.738940 -0.696084 7.377780
-0.712674 -0.596092 7.400270
-0.694293 -0.494364 7.422777
-0.684876 -0.391397 7.445148
-0.685443 -0.287935 7.467178
-0.696799 -0.184979 7.488618
-0.719374 -0.083713 7.509195
-0.753092 0.014635 7.528653
-0.797361 0.108976 7.546785
-0.851183 0.198502 7.563463
-0.913334 0.282753 7.578644
-0.982546 0.361586 7.592355
-1.057630 0.435105 7.604670
-1.137548 0.503565 7.615691
-1.221429 0.567309 7.625530
-1.308559 0.626709 7.634296
-1.398361 0.682135 7.642097
-1.490372 0.733938 7.649026
-1.078986 -1.347528 6.775736
-0.979195 -1.194464 6.797063
-0.889691 -1.035417 6.819873
-0.813095 -0.870034 6.844344
-0.753390 -0.698107 6.870694
-0.716246 -0.520337 6.899064
-0.705345 -0.339487 6.929154
-0.724553 -0.159527 6.960470
-0.777176 0.013637 6.992164
-0.859765 0.174729 7.023186
-0.966250 0.321475 7.052873
-1.091253 0.453378 7.080897
-1.230841 0.570246 7.107045
-1.380039 0.674944 7.131573
-1.077876 -1.345880 6.775964
-0.980245 -1.196150 6.796826
-0.978144 -1.192779 6.797300
-0.890597 -1.037181 6.819616
-0.888786 -1.033652 6.820130
-0.813808 -0.871882 6.844064
-0.812383 -0.868186 6.844624
-0.753983 -0.699994 6.870402
-0.752797 -0.696219 6.870986
-0.716544 -0.522289 6.898747
-0.715947 -0.518385 6.899380
-0.705277 -0.341457 6.928818
-0.705413 -0.337517 6.929490
-0.724077 -0.161438 6.960125
-0.725029 -0.157615 6.960815
-0.776500 0.011787 6.991820
-0.777852 0.015488 6.992508
-0.858735 0.173047 7.022854
-0.860794 0.176412 7.023517
-0.964953 0.319985 7.052562
-0.967548 0.322964 7.053185
-1.089792 0.452045 7.080605
-1.092740 0.454684 7.081186
-1.229283 0.569023 7.106767
-1.232400 0.571469 7.107323
-1.378372 0.673869 7.131315
-1.073470 -1.339338 6.776869
-0.984417 -1.202839 6.795886
-0.973973 -1.186089 6.798241
-0.894191 -1.044187 6.818595
-0.885191 -1.026647 6.821151
-0.816636 -0.879217 6.842953
-0.809555 -0.860851 6.845735
-0.756336 -0.707488 6.869242
-0.750511 -0.688708 6.872152
-0.717731 -0.530038 6.897491
-0.714760 -0.510636 6.900637
-0.705007 -0.349279 6.927482
-0.705682 -0.329695 6.930826
-0.722187 -0.169027 6.958755
-0.726919 -0.150026 6.962185
-0.773816 0.004441 6.990455
-0.780536 0.022834 6.993873
-0.854649 0.166368 7.021538
-0.864880 0.183091 7.024834
-0.959801 0.314071 7.051326
-0.972699 0.328878 7.054421
-1.084231 0.446505 7.079414
-1.098642 0.459869 7.082333
-1.223098 0.564169 7.105663
-1.238585 0.576323 7.108426
-1.371756 0.669601 7.130291
-1.062904 -1.323645 6.779040
-1.048918 -1.302875 6.781914
-1.034931 -1.282104 6.784788
-1.020945 -1.261333 6.787662
-1.007662 -1.240122 6.790642
-0.994421 -1.218884 6.793629
-0.963985 -1.170035 6.800500
-0.951595 -1.148307 6.803609
-0.939205 -1.126579 6.806717
-0.926815 -1.104850 6.809826
-0.914425 -1.083122 6.812935
-0.902812 -1.060988 6.816148
-0.876570 -1.009845 6.823598
-0.865159 -0.987606 6.826838
-0.854729 -0.964912 6.830200
-0.844447 -0.942149 6.833580
-0.834165 -0.919386 6.836960
-0.823882 -0.896623 6.840340
-0.802772 -0.843259 6.848401
-0.793795 -0.819972 6.851929
-0.784817 -0.796686 6.855457
-0.776923 -0.773038 6.859096
-0.769452 -0.749249 6.862778
-0.761981 -0.725460 6.866460
-0.746175 -0.670394 6.875052
-0.740436 -0.646153 6.878889
-0.734697 -0.621912 6.882727
-0.728958 -0.597671 6.886565
-0.724344 -0.573224 6.890489
-0.720577 -0.548624 6.894477
-0.711914 -0.492050 6.903650
-0.709574 -0.467310 6.907728
-0.708016 -0.442494 6.911854
-0.706458 -0.417678 6.915980
-0.704900 -0.392862 6.920106
-0.704361 -0.368039 6.924280
-0.706329 -0.310935 6.934028
-0.707184 -0.286104 6.938267
-0.709311 -0.261389 6.942545
-0.712719 -0.236791 6.946861
-0.716126 -0.212193 6.951177
-0.719534 -0.187595 6.955493
-0.731452 -0.131826 6.965471
-0.737452 -0.107735 6.969820
-0.743452 -0.083644 6.974169
-0.750337 -0.059823 6.978512
-0.758857 -0.036501 6.982846
-0.767378 -0.013179 6.987181
-0.787976 0.040033 6.997122
-0.798844 0.062369 7.001397
-0.809713 0.084705 7.005671
-0.820581 0.107041 7.009946
-0.831877 0.129147 7.014201
-0.844849 0.150349 7.018381
-0.874680 0.199109 7.027991
-0.888163 0.219975 7.032137
-0.902962 0.239970 7.036195
-0.917762 0.259964 7.040253
-0.932561 0.279959 7.044312
-0.947447 0.299887 7.048363
-0.985053 0.343062 7.057384
-1.001406 0.361837 7.061307
-1.017929 0.380456 7.065212
-1.035584 0.398044 7.068993
-1.053238 0.415631 7.072775
-1.070893 0.433218 7.076557
-1.112798 0.472305 7.085083
-1.131535 0.488766 7.088724
-1.150272 0.505227 7.092365
-1.169010 0.521688 7.096005
-1.188628 0.537117 7.099512
-1.208264 0.552527 7.103016
-1.253461 0.587910 7.111066
-1.273843 0.602349 7.114440
-1.294225 0.616789 7.117814
-1.314607 0.631228 7.121188
-1.334989 0.645667 7.124562
-1.355888 0.659365 7.127834
24 NaN NaN
-1.079263 -1.347941 6.775679
-1.020170 -1.260182 6.787821
-0.964223 -1.170453 6.800440
-0.911876 -1.078651 6.813575
-0.863664 -0.984692 6.827263
-0.820224 -0.888524 6.841543
-0.782296 -0.790148 6.856448
-0.750734 -0.689651 6.872003
-0.726491 -0.587249 6.888215
-0.710580 -0.483335 6.905063
-0.704000 -0.378516 6.922491
-0.707614 -0.273640 6.940395
-0.722006 -0.169754 6.958624
-0.747346 -0.068009 6.976991
-0.783332 0.030489 6.995296
-0.829235 0.124827 7.013350
-0.884025 0.214385 7.031002
-0.946540 0.298845 7.048145
-1.015619 0.378155 7.064717
-1.090201 0.452453 7.080693
-1.169360 0.521995 7.096073
-1.252316 0.587099 7.110877
-1.338428 0.648104 7.125131
-1.427170 0.705344 7.138869
-1.099758 -1.359448 6.325512
-0.987627 -1.183042 6.313476
-0.889135 -0.998552 6.304142
-0.808734 -0.805416 6.298304
-0.752535 -0.603928 6.297009
-0.728135 -0.396379 6.301478
-0.742875 -0.188349 6.312747
-0.800149 0.011597 6.331047
-0.896663 0.195237 6.355462
-1.024237 0.358312 6.384396
-1.174038 0.500811 6.416320
-1.339091 0.624981 6.450118
-1.098659 -1.357781 6.325392
-0.988668 -1.184746 6.313585
-0.986586 -1.181337 6.313367
-0.890030 -1.000339 6.304222
-0.888240 -0.996765 6.304062
-0.809432 -0.807289 6.298347
-0.808035 -0.803542 6.298262
-0.752968 -0.605881 6.297003
-0.752101 -0.601976 6.297016
-0.728221 -0.398376 6.301409
-0.728049 -0.394382 6.301546
-0.742547 -0.190317 6.312608
-0.743204 -0.186381 6.312886
-0.799402 0.009754 6.330840
-0.800896 0.013441 6.331254
-0.895564 0.193586 6.355202
-0.897762 0.196887 6.355721
-1.022881 0.356872 6.384101
-1.025592 0.359753 6.384692
-1.172507 0.499563 6.416002
-1.175568 0.502059 6.416637
-1.337443 0.623897 6.449787
-1.093806 -1.350425 6.324859
-0.993261 -1.192271 6.314066
-0.982107 -1.173744 6.312910
-0.893981 -1.008227 6.304576
-0.884289 -0.988877 6.303708
-0.812517 -0.815560 6.298535
-0.804950 -0.795272 6.298074
-0.754881 -0.614500 6.296973
-0.750188 -0.593356 6.297046
-0.728600 -0.407192 6.301105
-0.727670 -0.385566 6.301850
-0.741099 -0.199004 6.311993
-0.744652 -0.177693 6.313501
-0.796103 0.001614 6.329928
-0.804194 0.021580 6.332166
-0.890712 0.186299 6.354056
-0.902613 0.204175 6.356867
-1.016897 0.350512 6.382798
-1.031577 0.366112 6.385995
-1.165752 0.494054 6.414601
-1.182324 0.507568 6.418039
-1.330169 0.619112 6.448326
-1.081849 -1.332300 6.323547
-1.065992 -1.308263 6.321807
-1.050135 -1.284227 6.320067
-1.034600 -1.259981 6.318391
-1.019590 -1.235396 6.316820
-1.004580 -1.210810 6.315250
-0.971523 -1.154768 6.311871
-0.957488 -1.129602 6.310494
-0.943452 -1.104436 6.309116
-0.929534 -1.079206 6.307762
-0.916625 -1.053433 6.306605
-0.903716 -1.027661 6.305449
-0.875336 -0.969070 6.302986
-0.863734 -0.942673 6.302082
-0.852133 -0.916276 6.301178
-0.840532 -0.889878 6.300275
-0.830195 -0.862961 6.299611
-0.820117 -0.835937 6.298998
-0.797923 -0.774700 6.297718
-0.789617 -0.747075 6.297437
-0.781312 -0.719449 6.297155
-0.773006 -0.691824 6.296873
-0.765844 -0.663899 6.296803
-0.759594 -0.635737 6.296900
-0.745591 -0.572099 6.297140
-0.741698 -0.543520 6.297663
-0.737805 -0.514940 6.298186
-0.733912 -0.486360 6.298709
-0.730771 -0.457717 6.299364
-0.729533 -0.428912 6.300357
-0.726736 -0.363846 6.302598
-0.727756 -0.335075 6.303980
-0.729424 -0.306314 6.305474
-0.731093 -0.277553 6.306969
-0.732796 -0.248796 6.308468
-0.737529 -0.220409 6.310478
-0.748221 -0.156288 6.315017
-0.754512 -0.128271 6.317280
-0.762332 -0.100617 6.319794
-0.770151 -0.072962 6.322307
-0.777970 -0.045308 6.324820
-0.787977 -0.018438 6.327680
-0.812321 0.041633 6.334414
-0.823728 0.067919 6.337492
-0.837208 0.093197 6.340886
-0.850688 0.118475 6.344281
-0.864168 0.143754 6.347675
-0.878758 0.168345 6.351233
-0.914567 0.222129 6.359690
-0.930420 0.245938 6.363434
-0.948212 0.268283 6.367453
-0.966083 0.290567 6.371483
-0.983954 0.312852 6.375513
-1.002152 0.334844 6.379587
-1.046321 0.381781 6.389206
-1.065874 0.402560 6.393464
-1.086380 0.422351 6.397846
-1.107319 0.441692 6.402284
-1.128257 0.461034 6.406722
-1.149196 0.480375 6.411160
-1.198969 0.521141 6.421491
-1.221043 0.539141 6.426070
-1.243502 0.556630 6.430693
-1.266506 0.573394 6.435381
-1.289511 0.590159 6.440069
-1.312515 0.606923 6.444757
23 NaN NaN
-1.100033 -1.359864 6.325543
-1.040301 -1.269320 6.318987
-0.983760 -1.176707 6.313072
-0.930889 -1.081911 6.307884
-0.882263 -0.984831 6.303526
-0.838564 -0.885401 6.300121
-0.800603 -0.783616 6.297809
-0.769322 -0.679569 6.296749
-0.745782 -0.573503 6.297114
-0.731122 -0.465876 6.299083
-0.726460 -0.357409 6.302820
-0.732743 -0.249112 6.308446
-0.750565 -0.142232 6.316012
-0.780006 -0.038108 6.325475
-0.820584 0.062023 6.336700
-0.871343 0.157208 6.349482
-0.931040 0.246870 6.363581
-0.998343 0.330796 6.378758
-1.071986 0.409055 6.394795
-1.150851 0.481904 6.411511
-1.233996 0.549703 6.428756
-1.320648 0.612849 6.446414
-1.410183 0.671744 6.464394
-1.140874 -1.384330 5.425300
-1.051737 -1.265821 5.424916
-0.967748 -1.143626 5.426078
-0.890446 -1.017141 5.429178
-0.822227 -0.885636 5.434792
-0.764013 -0.749561 5.443037
-0.720098 -0.608536 5.454813
-0.693660 -0.463644 5.470588
-0.686678 -0.317036 5.490441
-0.706051 -0.172378 5.515197
-0.748976 -0.033639 5.543732
-0.813787 0.095701 5.575214
-0.899098 0.212059 5.608850
-0.997707 0.317097 5.643465
-1.107228 0.410583 5.678554
-1.224865 0.493665 5.713734
-1.347876 0.568646 5.748799
-1.139658 -1.382743 5.425290
-1.052901 -1.267447 5.424909
-1.050572 -1.264196 5.424922
-0.968853 -1.145293 5.426055
-0.966642 -1.141959 5.426102
-0.891400 -1.018898 5.429112
-0.889492 -1.015385 5.429245
-0.823083 -0.887441 5.434700
-0.821370 -0.883831 5.434885
-0.764754 -0.751415 5.442915
-0.763272 -0.747708 5.443160
-0.720536 -0.610478 5.454618
-0.719659 -0.606594 5.455008
-0.693906 -0.465614 5.470351
-0.693413 -0.461673 5.470825
-0.686705 -0.319016 5.490159
-0.686650 -0.315056 5.490722
-0.705593 -0.174290 5.514831
-0.706509 -0.170466 5.515564
-0.748278 -0.035470 5.543330
-0.749673 -0.031808 5.544135
-0.812686 0.094093 5.574764
-0.814889 0.097308 5.575664
-0.897841 0.210574 5.608388
-0.900354 0.213545 5.609313
-0.996325 0.315729 5.642995
-0.999089 0.318464 5.643935
-1.105667 0.409427 5.678079
-1.108790 0.411739 5.679029
-1.223240 0.492600 5.713260
-1.226490 0.494730 5.714208
-1.346199 0.567662 5.748327
-1.135590 -1.377431 5.425259
-1.056798 -1.272886 5.424889
-1.046675 -1.258757 5.424942
-0.972551 -1.150868 5.425975
-0.962944 -1.136384 5.426182
-0.894591 -1.024774 5.428889
-0.886301 -1.009509 5.429468
-0.825949 -0.893479 5.434390
-0.818504 -0.877793 5.435195
-0.767233 -0.757616 5.442505
-0.760794 -0.741507 5.443570
-0.722003 -0.616973 5.453967
-0.718192 -0.600099 5.455660
-0.694731 -0.472207 5.469559
-0.692589 -0.455081 5.471617
-0.686798 -0.325640 5.489219
-0.686995 -0.308465 5.491744
-0.704061 -0.180687 5.513603
-0.708041 -0.164070 5.516792
-0.745946 -0.041595 5.541984
-0.752005 -0.025683 5.545481
-0.809192 0.088594 5.573281
-0.818575 0.102686 5.577168
-0.893637 0.205604 5.606841
-0.904558 0.218514 5.610859
-0.991702 0.311155 5.641423
-1.003712 0.323038 5.645507
-1.100443 0.405560 5.676491
-1.114014 0.415607 5.680617
-1.217804 0.489037 5.711674
-1.231927 0.498293 5.715794
-1.340592 0.564372 5.746747
-1.126326 -1.365335 5.425187
-1.114111 -1.349385 5.425092
-1.101896 -1.333434 5.424998
-1.089680 -1.317484 5.424903
-1.077465 -1.301534 5.424808
-1.065672 -1.285271 5.424842
-1.037801 -1.246372 5.424989
-1.026100 -1.230040 5.425051
-1.014399 -1.213709 5.425113
-1.003181 -1.197046 5.425317
-0.992076 -1.180305 5.425556
-0.980972 -1.163564 5.425794
-0.954523 -1.123688 5.426362
-0.943975 -1.106598 5.426761
-0.933569 -1.089418 5.427200
-0.923163 -1.072238 5.427640
-0.912757 -1.055058 5.428079
-0.902351 -1.037878 5.428519
-0.879033 -0.996127 5.429975
-0.869451 -0.978482 5.430644
-0.859868 -0.960837 5.431312
-0.850285 -0.943192 5.431981
-0.841082 -0.925358 5.432752
-0.832476 -0.907228 5.433683
-0.811977 -0.864044 5.435901
-0.803371 -0.845914 5.436833
-0.795204 -0.827599 5.437877
-0.787761 -0.808979 5.439108
-0.780319 -0.790358 5.440340
-0.772877 -0.771738 5.441571
-0.755657 -0.727213 5.444629
-0.749604 -0.708121 5.446202
-0.743550 -0.689029 5.447775
-0.737497 -0.669937 5.449347
-0.731443 -0.650844 5.450920
-0.725390 -0.631752 5.452493
-0.714851 -0.585308 5.457144
-0.710446 -0.565804 5.459101
-0.706041 -0.546301 5.461057
-0.701636 -0.526797 5.463014
-0.699085 -0.507013 5.465377
-0.696609 -0.487218 5.467755
-0.690711 -0.440069 5.473421
-0.688234 -0.420274 5.475800
-0.687847 -0.400390 5.478602
-0.687568 -0.380501 5.481427
-0.687289 -0.360612 5.484252
-0.687010 -0.340723 5.487077
-0.688604 -0.293519 5.494225
-0.690725 -0.273810 5.497495
-0.692846 -0.254102 5.500766
-0.694967 -0.234393 5.504037
-0.697088 -0.214684 5.507308
-0.700572 -0.195252 5.510807
-0.711530 -0.149505 5.519587
-0.716130 -0.130299 5.523274
-0.720731 -0.111093 5.526960
-0.726630 -0.092327 5.530838
-0.733633 -0.073935 5.534879
-0.740636 -0.055543 5.538920
-0.757316 -0.011736 5.548545
-0.765478 0.006096 5.552733
-0.774665 0.023434 5.557051
-0.783852 0.040771 5.561370
-0.793039 0.058109 5.565688
-0.802225 0.075446 5.570006
-0.826968 0.114932 5.580592
-0.838036 0.131080 5.585108
-0.849103 0.147227 5.589624
-0.860170 0.163375 5.594140
-0.871439 0.179365 5.598673
-0.884063 0.194287 5.603318
-0.914132 0.229831 5.614382
-0.926756 0.244754 5.619027
-0.939529 0.259536 5.623681
-0.953411 0.273270 5.628402
-0.967293 0.287005 5.633122
-0.981175 0.300740 5.637843
-1.014347 0.333336 5.649090
-1.029233 0.345961 5.653848
-1.044119 0.358586 5.658606
-1.059005 0.371212 5.663363
-1.073891 0.383837 5.668121
-1.088777 0.396463 5.672878
-1.125909 0.424413 5.684233
-1.141595 0.436026 5.689001
-1.157280 0.447639 5.693769
-1.172966 0.459251 5.698538
-1.189099 0.470224 5.703301
-1.205424 0.480923 5.708063
-1.244307 0.506407 5.719405
-1.260631 0.517106 5.724167
-1.277309 0.527241 5.728916
-1.294147 0.537120 5.733661
-1.310985 0.547000 5.738405
-1.327823 0.556880 5.743149
23 NaN NaN
-1.141178 -1.384727 5.425302
-1.075281 -1.298683 5.424791
-1.012159 -1.210583 5.425124
-0.952258 -1.120274 5.426411
-0.896125 -1.027599 5.428782
-0.844434 -0.932417 5.432390
-0.798011 -0.834625 5.437413
-0.757870 -0.734190 5.444054
-0.725221 -0.631220 5.452537
-0.701465 -0.526039 5.463090
-0.688113 -0.419299 5.475917
-0.686608 -0.312064 5.491147
-0.698043 -0.205809 5.508781
-0.722845 -0.102268 5.528654
-0.760599 -0.003112 5.550440
-0.810131 0.090366 5.573722
-0.869810 0.177440 5.598074
-0.937891 0.257915 5.623124
-1.012761 0.331991 5.648584
-1.093053 0.400089 5.674245
-1.177661 0.462727 5.699965
-1.265718 0.520440 5.725651
-1.356548 0.573734 5.751242
-1.142885 -1.394090 4.974668
-1.024293 -1.227154 4.972843
-0.917877 -1.052239 4.974750
-0.827804 -0.868546 4.981394
-0.760018 -0.675923 4.994067
-0.722379 -0.476002 5.014221
-0.723299 -0.273805 5.042949
-0.767811 -0.078079 5.080092
-0.853648 0.101997 5.123871
-0.972432 0.261336 5.171775
-1.114601 0.399730 5.221728
-1.272597 0.519585 5.272452
-1.141702 -1.392478 4.974642
-1.025423 -1.228804 4.972852
-1.023163 -1.225504 4.972834
-0.918874 -1.053973 4.974719
-0.916880 -1.050506 4.974782
-0.828618 -0.870371 4.981310
-0.826990 -0.866721 4.981477
-0.760580 -0.677837 4.993917
-0.759457 -0.674009 4.994217
-0.722598 -0.477976 5.013989
-0.722161 -0.474028 5.014453
-0.723092 -0.275768 5.042627
-0.723507 -0.271842 5.043270
-0.767156 -0.079925 5.079691
-0.768466 -0.076232 5.080493
-0.852612 0.100348 5.123417
-0.854683 0.103647 5.124326
-0.971120 0.259906 5.171293
-0.973744 0.262766 5.172258
-1.113104 0.398499 5.221234
-1.116098 0.400960 5.222222
-1.270977 0.518522 5.271956
-1.136571 -1.385492 4.974529
-1.030323 -1.235955 4.972892
-1.018356 -1.218293 4.972823
-0.923194 -1.061487 4.974583
-0.912560 -1.042992 4.974917
-0.832147 -0.878280 4.980950
-0.823462 -0.858812 4.981838
-0.763012 -0.686131 4.993267
-0.757025 -0.665714 4.994867
-0.723544 -0.486534 5.012984
-0.721214 -0.465470 5.015458
-0.722192 -0.284276 5.041234
-0.724407 -0.263334 5.044663
-0.764319 -0.087930 5.077955
-0.771304 -0.068227 5.082230
-0.848122 0.093199 5.121447
-0.859173 0.110796 5.126295
-0.965434 0.253706 5.169201
-0.979430 0.268966 5.174349
-1.106615 0.393166 5.219093
-1.122588 0.406294 5.224363
-1.263955 0.513917 5.269803
-1.123984 -1.368357 4.974254
-1.107298 -1.345639 4.973888
-1.090612 -1.322922 4.973523
-1.074206 -1.300005 4.973245
-1.058273 -1.276750 4.973117
-1.042341 -1.253496 4.972988
-1.006994 -1.200320 4.972927
-0.991932 -1.176492 4.973066
-0.976870 -1.152664 4.973205
-0.961892 -1.128787 4.973369
-0.947842 -1.104352 4.973810
-0.933792 -1.079918 4.974251
-0.902638 -1.024199 4.975445
-0.889772 -0.999129 4.976230
-0.876906 -0.974059 4.977014
-0.864040 -0.948990 4.977798
-0.852277 -0.923403 4.978890
-0.840802 -0.897682 4.980064
-0.815266 -0.839229 4.982847
-0.805429 -0.812861 4.984463
-0.795593 -0.786493 4.986078
-0.785756 -0.760125 4.987694
-0.776889 -0.733452 4.989560
-0.768979 -0.706478 4.991673
-0.751058 -0.645368 4.996461
-0.745377 -0.617886 4.999123
-0.739715 -0.590401 5.001789
-0.734053 -0.562915 5.004456
-0.728946 -0.535355 5.007252
-0.725867 -0.507526 5.010519
-0.718891 -0.444478 5.017923
-0.717847 -0.416587 5.021635
-0.717659 -0.388669 5.025534
-0.717471 -0.360751 5.029433
-0.717283 -0.332833 5.033332
-0.719985 -0.305147 5.037817
-0.726614 -0.242464 5.048080
-0.730875 -0.215060 5.052859
-0.736997 -0.188025 5.057984
-0.743120 -0.160990 5.063109
-0.749243 -0.133955 5.068234
-0.757358 -0.107564 5.073695
-0.778265 -0.048593 5.086490
-0.787868 -0.022733 5.092194
-0.799955 0.001998 5.098270
-0.812043 0.026728 5.104347
-0.824131 0.051459 5.110423
-0.837110 0.075663 5.116616
-0.870185 0.128332 5.131126
-0.884785 0.151580 5.137531
-0.901181 0.173517 5.144135
-0.917910 0.195212 5.150777
-0.934639 0.216907 5.157418
-0.951486 0.238500 5.164070
-0.993378 0.284173 5.179480
-1.011870 0.304333 5.186282
-1.031161 0.323682 5.193141
-1.051093 0.342382 5.200045
-1.071025 0.361082 5.206949
-1.090957 0.379782 5.213853
-1.138505 0.419376 5.229616
-1.159608 0.436721 5.236579
-1.180964 0.453735 5.243551
-1.203020 0.469838 5.250543
-1.225075 0.485941 5.257535
-1.247130 0.502044 5.264527
23 NaN NaN
-1.143181 -1.394492 4.974674
-1.080142 -1.308669 4.973293
-1.019951 -1.220817 4.972808
-0.963050 -1.130801 4.973332
-0.909974 -1.038494 4.974998
-0.861371 -0.943789 4.977960
-0.818026 -0.846627 4.982394
-0.780870 -0.747027 4.988496
-0.750992 -0.645143 4.996478
-0.729607 -0.541335 5.006549
-0.717980 -0.436238 5.018890
-0.717270 -0.330816 5.033614
-0.728320 -0.226341 5.050720
-0.751438 -0.124261 5.070072
-0.786284 -0.025972 5.091398
-0.831930 0.067415 5.114344
-0.887066 0.155212 5.138532
-0.950248 0.237150 5.163615
-1.020093 0.313297 5.189307
-1.095382 0.383934 5.215386
-1.175098 0.449451 5.241691
-1.258415 0.510283 5.268105
-1.344673 0.566859 5.294548
-1.067922 -1.400042 4.076923
-0.922818 -1.193053 4.103388
-0.794997 -0.975873 4.135953
-0.692331 -0.747113 4.176533
-0.629843 -0.506671 4.228105
-0.626651 -0.261845 4.292487
-0.697611 -0.031111 4.367689
-0.838614 0.163654 4.447096
-1.026241 0.315951 4.524383
-1.238936 0.433894 4.597472
-1.066745 -1.398436 4.077118
-0.923890 -1.194725 4.103154
-0.921746 -1.191380 4.103621
-0.795925 -0.977622 4.135671
-0.794068 -0.974125 4.136235
-0.693056 -0.748945 4.176189
-0.691607 -0.745281 4.176877
-0.630075 -0.508602 4.227638
-0.629611 -0.504740 4.228572
-0.626399 -0.263750 4.291931
-0.626902 -0.259940 4.293042
-0.696826 -0.032844 4.367075
-0.698397 -0.029377 4.368304
-0.837232 0.162347 4.446478
-0.839996 0.164961 4.447715
-1.024640 0.314909 4.523792
-1.027842 0.316994 4.524975
-1.237206 0.433062 4.596911
-1.060629 -1.390089 4.078133
-0.929464 -1.203419 4.101940
-0.916173 -1.182686 4.104835
-0.800753 -0.986714 4.134204
-0.789241 -0.965033 4.137701
-0.696822 -0.758470 4.174399
-0.687998 -0.735708 4.178710
-0.631282 -0.518640 4.225210
-0.628405 -0.494702 4.231001
-0.625089 -0.273653 4.289045
-0.628212 -0.250037 4.295929
-0.692743 -0.041858 4.363880
-0.702480 -0.020364 4.371499
-0.830046 0.155554 4.443263
-0.847181 0.171754 4.450930
-1.016315 0.309489 4.520718
-1.036166 0.322413 4.528049
-1.228212 0.428735 4.593996
-1.045022 -1.368787 4.080724
-1.024274 -1.340471 4.084169
-1.003527 -1.312154 4.087613
-0.983620 -1.283280 4.091371
-0.963725 -1.254398 4.095132
-0.943830 -1.225515 4.098894
-0.901951 -1.160501 4.107933
-0.883046 -1.131009 4.112051
-0.865218 -1.100909 4.116543
-0.847471 -1.070763 4.121062
-0.829725 -1.040617 4.125581
-0.813072 -1.009915 4.130463
-0.776921 -0.941831 4.141442
-0.761974 -0.910352 4.146865
-0.747232 -0.878782 4.152353
-0.732491 -0.847211 4.157841
-0.719209 -0.815090 4.163761
-0.706433 -0.782778 4.169832
-0.680174 -0.710864 4.183770
-0.669773 -0.677838 4.190497
-0.659373 -0.644812 4.197224
-0.650945 -0.611361 4.204451
-0.643415 -0.577718 4.211906
-0.635885 -0.544075 4.219360
-0.625325 -0.469086 4.237198
-0.621232 -0.435034 4.245436
-0.619688 -0.400955 4.254181
-0.619617 -0.366861 4.263221
-0.619545 -0.332766 4.272260
-0.621747 -0.298924 4.281678
-0.631554 -0.224766 4.303295
-0.638764 -0.191856 4.313450
-0.647967 -0.159437 4.323865
-0.657169 -0.127018 4.334281
-0.668474 -0.095433 4.344888
-0.682324 -0.064858 4.355726
-0.715120 0.001393 4.379758
-0.733158 0.029622 4.390797
-0.751197 0.057852 4.401835
-0.770646 0.085044 4.412875
-0.792205 0.110685 4.423917
-0.813764 0.136325 4.434959
-0.865517 0.189090 4.459134
-0.889892 0.212135 4.470040
-0.915026 0.234332 4.480870
-0.941588 0.254934 4.491557
-0.968149 0.275536 4.502243
-0.995073 0.295658 4.512874
-1.057409 0.336244 4.535893
-1.086022 0.354053 4.546241
-1.115544 0.370468 4.556397
-1.145067 0.386882 4.566554
-1.174748 0.403017 4.576667
-1.205259 0.417694 4.586556
23 NaN NaN
-1.068216 -1.400443 4.076874
-1.003238 -1.311759 4.087661
-0.940929 -1.221305 4.099443
-0.881721 -1.128942 4.112340
-0.826143 -1.034533 4.126494
-0.774858 -0.937946 4.142068
-0.728694 -0.839080 4.159254
-0.688688 -0.737898 4.178264
-0.656122 -0.634488 4.199327
-0.632546 -0.529156 4.222666
-0.619733 -0.422558 4.248454
-0.619510 -0.315844 4.276746
-0.633412 -0.210711 4.307392
-0.662209 -0.109263 4.339985
-0.705552 -0.013581 4.373904
-0.762008 0.074771 4.408451
-0.829492 0.155030 4.443015
-0.905801 0.227176 4.477158
-0.988965 0.291681 4.510618
-1.077386 0.349251 4.543270
-1.169834 0.400653 4.575074
-1.265384 0.446616 4.606044
-1.363342 0.487797 4.636216
-0.915119 -1.392199 3.188481
-0.821102 -1.227863 3.190152
-0.737837 -1.057977 3.196308
-0.668273 -0.882359 3.207921
-0.616282 -0.701302 3.226166
-0.588927 -0.516033 3.253053
-0.590456 -0.330532 3.289168
-0.624492 -0.150373 3.334593
-0.691394 0.018115 3.388226
-0.788996 0.168637 3.448169
-0.908805 0.300505 3.511590
-1.044645 0.414941 3.576760
-0.914101 -1.390478 3.188488
-0.822062 -1.229617 3.190120
-0.820142 -1.226109 3.190184
-0.738652 -1.059801 3.196217
-0.737022 -1.056153 3.196399
-0.668894 -0.884252 3.207755
-0.667652 -0.880465 3.208087
-0.616642 -0.703252 3.225906
-0.615923 -0.699352 3.226426
-0.589126 -0.517998 3.252739
-0.588727 -0.514068 3.253367
-0.590279 -0.332477 3.288738
-0.590632 -0.328587 3.289598
-0.623904 -0.152207 3.334054
-0.625079 -0.148539 3.335132
-0.690433 0.016474 3.387605
-0.692355 0.019755 3.388846
-0.787879 0.167110 3.447521
-0.790112 0.170165 3.448817
-0.907449 0.299203 3.510909
-0.910161 0.301808 3.512271
-1.043127 0.413840 3.576065
-0.909963 -1.383482 3.188516
-0.825963 -1.236747 3.189991
-0.816242 -1.218979 3.190313
-0.741966 -1.067213 3.195847
-0.733709 -1.048740 3.196769
-0.671418 -0.891949 3.207079
-0.665128 -0.872768 3.208763
-0.618671 -0.711076 3.225048
-0.614461 -0.691427 3.227484
-0.589935 -0.525984 3.251462
-0.587918 -0.506082 3.254644
-0.589562 -0.340383 3.286992
-0.591350 -0.320681 3.291345
-0.621517 -0.159661 3.331863
-0.627467 -0.141085 3.337323
-0.687090 0.009476 3.385198
-0.696260 0.026422 3.391369
-0.783344 0.160901 3.444886
-0.794648 0.176374 3.451452
-0.901937 0.293910 3.508139
-0.915673 0.307100 3.515040
-1.036956 0.409365 3.573244
-0.899977 -1.366599 3.188583
-0.886753 -1.344242 3.188673
-0.873528 -1.321884 3.188762
-0.860309 -1.299524 3.188854
-0.847843 -1.276739 3.189267
-0.835377 -1.253953 3.189679
-0.806949 -1.201711 3.190675
-0.795354 -1.178479 3.191451
-0.783759 -1.155248 3.192226
-0.772164 -1.132016 3.193002
-0.760569 -1.108785 3.193777
-0.749962 -1.085103 3.194953
-0.725712 -1.030851 3.197663
-0.715257 -1.007108 3.198899
-0.705834 -0.982957 3.200542
-0.696412 -0.958806 3.202185
-0.686990 -0.934655 3.203827
-0.677567 -0.910504 3.205470
-0.659036 -0.854194 3.210394
-0.650970 -0.829597 3.212554
-0.643046 -0.804963 3.214765
-0.636555 -0.779961 3.217504
-0.630063 -0.754959 3.220242
-0.623572 -0.729956 3.222980
-0.610935 -0.672300 3.230036
-0.606265 -0.646972 3.233416
-0.601595 -0.621644 3.236796
-0.597064 -0.596303 3.240223
-0.594477 -0.570780 3.244302
-0.591889 -0.545257 3.248382
-0.586431 -0.486808 3.257873
-0.586180 -0.461285 3.262695
-0.585928 -0.435762 3.267517
-0.585676 -0.410239 3.272339
-0.585537 -0.384727 3.277195
-0.587830 -0.359462 3.282777
-0.593082 -0.301602 3.295560
-0.595850 -0.276437 3.301273
-0.600811 -0.251736 3.307595
-0.605772 -0.227034 3.313917
-0.610733 -0.202332 3.320239
-0.615754 -0.177651 3.326576
-0.633229 -0.123096 3.342610
-0.640860 -0.099273 3.349612
-0.648889 -0.075633 3.356705
-0.659062 -0.052968 3.364293
-0.669235 -0.030304 3.371881
-0.679408 -0.007639 3.379468
-0.705686 0.042512 3.397456
-0.718168 0.063818 3.405517
-0.730650 0.085125 3.413578
-0.743404 0.106233 3.421687
-0.757900 0.126075 3.430107
-0.772397 0.145917 3.438527
-0.806053 0.190958 3.457879
-0.822255 0.209314 3.466556
-0.838456 0.227671 3.475233
-0.854658 0.246028 3.483910
-0.871018 0.264222 3.492607
-0.888634 0.281137 3.501457
-0.928976 0.319874 3.521723
-0.946877 0.336455 3.530599
-0.965652 0.352011 3.539557
-0.984428 0.367567 3.548514
-1.003203 0.383123 3.557472
-1.022063 0.398567 3.566435
22 NaN NaN
-0.915374 -1.392630 3.188479
-0.860392 -1.299676 3.188851
-0.808563 -1.204945 3.190567
-0.760357 -1.108360 3.193791
-0.716335 -1.009871 3.198711
-0.677163 -0.909468 3.205541
-0.643630 -0.807215 3.214519
-0.616647 -0.703282 3.225902
-0.597236 -0.598000 3.239952
-0.586482 -0.491917 3.256908
-0.585436 -0.385840 3.276949
-0.594966 -0.280841 3.300146
-0.615582 -0.178189 3.326417
-0.647292 -0.079192 3.355514
-0.689568 0.014998 3.387046
-0.741443 0.103549 3.420548
-0.801694 0.186019 3.455545
-0.869038 0.262321 3.491612
-0.942264 0.332634 3.528399
-1.020316 0.397301 3.565636
-1.102306 0.456747 3.603123
-1.187512 0.511419 3.640714
-0.675596 -1.378778 1.857690
-0.619088 -1.251063 1.881052
-0.568905 -1.120960 1.905574
-0.526104 -0.988488 1.931356
-0.493128 -0.853554 1.958659
-0.471387 -0.716698 1.987499
-0.461968 -0.578780 2.017787
-0.467318 -0.440979 2.049497
-0.490731 -0.305405 2.082475
-0.530932 -0.174053 2.116144
-0.587812 -0.049027 2.150016
-0.662511 0.066380 2.183459
-0.750772 0.172048 2.216028
-0.849982 0.267938 2.247458
-0.958629 0.353539 2.277485
-1.074602 0.429528 2.306055
-0.674782 -1.376981 1.858017
-0.619833 -1.252887 1.880712
-0.618343 -1.249238 1.881392
-0.569571 -1.122813 1.905220
-0.568239 -1.119108 1.905928
-0.526680 -0.990368 1.930987
-0.525528 -0.986609 1.931725
-0.493484 -0.855480 1.958258
-0.492771 -0.851627 1.959060
-0.471610 -0.718641 1.987081
-0.471164 -0.714755 1.987917
-0.462041 -0.580731 2.017353
-0.461896 -0.576829 2.018222
-0.467042 -0.442905 2.049034
-0.467595 -0.439053 2.049960
-0.490263 -0.307291 2.082002
-0.491199 -0.303519 2.082948
-0.530269 -0.175878 2.115665
-0.531595 -0.172228 2.116622
-0.586959 -0.050772 2.149537
-0.588665 -0.047283 2.150494
-0.661323 0.064840 2.182994
-0.663699 0.067920 2.183924
-0.749446 0.170620 2.215575
-0.752097 0.173475 2.216481
-0.848540 0.266623 2.247019
-0.851423 0.269253 2.247897
-0.957013 0.352434 2.277076
-0.960245 0.354643 2.277893
-1.072921 0.428518 2.305661
-0.672154 -1.371178 1.859073
-0.622238 -1.258778 1.879615
-0.615939 -1.243347 1.882489
-0.571722 -1.128792 1.904078
-0.566088 -1.113128 1.907070
-0.528541 -0.996435 1.929797
-0.523667 -0.980542 1.932915
-0.494635 -0.861700 1.956963
-0.491621 -0.845407 1.960355
-0.472331 -0.724914 1.985732
-0.470444 -0.708482 1.989266
-0.462275 -0.587029 2.015950
-0.461661 -0.570531 2.019624
-0.466214 -0.449130 2.047545
-0.468487 -0.432836 2.051455
-0.488751 -0.313380 2.080476
-0.492711 -0.297430 2.084474
-0.528128 -0.181771 2.114122
-0.533735 -0.166335 2.118165
-0.584206 -0.056404 2.147993
-0.591754 -0.041835 2.152030
-0.657486 0.059868 2.181493
-0.667536 0.072891 2.185425
-0.745167 0.166012 2.214113
-0.756377 0.178083 2.217944
-0.843887 0.262377 2.245602
-0.856077 0.273498 2.249314
-0.951795 0.348867 2.275757
-0.965463 0.358210 2.279212
-1.067496 0.425256 2.304391
-0.666243 -1.358127 1.861446
-0.658456 -1.340934 1.864574
-0.650669 -1.323741 1.867701
-0.642882 -1.306548 1.870828
-0.635095 -1.289355 1.873956
-0.627646 -1.272028 1.877146
-0.610530 -1.230097 1.884957
-0.603405 -1.212642 1.888209
-0.596280 -1.195187 1.891460
-0.589303 -1.177680 1.894738
-0.582931 -1.159961 1.898123
-0.576559 -1.142242 1.901508
-0.561251 -1.099678 1.909640
-0.554879 -1.081960 1.913025
-0.549266 -1.064012 1.916536
-0.543753 -1.046035 1.920064
-0.538239 -1.028058 1.923591
-0.532726 -1.010081 1.927119
-0.520043 -0.966758 1.935680
-0.515511 -0.948538 1.939358
-0.510980 -0.930318 1.943037
-0.506448 -0.912099 1.946716
-0.501917 -0.893879 1.950395
-0.497385 -0.875660 1.954074
-0.489032 -0.831417 1.963267
-0.485622 -0.812987 1.967104
-0.482212 -0.794557 1.970940
-0.478802 -0.776126 1.974777
-0.476085 -0.757611 1.978701
-0.473951 -0.739023 1.982698
-0.468824 -0.694373 1.992300
-0.466690 -0.675786 1.996297
-0.464887 -0.657181 2.000331
-0.464193 -0.638519 2.004486
-0.463498 -0.619857 2.008641
-0.462803 -0.601195 2.012796
-0.461134 -0.556365 2.022778
-0.461908 -0.537742 2.027068
-0.462813 -0.519122 2.031371
-0.463718 -0.500503 2.035674
-0.464622 -0.481883 2.039976
-0.465527 -0.463264 2.044279
-0.470494 -0.418851 2.054817
-0.473139 -0.400428 2.059245
-0.475783 -0.382004 2.063674
-0.478427 -0.363581 2.068103
-0.481071 -0.345158 2.072531
-0.485352 -0.327075 2.077043
-0.496110 -0.283735 2.087907
-0.500589 -0.265693 2.092429
-0.505068 -0.247651 2.096951
-0.510628 -0.229946 2.101503
-0.516971 -0.212486 2.106077
-0.523314 -0.195025 2.110650
-0.538550 -0.153081 2.121637
-0.545381 -0.135828 2.126211
-0.553539 -0.119139 2.130788
-0.561697 -0.102450 2.135365
-0.569855 -0.085761 2.139942
-0.578013 -0.069072 2.144519
-0.599232 -0.029871 2.155471
-0.609083 -0.014109 2.160004
-0.618934 0.001653 2.164537
-0.628785 0.017414 2.169070
-0.638636 0.033176 2.173603
-0.648857 0.048686 2.178116
-0.676165 0.084073 2.188802
-0.687532 0.098804 2.193251
-0.698900 0.113536 2.197699
-0.710268 0.128267 2.202148
-0.722860 0.141994 2.206489
-0.735541 0.155648 2.210823
-0.766003 0.188448 2.221233
-0.778684 0.202102 2.225567
-0.792052 0.215090 2.229817
-0.805841 0.227669 2.234016
-0.819630 0.240249 2.238215
-0.833419 0.252828 2.242414
-0.866826 0.282729 2.252457
-0.881534 0.294272 2.256512
-0.896242 0.305816 2.260567
-0.910950 0.317360 2.264622
-0.925658 0.328904 2.268676
-0.940366 0.340447 2.272731
-0.977200 0.366233 2.282179
-0.992661 0.376801 2.286087
-1.008122 0.387370 2.289995
-1.023584 0.397938 2.293903
-1.039217 0.408254 2.297770
-1.055293 0.417919 2.301534
21 NaN NaN
-0.675800 -1.379227 1.857609
-0.631291 -1.280955 1.875483
-0.590565 -1.181187 1.894068
-0.554143 -1.079914 1.913415
-0.522632 -0.977166 1.933578
-0.496732 -0.873035 1.954604
-0.477244 -0.767704 1.976530
-0.465047 -0.661480 1.999373
-0.461077 -0.554835 2.023119
-0.466248 -0.448438 2.047704
-0.481356 -0.343169 2.073009
-0.506946 -0.240083 2.098848
-0.543185 -0.140321 2.124979
-0.589796 -0.044967 2.151129
-0.646083 0.045091 2.177030
-0.711038 0.129265 2.202449
-0.783502 0.207289 2.227213
-0.862302 0.279178 2.251210
-0.946357 0.345150 2.274383
-1.034721 0.405552 2.296718
-1.126602 0.460791 2.318229
-0.441127 -1.366274 0.525830
-0.409928 -1.159436 0.525884
-0.394058 -0.951011 0.533356
-0.395658 -0.742473 0.549162
-0.416700 -0.535913 0.574089
-0.458596 -0.333987 0.608619
-0.521808 -0.139637 0.652759
-0.605631 0.044363 0.705975
-0.708288 0.215893 0.767265
-0.827304 0.373758 0.835366
-0.440794 -1.364302 0.525814
-0.410192 -1.161419 0.525867
-0.409665 -1.157454 0.525902
-0.394168 -0.953006 0.533265
-0.393948 -0.949016 0.533448
-0.395593 -0.744464 0.548987
-0.395722 -0.740482 0.549336
-0.416443 -0.537879 0.573824
-0.416958 -0.533948 0.574353
-0.458134 -0.335899 0.608261
-0.459059 -0.332074 0.608977
-0.521140 -0.141468 0.652309
-0.522476 -0.137806 0.653210
-0.604768 0.042641 0.705439
-0.606495 0.046086 0.706511
-0.707249 0.214297 0.766655
-0.709327 0.217490 0.767875
-0.826117 0.372296 0.834694
-0.439328 -1.355603 0.525743
-0.411355 -1.170164 0.525790
-0.408827 -1.148674 0.526136
-0.394653 -0.961806 0.532861
-0.393726 -0.940214 0.533977
-0.395308 -0.753249 0.548218
-0.396182 -0.731715 0.550187
-0.415307 -0.546550 0.572658
-0.418152 -0.525290 0.575547
-0.456095 -0.344336 0.606681
-0.461097 -0.323637 0.610557
-0.518193 -0.149542 0.650322
-0.525423 -0.129732 0.655197
-0.600959 0.035042 0.703076
-0.610304 0.053685 0.708874
-0.702668 0.207253 0.763964
-0.713908 0.224533 0.770566
-0.820876 0.365846 0.831732
-0.435716 -1.334172 0.525568
-0.430925 -1.305753 0.525335
-0.426135 -1.277334 0.525102
-0.421814 -1.248844 0.525099
-0.418016 -1.220276 0.525350
-0.414218 -1.191707 0.525601
-0.406769 -1.127047 0.526715
-0.404039 -1.098365 0.527483
-0.401308 -1.069684 0.528251
-0.399019 -1.040978 0.529231
-0.397434 -1.012230 0.530549
-0.395848 -0.983483 0.531867
-0.393452 -0.918530 0.535411
-0.393088 -0.889774 0.537312
-0.392724 -0.861018 0.539213
-0.392744 -0.832280 0.541295
-0.393675 -0.803584 0.543809
-0.394606 -0.774888 0.546322
-0.397910 -0.710182 0.552565
-0.400203 -0.681626 0.555717
-0.402496 -0.653069 0.558869
-0.405085 -0.624561 0.562159
-0.408796 -0.596235 0.565971
-0.412508 -0.567910 0.569783
-0.422053 -0.504179 0.578929
-0.427227 -0.476183 0.583414
-0.432400 -0.448187 0.587898
-0.437752 -0.420243 0.592464
-0.444413 -0.392681 0.597626
-0.451073 -0.365120 0.602788
-0.467173 -0.303235 0.614924
-0.475326 -0.276213 0.620758
-0.483478 -0.249192 0.626592
-0.491678 -0.222191 0.632447
-0.501306 -0.195813 0.638938
-0.510933 -0.169434 0.645428
-0.533572 -0.110296 0.660481
-0.544636 -0.084654 0.667603
-0.555701 -0.059012 0.674725
-0.566765 -0.033370 0.681847
-0.579132 -0.008501 0.689534
-0.591575 0.016323 0.697254
-0.620379 0.071935 0.714991
-0.634127 0.095875 0.723269
-0.647875 0.119815 0.731547
-0.661623 0.143755 0.739825
-0.676416 0.166896 0.748543
-0.691382 0.189904 0.757335
-0.725692 0.241457 0.777402
-0.741783 0.263502 0.786660
-0.757874 0.285548 0.795918
-0.773966 0.307594 0.805176
-0.790848 0.328889 0.814757
-0.807967 0.349958 0.824434
20 NaN NaN
-0.441210 -1.366767 0.525835
-0.423611 -1.262360 0.524980
-0.409658 -1.157405 0.525902
-0.399629 -1.052037 0.528724
-0.393805 -0.946428 0.533567
-0.392468 -0.840788 0.540550
-0.395888 -0.735369 0.549784
-0.404311 -0.630465 0.561365
-0.417946 -0.526409 0.575368
-0.436950 -0.423564 0.591842
-0.461416 -0.322316 0.610804
-0.491364 -0.223054 0.632235
-0.526730 -0.126152 0.656077
-0.567375 -0.031956 0.682240
-0.613085 0.059234 0.710599
-0.663589 0.147178 0.741009
-0.718570 0.231700 0.773305
-0.777683 0.312687 0.807315
-0.840574 0.390089 0.842867
-0.906887 0.463911 0.879791
