-2.329809 -1.450251 10.657054
-1.702281 -1.467357 12.026817
-1.236631 -1.312162 13.452119
-0.921228 -1.037679 14.901003
-0.655753 -0.684182 16.343343
-0.409287 -0.378522 17.797644
-0.450579 -0.393849 19.301429
-0.561276 -0.484249 20.803062
-0.621915 -0.520433 22.310156
-2.328876 -1.450401 10.658817
-1.703011 -1.467454 12.024957
-1.701552 -1.467259 12.028677
-1.237149 -1.312454 13.450210
-1.236114 -1.311869 13.454029
-0.921573 -1.038101 14.899078
-0.920883 -1.037258 14.902927
-0.656145 -0.684683 16.341447
-0.655360 -0.683681 16.345239
-0.409451 -0.378738 17.795663
-0.409122 -0.378305 17.799626
-0.450399 -0.393693 19.299443
-0.450758 -0.394005 19.303414
-0.561179 -0.484183 20.801065
-0.561374 -0.484315 20.805058
-0.621833 -0.520383 22.308158
-2.314103 -1.452786 10.686735
-1.714561 -1.468994 11.995503
-1.690178 -1.465532 12.058189
-1.245347 -1.317088 13.419967
-1.228015 -1.307158 13.484287
-0.927031 -1.044776 14.868599
-0.915436 -1.030565 14.933404
-0.662361 -0.692618 16.311419
-0.649144 -0.675746 16.375268
-0.412058 -0.382173 17.764282
-0.406515 -0.374871 17.831006
-0.447552 -0.391229 19.267992
-0.453605 -0.396469 19.334865
-0.559638 -0.483133 20.769445
-0.562914 -0.485365 20.836679
-0.620544 -0.519607 22.276519
-2.246913 -1.462954 10.815120
-2.143500 -1.474963 11.020398
-2.043996 -1.481913 11.227831
-1.948252 -1.484198 11.437128
-1.856274 -1.481996 11.648109
-1.768164 -1.475376 11.860644
-1.638753 -1.456846 12.193765
-1.560258 -1.440035 12.409484
-1.485613 -1.419452 12.626241
-1.414658 -1.395419 12.843880
-1.347324 -1.368156 13.062288
-1.283604 -1.337820 13.281374
-1.191807 -1.284845 13.623184
-1.137209 -1.247453 13.843639
-1.086149 -1.207595 14.064510
-1.038600 -1.165444 14.285739
-0.994223 -1.121209 14.507221
-0.952388 -1.074991 14.728793
-0.890811 -0.999278 15.073105
-0.852253 -0.948341 15.294238
-0.813674 -0.895754 15.514981
-0.774307 -0.841555 15.735195
-0.733473 -0.785923 15.954782
-0.690533 -0.728982 16.173631
-0.620468 -0.639583 16.513005
-0.575365 -0.583492 16.731639
-0.531866 -0.530043 16.951254
-0.491563 -0.480811 17.172454
-0.455951 -0.437208 17.395622
-0.426570 -0.400722 17.620954
-0.397566 -0.362380 17.975438
-0.391291 -0.351121 18.205210
-0.393437 -0.348956 18.435338
-0.402525 -0.354301 18.665257
-0.416940 -0.365413 18.894704
-0.434972 -0.380442 19.123677
-0.466824 -0.407948 19.479070
-0.487580 -0.425931 19.707603
-0.506885 -0.442341 19.936379
-0.523972 -0.456347 20.165492
-0.538909 -0.468024 20.394885
-0.552083 -0.477791 20.624476
-0.569706 -0.489881 20.981713
-0.579606 -0.496103 21.211593
-0.588773 -0.501532 21.441523
-0.597496 -0.506481 21.671482
-0.606072 -0.511271 21.901449
-0.614816 -0.516242 22.131407
134 NaN NaN
-2.330042 -1.450213 10.656614
-2.282826 -1.457834 10.745839
-2.236336 -1.464462 10.835523
-2.190575 -1.470110 10.925649
-2.145546 -1.474791 11.016197
-2.101251 -1.478521 11.107152
-2.057693 -1.481314 11.198494
-2.014873 -1.483187 11.290208
-1.972791 -1.484153 11.382278
-1.931449 -1.484229 11.474687
-1.890846 -1.483432 11.567419
-1.850982 -1.481776 11.660461
-1.811857 -1.479280 11.753797
-1.773470 -1.475958 11.847413
-1.735819 -1.471828 11.941296
-1.698903 -1.466906 12.035432
-1.662720 -1.461209 12.129808
-1.627268 -1.454754 12.224413
-1.592545 -1.447558 12.319235
-1.558549 -1.439636 12.414262
-1.525276 -1.431007 12.509483
-1.492724 -1.421686 12.604888
-1.460891 -1.411689 12.700467
-1.429773 -1.401035 12.796210
-1.399366 -1.389738 12.892109
-1.369669 -1.377815 12.988153
-1.340678 -1.365283 13.084336
-1.312389 -1.352157 13.180648
-1.284800 -1.338454 13.277083
-1.257906 -1.324188 13.373633
-1.231705 -1.309377 13.470291
-1.206194 -1.294035 13.567051
-1.181369 -1.278178 13.663906
-1.157228 -1.261822 13.760851
-1.133766 -1.244981 13.857880
-1.110981 -1.227670 13.954987
-1.088870 -1.209905 14.052168
-1.067431 -1.191701 14.149418
-1.046660 -1.173071 14.246733
-1.026541 -1.154030 14.344105
-1.007021 -1.134586 14.441520
-0.988040 -1.114747 14.538961
-0.969535 -1.094522 14.636415
-0.951446 -1.073918 14.733867
-0.933710 -1.052944 14.831305
-0.916265 -1.031609 14.928718
-0.899047 -1.009921 15.026092
-0.881996 -0.987887 15.123419
-0.865047 -0.965517 15.220687
-0.848139 -0.942819 15.317886
-0.831209 -0.919801 15.415005
-0.814195 -0.896472 15.512036
-0.797035 -0.872841 15.608968
-0.779669 -0.848916 15.705791
-0.762035 -0.824707 15.802495
-0.744074 -0.800222 15.899070
-0.725725 -0.775471 15.995503
-0.706930 -0.750464 16.091784
-0.687671 -0.725233 16.187915
-0.668048 -0.699880 16.283940
-0.648183 -0.674518 16.379914
-0.628195 -0.649261 16.475889
-0.608204 -0.624220 16.571920
-0.588329 -0.599511 16.668062
-0.568692 -0.575246 16.764365
-0.549415 -0.551543 16.860880
-0.530623 -0.528520 16.957655
-0.512441 -0.506301 17.054734
-0.495001 -0.485010 17.152156
-0.478435 -0.464776 17.249956
-0.462882 -0.445733 17.348159
-0.448480 -0.428018 17.446786
-0.435375 -0.411771 17.545844
-0.423712 -0.397135 17.645333
-0.413640 -0.384257 17.745238
-0.405309 -0.373281 17.845528
-0.398864 -0.364353 17.946160
-0.394390 -0.357551 18.047065
-0.391784 -0.352765 18.148151
-0.390910 -0.349849 18.249339
-0.391625 -0.348650 18.350563
-0.393788 -0.349016 18.451773
-0.397258 -0.350796 18.552933
-0.401895 -0.353838 18.654016
-0.407561 -0.357996 18.755006
-0.414121 -0.363121 18.855899
-0.421444 -0.369073 18.956694
-0.429399 -0.375710 19.057398
-0.437860 -0.382895 19.158023
-0.446701 -0.390492 19.258585
-0.455799 -0.398368 19.359104
-0.465032 -0.406390 19.459598
-0.474278 -0.414427 19.560090
-0.483416 -0.422346 19.660601
-0.492324 -0.430016 19.761152
-0.500878 -0.437302 19.861762
-0.508983 -0.444101 19.962444
-0.516640 -0.450415 20.063192
-0.523871 -0.456267 20.163999
-0.530700 -0.461684 20.264859
-0.537151 -0.466690 20.365765
-0.543247 -0.471313 20.466711
-0.549013 -0.475579 20.567693
-0.554473 -0.479513 20.668705
-0.559653 -0.483144 20.769743
-0.564577 -0.486497 20.870803
-0.569270 -0.489601 20.971882
-0.573758 -0.492482 21.072978
-0.578066 -0.495169 21.174086
-0.582219 -0.497689 21.275205
-0.586244 -0.500069 21.376333
-0.590167 -0.502338 21.477468
-0.594012 -0.504524 21.578607
-0.597806 -0.506655 21.679749
-0.601574 -0.508758 21.780893
-0.605344 -0.510862 21.882037
-0.609139 -0.512994 21.983179
-0.612988 -0.515184 22.084318
-0.616914 -0.517458 22.185453
-0.620945 -0.519844 22.286580
-0.625105 -0.522371 22.387699
-0.629421 -0.525067 22.488807
-0.633919 -0.527959 22.589901
-0.638622 -0.531074 22.690980
-0.643558 -0.534440 22.792039
-0.648751 -0.538084 22.893076
-0.654226 -0.542034 22.994087
-0.660007 -0.546316 23.095066
-0.666120 -0.550957 23.196011
-0.672589 -0.555984 23.296915
-0.679437 -0.561421 23.397772
-0.686688 -0.567295 23.498577
-0.694366 -0.573631 23.599322
-0.702493 -0.580455 23.700000
-2.329773 -1.450260 10.656195
-1.815060 -1.548079 9.936275
-1.317892 -1.638861 9.203629
-0.998792 -1.661819 8.378062
-0.989906 -1.576927 7.494310
-1.046955 -1.470493 6.612108
-1.046429 -1.382602 5.725863
-1.046860 -1.294400 4.839657
-2.328694 -1.450449 10.654521
-1.816248 -1.547846 9.937867
-1.813872 -1.548312 9.934683
-1.318890 -1.638704 9.205355
-1.316894 -1.639018 9.201903
-0.999123 -1.661907 8.380033
-0.998462 -1.661732 8.376092
-0.989737 -1.577179 7.496286
-0.990075 -1.576675 7.492333
-1.046912 -1.470705 6.614096
-1.046995 -1.470283 6.610119
-1.046454 -1.382792 5.727853
-1.046404 -1.382413 5.723872
-1.046811 -1.294614 4.841645
-2.317339 -1.452433 10.636894
-1.828758 -1.545397 9.954634
-1.801372 -1.550758 9.917908
-1.329401 -1.637052 9.223532
-1.306383 -1.640670 9.183725
-1.002604 -1.662823 8.400785
-0.994981 -1.660816 8.355339
-0.987970 -1.579829 7.517107
-0.991853 -1.574021 7.471514
-1.046314 -1.472982 6.635027
-1.047418 -1.468062 6.589178
-1.046722 -1.384787 5.748820
-1.046138 -1.380417 5.702906
-1.046286 -1.296867 4.862580
-2.270453 -1.460662 10.564457
-2.195270 -1.474435 10.454116
-2.118127 -1.488999 10.345236
-2.039568 -1.504136 10.237451
-1.960080 -1.519653 10.130402
-1.880268 -1.535302 10.023613
-1.750134 -1.560740 9.848710
-1.671492 -1.575912 9.740990
-1.594068 -1.590589 9.632325
-1.518188 -1.604643 9.522495
-1.444541 -1.617800 9.411048
-1.373589 -1.629888 9.297750
-1.264692 -1.646862 9.107988
-1.203383 -1.655199 8.988880
-1.147822 -1.661355 8.866861
-1.097991 -1.665375 8.742316
-1.054718 -1.666991 8.615287
-1.020495 -1.665358 8.485537
-0.983131 -1.656197 8.269627
-0.971208 -1.646870 8.136284
-0.966457 -1.635157 8.002670
-0.967577 -1.621521 7.869148
-0.972814 -1.606553 7.735863
-0.981312 -1.590541 7.602863
-0.999264 -1.563070 7.385849
-1.010932 -1.546051 7.253211
-1.021952 -1.529237 7.120492
-1.031117 -1.513013 6.987560
-1.038326 -1.497412 6.854433
-1.043786 -1.482372 6.721159
-1.049083 -1.458951 6.502996
-1.050500 -1.445217 6.369475
-1.050901 -1.431813 6.235913
-1.050447 -1.418688 6.102324
-1.049311 -1.405786 5.968717
-1.047802 -1.393005 5.835102
-1.045064 -1.372197 5.616624
-1.043611 -1.359398 5.483010
-1.042604 -1.346453 5.349406
-1.042224 -1.333304 5.215819
-1.042796 -1.319844 5.082263
-1.044503 -1.306017 4.948756
67 NaN NaN
-2.330042 -1.450213 10.656614
-2.275489 -1.459748 10.571931
-2.219233 -1.469962 10.488449
-2.161649 -1.480711 10.405945
-2.103053 -1.491869 10.324210
-2.043718 -1.503328 10.243052
-1.983884 -1.514990 10.162290
-1.923767 -1.526767 10.081755
-1.863566 -1.538579 10.001288
-1.803468 -1.550349 9.920738
-1.743655 -1.562003 9.839959
-1.684306 -1.573467 9.758812
-1.625602 -1.584669 9.677161
-1.567729 -1.595534 9.594874
-1.510883 -1.605986 9.511822
-1.455270 -1.615943 9.427878
-1.401114 -1.625320 9.342922
-1.348658 -1.634025 9.256837
-1.298165 -1.641961 9.169512
-1.249927 -1.649023 9.080849
-1.204262 -1.655097 8.990763
-1.161518 -1.660061 8.899189
-1.122075 -1.663788 8.806089
-1.086338 -1.666143 8.711461
-1.054735 -1.666991 8.615351
-1.027705 -1.666197 8.517857
-1.005683 -1.663634 8.419143
-0.988963 -1.659230 8.319458
-0.977224 -1.653125 8.219151
-0.969919 -1.645530 8.118524
-0.966478 -1.636653 8.017792
-0.966335 -1.626694 7.917102
-0.968939 -1.615844 7.816535
-0.973762 -1.604280 7.716130
-0.980301 -1.592168 7.615885
-0.988073 -1.579663 7.515777
-0.996614 -1.566914 7.415761
-1.005472 -1.554066 7.315786
-1.014197 -1.541259 7.215793
-1.022340 -1.528636 7.115729
-1.029460 -1.516339 7.015546
-1.035399 -1.504417 6.915241
-1.040232 -1.492850 6.814835
-1.044044 -1.481611 6.714348
-1.046921 -1.470672 6.613796
-1.048954 -1.460007 6.513194
-1.050234 -1.449585 6.412555
-1.050856 -1.439377 6.311887
-1.050916 -1.429353 6.211199
-1.050510 -1.419480 6.110496
-1.049736 -1.409727 6.009784
-1.048693 -1.400062 5.909066
-1.047480 -1.390452 5.808345
-1.046197 -1.380866 5.707622
-1.044943 -1.371270 5.606900
-1.043818 -1.361632 5.506180
-1.042921 -1.351919 5.405465
-1.042352 -1.342100 5.304758
-1.042208 -1.332141 5.204064
-1.042587 -1.322012 5.103387
-1.043585 -1.311682 5.002734
-1.045296 -1.301121 4.902116
-1.047815 -1.290298 4.801542
-1.051231 -1.279186 4.701026
-1.055633 -1.267757 4.600585
-1.061107 -1.255985 4.500236
-1.067735 -1.243844 4.400000
-2.330388 -1.450574 10.656626
-3.733649 -1.464715 10.368808
-4.571372 -0.199398 9.893192
-5.278394 1.180409 9.481319
-5.994266 2.554837 9.066608
-6.715999 3.936025 8.686674
-7.528076 5.261245 8.292492
-8.515347 6.445045 7.856024
-9.721430 7.380688 7.374628
-11.113359 7.987851 6.868865
-12.607527 8.273486 6.367010
-2.331773 -1.452016 10.656675
-3.732215 -1.465948 10.369459
-3.735083 -1.463482 10.368156
-4.570524 -0.201142 9.893683
-4.572221 -0.197655 9.892702
-5.277509 1.178691 9.481834
-5.279279 1.182127 9.480805
-5.993361 2.553133 9.067135
-5.995171 2.556541 9.066081
-6.715064 3.934321 8.687147
-6.716933 3.937729 8.686202
-7.526970 5.259659 8.293007
-7.529181 5.262830 8.291977
-8.513983 6.443700 7.856598
-8.516712 6.446390 7.855450
-9.719795 7.379718 7.375250
-9.723065 7.381657 7.374007
-11.111542 7.987307 6.869498
-11.115177 7.988394 6.868232
-12.605633 8.273308 6.367625
-2.355027 -1.476234 10.657502
-3.708140 -1.486650 10.380401
-3.758162 -1.441799 10.356981
-4.556275 -0.230418 9.901917
-4.586555 -0.168434 9.884420
-5.262651 1.149836 9.490470
-5.294152 1.210971 9.472160
-5.978169 2.524519 9.075987
-6.010363 2.585160 9.057246
-6.699371 3.905709 8.695083
-6.732636 3.966336 8.678264
-7.508410 5.233038 8.301650
-7.547741 5.289452 8.283333
-8.491072 6.421114 7.866234
-8.539623 6.468977 7.845814
-9.692339 7.363436 7.385690
-9.750521 7.397940 7.363567
-11.081020 7.978177 6.880128
-11.145698 7.997525 6.857603
-12.573817 8.270306 6.377952
-2.469540 -1.579474 10.658267
-2.684281 -1.693912 10.642940
-2.919717 -1.749156 10.610301
-3.159122 -1.746833 10.562664
-3.388138 -1.688307 10.501759
-3.593506 -1.577529 10.429857
-3.861726 -1.339731 10.304850
-4.015973 -1.169731 10.219895
-4.156636 -0.987295 10.137346
-4.279767 -0.789042 10.063872
-4.388064 -0.579080 9.999814
-4.491021 -0.365264 9.939679
-4.653005 -0.034363 9.845990
-4.760655 0.176392 9.783327
-4.870092 0.385794 9.719233
-4.979108 0.595510 9.655447
-5.086864 0.806180 9.592668
-5.194436 1.017013 9.530122
-5.362695 1.343571 9.432323
-5.471578 1.553517 9.369069
-5.580614 1.763393 9.305841
-5.689639 1.973351 9.242870
-5.798729 2.183326 9.180069
-5.908424 2.392792 9.116623
-6.080164 2.716994 9.017055
-6.189744 2.927275 8.956185
-6.297713 3.139619 8.899737
-6.405768 3.352327 8.844844
-6.515662 3.563793 8.788818
-6.627655 3.773816 8.731535
-6.805591 4.097499 8.641640
-6.923073 4.304176 8.583194
-7.043462 4.508944 8.523951
-7.166856 4.711673 8.463890
-7.293671 4.912019 8.402964
-7.424100 5.109755 8.341151
-7.634541 5.410796 8.243224
-7.775458 5.600347 8.178852
-7.921085 5.785912 8.113366
-8.071407 5.967300 8.046793
-8.226728 6.143992 7.979086
-8.387183 6.315583 7.910244
-8.646677 6.571007 7.801143
-8.820464 6.727838 7.729519
-8.999604 6.878024 7.656858
-9.183885 7.021375 7.583252
-9.373187 7.157555 7.508781
-9.567436 7.286123 7.433522
-9.878093 7.470531 7.315384
-10.083585 7.579209 7.238647
-10.293007 7.679815 7.161530
-10.506022 7.772357 7.084152
-10.722227 7.857049 7.006627
-10.941418 7.933639 6.929057
-11.286702 8.037495 6.808747
-11.511811 8.094812 6.731489
-11.738716 8.144951 6.654488
-11.967180 8.188019 6.577813
-12.196898 8.224569 6.501501
-12.427724 8.254444 6.425621
173 NaN NaN
-2.330042 -1.450213 10.656614
-2.399708 -1.522769 10.659091
-2.477816 -1.586194 10.658169
-2.562898 -1.639749 10.653889
-2.653405 -1.683093 10.646385
-2.747857 -1.716190 10.635845
-2.844919 -1.739188 10.622469
-2.943410 -1.752313 10.606447
-3.042280 -1.755789 10.587943
-3.140562 -1.749785 10.567093
-3.237311 -1.734398 10.544008
-3.331546 -1.709641 10.518784
-3.422196 -1.675468 10.491513
-3.508186 -1.632058 10.462351
-3.589185 -1.580783 10.431662
-3.665469 -1.523344 10.399795
-3.737637 -1.461285 10.366995
-3.806470 -1.395935 10.333410
-3.872835 -1.328432 10.299109
-3.937387 -1.259495 10.264207
-4.000015 -1.188908 10.229098
-4.060436 -1.116298 10.194252
-4.118340 -1.041318 10.160167
-4.173387 -0.963664 10.127364
-4.225224 -0.883113 10.096375
-4.273899 -0.799894 10.067357
-4.319983 -0.714663 10.039989
-4.364119 -0.628009 10.013897
-4.406968 -0.540450 9.988696
-4.449204 -0.452450 9.963996
-4.491432 -0.364406 9.939440
-4.533865 -0.276465 9.914867
-4.576582 -0.188693 9.890182
-4.619667 -0.101161 9.865288
-4.663199 -0.013937 9.840089
-4.707253 0.072908 9.814495
-4.751801 0.159384 9.788507
-4.796687 0.245603 9.762248
-4.841750 0.331685 9.735844
-4.886831 0.417752 9.709422
-4.931770 0.503927 9.683109
-4.976437 0.590306 9.657005
-5.020866 0.676866 9.631091
-5.065138 0.763544 9.605307
-5.109337 0.850281 9.579593
-5.153547 0.937016 9.553890
-5.197848 1.023688 9.528139
-5.242279 1.110273 9.502311
-5.286823 1.196780 9.476419
-5.331461 1.283222 9.450475
-5.376174 1.369614 9.424490
-5.420943 1.455968 9.398478
-5.465751 1.542298 9.372451
-5.510585 1.628615 9.346427
-5.555434 1.714930 9.320421
-5.600286 1.801254 9.294450
-5.645132 1.887597 9.268533
-5.689960 1.973970 9.242685
-5.734787 2.060357 9.216882
-5.779656 2.146717 9.191060
-5.824611 2.233007 9.165154
-5.869696 2.319184 9.139100
-5.914955 2.405205 9.112832
-5.960402 2.491058 9.086339
-6.005950 2.576842 9.059800
-6.051491 2.662686 9.033440
-6.096912 2.748716 9.007483
-6.142102 2.835054 8.982155
-6.186952 2.921811 8.957669
-6.231484 3.008959 8.934003
-6.275828 3.096365 8.910943
-6.320118 3.183898 8.888265
-6.364492 3.271430 8.865746
-6.409087 3.358833 8.843163
-6.454029 3.445989 8.820313
-6.499351 3.532869 8.797167
-6.545040 3.619492 8.773781
-6.591083 3.705878 8.750214
-6.637469 3.792047 8.726522
-6.684185 3.878019 8.702763
-6.731232 3.963800 8.678970
-6.778636 4.049371 8.655128
-6.826429 4.134705 8.631213
-6.874638 4.219778 8.607206
-6.923295 4.304564 8.583084
-6.972427 4.389036 8.558827
-7.022057 4.473176 8.534427
-7.072202 4.556968 8.509885
-7.122883 4.640395 8.485200
-7.174116 4.723441 8.460371
-7.225920 4.806089 8.435400
-7.278314 4.888321 8.410284
-7.331317 4.970115 8.385019
-7.384951 5.051448 8.359598
-7.439236 5.132298 8.334018
-7.494191 5.212642 8.308273
-7.549835 5.292455 8.282358
-7.606187 5.371712 8.256270
-7.663265 5.450390 8.230006
-7.721085 5.528464 8.203564
-7.779665 5.605908 8.176940
-7.839020 5.682695 8.150133
-7.899166 5.758799 8.123141
-7.960116 5.834192 8.095961
-8.021885 5.908848 8.068593
-8.084486 5.982737 8.041035
-8.147929 6.055831 8.013286
-8.212228 6.128101 7.985346
-8.277391 6.199517 7.957214
-8.343425 6.270052 7.928891
-8.410338 6.339676 7.900377
-8.478135 6.408360 7.871675
-8.546823 6.476075 7.842786
-8.616404 6.542790 7.813711
-8.686879 6.608479 7.784453
-8.758247 6.673116 7.755016
-8.830507 6.736672 7.725403
-8.903657 6.799120 7.695618
-8.977694 6.860432 7.665665
-9.052611 6.920585 7.635550
-9.128398 6.979556 7.605277
-9.205047 7.037324 7.574852
-9.282546 7.093867 7.544282
-9.360887 7.149161 7.513573
-9.440056 7.203188 7.482731
-9.520036 7.255932 7.451763
-9.600811 7.307381 7.420678
-9.682363 7.357520 7.389483
-9.764676 7.406334 7.358185
-9.847731 7.453812 7.326792
-9.931508 7.499945 7.295313
-10.015984 7.544730 7.263755
-10.101138 7.588162 7.232127
-10.186947 7.630236 7.200437
-10.273392 7.670949 7.168693
-10.360447 7.710300 7.136903
-10.448090 7.748293 7.105075
-10.536297 7.784932 7.073217
-10.625044 7.820224 7.041337
-10.714308 7.854171 7.009441
-10.804066 7.886782 6.977538
-10.894295 7.918065 6.945634
-10.984972 7.948033 6.913736
-11.076074 7.976697 6.881850
-11.167578 8.004070 6.849983
-11.259464 8.030163 6.818141
-11.351710 8.054992 6.786328
-11.444296 8.078572 6.754552
-11.537200 8.100920 6.722816
-11.630404 8.122052 6.691125
-11.723889 8.141985 6.659484
-11.817636 8.160736 6.627896
-11.911628 8.178324 6.596367
-12.005847 8.194767 6.564899
-12.100277 8.210084 6.533495
-12.194903 8.224293 6.502159
-12.289709 8.237414 6.470894
-12.384681 8.249466 6.439701
-12.479805 8.260467 6.408584
-12.575068 8.270437 6.377545
-12.670458 8.279396 6.346584
-12.765961 8.287362 6.315705
-12.861567 8.294355 6.284908
-12.957266 8.300392 6.254195
-13.053046 8.305492 6.223566
-13.148898 8.309673 6.193024
-13.244812 8.312952 6.162569
-13.340781 8.315349 6.132201
-13.436795 8.316881 6.101921
-13.532847 8.317566 6.071730
-13.628929 8.317422 6.041627
-13.725034 8.316468 6.011613
-13.821156 8.314721 5.981688
-0.561236 -0.484118 20.803542
-0.550829 -0.442778 20.948244
-0.548338 -0.393821 21.090879
-0.556799 -0.334798 21.229345
-0.578443 -0.264371 21.360824
-0.614379 -0.182524 21.482119
-0.668808 -0.087580 21.585599
-0.738029 0.016109 21.670036
-0.821209 0.125965 21.730747
-0.914051 0.238123 21.769588
-1.012906 0.350050 21.790224
-1.115951 0.460131 21.793512
-1.220980 0.568062 21.785065
-0.561076 -0.483591 20.805465
-0.550914 -0.443378 20.946338
-0.550745 -0.442178 20.950150
-0.548334 -0.394505 21.088999
-0.548342 -0.393137 21.092758
-0.556573 -0.335681 21.227565
-0.557025 -0.333915 21.231125
-0.578081 -0.265367 21.359128
-0.578805 -0.263374 21.362520
-0.613707 -0.183752 21.480690
-0.615052 -0.181297 21.483548
-0.667978 -0.088907 21.584355
-0.669639 -0.086252 21.586843
-0.737054 0.014703 21.669001
-0.739005 0.017514 21.671071
-0.820012 0.124482 21.730141
-0.822406 0.127449 21.731352
-0.912782 0.236633 21.769178
-0.915321 0.239613 21.769998
-1.011548 0.348584 21.790137
-1.014264 0.351516 21.790310
-1.114569 0.458686 21.793555
-1.117334 0.461575 21.793469
-1.219582 0.566641 21.785219
-0.560534 -0.481807 20.811985
-0.551199 -0.445414 20.939875
-0.550459 -0.440142 20.956612
-0.548320 -0.396824 21.082627
-0.548356 -0.390817 21.099130
-0.555805 -0.338675 21.221529
-0.557793 -0.330920 21.237161
-0.576852 -0.268745 21.353378
-0.580034 -0.259996 21.368270
-0.611866 -0.187600 21.475429
-0.617332 -0.177136 21.488393
-0.665162 -0.093409 21.580136
-0.672454 -0.081751 21.591062
-0.733745 0.009937 21.665490
-0.742314 0.022280 21.674582
-0.815955 0.119451 21.728088
-0.826463 0.132480 21.733405
-0.908477 0.231581 21.767787
-0.919625 0.244665 21.771390
-1.006991 0.343593 21.789654
-1.018868 0.356487 21.790602
-1.109883 0.453786 21.793702
-1.122020 0.466475 21.793322
-1.214841 0.561820 21.785743
-0.559293 -0.477724 20.826899
-0.557655 -0.472339 20.846571
-0.556018 -0.466954 20.866243
-0.554381 -0.461569 20.885915
-0.552744 -0.456183 20.905587
-0.551853 -0.450070 20.925093
-0.549806 -0.435486 20.971394
-0.548944 -0.429344 20.990893
-0.548162 -0.423127 21.010368
-0.548204 -0.416128 21.029596
-0.548246 -0.409129 21.048823
-0.548288 -0.402130 21.068050
-0.548613 -0.385305 21.113619
-0.549709 -0.377341 21.132435
-0.550804 -0.369378 21.151252
-0.551900 -0.361414 21.170068
-0.552996 -0.353451 21.188884
-0.554091 -0.345487 21.207701
-0.559549 -0.324071 21.250968
-0.561865 -0.315036 21.269180
-0.564181 -0.306002 21.287392
-0.566625 -0.296860 21.305525
-0.570333 -0.286667 21.322875
-0.574041 -0.276473 21.340225
-0.582845 -0.252268 21.381423
-0.586891 -0.241812 21.398513
-0.592140 -0.230418 21.414679
-0.597389 -0.219025 21.430844
-0.602638 -0.207631 21.447009
-0.607887 -0.196237 21.463174
-0.622546 -0.167616 21.499475
-0.629425 -0.155060 21.514093
-0.636304 -0.142504 21.528711
-0.643183 -0.129947 21.543330
-0.650225 -0.117287 21.557757
-0.658721 -0.103705 21.570486
-0.678895 -0.071454 21.600712
-0.687391 -0.057872 21.613440
-0.696229 -0.044107 21.625679
-0.706212 -0.029726 21.636272
-0.716194 -0.015346 21.646866
-0.726177 -0.000965 21.657459
-0.750334 0.033371 21.681814
-0.761579 0.048280 21.690178
-0.772825 0.063188 21.698542
-0.784070 0.078097 21.706906
-0.795316 0.093005 21.715270
-0.806673 0.107944 21.723391
-0.835745 0.143987 21.738102
-0.847989 0.159165 21.744297
-0.860232 0.174344 21.750492
-0.872654 0.189538 21.756209
-0.885642 0.204782 21.760407
-0.898630 0.220025 21.764604
-0.929472 0.256221 21.774572
-0.942655 0.271436 21.778120
-0.956176 0.286601 21.780544
-0.969698 0.301766 21.782968
-0.983219 0.316931 21.785392
-0.996740 0.332096 21.787816
-1.029398 0.367857 21.791272
-1.043289 0.382855 21.792155
-1.057180 0.397853 21.793038
-1.071071 0.412851 21.793921
-1.085022 0.427797 21.794480
-1.099163 0.442580 21.794038
-1.132740 0.477682 21.792986
-1.146881 0.492464 21.792544
-1.161082 0.507159 21.791681
-1.175387 0.521704 21.790101
-1.189691 0.536249 21.788521
-1.203996 0.550794 21.786941
18 NaN NaN
-0.561276 -0.484249 20.803062
-0.552682 -0.455982 20.906325
-0.548158 -0.423743 21.008676
-0.548379 -0.387008 21.109595
-0.554129 -0.345212 21.208352
-0.566284 -0.297798 21.303928
-0.585740 -0.244310 21.394969
-0.613280 -0.184531 21.479782
-0.649367 -0.118659 21.556472
-0.693936 -0.047410 21.623246
-0.746305 0.028030 21.678818
-0.805303 0.106246 21.722698
-0.869545 0.185889 21.755204
-0.937703 0.265882 21.777232
-1.008665 0.345471 21.789954
-1.081572 0.424190 21.794588
-1.155794 0.501783 21.792265
-1.230882 0.578131 21.783971
-0.409653 -0.378188 17.797715
-0.617218 -0.188290 17.836795
-0.823907 0.003215 17.872527
-1.029683 0.196294 17.904905
-1.234472 0.390970 17.933793
-1.438268 0.587154 17.959299
-0.411116 -0.376855 17.797998
-0.615759 -0.189632 17.836530
-0.618677 -0.186948 17.837060
-0.822455 0.001860 17.872288
-0.825359 0.004570 17.872765
-1.028239 0.194927 17.904694
-1.031128 0.197661 17.905117
-1.233033 0.389594 17.933600
-1.235912 0.392345 17.933987
-1.436837 0.585767 17.959133
-0.419489 -0.369228 17.799617
-0.607412 -0.197309 17.835012
-0.627023 -0.179271 17.838577
-0.814149 -0.005889 17.870924
-0.833664 0.012320 17.874129
-1.019965 0.187124 17.903443
-1.039390 0.205481 17.906327
-1.224800 0.381727 17.932492
-1.244145 0.400212 17.935095
-1.428650 0.577832 17.958179
-0.441233 -0.349419 17.803823
-0.470171 -0.323056 17.809419
-0.499090 -0.296656 17.814941
-0.527983 -0.270207 17.820362
-0.556877 -0.243759 17.825782
-0.585736 -0.217247 17.831072
-0.648688 -0.159313 17.842475
-0.677489 -0.132695 17.847543
-0.706291 -0.106076 17.852610
-0.735065 -0.079411 17.857579
-0.763820 -0.052708 17.862470
-0.792574 -0.026006 17.867361
-0.855234 0.032446 17.877672
-0.883922 0.059263 17.882318
-0.912579 0.086131 17.886856
-0.941237 0.112999 17.891393
-0.969860 0.139925 17.895806
-0.998469 0.166874 17.900167
-1.060849 0.225792 17.909471
-1.089407 0.252823 17.913654
-1.117939 0.279896 17.917745
-1.146447 0.307007 17.921751
-1.174954 0.334118 17.925758
-1.203419 0.361297 17.929615
-1.265508 0.420670 17.937911
-1.293912 0.447940 17.941563
-1.322316 0.475209 17.945215
-1.350685 0.502531 17.948749
-1.379035 0.529879 17.952223
-1.407386 0.557226 17.955698
15 NaN NaN
-0.409287 -0.378522 17.797644
-0.486866 -0.307846 17.812648
-0.564326 -0.236940 17.827180
-0.641663 -0.165806 17.841239
-0.718876 -0.094445 17.854825
-0.795962 -0.022859 17.867938
-0.872921 0.048949 17.880576
-0.949749 0.120979 17.892741
-1.026444 0.193228 17.904431
-1.103006 0.265694 17.915646
-1.179431 0.338376 17.926387
-1.255718 0.411271 17.936652
-1.331865 0.484377 17.946442
-1.407870 0.557693 17.955757
-1.483731 0.631217 17.964597
-0.655698 -0.683692 16.343426
-0.641873 -0.529039 16.370067
-0.642850 -0.374243 16.399181
-0.664771 -0.221677 16.431341
-0.706151 -0.073746 16.465851
-0.770760 0.065008 16.502485
-0.854631 0.192766 16.540246
-0.956808 0.306286 16.578371
-1.072525 0.406203 16.616190
-1.199031 0.492407 16.653228
-1.333285 0.566560 16.689292
-1.473181 0.630034 16.724293
-0.655479 -0.681731 16.343756
-0.641958 -0.531006 16.369713
-0.641788 -0.527073 16.370420
-0.642784 -0.376206 16.398803
-0.642915 -0.372280 16.399559
-0.664360 -0.223587 16.430916
-0.665182 -0.219766 16.431766
-0.705554 -0.075602 16.465405
-0.706749 -0.071890 16.466297
-0.769793 0.063323 16.502010
-0.771728 0.066692 16.502960
-0.853496 0.191192 16.539764
-0.855766 0.194341 16.540728
-0.955398 0.304953 16.577889
-0.958219 0.307619 16.578854
-1.071008 0.404990 16.615712
-1.074042 0.407415 16.616668
-1.197357 0.491416 16.652766
-1.200706 0.493398 16.653690
-1.331553 0.565668 16.688839
-1.335016 0.567452 16.689746
-1.471367 0.629313 16.723858
-0.654711 -0.674854 16.344916
-0.642256 -0.537906 16.368472
-0.641491 -0.520173 16.371662
-0.642554 -0.383092 16.397477
-0.643476 -0.365428 16.400933
-0.662920 -0.230290 16.429424
-0.666622 -0.213063 16.433258
-0.703456 -0.082112 16.463841
-0.708847 -0.065380 16.467861
-0.766398 0.057413 16.500343
-0.775123 0.072603 16.504626
-0.849513 0.185668 16.538073
-0.859748 0.199865 16.542420
-0.950448 0.300277 16.576196
-0.963169 0.312296 16.580547
-1.065686 0.400735 16.614037
-1.079363 0.411670 16.618343
-1.191481 0.487940 16.651144
-1.206581 0.496875 16.655312
-1.325478 0.562537 16.687249
-1.341091 0.570583 16.691335
-1.465002 0.626786 16.722333
-0.652934 -0.658947 16.347597
-0.650588 -0.637947 16.351137
-0.648242 -0.616946 16.354677
-0.645896 -0.595946 16.358217
-0.643853 -0.574932 16.361810
-0.642944 -0.553864 16.365600
-0.640802 -0.504215 16.374533
-0.639894 -0.483147 16.378323
-0.639914 -0.462102 16.382263
-0.640617 -0.441075 16.386312
-0.641319 -0.420048 16.390361
-0.642022 -0.399020 16.394410
-0.645355 -0.349642 16.404197
-0.647836 -0.328802 16.408505
-0.650317 -0.307961 16.412813
-0.652798 -0.287121 16.417121
-0.655279 -0.266280 16.421429
-0.659588 -0.245795 16.425973
-0.669954 -0.197559 16.436709
-0.674353 -0.177091 16.441265
-0.679394 -0.156811 16.445891
-0.685798 -0.136931 16.450668
-0.692202 -0.117051 16.455445
-0.698606 -0.097171 16.460222
-0.715083 -0.050880 16.471605
-0.723505 -0.031813 16.476563
-0.731926 -0.012746 16.481521
-0.740347 0.006320 16.486480
-0.748768 0.025387 16.491438
-0.758546 0.043743 16.496488
-0.782974 0.086273 16.508481
-0.793340 0.104320 16.513571
-0.803822 0.122291 16.518665
-0.815982 0.139158 16.523830
-0.828142 0.156025 16.528995
-0.840302 0.172892 16.534160
-0.869646 0.212090 16.546343
-0.883397 0.227679 16.551532
-0.897147 0.243269 16.556721
-0.910897 0.258859 16.561910
-0.924648 0.274449 16.567099
-0.939000 0.289460 16.572280
-0.974616 0.323113 16.584462
-0.989729 0.337393 16.589632
-1.004842 0.351672 16.594801
-1.020875 0.364911 16.599928
-1.037126 0.377903 16.605044
-1.053376 0.390894 16.610161
-1.091836 0.421297 16.622206
-1.109019 0.433059 16.627247
-1.126203 0.444822 16.632287
-1.143386 0.456585 16.637328
-1.160570 0.468347 16.642369
-1.177892 0.479899 16.647394
-1.220170 0.504915 16.659062
-1.238111 0.515530 16.664014
-1.256051 0.526146 16.668965
-1.274326 0.536180 16.673863
-1.292876 0.545739 16.678718
-1.311426 0.555297 16.683572
-1.355143 0.577823 16.695013
-1.374143 0.586499 16.699776
-1.393184 0.595092 16.704532
-1.412225 0.603686 16.709287
-1.431267 0.612280 16.714043
-1.450308 0.620874 16.718798
18 NaN NaN
-0.655753 -0.684182 16.343343
-0.644045 -0.579374 16.361011
-0.639509 -0.474233 16.379927
-0.643015 -0.369299 16.400133
-0.655395 -0.265304 16.421631
-0.677344 -0.163173 16.444362
-0.709297 -0.063981 16.468198
-0.751314 0.031152 16.492938
-0.803034 0.121198 16.518330
-0.863709 0.205358 16.544102
-0.932322 0.283150 16.569996
-1.007739 0.354410 16.595792
-1.088837 0.419244 16.621326
-1.174595 0.477948 16.646484
-1.264132 0.530927 16.671195
-1.356717 0.578634 16.695425
-1.451757 0.621528 16.719160
-1.548774 0.660046 16.742403
-0.920994 -1.037242 14.900935
-0.800340 -0.788214 14.865932
-0.717438 -0.523326 14.840977
-0.697211 -0.246045 14.832836
-0.758137 0.024377 14.846689
-0.902638 0.258894 14.883470
-1.101144 0.447107 14.935290
-1.330319 0.593984 14.995795
-0.920059 -1.035495 14.900665
-0.801094 -0.790054 14.866154
-0.799587 -0.786375 14.865711
-0.717761 -0.525297 14.841083
-0.717115 -0.521355 14.840870
-0.697105 -0.248043 14.832827
-0.697317 -0.244048 14.832846
-0.757285 0.022580 14.846476
-0.758989 0.026174 14.846902
-0.901395 0.257361 14.883149
-0.903882 0.260427 14.883791
-1.099561 0.445958 14.934873
-1.102728 0.448255 14.935707
-1.328617 0.593035 14.995344
-0.914787 -1.025651 14.899146
-0.805341 -0.800418 14.867401
-0.795340 -0.776011 14.864463
-0.720182 -0.536266 14.841843
-0.715295 -0.510249 14.840271
-0.696509 -0.259296 14.832774
-0.697913 -0.232794 14.832898
-0.752619 0.012398 14.845314
-0.763790 0.036299 14.848102
-0.894387 0.248723 14.881339
-0.910890 0.269065 14.885602
-1.090639 0.439485 14.932525
-1.111649 0.454729 14.938055
-1.319027 0.587688 14.992805
-0.901132 -1.000152 14.895211
-0.882963 -0.966222 14.889974
-0.865214 -0.932064 14.884849
-0.848657 -0.897257 14.880039
-0.832100 -0.862450 14.875230
-0.816341 -0.827264 14.870632
-0.784340 -0.749165 14.861232
-0.771444 -0.712743 14.857396
-0.759108 -0.676096 14.853710
-0.746771 -0.639449 14.850023
-0.736952 -0.601999 14.847008
-0.727378 -0.564470 14.844059
-0.710580 -0.481483 14.838720
-0.704306 -0.443206 14.836656
-0.699619 -0.404733 14.835018
-0.697232 -0.365977 14.833999
-0.694845 -0.327221 14.832980
-0.694964 -0.288446 14.832638
-0.699458 -0.203644 14.833034
-0.705905 -0.165393 14.834407
-0.712804 -0.127197 14.835903
-0.720016 -0.089084 14.837484
-0.731865 -0.052202 14.840329
-0.743714 -0.015320 14.843175
-0.776226 0.062525 14.851209
-0.792774 0.097423 14.855343
-0.811656 0.130939 14.860122
-0.832354 0.163382 14.865401
-0.853053 0.195824 14.870681
-0.876234 0.226348 14.876650
-0.929210 0.291279 14.890337
-0.956127 0.318391 14.897349
-0.983045 0.345503 14.904360
-1.010429 0.372073 14.911503
-1.039506 0.396675 14.919122
-1.068582 0.421277 14.926741
-1.134758 0.471495 14.944137
-1.165507 0.493806 14.952230
-1.197179 0.514653 14.960586
-1.229223 0.534909 14.969049
-1.261268 0.555165 14.977512
-1.294187 0.573838 14.986227
21 NaN NaN
-0.921228 -1.037679 14.901003
-0.869529 -0.941135 14.886102
-0.822419 -0.842099 14.872418
-0.780775 -0.740463 14.860185
-0.745678 -0.636200 14.849696
-0.718440 -0.529438 14.841306
-0.700594 -0.420557 14.835434
-0.693804 -0.310328 14.832536
-0.699650 -0.200023 14.833051
-0.719267 -0.091412 14.837304
-0.752959 0.013458 14.845396
-0.800014 0.112691 14.857152
-0.858877 0.204953 14.872167
-0.927577 0.289635 14.889912
-1.004147 0.366758 14.909857
-1.086867 0.436748 14.931532
-1.174352 0.500223 14.954558
-1.265526 0.557857 14.978637
-1.359573 0.610296 15.003542
-1.455878 0.658126 15.029102
-1.553972 0.701868 15.055184
-1.236297 -1.311790 13.452103
-1.065085 -1.111708 13.444505
-0.912559 -0.897013 13.441403
-0.790430 -0.663911 13.445072
-0.714285 -0.412676 13.458009
-0.708231 -0.151725 13.483271
-0.784188 0.096439 13.520523
-0.927672 0.311805 13.565409
-1.114815 0.490386 13.613663
-1.326044 0.639734 13.662877
-1.234960 -1.310304 13.452035
-1.066321 -1.113280 13.444547
-1.063849 -1.110136 13.444463
-0.913653 -0.898686 13.441412
-0.911464 -0.895339 13.441394
-0.791190 -0.665760 13.445009
-0.789671 -0.662062 13.445135
-0.714690 -0.414630 13.457878
-0.713879 -0.410722 13.458140
-0.707901 -0.153681 13.483020
-0.708561 -0.149768 13.483521
-0.783365 0.094644 13.520209
-0.785012 0.098235 13.520837
-0.926343 0.310355 13.565048
-0.929002 0.313255 13.565770
-1.113293 0.489143 13.613292
-1.116337 0.491630 13.614035
-1.324355 0.638730 13.662503
-1.227789 -1.302339 13.451676
-1.072946 -1.121708 13.444772
-1.057223 -1.101707 13.444238
-0.919524 -0.907660 13.441460
-0.905693 -0.886304 13.441368
-0.795261 -0.675675 13.444671
-0.785600 -0.652147 13.445473
-0.716866 -0.425107 13.457177
-0.711704 -0.400245 13.458842
-0.706130 -0.164172 13.481679
-0.710331 -0.139277 13.484862
-0.778949 0.085018 13.518526
-0.789427 0.107861 13.522519
-0.919216 0.302580 13.563112
-0.936129 0.321030 13.567705
-1.105133 0.482476 13.611300
-1.124497 0.498296 13.616026
-1.315465 0.633082 13.660496
-1.209383 -1.281892 13.450752
-1.184907 -1.254701 13.449524
-1.160578 -1.227379 13.448333
-1.136959 -1.199431 13.447320
-1.113340 -1.171484 13.446306
-1.089955 -1.143344 13.445350
-1.040215 -1.080072 13.443661
-1.018177 -1.050860 13.443030
-0.996738 -1.021194 13.442543
-0.975298 -0.991528 13.442055
-0.954632 -0.961328 13.441747
-0.934593 -0.930695 13.441583
-0.891885 -0.862492 13.441527
-0.873522 -0.830826 13.441739
-0.855159 -0.799160 13.441950
-0.838559 -0.766550 13.442542
-0.822217 -0.733801 13.443190
-0.805876 -0.701052 13.443838
-0.775151 -0.626696 13.446341
-0.761821 -0.592650 13.447607
-0.750875 -0.557762 13.449343
-0.739930 -0.522875 13.451079
-0.729875 -0.487765 13.452982
-0.722449 -0.452001 13.455377
-0.708222 -0.373066 13.461011
-0.704891 -0.336745 13.464124
-0.701561 -0.300424 13.467237
-0.700857 -0.264069 13.470779
-0.702094 -0.227689 13.474638
-0.703331 -0.191308 13.478497
-0.714875 -0.112348 13.488306
-0.720918 -0.076536 13.492886
-0.731197 -0.041815 13.498041
-0.741955 -0.007218 13.503262
-0.752714 0.027379 13.508483
-0.767615 0.060308 13.514206
-0.801583 0.132117 13.526927
-0.820374 0.162926 13.533067
-0.839165 0.193735 13.539207
-0.858822 0.223934 13.545426
-0.880682 0.252585 13.551846
-0.902542 0.281236 13.558266
-0.954424 0.340987 13.572674
-0.978754 0.367527 13.579282
-1.004269 0.392875 13.585961
-1.030563 0.417437 13.592688
-1.056858 0.442000 13.599415
-1.084187 0.465364 13.606189
-1.145443 0.515408 13.621138
-1.174446 0.536663 13.627971
-1.203546 0.557793 13.634806
-1.232646 0.578922 13.641642
-1.262730 0.598618 13.648493
-1.292831 0.618290 13.655344
25 NaN NaN
-1.236631 -1.312162 13.452119
-1.164668 -1.232219 13.448508
-1.095228 -1.150052 13.445529
-1.028731 -1.065464 13.443270
-0.965701 -0.978248 13.441837
-0.906788 -0.888193 13.441356
-0.852807 -0.795103 13.441978
-0.804770 -0.698835 13.443882
-0.763923 -0.599350 13.447273
-0.731753 -0.496812 13.452376
-0.709932 -0.391710 13.459413
-0.700145 -0.284987 13.468561
-0.703780 -0.178100 13.479898
-0.721534 -0.072888 13.493352
-0.753143 0.028759 13.508691
-0.797432 0.125312 13.525570
-0.852652 0.215848 13.543614
-0.916900 0.300055 13.562483
-0.988414 0.378064 13.581905
-1.065708 0.450267 13.601679
-1.147593 0.517165 13.621662
-1.233141 0.579281 13.641758
-1.321635 0.637114 13.661900
-1.412520 0.691114 13.682044
-1.505366 0.741683 13.702160
-1.701886 -1.467079 12.026688
-1.574884 -1.376890 11.985250
-1.450236 -1.283217 11.944401
-1.329228 -1.184515 11.904476
-1.211935 -1.081068 11.865507
-1.100633 -0.970679 11.828105
-0.995864 -0.853543 11.792440
-0.902250 -0.726563 11.759798
-0.821767 -0.590103 11.730789
-0.764677 -0.441372 11.708411
-0.735212 -0.283981 11.694066
-0.747461 -0.123930 11.692213
-0.795499 0.029094 11.701400
-0.877354 0.166085 11.721343
-0.978912 0.288181 11.747747
-1.095477 0.394804 11.779214
-1.220490 0.490469 11.813609
-1.352162 0.575797 11.850371
-1.487911 0.653803 11.888617
-1.700303 -1.465971 12.026172
-1.576446 -1.378029 11.985760
-1.573321 -1.375750 11.984739
-1.451774 -1.284390 11.944906
-1.448713 -1.282021 11.943900
-1.330708 -1.185768 11.904966
-1.327749 -1.183262 11.903986
-1.213378 -1.082367 11.865987
-1.210493 -1.079768 11.865027
-1.101977 -0.972089 11.828559
-1.099290 -0.969268 11.827651
-0.997141 -0.855020 11.792876
-0.994588 -0.852067 11.792003
-0.903337 -0.728197 11.760182
-0.901164 -0.724928 11.759414
-0.822716 -0.591829 11.731135
-0.820818 -0.588377 11.730443
-0.765221 -0.443282 11.708641
-0.764133 -0.439461 11.708180
-0.735474 -0.285958 11.694214
-0.734950 -0.282004 11.693919
-0.747059 -0.125889 11.692160
-0.747862 -0.121972 11.692266
-0.794788 0.027231 11.701250
-0.796211 0.030957 11.701550
-0.876186 0.164489 11.721046
-0.878521 0.167682 11.721640
-0.977595 0.286716 11.747400
-0.980229 0.289646 11.748093
-1.093965 0.393561 11.778801
-1.096989 0.396046 11.779627
-1.218914 0.489317 11.813173
-1.222066 0.491621 11.814044
-1.350497 0.574792 11.849904
-1.353827 0.576801 11.850839
-1.486214 0.652858 11.888138
-1.694652 -1.462012 12.024330
-1.582024 -1.382099 11.987584
-1.567743 -1.371680 11.982915
-1.457269 -1.288581 11.946709
-1.443315 -1.277696 11.942122
-1.335993 -1.190242 11.906715
-1.322464 -1.178788 11.902237
-1.218529 -1.087008 11.867702
-1.205499 -1.074945 11.863353
-1.106773 -0.977126 11.830181
-1.094493 -0.964232 11.826029
-1.001698 -0.860293 11.794433
-0.990269 -0.846581 11.790510
-0.907215 -0.734035 11.761555
-0.897285 -0.719090 11.758041
-0.826106 -0.597993 11.732371
-0.817824 -0.582002 11.729318
-0.767165 -0.450105 11.709464
-0.762189 -0.432638 11.707358
-0.736410 -0.293019 11.694741
-0.734569 -0.274908 11.693558
-0.745626 -0.132883 11.691970
-0.749295 -0.114978 11.692456
-0.792246 0.020578 11.700714
-0.799070 0.037451 11.702187
-0.872017 0.158788 11.719986
-0.882690 0.173383 11.722700
-0.972894 0.281485 11.746163
-0.985004 0.294799 11.749355
-1.088566 0.389125 11.777326
-1.102387 0.400483 11.781101
-1.213287 0.485203 11.811618
-1.227695 0.495732 11.815600
-1.344551 0.571206 11.848234
-1.359773 0.580388 11.852508
-1.480155 0.649488 11.886427
-1.681508 -1.452804 12.020046
-1.664148 -1.440642 12.014388
-1.646789 -1.428481 12.008729
-1.629430 -1.416320 12.003071
-1.612133 -1.404064 11.997428
-1.594998 -1.391564 11.991826
-1.554769 -1.362215 11.978673
-1.537634 -1.349715 11.973071
-1.520681 -1.336950 11.967514
-1.503803 -1.324076 11.961977
-1.486926 -1.311203 11.956439
-1.470048 -1.298329 11.950902
-1.430761 -1.267636 11.937986
-1.414181 -1.254350 11.932524
-1.397601 -1.241064 11.927062
-1.381021 -1.227778 11.921600
-1.364516 -1.214392 11.916157
-1.348284 -1.200648 11.910784
-1.310173 -1.168381 11.898169
-1.293941 -1.154638 11.892796
-1.277974 -1.140564 11.887491
-1.262152 -1.126309 11.882224
-1.246330 -1.112055 11.876957
-1.230508 -1.097801 11.871690
-1.193891 -1.063719 11.859463
-1.178561 -1.048892 11.854324
-1.163231 -1.034066 11.849186
-1.147900 -1.019239 11.844047
-1.132664 -1.004310 11.838933
-1.117930 -0.988840 11.833952
-1.083337 -0.952518 11.822258
-1.068603 -0.937047 11.817277
-1.054300 -0.921149 11.812411
-1.040299 -0.904952 11.807626
-1.026299 -0.888755 11.802841
-1.012299 -0.872557 11.798056
-0.980364 -0.833697 11.787076
-0.967282 -0.816681 11.782540
-0.954200 -0.799665 11.778003
-0.941118 -0.782649 11.773467
-0.928152 -0.765542 11.768963
-0.916237 -0.747611 11.764747
-0.888263 -0.705514 11.754849
-0.876348 -0.687583 11.750633
-0.865229 -0.669122 11.746639
-0.854816 -0.650190 11.742841
-0.844403 -0.631259 11.739044
-0.833991 -0.612327 11.735247
-0.811412 -0.566877 11.726860
-0.802945 -0.546902 11.723613
-0.794478 -0.526926 11.720367
-0.786010 -0.506951 11.717120
-0.777655 -0.486931 11.713905
-0.771685 -0.465974 11.711378
-0.757669 -0.416769 11.705444
-0.751699 -0.395812 11.702917
-0.747208 -0.374505 11.700823
-0.744334 -0.352817 11.699204
-0.741460 -0.331129 11.697586
-0.738586 -0.309441 11.695967
-0.735097 -0.258311 11.693142
-0.735796 -0.236391 11.692593
-0.736494 -0.214472 11.692043
-0.737192 -0.192552 11.691494
-0.737890 -0.170633 11.690945
-0.742293 -0.149149 11.691528
-0.752629 -0.098711 11.692898
-0.757032 -0.077228 11.693481
-0.762917 -0.056201 11.694528
-0.770723 -0.035766 11.696174
-0.778529 -0.015330 11.697820
-0.786336 0.005105 11.699467
-0.807115 0.051855 11.704115
-0.817739 0.070878 11.706660
-0.828364 0.089902 11.709206
-0.838989 0.108925 11.711751
-0.849613 0.127949 11.714297
-0.862321 0.145528 11.717521
-0.892386 0.186642 11.725165
-0.905192 0.204154 11.728421
-0.918631 0.221108 11.731887
-0.933073 0.237178 11.735687
-0.947516 0.253247 11.739487
-0.961958 0.269317 11.743286
-0.996864 0.305983 11.752545
-1.012528 0.320753 11.756758
-1.028192 0.335523 11.760971
-1.043855 0.350293 11.765184
-1.059519 0.365063 11.769397
-1.076010 0.378805 11.773896
-1.114943 0.410802 11.784531
-1.131526 0.424431 11.789061
-1.148341 0.437731 11.793673
-1.165627 0.450366 11.798449
-1.182913 0.463001 11.803225
-1.200199 0.475636 11.808002
-1.241197 0.504644 11.819364
-1.259029 0.516415 11.824335
-1.276861 0.528186 11.829306
-1.294693 0.539957 11.834278
-1.312525 0.551728 11.839249
-1.330721 0.562864 11.844352
-1.373603 0.588729 11.856391
-1.391867 0.599746 11.861519
-1.410226 0.610583 11.866681
-1.428838 0.620938 11.871937
-1.447450 0.631293 11.877192
-1.466062 0.641647 11.882448
29 NaN NaN
-1.702281 -1.467357 12.026817
-1.616898 -1.407541 11.998986
-1.532618 -1.346055 11.971431
-1.449604 -1.282735 11.944194
-1.368054 -1.217387 11.917328
-1.288214 -1.149789 11.890900
-1.210395 -1.079680 11.864995
-1.134994 -1.006757 11.839721
-1.062527 -0.930668 11.815223
-0.993672 -0.851008 11.791690
-0.929337 -0.767325 11.769382
-0.870746 -0.679151 11.748651
-0.819547 -0.586067 11.729979
-0.777921 -0.487868 11.714018
-0.748582 -0.384867 11.701597
-0.734460 -0.278307 11.693643
-0.737890 -0.170633 11.690945
-0.759517 -0.065101 11.693810
-0.797872 0.035305 11.701900
-0.850090 0.128802 11.714411
-0.913043 0.214890 11.730417
-0.984055 0.293904 11.749100
-1.061081 0.366536 11.769818
-1.142635 0.433560 11.792096
-1.227648 0.495701 11.815587
-1.315351 0.553593 11.840037
-1.405183 0.607778 11.865257
-1.496727 0.658707 11.891107
-1.589666 0.706761 11.917477
-1.317552 -1.638505 9.203720
-1.150405 -1.456916 9.250511
-0.995583 -1.265353 9.299721
-0.857578 -1.062089 9.351751
-0.743677 -0.845297 9.407011
-0.661949 -0.615351 9.465350
-0.625526 -0.374837 9.526025
-0.645348 -0.132588 9.586742
-0.722020 0.098911 9.644359
-0.849380 0.308639 9.696151
-1.012151 0.494138 9.741608
-1.198691 0.657437 9.781321
-1.402048 0.800720 9.815888
-1.316195 -1.637083 9.204087
-1.151687 -1.458403 9.250128
-1.149123 -1.455429 9.250893
-0.996768 -1.266913 9.299320
-0.994398 -1.263792 9.300121
-0.858559 -1.063778 9.351320
-0.856596 -1.060401 9.352182
-0.744467 -0.847078 9.406558
-0.742888 -0.843516 9.407464
-0.662484 -0.617219 9.464877
-0.661415 -0.613482 9.465823
-0.625545 -0.376777 9.525538
-0.625507 -0.372898 9.526513
-0.644968 -0.134493 9.586266
-0.645729 -0.130683 9.587218
-0.721260 0.097116 9.643913
-0.722780 0.100707 9.644805
-0.848182 0.307084 9.695769
-0.850577 0.310195 9.696534
-1.010758 0.492744 9.741267
-1.013545 0.495531 9.741948
-1.197138 0.656213 9.781024
-1.200277 0.658621 9.781607
-1.400377 0.799651 9.815631
-1.309208 -1.629764 9.205975
-1.158283 -1.466056 9.248160
-1.142527 -1.447776 9.252862
-1.002866 -1.274946 9.297259
-0.988300 -1.255759 9.302182
-0.863696 -1.072418 9.349114
-0.851543 -1.051711 9.354401
-0.748531 -0.856243 9.404227
-0.738824 -0.834351 9.409795
-0.665235 -0.626835 9.462442
-0.658664 -0.603867 9.468258
-0.625644 -0.386760 9.523030
-0.625408 -0.362915 9.529021
-0.643010 -0.144298 9.583817
-0.647686 -0.120879 9.589667
-0.717348 0.087875 9.641619
-0.726967 0.109824 9.647066
-0.842020 0.299077 9.693800
-0.856739 0.318202 9.698502
-1.003585 0.485571 9.739516
-1.020717 0.502704 9.743699
-1.189250 0.649786 9.779465
-1.208441 0.664714 9.783081
-1.391779 0.794149 9.814309
-1.291414 -1.611122 9.210783
-1.267762 -1.586344 9.217173
-1.244154 -1.561529 9.223573
-1.221126 -1.536205 9.230096
-1.198097 -1.510882 9.236619
-1.175082 -1.485547 9.243145
-1.125728 -1.428284 9.257877
-1.103540 -1.402267 9.264568
-1.082002 -1.375738 9.271384
-1.060463 -1.349209 9.278200
-1.039038 -1.322596 9.285035
-1.018396 -1.295404 9.292011
-0.973062 -1.235100 9.307478
-0.953442 -1.207205 9.314624
-0.933822 -1.179310 9.321769
-0.914477 -1.151240 9.328956
-0.896027 -1.122602 9.336280
-0.877577 -1.093964 9.343604
-0.838675 -1.029581 9.360050
-0.821572 -1.000166 9.367560
-0.805004 -0.970475 9.375135
-0.789453 -0.940258 9.382835
-0.773903 -0.910042 9.390535
-0.758881 -0.879587 9.398291
-0.728474 -0.811007 9.415732
-0.715658 -0.779622 9.423706
-0.703971 -0.747804 9.431781
-0.692283 -0.715987 9.439856
-0.681555 -0.683873 9.447999
-0.672242 -0.651324 9.456241
-0.653177 -0.579029 9.474536
-0.646559 -0.545860 9.482915
-0.639941 -0.512692 9.491294
-0.634870 -0.479298 9.499718
-0.631260 -0.445691 9.508186
-0.627650 -0.412084 9.516654
-0.625157 -0.337491 9.535410
-0.624822 -0.303698 9.543901
-0.626647 -0.269986 9.552357
-0.629767 -0.236322 9.560792
-0.632887 -0.202658 9.569227
-0.638025 -0.169268 9.577579
-0.652672 -0.095909 9.595905
-0.661814 -0.063318 9.604028
-0.671858 -0.030941 9.612091
-0.681902 0.001436 9.620154
-0.694142 0.033060 9.628012
-0.707385 0.064341 9.635777
-0.739106 0.132380 9.652647
-0.755239 0.162360 9.660065
-0.771373 0.192340 9.667483
-0.789532 0.221190 9.674603
-0.808206 0.249753 9.681647
-0.826879 0.278316 9.688691
-0.872432 0.338595 9.703514
-0.893291 0.365700 9.710177
-0.915834 0.391497 9.716499
-0.938548 0.417162 9.722787
-0.961263 0.442826 9.729075
-0.985318 0.467304 9.735055
-1.039006 0.520949 9.748154
-1.064601 0.543922 9.753746
-1.090196 0.566895 9.759337
-1.115792 0.589869 9.764929
-1.142457 0.611664 9.770217
-1.169160 0.633419 9.775495
-1.229235 0.680232 9.786833
-1.256873 0.700858 9.791820
-1.284571 0.721405 9.796788
-1.313002 0.740990 9.801508
-1.341432 0.760575 9.806228
-1.369880 0.780136 9.810942
30 NaN NaN
-1.317892 -1.638861 9.203629
-1.245736 -1.563270 9.223124
-1.175482 -1.486012 9.243026
-1.107363 -1.406976 9.263359
-1.041655 -1.326042 9.284151
-0.978681 -1.243088 9.305432
-0.918825 -1.157989 9.327230
-0.862541 -1.070626 9.349572
-0.810366 -0.980894 9.372480
-0.762929 -0.888718 9.395968
-0.720967 -0.794074 9.420039
-0.685317 -0.697022 9.444669
-0.656911 -0.597741 9.469809
-0.636726 -0.496577 9.495364
-0.625716 -0.394083 9.521189
-0.624697 -0.291027 9.547085
-0.634211 -0.188366 9.572808
-0.654420 -0.087155 9.598092
-0.685049 0.011582 9.622680
-0.725436 0.106979 9.646362
-0.774643 0.198415 9.668986
-0.831598 0.285533 9.690471
-0.895221 0.368208 9.710794
-0.964508 0.446493 9.729973
-1.038571 0.520558 9.748059
-1.116650 0.590639 9.765116
-1.198109 0.657004 9.781216
-1.282423 0.719926 9.796431
-1.369157 0.779673 9.810831
-1.457953 0.836495 9.824482
-1.046691 -1.470079 6.612019
-0.954769 -1.321905 6.580893
-0.870719 -1.168762 6.551791
-0.796310 -1.010266 6.525195
-0.735599 -0.845513 6.502206
-0.691021 -0.675253 6.483534
-0.666301 -0.500514 6.470260
-0.668553 -0.323686 6.464462
-0.699505 -0.149691 6.466804
-0.759214 0.016404 6.477485
-0.847290 0.168656 6.496612
-0.956604 0.305344 6.522252
-1.081566 0.426917 6.552822
-1.218681 0.533518 6.587341
-1.363939 0.627685 6.624591
-1.045633 -1.468419 6.611662
-0.955778 -1.323597 6.581237
-0.953761 -1.320212 6.580550
-0.871606 -1.170527 6.552104
-0.869831 -1.166997 6.551479
-0.797037 -1.012109 6.525465
-0.795583 -1.008422 6.524924
-0.736227 -0.847396 6.502450
-0.734971 -0.843630 6.501961
-0.691402 -0.677209 6.483712
-0.690641 -0.673298 6.483357
-0.666358 -0.502511 6.470348
-0.666244 -0.498516 6.470172
-0.668421 -0.325681 6.464498
-0.668685 -0.321690 6.464427
-0.698967 -0.151616 6.466723
-0.700042 -0.147766 6.466884
-0.758294 0.014639 6.477291
-0.760135 0.018169 6.477679
-0.846206 0.166993 6.496369
-0.848374 0.170319 6.496855
-0.955262 0.303897 6.521928
-0.957946 0.306791 6.522575
-1.080048 0.425671 6.552443
-1.083084 0.428162 6.553202
-1.217099 0.532362 6.586939
-1.220264 0.534673 6.587742
-1.362261 0.626688 6.624157
-1.041560 -1.462030 6.610289
-0.959659 -1.330114 6.582561
-0.949879 -1.313695 6.579226
-0.875021 -1.177322 6.553307
-0.866416 -1.160201 6.550275
-0.800124 -1.019073 6.526583
-0.792784 -1.001325 6.523882
-0.738644 -0.854646 6.503390
-0.732554 -0.836380 6.501021
-0.692865 -0.684737 6.484395
-0.689178 -0.665769 6.482673
-0.666930 -0.510170 6.470787
-0.666027 -0.490827 6.469831
-0.667912 -0.333363 6.464635
-0.669194 -0.314008 6.464290
-0.696898 -0.159026 6.466413
-0.702111 -0.140356 6.467194
-0.754880 0.007780 6.476585
-0.763680 0.024963 6.478424
-0.842030 0.160591 6.495432
-0.852550 0.176720 6.497791
-0.950094 0.298326 6.520684
-0.963114 0.312362 6.523819
-1.074203 0.420876 6.550980
-1.088929 0.432957 6.554664
-1.211006 0.527915 6.585395
-1.226357 0.539120 6.589286
-1.355798 0.622849 6.622487
-1.031873 -1.446837 6.607025
-1.019059 -1.426738 6.602706
-1.006245 -1.406639 6.598387
-0.993431 -1.386540 6.594069
-0.981104 -1.366115 6.589874
-0.968891 -1.345613 6.585710
-0.940647 -1.298197 6.576077
-0.928952 -1.277372 6.572045
-0.917424 -1.256444 6.568057
-0.905896 -1.235515 6.564068
-0.894368 -1.214586 6.560079
-0.883144 -1.193483 6.556169
-0.858293 -1.144041 6.547413
-0.847548 -1.122662 6.543627
-0.837103 -1.101128 6.539920
-0.827258 -1.079281 6.536369
-0.817412 -1.057434 6.532818
-0.807567 -1.035588 6.529267
-0.786126 -0.984447 6.521404
-0.777319 -0.962119 6.518127
-0.768513 -0.939792 6.514849
-0.759706 -0.917464 6.511571
-0.751997 -0.894697 6.508585
-0.744393 -0.871889 6.505627
-0.726806 -0.819138 6.498785
-0.720398 -0.795932 6.496147
-0.714187 -0.772660 6.493562
-0.707975 -0.749389 6.490976
-0.701763 -0.726118 6.488391
-0.696345 -0.702642 6.486020
-0.685698 -0.647864 6.481048
-0.681095 -0.624178 6.478898
-0.677301 -0.600350 6.476969
-0.674540 -0.576340 6.475323
-0.671778 -0.552330 6.473677
-0.669017 -0.528320 6.472031
-0.665509 -0.472540 6.469021
-0.664824 -0.448349 6.467950
-0.664140 -0.424158 6.466879
-0.663502 -0.399968 6.465821
-0.665102 -0.375800 6.465391
-0.666703 -0.351632 6.464960
-0.670404 -0.295739 6.463965
-0.674357 -0.271845 6.464203
-0.678389 -0.247960 6.464463
-0.682420 -0.224075 6.464724
-0.686451 -0.200189 6.464985
-0.691977 -0.176649 6.465676
-0.707033 -0.122733 6.467932
-0.713542 -0.099420 6.468907
-0.721379 -0.076577 6.470271
-0.730298 -0.054117 6.471952
-0.739218 -0.031657 6.473633
-0.748137 -0.009198 6.475314
-0.772111 0.041123 6.480197
-0.783263 0.062499 6.482543
-0.794416 0.083875 6.484889
-0.805831 0.105087 6.487314
-0.818966 0.125227 6.490260
-0.832101 0.145367 6.493206
-0.862614 0.191841 6.500060
-0.877449 0.210675 6.503529
-0.892284 0.229508 6.506998
-0.907119 0.248342 6.510468
-0.921954 0.267176 6.513937
-0.937804 0.285077 6.517724
-0.975403 0.325612 6.526779
-0.991661 0.343139 6.530694
-1.008692 0.359834 6.534856
-1.026121 0.376102 6.539145
-1.043550 0.392370 6.543434
-1.060980 0.408637 6.547723
-1.102829 0.444361 6.558142
-1.121216 0.459446 6.562742
-1.139603 0.474531 6.567342
-1.158178 0.489354 6.572005
-1.177347 0.503346 6.576863
-1.196515 0.517338 6.581722
-1.240966 0.549511 6.592999
-1.260773 0.562502 6.598073
-1.280580 0.575493 6.603147
-1.300387 0.588484 6.608221
-1.320194 0.601474 6.613294
-1.340430 0.613718 6.618515
25 NaN NaN
-1.046955 -1.470493 6.612108
-0.990994 -1.382719 6.593247
-0.937662 -1.293185 6.575059
-0.887319 -1.201788 6.557640
-0.840394 -1.108430 6.541107
-0.797400 -1.013028 6.525600
-0.758942 -0.915528 6.511287
-0.725736 -0.815931 6.498369
-0.698613 -0.714317 6.487080
-0.678515 -0.610900 6.477693
-0.666458 -0.506073 6.470506
-0.663469 -0.400463 6.465830
-0.670456 -0.294962 6.463951
-0.688053 -0.190699 6.465088
-0.716470 -0.088937 6.469346
-0.755405 0.009102 6.476684
-0.804090 0.102416 6.486923
-0.861432 0.190339 6.499783
-0.926200 0.272566 6.514930
-0.997182 0.349091 6.532024
-1.073286 0.420124 6.550751
-1.153577 0.485995 6.570838
-1.237282 0.547095 6.592055
-1.323776 0.603824 6.614212
-1.412559 0.656571 6.637154
