-0.989585 0.512988 2.703601
-0.995582 0.520776 2.695861
-1.001579 0.528563 2.688120
-1.270141 0.877949 2.343795
-1.535921 1.223842 2.003459
-1.750520 1.453529 1.552295
-1.953828 1.604068 1.060447
-1.005297 0.533390 2.683322
-1.269183 0.876706 2.345034
-1.271099 0.879192 2.342555
-1.535004 1.222706 2.004825
-1.536837 1.224979 2.002092
-1.749837 1.452901 1.554067
-1.751204 1.454157 1.550524
-1.953062 1.603637 1.062244
-1.019624 0.551993 2.664831
-1.254865 0.858130 2.363560
-1.285403 0.897734 2.323985
-1.521306 1.205722 2.025250
-1.550536 1.241963 1.981667
-1.739628 1.443518 1.580543
-1.761525 1.463495 1.524075
-1.941615 1.597193 1.089090
-1.050562 0.592214 2.625068
-1.085231 0.637341 2.580704
-1.119934 0.682561 2.536460
-1.154633 0.727772 2.492205
-1.189320 0.772947 2.447901
-1.223972 0.818030 2.403478
-1.316238 0.937677 2.283864
-1.350853 0.982658 2.239310
-1.385615 1.028042 2.195287
-1.420589 1.074007 2.152036
-1.455700 1.120356 2.109308
-1.490508 1.165869 2.065469
-1.579153 1.276425 1.935426
-1.609995 1.312240 1.880916
-1.638725 1.343584 1.822617
-1.666116 1.372311 1.762416
-1.692391 1.398827 1.700687
-1.717533 1.423041 1.637534
-1.783985 1.483556 1.467075
-1.809689 1.505674 1.403384
-1.835838 1.527151 1.339658
-1.862459 1.547577 1.275777
-1.889621 1.565733 1.211444
-1.917005 1.582756 1.146898
-2.475135 1.774899 -0.245849
-2.878729 1.851577 -1.603668
-3.514242 2.087408 -2.818468
-4.569129 2.663500 -3.560218
-5.229639 3.630305 -4.328960
-5.567155 4.618836 -5.289172
-5.945028 5.536719 -6.303041
-6.409983 6.346317 -7.370758
-6.983679 6.989263 -8.496867
-7.661850 7.425534 -9.662800
-8.427461 7.652565 -10.834476
-9.264145 7.696367 -11.978859
-1.954594 1.604499 1.058651
-2.474449 1.774783 -0.243974
-2.475821 1.775015 -0.247724
-2.878186 1.851388 -1.601753
-2.879271 1.851766 -1.605584
-3.512899 2.086889 -2.817080
-3.515584 2.087926 -2.819857
-4.567797 2.662378 -3.559233
-4.570460 2.664621 -3.561202
-5.229073 3.628849 -4.327711
-5.230205 3.631761 -4.330209
-5.566674 4.617487 -5.287776
-5.567637 4.620184 -5.290568
-5.944441 5.535490 -6.301577
-5.945616 5.537949 -6.304505
-6.409248 6.345289 -7.369208
-6.410718 6.347345 -7.372308
-6.982789 6.988507 -8.495244
-6.984569 6.990019 -8.498491
-7.660817 7.425101 -9.661144
-7.662884 7.425966 -9.664457
-8.426328 7.652380 -10.832838
-8.428593 7.652750 -10.836115
-9.262928 7.696409 -11.977273
-1.966041 1.610943 1.031805
-2.464196 1.773050 -0.215953
-2.486074 1.776748 -0.275744
-2.870074 1.848560 -1.573126
-2.887383 1.854594 -1.634210
-3.492833 2.079142 -2.796328
-3.535650 2.095674 -2.840608
-4.547900 2.645619 -3.544519
-4.590352 2.681387 -3.575916
-5.220615 3.607093 -4.309045
-5.238441 3.653448 -4.349048
-5.559473 4.597332 -5.266914
-5.574911 4.640267 -5.311473
-5.935663 5.517114 -6.279701
-5.954317 5.556418 -6.326333
-6.398561 6.329481 -7.346204
-6.421700 6.362710 -7.395472
-6.969634 6.976909 -8.471043
-6.997874 7.001318 -8.522751
-7.645403 7.418553 -9.636389
-7.678331 7.432429 -9.689214
-8.409417 7.649590 -10.808354
-8.445513 7.655519 -10.860595
-9.244736 7.697038 -11.953567
-2.018228 1.640600 0.909074
-2.100287 1.681395 0.713006
-2.181779 1.708429 0.514305
-2.263132 1.734137 0.315359
-2.341113 1.753620 0.114418
-2.416264 1.765139 -0.088260
-2.530466 1.783490 -0.404768
-2.595837 1.790717 -0.611004
-2.662345 1.797868 -0.816878
-2.722648 1.809405 -1.024424
-2.777062 1.822965 -1.233503
-2.832968 1.836873 -1.442162
-2.922651 1.867269 -1.765590
-2.980820 1.888123 -1.972952
-3.063210 1.917550 -2.170735
-3.152854 1.948572 -2.365307
-3.257929 1.986961 -2.549866
-3.400238 2.043324 -2.702475
-3.631222 2.135764 -2.929446
-3.794894 2.213074 -3.047860
-3.961807 2.290768 -3.161685
-4.125604 2.376985 -3.273648
-4.288015 2.477155 -3.375824
-4.452009 2.574835 -3.477897
-4.678272 2.761694 -3.642896
-4.819205 2.887713 -3.748295
-4.940144 3.027024 -3.860620
-5.030238 3.183228 -3.980062
-5.106021 3.345370 -4.101801
-5.179025 3.506845 -4.226105
-5.273303 3.751669 -4.437380
-5.327427 3.906286 -4.578885
-5.378854 4.058664 -4.723758
-5.426754 4.208250 -4.872716
-5.476258 4.356999 -5.021989
-5.526899 4.504845 -5.171779
-5.608532 4.731706 -5.407256
-5.662407 4.875950 -5.559411
-5.717962 5.018327 -5.712708
-5.775854 5.158099 -5.867536
-5.834194 5.297368 -6.022649
-5.895572 5.433077 -6.179719
-5.994203 5.640708 -6.426183
-6.060452 5.770437 -6.586282
-6.130164 5.895725 -6.748462
-6.199814 6.021085 -6.910612
-6.273777 6.140532 -7.075277
-6.350079 6.256674 -7.241256
-6.472586 6.431891 -7.501721
-6.555431 6.538024 -7.671225
-6.639781 6.641673 -7.841519
-6.727416 6.739795 -8.013416
-6.817748 6.833128 -8.186583
-6.910152 6.922624 -8.360679
-7.059282 7.051774 -8.633872
-7.158341 7.128073 -8.810577
-7.258773 7.201460 -8.987733
-7.362998 7.266507 -9.165943
-7.468572 7.328431 -9.344492
-7.575611 7.386955 -9.523278
-7.748751 7.462448 -9.802376
-7.860836 7.508850 -9.981653
-7.976558 7.546144 -10.160742
-8.093490 7.580382 -10.339667
-8.211772 7.611299 -10.518293
-8.332519 7.635824 -10.696269
-8.523177 7.667334 -10.972373
-8.647747 7.682036 -11.148792
-8.774227 7.691826 -11.324191
-8.901785 7.698745 -11.498950
-9.030655 7.702124 -11.672836
-9.161578 7.699914 -11.845205
194 NaN NaN
-0.986586 0.509095 2.707471
-1.034892 0.571817 2.645125
-1.083305 0.634832 2.583159
-1.131769 0.697983 2.521370
-1.180226 0.761116 2.459558
-1.228620 0.824077 2.397520
-1.276892 0.886709 2.335058
-1.325092 0.949146 2.272344
-1.373481 1.012095 2.210293
-1.422322 1.076285 2.149892
-1.471366 1.141040 2.090260
-1.519619 1.203630 2.027766
-1.565783 1.260867 1.958933
-1.608950 1.311099 1.883038
-1.649060 1.354860 1.801644
-1.686257 1.392919 1.716095
-1.721366 1.426733 1.627906
-1.755787 1.458370 1.538637
-1.790894 1.489728 1.449539
-1.827090 1.520438 1.360650
-1.864265 1.548963 1.271442
-1.902251 1.574087 1.181556
-1.940715 1.596686 1.091200
-1.979310 1.618413 1.000685
-2.017769 1.640350 0.910163
-2.056063 1.661226 0.819322
-2.094202 1.679153 0.727795
-2.132173 1.693144 0.635512
-2.170066 1.704860 0.542876
-2.208037 1.716430 0.450254
-2.246023 1.728798 0.357740
-2.283491 1.740491 0.264930
-2.319843 1.749755 0.171409
-2.355007 1.756145 0.077192
-2.389764 1.761167 -0.017261
-2.424953 1.766441 -0.111539
-2.460432 1.772414 -0.205668
-2.495001 1.778257 -0.300141
-2.527478 1.783123 -0.395406
-2.558094 1.786884 -0.491338
-2.588236 1.789995 -0.587445
-2.619164 1.792931 -0.683306
-2.650444 1.796217 -0.779041
-2.680652 1.800408 -0.875084
-2.708562 1.805931 -0.971751
-2.734543 1.812339 -1.068902
-2.759657 1.818825 -1.166276
-2.784869 1.824821 -1.263657
-2.810637 1.830910 -1.360886
-2.837267 1.838021 -1.457812
-2.864759 1.846707 -1.554369
-2.892108 1.856241 -1.650886
-2.918111 1.865636 -1.747788
-2.942915 1.874554 -1.845049
-2.969895 1.884207 -1.941650
-3.002861 1.896024 -2.036106
-3.042687 1.910290 -2.127550
-3.085448 1.925418 -2.217534
-3.127125 1.939789 -2.308144
-3.168084 1.953772 -2.399144
-3.214043 1.970177 -2.487260
-3.270475 1.991759 -2.567764
-3.336126 2.017856 -2.639569
-3.405326 2.045345 -2.707467
-3.473732 2.071766 -2.776575
-3.541385 2.097888 -2.846540
-3.611150 2.126623 -2.913300
-3.685116 2.160306 -2.972799
-3.762098 2.197360 -3.026216
-3.840190 2.234778 -3.077753
-3.917990 2.270454 -3.130936
-3.995108 2.306207 -3.185055
-4.071486 2.345244 -3.237919
-4.147010 2.389540 -3.287780
-4.222278 2.436705 -3.335367
-4.298291 2.483478 -3.382148
-4.375240 2.528307 -3.429303
-4.451068 2.574174 -3.477258
-4.523137 2.624761 -3.526206
-4.590212 2.681259 -3.575809
-4.654857 2.740590 -3.625359
-4.720265 2.799545 -3.674350
-4.786799 2.857461 -3.723069
-4.850812 2.917218 -3.772899
-4.908073 2.981622 -3.825037
-4.957025 3.050921 -3.879349
-4.999536 3.123430 -3.934908
-5.037741 3.197840 -3.991096
-5.073320 3.273265 -4.047660
-5.107676 3.349019 -4.104542
-5.142037 3.424494 -4.161791
-5.175848 3.499420 -4.220076
-5.207616 3.573653 -4.280356
-5.236129 3.647002 -4.343285
-5.262155 3.719584 -4.408160
-5.287227 3.791745 -4.473877
-5.312520 3.863772 -4.539657
-5.337666 3.935489 -4.605831
-5.361893 4.006585 -4.673007
-5.384782 4.076867 -4.741497
-5.406954 4.146549 -4.810833
-5.429222 4.215940 -4.880428
-5.452084 4.285242 -4.949920
-5.475380 4.354422 -5.019390
-5.498872 4.423418 -5.088978
-5.522473 4.492156 -5.158781
-5.546332 4.560548 -5.228838
-5.570609 4.628501 -5.299177
-5.595307 4.696044 -5.369764
-5.620260 4.763333 -5.440505
-5.645305 4.830520 -5.511309
-5.670523 4.897510 -5.582238
-5.696187 4.964007 -5.653470
-5.722539 5.029742 -5.725157
-5.749443 5.094858 -5.797204
-5.776545 5.159753 -5.869376
-5.803567 5.224741 -5.941493
-5.830773 5.289518 -6.013732
-5.858659 5.353504 -6.086413
-5.887568 5.416280 -6.159746
-5.917118 5.478287 -6.233480
-5.946712 5.540244 -6.307237
-5.976014 5.602558 -6.380810
-6.005573 5.664556 -6.454546
-6.036122 5.725322 -6.528900
-6.067986 5.784408 -6.604052
-6.100540 5.842596 -6.679610
-6.133032 5.900869 -6.755129
-6.165228 5.959530 -6.830474
-6.197796 6.017691 -6.906046
-6.231471 6.074349 -6.982269
-6.266383 6.129283 -7.059196
-6.301913 6.183336 -7.136465
-6.337434 6.237399 -7.213731
-6.372924 6.291498 -7.290986
-6.408927 6.344839 -7.368530
-6.445953 6.396642 -7.446630
-6.483958 6.446941 -7.525244
-6.522524 6.496353 -7.604147
-6.561286 6.545438 -7.683158
-6.600315 6.594078 -7.762313
-6.639894 6.641809 -7.841746
-6.680256 6.688232 -7.921560
-6.721356 6.733387 -8.001724
-6.763054 6.777480 -8.082171
-6.805236 6.820689 -8.162844
-6.847865 6.863068 -8.243722
-6.890929 6.904642 -8.324789
-6.934451 6.945354 -8.406046
-6.978568 6.984922 -8.487548
-7.023427 7.023019 -8.569344
-7.069034 7.059594 -8.651422
-7.115115 7.095182 -8.733669
-7.161378 7.130384 -8.815981
-7.207812 7.165224 -8.898349
-7.254814 7.198857 -8.980897
-7.302778 7.230389 -9.063717
-7.351639 7.259897 -9.146761
-7.400867 7.288545 -9.229890
-7.449966 7.317471 -9.312999
-7.499066 7.346394 -9.396109
-7.548790 7.373895 -9.479328
-7.599669 7.398670 -9.562702
-7.651465 7.421189 -9.646156
-7.703547 7.442978 -9.729626
-7.755407 7.465315 -9.813089
-7.807296 7.487612 -9.896546
-7.859776 7.508485 -9.979999
-7.913241 7.526887 -10.063406
-7.967412 7.543467 -10.146744
-8.021838 7.559393 -10.230044
-8.076232 7.575442 -10.313340
-8.130811 7.591065 -10.396597
-8.185887 7.605430 -10.479751
-8.241626 7.618067 -10.562744
-8.297871 7.629379 -10.645588
-8.354432 7.639900 -10.728321
-8.411212 7.649907 -10.810967
-8.468261 7.659240 -10.893507
-8.525641 7.667697 -10.975912
-8.583401 7.675135 -11.058149
-8.641578 7.681488 -11.140184
-8.700200 7.686702 -11.221980
-8.759210 7.690924 -11.303556
-8.818469 7.694482 -11.384983
-8.877857 7.697675 -11.466330
-8.937439 7.700339 -11.547555
-8.997399 7.701995 -11.628528
-9.057888 7.702228 -11.709122
-9.118837 7.701200 -11.789364
-9.180074 7.699358 -11.869371
-9.241439 7.697152 -11.949271
-9.302774 7.695031 -12.029197
-9.363918 7.693446 -12.109281
