-2.372079 -1.469891 13.691214
-2.013495 -1.487147 14.996669
-1.553521 -1.585080 16.268643
-1.187784 -1.607945 17.572172
-1.064589 -1.446277 18.910869
-1.030180 -1.219866 20.247526
-0.969200 -1.012539 21.586342
-0.906145 -0.806707 22.925298
-2.371713 -1.469790 13.693178
-2.014149 -1.487023 14.994783
-2.012842 -1.487271 14.998555
-1.554183 -1.584949 16.266760
-1.552858 -1.585211 16.270525
-1.188145 -1.608050 17.570207
-1.187423 -1.607840 17.574136
-1.064651 -1.446603 18.908896
-1.064526 -1.445952 18.912841
-1.030253 -1.220184 20.245552
-1.030107 -1.219548 20.249499
-0.969299 -1.012838 21.584366
-0.969100 -1.012240 21.588317
-0.906222 -0.807022 22.923325
-2.366484 -1.468335 13.721281
-2.023501 -1.485245 14.967789
-2.003489 -1.489049 15.025549
-1.563659 -1.583070 16.239816
-1.543495 -1.586998 16.297514
-1.193311 -1.609553 17.542094
-1.182256 -1.606338 17.602249
-1.065544 -1.451262 18.880669
-1.063694 -1.441249 18.941063
-1.031299 -1.224733 20.217312
-1.029058 -1.215001 20.277739
-0.970722 -1.017116 21.556101
-0.967677 -1.007962 21.616583
-0.907349 -0.811513 22.895079
-2.341617 -1.462481 13.849261
-2.296747 -1.457407 14.051029
-2.245861 -1.457004 14.251433
-2.189802 -1.460661 14.450422
-2.129388 -1.467772 14.648043
-2.065399 -1.477739 14.844414
-1.960297 -1.497602 15.148409
-1.890466 -1.512287 15.342483
-1.819585 -1.527827 15.536111
-1.748307 -1.543690 15.729566
-1.677280 -1.559348 15.923130
-1.607155 -1.574272 16.117081
-1.501245 -1.594789 16.420752
-1.436507 -1.605357 16.616845
-1.375155 -1.613215 16.814148
-1.317961 -1.617770 17.012797
-1.265733 -1.618415 17.212856
-1.219310 -1.614542 17.414301
-1.160411 -1.598187 17.730656
-1.131754 -1.580795 17.934687
-1.109318 -1.558777 18.139052
-1.092155 -1.532880 18.343476
-1.079357 -1.503801 18.547793
-1.070028 -1.472211 18.751928
-1.060343 -1.419488 19.069704
-1.055935 -1.384366 19.273430
-1.051946 -1.348945 19.477113
-1.047541 -1.313821 19.680838
-1.042150 -1.279402 19.884660
-1.035769 -1.245692 20.088572
-1.024115 -1.194381 20.406518
-1.015699 -1.162134 20.610592
-1.006685 -1.130317 20.814709
-0.997183 -1.098852 21.018858
-0.987313 -1.067652 21.223030
-0.977190 -1.036636 21.427218
-0.961182 -0.988462 21.745466
-0.950938 -0.957533 21.949661
-0.940851 -0.926490 22.153847
-0.931037 -0.895250 22.358016
-0.921610 -0.863731 22.562160
-0.912685 -0.831850 22.766271
103 NaN NaN
-2.372170 -1.469917 13.690723
-2.353758 -1.464794 13.789669
-2.333654 -1.460964 13.888344
-2.311956 -1.458358 13.986721
-2.288765 -1.456908 14.084781
-2.264178 -1.456544 14.182510
-2.238295 -1.457194 14.279903
-2.211212 -1.458788 14.376959
-2.183024 -1.461255 14.473681
-2.153826 -1.464524 14.570079
-2.123707 -1.468527 14.666166
-2.092758 -1.473194 14.761958
-2.061065 -1.478459 14.857476
-2.028713 -1.484254 14.952743
-1.995786 -1.490514 15.047783
-1.962365 -1.497174 15.142622
-1.928529 -1.504171 15.237290
-1.894356 -1.511442 15.331817
-1.859923 -1.518923 15.426233
-1.825308 -1.526554 15.520570
-1.790584 -1.534273 15.614861
-1.755828 -1.542019 15.709136
-1.721114 -1.549730 15.803431
-1.686517 -1.557346 15.897776
-1.652113 -1.564804 15.992204
-1.617979 -1.572043 16.086747
-1.584191 -1.579001 16.181436
-1.550828 -1.585614 16.276299
-1.517969 -1.591818 16.371366
-1.485697 -1.597550 16.466664
-1.454093 -1.602742 16.562215
-1.423245 -1.607329 16.658044
-1.393238 -1.611243 16.754170
-1.364163 -1.614414 16.850608
-1.336110 -1.616774 16.947372
-1.309174 -1.618252 17.044470
-1.283450 -1.618777 17.141906
-1.259035 -1.618279 17.239678
-1.236028 -1.616686 17.337779
-1.214527 -1.613928 17.436195
-1.194632 -1.609938 17.534906
-1.176442 -1.604646 17.633884
-1.160007 -1.598024 17.733089
-1.145252 -1.590139 17.832466
-1.132074 -1.581073 17.931964
-1.120371 -1.570910 18.031540
-1.110036 -1.559735 18.131160
-1.100966 -1.547631 18.230794
-1.093054 -1.534678 18.330420
-1.086194 -1.520958 18.430022
-1.080283 -1.506548 18.529588
-1.075217 -1.491528 18.629110
-1.070893 -1.475972 18.728584
-1.067209 -1.459955 18.828012
-1.064066 -1.443549 18.927394
-1.061364 -1.426828 19.026737
-1.059004 -1.409862 19.126048
-1.056889 -1.392721 19.225333
-1.054920 -1.375476 19.324604
-1.053001 -1.358195 19.423870
-1.051034 -1.340948 19.523140
-1.048922 -1.323805 19.622426
-1.046574 -1.306831 19.721735
-1.043971 -1.290038 19.821068
-1.041125 -1.273420 19.920425
-1.038049 -1.256967 20.019802
-1.034754 -1.240671 20.119198
-1.031254 -1.224522 20.218610
-1.027561 -1.208512 20.318039
-1.023688 -1.192631 20.417481
-1.019648 -1.176870 20.516936
-1.015454 -1.161220 20.616401
-1.011119 -1.145672 20.715877
-1.006656 -1.130215 20.815362
-1.002078 -1.114842 20.914854
-0.997399 -1.099542 21.014352
-0.992632 -1.084305 21.113856
-0.987789 -1.069123 21.213365
-0.982885 -1.053985 21.312878
-0.977933 -1.038882 21.412393
-0.972946 -1.023804 21.511911
-0.967937 -1.008742 21.611430
-0.962920 -0.993685 21.710949
-0.957908 -0.978625 21.810468
-0.952915 -0.963552 21.909986
-0.947955 -0.948455 22.009502
-0.943039 -0.933325 22.109015
-0.938182 -0.918153 22.208525
-0.933398 -0.902929 22.308030
-0.928698 -0.887643 22.407530
-0.924098 -0.872286 22.507023
-0.919609 -0.856849 22.606509
-0.915246 -0.841321 22.705987
-0.911020 -0.825694 22.805455
-0.906946 -0.809957 22.904912
-0.903036 -0.794103 23.004357
-0.899304 -0.778121 23.103789
-0.895761 -0.762003 23.203205
-0.892421 -0.745739 23.302605
-0.889297 -0.729320 23.401986
-0.886400 -0.712738 23.501347
-0.883744 -0.695984 23.600685
-0.881341 -0.679049 23.700000
-2.371689 -1.470052 13.690708
-1.779264 -1.625601 13.603944
-1.287902 -1.711759 13.254270
-1.087903 -1.680916 12.674437
-1.066180 -1.596660 12.060242
-1.076035 -1.507168 11.445923
-1.048609 -1.429989 10.830529
-0.995207 -1.351025 10.216985
-0.942163 -1.258682 9.605273
-0.913041 -1.188234 8.989301
-0.930187 -1.190783 8.369392
-0.987880 -1.263048 7.755575
-1.055511 -1.352526 7.144870
-1.113257 -1.424876 6.530908
-1.164019 -1.485138 5.915003
-1.213985 -1.544025 5.298897
-1.269359 -1.612267 4.684238
-2.369764 -1.470592 13.690651
-1.781099 -1.625183 13.604620
-1.777429 -1.626019 13.603268
-1.288985 -1.711708 13.255951
-1.286819 -1.711810 13.252590
-1.088131 -1.681146 12.676411
-1.087675 -1.680686 12.672463
-1.066139 -1.596957 12.062219
-1.066222 -1.596362 12.058264
-1.076059 -1.507433 11.447905
-1.076010 -1.506903 11.443940
-1.048754 -1.430230 10.832509
-1.048464 -1.429749 10.828549
-0.995393 -1.351303 10.218957
-0.995022 -1.350746 10.215013
-0.942309 -1.258973 9.607246
-0.942017 -1.258390 9.603300
-0.913076 -1.188376 8.991296
-0.913007 -1.188092 8.987306
-0.930056 -1.190645 8.371383
-0.930319 -1.190922 8.367401
-0.987664 -1.262762 7.757543
-0.988097 -1.263334 7.753607
-1.055305 -1.352257 7.146842
-1.055717 -1.352794 7.142899
-1.113084 -1.424665 6.532889
-1.113430 -1.425087 6.528927
-1.163860 -1.484952 5.916988
-1.164178 -1.485324 5.913018
-1.213818 -1.543824 5.300879
-1.214153 -1.544226 5.296914
-1.269163 -1.612017 4.686213
-2.350781 -1.475923 13.690082
-1.799462 -1.620830 13.610320
-1.759329 -1.630146 13.596599
-1.300208 -1.710986 13.272119
-1.276141 -1.712316 13.236012
-1.090381 -1.683414 12.695876
-1.085425 -1.678418 12.652998
-1.065727 -1.599890 12.081721
-1.066633 -1.593429 12.038763
-1.076301 -1.510048 11.467455
-1.075768 -1.504288 11.424390
-1.050181 -1.432603 10.852039
-1.047037 -1.427376 10.809018
-0.997222 -1.354051 10.238404
-0.993192 -1.347998 10.195566
-0.943747 -1.261848 9.626708
-0.940579 -1.255516 9.583838
-0.913416 -1.189773 9.010969
-0.912666 -1.186695 8.967633
-0.928760 -1.189278 8.391018
-0.931614 -1.192289 8.347765
-0.985530 -1.259944 7.776949
-0.990238 -1.266164 7.734204
-1.053269 -1.349611 7.166283
-1.057718 -1.355380 7.123447
-1.111375 -1.422584 6.552430
-1.115106 -1.427110 6.509377
-1.162291 -1.483112 5.936565
-1.165743 -1.487158 5.893440
-1.212181 -1.541867 5.320439
-1.215805 -1.546209 5.277358
-1.267244 -1.609573 4.705692
-2.289853 -1.493032 13.688258
-2.203087 -1.516986 13.683052
-2.116428 -1.540425 13.674759
-2.030017 -1.563250 13.662994
-1.944045 -1.585339 13.647320
-1.858773 -1.606542 13.627241
-1.701237 -1.643392 13.575195
-1.620840 -1.660591 13.538240
-1.543568 -1.675858 13.494512
-1.470391 -1.688870 13.443688
-1.402329 -1.699339 13.385730
-1.340327 -1.707047 13.320939
-1.241866 -1.713940 13.182806
-1.201276 -1.713226 13.102299
-1.167485 -1.710159 13.018816
-1.139883 -1.705047 12.933196
-1.117782 -1.698190 12.846103
-1.100483 -1.689867 12.758040
-1.078444 -1.671073 12.590508
-1.071612 -1.659755 12.501311
-1.067387 -1.647748 12.412046
-1.065106 -1.635248 12.322779
-1.064390 -1.622372 12.233538
-1.064891 -1.609223 12.144335
-1.068016 -1.584010 11.976171
-1.070305 -1.570580 11.887035
-1.072617 -1.557240 11.797886
-1.074607 -1.544083 11.708702
-1.075982 -1.531196 11.619468
-1.076474 -1.518658 11.530176
-1.074732 -1.495979 11.361637
-1.072417 -1.484413 11.272241
-1.069174 -1.473113 11.182839
-1.065006 -1.462031 11.093449
-1.060081 -1.451084 11.004081
-1.054468 -1.440217 10.914744
-1.042271 -1.419734 10.746351
-1.035081 -1.408774 10.657138
-1.027488 -1.397668 10.567976
-1.019552 -1.386327 10.478874
-1.011383 -1.374686 10.389831
-1.003083 -1.362699 10.300847
-0.987351 -1.338964 10.133175
-0.979109 -1.325753 10.044359
-0.971026 -1.312208 9.955578
-0.963166 -1.298480 9.866806
-0.955648 -1.284746 9.778004
-0.948501 -1.271181 9.689146
-0.936255 -1.246580 9.521310
-0.930528 -1.234321 9.432161
-0.925421 -1.222805 9.342876
-0.921003 -1.212185 9.253443
-0.917392 -1.202689 9.163846
-0.914708 -1.194564 9.074082
-0.912242 -1.183285 8.904419
-0.912417 -1.179709 8.814327
-0.913727 -1.178032 8.724189
-0.916221 -1.178372 8.634059
-0.919877 -1.180710 8.543993
-0.924712 -1.185081 8.454058
-0.936396 -1.197751 8.284873
-0.943703 -1.206392 8.195418
-0.951677 -1.216186 8.106139
-0.960226 -1.226973 8.017026
-0.969256 -1.238596 7.928064
-0.978685 -1.250909 7.839237
-0.997236 -1.275465 7.671972
-1.007258 -1.288807 7.583358
-1.017305 -1.302192 7.494754
-1.027291 -1.315470 7.406126
-1.037128 -1.328493 7.317445
-1.046736 -1.341116 7.228680
-1.064035 -1.363501 7.060977
-1.072839 -1.374732 6.971943
-1.081410 -1.385558 6.882835
-1.089764 -1.396009 6.793663
-1.097919 -1.406115 6.704432
-1.105891 -1.415907 6.615149
-1.120473 -1.433586 6.446627
-1.128009 -1.442620 6.357227
-1.135436 -1.451469 6.267799
-1.142774 -1.460161 6.178348
-1.150040 -1.468729 6.088880
-1.157251 -1.477204 5.999398
-1.170769 -1.493042 5.830604
-1.177930 -1.501429 5.741109
-1.185112 -1.509853 5.651620
-1.192334 -1.518345 5.562141
-1.199613 -1.526937 5.472676
-1.206968 -1.535658 5.383229
-1.221107 -1.552572 5.214591
-1.228799 -1.561878 5.125232
-1.236641 -1.571443 5.035913
-1.244651 -1.581299 4.946641
-1.252846 -1.591475 4.857422
-1.261244 -1.602001 4.768262
101 NaN NaN
-2.372170 -1.469917 13.690723
-2.273781 -1.497545 13.687777
-2.175408 -1.524597 13.681202
-2.077213 -1.550948 13.670475
-1.979431 -1.576435 13.654977
-1.882407 -1.600848 13.633983
-1.786643 -1.623918 13.606663
-1.692855 -1.645303 13.572106
-1.602028 -1.664585 13.529393
-1.515447 -1.681280 13.477733
-1.434647 -1.694892 13.416680
-1.361214 -1.704996 13.346355
-1.296467 -1.711353 13.267567
-1.241149 -1.713974 13.181693
-1.195286 -1.713113 13.090372
-1.158300 -1.709183 12.995174
-1.129244 -1.702658 12.897392
-1.107029 -1.693999 12.797988
-1.090583 -1.683617 12.697625
-1.078922 -1.671864 12.596741
-1.071175 -1.659031 12.495609
-1.066586 -1.645364 12.394392
-1.064495 -1.631067 12.293178
-1.064318 -1.616317 12.192007
-1.065534 -1.601269 12.090886
-1.067666 -1.586064 11.989803
-1.070261 -1.570835 11.888735
-1.072883 -1.555709 11.787652
-1.075092 -1.540817 11.686524
-1.076435 -1.526297 11.585328
-1.076506 -1.512269 11.484053
-1.075253 -1.498714 11.382722
-1.072748 -1.485566 11.281361
-1.069071 -1.472753 11.179992
-1.064310 -1.460196 11.078636
-1.058563 -1.447813 10.977309
-1.051935 -1.435517 10.876026
-1.044535 -1.423218 10.774797
-1.036482 -1.410826 10.673629
-1.027894 -1.398247 10.572527
-1.018895 -1.385389 10.471497
-1.009609 -1.372158 10.370541
-1.000163 -1.358467 10.269661
-0.990680 -1.344226 10.168860
-0.981284 -1.329374 10.068140
-0.972080 -1.314047 9.967473
-0.963167 -1.298482 9.866817
-0.954642 -1.282909 9.766128
-0.946603 -1.267558 9.665365
-0.939149 -1.252658 9.564490
-0.932379 -1.238438 9.463468
-0.926395 -1.225131 9.362273
-0.921303 -1.212974 9.260885
-0.917208 -1.202207 9.159295
-0.914222 -1.193078 9.057507
-0.912457 -1.185836 8.955540
-0.912027 -1.180740 8.853428
-0.913046 -1.178045 8.751230
-0.915620 -1.177994 8.649024
-0.919720 -1.180569 8.546900
-0.925203 -1.185525 8.444928
-0.931919 -1.192610 8.343156
-0.939719 -1.201568 8.241608
-0.948458 -1.212148 8.140292
-0.957988 -1.224099 8.039199
-0.968169 -1.237176 7.938310
-0.978859 -1.251137 7.837591
-0.989923 -1.265745 7.737005
-1.001225 -1.280765 7.636506
-1.012630 -1.295966 7.536045
-1.024006 -1.311116 7.435574
-1.035219 -1.325983 7.335042
-1.046137 -1.340337 7.234403
-1.056687 -1.354055 7.133636
-1.066890 -1.367170 7.032753
-1.076770 -1.379727 6.931767
-1.086354 -1.391771 6.830691
-1.095669 -1.403348 6.729534
-1.104741 -1.414506 6.628308
-1.113597 -1.425289 6.527023
-1.122264 -1.435747 6.425687
-1.130771 -1.445926 6.324309
-1.139144 -1.455873 6.222897
-1.147410 -1.465638 6.121458
-1.155599 -1.475266 6.020001
-1.163737 -1.484808 5.918530
-1.171852 -1.494310 5.817055
-1.179973 -1.503822 5.715580
-1.188126 -1.513390 5.614114
-1.196340 -1.523063 5.512662
-1.204643 -1.532889 5.411233
-1.213061 -1.542916 5.309832
-1.221624 -1.553192 5.208469
-1.230358 -1.563764 5.107150
-1.239290 -1.574680 5.005886
-1.248448 -1.585986 4.904684
-1.257859 -1.597730 4.803556
-1.267549 -1.609958 4.702511
-1.277545 -1.622715 4.601562
-1.287873 -1.636047 4.500720
-1.298558 -1.649998 4.400000
-2.372487 -1.470301 13.690767
-3.645785 -1.591603 13.764952
-4.405176 -0.435540 13.799042
-4.850416 0.915902 13.846951
-5.290255 2.269209 13.893586
-5.770405 3.607882 13.832159
-6.368328 4.897154 13.763496
-7.174302 6.065086 13.686161
-8.238114 7.000921 13.599807
-9.511970 7.621675 13.509125
-10.893887 7.942910 13.419496
-12.310947 8.035895 13.333363
-2.373753 -1.471839 13.690945
-3.644193 -1.592812 13.764906
-3.647377 -1.590393 13.764999
-4.404608 -0.437457 13.798982
-4.405744 -0.433623 13.799102
-4.849794 0.914002 13.846883
-4.851039 0.917801 13.847018
-5.289629 2.267310 13.893581
-5.290881 2.271109 13.893591
-5.769672 3.606023 13.832248
-5.771138 3.609741 13.832070
-6.367369 4.895402 13.763598
-6.369288 4.898906 13.763395
-7.173003 6.063570 13.686276
-7.175602 6.066602 13.686046
-8.236441 6.999833 13.599933
-8.239787 7.002010 13.599681
-9.510079 7.621036 13.509253
-9.513860 7.622314 13.508998
-10.891909 7.942640 13.419620
-10.895865 7.943180 13.419372
-12.308951 8.035891 13.333482
-2.392734 -1.494887 13.693608
-3.619672 -1.610012 13.764182
-3.671242 -1.572267 13.765697
-4.396170 -0.466207 13.798096
-4.414254 -0.404895 13.800000
-4.840465 0.885533 13.845874
-4.860368 0.946271 13.848027
-5.280253 2.238838 13.893506
-5.300257 2.299581 13.893667
-5.758683 3.578166 13.833587
-5.782129 3.637597 13.830730
-6.352985 4.869147 13.765121
-6.383819 4.925079 13.761865
-7.153524 6.040851 13.688002
-7.195447 6.089001 13.684308
-8.211611 6.983146 13.601816
-8.264862 7.018328 13.597793
-9.481789 7.611313 13.511165
-9.542200 7.631895 13.507086
-10.862265 7.938593 13.421473
-10.925508 7.947228 13.417519
-12.279027 8.035837 13.335254
-2.486424 -1.593767 13.705398
-2.666958 -1.711725 13.721735
-2.872425 -1.778935 13.735060
-3.088275 -1.794836 13.745627
-3.302232 -1.762326 13.754018
-3.502996 -1.681602 13.760663
-3.777862 -1.486272 13.768839
-3.938650 -1.340450 13.773926
-4.087638 -1.182722 13.779344
-4.211636 -1.005031 13.784691
-4.298395 -0.806452 13.789589
-4.360241 -0.598417 13.794547
-4.455245 -0.274198 13.804389
-4.525830 -0.068987 13.812084
-4.597128 0.135978 13.819810
-4.665248 0.342038 13.827040
-4.731530 0.548706 13.834059
-4.798020 0.755302 13.841244
-4.903090 1.076414 13.852568
-4.970715 1.282655 13.859362
-5.037966 1.489021 13.866056
-5.104774 1.695496 13.873745
-5.171178 1.902037 13.882993
-5.237753 2.108569 13.891085
-5.343635 2.429558 13.891265
-5.413618 2.634914 13.882157
-5.485059 2.839612 13.869963
-5.557933 3.043840 13.858379
-5.632444 3.247572 13.848625
-5.709013 3.450572 13.839552
-5.833425 3.764529 13.824401
-5.917076 3.964653 13.814123
-6.004021 4.163365 13.803766
-6.094590 4.360448 13.793367
-6.189126 4.555651 13.782822
-6.288104 4.748627 13.772044
-6.451573 5.044000 13.754815
-6.563023 5.230012 13.743478
-6.679865 5.412671 13.731923
-6.802352 5.591579 13.720139
-6.930857 5.766198 13.708114
-7.065431 5.936162 13.695855
-7.287176 6.190508 13.676325
-7.437501 6.346664 13.663507
-7.593967 6.496651 13.650489
-7.756574 6.639942 13.637285
-7.925050 6.776263 13.623916
-8.099089 6.905387 13.610405
-8.380305 7.091673 13.589144
-8.567027 7.201637 13.575376
-8.758115 7.303825 13.561546
-8.953138 7.398278 13.547680
-9.151633 7.485194 13.533797
-9.353200 7.564726 13.519917
-9.672215 7.674343 13.498353
-9.880008 7.735842 13.484552
-10.089676 7.790618 13.470805
-10.300896 7.839085 13.457122
-10.513415 7.881518 13.443510
-10.727008 7.918201 13.429974
-11.061199 7.964529 13.409067
-11.276704 7.987605 13.395751
-11.492673 8.005898 13.382524
-11.708984 8.019650 13.369387
-11.925531 8.029102 13.356340
-12.142225 8.034475 13.343384
169 NaN NaN
-2.372170 -1.469917 13.690723
-2.435903 -1.547307 13.699666
-2.509735 -1.615204 13.708043
-2.592048 -1.672627 13.715782
-2.681071 -1.719091 13.722857
-2.775097 -1.754499 13.729275
-2.872585 -1.778976 13.735070
-2.972191 -1.792731 13.740286
-3.072718 -1.795953 13.744975
-3.173060 -1.788747 13.749184
-3.272118 -1.771111 13.752962
-3.368717 -1.742930 13.756349
-3.461582 -1.704152 13.759384
-3.549986 -1.656017 13.762113
-3.634007 -1.600548 13.764608
-3.714193 -1.539646 13.766953
-3.791365 -1.474953 13.769239
-3.866474 -1.407870 13.771558
-3.940064 -1.339129 13.773973
-4.011329 -1.267989 13.776465
-4.079061 -1.193487 13.778998
-4.141795 -1.114743 13.781529
-4.197767 -1.031070 13.784001
-4.245087 -0.942227 13.786354
-4.283863 -0.849313 13.788595
-4.316196 -0.753949 13.790806
-4.344363 -0.657264 13.793078
-4.370596 -0.560037 13.795505
-4.397076 -0.462884 13.798188
-4.425673 -0.366345 13.801205
-4.456438 -0.270483 13.804517
-4.488735 -0.175133 13.808032
-4.521921 -0.080092 13.811658
-4.555345 0.014864 13.815303
-4.588357 0.109968 13.818873
-4.620526 0.205364 13.822309
-4.651984 0.301002 13.825640
-4.682949 0.396802 13.828908
-4.713639 0.492692 13.832153
-4.744272 0.588599 13.835417
-4.775063 0.684454 13.838740
-4.806097 0.780228 13.842125
-4.837321 0.875939 13.845534
-4.868671 0.971610 13.848925
-4.900085 1.067262 13.852259
-4.931499 1.162918 13.855493
-4.962854 1.258597 13.858598
-4.994126 1.354305 13.861638
-5.025310 1.450040 13.864730
-5.056400 1.545800 13.867988
-5.087392 1.641583 13.871529
-5.118279 1.737383 13.875468
-5.149071 1.833196 13.879821
-5.179841 1.929013 13.884236
-5.210673 2.024827 13.888272
-5.241652 2.120624 13.891490
-5.272858 2.216381 13.893447
-5.304366 2.312058 13.893700
-5.336225 2.407605 13.892023
-5.368422 2.502997 13.888730
-5.400946 2.598228 13.884217
-5.433787 2.693308 13.878878
-5.466939 2.788254 13.873108
-5.500399 2.883091 13.867299
-5.534165 2.977839 13.861837
-5.568254 3.072499 13.856878
-5.602708 3.167047 13.852306
-5.637571 3.261456 13.847990
-5.672886 3.355703 13.843795
-5.708699 3.449761 13.839589
-5.745051 3.543607 13.835249
-5.781978 3.637220 13.830749
-5.819509 3.730585 13.826122
-5.857677 3.823688 13.821402
-5.896510 3.916513 13.816623
-5.936039 4.009041 13.811818
-5.976294 4.101256 13.807014
-6.017311 4.193135 13.802209
-6.059124 4.284654 13.797392
-6.101768 4.375787 13.792552
-6.145277 4.466508 13.787678
-6.189686 4.556790 13.782760
-6.235028 4.646604 13.777790
-6.281335 4.735922 13.772770
-6.328641 4.824711 13.767699
-6.376977 4.912941 13.762581
-6.426375 5.000578 13.757415
-6.476866 5.087588 13.752205
-6.528477 5.173934 13.746949
-6.581238 5.259581 13.741647
-6.635175 5.344488 13.736298
-6.690315 5.428616 13.730900
-6.746682 5.511923 13.725452
-6.804300 5.594367 13.719953
-6.863189 5.675905 13.714403
-6.923363 5.756495 13.708803
-6.984839 5.836092 13.703152
-7.047630 5.914653 13.697452
-7.111750 5.992129 13.691702
-7.177208 6.068475 13.685904
-7.244005 6.143647 13.680058
-7.312141 6.217605 13.674166
-7.381613 6.290306 13.668228
-7.452417 6.361705 13.662247
-7.524551 6.431758 13.656222
-7.598003 6.500424 13.650156
-7.672754 6.567669 13.644051
-7.748785 6.633460 13.637908
-7.826073 6.697767 13.631730
-7.904597 6.760555 13.625518
-7.984334 6.821791 13.619274
-8.065256 6.881450 13.613002
-8.147327 6.939516 13.606703
-8.230511 6.995973 13.600380
-8.314772 7.050807 13.594034
-8.400075 7.104002 13.587669
-8.486386 7.155544 13.581287
-8.573664 7.205430 13.574889
-8.661865 7.253663 13.568479
-8.750949 7.300244 13.562059
-8.840874 7.345179 13.555630
-8.931601 7.388472 13.549195
-9.023090 7.430128 13.542757
-9.115300 7.470163 13.536316
-9.208191 7.508593 13.529875
-9.301722 7.545436 13.523436
-9.395856 7.580710 13.517000
-9.490557 7.614436 13.510570
-9.585789 7.646633 13.504146
-9.681517 7.677325 13.497729
-9.777708 7.706539 13.491322
-9.874328 7.734300 13.484925
-9.971347 7.760635 13.478540
-10.068737 7.785570 13.472168
-10.166468 7.809133 13.465808
-10.264515 7.831352 13.459464
-10.362851 7.852254 13.453134
-10.461454 7.871869 13.446820
-10.560300 7.890225 13.440523
-10.659368 7.907351 13.434242
-10.758637 7.923274 13.427979
-10.858088 7.938023 13.421734
-10.957704 7.951623 13.415507
-11.057468 7.964104 13.409299
-11.157364 7.975491 13.403109
-11.257377 7.985813 13.396939
-11.357493 7.995095 13.390787
-11.457699 8.003361 13.384655
-11.557983 8.010635 13.378543
-11.658333 8.016943 13.372450
-11.758740 8.022310 13.366377
-11.859193 8.026758 13.360324
-11.959682 8.030310 13.354290
-12.060200 8.032987 13.348275
-12.160738 8.034811 13.342280
-12.261289 8.035804 13.336305
-12.361846 8.035987 13.330349
-12.462402 8.035380 13.324412
-12.562952 8.034001 13.318494
-12.663490 8.031867 13.312595
-12.764011 8.028995 13.306715
-12.864509 8.025404 13.300854
-12.964981 8.021111 13.295012
-13.065423 8.016132 13.289188
-13.165830 8.010486 13.283382
-13.266200 8.004191 13.277595
-13.366529 7.997263 13.271825
-13.466814 7.989719 13.266072
-13.567054 7.981577 13.260337
-0.968917 -1.012244 21.586630
-0.860079 -0.893599 21.700787
-0.763341 -0.765654 21.815705
-0.683220 -0.626783 21.930566
-0.626324 -0.475651 22.043547
-0.601484 -0.312476 22.151012
-0.618383 -0.141187 22.246770
-0.682081 0.028736 22.323143
-0.784139 0.187917 22.377870
-0.913660 0.332227 22.412805
-1.061183 0.461725 22.431736
-0.967788 -1.011063 21.587784
-0.861150 -0.894827 21.699627
-0.859007 -0.892371 21.701946
-0.764263 -0.766992 21.814538
-0.762419 -0.764316 21.816871
-0.683927 -0.628251 21.929407
-0.682513 -0.625314 21.931725
-0.626718 -0.477261 22.042427
-0.625929 -0.474042 22.044666
-0.601446 -0.314199 22.149997
-0.601523 -0.310753 22.152027
-0.618093 -0.142934 22.245841
-0.618673 -0.139441 22.247700
-0.681294 0.027037 22.322439
-0.682868 0.030434 22.323847
-0.782965 0.186366 22.377408
-0.785313 0.189469 22.378333
-0.912235 0.330848 22.412545
-0.915085 0.333607 22.413065
-1.059606 0.460500 22.431630
-0.963041 -1.006100 21.592637
-0.865654 -0.899990 21.694752
-0.854504 -0.887208 21.706822
-0.768139 -0.772618 21.809635
-0.758543 -0.758691 21.821774
-0.686900 -0.634426 21.924534
-0.679539 -0.619140 21.936598
-0.628377 -0.484029 22.037720
-0.624270 -0.467274 22.049373
-0.601284 -0.321442 22.145728
-0.601684 -0.303510 22.156296
-0.616874 -0.150279 22.241931
-0.620734 -0.132122 22.251260
-0.677985 0.019895 22.319480
-0.686177 0.037576 22.326807
-0.778028 0.179842 22.375464
-0.790250 0.195993 22.380276
-0.906244 0.325049 22.411453
-0.921075 0.339406 22.414157
-1.052972 0.455352 22.431182
-0.951484 -0.994017 21.604450
-0.936170 -0.978006 21.620104
-0.920856 -0.961995 21.635758
-0.905677 -0.945873 21.651425
-0.891148 -0.929216 21.667153
-0.876619 -0.912560 21.682882
-0.843968 -0.874307 21.718719
-0.830364 -0.856940 21.734506
-0.816760 -0.839573 21.750292
-0.803155 -0.822206 21.766079
-0.790079 -0.804463 21.781880
-0.777575 -0.786315 21.797698
-0.749107 -0.744994 21.833711
-0.737622 -0.726187 21.849518
-0.726438 -0.707185 21.865323
-0.715254 -0.688184 21.881127
-0.704070 -0.669182 21.896931
-0.694139 -0.649458 21.912669
-0.672300 -0.604107 21.948463
-0.662863 -0.584111 21.964169
-0.655196 -0.563233 21.979700
-0.647528 -0.542355 21.995232
-0.639861 -0.521477 22.010763
-0.632417 -0.500506 22.026261
-0.620230 -0.450796 22.060832
-0.614877 -0.428963 22.076017
-0.610593 -0.406790 22.090980
-0.607978 -0.384088 22.105598
-0.605363 -0.361386 22.120216
-0.602749 -0.338683 22.134833
-0.602078 -0.285876 22.166689
-0.602599 -0.262509 22.180460
-0.603120 -0.239142 22.194231
-0.606038 -0.215546 22.207188
-0.609971 -0.191853 22.219800
-0.613905 -0.168160 22.232413
-0.626321 -0.114322 22.259691
-0.633724 -0.090736 22.270863
-0.641128 -0.067150 22.282034
-0.648582 -0.043572 22.293181
-0.659256 -0.020532 22.302728
-0.669930 0.002507 22.312275
-0.695123 0.054687 22.333492
-0.708667 0.076833 22.341366
-0.722212 0.098980 22.349240
-0.735757 0.121126 22.357113
-0.750082 0.142912 22.364462
-0.766008 0.163958 22.370732
-0.802270 0.211876 22.385009
-0.819380 0.232191 22.390372
-0.837212 0.252061 22.395183
-0.855043 0.271931 22.399994
-0.872875 0.291800 22.404804
-0.891659 0.310929 22.408794
-0.935660 0.353525 22.416816
-0.954986 0.372234 22.420339
-0.975396 0.389923 22.422823
-0.995887 0.407537 22.425229
-1.016378 0.425151 22.427635
-1.036869 0.442765 22.430042
21 NaN NaN
-0.969200 -1.012539 21.586342
-0.908178 -0.948739 21.648718
-0.850283 -0.882370 21.711390
-0.796076 -0.813168 21.774294
-0.746256 -0.740856 21.837318
-0.701695 -0.665148 21.900286
-0.663480 -0.585791 21.962919
-0.632935 -0.502619 22.024792
-0.611613 -0.415651 22.085275
-0.601200 -0.325233 22.143494
-0.603275 -0.232183 22.198332
-0.618938 -0.137841 22.248552
-0.648417 -0.043928 22.293033
-0.690921 0.047817 22.331050
-0.744863 0.136015 22.362407
-0.808299 0.219844 22.387382
-0.879332 0.298996 22.406547
-0.956325 0.373529 22.420583
-1.037965 0.443707 22.430170
-1.123236 0.509879 22.435921
-1.211364 0.572419 22.438365
-1.064298 -1.445872 18.910833
-0.935970 -1.260379 18.896108
-0.821375 -1.065815 18.886698
-0.725617 -0.861201 18.884271
-0.656167 -0.646467 18.891089
-0.623060 -0.424132 18.909853
-0.636629 -0.201626 18.942721
-0.701368 0.009013 18.989491
-0.811481 0.197145 19.047039
-0.955028 0.359032 19.111279
-1.120837 0.496605 19.179091
-1.301103 0.613781 19.248626
-1.063135 -1.444251 18.910692
-0.937026 -1.262074 18.896207
-0.934913 -1.258683 18.896008
-0.822288 -1.067594 18.886743
-0.820463 -1.064036 18.886653
-0.726332 -0.863069 18.884245
-0.724902 -0.859333 18.884296
-0.656609 -0.648414 18.890970
-0.655725 -0.644520 18.891207
-0.623138 -0.426117 18.909620
-0.622983 -0.422147 18.910087
-0.636272 -0.203561 18.942363
-0.636985 -0.199691 18.943079
-0.700583 0.007233 18.989024
-0.702152 0.010792 18.989958
-0.810353 0.195585 19.046497
-0.812609 0.198706 19.047581
-0.953662 0.357695 19.110694
-0.956395 0.360370 19.111864
-1.119312 0.495463 19.178483
-1.122362 0.497748 19.179699
-1.299474 0.612800 19.248007
-1.057660 -1.436624 18.910027
-0.942077 -1.270000 18.896706
-0.929941 -1.250705 18.895540
-0.826584 -1.075967 18.886957
-0.816167 -1.055663 18.886440
-0.729698 -0.871858 18.884124
-0.721536 -0.850544 18.884418
-0.658689 -0.657577 18.890413
-0.653645 -0.635357 18.891764
-0.623503 -0.435458 18.908522
-0.622617 -0.412806 18.911184
-0.634593 -0.212668 18.940679
-0.638664 -0.190583 18.944763
-0.696891 -0.001142 18.986827
-0.705845 0.019167 18.992155
-0.805047 0.188241 19.043946
-0.817916 0.206049 19.050132
-0.947228 0.351400 19.107939
-0.962829 0.366664 19.114619
-1.112135 0.490087 19.175622
-1.129539 0.503124 19.182559
-1.291804 0.608183 19.245097
-1.043973 -1.417555 18.908364
-1.025804 -1.392241 18.906156
-1.007634 -1.366927 18.903948
-0.989967 -1.341248 18.901939
-0.972573 -1.315371 18.900038
-0.955179 -1.289493 18.898138
-0.917512 -1.230758 18.894370
-0.901011 -1.204279 18.892816
-0.884511 -1.177801 18.891263
-0.868952 -1.150743 18.890068
-0.853487 -1.123626 18.888909
-0.838023 -1.096510 18.887751
-0.805428 -1.034732 18.885907
-0.791172 -1.006946 18.885199
-0.777157 -0.979042 18.884580
-0.764319 -0.950565 18.884390
-0.751481 -0.922089 18.884199
-0.738642 -0.893612 18.884009
-0.713122 -0.828570 18.884721
-0.701952 -0.799401 18.885124
-0.691631 -0.769945 18.885819
-0.682426 -0.740114 18.886900
-0.673221 -0.710283 18.887981
-0.664016 -0.680452 18.889061
-0.648445 -0.612449 18.893158
-0.641543 -0.582040 18.895008
-0.636494 -0.551338 18.897456
-0.632258 -0.520508 18.900165
-0.628023 -0.489677 18.902874
-0.624417 -0.458811 18.905778
-0.621704 -0.389453 18.913929
-0.620491 -0.358452 18.917572
-0.622455 -0.327622 18.922151
-0.624556 -0.296799 18.926771
-0.626656 -0.265976 18.931391
-0.630397 -0.235437 18.936469
-0.642861 -0.167815 18.948973
-0.649204 -0.137821 18.954766
-0.658221 -0.108628 18.961261
-0.667238 -0.079434 18.967757
-0.676255 -0.050240 18.974253
-0.687661 -0.022079 18.981335
-0.715075 0.040104 18.997647
-0.728740 0.067090 19.005259
-0.743881 0.093232 19.013207
-0.759021 0.119374 19.021156
-0.774167 0.145511 19.029105
-0.791779 0.169882 19.037570
-0.831183 0.224408 19.056508
-0.850343 0.247442 19.065267
-0.870012 0.270037 19.074123
-0.889680 0.292632 19.082978
-0.909795 0.314773 19.091910
-0.931145 0.335663 19.101052
-0.978933 0.382376 19.121509
-1.001647 0.401676 19.130858
-1.024361 0.420976 19.140206
-1.047075 0.440275 19.149554
-1.070373 0.458805 19.158978
-1.094192 0.476647 19.168471
-1.147732 0.516196 19.189738
-1.172449 0.532714 19.199330
-1.197166 0.549232 19.208923
-1.221884 0.565749 19.218516
-1.247181 0.581321 19.228161
-1.272632 0.596642 19.237820
24 NaN NaN
-1.064589 -1.446277 18.910869
-1.001215 -1.357983 18.903168
-0.940547 -1.267723 18.896539
-0.882996 -1.175368 18.891120
-0.829058 -1.080790 18.887079
-0.779338 -0.983879 18.884612
-0.734562 -0.884562 18.883948
-0.695608 -0.782832 18.885352
-0.663507 -0.678803 18.889121
-0.639437 -0.572763 18.895573
-0.624669 -0.465265 18.905019
-0.620441 -0.357182 18.917721
-0.627763 -0.249727 18.933826
-0.647183 -0.144362 18.953310
-0.678618 -0.042590 18.975955
-0.721337 0.054307 19.001373
-0.774124 0.145451 19.029084
-0.835535 0.230430 19.058600
-0.904121 0.309221 19.089480
-0.978576 0.382072 19.121362
-1.057791 0.449381 19.153964
-1.140865 0.511607 19.187073
-1.227073 0.569217 19.220530
-1.315843 0.622654 19.254220
-1.187474 -1.607565 17.572077
-1.041840 -1.422706 17.527273
-0.908001 -1.228649 17.484821
-0.790397 -1.023750 17.445700
-0.695970 -0.806469 17.411501
-0.635487 -0.576570 17.384800
-0.624774 -0.338337 17.369631
-0.677919 -0.105685 17.370119
-0.791904 0.103350 17.386490
-0.950602 0.279709 17.415345
-1.136973 0.425133 17.452491
-1.339679 0.545358 17.494899
-1.186234 -1.606042 17.571698
-1.042998 -1.424296 17.527636
-1.040681 -1.421117 17.526911
-0.909051 -1.230317 17.485161
-0.906952 -1.226981 17.484480
-0.791298 -1.025508 17.446010
-0.789496 -1.021991 17.445391
-0.696661 -0.808327 17.411765
-0.695279 -0.804611 17.411236
-0.635877 -0.578522 17.384997
-0.635096 -0.574619 17.384603
-0.624504 -0.340318 17.369671
-0.625044 -0.336355 17.369591
-0.677150 -0.107529 17.370031
-0.678689 -0.103841 17.370207
-0.790725 0.101746 17.386291
-0.793083 0.104953 17.386689
-0.949150 0.278362 17.415067
-0.952054 0.281056 17.415623
-1.135353 0.424007 17.452161
-1.138593 0.426258 17.452821
-1.337955 0.544411 17.494534
-1.180104 -1.598515 17.569826
-1.048723 -1.432154 17.529428
-1.034957 -1.413259 17.525118
-0.914239 -1.238562 17.486845
-0.901763 -1.218737 17.482796
-0.795752 -1.034200 17.447541
-0.785043 -1.013299 17.443860
-0.700077 -0.817511 17.413073
-0.691863 -0.795426 17.409929
-0.637805 -0.588169 17.385971
-0.633169 -0.564972 17.383630
-0.623675 -0.350144 17.369991
-0.626378 -0.326562 17.369395
-0.673346 -0.116643 17.369598
-0.682492 -0.094726 17.370640
-0.784899 0.093820 17.385309
-0.798909 0.112879 17.387672
-0.941973 0.271703 17.413692
-0.959230 0.287714 17.416997
-1.127345 0.418444 17.450529
-1.146600 0.431822 17.454453
-1.329437 0.539728 17.492733
-1.164620 -1.579501 17.565096
-1.144050 -1.554243 17.558813
-1.123480 -1.528984 17.552530
-1.103424 -1.503294 17.546347
-1.083488 -1.477502 17.540188
-1.063552 -1.451710 17.534029
-1.020495 -1.393409 17.520590
-1.001283 -1.367040 17.514575
-0.982403 -1.340423 17.508626
-0.964024 -1.313430 17.502778
-0.945646 -1.286437 17.496931
-0.927346 -1.259389 17.491099
-0.888657 -1.197909 17.478542
-0.871245 -1.170241 17.472892
-0.854949 -1.141858 17.467471
-0.838669 -1.113464 17.462054
-0.822390 -1.085070 17.456637
-0.807002 -1.056158 17.451408
-0.773792 -0.991342 17.439993
-0.759757 -0.961704 17.435050
-0.746398 -0.931719 17.430252
-0.733039 -0.901734 17.425453
-0.720168 -0.871534 17.420761
-0.708705 -0.840713 17.416375
-0.683605 -0.772091 17.406710
-0.674416 -0.740452 17.402827
-0.665227 -0.708812 17.398944
-0.656038 -0.677172 17.395061
-0.649150 -0.644911 17.391699
-0.642678 -0.612538 17.388431
-0.630710 -0.540193 17.381728
-0.627443 -0.507276 17.379203
-0.624177 -0.474358 17.376677
-0.622523 -0.441348 17.374534
-0.622942 -0.408216 17.372884
-0.623360 -0.375085 17.371233
-0.629748 -0.301822 17.368898
-0.634225 -0.268957 17.368238
-0.638829 -0.236118 17.367610
-0.647518 -0.204103 17.368008
-0.656208 -0.172089 17.368406
-0.664897 -0.140074 17.368804
-0.692100 -0.071701 17.371734
-0.704864 -0.041115 17.373188
-0.719916 -0.011694 17.375254
-0.736351 0.017020 17.377690
-0.752787 0.045735 17.380126
-0.770182 0.073797 17.382827
-0.813626 0.132902 17.390154
-0.833720 0.159035 17.393606
-0.855801 0.183465 17.397627
-0.877882 0.207896 17.401647
-0.899963 0.232326 17.405668
-0.923844 0.254882 17.410220
-0.977360 0.304535 17.420469
-1.002703 0.325327 17.425467
-1.028352 0.345743 17.430558
-1.054001 0.366159 17.435649
-1.080247 0.385721 17.440928
-1.107118 0.404390 17.446405
-1.167205 0.445259 17.458700
-1.195033 0.462366 17.464490
-1.222862 0.479472 17.470280
-1.250749 0.496471 17.476090
-1.279334 0.512185 17.482136
-1.307919 0.527899 17.488181
27 NaN NaN
-1.187784 -1.607945 17.572172
-1.119554 -1.524163 17.551330
-1.053428 -1.438612 17.530901
-0.989704 -1.351147 17.510949
-0.928745 -1.261613 17.491553
-0.870995 -1.169843 17.472810
-0.816997 -1.075666 17.454843
-0.767428 -0.978920 17.437805
-0.723121 -0.879473 17.421891
-0.685106 -0.777256 17.407343
-0.654633 -0.672334 17.394467
-0.633171 -0.564989 17.383631
-0.622340 -0.455853 17.375257
-0.623727 -0.346021 17.369786
-0.638567 -0.237083 17.367598
-0.667368 -0.130970 17.368917
-0.709676 -0.029584 17.373736
-0.764159 0.065604 17.381811
-0.828978 0.153789 17.392743
-0.902195 0.234795 17.406074
-0.982058 0.308895 17.421369
-1.067120 0.376601 17.438253
-1.156240 0.438519 17.456418
-1.248539 0.495256 17.475623
-1.343349 0.547376 17.495675
-1.440162 0.595386 17.516426
-1.538585 0.639728 17.537759
-1.553140 -1.584763 16.268710
-1.386282 -1.442840 16.298871
-1.226590 -1.293262 16.330702
-1.076518 -1.134479 16.364547
-0.939880 -0.964557 16.400831
-0.822819 -0.781314 16.440043
-0.735300 -0.583162 16.482554
-0.692071 -0.371887 16.528017
-0.708297 -0.157384 16.574340
-0.786861 0.043580 16.617914
-0.914155 0.219518 16.656223
-1.072796 0.369562 16.689031
-1.250491 0.497845 16.717197
-1.440029 0.608909 16.741680
-1.551616 -1.583496 16.268979
-1.387747 -1.444171 16.298587
-1.384817 -1.441508 16.299154
-1.227977 -1.294671 16.330402
-1.225202 -1.291853 16.331002
-1.077799 -1.135981 16.364226
-1.075236 -1.132978 16.364867
-0.941010 -0.966171 16.400486
-0.938749 -0.962944 16.401176
-0.823726 -0.783057 16.439670
-0.821913 -0.779571 16.440417
-0.735869 -0.585037 16.482151
-0.734732 -0.581287 16.482956
-0.692155 -0.373840 16.527596
-0.691987 -0.369934 16.528438
-0.707809 -0.159280 16.573930
-0.708786 -0.155489 16.574750
-0.785872 0.041882 16.617545
-0.787851 0.045278 16.618283
-0.912824 0.218060 16.655905
-0.915486 0.220977 16.656541
-1.071255 0.368317 16.688758
-1.074337 0.370808 16.689304
-1.248821 0.496771 16.716961
-1.252161 0.498920 16.717434
-1.438276 0.607969 16.741473
-1.544576 -1.577643 16.270223
-1.394617 -1.450215 16.297302
-1.378049 -1.435356 16.300462
-1.234432 -1.301136 16.329025
-1.218792 -1.285345 16.332389
-1.083719 -1.142918 16.362746
-1.069316 -1.126040 16.366347
-0.946233 -0.973625 16.398892
-0.933527 -0.955490 16.402770
-0.827914 -0.791111 16.437944
-0.817725 -0.771518 16.442143
-0.738494 -0.593697 16.480289
-0.732106 -0.572626 16.484818
-0.692545 -0.382864 16.525650
-0.691597 -0.360910 16.530384
-0.705551 -0.168037 16.572034
-0.711043 -0.146732 16.576646
-0.781299 0.034036 16.615840
-0.792423 0.053124 16.619989
-0.906676 0.211321 16.654434
-0.921634 0.227715 16.658012
-1.064137 0.362562 16.687497
-1.081454 0.376563 16.690565
-1.241105 0.491807 16.715868
-1.259877 0.503884 16.718526
-1.430176 0.603629 16.740514
-1.527048 -1.563069 16.273319
-1.503788 -1.543728 16.277427
-1.480527 -1.524387 16.281536
-1.457512 -1.504769 16.285705
-1.434670 -1.484956 16.289917
-1.411828 -1.465144 16.294129
-1.361197 -1.420040 16.303721
-1.338832 -1.399713 16.308044
-1.316468 -1.379387 16.312368
-1.294503 -1.358652 16.316781
-1.272687 -1.337764 16.321228
-1.250871 -1.316876 16.325675
-1.202831 -1.269142 16.335841
-1.181650 -1.247638 16.340422
-1.160469 -1.226135 16.345003
-1.139934 -1.204043 16.349713
-1.119496 -1.181864 16.354442
-1.099057 -1.159684 16.359171
-1.054575 -1.108768 16.370033
-1.035014 -1.085845 16.374925
-1.015463 -1.062914 16.379819
-0.996947 -1.039177 16.384889
-0.978431 -1.015439 16.389959
-0.959915 -0.991701 16.395030
-0.920525 -0.936932 16.406738
-0.903270 -0.912304 16.412004
-0.886249 -0.887529 16.417302
-0.870529 -0.861938 16.422780
-0.854809 -0.836347 16.428258
-0.839089 -0.810756 16.433736
-0.807299 -0.751467 16.446440
-0.793462 -0.724858 16.452143
-0.780310 -0.697943 16.457913
-0.768792 -0.670300 16.463846
-0.757274 -0.642656 16.469778
-0.745756 -0.615013 16.475711
-0.725568 -0.551063 16.489452
-0.716892 -0.522446 16.495602
-0.709717 -0.493486 16.501831
-0.704461 -0.464086 16.508159
-0.699206 -0.434686 16.514488
-0.693950 -0.405286 16.520816
-0.690628 -0.338442 16.535228
-0.689341 -0.308626 16.541658
-0.690597 -0.278883 16.548078
-0.693654 -0.249192 16.554492
-0.696711 -0.219501 16.560907
-0.699932 -0.189839 16.567315
-0.716663 -0.124930 16.581365
-0.724121 -0.095996 16.587628
-0.734583 -0.068029 16.593691
-0.746143 -0.040415 16.599680
-0.757703 -0.012801 16.605670
-0.769916 0.014502 16.611594
-0.803807 0.072658 16.624234
-0.818915 0.098582 16.629869
-0.836574 0.122890 16.635162
-0.854586 0.146974 16.640408
-0.872599 0.171059 16.645653
-0.891368 0.194544 16.650772
-0.936942 0.244492 16.661674
-0.957297 0.266719 16.666525
-0.979411 0.287280 16.671022
-1.001525 0.307842 16.675519
-1.023639 0.328403 16.680016
-1.046416 0.348234 16.684357
-1.099176 0.390890 16.693705
-1.122876 0.409677 16.697824
-1.147496 0.427308 16.701695
-1.172117 0.444940 16.705567
-1.196737 0.462571 16.709439
-1.221894 0.479447 16.713149
-1.279088 0.516243 16.721245
-1.304797 0.532311 16.724782
-1.330992 0.547622 16.728158
-1.357188 0.562934 16.731533
-1.383383 0.578245 16.734909
-1.410008 0.592823 16.738127
29 NaN NaN
-1.553521 -1.585080 16.268643
-1.470919 -1.516398 16.283233
-1.389805 -1.446042 16.298189
-1.310388 -1.373861 16.313544
-1.232918 -1.299686 16.329334
-1.157703 -1.223326 16.345601
-1.085127 -1.144567 16.362394
-1.015664 -1.063172 16.379763
-0.949917 -0.978884 16.397768
-0.888649 -0.891435 16.416466
-0.832834 -0.800573 16.435916
-0.783710 -0.706103 16.456162
-0.742822 -0.607970 16.477222
-0.712025 -0.506395 16.499052
-0.693373 -0.402058 16.521511
-0.688808 -0.296257 16.544325
-0.699654 -0.190914 16.567082
-0.726116 -0.088256 16.589304
-0.767135 0.009730 16.610557
-0.820751 0.101732 16.630554
-0.884686 0.187221 16.649174
-0.956804 0.266261 16.666425
-1.035316 0.339260 16.682390
-1.118819 0.406772 16.697186
-1.206240 0.469376 16.710933
-1.296767 0.527618 16.723748
-1.389785 0.581987 16.735734
-1.484825 0.632912 16.746982
-1.581524 0.680762 16.757572
-2.013056 -1.486933 14.996776
-1.785339 -1.372701 15.053536
-1.562729 -1.249927 15.112620
-1.347404 -1.116143 15.174641
-1.143141 -0.967712 15.240448
-0.955800 -0.800443 15.310892
-0.799866 -0.606270 15.387331
-0.701976 -0.380153 15.469088
-0.699681 -0.134070 15.549025
-0.804681 0.094206 15.613890
-0.972524 0.287310 15.661908
-1.173608 0.449568 15.697049
-1.392423 0.589235 15.723333
-2.011301 -1.486077 14.997206
-1.787065 -1.373609 15.053092
-1.783614 -1.371793 15.053980
-1.564416 -1.250898 15.112159
-1.561043 -1.248956 15.113081
-1.349005 -1.117235 15.174148
-1.345803 -1.115051 15.175134
-1.144653 -0.968913 15.239928
-1.141629 -0.966511 15.240968
-0.957176 -0.801785 15.310338
-0.954425 -0.799101 15.311446
-0.800847 -0.607901 15.386718
-0.798884 -0.604639 15.387945
-0.702451 -0.381989 15.468452
-0.701502 -0.378318 15.469724
-0.699091 -0.135902 15.548483
-0.700271 -0.132238 15.549568
-0.803566 0.092600 15.613466
-0.805795 0.095811 15.614313
-0.971110 0.285933 15.661585
-0.973938 0.288687 15.662232
-1.171969 0.448444 15.696827
-1.175247 0.450692 15.697271
-1.390703 0.588230 15.723156
-2.001965 -1.481522 14.999491
-1.796242 -1.378440 15.050731
-1.774437 -1.366962 15.056341
-1.573387 -1.256059 15.109709
-1.552072 -1.243794 15.115532
-1.357521 -1.123044 15.171527
-1.337288 -1.109241 15.177754
-1.152695 -0.975300 15.237161
-1.133587 -0.960124 15.243735
-0.964490 -0.808922 15.307391
-0.947147 -0.791932 15.314400
-0.806067 -0.616574 15.383455
-0.793665 -0.595965 15.391208
-0.704975 -0.391752 15.465069
-0.698978 -0.368555 15.473106
-0.697604 -0.145941 15.545359
-0.703410 -0.122494 15.552453
-0.797637 0.084062 15.611213
-0.811724 0.104349 15.616566
-0.963590 0.278610 15.659864
-0.981457 0.296009 15.663952
-1.163252 0.442466 15.695646
-1.183965 0.456670 15.698453
-1.381555 0.582887 15.722218
-1.978039 -1.469848 15.005349
-1.946224 -1.454325 15.013137
-1.914430 -1.438763 15.020936
-1.882869 -1.422791 15.028848
-1.851307 -1.406819 15.036760
-1.819762 -1.390820 15.044680
-1.750917 -1.354582 15.062391
-1.719717 -1.337997 15.070471
-1.688770 -1.320998 15.078662
-1.657822 -1.303998 15.086854
-1.626950 -1.286881 15.095078
-1.596378 -1.269289 15.103429
-1.529243 -1.230321 15.121877
-1.499107 -1.212073 15.130403
-1.468971 -1.193825 15.138928
-1.439010 -1.175328 15.147520
-1.409385 -1.156349 15.156238
-1.379760 -1.137371 15.164957
-1.315464 -1.094353 15.184471
-1.286444 -1.074555 15.193402
-1.257778 -1.054310 15.202448
-1.229486 -1.033589 15.211615
-1.201194 -1.012869 15.220782
-1.173306 -0.991670 15.230069
-1.112977 -0.943754 15.250827
-1.086260 -0.921237 15.260440
-1.059951 -0.898276 15.270161
-1.033642 -0.875316 15.279882
-1.008162 -0.851538 15.289796
-0.983236 -0.827215 15.299839
-0.929734 -0.772470 15.322217
-0.906581 -0.746591 15.332610
-0.883427 -0.720712 15.343003
-0.861994 -0.693526 15.353670
-0.841154 -0.665892 15.364432
-0.820313 -0.638257 15.375193
-0.780287 -0.573736 15.399571
-0.762498 -0.544177 15.410691
-0.748287 -0.512865 15.422069
-0.734520 -0.481335 15.433480
-0.720754 -0.449806 15.444890
-0.711443 -0.416774 15.456401
-0.692746 -0.343492 15.481767
-0.690362 -0.309146 15.493103
-0.687977 -0.274800 15.504439
-0.685681 -0.240455 15.515767
-0.690013 -0.206112 15.526520
-0.694346 -0.171769 15.537272
-0.711454 -0.097520 15.559848
-0.722150 -0.064313 15.569681
-0.733726 -0.031418 15.579336
-0.749774 -0.000118 15.588087
-0.765822 0.031182 15.596837
-0.782442 0.062179 15.605440
-0.826919 0.126232 15.622339
-0.848093 0.154655 15.629713
-0.871407 0.181586 15.636418
-0.894722 0.208517 15.643123
-0.918693 0.234888 15.649589
-0.944319 0.259843 15.655454
-1.001520 0.313980 15.668036
-1.028880 0.337192 15.673185
-1.056239 0.360404 15.678334
-1.084164 0.382966 15.683224
-1.112845 0.404659 15.687766
-1.141527 0.426352 15.692308
-1.206307 0.471991 15.701480
-1.236015 0.492363 15.705505
-1.266189 0.512077 15.709277
-1.296710 0.531298 15.712859
-1.327232 0.550519 15.716440
-1.358109 0.569191 15.719813
31 NaN NaN
-2.013495 -1.487147 14.996669
-1.917122 -1.440126 15.020261
-1.821517 -1.391744 15.044228
-1.726782 -1.341878 15.068601
-1.633039 -1.290385 15.093414
-1.540433 -1.237097 15.118711
-1.449149 -1.181823 15.144536
-1.359412 -1.124335 15.170945
-1.271511 -1.064368 15.197998
-1.185813 -1.001605 15.225766
-1.102801 -0.935672 15.254328
-1.023115 -0.866129 15.283771
-0.947619 -0.792459 15.314189
-0.877498 -0.714084 15.345665
-0.814388 -0.630401 15.378253
-0.760531 -0.540908 15.411921
-0.718863 -0.445474 15.446457
-0.692837 -0.344801 15.481335
-0.685624 -0.240908 15.515625
-0.698729 -0.137027 15.548150
-0.731089 -0.036560 15.577898
-0.779658 0.058169 15.604382
-0.840824 0.146259 15.627623
-0.911422 0.227807 15.647925
-0.989027 0.303381 15.665685
-1.071889 0.373682 15.681280
-1.158760 0.439386 15.695037
-1.248745 0.501092 15.707230
-1.341195 0.559312 15.718079
-1.435630 0.614473 15.727764
-1.531689 0.666935 15.736435
-1.778863 -1.625332 13.604075
-1.673832 -1.554431 13.638525
-1.570621 -1.481287 13.673766
-1.469503 -1.405684 13.709868
-1.370813 -1.327376 13.746912
-1.275246 -1.245806 13.785078
-1.183409 -1.160624 13.824472
-1.095799 -1.071680 13.865125
-1.013315 -0.978575 13.907144
-0.937178 -0.880852 13.950640
-0.870210 -0.777410 13.995891
-0.813453 -0.668729 14.042645
-0.769308 -0.554935 14.090710
-0.740419 -0.436710 14.139661
-0.731049 -0.315439 14.188696
-0.742449 -0.193941 14.236615
-0.773184 -0.075026 14.282380
-0.821533 0.039093 14.325203
-0.885102 0.146901 14.364619
-0.962117 0.247060 14.400196
-1.048230 0.340658 14.432621
-1.141506 0.428161 14.462193
-1.240439 0.510133 14.489225
-1.344227 0.586711 14.513818
-1.451689 0.658720 14.536370
-1.777259 -1.624258 13.604598
-1.675413 -1.555534 13.637992
-1.672251 -1.553328 13.639058
-1.572177 -1.482420 13.673222
-1.569065 -1.480154 13.674309
-1.471030 -1.406850 13.709313
-1.467976 -1.404518 13.710423
-1.372308 -1.328578 13.746344
-1.369319 -1.326174 13.747479
-1.276659 -1.247090 13.784483
-1.273833 -1.244522 13.785674
-1.184771 -1.161955 13.823861
-1.182047 -1.159293 13.825083
-1.097101 -1.073062 13.864497
-1.094497 -1.070298 13.865753
-1.014546 -0.980012 13.906497
-1.012084 -0.977137 13.907790
-0.938253 -0.882395 13.949961
-0.936135 -0.879290 13.951326
-0.871130 -0.779040 13.995186
-0.869290 -0.775781 13.996597
-0.814225 -0.670427 14.041921
-0.812682 -0.667032 14.043368
-0.769902 -0.556697 14.089971
-0.768714 -0.553174 14.091448
-0.740805 -0.438524 14.138913
-0.740033 -0.434895 14.140409
-0.730949 -0.317295 14.187959
-0.731149 -0.313582 14.189433
-0.742095 -0.195776 14.235902
-0.742803 -0.192106 14.237329
-0.772589 -0.076810 14.281701
-0.773780 -0.073241 14.283059
-0.820722 0.037379 14.324565
-0.822343 0.040806 14.325841
-0.883955 0.145358 14.364069
-0.886249 0.148443 14.365169
-0.960845 0.245603 14.399687
-0.963389 0.248517 14.400705
-1.046856 0.339283 14.432151
-1.049603 0.342034 14.433091
-1.140050 0.426861 14.461758
-1.142962 0.429461 14.462628
-1.238916 0.508902 14.488821
-1.241962 0.511364 14.489628
-1.342602 0.585599 14.513467
-1.345852 0.587823 14.514168
-1.450026 0.657659 14.536043
-1.772370 -1.620982 13.606191
-1.680233 -1.558895 13.636368
-1.667431 -1.549967 13.640681
-1.576919 -1.485874 13.671566
-1.564323 -1.476700 13.675966
-1.475685 -1.410405 13.707622
-1.463321 -1.400963 13.712115
-1.376862 -1.332242 13.744615
-1.364764 -1.322509 13.749209
-1.280966 -1.251004 13.782667
-1.269527 -1.240607 13.787489
-1.188923 -1.166012 13.821997
-1.177896 -1.155237 13.826946
-1.101070 -1.077275 13.862582
-1.090528 -1.066086 13.867668
-1.018298 -0.984395 13.904527
-1.008332 -0.972755 13.909760
-0.941746 -0.886961 13.947932
-0.932953 -0.874528 13.953415
-0.873936 -0.784008 13.993037
-0.866485 -0.770813 13.998746
-0.816576 -0.675601 14.039716
-0.810330 -0.661858 14.045574
-0.771712 -0.562065 14.087719
-0.766904 -0.547806 14.093700
-0.741982 -0.444054 14.136633
-0.738855 -0.429365 14.142688
-0.730644 -0.322955 14.185714
-0.731453 -0.307922 14.191678
-0.741015 -0.201368 14.233729
-0.743883 -0.186514 14.239502
-0.770775 -0.082250 14.279631
-0.775593 -0.067801 14.285129
-0.818252 0.032156 14.322620
-0.824814 0.046029 14.327786
-0.880862 0.140423 14.362275
-0.889747 0.153146 14.366847
-0.956967 0.241162 14.398137
-0.967267 0.252958 14.402255
-1.042669 0.335090 14.430718
-1.053790 0.346226 14.434525
-1.135611 0.422898 14.460431
-1.147400 0.433424 14.463955
-1.234272 0.505149 14.487590
-1.246606 0.515118 14.490860
-1.337649 0.582210 14.512400
-1.350806 0.591213 14.515236
-1.444955 0.654426 14.535044
-1.761606 -1.613770 13.609700
-1.747447 -1.604283 13.614316
-1.733289 -1.594797 13.618931
-1.719130 -1.585311 13.623547
-1.704972 -1.575824 13.628162
-1.690847 -1.566297 13.632792
-1.656817 -1.542565 13.644257
-1.642858 -1.532830 13.648961
-1.628899 -1.523095 13.653664
-1.614940 -1.513360 13.658367
-1.601097 -1.503485 13.663120
-1.587362 -1.493481 13.667918
-1.553880 -1.469093 13.679614
-1.540144 -1.459089 13.684411
-1.526409 -1.449085 13.689209
-1.512897 -1.438825 13.694097
-1.499416 -1.428529 13.698997
-1.485935 -1.418233 13.703896
-1.453071 -1.393135 13.715841
-1.439659 -1.382764 13.720766
-1.426467 -1.372151 13.725776
-1.413275 -1.361538 13.730786
-1.400084 -1.350925 13.735796
-1.386892 -1.340312 13.740806
-1.354932 -1.314235 13.753089
-1.342073 -1.303276 13.758218
-1.329214 -1.292317 13.763346
-1.316356 -1.281358 13.768475
-1.303497 -1.270399 13.773604
-1.290638 -1.259440 13.778733
-1.260043 -1.231988 13.791486
-1.247569 -1.220651 13.796744
-1.235095 -1.209314 13.802001
-1.222622 -1.197978 13.807259
-1.210148 -1.186641 13.812516
-1.198065 -1.174945 13.817894
-1.168753 -1.146303 13.831049
-1.156729 -1.134554 13.836446
-1.144705 -1.122804 13.841842
-1.132801 -1.110952 13.847273
-1.121305 -1.098752 13.852819
-1.109810 -1.086551 13.858365
-1.081788 -1.056809 13.871885
-1.070293 -1.044608 13.877431
-1.059164 -1.032121 13.883070
-1.048296 -1.019429 13.888776
-1.037429 -1.006737 13.894483
-1.026561 -0.994045 13.900189
-1.000069 -0.963105 13.914099
-0.989907 -0.949912 13.919964
-0.979790 -0.936688 13.925839
-0.969673 -0.923464 13.931715
-0.959556 -0.910240 13.937590
-0.949438 -0.897016 13.943465
-0.925947 -0.864041 13.958015
-0.916733 -0.850248 13.964065
-0.907519 -0.836455 13.970115
-0.898304 -0.822662 13.976166
-0.889090 -0.808869 13.982216
-0.880113 -0.794947 13.988304
-0.860307 -0.759874 14.003479
-0.852183 -0.745487 14.009703
-0.844058 -0.731099 14.015928
-0.835934 -0.716712 14.022153
-0.828566 -0.701980 14.028471
-0.821755 -0.686994 14.034859
-0.805152 -0.650464 14.050430
-0.798341 -0.635478 14.056818
-0.791530 -0.620493 14.063205
-0.786184 -0.604982 14.069718
-0.780941 -0.589434 14.076239
-0.775698 -0.573886 14.082761
-0.762917 -0.535985 14.098658
-0.758213 -0.520299 14.105203
-0.754803 -0.504282 14.111806
-0.751394 -0.488265 14.118408
-0.747984 -0.472249 14.125011
-0.744575 -0.456232 14.131613
-0.737616 -0.416989 14.147709
-0.736276 -0.400669 14.154313
-0.734936 -0.384348 14.160916
-0.733595 -0.368028 14.167520
-0.732255 -0.351708 14.174123
-0.730915 -0.335388 14.180727
-0.732124 -0.295459 14.196622
-0.733006 -0.279068 14.203125
-0.733888 -0.262676 14.209628
-0.734770 -0.246285 14.216132
-0.735652 -0.229893 14.222635
-0.738638 -0.213683 14.228943
-0.746260 -0.174199 14.244288
-0.749387 -0.158002 14.250583
-0.752514 -0.141804 14.256878
-0.756274 -0.125739 14.263084
-0.761528 -0.109984 14.269078
-0.766781 -0.094229 14.275073
-0.779588 -0.055823 14.289686
-0.784841 -0.040068 14.295681
-0.791346 -0.024726 14.301438
-0.798501 -0.009599 14.307071
-0.805657 0.005528 14.312704
-0.812812 0.020655 14.318337
-0.830283 0.057518 14.332062
-0.839064 0.071910 14.337307
-0.847844 0.086302 14.342552
-0.856625 0.100695 14.347797
-0.865406 0.115087 14.353042
-0.874186 0.129480 14.358287
-0.897449 0.163503 14.370541
-0.907579 0.177124 14.375399
-0.917709 0.190745 14.380257
-0.927839 0.204366 14.385115
-0.937969 0.217988 14.389974
-0.948427 0.231383 14.394723
-0.975807 0.262737 14.405670
-0.987039 0.275599 14.410160
-0.998271 0.288461 14.414651
-1.009503 0.301323 14.419142
-1.021322 0.313714 14.423410
-1.033448 0.325857 14.427561
-1.063011 0.355459 14.437681
-1.075138 0.367602 14.441832
-1.087274 0.379737 14.445980
-1.100129 0.391215 14.449823
-1.112983 0.402693 14.453666
-1.125838 0.414171 14.457509
-1.157174 0.442151 14.466877
-1.170249 0.453404 14.470617
-1.183698 0.464274 14.474183
-1.197147 0.475144 14.477748
-1.210597 0.486014 14.481313
-1.224046 0.496884 14.484879
-1.257188 0.522980 14.493389
-1.271128 0.533298 14.496705
-1.285067 0.543616 14.500021
-1.299006 0.553933 14.503337
-1.312945 0.564251 14.506653
-1.326885 0.574569 14.509969
-1.361713 0.598677 14.517587
-1.376060 0.608494 14.520679
-1.390406 0.618311 14.523771
-1.404752 0.628128 14.526864
-1.419100 0.637944 14.529955
-1.433787 0.647307 14.532846
31 NaN NaN
-1.779264 -1.625601 13.603944
-1.693166 -1.567914 13.632011
-1.608279 -1.508715 13.660611
-1.524755 -1.447881 13.689787
-1.442777 -1.385273 13.719582
-1.362559 -1.320735 13.750046
-1.284366 -1.254095 13.781234
-1.208516 -1.185158 13.813204
-1.135400 -1.113712 13.846018
-1.065502 -1.039524 13.879742
-0.999422 -0.962349 13.914439
-0.937907 -0.881943 13.950162
-0.881883 -0.798082 13.986948
-0.832489 -0.710611 14.024792
-0.791084 -0.619513 14.063623
-0.759215 -0.525005 14.103264
-0.738492 -0.427657 14.143392
-0.730347 -0.328474 14.183524
-0.735707 -0.228864 14.223043
-0.754709 -0.130433 14.261298
-0.786637 -0.034683 14.297730
-0.830126 0.057260 14.331968
-0.883501 0.144748 14.363851
-0.945084 0.227555 14.393386
-1.013372 0.305753 14.420688
-1.087105 0.379586 14.445929
-1.165265 0.449376 14.469296
-1.247044 0.515472 14.490976
-1.331804 0.578210 14.511140
-1.419041 0.637906 14.529944
-1.508354 0.694844 14.547524
-1.087630 -1.680509 12.674537
-1.017042 -1.574053 12.700749
-0.950103 -1.465378 12.727393
-0.887320 -1.354362 12.754484
-0.829287 -1.240901 12.782033
-0.777328 -1.124659 12.810088
-0.732223 -1.005715 12.838614
-0.694655 -0.884292 12.867543
-0.665761 -0.760600 12.896801
-0.647209 -0.634991 12.926270
-0.641388 -0.508170 12.955731
-0.648205 -0.381375 12.984902
-0.668455 -0.255892 13.013466
-0.702450 -0.133164 13.041083
-0.751606 -0.015343 13.067223
-0.813349 0.096741 13.091753
-0.886022 0.202458 13.114563
-0.968123 0.301465 13.135609
-1.058649 0.393272 13.154800
-1.156077 0.478116 13.172225
-1.258675 0.556950 13.188144
-1.365527 0.630219 13.202679
-1.475921 0.698319 13.215939
-1.086539 -1.678882 12.674938
-1.018087 -1.575709 12.700343
-1.015996 -1.572398 12.701156
-0.951098 -1.467063 12.726981
-0.949109 -1.463692 12.727805
-0.888258 -1.356079 12.754065
-0.886382 -1.352646 12.754902
-0.830160 -1.242649 12.781609
-0.828413 -1.239153 12.782457
-0.778048 -1.126474 12.809652
-0.776608 -1.122845 12.810524
-0.732850 -1.007562 12.838173
-0.731596 -1.003868 12.839055
-0.695178 -0.886171 12.867097
-0.694132 -0.882414 12.867989
-0.666166 -0.762506 12.896351
-0.665356 -0.758694 12.897251
-0.647335 -0.636935 12.925817
-0.647083 -0.633046 12.926722
-0.641355 -0.510119 12.955281
-0.641422 -0.506222 12.956181
-0.648001 -0.383314 12.984458
-0.648409 -0.379436 12.985346
-0.668074 -0.257807 13.013031
-0.668836 -0.253978 13.013900
-0.701891 -0.135038 13.040662
-0.703009 -0.131290 13.041503
-0.750711 -0.017089 13.066839
-0.752502 -0.013596 13.067607
-0.812305 0.095074 13.091391
-0.814394 0.098408 13.092115
-0.884846 0.200876 13.114224
-0.887199 0.204039 13.114902
-0.966831 0.299972 13.135293
-0.969415 0.302959 13.135926
-1.057174 0.391949 13.154527
-1.060124 0.394595 13.155073
-1.154531 0.476873 13.171973
-1.157623 0.479360 13.172478
-1.257069 0.555781 13.187910
-1.260281 0.558119 13.188378
-1.363870 0.629120 13.202462
-1.367184 0.631318 13.202896
-1.474185 0.697344 13.215753
-1.083230 -1.673947 12.676154
-1.021258 -1.580729 12.699110
-1.012825 -1.567378 12.702388
-0.954115 -1.472173 12.725731
-0.946092 -1.458582 12.729055
-0.891102 -1.361282 12.752798
-0.883539 -1.347442 12.756169
-0.832810 -1.247950 12.780323
-0.825763 -1.233852 12.783743
-0.780230 -1.131975 12.808331
-0.774426 -1.117344 12.811845
-0.734752 -1.013163 12.836834
-0.729694 -0.998268 12.840393
-0.696762 -0.891865 12.865744
-0.692548 -0.876719 12.869342
-0.667392 -0.768286 12.894987
-0.664129 -0.752914 12.898616
-0.647879 -0.642812 12.924446
-0.646700 -0.627152 12.928094
-0.641253 -0.516026 12.953917
-0.641524 -0.500314 12.957545
-0.647382 -0.389195 12.983112
-0.649027 -0.373555 12.986692
-0.666919 -0.263613 13.011715
-0.669992 -0.248172 13.015217
-0.700195 -0.140718 13.039387
-0.705104 -0.125741 13.042740
-0.747995 -0.022385 13.065676
-0.755217 -0.008301 13.068770
-0.809138 0.090021 13.090293
-0.817560 0.103462 13.093212
-0.881278 0.196082 13.113196
-0.890767 0.208833 13.115931
-0.962914 0.295443 13.134334
-0.973332 0.307488 13.136885
-1.052703 0.387937 13.153701
-1.064596 0.398606 13.155900
-1.149844 0.473103 13.171206
-1.162311 0.483130 13.173244
-1.252199 0.552238 13.187200
-1.265151 0.561662 13.189087
-1.358847 0.625788 13.201805
-1.372208 0.634650 13.203553
-1.469030 0.694208 13.215144
-1.075959 -1.663104 12.678826
-1.066397 -1.648845 12.682339
-1.056836 -1.634586 12.685853
-1.047274 -1.620326 12.689366
-1.037712 -1.606067 12.692879
-1.028226 -1.591761 12.696402
-1.005858 -1.556346 12.705097
-0.996695 -1.541839 12.708659
-0.987532 -1.527332 12.712220
-0.978370 -1.512824 12.715782
-0.969461 -1.498169 12.719372
-0.960744 -1.483402 12.722984
-0.939463 -1.447353 12.731801
-0.930746 -1.432586 12.735413
-0.922029 -1.417819 12.739025
-0.913786 -1.402794 12.742686
-0.905568 -1.387756 12.746349
-0.897351 -1.372718 12.750012
-0.877289 -1.336007 12.758955
-0.869257 -1.320876 12.762635
-0.861600 -1.305557 12.766351
-0.853944 -1.290238 12.770067
-0.846288 -1.274919 12.773782
-0.838632 -1.259600 12.777498
-0.820391 -1.221998 12.786605
-0.813368 -1.206391 12.790373
-0.806345 -1.190784 12.794141
-0.799323 -1.175177 12.797909
-0.792300 -1.159570 12.801677
-0.785277 -1.143962 12.805445
-0.769630 -1.105254 12.814750
-0.763323 -1.089357 12.818569
-0.757017 -1.073459 12.822387
-0.750710 -1.057561 12.826206
-0.744428 -1.041655 12.830027
-0.738932 -1.025470 12.833894
-0.725515 -0.985960 12.843334
-0.720019 -0.969776 12.847201
-0.714522 -0.953592 12.851068
-0.709403 -0.937295 12.854952
-0.704824 -0.920838 12.858862
-0.700245 -0.904380 12.862771
-0.689066 -0.864204 12.872315
-0.684486 -0.847747 12.876224
-0.680725 -0.831095 12.880160
-0.677180 -0.814393 12.884103
-0.673634 -0.797690 12.888046
-0.670089 -0.780987 12.891989
-0.661633 -0.740178 12.901617
-0.659246 -0.723275 12.905580
-0.656858 -0.706373 12.909543
-0.654470 -0.689471 12.913506
-0.652082 -0.672568 12.917469
-0.649695 -0.655666 12.921432
-0.645860 -0.614199 12.931109
-0.644755 -0.597165 12.935073
-0.643651 -0.580130 12.939038
-0.642546 -0.563096 12.943002
-0.641441 -0.546062 12.946966
-0.641029 -0.529009 12.950920
-0.641748 -0.487331 12.960542
-0.642042 -0.470259 12.964484
-0.642337 -0.453186 12.968426
-0.642631 -0.436113 12.972368
-0.644235 -0.419110 12.976264
-0.646023 -0.402117 12.980154
-0.650387 -0.360633 12.989649
-0.652175 -0.343640 12.993539
-0.654364 -0.326702 12.997407
-0.657703 -0.309925 13.001212
-0.661041 -0.293148 13.005017
-0.664380 -0.276371 13.008821
-0.672531 -0.235414 13.018110
-0.676870 -0.218868 13.021839
-0.681770 -0.202452 13.025525
-0.686670 -0.186035 13.029211
-0.691569 -0.169619 13.032897
-0.696469 -0.153202 13.036583
-0.709985 -0.113636 13.045429
-0.716404 -0.097718 13.048966
-0.722822 -0.081799 13.052503
-0.729241 -0.065881 13.056039
-0.735659 -0.049963 13.059576
-0.742078 -0.034045 13.063113
-0.761185 0.003337 13.071327
-0.769033 0.018641 13.074690
-0.776880 0.033945 13.078052
-0.784728 0.049249 13.081414
-0.793028 0.064310 13.084711
-0.802179 0.078915 13.087882
-0.824519 0.114568 13.095624
-0.833671 0.129172 13.098795
-0.842822 0.143777 13.101966
-0.852817 0.157835 13.104992
-0.863128 0.171691 13.107964
-0.873438 0.185546 13.110936
-0.898607 0.219369 13.118191
-0.909028 0.233140 13.121140
-0.920348 0.246228 13.123912
-0.931667 0.259315 13.126683
-0.942987 0.272403 13.129455
-0.954306 0.285491 13.132226
-0.982365 0.317067 13.138896
-0.994551 0.329394 13.141473
-1.006737 0.341721 13.144049
-1.018923 0.354049 13.146625
-1.031109 0.366376 13.149201
-1.043294 0.378704 13.151777
-1.074423 0.407422 13.157717
-1.087345 0.419014 13.160107
-1.100268 0.430607 13.162496
-1.113191 0.442200 13.164886
-1.126114 0.453792 13.167276
-1.139543 0.464818 13.169523
-1.172612 0.491415 13.174928
-1.186158 0.502309 13.177142
-1.199704 0.513204 13.179356
-1.213352 0.523972 13.181539
-1.227425 0.534212 13.183590
-1.241498 0.544451 13.185640
-1.275852 0.569449 13.190647
-1.289925 0.579688 13.192698
-1.304253 0.589578 13.194662
-1.318771 0.599207 13.196561
-1.333289 0.608836 13.198461
-1.347807 0.618465 13.200360
-1.383248 0.641973 13.204998
-1.398125 0.651062 13.206764
-1.413020 0.660125 13.208525
-1.427914 0.669189 13.210285
-1.442809 0.678252 13.212045
-1.457704 0.687316 13.213805
29 NaN NaN
-1.087903 -1.680916 12.674437
-1.029950 -1.594492 12.695731
-0.974417 -1.506566 12.717319
-0.921585 -1.417066 12.739209
-0.871779 -1.325923 12.761411
-0.825377 -1.233078 12.783930
-0.782815 -1.138490 12.806766
-0.744593 -1.042141 12.829911
-0.711285 -0.944057 12.853346
-0.683533 -0.844322 12.877038
-0.662047 -0.743103 12.900932
-0.647577 -0.640678 12.924946
-0.640883 -0.537459 12.948969
-0.642668 -0.434010 12.972853
-0.653499 -0.331046 12.996422
-0.673729 -0.229393 13.019475
-0.703416 -0.129927 13.041810
-0.742306 -0.033479 13.063238
-0.789856 0.059249 13.083611
-0.845307 0.147743 13.102827
-0.907782 0.231699 13.120835
-0.976376 0.311008 13.137630
-1.050223 0.385713 13.153242
-1.128538 0.455967 13.167724
-1.210633 0.521994 13.181143
-1.295921 0.584051 13.193571
-1.383908 0.642410 13.205084
-1.474180 0.697342 13.215753
-1.566394 0.749103 13.225644
-1.075771 -1.506744 11.445909
-1.005192 -1.391323 11.442231
-0.939170 -1.273225 11.439305
-0.878402 -1.152324 11.437232
-0.824397 -1.028251 11.436234
-0.778341 -0.901021 11.436472
-0.740898 -0.771021 11.438015
-0.713496 -0.638560 11.441040
-0.699800 -0.504071 11.446021
-0.699366 -0.369013 11.452824
-0.713301 -0.234784 11.461528
-0.743693 -0.103467 11.472308
-0.790031 0.022929 11.484995
-0.850065 0.143252 11.499224
-0.922428 0.256472 11.514759
-1.006795 0.360907 11.531471
-1.099498 0.457875 11.548931
-1.199063 0.547701 11.566955
-1.304705 0.630217 11.585430
-1.415078 0.706229 11.604214
-1.528991 0.776778 11.623198
-1.074716 -1.505045 11.445852
-1.006195 -1.393053 11.442278
-1.004190 -1.389593 11.442183
-0.940113 -1.274988 11.439343
-0.938227 -1.271462 11.439267
-0.879278 -1.154122 11.437259
-0.877526 -1.150527 11.437205
-0.825111 -1.030119 11.436236
-0.823683 -1.026383 11.436233
-0.778957 -0.902924 11.436458
-0.777725 -0.899119 11.436485
-0.741402 -0.772956 11.437984
-0.740393 -0.769086 11.438045
-0.713803 -0.640535 11.440981
-0.713258 -0.636576 11.441108
-0.699882 -0.506067 11.445931
-0.699717 -0.502075 11.446111
-0.699280 -0.371008 11.452711
-0.699451 -0.367018 11.452937
-0.713038 -0.236762 11.461392
-0.713565 -0.232807 11.461664
-0.743067 -0.105358 11.472128
-0.744318 -0.101576 11.472489
-0.789234 0.021106 11.484794
-0.790828 0.024752 11.485195
-0.849109 0.141509 11.499006
-0.851020 0.144996 11.499442
-0.921221 0.254897 11.514516
-0.923650 0.258037 11.515004
-1.005467 0.359433 11.531217
-1.008123 0.362380 11.531726
-1.098079 0.456490 11.548669
-1.100917 0.459260 11.549193
-1.197567 0.546401 11.566687
-1.200559 0.549002 11.567224
-1.303090 0.629070 11.585153
-1.306320 0.631364 11.585707
-1.413417 0.705150 11.603934
-1.416739 0.707307 11.604493
-1.527291 0.775763 11.622917
-1.071427 -1.499749 11.445677
-1.009320 -1.398449 11.442427
-1.001065 -1.384197 11.442035
-0.943054 -1.280488 11.439461
-0.935287 -1.265962 11.439149
-0.882009 -1.159729 11.437343
-0.874794 -1.144920 11.437120
-0.827337 -1.035946 11.436241
-0.821457 -1.020556 11.436228
-0.780877 -0.908858 11.436417
-0.775805 -0.893185 11.436527
-0.742976 -0.778991 11.437891
-0.738820 -0.763051 11.438139
-0.714985 -0.646657 11.440830
-0.712515 -0.630387 11.441323
-0.700140 -0.512293 11.445649
-0.699459 -0.495849 11.446393
-0.699013 -0.377230 11.452359
-0.699719 -0.360797 11.453289
-0.712216 -0.242931 11.460967
-0.714387 -0.226638 11.462088
-0.741116 -0.111256 11.471564
-0.746269 -0.095679 11.473052
-0.786747 0.015420 11.484169
-0.793314 0.030438 11.485820
-0.846129 0.136072 11.498327
-0.854000 0.150433 11.500121
-0.917799 0.249733 11.513791
-0.927459 0.262917 11.515767
-1.001325 0.354838 11.530423
-1.012265 0.366975 11.532519
-1.093654 0.452171 11.547851
-1.105342 0.463579 11.550011
-1.192903 0.542345 11.565850
-1.205223 0.553057 11.568060
-1.298054 0.625492 11.584291
-1.311356 0.634941 11.586569
-1.408238 0.701786 11.603063
-1.421919 0.710671 11.605364
-1.521989 0.772596 11.622039
-1.064120 -1.487985 11.445286
-1.054503 -1.472502 11.444773
-1.044887 -1.457018 11.444259
-1.035270 -1.441535 11.443746
-1.025654 -1.426052 11.443233
-1.016262 -1.410433 11.442756
-0.994123 -1.372212 11.441705
-0.984986 -1.356439 11.441271
-0.975850 -1.340665 11.440837
-0.966778 -1.324855 11.440414
-0.958182 -1.308779 11.440069
-0.949585 -1.292703 11.439723
-0.928755 -1.253747 11.438886
-0.920159 -1.237671 11.438541
-0.912035 -1.221352 11.438272
-0.904049 -1.204962 11.438025
-0.896063 -1.188572 11.437778
-0.888077 -1.172182 11.437531
-0.869021 -1.132330 11.436979
-0.861727 -1.115619 11.436842
-0.854434 -1.098909 11.436705
-0.847140 -1.082198 11.436568
-0.839846 -1.065487 11.436431
-0.832552 -1.048777 11.436294
-0.816512 -1.007615 11.436217
-0.810005 -0.990582 11.436202
-0.803497 -0.973549 11.436188
-0.796989 -0.956516 11.436174
-0.790757 -0.939386 11.436201
-0.785143 -0.922039 11.436324
-0.771539 -0.880004 11.436620
-0.765925 -0.862656 11.436742
-0.760311 -0.845309 11.436865
-0.755672 -0.827679 11.437133
-0.751071 -0.810037 11.437408
-0.746471 -0.792395 11.437682
-0.735324 -0.749647 11.438347
-0.731428 -0.731848 11.438725
-0.727974 -0.713950 11.439167
-0.724519 -0.696052 11.439609
-0.721064 -0.678154 11.440051
-0.717610 -0.660256 11.440494
-0.710865 -0.616639 11.441798
-0.708694 -0.598546 11.442424
-0.706522 -0.580453 11.443049
-0.704350 -0.562360 11.443675
-0.702179 -0.544267 11.444300
-0.700713 -0.526121 11.445024
-0.698886 -0.482021 11.447018
-0.698131 -0.463822 11.447840
-0.697377 -0.445622 11.448663
-0.696857 -0.427425 11.449517
-0.697638 -0.409237 11.450547
-0.698419 -0.391049 11.451577
-0.700312 -0.346977 11.454072
-0.701093 -0.328790 11.455101
-0.703182 -0.310728 11.456301
-0.705585 -0.292695 11.457542
-0.707988 -0.274663 11.458783
-0.710390 -0.256631 11.460024
-0.716977 -0.213083 11.463127
-0.721039 -0.195367 11.464577
-0.725101 -0.177650 11.466026
-0.729164 -0.159934 11.467475
-0.733226 -0.142218 11.468924
-0.737288 -0.124502 11.470374
-0.750602 -0.082580 11.474304
-0.756305 -0.065339 11.475951
-0.762008 -0.048099 11.477597
-0.767711 -0.030859 11.479244
-0.773957 -0.013832 11.480954
-0.781225 0.002790 11.482781
-0.798837 0.043068 11.487208
-0.806105 0.059690 11.489036
-0.813374 0.076312 11.490863
-0.822086 0.092206 11.492848
-0.830798 0.108101 11.494833
-0.839510 0.123995 11.496819
-0.860620 0.162509 11.501629
-0.870178 0.177881 11.503703
-0.880183 0.192976 11.505822
-0.890188 0.208072 11.507942
-0.900192 0.223168 11.510061
-0.910197 0.238263 11.512181
-0.935920 0.273755 11.517462
-0.947056 0.288020 11.519692
-0.958192 0.302285 11.521922
-0.969328 0.316549 11.524152
-0.980464 0.330814 11.526383
-0.992124 0.344631 11.528661
-1.021466 0.377182 11.534282
-1.033575 0.390616 11.536601
-1.045684 0.404049 11.538921
-1.057952 0.417327 11.541254
-1.070888 0.429953 11.543644
-1.083824 0.442578 11.546035
-1.115171 0.473172 11.551827
-1.128108 0.485797 11.554217
-1.141635 0.497771 11.556655
-1.155271 0.509627 11.559100
-1.168907 0.521482 11.561546
-1.182542 0.533338 11.563992
-1.215878 0.561704 11.569940
-1.230103 0.572836 11.572429
-1.244328 0.583968 11.574917
-1.258553 0.595100 11.577406
-1.272778 0.606231 11.579895
-1.287003 0.617363 11.582384
-1.322542 0.642887 11.588485
-1.337264 0.653345 11.591007
-1.351987 0.663803 11.593528
-1.366709 0.674261 11.596050
-1.381591 0.684481 11.598581
-1.396733 0.694314 11.601128
-1.433424 0.718143 11.607299
-1.448566 0.727976 11.609846
-1.463720 0.737791 11.612393
-1.479218 0.747048 11.614959
-1.494716 0.756305 11.617524
-1.510214 0.765562 11.620090
27 NaN NaN
-1.076035 -1.507168 11.445923
-1.020541 -1.417820 11.442960
-0.967817 -1.326798 11.440456
-0.918211 -1.234028 11.438463
-0.872129 -1.139450 11.437038
-0.830040 -1.043022 11.436247
-0.792489 -0.944738 11.436164
-0.760095 -0.844641 11.436870
-0.733552 -0.742849 11.438453
-0.713619 -0.639582 11.441005
-0.701090 -0.535194 11.444614
-0.696738 -0.430197 11.449360
-0.701245 -0.325271 11.455301
-0.715105 -0.221247 11.462459
-0.738539 -0.119047 11.470820
-0.771439 -0.019591 11.480321
-0.813368 0.076301 11.490861
-0.863627 0.167996 11.502315
-0.921347 0.255088 11.514543
-0.985597 0.337390 11.527411
-1.055463 0.414899 11.540794
-1.130106 0.487747 11.554587
-1.208787 0.556155 11.568699
-1.290871 0.620389 11.583060
-1.375824 0.680735 11.597611
-1.463201 0.737481 11.612307
-1.552633 0.790900 11.627112
-0.941949 -1.258234 9.605211
-0.858393 -1.074566 9.581133
-0.789373 -0.884437 9.561925
-0.738622 -0.688193 9.548804
-0.710601 -0.487168 9.543205
-0.709908 -0.284244 9.546580
-0.740007 -0.084057 9.559982
-0.801682 0.107772 9.583567
-0.892395 0.286312 9.616417
-1.007276 0.448754 9.656888
-1.140875 0.594578 9.703189
-1.288414 0.724789 9.753773
-1.446280 0.840921 9.807487
-0.941095 -1.256442 9.604963
-0.859180 -1.076390 9.581358
-0.857605 -1.072741 9.580907
-0.790001 -0.886328 9.562097
-0.788745 -0.882546 9.561754
-0.739048 -0.690144 9.548909
-0.738197 -0.686241 9.548700
-0.710774 -0.489160 9.543226
-0.710429 -0.485175 9.543184
-0.709779 -0.286239 9.546503
-0.710036 -0.282250 9.546658
-0.739551 -0.085995 9.559799
-0.740463 -0.082118 9.560166
-0.800908 0.105950 9.583281
-0.802456 0.109594 9.583853
-0.891348 0.284649 9.616045
-0.893441 0.287976 9.616789
-1.006017 0.447263 9.656450
-1.008535 0.450245 9.657327
-1.139459 0.593253 9.702702
-1.142292 0.595902 9.703676
-1.286883 0.723612 9.753251
-1.289945 0.725965 9.754295
-1.444705 0.839811 9.806952
-0.937417 -1.248727 9.603897
-0.862572 -1.084248 9.582328
-0.854281 -1.064853 9.579960
-0.792705 -0.894472 9.562838
-0.786040 -0.874401 9.561013
-0.740879 -0.698549 9.549359
-0.736366 -0.677836 9.548250
-0.711515 -0.497742 9.543316
-0.709688 -0.476594 9.543094
-0.709225 -0.294828 9.546169
-0.710590 -0.273661 9.546992
-0.737585 -0.094344 9.559007
-0.742429 -0.073769 9.560958
-0.797575 0.098103 9.582052
-0.805789 0.117441 9.585082
-0.886842 0.277485 9.614443
-0.897947 0.295140 9.618390
-1.000593 0.440843 9.654561
-1.013958 0.456665 9.659215
-1.133357 0.587546 9.700604
-1.148394 0.601609 9.705774
-1.280439 0.718340 9.751050
-1.296539 0.731031 9.756542
-1.437918 0.835034 9.804646
-0.928407 -1.229830 9.601284
-0.916465 -1.204781 9.597822
-0.904522 -1.179731 9.594359
-0.892906 -1.154519 9.591006
-0.881893 -1.129007 9.587855
-0.870880 -1.103494 9.584705
-0.846764 -1.045254 9.577848
-0.836799 -1.019274 9.575049
-0.826835 -0.993294 9.572250
-0.816893 -0.967305 9.569459
-0.808112 -0.940862 9.567055
-0.799330 -0.914420 9.564651
-0.780066 -0.854238 9.559417
-0.772619 -0.827353 9.557457
-0.765172 -0.800468 9.555498
-0.757725 -0.773583 9.553539
-0.751310 -0.746421 9.551922
-0.745364 -0.719134 9.550461
-0.732143 -0.657199 9.547235
-0.727876 -0.629575 9.546329
-0.723609 -0.601952 9.545423
-0.719342 -0.574328 9.544517
-0.715738 -0.546620 9.543830
-0.713331 -0.518759 9.543537
-0.707872 -0.455577 9.542873
-0.707140 -0.427633 9.543129
-0.706764 -0.399672 9.543503
-0.706388 -0.371712 9.543876
-0.706068 -0.343752 9.544268
-0.707867 -0.315865 9.545352
-0.711948 -0.252623 9.547809
-0.714872 -0.224875 9.549258
-0.718945 -0.197267 9.551081
-0.723018 -0.169659 9.552904
-0.727091 -0.142052 9.554727
-0.732770 -0.114793 9.557069
-0.747244 -0.053321 9.562896
-0.754000 -0.026333 9.565585
-0.762655 0.000055 9.568886
-0.771310 0.026442 9.572186
-0.779965 0.052830 9.575486
-0.789412 0.078884 9.579040
-0.813952 0.136660 9.588094
-0.824773 0.162136 9.592087
-0.837266 0.186729 9.596611
-0.850091 0.211146 9.601241
-0.862916 0.235562 9.605871
-0.875805 0.259938 9.610520
-0.908985 0.312686 9.622313
-0.923615 0.335945 9.627513
-0.939048 0.358598 9.632964
-0.955272 0.380652 9.638664
-0.971496 0.402706 9.644364
-0.987720 0.424761 9.650064
-1.027241 0.472389 9.663840
-1.044848 0.493234 9.669971
-1.062661 0.513874 9.676165
-1.081457 0.533535 9.682664
-1.100253 0.553197 9.689163
-1.119049 0.572858 9.695662
-1.163339 0.615585 9.710912
-1.183149 0.634112 9.717722
-1.202960 0.652640 9.724533
-1.223496 0.670265 9.731565
-1.244170 0.687719 9.738639
-1.264843 0.705173 9.745713
-1.312688 0.743440 9.762047
-1.334096 0.759888 9.769343
-1.355504 0.776337 9.776640
-1.377230 0.792309 9.784032
-1.399264 0.807820 9.791516
-1.421297 0.823332 9.799000
24 NaN NaN
-0.942163 -1.258682 9.605273
-0.896780 -1.163494 9.592114
-0.854931 -1.066548 9.580143
-0.817067 -0.967826 9.569506
-0.783698 -0.867350 9.560372
-0.755401 -0.765195 9.552927
-0.732809 -0.661512 9.547376
-0.716597 -0.556556 9.543935
-0.707451 -0.450704 9.542821
-0.706022 -0.344474 9.544240
-0.712857 -0.238529 9.548357
-0.728331 -0.133647 9.555282
-0.752577 -0.030671 9.565043
-0.785457 0.069574 9.577580
-0.826567 0.166360 9.592749
-0.875292 0.259123 9.610338
-0.930879 0.347492 9.630094
-0.992520 0.431286 9.651750
-1.059421 0.510485 9.675045
-1.130839 0.585192 9.699739
-1.206115 0.655591 9.725618
-1.284672 0.721914 9.752498
-1.366021 0.784417 9.780224
-1.449747 0.843361 9.808665
-1.112974 -1.424470 6.530979
-0.979322 -1.222772 6.565874
-0.864392 -1.010216 6.602490
-0.774998 -0.786113 6.640903
-0.721026 -0.551334 6.680905
-0.715175 -0.310828 6.721583
-0.763479 -0.075150 6.761115
-0.864386 0.143916 6.797521
-1.008521 0.338365 6.829505
-1.182940 0.507199 6.856976
-1.376939 0.653922 6.880592
-1.111841 -1.422845 6.531260
-0.980333 -1.224472 6.565580
-0.978312 -1.221071 6.566167
-0.865242 -1.012000 6.602184
-0.863542 -1.008432 6.602797
-0.775635 -0.787982 6.640584
-0.774362 -0.784245 6.641223
-0.721212 -0.553297 6.680572
-0.720841 -0.549371 6.681238
-0.714976 -0.312790 6.721252
-0.715374 -0.308865 6.721913
-0.762875 -0.077031 6.760801
-0.764083 -0.073270 6.761429
-0.863419 0.142189 6.797235
-0.865352 0.145644 6.797807
-1.007164 0.336915 6.829268
-1.009878 0.339814 6.829742
-1.181415 0.505922 6.856770
-1.184465 0.508477 6.857183
-1.375297 0.652794 6.880412
-1.106144 -1.414677 6.532675
-0.985417 -1.233025 6.564104
-0.973228 -1.212518 6.567644
-0.869518 -1.020973 6.600642
-0.859266 -0.999459 6.604339
-0.778836 -0.797381 6.638976
-0.771160 -0.774845 6.642831
-0.722592 -0.563111 6.678905
-0.719907 -0.539496 6.682912
-0.713976 -0.322660 6.719590
-0.716374 -0.298995 6.723575
-0.759837 -0.086488 6.759221
-0.767122 -0.063812 6.763009
-0.858558 0.133501 6.795797
-0.870213 0.154331 6.799246
-1.000337 0.329624 6.828078
-1.016705 0.347105 6.830932
-1.173744 0.499499 6.855731
-1.192136 0.514900 6.858222
-1.367041 0.647120 6.879503
-1.091701 -1.393970 6.536262
-1.072511 -1.366455 6.541028
-1.053320 -1.338940 6.545794
-1.035033 -1.310834 6.550654
-1.016807 -1.282688 6.555521
-0.998581 -1.254542 6.560388
-0.960341 -1.190834 6.571386
-0.943217 -1.162023 6.576359
-0.927077 -1.132669 6.581417
-0.911217 -1.103161 6.586500
-0.895357 -1.073654 6.591582
-0.880359 -1.043721 6.596732
-0.848426 -0.976711 6.608249
-0.835066 -0.946034 6.613514
-0.822342 -0.915082 6.618822
-0.809618 -0.884131 6.624130
-0.797737 -0.852871 6.629484
-0.786953 -0.821209 6.634900
-0.764081 -0.750712 6.646952
-0.755527 -0.718393 6.652465
-0.746974 -0.686074 6.657979
-0.739128 -0.653601 6.663514
-0.733121 -0.620726 6.669105
-0.727113 -0.587852 6.674697
-0.717541 -0.514463 6.687157
-0.714397 -0.481201 6.692797
-0.711637 -0.447921 6.698437
-0.711644 -0.414511 6.704083
-0.711650 -0.381102 6.709729
-0.711656 -0.347692 6.715374
-0.718910 -0.273973 6.727788
-0.722279 -0.240726 6.733385
-0.728991 -0.207978 6.738879
-0.735818 -0.175247 6.744368
-0.742645 -0.142516 6.749858
-0.752133 -0.110465 6.755216
-0.774825 -0.039835 6.767014
-0.787672 -0.008936 6.772157
-0.801126 0.021740 6.777260
-0.814579 0.052417 6.782362
-0.829860 0.082211 6.787304
-0.846235 0.111476 6.792150
-0.884221 0.175342 6.802711
-0.903162 0.203063 6.807281
-0.922103 0.230784 6.811850
-0.942078 0.257757 6.816287
-0.963219 0.283886 6.820574
-0.984360 0.310016 6.824861
-1.034013 0.365588 6.833951
-1.057009 0.390147 6.837961
-1.080492 0.414234 6.841889
-1.105040 0.437287 6.845635
-1.129587 0.460340 6.849382
-1.154298 0.483214 6.853097
-1.211582 0.531184 6.860856
-1.237588 0.552617 6.864319
-1.264502 0.572940 6.867590
-1.291415 0.593264 6.870861
-1.318328 0.613587 6.874132
-1.346111 0.632736 6.877200
24 NaN NaN
-1.113257 -1.424876 6.530908
-1.052092 -1.337178 6.546099
-0.994002 -1.247470 6.561611
-0.939424 -1.155642 6.577460
-0.888877 -1.061597 6.593659
-0.842971 -0.965265 6.610217
-0.802421 -0.866623 6.627132
-0.768053 -0.765723 6.644391
-0.740797 -0.662733 6.661960
-0.721654 -0.557978 6.679778
-0.711636 -0.451993 6.697749
-0.711657 -0.345545 6.715737
-0.722392 -0.239618 6.733572
-0.744143 -0.135338 6.751062
-0.776752 -0.033836 6.768016
-0.819616 0.063902 6.784272
-0.871790 0.157149 6.799712
-0.932144 0.245479 6.814273
-0.999512 0.328744 6.827934
-1.072798 0.407008 6.840714
-1.151029 0.480476 6.852654
-1.233377 0.549436 6.863808
-1.319152 0.614209 6.874233
-1.407789 0.675123 6.883988
