0.152629 0.152641 0.152791 0.153457 0.154512 0.155424 0.156335 0.157247 0.158008 0.158489 0.158590 0.158597 0.158605 0.158705 0.159149 0.159852 0.160579 0.161307 0.162034 0.162816 0.163309 0.163423 0.163431 0.163440 0.163553 0.164081 0.164917 0.165835 0.166753 0.167671 0.168641 0.169254 0.169390 0.169401 0.169411 0.169548 0.170172 0.171161 0.172141 0.173121 0.174102 0.175048 0.175645 0.175772 0.175782 0.175792 0.175915 0.176472 0.177353 0.178146 0.178938 0.179730 0.180398 0.180820 0.180906 0.180913 
0.152623 0.152612 0.152502 0.152207 0.151812 0.151435 0.151058 0.150681 0.150324 0.150057 0.149962 0.149952 0.149942 0.149848 0.149589 0.149244 0.148900 0.148557 0.148213 0.147870 0.147613 0.147520 0.147510 0.147500 0.147406 0.147147 0.146800 0.146448 0.146097 0.145746 0.145398 0.145138 0.145046 0.145036 0.145026 0.144936 0.144702 0.144389 0.144109 0.143829 0.143548 0.143283 0.143085 0.143015 0.143007 0.143000 0.142930 0.142741 0.142487 0.142239 0.141992 0.141744 0.141498 0.141314 0.141247 0.141240 0.141233 0.141167 0.140983 0.140736 0.140490 0.140243 0.139996 0.139752 0.139570 0.139504 0.139497 0.139490 0.139425 0.139244 0.139003 0.138767 0.138530 0.138294 0.138062 0.137888 0.137826 0.137819 0.137813 0.137751 0.137580 0.137352 0.137128 0.136903 0.136679 0.136460 0.136295 0.136236 0.136230 0.136224 0.136165 0.136002 0.135785 0.135572 0.135360 0.135147 0.134938 0.134782 0.134726 0.134720 0.134715 0.134659 0.134505 0.134299 0.134098 0.133898 0.133697 0.133500 0.133353 0.133300 0.133295 0.133289 0.133237 0.133092 0.132900 0.132711 0.132522 0.132333 0.132148 0.132010 0.131960 0.131955 0.131950 0.131900 0.131765 0.131583 0.131406 0.131228 0.131051 0.130877 0.130747 0.130701 0.130696 0.130691 0.130644 0.130517 0.130347 0.130180 0.130013 0.129846 0.129683 0.129560 0.129517 0.129512 
0.152628 0.152635 0.152739 0.152930 0.153233 0.152571 0.151910 0.151248 0.150315 0.149726 0.149590 0.149580 0.149570 0.149436 0.148831 0.147871 0.146976 0.146080 0.145184 0.144282 0.143713 0.143594 0.143586 0.143577 0.143459 0.142952 0.142149 0.141477 0.140806 0.140134 0.139470 0.139052 0.138956 0.138949 0.138942 0.138845 0.138361 0.137595 0.136639 0.135682 0.134726 0.133606 0.132899 0.132741 0.132730 0.132719 0.132562 0.131717 0.130378 0.128527 0.126676 0.124825 0.123172 0.122129 0.121929 0.121915 0.121901 0.121708 0.120982 0.119832 0.119127 0.118422 0.117718 0.117276 0.116997 0.116945 0.116942 0.116938 0.116887 0.116688 0.116372 0.116146 0.115919 0.115693 0.115523 0.115416 0.115395 0.115393 0.115392 0.115371 0.115284 0.115146 0.115034 0.114921 0.114808 0.114713 0.114652 0.114640 0.114639 0.114638 0.114626 0.114572 0.114488 0.114413 0.114339 0.114264 0.114199 0.114157 0.114149 0.114148 0.114147 0.114139 0.114102 0.114043 0.113992 0.113942 0.113891 0.113847 0.113820 0.113814 0.113814 0.113813 0.113808 0.113784 0.113746 0.113714 0.113682 0.113650 0.113623 0.113606 0.113602 0.113602 0.113602 0.113599 0.113584 0.113561 0.113542 0.113524 0.113505 0.113490 0.113481 0.113479 0.113479 0.113479 0.113477 0.113469 0.113458 0.113449 0.113440 0.113431 0.113417 0.113408 0.113405 0.113405 
0.163428 0.163414 0.163346 0.163174 0.162944 0.162710 0.162477 0.162243 0.162011 0.161837 0.161768 0.161754 0.161740 0.161671 0.161499 0.161269 0.161049 0.160829 0.160609 0.160396 0.160235 0.160172 0.160159 0.160146 0.160084 0.159931 0.159728 0.159537 0.159346 0.159155 0.158974 0.158838 0.158785 0.158774 0.158763 0.158710 0.158581 0.158409 0.158243 0.158078 0.157912 0.157750 0.157627 0.157581 0.157571 0.157562 0.157515 0.157398 0.157242 0.157094 0.156946 0.156797 0.156662 0.156561 0.156524 0.156516 0.156509 0.156472 0.156384 0.156267 0.156173 0.156078 0.155983 0.155907 0.155850 0.155828 0.155824 0.155820 0.155799 0.155753 0.155691 0.155642 0.155593 0.155544 0.155508 0.155480 0.155469 0.155467 0.155465 0.155456 0.155437 0.155413 0.155394 0.155374 0.155355 0.155341 0.155331 0.155330 0.155329 0.155329 0.155327 0.155323 0.155317 0.155316 0.155315 0.155314 0.155318 0.155320 0.155322 0.155322 0.155322 0.155324 0.155328 0.155334 0.155343 0.155352 0.155361 0.155373 0.155382 0.155385 0.155386 
0.158595 0.158585 0.158538 0.158413 0.158248 0.158069 0.157891 0.157712 0.157522 0.157379 0.157322 0.157310 0.157299 0.157241 0.157092 0.156893 0.156690 0.156486 0.156282 0.156084 0.155936 0.155879 0.155868 0.155856 0.155800 0.155663 0.155480 0.155320 0.155160 0.154999 0.154889 0.154806 0.154772 0.154766 0.154759 0.154726 0.154641 0.154527 0.154411 0.154295 0.154179 0.154060 0.153970 0.153934 0.153926 0.153919 0.153883 0.153790 0.153666 0.153538 0.153410 0.153282 0.153147 0.153046 0.153006 0.152998 0.152989 0.152949 0.152844 0.152705 0.152564 0.152424 0.152283 0.152148 0.152046 0.152008 0.152000 0.151993 0.151954 0.151860 0.151734 0.151627 0.151520 0.151412 0.151327 0.151264 0.151240 0.151236 0.151231 0.151208 0.151158 0.151091 0.151042 0.150993 0.150944 0.150908 0.150882 0.150871 0.150869 0.150867 0.150856 0.150839 0.150816 0.150800 0.150784 0.150768 0.150757 0.150749 0.150747 0.150746 0.150746 0.150746 0.150743 0.150740 0.150740 0.150740 0.150741 0.150744 0.150746 0.150748 0.150748 0.150749 0.150751 0.150755 0.150761 0.150770 0.150779 0.150788 0.150798 0.150806 0.150809 0.150810 
0.149952 0.149953 0.149963 0.149979 0.150000 0.149989 0.149978 0.149966 0.149916 0.149878 0.149860 0.149857 0.149855 0.149838 0.149765 0.149668 0.149568 0.149468 0.149369 0.149363 0.149359 0.149357 0.149356 0.149356 0.149354 0.149347 0.149337 0.149319 0.149301 0.149283 0.149253 0.149231 0.149221 0.149220 0.149219 0.149209 0.149176 0.149133 0.149070 0.149007 0.148944 0.148855 0.148789 0.148762 0.148759 0.148755 0.148728 0.148650 0.148545 0.148450 0.148355 0.148260 0.148189 0.148136 0.148119 0.148117 0.148115 0.148100 0.148067 0.148022 0.147992 0.147963 0.147934 0.147913 0.147897 0.147891 0.147891 0.147890 0.147884 0.147871 0.147854 0.147838 0.147822 0.147806 0.147792 0.147781 0.147777 0.147777 
0.147509 0.147504 0.147485 0.147439 0.147377 0.147306 0.147235 0.147163 0.147079 0.147016 0.146987 0.146981 0.146973 0.146944 0.146869 0.146770 0.146703 0.146636 0.146568 0.146533 0.146507 0.146496 0.146493 0.146490 0.146479 0.146451 0.146415 0.146378 0.146341 0.146304 0.146265 0.146236 0.146224 0.146221 0.146218 0.146206 0.146175 0.146135 0.146094 0.146052 0.146011 0.145967 0.145934 0.145920 0.145917 0.145914 0.145900 0.145865 0.145819 0.145771 0.145723 0.145675 0.145624 0.145585 0.145569 0.145565 0.145561 0.145544 0.145504 0.145451 0.145395 0.145340 0.145284 0.145226 0.145182 0.145164 0.145160 0.145155 0.145137 0.145092 0.145032 0.144975 0.144919 0.144862 0.144807 0.144765 0.144748 0.144744 0.144739 0.144722 0.144686 0.144638 0.144594 0.144550 0.144506 0.144472 0.144447 0.144437 0.144434 0.144432 0.144422 0.144399 0.144370 0.144349 0.144328 0.144307 0.144292 0.144279 0.144276 0.144275 0.144274 0.144270 0.144261 0.144250 0.144242 0.144235 0.144228 0.144222 0.144219 0.144217 0.144217 0.144216 0.144216 0.144215 0.144215 0.144215 0.144215 0.144215 0.144218 0.144219 0.144220 0.144220 0.144221 0.144221 0.144224 0.144228 0.144234 0.144240 0.144246 0.144253 0.144258 0.144261 0.144261 
0.143006 0.143001 0.142985 0.142953 0.142911 0.142880 0.142849 0.142818 0.142787 0.142763 0.142752 0.142748 0.142745 0.142734 0.142709 0.142677 0.142644 0.142611 0.142578 0.142544 0.142519 0.142507 0.142503 0.142499 0.142487 0.142461 0.142425 0.142389 0.142353 0.142316 0.142278 0.142249 0.142236 0.142232 0.142228 0.142214 0.142186 0.142148 0.142108 0.142068 0.142028 0.141986 0.141954 0.141939 0.141935 0.141930 0.141915 0.141882 0.141838 0.141794 0.141749 0.141704 0.141659 0.141624 0.141609 0.141604 0.141599 0.141583 0.141548 0.141502 0.141456 0.141410 0.141365 0.141324 0.141292 0.141279 0.141274 0.141270 0.141256 0.141226 0.141187 0.141151 0.141115 0.141079 0.141049 0.141026 0.141016 0.141013 0.141010 0.141000 0.140978 0.140950 0.140929 0.140908 0.140888 0.140870 0.140856 0.140850 0.140848 0.140846 0.140840 0.140830 0.140816 0.140808 0.140801 0.140793 0.140786 0.140781 0.140778 0.140777 0.140777 0.140776 0.140776 0.140776 0.140775 0.140775 0.140774 0.140776 0.140777 0.140779 0.140779 0.140780 0.140782 0.140786 0.140791 0.140797 0.140802 0.140808 0.140817 0.140824 0.140827 0.140828 0.140829 0.140832 0.140839 0.140848 0.140859 0.140869 0.140880 0.140892 0.140901 0.140906 0.140907 0.140908 0.140913 0.140922 0.140934 0.140949 0.140963 0.140978 0.140993 0.141004 0.141009 0.141011 0.141013 0.141018 0.141030 0.141047 0.141064 0.141081 0.141098 0.141115 0.141128 0.141134 0.141137 
0.137818 0.137814 0.137795 0.137748 0.137684 0.137621 0.137558 0.137495 0.137432 0.137384 0.137365 0.137362 0.137358 0.137339 0.137291 0.137228 0.137166 0.137104 0.137042 0.136981 0.136935 0.136917 0.136913 0.136909 0.136892 0.136847 0.136787 0.136751 0.136715 0.136679 0.136655 0.136638 0.136632 0.136631 0.136629 0.136624 0.136611 0.136594 0.136585 0.136576 0.136567 0.136565 0.136564 0.136564 0.136564 0.136564 0.136563 0.136565 0.136567 0.136575 0.136584 0.136592 0.136605 0.136616 0.136620 0.136621 0.136622 0.136626 0.136640 0.136658 0.136680 0.136702 0.136724 0.136750 0.136770 0.136779 0.136780 
0.131955 0.131955 0.131957 0.131962 0.131968 0.131973 0.131978 0.131982 0.131985 0.131988 0.131988 0.131989 0.131989 0.131990 0.131991 0.131992 0.131992 0.131992 0.131992 0.131990 0.131989 0.131988 0.131988 0.131988 0.131987 0.131985 0.131982 0.131979 0.131976 0.131973 0.131985 0.131995 0.131998 0.131999 0.132000 0.132004 0.132014 0.132026 0.132038 0.132049 0.132060 0.132071 0.132079 0.132082 0.132083 0.132083 0.132086 0.132093 0.132102 0.132110 0.132119 0.132127 0.132133 0.132138 0.132140 0.132141 0.132141 0.132143 0.132147 0.132152 0.132157 0.132162 0.132167 0.132171 0.132173 0.132175 0.132175 0.132175 0.132176 0.132178 0.132181 0.132184 0.132186 0.132188 0.132190 0.132191 0.132192 0.132192 
0.129512 0.129510 0.129497 0.129463 0.129417 0.129374 0.129331 0.129288 0.129247 0.129216 0.129205 0.129203 0.129201 0.129190 0.129171 0.129145 0.129144 0.129144 0.129144 0.129147 0.129150 0.129151 0.129152 0.129152 0.129154 0.129158 0.129164 0.129173 0.129182 0.129191 0.129203 0.129212 0.129216 0.129216 
