0.174322 0.174302 0.174032 0.172930 0.171183 0.169767 0.168352 0.166936 0.165657 0.164849 0.164676 0.164663 0.164650 0.164478 0.163715 0.162505 0.161403 0.160301 0.159199 0.158154 0.157495 0.157349 0.157337 0.157326 0.157181 0.156515 0.155460 0.154406 0.153351 0.152296 0.151282 0.150642 0.150503 0.150493 0.150483 0.150345 0.149738 0.148776 0.147880 0.146984 0.146088 0.145258 0.144734 0.144623 0.144614 0.144606 0.144494 0.144002 0.143223 0.142499 0.141776 0.141052 0.140377 0.139950 0.139859 0.139852 
0.174334 0.174362 0.174620 0.175283 0.176169 0.176868 0.177566 0.178265 0.178770 0.179148 0.179263 0.179276 0.179287 0.179398 0.179664 0.180019 0.180242 0.180465 0.180689 0.180797 0.180878 0.180891 0.180892 0.180893 0.180900 0.180894 0.180888 0.180758 0.180629 0.180500 0.180301 0.180152 0.180100 0.180095 0.180090 0.180043 0.180005 0.179954 0.180074 0.180195 0.180315 0.180513 0.180660 0.180721 0.180728 0.180734 0.180796 0.180986 0.181239 0.181515 0.181791 0.182067 0.182339 0.182543 0.182614 0.182622 0.182629 0.182699 0.182891 0.183148 0.183394 0.183641 0.183888 0.184137 0.184323 0.184393 0.184400 0.184407 0.184476 0.184660 0.184906 0.185161 0.185415 0.185670 0.185911 0.186092 0.186154 0.186161 0.186167 0.186231 0.186398 0.186620 0.186812 0.187003 0.187194 0.187357 0.187479 0.187513 0.187517 0.187520 0.187549 0.187611 0.187692 0.187727 0.187762 0.187798 0.187766 0.187742 0.187723 0.187721 0.187718 0.187697 0.187620 0.187518 0.187374 0.187229 0.187085 0.186892 0.186748 0.186690 0.186684 0.186678 0.186618 0.186443 0.186208 0.185932 0.185655 0.185378 0.185074 0.184846 0.184760 0.184751 0.184742 0.184655 0.184405 0.184071 0.183717 0.183363 0.183009 0.182641 0.182366 0.182265 0.182255 0.182244 0.182143 0.181859 0.181481 0.181094 0.180708 0.180321 0.179930 0.179637 0.179533 0.179522 
0.174325 0.174317 0.174193 0.173282 0.171839 0.171062 0.170285 0.169508 0.169365 0.169274 0.169256 0.169255 0.169254 0.169244 0.169169 0.169050 0.168676 0.168303 0.167929 0.167627 0.167437 0.167391 0.167388 0.167385 0.167345 0.166960 0.166349 0.165512 0.164675 0.163838 0.162976 0.162432 0.162313 0.162304 0.162296 0.162178 0.161574 0.160618 0.159162 0.157707 0.156251 0.154209 0.152920 0.152615 0.152593 0.152571 0.152264 0.150574 0.147896 0.144227 0.140558 0.136888 0.133645 0.131597 0.131202 0.131174 0.131147 0.130764 0.129301 0.126984 0.125511 0.124039 0.122567 0.121617 0.121018 0.120906 0.120898 0.120890 0.120780 0.120347 0.119661 0.119170 0.118679 0.118188 0.117828 0.117601 0.117557 0.117554 0.117551 0.117507 0.117328 0.117045 0.116823 0.116601 0.116379 0.116201 0.116089 0.116066 0.116065 0.116063 0.116040 0.115945 0.115793 0.115665 0.115538 0.115410 0.115302 0.115234 0.115220 0.115219 0.115218 0.115204 0.115144 0.115050 0.114970 0.114890 0.114810 0.114741 0.114698 0.114689 0.114688 0.114688 0.114679 0.114641 0.114582 0.114530 0.114479 0.114427 0.114383 0.114355 0.114349 0.114348 0.114348 0.114342 0.114317 0.114278 0.114244 0.114210 0.114175 0.114147 0.114128 0.114124 0.114124 0.114124 0.114120 0.114104 0.114080 0.114057 0.114035 0.114012 0.113975 0.113951 0.113944 0.113943 
0.157335 0.157325 0.157276 0.157148 0.156977 0.156789 0.156600 0.156411 0.156211 0.156060 0.155998 0.155985 0.155973 0.155910 0.155751 0.155539 0.155321 0.155103 0.154884 0.154658 0.154487 0.154419 0.154405 0.154391 0.154323 0.154151 0.153922 0.153694 0.153466 0.153238 0.153012 0.152842 0.152776 0.152762 0.152749 0.152682 0.152512 0.152286 0.152060 0.151834 0.151608 0.151381 0.151211 0.151142 0.151128 0.151114 0.151045 0.150871 0.150640 0.150433 0.150227 0.150020 0.149832 0.149690 0.149636 0.149625 0.149615 0.149561 0.149431 0.149257 0.149098 0.148938 0.148779 0.148631 0.148520 0.148476 0.148468 0.148459 0.148416 0.148312 0.148175 0.148045 0.147915 0.147786 0.147664 0.147572 0.147536 0.147529 0.147522 0.147486 0.147401 0.147287 0.147178 0.147068 0.146958 0.146852 0.146773 0.146743 0.146737 0.146731 0.146702 0.146626 0.146527 0.146431 0.146336 0.146240 0.146148 0.146079 0.146052 0.146047 0.146041 0.146014 0.145947 0.145857 0.145770 0.145683 0.145596 0.145512 0.145448 0.145423 0.145418 
0.164662 0.164656 0.164626 0.164537 0.164419 0.164254 0.164089 0.163924 0.163717 0.163562 0.163495 0.163482 0.163468 0.163400 0.163216 0.162970 0.162694 0.162418 0.162142 0.161854 0.161637 0.161552 0.161535 0.161518 0.161433 0.161220 0.160936 0.160674 0.160412 0.160149 0.159965 0.159826 0.159770 0.159759 0.159748 0.159692 0.159546 0.159352 0.159149 0.158945 0.158742 0.158528 0.158368 0.158304 0.158291 0.158278 0.158213 0.158043 0.157816 0.157579 0.157343 0.157106 0.156857 0.156671 0.156594 0.156579 0.156563 0.156487 0.156291 0.156030 0.155765 0.155500 0.155235 0.154977 0.154783 0.154708 0.154693 0.154678 0.154604 0.154420 0.154176 0.153951 0.153726 0.153501 0.153302 0.153152 0.153096 0.153084 0.153073 0.153017 0.152883 0.152706 0.152549 0.152393 0.152236 0.152095 0.151989 0.151947 0.151939 0.151930 0.151889 0.151794 0.151668 0.151551 0.151434 0.151318 0.151209 0.151127 0.151095 0.151089 0.151083 0.151054 0.150979 0.150880 0.150786 0.150692 0.150598 0.150508 0.150441 0.150415 0.150410 0.150405 0.150380 0.150315 0.150229 0.150147 0.150064 0.149982 0.149901 0.149840 0.149816 0.149812 
0.179271 0.179252 0.179097 0.178650 0.178053 0.177361 0.176670 0.175978 0.175174 0.174572 0.174338 0.174309 0.174281 0.174055 0.173360 0.172433 0.171529 0.170626 0.169722 0.169167 0.168752 0.168602 0.168584 0.168565 0.168416 0.168010 0.167469 0.166924 0.166380 0.165836 0.165279 0.164861 0.164706 0.164686 0.164667 0.164512 0.164085 0.163514 0.162922 0.162330 0.161738 0.161118 0.160654 0.160484 0.160462 0.160441 0.160271 0.159817 0.159210 0.158676 0.158141 0.157606 0.157173 0.156849 0.156738 0.156724 0.156711 0.156607 0.156354 0.156017 0.155754 0.155491 0.155228 0.155013 0.154851 0.154796 0.154789 0.154782 0.154727 0.154593 0.154415 0.154260 0.154105 0.153950 0.153812 0.153709 0.153673 0.153669 
0.180884 0.180850 0.180716 0.180390 0.179959 0.179489 0.179018 0.178548 0.178022 0.177624 0.177451 0.177409 0.177365 0.177189 0.176741 0.176146 0.175718 0.175289 0.174861 0.174595 0.174395 0.174311 0.174290 0.174270 0.174186 0.173987 0.173723 0.173455 0.173187 0.172919 0.172652 0.172450 0.172364 0.172343 0.172321 0.172235 0.172028 0.171754 0.171476 0.171198 0.170920 0.170636 0.170422 0.170333 0.170311 0.170289 0.170200 0.169981 0.169689 0.169394 0.169098 0.168803 0.168495 0.168263 0.168166 0.168143 0.168119 0.168022 0.167790 0.167482 0.167167 0.166851 0.166536 0.166219 0.165980 0.165880 0.165855 0.165830 0.165729 0.165489 0.165170 0.164867 0.164563 0.164259 0.163966 0.163745 0.163654 0.163632 0.163610 0.163520 0.163318 0.163051 0.162800 0.162550 0.162300 0.162085 0.161923 0.161857 0.161841 0.161825 0.161759 0.161609 0.161409 0.161240 0.161071 0.160902 0.160749 0.160634 0.160591 0.160581 0.160570 0.160527 0.160424 0.160287 0.160166 0.160046 0.159926 0.159813 0.159728 0.159693 0.159684 0.159676 0.159645 0.159574 0.159479 0.159387 0.159295 0.159203 0.159121 0.159059 0.159033 0.159027 0.159021 0.158995 0.158936 0.158859 0.158788 0.158717 0.158646 0.158581 0.158532 0.158512 0.158507 
0.180718 0.180678 0.180557 0.180316 0.179997 0.179763 0.179528 0.179294 0.179060 0.178882 0.178800 0.178773 0.178747 0.178664 0.178482 0.178242 0.178002 0.177762 0.177521 0.177276 0.177090 0.177005 0.176977 0.176950 0.176865 0.176675 0.176425 0.176168 0.175911 0.175654 0.175391 0.175191 0.175100 0.175070 0.175041 0.174950 0.174753 0.174494 0.174221 0.173947 0.173674 0.173397 0.173187 0.173091 0.173060 0.173028 0.172932 0.172716 0.172432 0.172148 0.171863 0.171579 0.171297 0.171082 0.170983 0.170951 0.170919 0.170821 0.170606 0.170322 0.170044 0.169767 0.169489 0.169235 0.169042 0.168956 0.168928 0.168901 0.168816 0.168632 0.168390 0.168166 0.167942 0.167717 0.167518 0.167366 0.167299 0.167277 0.167255 0.167189 0.167046 0.166859 0.166699 0.166540 0.166381 0.166236 0.166125 0.166076 0.166059 0.166043 0.165994 0.165895 0.165765 0.165660 0.165555 0.165450 0.165346 0.165267 0.165231 0.165219 0.165209 0.165178 0.165123 0.165049 0.164973 0.164896 0.164819 0.164751 0.164699 0.164681 0.164675 0.164669 0.164651 0.164611 0.164558 0.164504 0.164451 0.164397 0.164361 0.164333 0.164320 0.164316 0.164312 0.164299 0.164270 0.164232 0.164200 0.164168 0.164135 0.164111 0.164092 0.164083 0.164080 0.164077 0.164068 0.164048 0.164022 0.164006 0.163991 0.163975 0.163958 0.163946 0.163940 0.163939 0.163937 0.163931 0.163923 0.163912 0.163904 0.163895 0.163887 0.163878 0.163872 0.163870 0.163870 
0.186148 0.186096 0.185850 0.185249 0.184451 0.183700 0.182949 0.182198 0.181488 0.180952 0.180745 0.180701 0.180658 0.180452 0.179943 0.179267 0.178631 0.177995 0.177360 0.176766 0.176318 0.176149 0.176113 0.176077 0.175908 0.175490 0.174935 0.174515 0.174094 0.173673 0.173330 0.173072 0.172977 0.172957 0.172938 0.172844 0.172620 0.172323 0.172072 0.171822 0.171571 0.171360 0.171201 0.171138 0.171125 0.171112 0.171049 0.170905 0.170713 0.170550 0.170387 0.170224 0.170090 0.169989 0.169947 0.169938 0.169930 0.169888 0.169802 0.169688 0.169592 0.169496 0.169401 0.169328 0.169273 0.169251 0.169246 
0.184742 0.184708 0.184562 0.184216 0.183758 0.183324 0.182889 0.182455 0.182047 0.181739 0.181614 0.181585 0.181555 0.181431 0.181142 0.180760 0.180398 0.180036 0.179673 0.179341 0.179091 0.178989 0.178965 0.178941 0.178840 0.178600 0.178282 0.178002 0.177722 0.177441 0.177252 0.177110 0.177056 0.177043 0.177030 0.176977 0.176847 0.176674 0.176506 0.176339 0.176171 0.175996 0.175863 0.175812 0.175800 0.175788 0.175736 0.175607 0.175437 0.175267 0.175097 0.174927 0.174751 0.174618 0.174561 0.174548 0.174534 0.174477 0.174349 0.174180 0.174011 0.173843 0.173675 0.173508 0.173383 0.173330 0.173317 0.173304 0.173251 0.173125 0.172958 0.172791 0.172625 0.172458 0.172299 0.172179 0.172131 0.172119 
0.179515 0.179490 0.179307 0.178833 0.178201 0.177654 0.177108 0.176561 0.176088 0.175734 0.175611 0.175594 0.175577 0.175455 0.175216 0.174897 0.174708 0.174519 0.174329 0.174104 0.173935 0.173871 0.173862 0.173853 0.173788 0.173596 0.173342 0.173060 0.172779 0.172498 0.172190 0.171959 0.171871 0.171859 
