0.273724 0.273744 0.273989 0.274989 0.276573 0.277060 0.277546 0.278033 0.276081 0.274849 0.274382 0.274346 0.274303 0.273745 0.270862 0.266296 0.260587 0.254877 0.249168 0.243581 0.240053 0.239306 0.239248 0.239191 0.238451 0.235236 0.230143 0.225775 0.221406 0.217038 0.213237 0.210837 0.210335 0.210296 0.210257 0.209757 0.207593 0.204164 0.201133 0.198101 0.195070 0.192336 0.190611 0.190242 0.190214 0.190185 0.189821 0.188229 0.185707 0.183407 0.181106 0.178805 0.176719 0.175402 0.175122 0.175100 0.175079 0.174801 0.173586 0.171662 0.169946 0.168231 0.166515 0.164991 0.164030 0.163825 0.163809 0.163793 0.163590 0.162718 0.161336 0.160099 0.158863 0.157626 0.156513 0.155810 0.155661 0.155650 0.155638 0.155490 0.154842 0.153816 0.152879 0.151942 0.151005 0.150148 0.149608 0.149492 0.149483 0.149474 0.149358 0.148852 0.148049 0.147294 0.146538 0.145783 0.145063 0.144609 0.144511 0.144503 0.144496 0.144397 0.143957 0.143261 0.142587 0.141913 0.141240 0.140585 0.140171 0.140081 0.140074 
0.273715 0.273699 0.273554 0.272518 0.271134 0.268224 0.265313 0.262403 0.258758 0.256029 0.255026 0.254916 0.254805 0.253807 0.251054 0.247376 0.243972 0.240568 0.237163 0.234257 0.232082 0.231371 0.231293 0.231215 0.230515 0.228737 0.226362 0.224430 0.222499 0.220567 0.218958 0.217754 0.217342 0.217297 0.217252 0.216848 0.215815 0.214434 0.213200 0.211966 0.210732 0.209606 0.208763 0.208470 0.208438 0.208405 0.208112 0.207313 0.206245 0.205234 0.204224 0.203213 0.202236 0.201504 0.201240 0.201211 0.201183 0.200921 0.200204 0.199246 0.198307 0.197367 0.196427 0.195510 0.194824 0.194577 0.194550 0.194523 0.194277 0.193602 0.192701 0.191818 0.190936 0.190054 0.189194 0.188551 0.188319 0.188293 0.188268 0.188036 0.187404 0.186559 0.185735 0.184910 0.184086 0.183290 0.182694 0.182480 0.182456 0.182433 0.182220 0.181636 0.180855 0.180088 0.179322 0.178555 0.177816 0.177263 0.177067 0.177045 0.177023 0.176827 0.176290 0.175573 0.174876 0.174179 0.173482 0.172804 0.172297 0.172116 0.172096 0.172076 0.171895 0.171403 0.170746 0.170110 0.169474 0.168838 0.168220 0.167757 0.167592 0.167573 0.167555 0.167390 0.166941 0.166340 0.165757 0.165173 0.164590 0.164021 0.163595 0.163443 0.163426 
0.273776 0.274007 0.277180 0.287940 0.304986 0.306171 0.307355 0.308540 0.294005 0.284830 0.282518 0.282349 0.282168 0.279676 0.269856 0.254299 0.243005 0.231710 0.220416 0.212035 0.206745 0.205729 0.205655 0.205583 0.204593 0.200693 0.194514 0.190215 0.185915 0.181616 0.178510 0.176550 0.176159 0.176131 0.176103 0.175722 0.174099 0.171529 0.168938 0.166347 0.163757 0.160486 0.158421 0.157914 0.157877 0.157840 0.157323 0.154788 0.150774 0.146388 0.142003 0.137618 0.133866 0.131498 0.131060 0.131029 0.130998 0.130573 0.128999 0.126504 0.125070 0.123636 0.122202 0.121311 0.120749 0.120641 0.120634 0.120626 0.120521 0.120107 0.119451 0.118986 0.118521 0.118056 0.117724 0.117514 0.117474 0.117471 0.117468 0.117428 0.117264 0.117004 0.116798 0.116593 0.116387 0.116213 0.116104 0.116081 0.116079 0.116078 0.116055 0.115955 0.115798 0.115656 0.115514 0.115372 0.115246 0.115167 0.115150 0.115149 0.115148 0.115132 0.115062 0.114952 0.114860 0.114768 0.114676 0.114599 0.114551 0.114541 0.114541 0.114540 0.114530 0.114489 0.114423 0.114367 0.114312 0.114256 0.114209 0.114179 0.114172 0.114172 0.114171 0.114165 0.114139 0.114097 0.114060 0.114024 0.113988 0.113957 0.113938 0.113934 0.113933 0.113933 0.113929 0.113913 0.113889 0.113869 0.113850 0.113831 0.113792 0.113767 0.113757 0.113757 
0.155646 0.155630 0.155578 0.155462 0.155309 0.155156 0.155004 0.154852 0.154701 0.154586 0.154536 0.154520 0.154504 0.154453 0.154340 0.154190 0.154042 0.153894 0.153745 0.153599 0.153488 0.153439 0.153423 0.153408 0.153358 0.153250 0.153106 0.153003 0.152900 0.152796 0.152697 0.152621 0.152588 0.152578 0.152567 0.152534 0.152464 0.152370 0.152282 0.152194 0.152106 0.152020 0.151955 0.151927 0.151919 0.151910 0.151884 0.151824 0.151746 0.151669 0.151592 0.151516 0.151445 0.151391 0.151368 0.151361 0.151354 0.151331 0.151279 0.151211 0.151145 0.151080 0.151015 0.150954 0.150908 0.150888 0.150881 0.150875 0.150854 0.150809 0.150748 0.150693 0.150639 0.150584 0.150530 0.150488 0.150470 0.150464 0.150459 0.150440 0.150403 0.150353 0.150306 0.150258 0.150211 0.150164 0.150128 0.150114 0.150109 0.150105 0.150091 0.150059 0.150018 0.149977 0.149936 0.149894 0.149858 0.149830 0.149818 0.149814 0.149810 0.149798 0.149770 0.149734 0.149700 0.149666 0.149632 0.149601 0.149577 0.149567 0.149564 0.149560 0.149550 0.149526 0.149495 0.149468 0.149441 0.149415 0.149387 0.149367 0.149357 0.149354 0.149351 0.149342 0.149324 0.149299 0.149276 0.149252 0.149229 0.149205 0.149187 0.149180 0.149178 
0.175096 0.175079 0.174995 0.174782 0.174498 0.174200 0.173903 0.173605 0.173303 0.173076 0.172985 0.172967 0.172948 0.172857 0.172630 0.172329 0.172025 0.171721 0.171417 0.171110 0.170879 0.170786 0.170766 0.170747 0.170654 0.170419 0.170108 0.169800 0.169492 0.169185 0.168876 0.168644 0.168552 0.168533 0.168514 0.168421 0.168190 0.167883 0.167579 0.167274 0.166969 0.166670 0.166445 0.166356 0.166338 0.166319 0.166231 0.166067 0.165850 0.165656 0.165462 0.165267 0.165100 0.164973 0.164924 0.164914 0.164904 0.164854 0.164740 0.164587 0.164445 0.164302 0.164159 0.164026 0.163926 0.163886 0.163878 0.163870 0.163834 0.163742 0.163620 0.163502 0.163384 0.163266 0.163152 0.163066 0.163034 0.163027 0.163021 0.162989 0.162908 0.162800 0.162696 0.162593 0.162489 0.162388 0.162312 0.162282 0.162276 0.162270 0.162241 0.162166 0.162066 0.161970 0.161874 0.161778 0.161684 0.161612 0.161584 0.161578 0.161573 0.161544 0.161472 0.161377 0.161282 0.161187 0.161091 0.160997 0.160926 0.160897 0.160891 
0.210281 0.210222 0.209931 0.209185 0.208194 0.207195 0.206197 0.205198 0.204210 0.203467 0.203173 0.203113 0.203053 0.202759 0.202023 0.201046 0.200072 0.199099 0.198126 0.197183 0.196473 0.196196 0.196139 0.196082 0.195807 0.195124 0.194217 0.193339 0.192461 0.191584 0.190744 0.190112 0.189867 0.189817 0.189767 0.189524 0.188927 0.188134 0.187384 0.186634 0.185884 0.185177 0.184644 0.184438 0.184396 0.184354 0.184150 0.183651 0.182988 0.182362 0.181736 0.181110 0.180517 0.180072 0.179898 0.179862 0.179827 0.179654 0.179238 0.178685 0.178159 0.177632 0.177106 0.176606 0.176230 0.176086 0.176056 0.176027 0.175887 0.175569 0.175148 0.174797 0.174447 0.174097 0.173786 0.173552 0.173467 0.173450 0.173433 0.173349 0.173141 0.172865 0.172621 0.172377 0.172133 0.171914 0.171749 0.171688 0.171675 0.171662 0.171601 0.171448 0.171245 0.171061 0.170877 0.170694 0.170527 0.170402 0.170353 0.170342 0.170332 0.170282 0.170162 0.170002 0.169854 0.169706 0.169557 0.169421 0.169318 0.169276 0.169268 0.169259 0.169217 0.169119 0.168989 0.168863 0.168737 0.168611 0.168489 0.168398 0.168361 0.168353 0.168346 0.168309 0.168223 0.168108 0.167993 0.167878 0.167763 0.167646 0.167559 0.167526 0.167519 
0.239218 0.239095 0.238701 0.237819 0.236659 0.235500 0.234341 0.233183 0.232030 0.231156 0.230768 0.230647 0.230526 0.230140 0.229278 0.228143 0.227031 0.225919 0.224806 0.223721 0.222896 0.222534 0.222421 0.222309 0.221949 0.221150 0.220098 0.219075 0.218051 0.217028 0.216040 0.215290 0.214963 0.214861 0.214760 0.214435 0.213709 0.212753 0.211838 0.210922 0.210006 0.209129 0.208463 0.208173 0.208082 0.207993 0.207705 0.207076 0.206247 0.205461 0.204674 0.203888 0.203141 0.202575 0.202329 0.202253 0.202176 0.201931 0.201397 0.200693 0.200031 0.199370 0.198708 0.198094 0.197629 0.197430 0.197368 0.197307 0.197108 0.196658 0.196066 0.195507 0.194947 0.194388 0.193887 0.193507 0.193339 0.193286 0.193234 0.193067 0.192695 0.192206 0.191727 0.191249 0.190771 0.190304 0.189949 0.189793 0.189745 0.189696 0.189540 0.189195 0.188739 0.188299 0.187860 0.187420 0.186998 0.186678 0.186534 0.186489 0.186444 0.186300 0.185980 0.185559 0.185150 0.184741 0.184333 0.183933 0.183629 0.183500 0.183460 0.183421 0.183294 0.183016 0.182648 0.182297 0.181945 0.181593 0.181280 0.181041 0.180938 0.180905 0.180873 0.180771 0.180548 0.180255 0.179990 0.179724 0.179459 0.179215 0.179029 0.178948 0.178923 0.178898 0.178817 0.178644 0.178416 0.178216 0.178017 0.177817 0.177623 0.177476 0.177411 0.177391 0.177374 0.177317 0.177194 0.177033 0.176872 0.176711 0.176551 0.176407 0.176297 0.176251 0.176237 0.176222 0.176176 0.176071 0.175932 0.175803 0.175674 0.175545 0.175430 0.175342 0.175303 0.175291 0.175279 0.175240 0.175153 0.175038 0.174939 0.174841 0.174742 0.174639 0.174562 0.174527 0.174516 0.174505 0.174469 0.174402 0.174313 0.174224 0.174135 0.174047 0.173962 0.173897 0.173871 0.173863 0.173854 0.173828 0.173766 0.173686 0.173607 0.173527 0.173448 0.173375 0.173320 0.173295 0.173287 0.173280 0.173255 0.173198 0.173124 0.173055 0.172986 0.172918 0.172848 0.172796 0.172772 0.172764 0.172757 0.172733 0.172682 0.172616 0.172549 0.172483 0.172416 0.172349 0.172297 0.172276 0.172269 
0.274283 0.274031 0.272934 0.270265 0.266726 0.263489 0.260251 0.257014 0.254041 0.251799 0.250905 0.250699 0.250496 0.249608 0.247468 0.244631 0.241986 0.239342 0.236697 0.234231 0.232371 0.231642 0.231475 0.231311 0.230592 0.228846 0.226531 0.224294 0.222057 0.219821 0.217852 0.216366 0.215809 0.215682 0.215554 0.214996 0.213650 0.211864 0.210380 0.208895 0.207411 0.206422 0.205675 0.205408 0.205346 0.205285 0.205020 0.204381 0.203534 0.202712 0.201889 0.201067 0.200275 0.199678 0.199436 0.199380 0.199325 0.199084 0.198501 0.197729 0.196972 0.196215 0.195459 0.194714 0.194153 0.193921 0.193868 0.193815 0.193584 0.193024 0.192281 0.191550 0.190819 0.190088 0.189372 0.188833 0.188615 0.188566 0.188517 0.188307 0.187785 0.187092 0.186439 0.185786 0.185132 0.184528 0.184072 0.183891 0.183850 0.183809 0.183630 0.183238 0.182718 0.182261 0.181804 0.181347 0.180967 0.180681 0.180567 0.180541 0.180516 0.180403 0.180161 0.179840 0.179559 0.179278 0.178997 0.178778 0.178612 0.178545 0.178530 0.178515 0.178448 0.178294 0.178089 0.177918 0.177748 0.177577 0.177431 0.177321 0.177278 0.177268 0.177258 0.177215 0.177108 0.176966 0.176848 0.176730 0.176611 0.176499 0.176415 0.176383 0.176376 0.176369 0.176338 0.176259 0.176155 0.176062 0.175969 0.175876 0.175784 0.175715 0.175690 0.175685 
0.254864 0.254660 0.253879 0.252088 0.249720 0.247508 0.245296 0.243084 0.240962 0.239358 0.238701 0.238529 0.238359 0.237708 0.236197 0.234197 0.232284 0.230371 0.228458 0.226622 0.225234 0.224658 0.224507 0.224357 0.223785 0.222466 0.220721 0.219043 0.217366 0.215689 0.214098 0.212895 0.212435 0.212315 0.212197 0.211746 0.210722 0.209368 0.208206 0.207044 0.205883 0.204864 0.204094 0.203836 0.203769 0.203711 0.203489 0.202974 0.202293 0.201640 0.200987 0.200333 0.199708 0.199235 0.199039 0.198988 0.198937 0.198741 0.198278 0.197665 0.197067 0.196468 0.195870 0.195277 0.194829 0.194640 0.194591 0.194542 0.194354 0.193907 0.193316 0.192722 0.192127 0.191532 0.190932 0.190478 0.190285 0.190234 0.190184 0.189990 0.189528 0.188916 0.188321 0.187726 0.187131 0.186560 0.186128 0.185948 0.185901 0.185854 0.185674 0.185261 0.184715 0.184196 0.183676 0.183156 0.182685 0.182328 0.182188 0.182152 0.182115 0.181977 0.181658 0.181236 0.180889 0.180541 0.180194 0.179886 0.179653 0.179557 0.179532 0.179507 0.179414 0.179244 0.179019 0.178808 0.178597 0.178386 0.178235 0.178121 0.178073 0.178060 0.178047 0.177999 0.177884 0.177731 0.177621 0.177512 0.177402 0.177291 0.177206 0.177182 0.177176 0.177169 0.177144 0.177084 0.177004 0.176927 0.176850 0.176773 0.176711 0.176665 0.176645 0.176640 0.176634 0.176614 0.176573 0.176519 0.176472 0.176425 0.176378 0.176336 0.176304 0.176293 0.176290 0.176287 0.176276 0.176249 0.176213 0.176184 0.176155 0.176126 0.176100 0.176080 0.176072 0.176070 
0.201193 0.201120 0.200893 0.200398 0.199746 0.199117 0.198487 0.197858 0.197253 0.196794 0.196591 0.196526 0.196462 0.196261 0.195824 0.195249 0.194701 0.194152 0.193603 0.193077 0.192677 0.192500 0.192443 0.192387 0.192211 0.191828 0.191323 0.190842 0.190362 0.189882 0.189423 0.189074 0.188920 0.188871 0.188822 0.188670 0.188339 0.187904 0.187483 0.187062 0.186641 0.186231 0.185919 0.185781 0.185737 0.185693 0.185557 0.185259 0.184866 0.184484 0.184102 0.183720 0.183356 0.183080 0.182957 0.182918 0.182879 0.182757 0.182489 0.182137 0.181797 0.181456 0.181116 0.180790 0.180542 0.180431 0.180396 0.180360 0.180250 0.180008 0.179688 0.179390 0.179093 0.178795 0.178506 0.178286 0.178188 0.178156 0.178125 0.178027 0.177825 0.177558 0.177304 0.177051 0.176797 0.176549 0.176360 0.176286 0.176262 0.176238 0.176164 0.176017 0.175823 0.175660 0.175496 0.175333 0.175205 0.175107 0.175065 0.175051 0.175038 0.174996 0.174903 0.174781 0.174676 0.174572 0.174467 0.174383 0.174319 0.174288 0.174278 0.174269 0.174238 0.174171 0.174082 0.174018 0.173954 0.173890 0.173824 0.173773 0.173750 0.173743 0.173735 0.173712 0.173674 0.173624 0.173575 0.173526 0.173477 0.173430 0.173394 0.173384 0.173381 0.173377 0.173367 0.173343 0.173312 0.173278 0.173243 0.173209 0.173190 0.173176 0.173169 0.173167 0.173165 0.173158 0.173141 0.173120 0.173104 0.173089 0.173073 0.173065 0.173059 0.173057 0.173056 0.173055 0.173052 0.173046 0.173039 0.173045 0.173050 0.173056 0.173061 0.173064 0.173066 0.173066 
0.172089 0.172062 0.171949 0.171676 0.171313 0.170963 0.170612 0.170262 0.169923 0.169668 0.169564 0.169540 0.169515 0.169412 0.169169 0.168846 0.168536 0.168226 0.167916 0.167623 0.167402 0.167313 0.167292 0.167271 0.167182 0.166974 0.166698 0.166429 0.166160 0.165891 0.165636 0.165444 0.165366 0.165347 0.165329 0.165251 0.165065 0.164819 0.164587 0.164355 0.164124 0.163910 0.163749 0.163685 0.163669 0.163654 0.163590 0.163433 0.163226 0.163092 0.162959 0.162825 0.162727 0.162653 0.162627 0.162621 0.162615 0.162589 0.162525 0.162440 0.162373 0.162305 0.162238 0.162176 0.162129 0.162116 0.162113 0.162110 0.162096 0.162063 0.162020 0.161982 0.161944 0.161906 0.161868 0.161839 0.161829 0.161826 0.161824 0.161817 0.161797 0.161770 0.161748 0.161727 0.161705 0.161690 0.161678 0.161673 0.161672 0.161670 0.161665 0.161661 0.161657 0.161653 0.161649 0.161645 0.161649 0.161653 0.161654 0.161654 
