0.203235 0.203274 0.203781 0.205967 0.209430 0.212314 0.215197 0.218081 0.220195 0.221530 0.221783 0.221803 0.221822 0.222076 0.222948 0.224330 0.224904 0.225479 0.226054 0.225947 0.225879 0.225831 0.225827 0.225823 0.225769 0.225407 0.224833 0.223788 0.222742 0.221697 0.220254 0.219343 0.219123 0.219106 0.219089 0.218865 0.217772 0.216039 0.214007 0.211976 0.209944 0.207750 0.206366 0.206057 0.206033 0.206009 0.205700 0.204291 0.202059 0.199857 0.197654 0.195452 0.193342 0.192010 0.191724 0.191702 
0.203214 0.203173 0.202783 0.201712 0.200280 0.198894 0.197508 0.196122 0.194805 0.193820 0.193472 0.193434 0.193397 0.193052 0.192114 0.190860 0.189673 0.188486 0.187299 0.186184 0.185350 0.185057 0.185026 0.184995 0.184705 0.183924 0.182880 0.181900 0.180919 0.179939 0.179030 0.178349 0.178111 0.178086 0.178060 0.177825 0.177192 0.176346 0.175547 0.174748 0.173950 0.173194 0.172629 0.172428 0.172407 0.172385 0.172187 0.171651 0.170935 0.170250 0.169564 0.168878 0.168216 0.167721 0.167545 0.167526 
0.203232 0.203257 0.203607 0.203784 0.204065 0.201419 0.198774 0.196128 0.192221 0.189755 0.189198 0.189159 0.189118 0.188550 0.185958 0.181851 0.178238 0.174625 0.171013 0.168078 0.166226 0.165851 0.165824 0.165797 0.165425 0.163890 0.161458 0.159597 0.157736 0.155874 0.154474 0.153590 0.153411 0.153398 0.153386 0.153211 0.152457 0.151263 0.150148 0.149033 0.147917 0.146757 0.146024 0.145853 0.145841 0.145829 0.145659 0.144799 0.143438 0.141473 0.139507 0.137542 0.135006 0.133405 0.133061 0.133036 0.133011 0.132665 0.131204 0.128890 0.127088 0.125285 0.123482 0.122272 0.121509 0.121371 0.121361 0.121352 0.121222 0.120723 0.119933 0.119383 0.118832 0.118282 0.117864 0.117600 0.117548 0.117544 0.117540 0.117489 0.117277 0.116942 0.116694 0.116446 0.116198 0.116009 0.115890 0.115866 0.115864 0.115863 0.115839 0.115738 0.115578 0.115437 0.115296 0.115155 0.115026 0.114944 0.114927 0.114926 0.114924 0.114907 0.114830 0.114709 0.114597 0.114484 0.114372 0.114272 0.114209 0.114196 0.114195 0.114194 0.114182 0.114128 0.114044 0.113979 0.113913 0.113848 0.113798 0.113766 0.113760 0.113759 0.113759 0.113752 0.113726 0.113685 0.113652 0.113619 0.113586 0.113559 0.113542 0.113538 0.113538 0.113538 0.113534 0.113520 0.113497 0.113478 0.113460 0.113441 0.113426 0.113417 0.113415 0.113415 0.113415 0.113413 0.113405 0.113392 0.113382 0.113372 0.113362 0.113354 0.113349 0.113348 0.113348 
0.206015 0.205945 0.205594 0.204723 0.203565 0.202464 0.201363 0.200263 0.199242 0.198474 0.198179 0.198120 0.198061 0.197768 0.197048 0.196092 0.195192 0.194291 0.193391 0.192559 0.191932 0.191692 0.191645 0.191597 0.191359 0.190769 0.189986 0.189246 0.188506 0.187766 0.187079 0.186562 0.186364 0.186325 0.186285 0.186087 0.185601 0.184956 0.184350 0.183744 0.183138 0.182580 0.182160 0.182007 0.181976 0.181948 0.181804 0.181476 0.181040 0.180654 0.180268 0.179882 0.179541 0.179284 0.179197 0.179180 0.179162 0.179076 0.178857 0.178567 0.178312 0.178057 0.177802 0.177577 0.177408 0.177345 0.177332 0.177320 0.177257 0.177101 0.176894 0.176711 0.176528 0.176345 0.176183 0.176062 0.176014 0.176004 0.175995 0.175947 0.175834 0.175685 0.175547 0.175409 0.175270 0.175145 0.175050 0.175012 0.175005 0.174997 0.174959 0.174874 0.174761 0.174650 0.174539 0.174428 0.174321 0.174240 0.174211 0.174205 
0.225794 0.225661 0.225157 0.223996 0.222460 0.221019 0.219578 0.218136 0.216786 0.215765 0.215348 0.215238 0.215129 0.214716 0.213761 0.212499 0.211308 0.210117 0.208926 0.207818 0.206981 0.206639 0.206549 0.206460 0.206122 0.205342 0.204311 0.203343 0.202374 0.201405 0.200509 0.199832 0.199554 0.199481 0.199409 0.199134 0.198503 0.197669 0.196889 0.196109 0.195329 0.194599 0.194047 0.193820 0.193760 0.193701 0.193476 0.192957 0.192270 0.191624 0.190977 0.190331 0.189716 0.189251 0.189060 0.189009 0.188960 0.188772 0.188334 0.187755 0.187201 0.186647 0.186094 0.185572 0.185177 0.185013 0.184970 0.184927 0.184765 0.184391 0.183897 0.183436 0.182975 0.182515 0.182085 0.181759 0.181631 0.181597 0.181563 0.181435 0.181137 0.180742 0.180406 0.180069 0.179732 0.179445 0.179228 0.179139 0.179116 0.179093 0.179005 0.178834 0.178609 0.178395 0.178180 0.177966 0.177801 0.177676 0.177624 0.177610 0.177596 0.177544 0.177422 0.177260 0.177132 0.177005 0.176878 0.176747 0.176647 0.176616 0.176608 0.176599 0.176568 0.176494 0.176396 0.176306 0.176215 0.176125 0.176051 0.175996 0.175972 0.175965 0.175959 0.175935 0.175885 0.175819 0.175764 0.175709 0.175654 0.175609 0.175576 0.175564 0.175561 0.175558 0.175547 0.175520 0.175484 0.175459 0.175434 0.175409 0.175390 0.175376 0.175371 0.175369 
0.221779 0.221683 0.221379 0.220699 0.219803 0.218905 0.218006 0.217108 0.216208 0.215524 0.215223 0.215128 0.215033 0.214733 0.214063 0.213181 0.212311 0.211441 0.210571 0.209715 0.209065 0.208778 0.208687 0.208597 0.208312 0.207681 0.206850 0.206036 0.205222 0.204408 0.203626 0.203033 0.202772 0.202690 0.202609 0.202350 0.201778 0.201024 0.200301 0.199579 0.198857 0.198181 0.197668 0.197442 0.197370 0.197300 0.197077 0.196592 0.195954 0.195358 0.194762 0.194166 0.193601 0.193173 0.192987 0.192929 0.192872 0.192689 0.192290 0.191765 0.191281 0.190798 0.190314 0.189864 0.189523 0.189377 0.189331 0.189286 0.189142 0.188834 0.188428 0.188024 0.187619 0.187215 0.186831 0.186539 0.186413 0.186374 0.186334 0.186208 0.185922 0.185546 0.185165 0.184784 0.184404 0.184025 0.183738 0.183611 0.183571 0.183532 0.183406 0.183126 0.182758 0.182388 0.182018 0.181649 0.181289 0.181016 0.180895 0.180856 0.180818 0.180697 0.180428 0.180074 0.179733 0.179392 0.179051 0.178724 0.178475 0.178365 0.178330 0.178296 0.178186 0.177946 0.177630 0.177340 0.177050 0.176760 0.176492 0.176289 0.176200 0.176173 0.176146 0.176063 0.175900 0.175686 0.175482 0.175279 0.175075 0.174900 0.174767 0.174717 0.174701 0.174685 0.174634 0.174524 0.174378 0.174242 0.174106 0.173970 0.173866 0.173787 0.173751 0.173739 0.173728 0.173692 0.173610 0.173501 0.173414 0.173327 0.173239 0.173159 0.173099 0.173072 0.173063 0.173055 0.173028 0.172975 0.172907 0.172851 0.172795 0.172739 0.172680 0.172634 0.172615 0.172609 0.172605 0.172591 0.172559 0.172517 0.172474 0.172431 0.172388 0.172355 0.172330 0.172321 0.172317 0.172314 0.172305 0.172283 0.172254 0.172230 0.172206 0.172182 0.172167 0.172156 0.172151 0.172149 0.172148 0.172143 0.172130 0.172114 0.172110 0.172105 0.172101 0.172100 0.172099 0.172099 0.172099 
0.193430 0.193413 0.193347 0.193180 0.192959 0.192713 0.192468 0.192223 0.191949 0.191742 0.191652 0.191629 0.191606 0.191515 0.191286 0.190982 0.190653 0.190324 0.189995 0.189643 0.189377 0.189263 0.189234 0.189204 0.189089 0.188805 0.188430 0.188030 0.187630 0.187230 0.186813 0.186499 0.186367 0.186333 0.186299 0.186166 0.185844 0.185419 0.185010 0.184602 0.184193 0.183790 0.183486 0.183361 0.183329 0.183298 0.183173 0.182889 0.182513 0.182170 0.181828 0.181486 0.181172 0.180935 0.180839 0.180814 0.180791 0.180697 0.180486 0.180207 0.179942 0.179676 0.179411 0.179177 0.179000 0.178928 0.178910 0.178892 0.178819 0.178640 0.178404 0.178159 0.177914 0.177669 0.177406 0.177208 0.177126 0.177106 0.177085 0.177003 0.176802 0.176537 0.176258 0.175979 0.175701 0.175413 0.175196 0.175104 0.175080 0.175057 0.174964 0.174745 0.174455 0.174171 0.173887 0.173604 0.173320 0.173106 0.173017 0.172994 0.172972 0.172883 0.172680 0.172411 0.172155 0.171898 0.171642 0.171438 0.171285 0.171223 0.171207 0.171191 0.171131 0.170994 0.170812 0.170666 0.170520 0.170375 0.170241 0.170139 0.170102 0.170093 0.170084 0.170047 0.169958 0.169841 0.169734 0.169627 0.169520 0.169423 0.169349 0.169319 0.169311 0.169303 0.169272 0.169209 0.169126 0.169039 0.168952 0.168866 0.168791 0.168735 0.168711 0.168705 0.168699 0.168674 0.168615 0.168537 0.168467 0.168397 0.168328 0.168259 0.168208 0.168189 0.168184 0.168179 0.168160 0.168114 0.168053 0.167995 0.167937 0.167879 0.167824 0.167782 0.167764 0.167759 
0.185017 0.184981 0.184863 0.184596 0.184244 0.183888 0.183532 0.183176 0.182813 0.182537 0.182415 0.182378 0.182341 0.182219 0.181944 0.181582 0.181218 0.180855 0.180491 0.180125 0.179847 0.179726 0.179689 0.179653 0.179532 0.179262 0.178906 0.178547 0.178188 0.177829 0.177479 0.177214 0.177100 0.177065 0.177030 0.176917 0.176665 0.176333 0.176016 0.175699 0.175382 0.175073 0.174838 0.174736 0.174704 0.174673 0.174572 0.174346 0.174048 0.173770 0.173491 0.173213 0.172953 0.172756 0.172672 0.172646 0.172621 0.172538 0.172354 0.172111 0.171870 0.171630 0.171390 0.171161 0.170987 0.170914 0.170891 0.170869 0.170795 0.170627 0.170405 0.170182 0.169959 0.169735 0.169508 0.169336 0.169260 0.169237 0.169213 0.169137 0.168967 0.168742 0.168522 0.168301 0.168081 0.167864 0.167698 0.167625 0.167603 0.167580 0.167507 0.167341 0.167123 0.166911 0.166699 0.166487 0.166278 0.166119 0.166049 0.166027 0.166006 0.165936 0.165788 0.165592 0.165399 0.165207 0.165015 0.164831 0.164691 0.164639 0.164623 0.164609 0.164564 0.164464 0.164333 0.164218 0.164104 0.163989 0.163900 0.163832 0.163802 0.163793 0.163784 0.163754 0.163687 0.163598 0.163531 0.163465 0.163398 0.163336 0.163288 0.163267 0.163261 0.163254 0.163233 0.163198 0.163151 0.163108 0.163065 0.163022 0.162980 0.162949 0.162939 0.162936 0.162933 0.162923 0.162899 0.162867 0.162834 0.162800 0.162767 0.162744 0.162727 0.162720 0.162717 0.162715 0.162708 0.162690 0.162667 0.162651 0.162634 0.162618 0.162602 0.162589 0.162584 0.162582 0.162580 0.162574 0.162565 0.162553 0.162544 0.162534 0.162525 0.162516 0.162508 0.162508 0.162508 
0.167521 0.167499 0.167297 0.166737 0.165989 0.165265 0.164541 0.163817 0.163138 0.162630 0.162453 0.162434 0.162416 0.162239 0.161775 0.161154 0.160605 0.160056 0.159507 0.159036 0.158683 0.158571 0.158559 0.158547 0.158436 0.158149 0.157765 0.157617 0.157470 0.157322 0.157279 0.157246 0.157237 0.157236 0.157235 0.157225 0.157216 0.157204 0.157213 0.157222 0.157231 0.157269 0.157298 0.157313 0.157315 
