-1.327456 0.882169 7.735842
-1.331390 0.884012 7.724664
-1.335323 0.885854 7.713486
-1.515121 0.970073 7.202576
-1.693141 1.053461 6.696801
-1.871364 1.136976 6.191119
-2.050100 1.220813 5.685727
-1.337782 0.887006 7.706498
-1.514465 0.969765 7.204441
-1.515777 0.970380 7.200712
-1.692485 1.053154 6.698665
-1.693796 1.053769 6.694937
-1.870703 1.136666 6.192981
-1.872025 1.137286 6.189257
-2.049395 1.220476 5.687568
-1.347400 0.891511 7.679164
-1.504847 0.965260 7.231775
-1.525396 0.974885 7.173377
-1.682864 1.048648 6.725999
-1.703412 1.058272 6.667600
-1.861016 1.132118 6.220284
-1.881713 1.141834 6.161953
-2.039064 1.215530 5.714565
-1.368126 0.901219 7.620267
-1.391324 0.912085 7.554348
-1.414524 0.922952 7.488429
-1.437723 0.933819 7.422510
-1.460922 0.944686 7.356591
-1.484121 0.955552 7.290672
-1.546120 0.984592 7.114480
-1.569315 0.995456 7.048559
-1.592511 1.006321 6.982639
-1.615712 1.017189 6.916721
-1.638919 1.028061 6.850805
-1.662128 1.038934 6.784891
-1.724128 1.067974 6.608700
-1.747285 1.078815 6.542761
-1.770441 1.089655 6.476823
-1.793613 1.100505 6.410892
-1.816834 1.111385 6.344983
-1.840154 1.122327 6.279119
-1.902446 1.151546 6.103060
-1.925492 1.162319 6.037073
-1.948190 1.172878 5.970930
-1.970771 1.183365 5.904735
-1.993597 1.194003 5.838650
-2.016889 1.204926 5.772774
-2.978724 1.623404 4.762234
-4.072034 1.830326 3.927209
-5.231547 2.054487 3.196704
-6.119242 2.883646 2.587792
-6.743583 3.971328 1.985768
-7.439283 4.990509 1.344281
-8.246013 5.878976 0.642775
-9.177338 6.575039 -0.117585
-10.220809 7.026825 -0.915701
-11.335366 7.232883 -1.719354
-12.481112 7.225850 -2.506491
-2.050805 1.221150 5.683886
-2.977167 1.623037 4.763435
-2.980280 1.623772 4.761032
-4.070478 1.830007 3.928424
-4.073590 1.830646 3.925994
-5.229828 2.054080 3.197642
-5.233266 2.054894 3.195766
-6.118372 2.882070 2.588663
-6.120112 2.885222 2.586920
-6.742645 3.969800 1.986655
-6.744520 3.972855 1.984881
-7.438219 4.989112 1.345238
-7.440346 4.991906 1.343323
-8.244771 5.877812 0.643825
-8.247255 5.880140 0.641725
-9.175916 6.574196 -0.116459
-9.178760 6.575882 -0.118711
-10.219254 7.026332 -0.914543
-10.222364 7.027317 -0.916859
-11.333733 7.232750 -1.718207
-11.336999 7.233016 -1.720501
-12.479457 7.225986 -2.505376
-2.062021 1.226705 5.657375
-2.954349 1.617648 4.781050
-3.003116 1.629119 4.743428
-4.047659 1.825322 3.946239
-4.096409 1.835330 3.908179
-5.204624 2.048113 3.211395
-5.258471 2.060861 3.182013
-6.105686 2.858991 2.601564
-6.132866 2.908328 2.574136
-6.728896 3.947397 1.999659
-6.758407 3.995127 1.971798
-7.422626 4.968623 1.359277
-7.456073 5.012239 1.329211
-8.226565 5.860738 0.659221
-8.265461 5.897214 0.626329
-9.155068 6.561835 -0.099950
-9.199608 6.588244 -0.135221
-10.196481 7.019035 -0.897569
-10.245160 7.034539 -0.933835
-11.309842 7.230440 -1.701359
-11.360943 7.234965 -1.737322
-12.455192 7.227977 -2.489028
-2.118534 1.256005 5.539747
-2.238139 1.326488 5.380987
-2.383551 1.413424 5.253460
-2.532849 1.487612 5.122391
-2.688233 1.545385 4.990080
-2.850580 1.591814 4.861645
-3.108371 1.651286 4.663675
-3.276633 1.682580 4.538289
-3.444128 1.712808 4.411621
-3.610243 1.742826 4.283095
-3.776157 1.772527 4.154237
-3.942823 1.804230 4.026836
-4.200788 1.856679 3.827061
-4.371428 1.889161 3.705337
-4.548803 1.918031 3.592580
-4.726785 1.944716 3.480232
-4.906160 1.982030 3.373444
-5.088417 2.025445 3.273935
-5.370398 2.099438 3.119828
-5.529133 2.205786 3.028179
-5.684681 2.320372 2.940543
-5.832181 2.442613 2.850156
-5.949896 2.591608 2.756265
-6.047719 2.754031 2.661181
-6.191469 3.013921 2.516281
-6.284588 3.181838 2.426021
-6.377524 3.349800 2.335656
-6.472844 3.515673 2.243930
-6.569367 3.680495 2.151564
-6.666502 3.844741 2.058818
-6.822079 4.096571 1.911912
-6.924195 4.256098 1.816322
-7.027646 4.414303 1.719974
-7.133491 4.570072 1.622277
-7.242583 4.722417 1.522762
-7.352340 4.874044 1.422878
-7.529542 5.103146 1.263874
-7.647653 5.245121 1.159437
-7.766534 5.386143 1.054592
-7.889475 5.521966 0.947615
-8.015896 5.653119 0.838852
-8.144224 5.781603 0.729138
-8.349965 5.973074 0.555376
-8.487086 6.088115 0.441473
-8.625727 6.200629 0.326872
-8.766723 6.309047 0.211255
-8.913088 6.407544 0.093449
-9.061141 6.502734 -0.025013
-9.296059 6.641910 -0.211023
-9.451572 6.720673 -0.331955
-9.608455 6.796093 -0.453248
-9.767385 6.866185 -0.575054
-9.928980 6.928818 -0.697406
-10.092750 6.984853 -0.820090
-10.349743 7.065815 -1.011386
-10.517903 7.106085 -1.134287
-10.687159 7.141816 -1.257129
-10.856835 7.175625 -1.379913
-11.028384 7.200066 -1.502302
-11.200836 7.219327 -1.624381
-11.470413 7.242828 -1.814035
-11.644474 7.250247 -1.935107
-11.819027 7.252905 -2.055677
-11.993826 7.252782 -2.175923
-12.168947 7.248140 -2.295597
-12.344398 7.236870 -2.414348
177 NaN NaN
-1.325490 0.881248 7.741431
-1.358527 0.896723 7.647543
-1.391567 0.912199 7.553657
-1.424609 0.927676 7.459772
-1.457651 0.943153 7.365886
-1.490692 0.958630 7.272000
-1.523730 0.974105 7.178113
-1.556765 0.989578 7.084224
-1.589802 1.005052 6.990336
-1.622846 1.020531 6.896452
-1.655903 1.036017 6.802573
-1.688957 1.051502 6.708693
-1.721985 1.066971 6.614802
-1.754966 1.082411 6.520889
-1.787947 1.097850 6.426975
-1.821019 1.113346 6.333104
-1.854265 1.128949 6.239311
-1.887539 1.144569 6.145531
-1.920503 1.159999 6.051611
-1.952831 1.175037 5.957406
-1.984949 1.189947 5.863109
-2.018122 1.205505 5.769286
-2.053606 1.222491 5.676566
-2.093253 1.242343 5.586150
-2.139877 1.267539 5.500570
-2.196024 1.300525 5.423893
-2.260762 1.340435 5.357938
-2.330006 1.382684 5.298236
-2.400717 1.423279 5.239106
-2.471331 1.459703 5.177214
-2.542551 1.492013 5.113746
-2.615414 1.520652 5.050381
-2.690464 1.546143 4.988233
-2.767095 1.569132 4.927041
-2.844607 1.590292 4.866297
-2.922519 1.610132 4.805621
-3.000894 1.628639 4.745119
-3.079887 1.645701 4.684997
-3.159548 1.661320 4.625367
-3.239550 1.675965 4.565944
-3.319481 1.690222 4.506333
-3.399004 1.704579 4.446202
-3.478128 1.719009 4.385565
-3.556981 1.733320 4.324547
-3.635694 1.747368 4.263287
-3.714407 1.761354 4.202014
-3.793269 1.775623 4.140997
-3.872389 1.790486 4.080460
-3.951583 1.805939 4.020167
-4.030509 1.821802 3.959628
-4.108885 1.837891 3.898440
-4.187256 1.853982 3.837246
-4.266732 1.869821 3.777430
-4.348309 1.885136 3.720376
-4.431855 1.899682 3.666029
-4.516390 1.913258 3.612971
-4.600993 1.925716 3.559746
-4.685382 1.937911 3.506123
-4.769964 1.951813 3.453230
-4.855072 1.969415 3.402336
-4.940788 1.990581 3.353861
-5.027179 2.012201 3.306800
-5.114356 2.031056 3.260014
-5.201861 2.047459 3.212903
-5.288409 2.067948 3.165678
-5.371675 2.099929 3.119114
-5.449085 2.146344 3.074563
-5.522435 2.200671 3.031997
-5.595352 2.256356 2.990433
-5.670030 2.309676 2.948893
-5.743927 2.363622 2.906777
-5.813361 2.422404 2.863629
-5.875027 2.488622 2.819485
-5.929567 2.560526 2.774807
-5.978890 2.635939 2.729819
-6.024883 2.713297 2.684592
-6.068915 2.791839 2.639450
-6.112274 2.871023 2.594776
-6.156081 2.950386 2.550866
-6.200344 3.029855 2.507608
-6.244671 3.109498 2.464736
-6.288736 3.189357 2.421997
-6.332706 3.269237 2.379201
-6.376975 3.348834 2.336186
-6.421896 3.427869 2.292813
-6.467412 3.506392 2.249129
-6.513223 3.584656 2.205289
-6.559050 3.662902 2.161435
-6.604912 3.741112 2.117552
-6.651048 3.819069 2.073507
-6.697694 3.896556 2.029171
-6.744917 3.973502 1.984506
-6.792629 4.049984 1.939563
-6.840736 4.126084 1.894394
-6.889174 4.201862 1.849037
-6.937913 4.277343 1.803507
-6.986926 4.352552 1.757823
-7.036289 4.427411 1.711940
-7.086229 4.501685 1.665733
-7.136979 4.575119 1.619070
-7.188566 4.647667 1.571939
-7.240622 4.719708 1.524547
-7.292741 4.791681 1.477120
-7.344782 4.863739 1.429737
-7.397271 4.935306 1.382105
-7.450826 5.005678 1.333887
-7.505793 5.074413 1.284901
-7.561686 5.142036 1.235415
-7.617876 5.209296 1.185771
-7.673925 5.276729 1.136202
-7.730180 5.343909 1.086524
-7.787194 5.410144 1.036445
-7.845398 5.474849 0.985740
-7.904639 5.538177 0.934498
-7.964579 5.600553 0.882902
-8.024925 5.662367 0.831103
-8.085656 5.723640 0.779112
-8.146871 5.784223 0.726880
-8.208669 5.843955 0.674356
-8.271201 5.902597 0.621474
-8.334640 5.959857 0.568162
-8.399126 6.015471 0.514364
-8.464462 6.069701 0.460180
-8.530222 6.123223 0.405804
-8.596014 6.176685 0.351408
-8.661984 6.229845 0.296931
-8.728762 6.281617 0.242106
-8.796939 6.330879 0.186699
-8.866488 6.377538 0.130742
-8.936752 6.422781 0.074511
-9.007088 6.467876 0.018252
-9.077326 6.513172 -0.037967
-9.147977 6.557631 -0.094335
-9.219582 6.600088 -0.151038
-9.292342 6.639990 -0.208127
-9.365912 6.678006 -0.265466
-9.439925 6.714960 -0.322931
-9.514162 6.751374 -0.380452
-9.588713 6.787009 -0.438055
-9.663705 6.821514 -0.495771
-9.739244 6.854572 -0.553622
-9.815379 6.885990 -0.611603
-9.892145 6.915601 -0.669703
-9.969526 6.943366 -0.727899
-10.047327 6.969816 -0.786151
-10.125321 6.995636 -0.844426
-10.203362 7.021298 -0.902708
-10.281660 7.046101 -0.961016
-10.360524 7.068937 -1.019362
-10.440154 7.088898 -1.077720
-10.520332 7.106622 -1.136055
-10.600720 7.123439 -1.194371
-10.681047 7.140523 -1.252693
-10.761394 7.157519 -1.311013
-10.842031 7.173209 -1.369297
-10.923171 7.186449 -1.427487
-11.004752 7.197326 -1.485554
-11.086569 7.206811 -1.543535
-11.168457 7.215855 -1.601486
-11.250386 7.224639 -1.659419
-11.332435 7.232645 -1.717295
-11.414674 7.239338 -1.775067
-11.497117 7.244500 -1.832704
-11.579728 7.248267 -1.890209
-11.662474 7.250797 -1.947588
-11.745323 7.252285 -2.004855
-11.828245 7.252983 -2.062033
-11.911213 7.253146 -2.119147
-11.994225 7.252780 -2.176197
-12.077310 7.251432 -2.233124
-12.160489 7.248601 -2.289858
-12.243754 7.244063 -2.346355
-12.327069 7.238240 -2.402663
-12.410405 7.231652 -2.458853
-12.493749 7.224814 -2.515004
-12.577085 7.218240 -2.571197
-12.660399 7.212449 -2.627509
