-1.668474 0.714823 9.382410
-1.674504 0.724123 9.392871
-1.680533 0.733423 9.403332
-1.927658 1.113113 9.828505
-2.271411 1.486686 10.042723
-2.778046 1.734031 9.807407
-3.334682 1.884944 9.597358
-1.684142 0.738988 9.409592
-1.926874 1.111895 9.827126
-1.928443 1.114330 9.829885
-2.269871 1.485769 10.043610
-2.272951 1.487603 10.041836
-2.776255 1.733485 9.808111
-2.779837 1.734577 9.806704
-3.332838 1.884556 9.598028
-1.697208 0.759141 9.432261
-1.913920 1.091791 9.804350
-1.941397 1.134435 9.852661
-2.244435 1.470629 10.058259
-2.298353 1.502653 10.027046
-2.746683 1.724464 9.819723
-2.809423 1.743561 9.795098
-3.302383 1.878150 9.609082
-1.725731 0.802924 9.481234
-1.757799 0.851999 9.535933
-1.789943 0.901107 9.590558
-1.822065 0.950205 9.645204
-1.854024 0.999233 9.700008
-1.885743 1.048158 9.755044
-1.969994 1.178249 9.901562
-2.002827 1.227645 9.955503
-2.037664 1.277833 10.007319
-2.076341 1.329460 10.054863
-2.127858 1.383935 10.083273
-2.188509 1.432851 10.079551
-2.352794 1.533597 9.992297
-2.414882 1.570231 9.957341
-2.478550 1.607822 9.926455
-2.544163 1.644604 9.898785
-2.612368 1.677358 9.872253
-2.682908 1.703629 9.844716
-2.873618 1.762937 9.769949
-2.945362 1.785394 9.742073
-3.017294 1.807557 9.714452
-3.089667 1.828534 9.687082
-3.162687 1.847520 9.659954
-3.236389 1.864060 9.633063
-4.782096 2.222540 9.073729
-6.070465 2.958411 8.694026
-6.793237 4.308609 8.322445
-7.624043 5.587889 7.928683
-8.635094 6.713505 7.494522
-9.855996 7.585051 7.021972
-11.242876 8.141749 6.531974
-12.718216 8.399309 6.047282
-3.336526 1.885332 9.596689
-4.780212 2.222133 9.074265
-4.783979 2.222947 9.073194
-6.069447 2.956758 8.694506
-6.071483 2.960065 8.693546
-6.792276 4.306921 8.322922
-6.794197 4.310297 8.321968
-7.622887 5.586343 7.929207
-7.625199 5.589434 7.928159
-8.633680 6.712213 7.495099
-8.636507 6.714797 7.493945
-9.854333 7.584126 7.022587
-9.857659 7.585976 7.021356
-11.241035 8.141276 6.532596
-11.244717 8.142222 6.531353
-12.716313 8.399183 6.047884
-3.366930 1.891894 9.585586
-4.749111 2.215411 9.083112
-4.815081 2.229669 9.064347
-6.051812 2.930021 8.702412
-6.088292 2.987367 8.685621
-6.776414 4.279044 8.330797
-6.810190 4.338090 8.314061
-7.603793 5.560820 7.937853
-7.644292 5.614958 7.919513
-8.610412 6.690796 7.504618
-8.659847 6.736131 7.484413
-9.826869 7.568856 7.032752
-9.885135 7.601223 7.011190
-11.210631 8.133465 6.542858
-11.275121 8.150034 6.521090
-12.684905 8.396958 6.057846
-3.506329 1.922979 9.534176
-3.725768 1.974414 9.450168
-3.944617 2.026163 9.364815
-4.164200 2.078461 9.281715
-4.384707 2.131528 9.201607
-4.607014 2.183993 9.126244
-4.957817 2.262919 9.024849
-5.181877 2.325210 8.963544
-5.402743 2.401171 8.906383
-5.612335 2.503810 8.849515
-5.797007 2.646442 8.793410
-5.958525 2.815888 8.738301
-6.157479 3.117383 8.649306
-6.260784 3.326899 8.592062
-6.370127 3.533579 8.535623
-6.479286 3.740570 8.479974
-6.590263 3.946439 8.423766
-6.703794 4.150733 8.366915
-6.884307 4.465433 8.277565
-7.004426 4.665451 8.219074
-7.127228 4.863638 8.159927
-7.253549 5.059340 8.099930
-7.383589 5.252315 8.039048
-7.517254 5.442521 7.977316
-7.733508 5.731045 7.879443
-7.877927 5.912374 7.815268
-8.027432 6.089116 7.749983
-8.181616 6.261424 7.683701
-8.340132 6.429386 7.616524
-8.504876 6.590732 7.548102
-8.768874 6.832068 7.440280
-8.946388 6.978133 7.369502
-9.126975 7.120104 7.298203
-9.314602 7.252019 7.225793
-9.504883 7.379884 7.152992
-9.700697 7.498567 7.079463
-10.012036 7.670123 6.964402
-10.218490 7.768341 6.889789
-10.427298 7.861422 6.815003
-10.639164 7.947046 6.740083
-10.854990 8.022217 6.665076
-11.071601 8.095027 6.590084
-11.414604 8.186898 6.473895
-11.636733 8.240975 6.399245
-11.861681 8.282807 6.325062
-12.086633 8.324613 6.250881
-12.313684 8.354343 6.177373
-12.541110 8.381750 6.104003
162 NaN NaN
-1.665459 0.710173 9.377180
-1.705247 0.771541 9.446209
-1.745408 0.833070 9.514879
-1.785731 0.894668 9.583391
-1.826021 0.956252 9.651935
-1.866079 1.017736 9.720703
-1.905698 1.079031 9.789895
-1.945145 1.140252 9.859250
-1.985412 1.201825 9.927815
-2.027438 1.264134 9.994630
-2.075688 1.328770 10.054503
-2.139735 1.396494 10.089823
-2.218394 1.455129 10.073257
-2.295774 1.501187 10.028692
-2.372217 1.544638 9.979898
-2.450735 1.591738 9.938384
-2.532339 1.638925 9.903385
-2.617853 1.679991 9.870120
-2.706567 1.712226 9.835477
-2.796614 1.739696 9.800116
-2.886761 1.766904 9.764800
-2.976714 1.795287 9.729914
-3.067149 1.822633 9.695456
-3.158683 1.846621 9.661415
-3.251126 1.867367 9.627686
-3.343865 1.886876 9.594025
-3.436398 1.907007 9.560167
-3.528578 1.928060 9.525907
-3.620433 1.949578 9.491068
-3.712015 1.971166 9.455560
-3.803462 1.992759 9.419707
-3.894939 2.014393 9.383957
-3.986570 2.036103 9.348650
-4.078355 2.057929 9.313819
-4.170274 2.079914 9.279444
-4.262333 2.102057 9.245546
-4.354582 2.124287 9.212229
-4.447080 2.146521 9.179612
-4.539958 2.168561 9.147957
-4.633421 2.190071 9.117693
-4.727627 2.210767 9.089223
-4.822334 2.231237 9.062284
-4.917036 2.252709 9.036122
-5.011263 2.276301 9.010076
-5.104950 2.302186 8.984260
-5.198240 2.330108 8.959137
-5.291164 2.360052 8.935013
-5.383188 2.393075 8.911477
-5.473518 2.430474 8.887950
-5.561224 2.473469 8.864092
-5.645188 2.523312 8.840144
-5.723928 2.581167 8.816520
-5.796917 2.646352 8.793440
-5.865880 2.715888 8.770602
-5.932993 2.787151 8.747549
-5.997931 2.860240 8.724028
-6.057607 2.937527 8.700087
-6.108769 3.020626 8.675968
-6.152910 3.107720 8.651927
-6.194659 3.196022 8.627970
-6.238088 3.283509 8.604022
-6.283369 3.370078 8.580160
-6.329313 3.456355 8.556506
-6.375017 3.542833 8.533120
-6.420553 3.629439 8.509881
-6.466197 3.715985 8.486630
-6.512165 3.802326 8.463256
-6.558551 3.888408 8.439752
-6.605427 3.974189 8.416122
-6.652786 4.059673 8.392379
-6.700518 4.144925 8.368546
-6.748513 4.230009 8.344647
-6.796815 4.314898 8.320669
-6.845593 4.399480 8.296571
-6.895000 4.483651 8.272316
-6.945010 4.567422 8.247912
-6.995504 4.650868 8.223390
-7.046392 4.734045 8.198772
-7.097755 4.816896 8.174037
-7.149727 4.899321 8.149156
-7.202401 4.981248 8.124104
-7.255744 5.062691 8.098892
-7.309700 5.143684 8.073535
-7.364245 5.224238 8.048039
-7.419417 5.304317 8.022395
-7.475262 5.383877 7.996594
-7.531826 5.462872 7.970626
-7.589157 5.541254 7.944481
-7.647297 5.618975 7.918152
-7.706220 5.696044 7.891647
-7.765843 5.772518 7.864984
-7.826106 5.848439 7.838178
-7.887111 5.923705 7.811208
-7.949043 5.998138 7.784036
-8.012024 6.071600 7.756638
-8.075899 6.144215 7.729050
-8.140426 6.216199 7.701324
-8.205499 6.287645 7.673484
-8.271392 6.358268 7.645474
-8.338440 6.427698 7.617229
-8.406725 6.495812 7.588739
-8.475874 6.562976 7.560079
-8.545498 6.629610 7.531327
-8.615606 6.695692 7.502481
-8.686677 6.760656 7.473455
-8.759151 6.823931 7.444171
-8.832879 6.885635 7.414664
-8.907298 6.946447 7.385037
-8.981948 7.006957 7.355369
-9.057115 7.066778 7.325614
-9.133428 7.125030 7.295671
-9.211290 7.181066 7.265484
-9.290229 7.235486 7.235135
-9.369562 7.289299 7.204729
-9.448951 7.343025 7.174313
-9.528969 7.395757 7.143810
-9.610307 7.446317 7.113132
-9.693107 7.494333 7.082274
-9.776675 7.540949 7.051329
-9.860305 7.587447 7.020377
-9.943976 7.633868 6.989420
-10.028403 7.678842 6.958386
-10.114219 7.721007 6.927227
-10.201191 7.760673 6.895980
-10.288575 7.799406 6.864707
-10.375783 7.838540 6.833445
-10.463137 7.877341 6.802174
-10.551342 7.914119 6.770859
-10.640812 7.947664 6.739506
-10.731040 7.979121 6.708145
-10.821359 8.010317 6.676785
-10.911441 8.042190 6.645424
-11.001797 8.073274 6.614064
-11.093026 8.101703 6.582724
-11.185211 8.126934 6.551439
-11.277795 8.150721 6.520187
-11.370251 8.174979 6.488924
-11.462558 8.199786 6.457647
-11.555222 8.223257 6.426405
-11.648663 8.243568 6.395269
-11.742695 8.261163 6.364248
-11.836864 8.278073 6.333259
-11.930830 8.295996 6.302222
-12.024772 8.314033 6.271180
-12.119087 8.330164 6.240231
-12.213970 8.342989 6.209469
-12.309144 8.353824 6.178835
-12.404312 8.364708 6.148197
-12.499327 8.376678 6.117487
-12.594403 8.388219 6.086806
-12.689781 8.397429 6.056286
-12.785466 8.403756 6.025986
-12.881261 8.408824 5.995790
-12.977016 8.414384 5.965554
-13.072713 8.420597 5.935263
-13.168480 8.425998 5.905039
-13.264406 8.429168 5.875010
-13.360445 8.430149 5.845186
-13.456526 8.429942 5.815478
-13.552612 8.429564 5.785787
-13.648671 8.430029 5.756013
-13.744646 8.432354 5.726061
