-1.557385 0.669507 14.248123
-1.564685 0.677810 14.258736
-1.571985 0.686113 14.269350
-1.861768 1.021159 14.707636
-2.153838 1.351212 15.125484
-2.665665 1.660969 15.009431
-3.246639 1.824303 14.900636
-1.576349 0.691078 14.275695
-1.860790 1.020067 14.706276
-1.862746 1.022252 14.708996
-2.152374 1.350018 15.124828
-2.155302 1.352406 15.126139
-2.663937 1.660085 15.009913
-2.667394 1.661853 15.008950
-3.244692 1.823946 14.900924
-1.592127 0.709024 14.298634
-1.844591 1.001971 14.683751
-1.878944 1.040348 14.731521
-2.128123 1.330240 15.113967
-2.179944 1.371995 15.135540
-2.635315 1.645442 15.017887
-2.696472 1.675686 15.001253
-3.212449 1.818041 14.905693
-1.625617 0.747678 14.349078
-1.662564 0.790752 14.406071
-1.699144 0.833689 14.463404
-1.735676 0.876607 14.520782
-1.772628 0.919683 14.577770
-1.810276 0.963016 14.634101
-1.913681 1.079455 14.780762
-1.950827 1.122592 14.837534
-1.985129 1.164627 14.896833
-2.015894 1.205229 14.959073
-2.046598 1.245804 15.021360
-2.084543 1.289177 15.077190
-2.239929 1.411314 15.131479
-2.307073 1.452922 15.117736
-2.373880 1.493279 15.098402
-2.440255 1.533446 15.077194
-2.506584 1.573734 15.056073
-2.573915 1.612639 15.035543
-2.760676 1.703662 14.985255
-2.834436 1.731074 14.968747
-2.909787 1.754627 14.953666
-2.986492 1.774434 14.939997
-3.064223 1.790937 14.927592
-3.142520 1.805241 14.916033
-4.786529 2.106011 14.687097
-5.582746 3.359859 14.586706
-6.221538 4.803206 14.512725
-7.102887 6.109210 14.428777
-8.294821 7.134155 14.334427
-9.729337 7.779287 14.235194
-11.277536 8.072306 14.137392
-12.854203 8.111421 14.043694
-3.248585 1.824659 14.900348
-4.784669 2.105338 14.687399
-4.788388 2.106684 14.686796
-5.582050 3.357986 14.586798
-5.583442 3.361732 14.586615
-6.220614 4.801435 14.512824
-6.222464 4.804975 14.512627
-7.101553 6.107724 14.428891
-7.104221 6.110696 14.428662
-8.293161 7.133047 14.334551
-8.296482 7.135263 14.334304
-9.727417 7.778741 14.235320
-9.731257 7.779833 14.235069
-11.275548 8.072128 14.137513
-11.279525 8.072484 14.137271
-12.852207 8.111478 14.043810
-3.280737 1.830935 14.895444
-4.753876 2.094199 14.692390
-4.819181 2.117823 14.681805
-5.570523 3.326970 14.588328
-5.594973 3.392748 14.585108
-6.205310 4.772104 14.514458
-6.238137 4.834110 14.510977
-7.079465 6.083112 14.430782
-7.126330 6.135288 14.426770
-8.265658 7.114700 14.336595
-8.323985 7.153610 14.332259
-9.695787 7.769127 14.237400
-9.763054 7.788880 14.232991
-11.242616 8.069179 14.139519
-11.312461 8.075385 14.135266
-12.819153 8.112419 14.045734
-3.428368 1.860512 14.872742
-3.663182 1.904491 14.838960
-3.899032 1.944392 14.807315
-4.134546 1.985790 14.775108
-4.370116 2.027312 14.743555
-4.607192 2.060299 14.713252
-4.953286 2.185360 14.656992
-5.157333 2.307600 14.617262
-5.299973 2.495283 14.597671
-5.360233 2.728689 14.603116
-5.433765 2.958337 14.604906
-5.517577 3.184409 14.595956
-5.648759 3.535040 14.578429
-5.738696 3.758666 14.567576
-5.831644 3.981049 14.556376
-5.927687 4.202101 14.545137
-6.029691 4.420454 14.533624
-6.135833 4.636820 14.521936
-6.311222 4.967469 14.503351
-6.432853 5.175478 14.491030
-6.559294 5.380594 14.478520
-6.692940 5.581040 14.465730
-6.835699 5.775112 14.452596
-6.981545 5.966859 14.439351
-7.229756 6.246696 14.418016
-7.393766 6.423117 14.404141
-7.570433 6.586673 14.389867
-7.753640 6.743011 14.375404
-7.938901 6.896804 14.360884
-8.138644 7.031254 14.346005
-8.452529 7.234621 14.322816
-8.665333 7.347207 14.307702
-8.880557 7.455225 14.292555
-9.099841 7.554566 14.277372
-9.324659 7.640815 14.262171
-9.551066 7.722805 14.246974
-9.909517 7.829399 14.223448
-10.142868 7.888850 14.208359
-10.377990 7.940840 14.193336
-10.614806 7.984514 14.178403
-10.852746 8.021673 14.163551
-11.091421 8.053759 14.148770
-11.463930 8.087943 14.126064
-11.704097 8.105951 14.111516
-11.944790 8.114490 14.097153
-12.185575 8.120539 14.082841
-12.426408 8.122903 14.068611
-12.667197 8.116465 14.054586
159 NaN NaN
-1.553735 0.665356 14.242817
-1.601751 0.719971 14.312627
-1.648346 0.774066 14.383794
-1.694204 0.827886 14.455646
-1.739993 0.881679 14.527562
-1.786378 0.935696 14.598926
-1.834040 0.990183 14.669079
-1.883337 1.045255 14.737628
-1.932000 1.100101 14.806802
-1.976665 1.153457 14.879710
-2.015219 1.204337 14.957703
-2.053694 1.255183 15.035756
-2.103822 1.310421 15.103084
-2.176772 1.369916 15.135755
-2.260698 1.424928 15.130073
-2.344815 1.475705 15.107696
-2.428021 1.526015 15.081090
-2.511157 1.576511 15.054617
-2.595636 1.625143 15.028941
-2.682730 1.669698 15.004678
-2.772809 1.708949 14.982232
-2.865718 1.742305 14.961901
-2.961244 1.769015 14.944050
-3.058606 1.789911 14.928421
-3.156742 1.807839 14.913933
-3.254867 1.825810 14.899419
-3.352649 1.845182 14.884396
-3.450347 1.864962 14.869359
-3.548277 1.883986 14.854872
-3.646575 1.901659 14.841188
-3.745091 1.918459 14.827972
-3.843662 1.934985 14.814820
-3.942171 1.951721 14.801467
-4.040591 1.968867 14.787988
-4.138912 1.986576 14.774510
-4.237175 2.004698 14.761155
-4.335610 2.022029 14.748026
-4.434446 2.037162 14.735221
-4.533684 2.049727 14.722726
-4.632655 2.063961 14.709971
-4.730102 2.085598 14.696243
-4.823747 2.119475 14.681065
-4.913140 2.163078 14.664791
-5.000035 2.211306 14.647911
-5.086241 2.260699 14.630860
-5.169291 2.315489 14.614974
-5.241960 2.383911 14.602733
-5.292263 2.470645 14.597504
-5.322338 2.566760 14.598156
-5.344374 2.665078 14.601246
-5.368746 2.762836 14.604120
-5.398680 2.859076 14.605496
-5.432215 2.954137 14.605020
-5.467118 3.048673 14.602456
-5.502202 3.143082 14.598184
-5.537308 3.237443 14.593097
-5.572330 3.331838 14.588068
-5.607420 3.426231 14.583481
-5.643050 3.520431 14.579114
-5.679704 3.614236 14.574713
-5.717517 3.707571 14.570143
-5.756076 3.800596 14.565470
-5.794924 3.893500 14.560776
-5.833872 3.986363 14.556109
-5.873309 4.079020 14.551442
-5.913691 4.171266 14.546739
-5.955309 4.262958 14.541975
-5.997978 4.354163 14.537162
-6.041431 4.444996 14.532314
-6.085479 4.535541 14.527443
-6.130211 4.625747 14.522544
-6.175790 4.715528 14.517611
-6.222366 4.804792 14.512637
-6.270064 4.893459 14.507616
-6.318996 4.981448 14.502545
-6.369238 5.068693 14.497420
-6.420605 5.155277 14.492251
-6.472800 5.241364 14.487049
-6.525580 5.327092 14.481824
-6.579249 5.412263 14.476564
-6.634424 5.496461 14.471246
-6.691657 5.579268 14.465849
-6.750700 5.660792 14.460383
-6.810709 5.741606 14.454882
-6.870887 5.822294 14.449376
-6.931402 5.902729 14.443858
-6.993399 5.982020 14.438285
-7.057998 6.059194 14.432620
-7.125220 6.134093 14.426864
-7.193721 6.207824 14.421067
-7.262141 6.281631 14.415274
-7.330158 6.355809 14.409494
-7.399281 6.428953 14.403677
-7.471141 6.499391 14.397772
-7.546302 6.566291 14.391767
-7.623177 6.631221 14.385714
-7.700008 6.696201 14.379664
-7.775822 6.762370 14.373642
-7.852061 6.828044 14.367608
-7.930613 6.890913 14.361509
-8.012613 6.949203 14.355324
-8.096776 7.004335 14.349093
-8.181407 7.058749 14.342852
-8.265224 7.114410 14.336628
-8.348924 7.170248 14.330405
-8.433941 7.224045 14.324154
-8.521382 7.273791 14.317860
-8.610716 7.320063 14.311539
-8.700812 7.364840 14.305209
-8.790730 7.409972 14.298881
-8.880581 7.455237 14.292553
-8.971154 7.499034 14.286217
-9.063138 7.539775 14.279870
-9.156451 7.577378 14.273519
-9.250495 7.613121 14.267168
-9.344746 7.648316 14.260818
-9.439092 7.683256 14.254468
-9.533845 7.717075 14.248119
-9.629305 7.748837 14.241776
-9.725531 7.778204 14.235443
-9.822299 7.805737 14.229120
-9.919399 7.832080 14.222806
-10.016720 7.857594 14.216496
-10.114305 7.882082 14.210195
-10.212206 7.905279 14.203904
-10.310447 7.926990 14.197627
-10.409009 7.947201 14.191366
-10.507864 7.965928 14.185121
-10.606979 7.983240 14.178892
-10.706288 7.999405 14.172679
-10.805731 8.014733 14.166476
-10.905270 8.029427 14.160282
-11.004947 8.043150 14.154102
-11.104817 8.055403 14.147944
-11.204899 8.065802 14.141816
-11.305121 8.074776 14.135712
-11.405401 8.083091 14.129620
-11.505681 8.091404 14.123527
-11.605989 8.099373 14.117441
-11.706388 8.106105 14.111377
-11.806906 8.110780 14.105354
-11.907494 8.113677 14.099367
-12.008101 8.115870 14.093394
-12.108700 8.118398 14.087415
-12.209291 8.121200 14.081430
-12.309903 8.123180 14.075462
-12.410534 8.123224 14.069538
-12.511150 8.121186 14.063663
-12.611741 8.118114 14.057812
-12.712335 8.115122 14.051960
-12.812941 8.112596 14.046096
-12.913538 8.109731 14.040241
-13.014092 8.105613 14.034417
-13.114564 8.099777 14.028637
-13.214962 8.092734 14.022890
-13.315319 8.085122 14.017158
-13.415680 8.077576 14.011425
-13.516091 8.070732 14.005672
-13.616581 8.065228 13.999884
