0.010633
12
0.009510
10
0.004755
25
0.010633
15
0.003253
6
A8
0.001736
14
A6
0.002226
13
A5
0.002659
12
A3
0.001549
22
A2
0.002033
19
A1
0.003434
11
D1
0.003066
11
D3
0.001368
24
D6
0.004288
8
D8
0.002774
13
D13
0.004706
7
D21
