-1.522987 0.632501 11.372485
-1.526836 0.637436 11.362653
-1.530685 0.642372 11.352821
-1.709344 0.871675 10.895701
-1.885811 1.098567 10.442830
-2.060899 1.324845 9.989438
-2.450407 1.589934 9.769833
-1.533105 0.645474 11.346640
-1.708683 0.870828 10.897388
-1.710004 0.872522 10.894014
-1.885152 1.097721 10.444518
-1.886479 1.099417 10.441147
-2.060096 1.323950 9.991036
-2.061703 1.325739 9.987840
-2.448776 1.588962 9.770460
-1.542684 0.657756 11.322174
-1.699102 0.858546 10.921852
-1.719586 0.884805 10.869549
-1.875598 1.085449 10.468998
-1.896271 1.111775 10.416804
-2.048440 1.310977 10.014209
-2.073359 1.338712 9.964666
-2.425116 1.574866 9.779554
-1.563295 0.684196 11.269483
-1.586342 0.713781 11.210500
-1.609372 0.743359 11.151507
-1.632402 0.772938 11.092513
-1.655434 0.802517 11.033521
-1.678485 0.832104 10.974540
-1.740243 0.911261 10.816886
-1.763342 0.940865 10.757932
-1.786410 0.970457 10.698960
-1.809335 0.999998 10.639907
-1.832197 1.029516 10.580818
-1.855027 1.059023 10.521711
-1.917357 1.138385 10.364389
-1.941271 1.168278 10.305908
-1.964820 1.198041 10.247216
-1.987855 1.227621 10.188225
-2.008764 1.256424 10.128069
-2.029674 1.285223 10.067912
-2.103802 1.368012 9.919579
-2.147035 1.403146 9.877366
-2.200976 1.438921 9.851625
-2.257475 1.474355 9.831162
-2.315721 1.509356 9.814797
-2.373761 1.544174 9.797346
-3.689993 1.963623 9.320894
-4.965904 2.257303 8.903521
-6.073399 2.938548 8.594763
-6.691235 4.120490 8.261801
-7.389913 5.255080 7.923948
-8.213828 6.291424 7.556725
-9.193456 7.167005 7.157768
-10.328068 7.814436 6.735415
-11.568213 8.219845 6.307155
-12.863011 8.403687 5.886549
-2.452039 1.590906 9.769206
-3.688163 1.963194 9.321577
-3.691824 1.964051 9.320211
-4.964012 2.256897 8.904029
-4.967795 2.257709 8.903013
-6.072471 2.936851 8.595272
-6.074327 2.940245 8.594253
-6.690288 4.118794 8.262275
-6.692183 4.122186 8.261327
-7.388823 5.253483 7.924458
-7.391003 5.256678 7.923439
-8.212539 6.289999 7.557279
-8.215117 6.292849 7.556171
-9.191899 7.165905 7.158371
-9.195014 7.168105 7.157166
-10.326326 7.813676 6.736038
-10.329810 7.815196 6.734792
-11.566356 8.219438 6.307774
-11.570071 8.220252 6.306536
-12.861109 8.403553 5.887152
-2.475699 1.605001 9.760113
-3.661620 1.956978 9.331476
-3.718366 1.970267 9.310308
-4.936586 2.251007 8.911398
-4.994972 2.264885 8.895879
-6.059017 2.912243 8.602660
-6.087782 2.964854 8.586866
-6.676544 4.094196 8.269149
-6.705924 4.146785 8.254454
-7.373017 5.230314 7.931844
-7.406938 5.279748 7.916022
-8.193842 6.269335 7.565314
-8.233814 6.313514 7.548136
-9.169532 7.149633 7.167080
-9.217599 7.184062 7.148423
-10.301062 7.802660 6.745068
-10.355151 7.826029 6.725759
-11.539418 8.213533 6.316755
-11.597009 8.226157 6.297555
-12.833516 8.401692 5.895888
-2.585934 1.662094 9.714458
-2.771411 1.730534 9.645138
-2.961589 1.787953 9.578023
-3.152700 1.841430 9.510390
-3.346572 1.885385 9.443719
-3.540156 1.928598 9.375711
-3.839452 1.998580 9.265006
-4.031833 2.043964 9.195018
-4.224710 2.090369 9.127088
-4.417578 2.137103 9.059373
-4.613072 2.183218 8.999263
-4.811247 2.225283 8.945205
-5.118052 2.301596 8.864199
-5.311703 2.366876 8.817331
-5.507058 2.427137 8.771043
-5.678550 2.535220 8.723958
-5.827550 2.675844 8.679606
-5.982775 2.809445 8.634877
-6.140788 3.081098 8.552410
-6.230531 3.262494 8.497740
-6.326366 3.441820 8.446512
-6.421004 3.622662 8.398463
-6.516131 3.803110 8.349899
-6.613861 3.981930 8.300501
-6.768766 4.258945 8.223040
-6.870415 4.435307 8.172722
-6.975041 4.609709 8.121667
-7.080923 4.783258 8.070299
-7.189549 4.954896 8.018256
-7.301277 5.124300 7.965459
-7.480203 5.384597 7.882045
-7.598978 5.548588 7.827583
-7.721578 5.709441 7.772243
-7.846549 5.868278 7.716367
-7.975020 6.024002 7.659716
-8.108693 6.174869 7.601944
-8.320696 6.406236 7.511148
-8.464238 6.546890 7.451369
-8.609821 6.685284 7.391189
-8.757740 6.820929 7.330576
-8.913330 6.947059 7.268594
-9.069889 7.071940 7.206442
-9.322027 7.254772 7.108332
-9.489357 7.363864 7.044548
-9.657595 7.471464 6.980650
-9.831770 7.568684 6.916048
-10.008132 7.661762 6.851224
-10.186392 7.750988 6.786239
-10.471166 7.874561 6.684518
-10.656238 7.948316 6.619138
-10.843714 8.015669 6.553723
-11.033327 8.076803 6.488338
-11.224476 8.133046 6.423021
-11.416981 8.184575 6.357809
-11.720210 8.251881 6.256624
-11.915844 8.290626 6.191862
-12.112682 8.323209 6.127409
-12.310560 8.349740 6.063304
-12.508624 8.375025 5.999279
-12.707593 8.393303 5.935746
168 NaN NaN
-1.521062 0.630033 11.377401
-1.554333 0.672693 11.292418
-1.587551 0.715334 11.207404
-1.620744 0.757965 11.122376
-1.653938 0.800597 11.037349
-1.687162 0.843240 10.952338
-1.720443 0.885904 10.867360
-1.753768 0.928583 10.782408
-1.787016 0.971234 10.697411
-1.820052 1.013810 10.612294
-1.852929 1.056328 10.527086
-1.886114 1.098957 10.442054
-1.920128 1.141882 10.357500
-1.954656 1.184988 10.273247
-1.987854 1.227621 10.188225
-2.017988 1.269132 10.101529
-2.048126 1.310628 10.014833
-2.088542 1.355610 9.934479
-2.150483 1.405949 9.873998
-2.229418 1.457494 9.839022
-2.313372 1.507947 9.815503
-2.397008 1.558120 9.790356
-2.479180 1.607075 9.758775
-2.562368 1.651850 9.723842
-2.649124 1.689562 9.689297
-2.739113 1.720708 9.656461
-2.830489 1.748508 9.624426
-2.921894 1.775996 9.592200
-3.013166 1.803489 9.559603
-3.104878 1.829483 9.527020
-3.197484 1.852618 9.494817
-3.290740 1.873416 9.462886
-3.384123 1.893436 9.430828
-3.477195 1.914073 9.398261
-3.569877 1.935454 9.365067
-3.662262 1.957129 9.331241
-3.754456 1.978718 9.296842
-3.846616 2.000254 9.262323
-3.938921 2.021926 9.228277
-4.031489 2.043882 9.195139
-4.124191 2.066088 9.162547
-4.216833 2.088457 9.129898
-4.309332 2.110907 9.096899
-4.402030 2.133370 9.064474
-4.495351 2.155777 9.033853
-4.589534 2.177928 9.005794
-4.684408 2.199249 8.979469
-4.779760 2.219108 8.953730
-4.875304 2.237846 8.927862
-4.970564 2.258304 8.902269
-5.064849 2.283726 8.877586
-5.157735 2.314925 8.854214
-5.250346 2.347606 8.831765
-5.344115 2.377055 8.809706
-5.438780 2.403493 8.787608
-5.531519 2.435607 8.765108
-5.617113 2.483138 8.742265
-5.691988 2.546612 8.719954
-5.761988 2.615803 8.698478
-5.834643 2.682339 8.677564
-5.910875 2.744784 8.656633
-5.983922 2.810476 8.634530
-6.045006 2.886618 8.610353
-6.091710 2.972039 8.584708
-6.131467 3.060809 8.558490
-6.172041 3.149130 8.532021
-6.216195 3.235769 8.505709
-6.262253 3.321629 8.480106
-6.308431 3.407770 8.455691
-6.354099 3.494471 8.432318
-6.399491 3.581436 8.409391
-6.444861 3.668381 8.386343
-6.490484 3.755113 8.362998
-6.536644 3.841498 8.339422
-6.583576 3.927422 8.315685
-6.631115 4.012984 8.291850
-6.678896 4.098400 8.267974
-6.726626 4.183845 8.244098
-6.774513 4.269187 8.220168
-6.822969 4.354163 8.196088
-6.872318 4.438561 8.171785
-6.922393 4.522478 8.147303
-6.972869 4.606126 8.122723
-7.023514 4.689660 8.098100
-7.074504 4.772957 8.073391
-7.126130 4.855814 8.048525
-7.178596 4.938080 8.023453
-7.231822 5.019799 7.998196
-7.285663 5.101068 7.972791
-7.340022 5.181953 7.947263
-7.394926 5.262428 7.921605
-7.450425 5.342449 7.895806
-7.506592 5.421950 7.869849
-7.563560 5.500816 7.843705
-7.621468 5.578923 7.817345
-7.680317 5.656251 7.790769
-7.739851 5.732997 7.764039
-7.799796 5.809392 7.737215
-7.860160 5.885421 7.710297
-7.921413 5.960665 7.683182
-7.984039 6.034659 7.655768
-8.048030 6.107366 7.628061
-8.112742 6.179374 7.600201
-8.177530 6.251307 7.572324
-8.242475 6.323086 7.544414
-8.308455 6.393827 7.516290
-8.376311 6.462612 7.487788
-8.445859 6.529547 7.458953
-8.516038 6.595770 7.429996
-8.585867 6.662388 7.401104
-8.655636 6.729076 7.372225
-8.726610 6.794374 7.343119
-8.799884 6.856880 7.313596
-8.875015 6.916991 7.283752
-8.950688 6.976375 7.253816
-9.025797 7.036516 7.223973
-9.100812 7.096783 7.194147
-9.177037 7.155405 7.164124
-9.255483 7.210828 7.133758
-9.335575 7.263719 7.103155
-9.416167 7.315807 7.072484
-9.496394 7.368485 7.041862
-9.576726 7.420992 7.011227
-9.658102 7.471781 6.980458
-9.741152 7.519653 6.949489
-9.825394 7.565315 6.918392
-9.910104 7.610075 6.887249
-9.994808 7.654846 6.856108
-10.079835 7.698979 6.824938
-10.165684 7.741435 6.793699
-10.252627 7.781541 6.762380
-10.340382 7.819805 6.731014
-10.428596 7.856980 6.699626
-10.517072 7.893519 6.668228
-10.605935 7.929095 6.636817
-10.695345 7.963259 6.605394
-10.785376 7.995745 6.573964
-10.875953 8.026679 6.542538
-10.966992 8.056239 6.511121
-11.058422 8.084582 6.479719
-11.150189 8.111835 6.448334
-11.242244 8.138120 6.416967
-11.334597 8.163367 6.385623
-11.427326 8.187238 6.354316
-11.520500 8.209386 6.323062
-11.614069 8.229897 6.291868
-11.707872 8.249377 6.260715
-11.801768 8.268433 6.229581
-11.895777 8.286963 6.198470
-11.990056 8.304175 6.167422
-12.084726 8.319304 6.136483
-12.179712 8.332573 6.105652
-12.274826 8.345016 6.074873
-12.369921 8.357589 6.044085
-12.465044 8.369978 6.013309
-12.560360 8.381015 5.982623
-12.655976 8.389666 5.952106
-12.751793 8.396417 5.921737
-12.847664 8.402606 5.891413
-12.943482 8.409360 5.861044
-13.039298 8.416132 5.830673
-13.135229 8.421603 5.800409
-13.231332 8.424688 5.770354
-13.327537 8.425781 5.740485
-13.423781 8.425831 5.710720
-13.520029 8.425789 5.680963
-13.616246 8.426604 5.651122
-13.712375 8.429228 5.621109
