-2.278568 -1.567438 15.052408
-1.808752 -1.506590 16.054497
-1.352341 -1.442094 17.062402
-1.015615 -1.346524 18.112720
-0.899840 -1.199523 19.203408
-0.895610 -1.029028 20.298688
-0.855082 -0.865891 21.394305
-0.794117 -0.706968 22.489663
-0.755368 -0.543467 23.585284
-2.277764 -1.567317 15.054236
-1.809619 -1.506694 16.052698
-1.807886 -1.506485 16.056297
-1.353100 -1.442228 17.060557
-1.351582 -1.441960 17.064248
-1.016058 -1.346737 18.110781
-1.015172 -1.346312 18.114658
-0.899893 -1.199822 19.201431
-0.899788 -1.199225 19.205385
-0.895635 -1.029332 20.296711
-0.895585 -1.028723 20.300664
-0.855185 -0.866179 21.392328
-0.854979 -0.865603 21.396281
-0.794221 -0.707256 22.487687
-0.794013 -0.706680 22.491640
-0.755396 -0.543770 23.583308
-2.268254 -1.565875 15.075863
-1.819879 -1.507931 16.031403
-1.797654 -1.505240 16.077605
-1.362083 -1.443811 17.038715
-1.342814 -1.440320 17.086173
-1.021303 -1.349256 18.087837
-1.010342 -1.343696 18.137682
-0.900514 -1.203355 19.178035
-0.899332 -1.195657 19.228780
-0.895931 -1.032931 20.273318
-0.895205 -1.025141 20.324059
-0.856404 -0.869590 21.368937
-0.853736 -0.862197 21.419672
-0.795452 -0.710664 22.464296
-0.792804 -0.703267 22.515031
-0.755729 -0.547362 23.559914
-2.225212 -1.559444 15.173144
-2.155585 -1.549651 15.326607
-2.084377 -1.540291 15.479370
-2.012167 -1.531206 15.631678
-1.939290 -1.522306 15.783680
-1.866085 -1.513496 15.935529
-1.751644 -1.499621 16.173569
-1.679253 -1.490586 16.325795
-1.607872 -1.481274 16.478481
-1.537749 -1.471616 16.631725
-1.469206 -1.461529 16.785656
-1.402832 -1.450857 16.940494
-1.303690 -1.432844 17.185020
-1.244123 -1.420374 17.342469
-1.188237 -1.406954 17.501182
-1.136134 -1.392575 17.661090
-1.088282 -1.377135 17.822226
-1.045627 -1.360427 17.984686
-0.989466 -1.331716 18.241495
-0.961252 -1.311631 18.406697
-0.939533 -1.290095 18.572696
-0.923088 -1.267411 18.739147
-0.911318 -1.243732 18.905862
-0.903719 -1.219182 19.072694
-0.897671 -1.179518 19.334110
-0.896537 -1.153652 19.500916
-0.896680 -1.127531 19.667687
-0.897282 -1.101319 19.834442
-0.897679 -1.075147 20.001205
-0.897047 -1.049181 20.167998
-0.893222 -1.009066 20.429393
-0.889037 -0.983816 20.596245
-0.883620 -0.958817 20.763099
-0.877204 -0.934023 20.929949
-0.869894 -0.909413 21.096790
-0.861809 -0.884963 21.263618
-0.848045 -0.846883 21.524985
-0.838759 -0.822682 21.691787
-0.829263 -0.798525 21.858584
-0.819717 -0.774379 22.025379
-0.810262 -0.750213 22.192177
-0.801067 -0.725994 22.358981
-0.787498 -0.687872 22.620352
-0.779616 -0.663380 22.787184
-0.772543 -0.638722 22.954027
-0.766369 -0.613878 23.120879
-0.761281 -0.588812 23.287734
-0.757463 -0.563488 23.454583
90 NaN NaN
-2.278769 -1.567469 15.051951
-2.238210 -1.561319 15.144192
-2.196935 -1.555364 15.236127
-2.155043 -1.549576 15.327793
-2.112626 -1.543932 15.419226
-2.069773 -1.538408 15.510464
-2.026570 -1.532980 15.601541
-1.983099 -1.527626 15.692496
-1.939442 -1.522324 15.783365
-1.895675 -1.517052 15.874183
-1.851876 -1.511789 15.964985
-1.808121 -1.506513 16.055808
-1.764483 -1.501206 16.146686
-1.721037 -1.495845 16.237652
-1.677857 -1.490411 16.328741
-1.635017 -1.484883 16.419984
-1.592591 -1.479242 16.511413
-1.550654 -1.473466 16.603060
-1.509284 -1.467536 16.694954
-1.468558 -1.461432 16.787123
-1.428555 -1.455133 16.879596
-1.389356 -1.448617 16.972397
-1.351046 -1.441866 17.065552
-1.313708 -1.434856 17.159082
-1.277432 -1.427569 17.253007
-1.242307 -1.419981 17.347345
-1.208427 -1.412073 17.442111
-1.175887 -1.403822 17.537317
-1.144784 -1.395208 17.632969
-1.115221 -1.386209 17.729073
-1.087298 -1.376804 17.825627
-1.061121 -1.366973 17.922627
-1.036795 -1.356696 18.020062
-1.014427 -1.345954 18.117914
-0.994124 -1.334729 18.216161
-0.975992 -1.323003 18.314774
-0.960127 -1.310763 18.413714
-0.946489 -1.298026 18.512924
-0.934920 -1.284835 18.612337
-0.925256 -1.271232 18.711898
-0.917329 -1.257258 18.811562
-0.910971 -1.242953 18.911291
-0.906017 -1.228356 19.011058
-0.902297 -1.213504 19.110841
-0.899649 -1.198433 19.210625
-0.897907 -1.183178 19.310402
-0.896911 -1.167774 19.410165
-0.896500 -1.152251 19.509915
-0.896515 -1.136644 19.609653
-0.896799 -1.120983 19.709382
-0.897193 -1.105301 19.809106
-0.897543 -1.089627 19.908833
-0.897690 -1.073993 20.008566
-0.897478 -1.058431 20.108311
-0.896758 -1.042971 20.208068
-0.895494 -1.027620 20.307837
-0.893716 -1.012372 20.407615
-0.891454 -0.997223 20.507397
-0.888740 -0.982166 20.607182
-0.885603 -0.967194 20.706968
-0.882077 -0.952303 20.806752
-0.878192 -0.937485 20.906535
-0.873981 -0.922734 21.006314
-0.869474 -0.908044 21.106089
-0.864704 -0.893409 21.205859
-0.859704 -0.878821 21.305626
-0.854504 -0.864275 21.405388
-0.849138 -0.849763 21.505147
-0.843638 -0.835279 21.604902
-0.838036 -0.820816 21.704655
-0.832364 -0.806368 21.804406
-0.826655 -0.791928 21.904156
-0.820941 -0.777488 22.003906
-0.815255 -0.763043 22.103656
-0.809628 -0.748586 22.203408
-0.804094 -0.734109 22.303163
-0.798684 -0.719606 22.402920
-0.793431 -0.705071 22.502681
-0.788367 -0.690496 22.602447
-0.783525 -0.675876 22.702216
-0.778935 -0.661203 22.801990
-0.774631 -0.646471 22.901768
-0.770645 -0.631674 23.001549
-0.767007 -0.616806 23.101333
-0.763750 -0.601859 23.201119
-0.760905 -0.586828 23.300904
-0.758504 -0.571707 23.400687
-0.756576 -0.556490 23.500467
-0.755154 -0.541171 23.600238
-0.754268 -0.525744 23.700000
-2.278505 -1.567523 15.051530
-2.065518 -1.609133 14.688762
-1.877766 -1.640379 14.311309
-1.714942 -1.661749 13.921775
-1.576425 -1.673829 13.522549
-1.461392 -1.677245 13.115754
-1.369150 -1.672560 12.703199
-1.298489 -1.660494 12.286551
-1.248078 -1.641730 11.867205
-1.212401 -1.617842 11.446581
-1.183213 -1.590953 11.025624
-1.152069 -1.563190 10.604868
-1.113523 -1.536341 10.184666
-1.073130 -1.510829 9.764550
-1.039194 -1.486744 9.343791
-1.020020 -1.464198 8.922039
-1.018907 -1.443142 8.499765
-1.030320 -1.423153 8.077578
-1.048241 -1.403773 7.655580
-1.067007 -1.384558 7.233610
-1.084523 -1.365327 6.811587
-1.101148 -1.346082 6.389528
-1.117327 -1.326830 5.967453
-1.133493 -1.307578 5.545377
-1.150077 -1.288333 5.123317
-1.167510 -1.269101 4.701290
-2.277452 -1.567739 15.049844
-2.066458 -1.608965 14.690519
-2.064579 -1.609302 14.687004
-1.878592 -1.640256 14.313126
-1.876940 -1.640502 14.309492
-1.715657 -1.661670 13.923641
-1.714228 -1.661829 13.919909
-1.577031 -1.673790 13.524454
-1.575818 -1.673868 13.520644
-1.461889 -1.677246 13.117692
-1.460915 -1.677237 13.113812
-1.369527 -1.672603 12.705163
-1.368772 -1.672518 12.701235
-1.298771 -1.660568 12.288529
-1.298206 -1.660419 12.284572
-1.248277 -1.641832 11.869192
-1.247879 -1.641628 11.865217
-1.212550 -1.617963 11.448572
-1.212252 -1.617721 11.444590
-1.183349 -1.591083 11.027615
-1.183076 -1.590822 11.023633
-1.152237 -1.563320 10.606857
-1.151901 -1.563060 10.602879
-1.113716 -1.536465 10.186652
-1.113329 -1.536217 10.182679
-1.073313 -1.510946 9.766538
-1.072946 -1.510711 9.762562
-1.039331 -1.486855 9.345784
-1.039057 -1.486633 9.341799
-1.020072 -1.464301 8.924036
-1.019985 -1.464096 8.920042
-1.018873 -1.443239 8.501763
-1.018940 -1.443046 8.497768
-1.030246 -1.423246 8.079574
-1.030395 -1.423060 8.075581
-1.048150 -1.403864 7.657576
-1.048332 -1.403682 7.653584
-1.066921 -1.384648 7.235606
-1.067093 -1.384467 7.231614
-1.084442 -1.365418 6.813583
-1.084603 -1.365236 6.809591
-1.101071 -1.346173 6.391525
-1.101225 -1.345991 6.387532
-1.117251 -1.326921 5.969449
-1.117403 -1.326739 5.965456
-1.133416 -1.307669 5.547373
-1.133570 -1.307487 5.543380
-1.149998 -1.288424 5.125313
-1.150157 -1.288242 5.121320
-1.167426 -1.269192 4.703286
-2.268864 -1.569501 15.036103
-2.074116 -1.607590 14.704841
-2.056921 -1.610677 14.672682
-1.885325 -1.639253 14.327936
-1.870207 -1.641504 14.294682
-1.721483 -1.661020 13.938850
-1.708402 -1.662478 13.904701
-1.581975 -1.673472 13.539982
-1.570874 -1.674185 13.505116
-1.465982 -1.677237 13.133468
-1.457029 -1.677172 13.097983
-1.372605 -1.672949 12.721164
-1.365694 -1.672172 12.685234
-1.301074 -1.661173 12.304653
-1.295904 -1.659814 12.268448
-1.249896 -1.642664 11.885389
-1.246260 -1.640797 11.849021
-1.213764 -1.618947 11.464795
-1.211038 -1.616737 11.428366
-1.184450 -1.592146 11.043842
-1.181957 -1.589751 11.007408
-1.153607 -1.564376 10.623063
-1.150530 -1.562004 10.586672
-1.115294 -1.537473 10.202843
-1.111751 -1.535208 10.166488
-1.074806 -1.511904 9.782740
-1.071453 -1.509753 9.746360
-1.040446 -1.487758 9.362019
-1.037941 -1.485729 9.325564
-1.020527 -1.465146 8.940306
-1.019702 -1.463264 8.903767
-1.018603 -1.444024 8.518040
-1.019210 -1.442260 8.481490
-1.029635 -1.424001 8.095844
-1.031006 -1.422305 8.059311
-1.047410 -1.404605 7.673841
-1.049072 -1.402940 7.637319
-1.066220 -1.385389 7.251873
-1.067794 -1.383726 7.215347
-1.083782 -1.366159 6.829852
-1.085254 -1.364494 6.793322
-1.100442 -1.346915 6.407795
-1.101853 -1.345249 6.371262
-1.116631 -1.327663 5.985719
-1.118024 -1.325997 5.949186
-1.132788 -1.308411 5.563643
-1.134198 -1.306745 5.527111
-1.149347 -1.289166 5.141582
-1.150808 -1.287500 5.105051
-1.166737 -1.269933 4.719554
-2.245410 -1.574315 14.998572
-2.214408 -1.580609 14.948254
-2.183938 -1.586678 14.897582
-2.154043 -1.592506 14.846544
-2.124421 -1.598220 14.795331
-2.095634 -1.603588 14.743607
-2.036005 -1.614431 14.633563
-2.008681 -1.619199 14.580996
-1.981615 -1.623861 14.528284
-1.955381 -1.628187 14.475124
-1.929418 -1.632404 14.421825
-1.904026 -1.636392 14.368232
-1.851857 -1.644225 14.254214
-1.828139 -1.647552 14.199815
-1.804715 -1.650763 14.145283
-1.781827 -1.653764 14.090511
-1.759484 -1.656555 14.035505
-1.737420 -1.659237 13.980378
-1.692806 -1.664131 13.863038
-1.672376 -1.666189 13.807260
-1.652505 -1.668035 13.751273
-1.632882 -1.669788 13.695195
-1.614059 -1.671241 13.638835
-1.595479 -1.672604 13.582394
-1.557941 -1.674843 13.462523
-1.540723 -1.675703 13.405640
-1.524259 -1.676288 13.348531
-1.508056 -1.676778 13.291347
-1.492364 -1.677084 13.234019
-1.477164 -1.677213 13.176559
-1.446414 -1.676995 13.054750
-1.432519 -1.676660 12.996961
-1.419095 -1.676160 12.939061
-1.406173 -1.675484 12.881049
-1.393490 -1.674725 12.822985
-1.381528 -1.673717 12.764772
-1.357288 -1.671227 12.641527
-1.346573 -1.669793 12.583081
-1.336077 -1.668284 12.524597
-1.326282 -1.666540 12.465997
-1.316713 -1.664720 12.407364
-1.307621 -1.662742 12.348658
-1.289649 -1.658149 12.224403
-1.281942 -1.655716 12.165517
-1.274470 -1.653207 12.106605
-1.267427 -1.650558 12.047645
-1.260780 -1.647777 11.988646
-1.254338 -1.644928 11.929627
-1.242018 -1.638463 11.804767
-1.236581 -1.635266 11.745665
-1.231424 -1.631967 11.686543
-1.226391 -1.628622 11.627413
-1.221694 -1.625146 11.568263
-1.217080 -1.621636 11.509108
-1.207870 -1.613978 11.384047
-1.203650 -1.610289 11.324874
-1.199562 -1.606523 11.265696
-1.195497 -1.602736 11.206518
-1.191477 -1.598907 11.147340
-1.187459 -1.595048 11.088163
-1.178899 -1.586827 10.963092
-1.174768 -1.582918 10.903926
-1.170555 -1.579002 10.844767
-1.166207 -1.575089 10.785618
-1.161794 -1.571178 10.726473
-1.157122 -1.567288 10.667347
-1.146788 -1.559119 10.542406
-1.141587 -1.555296 10.483320
-1.136298 -1.551487 10.424240
-1.130790 -1.547720 10.365178
-1.125233 -1.543968 10.306119
-1.119569 -1.540245 10.247069
-1.107442 -1.532456 10.122265
-1.101666 -1.528823 10.063219
-1.095905 -1.525206 10.004172
-1.090173 -1.521619 9.945120
-1.084513 -1.518062 9.886059
-1.078891 -1.514522 9.826993
-1.067468 -1.507156 9.702097
-1.062266 -1.503711 9.642987
-1.057279 -1.500299 9.583857
-1.052387 -1.496903 9.524718
-1.047872 -1.493557 9.465546
-1.043494 -1.490226 9.406364
-1.035265 -1.483298 9.281193
-1.031727 -1.480057 9.221949
-1.028752 -1.476866 9.162671
-1.025994 -1.473694 9.103382
-1.023667 -1.470557 9.044073
-1.021769 -1.467455 8.984747
-1.018929 -1.460993 8.859314
-1.018109 -1.457978 8.799958
-1.017654 -1.454994 8.740597
-1.017555 -1.452038 8.681233
-1.017629 -1.449097 8.621868
-1.018173 -1.446195 8.562503
-1.019947 -1.440115 8.437030
-1.021203 -1.437274 8.377673
-1.022574 -1.434443 8.318319
-1.024276 -1.431642 8.258971
-1.026069 -1.428848 8.199626
-1.028057 -1.426072 8.140286
-1.032681 -1.420243 8.014873
-1.035097 -1.417507 7.955547
-1.037562 -1.414776 7.896223
-1.040120 -1.412055 7.836902
-1.042739 -1.409341 7.777584
-1.045391 -1.406630 7.718267
-1.051092 -1.400917 7.592893
-1.053789 -1.398216 7.533577
-1.056456 -1.395516 7.474261
-1.059110 -1.392816 7.414943
-1.061715 -1.390114 7.355624
-1.064304 -1.387413 7.296304
-1.069678 -1.381702 7.170915
-1.072191 -1.378999 7.111592
-1.074665 -1.376296 7.052267
-1.077127 -1.373592 6.992941
-1.079565 -1.370889 6.933615
-1.081981 -1.368185 6.874287
-1.087033 -1.362468 6.748885
-1.089398 -1.359763 6.689556
-1.091747 -1.357058 6.630226
-1.094081 -1.354353 6.570895
-1.096407 -1.351647 6.511564
-1.098715 -1.348941 6.452233
-1.103569 -1.343222 6.326824
-1.105852 -1.340516 6.267491
-1.108131 -1.337810 6.208158
-1.110401 -1.335103 6.148825
-1.112670 -1.332397 6.089492
-1.114935 -1.329690 6.030159
-1.119719 -1.323970 5.904747
-1.121984 -1.321263 5.845414
-1.124250 -1.318557 5.786080
-1.126520 -1.315851 5.726747
-1.128795 -1.313144 5.667414
-1.131073 -1.310438 5.608082
-1.135920 -1.304719 5.482672
-1.138225 -1.302013 5.423340
-1.140544 -1.299307 5.364009
-1.142868 -1.296602 5.304678
-1.145215 -1.293896 5.245348
-1.147570 -1.291191 5.186018
-1.152606 -1.285475 5.060616
-1.155009 -1.282770 5.001288
-1.157444 -1.280067 4.941961
-1.159890 -1.277363 4.882635
-1.162361 -1.274660 4.823310
-1.164857 -1.271957 4.763986
109 NaN NaN
-2.278769 -1.567469 15.051951
-2.225727 -1.578354 14.967078
-2.174118 -1.588634 14.881251
-2.123945 -1.598312 14.794507
-2.075209 -1.607394 14.706885
-2.027908 -1.615885 14.618420
-1.982042 -1.623790 14.529149
-1.937607 -1.631118 14.439109
-1.894599 -1.637873 14.348334
-1.853011 -1.644064 14.256859
-1.812837 -1.649697 14.164719
-1.774069 -1.654782 14.071947
-1.736699 -1.659325 13.978575
-1.700716 -1.663335 13.884635
-1.666112 -1.666820 13.790158
-1.632875 -1.669789 13.695174
-1.600993 -1.672250 13.599712
-1.570455 -1.674212 13.503800
-1.541250 -1.675684 13.407466
-1.513363 -1.676675 13.310735
-1.486784 -1.677193 13.213633
-1.461498 -1.677247 13.116184
-1.437493 -1.676846 13.018414
-1.414756 -1.675998 12.920343
-1.393274 -1.674712 12.821995
-1.373033 -1.672997 12.723390
-1.354022 -1.670860 12.624548
-1.336227 -1.668310 12.525491
-1.319636 -1.665356 12.426236
-1.304236 -1.662005 12.326802
-1.290016 -1.658265 12.227206
-1.276962 -1.654144 12.127465
-1.265032 -1.649657 12.027599
-1.254120 -1.644832 11.927633
-1.244117 -1.639697 11.827587
-1.234909 -1.634282 11.727479
-1.226384 -1.628617 11.627325
-1.218429 -1.622730 11.527137
-1.210931 -1.616650 11.426924
-1.203776 -1.610406 11.326697
-1.196851 -1.604026 11.226462
-1.190043 -1.597541 11.126226
-1.183239 -1.590977 11.025995
-1.176324 -1.584365 10.925774
-1.169187 -1.577732 10.825571
-1.161714 -1.571106 10.725391
-1.153791 -1.564518 10.625244
-1.145328 -1.557993 10.525136
-1.136375 -1.551540 10.425067
-1.127046 -1.545160 10.325027
-1.117453 -1.538854 10.225008
-1.107709 -1.532624 10.124998
-1.097926 -1.526470 10.024987
-1.088217 -1.520395 9.924965
-1.078694 -1.514398 9.824919
-1.069470 -1.508481 9.724841
-1.060659 -1.502646 9.624722
-1.052373 -1.496894 9.524552
-1.044728 -1.491226 9.424327
-1.037837 -1.485644 9.324042
-1.031814 -1.480151 9.223697
-1.026776 -1.474747 9.123293
-1.022833 -1.469434 9.022835
-1.020025 -1.464213 8.922334
-1.018276 -1.459077 8.821804
-1.017506 -1.454021 8.721258
-1.017631 -1.449040 8.620706
-1.018568 -1.444126 8.520154
-1.020236 -1.439275 8.419609
-1.022553 -1.434479 8.319074
-1.025435 -1.429733 8.218551
-1.028803 -1.425031 8.118041
-1.032572 -1.420366 8.017544
-1.036664 -1.415732 7.917058
-1.040996 -1.411123 7.816580
-1.045488 -1.406532 7.716109
-1.050058 -1.401952 7.615641
-1.054626 -1.397378 7.515173
-1.059121 -1.392804 7.414701
-1.063532 -1.388229 7.314226
-1.067863 -1.383653 7.213747
-1.072121 -1.379075 7.113265
-1.076312 -1.374497 7.012780
-1.080441 -1.369917 6.912293
-1.084514 -1.365336 6.811803
-1.088537 -1.360755 6.711312
-1.092516 -1.356173 6.610819
-1.096456 -1.351591 6.510324
-1.100364 -1.347008 6.409828
-1.104245 -1.342424 6.309331
-1.108105 -1.337840 6.208834
-1.111951 -1.333256 6.108336
-1.115787 -1.328672 6.007837
-1.119620 -1.324088 5.907338
-1.123456 -1.319504 5.806840
-1.127300 -1.314920 5.706341
-1.131159 -1.310336 5.605844
-1.135038 -1.305753 5.505347
-1.138944 -1.301170 5.404851
-1.142881 -1.296587 5.304356
-1.146856 -1.292005 5.203863
-1.150875 -1.287424 5.103371
-1.154943 -1.282843 5.002881
-1.159067 -1.278263 4.902394
-1.163252 -1.273685 4.801909
-1.167505 -1.269107 4.701427
-1.171830 -1.264530 4.600948
-1.176233 -1.259955 4.500472
-1.180721 -1.255381 4.400000
-2.279086 -1.567855 15.051938
-3.358885 -1.901413 14.986364
-4.295204 -1.184991 14.878288
-4.728069 -0.074443 14.766736
-5.134975 1.051319 14.659271
-5.552809 2.173022 14.551311
-5.954190 3.304415 14.496136
-6.429286 4.406410 14.438367
-7.039032 5.438622 14.373854
-7.833708 6.333984 14.300896
-8.816000 7.016700 14.221650
-9.928927 7.457203 14.141158
-11.104902 7.686280 14.063077
-12.301864 7.754536 13.988512
-13.500248 7.704735 13.917320
-2.280354 -1.569401 15.051884
-3.356940 -1.901855 14.986523
-3.360829 -1.900972 14.986205
-4.293989 -1.186569 14.878469
-4.296420 -1.183413 14.878106
-4.727362 -0.076306 14.766911
-4.728775 -0.072580 14.766561
-5.134289 1.049448 14.659449
-5.135660 1.053189 14.659093
-5.552120 2.171151 14.551465
-5.553498 2.174893 14.551157
-5.953476 3.302549 14.496231
-5.954904 3.306280 14.496040
-6.428402 4.404619 14.438468
-6.430170 4.408201 14.438266
-7.037875 5.436995 14.373968
-7.040190 5.440249 14.373740
-7.832221 6.332654 14.301024
-7.835196 6.335315 14.300768
-8.814234 7.015769 14.221785
-8.817765 7.017630 14.221516
-9.927006 7.456663 14.141291
-9.930849 7.457742 14.141026
-11.102919 7.686050 14.063204
-11.106885 7.686510 14.062950
-12.299868 7.754534 13.988633
-12.303860 7.754537 13.988391
-13.498258 7.704901 13.917436
-2.296545 -1.589138 15.051201
-3.332115 -1.907491 14.988552
-3.385092 -1.893330 14.984076
-4.278467 -1.206716 14.880781
-4.310917 -1.162539 14.875760
-4.718343 -0.100094 14.769139
-4.737779 -0.048787 14.764330
-5.125536 1.025565 14.661717
-5.144412 1.077073 14.656828
-5.543327 2.147256 14.553432
-5.562291 2.198789 14.549191
-5.944365 3.278723 14.497453
-5.964015 3.330106 14.494818
-6.417116 4.381746 14.439758
-6.441455 4.431074 14.436976
-7.023095 5.416219 14.375428
-7.054970 5.461024 14.372280
-7.813223 6.315665 14.302656
-7.854194 6.352303 14.299135
-8.791693 7.003890 14.223500
-8.840306 7.029510 14.219801
-9.902474 7.449773 14.142982
-9.955381 7.464633 14.139334
-11.077602 7.683118 14.064826
-11.132202 7.689442 14.061329
-12.274377 7.754505 13.990179
-12.329351 7.754554 13.986845
-13.472848 7.706976 13.918916
-2.373591 -1.674996 15.047859
-2.516738 -1.788174 15.041058
-2.679748 -1.870450 15.032501
-2.855425 -1.920332 15.022307
-3.036930 -1.939258 15.010624
-3.218977 -1.928856 14.997535
-3.493340 -1.854310 14.974225
-3.655411 -1.771208 14.957709
-3.805524 -1.667866 14.940698
-3.945816 -1.551431 14.923827
-4.079885 -1.427816 14.907420
-4.205702 -1.295867 14.891175
-4.371875 -1.065013 14.864987
-4.449410 -0.900266 14.847417
-4.508466 -0.727876 14.829695
-4.560491 -0.553164 14.812303
-4.616182 -0.379543 14.795505
-4.677795 -0.207874 14.779252
-4.778278 0.059010 14.754200
-4.840690 0.230400 14.737962
-4.901505 0.402345 14.721523
-4.962123 0.574351 14.704992
-5.023616 0.746046 14.688465
-5.085954 0.917444 14.672021
-5.184004 1.185202 14.646648
-5.246682 1.356513 14.630590
-5.309731 1.527663 14.614271
-5.373640 1.698429 14.597292
-5.438433 1.868807 14.579768
-5.503126 2.039292 14.562950
-5.601112 2.307417 14.541729
-5.660969 2.480230 14.532457
-5.719876 2.653469 14.525269
-5.779290 2.826556 14.518591
-5.840401 2.999020 14.511199
-5.903525 3.170718 14.502931
-6.005847 3.437729 14.489301
-6.073494 3.607680 14.480685
-6.143148 3.776819 14.472117
-6.215076 3.944999 14.463454
-6.289553 4.112054 14.454601
-6.366785 4.277843 14.445557
-6.493554 4.534098 14.431091
-6.578905 4.695834 14.421637
-6.667778 4.855649 14.412011
-6.760350 5.013336 14.402198
-6.856813 5.168660 14.392189
-6.957343 5.321371 14.381981
-7.123167 5.554122 14.365614
-7.235084 5.698657 14.354878
-7.351537 5.839542 14.343944
-7.472590 5.976476 14.332814
-7.598252 6.109177 14.321497
-7.728505 6.237364 14.310003
-7.941416 6.427797 14.291703
-8.083325 6.542904 14.279813
-8.229411 6.652641 14.267804
-8.379474 6.756862 14.255694
-8.533278 6.855473 14.243505
-8.690587 6.948394 14.231256
-8.943103 7.081803 14.212032
-9.108319 7.159787 14.199717
-9.276060 7.232179 14.187409
-9.446063 7.299090 14.175122
-9.618081 7.360653 14.162868
-9.791904 7.416938 14.150660
-10.066750 7.494648 14.131691
-10.244207 7.538179 14.119641
-10.422724 7.577154 14.107662
-10.602146 7.611758 14.095760
-10.782332 7.642179 14.083936
-10.963173 7.668474 14.072195
-11.246892 7.701901 14.054009
-11.428876 7.718668 14.042483
-11.611146 7.732058 14.031040
-11.793629 7.742225 14.019680
-11.976264 7.749319 14.008401
-12.158998 7.753341 13.997207
-12.444737 7.754086 13.979865
-12.627504 7.751190 13.968871
-12.810220 7.745815 13.957953
-12.992855 7.738066 13.947108
-13.175383 7.728025 13.936336
-13.357778 7.715741 13.925637
169 NaN NaN
-2.278769 -1.567469 15.051951
-2.342541 -1.645206 15.049260
-2.415085 -1.714805 15.045987
-2.495246 -1.775448 15.042147
-2.581719 -1.826654 15.037765
-2.673186 -1.868244 15.032872
-2.768409 -1.900253 15.027495
-2.866274 -1.922835 15.021660
-2.965794 -1.936193 15.015382
-3.066088 -1.940515 15.008674
-3.166342 -1.935944 15.001539
-3.265772 -1.922555 14.993976
-3.363574 -1.900348 14.985980
-3.458885 -1.869261 14.977545
-3.550821 -1.829367 14.968686
-3.638968 -1.781722 14.959525
-3.723378 -1.727744 14.950203
-3.804386 -1.668780 14.940834
-3.882516 -1.606039 14.931509
-3.958399 -1.540575 14.922300
-4.032622 -1.473211 14.913257
-4.104919 -1.403771 14.904329
-4.174495 -1.331609 14.895422
-4.240416 -1.256106 14.886450
-4.301575 -1.176722 14.877338
-4.356688 -1.093057 14.868027
-4.404383 -1.004986 14.858482
-4.444636 -0.913280 14.848768
-4.479131 -0.819249 14.839008
-4.509751 -0.723874 14.829287
-4.538367 -0.627865 14.819667
-4.566821 -0.531792 14.810196
-4.596893 -0.436198 14.800923
-4.629197 -0.341314 14.791849
-4.663185 -0.247004 14.782928
-4.698254 -0.153081 14.774104
-4.733798 -0.059333 14.765320
-4.769210 0.034463 14.756516
-4.803950 0.128503 14.747641
-4.837988 0.222792 14.738687
-4.871543 0.317249 14.729674
-4.904832 0.411795 14.720618
-4.938077 0.506355 14.711535
-4.971495 0.600853 14.702441
-5.005253 0.695230 14.693354
-5.039318 0.789498 14.684284
-5.073608 0.883688 14.675246
-5.108041 0.977830 14.666251
-5.142538 1.071954 14.657311
-5.177016 1.166091 14.648438
-5.211448 1.260250 14.639618
-5.245905 1.354398 14.630790
-5.280470 1.448501 14.621886
-5.315223 1.542520 14.612842
-5.350246 1.636419 14.603589
-5.385612 1.730162 14.594069
-5.421255 1.823784 14.584383
-5.456968 1.917388 14.574787
-5.492542 2.011081 14.565543
-5.527764 2.104964 14.556914
-5.562418 2.199135 14.549162
-5.596306 2.293669 14.542532
-5.629469 2.388530 14.536988
-5.662130 2.483611 14.532290
-5.694519 2.578813 14.528196
-5.726865 2.674044 14.524462
-5.759402 2.769215 14.520848
-5.792359 2.864236 14.517108
-5.825933 2.959028 14.513047
-5.860140 3.053580 14.508679
-5.894948 3.147901 14.504082
-5.930323 3.242004 14.499336
-5.966231 3.335901 14.494521
-6.002640 3.429605 14.489714
-6.039547 3.523117 14.484961
-6.077000 3.616413 14.480244
-6.115052 3.709468 14.475539
-6.153757 3.802252 14.470824
-6.193168 3.894736 14.466075
-6.233336 3.986892 14.461269
-6.274301 4.078692 14.456400
-6.316096 4.170115 14.451471
-6.358753 4.261135 14.446486
-6.402305 4.351728 14.441450
-6.446781 4.441867 14.436367
-6.492215 4.531526 14.431240
-6.538642 4.620671 14.426067
-6.586102 4.709268 14.420845
-6.634629 4.797282 14.415570
-6.684261 4.884673 14.410241
-6.735033 4.971405 14.404853
-6.786977 5.057435 14.399406
-6.840123 5.142724 14.393898
-6.894503 5.227228 14.388330
-6.950144 5.310902 14.382700
-7.007075 5.393700 14.377010
-7.065321 5.475574 14.371258
-7.124902 5.556477 14.365445
-7.185837 5.636361 14.359570
-7.248143 5.715176 14.353634
-7.311835 5.792870 14.347638
-7.376927 5.869390 14.341581
-7.443427 5.944685 14.335465
-7.511333 6.018708 14.329291
-7.580645 6.091414 14.323062
-7.651357 6.162752 14.316777
-7.723467 6.232673 14.310441
-7.796966 6.301127 14.304054
-7.871834 6.368077 14.297619
-7.948046 6.433488 14.291140
-8.025580 6.497323 14.284619
-8.104409 6.559547 14.278059
-8.184508 6.620124 14.271463
-8.265844 6.679025 14.264835
-8.348376 6.736236 14.258178
-8.432062 6.791740 14.251495
-8.516863 6.845524 14.244790
-8.602739 6.897573 14.238067
-8.689648 6.947875 14.231328
-8.777543 6.996432 14.224577
-8.866377 7.043250 14.217817
-8.956101 7.088334 14.211052
-9.046673 7.131693 14.204283
-9.138046 7.173335 14.197515
-9.230177 7.213273 14.190750
-9.323020 7.251529 14.183990
-9.416530 7.288123 14.177237
-9.510666 7.323080 14.170494
-9.605387 7.356422 14.163763
-9.700653 7.388174 14.157046
-9.796427 7.418363 14.150344
-9.892673 7.447020 14.143658
-9.989354 7.474174 14.136991
-10.086438 7.499856 14.130343
-10.183893 7.524098 14.123715
-10.281689 7.546929 14.117109
-10.379799 7.568383 14.110525
-10.478195 7.588489 14.103964
-10.576852 7.607280 14.097426
-10.675746 7.624789 14.090912
-10.774856 7.641047 14.084422
-10.874159 7.656084 14.077957
-10.973638 7.669931 14.071518
-11.073272 7.682617 14.065103
-11.173046 7.694172 14.058713
-11.272942 7.704627 14.052349
-11.372947 7.714010 14.046011
-11.473046 7.722347 14.039697
-11.573226 7.729665 14.033409
-11.673475 7.735991 14.027146
-11.773783 7.741351 14.020908
-11.874137 7.745770 14.014696
-11.974529 7.749274 14.008508
-12.074950 7.751885 14.002344
-12.175392 7.753625 13.996205
-12.275846 7.754518 13.990090
-12.376305 7.754586 13.983998
-12.476763 7.753852 13.977931
-12.577214 7.752334 13.971886
-12.677651 7.750050 13.965865
-12.778071 7.747019 13.959866
-12.878467 7.743259 13.953891
-12.978835 7.738788 13.947937
-13.079171 7.733625 13.942005
-13.179472 7.727787 13.936095
-13.279733 7.721294 13.930207
-13.379952 7.714164 13.924339
-13.480127 7.706413 13.918491
-13.580254 7.698061 13.912664
-0.854811 -0.865473 21.394348
-0.698482 -0.590732 21.425705
-0.611674 -0.289765 21.472354
-0.642604 0.016841 21.537262
-0.801560 0.278862 21.612034
-1.038407 0.476488 21.685464
-0.853727 -0.863801 21.394519
-0.699345 -0.592522 21.425478
-0.697619 -0.588942 21.425931
-0.611961 -0.291714 21.472012
-0.611387 -0.287815 21.472696
-0.641993 0.014991 21.536809
-0.643214 0.018691 21.537716
-0.800240 0.277436 21.611561
-0.802880 0.280288 21.612507
-1.036759 0.475447 21.685019
-0.846882 -0.853239 21.395603
-0.704798 -0.603827 21.424045
-0.692166 -0.577638 21.427364
-0.613772 -0.304028 21.469850
-0.609576 -0.275501 21.474858
-0.638138 0.003307 21.533946
-0.647069 0.030375 21.540579
-0.791901 0.268430 21.608572
-0.811219 0.289294 21.615496
-1.026347 0.468870 21.682206
-0.828813 -0.825361 21.398463
-0.804740 -0.788220 21.402274
-0.781941 -0.750339 21.406416
-0.760054 -0.711929 21.410796
-0.738369 -0.673420 21.415224
-0.719192 -0.633666 21.420263
-0.680229 -0.546810 21.431699
-0.664436 -0.505695 21.437499
-0.649565 -0.464306 21.443487
-0.637997 -0.421935 21.450149
-0.626429 -0.379564 21.456812
-0.618554 -0.336531 21.464143
-0.607034 -0.242894 21.480912
-0.606825 -0.199302 21.489470
-0.606617 -0.155710 21.498027
-0.612270 -0.112707 21.507322
-0.618901 -0.069802 21.516741
-0.627963 -0.027534 21.526388
-0.657275 0.061204 21.548139
-0.677162 0.099530 21.558586
-0.697050 0.137855 21.569033
-0.719573 0.174545 21.579541
-0.744749 0.209586 21.590112
-0.769925 0.244628 21.600682
-0.833231 0.313066 21.623385
-0.864583 0.342693 21.633788
-0.897057 0.371188 21.644132
-0.929852 0.399295 21.654445
-0.964689 0.424935 21.664570
-0.999526 0.450574 21.674695
18 NaN NaN
-0.855082 -0.865891 21.394305
-0.794694 -0.772721 21.403865
-0.739794 -0.676374 21.414850
-0.691695 -0.576662 21.427488
-0.652088 -0.473547 21.442034
-0.623081 -0.367300 21.458740
-0.607110 -0.258739 21.477801
-0.606587 -0.149477 21.499251
-0.623206 -0.041952 21.522854
-0.657180 0.061022 21.548089
-0.707029 0.157085 21.574275
-0.770147 0.244936 21.600775
-0.843683 0.324353 21.627131
-0.925126 0.395817 21.653072
-1.012504 0.460126 21.678468
-1.104352 0.518144 21.703275
-1.199600 0.570680 21.727497
-1.297469 0.618442 21.751161
-0.899590 -1.199105 19.203297
-0.811493 -1.046450 19.163868
-0.734283 -0.887172 19.128255
-0.670893 -0.720919 19.097545
-0.628076 -0.547124 19.074249
-0.609205 -0.368403 19.059746
-0.618825 -0.188344 19.055890
-0.663453 -0.013880 19.065417
-0.737552 0.149013 19.086495
-0.836136 0.296933 19.117393
-0.954844 0.427160 19.156585
-1.086138 0.542754 19.201112
-1.226485 0.645544 19.249571
-0.898588 -1.197433 19.202851
-0.812429 -1.048166 19.164291
-0.810557 -1.044734 19.163446
-0.735050 -0.888983 19.128619
-0.733516 -0.885361 19.127892
-0.671501 -0.722798 19.097851
-0.670359 -0.719012 19.097265
-0.628462 -0.549073 19.074475
-0.627689 -0.545174 19.074023
-0.609228 -0.370401 19.059837
-0.609183 -0.366405 19.059655
-0.618495 -0.190313 19.055847
-0.619232 -0.186387 19.055961
-0.662832 -0.015775 19.065262
-0.664075 -0.011985 19.065572
-0.736553 0.147307 19.086191
-0.738551 0.150719 19.086800
-0.834873 0.295439 19.116980
-0.837408 0.298418 19.117809
-0.953470 0.425781 19.156126
-0.956218 0.428540 19.157044
-1.084617 0.541564 19.200590
-1.087659 0.543943 19.201634
-1.224868 0.644511 19.249006
-0.894668 -1.190891 19.201107
-0.816088 -1.054879 19.165945
-0.806897 -1.038021 19.161792
-0.738050 -0.896066 19.130040
-0.730515 -0.878278 19.126471
-0.674082 -0.730072 19.099122
-0.668271 -0.711553 19.096171
-0.629972 -0.556697 19.075359
-0.626179 -0.537550 19.073140
-0.609316 -0.378215 19.060195
-0.609094 -0.358591 19.059297
-0.617761 -0.198101 19.055895
-0.620821 -0.178733 19.056241
-0.660401 -0.023185 19.064656
-0.666506 -0.004575 19.066177
-0.732648 0.140635 19.085000
-0.742457 0.157392 19.087990
-0.830379 0.289197 19.115551
-0.842387 0.304228 19.119439
-0.948097 0.420386 19.154331
-0.961591 0.433934 19.158838
-1.078669 0.536912 19.198548
-1.093607 0.548595 19.203675
-1.218708 0.640189 19.246871
-0.885305 -1.175267 19.196941
-0.872916 -1.154591 19.191429
-0.860526 -1.133915 19.185917
-0.848137 -1.113239 19.180405
-0.836398 -1.092134 19.175120
-0.824830 -1.070915 19.169894
-0.798155 -1.021985 19.157843
-0.787275 -1.000355 19.152858
-0.776666 -0.978563 19.147969
-0.766057 -0.956770 19.143079
-0.755448 -0.934978 19.138190
-0.745217 -0.912985 19.133434
-0.723348 -0.861359 19.123077
-0.713864 -0.838970 19.118585
-0.704726 -0.816424 19.114217
-0.696567 -0.793432 19.110198
-0.688408 -0.770439 19.106179
-0.680248 -0.747447 19.102160
-0.663283 -0.693736 19.093558
-0.656683 -0.670159 19.090101
-0.650083 -0.646583 19.086643
-0.643483 -0.623006 19.083185
-0.638354 -0.599008 19.080263
-0.633580 -0.574909 19.077470
-0.622571 -0.519338 19.071029
-0.619342 -0.494946 19.068804
-0.616678 -0.470447 19.066787
-0.614015 -0.445948 19.064770
-0.611351 -0.421449 19.062753
-0.609528 -0.396880 19.061048
-0.608883 -0.339927 19.058443
-0.608604 -0.315228 19.057314
-0.609049 -0.290553 19.056457
-0.611369 -0.265936 19.056308
-0.613688 -0.241320 19.056158
-0.616008 -0.216704 19.056008
-0.624617 -0.160449 19.056908
-0.629640 -0.136255 19.057791
-0.634663 -0.112061 19.058675
-0.639686 -0.087867 19.059558
-0.646910 -0.064310 19.061294
-0.654594 -0.040887 19.063209
-0.672313 0.013126 19.067625
-0.681863 0.035745 19.070274
-0.692021 0.058102 19.073163
-0.702180 0.080459 19.076051
-0.712339 0.102816 19.078940
-0.723318 0.124697 19.082157
-0.751786 0.173329 19.090834
-0.764132 0.194419 19.094597
-0.777038 0.215099 19.098587
-0.791241 0.234829 19.103104
-0.805443 0.254558 19.107621
-0.819646 0.274287 19.112138
-0.854279 0.318105 19.123330
-0.870015 0.336469 19.128480
-0.885752 0.354832 19.133630
-0.901488 0.373195 19.138780
-0.918280 0.390448 19.144372
-0.935263 0.407500 19.150045
-0.974425 0.446821 19.163125
-0.992185 0.462927 19.169129
-1.010175 0.478755 19.175230
-1.028164 0.494583 19.181331
-1.046153 0.510411 19.187433
-1.064461 0.525799 19.193672
-1.107815 0.559708 19.208552
-1.126616 0.574413 19.215005
-1.145626 0.588795 19.221549
-1.165085 0.602479 19.228291
-1.184544 0.616164 19.235034
-1.204002 0.629848 19.241776
22 NaN NaN
-0.899840 -1.199523 19.203408
-0.845560 -1.108940 19.179259
-0.794880 -1.015978 19.156364
-0.748403 -0.920506 19.134943
-0.706856 -0.822425 19.115266
-0.671113 -0.721705 19.097660
-0.642202 -0.618431 19.082515
-0.621291 -0.512875 19.070280
-0.609626 -0.405577 19.061446
-0.608402 -0.297416 19.056499
-0.618560 -0.189622 19.055843
-0.640555 -0.083680 19.059711
-0.674203 0.018888 19.068096
-0.718689 0.116790 19.080746
-0.772758 0.209153 19.097226
-0.834964 0.295565 19.117009
-0.903892 0.376001 19.139566
-0.978286 0.450698 19.164415
-1.057092 0.520036 19.191143
-1.139459 0.584458 19.219412
-1.224708 0.644410 19.248950
-1.312307 0.700316 19.279539
-1.351980 -1.441750 17.062365
-1.103290 -1.189188 17.038363
-0.884713 -0.909845 17.022745
-0.721449 -0.595246 17.021195
-0.668136 -0.247452 17.044090
-0.773999 0.083833 17.096207
-0.999873 0.347191 17.165059
-1.283333 0.547487 17.239031
-1.350536 -1.440374 17.062217
-1.104612 -1.190685 17.038476
-1.101968 -1.187692 17.038250
-0.885831 -0.911503 17.022803
-0.883596 -0.908188 17.022687
-0.722194 -0.597102 17.021162
-0.720703 -0.593391 17.021228
-0.667919 -0.249427 17.043859
-0.668353 -0.245477 17.044320
-0.772993 0.082141 17.095851
-0.775004 0.085525 17.096563
-0.998424 0.345874 17.164653
-1.001323 0.348508 17.165465
-1.281631 0.546525 17.238610
-1.340471 -1.430787 17.061185
-1.113823 -1.201118 17.039262
-1.092758 -1.177259 17.037464
-0.893621 -0.923055 17.023207
-0.875806 -0.896636 17.022282
-0.727391 -0.610034 17.020933
-0.716034 -0.580280 17.021576
-0.666407 -0.263190 17.042252
-0.669865 -0.231714 17.045927
-0.765985 0.070350 17.093369
-0.782012 0.097316 17.099045
-0.988321 0.336698 17.161822
-1.011426 0.357684 17.168296
-1.269856 0.539671 17.235677
-1.313518 -1.405113 17.058422
-1.277577 -1.370877 17.054737
-1.242431 -1.335804 17.051285
-1.207357 -1.300655 17.047855
-1.173040 -1.264752 17.044644
-1.138972 -1.228601 17.041504
-1.068093 -1.149323 17.035359
-1.035989 -1.111386 17.032770
-1.004492 -1.072922 17.030349
-0.973663 -1.033925 17.028107
-0.943832 -0.994130 17.026135
-0.914480 -0.953989 17.024289
-0.855473 -0.865365 17.021334
-0.830121 -0.822539 17.020518
-0.804921 -0.779631 17.019739
-0.782605 -0.735140 17.019670
-0.760289 -0.690650 17.019600
-0.741307 -0.644663 17.020319
-0.705595 -0.544471 17.022976
-0.691673 -0.496720 17.024842
-0.681686 -0.448109 17.027551
-0.673379 -0.399129 17.030621
-0.668593 -0.349844 17.034401
-0.666827 -0.300296 17.038791
-0.673914 -0.194859 17.050230
-0.681877 -0.146249 17.056412
-0.694508 -0.098615 17.063405
-0.708424 -0.051457 17.070600
-0.727736 -0.006294 17.078649
-0.747220 0.038777 17.086723
-0.800814 0.128863 17.105695
-0.830460 0.167713 17.115141
-0.860106 0.206563 17.124587
-0.892813 0.242741 17.134370
-0.926083 0.278429 17.144215
-0.961266 0.312126 17.154241
-1.039913 0.380528 17.175989
-1.078165 0.410670 17.186269
-1.117257 0.439659 17.196601
-1.157207 0.467471 17.206987
-1.197601 0.494603 17.217393
-1.238892 0.520357 17.227842
26 NaN NaN
-1.352341 -1.442094 17.062402
-1.274567 -1.368010 17.054428
-1.198670 -1.291950 17.047006
-1.124951 -1.213722 17.040212
-1.053780 -1.133112 17.034138
-0.985625 -1.049882 17.028898
-0.921078 -0.963774 17.024631
-0.860893 -0.874519 17.021509
-0.806040 -0.781862 17.019743
-0.757761 -0.685609 17.019592
-0.717619 -0.585717 17.021364
-0.687509 -0.482436 17.025400
-0.669543 -0.376516 17.032038
-0.665726 -0.269385 17.041529
-0.677400 -0.163134 17.053934
-0.704707 -0.060151 17.069051
-0.746463 0.037503 17.086455
-0.800580 0.128556 17.105621
-0.864703 0.212588 17.126052
-0.936675 0.289790 17.147350
-1.014726 0.360681 17.169221
-1.097489 0.425897 17.191462
-1.183931 0.486076 17.213934
-1.273276 0.541804 17.236543
-1.364942 0.593599 17.259225
-1.458486 0.641907 17.281938
-1.808324 -1.506338 16.054555
-1.629706 -1.399295 16.079052
-1.455272 -1.285877 16.104931
-1.286388 -1.164740 16.132480
-1.125167 -1.034062 16.162089
-0.975067 -0.891381 16.194281
-0.842062 -0.733494 16.229731
-0.736838 -0.557045 16.269121
-0.677124 -0.361900 16.312389
-0.682452 -0.158717 16.357084
-0.755106 0.032179 16.398723
-0.876464 0.198597 16.434718
-1.026780 0.341182 16.465316
-1.193984 0.464756 16.491641
-1.371579 0.573721 16.514696
-1.806612 -1.505331 16.054786
-1.631400 -1.400331 16.078816
-1.628011 -1.398259 16.079289
-1.456922 -1.286979 16.104680
-1.453622 -1.284776 16.105182
-1.287978 -1.165922 16.132211
-1.284797 -1.163557 16.132749
-1.126673 -1.035346 16.161798
-1.123662 -1.032778 16.162379
-0.976446 -0.892795 16.193963
-0.973689 -0.889968 16.194599
-0.843239 -0.735073 16.229377
-0.840885 -0.731916 16.230084
-0.737674 -0.558819 16.268727
-0.736001 -0.555272 16.269516
-0.677407 -0.363833 16.311962
-0.676841 -0.359966 16.312816
-0.682032 -0.160628 16.356666
-0.682872 -0.156807 16.357502
-0.754106 0.030486 16.398356
-0.756106 0.033872 16.399090
-0.875113 0.197155 16.434408
-0.877816 0.200038 16.435029
-1.025230 0.339947 16.465052
-1.028331 0.342418 16.465580
-1.192315 0.463677 16.491412
-1.195652 0.465835 16.491870
-1.369835 0.572762 16.514494
-1.799044 -1.500880 16.055805
-1.638888 -1.404908 16.077769
-1.620567 -1.393614 16.080351
-1.464215 -1.291848 16.103570
-1.446329 -1.279907 16.106292
-1.295006 -1.171150 16.131024
-1.277769 -1.158330 16.133936
-1.133326 -1.041021 16.160514
-1.117009 -1.027102 16.163663
-0.982539 -0.899041 16.192556
-0.967596 -0.883721 16.196006
-0.848438 -0.742048 16.227815
-0.835686 -0.724941 16.231647
-0.741373 -0.566655 16.266982
-0.732303 -0.547436 16.271260
-0.678660 -0.372377 16.310074
-0.675588 -0.351423 16.314703
-0.680178 -0.169070 16.354817
-0.684726 -0.148365 16.359351
-0.749688 0.023005 16.396732
-0.760524 0.041353 16.400714
-0.869142 0.190785 16.433037
-0.883787 0.206409 16.436400
-1.018379 0.334485 16.463886
-1.035182 0.347879 16.466746
-1.184941 0.458910 16.490401
-1.203026 0.470603 16.492881
-1.362130 0.568525 16.513601
-1.780393 -1.489911 16.058317
-1.755658 -1.475365 16.061649
-1.730923 -1.460819 16.064980
-1.706292 -1.446109 16.068347
-1.681817 -1.431149 16.071768
-1.657343 -1.416189 16.075189
-1.602336 -1.381992 16.083004
-1.578159 -1.366578 16.086524
-1.553982 -1.351164 16.090043
-1.529857 -1.335675 16.093579
-1.506022 -1.319761 16.097207
-1.482187 -1.303848 16.100834
-1.428619 -1.267542 16.109107
-1.405182 -1.251075 16.112854
-1.381745 -1.234608 16.116601
-1.358308 -1.218141 16.120349
-1.335295 -1.201114 16.124217
-1.312326 -1.184031 16.128098
-1.260680 -1.145162 16.136924
-1.238266 -1.127389 16.140953
-1.215852 -1.109616 16.144983
-1.193438 -1.091844 16.149012
-1.171468 -1.073556 16.153153
-1.149723 -1.055007 16.157349
-1.100752 -1.012966 16.166860
-1.079824 -0.993541 16.171245
-1.058897 -0.974117 16.175630
-1.037969 -0.954693 16.180016
-1.017468 -0.934852 16.184490
-0.997555 -0.914436 16.189089
-0.952580 -0.868326 16.199473
-0.933855 -0.846869 16.204295
-0.915221 -0.825331 16.209133
-0.896587 -0.803794 16.213971
-0.878246 -0.782032 16.218858
-0.861252 -0.759236 16.223964
-0.822872 -0.707753 16.235498
-0.807340 -0.684010 16.240805
-0.792476 -0.659836 16.246204
-0.777612 -0.635661 16.251603
-0.762748 -0.611487 16.257002
-0.750486 -0.585967 16.262684
-0.723189 -0.528124 16.275559
-0.712699 -0.501915 16.281383
-0.704189 -0.474964 16.287360
-0.695679 -0.448013 16.293336
-0.687169 -0.421062 16.299313
-0.681746 -0.393432 16.305424
-0.672502 -0.330367 16.319354
-0.669468 -0.302386 16.325528
-0.670409 -0.274188 16.331730
-0.671350 -0.245990 16.337932
-0.672291 -0.217791 16.344134
-0.675608 -0.189875 16.350262
-0.689296 -0.127560 16.363907
-0.695356 -0.099969 16.369948
-0.705920 -0.073709 16.375673
-0.716593 -0.047481 16.381390
-0.727265 -0.021253 16.387107
-0.738801 0.004568 16.392731
-0.771411 0.059791 16.404715
-0.785851 0.084242 16.410022
-0.802433 0.107313 16.415013
-0.819771 0.129898 16.419893
-0.837109 0.152482 16.424774
-0.854447 0.175067 16.429654
-0.898504 0.222109 16.439778
-0.918021 0.242930 16.444259
-0.938352 0.262963 16.448562
-0.959503 0.282201 16.452686
-0.980655 0.301439 16.456810
-1.001807 0.320677 16.460933
-1.052067 0.361338 16.469620
-1.074459 0.379186 16.473432
-1.097095 0.396725 16.477174
-1.120444 0.413362 16.480714
-1.143793 0.430000 16.484253
-1.167141 0.446637 16.487793
-1.221198 0.482353 16.495372
-1.245297 0.497935 16.498675
-1.269404 0.513506 16.501977
-1.294102 0.528166 16.505074
-1.318800 0.542825 16.508171
-1.343498 0.557484 16.511269
30 NaN NaN
-1.808752 -1.506590 16.054497
-1.715969 -1.452024 16.066994
-1.624163 -1.395907 16.079827
-1.533472 -1.338088 16.093029
-1.444065 -1.278395 16.106637
-1.356151 -1.216625 16.120694
-1.269991 -1.152545 16.135250
-1.185916 -1.085879 16.150365
-1.104351 -1.016306 16.166106
-1.025854 -0.943449 16.182554
-0.951163 -0.866874 16.199801
-0.881277 -0.786097 16.217947
-0.817547 -0.700610 16.237098
-0.761811 -0.609963 16.257343
-0.716499 -0.513950 16.278714
-0.684605 -0.412941 16.301114
-0.669270 -0.308317 16.324224
-0.672795 -0.202684 16.347457
-0.695500 -0.099316 16.370091
-0.735494 -0.001032 16.391515
-0.789618 0.090621 16.411406
-0.854625 0.175298 16.429704
-0.927813 0.253377 16.446507
-1.007139 0.325526 16.461973
-1.091124 0.392469 16.476268
-1.178700 0.454874 16.489546
-1.269093 0.513322 16.501938
-1.361736 0.568309 16.513556
-1.456204 0.620251 16.524494
-1.552171 0.669497 16.534831
-2.065085 -1.608928 14.688903
-1.870449 -1.514981 14.752805
-1.679473 -1.414758 14.818177
-1.493247 -1.307022 14.885245
-1.313396 -1.190124 14.954284
-1.142458 -1.061842 15.025605
-0.984594 -0.919185 15.099503
-0.846967 -0.758339 15.176040
-0.741991 -0.575615 15.254356
-0.688550 -0.371652 15.331063
-0.703594 -0.158636 15.399269
-0.784414 0.043911 15.452945
-0.911597 0.225441 15.491852
-1.067335 0.385879 15.518956
-1.240041 0.529344 15.537573
-1.423654 0.659366 15.549894
-2.063350 -1.608108 14.689466
-1.872155 -1.515851 14.752229
-1.868743 -1.514110 14.753381
-1.681142 -1.415689 14.817587
-1.677804 -1.413828 14.818766
-1.494867 -1.308025 14.884639
-1.491626 -1.306019 14.885850
-1.314952 -1.191215 14.953660
-1.311841 -1.189032 14.954908
-1.143921 -1.063044 15.024961
-1.140995 -1.060641 15.026250
-0.985921 -0.920524 15.098836
-0.983268 -0.917845 15.100171
-0.848080 -0.759851 15.175351
-0.845853 -0.756827 15.176729
-0.742763 -0.577323 15.253659
-0.741219 -0.573907 15.255052
-0.688809 -0.373521 15.330399
-0.688291 -0.369784 15.331727
-0.703241 -0.160521 15.398702
-0.703948 -0.156751 15.399835
-0.783542 0.042164 15.452512
-0.785286 0.045658 15.453379
-0.910357 0.223903 15.491550
-0.912928 0.226910 15.492116
-1.065839 0.384564 15.518771
-1.068831 0.387194 15.519141
-1.238439 0.528153 15.537447
-1.241643 0.530535 15.537700
-1.421980 0.658274 15.549813
-2.055206 -1.604260 14.692113
-1.880178 -1.519913 14.749533
-1.860735 -1.510023 14.756084
-1.688977 -1.420058 14.814820
-1.669968 -1.409458 14.821534
-1.502476 -1.312733 14.881797
-1.484017 -1.301310 14.888692
-1.322254 -1.196338 14.950732
-1.304539 -1.183909 14.957836
-1.150790 -1.068683 15.021934
-1.134126 -1.055002 15.029277
-0.992147 -0.926813 15.095701
-0.977042 -0.911556 15.103306
-0.853305 -0.766949 15.172116
-0.840628 -0.749730 15.179964
-0.746387 -0.585342 15.250387
-0.737594 -0.565888 15.258324
-0.690025 -0.382293 15.327282
-0.687076 -0.361012 15.334844
-0.701581 -0.169370 15.396043
-0.705608 -0.147901 15.402495
-0.779450 0.033964 15.450476
-0.789648 0.053726 15.455325
-0.904660 0.216587 15.490078
-0.919176 0.233808 15.493357
-1.058888 0.378322 15.517866
-1.075852 0.393364 15.520011
-1.230920 0.522563 15.536855
-1.249162 0.536125 15.538292
-1.414124 0.653148 15.549431
-2.034857 -1.594644 14.698725
-2.007846 -1.581880 14.707502
-1.980835 -1.569116 14.716280
-1.953964 -1.556102 14.725117
-1.927165 -1.542958 14.733985
-1.900367 -1.529814 14.742852
-1.840726 -1.499811 14.762837
-1.814166 -1.486256 14.771801
-1.787605 -1.472701 14.780766
-1.761299 -1.458722 14.789828
-1.735007 -1.444719 14.798896
-1.708715 -1.430717 14.807964
-1.650391 -1.398542 14.828448
-1.624404 -1.384051 14.837627
-1.598499 -1.369434 14.846834
-1.572861 -1.354408 14.856132
-1.547223 -1.339381 14.865429
-1.521585 -1.324355 14.874727
-1.465006 -1.289546 14.895793
-1.439769 -1.273931 14.905219
-1.414778 -1.257975 14.914717
-1.390009 -1.241707 14.924281
-1.365241 -1.225440 14.933845
-1.340498 -1.209138 14.943416
-1.286294 -1.171109 14.965152
-1.262076 -1.154117 14.974864
-1.238386 -1.136472 14.984704
-1.214820 -1.118673 14.994574
-1.191255 -1.100874 15.004445
-1.167951 -1.082773 15.014371
-1.116964 -1.040912 15.036839
-1.094276 -1.022110 15.046895
-1.072450 -1.002391 15.057111
-1.050624 -0.982673 15.067326
-1.028797 -0.962954 15.077541
-1.007703 -0.942527 15.087869
-0.961486 -0.895842 15.111137
-0.941401 -0.874493 15.121602
-0.922220 -0.852361 15.132174
-0.903038 -0.830228 15.142747
-0.883857 -0.808095 15.153319
-0.866360 -0.784682 15.164034
-0.827573 -0.731997 15.188047
-0.811824 -0.707438 15.198848
-0.796840 -0.682385 15.209685
-0.781857 -0.657333 15.220521
-0.767465 -0.631972 15.231361
-0.755444 -0.605377 15.242212
-0.728538 -0.545853 15.266499
-0.720048 -0.517886 15.277212
-0.711688 -0.489868 15.287921
-0.703328 -0.461850 15.298629
-0.697096 -0.433303 15.309155
-0.693063 -0.404210 15.319494
-0.685264 -0.338970 15.342468
-0.685991 -0.309390 15.352168
-0.686719 -0.279811 15.361868
-0.687446 -0.250231 15.371568
-0.691928 -0.220832 15.380577
-0.697433 -0.191481 15.389398
-0.712166 -0.126270 15.408576
-0.722040 -0.097787 15.416375
-0.731913 -0.069305 15.424173
-0.742080 -0.040924 15.431889
-0.755653 -0.013725 15.438640
-0.769225 0.013474 15.445391
-0.802118 0.073114 15.459668
-0.818670 0.098851 15.465432
-0.835222 0.124587 15.471197
-0.852641 0.149779 15.476635
-0.871534 0.174043 15.481517
-0.890427 0.198308 15.486399
-0.934785 0.251040 15.496456
-0.955506 0.273916 15.500570
-0.976227 0.296791 15.504684
-0.997892 0.318831 15.508362
-1.020046 0.340438 15.511814
-1.042199 0.362045 15.515266
-1.093397 0.408783 15.522182
-1.116685 0.429250 15.525065
-1.139974 0.449717 15.527948
-1.164125 0.469219 15.530365
-1.188324 0.488668 15.532757
-1.212523 0.508116 15.535149
-1.267950 0.550092 15.539773
-1.292889 0.568632 15.541739
-1.317971 0.586981 15.543617
-1.343520 0.604710 15.545211
-1.369068 0.622438 15.546804
-1.394617 0.640166 15.548398
33 NaN NaN
-2.065518 -1.609133 14.688762
-1.971643 -1.564773 14.719267
-1.878506 -1.519093 14.750086
-1.786198 -1.471983 14.781241
-1.694822 -1.423318 14.812755
-1.604507 -1.372955 14.844655
-1.515405 -1.320733 14.876969
-1.427700 -1.266462 14.909728
-1.341622 -1.209926 14.942965
-1.257455 -1.150876 14.976717
-1.175559 -1.089019 15.011019
-1.096391 -1.024021 15.045905
-1.020542 -0.955496 15.081405
-0.948785 -0.883013 15.117532
-0.882134 -0.806107 15.154269
-0.821920 -0.724318 15.191546
-0.769866 -0.637285 15.229193
-0.728110 -0.544907 15.266885
-0.699078 -0.447606 15.304073
-0.685077 -0.346590 15.339969
-0.687602 -0.243895 15.373645
-0.706717 -0.141988 15.404272
-0.741004 -0.043079 15.431354
-0.788147 0.051392 15.454802
-0.845648 0.140799 15.474828
-0.911292 0.225104 15.491791
-0.983290 0.304590 15.506086
-1.060273 0.379673 15.518082
-1.141203 0.450797 15.528100
-1.225299 0.518385 15.536412
-1.311969 0.582817 15.543243
-1.400759 0.644428 15.548781
-1.491314 0.703510 15.553183
-1.877351 -1.640101 14.311289
-1.781866 -1.576151 14.306629
-1.687477 -1.510570 14.302342
-1.594338 -1.443204 14.298471
-1.502635 -1.373872 14.295065
-1.412601 -1.302367 14.292185
-1.324525 -1.228448 14.289904
-1.238773 -1.151832 14.288310
-1.155817 -1.072195 14.287515
-1.076272 -0.989158 14.287653
-1.000954 -0.902295 14.288898
-0.930957 -0.811141 14.291463
-0.867760 -0.715237 14.295617
-0.813351 -0.614235 14.301683
-0.770311 -0.508110 14.310025
-0.741737 -0.397520 14.320985
-0.730737 -0.284210 14.334760
-0.739414 -0.171096 14.351250
-0.767839 -0.061597 14.370001
-0.813934 0.041504 14.390349
-0.874424 0.136774 14.411644
-0.945975 0.224023 14.433396
-1.025810 0.303788 14.455290
-1.111837 0.376888 14.477147
-1.202541 0.444169 14.498869
-1.296861 0.506356 14.520406
-1.394034 0.564067 14.541736
-1.493404 0.617984 14.562860
-1.875689 -1.638990 14.311207
-1.783509 -1.577289 14.306704
-1.780223 -1.575013 14.306554
-1.689100 -1.511738 14.302410
-1.685855 -1.509403 14.302274
-1.595936 -1.444404 14.298531
-1.592739 -1.442004 14.298410
-1.504207 -1.375108 14.295117
-1.501063 -1.372637 14.295013
-1.414141 -1.303642 14.292227
-1.411061 -1.301092 14.292142
-1.326028 -1.229767 14.289935
-1.323022 -1.227129 14.289872
-1.240232 -1.153200 14.288329
-1.237314 -1.150465 14.288292
-1.157223 -1.073617 14.287518
-1.154411 -1.070773 14.287511
-1.077613 -0.990642 14.287640
-1.074931 -0.987674 14.287667
-1.002214 -0.903847 14.288864
-0.999693 -0.900742 14.288932
-0.932116 -0.812769 14.291404
-0.929798 -0.809512 14.291522
-0.868790 -0.716949 14.295529
-0.866731 -0.713524 14.295705
-0.814214 -0.616034 14.301561
-0.812487 -0.612435 14.301806
-0.770962 -0.509994 14.309862
-0.769660 -0.506226 14.310189
-0.742123 -0.399471 14.320776
-0.741351 -0.395568 14.321195
-0.730809 -0.286192 14.334503
-0.730664 -0.282228 14.335018
-0.739149 -0.173055 14.350948
-0.739680 -0.169136 14.351551
-0.767247 -0.063477 14.369664
-0.768432 -0.059716 14.370337
-0.813059 0.039742 14.389989
-0.814809 0.043266 14.390709
-0.873322 0.135147 14.411271
-0.875526 0.138400 14.412017
-0.944699 0.222530 14.433016
-0.947251 0.225516 14.433775
-1.024403 0.302419 14.454909
-1.027217 0.305158 14.455671
-1.110331 0.375628 14.476767
-1.113344 0.378148 14.477527
-1.200959 0.443005 14.498491
-1.204123 0.445332 14.499246
-1.295192 0.505321 14.520034
-1.298549 0.507363 14.520778
-1.392308 0.563124 14.541369
-1.395759 0.565009 14.542104
-1.491648 0.617098 14.562496
-1.871100 -1.635921 14.310983
-1.788072 -1.580397 14.306920
-1.775684 -1.571869 14.306346
-1.693582 -1.514964 14.302599
-1.681372 -1.506177 14.302085
-1.600354 -1.447719 14.298699
-1.588321 -1.438689 14.298243
-1.508549 -1.378522 14.295260
-1.496721 -1.369223 14.294869
-1.418397 -1.307165 14.292344
-1.406805 -1.297569 14.292026
-1.330181 -1.233411 14.290021
-1.318869 -1.223485 14.289786
-1.244263 -1.156979 14.288380
-1.233283 -1.146686 14.288241
-1.161107 -1.077547 14.287528
-1.150527 -1.066843 14.287501
-1.081318 -0.994741 14.287602
-1.071226 -0.983575 14.287705
-1.005696 -0.908136 14.288769
-0.996211 -0.896453 14.289026
-0.935318 -0.817270 14.291242
-0.926595 -0.805012 14.291684
-0.871635 -0.721679 14.295286
-0.863885 -0.708794 14.295948
-0.816601 -0.621006 14.301221
-0.810100 -0.607463 14.302146
-0.772761 -0.515198 14.309409
-0.767860 -0.501021 14.310642
-0.743189 -0.404861 14.320196
-0.740285 -0.390178 14.321775
-0.731009 -0.291668 14.333791
-0.730464 -0.276752 14.335730
-0.738414 -0.178468 14.350115
-0.740414 -0.163724 14.352385
-0.765611 -0.068672 14.368735
-0.770068 -0.054521 14.371267
-0.810641 0.034874 14.388994
-0.817228 0.048133 14.391703
-0.870278 0.130653 14.410239
-0.878571 0.142895 14.413048
-0.941174 0.218406 14.431968
-0.950776 0.229640 14.434823
-1.020515 0.298636 14.453857
-1.031104 0.308941 14.456724
-1.106169 0.372148 14.475717
-1.117505 0.381628 14.478577
-1.196587 0.439790 14.497448
-1.208622 0.448366 14.500283
-1.290658 0.502337 14.518999
-1.303213 0.510144 14.521803
-1.387577 0.560459 14.540350
-1.400526 0.567613 14.543120
-1.486797 0.614650 14.561490
-1.861395 -1.629431 14.310508
-1.848671 -1.620922 14.309885
-1.835948 -1.612413 14.309263
-1.823224 -1.603905 14.308640
-1.810501 -1.595396 14.308017
-1.797777 -1.586888 14.307395
-1.766085 -1.565220 14.305908
-1.753500 -1.556504 14.305332
-1.740916 -1.547788 14.304757
-1.728331 -1.539071 14.304182
-1.715747 -1.530355 14.303607
-1.703163 -1.521639 14.303032
-1.671893 -1.499356 14.301687
-1.659467 -1.490413 14.301164
-1.647040 -1.481470 14.300641
-1.634613 -1.472527 14.300119
-1.622186 -1.463584 14.299596
-1.609760 -1.454642 14.299073
-1.578980 -1.431678 14.297889
-1.566733 -1.422487 14.297425
-1.554487 -1.413296 14.296961
-1.542240 -1.404105 14.296497
-1.529993 -1.394913 14.296033
-1.517747 -1.385722 14.295568
-1.487538 -1.362004 14.294565
-1.475499 -1.352539 14.294167
-1.463460 -1.343075 14.293769
-1.451421 -1.333610 14.293371
-1.439382 -1.324146 14.292972
-1.427396 -1.314615 14.292591
-1.397807 -1.290120 14.291779
-1.386009 -1.280353 14.291455
-1.374212 -1.270586 14.291131
-1.362414 -1.260820 14.290807
-1.350617 -1.251053 14.290484
-1.338963 -1.241116 14.290203
-1.310086 -1.215779 14.289604
-1.298573 -1.205677 14.289365
-1.287059 -1.195575 14.289126
-1.275546 -1.185473 14.288887
-1.264032 -1.175370 14.288649
-1.252788 -1.164970 14.288487
-1.224758 -1.138695 14.288133
-1.213583 -1.128218 14.287992
-1.202407 -1.117742 14.287851
-1.191231 -1.107265 14.287709
-1.180090 -1.096754 14.287578
-1.169321 -1.085858 14.287550
-1.142313 -1.058532 14.287480
-1.131544 -1.047636 14.287452
-1.120775 -1.036741 14.287424
-1.110007 -1.025846 14.287396
-1.099423 -1.014775 14.287417
-1.089152 -1.003410 14.287522
-1.063391 -0.974906 14.287785
-1.053120 -0.963541 14.287890
-1.042849 -0.952176 14.287994
-1.032578 -0.940811 14.288099
-1.022715 -0.929098 14.288308
-1.013060 -0.917207 14.288570
-0.988847 -0.887383 14.289226
-0.979193 -0.875492 14.289488
-0.969538 -0.863601 14.289750
-0.959884 -0.851709 14.290011
-0.950968 -0.839262 14.290451
-0.942090 -0.826786 14.290900
-0.919824 -0.795495 14.292026
-0.910946 -0.783019 14.292475
-0.902068 -0.770543 14.292924
-0.893428 -0.757913 14.293427
-0.885540 -0.744798 14.294100
-0.877652 -0.731683 14.294773
-0.857869 -0.698790 14.296461
-0.849981 -0.685675 14.297134
-0.842093 -0.672560 14.297807
-0.834879 -0.659090 14.298622
-0.828263 -0.645306 14.299563
-0.821647 -0.631521 14.300504
-0.805054 -0.596948 14.302863
-0.798438 -0.583164 14.303804
-0.791822 -0.569379 14.304745
-0.786543 -0.555064 14.305943
-0.781555 -0.540635 14.307198
-0.776566 -0.526205 14.308452
-0.764055 -0.490014 14.311599
-0.759067 -0.475585 14.312853
-0.754311 -0.461096 14.314148
-0.751355 -0.446151 14.315755
-0.748399 -0.431206 14.317363
-0.745444 -0.416261 14.318970
-0.738030 -0.378778 14.323001
-0.735074 -0.363833 14.324608
-0.733100 -0.348792 14.326365
-0.732544 -0.333610 14.328339
-0.731989 -0.318429 14.330312
-0.731433 -0.303248 14.332286
-0.730040 -0.265172 14.337235
-0.729484 -0.249991 14.339209
-0.730756 -0.234933 14.341420
-0.732792 -0.219927 14.343731
-0.734827 -0.204920 14.346041
-0.736862 -0.189914 14.348352
-0.741966 -0.152277 14.354147
-0.744008 -0.137272 14.356459
-0.748544 -0.122869 14.359036
-0.753080 -0.108466 14.361614
-0.757615 -0.094062 14.364191
-0.762151 -0.079659 14.366769
-0.773528 -0.043534 14.373233
-0.778711 -0.029402 14.375864
-0.785415 -0.015907 14.378621
-0.792119 -0.002411 14.381378
-0.798823 0.011084 14.384135
-0.805527 0.024580 14.386892
-0.822341 0.058427 14.393806
-0.830075 0.071309 14.396623
-0.838516 0.083769 14.399482
-0.846957 0.096229 14.402341
-0.855398 0.108689 14.405200
-0.863839 0.121149 14.408059
-0.885010 0.152399 14.415229
-0.894629 0.163950 14.418129
-0.904402 0.175384 14.421035
-0.914175 0.186817 14.423940
-0.923947 0.198251 14.426846
-0.933720 0.209685 14.429752
-0.958407 0.238194 14.437042
-0.969184 0.248683 14.439959
-0.979962 0.259171 14.442877
-0.990739 0.269659 14.445795
-1.001517 0.280147 14.448713
-1.012294 0.290636 14.451631
-1.039680 0.316549 14.458946
-1.051217 0.326197 14.461856
-1.062755 0.335845 14.464767
-1.074293 0.345493 14.467677
-1.085831 0.355141 14.470587
-1.097368 0.364789 14.473497
-1.126745 0.388431 14.480783
-1.138865 0.397343 14.483675
-1.150984 0.406256 14.486567
-1.163104 0.415168 14.489458
-1.175223 0.424080 14.492350
-1.187343 0.432992 14.495242
-1.218211 0.454675 14.502471
-1.230783 0.462946 14.505339
-1.243354 0.471216 14.508207
-1.255925 0.479487 14.511075
-1.268497 0.487758 14.513943
-1.281068 0.496029 14.516812
-1.313074 0.516025 14.523971
-1.326002 0.523736 14.526813
-1.338931 0.531446 14.529655
-1.351859 0.539157 14.532497
-1.364788 0.546867 14.535340
-1.377716 0.554578 14.538182
-1.410606 0.573120 14.545267
-1.423820 0.580339 14.548083
-1.437035 0.587558 14.550899
-1.450250 0.594777 14.553715
-1.463464 0.601996 14.556530
-1.476679 0.609215 14.559346
30 NaN NaN
-1.877766 -1.640379 14.311309
-1.785902 -1.578946 14.306814
-1.695043 -1.516015 14.302660
-1.605322 -1.451448 14.298887
-1.516902 -1.385088 14.295536
-1.429981 -1.316756 14.292662
-1.344805 -1.246242 14.290324
-1.261680 -1.173306 14.288600
-1.180995 -1.097669 14.287580
-1.103251 -1.019010 14.287378
-1.029099 -0.936962 14.288135
-0.959405 -0.851119 14.290024
-0.895320 -0.761059 14.293265
-0.838386 -0.666397 14.298124
-0.790640 -0.566917 14.304913
-0.754649 -0.462804 14.313964
-0.733327 -0.355002 14.325558
-0.729321 -0.245520 14.339790
-0.743997 -0.137308 14.356452
-0.776709 -0.033430 14.375041
-0.825072 0.063924 14.394929
-0.885980 0.153830 14.415557
-0.956509 0.236348 14.436528
-1.034302 0.312053 14.457590
-1.117590 0.381699 14.478598
-1.205082 0.446037 14.499475
-1.295840 0.505747 14.520182
-1.389178 0.561414 14.540702
-1.484585 0.613534 14.561031
-1.581676 0.662524 14.581171
-1.576044 -1.673507 13.522508
-1.489541 -1.600449 13.513180
-1.404523 -1.525606 13.504384
-1.321198 -1.448818 13.496183
-1.239823 -1.369903 13.488655
-1.160712 -1.288656 13.481890
-1.084253 -1.204847 13.475999
-1.010935 -1.118221 13.471115
-0.941374 -1.028505 13.467404
-0.876358 -0.935412 13.465065
-0.816892 -0.838673 13.464345
-0.764256 -0.738086 13.465538
-0.720052 -0.633605 13.468988
-0.686199 -0.525487 13.475070
-0.664814 -0.414484 13.484137
-0.657887 -0.302006 13.496439
-0.666775 -0.190098 13.512011
-0.691703 -0.081108 13.530613
-0.731631 0.022879 13.551771
-0.784599 0.120483 13.574901
-0.848299 0.211141 13.599448
-0.920541 0.294920 13.624957
-0.999481 0.372255 13.651092
-1.083660 0.443740 13.677618
-1.171961 0.509996 13.704375
-1.263538 0.571608 13.731254
-1.357748 0.629099 13.758186
-1.454116 0.682900 13.785122
-1.574520 -1.672222 13.522343
-1.491040 -1.601764 13.513335
-1.488043 -1.599134 13.513024
-1.405993 -1.526954 13.504529
-1.403052 -1.524258 13.504238
-1.322636 -1.450202 13.496318
-1.319760 -1.447435 13.496049
-1.241224 -1.371325 13.488777
-1.238423 -1.368480 13.488533
-1.162069 -1.290121 13.481997
-1.159355 -1.287190 13.481783
-1.085559 -1.206358 13.476089
-1.082947 -1.203335 13.475908
-1.012180 -1.119784 13.471187
-1.009689 -1.116658 13.471043
-0.942547 -1.030124 13.467453
-0.940201 -1.026886 13.467354
-0.877443 -0.937091 13.465089
-0.875272 -0.933732 13.465041
-0.817870 -0.840417 13.464338
-0.815913 -0.836929 13.464352
-0.765104 -0.739897 13.465495
-0.763408 -0.736275 13.465581
-0.720739 -0.635481 13.468904
-0.719365 -0.631728 13.469073
-0.686692 -0.527420 13.474937
-0.685707 -0.523553 13.475203
-0.665076 -0.416458 13.483951
-0.664551 -0.412510 13.484323
-0.657890 -0.303991 13.496197
-0.657884 -0.300021 13.496681
-0.666502 -0.192057 13.511713
-0.667047 -0.188140 13.512308
-0.691159 -0.083001 13.530266
-0.692246 -0.079214 13.530959
-0.730842 0.021082 13.551384
-0.732420 0.024676 13.552157
-0.783601 0.118801 13.574485
-0.785597 0.122166 13.575318
-0.847131 0.209578 13.599010
-0.849468 0.212704 13.599886
-0.919237 0.293473 13.624505
-0.921846 0.296366 13.625410
-0.998069 0.370916 13.650630
-1.000892 0.373594 13.651555
-1.082163 0.442498 13.677150
-1.085156 0.444982 13.678086
-1.170398 0.508841 13.703903
-1.173525 0.511151 13.704846
-1.261921 0.570531 13.730781
-1.265156 0.572685 13.731728
-1.356087 0.628092 13.757712
-1.359409 0.630107 13.758660
-1.452403 0.681984 13.784648
-1.570348 -1.668704 13.521893
-1.495181 -1.605321 13.513775
-1.483939 -1.595533 13.512598
-1.410020 -1.530644 13.504928
-1.399026 -1.520568 13.503839
-1.326574 -1.453990 13.496686
-1.315823 -1.443646 13.495681
-1.245059 -1.375220 13.489110
-1.234588 -1.364585 13.488200
-1.165785 -1.294133 13.482291
-1.155639 -1.283179 13.481489
-1.089135 -1.210498 13.476338
-1.079371 -1.199195 13.475659
-1.015591 -1.124065 13.471383
-1.006279 -1.112378 13.470847
-0.945759 -1.034557 13.467589
-0.936989 -1.022452 13.467218
-0.880415 -0.941691 13.465154
-0.872300 -0.929133 13.464977
-0.820550 -0.845193 13.464319
-0.813233 -0.832153 13.464370
-0.767425 -0.744856 13.465379
-0.761087 -0.731316 13.465697
-0.722621 -0.640619 13.468673
-0.717483 -0.626590 13.469304
-0.688041 -0.532716 13.474574
-0.684358 -0.518258 13.475566
-0.665795 -0.421863 13.483442
-0.663832 -0.407105 13.484833
-0.657897 -0.309427 13.495533
-0.657877 -0.294585 13.497345
-0.665755 -0.197421 13.510899
-0.667794 -0.182776 13.513122
-0.689672 -0.088186 13.529318
-0.693733 -0.074030 13.531908
-0.728683 0.016162 13.550326
-0.734579 0.029596 13.553215
-0.780869 0.114194 13.573344
-0.788330 0.126773 13.576459
-0.843931 0.205299 13.597811
-0.852668 0.216983 13.601086
-0.915665 0.289511 13.623266
-0.925418 0.300328 13.626649
-0.994204 0.367248 13.649365
-1.004758 0.377262 13.652820
-1.078067 0.439098 13.675869
-1.089253 0.448383 13.679368
-1.166117 0.505679 13.702612
-1.177805 0.514313 13.706137
-1.257492 0.567582 13.729485
-1.269594 0.575618 13.733024
-1.351538 0.625332 13.756414
-1.364039 0.632728 13.759959
-1.447756 0.679393 13.783350
-1.561559 -1.661293 13.520943
-1.550041 -1.651581 13.519699
-1.538523 -1.641869 13.518456
-1.527005 -1.632156 13.517212
-1.515487 -1.622444 13.515968
-1.503969 -1.612732 13.514724
-1.475294 -1.587948 13.511701
-1.463965 -1.578008 13.510524
-1.452636 -1.568068 13.509348
-1.441307 -1.558128 13.508172
-1.429977 -1.548188 13.506996
-1.418648 -1.538248 13.505820
-1.390545 -1.512794 13.502999
-1.379430 -1.502607 13.501899
-1.368315 -1.492419 13.500798
-1.357201 -1.482231 13.499698
-1.346086 -1.472043 13.498597
-1.334971 -1.461856 13.497496
-1.307529 -1.435667 13.494906
-1.296659 -1.425210 13.493890
-1.285790 -1.414752 13.492874
-1.274920 -1.404295 13.491858
-1.264050 -1.393837 13.490842
-1.253181 -1.383380 13.489827
-1.226509 -1.356381 13.487498
-1.215922 -1.345629 13.486578
-1.205336 -1.334877 13.485658
-1.194749 -1.324125 13.484738
-1.184162 -1.313372 13.483817
-1.173612 -1.302583 13.482910
-1.147811 -1.274728 13.480870
-1.137553 -1.263653 13.480059
-1.127295 -1.252579 13.479247
-1.117037 -1.241504 13.478436
-1.106779 -1.230429 13.477625
-1.096668 -1.219219 13.476862
-1.071838 -1.190474 13.475135
-1.061966 -1.179046 13.474449
-1.052093 -1.167618 13.473763
-1.042221 -1.156189 13.473076
-1.032349 -1.144761 13.472390
-1.022775 -1.133080 13.471797
-0.999095 -1.103362 13.470433
-0.989680 -1.091547 13.469891
-0.980265 -1.079731 13.469348
-0.970851 -1.067916 13.468806
-0.961436 -1.056100 13.468264
-0.952525 -1.043895 13.467875
-0.930223 -1.013114 13.466932
-0.921356 -1.000876 13.466557
-0.912489 -0.988637 13.466182
-0.903622 -0.976399 13.465807
-0.894880 -0.964074 13.465469
-0.886676 -0.951378 13.465290
-0.866040 -0.919445 13.464840
-0.857835 -0.906749 13.464661
-0.849631 -0.894053 13.464482
-0.841426 -0.881357 13.464303
-0.833591 -0.868437 13.464229
-0.826194 -0.855253 13.464280
-0.807589 -0.822093 13.464409
-0.800192 -0.808909 13.464460
-0.792795 -0.795725 13.464512
-0.785398 -0.782541 13.464563
-0.778721 -0.768990 13.464811
-0.772313 -0.755301 13.465133
-0.756199 -0.720871 13.465943
-0.749791 -0.707182 13.466265
-0.743384 -0.693493 13.466587
-0.736977 -0.679804 13.466909
-0.731779 -0.665623 13.467547
-0.726584 -0.651441 13.468185
-0.713520 -0.615769 13.469792
-0.708326 -0.601586 13.470430
-0.703131 -0.587403 13.471069
-0.698330 -0.573104 13.471805
-0.694606 -0.558487 13.472807
-0.690882 -0.543869 13.473809
-0.681516 -0.507104 13.476331
-0.677793 -0.492487 13.477333
-0.674069 -0.477869 13.478335
-0.671281 -0.463089 13.479555
-0.669296 -0.448168 13.480962
-0.667310 -0.433248 13.482369
-0.662317 -0.395720 13.485906
-0.660331 -0.380800 13.487313
-0.658346 -0.365879 13.488719
-0.657954 -0.350890 13.490471
-0.657934 -0.335883 13.492303
-0.657913 -0.320877 13.494135
-0.657861 -0.283134 13.498743
-0.657840 -0.268128 13.500575
-0.657996 -0.253139 13.502442
-0.660058 -0.238332 13.504690
-0.662120 -0.223526 13.506937
-0.664182 -0.208719 13.509184
-0.669367 -0.171478 13.514837
-0.671429 -0.156671 13.517084
-0.674224 -0.142042 13.519465
-0.678330 -0.127730 13.522083
-0.682435 -0.113418 13.524702
-0.686540 -0.099106 13.527320
-0.696865 -0.063109 13.533906
-0.700970 -0.048797 13.536524
-0.706249 -0.034947 13.539334
-0.712211 -0.021365 13.542255
-0.718172 -0.007783 13.545176
-0.724134 0.005799 13.548097
-0.739128 0.039959 13.555444
-0.745089 0.053541 13.558365
-0.752483 0.066340 13.561493
-0.760026 0.079057 13.564642
-0.767569 0.091774 13.567791
-0.775113 0.104491 13.570941
-0.794086 0.136476 13.578862
-0.801857 0.149033 13.582040
-0.810690 0.160846 13.585351
-0.819524 0.172659 13.588662
-0.828357 0.184472 13.591973
-0.837191 0.196285 13.595284
-0.859408 0.225997 13.603612
-0.868701 0.237418 13.606972
-0.878561 0.248355 13.610393
-0.888421 0.259292 13.613814
-0.898281 0.270229 13.617235
-0.908141 0.281165 13.620656
-0.932941 0.308674 13.629259
-0.943382 0.319027 13.632731
-0.954052 0.329151 13.636224
-0.964722 0.339275 13.639716
-0.975392 0.349399 13.643208
-0.986062 0.359523 13.646701
-1.012899 0.384987 13.655484
-1.024200 0.394384 13.659021
-1.035509 0.403772 13.662558
-1.046818 0.413159 13.666095
-1.058128 0.422547 13.669633
-1.069437 0.431935 13.673170
-1.098012 0.455378 13.682073
-1.109829 0.464106 13.685637
-1.121647 0.472834 13.689201
-1.133464 0.481563 13.692765
-1.145282 0.490291 13.696329
-1.157100 0.499019 13.699893
-1.187036 0.520665 13.708864
-1.199262 0.528806 13.712442
-1.211487 0.536947 13.716020
-1.223713 0.545088 13.719598
-1.235938 0.553229 13.723176
-1.248164 0.561370 13.726755
-1.279175 0.581431 13.735759
-1.291731 0.589049 13.739343
-1.304288 0.596666 13.742927
-1.316844 0.604284 13.746511
-1.329401 0.611902 13.750095
-1.341957 0.619519 13.753679
-1.373827 0.638184 13.762694
-1.386655 0.645335 13.766278
-1.399483 0.652485 13.769862
-1.412312 0.659636 13.773446
-1.425140 0.666786 13.777031
-1.437968 0.673937 13.780615
30 NaN NaN
-1.576425 -1.673829 13.522549
-1.492951 -1.603441 13.513534
-1.410846 -1.531402 13.505010
-1.330294 -1.457569 13.497033
-1.251520 -1.381782 13.489671
-1.174795 -1.303860 13.483003
-1.100453 -1.223600 13.477125
-1.028910 -1.140780 13.472151
-0.960683 -1.055155 13.468220
-0.896428 -0.966468 13.465503
-0.836974 -0.874468 13.464206
-0.783376 -0.778937 13.464577
-0.736955 -0.679756 13.466910
-0.699324 -0.577008 13.471537
-0.672351 -0.471125 13.478798
-0.657971 -0.363065 13.488985
-0.657821 -0.254396 13.502251
-0.672751 -0.147178 13.518525
-0.702479 -0.043537 13.537486
-0.745655 0.054829 13.558642
-0.800296 0.146945 13.581454
-0.864289 0.232525 13.605442
-0.935729 0.311766 13.630227
-1.013043 0.385123 13.655531
-1.094994 0.453149 13.681163
-1.180631 0.516400 13.706989
-1.269226 0.575396 13.732919
-1.360223 0.630601 13.758892
-1.453189 0.682422 13.784868
-1.547789 0.731211 13.810817
-1.298173 -1.660107 12.286578
-1.186097 -1.519470 12.296644
-1.080778 -1.373839 12.308195
-0.983565 -1.222807 12.321436
-0.897756 -1.065235 12.336890
-0.824718 -0.901649 12.354617
-0.767310 -0.732212 12.374894
-0.731637 -0.557343 12.398296
-0.719113 -0.379845 12.424537
-0.732381 -0.202733 12.453425
-0.775347 -0.030816 12.484625
-0.843034 0.132618 12.517103
-0.932438 0.285294 12.550191
-1.041113 0.424955 12.583282
-1.163054 0.553276 12.616005
-1.295518 0.670952 12.648180
-1.436769 0.778152 12.679651
-1.296912 -1.658558 12.286686
-1.187316 -1.521051 12.296527
-1.184878 -1.517888 12.296762
-1.081894 -1.375492 12.308056
-1.079662 -1.372185 12.308335
-0.984620 -1.224499 12.321284
-0.982571 -1.221079 12.321600
-0.898661 -1.067010 12.336709
-0.896852 -1.063460 12.337070
-0.825427 -0.903507 12.354403
-0.824010 -0.899791 12.354831
-0.767899 -0.734109 12.374662
-0.766789 -0.730297 12.375137
-0.731941 -0.559300 12.398024
-0.731333 -0.555385 12.398568
-0.719075 -0.381820 12.424226
-0.719152 -0.377870 12.424848
-0.732159 -0.204693 12.453098
-0.732642 -0.200779 12.453756
-0.774759 -0.032694 12.484272
-0.775936 -0.028938 12.484978
-0.842122 0.130876 12.516737
-0.843946 0.134360 12.517469
-0.931389 0.283631 12.549823
-0.933487 0.286956 12.550559
-1.039842 0.423455 12.582915
-1.042384 0.426456 12.583648
-1.161620 0.551929 12.615645
-1.164488 0.554623 12.616364
-1.294020 0.669674 12.647824
-1.297015 0.672229 12.648535
-1.435171 0.777000 12.679305
-1.291989 -1.652517 12.287107
-1.192072 -1.527222 12.296068
-1.180122 -1.511717 12.297220
-1.086250 -1.381945 12.307512
-1.075305 -1.365732 12.308879
-0.988735 -1.231104 12.320691
-0.978730 -1.214316 12.322247
-0.902190 -1.073935 12.336004
-0.893323 -1.056535 12.337775
-0.828191 -0.910758 12.353568
-0.821246 -0.892540 12.355667
-0.770198 -0.741512 12.373754
-0.765016 -0.722761 12.376121
-0.733128 -0.566941 12.396963
-0.730146 -0.547744 12.399630
-0.718926 -0.389529 12.423014
-0.719301 -0.370161 12.426060
-0.731290 -0.212343 12.451819
-0.734235 -0.193256 12.455091
-0.772462 -0.040025 12.482892
-0.778233 -0.021607 12.486357
-0.838562 0.124079 12.515308
-0.847505 0.141157 12.518898
-0.927295 0.277144 12.548386
-0.938034 0.293134 12.551996
-1.034882 0.417602 12.581486
-1.047344 0.432309 12.585078
-1.156026 0.546671 12.614241
-1.170082 0.559881 12.617768
-1.288178 0.664689 12.646437
-1.303044 0.676990 12.649907
-1.428936 0.772505 12.677952
-1.280237 -1.638096 12.288112
-1.264686 -1.619013 12.289441
-1.249136 -1.599931 12.290771
-1.233586 -1.580848 12.292101
-1.218448 -1.561445 12.293524
-1.203425 -1.541953 12.294973
-1.168769 -1.496987 12.298315
-1.154161 -1.477191 12.299855
-1.139731 -1.457266 12.301433
-1.125301 -1.437341 12.303011
-1.110872 -1.417416 12.304590
-1.096649 -1.397349 12.306212
-1.064907 -1.350329 12.310179
-1.051147 -1.329946 12.311899
-1.037559 -1.309456 12.313653
-1.024559 -1.288594 12.315527
-1.011559 -1.267732 12.317401
-0.998560 -1.246870 12.319275
-0.969559 -1.198173 12.323790
-0.957424 -1.176811 12.325832
-0.945289 -1.155450 12.327875
-0.933154 -1.134089 12.329917
-0.921762 -1.112341 12.332097
-0.910615 -1.090467 12.334322
-0.884898 -1.040004 12.339457
-0.874506 -1.017782 12.341815
-0.864486 -0.995388 12.344240
-0.854467 -0.972995 12.346664
-0.844448 -0.950602 12.349089
-0.834789 -0.928066 12.351573
-0.814648 -0.875231 12.357661
-0.805917 -0.852328 12.360300
-0.797476 -0.829331 12.362984
-0.790213 -0.805948 12.365852
-0.782950 -0.782566 12.368719
-0.775687 -0.759183 12.371587
-0.760781 -0.704771 12.378469
-0.755177 -0.680966 12.381576
-0.749574 -0.657161 12.384683
-0.743970 -0.633356 12.387791
-0.739710 -0.609313 12.391076
-0.735961 -0.585180 12.394429
-0.727312 -0.529505 12.402164
-0.724871 -0.505247 12.405673
-0.723158 -0.480919 12.409270
-0.721445 -0.456591 12.412867
-0.719732 -0.432263 12.416464
-0.718571 -0.407930 12.420120
-0.719656 -0.351760 12.428954
-0.720126 -0.327412 12.432783
-0.720985 -0.303095 12.436648
-0.723729 -0.278932 12.440688
-0.726473 -0.254768 12.444727
-0.729216 -0.230604 12.448766
-0.738038 -0.175299 12.458278
-0.743070 -0.151537 12.462495
-0.748102 -0.127775 12.466712
-0.753134 -0.104013 12.470930
-0.759723 -0.080677 12.475244
-0.766978 -0.057523 12.479600
-0.783716 -0.004109 12.489650
-0.792261 0.018563 12.494066
-0.801604 0.040937 12.498521
-0.810946 0.063312 12.502975
-0.820288 0.085686 12.507429
-0.830066 0.107853 12.511897
-0.856001 0.157382 12.522309
-0.867244 0.178852 12.526822
-0.878734 0.200179 12.531339
-0.891664 0.220672 12.535878
-0.904594 0.241164 12.540417
-0.917524 0.261657 12.544956
-0.948917 0.307861 12.555425
-0.963318 0.327349 12.559962
-0.977719 0.346836 12.564499
-0.992120 0.366323 12.569036
-1.007375 0.385138 12.573558
-1.023042 0.403628 12.578074
-1.059184 0.446283 12.588490
-1.075491 0.464202 12.592984
-1.092240 0.481728 12.597463
-1.108989 0.499253 12.601942
-1.125738 0.516778 12.606421
-1.142672 0.534119 12.610891
-1.183436 0.572433 12.621118
-1.201106 0.589041 12.625552
-1.218869 0.605548 12.629979
-1.237323 0.621295 12.634361
-1.255777 0.637042 12.638743
-1.274231 0.652788 12.643125
-1.317496 0.688284 12.653178
-1.336619 0.703227 12.657505
-1.355742 0.718171 12.661833
-1.374865 0.733115 12.666160
-1.394357 0.747577 12.670452
-1.414052 0.761775 12.674724
28 NaN NaN
-1.298489 -1.660494 12.286551
-1.230217 -1.576714 12.292389
-1.164261 -1.491138 12.298750
-1.100909 -1.403660 12.305679
-1.040500 -1.314176 12.313229
-0.983428 -1.222588 12.321456
-0.930154 -1.128809 12.330422
-0.881215 -1.032777 12.340192
-0.837230 -0.934472 12.350835
-0.798905 -0.833932 12.362420
-0.767023 -0.731289 12.375007
-0.742427 -0.626797 12.388647
-0.725971 -0.520868 12.403364
-0.718452 -0.414089 12.419151
-0.720516 -0.307225 12.435958
-0.732558 -0.201173 12.453686
-0.754644 -0.096887 12.472194
-0.786487 0.004735 12.491313
-0.827492 0.102937 12.510863
-0.876838 0.197174 12.530674
-0.933593 0.287125 12.550597
-0.996808 0.372667 12.570513
-1.065583 0.453834 12.590334
-1.139109 0.530770 12.609997
-1.216681 0.603681 12.629460
-1.297698 0.672812 12.648697
-1.381651 0.738418 12.667696
-1.468117 0.800751 12.686451
-1.151793 -1.562777 10.604815
-1.082177 -1.457451 10.591604
-1.016037 -1.349790 10.579466
-0.953889 -1.239655 10.568548
-0.896347 -1.126920 10.559023
-0.844278 -1.011430 10.551138
-0.799358 -0.892865 10.545363
-0.761978 -0.771652 10.541783
-0.733368 -0.648047 10.540719
-0.714866 -0.522540 10.542507
-0.708338 -0.395936 10.547611
-0.715986 -0.269630 10.556555
-0.737257 -0.145253 10.569099
-0.772237 -0.024442 10.585178
-0.820341 0.091303 10.604552
-0.881035 0.200424 10.626990
-0.952818 0.302002 10.652033
-1.033087 0.396482 10.679000
-1.120373 0.484057 10.707499
-1.213400 0.565113 10.737205
-1.311395 0.639704 10.767912
-1.413325 0.708491 10.799373
-1.518237 0.772367 10.831379
-1.150688 -1.561123 10.604605
-1.083236 -1.459136 10.591801
-1.081117 -1.455767 10.591408
-1.017046 -1.351508 10.579647
-1.015029 -1.348073 10.579285
-0.954840 -1.241407 10.568711
-0.952938 -1.237903 10.568384
-0.897233 -1.128707 10.559167
-0.895461 -1.125133 10.558880
-0.845005 -1.013290 10.551234
-0.843552 -1.009569 10.551041
-0.799987 -0.894762 10.545431
-0.798728 -0.890968 10.545295
-0.762496 -0.773583 10.541819
-0.761459 -0.769721 10.541747
-0.733760 -0.650008 10.540719
-0.732976 -0.646085 10.540719
-0.715116 -0.524524 10.542467
-0.714617 -0.520556 10.542547
-0.708257 -0.397930 10.547481
-0.708419 -0.393942 10.547742
-0.715722 -0.271605 10.556376
-0.716249 -0.267655 10.556734
-0.736808 -0.147189 10.568872
-0.737706 -0.143318 10.569327
-0.771605 -0.026320 10.584905
-0.772869 -0.022565 10.585452
-0.819537 0.089500 10.604235
-0.821146 0.093107 10.604869
-0.879933 0.198801 10.626602
-0.882137 0.202047 10.627378
-0.951596 0.300475 10.651618
-0.954041 0.303529 10.652449
-1.031762 0.395049 10.678561
-1.034413 0.397914 10.679438
-1.118962 0.482716 10.707042
-1.121784 0.485398 10.707956
-1.211916 0.563857 10.736734
-1.214883 0.566368 10.737677
-1.309800 0.638603 10.767418
-1.312990 0.640806 10.768406
-1.411688 0.707457 10.798872
-1.414963 0.709524 10.799875
-1.516564 0.771396 10.830871
-1.147406 -1.556208 10.603979
-1.086384 -1.464143 10.592385
-1.077969 -1.450760 10.590824
-1.020043 -1.356612 10.580185
-1.012031 -1.342969 10.578747
-0.957667 -1.246612 10.569197
-0.950111 -1.232698 10.567898
-0.899865 -1.134019 10.559595
-0.892828 -1.119822 10.558452
-0.847368 -1.018732 10.551581
-0.841392 -1.004039 10.550754
-0.801858 -0.900399 10.545634
-0.796858 -0.885330 10.545093
-0.764037 -0.779322 10.541926
-0.759919 -0.763982 10.541640
-0.734925 -0.655836 10.540719
-0.731811 -0.640257 10.540719
-0.715857 -0.530419 10.542348
-0.713875 -0.514660 10.542666
-0.708193 -0.403858 10.547141
-0.708660 -0.388016 10.548129
-0.714941 -0.277472 10.555845
-0.717030 -0.261788 10.557265
-0.735474 -0.152941 10.568197
-0.739041 -0.137566 10.570002
-0.769727 -0.031900 10.584091
-0.774747 -0.016985 10.586266
-0.817145 0.084142 10.603293
-0.823538 0.098465 10.605811
-0.876658 0.193977 10.625449
-0.885412 0.206871 10.628530
-0.947963 0.295936 10.650383
-0.957674 0.308068 10.653684
-1.027825 0.390792 10.677259
-1.038350 0.402171 10.680740
-1.114768 0.478729 10.705685
-1.125978 0.489385 10.709313
-1.207507 0.560126 10.735332
-1.219292 0.570099 10.739079
-1.305062 0.635330 10.765952
-1.317729 0.644079 10.769872
-1.406822 0.704387 10.797382
-1.419828 0.712595 10.801365
-1.511591 0.768512 10.829362
-1.140249 -1.545492 10.602615
-1.130843 -1.531409 10.600822
-1.121438 -1.517326 10.599029
-1.112032 -1.503244 10.597236
-1.102627 -1.489161 10.595443
-1.093249 -1.475060 10.593659
-1.071104 -1.439843 10.589550
-1.062083 -1.425497 10.587876
-1.053062 -1.411150 10.586202
-1.044041 -1.396804 10.584528
-1.035167 -1.382364 10.582899
-1.026578 -1.367739 10.581358
-1.005496 -1.331841 10.577575
-0.996908 -1.317217 10.576033
-0.988319 -1.302593 10.574492
-0.980028 -1.287792 10.573041
-0.971929 -1.272877 10.571649
-0.963830 -1.257962 10.570257
-0.943949 -1.221349 10.566839
-0.935849 -1.206434 10.565447
-0.928237 -1.191253 10.564201
-0.920693 -1.176035 10.562976
-0.913149 -1.160817 10.561751
-0.905606 -1.145598 10.560527
-0.887179 -1.108197 10.557547
-0.880269 -1.092667 10.556512
-0.873358 -1.077138 10.555476
-0.866447 -1.061608 10.554440
-0.859537 -1.046078 10.553405
-0.852626 -1.030548 10.552369
-0.836684 -0.991983 10.550129
-0.830497 -0.976139 10.549307
-0.824310 -0.960294 10.548485
-0.818123 -0.944450 10.547664
-0.811935 -0.928605 10.546842
-0.805936 -0.912691 10.546075
-0.792779 -0.873039 10.544651
-0.787420 -0.856885 10.544071
-0.782060 -0.840731 10.543491
-0.776700 -0.824578 10.542911
-0.771809 -0.808280 10.542467
-0.767395 -0.791835 10.542160
-0.756560 -0.751469 10.541407
-0.752146 -0.735024 10.541100
-0.747732 -0.718580 10.540793
-0.744141 -0.701940 10.540720
-0.740803 -0.685241 10.540720
-0.737465 -0.668542 10.540719
-0.729271 -0.627551 10.540718
-0.725974 -0.610845 10.540729
-0.723849 -0.593952 10.541069
-0.721724 -0.577059 10.541410
-0.719599 -0.560166 10.541750
-0.717474 -0.543273 10.542090
-0.712668 -0.501775 10.543037
-0.711891 -0.484778 10.543750
-0.711114 -0.467781 10.544462
-0.710337 -0.450784 10.545175
-0.709561 -0.433788 10.545887
-0.708784 -0.416791 10.546599
-0.709185 -0.375096 10.548974
-0.709874 -0.358117 10.550084
-0.710564 -0.341138 10.551195
-0.711253 -0.324159 10.552305
-0.711943 -0.307179 10.553415
-0.713236 -0.290265 10.554686
-0.718735 -0.248995 10.558424
-0.720975 -0.232182 10.559947
-0.723215 -0.215370 10.561470
-0.725455 -0.198557 10.562993
-0.728740 -0.181963 10.564788
-0.732564 -0.165482 10.566724
-0.741950 -0.125025 10.571475
-0.745774 -0.108544 10.573411
-0.749598 -0.092062 10.575346
-0.754871 -0.076040 10.577651
-0.760252 -0.060053 10.579984
-0.765633 -0.044065 10.582316
-0.778841 -0.004819 10.588041
-0.784518 0.011041 10.590447
-0.791371 0.026395 10.593145
-0.798224 0.041749 10.595844
-0.805077 0.057104 10.598542
-0.811930 0.072458 10.601240
-0.829386 0.109801 10.608017
-0.837582 0.124420 10.611041
-0.845778 0.139038 10.614064
-0.853973 0.153656 10.617088
-0.862169 0.168274 10.620111
-0.870365 0.182892 10.623135
-0.892552 0.217388 10.631044
-0.901936 0.231210 10.634347
-0.911319 0.245031 10.637650
-0.920703 0.258853 10.640954
-0.930086 0.272675 10.644257
-0.940042 0.286041 10.647691
-0.965595 0.317963 10.656376
-0.976005 0.330968 10.659914
-0.986415 0.343972 10.663452
-0.996825 0.356976 10.666990
-1.007957 0.369314 10.670688
-1.019240 0.381511 10.674420
-1.046935 0.411452 10.683580
-1.058218 0.423650 10.687311
-1.069571 0.435773 10.691058
-1.081589 0.447195 10.694947
-1.093606 0.458616 10.698836
-1.105623 0.470038 10.702725
-1.135122 0.498076 10.712272
-1.147364 0.509231 10.716208
-1.159997 0.519921 10.720225
-1.172630 0.530611 10.724242
-1.185262 0.541302 10.728258
-1.197895 0.551992 10.732275
-1.229231 0.577802 10.742201
-1.242378 0.587811 10.746320
-1.255525 0.597819 10.750440
-1.268673 0.607828 10.754560
-1.281820 0.617837 10.758680
-1.294967 0.627846 10.762800
-1.328061 0.651215 10.773070
-1.341640 0.660594 10.777273
-1.355219 0.669972 10.781476
-1.368797 0.679351 10.785679
-1.382376 0.688729 10.789882
-1.396214 0.697692 10.794133
-1.430436 0.719289 10.804614
-1.444377 0.728088 10.808884
-1.458319 0.736886 10.813154
-1.472260 0.745684 10.817424
-1.486503 0.753958 10.821747
-1.500750 0.762223 10.826071
28 NaN NaN
-1.152069 -1.563190 10.604868
-1.093883 -1.476068 10.593777
-1.038075 -1.387316 10.583421
-0.984944 -1.296846 10.573886
-0.934841 -1.204576 10.565273
-0.888174 -1.110434 10.557697
-0.845425 -1.014366 10.551290
-0.807151 -0.916354 10.546206
-0.773997 -0.816431 10.542619
-0.746694 -0.714713 10.540721
-0.726047 -0.611424 10.540718
-0.712904 -0.506941 10.542821
-0.708099 -0.401821 10.547227
-0.712364 -0.296815 10.554093
-0.726216 -0.192843 10.563510
-0.749863 -0.090921 10.575480
-0.783138 0.007949 10.589904
-0.825520 0.102905 10.606591
-0.876206 0.193312 10.625290
-0.934242 0.278797 10.645720
-0.998630 0.359231 10.667603
-1.068419 0.434678 10.690685
-1.142754 0.505329 10.714742
-1.220898 0.571459 10.739590
-1.302228 0.633373 10.765075
-1.386228 0.691389 10.791074
-1.472471 0.745818 10.817489
-1.560610 0.796949 10.844239
-1.084249 -1.364920 6.811687
-1.018631 -1.266728 6.835761
-0.957008 -1.166066 6.860148
-0.900017 -1.062796 6.884844
-0.848426 -0.956804 6.909834
-0.803150 -0.848031 6.935081
-0.765270 -0.736514 6.960523
-0.736027 -0.622439 6.986055
-0.717743 -0.506097 7.011496
-0.711367 -0.388466 7.036592
-0.717825 -0.270750 7.061040
-0.737861 -0.154396 7.084497
-0.771584 -0.040980 7.106626
-0.818403 0.068032 7.127149
-0.877137 0.171511 7.145890
-0.946744 0.268408 7.162681
-1.025310 0.358533 7.177582
-1.110825 0.442369 7.190798
-1.202004 0.520261 7.202470
-1.297785 0.592650 7.212744
-1.397308 0.659999 7.221763
-1.083153 -1.363296 6.812086
-1.019670 -1.268389 6.835358
-1.017593 -1.265067 6.836165
-0.957981 -1.167765 6.859740
-0.956035 -1.164367 6.860556
-0.900915 -1.064534 6.884432
-0.899119 -1.061057 6.885257
-0.849238 -0.958583 6.909417
-0.847614 -0.955024 6.910251
-0.803862 -0.849852 6.934661
-0.802438 -0.846210 6.935501
-0.765867 -0.738376 6.960100
-0.764672 -0.734653 6.960945
-0.736493 -0.624338 6.985631
-0.735562 -0.620541 6.986479
-0.717889 -0.508048 7.011078
-0.717597 -0.504147 7.011914
-0.711326 -0.390424 7.036182
-0.711407 -0.386509 7.037002
-0.717586 -0.272696 7.060643
-0.718064 -0.268805 7.061437
-0.737418 -0.156309 7.084117
-0.738304 -0.152483 7.084877
-0.770939 -0.042840 7.106268
-0.772228 -0.039121 7.106984
-0.817569 0.066245 7.126816
-0.819236 0.069820 7.127483
-0.876132 0.169810 7.145584
-0.878142 0.173213 7.146196
-0.945460 0.266895 7.162429
-0.948027 0.269921 7.162933
-1.023919 0.357114 7.177355
-1.026702 0.359951 7.177808
-1.109344 0.441040 7.190595
-1.112306 0.443697 7.191001
-1.200448 0.519017 7.202289
-1.203559 0.521506 7.202651
-1.296167 0.591484 7.212582
-1.299402 0.593815 7.212906
-1.395640 0.658905 7.221620
-1.080019 -1.358650 6.813226
-1.022640 -1.273138 6.834204
-1.014623 -1.260318 6.837318
-0.960764 -1.172623 6.858573
-0.953252 -1.159510 6.861723
-0.903484 -1.069506 6.883252
-0.896551 -1.056085 6.886437
-0.851559 -0.963672 6.908225
-0.845293 -0.949935 6.911442
-0.805899 -0.855059 6.933459
-0.800401 -0.841004 6.936703
-0.767576 -0.743698 6.958891
-0.762964 -0.729331 6.962154
-0.737824 -0.629766 6.984419
-0.734560 -0.615045 6.987688
-0.718306 -0.513625 7.009882
-0.717181 -0.498570 7.013110
-0.711211 -0.396020 7.035010
-0.711523 -0.380913 7.038174
-0.716902 -0.278259 7.059507
-0.718748 -0.263242 7.062573
-0.736150 -0.161779 7.083032
-0.739572 -0.147013 7.085963
-0.769097 -0.048156 7.105245
-0.774070 -0.033805 7.108008
-0.815185 0.061135 7.125864
-0.821620 0.074930 7.128435
-0.873257 0.164944 7.144708
-0.881076 0.178042 7.147061
-0.941792 0.262568 7.161708
-0.951698 0.274247 7.163653
-1.019940 0.353058 7.176707
-1.030681 0.364008 7.178456
-1.105109 0.437241 7.190015
-1.116541 0.447496 7.191581
-1.196001 0.515460 7.201770
-1.208007 0.525063 7.203169
-1.291544 0.588151 7.212120
-1.304025 0.597148 7.213368
-1.390869 0.655778 7.221209
-1.073293 -1.348679 6.815674
-1.064465 -1.335592 6.818887
-1.055638 -1.322504 6.822100
-1.046810 -1.309417 6.825313
-1.037982 -1.296329 6.828526
-1.029154 -1.283242 6.831739
-1.008249 -1.250125 6.839795
-0.999883 -1.236747 6.843045
-0.991517 -1.223369 6.846295
-0.983152 -1.209990 6.849545
-0.974786 -1.196612 6.852796
-0.966736 -1.183049 6.856068
-0.947280 -1.149083 6.864228
-0.939441 -1.135398 6.867515
-0.931603 -1.121713 6.870803
-0.923764 -1.108028 6.874091
-0.916230 -1.094181 6.877396
-0.908996 -1.080176 6.880720
-0.891039 -1.045415 6.888969
-0.883804 -1.031410 6.892293
-0.876570 -1.017405 6.895616
-0.869621 -1.003264 6.898954
-0.863081 -0.988929 6.902311
-0.856541 -0.974593 6.905668
-0.840310 -0.939014 6.914000
-0.833771 -0.924678 6.917357
-0.827485 -0.910238 6.920723
-0.821747 -0.895570 6.924108
-0.816009 -0.880902 6.927494
-0.810271 -0.866234 6.930880
-0.796029 -0.829828 6.939282
-0.790496 -0.815089 6.942672
-0.785683 -0.800096 6.946078
-0.780870 -0.785104 6.949484
-0.776056 -0.770112 6.952890
-0.771243 -0.755120 6.956296
-0.759432 -0.717871 6.964750
-0.755682 -0.702580 6.968164
-0.751932 -0.687289 6.971578
-0.748182 -0.671998 6.974991
-0.744431 -0.656707 6.978405
-0.740681 -0.641416 6.981819
-0.732627 -0.603205 6.990281
-0.730089 -0.587665 6.993684
-0.727552 -0.572124 6.997087
-0.725014 -0.556583 7.000491
-0.722476 -0.541043 7.003894
-0.719938 -0.525502 7.007297
-0.716286 -0.486601 7.015676
-0.715112 -0.470891 7.019045
-0.713937 -0.455181 7.022413
-0.712763 -0.439471 7.025781
-0.711589 -0.423760 7.029150
-0.710963 -0.408030 7.032494
-0.711771 -0.368903 7.040690
-0.712096 -0.353138 7.043992
-0.712421 -0.337373 7.047294
-0.712747 -0.321609 7.050596
-0.713509 -0.305869 7.053870
-0.715435 -0.290198 7.057069
-0.720215 -0.251302 7.065010
-0.722141 -0.235631 7.068210
-0.724067 -0.219960 7.071409
-0.726290 -0.204336 7.074583
-0.729860 -0.188927 7.077642
-0.733430 -0.173518 7.080701
-0.742292 -0.135274 7.088293
-0.745862 -0.119865 7.091352
-0.749576 -0.104494 7.094396
-0.754765 -0.089518 7.097280
-0.759954 -0.074542 7.100163
-0.765144 -0.059566 7.103047
-0.778024 -0.022395 7.110205
-0.783213 -0.007419 7.113089
-0.789923 0.006979 7.115772
-0.796638 0.021375 7.118455
-0.803354 0.035771 7.121138
-0.810069 0.050167 7.123820
-0.826736 0.085898 7.130479
-0.834701 0.099671 7.132965
-0.842798 0.113379 7.135431
-0.850895 0.127086 7.137898
-0.858992 0.140793 7.140364
-0.867089 0.154501 7.142830
-0.888166 0.187913 7.148771
-0.897473 0.200870 7.151016
-0.906780 0.213827 7.153262
-0.916087 0.226783 7.155507
-0.925394 0.239740 7.157752
-0.934701 0.252697 7.159997
-0.959576 0.283531 7.165199
-0.969916 0.295717 7.167229
-0.980256 0.307902 7.169258
-0.990597 0.320088 7.171288
-1.000937 0.332274 7.173317
-1.011401 0.344352 7.175317
-1.039220 0.372714 7.179846
-1.050428 0.384141 7.181671
-1.061637 0.395568 7.183495
-1.072845 0.406995 7.185320
-1.084088 0.418387 7.187135
-1.096019 0.429088 7.188770
-1.125631 0.455649 7.192826
-1.137562 0.466350 7.194461
-1.149493 0.477052 7.196095
-1.161423 0.487753 7.197730
-1.173925 0.497805 7.199198
-1.186455 0.507826 7.200658
-1.217553 0.532697 7.204282
-1.230082 0.542718 7.205742
-1.242612 0.552739 7.207202
-1.255568 0.562217 7.208526
-1.268594 0.571607 7.209827
-1.281620 0.580997 7.211129
-1.313949 0.604302 7.214359
-1.326975 0.613692 7.215661
-1.340317 0.622638 7.216852
-1.353755 0.631447 7.218010
-1.367193 0.640257 7.219168
-1.380631 0.649066 7.220326
24 NaN NaN
-1.084523 -1.365327 6.811587
-1.026463 -1.279252 6.832718
-0.971441 -1.191264 6.854095
-0.919887 -1.101261 6.875716
-0.872307 -1.009153 6.897574
-0.829300 -0.914878 6.919652
-0.791565 -0.818417 6.941916
-0.759912 -0.719828 6.964313
-0.735252 -0.619277 6.986761
-0.718565 -0.517091 7.009139
-0.710844 -0.413797 7.031286
-0.712983 -0.310150 7.052996
-0.725644 -0.207122 7.074030
-0.749116 -0.105822 7.094140
-0.783232 -0.007364 7.113100
-0.827382 0.087281 7.130736
-0.880618 0.177404 7.146950
-0.941812 0.262597 7.161713
-1.009806 0.342726 7.175058
-1.083511 0.417869 7.187056
-1.161970 0.488243 7.197805
-1.244369 0.554144 7.207407
-1.330034 0.615897 7.215966
-1.418413 0.673834 7.223582
