-2.222498 -1.456748 5.927441
-1.655224 -1.530029 7.219820
-1.048562 -1.632315 8.494990
-0.890305 -1.423236 9.881842
-0.846483 -1.140353 11.271895
-0.778262 -0.872567 12.664126
-2.221988 -1.456642 5.929371
-1.656182 -1.529807 7.218078
-1.654267 -1.530251 7.221562
-1.049184 -1.632343 8.493090
-1.047940 -1.632288 8.496891
-0.890324 -1.423661 9.879887
-0.890286 -1.422811 9.883796
-0.846585 -1.140727 11.269933
-0.846382 -1.139979 11.273857
-0.778329 -0.872962 12.662166
-2.214357 -1.455063 5.958226
-1.670489 -1.526491 7.192047
-1.639922 -1.533597 7.247568
-1.058484 -1.632755 8.464688
-1.039182 -1.631494 8.525450
-0.890605 -1.430013 9.850683
-0.890017 -1.416452 9.912999
-0.848102 -1.146316 11.240610
-0.844862 -1.134392 11.303179
-0.779334 -0.878869 12.632884
-2.177205 -1.449421 6.089553
-2.106845 -1.448591 6.294202
-2.024900 -1.456159 6.494385
-1.934109 -1.470315 6.690373
-1.836916 -1.489344 6.882857
-1.735641 -1.511528 7.072890
-1.574324 -1.548909 7.366436
-1.471068 -1.572639 7.555215
-1.370219 -1.594492 7.745512
-1.273720 -1.612987 7.938396
-1.183906 -1.626408 8.134882
-1.103311 -1.632984 8.335646
-1.002787 -1.625327 8.656966
-0.957876 -1.606855 8.867825
-0.927317 -1.578868 9.080238
-0.908135 -1.543555 9.292921
-0.897357 -1.502949 9.505270
-0.892231 -1.458840 9.717141
-0.888832 -1.387356 10.046487
-0.885817 -1.341951 10.258127
-0.880643 -1.297871 10.470006
-0.873541 -1.254980 10.682073
-0.864844 -1.213077 10.894278
-0.854885 -1.171958 11.106582
-0.837730 -1.108968 11.437231
-0.826224 -1.068813 11.649641
-0.814766 -1.028629 11.862049
-0.803721 -0.988187 12.074429
-0.793450 -0.947262 12.286755
-0.784310 -0.905634 12.498996
75 NaN NaN
-2.222626 -1.456774 5.926958
-2.196603 -1.451388 6.025358
-2.167132 -1.448400 6.122886
-2.134535 -1.447622 6.219457
-2.099128 -1.448861 6.315031
-2.061226 -1.451919 6.409602
-2.021125 -1.456600 6.503196
-1.979109 -1.462711 6.595864
-1.935444 -1.470066 6.687676
-1.890380 -1.478487 6.778717
-1.844150 -1.487803 6.869085
-1.796976 -1.497850 6.958885
-1.749065 -1.508469 7.048228
-1.700617 -1.519508 7.137230
-1.651823 -1.530817 7.226009
-1.602871 -1.542251 7.314685
-1.553946 -1.553663 7.403379
-1.505233 -1.564908 7.492211
-1.456922 -1.575840 7.581300
-1.409206 -1.586307 7.670765
-1.362286 -1.596157 7.760720
-1.316375 -1.605228 7.851275
-1.271695 -1.613355 7.942532
-1.228487 -1.620365 8.034586
-1.187003 -1.626077 8.127518
-1.147516 -1.630302 8.221394
-1.110312 -1.632848 8.316258
-1.075696 -1.633518 8.412126
-1.043980 -1.632113 8.508983
-1.015486 -1.628441 8.606777
-0.990529 -1.622322 8.705410
-0.969216 -1.613727 8.804711
-0.951293 -1.602866 8.904461
-0.936453 -1.589976 9.004477
-0.924377 -1.575293 9.104618
-0.914744 -1.559045 9.204783
-0.907237 -1.541449 9.304903
-0.901545 -1.522712 9.404937
-0.897369 -1.503032 9.504864
-0.894416 -1.482594 9.604684
-0.892403 -1.461578 9.704406
-0.891054 -1.440155 9.804054
-0.890095 -1.418492 9.903655
-0.889259 -1.396755 10.003240
-0.888275 -1.375108 10.102844
-0.886881 -1.353712 10.202497
-0.884973 -1.332631 10.302209
-0.882581 -1.311848 10.401972
-0.879737 -1.291343 10.501782
-0.876476 -1.271095 10.601631
-0.872832 -1.251085 10.701514
-0.868841 -1.231289 10.801428
-0.864539 -1.211687 10.901366
-0.859963 -1.192254 11.001326
-0.855149 -1.172970 11.101303
-0.850136 -1.153809 11.201294
-0.844962 -1.134750 11.301296
-0.839664 -1.115767 11.401306
-0.834281 -1.096838 11.501322
-0.828851 -1.077938 11.601341
-0.823412 -1.059043 11.701360
-0.818005 -1.040129 11.801378
-0.812666 -1.021171 11.901391
-0.807435 -1.002147 12.001397
-0.802349 -0.983032 12.101393
-0.797447 -0.963803 12.201376
-0.792767 -0.944435 12.301344
-0.788345 -0.924907 12.401291
-0.784218 -0.905196 12.501216
-0.780424 -0.885278 12.601113
-0.776997 -0.865133 12.700977
-0.773973 -0.844739 12.800804
-0.771386 -0.824076 12.900587
-0.769271 -0.803123 13.000322
-0.767659 -0.781860 13.100000
-2.222293 -1.456786 5.926585
-1.763851 -1.470045 5.354802
-1.383103 -1.470896 4.728580
-1.097133 -1.457831 4.054122
-0.924739 -1.429482 3.342600
-0.825990 -1.391880 2.616833
-0.720629 -1.355081 1.891935
-0.598820 -1.320300 1.169483
-0.479183 -1.285250 0.446687
-2.220961 -1.456836 5.925095
-1.764993 -1.470027 5.356444
-1.762709 -1.470064 5.353160
-1.384018 -1.470912 4.730359
-1.382189 -1.470880 4.726801
-1.097768 -1.457887 4.056018
-1.096498 -1.457775 4.052227
-0.925077 -1.429576 3.344569
-0.924401 -1.429388 3.340630
-0.826238 -1.391985 2.618815
-0.825741 -1.391775 2.614852
-0.720949 -1.355178 1.893907
-0.720309 -1.354985 1.889963
-0.599158 -1.320394 1.171452
-0.598483 -1.320205 1.167514
-0.479490 -1.285348 0.448661
-2.207369 -1.457347 5.909889
-1.776670 -1.469834 5.373171
-1.751060 -1.470252 5.336413
-1.393347 -1.471080 4.748501
-1.372860 -1.470713 4.708659
-1.104246 -1.458455 4.075355
-1.090021 -1.457207 4.032890
-0.928521 -1.430537 3.364654
-0.920965 -1.428426 3.320544
-0.828774 -1.393057 2.639029
-0.823134 -1.390712 2.594646
-0.724200 -1.356162 1.914023
-0.717044 -1.354002 1.869849
-0.602602 -1.321354 1.191537
-0.595039 -1.319245 1.147429
-0.482620 -1.286347 0.468795
-2.158643 -1.459176 5.855374
-2.087690 -1.461663 5.773356
-2.018310 -1.463883 5.689996
-1.950460 -1.465846 5.605380
-1.884176 -1.467549 5.519527
-1.819497 -1.468990 5.432455
-1.709508 -1.470892 5.276228
-1.649503 -1.471585 5.185862
-1.591274 -1.472001 5.094341
-1.534871 -1.472134 5.001683
-1.480350 -1.471980 4.907907
-1.427768 -1.471534 4.813030
-1.340031 -1.470024 4.643308
-1.293158 -1.468737 4.545493
-1.248470 -1.467136 4.446666
-1.206038 -1.465216 4.346856
-1.165935 -1.462969 4.246094
-1.128239 -1.460389 4.144416
-1.068010 -1.455006 3.963179
-1.037405 -1.451471 3.859175
-1.009507 -1.447582 3.754425
-0.984307 -1.443343 3.649006
-0.961607 -1.438785 3.543032
-0.941121 -1.433949 3.436618
-0.909621 -1.424859 3.248377
-0.893702 -1.419458 3.141210
-0.878867 -1.413924 3.033893
-0.864816 -1.408295 2.926476
-0.851250 -1.402607 2.818999
-0.837866 -1.396898 2.711500
-0.813790 -1.386901 2.522205
-0.799375 -1.381316 2.414833
-0.784284 -1.375814 2.307550
-0.768591 -1.370384 2.200350
-0.752366 -1.365020 2.093226
-0.735669 -1.359714 1.986171
-0.705308 -1.350483 1.797742
-0.687610 -1.345300 1.690842
-0.669667 -1.340147 1.583982
-0.651538 -1.335017 1.477152
-0.633283 -1.329903 1.370342
-0.614962 -1.324796 1.263543
-0.582714 -1.315799 1.075417
-0.564525 -1.310676 0.968597
-0.546497 -1.305534 0.861750
-0.528690 -1.300364 0.754867
-0.511165 -1.295159 0.647940
-0.493981 -1.289913 0.540960
63 NaN NaN
-2.222626 -1.456774 5.926958
-2.154714 -1.459324 5.850978
-2.088102 -1.461650 5.773849
-2.022814 -1.463751 5.695588
-1.958880 -1.465624 5.616213
-1.896329 -1.467268 5.535739
-1.835191 -1.468680 5.454181
-1.775502 -1.469857 5.371553
-1.717297 -1.470796 5.287871
-1.660614 -1.471494 5.203147
-1.605494 -1.471946 5.117397
-1.551980 -1.472150 5.030635
-1.500118 -1.472101 4.942876
-1.449953 -1.471794 4.854135
-1.401538 -1.471226 4.764430
-1.354923 -1.470392 4.673778
-1.310163 -1.469286 4.582199
-1.267316 -1.467903 4.489713
-1.226439 -1.466240 4.396345
-1.187595 -1.464290 4.302118
-1.150845 -1.462048 4.207061
-1.116254 -1.459509 4.111205
-1.083889 -1.456668 4.014584
-1.053817 -1.453520 3.917234
-1.026104 -1.450060 3.819197
-1.000818 -1.446284 3.720518
-0.977904 -1.442202 3.621272
-0.957136 -1.437848 3.521567
-0.938270 -1.433255 3.421495
-0.921057 -1.428456 3.321134
-0.905247 -1.423484 3.220551
-0.890587 -1.418371 3.119801
-0.876826 -1.413149 3.018929
-0.863712 -1.407849 2.917975
-0.850995 -1.402500 2.816973
-0.838425 -1.397134 2.715953
-0.825753 -1.391780 2.614946
-0.812729 -1.386469 2.513981
-0.799140 -1.381226 2.413087
-0.784972 -1.376053 2.312269
-0.770275 -1.370945 2.211524
-0.755099 -1.365895 2.110846
-0.739493 -1.360898 2.010232
-0.723509 -1.355948 1.909675
-0.707195 -1.351038 1.809168
-0.690602 -1.346162 1.708706
-0.673781 -1.341315 1.608280
-0.656781 -1.336490 1.507884
-0.639654 -1.331680 1.407508
-0.622449 -1.326880 1.307145
-0.605217 -1.322084 1.206786
-0.588007 -1.317284 1.106424
-0.570871 -1.312476 1.006050
-0.553859 -1.307652 0.905655
-0.537020 -1.302807 0.805232
-0.520405 -1.297934 0.704774
-0.504065 -1.293027 0.604271
-0.488050 -1.288080 0.503719
-0.472409 -1.283088 0.403110
-0.457193 -1.278043 0.302438
-0.442452 -1.272940 0.201699
-0.428236 -1.267773 0.100887
-0.414595 -1.262537 0.000000
-2.222980 -1.457122 5.927020
-3.506882 -1.591406 5.529150
-4.282038 -0.624370 4.688652
-4.932521 0.566296 4.041392
-5.594243 1.757323 3.403768
-6.256552 2.949247 2.768574
-6.939101 4.119379 2.115057
-7.716408 5.194424 1.407872
-8.630161 6.095345 0.626808
-9.688359 6.738976 -0.221869
-10.855060 7.086568 -1.101220
-12.077480 7.164066 -1.971635
-2.224395 -1.458513 5.927270
-3.505544 -1.592406 5.530250
-3.508219 -1.590405 5.528050
-4.281236 -0.625864 4.689714
-4.282840 -0.622877 4.687590
-4.931654 0.564715 4.042258
-4.933387 0.567877 4.040525
-5.593358 1.755742 3.404613
-5.595128 1.758905 3.402922
-6.255693 2.947650 2.769417
-6.257411 2.950844 2.767730
-6.938145 4.117869 2.115954
-6.940058 4.120889 2.114160
-7.715294 5.193087 1.408857
-7.717522 5.195762 1.406887
-8.628849 6.094297 0.627895
-8.631472 6.096393 0.625720
-9.686871 6.738311 -0.220711
-9.689848 6.739642 -0.223027
-10.853462 7.086293 -1.100050
-10.856658 7.086844 -1.102390
-12.075838 7.164115 -1.970494
-2.246739 -1.480489 5.931208
-3.484420 -1.608209 5.547622
-3.527884 -1.573143 5.510358
-4.268573 -0.649448 4.706482
-4.295643 -0.598938 4.671446
-4.917974 0.539748 4.055940
-4.947069 0.592834 4.026827
-5.579379 1.730765 3.417972
-5.609125 1.783870 3.389559
-6.242129 2.922427 2.782741
-6.271037 2.976020 2.754381
-6.923034 4.094021 2.130120
-6.955230 4.144677 2.099960
-7.697700 5.171964 1.424414
-7.735185 5.216798 1.391292
-8.608141 6.077742 0.645066
-8.652230 6.112858 0.608525
-9.663361 6.727804 -0.202418
-9.713378 6.750091 -0.241326
-10.828218 7.081940 -1.081569
-10.881904 7.091186 -1.120871
-12.049902 7.164893 -1.952481
-2.355341 -1.575003 5.943892
-2.553893 -1.688124 5.935442
-2.769582 -1.752830 5.894590
-2.987475 -1.772317 5.827325
-3.196366 -1.747413 5.737049
-3.382896 -1.675464 5.625762
-3.615590 -1.491636 5.428925
-3.747453 -1.355082 5.299964
-3.879044 -1.216551 5.172838
-4.003963 -1.072687 5.044985
-4.113885 -0.919374 4.914444
-4.210380 -0.756427 4.784865
-4.354884 -0.488170 4.599367
-4.451297 -0.308747 4.493679
-4.550888 -0.125934 4.397114
-4.652645 0.058353 4.305721
-4.754639 0.242501 4.214311
-4.855157 0.425144 4.118370
-5.009895 0.707300 3.964153
-5.110115 0.889040 3.866193
-5.211064 1.071049 3.769489
-5.312372 1.252949 3.672955
-5.413828 1.434634 3.576170
-5.515315 1.616209 3.479213
-5.673430 1.898263 3.328267
-5.776023 2.079083 3.231066
-5.879289 2.259504 3.133831
-5.981707 2.440510 3.036792
-6.081831 2.623008 2.940157
-6.180118 2.806617 2.843735
-6.333956 3.091126 2.692985
-6.435008 3.272433 2.595079
-6.537523 3.452485 2.496379
-6.641374 3.631310 2.396852
-6.746814 3.808674 2.296385
-6.854152 3.984279 2.194845
-7.025393 4.253169 2.034507
-7.138430 4.423210 1.929735
-7.254027 4.590608 1.823511
-7.372359 4.755084 1.715748
-7.493516 4.916430 1.606405
-7.617640 5.074359 1.495413
-7.817106 5.312085 1.319277
-7.949527 5.459684 1.203753
-8.085381 5.602642 1.086394
-8.224763 5.740580 0.967182
-8.367602 5.873332 0.846191
-8.513901 6.000607 0.723459
-8.748478 6.186460 0.529179
-8.903630 6.298168 0.402241
-9.062100 6.403364 0.273844
-9.223831 6.501716 0.144097
-9.388560 6.593328 0.013196
-9.556133 6.678096 -0.118706
-9.822104 6.795669 -0.325456
-9.996230 6.862435 -0.459196
-10.172547 6.922261 -0.593353
-10.350922 6.974979 -0.727772
-10.531059 7.021018 -0.862292
-10.712773 7.060507 -0.996776
-10.998096 7.108861 -1.205511
-11.183060 7.132095 -1.339354
-11.368977 7.149413 -1.472777
-11.555731 7.160749 -1.605674
-11.743136 7.166620 -1.738004
-11.931070 7.167237 -1.869714
174 NaN NaN
-2.222626 -1.456774 5.926958
-2.293679 -1.526656 5.939481
-2.372600 -1.588535 5.945127
-2.457822 -1.641701 5.943984
-2.547753 -1.685816 5.936347
-2.640916 -1.720824 5.922617
-2.736006 -1.746824 5.903224
-2.831886 -1.763976 5.878569
-2.927542 -1.772425 5.849006
-3.022026 -1.772255 5.814827
-3.114395 -1.763469 5.776276
-3.203642 -1.745988 5.733567
-3.288638 -1.719663 5.686915
-3.368081 -1.684335 5.636584
-3.441124 -1.640597 5.583230
-3.508328 -1.590324 5.527960
-3.570875 -1.535375 5.471662
-3.630202 -1.477343 5.414959
-3.687838 -1.417586 5.358296
-3.745315 -1.357309 5.302024
-3.803223 -1.297004 5.246225
-3.860900 -1.236275 5.190647
-3.917576 -1.174661 5.135016
-3.972449 -1.111717 5.079070
-4.024677 -1.047034 5.022582
-4.073481 -0.980307 4.965419
-4.119046 -0.911591 4.907933
-4.162127 -0.841086 4.850697
-4.203504 -0.768947 4.794243
-4.243954 -0.695298 4.739081
-4.284250 -0.620250 4.685723
-4.325048 -0.543931 4.634596
-4.366475 -0.466508 4.585682
-4.408512 -0.388152 4.538817
-4.451148 -0.309022 4.493829
-4.494374 -0.229268 4.450537
-4.538186 -0.149032 4.408752
-4.582497 -0.068459 4.368156
-4.627128 0.012302 4.328292
-4.671904 0.093112 4.288686
-4.716647 0.173833 4.248866
-4.761182 0.254328 4.208360
-4.805358 0.334474 4.166784
-4.849210 0.414297 4.124255
-4.892847 0.493888 4.081072
-4.936380 0.573340 4.037531
-4.979923 0.652752 3.993927
-5.023588 0.732221 3.950550
-5.067439 0.811800 3.907562
-5.111453 0.891461 3.864896
-5.155602 0.971171 3.822461
-5.199857 1.050898 3.780168
-5.244188 1.130609 3.737924
-5.288567 1.210275 3.695647
-5.332980 1.289891 3.653311
-5.377415 1.369469 3.610925
-5.421864 1.449017 3.568500
-5.466317 1.528546 3.526043
-5.510764 1.608067 3.483564
-5.555210 1.687581 3.441069
-5.599694 1.767063 3.398558
-5.644263 1.846490 3.356030
-5.688962 1.925833 3.313483
-5.733835 2.005067 3.270915
-5.778921 2.084168 3.228328
-5.824160 2.163179 3.185732
-5.869411 2.242188 3.143147
-5.914535 2.321287 3.100594
-5.959391 2.400567 3.058094
-6.003836 2.480118 3.015669
-6.047741 2.560017 2.973338
-6.091151 2.640229 2.931085
-6.134237 2.720632 2.888866
-6.177174 2.801107 2.846633
-6.220138 2.881537 2.804340
-6.263305 2.961803 2.761941
-6.306817 3.041805 2.719398
-6.350686 3.121530 2.676702
-6.394881 3.200994 2.633855
-6.439376 3.280210 2.590858
-6.484141 3.359191 2.547713
-6.529150 3.437953 2.504418
-6.574401 3.516490 2.460970
-6.619921 3.594780 2.417356
-6.665738 3.672798 2.373565
-6.711878 3.750517 2.329584
-6.758371 3.827912 2.285403
-6.805240 3.904959 2.241010
-6.852502 3.981637 2.196398
-6.900168 4.057931 2.151556
-6.948252 4.133822 2.106479
-6.996766 4.209293 2.061157
-7.045722 4.284326 2.015583
-7.095133 4.358900 1.969749
-7.145016 4.432994 1.923648
-7.195386 4.506584 1.877270
-7.246259 4.579647 1.830609
-7.297648 4.652159 1.783656
-7.349570 4.724097 1.736405
-7.402036 4.795436 1.688848
-7.455059 4.866152 1.640981
-7.508653 4.936219 1.592796
-7.562828 5.005613 1.544288
-7.617597 5.074307 1.495451
-7.672970 5.142275 1.446282
-7.728958 5.209491 1.396775
-7.785569 5.275928 1.346928
-7.842814 5.341559 1.296737
-7.900700 5.406355 1.246199
-7.959236 5.470289 1.195312
-8.018427 5.533334 1.144075
-8.078280 5.595463 1.092488
-8.138797 5.656648 1.040551
-8.199985 5.716862 0.988265
-8.261845 5.776076 0.935631
-8.324381 5.834264 0.882650
-8.387591 5.891401 0.829328
-8.451475 5.947462 0.775669
-8.516033 6.002422 0.721676
-8.581262 6.056254 0.667355
-8.647159 6.108934 0.612713
-8.713718 6.160441 0.557756
-8.780935 6.210756 0.502495
-8.848800 6.259858 0.446936
-8.917308 6.307725 0.391091
-8.986451 6.354338 0.334967
-9.056219 6.399682 0.278577
-9.126599 6.443744 0.221933
-9.197580 6.486510 0.165046
-9.269151 6.527968 0.107929
-9.341299 6.568105 0.050596
-9.414010 6.606910 -0.006942
-9.487269 6.644380 -0.064670
-9.561061 6.680509 -0.122573
-9.635371 6.715294 -0.180638
-9.710183 6.748730 -0.238850
-9.785481 6.780814 -0.297196
-9.861249 6.811548 -0.355660
-9.937468 6.840936 -0.414229
-10.014123 6.868982 -0.472888
-10.091196 6.895690 -0.531624
-10.168670 6.921064 -0.590423
-10.246529 6.945112 -0.649271
-10.324755 6.967844 -0.708155
-10.403331 6.989271 -0.767064
-10.482239 7.009403 -0.825984
-10.561464 7.028252 -0.884904
-10.640990 7.045829 -0.943812
-10.720799 7.062148 -1.002698
-10.800877 7.077226 -1.061551
-10.881207 7.091077 -1.120362
-10.961774 7.103716 -1.179121
-11.042564 7.115160 -1.237819
-11.123563 7.125424 -1.296448
-11.204756 7.134528 -1.355000
-11.286129 7.142487 -1.413468
-11.367670 7.149321 -1.471844
-11.449366 7.155047 -1.530124
-11.531205 7.159683 -1.588299
-11.613174 7.163248 -1.646366
-11.695263 7.165759 -1.704320
-11.777461 7.167237 -1.762154
-11.859756 7.167699 -1.819867
-11.942140 7.167165 -1.877453
-12.024602 7.165651 -1.934908
-12.107134 7.163177 -1.992231
-12.189726 7.159760 -2.049418
-12.272371 7.155417 -2.106467
-12.355060 7.150168 -2.163375
-12.437785 7.144030 -2.220141
-12.520540 7.137021 -2.276762
-12.603317 7.129158 -2.333239
-12.686111 7.120460 -2.389568
-12.768916 7.110944 -2.445750
-1.048325 -1.631876 8.495017
-0.969143 -1.480799 8.504257
-0.897590 -1.326050 8.514545
-0.835502 -1.167347 8.526070
-0.784735 -1.004802 8.538978
-0.745960 -0.839096 8.553257
-0.723102 -0.670616 8.569202
-0.716091 -0.500944 8.586641
-0.727113 -0.331618 8.605597
-0.757696 -0.164927 8.625958
-0.806007 -0.002595 8.647384
-0.873434 0.152675 8.669707
-0.956272 0.300186 8.692534
-1.052995 0.439013 8.715633
-1.161958 0.568444 8.738789
-1.280089 0.689610 8.761855
-1.406709 0.801949 8.784715
-1.047377 -1.630118 8.495122
-0.970035 -1.482586 8.504144
-0.968250 -1.479013 8.504370
-0.898355 -1.327893 8.514415
-0.896825 -1.324207 8.514675
-0.836193 -1.169218 8.525930
-0.834812 -1.165475 8.526209
-0.785254 -1.006727 8.538818
-0.784216 -1.002878 8.539138
-0.746274 -0.841063 8.553075
-0.745647 -0.837129 8.553439
-0.723299 -0.672597 8.569009
-0.722904 -0.668636 8.569396
-0.716034 -0.502931 8.586425
-0.716149 -0.498957 8.586857
-0.726920 -0.333596 8.605370
-0.727307 -0.329640 8.605824
-0.757225 -0.166855 8.625713
-0.758167 -0.162999 8.626204
-0.805269 -0.004436 8.647125
-0.806746 -0.000755 8.647644
-0.872573 0.150890 8.669443
-0.874296 0.154461 8.669972
-0.955191 0.298525 8.692264
-0.957353 0.301847 8.692803
-1.051820 0.437418 8.715362
-1.054171 0.440609 8.715904
-1.160623 0.566979 8.738518
-1.163293 0.569908 8.739059
-1.278628 0.688270 8.761587
-1.281549 0.690950 8.762124
-1.405197 0.800667 8.784449
-1.043832 -1.623544 8.495515
-0.973374 -1.489265 8.503721
-0.964911 -1.472334 8.504792
-0.901214 -1.334787 8.513928
-0.893966 -1.317313 8.515162
-0.838776 -1.176218 8.525408
-0.832229 -1.158475 8.526731
-0.787196 -1.013925 8.538220
-0.782275 -0.995679 8.539736
-0.747780 -0.848359 8.552429
-0.744474 -0.829774 8.554120
-0.724038 -0.680005 8.568285
-0.722165 -0.661228 8.570120
-0.715820 -0.510364 8.585616
-0.716363 -0.491524 8.587666
-0.726197 -0.340992 8.604521
-0.728030 -0.322245 8.606672
-0.755463 -0.174066 8.624794
-0.759929 -0.155788 8.627123
-0.802729 -0.011400 8.646166
-0.809507 0.006128 8.648614
-0.869349 0.144213 8.668456
-0.877519 0.161137 8.670959
-0.951148 0.292313 8.691255
-0.961395 0.308058 8.693812
-1.047424 0.431452 8.714349
-1.058566 0.446575 8.716917
-1.155631 0.561503 8.737505
-1.168286 0.575384 8.740072
-1.273185 0.683241 8.760583
-1.287009 0.695962 8.763127
-1.399543 0.795873 8.783451
-1.035471 -1.608040 8.496443
-1.024418 -1.587542 8.497670
-1.013364 -1.567044 8.498897
-1.002311 -1.546547 8.500124
-0.991657 -1.525845 8.501407
-0.981248 -1.505018 8.502725
-0.957038 -1.456580 8.505789
-0.946900 -1.435626 8.507143
-0.937200 -1.414466 8.508557
-0.927500 -1.393306 8.509971
-0.917801 -1.372146 8.511385
-0.908101 -1.350985 8.512799
-0.887221 -1.301054 8.516309
-0.878304 -1.279559 8.517826
-0.869388 -1.258064 8.519344
-0.860972 -1.236378 8.520924
-0.852920 -1.214552 8.522551
-0.844867 -1.192727 8.524178
-0.826463 -1.141857 8.528001
-0.819363 -1.119713 8.529744
-0.812262 -1.097568 8.531486
-0.805161 -1.075424 8.533229
-0.798061 -1.053279 8.534972
-0.791775 -1.030902 8.536810
-0.777696 -0.978703 8.541147
-0.771642 -0.956259 8.543012
-0.766209 -0.933671 8.544945
-0.761303 -0.910960 8.546938
-0.756397 -0.888249 8.548930
-0.751491 -0.865538 8.550922
-0.741709 -0.812426 8.555727
-0.738053 -0.789492 8.557850
-0.734398 -0.766559 8.559974
-0.730742 -0.743625 8.562097
-0.728085 -0.720571 8.564320
-0.725781 -0.697475 8.566577
-0.720422 -0.643758 8.571828
-0.718843 -0.620619 8.574152
-0.717984 -0.597438 8.576543
-0.717126 -0.574256 8.578934
-0.716268 -0.551075 8.581325
-0.715410 -0.527893 8.583716
-0.716868 -0.473995 8.589573
-0.717536 -0.450821 8.592095
-0.718205 -0.427647 8.594617
-0.719983 -0.404553 8.597226
-0.722238 -0.381494 8.599873
-0.724492 -0.358434 8.602519
-0.730484 -0.304908 8.608727
-0.734357 -0.282078 8.611489
-0.738230 -0.259248 8.614250
-0.742104 -0.236418 8.617012
-0.745977 -0.213588 8.619774
-0.751308 -0.191071 8.622627
-0.764085 -0.138782 8.629289
-0.769578 -0.116300 8.632153
-0.776124 -0.094123 8.635076
-0.783206 -0.072101 8.638028
-0.790289 -0.050079 8.640980
-0.797372 -0.028057 8.643932
-0.816019 0.022361 8.650901
-0.824629 0.043822 8.653925
-0.833239 0.065283 8.656950
-0.841848 0.086743 8.659974
-0.851698 0.107650 8.663046
-0.861748 0.128467 8.666126
-0.885121 0.176883 8.673289
-0.896003 0.197261 8.676394
-0.907388 0.217373 8.679514
-0.918772 0.237485 8.682634
-0.930157 0.257597 8.685754
-0.941615 0.277664 8.688875
-0.970929 0.322707 8.696192
-0.983533 0.342074 8.699338
-0.996137 0.361441 8.702483
-1.009647 0.380179 8.705640
-1.023352 0.398780 8.708800
-1.037058 0.417382 8.711959
-1.069509 0.460196 8.719309
-1.084200 0.478029 8.722472
-1.098891 0.495862 8.725634
-1.113581 0.513695 8.728797
-1.128290 0.531512 8.731959
-1.143857 0.548587 8.735117
-1.180060 0.588300 8.742460
-1.195627 0.605375 8.745618
-1.211800 0.621872 8.748766
-1.228141 0.638209 8.751912
-1.244483 0.654547 8.755058
-1.260824 0.670884 8.758203
-1.299887 0.707782 8.765494
-1.316913 0.723408 8.768623
-1.333938 0.739035 8.771753
-1.350963 0.754661 8.774882
-1.368581 0.769620 8.777991
-1.386209 0.784567 8.781100
27 NaN NaN
-1.048562 -1.632315 8.494990
-0.998114 -1.538764 8.500590
-0.950606 -1.443712 8.506603
-0.906338 -1.347138 8.513056
-0.865643 -1.249038 8.519981
-0.828892 -1.149430 8.527405
-0.796486 -1.048367 8.535358
-0.768859 -0.945941 8.543869
-0.746470 -0.842295 8.552961
-0.729787 -0.737635 8.562652
-0.719273 -0.632236 8.572954
-0.715356 -0.526449 8.583865
-0.718405 -0.420699 8.595373
-0.728692 -0.315472 8.607450
-0.746366 -0.211293 8.620051
-0.771435 -0.108702 8.633121
-0.803754 -0.008212 8.646593
-0.843042 0.089720 8.660393
-0.888902 0.184716 8.674448
-0.940854 0.276496 8.688685
-0.998373 0.364877 8.703042
-1.060919 0.449767 8.717460
-1.127962 0.531152 8.731893
-1.199002 0.609078 8.746302
-1.273581 0.683637 8.760659
-1.351283 0.754954 8.774940
-1.431738 0.823170 8.789129
-1.654835 -1.529716 7.219831
-1.498989 -1.401537 7.224518
-1.349507 -1.266065 7.230430
-1.208312 -1.122081 7.237825
-1.078199 -0.968158 7.247040
-0.963267 -0.802791 7.258503
-0.869473 -0.624813 7.272720
-0.806398 -0.434139 7.290304
-0.783285 -0.235215 7.311334
-0.805383 -0.036686 7.335161
-0.870565 0.152019 7.360588
-0.970500 0.325064 7.386430
-1.095609 0.481189 7.411942
-1.238465 0.621510 7.436784
-1.393555 0.748351 7.460872
-1.653277 -1.528462 7.219874
-1.500517 -1.402827 7.224468
-1.497461 -1.400247 7.224568
-1.350960 -1.267438 7.230366
-1.348054 -1.264692 7.230494
-1.209664 -1.123553 7.237743
-1.206960 -1.120609 7.237906
-1.079410 -0.969746 7.246936
-1.076988 -0.966570 7.247143
-0.964276 -0.804513 7.258371
-0.962258 -0.801069 7.258634
-0.870189 -0.626674 7.272555
-0.868758 -0.622953 7.272885
-0.806925 -0.436059 7.290120
-0.805871 -0.432218 7.290488
-0.783355 -0.237202 7.311113
-0.783215 -0.233228 7.311554
-0.804956 -0.038624 7.334915
-0.805810 -0.034748 7.335407
-0.869708 0.150229 7.360332
-0.871421 0.153808 7.360844
-0.969333 0.323460 7.386175
-0.971667 0.326668 7.386684
-1.094233 0.479760 7.411694
-1.096986 0.482618 7.412190
-1.237011 0.620158 7.436540
-1.239919 0.622862 7.437028
-1.391985 0.747135 7.460636
-1.646605 -1.523095 7.220061
-1.507059 -1.408350 7.224255
-1.490919 -1.394724 7.224781
-1.357182 -1.273317 7.230093
-1.341831 -1.258813 7.230767
-1.215454 -1.129854 7.237395
-1.201170 -1.114308 7.238254
-1.084596 -0.976548 7.246494
-1.071802 -0.959768 7.247586
-0.968595 -0.811888 7.257810
-0.957939 -0.793694 7.259196
-0.873717 -0.634443 7.271899
-0.865693 -0.614987 7.273593
-0.809181 -0.444284 7.289333
-0.803615 -0.423993 7.291276
-0.783654 -0.245709 7.310171
-0.782915 -0.224721 7.312496
-0.803126 -0.046925 7.333862
-0.807640 -0.026447 7.336460
-0.866042 0.142567 7.359235
-0.875087 0.161470 7.361940
-0.964335 0.316591 7.385084
-0.976665 0.333538 7.387775
-1.088389 0.473591 7.410629
-1.102881 0.488740 7.413253
-1.230786 0.614370 7.435494
-1.246222 0.628563 7.438069
-1.385262 0.741926 7.459625
-1.630286 -1.509969 7.220519
-1.608656 -1.492571 7.221125
-1.587025 -1.475172 7.221731
-1.565480 -1.457672 7.222355
-1.544270 -1.439766 7.223045
-1.523061 -1.421859 7.223735
-1.475168 -1.380928 7.225349
-1.454440 -1.362470 7.226132
-1.433713 -1.344012 7.226915
-1.412985 -1.325554 7.227698
-1.392573 -1.306755 7.228539
-1.372401 -1.287696 7.229425
-1.326613 -1.244434 7.231435
-1.307013 -1.224794 7.232422
-1.287486 -1.205079 7.233423
-1.267960 -1.185365 7.234423
-1.248434 -1.165650 7.235423
-1.229614 -1.145267 7.236543
-1.187009 -1.098895 7.239106
-1.168465 -1.078268 7.240271
-1.150589 -1.057061 7.241544
-1.132712 -1.035853 7.242816
-1.114836 -1.014646 7.244089
-1.097280 -0.993184 7.245411
-1.059117 -0.943132 7.248668
-1.042305 -0.921082 7.250103
-1.026282 -0.898471 7.251651
-1.010744 -0.875517 7.253268
-0.995206 -0.852562 7.254886
-0.979668 -0.829608 7.256503
-0.947374 -0.775658 7.260570
-0.933371 -0.751751 7.262391
-0.919368 -0.727844 7.264213
-0.907192 -0.702975 7.266258
-0.895039 -0.678095 7.268306
-0.882886 -0.653214 7.270354
-0.858198 -0.595502 7.275324
-0.848263 -0.569676 7.277618
-0.838328 -0.543851 7.279912
-0.829326 -0.517726 7.282299
-0.822012 -0.491063 7.284852
-0.814699 -0.464400 7.287406
-0.800135 -0.403456 7.293378
-0.795836 -0.376170 7.296192
-0.791537 -0.348883 7.299005
-0.787238 -0.321597 7.301819
-0.785357 -0.294097 7.304809
-0.784386 -0.266517 7.307865
-0.782346 -0.203919 7.314812
-0.784856 -0.176460 7.318073
-0.787366 -0.149000 7.321334
-0.789875 -0.121541 7.324596
-0.792719 -0.094136 7.327872
-0.798651 -0.067227 7.331286
-0.812115 -0.006146 7.339036
-0.819372 0.020382 7.342491
-0.828471 0.046378 7.346001
-0.837571 0.072375 7.349511
-0.846670 0.098372 7.353022
-0.857075 0.123826 7.356553
-0.884054 0.180211 7.364622
-0.895940 0.205051 7.368177
-0.909687 0.228886 7.371735
-0.923934 0.252450 7.375294
-0.938181 0.276015 7.378854
-0.952428 0.299580 7.382413
-0.988889 0.350339 7.390442
-1.005092 0.372608 7.393978
-1.021546 0.394681 7.397508
-1.039350 0.415699 7.401003
-1.057154 0.436717 7.404498
-1.074957 0.457735 7.407993
-1.117300 0.503712 7.415852
-1.136411 0.523558 7.419296
-1.155522 0.543403 7.422741
-1.175195 0.562682 7.426157
-1.195377 0.581447 7.429547
-1.215559 0.600212 7.432937
-1.262114 0.641977 7.440585
-1.283178 0.659758 7.443919
-1.304241 0.677538 7.447253
-1.325305 0.695318 7.450587
-1.347022 0.712301 7.453872
-1.368818 0.729187 7.457151
27 NaN NaN
-1.655224 -1.530029 7.219820
-1.569747 -1.461274 7.222216
-1.485933 -1.390514 7.224943
-1.404024 -1.317574 7.228036
-1.324311 -1.242259 7.231536
-1.247150 -1.164354 7.235489
-1.172980 -1.083625 7.239949
-1.102343 -0.999824 7.244979
-1.035910 -0.912694 7.250649
-0.974516 -0.821996 7.257039
-0.919190 -0.727540 7.264236
-0.871177 -0.629242 7.272327
-0.831930 -0.527219 7.281390
-0.803040 -0.421899 7.291476
-0.786062 -0.314129 7.302589
-0.782229 -0.205207 7.314659
-0.792140 -0.096765 7.327538
-0.815566 0.009508 7.341022
-0.851505 0.112186 7.354887
-0.898455 0.210308 7.368929
-0.954738 0.303400 7.382990
-1.018751 0.391381 7.396959
-1.089095 0.474425 7.410768
-1.164609 0.552838 7.424379
-1.244356 0.626988 7.437774
-1.327590 0.697247 7.450948
-1.413719 0.763973 7.463906
-1.763447 -1.469772 5.354913
-1.628328 -1.376745 5.392666
-1.496465 -1.279833 5.432100
-1.369395 -1.177632 5.473831
-1.247561 -1.070173 5.517847
-1.133345 -0.955848 5.564860
-1.028275 -0.834369 5.615009
-0.936376 -0.704193 5.668994
-0.861618 -0.565193 5.726917
-0.810325 -0.417553 5.788774
-0.788979 -0.264116 5.853441
-0.801121 -0.109894 5.918838
-0.847520 0.038502 5.982178
-0.921296 0.177286 6.041777
-1.017657 0.303773 6.096442
-1.128780 0.419632 6.146786
-1.251962 0.524678 6.192698
-1.382649 0.621781 6.235339
-1.761833 -1.468678 5.355357
-1.629917 -1.377871 5.392208
-1.626740 -1.375619 5.393123
-1.497990 -1.281032 5.431612
-1.494941 -1.278635 5.432589
-1.370881 -1.178872 5.473324
-1.367910 -1.176392 5.474337
-1.248945 -1.071509 5.517299
-1.246176 -1.068838 5.518396
-1.134664 -0.957238 5.564288
-1.132026 -0.954458 5.565433
-1.029420 -0.835884 5.614381
-1.027130 -0.832854 5.615636
-0.937405 -0.705777 5.668336
-0.935348 -0.702609 5.669652
-0.862330 -0.566917 5.726195
-0.860907 -0.563469 5.727638
-0.810829 -0.419337 5.788025
-0.809821 -0.415768 5.789523
-0.788979 -0.265958 5.852661
-0.788979 -0.262274 5.854220
-0.800850 -0.111718 5.918063
-0.801393 -0.108070 5.919613
-0.846756 0.036803 5.981450
-0.848284 0.040201 5.982906
-0.920334 0.175675 6.041084
-0.922258 0.178896 6.042470
-1.016401 0.302345 6.095823
-1.018913 0.305201 6.097061
-1.127418 0.418289 6.146202
-1.130141 0.420975 6.147370
-1.250445 0.523484 6.192175
-1.253478 0.525873 6.193222
-1.381076 0.620651 6.234842
-1.755866 -1.464634 5.356997
-1.635787 -1.382032 5.390517
-1.620869 -1.371458 5.394814
-1.503674 -1.285407 5.429828
-1.489305 -1.274206 5.434396
-1.376371 -1.183454 5.471450
-1.362420 -1.171810 5.476211
-1.254062 -1.076443 5.515272
-1.241060 -1.063903 5.520423
-1.139540 -0.962375 5.562172
-1.127150 -0.949320 5.567549
-1.033652 -0.841483 5.612063
-1.022897 -0.827255 5.617955
-0.941206 -0.711632 5.665904
-0.931547 -0.696754 5.672084
-0.864962 -0.573290 5.723530
-0.858275 -0.557096 5.730303
-0.812693 -0.425933 5.785257
-0.807957 -0.409172 5.792292
-0.788978 -0.272766 5.849781
-0.788979 -0.255467 5.857101
-0.799846 -0.118458 5.915199
-0.802396 -0.101330 5.922477
-0.843933 0.030524 5.978760
-0.851108 0.046480 5.985597
-0.916779 0.169721 6.038523
-0.925813 0.184850 6.045031
-1.011758 0.297067 6.093535
-1.023556 0.310478 6.099349
-1.122384 0.413326 6.144041
-1.135222 0.425896 6.149513
-1.244841 0.519069 6.190240
-1.259082 0.530288 6.195156
-1.375263 0.616471 6.233004
-1.741844 -1.455129 5.360851
-1.723310 -1.442567 5.365946
-1.704775 -1.430005 5.371041
-1.686241 -1.417442 5.376135
-1.667823 -1.404739 5.381291
-1.649585 -1.391812 5.386543
-1.607071 -1.361678 5.398788
-1.588834 -1.348751 5.404040
-1.570909 -1.335459 5.409451
-1.553011 -1.322135 5.414875
-1.535113 -1.308812 5.420299
-1.517215 -1.295488 5.425724
-1.476059 -1.263797 5.438643
-1.458552 -1.250040 5.444255
-1.441045 -1.236282 5.449868
-1.423538 -1.222524 5.455481
-1.406327 -1.208456 5.461228
-1.389273 -1.194222 5.467048
-1.349518 -1.161041 5.480614
-1.332562 -1.146711 5.486475
-1.316040 -1.131956 5.492522
-1.299518 -1.117200 5.498568
-1.282995 -1.102445 5.504615
-1.266473 -1.087689 5.510661
-1.229034 -1.052305 5.525187
-1.213139 -1.036976 5.531484
-1.197245 -1.021647 5.537781
-1.181350 -1.006317 5.544078
-1.166144 -0.990409 5.550627
-1.150998 -0.974450 5.557200
-1.115691 -0.937246 5.572521
-1.100953 -0.920976 5.579230
-1.086710 -0.904328 5.586104
-1.072467 -0.887680 5.592978
-1.058223 -0.871032 5.599853
-1.043980 -0.854384 5.606727
-1.012950 -0.814095 5.623405
-0.999803 -0.796701 5.630608
-0.986656 -0.779307 5.637811
-0.973756 -0.761767 5.645079
-0.961948 -0.743580 5.652633
-0.950140 -0.725392 5.660188
-0.922613 -0.682994 5.677800
-0.911982 -0.664221 5.685616
-0.901813 -0.645217 5.693536
-0.891644 -0.626213 5.701456
-0.881475 -0.607209 5.709375
-0.871306 -0.588205 5.717295
-0.852090 -0.542118 5.736567
-0.843916 -0.522321 5.744846
-0.835742 -0.502524 5.753124
-0.828651 -0.482413 5.761549
-0.822862 -0.461924 5.770150
-0.817073 -0.441435 5.778750
-0.803577 -0.393671 5.798799
-0.800516 -0.372701 5.807635
-0.797485 -0.351725 5.816474
-0.794455 -0.330750 5.825313
-0.791424 -0.309774 5.834151
-0.788978 -0.288766 5.843011
-0.788979 -0.239467 5.863870
-0.788980 -0.218319 5.872818
-0.788980 -0.197172 5.881766
-0.791251 -0.176177 5.890676
-0.794369 -0.155238 5.899572
-0.797487 -0.134300 5.908469
-0.805543 -0.085641 5.929153
-0.811643 -0.065279 5.937840
-0.817744 -0.044918 5.946528
-0.823845 -0.024557 5.955216
-0.829945 -0.004195 5.963903
-0.837296 0.015766 5.972437
-0.857744 0.061238 5.991920
-0.866516 0.080744 6.000278
-0.875294 0.100248 6.008634
-0.886337 0.118742 6.016591
-0.897380 0.137235 6.024547
-0.908424 0.155729 6.032503
-0.935171 0.198272 6.050822
-0.948083 0.215704 6.058351
-0.960994 0.233136 6.065880
-0.973906 0.250568 6.073410
-0.986818 0.268000 6.080939
-1.000846 0.284664 6.088157
-1.034468 0.322881 6.104727
-1.048890 0.339275 6.111835
-1.063643 0.355403 6.118835
-1.079280 0.370822 6.125545
-1.094916 0.386241 6.132255
-1.110553 0.401660 6.138965
-1.147794 0.436885 6.154312
-1.164409 0.451410 6.160655
-1.181024 0.465935 6.166999
-1.197640 0.480459 6.173342
-1.214260 0.494979 6.179683
-1.231669 0.508693 6.185693
-1.272254 0.540664 6.199703
-1.289663 0.554378 6.205713
-1.307422 0.567698 6.211560
-1.325481 0.580682 6.217269
-1.343540 0.593665 6.222977
-1.361599 0.606648 6.228685
27 NaN NaN
-1.763851 -1.470045 5.354802
-1.674902 -1.409757 5.379252
-1.587378 -1.347719 5.404459
-1.501484 -1.283777 5.430492
-1.417465 -1.217752 5.457428
-1.335623 -1.149445 5.485355
-1.256332 -1.078632 5.514373
-1.180055 -1.005068 5.544591
-1.107374 -0.928482 5.576130
-1.039026 -0.848593 5.609118
-0.975940 -0.765130 5.643682
-0.919283 -0.677865 5.679930
-0.870494 -0.586689 5.717927
-0.831280 -0.491719 5.757643
-0.803512 -0.393442 5.798895
-0.788978 -0.292844 5.841286
-0.788980 -0.191429 5.884195
-0.803932 -0.091017 5.926859
-0.833190 0.006635 5.968525
-0.875264 0.100197 6.008612
-0.928240 0.188915 6.046780
-0.990188 0.272549 6.082904
-1.059388 0.351208 6.117009
-1.134420 0.425195 6.149207
-1.214152 0.494894 6.179646
-1.297696 0.560706 6.208486
-1.384361 0.623012 6.235880
-1.382748 -1.470548 4.728533
-1.202865 -1.287811 4.705043
-1.035460 -1.093247 4.685056
-0.886647 -0.883776 4.670080
-0.770064 -0.654688 4.663315
-0.705607 -0.406488 4.668866
-0.722364 -0.152208 4.691794
-0.834251 0.074495 4.732425
-1.007637 0.257037 4.782485
-1.213999 0.400781 4.836447
-1.381326 -1.469154 4.728343
-1.204214 -1.289278 4.705212
-1.201516 -1.286344 4.704874
-1.036708 -1.094804 4.685197
-1.034213 -1.091691 4.684915
-0.887692 -0.885478 4.670167
-0.885646 -0.882046 4.670004
-0.770781 -0.656555 4.663322
-0.769347 -0.652821 4.663309
-0.705876 -0.408468 4.668771
-0.705338 -0.404508 4.668962
-0.721694 -0.154071 4.691513
-0.723034 -0.150345 4.692076
-0.833070 0.072923 4.732058
-0.835432 0.076067 4.732791
-1.006151 0.255762 4.782079
-1.009123 0.258313 4.782892
-1.212289 0.399836 4.836019
-1.373850 -1.461829 4.727346
-1.211306 -1.296989 4.706099
-1.194425 -1.278633 4.703987
-1.043269 -1.102986 4.685937
-1.027652 -1.083508 4.684174
-0.893480 -0.894239 4.670703
-0.880384 -0.872953 4.669603
-0.774552 -0.666369 4.663357
-0.765576 -0.643007 4.663274
-0.707288 -0.418874 4.668270
-0.703926 -0.394102 4.669463
-0.719819 -0.164346 4.690337
-0.726554 -0.140549 4.693558
-0.826860 0.064660 4.730134
-0.841641 0.084330 4.734715
-0.998339 0.249059 4.779939
-1.016935 0.265016 4.785032
-1.203554 0.394429 4.833787
-1.354733 -1.443095 4.724797
-1.329317 -1.418188 4.721409
-1.303919 -1.393262 4.718025
-1.279106 -1.367732 4.714810
-1.254293 -1.342202 4.711594
-1.229480 -1.316671 4.708379
-1.176289 -1.258913 4.701718
-1.152231 -1.232646 4.698716
-1.128945 -1.205669 4.695929
-1.105658 -1.178691 4.693142
-1.082371 -1.151714 4.690355
-1.060046 -1.123911 4.687832
-1.010992 -1.062491 4.682312
-0.989869 -1.033737 4.680111
-0.968745 -1.004983 4.677910
-0.947642 -0.976215 4.675715
-0.927962 -0.946429 4.673894
-0.908282 -0.916643 4.672073
-0.866926 -0.849699 4.668578
-0.849033 -0.818783 4.667215
-0.831251 -0.787807 4.665880
-0.815599 -0.755679 4.665077
-0.799946 -0.723552 4.664274
-0.784294 -0.691424 4.663470
-0.755934 -0.617908 4.663184
-0.743419 -0.584441 4.663137
-0.734177 -0.549918 4.663851
-0.724935 -0.515394 4.664566
-0.715701 -0.480868 4.665282
-0.710900 -0.445487 4.666987
-0.700966 -0.367459 4.670883
-0.701434 -0.331827 4.673705
-0.701902 -0.296194 4.676526
-0.702611 -0.260590 4.679396
-0.708864 -0.225620 4.683371
-0.715116 -0.190649 4.687347
-0.735555 -0.115499 4.697348
-0.747523 -0.082194 4.702386
-0.759909 -0.049090 4.707496
-0.776933 -0.018217 4.713401
-0.793956 0.012656 4.719306
-0.810982 0.043528 4.725212
-0.857520 0.105462 4.739637
-0.879011 0.133221 4.746235
-0.903245 0.158554 4.753218
-0.927478 0.183887 4.760201
-0.951801 0.209124 4.767195
-0.978361 0.231916 4.774469
-1.037186 0.281803 4.790532
-1.065473 0.302345 4.797993
-1.093761 0.322886 4.805454
-1.122144 0.343284 4.812924
-1.151724 0.361868 4.820504
-1.181305 0.380451 4.828085
24 NaN NaN
-1.383103 -1.470896 4.728580
-1.304689 -1.394054 4.718125
-1.228136 -1.315289 4.708205
-1.153748 -1.234404 4.698898
-1.081907 -1.151175 4.690300
-1.013092 -1.065349 4.682531
-0.947927 -0.976645 4.675741
-0.887216 -0.884759 4.670123
-0.832023 -0.789391 4.665920
-0.783744 -0.690296 4.663442
-0.744207 -0.587386 4.663076
-0.715710 -0.480933 4.665279
-0.700908 -0.371862 4.670535
-0.702351 -0.262045 4.679230
-0.721618 -0.154283 4.691481
-0.758499 -0.051647 4.707007
-0.810972 0.043515 4.725209
-0.876060 0.130136 4.745384
-0.950792 0.208259 4.766919
-1.032712 0.278555 4.789352
-1.119969 0.341917 4.812366
-1.211218 0.399244 4.835751
-1.305500 0.451342 4.859367
-1.402118 0.498904 4.883123
-0.825776 -1.391443 2.616948
-0.754918 -1.241005 2.656762
-0.693267 -1.087062 2.698335
-0.643303 -0.929473 2.741901
-0.608408 -0.768529 2.787630
-0.590138 -0.605443 2.835278
-0.593919 -0.441932 2.884743
-0.621243 -0.281120 2.935200
-0.672924 -0.126336 2.985711
-0.750848 0.017467 3.034931
-0.849026 0.149035 3.082022
-0.965101 0.266412 3.126218
-1.094721 0.369926 3.167282
-0.824923 -1.389694 2.617409
-0.755707 -1.242780 2.656289
-0.754129 -1.239229 2.657236
-0.693901 -1.088891 2.697834
-0.692633 -1.085233 2.698837
-0.643843 -0.931328 2.741385
-0.642762 -0.927618 2.742418
-0.608722 -0.770427 2.787084
-0.608094 -0.766631 2.788177
-0.590167 -0.607359 2.834704
-0.590109 -0.603527 2.835852
-0.593783 -0.443839 2.884159
-0.594055 -0.440024 2.885327
-0.620748 -0.282965 2.934607
-0.621739 -0.279276 2.935793
-0.672244 -0.128122 2.985122
-0.673604 -0.124550 2.986300
-0.749825 0.015845 3.034364
-0.751872 0.019090 3.035497
-0.847724 0.147611 3.081494
-0.850328 0.150458 3.082550
-0.963688 0.265090 3.125712
-0.966514 0.267734 3.126723
-1.093137 0.368795 3.166820
-0.821729 -1.383147 2.619133
-0.758661 -1.249426 2.654516
-0.751176 -1.232583 2.659008
-0.696273 -1.095738 2.695957
-0.690260 -1.078386 2.700714
-0.645866 -0.938271 2.739452
-0.640739 -0.920675 2.744351
-0.609899 -0.777531 2.785037
-0.606917 -0.759528 2.790223
-0.590274 -0.614528 2.832556
-0.590002 -0.596357 2.838000
-0.593274 -0.450980 2.881972
-0.594565 -0.432883 2.887514
-0.618891 -0.289869 2.932389
-0.623596 -0.272371 2.938012
-0.669698 -0.134807 2.982916
-0.676558 -0.118038 2.988485
-0.745995 0.009773 3.032245
-0.755702 0.025162 3.037617
-0.842851 0.142283 3.079519
-0.855201 0.155786 3.084526
-0.958400 0.260142 3.123818
-0.971802 0.272682 3.128617
-1.087208 0.364564 3.165093
-0.814193 -1.367704 2.623200
-0.804231 -1.347287 2.628577
-0.794269 -1.326870 2.633954
-0.784307 -1.306453 2.639331
-0.774839 -1.285831 2.644807
-0.765628 -1.265104 2.650335
-0.744209 -1.216905 2.663189
-0.735386 -1.196034 2.668790
-0.727024 -1.174993 2.674478
-0.718662 -1.153951 2.680165
-0.710300 -1.132910 2.685852
-0.701938 -1.111868 2.691540
-0.684662 -1.062234 2.705143
-0.677262 -1.040881 2.710998
-0.669861 -1.019528 2.716853
-0.663257 -0.997955 2.722834
-0.656948 -0.976302 2.728863
-0.650638 -0.954649 2.734892
-0.636622 -0.904152 2.749004
-0.631551 -0.882225 2.755210
-0.626480 -0.860298 2.761416
-0.621409 -0.838371 2.767622
-0.616343 -0.816443 2.773828
-0.612674 -0.794289 2.780210
-0.604142 -0.742770 2.795050
-0.600473 -0.720616 2.801432
-0.598071 -0.698336 2.807948
-0.595980 -0.676026 2.814498
-0.593888 -0.653716 2.821047
-0.591797 -0.631405 2.827597
-0.589749 -0.579444 2.843067
-0.589414 -0.557082 2.849767
-0.589079 -0.534721 2.856466
-0.588893 -0.512367 2.863175
-0.590482 -0.490096 2.869994
-0.592072 -0.467826 2.876814
-0.595767 -0.416037 2.892672
-0.599163 -0.394002 2.899560
-0.602812 -0.371998 2.906456
-0.606461 -0.349995 2.913353
-0.610109 -0.327992 2.920250
-0.614512 -0.306155 2.927155
-0.627975 -0.256085 2.943245
-0.633764 -0.234553 2.950164
-0.639882 -0.213125 2.957077
-0.647819 -0.192276 2.963956
-0.655757 -0.171427 2.970835
-0.663694 -0.150577 2.977713
-0.684132 -0.102932 2.993609
-0.694146 -0.082960 3.000382
-0.704159 -0.062989 3.007156
-0.714173 -0.043017 3.013930
-0.725014 -0.023489 3.020634
-0.736960 -0.004551 3.027244
-0.764737 0.039486 3.042617
-0.777080 0.058163 3.049180
-0.790761 0.075963 3.055581
-0.804442 0.093764 3.061983
-0.818123 0.111564 3.068385
-0.831805 0.129365 3.074787
-0.866696 0.168354 3.089186
-0.881893 0.184970 3.095348
-0.897091 0.201586 3.101510
-0.912941 0.217605 3.107542
-0.929433 0.233037 3.113447
-0.945925 0.248469 3.119352
-0.984608 0.284006 3.133004
-1.002190 0.298291 3.138647
-1.019772 0.312575 3.144290
-1.037353 0.326860 3.149934
-1.054935 0.341144 3.155577
-1.073223 0.354582 3.161020
22 NaN NaN
-0.825990 -1.391880 2.616833
-0.780897 -1.299465 2.641171
-0.739206 -1.205646 2.666192
-0.701357 -1.110407 2.691935
-0.667861 -1.013758 2.718435
-0.639305 -0.915753 2.745721
-0.616355 -0.816513 2.773808
-0.599750 -0.716246 2.802691
-0.590285 -0.615279 2.832331
-0.588770 -0.514085 2.862648
-0.595962 -0.413306 2.893508
-0.612472 -0.313743 2.924717
-0.638668 -0.216314 2.956026
-0.674584 -0.121975 2.987150
-0.719894 -0.031607 3.017800
-0.773946 0.054085 3.047713
-0.835856 0.134635 3.076682
-0.904630 0.209829 3.104567
-0.979268 0.279668 3.131290
-1.058840 0.344316 3.156830
-1.142522 0.404043 3.181205
-1.229614 0.459171 3.204459
-0.479087 -1.284768 0.446775
-0.428853 -0.965877 0.510298
-0.421841 -0.647069 0.590765
-0.466891 -0.336755 0.689451
-0.568704 -0.046512 0.805180
-0.724363 0.212731 0.933953
-0.924263 0.435210 1.070496
-0.478703 -1.282837 0.447128
-0.429000 -0.967821 0.509848
-0.428706 -0.963934 0.510747
-0.421696 -0.648984 0.590208
-0.421986 -0.645153 0.591322
-0.466412 -0.338580 0.688787
-0.467369 -0.334930 0.690115
-0.567889 -0.048176 0.804426
-0.569518 -0.044849 0.805934
-0.723256 0.211278 0.933139
-0.725470 0.214184 0.934767
-0.922931 0.433980 1.069652
-0.476204 -1.270265 0.449429
-0.430280 -0.980471 0.507048
-0.427750 -0.951281 0.513675
-0.420785 -0.661461 0.586594
-0.422932 -0.632682 0.594949
-0.463296 -0.350462 0.684462
-0.470485 -0.323048 0.694440
-0.562586 -0.059010 0.799516
-0.574821 -0.034015 0.810843
-0.716047 0.201815 0.927839
-0.732679 0.223646 0.940067
-0.914257 0.425971 1.064156
-0.469576 -1.236927 0.455530
-0.460743 -1.192498 0.463660
-0.453174 -1.147944 0.472319
-0.446019 -1.103347 0.481151
-0.439624 -1.058709 0.490294
-0.434286 -1.014011 0.499866
-0.425215 -0.917727 0.521439
-0.421837 -0.873010 0.531785
-0.420359 -0.828370 0.542858
-0.419085 -0.783737 0.554008
-0.419087 -0.739222 0.565629
-0.420057 -0.694797 0.577606
-0.425441 -0.599609 0.604567
-0.428918 -0.555563 0.617430
-0.434745 -0.512002 0.631088
-0.440572 -0.468442 0.644746
-0.448247 -0.425379 0.658999
-0.456642 -0.382510 0.673485
-0.478748 -0.291540 0.705908
-0.490296 -0.249767 0.721346
-0.503933 -0.208842 0.737382
-0.517570 -0.167916 0.753418
-0.533462 -0.128071 0.770057
-0.549689 -0.088387 0.786785
-0.588884 -0.005287 0.823863
-0.608477 0.032455 0.841406
-0.629616 0.069212 0.859298
-0.650802 0.105934 0.877200
-0.674193 0.141063 0.895552
-0.697583 0.176193 0.913904
-0.751795 0.248739 0.954120
-0.778235 0.281309 0.973001
-0.805617 0.313029 0.992029
-0.833295 0.344454 1.011097
-0.862401 0.374455 1.030353
-0.891507 0.404455 1.049610
20 NaN NaN
-0.479183 -1.285250 0.446687
-0.458563 -1.181532 0.465667
-0.441859 -1.077423 0.486286
-0.429397 -0.973078 0.508632
-0.421510 -0.868690 0.532785
-0.418536 -0.764500 0.558814
-0.420800 -0.660795 0.586773
-0.428604 -0.557911 0.616693
-0.442206 -0.456227 0.648576
-0.461802 -0.356160 0.682389
-0.487505 -0.258143 0.718064
-0.519337 -0.162613 0.755496
-0.557216 -0.069980 0.794545
-0.600962 0.019388 0.835044
-0.650305 0.105187 0.876810
-0.704906 0.187191 0.919649
-0.764374 0.265251 0.963368
-0.828292 0.339297 1.007787
-0.896237 0.409331 1.052739
-0.967795 0.475408 1.098077
