0.149887 0.149898 0.150027 0.150611 0.151534 0.152429 0.153324 0.154218 0.155053 0.155580 0.155694 0.155703 0.155713 0.155825 0.156319 0.157100 0.157845 0.158589 0.159334 0.160085 0.160559 0.160666 0.160675 0.160684 0.160791 0.161277 0.162048 0.162839 0.163631 0.164422 0.165230 0.165740 0.165854 0.165863 0.165872 0.165986 0.166506 0.167328 0.168152 0.168975 0.169799 0.170612 0.171126 0.171239 0.171248 0.171257 0.171369 0.171869 0.172662 0.173424 0.174186 0.174948 0.175672 0.176129 0.176230 0.176238 0.176246 0.176346 0.176785 0.177480 0.178098 0.178716 0.179335 0.179855 0.180184 0.180253 0.180259 0.180265 0.180333 0.180609 0.181046 0.181389 0.181732 0.182075 0.182308 0.182455 0.182481 0.182484 0.182486 0.182513 0.182599 0.182735 0.182749 0.182763 0.182777 0.182649 0.182568 0.182542 0.182540 0.182537 0.182509 0.182345 0.182085 0.181666 0.181247 0.180828 0.180254 0.179891 0.179803 0.179796 0.179788 0.179699 0.179258 0.178560 0.177734 0.176908 0.176083 0.175152 0.174564 0.174430 0.174418 
0.149883 0.149877 0.149825 0.149685 0.149497 0.149294 0.149090 0.148887 0.148668 0.148504 0.148442 0.148435 0.148428 0.148366 0.148193 0.147962 0.147719 0.147476 0.147233 0.146986 0.146801 0.146733 0.146725 0.146717 0.146649 0.146461 0.146210 0.145959 0.145709 0.145458 0.145212 0.145027 0.144960 0.144952 0.144944 0.144877 0.144694 0.144450 0.144210 0.143971 0.143731 0.143494 0.143317 0.143253 0.143245 0.143237 0.143173 0.142998 0.142764 0.142533 0.142301 0.142069 0.141840 0.141668 0.141605 0.141598 0.141590 0.141528 0.141358 0.141131 0.140906 0.140680 0.140455 0.140232 0.140065 0.140005 0.139998 0.139990 0.139930 0.139765 0.139545 0.139328 0.139111 0.138894 0.138679 0.138518 0.138460 0.138453 0.138446 0.138388 0.138230 0.138018 0.137810 0.137602 0.137394 0.137188 0.137035 0.136979 0.136972 0.136966 0.136910 0.136759 0.136557 0.136358 0.136160 0.135961 0.135766 0.135619 0.135566 0.135560 0.135554 0.135501 0.135357 0.135165 0.134977 0.134789 0.134601 0.134416 0.134278 0.134227 0.134221 0.134215 0.134165 0.134029 0.133848 0.133669 0.133491 0.133313 0.133138 0.133008 0.132960 0.132955 0.132949 0.132902 0.132773 0.132601 0.132433 0.132264 0.132096 0.131931 0.131807 0.131762 0.131757 0.131752 0.131707 0.131586 0.131424 0.131264 0.131105 0.130946 0.130789 0.130672 0.130629 0.130624 0.130619 0.130577 0.130462 0.130308 0.130157 0.130005 0.129854 0.129706 0.129595 0.129554 0.129550 
0.149886 0.149892 0.149971 0.150158 0.150455 0.149971 0.149488 0.149004 0.148222 0.147728 0.147610 0.147601 0.147592 0.147471 0.146929 0.146070 0.145273 0.144477 0.143681 0.142874 0.142365 0.142254 0.142245 0.142237 0.142126 0.141656 0.140911 0.140300 0.139688 0.139077 0.138510 0.138151 0.138071 0.138065 0.138058 0.137975 0.137590 0.136981 0.136265 0.135549 0.134833 0.133984 0.133448 0.133321 0.133311 0.133301 0.133173 0.132572 0.131619 0.130448 0.129277 0.128105 0.126606 0.125659 0.125444 0.125428 0.125411 0.125198 0.124275 0.122814 0.121736 0.120658 0.119580 0.118876 0.118432 0.118349 0.118342 0.118336 0.118256 0.117943 0.117448 0.117107 0.116766 0.116426 0.116183 0.116030 0.116000 0.115997 0.115995 0.115966 0.115846 0.115657 0.115510 0.115364 0.115218 0.115100 0.115026 0.115011 0.115010 0.115009 0.114994 0.114931 0.114831 0.114744 0.114658 0.114571 0.114495 0.114446 0.114436 0.114435 0.114435 0.114425 0.114380 0.114310 0.114248 0.114185 0.114122 0.114066 0.114031 0.114024 0.114023 0.114023 0.114015 0.113984 0.113934 0.113890 0.113847 0.113803 0.113766 0.113742 0.113738 0.113737 0.113737 0.113732 0.113711 0.113678 0.113650 0.113622 0.113594 0.113571 0.113556 0.113553 0.113553 0.113553 0.113550 0.113537 0.113516 0.113500 0.113483 0.113467 0.113453 0.113445 0.113443 0.113443 0.113443 0.113442 0.113435 0.113425 0.113417 0.113409 0.113401 0.113386 0.113377 0.113374 0.113374 
0.182531 0.182496 0.182279 0.181721 0.180978 0.180297 0.179617 0.178936 0.178315 0.177848 0.177677 0.177649 0.177621 0.177452 0.177048 0.176510 0.176055 0.175600 0.175145 0.174784 0.174512 0.174419 0.174404 0.174389 0.174296 0.174089 0.173812 0.173606 0.173401 0.173196 0.173046 0.172934 0.172903 0.172898 0.172892 0.172861 0.172779 0.172670 0.172607 0.172543 0.172480 0.172434 0.172400 0.172394 0.172393 0.172393 0.172388 0.172373 0.172353 0.172347 0.172342 0.172336 0.172344 0.172349 0.172350 0.172350 
0.176230 0.176200 0.176066 0.175741 0.175311 0.174904 0.174498 0.174091 0.173699 0.173403 0.173286 0.173259 0.173233 0.173117 0.172833 0.172458 0.172091 0.171724 0.171357 0.171003 0.170735 0.170628 0.170604 0.170580 0.170474 0.170221 0.169886 0.169565 0.169243 0.168922 0.168617 0.168388 0.168295 0.168275 0.168254 0.168162 0.167953 0.167674 0.167424 0.167174 0.166923 0.166707 0.166544 0.166480 0.166466 0.166452 0.166390 0.166252 0.166070 0.165908 0.165747 0.165586 0.165457 0.165360 0.165321 0.165312 0.165303 0.165265 0.165181 0.165069 0.164975 0.164881 0.164788 0.164720 0.164669 0.164648 0.164643 0.164638 0.164617 0.164570 0.164508 0.164461 0.164415 0.164369 0.164341 0.164319 0.164311 0.164309 0.164307 0.164298 0.164277 0.164249 0.164235 0.164221 0.164206 0.164201 0.164197 0.164197 0.164197 0.164197 0.164196 0.164194 0.164191 0.164198 0.164205 0.164212 0.164223 0.164232 0.164236 0.164238 0.164239 0.164243 0.164253 0.164267 0.164287 0.164306 0.164326 0.164347 0.164363 0.164371 0.164373 
0.165859 0.165844 0.165750 0.165503 0.165176 0.164853 0.164531 0.164209 0.163897 0.163662 0.163574 0.163560 0.163545 0.163457 0.163229 0.162926 0.162637 0.162347 0.162058 0.161778 0.161569 0.161490 0.161477 0.161464 0.161385 0.161184 0.160915 0.160652 0.160388 0.160125 0.159870 0.159679 0.159608 0.159596 0.159585 0.159514 0.159330 0.159086 0.158858 0.158630 0.158402 0.158215 0.158074 0.158033 0.158027 0.158020 0.157979 0.157879 0.157745 0.157652 0.157559 0.157466 0.157404 0.157358 0.157343 0.157341 0.157339 0.157329 0.157301 0.157263 0.157243 0.157223 0.157203 0.157200 0.157197 0.157195 0.157195 0.157195 0.157192 0.157196 0.157201 0.157211 0.157222 0.157232 0.157251 0.157264 0.157270 0.157270 0.157271 0.157276 0.157293 0.157315 0.157339 0.157363 0.157387 0.157413 0.157433 0.157441 0.157442 
0.160671 0.160655 0.160528 0.160175 0.159705 0.159242 0.158779 0.158316 0.157878 0.157550 0.157433 0.157419 0.157405 0.157288 0.156987 0.156584 0.156226 0.155868 0.155510 0.155177 0.154928 0.154837 0.154826 0.154814 0.154723 0.154473 0.154138 0.153802 0.153466 0.153129 0.152817 0.152584 0.152504 0.152494 0.152484 0.152404 0.152216 0.151964 0.151791 0.151617 0.151443 0.151336 0.151256 0.151231 0.151228 0.151225 0.151200 0.151156 0.151097 0.151074 0.151051 0.151029 0.151030 0.151032 0.151034 0.151034 0.151034 0.151037 0.151052 0.151072 0.151106 0.151140 0.151174 0.151217 0.151249 0.151261 0.151263 
0.155701 0.155693 0.155664 0.155599 0.155512 0.155423 0.155333 0.155244 0.155151 0.155081 0.155049 0.155040 0.155031 0.154999 0.154926 0.154831 0.154730 0.154629 0.154528 0.154423 0.154343 0.154307 0.154297 0.154286 0.154250 0.154168 0.154060 0.153945 0.153831 0.153716 0.153596 0.153505 0.153464 0.153452 0.153440 0.153399 0.153305 0.153182 0.153065 0.152948 0.152832 0.152719 0.152633 0.152597 0.152586 0.152579 0.152553 0.152506 0.152443 0.152380 0.152317 0.152254 0.152190 0.152142 0.152121 0.152115 0.152108 0.152087 0.152039 0.151975 0.151910 0.151846 0.151781 0.151716 0.151667 0.151645 0.151638 0.151631 0.151609 0.151559 0.151492 0.151425 0.151358 0.151290 0.151222 0.151170 0.151147 0.151140 0.151133 0.151110 0.151057 0.150987 0.150915 0.150844 0.150772 0.150699 0.150643 0.150619 0.150611 0.150604 0.150579 0.150522 0.150447 0.150372 0.150296 0.150221 0.150142 0.150083 0.150057 0.150049 0.150042 0.150015 0.149955 0.149876 0.149797 0.149718 0.149639 0.149561 0.149503 0.149477 0.149469 0.149461 0.149436 0.149377 0.149300 0.149230 0.149160 0.149090 0.149024 0.148973 0.148952 0.148945 0.148939 0.148918 0.148876 0.148821 0.148769 0.148716 0.148664 0.148621 0.148588 0.148575 0.148571 0.148568 0.148555 0.148527 0.148490 0.148460 0.148429 0.148398 0.148375 0.148357 0.148349 0.148347 0.148344 0.148337 0.148320 0.148299 0.148285 0.148271 0.148258 0.148244 0.148234 0.148230 0.148228 0.148228 0.148226 0.148221 0.148215 0.148208 0.148202 0.148195 0.148193 0.148192 0.148192 0.148192 0.148191 0.148191 0.148190 0.148189 0.148189 0.148190 0.148191 0.148193 0.148195 0.148196 0.148196 0.148197 0.148197 0.148200 0.148203 0.148209 0.148214 0.148219 0.148225 0.148228 0.148231 0.148232 0.148233 0.148235 0.148241 0.148249 0.148257 0.148264 0.148272 0.148281 0.148288 0.148291 0.148292 0.148293 0.148296 0.148303 0.148312 0.148321 0.148331 0.148341 0.148351 0.148358 0.148362 0.148362 
0.148435 0.148434 0.148433 0.148430 0.148426 0.148419 0.148413 0.148407 0.148398 0.148391 0.148387 0.148386 0.148384 0.148380 0.148372 0.148360 0.148346 0.148331 0.148317 0.148300 0.148287 0.148281 0.148279 0.148276 0.148270 0.148254 0.148234 0.148211 0.148188 0.148165 0.148139 0.148119 0.148110 0.148106 0.148103 0.148093 0.148070 0.148040 0.148006 0.147972 0.147938 0.147901 0.147873 0.147859 0.147855 0.147850 0.147836 0.147805 0.147763 0.147717 0.147671 0.147625 0.147580 0.147545 0.147530 0.147524 0.147519 0.147504 0.147470 0.147425 0.147403 0.147381 0.147358 0.147347 0.147338 0.147334 0.147333 0.147331 0.147327 0.147318 0.147306 0.147293 0.147281 0.147268 0.147255 0.147245 0.147241 0.147239 0.147238 0.147233 0.147223 0.147209 0.147195 0.147181 0.147167 0.147152 0.147141 0.147136 0.147134 0.147132 0.147127 0.147115 0.147099 0.147082 0.147065 0.147048 0.147030 0.147017 0.147011 0.147008 0.147006 0.147000 0.146985 0.146966 0.146946 0.146926 0.146906 0.146884 0.146868 0.146860 0.146857 0.146854 0.146847 0.146829 0.146805 0.146781 0.146757 0.146732 0.146706 0.146686 0.146677 0.146673 0.146670 0.146661 0.146639 0.146612 0.146583 0.146554 0.146525 0.146494 0.146471 0.146461 0.146457 0.146453 0.146443 0.146418 0.146386 0.146354 0.146323 0.146291 0.146259 0.146235 0.146224 0.146220 0.146217 0.146206 0.146182 0.146150 0.146121 0.146092 0.146062 0.146034 0.146013 0.146003 0.146000 0.145996 0.145987 0.145967 0.145941 0.145919 0.145896 0.145873 0.145852 0.145835 0.145828 0.145825 0.145823 0.145816 0.145803 0.145787 0.145772 0.145756 0.145741 0.145727 0.145716 0.145712 0.145710 0.145709 0.145705 0.145698 0.145688 0.145678 0.145669 0.145659 0.145650 0.145644 0.145642 0.145641 0.145640 0.145638 0.145633 0.145627 0.145621 0.145615 0.145609 0.145604 0.145601 0.145600 0.145599 0.145599 0.145597 0.145595 0.145591 0.145587 0.145584 0.145580 0.145578 0.145577 0.145576 0.145576 0.145576 0.145575 0.145573 0.145571 0.145570 0.145568 0.145567 0.145566 0.145565 0.145565 0.145565 0.145565 0.145564 0.145563 0.145562 0.145562 0.145562 0.145562 0.145562 0.145562 0.145562 0.145562 0.145562 0.145562 0.145562 0.145562 0.145563 0.145564 0.145565 0.145566 0.145566 0.145567 0.145567 0.145567 0.145567 0.145568 0.145569 0.145570 0.145572 0.145573 0.145575 0.145576 0.145576 0.145577 
0.146723 0.146718 0.146695 0.146639 0.146566 0.146487 0.146408 0.146329 0.146245 0.146181 0.146155 0.146148 0.146141 0.146114 0.146050 0.145964 0.145875 0.145787 0.145698 0.145604 0.145533 0.145503 0.145496 0.145488 0.145460 0.145393 0.145304 0.145218 0.145131 0.145045 0.144964 0.144903 0.144878 0.144872 0.144865 0.144840 0.144781 0.144702 0.144644 0.144586 0.144527 0.144472 0.144430 0.144412 0.144408 0.144403 0.144386 0.144344 0.144288 0.144231 0.144174 0.144117 0.144059 0.144015 0.143996 0.143991 0.143987 0.143968 0.143922 0.143862 0.143799 0.143736 0.143673 0.143610 0.143563 0.143542 0.143537 0.143532 0.143511 0.143461 0.143395 0.143326 0.143257 0.143188 0.143118 0.143065 0.143043 0.143037 0.143031 0.143009 0.142955 0.142885 0.142817 0.142750 0.142683 0.142623 0.142578 0.142561 0.142556 0.142552 0.142535 0.142495 0.142442 0.142400 0.142359 0.142317 0.142281 0.142254 0.142243 0.142241 0.142239 0.142230 0.142215 0.142195 0.142178 0.142161 0.142144 0.142137 0.142132 0.142129 0.142129 0.142128 0.142126 0.142123 0.142119 0.142121 0.142123 0.142125 0.142130 0.142135 0.142137 0.142138 0.142139 0.142142 0.142148 0.142157 0.142169 0.142180 0.142192 0.142206 0.142216 0.142220 0.142221 0.142223 0.142227 0.142241 0.142258 0.142277 0.142295 0.142313 0.142334 0.142350 0.142356 0.142358 0.142360 0.142366 0.142383 0.142405 0.142429 0.142453 0.142477 0.142503 0.142522 0.142531 0.142533 
0.139997 0.139995 0.139986 0.139966 0.139939 0.139911 0.139884 0.139856 0.139827 0.139805 0.139796 0.139793 0.139791 0.139781 0.139759 0.139730 0.139700 0.139670 0.139640 0.139610 0.139587 0.139577 0.139575 0.139572 0.139562 0.139539 0.139508 0.139477 0.139446 0.139415 0.139384 0.139361 0.139351 0.139348 0.139345 0.139335 0.139311 0.139280 0.139248 0.139216 0.139183 0.139150 0.139125 0.139115 0.139112 0.139109 0.139098 0.139072 0.139039 0.139005 0.138970 0.138936 0.138902 0.138876 0.138864 0.138861 0.138858 0.138847 0.138820 0.138785 0.138749 0.138714 0.138679 0.138643 0.138616 0.138604 0.138601 0.138598 0.138586 0.138560 0.138525 0.138500 0.138475 0.138449 0.138433 0.138421 0.138416 0.138415 0.138414 0.138409 0.138399 0.138385 0.138375 0.138365 0.138355 0.138347 0.138342 0.138339 0.138338 0.138338 0.138335 0.138332 0.138327 0.138323 0.138319 0.138315 0.138313 0.138312 0.138312 0.138312 0.138312 0.138312 0.138311 0.138311 0.138311 0.138312 0.138313 0.138314 0.138316 0.138316 0.138317 0.138317 0.138317 0.138320 0.138323 0.138327 0.138331 0.138336 0.138341 0.138345 0.138348 0.138348 0.138349 0.138351 0.138356 0.138363 0.138371 0.138379 0.138387 0.138397 0.138404 0.138407 0.138408 
0.132954 0.132951 0.132942 0.132921 0.132892 0.132864 0.132835 0.132806 0.132777 0.132754 0.132745 0.132742 0.132739 0.132729 0.132707 0.132677 0.132648 0.132618 0.132589 0.132559 0.132536 0.132526 0.132523 0.132520 0.132510 0.132487 0.132456 0.132426 0.132395 0.132365 0.132334 0.132311 0.132301 0.132298 0.132295 0.132285 0.132261 0.132231 0.132199 0.132168 0.132137 0.132107 0.132083 0.132073 0.132070 0.132067 0.132057 0.132033 0.132002 0.131971 0.131940 0.131909 0.131878 0.131854 0.131844 0.131840 0.131837 0.131827 0.131804 0.131773 0.131742 0.131712 0.131681 0.131651 0.131627 0.131618 0.131615 0.131612 0.131602 0.131580 0.131550 0.131522 0.131494 0.131466 0.131453 0.131443 0.131439 0.131438 0.131437 0.131433 0.131423 0.131411 0.131401 0.131392 0.131382 0.131373 0.131366 0.131363 0.131362 0.131361 0.131358 0.131353 0.131347 0.131340 0.131334 0.131328 0.131323 0.131319 0.131317 0.131317 0.131317 0.131315 0.131312 0.131308 0.131305 0.131301 0.131298 0.131295 0.131294 0.131293 0.131293 0.131292 0.131291 0.131289 0.131287 0.131287 0.131287 0.131286 0.131286 0.131286 0.131286 0.131286 0.131286 0.131287 0.131288 0.131290 0.131292 0.131294 0.131296 0.131300 0.131303 0.131304 0.131305 
