0.180983 0.180960 0.180607 0.179027 0.176522 0.174370 0.172219 0.170067 0.168190 0.167005 0.166760 0.166744 0.166728 0.166485 0.165439 0.163782 0.162341 0.160900 0.159459 0.158181 0.157374 0.157205 0.157194 
0.180994 0.181016 0.181241 0.181923 0.182943 0.183634 0.184325 0.185017 0.185519 0.185854 0.185937 0.185945 0.185953 0.186035 0.186309 0.186720 0.187144 0.187569 0.187993 0.188465 0.188780 0.188865 0.188873 0.188882 0.188972 0.189322 0.189845 0.190409 0.190972 0.191535 0.192135 0.192535 0.192650 0.192661 0.192672 0.192785 0.193212 0.193851 0.194564 0.195278 0.195991 0.196742 0.197244 0.197379 0.197392 0.197405 0.197541 0.198035 0.198775 0.199429 0.200084 0.200738 0.201238 0.201571 0.201645 0.201652 0.201659 0.201729 0.201928 0.202226 0.202302 0.202378 0.202455 0.202296 0.202191 0.202151 0.202147 0.202143 0.202101 0.201887 0.201567 0.201099 0.200632 0.200165 0.199563 0.199161 0.199048 0.199037 0.199026 0.198913 0.198453 0.197763 0.196998 0.196232 0.195467 0.194655 0.194113 0.193963 0.193949 
0.180989 0.180989 0.180984 0.180511 0.179760 0.178889 0.178017 0.177146 0.176146 0.175514 0.175416 0.175410 0.175404 0.175300 0.174792 0.173987 0.173151 0.172316 0.171480 0.170724 0.170247 0.170118 0.170110 0.170101 0.169971 0.169291 0.168213 0.167025 0.165836 0.164647 0.163353 0.162537 0.162326 0.162313 0.162300 0.162081 0.160867 0.158944 0.155550 0.152157 0.148763 0.144897 0.142457 0.141932 0.141899 0.141866 0.141336 0.138971 0.135224 0.132337 0.129451 0.126564 0.124752 0.123609 0.123406 0.123393 0.123381 0.123189 0.122433 0.121234 0.120476 0.119718 0.118960 0.118461 0.118146 0.118087 0.118084 0.118080 0.118022 0.117791 0.117424 0.117156 0.116888 0.116620 0.116417 0.116289 0.116264 0.116262 0.116261 0.116236 0.116129 0.115961 0.115821 0.115681 0.115541 0.115423 0.115348 0.115333 0.115332 0.115331 0.115316 0.115250 0.115146 0.115058 0.114969 0.114881 0.114806 0.114758 0.114749 0.114748 0.114747 0.114738 0.114697 0.114632 0.114577 0.114522 0.114467 0.114421 0.114391 0.114386 0.114385 0.114385 0.114379 0.114354 0.114315 0.114283 0.114250 0.114218 0.114188 0.114169 0.114165 0.114165 
0.166745 0.166748 0.166764 0.166793 0.166832 0.166829 0.166826 0.166824 0.166782 0.166750 0.166732 0.166728 0.166724 0.166705 0.166643 0.166561 0.166453 0.166345 0.166237 0.166103 0.166002 0.165960 0.165951 0.165943 0.165900 0.165783 0.165628 0.165463 0.165298 0.165133 0.164958 0.164826 0.164775 0.164765 0.164755 0.164703 0.164566 0.164383 0.164206 0.164029 0.163852 0.163680 0.163551 0.163499 0.163489 0.163479 0.163426 0.163291 0.163111 0.162916 0.162722 0.162527 0.162323 0.162170 0.162107 0.162094 0.162082 0.162017 0.161846 0.161619 0.161372 0.161125 0.160878 0.160612 0.160412 0.160333 0.160318 0.160302 0.160223 0.160009 0.159724 0.159428 0.159132 0.158837 0.158535 0.158307 0.158217 0.158200 0.158182 0.158092 0.157862 0.157557 0.157370 0.157183 0.156996 0.156844 0.156730 0.156689 0.156681 0.156673 0.156632 0.156534 0.156403 0.156290 0.156177 0.156064 0.155964 0.155889 0.155859 0.155853 0.155847 0.155816 0.155747 0.155656 0.155567 0.155477 0.155388 0.155302 0.155237 0.155212 0.155207 0.155203 0.155179 0.155118 0.155036 0.154957 0.154877 0.154798 0.154720 0.154662 0.154640 0.154635 0.154631 0.154608 0.154550 0.154473 0.154398 0.154322 0.154246 0.154171 0.154114 0.154091 0.154087 
0.192646 0.192584 0.192292 0.191581 0.190636 0.189746 0.188856 0.187966 0.187123 0.186488 0.186240 0.186188 0.186136 0.185890 0.185293 0.184500 0.183752 0.183004 0.182256 0.181547 0.181014 0.180806 0.180762 0.180718 0.180512 0.180004 0.179331 0.178690 0.178050 0.177409 0.176799 0.176339 0.176160 0.176122 0.176084 0.175905 0.175465 0.174881 0.174330 0.173779 0.173229 0.172708 0.172317 0.172167 0.172135 0.172104 0.171955 0.171590 0.171105 0.170738 0.170370 0.170002 0.169688 0.169452 0.169365 0.169346 0.169328 0.169241 0.169031 0.168750 0.168517 0.168283 0.168050 0.167848 0.167697 0.167639 0.167626 0.167614 0.167556 0.167416 0.167231 0.167073 0.166914 0.166756 0.166625 0.166526 0.166487 0.166478 0.166470 0.166431 0.166339 0.166218 0.166114 0.166010 0.165906 0.165825 0.165764 0.165740 0.165735 0.165730 0.165705 0.165652 0.165582 0.165525 0.165469 0.165412 0.165375 0.165346 0.165336 0.165334 
0.197375 0.197308 0.196962 0.196106 0.194968 0.193884 0.192801 0.191717 0.190713 0.189958 0.189672 0.189616 0.189560 0.189276 0.188571 0.187636 0.186759 0.185882 0.185006 0.184192 0.183579 0.183345 0.183299 0.183253 0.183021 0.182450 0.181692 0.180981 0.180270 0.179558 0.178889 0.178385 0.178194 0.178157 0.178121 0.177937 0.177477 0.176867 0.176359 0.175851 0.175342 0.174920 0.174602 0.174488 0.174466 0.174444 0.174331 0.174055 0.173688 0.173369 0.173050 0.172732 0.172457 0.172250 0.172169 0.172153 0.172138 0.172056 0.171873 0.171629 0.171407 0.171185 0.170963 0.170758 0.170604 0.170552 0.170542 0.170532 0.170482 0.170352 0.170180 0.170027 0.169875 0.169723 0.169594 0.169498 0.169463 0.169456 
0.201631 0.201548 0.200919 0.199299 0.197137 0.195251 0.193366 0.191481 0.189845 0.188619 0.188192 0.188136 0.188080 0.187656 0.186565 0.185108 0.183828 0.182547 0.181267 0.180140 0.179296 0.179006 0.178968 0.178930 0.178643 0.177920 0.176954 0.176326 0.175698 0.175069 0.174582 0.174216 0.174088 0.174072 0.174056 0.173941 0.173630 0.173215 0.172863 0.172512 0.172160 0.171859 0.171634 0.171553 0.171542 
0.202125 0.202038 0.201672 0.200810 0.199669 0.198612 0.197556 0.196500 0.195526 0.194792 0.194501 0.194432 0.194364 0.194076 0.193391 0.192483 0.191629 0.190774 0.189919 0.189122 0.188521 0.188281 0.188224 0.188167 0.187930 0.187369 0.186627 0.185938 0.185250 0.184562 0.183917 0.183430 0.183237 0.183192 0.183146 0.182955 0.182499 0.181894 0.181340 0.180786 0.180231 0.179708 0.179313 0.179164 0.179128 0.179093 0.178947 0.178598 0.178135 0.177759 0.177383 0.177007 0.176728 0.176517 0.176432 0.176412 0.176392 0.176307 0.176130 0.175896 0.175670 0.175443 0.175217 0.175021 0.174873 0.174810 0.174796 0.174781 0.174719 0.174574 0.174382 0.174203 0.174025 0.173846 0.173676 0.173548 0.173496 0.173484 0.173472 0.173419 0.173289 0.173117 0.172970 0.172823 0.172676 0.172524 0.172408 0.172368 0.172358 0.172348 0.172307 0.172205 0.172070 0.171941 0.171813 0.171685 0.171564 0.171473 0.171434 0.171425 
0.193932 0.193865 0.193645 0.193157 0.192514 0.191900 0.191287 0.190674 0.190092 0.189651 0.189462 0.189405 0.189348 0.189160 0.188743 0.188194 0.187676 0.187158 0.186639 0.186144 0.185767 0.185605 0.185556 0.185507 0.185345 0.184988 0.184518 0.184073 0.183628 0.183183 0.182754 0.182428 0.182293 0.182252 0.182211 0.182076 0.181775 0.181378 0.180995 0.180612 0.180230 0.179877 0.179609 0.179492 0.179457 0.179423 0.179307 0.179048 0.178707 0.178394 0.178081 0.177768 0.177471 0.177246 0.177148 0.177118 0.177089 0.176992 0.176787 0.176518 0.176266 0.176013 0.175761 0.175547 0.175385 0.175341 0.175328 0.175314 0.175271 0.175172 0.175041 0.174919 0.174796 0.174674 0.174571 0.174494 0.174459 0.174448 0.174437 0.174402 0.174318 0.174208 0.174119 0.174030 0.173941 0.173849 0.173779 0.173747 0.173737 0.173727 0.173695 0.173636 0.173559 0.173476 0.173392 0.173309 0.173229 0.173169 0.173144 0.173136 0.173129 0.173103 0.173045 0.172969 0.172892 0.172815 0.172738 0.172664 0.172609 0.172583 0.172575 0.172567 0.172540 0.172478 0.172397 0.172329 0.172262 0.172194 0.172122 0.172067 0.172042 0.172034 
