0.137392 0.137402 0.137527 0.138119 0.139056 0.140086 0.141116 0.142145 0.143276 0.143989 0.144152 0.144164 0.144176 0.144340 0.145113 0.146337 0.147685 0.149034 0.150382 0.151876 0.152819 0.153034 0.153050 0.153066 0.153282 0.154303 0.155919 0.157654 0.159388 0.161123 0.162906 0.164031 0.164280 0.164299 0.164317 0.164566 0.165694 0.167481 0.169307 0.171133 0.172959 0.174878 0.176090 0.176364 0.176384 0.176405 0.176680 0.177977 0.180034 0.182271 0.184508 0.186745 0.189136 0.190645 0.190985 0.191010 0.191035 0.191375 0.192943 0.195427 0.197959 0.200491 0.203023 0.205426 0.206944 0.207247 0.207270 0.207293 0.207598 0.208836 0.210796 0.211938 0.213080 0.214222 0.214548 0.214754 0.214776 0.214777 0.214779 0.214797 0.214763 0.214707 0.214319 0.213931 0.213543 0.212831 0.212381 0.212258 0.212249 0.212240 0.212116 0.211433 0.210351 0.208710 0.207069 0.205427 0.203270 0.201907 0.201587 0.201563 0.201539 0.201212 0.199650 0.197175 0.194527 0.191879 0.189231 0.186662 0.185041 0.184698 0.184672 0.184647 0.184305 0.182833 0.180502 0.178492 0.176482 0.174473 0.172746 0.171656 0.171429 0.171412 0.171396 0.171170 0.170198 0.168657 0.167286 0.165915 0.164544 0.163303 0.162520 0.162352 0.162340 0.162328 0.162163 0.161431 0.160271 0.159180 0.158090 0.157000 0.155960 0.155304 0.155162 0.155151 0.155141 0.154999 0.154364 0.153358 0.152396 0.151434 0.150472 0.149562 0.148987 0.148863 0.148854 0.148844 0.148721 0.148177 0.147315 0.146504 0.145693 0.144882 0.144113 0.143628 0.143523 0.143516 
0.153051 0.153055 0.153071 0.153107 0.153154 0.153181 0.153208 0.153236 0.153245 0.153253 0.153254 0.153254 0.153254 0.153254 0.153250 0.153244 0.153222 0.153200 0.153178 0.153140 0.153112 0.153099 0.153096 0.153093 0.153080 0.153042 0.152991 0.152928 0.152865 0.152802 0.152728 0.152672 0.152648 0.152642 0.152637 0.152612 0.152547 0.152461 0.152365 0.152268 0.152172 0.152065 0.151985 0.151951 0.151944 0.151936 0.151903 0.151815 0.151698 0.151573 0.151447 0.151321 0.151186 0.151084 0.151042 0.151033 0.151023 0.150981 0.150871 0.150725 0.150621 0.150516 0.150411 0.150371 0.150341 0.150329 0.150326 0.150323 0.150311 0.150280 0.150239 0.150195 0.150151 0.150107 0.150061 0.150026 0.150012 0.150009 0.150006 0.149992 0.149956 0.149909 0.149862 0.149815 0.149768 0.149721 0.149685 0.149671 0.149668 
0.207250 0.207173 0.206644 0.205262 0.203419 0.201677 0.199935 0.198193 0.196565 0.195344 0.194894 0.194827 0.194762 0.194317 0.193185 0.191675 0.190257 0.188839 0.187421 0.186095 0.185100 0.184734 0.184680 0.184627 0.184265 0.183342 0.182111 0.180979 0.179848 0.178716 0.177694 0.176927 0.176648 0.176607 0.176566 0.176290 0.175642 0.174779 0.174325 0.173871 0.173417 0.172967 0.172630 0.172505 0.172487 0.172468 0.172344 0.172027 0.171604 0.171217 0.170830 0.170443 0.170090 0.169825 0.169729 0.169714 
0.214759 0.214688 0.214273 0.213216 0.211808 0.210419 0.209030 0.207641 0.206273 0.205246 0.204864 0.204799 0.204734 0.204357 0.203378 0.202076 0.200837 0.199599 0.198360 0.197188 0.196308 0.195977 0.195920 0.195864 0.195535 0.194697 0.193581 0.192522 0.191462 0.190403 0.189394 0.188636 0.188351 0.188301 0.188253 0.187970 0.187251 0.186294 0.185385 0.184476 0.183567 0.182714 0.182072 0.181833 0.181792 0.181751 0.181515 0.180912 0.180111 0.179501 0.178890 0.178280 0.177933 0.177673 0.177573 0.177556 0.177539 0.177439 0.177179 0.176832 0.176490 0.176148 0.175805 0.175473 0.175223 0.175129 0.175113 0.175097 0.175004 0.174767 0.174452 0.174151 0.173850 0.173549 0.173264 0.173050 0.172970 0.172956 
0.155148 0.155137 0.155109 0.155052 0.154977 0.154901 0.154826 0.154750 0.154674 0.154616 0.154587 0.154575 0.154564 0.154535 0.154474 0.154395 0.154315 0.154235 0.154155 0.154074 0.154012 0.153982 0.153970 0.153958 0.153927 0.153864 0.153782 0.153699 0.153616 0.153533 0.153448 0.153384 0.153352 0.153339 0.153326 0.153294 0.153228 0.153141 0.153052 0.152963 0.152873 0.152783 0.152713 0.152679 0.152665 0.152652 0.152617 0.152546 0.152454 0.152358 0.152263 0.152167 0.152073 0.152001 0.151986 0.151981 0.151975 0.151960 0.151930 0.151891 0.151851 0.151811 0.151771 0.151730 0.151699 0.151684 0.151678 0.151672 0.151656 0.151625 0.151583 0.151541 0.151499 0.151457 0.151413 0.151380 0.151363 0.151357 0.151350 0.151334 0.151300 0.151256 0.151211 0.151167 0.151123 0.151079 0.151045 0.151028 0.151022 0.151015 0.150998 0.150964 0.150920 0.150875 0.150830 0.150786 0.150741 0.150707 0.150691 0.150684 0.150677 0.150661 0.150627 0.150582 0.150538 0.150494 0.150450 0.150408 0.150375 0.150359 0.150352 0.150346 0.150330 0.150297 0.150255 0.150212 0.150169 0.150127 0.150085 0.150053 0.150038 0.150032 0.150026 0.150010 0.149979 0.149938 0.149897 0.149857 0.149816 0.149777 0.149747 0.149732 0.149726 0.149721 0.149706 0.149677 0.149638 0.149600 0.149562 0.149523 0.149486 0.149457 0.149443 0.149438 
