0.253989 0.253994 0.254054 0.254265 0.254598 0.254349 0.254100 0.253851 0.251831 0.250556 0.250133 0.250100 0.250065 0.249609 0.247143 0.243236 0.238381 0.233525 0.228670 0.223918 0.220918 0.220289 0.220240 0.220191 0.219567 0.216892 0.212654 0.208975 0.205295 0.201616 0.198399 0.196368 0.195939 0.195906 0.195873 0.195447 0.193592 0.190653 0.188017 0.185382 0.182746 0.180372 0.178873 0.178554 0.178530 0.178505 0.178190 0.176808 0.174619 0.172621 0.170623 0.168624 0.166785 0.165624 0.165375 0.165355 0.165336 0.165088 0.164002 0.162281 0.160684 0.159086 0.157489 0.156016 0.155087 0.154888 0.154873 0.154857 0.154660 0.153792 0.152418 0.151156 0.149894 0.148632 0.147473 0.146742 0.146586 0.146574 0.146562 0.146407 0.145728 0.144652 0.143664 0.142676 0.141687 0.140779 0.140206 0.140083 0.140073 
0.253976 0.253924 0.253451 0.251860 0.249734 0.246839 0.243944 0.241049 0.237866 0.235483 0.234613 0.234518 0.234423 0.233549 0.231239 0.228153 0.225492 0.222832 0.220171 0.217951 0.216289 0.215740 0.215680 0.215621 0.215079 0.213684 0.211820 0.210279 0.208738 0.207197 0.205906 0.204940 0.204627 0.204593 0.204559 0.204249 0.203443 0.202365 0.201437 0.200508 0.199580 0.198762 0.198149 0.197935 0.197911 0.197889 0.197685 0.197132 0.196393 0.195706 0.195020 0.194333 0.193682 0.193194 0.193021 0.193002 0.192983 0.192808 0.192336 0.191706 0.191089 0.190472 0.189855 0.189234 0.188769 0.188599 0.188580 0.188561 0.188390 0.187915 0.187280 0.186647 0.186015 0.185382 0.184746 0.184270 0.184097 0.184078 0.184059 0.183886 0.183408 0.182769 0.182131 0.181494 0.180856 0.180227 0.179756 0.179589 0.179571 0.179553 0.179385 0.178924 0.178309 0.177709 0.177110 0.176510 0.175930 0.175496 0.175341 0.175324 0.175307 0.175152 0.174729 0.174164 0.173619 0.173075 0.172531 0.172005 0.171611 0.171471 0.171456 0.171440 0.171301 0.170921 0.170413 0.169921 0.169429 0.168937 0.168461 0.168105 0.167979 0.167965 0.167951 0.167825 0.167478 0.167015 0.166565 0.166115 0.165665 0.165227 0.164899 0.164782 0.164769 0.164756 0.164639 0.164318 0.163889 0.163470 0.163050 0.162631 0.162221 0.161914 0.161804 0.161792 0.161780 0.161669 0.161366 0.160960 0.160564 0.160169 0.159773 0.159384 0.159093 0.158987 0.158976 0.158964 0.158859 0.158574 0.158193 0.157817 0.157440 0.157064 0.156695 0.156419 0.156320 0.156309 0.156299 0.156200 0.155929 0.155568 0.155214 0.154860 0.154506 0.154158 0.153898 0.153805 0.153795 0.153785 0.153692 0.153439 0.153101 0.152768 0.152435 0.152103 0.151778 0.151535 0.151449 0.151439 0.151430 0.151343 0.151106 0.150789 0.150478 0.150167 0.149857 0.149552 0.149323 0.149241 0.149232 0.149223 0.149141 0.148916 0.148615 0.148320 0.148025 0.147730 0.147438 0.147220 0.147142 0.147133 0.147125 0.147046 0.146831 0.146542 0.146257 0.145972 0.145687 0.145405 0.145194 0.145118 0.145110 0.145101 0.145026 0.144817 0.144537 0.144261 0.143984 0.143708 0.143434 0.143230 0.143156 0.143148 0.143140 0.143066 0.142864 0.142593 0.142326 0.142059 0.141792 0.141528 0.141331 0.141260 0.141252 0.141244 0.141173 0.140978 0.140718 0.140462 0.140206 0.139950 0.139697 0.139508 0.139440 0.139433 0.139426 0.139358 0.139173 0.138925 0.138681 0.138437 0.138193 0.137954 0.137775 0.137710 0.137703 0.137696 0.137632 0.137456 0.137221 0.136990 0.136760 0.136529 0.136304 0.136135 0.136074 0.136067 0.136061 0.136000 0.135835 0.135613 0.135397 0.135180 0.134964 0.134752 0.134593 0.134536 0.134530 0.134524 0.134467 0.134312 0.134106 0.133902 0.133699 0.133495 0.133297 0.133148 0.133095 0.133089 0.133083 0.133030 0.132885 0.132691 0.132502 0.132313 0.132124 0.131938 0.131799 0.131750 0.131745 0.131739 0.131690 0.131555 0.131375 0.131198 0.131021 0.130844 0.130672 0.130543 0.130496 0.130491 0.130486 0.130440 0.130314 0.130145 0.129980 0.129814 0.129649 0.129488 0.129367 0.129324 0.129319 
0.254037 0.254233 0.256947 0.267403 0.283968 0.299414 0.314860 0.330306 0.329082 0.328309 0.327286 0.327212 0.327083 0.325298 0.315312 0.299492 0.284502 0.269511 0.254521 0.242481 0.234881 0.233466 0.233363 0.233265 0.231905 0.226608 0.218216 0.212750 0.207283 0.201816 0.197832 0.195318 0.194804 0.194767 0.194730 0.194224 0.192015 0.188515 0.184601 0.180687 0.176773 0.171619 0.168365 0.167529 0.167468 0.167406 0.166541 0.162253 0.155459 0.149730 0.144000 0.138270 0.134388 0.131938 0.131501 0.131469 0.131439 0.131018 0.129494 0.127080 0.125706 0.124333 0.122960 0.122148 0.121635 0.121542 0.121535 0.121529 0.121438 0.121078 0.120506 0.120100 0.119693 0.119286 0.118981 0.118788 0.118749 0.118747 0.118744 0.118706 0.118546 0.118294 0.118085 0.117876 0.117666 0.117490 0.117378 0.117355 0.117353 0.117352 0.117329 0.117230 0.117074 0.116939 0.116803 0.116668 0.116551 0.116477 0.116462 0.116461 0.116459 0.116444 0.116379 0.116277 0.116189 0.116102 0.116014 0.115940 0.115894 0.115884 0.115884 0.115883 0.115873 0.115833 0.115769 0.115715 0.115661 0.115607 0.115561 0.115532 0.115526 0.115526 0.115526 0.115520 0.115494 0.115454 0.115420 0.115385 0.115350 0.115320 0.115301 0.115298 0.115297 
0.146574 0.146575 0.146579 0.146587 0.146598 0.146603 0.146607 0.146612 0.146609 0.146607 0.146605 0.146605 0.146604 0.146603 0.146597 0.146590 0.146577 0.146563 0.146549 0.146532 0.146518 0.146511 0.146509 0.146507 0.146499 0.146480 0.146455 0.146424 0.146392 0.146361 0.146323 0.146294 0.146281 0.146278 0.146274 0.146261 0.146226 0.146179 0.146126 0.146074 0.146022 0.145981 0.145951 0.145939 0.145936 0.145933 0.145922 0.145897 0.145864 0.145829 0.145794 0.145759 0.145724 0.145698 0.145687 0.145684 0.145680 0.145669 0.145640 0.145601 0.145563 0.145524 0.145486 0.145444 0.145413 0.145400 0.145396 0.145393 0.145379 0.145348 0.145307 0.145263 0.145218 0.145174 0.145127 0.145091 0.145075 0.145071 0.145066 0.145050 0.145012 0.144961 0.144909 0.144857 0.144804 0.144751 0.144711 0.144693 0.144689 0.144684 0.144667 0.144625 0.144571 0.144515 0.144460 0.144405 0.144349 0.144307 0.144290 0.144285 0.144280 0.144262 0.144220 0.144164 0.144108 0.144052 0.143996 0.143940 0.143897 0.143879 0.143874 
0.178523 0.178497 0.178382 0.178098 0.177720 0.177342 0.176965 0.176587 0.176210 0.175927 0.175813 0.175788 0.175762 0.175648 0.175368 0.174997 0.174621 0.174245 0.173869 0.173499 0.173220 0.173108 0.173083 0.173058 0.172946 0.172669 0.172302 0.171935 0.171568 0.171202 0.170839 0.170565 0.170455 0.170431 0.170406 0.170296 0.170026 0.169668 0.169318 0.168969 0.168619 0.168279 0.168023 0.167921 0.167898 0.167876 0.167775 0.167531 0.167206 0.166901 0.166595 0.166290 0.166029 0.165832 0.165755 0.165738 0.165722 0.165648 0.165471 0.165236 0.165021 0.164806 0.164591 0.164391 0.164241 0.164184 0.164171 0.164159 0.164105 0.163973 0.163798 0.163637 0.163475 0.163313 0.163162 0.163048 0.163005 0.162995 0.162986 0.162945 0.162844 0.162709 0.162583 0.162456 0.162330 0.162210 0.162119 0.162085 0.162077 0.162070 0.162037 0.161956 0.161848 0.161748 0.161648 0.161548 0.161453 0.161381 0.161354 0.161348 0.161342 0.161317 0.161253 0.161168 0.161090 0.161011 0.160932 0.160858 0.160802 0.160782 0.160777 0.160773 0.160753 0.160703 0.160637 0.160575 0.160513 0.160451 0.160391 0.160347 0.160330 0.160326 
0.195893 0.195841 0.195634 0.195138 0.194482 0.193833 0.193185 0.192536 0.191910 0.191436 0.191244 0.191196 0.191148 0.190957 0.190504 0.189904 0.189324 0.188744 0.188164 0.187603 0.187178 0.187004 0.186961 0.186918 0.186746 0.186344 0.185812 0.185290 0.184768 0.184245 0.183736 0.183352 0.183193 0.183153 0.183114 0.182956 0.182581 0.182084 0.181594 0.181104 0.180614 0.180134 0.179772 0.179623 0.179585 0.179548 0.179399 0.179047 0.178580 0.178124 0.177669 0.177213 0.176774 0.176443 0.176307 0.176272 0.176239 0.176103 0.175783 0.175360 0.174956 0.174553 0.174150 0.173763 0.173470 0.173353 0.173324 0.173295 0.173178 0.172904 0.172540 0.172203 0.171865 0.171527 0.171210 0.170971 0.170874 0.170849 0.170825 0.170730 0.170545 0.170300 0.170074 0.169847 0.169620 0.169432 0.169290 0.169232 0.169218 0.169203 0.169146 0.169018 0.168849 0.168707 0.168566 0.168424 0.168303 0.168212 0.168178 0.168170 0.168161 0.168127 0.168046 0.167938 0.167849 0.167761 0.167672 0.167584 0.167518 0.167492 0.167485 0.167480 0.167459 0.167408 0.167339 0.167275 0.167210 0.167146 0.167092 0.167051 0.167033 0.167029 0.167024 0.167007 0.166971 0.166923 0.166880 0.166837 0.166794 0.166760 0.166735 0.166724 0.166722 0.166719 0.166708 0.166681 0.166646 0.166619 0.166591 0.166564 0.166537 0.166516 0.166510 0.166508 0.166507 0.166500 0.166485 0.166464 0.166445 0.166426 0.166407 0.166391 0.166378 0.166373 0.166372 
0.220211 0.220094 0.219701 0.218817 0.217650 0.216541 0.215432 0.214324 0.213261 0.212456 0.212111 0.212009 0.211908 0.211567 0.210806 0.209802 0.208860 0.207917 0.206975 0.206088 0.205415 0.205131 0.205047 0.204964 0.204683 0.204057 0.203232 0.202458 0.201683 0.200909 0.200192 0.199648 0.199416 0.199348 0.199281 0.199053 0.198556 0.197901 0.197303 0.196705 0.196107 0.195551 0.195130 0.194948 0.194894 0.194842 0.194664 0.194297 0.193814 0.193342 0.192871 0.192400 0.191933 0.191579 0.191424 0.191378 0.191332 0.191176 0.190810 0.190328 0.189833 0.189337 0.188842 0.188352 0.187981 0.187819 0.187771 0.187724 0.187562 0.187196 0.186712 0.186234 0.185757 0.185279 0.184806 0.184448 0.184293 0.184247 0.184201 0.184046 0.183698 0.183239 0.182797 0.182356 0.181915 0.181487 0.181162 0.181023 0.180981 0.180941 0.180803 0.180496 0.180091 0.179698 0.179305 0.178913 0.178547 0.178269 0.178150 0.178115 0.178080 0.177962 0.177696 0.177345 0.177021 0.176697 0.176373 0.176074 0.175847 0.175750 0.175722 0.175693 0.175597 0.175391 0.175119 0.174879 0.174640 0.174401 0.174170 0.173995 0.173931 0.173912 0.173894 0.173830 0.173688 0.173499 0.173319 0.173139 0.172959 0.172816 0.172707 0.172660 0.172646 0.172632 0.172585 0.172479 0.172340 0.172225 0.172111 0.171996 0.171887 0.171805 0.171769 0.171758 0.171748 0.171712 0.171643 0.171553 0.171467 0.171380 0.171294 0.171212 0.171151 0.171128 0.171122 0.171115 0.171092 0.171039 0.170968 0.170899 0.170831 0.170762 0.170705 0.170662 0.170643 0.170638 0.170632 0.170613 0.170569 0.170510 0.170461 0.170413 0.170365 0.170317 0.170280 0.170264 0.170259 0.170255 0.170239 0.170210 0.170172 0.170132 0.170092 0.170052 0.170017 0.169991 0.169980 0.169977 0.169974 0.169963 0.169938 0.169905 0.169874 0.169844 0.169813 0.169785 0.169763 0.169753 0.169750 
0.250048 0.249840 0.248148 0.243812 0.238022 0.232848 0.227674 0.222500 0.217840 0.214350 0.213260 0.213126 0.213003 0.212000 0.210180 0.207751 0.205883 0.204015 0.202147 0.200448 0.199175 0.198725 0.198669 0.198614 0.198169 0.196990 0.195417 0.193926 0.192434 0.190943 0.189510 0.188437 0.188041 0.187993 0.187945 0.187552 0.186499 0.185093 0.183783 0.182472 0.181162 0.180014 0.179154 0.178870 0.178835 0.178801 0.178522 0.177841 0.176931 0.176271 0.175611 0.174951 0.174514 0.174186 0.174098 0.174088 0.174077 0.173989 0.173774 0.173486 0.173279 0.173072 0.172865 0.172718 0.172608 0.172570 0.172565 0.172562 0.172531 0.172447 0.172334 0.172247 0.172161 0.172075 0.172006 0.171955 0.171937 0.171934 
0.234482 0.234340 0.233673 0.232048 0.229891 0.227856 0.225820 0.223785 0.221874 0.220434 0.219874 0.219754 0.219636 0.219082 0.217760 0.216004 0.214426 0.212847 0.211269 0.209875 0.208825 0.208424 0.208338 0.208255 0.207862 0.206946 0.205729 0.204646 0.203562 0.202478 0.201505 0.200771 0.200489 0.200429 0.200370 0.200094 0.199439 0.198571 0.197881 0.197190 0.196499 0.195838 0.195340 0.195144 0.195102 0.195060 0.194865 0.194384 0.193745 0.193119 0.192494 0.191869 0.191245 0.190775 0.190586 0.190546 0.190506 0.190318 0.189830 0.189182 0.188516 0.187849 0.187183 0.186524 0.186028 0.185831 0.185789 0.185747 0.185550 0.185065 0.184422 0.183808 0.183193 0.182579 0.182001 0.181565 0.181396 0.181360 0.181324 0.181156 0.180746 0.180202 0.179703 0.179204 0.178705 0.178252 0.177911 0.177781 0.177753 0.177725 0.177596 0.177290 0.176884 0.176541 0.176198 0.175855 0.175580 0.175374 0.175294 0.175277 0.175260 0.175180 0.174999 0.174758 0.174560 0.174361 0.174163 0.174010 0.173896 0.173849 0.173839 0.173829 0.173783 0.173680 0.173543 0.173425 0.173307 0.173189 0.173092 0.173019 0.172989 0.172983 0.172976 0.172946 0.172879 0.172791 0.172714 0.172636 0.172559 0.172494 0.172445 0.172424 0.172420 0.172416 0.172395 0.172353 0.172296 0.172244 0.172193 0.172141 0.172097 0.172064 0.172050 0.172047 0.172044 0.172031 0.172004 0.171968 0.171934 0.171899 0.171865 0.171834 0.171810 0.171800 0.171798 
0.215652 0.215540 0.215133 0.214211 0.212992 0.211853 0.210713 0.209573 0.208512 0.207709 0.207376 0.207284 0.207195 0.206870 0.206134 0.205162 0.204253 0.203344 0.202435 0.201590 0.200951 0.200687 0.200614 0.200542 0.200280 0.199689 0.198910 0.198192 0.197475 0.196757 0.196089 0.195583 0.195376 0.195319 0.195263 0.195059 0.194603 0.194002 0.193440 0.192878 0.192317 0.191798 0.191405 0.191246 0.191202 0.191159 0.191002 0.190643 0.190169 0.189693 0.189218 0.188742 0.188264 0.187903 0.187750 0.187708 0.187666 0.187513 0.187161 0.186696 0.186237 0.185778 0.185319 0.184862 0.184517 0.184369 0.184328 0.184289 0.184144 0.183817 0.183384 0.182959 0.182533 0.182107 0.181709 0.181408 0.181281 0.181246 0.181211 0.181085 0.180793 0.180408 0.180051 0.179694 0.179337 0.178983 0.178715 0.178603 0.178572 0.178542 0.178435 0.178198 0.177885 0.177587 0.177288 0.176990 0.176735 0.176542 0.176461 0.176439 0.176417 0.176337 0.176154 0.175912 0.175707 0.175503 0.175298 0.175107 0.174962 0.174901 0.174884 0.174869 0.174812 0.174697 0.174545 0.174398 0.174250 0.174102 0.173987 0.173899 0.173862 0.173852 0.173842 0.173805 0.173719 0.173605 0.173514 0.173422 0.173331 0.173241 0.173174 0.173144 0.173136 0.173129 0.173101 0.173049 0.172980 0.172911 0.172842 0.172773 0.172721 0.172681 0.172664 0.172659 0.172654 0.172637 0.172596 0.172542 0.172499 0.172456 0.172413 0.172371 0.172340 0.172326 0.172322 0.172318 0.172305 0.172282 0.172251 0.172220 0.172189 0.172158 0.172136 0.172120 0.172113 0.172111 0.172109 0.172102 0.172085 0.172063 0.172047 0.172030 0.172014 0.171999 0.171988 0.171982 0.171981 
0.204572 0.204492 0.204107 0.203176 0.201939 0.200793 0.199648 0.198503 0.197450 0.196657 0.196354 0.196291 0.196228 0.195929 0.195204 0.194242 0.193361 0.192481 0.191600 0.190791 0.190183 0.189947 0.189898 0.189850 0.189619 0.189058 0.188314 0.187623 0.186932 0.186241 0.185590 0.185099 0.184909 0.184869 0.184829 0.184639 0.184170 0.183547 0.182960 0.182372 0.181785 0.181235 0.180820 0.180658 0.180624 0.180591 0.180429 0.180037 0.179516 0.179033 0.178550 0.178068 0.177634 0.177307 0.177179 0.177152 0.177125 0.176998 0.176705 0.176315 0.175959 0.175603 0.175246 0.174946 0.174719 0.174632 0.174614 0.174596 0.174509 0.174329 0.174090 0.173885 0.173680 0.173475 0.173305 0.173176 0.173126 0.173115 0.173107 0.173068 0.172972 0.172846 0.172740 0.172634 0.172528 0.172436 0.172366 0.172346 0.172342 0.172338 0.172319 0.172266 0.172196 0.172142 0.172087 0.172032 0.171989 0.171956 0.171948 0.171946 0.171944 0.171935 0.171910 0.171878 0.171858 0.171838 0.171818 0.171806 0.171796 0.171794 0.171794 0.171793 0.171791 0.171786 0.171779 0.171781 0.171784 0.171786 0.171795 0.171802 0.171804 0.171805 
0.184069 0.184033 0.183918 0.183665 0.183331 0.183006 0.182680 0.182355 0.182038 0.181797 0.181690 0.181657 0.181624 0.181518 0.181284 0.180976 0.180677 0.180377 0.180077 0.179786 0.179565 0.179468 0.179437 0.179407 0.179310 0.179096 0.178813 0.178541 0.178268 0.177996 0.177737 0.177541 0.177455 0.177428 0.177402 0.177316 0.177126 0.176876 0.176631 0.176386 0.176140 0.175903 0.175724 0.175645 0.175620 0.175595 0.175517 0.175344 0.175117 0.174892 0.174667 0.174442 0.174221 0.174053 0.173979 0.173956 0.173932 0.173858 0.173693 0.173475 0.173266 0.173056 0.172847 0.172641 0.172484 0.172414 0.172392 0.172371 0.172301 0.172150 0.171952 0.171756 0.171561 0.171365 0.171175 0.171031 0.170969 0.170949 0.170930 0.170868 0.170731 0.170550 0.170373 0.170197 0.170021 0.169858 0.169734 0.169679 0.169661 0.169644 0.169589 0.169466 0.169305 0.169160 0.169015 0.168870 0.168737 0.168635 0.168590 0.168576 0.168563 0.168518 0.168431 0.168316 0.168212 0.168108 0.168004 0.167908 0.167836 0.167809 0.167801 0.167793 0.167767 0.167710 0.167635 0.167566 0.167496 0.167426 0.167376 0.167338 0.167321 0.167315 0.167310 0.167293 0.167254 0.167204 0.167165 0.167126 0.167087 0.167055 0.167030 0.167020 0.167016 0.167013 0.167002 0.166984 0.166959 0.166941 0.166923 0.166905 0.166885 0.166870 0.166867 0.166866 0.166865 0.166863 0.166856 0.166847 0.166838 0.166828 0.166819 0.166820 0.166821 0.166821 0.166821 0.166821 0.166821 0.166820 0.166820 0.166823 0.166826 0.166829 0.166835 0.166840 0.166841 0.166842 0.166843 0.166844 0.166849 0.166855 0.166866 0.166877 0.166887 0.166897 0.166904 0.166907 0.166908 0.166910 0.166915 0.166927 0.166942 0.166956 0.166970 0.166984 0.167002 0.167015 0.167022 0.167023 0.167025 0.167032 0.167045 0.167062 0.167081 0.167100 0.167119 0.167139 0.167154 0.167161 0.167163 0.167165 0.167171 0.167186 0.167205 0.167227 0.167248 0.167270 0.167290 0.167306 0.167312 0.167315 
0.171449 0.171425 0.171332 0.171114 0.170826 0.170543 0.170260 0.169978 0.169697 0.169484 0.169396 0.169372 0.169349 0.169262 0.169060 0.168794 0.168538 0.168283 0.168027 0.167779 0.167591 0.167513 0.167492 0.167472 0.167394 0.167212 0.166972 0.166740 0.166507 0.166274 0.166049 0.165878 0.165807 0.165788 0.165770 0.165699 0.165535 0.165319 0.165109 0.164898 0.164688 0.164486 0.164334 0.164270 0.164253 0.164236 0.164172 0.164021 0.163822 0.163628 0.163434 0.163240 0.163046 0.162900 0.162840 0.162824 0.162808 0.162749 0.162609 0.162425 0.162245 0.162065 0.161884 0.161713 0.161584 0.161530 0.161515 0.161501 0.161447 0.161323 0.161160 0.161015 0.160870 0.160724 0.160597 0.160501 0.160464 0.160454 0.160444 0.160407 0.160322 0.160209 0.160114 0.160018 0.159923 0.159838 0.159774 0.159747 0.159740 0.159733 0.159706 0.159659 0.159595 0.159535 0.159475 0.159414 0.159371 0.159337 0.159324 0.159320 0.159316 0.159302 0.159270 0.159226 0.159198 0.159170 0.159142 0.159116 0.159095 0.159090 0.159089 0.159088 0.159082 0.159070 0.159053 0.159039 0.159025 0.159011 0.159002 0.158996 0.158993 0.158992 0.158991 0.158988 0.158986 0.158982 0.158981 0.158980 0.158979 0.158983 0.158986 0.158987 0.158988 0.158988 0.158990 0.158993 0.158997 0.159006 0.159015 0.159023 0.159032 0.159038 0.159041 0.159042 0.159043 0.159047 0.159057 0.159070 0.159082 0.159094 0.159107 0.159122 0.159134 0.159139 0.159140 
0.151438 0.151431 0.151395 0.151300 0.151174 0.151045 0.150916 0.150787 0.150654 0.150555 0.150517 0.150511 0.150504 0.150466 0.150370 0.150242 0.150115 0.149988 0.149861 0.149732 0.149636 0.149599 0.149592 0.149585 0.149548 0.149454 0.149329 0.149205 0.149080 0.148956 0.148832 0.148739 0.148702 0.148696 0.148689 0.148653 0.148562 0.148439 0.148321 0.148202 0.148083 0.147975 0.147894 0.147868 0.147864 0.147859 0.147834 0.147778 0.147704 0.147647 0.147591 0.147534 0.147492 0.147461 0.147452 0.147451 0.147449 0.147440 0.147417 0.147387 0.147368 0.147349 0.147330 0.147320 0.147313 0.147310 0.147309 0.147309 0.147305 0.147302 0.147298 0.147297 0.147297 0.147296 0.147300 0.147303 0.147305 0.147305 0.147305 0.147307 0.147313 0.147320 0.147331 0.147341 0.147352 0.147364 0.147374 0.147378 0.147379 
