0.131246 0.131252 0.131312 0.131567 0.131966 0.132376 0.132785 0.133195 0.133612 0.133879 0.133943 0.133949 0.133955 0.134020 0.134296 0.134727 0.135181 0.135635 0.136089 0.136559 0.136860 0.136931 0.136938 0.136945 0.137016 0.137310 0.137770 0.138203 0.138637 0.139070 0.139494 0.139766 0.139830 0.139836 0.139842 0.139907 0.140182 0.140612 0.141051 0.141491 0.141930 0.142380 0.142669 0.142738 0.142745 0.142751 0.142820 0.143117 0.143580 0.144071 0.144562 0.145053 0.145587 0.145929 0.146013 0.146021 0.146029 0.146114 0.146490 0.147079 0.147735 0.148392 0.149049 0.149774 0.150239 0.150353 0.150363 0.150374 0.150489 0.150981 0.151748 0.152557 0.153366 0.154175 0.154994 0.155519 0.155641 0.155652 0.155664 0.155785 0.156279 0.157052 0.157760 0.158469 0.159178 0.159849 0.160279 0.160379 0.160388 0.160398 0.160497 0.160916 0.161571 0.162210 0.162849 0.163488 0.164104 0.164498 0.164592 0.164601 0.164610 0.164702 0.165100 0.165722 0.166440 0.167159 0.167877 0.168742 0.169297 0.169439 0.169453 0.169466 0.169610 0.170281 0.171328 0.172604 0.173881 0.175157 0.176636 0.177583 0.177817 0.177839 0.177862 0.178098 0.179147 0.180784 0.182572 0.184360 0.186148 0.187874 0.188979 0.189212 0.189234 0.189256 0.189484 0.190343 0.191683 0.192798 0.193912 0.195027 0.195992 0.196611 0.196745 0.196757 0.196770 0.196903 0.197397 0.198167 0.198458 0.198749 0.199039 0.198838 0.198710 0.198666 0.198662 0.198658 0.198618 0.198442 0.198168 0.197906 0.197644 0.197382 0.197075 0.196878 0.196830 0.196825 0.196820 0.196769 0.196506 0.196095 0.195679 0.195262 0.194845 0.194578 0.194407 0.194368 0.194365 0.194361 0.194328 0.194264 0.194165 0.193891 0.193616 0.193342 0.192588 0.192104 0.191972 0.191960 0.191947 0.191812 0.191177 0.190186 0.189063 0.187940 0.186818 0.185601 0.184821 0.184631 0.184613 0.184595 0.184404 0.183561 0.182245 0.180718 0.179191 0.177664 0.175965 0.174877 0.174624 0.174600 0.174577 0.174326 0.173322 0.171755 0.170417 0.169078 0.167740 0.166496 0.165699 0.165509 0.165491 0.165473 0.165282 0.164448 0.163147 0.161818 0.160489 0.159159 0.157919 0.157125 0.156948 0.156931 0.156915 0.156739 0.156040 0.154948 0.154032 0.153115 0.152199 0.151377 0.150851 0.150728 0.150716 0.150705 0.150583 0.150056 0.149234 0.148426 0.147618 0.146810 0.146017 0.145508 0.145390 0.145379 0.145367 0.145249 0.144757 0.143989 0.143257 0.142525 0.141793 0.141101 0.140658 0.140555 0.140546 
0.174600 0.174598 0.174585 0.174542 0.174484 0.174366 0.174248 0.174129 0.173947 0.173811 0.173746 0.173737 0.173727 0.173662 0.173480 0.173238 0.172943 0.172647 0.172352 0.172026 0.171781 0.171683 0.171668 0.171653 0.171556 0.171289 0.170934 0.170560 0.170185 0.169811 0.169409 0.169107 0.168989 0.168971 0.168953 0.168835 0.168509 0.168074 0.167610 0.167145 0.166681 0.166196 0.165832 0.165694 0.165674 0.165653 0.165516 0.165145 0.164649 0.164148 0.163646 0.163145 0.162626 0.162238 0.162090 0.162068 0.162045 0.161897 0.161491 0.160950 0.160586 0.160223 0.159859 0.159548 0.159314 0.159224 0.159211 
0.191956 0.191944 0.191883 0.191728 0.191522 0.191283 0.191044 0.190805 0.190530 0.190323 0.190229 0.190209 0.190188 0.190093 0.189848 0.189524 0.189158 0.188793 0.188427 0.188032 0.187734 0.187608 0.187581 0.187555 0.187429 0.187114 0.186696 0.186254 0.185813 0.185372 0.184923 0.184584 0.184447 0.184418 0.184390 0.184254 0.183919 0.183474 0.183024 0.182575 0.182125 0.181672 0.181330 0.181194 0.181165 0.181136 0.181001 0.180661 0.180209 0.179750 0.179290 0.178830 0.178353 0.177993 0.177850 0.177819 0.177789 0.177646 0.177282 0.176798 0.176313 0.175829 0.175344 0.174859 0.174494 0.174351 0.174321 0.174291 0.174148 0.173786 0.173305 0.172835 0.172365 0.171895 0.171434 0.171087 0.170950 0.170921 0.170892 0.170753 0.170405 0.169942 0.169478 0.169014 0.168551 0.168086 0.167737 0.167595 0.167565 0.167546 0.167459 0.167269 0.167016 0.166749 0.166482 0.166215 0.165935 0.165723 0.165637 0.165619 0.165601 0.165515 0.165305 0.165027 0.164749 0.164470 0.164192 0.163913 0.163703 0.163619 0.163601 
0.198660 0.198653 0.198618 0.198504 0.198352 0.198105 0.197857 0.197610 0.197300 0.197066 0.196966 0.196944 0.196919 0.196807 0.196519 0.196136 0.195713 0.195289 0.194866 0.194421 0.194085 0.193945 0.193914 0.193881 0.193734 0.193368 0.192884 0.192394 0.191904 0.191415 0.190930 0.190565 0.190419 0.190387 0.190353 0.190201 0.189831 0.189341 0.188859 0.188378 0.187896 0.187431 0.187080 0.186940 0.186909 0.186877 0.186729 0.186369 0.185891 0.185407 0.184923 0.184440 0.183950 0.183581 0.183431 0.183397 0.183363 0.183208 0.182827 0.182321 0.181815 0.181310 0.180804 0.180301 0.179922 0.179770 0.179736 0.179701 0.179546 0.179170 0.178671 0.178181 0.177690 0.177200 0.176729 0.176373 0.176233 0.176202 0.176170 0.176029 0.175688 0.175235 0.174789 0.174343 0.173897 0.173528 0.173250 0.173160 0.173140 0.173120 0.173027 0.172797 0.172491 0.172200 0.171909 0.171618 0.171331 0.171114 0.171027 0.171007 0.170988 0.170899 0.170681 0.170393 0.170107 0.169821 0.169536 0.169254 0.169042 0.168957 0.168938 0.168919 0.168834 0.168628 0.168356 0.168086 0.167816 0.167546 0.167281 0.167081 0.167001 0.166984 
0.160388 0.160388 0.160388 0.160384 0.160380 0.160367 0.160354 0.160341 0.160317 0.160299 0.160291 0.160289 0.160286 0.160275 0.160245 0.160206 0.160154 0.160102 0.160051 0.159988 0.159940 0.159920 0.159915 0.159910 0.159888 0.159829 0.159752 0.159664 0.159576 0.159488 0.159391 0.159317 0.159286 0.159279 0.159271 0.159238 0.159156 0.159045 0.158927 0.158808 0.158689 0.158563 0.158468 0.158428 0.158419 0.158410 0.158369 0.158266 0.158128 0.157983 0.157838 0.157693 0.157539 0.157423 0.157374 0.157363 0.157352 0.157302 0.157175 0.157008 0.156829 0.156650 0.156471 0.156277 0.156131 0.156068 0.156055 0.156041 0.155977 0.155816 0.155602 0.155508 0.155414 0.155320 0.155247 0.155192 0.155168 0.155163 0.155158 0.155134 0.155073 0.154993 0.154908 0.154822 0.154736 0.154647 0.154579 0.154550 0.154544 0.154538 0.154509 0.154437 0.154341 0.154242 0.154143 0.154044 0.153942 0.153865 0.153834 0.153827 0.153820 0.153788 0.153708 0.153603 0.153496 0.153389 0.153282 0.153174 0.153092 0.153059 0.153051 0.153044 0.153010 0.152928 0.152819 0.152708 0.152598 0.152487 0.152377 0.152293 0.152260 0.152252 
0.139837 0.139839 0.139859 0.139905 0.139965 0.139997 0.140028 0.140059 0.140064 0.140067 0.140065 0.140065 0.140064 0.140062 0.140047 0.140028 0.139990 0.139951 0.139912 0.139854 0.139810 0.139792 0.139790 0.139788 0.139769 0.139712 0.139636 0.139536 0.139437 0.139337 0.139210 0.139115 0.139096 0.139094 0.139093 0.139086 0.139063 0.139032 0.138992 0.138952 0.138913 0.138864 0.138827 0.138813 0.138811 
