0.175717 0.175698 0.175463 0.174445 0.172832 0.171363 0.169894 0.168426 0.166992 0.166087 0.165887 0.165871 0.165854 0.165655 0.164752 0.163322 0.161947 0.160572 0.159196 0.158027 0.157288 0.157135 0.157122 0.157110 0.156959 0.156324 0.155317 0.154402 0.153486 0.152571 0.151711 0.151168 0.151051 0.151041 0.151031 0.150913 0.150392 0.149566 0.148782 0.147997 0.147213 0.146469 0.146000 0.145897 0.145889 0.145881 0.145779 0.145331 0.144621 0.143954 0.143286 0.142619 0.141988 0.141589 0.141503 0.141496 0.141489 0.141403 0.141025 0.140426 0.139859 0.139293 0.138727 0.138189 0.137850 0.137776 0.137770 0.137764 0.137690 0.137364 0.136847 0.136354 0.135860 0.135366 0.134894 0.134596 0.134532 0.134526 0.134521 0.134456 0.134169 0.133713 0.133277 0.132840 0.132404 0.131983 0.131718 0.131660 0.131655 0.131650 0.131593 0.131335 0.130928 0.130536 0.130144 0.129751 0.129374 0.129136 0.129084 0.129080 0.129075 0.129024 0.128794 0.128430 0.128082 0.127734 0.127386 0.127054 0.126844 0.126799 0.126795 
0.175729 0.175760 0.176016 0.176682 0.177573 0.178309 0.179045 0.179782 0.180400 0.180862 0.181014 0.181032 0.181050 0.181198 0.181586 0.182104 0.182561 0.183018 0.183475 0.183886 0.184194 0.184302 0.184315 0.184328 0.184435 0.184719 0.185099 0.185459 0.185818 0.186178 0.186517 0.186771 0.186867 0.186879 0.186890 0.186989 0.187272 0.187649 0.188029 0.188408 0.188788 0.189180 0.189474 0.189584 0.189597 0.189609 0.189717 0.190011 0.190404 0.190797 0.191190 0.191583 0.191966 0.192253 0.192356 0.192368 0.192380 0.192481 0.192754 0.193119 0.193474 0.193829 0.194185 0.194523 0.194777 0.194865 0.194876 0.194886 0.194973 0.195219 0.195547 0.195858 0.196170 0.196481 0.196776 0.196996 0.197077 0.197087 0.197096 0.197177 0.197378 0.197647 0.197887 0.198128 0.198369 0.198574 0.198728 0.198778 0.198784 0.198790 0.198839 0.198963 0.199128 0.199233 0.199338 0.199443 0.199501 0.199544 0.199552 0.199553 0.199554 0.199561 0.199561 0.199560 0.199502 0.199443 0.199384 0.199267 0.199180 0.199141 0.199137 0.199132 0.199091 0.198957 0.198779 0.198540 0.198301 0.198062 0.197789 0.197584 0.197505 0.197495 0.197485 0.197404 0.197181 0.196883 0.196534 0.196185 0.195835 0.195452 0.195165 0.195056 0.195043 0.195030 0.194921 0.194625 0.194230 0.193794 0.193358 0.192922 0.192463 0.192119 0.191992 0.191977 0.191962 0.191836 0.191489 0.191026 0.190545 0.190063 0.189582 0.189096 0.188733 0.188597 0.188581 
0.175719 0.175707 0.175547 0.174279 0.172270 0.171715 0.171160 0.170606 0.171213 0.171597 0.171662 0.171666 0.171671 0.171735 0.171945 0.172279 0.171998 0.171716 0.171435 0.170982 0.170696 0.170599 0.170592 0.170585 0.170487 0.169892 0.168949 0.167911 0.166874 0.165836 0.165004 0.164479 0.164377 0.164370 0.164361 0.164253 0.163797 0.163075 0.162254 0.161433 0.160611 0.159388 0.158616 0.158408 0.158392 0.158375 0.158159 0.156907 0.154923 0.150589 0.146255 0.141921 0.137878 0.135326 0.134764 0.134720 0.134678 0.134119 0.131876 0.128322 0.126706 0.125090 0.123474 0.122556 0.121977 0.121864 0.121855 0.121847 0.121737 0.121298 0.120602 0.120067 0.119532 0.118997 0.118583 0.118322 0.118270 0.118266 0.118262 0.118211 0.118001 0.117668 0.117407 0.117147 0.116886 0.116679 0.116549 0.116522 0.116520 0.116518 0.116492 0.116381 0.116204 0.116054 0.115903 0.115752 0.115622 0.115540 0.115523 0.115522 0.115521 0.115504 0.115431 0.115315 0.115216 0.115117 0.115017 0.114933 0.114880 0.114870 0.114869 0.114868 0.114857 0.114810 0.114736 0.114673 0.114611 0.114548 0.114495 0.114462 0.114454 0.114454 0.114453 0.114446 0.114416 0.114368 0.114326 0.114284 0.114242 0.114206 0.114184 0.114179 0.114178 0.114178 0.114173 0.114152 0.114119 0.114090 0.114060 0.114031 0.114006 0.113990 0.113986 0.113986 0.113986 0.113982 0.113968 0.113946 0.113927 0.113909 0.113890 0.113875 0.113865 0.113863 0.113863 
0.131655 0.131653 0.131640 0.131605 0.131559 0.131503 0.131447 0.131390 0.131323 0.131273 0.131253 0.131250 0.131246 0.131226 0.131168 0.131090 0.131017 0.130944 0.130871 0.130819 0.130780 0.130765 0.130763 0.130761 0.130746 0.130707 0.130656 0.130604 0.130552 0.130500 0.130447 0.130407 0.130392 0.130389 0.130387 0.130371 0.130331 0.130277 0.130222 0.130168 0.130113 0.130059 0.130018 0.130003 0.130000 0.129998 0.129982 0.129942 0.129889 0.129835 0.129782 0.129729 0.129676 0.129636 0.129621 0.129618 0.129616 0.129601 0.129561 0.129508 0.129454 0.129400 0.129346 0.129292 0.129251 0.129235 0.129233 
0.141494 0.141487 0.141439 0.141312 0.141144 0.140968 0.140793 0.140618 0.140438 0.140303 0.140252 0.140244 0.140235 0.140183 0.140043 0.139856 0.139663 0.139470 0.139278 0.139080 0.138933 0.138876 0.138867 0.138860 0.138816 0.138703 0.138553 0.138417 0.138280 0.138144 0.138021 0.137928 0.137894 0.137888 0.137883 0.137850 0.137765 0.137651 0.137547 0.137442 0.137338 0.137243 0.137172 0.137145 0.137141 0.137137 0.137112 0.137046 0.136959 0.136878 0.136798 0.136717 0.136644 0.136589 0.136568 0.136564 0.136561 0.136542 0.136490 0.136422 0.136358 0.136294 0.136230 0.136170 0.136124 0.136107 0.136104 0.136102 0.136085 0.136042 0.135984 0.135927 0.135871 0.135815 0.135760 0.135719 0.135703 0.135700 
0.145887 0.145878 0.145846 0.145773 0.145678 0.145582 0.145486 0.145390 0.145291 0.145216 0.145184 0.145175 0.145166 0.145134 0.145060 0.144962 0.144863 0.144764 0.144666 0.144568 0.144494 0.144462 0.144453 0.144443 0.144411 0.144335 0.144236 0.144135 0.144035 0.143934 0.143830 0.143751 0.143717 0.143708 0.143698 0.143664 0.143584 0.143480 0.143373 0.143266 0.143159 0.143052 0.142970 0.142940 0.142932 0.142924 0.142896 0.142833 0.142750 0.142669 0.142588 0.142507 0.142431 0.142373 0.142348 0.142341 0.142334 0.142310 0.142254 0.142180 0.142112 0.142044 0.141977 0.141911 0.141861 0.141839 0.141833 0.141827 0.141807 0.141760 0.141699 0.141639 0.141578 0.141518 0.141462 0.141419 0.141401 0.141396 0.141391 0.141372 0.141330 0.141275 0.141223 0.141172 0.141121 0.141070 0.141031 0.141015 0.141010 0.141005 0.140990 0.140954 0.140907 0.140860 0.140814 0.140767 0.140724 0.140691 0.140677 0.140673 0.140669 0.140655 0.140622 0.140579 0.140538 0.140498 0.140458 0.140417 0.140387 0.140374 0.140370 0.140366 0.140354 0.140326 0.140289 0.140251 0.140214 0.140177 0.140142 0.140115 0.140103 0.140100 0.140097 0.140085 0.140058 0.140022 0.139988 0.139955 0.139921 0.139887 0.139861 0.139849 0.139846 0.139843 0.139833 0.139808 0.139776 0.139743 0.139709 0.139676 0.139644 0.139620 0.139609 0.139606 0.139603 0.139593 0.139568 0.139535 0.139502 0.139470 0.139438 0.139405 0.139380 0.139369 0.139366 
0.151039 0.151029 0.150977 0.150843 0.150664 0.150486 0.150307 0.150129 0.149950 0.149816 0.149764 0.149754 0.149744 0.149692 0.149557 0.149377 0.149191 0.149005 0.148819 0.148627 0.148481 0.148425 0.148414 0.148404 0.148345 0.148192 0.147988 0.147776 0.147564 0.147352 0.147175 0.147043 0.146993 0.146984 0.146975 0.146926 0.146805 0.146644 0.146497 0.146349 0.146202 0.146067 0.145965 0.145927 0.145919 0.145913 0.145876 0.145783 0.145660 0.145546 0.145432 0.145317 0.145212 0.145132 0.145103 0.145097 0.145092 0.145062 0.144988 0.144889 0.144796 0.144703 0.144610 0.144522 0.144456 0.144431 0.144426 0.144421 0.144397 0.144336 0.144255 0.144177 0.144098 0.144020 0.143945 0.143889 0.143867 0.143863 0.143859 0.143838 0.143783 0.143710 0.143639 0.143569 0.143498 0.143429 0.143377 0.143356 0.143352 
0.157120 0.157110 0.157051 0.156895 0.156688 0.156477 0.156265 0.156053 0.155931 0.155839 0.155802 0.155796 0.155790 0.155753 0.155648 0.155508 0.155353 0.155198 0.155043 0.154867 0.154735 0.154682 0.154673 0.154664 0.154611 0.154464 0.154268 0.154051 0.153834 0.153617 0.153379 0.153200 0.153130 0.153119 0.153107 0.153037 0.152853 0.152607 0.152369 0.152131 0.151893 0.151673 0.151507 0.151447 0.151437 0.151427 0.151368 0.151220 0.151023 0.150850 0.150676 0.150503 0.150348 0.150232 0.150190 0.150183 0.150177 0.150137 0.150032 0.149893 0.149767 0.149642 0.149516 0.149401 0.149314 0.149281 0.149275 0.149270 0.149237 0.149156 0.149049 0.148945 0.148841 0.148737 0.148639 0.148565 0.148537 0.148532 0.148527 0.148499 0.148427 0.148331 0.148235 0.148139 0.148043 0.147947 0.147875 0.147847 0.147843 
0.165869 0.165865 0.165842 0.165771 0.165677 0.165538 0.165400 0.165261 0.165078 0.164940 0.164878 0.164864 0.164849 0.164782 0.164593 0.164343 0.164032 0.163721 0.163410 0.163160 0.162972 0.162931 0.162922 0.162912 0.162870 0.162761 0.162618 0.162473 0.162328 0.162182 0.162031 0.161918 0.161871 0.161861 0.161850 0.161803 0.161681 0.161519 0.161353 0.161186 0.161020 0.160845 0.160714 0.160660 0.160648 0.160636 0.160581 0.160439 0.160250 0.160058 0.159865 0.159672 0.159471 0.159320 0.159258 0.159244 0.159231 0.159169 0.159006 0.158789 0.158563 0.158337 0.158111 0.157875 0.157698 0.157626 0.157611 0.157595 0.157523 0.157338 0.157093 0.156849 0.156604 0.156360 0.156121 0.155941 0.155870 0.155855 0.155840 0.155770 0.155605 0.155386 0.155183 0.154980 0.154777 0.154592 0.154453 0.154398 0.154386 0.154374 0.154320 0.154201 0.154042 0.153895 0.153748 0.153601 0.153469 0.153370 0.153330 0.153321 0.153312 0.153272 0.153182 0.153064 0.152952 0.152839 0.152727 0.152624 0.152547 0.152515 0.152508 0.152501 0.152469 0.152396 0.152299 0.152206 0.152112 0.152019 0.151931 0.151864 0.151837 0.151831 0.151825 0.151798 0.151734 0.151649 0.151565 0.151481 0.151397 0.151316 0.151255 0.151230 0.151225 0.151219 0.151194 0.151133 0.151053 0.150972 0.150892 0.150811 0.150731 0.150670 0.150645 0.150640 
0.181028 0.181011 0.180908 0.180624 0.180246 0.179812 0.179378 0.178944 0.178449 0.178078 0.177929 0.177904 0.177879 0.177728 0.177308 0.176750 0.176123 0.175495 0.174868 0.174129 0.173573 0.173350 0.173312 0.173275 0.173052 0.172458 0.171667 0.171255 0.170842 0.170429 0.170035 0.169739 0.169625 0.169606 0.169587 0.169473 0.169176 0.168781 0.168382 0.167984 0.167586 0.167180 0.166875 0.166759 0.166739 0.166720 0.166604 0.166292 0.165877 0.165449 0.165021 0.164593 0.164147 0.163812 0.163682 0.163660 0.163639 0.163509 0.163166 0.162710 0.162241 0.161772 0.161303 0.160824 0.160465 0.160336 0.160315 0.160293 0.160165 0.159840 0.159407 0.159039 0.158671 0.158303 0.157995 0.157763 0.157676 0.157662 0.157649 0.157568 0.157382 0.157133 0.156921 0.156708 0.156495 0.156320 0.156189 0.156140 0.156132 0.156124 0.156075 0.155960 0.155807 0.155670 0.155533 0.155396 0.155272 0.155179 0.155146 0.155141 0.155135 0.155102 0.155017 0.154904 0.154801 0.154698 0.154595 0.154497 0.154423 0.154395 0.154390 
0.184308 0.184279 0.184184 0.183966 0.183677 0.183376 0.183075 0.182774 0.182453 0.182210 0.182100 0.182067 0.182033 0.181922 0.181666 0.181329 0.180973 0.180618 0.180262 0.179891 0.179609 0.179483 0.179444 0.179405 0.179278 0.178984 0.178596 0.178184 0.177771 0.177359 0.176937 0.176616 0.176475 0.176432 0.176389 0.176247 0.175939 0.175532 0.175255 0.174978 0.174701 0.174490 0.174330 0.174259 0.174238 0.174216 0.174145 0.173985 0.173774 0.173563 0.173352 0.173140 0.172928 0.172767 0.172696 0.172675 0.172653 0.172582 0.172423 0.172212 0.171996 0.171781 0.171565 0.171350 0.171186 0.171113 0.171091 0.171069 0.170997 0.170829 0.170607 0.170385 0.170162 0.169940 0.169714 0.169542 0.169464 0.169441 0.169417 0.169339 0.169164 0.168932 0.168698 0.168463 0.168229 0.167986 0.167802 0.167721 0.167696 0.167671 0.167590 0.167406 0.167163 0.166916 0.166669 0.166422 0.166174 0.165986 0.165903 0.165878 0.165853 0.165770 0.165583 0.165336 0.165092 0.164848 0.164604 0.164370 0.164193 0.164117 0.164094 0.164071 0.163996 0.163827 0.163605 0.163390 0.163174 0.162958 0.162765 0.162620 0.162556 0.162537 0.162518 0.162455 0.162317 0.162134 0.161975 0.161817 0.161658 0.161511 0.161400 0.161351 0.161336 0.161322 0.161273 0.161174 0.161043 0.160927 0.160811 0.160695 0.160581 0.160495 0.160464 0.160455 0.160446 0.160415 0.160346 0.160255 0.160162 0.160070 0.159978 0.159904 0.159848 0.159823 0.159815 0.159808 0.159783 0.159726 0.159651 0.159584 0.159518 0.159451 0.159390 0.159343 0.159322 0.159316 0.159310 0.159289 0.159244 0.159185 0.159133 0.159080 0.159028 0.158975 0.158935 0.158918 0.158913 0.158908 0.158893 0.158860 0.158815 0.158770 0.158725 0.158680 0.158640 0.158610 0.158597 0.158593 0.158589 0.158576 0.158546 0.158507 0.158469 0.158432 0.158394 0.158359 0.158332 0.158320 0.158317 
0.189585 0.189537 0.189278 0.188615 0.187732 0.186863 0.185994 0.185125 0.184281 0.183645 0.183403 0.183358 0.183314 0.183074 0.182476 0.181680 0.180942 0.180203 0.179464 0.178799 0.178299 0.178119 0.178085 0.178052 0.177875 0.177416 0.176806 0.176216 0.175627 0.175037 0.174442 0.173995 0.173818 0.173785 0.173753 0.173576 0.173123 0.172519 0.171924 0.171328 0.170733 0.170189 0.169780 0.169628 0.169599 0.169571 0.169420 0.169054 0.168567 0.168145 0.167724 0.167302 0.166939 0.166666 0.166563 0.166544 0.166527 0.166432 0.166205 0.165904 0.165642 0.165381 0.165120 0.164891 0.164719 0.164659 0.164648 0.164637 0.164576 0.164423 0.164220 0.164047 0.163874 0.163701 0.163554 0.163444 0.163401 0.163393 0.163385 0.163342 0.163245 0.163115 0.162999 0.162883 0.162768 0.162664 0.162586 0.162561 0.162556 
0.197070 0.197001 0.196746 0.196156 0.195376 0.194631 0.193886 0.193141 0.192422 0.191878 0.191650 0.191588 0.191526 0.191299 0.190774 0.190080 0.189424 0.188768 0.188112 0.187493 0.187024 0.186829 0.186776 0.186724 0.186530 0.186085 0.185497 0.184932 0.184366 0.183801 0.183263 0.182856 0.182687 0.182641 0.182596 0.182428 0.182043 0.181534 0.181049 0.180564 0.180079 0.179615 0.179264 0.179119 0.179079 0.179040 0.178896 0.178561 0.178118 0.177694 0.177269 0.176845 0.176441 0.176136 0.176008 0.175973 0.175938 0.175810 0.175522 0.175141 0.174819 0.174497 0.174174 0.173883 0.173663 0.173575 0.173551 0.173527 0.173439 0.173237 0.172971 0.172729 0.172487 0.172245 0.172020 0.171849 0.171778 0.171758 0.171739 0.171668 0.171516 0.171316 0.171122 0.170928 0.170734 0.170556 0.170421 0.170365 0.170349 0.170334 0.170278 0.170148 0.169975 0.169819 0.169663 0.169508 0.169359 0.169246 0.169198 0.169184 0.169172 0.169124 0.169024 0.168891 0.168757 0.168623 0.168489 0.168372 0.168283 0.168245 0.168235 0.168224 0.168187 0.168099 0.167983 0.167882 0.167782 0.167681 0.167583 0.167508 0.167477 0.167469 
0.195026 0.194956 0.194563 0.193592 0.192300 0.191127 0.189954 0.188780 0.187726 0.186934 0.186644 0.186592 0.186541 0.186255 0.185550 0.184612 0.183770 0.182928 0.182086 0.181329 0.180759 0.180551 0.180514 0.180479 0.180281 0.179785 0.179124 0.178543 0.177962 0.177381 0.177028 0.176763 0.176668 0.176652 0.176635 0.176540 0.176313 0.176009 0.175737 0.175464 0.175192 0.174936 0.174743 0.174675 0.174663 0.174651 0.174586 0.174408 0.174171 0.173943 0.173715 0.173487 0.173283 0.173130 0.173071 0.173060 
