0.283642 0.283626 0.283375 0.280590 0.276177 0.267779 0.259380 0.250981 0.242713 0.237495 0.236448 0.236383 0.236319 0.235285 0.230974 0.224142 0.218822 0.213501 0.208181 0.203907 0.201210 0.200662 0.200628 0.200595 0.200053 0.197711 0.194000 0.190753 0.187506 0.184259 0.181375 0.179554 0.179174 0.179151 0.179127 0.178751 0.177104 0.174495 0.172203 0.169910 0.167618 0.165654 0.164414 0.164159 0.164143 0.164127 0.163874 0.162778 0.161040 0.159531 0.158022 0.156512 0.155195 0.154363 0.154190 0.154179 0.154168 0.153996 0.153235 0.152029 0.150924 0.149820 0.148715 0.147682 0.147030 0.146891 0.146882 0.146873 0.146735 0.146112 0.145127 0.144191 0.143255 0.142318 0.141430 0.140870 0.140750 0.140743 
0.283654 0.283685 0.284011 0.283723 0.283274 0.279499 0.275723 0.271948 0.266613 0.263198 0.262358 0.262279 0.262200 0.261369 0.258045 0.252851 0.247974 0.243097 0.238220 0.234014 0.231323 0.230729 0.230673 0.230617 0.230030 0.227672 0.223989 0.220741 0.217494 0.214247 0.211354 0.209503 0.209085 0.209046 0.209007 0.208594 0.206891 0.204231 0.201797 0.199364 0.196931 0.194684 0.193246 0.192918 0.192887 0.192857 0.192532 0.191187 0.189087 0.187140 0.185194 0.183248 0.181459 0.180314 0.180053 0.180029 0.180005 0.179745 0.178675 0.177002 0.175452 0.173901 0.172351 0.170907 0.169983 0.169771 0.169751 
0.283706 0.283953 0.288163 0.299001 0.316177 0.309456 0.302735 0.296014 0.278443 0.267355 0.265172 0.265044 0.264918 0.262761 0.254114 0.240412 0.229995 0.219579 0.209163 0.201710 0.197007 0.196137 0.196086 0.196036 0.195193 0.191875 0.186617 0.182734 0.178851 0.174967 0.171330 0.169035 0.168518 0.168487 0.168456 0.167932 0.165430 0.161464 0.156503 0.151541 0.146580 0.141258 0.137899 0.137242 0.137203 0.137165 0.136522 0.134048 0.130126 0.127853 0.125581 0.123308 0.122022 0.121211 0.121065 0.121056 0.121048 0.120907 0.120368 0.119513 0.118950 0.118387 0.117823 0.117438 0.117195 0.117148 0.117145 0.117143 0.117097 0.116910 0.116612 0.116382 0.116153 0.115923 0.115738 0.115622 0.115598 0.115597 0.115596 0.115573 0.115474 0.115318 0.115188 0.115059 0.114930 0.114824 0.114757 0.114743 0.114743 0.114742 0.114729 0.114672 0.114582 0.114508 0.114434 0.114360 0.114299 0.114261 0.114253 0.114253 0.114252 0.114245 0.114212 0.114161 0.114119 0.114077 0.114035 0.114002 0.113981 0.113977 0.113977 
0.164138 0.164117 0.164073 0.163993 0.163888 0.163784 0.163680 0.163577 0.163473 0.163394 0.163351 0.163330 0.163310 0.163267 0.163188 0.163086 0.162984 0.162882 0.162779 0.162678 0.162599 0.162557 0.162537 0.162517 0.162475 0.162396 0.162295 0.162194 0.162094 0.161993 0.161891 0.161813 0.161771 0.161751 0.161731 0.161688 0.161611 0.161510 0.161410 0.161309 0.161209 0.161109 0.161032 0.160990 0.160971 0.160951 0.160909 0.160831 0.160731 0.160632 0.160532 0.160432 0.160333 0.160256 0.160215 0.160195 0.160176 0.160134 0.160058 0.159960 0.159861 0.159763 0.159664 0.159566 0.159490 0.159449 0.159430 0.159411 0.159370 0.159295 0.159197 0.159100 0.159003 0.158907 0.158810 0.158735 0.158695 0.158676 0.158657 0.158617 0.158543 0.158447 0.158352 0.158257 0.158162 0.158067 0.157994 0.157954 0.157935 0.157917 0.157877 0.157805 0.157711 0.157617 0.157524 0.157430 0.157337 0.157265 0.157226 0.157208 0.157190 0.157151 0.157079 0.156987 0.156895 0.156804 0.156712 0.156621 0.156551 0.156513 0.156495 0.156478 0.156442 0.156385 0.156312 0.156239 0.156167 0.156095 0.156027 0.155974 0.155946 0.155933 0.155920 0.155891 0.155840 0.155773 0.155708 0.155643 0.155577 0.155513 0.155463 0.155436 0.155423 0.155411 0.155386 0.155340 0.155280 0.155221 0.155161 0.155102 0.155043 0.154998 0.154974 0.154962 0.154951 0.154927 0.154882 0.154825 0.154772 0.154719 0.154666 0.154614 0.154573 0.154552 0.154541 0.154531 0.154509 0.154469 0.154418 0.154366 0.154315 0.154264 0.154218 0.154182 0.154163 0.154154 0.154145 0.154125 0.154090 0.154044 0.153998 0.153952 0.153906 0.153860 0.153825 0.153806 0.153797 0.153789 0.153771 0.153740 0.153699 0.153659 0.153618 0.153578 0.153537 0.153506 0.153489 0.153481 0.153473 0.153456 0.153425 0.153384 0.153348 0.153311 0.153275 0.153239 0.153211 0.153196 0.153189 0.153182 0.153167 0.153140 0.153104 0.153068 0.153032 0.152997 0.152966 0.152942 0.152929 0.152922 0.152916 0.152903 0.152879 0.152848 0.152817 0.152785 0.152754 0.152723 0.152698 0.152685 0.152679 0.152673 0.152662 0.152641 0.152613 0.152586 0.152558 0.152531 0.152503 0.152481 0.152470 0.152465 0.152459 0.152448 0.152426 0.152399 0.152375 0.152351 0.152327 0.152303 0.152285 0.152275 0.152270 0.152266 0.152256 0.152237 0.152214 0.152190 0.152166 0.152142 0.152122 0.152106 0.152098 0.152094 0.152090 0.152081 0.152065 0.152045 0.152024 0.152004 0.151983 0.151963 0.151947 0.151938 0.151934 0.151930 0.151922 0.151909 0.151891 0.151873 0.151856 0.151838 0.151820 0.151806 0.151798 0.151795 0.151791 0.151784 0.151770 0.151752 0.151736 0.151720 0.151704 0.151689 0.151676 0.151670 0.151667 0.151664 0.151657 0.151645 0.151629 0.151613 0.151597 0.151581 0.151567 0.151557 0.151551 0.151548 0.151546 0.151540 0.151529 0.151516 0.151502 0.151488 0.151474 0.151460 0.151449 0.151443 0.151440 0.151438 0.151432 0.151423 0.151411 0.151398 0.151386 0.151374 0.151361 0.151351 0.151346 0.151343 
0.200616 0.200567 0.200318 0.199679 0.198829 0.197966 0.197103 0.196241 0.195380 0.194733 0.194478 0.194428 0.194378 0.194124 0.193480 0.192624 0.191787 0.190950 0.190113 0.189304 0.188696 0.188461 0.188415 0.188370 0.188137 0.187552 0.186775 0.186046 0.185317 0.184589 0.183897 0.183376 0.183178 0.183139 0.183101 0.182904 0.182418 0.181772 0.181154 0.180537 0.179919 0.179325 0.178879 0.178707 0.178674 0.178640 0.178470 0.178044 0.177478 0.176931 0.176384 0.175837 0.175318 0.174928 0.174788 0.174760 0.174733 0.174595 0.174265 0.173825 0.173443 0.173060 0.172678 0.172346 0.172096 0.172001 0.171982 0.171964 0.171868 0.171650 0.171361 0.171101 0.170840 0.170580 0.170341 0.170161 0.170098 0.170085 0.170073 0.170010 0.169848 0.169634 0.169442 0.169250 0.169058 0.168882 0.168750 0.168699 0.168689 0.168679 0.168628 0.168501 0.168332 0.168177 0.168021 0.167866 0.167723 0.167616 0.167573 0.167565 0.167556 0.167514 0.167411 0.167276 0.167143 0.167011 0.166878 0.166749 0.166652 0.166615 0.166607 0.166600 0.166564 0.166471 0.166347 0.166225 0.166102 0.165980 0.165858 0.165766 0.165730 0.165723 
0.236357 0.236253 0.235738 0.234404 0.232631 0.230812 0.228993 0.227174 0.225356 0.223987 0.223445 0.223335 0.223225 0.222685 0.221338 0.219547 0.217818 0.216088 0.214358 0.212721 0.211490 0.211015 0.210919 0.210823 0.210352 0.209213 0.207701 0.206326 0.204951 0.203575 0.202342 0.201413 0.201068 0.200998 0.200930 0.200593 0.199798 0.198741 0.197816 0.196892 0.195967 0.195181 0.194589 0.194365 0.194320 0.194274 0.194049 0.193482 0.192727 0.191981 0.191234 0.190488 0.189750 0.189194 0.188976 0.188932 0.188888 0.188670 0.188125 0.187401 0.186677 0.185954 0.185231 0.184519 0.183983 0.183776 0.183734 0.183692 0.183489 0.183002 0.182355 0.181776 0.181197 0.180617 0.180110 0.179729 0.179596 0.179569 0.179543 0.179415 0.179101 0.178685 0.178332 0.177979 0.177627 0.177325 0.177098 0.177021 0.177005 0.176990 0.176913 0.176719 0.176463 0.176245 0.176028 0.175810 0.175620 0.175477 0.175425 0.175415 0.175404 0.175353 0.175222 0.175049 0.174897 0.174745 0.174593 0.174458 0.174356 0.174316 0.174308 0.174300 0.174259 0.174161 0.174030 0.173909 0.173789 0.173668 0.173557 0.173474 0.173440 0.173433 0.173426 0.173392 0.173309 0.173200 0.173091 0.172983 0.172875 0.172768 0.172687 0.172653 0.172647 
0.262216 0.261967 0.260831 0.258169 0.254637 0.251515 0.248392 0.245270 0.242406 0.240247 0.239407 0.239224 0.239041 0.238204 0.236199 0.233539 0.231082 0.228624 0.226167 0.223935 0.222252 0.221610 0.221469 0.221330 0.220693 0.219168 0.217145 0.215360 0.213575 0.211790 0.210234 0.209062 0.208625 0.208529 0.208434 0.208001 0.206991 0.205652 0.204497 0.203341 0.202186 0.201215 0.200483 0.200223 0.200166 0.200113 0.199869 0.199269 0.198473 0.197699 0.196926 0.196152 0.195386 0.194809 0.194578 0.194528 0.194477 0.194246 0.193658 0.192877 0.192102 0.191327 0.190552 0.189795 0.189224 0.188997 0.188947 0.188898 0.188674 0.188135 0.187420 0.186739 0.186057 0.185376 0.184741 0.184263 0.184076 0.184035 0.183995 0.183812 0.183411 0.182878 0.182405 0.181933 0.181460 0.181064 0.180766 0.180650 0.180625 0.180600 0.180485 0.180257 0.179955 0.179684 0.179413 0.179142 0.178917 0.178748 0.178680 0.178665 0.178650 0.178582 0.178452 0.178278 0.178115 0.177952 0.177788 0.177646 0.177538 0.177495 0.177486 0.177476 0.177433 0.177348 0.177234 0.177125 0.177015 0.176906 0.176809 0.176736 0.176707 0.176700 0.176694 0.176664 0.176605 0.176527 0.176454 0.176381 0.176307 0.176242 0.176193 0.176172 0.176168 
0.192873 0.192815 0.192515 0.191771 0.190781 0.189837 0.188893 0.187950 0.187060 0.186390 0.186137 0.186088 0.186039 0.185788 0.185166 0.184339 0.183560 0.182782 0.182003 0.181275 0.180727 0.180517 0.180477 0.180436 0.180228 0.179721 0.179048 0.178423 0.177798 0.177174 0.176589 0.176150 0.175988 0.175957 0.175926 0.175765 0.175365 0.174833 0.174347 0.173860 0.173374 0.172938 0.172610 0.172487 0.172463 0.172440 0.172318 0.172022 0.171630 0.171339 0.171048 0.170757 0.170568 0.170425 0.170370 0.170359 0.170349 0.170293 0.170186 0.170043 0.169915 0.169788 0.169660 0.169555 0.169476 0.169454 0.169450 0.169446 0.169423 0.169362 0.169281 0.169224 0.169166 0.169108 0.169075 0.169051 0.169041 0.169040 0.169038 0.169028 0.169014 0.168995 0.168995 0.168995 0.168996 0.169012 0.169023 0.169028 0.169028 
