Amplitudes
5.0 10.0 15.0 20.0 25.0 30.0 35.0 40.0 45.0 50.0 55.0 60.0 65.0 70.0 75.0 80.0 85.0 90.0 95.0 100.0 105.0 110.0 115.0 120.0 125.0 130.0 135.0 140.0 145.0 150.0 155.0 160.0 165.0 170.0 175.0 180.0 185.0 190.0 195.0 200.0
Recruitment Curves
p_connec:p0.300/gmax:p0.015
Normalized Mean recruitments
0.0000 0.0000 0.0000 0.0000 0.0000 0.0000 0.9941 0.9941 3.9656 4.9611 7.9575 11.9539 19.9631 23.9783 25.9910 28.9547 34.9443 38.9424 41.9299 47.9402 53.9592 57.9554 60.9516 61.9638 63.9695 66.9797 66.9797 71.0113 75.0107 79.0150 81.9917 87.0043 90.0119 90.0119 93.0246 95.0083 95.0083 95.0083 95.0083 95.0083
Normalized STDS recruitments
0.0000 0.0000 0.0000 0.0000 0.0000 0.0000 0.9874 0.9874 1.9479 2.1617 2.7137 3.2658 3.9974 4.2754 4.3535 4.4986 4.7498 4.8468 4.9102 4.9832 4.9523 4.8977 4.8588 4.8312 4.7804 4.6817 4.6817 4.5131 4.3181 4.0597 3.8429 3.3668 3.0161 3.0161 2.5520 2.1839 2.1839 2.1839 2.1839 2.1839

p_connec:p0.600/gmax:p0.015
Normalized Mean recruitments
0.0000 0.0000 0.9988 2.9821 2.9821 10.9680 24.9959 31.0073 45.9988 51.9881 55.0046 64.9751 69.0055 74.9554 79.9486 82.9420 87.9562 91.9604 93.9842 95.9841 96.9853 96.9853 99.0047 99.0047 99.0047 99.0047 100.0000 100.0000 100.0000 100.0000 100.0000 100.0000 100.0000 100.0000 100.0000 100.0000 100.0000 100.0000 100.0000 100.0000
Normalized STDS recruitments
0.0000 0.0000 0.9871 1.7059 1.7059 3.1214 4.3209 4.5962 4.9646 4.9804 4.9443 4.7422 4.5931 4.3179 4.0039 3.7605 3.2547 2.7141 2.3730 1.9556 1.6936 1.6936 0.9935 0.9935 0.9935 0.9935 0.0000 0.0000 0.0000 0.0000 0.0000 0.0000 0.0000 0.0000 0.0000 0.0000 0.0000 0.0000 0.0000 0.0000

p_connec:p0.900/gmax:p0.015
Normalized Mean recruitments
0.0000 0.0000 0.9924 12.9700 27.0064 44.0455 56.0202 62.9823 67.9539 74.9851 83.9797 87.9642 94.9633 97.9909 100.0000 100.0000 100.0000 100.0000 100.0000 100.0000 100.0000 100.0000 100.0000 100.0000 100.0000 100.0000 100.0000 100.0000 100.0000 100.0000 100.0000 100.0000 100.0000 100.0000 100.0000 100.0000 100.0000 100.0000 100.0000 100.0000
Normalized STDS recruitments
0.0000 0.0000 0.9806 3.3677 4.4666 4.9651 4.9192 4.7765 4.6261 4.3242 3.6512 3.2272 2.1875 1.4095 0.0000 0.0000 0.0000 0.0000 0.0000 0.0000 0.0000 0.0000 0.0000 0.0000 0.0000 0.0000 0.0000 0.0000 0.0000 0.0000 0.0000 0.0000 0.0000 0.0000 0.0000 0.0000 0.0000 0.0000 0.0000 0.0000

