-1.365244 0.638393 21.024985
-1.364883 0.642878 21.015180
-1.364521 0.647362 21.005376
-1.346542 0.862928 20.532693
-1.328206 1.075965 20.064258
-1.311477 1.290398 19.596696
-1.382382 1.563050 19.215752
-1.364290 0.650228 20.999110
-1.346610 0.862097 20.534511
-1.346474 0.863758 20.530875
-1.328287 1.075148 20.066081
-1.328124 1.076783 20.062434
-1.311645 1.289665 19.598549
-1.311308 1.291131 19.594843
-1.381293 1.561480 19.216342
-1.363356 0.661823 20.973759
-1.347555 0.850512 20.559866
-1.345529 0.875344 20.505519
-1.329428 1.063748 20.091513
-1.326983 1.088183 20.037003
-1.313999 1.279439 19.624393
-1.308955 1.301357 19.568998
-1.366101 1.539584 19.224576
-1.361326 0.686713 20.919287
-1.359012 0.714527 20.858311
-1.356668 0.742313 20.797323
-1.354316 0.770091 20.736331
-1.351960 0.797865 20.675339
-1.349625 0.825660 20.614354
-1.343537 0.900269 20.451062
-1.341343 0.928196 20.390133
-1.339142 0.956117 20.329201
-1.336861 0.983962 20.268238
-1.334499 1.011731 20.207243
-1.331838 1.039217 20.146132
-1.324864 1.112989 19.982497
-1.322803 1.141040 19.921623
-1.321633 1.169924 19.861113
-1.320870 1.199183 19.800779
-1.320026 1.228367 19.740413
-1.317913 1.256370 19.679516
-1.301474 1.320879 19.512845
-1.294144 1.343774 19.450281
-1.288885 1.368753 19.388269
-1.294280 1.403304 19.331379
-1.308471 1.444132 19.282110
-1.334693 1.492996 19.244403
-2.445107 2.284898 19.356788
-3.599446 2.909692 19.463772
-4.185621 4.025082 19.506548
-4.280670 5.339714 19.564658
-4.499797 6.638476 19.630160
-4.914088 7.886875 19.704218
-5.578829 9.019947 19.787250
-6.485310 9.971233 19.876194
-7.571679 10.711799 19.966584
-8.764047 11.267960 20.055433
-10.014647 11.677976 20.141626
-1.383472 1.564620 19.215161
-2.443321 2.284039 19.356519
-2.446894 2.285756 19.357057
-3.597791 2.908571 19.463718
-3.601101 2.910814 19.463827
-4.185542 4.023085 19.506470
-4.185699 4.027079 19.506626
-4.280468 5.337727 19.564565
-4.280872 5.341702 19.564751
-4.499336 6.636533 19.630055
-4.500258 6.640419 19.630265
-4.913246 7.885065 19.704097
-4.914930 7.888685 19.704338
-5.577612 9.018366 19.787119
-5.580046 9.021529 19.787382
-6.483790 9.969940 19.876057
-6.486829 9.972527 19.876331
-7.569948 10.710806 19.966448
-7.573410 10.712792 19.966721
-8.762191 11.267224 20.055300
-8.765902 11.268695 20.055566
-10.012728 11.677428 20.141497
-1.399383 1.586547 19.209147
-2.418408 2.272069 19.352768
-2.471792 2.297736 19.360877
-3.574715 2.892927 19.462830
-3.624181 2.926459 19.464582
-4.184341 3.995239 19.505381
-4.186794 4.054929 19.507715
-4.277651 5.310006 19.563268
-4.283689 5.369422 19.566048
-4.492907 6.609430 19.628587
-4.506687 6.667522 19.631733
-4.901504 7.859820 19.702416
-4.926673 7.913930 19.706020
-5.560635 8.996311 19.785280
-5.597023 9.043584 19.789221
-6.462599 9.951904 19.874149
-6.508244 9.990291 19.878241
-7.545808 10.696962 19.964545
-7.597799 10.726190 19.968620
-8.736370 11.256839 20.053443
-8.791775 11.278950 20.057421
-9.985935 11.669884 20.139700
-1.477857 1.685706 19.202346
-1.613576 1.831613 19.227015
-1.768038 1.956974 19.254865
-1.940243 2.057603 19.278914
-2.122487 2.137799 19.307405
-2.304736 2.218116 19.335668
-2.585119 2.352320 19.378264
-2.764345 2.440070 19.403725
-2.943019 2.530381 19.423427
-3.122334 2.620396 19.438083
-3.299655 2.714651 19.449378
-3.469584 2.821849 19.458355
-3.727700 2.999880 19.467867
-3.873188 3.137731 19.473222
-3.985703 3.303979 19.479511
-4.080490 3.481220 19.485882
-4.148318 3.669935 19.492737
-4.176971 3.868579 19.500421
-4.191723 4.181719 19.512720
-4.201757 4.382472 19.521052
-4.214611 4.583048 19.529844
-4.228123 4.783573 19.538839
-4.244925 4.983834 19.548035
-4.265037 5.183788 19.557377
-4.297439 5.495517 19.572000
-4.324505 5.694624 19.581687
-4.355010 5.893235 19.591540
-4.386631 6.091666 19.601446
-4.423013 6.289262 19.611577
-4.464681 6.485803 19.621951
-4.536783 6.790703 19.638452
-4.588038 6.984941 19.649254
-4.646413 7.177133 19.660360
-4.710525 7.367486 19.671703
-4.775876 7.557414 19.683096
-4.849253 7.744337 19.694804
-4.979704 8.029057 19.713659
-5.064881 8.210895 19.725804
-5.161475 8.386865 19.738333
-5.266146 8.558195 19.751115
-5.371842 8.728888 19.763928
-5.484693 8.894886 19.776943
-5.675684 9.142913 19.797623
-5.803402 9.297765 19.811002
-5.936326 9.448152 19.824487
-6.075802 9.592461 19.838088
-6.220669 9.731378 19.851769
-6.367564 9.868150 19.865474
-6.607960 10.068421 19.886948
-6.768025 10.189508 19.900750
-6.928467 10.310084 19.914552
-7.094529 10.422716 19.928346
-7.265348 10.528091 19.942111
-7.436571 10.632812 19.955873
-7.709467 10.786019 19.977253
-7.888037 10.877668 19.990896
-8.067873 10.966809 20.004509
-8.249539 11.052157 20.018070
-8.433342 11.132808 20.031561
-8.618886 11.209398 20.044985
-8.909833 11.324944 20.065852
-9.098666 11.393022 20.079116
-9.288787 11.457470 20.092304
-9.478995 11.521661 20.105488
-9.670601 11.581527 20.118574
-9.863798 11.636108 20.131536
168 NaN NaN
-1.365425 0.636151 21.029887
-1.362055 0.677956 20.938486
-1.358584 0.719666 20.847045
-1.355059 0.761324 20.755583
-1.351526 0.802975 20.664117
-1.348032 0.844663 20.572667
-1.344624 0.886432 20.481251
-1.341334 0.928312 20.389881
-1.338034 0.970182 20.298507
-1.334491 1.011824 20.207038
-1.330499 1.053041 20.115396
-1.326387 1.094144 20.023707
-1.323010 1.135942 19.932304
-1.321255 1.179255 19.841566
-1.320401 1.223400 19.751214
-1.317232 1.265388 19.659904
-1.308751 1.302243 19.566760
-1.296026 1.334832 19.472479
-1.288148 1.372255 19.379575
-1.298773 1.426060 19.296056
-1.337823 1.498829 19.239902
-1.392465 1.577581 19.210287
-1.453507 1.656689 19.200228
-1.517999 1.733542 19.205838
-1.586033 1.806039 19.220767
-1.658713 1.873522 19.237253
-1.736645 1.935640 19.250509
-1.819258 1.991782 19.261973
-1.905980 2.041258 19.273771
-1.995909 2.084159 19.287270
-2.087454 2.123153 19.301815
-2.179246 2.161529 19.316462
-2.270249 2.201957 19.330484
-2.360480 2.244236 19.344047
-2.450301 2.287393 19.357570
-2.540058 2.330591 19.371381
-2.629795 2.373864 19.385089
-2.719410 2.417634 19.397987
-2.808799 2.462267 19.409401
-2.898051 2.507558 19.419195
-2.987412 2.552911 19.427605
-3.077121 2.597771 19.434881
-3.166874 2.642684 19.441237
-3.255770 2.689356 19.446846
-3.342780 2.739508 19.451867
-3.427489 2.793510 19.456371
-3.510846 2.849628 19.460299
-3.594040 2.906028 19.463595
-3.677250 2.962433 19.466319
-3.757960 3.022341 19.468795
-3.832549 3.089648 19.471380
-3.897391 3.166367 19.474319
-3.953699 3.249593 19.477488
-4.004672 3.336213 19.480710
-4.052922 3.424385 19.483874
-4.096781 3.514804 19.487069
-4.132763 3.608602 19.490439
-4.157453 3.705955 19.494087
-4.171939 3.805366 19.497939
-4.179912 3.905527 19.501872
-4.184867 4.005892 19.505798
-4.188813 4.106302 19.509723
-4.192687 4.206712 19.513713
-4.197390 4.307081 19.517838
-4.203200 4.407386 19.522114
-4.209651 4.507648 19.526499
-4.216246 4.607897 19.530947
-4.222825 4.708145 19.535431
-4.229864 4.808361 19.539959
-4.237905 4.908498 19.544541
-4.247226 5.008521 19.549180
-4.257324 5.108468 19.553852
-4.267557 5.208401 19.558528
-4.277484 5.308366 19.563192
-4.287641 5.408306 19.567868
-4.298856 5.508130 19.572598
-4.311840 5.607735 19.577414
-4.326328 5.707130 19.582302
-4.341586 5.806408 19.587228
-4.356933 5.905672 19.592157
-4.372421 6.004914 19.597094
-4.388656 6.104034 19.602066
-4.406244 6.202919 19.607103
-4.425391 6.301510 19.612211
-4.445848 6.399836 19.617380
-4.467339 6.497938 19.622596
-4.489685 6.595847 19.627851
-4.512864 6.693560 19.633143
-4.536874 6.791071 19.638472
-4.561820 6.888343 19.643842
-4.588123 6.985253 19.649272
-4.616255 7.081644 19.654779
-4.646494 7.177389 19.660375
-4.678227 7.272647 19.666032
-4.710594 7.367690 19.671715
-4.742922 7.462747 19.677397
-4.775929 7.557568 19.683105
-4.810978 7.651645 19.688895
-4.849292 7.744430 19.694810
-4.890423 7.835999 19.700829
-4.932760 7.927015 19.706891
-4.974751 8.018192 19.712941
-5.016385 8.109534 19.718978
-5.059371 8.200241 19.725064
-5.105472 8.289392 19.731256
-5.155231 8.376550 19.737567
-5.207204 8.462405 19.743946
-5.259826 8.547864 19.750344
-5.312200 8.633475 19.756735
-5.365201 8.718697 19.763145
-5.419993 8.802772 19.769607
-5.477425 8.885060 19.776140
-5.537098 8.965734 19.782731
-5.598306 9.045250 19.789360
-5.660447 9.124036 19.796010
-5.723471 9.202117 19.802680
-5.787567 9.279317 19.809374
-5.852918 9.355455 19.816094
-5.919710 9.430329 19.822841
-5.988128 9.503717 19.829619
-6.058332 9.575396 19.836425
-6.130102 9.645505 19.843255
-6.202835 9.714615 19.850098
-6.275940 9.783332 19.856945
-6.349351 9.851720 19.863796
-6.423847 9.918922 19.870659
-6.500245 9.983945 19.877539
-6.578838 10.046300 19.884434
-6.658729 10.106987 19.891333
-6.738902 10.167301 19.898232
-6.818682 10.228135 19.905130
-6.898734 10.288609 19.912030
-6.980063 10.347350 19.918930
-7.063427 10.403162 19.925825
-7.148362 10.456561 19.932710
-7.233981 10.508860 19.939588
-7.319515 10.561300 19.946468
-7.404993 10.613829 19.953348
-7.490981 10.665518 19.960223
-7.578012 10.715431 19.967084
-7.666154 10.763356 19.973926
-7.755053 10.809871 19.980754
-7.844361 10.855595 19.987573
-7.933909 10.900849 19.994386
-8.023781 10.945455 20.001192
-8.114083 10.989188 20.007985
-8.204891 11.031861 20.014765
-8.296232 11.073384 20.021527
-8.388120 11.113685 20.028271
-8.480536 11.152764 20.034995
-8.573330 11.190940 20.041703
-8.666327 11.228620 20.048403
-8.759399 11.266117 20.055100
-8.852680 11.303092 20.061787
-8.946405 11.338927 20.068453
-9.040763 11.373066 20.075086
-9.135633 11.405762 20.081688
-9.230726 11.437812 20.088278
-9.325774 11.469994 20.094870
-9.420776 11.502307 20.101465
-9.516001 11.533963 20.108045
-9.611705 11.564140 20.114593
-9.707952 11.592553 20.121099
-9.804545 11.619771 20.127577
-9.901292 11.646445 20.134041
-9.998008 11.673227 20.140507
-10.094510 11.700769 20.146993
-10.190595 11.729718 20.153512
