0.180839 0.180814 0.180437 0.178863 0.176368 0.174295 0.172221 0.170148 0.168344 0.167204 0.166968 0.166952 0.166937 0.166701 0.165675 0.164050 0.162615 0.161180 0.159745 0.158429 0.157598 0.157420 0.157408 0.157397 0.157219 0.156417 0.155146 0.153898 0.152651 0.151403 0.150201 0.149442 0.149279 0.149269 0.149258 0.149096 0.148368 0.147216 0.146149 0.145082 0.144015 0.143051 0.142442 0.142314 0.142305 0.142297 0.142169 0.141612 0.140730 0.139932 0.139134 0.138336 0.137608 0.137148 0.137051 0.137045 0.137039 0.136942 0.136515 0.135839 0.135215 0.134590 0.133966 0.133388 0.133023 0.132946 0.132941 0.132936 0.132858 0.132514 0.131968 0.131455 0.130942 0.130430 0.129946 0.129640 0.129575 0.129571 0.129566 0.129501 0.129210 0.128748 0.128310 0.127872 0.127435 0.127021 0.126760 0.126705 0.126701 
0.180852 0.180879 0.181162 0.182084 0.183479 0.184493 0.185506 0.186520 0.187436 0.188041 0.188200 0.188215 0.188230 0.188389 0.189007 0.189941 0.190920 0.191898 0.192877 0.193888 0.194557 0.194733 0.194750 0.194767 0.194942 0.195617 0.196637 0.197651 0.198665 0.199679 0.200683 0.201346 0.201524 0.201541 0.201558 0.201734 0.202399 0.203405 0.204391 0.205377 0.206363 0.207274 0.207876 0.208027 0.208041 0.208056 0.208204 0.208739 0.209547 0.210119 0.210692 0.211264 0.211542 0.211726 0.211755 0.211758 0.211760 0.211785 0.211798 0.211818 0.211523 0.211228 0.210933 0.210413 0.210068 0.209968 0.209958 0.209948 0.209845 0.209360 0.208626 0.207720 0.206814 0.205909 0.204877 0.204196 0.204005 0.203986 
0.180844 0.180838 0.180741 0.179403 0.177281 0.177083 0.176884 0.176685 0.176929 0.177083 0.177078 0.177077 0.177076 0.177063 0.176724 0.176188 0.175300 0.174411 0.173523 0.171837 0.170773 0.170546 0.170532 0.170518 0.170293 0.169313 0.167758 0.166424 0.165089 0.163755 0.162179 0.161184 0.160925 0.160909 0.160892 0.160626 0.159184 0.156901 0.152975 0.149050 0.145125 0.140180 0.137059 0.136412 0.136373 0.136334 0.135705 0.133268 0.129406 0.127343 0.125279 0.123216 0.122035 0.121289 0.121153 0.121145 0.121137 0.121005 0.120486 0.119663 0.119103 0.118543 0.117983 0.117597 0.117354 0.117306 0.117304 0.117301 0.117255 0.117069 0.116773 0.116546 0.116319 0.116092 0.115909 0.115793 0.115770 0.115768 0.115767 0.115744 0.115644 0.115487 0.115356 0.115226 0.115095 0.114988 0.114920 0.114907 0.114906 0.114905 0.114892 0.114834 0.114744 0.114669 0.114595 0.114520 0.114458 0.114419 0.114411 0.114410 0.114410 0.114402 0.114368 0.114314 0.114268 0.114222 0.114176 0.114137 0.114112 0.114107 0.114107 0.114107 0.114102 0.114081 0.114047 0.114022 0.113996 0.113970 0.113944 0.113927 0.113922 0.113922 
0.137043 0.137035 0.136994 0.136891 0.136753 0.136615 0.136477 0.136339 0.136200 0.136096 0.136055 0.136047 0.136039 0.135998 0.135894 0.135755 0.135617 0.135478 0.135340 0.135203 0.135099 0.135067 0.135061 0.135055 0.135024 0.134949 0.134848 0.134754 0.134661 0.134567 0.134480 0.134415 0.134390 0.134385 0.134380 0.134355 0.134295 0.134216 0.134142 0.134068 0.133994 0.133925 0.133874 0.133856 0.133852 0.133849 0.133831 0.133785 0.133724 0.133669 0.133614 0.133559 0.133510 0.133473 0.133460 0.133457 0.133455 0.133441 0.133408 0.133363 0.133325 0.133287 0.133249 0.133217 0.133194 0.133184 0.133182 0.133180 0.133171 0.133149 0.133121 0.133096 0.133071 0.133046 0.133024 0.133008 0.133001 0.133000 
0.149268 0.149264 0.149246 0.149201 0.149141 0.149071 0.149001 0.148930 0.148856 0.148800 0.148777 0.148771 0.148766 0.148741 0.148679 0.148597 0.148510 0.148423 0.148335 0.148242 0.148172 0.148144 0.148137 0.148130 0.148100 0.148024 0.147923 0.147819 0.147715 0.147611 0.147504 0.147424 0.147390 0.147383 0.147375 0.147340 0.147254 0.147140 0.147021 0.146902 0.146784 0.146660 0.146566 0.146528 0.146519 0.146510 0.146470 0.146371 0.146239 0.146104 0.145968 0.145832 0.145727 0.145647 0.145618 0.145612 0.145606 0.145578 0.145512 0.145424 0.145340 0.145256 0.145172 0.145092 0.145032 0.145008 0.145003 0.144998 0.144975 0.144918 0.144843 0.144770 0.144697 0.144624 0.144553 0.144499 0.144477 0.144473 0.144468 0.144447 0.144395 0.144326 0.144259 0.144192 0.144125 0.144058 0.144008 0.143988 0.143983 0.143979 0.143959 0.143910 0.143845 0.143781 0.143716 0.143652 0.143588 0.143540 0.143521 0.143516 0.143512 0.143493 0.143446 0.143384 0.143322 0.143260 0.143197 0.143135 0.143088 0.143069 0.143065 0.143061 0.143042 0.142996 0.142934 0.142873 0.142811 0.142750 0.142688 0.142641 0.142623 0.142618 
0.166951 0.166945 0.166902 0.166756 0.166561 0.166265 0.165968 0.165672 0.165290 0.165004 0.164886 0.164869 0.164852 0.164732 0.164399 0.163955 0.163504 0.163053 0.162602 0.162174 0.161854 0.161750 0.161735 0.161724 0.161643 0.161420 0.161124 0.160808 0.160493 0.160178 0.159836 0.159579 0.159480 0.159466 0.159452 0.159352 0.159076 0.158709 0.158319 0.157929 0.157539 0.157117 0.156800 0.156678 0.156661 0.156643 0.156522 0.156207 0.155786 0.155405 0.155024 0.154643 0.154319 0.154076 0.153988 0.153975 0.153963 0.153882 0.153679 0.153407 0.153180 0.152953 0.152726 0.152527 0.152378 0.152329 0.152322 0.152314 0.152265 0.152135 0.151962 0.151808 0.151654 0.151500 0.151357 0.151249 0.151211 0.151205 0.151200 0.151162 0.151062 0.150928 0.150802 0.150675 0.150549 0.150425 0.150332 0.150297 0.150292 
0.188207 0.188173 0.187935 0.187281 0.186408 0.185477 0.184546 0.183616 0.182639 0.181906 0.181625 0.181586 0.181546 0.181268 0.180531 0.179549 0.178599 0.177650 0.176701 0.175824 0.175166 0.174930 0.174897 0.174864 0.174633 0.174032 0.173229 0.172541 0.171852 0.171164 0.170553 0.170096 0.169929 0.169905 0.169882 0.169716 0.169254 0.168638 0.167991 0.167344 0.166697 0.166032 0.165533 0.165348 0.165321 0.165295 0.165108 0.164613 0.163953 0.163387 0.162821 0.162255 0.161779 0.161422 0.161307 0.161291 0.161275 0.161162 0.160878 0.160499 0.160201 0.159903 0.159605 0.159365 0.159185 0.159124 0.159115 0.159107 0.159045 0.158897 0.158699 0.158534 0.158368 0.158203 0.158066 0.157963 0.157926 0.157920 
0.194740 0.194699 0.194527 0.194105 0.193545 0.192967 0.192390 0.191812 0.191219 0.190772 0.190587 0.190543 0.190499 0.190313 0.189859 0.189256 0.188656 0.188056 0.187456 0.186856 0.186404 0.186220 0.186176 0.186132 0.185949 0.185510 0.184927 0.184355 0.183783 0.183211 0.182660 0.182244 0.182076 0.182036 0.181996 0.181829 0.181432 0.180906 0.180392 0.179878 0.179364 0.178873 0.178503 0.178350 0.178314 0.178277 0.178126 0.177763 0.177281 0.176806 0.176330 0.175854 0.175387 0.175034 0.174890 0.174856 0.174821 0.174678 0.174331 0.173871 0.173421 0.172972 0.172522 0.172085 0.171754 0.171619 0.171587 0.171555 0.171421 0.171103 0.170683 0.170284 0.169885 0.169486 0.169176 0.168941 0.168848 0.168826 0.168804 0.168714 0.168502 0.168221 0.167981 0.167742 0.167503 0.167290 0.167129 0.167069 0.167055 0.167041 0.166982 0.166839 0.166651 0.166483 0.166316 0.166148 0.165986 0.165863 0.165821 0.165811 0.165801 0.165759 0.165657 0.165522 0.165396 0.165271 0.165145 0.165027 0.164938 0.164902 0.164893 0.164884 0.164848 0.164773 0.164674 0.164578 0.164482 0.164385 0.164303 0.164240 0.164214 0.164208 0.164202 0.164176 0.164117 0.164039 0.163969 0.163898 0.163827 0.163767 0.163721 0.163704 0.163699 
0.209932 0.209828 0.209259 0.207849 0.205973 0.204279 0.202585 0.200891 0.199347 0.198186 0.197760 0.197683 0.197607 0.197188 0.196152 0.194774 0.193520 0.192267 0.191013 0.189869 0.189008 0.188687 0.188629 0.188572 0.188261 0.187487 0.186458 0.185520 0.184581 0.183643 0.182802 0.182170 0.181935 0.181892 0.181850 0.181617 0.181047 0.180288 0.179616 0.178945 0.178273 0.177680 0.177233 0.177067 0.177036 0.177009 0.176860 0.176506 0.176036 0.175775 0.175513 0.175252 0.175031 0.174865 0.174803 0.174792 0.174780 0.174717 0.174563 0.174358 0.174167 0.173977 0.173786 0.173596 0.173453 0.173396 0.173385 0.173377 0.173334 0.173209 0.173044 0.172882 0.172720 0.172558 0.172417 0.172311 0.172272 0.172265 
