0.157305 0.157316 0.157450 0.158013 0.158905 0.159706 0.160507 0.161308 0.162100 0.162599 0.162711 0.162720 0.162729 0.162841 0.163352 0.164160 0.164998 0.165836 0.166673 0.167537 0.168083 0.168205 0.168215 0.168225 0.168347 0.168903 0.169782 0.170644 0.171506 0.172367 0.173180 0.173694 0.173803 0.173812 0.173821 0.173930 0.174412 0.175175 0.175877 0.176579 0.177281 0.177915 0.178316 0.178400 0.178406 0.178413 0.178496 0.178865 0.179450 0.179928 0.180406 0.180884 0.181231 0.181449 0.181490 0.181494 
0.157299 0.157285 0.157167 0.156849 0.156425 0.156011 0.155598 0.155184 0.154784 0.154484 0.154378 0.154365 0.154352 0.154246 0.153958 0.153574 0.153207 0.152841 0.152475 0.152124 0.151862 0.151768 0.151757 0.151745 0.151652 0.151400 0.151064 0.150742 0.150419 0.150097 0.149786 0.149553 0.149469 0.149459 0.149449 0.149365 0.149138 0.148835 0.148542 0.148248 0.147954 0.147669 0.147456 0.147379 0.147370 0.147360 0.147284 0.147075 0.146796 0.146526 0.146257 0.145987 0.145725 0.145529 0.145458 0.145449 0.145441 0.145370 0.145178 0.144921 0.144670 0.144420 0.144169 0.143923 0.143738 0.143672 0.143664 0.143656 0.143589 0.143409 0.143167 0.142929 0.142691 0.142453 0.142218 0.142042 0.141978 0.141971 0.141963 0.141900 0.141727 0.141496 0.141268 0.141041 0.140814 0.140590 0.140422 0.140361 0.140354 0.140347 0.140286 0.140121 0.139900 0.139682 0.139464 0.139246 0.139030 0.138869 0.138811 0.138804 0.138797 0.138738 0.138579 0.138367 0.138157 0.137946 0.137736 0.137529 0.137373 0.137317 0.137311 0.137304 0.137248 0.137094 0.136889 0.136687 0.136486 0.136284 0.136085 0.135936 0.135882 0.135876 0.135869 0.135815 0.135669 0.135473 0.135281 0.135089 0.134897 0.134708 0.134567 0.134516 0.134510 0.134504 0.134452 0.134314 0.134128 0.133945 0.133763 0.133580 0.133401 0.133267 0.133218 0.133213 0.133207 0.133158 0.133027 0.132851 0.132678 0.132505 0.132333 0.132163 0.132036 0.131990 0.131984 0.131979 0.131933 0.131808 0.131641 0.131476 0.131312 0.131148 0.130986 0.130865 0.130822 0.130816 0.130811 0.130768 0.130649 0.130490 0.130334 0.130178 0.130022 0.129868 0.129753 0.129711 0.129706 
0.157304 0.157313 0.157426 0.157603 0.157884 0.157320 0.156756 0.156192 0.155304 0.154744 0.154614 0.154604 0.154594 0.154461 0.153853 0.152890 0.151921 0.150951 0.149982 0.149088 0.148524 0.148403 0.148393 0.148384 0.148267 0.147740 0.146905 0.146154 0.145402 0.144651 0.144010 0.143606 0.143521 0.143515 0.143508 0.143425 0.143065 0.142494 0.141905 0.141315 0.140726 0.139993 0.139531 0.139417 0.139408 0.139399 0.139282 0.138655 0.137660 0.136092 0.134524 0.132956 0.131026 0.129807 0.129514 0.129491 0.129468 0.129172 0.127819 0.125677 0.124002 0.122327 0.120652 0.119644 0.119008 0.118896 0.118888 0.118880 0.118774 0.118392 0.117787 0.117429 0.117070 0.116711 0.116470 0.116318 0.116288 0.116286 0.116284 0.116255 0.116136 0.115946 0.115797 0.115647 0.115498 0.115375 0.115298 0.115282 0.115281 0.115280 0.115264 0.115197 0.115091 0.114999 0.114908 0.114816 0.114736 0.114685 0.114675 0.114674 0.114673 0.114662 0.114616 0.114544 0.114479 0.114415 0.114350 0.114292 0.114256 0.114248 0.114248 0.114247 0.114240 0.114207 0.114154 0.114108 0.114063 0.114017 0.113977 0.113951 0.113946 0.113946 0.113945 0.113940 0.113917 0.113882 0.113851 0.113820 0.113789 0.113763 0.113746 0.113743 0.113742 0.113742 0.113739 0.113724 0.113701 0.113681 0.113662 0.113642 0.113625 0.113615 0.113613 0.113613 0.113612 0.113610 0.113601 0.113587 0.113575 0.113562 0.113550 0.113539 0.113532 0.113531 0.113531 
0.168210 0.168190 0.168081 0.167796 0.167417 0.167036 0.166656 0.166276 0.165897 0.165613 0.165503 0.165483 0.165463 0.165354 0.165073 0.164699 0.164334 0.163970 0.163605 0.163252 0.162987 0.162886 0.162868 0.162849 0.162749 0.162496 0.162160 0.161844 0.161528 0.161212 0.160915 0.160693 0.160609 0.160594 0.160579 0.160496 0.160291 0.160019 0.159760 0.159501 0.159242 0.158995 0.158810 0.158740 0.158728 0.158715 0.158647 0.158471 0.158237 0.158013 0.157790 0.157567 0.157371 0.157223 0.157169 0.157159 0.157149 0.157096 0.156969 0.156801 0.156660 0.156518 0.156377 0.156256 0.156166 0.156137 0.156131 0.156126 0.156097 0.156024 0.155927 0.155850 0.155772 0.155694 0.155633 0.155588 0.155571 0.155568 0.155565 0.155548 0.155511 0.155463 0.155425 0.155387 0.155349 0.155317 0.155294 0.155288 0.155287 0.155286 0.155279 0.155263 0.155240 0.155225 0.155210 0.155195 0.155186 0.155180 0.155177 0.155177 
0.162717 0.162704 0.162610 0.162346 0.161995 0.161615 0.161235 0.160856 0.160460 0.160163 0.160052 0.160037 0.160022 0.159910 0.159612 0.159213 0.158827 0.158442 0.158057 0.157697 0.157427 0.157331 0.157318 0.157305 0.157210 0.156965 0.156640 0.156353 0.156067 0.155781 0.155509 0.155306 0.155230 0.155219 0.155209 0.155133 0.154927 0.154652 0.154366 0.154081 0.153796 0.153516 0.153306 0.153230 0.153220 0.153210 0.153135 0.152949 0.152701 0.152501 0.152301 0.152100 0.151959 0.151853 0.151816 0.151811 0.151807 0.151774 0.151702 0.151604 0.151541 0.151478 0.151415 0.151376 0.151347 0.151340 0.151339 0.151338 0.151331 0.151315 0.151294 0.151288 0.151281 0.151275 0.151279 0.151283 0.151285 0.151285 
0.154364 0.154361 0.154356 0.154344 0.154329 0.154313 0.154297 0.154282 0.154265 0.154252 0.154246 0.154243 0.154239 0.154233 0.154219 0.154201 0.154183 0.154165 0.154146 0.154127 0.154112 0.154104 0.154101 0.154097 0.154089 0.154074 0.154053 0.154032 0.154011 0.153990 0.153968 0.153950 0.153941 0.153937 0.153933 0.153923 0.153905 0.153882 0.153857 0.153833 0.153809 0.153783 0.153764 0.153753 0.153748 0.153743 0.153733 0.153712 0.153685 0.153657 0.153629 0.153601 0.153572 0.153549 0.153537 0.153532 0.153526 0.153514 0.153490 0.153459 0.153427 0.153394 0.153362 0.153327 0.153301 0.153287 0.153280 0.153274 0.153259 0.153231 0.153195 0.153156 0.153117 0.153078 0.153038 0.153007 0.152991 0.152983 0.152976 0.152960 0.152927 0.152885 0.152841 0.152797 0.152752 0.152706 0.152671 0.152652 0.152644 0.152636 0.152617 0.152581 0.152533 0.152485 0.152436 0.152388 0.152342 0.152306 0.152288 0.152280 0.152272 0.152254 0.152221 0.152178 0.152146 0.152115 0.152083 0.152067 0.152054 0.152047 0.152044 0.152041 0.152034 0.152021 0.152004 0.151987 0.151970 0.151952 0.151935 0.151921 0.151914 0.151911 0.151908 0.151901 0.151887 0.151870 0.151852 0.151834 0.151816 0.151798 0.151784 0.151777 0.151774 0.151770 0.151763 0.151749 0.151731 0.151712 0.151693 0.151674 0.151655 0.151640 0.151632 0.151629 0.151625 0.151618 0.151603 0.151583 0.151563 0.151543 0.151523 0.151503 0.151488 0.151479 0.151476 0.151472 0.151463 0.151447 0.151427 0.151405 0.151384 0.151363 0.151342 0.151325 0.151316 0.151312 0.151308 0.151300 0.151282 0.151260 0.151238 0.151215 0.151192 0.151169 0.151151 0.151141 0.151137 0.151133 0.151123 0.151105 0.151081 0.151056 0.151031 0.151007 0.150981 0.150962 0.150952 0.150947 0.150943 0.150932 0.150913 0.150887 0.150861 0.150835 0.150809 0.150782 0.150761 0.150750 0.150745 0.150740 0.150729 0.150708 0.150680 0.150652 0.150623 0.150594 0.150565 0.150542 0.150530 0.150525 0.150520 0.150508 0.150486 0.150456 0.150427 0.150398 0.150369 0.150339 0.150317 0.150305 0.150299 0.150294 0.150282 0.150260 0.150230 0.150202 0.150173 0.150144 0.150116 0.150094 0.150083 0.150077 0.150072 0.150061 0.150039 0.150011 0.149984 0.149957 0.149931 0.149905 0.149886 0.149876 0.149871 0.149867 0.149857 0.149838 0.149814 0.149791 0.149768 0.149744 0.149724 0.149709 0.149701 0.149698 0.149694 0.149686 0.149672 0.149653 0.149635 0.149617 0.149598 0.149581 0.149567 0.149560 0.149557 0.149554 0.149549 0.149538 0.149525 0.149512 0.149498 0.149485 0.149473 0.149463 0.149458 0.149455 0.149453 0.149448 0.149439 0.149427 0.149419 0.149410 0.149401 0.149393 0.149386 0.149383 0.149381 0.149380 0.149376 0.149370 0.149361 0.149354 0.149347 0.149340 0.149335 0.149331 0.149329 0.149328 0.149327 0.149325 0.149320 0.149315 0.149310 0.149305 0.149300 0.149296 0.149293 0.149292 0.149291 0.149290 0.149289 0.149287 0.149284 0.149281 0.149278 0.149275 0.149272 0.149270 0.149269 0.149268 0.149268 0.149267 0.149266 0.149265 0.149263 0.149261 0.149260 0.149258 0.149257 0.149256 0.149256 0.149255 0.149255 0.149254 0.149252 0.149252 0.149252 0.149251 0.149251 0.149250 0.149250 0.149250 0.149250 0.149250 0.149249 0.149249 0.149248 0.149248 0.149248 0.149248 0.149248 0.149249 0.149249 0.149249 0.149249 0.149249 0.149249 0.149250 0.149250 0.149250 0.149251 0.149251 0.149252 0.149252 0.149252 0.149252 0.149253 0.149254 0.149255 0.149256 0.149257 0.149258 0.149259 0.149259 0.149260 0.149260 0.149260 0.149261 0.149262 0.149264 0.149265 0.149266 0.149268 0.149269 0.149269 0.149269 0.149270 0.149270 0.149271 0.149272 0.149274 0.149275 0.149277 0.149278 0.149279 0.149280 0.149280 
0.151755 0.151749 0.151705 0.151581 0.151416 0.151232 0.151047 0.150863 0.150653 0.150495 0.150435 0.150427 0.150419 0.150359 0.150178 0.149936 0.149695 0.149454 0.149214 0.149055 0.148935 0.148899 0.148894 0.148889 0.148853 0.148754 0.148622 0.148487 0.148351 0.148215 0.148073 0.147967 0.147926 0.147921 0.147916 0.147875 0.147760 0.147607 0.147443 0.147279 0.147115 0.146939 0.146807 0.146759 0.146752 0.146746 0.146699 0.146575 0.146410 0.146288 0.146166 0.146043 0.145970 0.145915 0.145899 0.145897 0.145895 0.145880 0.145858 0.145828 0.145824 0.145820 0.145816 0.145831 0.145843 0.145850 0.145851 0.145852 0.145859 0.145879 0.145906 0.145943 0.145979 0.146016 0.146059 0.146091 0.146104 0.146105 
0.147368 0.147362 0.147340 0.147288 0.147219 0.147147 0.147076 0.147004 0.146931 0.146875 0.146851 0.146844 0.146837 0.146813 0.146757 0.146683 0.146607 0.146531 0.146456 0.146380 0.146323 0.146299 0.146292 0.146285 0.146261 0.146205 0.146131 0.146058 0.145986 0.145913 0.145843 0.145789 0.145766 0.145760 0.145753 0.145731 0.145680 0.145613 0.145548 0.145484 0.145420 0.145359 0.145313 0.145294 0.145289 0.145284 0.145265 0.145223 0.145167 0.145115 0.145064 0.145012 0.144962 0.144925 0.144909 0.144904 0.144900 0.144884 0.144845 0.144795 0.144740 0.144685 0.144629 0.144572 0.144528 0.144509 0.144503 0.144498 0.144479 0.144433 0.144373 0.144311 0.144248 0.144185 0.144121 0.144072 0.144051 0.144045 0.144039 0.144017 0.143967 0.143901 0.143833 0.143765 0.143698 0.143630 0.143579 0.143557 0.143550 0.143544 0.143522 0.143471 0.143404 0.143347 0.143291 0.143235 0.143182 0.143142 0.143125 0.143120 0.143116 0.143101 0.143070 0.143028 0.142989 0.142950 0.142911 0.142885 0.142866 0.142858 0.142855 0.142853 0.142844 0.142825 0.142799 0.142783 0.142766 0.142749 0.142735 0.142724 0.142720 0.142719 0.142717 0.142713 0.142708 0.142702 0.142696 0.142691 0.142685 0.142684 0.142683 0.142683 0.142683 0.142683 0.142683 0.142683 0.142684 0.142687 0.142690 0.142693 0.142697 0.142701 0.142702 0.142703 0.142703 0.142705 0.142710 0.142716 0.142725 0.142733 0.142742 0.142751 0.142758 0.142762 0.142763 0.142764 0.142768 0.142776 0.142788 0.142800 0.142813 0.142825 0.142839 0.142850 0.142854 0.142856 
0.140353 0.140351 0.140344 0.140330 0.140312 0.140293 0.140275 0.140256 0.140238 0.140223 0.140216 0.140213 0.140211 0.140204 0.140189 0.140170 0.140150 0.140131 0.140112 0.140092 0.140077 0.140070 0.140067 0.140064 0.140057 0.140042 0.140023 0.140003 0.139983 0.139964 0.139944 0.139929 0.139922 0.139919 0.139916 0.139909 0.139894 0.139874 0.139855 0.139836 0.139817 0.139798 0.139784 0.139777 0.139774 0.139771 0.139764 0.139750 0.139731 0.139712 0.139693 0.139674 0.139655 0.139641 0.139634 0.139631 0.139628 0.139621 0.139607 0.139588 0.139569 0.139550 0.139531 0.139512 0.139498 0.139491 0.139488 0.139485 0.139478 0.139464 0.139444 0.139425 0.139406 0.139387 0.139367 0.139353 0.139345 0.139342 0.139340 0.139332 0.139317 0.139298 0.139278 0.139259 0.139239 0.139220 0.139205 0.139197 0.139194 0.139192 0.139184 0.139169 0.139149 0.139129 0.139110 0.139090 0.139070 0.139055 0.139048 0.139045 0.139042 0.139035 0.139019 0.138999 0.138980 0.138961 0.138942 0.138923 0.138908 0.138901 0.138898 0.138896 0.138888 0.138873 0.138854 0.138836 0.138819 0.138801 0.138785 0.138773 0.138769 0.138768 0.138767 0.138764 0.138757 0.138749 0.138744 0.138739 0.138734 0.138731 0.138728 0.138726 0.138726 0.138725 0.138724 0.138722 0.138718 0.138718 0.138719 0.138719 0.138719 0.138720 0.138720 0.138720 0.138721 0.138721 0.138722 0.138723 0.138727 0.138730 0.138734 0.138738 0.138742 0.138743 0.138744 0.138745 0.138746 0.138750 0.138754 0.138761 0.138767 0.138774 0.138781 0.138787 0.138789 0.138790 0.138792 0.138794 0.138800 0.138807 0.138815 0.138824 0.138833 0.138842 0.138849 0.138853 0.138854 0.138855 0.138859 0.138866 0.138875 0.138886 0.138896 0.138906 0.138918 0.138926 0.138930 0.138932 0.138934 0.138938 0.138946 0.138958 0.138970 0.138981 0.138993 0.139006 0.139016 0.139021 0.139023 0.139025 0.139030 0.139039 0.139052 0.139066 0.139079 0.139093 0.139107 0.139118 0.139124 0.139126 0.139128 0.139133 0.139145 0.139159 0.139174 0.139189 0.139204 0.139220 0.139233 0.139239 0.139241 0.139243 0.139249 0.139262 0.139278 0.139295 0.139312 0.139329 0.139347 0.139360 0.139367 0.139370 
0.134509 0.134509 0.134506 0.134498 0.134489 0.134479 0.134469 0.134459 0.134449 0.134441 0.134437 0.134436 0.134435 0.134431 0.134422 0.134411 0.134398 0.134386 0.134374 0.134361 0.134352 0.134347 0.134346 0.134345 0.134340 0.134330 0.134317 0.134304 0.134290 0.134277 0.134263 0.134252 0.134248 0.134246 0.134245 0.134240 0.134230 0.134215 0.134201 0.134186 0.134171 0.134156 0.134145 0.134139 0.134138 0.134136 0.134131 0.134119 0.134104 0.134088 0.134072 0.134057 0.134040 0.134028 0.134023 0.134021 0.134020 0.134014 0.134002 0.133985 0.133968 0.133951 0.133934 0.133917 0.133904 0.133898 0.133896 0.133895 0.133889 0.133876 0.133858 0.133840 0.133823 0.133805 0.133788 0.133775 0.133769 0.133767 0.133766 0.133760 0.133747 0.133729 0.133713 0.133696 0.133680 0.133671 0.133665 0.133665 0.133665 0.133665 0.133666 0.133667 0.133668 0.133670 0.133672 0.133674 0.133679 0.133683 0.133685 0.133685 0.133686 0.133687 0.133691 0.133695 0.133702 0.133709 0.133716 0.133723 0.133728 0.133730 0.133731 0.133731 0.133734 0.133740 0.133749 0.133757 0.133766 0.133774 0.133783 0.133790 0.133794 0.133795 0.133796 0.133799 0.133806 0.133816 0.133826 0.133837 0.133847 0.133859 0.133867 0.133871 0.133872 0.133873 0.133877 0.133886 0.133898 0.133912 0.133925 0.133938 0.133952 0.133962 0.133967 0.133968 0.133970 0.133975 0.133986 0.134001 0.134017 0.134033 0.134049 0.134066 0.134079 0.134085 0.134086 
0.129706 0.129706 0.129706 0.129703 0.129698 0.129690 0.129681 0.129672 0.129658 0.129648 0.129644 0.129644 0.129643 0.129639 0.129627 0.129610 0.129592 0.129573 0.129555 0.129534 0.129518 0.129512 0.129512 0.129511 0.129505 0.129488 0.129465 0.129442 0.129419 0.129395 0.129371 0.129353 0.129346 0.129345 0.129344 0.129337 0.129318 0.129293 0.129295 0.129298 0.129300 0.129311 0.129319 0.129322 0.129322 0.129323 0.129326 0.129336 0.129350 0.129364 0.129379 0.129393 0.129409 0.129421 0.129425 0.129426 0.129427 0.129431 0.129443 0.129458 0.129476 0.129493 0.129510 0.129530 0.129545 0.129551 0.129552 
