-1.724762 0.795874 13.653739
-1.728295 0.801661 13.662142
-1.731828 0.807448 13.670544
-1.905099 1.087653 14.073063
-2.085647 1.368471 14.464637
-2.475858 1.652485 14.524621
-2.938975 1.863431 14.493053
-1.734085 0.811146 13.675913
-1.904441 1.086579 14.071509
-1.905756 1.088726 14.074617
-2.084752 1.367313 14.463274
-2.086542 1.369629 14.466001
-2.474196 1.651404 14.524886
-2.477519 1.653567 14.524357
-2.937029 1.862993 14.493204
-1.743218 0.826106 13.697633
-1.895269 1.071601 14.049817
-1.914928 1.103704 14.096308
-2.072261 1.351158 14.444249
-2.099032 1.385784 14.485026
-2.451012 1.636309 14.528574
-2.500690 1.668706 14.520807
-2.909878 1.856880 14.495300
-1.762961 0.858301 13.744205
-1.785303 0.894444 13.796141
-1.807806 0.930661 13.847956
-1.830351 0.966896 13.899740
-1.852908 1.003137 13.951514
-1.875333 1.039318 14.003388
-1.934403 1.135776 14.143078
-1.956010 1.171582 14.195555
-1.977792 1.207469 14.247905
-2.000135 1.243612 14.299836
-2.023042 1.280009 14.351346
-2.047883 1.317221 14.401356
-2.133476 1.421867 14.517808
-2.177038 1.462231 14.547040
-2.230575 1.501128 14.558163
-2.286818 1.536775 14.556488
-2.343974 1.571024 14.548888
-2.400898 1.604584 14.537220
-2.550120 1.702419 14.516865
-2.606311 1.738870 14.513320
-2.663669 1.773614 14.510931
-2.724773 1.801092 14.507904
-2.787391 1.824546 14.504226
-2.851609 1.843495 14.499770
-4.229121 2.128994 14.401408
-5.201407 2.778813 14.291783
-5.660935 4.014713 14.232672
-6.246260 5.195661 14.169540
-7.014789 6.264699 14.099871
-7.996596 7.139839 14.023693
-9.156855 7.759028 13.943556
-10.421701 8.122944 13.862833
-11.729751 8.277567 13.783801
-13.047508 8.273141 13.707390
-2.940921 1.863869 14.492903
-4.227162 2.128621 14.401557
-4.231081 2.129362 14.401257
-5.200865 2.776890 14.291866
-5.201949 2.780736 14.291700
-5.660174 4.012865 14.232762
-5.661695 4.016560 14.232581
-6.245263 5.193931 14.169640
-6.247258 5.197392 14.169440
-7.013470 6.263199 14.099982
-7.016108 6.266198 14.099761
-7.994964 7.138689 14.023812
-7.998228 7.140990 14.023574
-9.155009 7.758269 13.943678
-9.158701 7.759787 13.943433
-10.419740 8.122567 13.862954
-10.423661 8.123321 13.862712
-11.727757 8.277473 13.783918
-11.731745 8.277660 13.783683
-13.045515 8.273255 13.707504
-2.968108 1.869826 14.490831
-4.199823 2.123396 14.403615
-4.258433 2.134496 14.399138
-5.194198 2.749824 14.292852
-5.209514 2.807577 14.290544
-5.649559 3.987084 14.234031
-5.672310 4.042342 14.231312
-6.231342 5.169781 14.171032
-6.261179 5.221542 14.168048
-6.995067 6.242273 14.101525
-7.034511 6.287124 14.098217
-7.972195 7.122634 14.025474
-8.021058 7.156956 14.021911
-9.129246 7.747672 13.945388
-9.184595 7.770060 13.941723
-10.392475 8.116854 13.864651
-10.451018 8.128582 13.861018
-11.699939 8.275950 13.785564
-11.759576 8.278961 13.782041
-13.017695 8.274846 13.709086
-3.091927 1.896855 14.481711
-3.287767 1.941491 14.468316
-3.484149 1.983593 14.454711
-3.681102 2.022865 14.440843
-3.878263 2.061088 14.426990
-4.075381 2.099440 14.412867
-4.382926 2.158020 14.389466
-4.579619 2.198106 14.374426
-4.774345 2.245811 14.356697
-4.963374 2.308714 14.330045
-5.111835 2.434446 14.304895
-5.169587 2.625226 14.296221
-5.247228 2.928743 14.284809
-5.314173 3.118361 14.275496
-5.382403 3.307557 14.266832
-5.451634 3.496378 14.257982
-5.525178 3.683544 14.248910
-5.601694 3.869520 14.239780
-5.721874 4.159193 14.225490
-5.805821 4.341912 14.216064
-5.891408 4.523874 14.206578
-5.978523 4.705101 14.197031
-6.072367 4.882915 14.187233
-6.169381 5.059027 14.177318
-6.326617 5.330265 14.161636
-6.435563 5.499226 14.151292
-6.546993 5.666555 14.140860
-6.663233 5.830556 14.130263
-6.786135 5.989617 14.119446
-6.912767 6.145722 14.108506
-7.120508 6.380389 14.091125
-7.260858 6.524246 14.079765
-7.405409 6.663867 14.068281
-7.555203 6.797826 14.056654
-7.710127 6.925812 14.044894
-7.869402 7.048331 14.033020
-8.126436 7.227539 14.014309
-8.296727 7.334182 14.002194
-8.470715 7.434683 13.990009
-8.647828 7.529556 13.977775
-8.828507 7.617427 13.965490
-9.012254 7.698711 13.953171
-9.303057 7.815332 13.933933
-9.493033 7.880717 13.921590
-9.684592 7.941359 13.909253
-9.877440 7.997726 13.896930
-10.072435 8.046134 13.884642
-10.268503 8.090092 13.872382
-10.575843 8.150997 13.853324
-10.774542 8.180909 13.841191
-10.973416 8.209678 13.829071
-11.172880 8.233858 13.817007
-11.373137 8.250489 13.805047
-11.573444 8.266598 13.793095
-11.886344 8.283235 13.774595
-12.087271 8.287166 13.762851
-12.288183 8.291794 13.751093
-12.489136 8.290900 13.739445
-12.690034 8.285263 13.727897
-12.890938 8.279847 13.716343
159 NaN NaN
-1.722996 0.792980 13.649538
-1.755858 0.846812 13.727696
-1.789297 0.900906 13.805427
-1.823031 0.955134 13.882937
-1.856791 1.009375 13.960426
-1.890313 1.063507 14.038095
-1.923317 1.117403 14.116148
-1.955651 1.170991 14.194693
-1.988252 1.224702 14.273043
-2.022466 1.279146 14.350186
-2.059640 1.334833 14.425024
-2.104540 1.392907 14.493414
-2.165244 1.453662 14.544590
-2.244841 1.511494 14.561127
-2.330397 1.563019 14.551671
-2.415591 1.613246 14.534208
-2.498985 1.667543 14.520943
-2.581767 1.724002 14.514342
-2.667580 1.775983 14.510768
-2.759349 1.816272 14.506172
-2.855425 1.844621 14.499505
-2.953121 1.866616 14.491961
-3.051059 1.887594 14.484578
-3.148778 1.909736 14.477721
-3.246435 1.932232 14.471123
-3.344223 1.954138 14.464482
-3.442222 1.975021 14.457665
-3.540384 1.995090 14.450749
-3.638659 2.014594 14.443821
-3.737004 2.033757 14.436922
-3.835376 2.052775 14.430019
-3.933736 2.071841 14.423073
-4.032067 2.091024 14.416035
-4.130402 2.110130 14.408843
-4.228779 2.128930 14.401435
-4.327202 2.147404 14.393810
-4.425571 2.166144 14.386142
-4.523759 2.185872 14.378643
-4.621598 2.207299 14.371257
-4.718854 2.230885 14.362845
-4.815282 2.256822 14.352161
-4.910388 2.286081 14.338683
-5.001634 2.325057 14.323808
-5.081253 2.383969 14.310016
-5.132757 2.468979 14.301392
-5.159168 2.565667 14.297542
-5.176470 2.664569 14.295349
-5.196904 2.762832 14.292471
-5.224118 2.859400 14.288313
-5.255834 2.954566 14.283504
-5.289336 3.049126 14.278755
-5.323215 3.143566 14.274309
-5.357268 3.237950 14.270011
-5.391346 3.332324 14.265700
-5.425632 3.426620 14.261300
-5.460675 3.520632 14.256828
-5.497034 3.614140 14.252306
-5.534736 3.707115 14.247756
-5.573050 3.799839 14.243197
-5.611195 3.892633 14.238646
-5.648944 3.985589 14.234104
-5.687140 4.078360 14.229541
-5.726747 4.170535 14.224922
-5.768240 4.261872 14.220233
-5.810877 4.352680 14.215503
-5.853737 4.443384 14.210765
-5.896262 4.534245 14.206039
-5.939151 4.624933 14.201297
-5.983373 4.714975 14.196506
-6.029624 4.803988 14.191638
-6.077392 4.892194 14.186715
-6.125828 4.980035 14.181767
-6.174261 5.067877 14.176819
-6.223104 5.155490 14.171856
-6.273197 5.242391 14.166846
-6.325256 5.328123 14.161766
-6.379061 5.412769 14.156625
-6.433917 5.496735 14.151447
-6.489203 5.580419 14.146254
-6.545042 5.663733 14.141040
-6.602070 5.746233 14.135786
-6.660887 5.827464 14.130471
-6.721503 5.907357 14.125098
-6.783426 5.986240 14.119681
-6.846178 6.064464 14.114238
-6.909687 6.142072 14.108769
-6.974351 6.218717 14.103263
-7.040572 6.294016 14.097709
-7.108472 6.367801 14.092105
-7.177766 6.440277 14.086460
-7.248150 6.511693 14.080782
-7.319484 6.582157 14.075075
-7.391937 6.651466 14.069335
-7.465704 6.719371 14.063560
-7.540890 6.785699 14.057748
-7.617384 6.850513 14.051902
-7.695045 6.913919 14.046025
-7.773770 6.975998 14.040120
-7.853551 7.036710 14.034188
-7.934403 7.095986 14.028232
-8.016335 7.153758 14.022252
-8.099349 7.209961 14.016250
-8.183443 7.264532 14.010225
-8.268601 7.317426 14.004176
-8.354723 7.368733 13.998108
-8.441683 7.418605 13.992026
-8.529378 7.467171 13.985932
-8.617849 7.514308 13.979828
-8.707200 7.559752 13.973710
-8.797510 7.603254 13.967579
-8.888675 7.644938 13.961437
-8.980477 7.685199 13.955289
-9.072726 7.724425 13.949139
-9.165432 7.762556 13.942987
-9.258771 7.799109 13.936831
-9.352894 7.833589 13.930672
-9.447749 7.866004 13.924514
-9.543085 7.896980 13.918358
-9.638670 7.927180 13.912203
-9.734451 7.956754 13.906051
-9.830621 7.985032 13.899902
-9.927369 8.011264 13.893761
-10.024714 8.035191 13.887631
-10.122422 8.057597 13.881512
-10.220266 8.079405 13.875396
-10.318138 8.101088 13.869281
-10.416202 8.121886 13.863173
-10.514642 8.140817 13.857080
-10.613529 8.157266 13.851011
-10.712683 8.172037 13.844960
-10.811917 8.186269 13.838914
-10.911107 8.200801 13.832865
-11.010354 8.214941 13.826821
-11.109811 8.227510 13.820796
-11.209557 8.237550 13.814804
-11.309480 8.245687 13.808840
-11.409451 8.253229 13.802884
-11.509377 8.261322 13.796921
-11.609293 8.269550 13.790955
-11.709298 8.276611 13.785007
-11.809443 8.281291 13.779099
-11.909670 8.283825 13.773229
-12.009916 8.285520 13.767375
-12.110153 8.287652 13.761513
-12.210379 8.290270 13.755641
-12.310619 8.292234 13.749782
-12.410879 8.292376 13.743959
-12.511125 8.290485 13.738177
-12.611348 8.287552 13.732418
-12.711572 8.284636 13.726659
-12.811806 8.282116 13.720891
-12.912030 8.279242 13.715131
-13.012214 8.275159 13.709398
-13.112319 8.269434 13.703704
-13.212354 8.262555 13.698037
-13.312351 8.255129 13.692383
-13.412352 8.247767 13.686728
-13.512399 8.241074 13.681057
-13.612522 8.235661 13.675355
