0.284722 0.284658 0.283730 0.278552 0.270347 0.261452 0.252557 0.243663 0.235704 0.230681 0.229663 0.229592 0.229523 0.228523 0.224349 0.217736 0.212814 0.207891 0.202969 0.199321 0.197019 0.196560 0.196529 
0.284723 0.284657 0.284002 0.281247 0.277290 0.272772 0.268253 0.263735 0.259123 0.255913 0.255010 0.254919 0.254828 0.253932 0.251146 0.247144 0.243832 0.240521 0.237209 0.234579 0.232748 0.232233 0.232181 0.232130 0.231620 0.230078 0.227861 0.226005 0.224148 0.222292 0.220737 0.219655 0.219331 0.219299 0.219267 0.218957 0.217981 0.216580 0.215287 0.213994 0.212702 0.211500 0.210663 0.210415 0.210389 0.210364 0.210116 0.209314 0.208162 0.207039 0.205915 0.204792 0.203689 0.202922 0.202691 0.202667 0.202644 0.202412 0.201650 0.200555 0.199478 0.198401 0.197324 0.196269 0.195534 0.195311 0.195289 0.195266 0.195044 0.194321 0.193283 0.192263 0.191243 0.190224 0.189233 0.188544 0.188335 0.188314 0.188293 0.188084 0.187402 0.186422 0.185466 0.184510 0.183553 0.182624 0.181977 0.181782 0.181763 0.181743 0.181549 0.180914 0.180002 0.179108 0.178214 0.177320 0.176443 0.175833 0.175648 0.175630 0.175611 0.175427 0.174827 0.173965 0.173120 0.172276 0.171431 0.170604 0.170028 0.169854 0.169836 0.169819 0.169646 0.169082 0.168273 0.167485 0.166697 0.165909 0.165145 0.164613 0.164453 0.164436 0.164420 0.164260 0.163743 0.162999 0.162277 0.161555 0.160833 0.160133 0.159646 0.159499 0.159484 0.159470 0.159324 0.158852 0.158173 0.157517 0.156861 0.156204 0.155568 0.155126 0.154992 0.154979 0.154965 0.154832 0.154403 0.153785 0.153189 0.152593 0.151997 0.151419 0.151017 0.150897 0.150885 0.150872 0.150752 0.150363 0.149804 0.149262 0.148721 0.148180 0.147657 0.147293 0.147184 0.147173 0.147162 0.147053 0.146700 0.146193 0.145702 0.145212 0.144722 0.144248 0.143918 0.143819 0.143809 
0.284819 0.285154 0.290236 0.307301 0.334339 0.362158 0.389977 0.417796 0.388614 0.370196 0.365784 0.365492 0.365196 0.360709 0.340374 0.308155 0.288942 0.269730 0.250518 0.239099 0.231892 0.230650 0.230568 0.230488 0.229273 0.224574 0.217128 0.212136 0.207143 0.202150 0.198463 0.196136 0.195651 0.195619 0.195587 0.195109 0.192958 0.189550 0.183896 0.178242 0.172588 0.164500 0.159396 0.158433 0.158370 0.158307 0.157358 0.153269 0.146791 0.141785 0.136780 0.131774 0.129087 0.127390 0.127119 0.127102 0.127084 0.126816 0.125784 0.124149 0.123118 0.122087 0.121055 0.120390 0.119971 0.119892 0.119886 0.119881 0.119804 0.119495 0.119004 0.118642 0.118280 0.117917 0.117639 0.117464 0.117429 0.117426 0.117424 0.117389 0.117244 0.117013 0.116824 0.116635 0.116446 0.116290 0.116191 0.116171 0.116170 0.116168 0.116148 0.116064 0.115930 0.115816 0.115702 0.115588 0.115491 0.115430 0.115417 0.115416 0.115416 0.115403 0.115349 0.115264 0.115189 0.115115 0.115041 0.114977 0.114936 0.114928 0.114928 0.114927 0.114919 0.114883 0.114827 0.114778 0.114730 0.114681 0.114639 0.114613 0.114607 0.114607 
0.229558 0.229420 0.229043 0.228259 0.227231 0.226230 0.225228 0.224226 0.223250 0.222505 0.222153 0.222025 0.221897 0.221548 0.220823 0.219874 0.218954 0.218034 0.217114 0.216222 0.215541 0.215220 0.215103 0.214986 0.214667 0.214021 0.213174 0.212367 0.211560 0.210753 0.209979 0.209388 0.209112 0.209011 0.208911 0.208638 0.208078 0.207345 0.206655 0.205965 0.205275 0.204636 0.204149 0.203923 0.203841 0.203759 0.203537 0.203082 0.202487 0.201929 0.201372 0.200815 0.200283 0.199878 0.199689 0.199620 0.199552 0.199366 0.198989 0.198495 0.198076 0.197657 0.197238 0.196882 0.196610 0.196482 0.196435 0.196388 0.196260 0.195994 0.195644 0.195300 0.194957 0.194613 0.194275 0.194017 0.193896 0.193851 0.193807 0.193686 0.193434 0.193103 0.192779 0.192454 0.192129 0.191805 0.191557 0.191441 0.191399 0.191356 0.191240 0.190998 0.190679 0.190362 0.190045 0.189727 0.189411 0.189170 0.189056 0.189014 0.188972 0.188858 0.188619 0.188306 0.187995 0.187683 0.187372 0.187062 0.186826 0.186711 0.186669 0.186627 0.186512 0.186271 0.185955 0.185640 0.185325 0.185010 0.184699 0.184461 0.184349 0.184308 0.184267 0.184155 0.183921 0.183614 0.183315 0.183015 0.182716 0.182422 0.182197 0.182091 0.182053 0.182014 0.181908 0.181688 0.181399 0.181121 0.180843 0.180565 0.180291 0.180082 0.179984 0.179948 0.179913 0.179816 0.179615 0.179351 0.179104 0.178856 0.178608 0.178367 0.178183 0.178097 0.178066 0.178035 0.177949 0.177779 0.177556 0.177351 0.177145 0.176940 0.176741 0.176589 0.176518 0.176492 0.176467 0.176396 0.176262 0.176087 0.175924 0.175760 0.175597 0.175439 0.175318 0.175262 0.175241 0.175220 0.175164 0.175066 0.174937 0.174813 0.174688 0.174564 0.174442 0.174348 0.174305 0.174289 0.174275 0.174238 0.174164 0.174068 0.173971 0.173874 0.173777 0.173680 0.173606 0.173574 0.173563 0.173553 0.173525 0.173467 0.173391 0.173314 0.173237 0.173161 0.173086 0.173028 0.173007 0.172999 0.172991 0.172969 0.172923 0.172862 0.172801 0.172740 0.172678 0.172620 0.172575 0.172557 0.172550 0.172544 0.172525 0.172487 0.172437 0.172386 0.172335 0.172283 0.172238 0.172203 0.172188 0.172183 0.172177 0.172162 0.172130 0.172088 0.172044 0.172001 0.171957 0.171919 0.171891 0.171877 0.171872 0.171868 0.171854 0.171826 0.171789 0.171751 0.171713 0.171674 0.171643 0.171619 0.171608 0.171604 0.171600 0.171588 0.171563 0.171531 0.171499 0.171467 0.171436 0.171408 0.171387 0.171377 0.171373 0.171370 0.171360 0.171337 0.171308 0.171280 0.171251 0.171222 0.171197 0.171177 0.171168 0.171164 0.171161 0.171151 0.171131 0.171104 0.171079 0.171054 0.171028 0.171004 0.170986 0.170977 0.170974 0.170971 0.170962 0.170943 0.170917 0.170893 0.170869 0.170845 0.170822 0.170804 0.170795 0.170792 
0.254867 0.254661 0.253962 0.252411 0.250364 0.248464 0.246564 0.244664 0.242867 0.241504 0.240924 0.240753 0.240584 0.240011 0.238746 0.237076 0.235525 0.233973 0.232422 0.230962 0.229855 0.229385 0.229246 0.229109 0.228643 0.227598 0.226220 0.224914 0.223608 0.222302 0.221073 0.220141 0.219744 0.219627 0.219511 0.219119 0.218249 0.217103 0.216032 0.214962 0.213891 0.212894 0.212139 0.211821 0.211727 0.211634 0.211320 0.210612 0.209679 0.208801 0.207923 0.207045 0.206232 0.205615 0.205355 0.205278 0.205202 0.204943 0.204373 0.203622 0.202927 0.202232 0.201537 0.200873 0.200370 0.200156 0.200093 0.200031 0.199820 0.199352 0.198736 0.198183 0.197630 0.197077 0.196564 0.196176 0.196012 0.195963 0.195915 0.195753 0.195389 0.194910 0.194437 0.193965 0.193493 0.193041 0.192699 0.192551 0.192507 0.192463 0.192314 0.191976 0.191531 0.191105 0.190678 0.190252 0.189839 0.189527 0.189390 0.189350 0.189310 0.189174 0.188863 0.188453 0.188052 0.187651 0.187250 0.186851 0.186550 0.186418 0.186379 0.186341 0.186213 0.185921 0.185537 0.185159 0.184782 0.184404 0.184050 0.183782 0.183666 0.183632 0.183598 0.183482 0.183220 0.182875 0.182547 0.182219 0.181891 0.181576 0.181336 0.181233 0.181203 0.181172 0.181070 0.180852 0.180566 0.180299 0.180033 0.179766 0.179522 0.179337 0.179263 0.179242 0.179220 0.179147 0.178984 0.178769 0.178575 0.178381 0.178186 0.178014 0.177884 0.177827 0.177811 0.177794 0.177738 0.177611 0.177443 0.177302 0.177160 0.177019 0.176877 0.176770 0.176725 0.176711 0.176700 0.176663 0.176577 0.176464 0.176350 0.176237 0.176123 0.176028 0.175957 0.175925 0.175916 0.175906 0.175875 0.175802 0.175705 0.175619 0.175532 0.175446 0.175366 0.175305 0.175278 0.175270 0.175262 0.175236 0.175181 0.175108 0.175038 0.174969 0.174899 0.174830 0.174777 0.174757 0.174750 0.174744 0.174724 0.174676 0.174612 0.174551 0.174490 0.174429 0.174373 0.174331 0.174312 0.174306 0.174301 0.174282 0.174238 0.174181 0.174130 0.174078 0.174027 0.173974 0.173934 0.173916 0.173911 0.173906 0.173891 0.173855 0.173807 0.173758 0.173708 0.173659 0.173613 0.173579 0.173564 0.173559 0.173555 0.173539 0.173503 0.173456 0.173410 0.173365 0.173319 0.173273 0.173238 0.173222 0.173217 
0.232144 0.231995 0.231011 0.228544 0.225257 0.222390 0.219524 0.216657 0.214160 0.212287 0.211625 0.211525 0.211427 0.210779 0.209143 0.206964 0.205056 0.203147 0.201239 0.199588 0.198349 0.197907 0.197840 0.197774 0.197337 0.196265 0.194835 0.193598 0.192361 0.191125 0.190017 0.189187 0.188901 0.188858 0.188815 0.188531 0.187795 0.186813 0.185900 0.184986 0.184073 0.183240 0.182614 0.182391 0.182357 0.182323 0.182101 0.181548 0.180810 0.180170 0.179529 0.178888 0.178386 0.178009 0.177879 0.177860 0.177840 0.177712 0.177424 0.177040 0.176736 0.176432 0.176129 0.175898 0.175724 0.175662 0.175652 0.175643 0.175581 0.175447 0.175270 0.175116 0.174963 0.174809 0.174689 0.174599 0.174564 0.174558 0.174553 0.174520 0.174444 0.174343 0.174252 0.174162 0.174071 0.173993 0.173933 0.173911 0.173908 
0.181757 0.181733 0.181648 0.181452 0.181193 0.180929 0.180665 0.180401 0.180136 0.179936 0.179849 0.179824 0.179799 0.179712 0.179509 0.179241 0.178971 0.178701 0.178431 0.178160 0.177955 0.177866 0.177841 0.177816 0.177728 0.177524 0.177255 0.176987 0.176720 0.176452 0.176190 0.175991 0.175906 0.175881 0.175857 0.175772 0.175577 0.175319 0.175065 0.174811 0.174557 0.174306 0.174116 0.174035 0.174011 0.173988 0.173907 0.173721 0.173475 0.173235 0.172995 0.172754 0.172525 0.172352 0.172278 0.172257 0.172236 0.172162 0.171995 0.171773 0.171560 0.171347 0.171133 0.170924 0.170766 0.170698 0.170679 0.170660 0.170593 0.170444 0.170247 0.170056 0.169865 0.169674 0.169491 0.169353 0.169294 0.169278 0.169261 0.169202 0.169067 0.168890 0.168721 0.168553 0.168385 0.168222 0.168098 0.168045 0.168030 0.168015 0.167962 0.167848 0.167697 0.167550 0.167403 0.167255 0.167119 0.167016 0.166972 0.166959 0.166947 0.166904 0.166813 0.166693 0.166590 0.166487 0.166384 0.166291 0.166221 0.166192 0.166183 0.166175 0.166146 0.166090 0.166015 0.165944 0.165873 0.165802 0.165743 0.165698 0.165680 0.165675 0.165670 0.165652 0.165611 0.165557 0.165513 0.165469 0.165425 0.165383 0.165351 0.165337 0.165333 0.165329 0.165315 0.165290 0.165257 0.165226 0.165194 0.165163 0.165136 0.165116 0.165108 0.165106 0.165104 0.165096 0.165078 0.165054 0.165035 0.165016 0.164997 0.164981 0.164969 0.164963 0.164962 0.164960 0.164955 0.164945 0.164933 0.164923 0.164912 0.164901 0.164894 0.164888 0.164886 0.164886 0.164886 0.164884 0.164880 0.164874 0.164872 0.164869 0.164867 0.164866 0.164866 0.164866 0.164866 
