0.133366 0.133372 0.133459 0.133857 0.134489 0.135123 0.135757 0.136390 0.137022 0.137420 0.137508 0.137514 0.137521 0.137608 0.138006 0.138636 0.139276 0.139916 0.140555 0.141211 0.141625 0.141717 0.141724 0.141731 0.141823 0.142241 0.142905 0.143560 0.144214 0.144869 0.145506 0.145908 0.145996 0.146002 0.146009 0.146097 0.146494 0.147122 0.147755 0.148388 0.149022 0.149670 0.150079 0.150170 0.150177 0.150184 0.150275 0.150687 0.151341 0.151985 0.152630 0.153275 0.153899 0.154293 0.154378 0.154385 
0.133363 0.133359 0.133320 0.133210 0.133060 0.132915 0.132771 0.132627 0.132487 0.132383 0.132348 0.132344 0.132340 0.132304 0.132200 0.132058 0.131914 0.131771 0.131627 0.131479 0.131370 0.131332 0.131328 0.131324 0.131286 0.131178 0.131030 0.130886 0.130741 0.130596 0.130461 0.130362 0.130328 0.130324 0.130321 0.130287 0.130193 0.130064 0.129939 0.129814 0.129689 0.129564 0.129472 0.129440 0.129436 
0.133364 0.133364 0.133355 0.133232 0.133038 0.132548 0.132058 0.131569 0.130983 0.130613 0.130527 0.130521 0.130516 0.130431 0.130051 0.129447 0.128898 0.128348 0.127798 0.127306 0.126996 0.126932 0.126928 0.126923 0.126861 0.126595 0.126173 0.125831 0.125488 0.125145 0.124829 0.124629 0.124584 0.124581 0.124578 0.124534 0.124325 0.123995 0.123626 0.123257 0.122888 0.122456 0.122183 0.122118 0.122114 0.122109 0.122043 0.121717 0.121200 0.120600 0.120001 0.119402 0.118813 0.118442 0.118365 0.118360 0.118355 0.118279 0.117964 0.117466 0.117060 0.116653 0.116247 0.115900 0.115681 0.115635 0.115632 0.115629 0.115585 0.115398 0.115102 0.114888 0.114674 0.114461 0.114317 0.114226 0.114208 0.114207 0.114206 0.114189 0.114120 0.114010 0.113923 0.113835 0.113748 0.113672 0.113624 0.113614 0.113613 0.113612 0.113602 0.113557 0.113486 0.113420 0.113354 0.113288 0.113227 0.113188 0.113180 0.113180 0.113179 0.113171 0.113136 0.113081 0.113034 0.112987 0.112941 0.112904 0.112881 0.112876 0.112876 0.112876 0.112871 0.112852 0.112823 0.112800 0.112777 0.112754 0.112735 0.112724 0.112722 0.112721 0.112721 0.112719 0.112709 0.112694 0.112681 0.112669 0.112656 0.112646 0.112640 0.112639 0.112639 0.112639 0.112637 0.112633 0.112625 0.112620 0.112615 0.112609 0.112607 0.112605 0.112605 0.112605 0.112605 0.112604 0.112604 0.112603 0.112603 0.112603 0.112603 0.112597 0.112594 0.112593 0.112593 
0.150174 0.150165 0.150130 0.150049 0.149942 0.149836 0.149729 0.149623 0.149519 0.149439 0.149405 0.149396 0.149387 0.149353 0.149277 0.149176 0.149077 0.148979 0.148881 0.148783 0.148710 0.148679 0.148671 0.148662 0.148632 0.148561 0.148467 0.148375 0.148282 0.148190 0.148100 0.148031 0.148002 0.147994 0.147986 0.147957 0.147891 0.147804 0.147719 0.147634 0.147550 0.147468 0.147406 0.147382 0.147375 0.147369 0.147347 0.147297 0.147231 0.147172 0.147114 0.147056 0.147005 0.146967 0.146951 0.146946 0.146942 0.146926 0.146895 0.146854 0.146816 0.146778 0.146740 0.146710 0.146688 0.146679 0.146677 0.146675 0.146666 0.146646 0.146620 0.146601 0.146583 0.146564 0.146547 0.146534 0.146529 0.146527 0.146526 0.146522 0.146516 0.146507 0.146499 0.146491 0.146484 0.146483 0.146482 0.146482 0.146481 0.146481 0.146481 0.146480 0.146478 0.146483 0.146487 0.146492 0.146497 0.146500 0.146504 0.146505 0.146506 0.146509 0.146517 0.146528 0.146540 0.146552 0.146564 0.146579 0.146591 0.146596 0.146597 0.146599 0.146604 0.146617 0.146634 0.146654 0.146674 0.146693 0.146715 0.146731 0.146739 0.146741 0.146743 0.146751 0.146768 0.146792 0.146817 0.146842 0.146868 0.146894 0.146914 0.146922 0.146925 
0.141723 0.141720 0.141712 0.141692 0.141667 0.141640 0.141613 0.141586 0.141558 0.141537 0.141527 0.141524 0.141520 0.141510 0.141489 0.141460 0.141430 0.141401 0.141372 0.141342 0.141319 0.141309 0.141305 0.141302 0.141291 0.141268 0.141238 0.141207 0.141176 0.141146 0.141114 0.141091 0.141080 0.141076 0.141073 0.141062 0.141038 0.141007 0.140976 0.140945 0.140914 0.140884 0.140860 0.140850 0.140846 0.140843 0.140833 0.140810 0.140780 0.140750 0.140720 0.140690 0.140660 0.140637 0.140627 0.140624 0.140620 0.140610 0.140587 0.140558 0.140528 0.140498 0.140468 0.140438 0.140415 0.140405 0.140401 0.140398 0.140387 0.140363 0.140332 0.140301 0.140270 0.140239 0.140207 0.140183 0.140172 0.140168 0.140164 0.140153 0.140128 0.140096 0.140063 0.140030 0.139996 0.139963 0.139938 0.139926 0.139922 0.139919 0.139907 0.139881 0.139847 0.139814 0.139780 0.139746 0.139713 0.139687 0.139676 0.139672 0.139668 0.139656 0.139631 0.139597 0.139569 0.139541 0.139513 0.139492 0.139476 0.139469 0.139467 0.139464 0.139457 0.139443 0.139425 0.139410 0.139396 0.139381 0.139368 0.139358 0.139353 0.139352 0.139350 0.139346 0.139339 0.139331 0.139323 0.139315 0.139307 0.139299 0.139293 0.139292 0.139292 0.139291 0.139290 0.139287 0.139284 0.139280 0.139277 0.139274 0.139272 0.139272 0.139272 0.139272 0.139272 0.139272 0.139271 0.139271 0.139272 0.139272 0.139272 0.139275 0.139277 0.139278 0.139278 0.139278 0.139279 0.139281 0.139284 0.139288 0.139292 0.139296 0.139301 0.139304 0.139306 0.139307 0.139307 0.139309 0.139313 0.139318 0.139325 0.139333 0.139340 0.139347 0.139353 0.139355 0.139356 0.139357 0.139360 0.139366 0.139375 0.139384 0.139394 0.139404 0.139414 0.139422 0.139426 0.139427 
0.137514 0.137513 0.137510 0.137503 0.137492 0.137478 0.137465 0.137451 0.137434 0.137421 0.137415 0.137413 0.137412 0.137406 0.137390 0.137369 0.137344 0.137319 0.137294 0.137265 0.137243 0.137234 0.137232 0.137230 0.137220 0.137195 0.137162 0.137128 0.137095 0.137062 0.137029 0.137004 0.136994 0.136991 0.136989 0.136979 0.136956 0.136926 0.136899 0.136873 0.136846 0.136831 0.136820 0.136815 0.136814 0.136812 0.136807 0.136795 0.136779 0.136761 0.136744 0.136726 0.136707 0.136692 0.136686 0.136684 0.136683 0.136677 0.136661 0.136639 0.136616 0.136592 0.136568 0.136543 0.136524 0.136516 0.136514 0.136512 0.136504 0.136483 0.136454 0.136423 0.136391 0.136360 0.136327 0.136302 0.136293 0.136291 0.136289 0.136279 0.136259 0.136231 0.136206 0.136181 0.136156 0.136136 0.136121 0.136116 0.136114 0.136113 0.136107 0.136096 0.136080 0.136068 0.136056 0.136044 0.136036 0.136031 0.136029 0.136028 0.136028 0.136026 0.136021 0.136014 0.136012 0.136009 0.136007 0.136006 0.136005 0.136005 0.136005 0.136005 0.136005 0.136005 0.136005 0.136008 0.136010 0.136013 0.136016 0.136018 0.136020 0.136020 0.136020 0.136022 0.136026 0.136032 0.136039 0.136046 0.136053 0.136061 0.136068 0.136071 0.136071 
0.132344 0.132346 0.132353 0.132370 0.132391 0.132411 0.132431 0.132451 0.132469 0.132483 0.132489 0.132490 0.132492 0.132497 0.132509 0.132526 0.132539 0.132553 0.132567 0.132578 0.132587 0.132590 0.132591 0.132592 0.132595 0.132601 0.132610 0.132617 0.132623 0.132630 0.132634 0.132637 0.132638 0.132639 0.132639 0.132640 0.132641 0.132642 0.132644 0.132646 0.132648 0.132652 0.132654 0.132655 0.132656 0.132656 0.132659 0.132667 0.132678 0.132690 0.132701 0.132712 0.132722 0.132730 0.132733 0.132734 0.132735 0.132738 0.132745 0.132755 0.132765 0.132775 0.132785 0.132794 0.132800 0.132803 0.132804 0.132805 0.132807 0.132816 0.132828 0.132839 0.132850 0.132860 0.132869 0.132876 0.132879 0.132879 0.132880 0.132882 0.132887 0.132893 0.132897 0.132901 0.132905 0.132906 0.132907 0.132907 0.132907 0.132907 0.132908 0.132907 0.132907 0.132904 0.132902 0.132899 0.132895 0.132892 0.132891 0.132890 0.132890 0.132888 0.132884 0.132877 0.132869 0.132862 0.132854 0.132850 0.132847 0.132847 0.132848 0.132848 0.132849 0.132851 0.132854 0.132860 0.132865 0.132870 0.132875 0.132879 0.132881 0.132882 0.132882 0.132884 0.132889 0.132895 0.132901 0.132908 0.132914 0.132920 0.132924 0.132926 0.132926 0.132927 0.132929 0.132933 0.132939 0.132944 0.132949 0.132954 0.132958 0.132961 0.132962 0.132963 0.132963 0.132964 0.132967 0.132971 0.132975 0.132979 0.132983 0.132987 0.132990 0.132991 0.132991 0.132992 0.132993 0.132996 0.133000 0.133004 0.133009 0.133013 0.133017 0.133021 0.133022 0.133023 
0.130324 0.130322 0.130318 0.130312 0.130303 0.130294 0.130286 0.130277 0.130269 0.130262 0.130259 0.130257 0.130255 0.130251 0.130245 0.130237 0.130228 0.130220 0.130212 0.130204 0.130197 0.130194 0.130192 0.130191 0.130187 0.130181 0.130173 0.130165 0.130158 0.130150 0.130143 0.130137 0.130133 0.130132 0.130130 0.130127 0.130122 0.130114 0.130107 0.130100 0.130092 0.130085 0.130079 0.130076 0.130075 0.130073 0.130070 0.130065 0.130057 0.130050 0.130043 0.130036 0.130029 0.130023 0.130020 0.130018 0.130017 0.130014 0.130008 0.130001 0.129993 0.129985 0.129978 0.129970 0.129965 0.129961 0.129960 0.129958 0.129955 0.129949 0.129941 0.129934 0.129926 0.129918 0.129910 0.129904 0.129900 0.129899 0.129897 0.129894 0.129887 0.129880 0.129872 0.129864 0.129856 0.129847 0.129841 0.129837 0.129836 0.129834 0.129830 0.129824 0.129815 0.129807 0.129798 0.129790 0.129782 0.129775 0.129772 0.129770 0.129768 0.129765 0.129758 0.129750 0.129741 0.129733 0.129724 0.129715 0.129708 0.129705 0.129703 0.129702 0.129698 0.129692 0.129684 0.129675 0.129667 0.129659 0.129650 0.129644 0.129640 0.129638 0.129636 0.129633 0.129626 0.129617 0.129610 0.129603 0.129596 0.129592 0.129590 0.129588 0.129588 0.129587 0.129586 0.129584 0.129580 0.129577 0.129574 0.129571 0.129570 0.129570 0.129569 0.129569 0.129569 0.129569 0.129568 0.129567 0.129567 0.129566 0.129565 0.129565 0.129564 0.129564 0.129564 0.129564 0.129563 0.129564 0.129565 0.129566 0.129568 0.129569 0.129571 0.129572 0.129572 0.129573 0.129573 0.129574 0.129575 0.129576 0.129578 0.129580 0.129582 0.129585 0.129587 0.129589 0.129589 0.129590 0.129591 0.129594 0.129597 0.129599 0.129602 0.129605 0.129608 0.129610 0.129611 0.129612 0.129613 0.129615 0.129618 0.129622 0.129627 0.129631 0.129635 0.129639 0.129642 0.129644 0.129645 0.129645 0.129647 0.129650 0.129654 0.129659 0.129663 0.129668 0.129673 0.129677 0.129679 0.129680 0.129681 0.129683 0.129687 0.129691 0.129696 0.129701 0.129705 0.129710 0.129714 0.129717 0.129718 0.129719 0.129721 0.129726 0.129731 0.129737 0.129742 0.129748 0.129753 0.129757 0.129760 0.129761 0.129762 0.129764 0.129769 0.129774 0.129781 0.129787 0.129793 0.129799 0.129804 0.129807 0.129808 0.129809 0.129812 0.129817 0.129823 0.129829 0.129836 0.129842 0.129849 0.129854 0.129857 0.129858 0.129860 0.129863 0.129868 0.129875 0.129882 0.129889 0.129896 0.129903 0.129908 0.129911 0.129913 
