0.014092
12
0.012604
7
0.006302
18
0.014092
13
0.003072
9
A4
0.002372
15
A2
0.002050
18
A1
0.001509
24
D1
0.002152
14
D4
0.003694
8
D5
0.002492
12
D6
0.002221
13
D8
0.002567
11
D9
0.001495
17
D11
0.002783
9
D14
0.001470
17
D17
