-1.275725 0.586502 5.958930
-1.284488 0.594027 5.964195
-1.293252 0.601551 5.969459
-1.678952 0.934132 6.210326
-2.061144 1.262490 6.440097
-2.397194 1.473961 6.079515
-2.779657 1.629549 5.706648
-1.298669 0.606203 5.972713
-1.677571 0.932946 6.209498
-1.680333 0.935317 6.211155
-2.059570 1.261261 6.439979
-2.062717 1.263719 6.440215
-2.395959 1.473209 6.080896
-2.398475 1.474695 6.078166
-2.778174 1.629133 5.707924
-1.319447 0.624044 5.985196
-1.656785 0.915101 6.197033
-1.701265 0.953222 6.223282
-2.035892 1.242765 6.438207
-2.086395 1.282214 6.441987
-2.377638 1.461782 6.101865
-2.417746 1.485749 6.057861
-2.755859 1.622879 5.727129
-1.364060 0.662447 6.012626
-1.413748 0.705327 6.043881
-1.463223 0.748113 6.075599
-1.512700 0.790900 6.107311
-1.562252 0.833720 6.138862
-1.611970 0.876612 6.170052
-1.746535 0.991901 6.249215
-1.796741 1.035000 6.279313
-1.846106 1.077731 6.311212
-1.894440 1.120001 6.345285
-1.941404 1.161626 6.381976
-1.990193 1.204115 6.414989
-2.133089 1.314722 6.418487
-2.180582 1.344708 6.373092
-2.220058 1.367136 6.316320
-2.258006 1.388733 6.258208
-2.297066 1.411820 6.201496
-2.338108 1.437126 6.147111
-2.459329 1.509601 6.014046
-2.507077 1.533027 5.964495
-2.555647 1.554559 5.914907
-2.605117 1.574346 5.865467
-2.656002 1.592233 5.816732
-2.708380 1.608754 5.769121
-3.864445 1.860984 4.805137
-4.973827 2.073355 3.930124
-5.938774 2.762961 3.204236
-6.581147 3.898827 2.621543
-7.290494 4.961127 1.980310
-8.116529 5.896029 1.284466
-9.077760 6.632656 0.528761
-10.156021 7.115805 -0.271646
-11.307121 7.334034 -1.088114
-12.486526 7.330622 -1.894626
-2.781139 1.629964 5.705372
-3.862935 1.860673 4.806410
-3.865956 1.861295 4.803863
-4.972214 2.072998 3.931251
-4.975439 2.073711 3.928996
-5.937819 2.761395 3.205033
-5.939728 2.764527 3.203439
-6.580221 3.897280 2.622409
-6.582073 3.900374 2.620677
-7.289413 4.959731 1.981249
-7.291575 4.962524 1.979371
-8.115280 5.894842 1.285481
-8.117777 5.897217 1.283450
-9.076324 6.631797 0.529856
-9.079197 6.633515 0.527666
-10.154454 7.115303 -0.270509
-10.157588 7.116307 -0.272783
-11.305482 7.333902 -1.086974
-11.308759 7.334166 -1.089253
-12.484870 7.330769 -1.893514
-2.803454 1.636218 5.686167
-3.840198 1.855991 4.825567
-3.888699 1.865972 4.784712
-4.947941 2.067636 3.948221
-4.999636 2.080229 3.912336
-5.922846 2.738609 3.217751
-5.954095 2.788098 3.191443
-6.566297 3.873994 2.635438
-6.596002 3.923656 2.607646
-7.273143 4.938718 1.995378
-7.307845 4.983537 1.965242
-8.096493 5.876975 1.300767
-8.136569 5.915077 1.268162
-9.054705 6.618873 0.546331
-9.100812 6.646448 0.511193
-10.130992 7.107341 -0.253422
-10.181165 7.123862 -0.289898
-11.280833 7.331840 -1.069827
-11.333417 7.336154 -1.106396
-12.459954 7.332987 -1.876778
-2.905962 1.664145 5.598666
-3.068653 1.706198 5.459677
-3.235286 1.739694 5.323082
-3.403958 1.769219 5.188035
-3.571239 1.800881 5.051752
-3.736324 1.834510 4.913278
-3.992882 1.887197 4.697306
-4.158085 1.920463 4.558883
-4.322193 1.953548 4.419121
-4.488104 1.986610 4.281522
-4.660932 2.018333 4.152387
-4.836829 2.046177 4.026516
-5.110222 2.112861 3.837192
-5.286676 2.168081 3.721550
-5.458259 2.238006 3.606974
-5.608382 2.347145 3.493194
-5.735832 2.485472 3.383162
-5.852070 2.637712 3.278965
-6.017337 2.898536 3.139151
-6.112065 3.078367 3.060130
-6.208979 3.253430 2.973447
-6.305775 3.426006 2.881758
-6.403626 3.597058 2.788349
-6.503243 3.766941 2.694669
-6.660519 4.029414 2.547673
-6.765154 4.194864 2.451561
-6.869891 4.360226 2.355411
-6.978016 4.522408 2.257640
-7.089247 4.681595 2.158410
-7.200522 4.840735 2.059157
-7.382870 5.078948 1.900341
-7.501797 5.230059 1.797475
-7.624354 5.377014 1.692910
-7.750936 5.519177 1.586490
-7.879029 5.659442 1.479362
-8.011092 5.794530 1.370436
-8.223380 5.995481 1.197855
-8.363337 6.119268 1.085409
-8.506961 6.237257 0.971374
-8.653993 6.349498 0.855874
-8.803102 6.458067 0.739525
-8.956143 6.559124 0.621563
-9.199795 6.705304 0.435810
-9.359318 6.792390 0.315356
-9.522964 6.869274 0.193437
-9.686693 6.945973 0.071497
-9.853697 7.013207 -0.051477
-10.023797 7.070573 -0.175307
-10.289608 7.156024 -0.368290
-10.463590 7.198072 -0.492854
-10.638011 7.238165 -0.617470
-10.813710 7.271849 -0.742149
-10.990775 7.297801 -0.866778
-11.168380 7.320264 -0.991316
-11.446318 7.344014 -1.184725
-11.625668 7.351952 -1.308535
-11.805327 7.356303 -1.432076
-11.985332 7.355670 -1.555169
-12.165659 7.348925 -1.677623
-12.346047 7.340488 -1.799887
171 NaN NaN
-1.271344 0.582740 5.956298
-1.340902 0.642466 5.998084
-1.409797 0.701909 6.041347
-1.478371 0.761212 6.085310
-1.546949 0.820518 6.129261
-1.615860 0.879968 6.172492
-1.685444 0.939705 6.214219
-1.755676 0.999711 6.254451
-1.825116 1.059386 6.296493
-1.892191 1.118008 6.343528
-1.957284 1.175701 6.394382
-2.026101 1.235118 6.437474
-2.103921 1.295903 6.443299
-2.172079 1.339878 6.385320
-2.226760 1.370944 6.306681
-2.278920 1.400639 6.225763
-2.335505 1.435503 6.150090
-2.396825 1.473749 6.079904
-2.461333 1.510750 6.011935
-2.527581 1.543012 5.943232
-2.595696 1.571035 5.874490
-2.666220 1.595825 5.806945
-2.739334 1.618247 5.741351
-2.814035 1.639184 5.677062
-2.889162 1.659582 5.613095
-2.964026 1.679915 5.548799
-3.039114 1.699371 5.484495
-3.115075 1.716927 5.420675
-3.192208 1.732103 5.357654
-3.270057 1.745822 5.295178
-3.348096 1.759228 5.232872
-3.425919 1.773147 5.170408
-3.503363 1.787638 5.107603
-3.580298 1.802648 5.044298
-3.656697 1.818086 4.980449
-3.732775 1.833774 4.916278
-3.808783 1.849523 4.852037
-3.884896 1.865195 4.787905
-3.961129 1.880767 4.723889
-4.037472 1.896228 4.659977
-4.113852 1.911586 4.596085
-4.190068 1.926882 4.531984
-4.265903 1.942161 4.467427
-4.341479 1.957450 4.402570
-4.417603 1.972735 4.338358
-4.495137 1.987994 4.275852
-4.574429 2.003035 4.215536
-4.654946 2.017366 4.156686
-4.736091 2.030480 4.098417
-4.817436 2.042858 4.040265
-4.898838 2.056788 3.982550
-4.980084 2.074737 3.925749
-5.061021 2.097471 3.870225
-5.141987 2.122798 3.815866
-5.223494 2.148312 3.762411
-5.305321 2.173915 3.709492
-5.385899 2.203283 3.656640
-5.463110 2.240334 3.603645
-5.535213 2.286711 3.550790
-5.602056 2.340938 3.498474
-5.663826 2.401549 3.446919
-5.721248 2.467083 3.396349
-5.775830 2.535902 3.346996
-5.829270 2.606532 3.298962
-5.882082 2.678756 3.252640
-5.933172 2.753771 3.208913
-5.981259 2.832662 3.168762
-6.026283 2.914869 3.131809
-6.069816 2.998349 3.095922
-6.113560 3.081200 3.058863
-6.158164 3.162613 3.019697
-6.203138 3.243018 2.978904
-6.247973 3.322938 2.937018
-6.292586 3.402615 2.894436
-6.337336 3.481980 2.851418
-6.382591 3.560955 2.808212
-6.428401 3.639582 2.764954
-6.474492 3.718030 2.721670
-6.520596 3.796462 2.678372
-6.566774 3.874804 2.634989
-6.613405 3.952743 2.591366
-6.660858 4.029966 2.547358
-6.709063 4.106527 2.503013
-6.757552 4.182837 2.458543
-6.805878 4.259298 2.414154
-6.854163 4.335792 2.369781
-6.903047 4.411736 2.325118
-6.953133 4.486548 2.279883
-7.004311 4.560302 2.234135
-7.055876 4.633675 2.188207
-7.107165 4.707324 2.142412
-7.158308 4.781116 2.096683
-7.210098 4.854260 2.050645
-7.263276 4.925974 2.003947
-7.317740 4.996317 1.956649
-7.372753 5.066062 1.909096
-7.427627 5.135959 1.861607
-7.482453 5.205907 1.814138
-7.537910 5.275149 1.766369
-7.594627 5.342945 1.718013
-7.652543 5.409319 1.669106
-7.711121 5.474886 1.619896
-7.769869 5.540238 1.570605
-7.828835 5.605315 1.521209
-7.888435 5.669585 1.471521
-7.949053 5.732533 1.421373
-8.010677 5.794128 1.370774
-8.073052 5.854681 1.319839
-8.135946 5.914496 1.268667
-8.199331 5.973595 1.217272
-8.263310 6.031820 1.165615
-8.327980 6.089005 1.113660
-8.393414 6.145011 1.061376
-8.459665 6.199706 1.008736
-8.526769 6.252984 0.955725
-8.594596 6.305025 0.902405
-8.662926 6.356186 0.848876
-8.731585 6.406769 0.795216
-8.800742 6.456446 0.741353
-8.870748 6.504523 0.687138
-8.941873 6.550389 0.632467
-9.013867 6.594459 0.577454
-9.086240 6.637725 0.522298
-9.158596 6.681035 0.467155
-9.231201 6.723804 0.411917
-9.304638 6.764690 0.356360
-9.379341 6.802534 0.300340
-9.454956 6.838040 0.244007
-9.530821 6.872882 0.187594
-9.606413 6.908463 0.131275
-9.682044 6.943937 0.074942
-9.758410 6.977378 0.018364
-9.836008 7.007140 -0.038586
-9.914478 7.034050 -0.095769
-9.993197 7.060100 -0.153011
-10.071683 7.086962 -0.210197
-10.150140 7.113920 -0.267378
-10.229066 7.139213 -0.324670
-10.308812 7.161356 -0.382127
-10.389160 7.180951 -0.439675
-10.469742 7.199487 -0.497250
-10.550286 7.218200 -0.554821
-10.630886 7.236658 -0.612396
-10.711767 7.253761 -0.669993
-10.793084 7.268597 -0.727602
-10.874747 7.281471 -0.785198
-10.956603 7.293155 -0.842773
-11.038545 7.304296 -0.900334
-11.120587 7.314778 -0.957876
-11.202779 7.324212 -1.015385
-11.285155 7.332263 -1.072842
-11.367701 7.338918 -1.130232
-11.450392 7.344278 -1.187549
-11.533206 7.348459 -1.244788
-11.616111 7.351667 -1.301956
-11.699080 7.354142 -1.359071
-11.782094 7.356030 -1.416140
-11.865178 7.357007 -1.473132
-11.948353 7.356601 -1.529994
-12.031623 7.354505 -1.586683
-12.114944 7.351212 -1.643239
-12.198282 7.347453 -1.699742
-12.281618 7.343736 -1.756251
-12.364969 7.339533 -1.812702
-12.448356 7.334019 -1.868988
-12.531768 7.326596 -1.925014
-12.615179 7.317658 -1.980821
-12.698582 7.307869 -2.036499
-12.781983 7.297892 -2.092148
-12.865389 7.288387 -2.147869
-12.948803 7.280017 -2.203760
