0.182148 0.182122 0.181740 0.180170 0.177682 0.175633 0.173585 0.171537 0.169773 0.168660 0.168430 0.168414 0.168398 0.168168 0.167172 0.165594 0.164188 0.162782 0.161375 0.160078 0.159258 0.159083 0.159070 0.159058 0.158880 0.158080 0.156814 0.155575 0.154336 0.153097 0.151905 0.151153 0.150992 0.150980 0.150969 0.150809 0.150095 0.148964 0.147914 0.146865 0.145815 0.144851 0.144243 0.144115 0.144107 0.144098 0.143969 0.143405 0.142510 0.141682 0.140853 0.140024 0.139254 0.138767 0.138664 0.138656 
0.182161 0.182187 0.182443 0.183175 0.184223 0.185018 0.185814 0.186609 0.187321 0.187819 0.187971 0.187986 0.188001 0.188152 0.188640 0.189339 0.190050 0.190761 0.191472 0.192187 0.192686 0.192840 0.192856 0.192871 0.193025 0.193527 0.194247 0.194951 0.195655 0.196360 0.197040 0.197515 0.197655 0.197669 0.197683 0.197821 0.198260 0.198890 0.199461 0.200031 0.200602 0.201099 0.201445 0.201544 0.201554 0.201564 0.201664 0.201964 0.202393 0.202716 0.203039 0.203362 0.203576 0.203726 0.203759 0.203762 0.203765 0.203796 0.203863 0.203958 0.203924 0.203890 0.203856 0.203671 0.203542 0.203491 0.203486 0.203480 0.203425 0.203200 0.202878 0.202434 0.201991 0.201547 0.201011 0.200637 0.200511 0.200498 0.200485 0.200358 0.199913 0.199276 0.198561 0.197846 0.197131 0.196365 0.195830 0.195659 0.195641 0.195624 0.195451 0.194891 0.194088 0.193250 0.192413 0.191575 0.190710 0.190107 0.189921 0.189903 
0.182154 0.182150 0.182093 0.181129 0.179602 0.178994 0.178386 0.177777 0.177787 0.177793 0.177786 0.177786 0.177785 0.177777 0.177540 0.177163 0.176439 0.175715 0.174991 0.173909 0.173226 0.173025 0.173011 0.172998 0.172799 0.171826 0.170285 0.168886 0.167486 0.166087 0.164737 0.163885 0.163685 0.163672 0.163658 0.163454 0.162355 0.160615 0.158134 0.155653 0.153171 0.149737 0.147569 0.147021 0.146984 0.146949 0.146406 0.143765 0.139580 0.136084 0.132589 0.129093 0.126898 0.125512 0.125263 0.125247 0.125231 0.124992 0.124072 0.122616 0.121688 0.120760 0.119832 0.119219 0.118833 0.118760 0.118755 0.118750 0.118679 0.118394 0.117944 0.117618 0.117292 0.116967 0.116724 0.116572 0.116541 0.116539 0.116537 0.116507 0.116382 0.116183 0.116019 0.115855 0.115691 0.115553 0.115466 0.115448 0.115447 0.115445 0.115428 0.115352 0.115232 0.115132 0.115031 0.114931 0.114847 0.114794 0.114783 0.114782 0.114782 0.114771 0.114725 0.114653 0.114591 0.114530 0.114469 0.114417 0.114384 0.114377 0.114377 0.114376 0.114370 0.114341 0.114295 0.114256 0.114217 0.114177 0.114145 0.114125 0.114120 0.114120 0.114120 0.114116 0.114099 0.114072 0.114048 0.114023 0.113999 0.113941 0.113905 0.113891 0.113890 
0.144104 0.144094 0.144024 0.143839 0.143592 0.143344 0.143097 0.142850 0.142603 0.142419 0.142349 0.142339 0.142330 0.142260 0.142074 0.141826 0.141577 0.141327 0.141078 0.140829 0.140641 0.140571 0.140562 0.140552 0.140482 0.140294 0.140044 0.139798 0.139551 0.139304 0.139106 0.138957 0.138908 0.138901 0.138894 0.138846 0.138722 0.138556 0.138408 0.138261 0.138114 0.137980 0.137879 0.137844 0.137839 0.137834 0.137799 0.137708 0.137588 0.137480 0.137371 0.137263 0.137167 0.137094 0.137068 0.137064 0.137060 0.137034 0.136970 0.136884 0.136806 0.136728 0.136650 0.136579 0.136526 0.136508 0.136505 0.136503 0.136484 0.136436 0.136371 0.136311 0.136251 0.136191 0.136134 0.136091 0.136076 0.136073 
0.150978 0.150968 0.150938 0.150870 0.150779 0.150687 0.150596 0.150504 0.150409 0.150337 0.150305 0.150294 0.150284 0.150251 0.150177 0.150080 0.149979 0.149879 0.149778 0.149677 0.149599 0.149565 0.149554 0.149543 0.149509 0.149431 0.149329 0.149226 0.149122 0.149018 0.148913 0.148834 0.148799 0.148788 0.148777 0.148741 0.148660 0.148554 0.148448 0.148341 0.148235 0.148128 0.148047 0.148010 0.147998 0.147986 0.147950 0.147868 0.147760 0.147653 0.147546 0.147439 0.147332 0.147250 0.147214 0.147203 0.147191 0.147155 0.147074 0.146966 0.146858 0.146750 0.146641 0.146532 0.146450 0.146413 0.146401 0.146390 0.146353 0.146270 0.146161 0.146051 0.145941 0.145831 0.145721 0.145637 0.145600 0.145588 0.145576 0.145539 0.145455 0.145345 0.145235 0.145124 0.145014 0.144921 0.144851 0.144823 0.144814 0.144805 0.144777 0.144716 0.144634 0.144557 0.144480 0.144403 0.144331 0.144276 0.144252 0.144244 0.144236 0.144212 0.144159 0.144088 0.144023 0.143958 0.143892 0.143828 0.143779 0.143758 0.143751 0.143744 0.143722 0.143677 0.143618 0.143560 0.143501 0.143443 0.143387 0.143344 0.143326 0.143320 0.143315 0.143296 0.143256 0.143203 0.143150 0.143098 0.143046 0.142997 0.142960 0.142944 0.142939 0.142933 0.142917 0.142880 0.142832 0.142786 0.142740 0.142694 0.142649 0.142615 0.142600 0.142595 0.142590 0.142575 0.142542 0.142499 0.142457 0.142416 0.142374 0.142333 0.142301 0.142287 0.142283 0.142279 0.142266 0.142237 0.142198 0.142160 0.142121 0.142082 0.142046 0.142018 0.142006 0.142002 0.141998 0.141986 0.141958 0.141922 0.141887 0.141851 0.141816 0.141782 0.141756 0.141744 0.141740 0.141737 0.141725 0.141699 0.141664 0.141631 0.141599 0.141566 0.141533 0.141508 0.141497 0.141494 0.141490 0.141479 0.141455 0.141424 0.141392 0.141359 0.141327 0.141295 0.141271 0.141261 0.141257 
0.168414 0.168413 0.168410 0.168384 0.168349 0.168256 0.168163 0.168070 0.167919 0.167805 0.167753 0.167743 0.167733 0.167679 0.167525 0.167320 0.167065 0.166809 0.166554 0.166264 0.166045 0.165958 0.165941 0.165924 0.165836 0.165606 0.165299 0.165001 0.164704 0.164407 0.164150 0.163957 0.163907 0.163898 0.163888 0.163837 0.163702 0.163523 0.163330 0.163138 0.162945 0.162739 0.162584 0.162520 0.162507 0.162495 0.162430 0.162260 0.162034 0.161789 0.161544 0.161299 0.161035 0.160836 0.160757 0.160742 0.160727 0.160648 0.160437 0.160156 0.159866 0.159576 0.159286 0.159000 0.158784 0.158701 0.158685 0.158669 0.158587 0.158386 0.158120 0.157879 0.157639 0.157398 0.157182 0.157020 0.156964 0.156953 0.156943 0.156887 0.156748 0.156562 0.156397 0.156233 0.156069 0.155924 0.155816 0.155775 0.155767 0.155759 0.155719 0.155618 0.155484 0.155362 0.155240 0.155118 0.155007 0.154923 0.154890 0.154884 0.154877 0.154844 0.154765 0.154659 0.154558 0.154457 0.154356 0.154257 0.154183 0.154155 0.154150 
