XX C6 1
XX C6 2
XX C6 3
XX C6 4
XX C6 5
XX C6 6
XX C6 7
XX C6 8
XX C6 9
XX C6 10
XX C6 11
XX C6 12
XX C6 13
XX C6 14
XX C6 15
XX C6 16
XX C6 17
XX C6 18
XX C6 19
XX C6 20
XX C6 21
XX C6 22
XX C6 23
XX C6 24
XX C6 25
XX C6 26
XX C6 27
XX C6 28
XX C6 29
XX C6 30
XX C6 31
XX C6 32
XX C6 33
XX C6 34
XX C6 35
XX C6 36
XX C6 37
XX C6 38
XX C6 39
XX C6 40
XX C6 41
XX C6 42
XX C6 43
XX C6 44
XX C6 45
XX C6 46
XX C6 47
XX C6 48
XX C6 49
XX C6 50