-2.281331 -1.507606 10.137858
-1.799112 -1.512535 11.293603
-1.316893 -1.517464 12.449349
-2.280561 -1.507614 10.139704
-1.799882 -1.512527 11.291758
-1.798342 -1.512543 11.295449
-1.317664 -1.517456 12.447503
-2.270339 -1.507719 10.164203
-1.810104 -1.512423 11.267258
-1.788120 -1.512647 11.319948
-1.327886 -1.517351 12.423004
-2.223949 -1.508193 10.275387
-2.150458 -1.508944 10.451524
-2.076967 -1.509695 10.627662
-2.003476 -1.510446 10.803799
-1.929985 -1.511197 10.979937
-1.856494 -1.511949 11.156075
-1.741730 -1.513122 11.431132
-1.668239 -1.513873 11.607270
-1.594748 -1.514624 11.783407
-1.521257 -1.515375 11.959545
-1.447766 -1.516126 12.135683
-1.374275 -1.516877 12.311820
32 NaN NaN
-2.281523 -1.507604 10.137396
-2.241649 -1.508012 10.232964
-2.201775 -1.508419 10.328532
-2.161900 -1.508827 10.424100
-2.122026 -1.509235 10.519668
-2.082152 -1.509642 10.615236
-2.042277 -1.510050 10.710804
-2.002403 -1.510457 10.806371
-1.962529 -1.510865 10.901939
-1.922654 -1.511272 10.997507
-1.882780 -1.511680 11.093075
-1.842905 -1.512087 11.188643
-1.803031 -1.512495 11.284211
-1.763157 -1.512903 11.379779
-1.723282 -1.513310 11.475346
-1.683408 -1.513718 11.570914
-1.643534 -1.514125 11.666482
-1.603659 -1.514533 11.762050
-1.563785 -1.514940 11.857618
-1.523911 -1.515348 11.953186
-1.484036 -1.515755 12.048754
-1.444162 -1.516163 12.144321
-1.404288 -1.516570 12.239889
-1.364413 -1.516978 12.335457
-1.324539 -1.517386 12.431025
-1.284664 -1.517793 12.526593
-1.244790 -1.518201 12.622161
-1.204916 -1.518608 12.717729
-1.165041 -1.519016 12.813296
-1.125167 -1.519423 12.908864
-1.085293 -1.519831 13.004432
-1.045418 -1.520238 13.100000
-2.281071 -1.507579 10.137186
-1.842984 -1.482534 9.879448
-1.490598 -1.460626 9.513584
-1.250973 -1.443179 9.065071
-1.113123 -1.429753 8.574761
-1.045800 -1.418787 8.069424
-1.018619 -1.408568 7.560141
-1.009382 -1.398191 7.050175
-1.010474 -1.389419 6.540088
-1.016767 -1.384641 6.029982
-1.022836 -1.383644 5.519851
-1.023031 -1.378109 5.009727
-1.011648 -1.358052 4.500130
-0.985517 -1.317503 3.992292
-0.949541 -1.263148 3.486315
-0.910236 -1.204213 2.981088
-0.872484 -1.147593 2.475479
-0.836381 -1.093389 1.969484
-0.801063 -1.040335 1.463312
-0.765660 -0.987156 0.957158
-0.729305 -0.932583 0.451222
-2.279259 -1.507478 10.136345
-1.844528 -1.482626 9.880715
-1.841439 -1.482442 9.878181
-1.491723 -1.460702 9.515235
-1.489472 -1.460550 9.511933
-1.251662 -1.443237 9.066947
-1.250284 -1.443120 9.063194
-1.113482 -1.429799 8.576728
-1.112763 -1.429707 8.572794
-1.045956 -1.418827 8.071417
-1.045644 -1.418747 8.067430
-1.018678 -1.408609 7.562140
-1.018561 -1.408527 7.558142
-1.009392 -1.398230 7.052174
-1.009372 -1.398152 7.048175
-1.010455 -1.389446 6.542087
-1.010493 -1.389392 6.538088
-1.016740 -1.384648 6.031982
-1.016795 -1.384635 6.027983
-1.022821 -1.383651 5.521851
-1.022851 -1.383637 5.517851
-1.023051 -1.378155 5.011726
-1.023011 -1.378063 5.007727
-1.011725 -1.358175 4.502125
-1.011571 -1.357929 4.498136
-0.985644 -1.317697 3.994279
-0.985390 -1.317309 3.990306
-0.949693 -1.263377 3.488296
-0.949389 -1.262920 3.484334
-0.910389 -1.204441 2.983069
-0.910084 -1.203985 2.979107
-0.872628 -1.147809 2.477463
-0.872339 -1.147376 2.473496
-0.836521 -1.093599 1.971469
-0.836242 -1.093180 1.967500
-0.801201 -1.040542 1.465296
-0.800925 -1.040127 1.461328
-0.765801 -0.987367 0.959142
-0.765520 -0.986946 0.955174
-0.729451 -0.932801 0.453204
-2.261991 -1.506512 10.128331
-1.859851 -1.483526 9.892013
-1.826720 -1.481564 9.866102
-1.503146 -1.461453 9.530470
-1.478744 -1.459827 9.496194
-1.258741 -1.443814 9.084631
-1.243717 -1.442564 9.045308
-1.117189 -1.430247 8.595418
-1.109335 -1.429269 8.554049
-1.047561 -1.419213 8.090406
-1.044157 -1.418363 8.048431
-1.019267 -1.408998 7.581188
-1.018001 -1.408137 7.539094
-1.009499 -1.398600 7.071231
-1.009274 -1.397783 7.029118
-1.010273 -1.389706 6.561146
-1.010676 -1.389133 6.519030
-1.016474 -1.384714 6.051041
-1.017061 -1.384568 6.008924
-1.022679 -1.383719 5.540912
-1.022993 -1.383569 5.498791
-1.023243 -1.378593 5.030781
-1.022820 -1.377625 4.988672
-1.012459 -1.359349 4.521136
-1.010837 -1.356755 4.479125
-0.986858 -1.319545 4.013211
-0.984176 -1.315461 3.971373
-0.951144 -1.265556 3.507177
-0.947938 -1.260741 3.465454
-0.911838 -1.206614 3.001951
-0.908634 -1.201812 2.960226
-0.874001 -1.149870 2.496362
-0.870966 -1.145316 2.454597
-0.837849 -1.095594 1.990378
-0.834913 -1.091185 1.948591
-0.802517 -1.042519 1.484209
-0.799609 -1.038151 1.442415
-0.767136 -0.989372 0.978051
-0.764185 -0.984941 0.936266
-0.730837 -0.934881 0.472101
-2.213400 -1.503796 10.105780
-2.148953 -1.500170 10.073575
-2.085415 -1.496573 10.039604
-2.023168 -1.493019 10.003285
-1.962501 -1.489519 9.964408
-1.903078 -1.486062 9.923669
-1.785300 -1.479094 9.832112
-1.731376 -1.475838 9.784319
-1.679095 -1.472645 9.734726
-1.628938 -1.469532 9.682950
-1.581414 -1.466521 9.628760
-1.535771 -1.463584 9.572992
-1.448556 -1.457792 9.451904
-1.410286 -1.455149 9.390818
-1.373964 -1.452583 9.328549
-1.339926 -1.450110 9.264977
-1.308741 -1.447751 9.199962
-1.279391 -1.445466 9.134108
-1.225239 -1.440999 8.994978
-1.202432 -1.438974 8.926565
-1.181195 -1.437010 8.857647
-1.161657 -1.435112 8.788214
-1.144333 -1.433298 8.718196
-1.128320 -1.431531 8.647873
-1.099689 -1.428037 8.501300
-1.088128 -1.426427 8.430100
-1.077575 -1.424849 8.358744
-1.068046 -1.423302 8.287238
-1.059931 -1.421796 8.215558
-1.052592 -1.420308 8.143797
-1.039973 -1.417284 7.994968
-1.035151 -1.415843 7.922990
-1.030854 -1.414406 7.850979
-1.027054 -1.412971 7.778940
-1.023946 -1.411531 7.706867
-1.021167 -1.410081 7.634781
-1.016426 -1.407040 7.485490
-1.014650 -1.405555 7.413373
-1.013100 -1.404070 7.341251
-1.011772 -1.402586 7.269124
-1.010781 -1.401119 7.196992
-1.009995 -1.399669 7.124856
-1.009000 -1.396745 6.975490
-1.008870 -1.395399 6.903349
-1.008887 -1.394092 6.831207
-1.009044 -1.392828 6.759064
-1.009398 -1.391640 6.686920
-1.009873 -1.390516 6.614776
-1.011188 -1.388403 6.465399
-1.011992 -1.387536 6.393254
-1.012854 -1.386748 6.321110
-1.013767 -1.386043 6.248965
-1.014736 -1.385471 6.176819
-1.015729 -1.385013 6.104673
-1.017808 -1.384382 5.955291
-1.018784 -1.384239 5.883144
-1.019725 -1.384130 5.810996
-1.020625 -1.384046 5.738847
-1.021446 -1.383961 5.666698
-1.022174 -1.383833 5.594547
-1.023393 -1.383379 5.445155
-1.023744 -1.382955 5.373003
-1.023964 -1.382399 5.300851
-1.024048 -1.381698 5.228700
-1.023924 -1.380768 5.156552
-1.023581 -1.379578 5.084409
-1.022271 -1.376377 4.935052
-1.021198 -1.374270 4.862936
-1.019887 -1.371847 4.790835
-1.018343 -1.369113 4.718750
-1.016475 -1.365938 4.646690
-1.014246 -1.362264 4.574664
-1.008743 -1.353410 4.425632
-1.005528 -1.348351 4.353728
-1.002049 -1.342920 4.281863
-0.998342 -1.337170 4.210034
-0.994364 -1.331037 4.138251
-0.990110 -1.324518 4.066519
-0.980735 -1.310224 3.918102
-0.975889 -1.302874 3.846487
-0.970893 -1.295314 3.774905
-0.965779 -1.287589 3.703348
-0.960537 -1.279687 3.631819
-0.955170 -1.271610 3.560320
-0.943846 -1.254596 3.412326
-0.938285 -1.246252 3.340872
-0.932698 -1.237875 3.269424
-0.927103 -1.229489 3.197978
-0.921510 -1.221107 3.126530
-0.915951 -1.212778 3.055074
-0.904566 -1.195714 2.907091
-0.899145 -1.187587 2.835601
-0.893773 -1.179530 2.764100
-0.888436 -1.171526 2.692590
-0.883136 -1.163576 2.621071
-0.877887 -1.155701 2.549540
-0.867111 -1.139530 2.401411
-0.861957 -1.131793 2.329858
-0.856834 -1.124102 2.258299
-0.851732 -1.116442 2.186734
-0.846650 -1.108811 2.115164
-0.841597 -1.101223 2.043588
-0.831180 -1.085578 1.895377
-0.826171 -1.078054 1.823791
-0.821174 -1.070547 1.752203
-0.816184 -1.063051 1.680613
-0.811199 -1.055562 1.609022
-0.806219 -1.048081 1.537429
-0.795906 -1.032587 1.389195
-0.790920 -1.025098 1.317604
-0.785927 -1.017596 1.246015
-0.780925 -1.010082 1.174427
-0.775914 -1.002555 1.102842
-0.770884 -0.995001 1.031261
-0.760419 -0.979286 0.883060
-0.755336 -0.971653 0.811491
-0.750222 -0.963975 0.739929
-0.745085 -0.956263 0.668372
-0.739924 -0.948518 0.596821
-0.734724 -0.940714 0.525279
106 NaN NaN
-2.281523 -1.507604 10.137396
-2.189565 -1.502463 10.094718
-2.099638 -1.497385 10.047903
-2.012069 -1.492385 9.996809
-1.927203 -1.487478 9.941335
-1.845399 -1.482678 9.881430
-1.767014 -1.478004 9.817107
-1.692390 -1.473470 9.748450
-1.621830 -1.469091 9.675613
-1.555587 -1.464879 9.598819
-1.493846 -1.460845 9.518351
-1.436718 -1.456994 9.434536
-1.384233 -1.453329 9.347728
-1.336347 -1.449850 9.258293
-1.292948 -1.446550 9.166589
-1.253868 -1.443424 9.072956
-1.218898 -1.440462 8.977704
-1.187798 -1.437651 8.881114
-1.160311 -1.434981 8.783429
-1.136169 -1.432437 8.684861
-1.115102 -1.430006 8.585585
-1.096845 -1.427674 8.485752
-1.081139 -1.425427 8.385484
-1.067732 -1.423251 8.284880
-1.056383 -1.421134 8.184021
-1.046860 -1.419060 8.082973
-1.038942 -1.417018 7.981785
-1.032412 -1.414994 7.880497
-1.027062 -1.412975 7.779140
-1.022690 -1.410948 7.677736
-1.019094 -1.408899 7.576302
-1.016114 -1.406822 7.474849
-1.013697 -1.404730 7.373380
-1.011810 -1.402643 7.271901
-1.010416 -1.400578 7.170413
-1.009478 -1.398554 7.068919
-1.008959 -1.396589 6.967421
-1.008819 -1.394704 6.865920
-1.009018 -1.392916 6.764417
-1.009515 -1.391245 6.662913
-1.010270 -1.389709 6.561409
-1.011241 -1.388328 6.459904
-1.012385 -1.387121 6.358399
-1.013660 -1.386106 6.256894
-1.015024 -1.385301 6.155388
-1.016435 -1.384724 6.053880
-1.017848 -1.384372 5.952372
-1.019220 -1.384177 5.850863
-1.020506 -1.384059 5.749353
-1.021660 -1.383939 5.647841
-1.022638 -1.383738 5.546327
-1.023396 -1.383378 5.444812
-1.023888 -1.382781 5.343296
-1.024070 -1.381867 5.241782
-1.023897 -1.380559 5.140272
-1.023323 -1.378777 5.038771
-1.022304 -1.376443 4.937284
-1.020794 -1.373477 4.835820
-1.018748 -1.369801 4.734389
-1.016121 -1.365336 4.633003
-1.012866 -1.360000 4.531678
-1.008957 -1.353747 4.430428
-1.004434 -1.346629 4.329260
-0.999348 -1.338720 4.228179
-0.993751 -1.330092 4.127182
-0.987695 -1.320820 4.026270
-0.981232 -1.310976 3.925437
-0.974413 -1.300635 3.824677
-0.967291 -1.289869 3.723982
-0.959916 -1.278751 3.623344
-0.952340 -1.267353 3.522752
-0.944614 -1.255748 3.422195
-0.936789 -1.244009 3.321662
-0.928917 -1.232206 3.221139
-0.921047 -1.220413 3.120616
-0.913231 -1.208701 3.020078
-0.905508 -1.197127 2.919518
-0.897881 -1.185692 2.818934
-0.890343 -1.174387 2.718329
-0.882886 -1.163202 2.617704
-0.875505 -1.152127 2.517062
-0.868191 -1.141151 2.416403
-0.860939 -1.130266 2.315731
-0.853742 -1.119460 2.215046
-0.846592 -1.108724 2.114350
-0.839483 -1.098049 2.013645
-0.832409 -1.087423 1.912932
-0.825361 -1.076837 1.812213
-0.818334 -1.066281 1.711489
-0.811320 -1.055744 1.610763
-0.804313 -1.045218 1.510035
-0.797306 -1.034691 1.409307
-0.790292 -1.024154 1.308580
-0.783264 -1.013596 1.207857
-0.776215 -1.003009 1.107138
-0.769139 -0.992381 1.006426
-0.762029 -0.981702 0.905721
-0.754877 -0.970963 0.805026
-0.747677 -0.960154 0.704341
-0.740422 -0.949265 0.603669
-0.733105 -0.938285 0.503012
-0.725720 -0.927204 0.402370
-0.718260 -0.916014 0.301746
-0.710718 -0.904703 0.201142
-0.703086 -0.893261 0.100559
-0.695359 -0.881680 0.000000
-2.281869 -1.507964 10.137424
-3.510958 -1.723693 9.996788
-4.387325 -0.785078 9.620484
-4.994147 0.389582 9.330235
-5.616556 1.554910 9.034679
-6.254609 2.711727 8.739150
-6.863606 3.879181 8.425092
-7.540509 5.002122 8.089872
-8.336803 6.031890 7.722197
-9.287838 6.903156 7.317607
-10.391771 7.552320 6.886221
-11.605632 7.955551 6.448833
-12.875968 8.138147 6.021947
-2.283254 -1.509404 10.137534
-3.509246 -1.724596 9.997291
-3.512671 -1.722791 9.996284
-4.386373 -0.786780 9.620927
-4.388276 -0.783375 9.620042
-4.993224 0.387864 9.330678
-4.995070 0.391300 9.329793
-5.615625 1.553195 9.035116
-5.617486 1.556626 9.034241
-6.253691 2.710008 8.739598
-6.255527 2.713447 8.738703
-6.862670 3.877480 8.425569
-6.864543 3.880883 8.424616
-7.539438 5.000514 8.090387
-7.541581 5.003730 8.089356
-8.335515 6.030471 7.722769
-8.338092 6.033308 7.721626
-9.286318 6.902015 7.318228
-9.289359 6.904297 7.316985
-10.390040 7.551554 6.886868
-10.393501 7.553086 6.885574
-11.603786 7.955127 6.449474
-11.607479 7.955974 6.448192
-12.874072 8.138010 6.022567
-2.303029 -1.529972 10.139106
-3.484777 -1.737485 10.004483
-3.537139 -1.709901 9.989092
-4.372777 -0.811105 9.627253
-4.401609 -0.758870 9.613862
-4.980026 0.363322 9.337010
-5.008257 0.415851 9.323471
-5.602330 1.528684 9.041363
-5.630782 1.581137 9.027994
-6.240331 2.685553 8.745926
-6.268641 2.738019 8.732313
-6.849284 3.853169 8.432378
-6.877929 3.905194 8.417806
-7.524129 4.977536 8.097751
-7.557021 5.026608 8.081956
-8.317100 6.010203 7.730937
-8.356506 6.053576 7.713457
-9.264591 6.885714 7.327105
-9.311102 6.920575 7.308105
-10.365424 7.540365 6.896110
-10.418225 7.564031 6.876326
-11.577403 7.949078 6.458635
-11.633862 7.962023 6.439030
-12.846972 8.136049 6.031419
-2.398004 -1.618651 10.144539
-2.571743 -1.728895 10.143448
-2.764526 -1.800119 10.131009
-2.966634 -1.832741 10.108240
-3.170052 -1.827540 10.075990
-3.367256 -1.784434 10.034817
-3.643922 -1.643767 9.954813
-3.798304 -1.519928 9.896518
-3.940446 -1.383570 9.834901
-4.074078 -1.239510 9.771794
-4.197678 -1.085805 9.711145
-4.308913 -0.920610 9.657239
-4.460554 -0.645919 9.586654
-4.550884 -0.465164 9.544527
-4.640446 -0.284206 9.501632
-4.731157 -0.104114 9.457529
-4.824396 0.074365 9.412170
-4.919638 0.251601 9.366086
-5.068140 0.527954 9.294824
-5.162334 0.706059 9.249956
-5.256396 0.884274 9.205242
-5.350968 1.062152 9.160264
-5.446124 1.239664 9.115075
-5.541769 1.416907 9.069861
-5.691438 1.692869 8.999524
-5.787519 1.869905 8.954425
-5.883755 2.046862 8.909344
-5.980933 2.223330 8.864369
-6.079701 2.398953 8.819558
-6.178792 2.574361 8.774611
-6.327717 2.850375 8.702997
-6.418594 3.029590 8.655776
-6.508509 3.209139 8.607978
-6.599959 3.387855 8.559976
-6.693505 3.565435 8.511797
-6.788623 3.742083 8.463267
-6.939363 4.015769 8.386614
-7.038120 4.190028 8.336738
-7.138879 4.362976 8.286307
-7.241819 4.534456 8.235274
-7.347071 4.704329 8.183587
-7.454785 4.872435 8.131198
-7.628022 5.130450 8.048055
-7.742867 5.293122 7.993706
-7.860798 5.453290 7.938534
-7.981962 5.610724 7.882512
-8.106497 5.765189 7.825619
-8.234526 5.916433 7.767843
-8.441255 6.145171 7.676025
-8.578661 6.287013 7.615980
-8.719850 6.424710 7.555068
-8.864869 6.557978 7.493312
-9.013702 6.686583 7.430752
-9.166308 6.810304 7.367438
-9.411546 6.992868 7.267389
-9.573453 7.103177 7.202425
-9.738790 7.207955 7.136945
-9.907411 7.307071 7.071028
-10.079143 7.400443 7.004755
-10.253799 7.488018 6.938212
-10.531374 7.612930 6.834149
-10.712600 7.685653 6.767276
-10.896027 7.752637 6.700409
-11.081446 7.813970 6.633613
-11.268658 7.869757 6.566950
-11.457469 7.920117 6.500472
-11.754519 7.988050 6.397345
-11.946610 8.025150 6.331546
-12.139691 8.057372 6.266073
-12.333616 8.084884 6.200951
-12.528256 8.107859 6.136201
-12.723490 8.126469 6.071838
171 NaN NaN
-2.281523 -1.507604 10.137396
-2.351338 -1.580215 10.142945
-2.429182 -1.644331 10.145603
-2.513726 -1.699386 10.145389
-2.603616 -1.745107 10.142382
-2.697573 -1.781443 10.136699
-2.794441 -1.808464 10.128467
-2.893185 -1.826293 10.117806
-2.992870 -1.835044 10.104822
-3.092623 -1.834786 10.089600
-3.191587 -1.825525 10.072205
-3.288876 -1.807203 10.052691
-3.383530 -1.779707 10.031106
-3.474470 -1.742915 10.007513
-3.560872 -1.697399 9.982116
-3.642656 -1.644719 9.955270
-3.720155 -1.586443 9.927275
-3.793951 -1.523955 9.898346
-3.864759 -1.458449 9.868622
-3.933347 -1.390932 9.838189
-4.000046 -1.321755 9.807293
-4.064653 -1.250621 9.776396
-4.126913 -1.177219 9.745995
-4.186545 -1.101267 9.716610
-4.243239 -1.022532 9.688783
-4.296722 -0.940909 9.662998
-4.347218 -0.856830 9.639145
-4.395246 -0.770907 9.616799
-4.441360 -0.683674 9.595515
-4.486136 -0.595599 9.574844
-4.530158 -0.507107 9.554333
-4.573925 -0.418534 9.533625
-4.617674 -0.330016 9.512651
-4.661599 -0.241651 9.491396
-4.705892 -0.153543 9.469844
-4.750744 -0.065794 9.447981
-4.796309 0.021506 9.425804
-4.842491 0.108421 9.403386
-4.889081 0.195082 9.380834
-4.935872 0.281628 9.358251
-4.982659 0.368195 9.335743
-5.029241 0.454918 9.313411
-5.075539 0.541846 9.291289
-5.121635 0.628921 9.269319
-5.167620 0.716077 9.247441
-5.213585 0.803251 9.225591
-5.259621 0.890379 9.203708
-5.305803 0.977410 9.181745
-5.352135 1.064342 9.159709
-5.398606 1.151188 9.137624
-5.445205 1.237958 9.115511
-5.491920 1.324664 9.093391
-5.538742 1.411316 9.071287
-5.585648 1.497928 9.049203
-5.632612 1.584512 9.027134
-5.679608 1.671081 9.005074
-5.726609 1.757649 8.983020
-5.773589 1.844228 8.960965
-5.820562 1.930811 8.938910
-5.867622 2.017349 8.916864
-5.914872 2.103789 8.894840
-5.962415 2.190076 8.872848
-6.010351 2.276157 8.850900
-6.058738 2.361997 8.829001
-6.107357 2.447707 8.807101
-6.155886 2.533449 8.785133
-6.204004 2.619389 8.763029
-6.251384 2.705684 8.740722
-6.297709 2.792481 8.718149
-6.342957 2.879774 8.695303
-6.387428 2.967408 8.672233
-6.431443 3.055225 8.648992
-6.475325 3.143077 8.625627
-6.519397 3.230814 8.602188
-6.563959 3.318295 8.578720
-6.609081 3.405482 8.555227
-6.654700 3.492397 8.531688
-6.700749 3.579068 8.508084
-6.747162 3.665520 8.484392
-6.793875 3.751781 8.460591
-6.840856 3.837861 8.436665
-6.888140 3.923740 8.412612
-6.935774 4.009388 8.388430
-6.983802 4.094780 8.364119
-7.032267 4.179887 8.339677
-7.081212 4.264681 8.315104
-7.130661 4.349142 8.290394
-7.180629 4.433255 8.265542
-7.231132 4.517004 8.240541
-7.282184 4.600372 8.215384
-7.333801 4.683343 8.190066
-7.386000 4.765897 8.164581
-7.438804 4.848012 8.138925
-7.492234 4.929666 8.113092
-7.546314 5.010834 8.087080
-7.601064 5.091491 8.060884
-7.656505 5.171614 8.034500
-7.712656 5.251176 8.007924
-7.769537 5.330153 7.981154
-7.827164 5.408518 7.954185
-7.885556 5.486246 7.927014
-7.944728 5.563308 7.899638
-8.004698 5.639677 7.872055
-8.065480 5.715324 7.844263
-8.127088 5.790221 7.816260
-8.189538 5.864338 7.788045
-8.252843 5.937644 7.759617
-8.317014 6.010109 7.730976
-8.382061 6.081702 7.702121
-8.447993 6.152395 7.673055
-8.514817 6.222157 7.643777
-8.582542 6.290955 7.614291
-8.651173 6.358759 7.584596
-8.720713 6.425539 7.554697
-8.791162 6.491267 7.524598
-8.862522 6.555914 7.494302
-8.934792 6.619451 7.463815
-9.007971 6.681846 7.433140
-9.082054 6.743075 7.402283
-9.157033 6.803113 7.371253
-9.232900 6.861935 7.340054
-9.309647 6.919519 7.308696
-9.387264 6.975839 7.277184
-9.465739 7.030873 7.245527
-9.545057 7.084606 7.213735
-9.625201 7.137021 7.181815
-9.706156 7.188102 7.149778
-9.787903 7.237833 7.117632
-9.870427 7.286200 7.085387
-9.953705 7.333196 7.053053
-10.037715 7.378813 7.020640
-10.122436 7.423046 6.988156
-10.207844 7.465889 6.955613
-10.293920 7.507338 6.923019
-10.380638 7.547391 6.890385
-10.467973 7.586053 6.857719
-10.555901 7.623328 6.825030
-10.644398 7.659219 6.792328
-10.733440 7.693730 6.759621
-10.823004 7.726870 6.726918
-10.913063 7.758648 6.694225
-11.003594 7.789077 6.661551
-11.094572 7.818168 6.628903
-11.185976 7.845933 6.596288
-11.277783 7.872386 6.563712
-11.369969 7.897542 6.531182
-11.462512 7.921418 6.498702
-11.555392 7.944032 6.466279
-11.648588 7.965399 6.433916
-11.742080 7.985539 6.401620
-11.835848 8.004469 6.369394
-11.929874 8.022208 6.337241
-12.024140 8.038777 6.305166
-12.118628 8.054194 6.273171
-12.213322 8.068480 6.241260
-12.308206 8.081654 6.209435
-12.403265 8.093737 6.177698
-12.498484 8.104749 6.146052
-12.593849 8.114710 6.114498
-12.689347 8.123641 6.083038
-12.784966 8.131561 6.051673
-12.880693 8.138489 6.020404
-12.976517 8.144446 5.989233
-13.072428 8.149449 5.958160
-13.168414 8.153519 5.927186
-13.264468 8.156674 5.896311
-13.360578 8.158933 5.865536
-13.456737 8.160315 5.834861
-13.552936 8.160841 5.804286
-13.649168 8.160528 5.773810
-13.745425 8.159396 5.743434
-1.250654 -1.442795 9.065047
-1.091459 -1.241644 9.053559
-0.949569 -1.027840 9.045558
-0.832915 -0.799285 9.042401
-0.752360 -0.555844 9.045771
-0.719859 -0.301890 9.057226
-0.750717 -0.048537 9.078404
-0.840840 0.189399 9.107713
-0.980257 0.401634 9.142951
-1.153645 0.586759 9.181666
-1.348652 0.748704 9.222208
-1.249378 -1.441258 9.064950
-1.092634 -1.243261 9.053635
-1.090283 -1.240028 9.053483
-0.950611 -1.029546 9.045608
-0.948527 -1.026134 9.045508
-0.833666 -0.801139 9.042397
-0.832163 -0.797432 9.042405
-0.752833 -0.557786 9.045718
-0.751888 -0.553901 9.045824
-0.719939 -0.303884 9.057109
-0.719943 -0.299897 9.057368
-0.750220 -0.050464 9.078202
-0.751214 -0.046610 9.078605
-0.839973 0.187614 9.107464
-0.841707 0.191184 9.107962
-0.978990 0.400115 9.142657
-0.981525 0.403153 9.143245
-1.152205 0.585407 9.181356
-1.155085 0.588112 9.181975
-1.347082 0.747507 9.221889
-1.242684 -1.433197 9.064441
-1.098798 -1.251739 9.054035
-1.084119 -1.231550 9.053083
-0.956077 -1.038496 9.045870
-0.943062 -1.017184 9.045246
-0.837606 -0.810860 9.042373
-0.828223 -0.787710 9.042428
-0.755312 -0.567975 9.045439
-0.749409 -0.543712 9.046103
-0.720550 -0.314339 9.056525
-0.720386 -0.289443 9.058114
-0.747613 -0.060569 9.077146
-0.753820 -0.036505 9.079662
-0.835426 0.178252 9.106156
-0.846255 0.200546 9.109270
-0.972343 0.392147 9.141117
-0.988172 0.411120 9.144785
-1.144650 0.578312 9.179732
-1.162639 0.595207 9.183599
-1.338892 0.741169 9.220216
-1.225573 -1.412594 9.063140
-1.202824 -1.385201 9.061411
-1.180172 -1.357731 9.059702
-1.158264 -1.329651 9.058147
-1.136356 -1.301572 9.056591
-1.114554 -1.273411 9.055058
-1.068363 -1.209877 9.052060
-1.047760 -1.180821 9.050769
-1.027915 -1.151229 9.049630
-1.008070 -1.121636 9.048491
-0.988620 -1.091789 9.047429
-0.970047 -1.061374 9.046539
-0.929849 -0.993865 9.044722
-0.912750 -0.962591 9.044115
-0.895652 -0.931316 9.043508
-0.879429 -0.899591 9.043065
-0.864044 -0.867434 9.042779
-0.848660 -0.835277 9.042494
-0.818150 -0.762860 9.042487
-0.804759 -0.729822 9.042566
-0.793009 -0.696187 9.042936
-0.781928 -0.662308 9.043425
-0.770847 -0.628428 9.043914
-0.761648 -0.594020 9.044727
-0.743073 -0.517667 9.046815
-0.737393 -0.482513 9.048219
-0.731980 -0.447308 9.049667
-0.726567 -0.412102 9.051115
-0.724188 -0.376599 9.053050
-0.722112 -0.341066 9.055033
-0.721518 -0.262721 9.060021
-0.723023 -0.227194 9.062556
-0.724939 -0.191712 9.065151
-0.730142 -0.156580 9.068230
-0.735346 -0.121447 9.071309
-0.740950 -0.086402 9.074444
-0.760483 -0.010672 9.082363
-0.770424 0.023315 9.086098
-0.782739 0.056523 9.090148
-0.795054 0.089731 9.094198
-0.808346 0.122506 9.098371
-0.823801 0.154321 9.102814
-0.859301 0.223681 9.112780
-0.877516 0.253952 9.117548
-0.895731 0.284222 9.122317
-0.915162 0.313670 9.127220
-0.935747 0.342336 9.132250
-0.956333 0.371002 9.137279
-1.005162 0.431487 9.148723
-1.027751 0.458564 9.153959
-1.051538 0.484551 9.159308
-1.075806 0.510100 9.164704
-1.100075 0.535650 9.170099
-1.125341 0.560176 9.175582
-1.181949 0.613342 9.187750
-1.208693 0.636232 9.193354
-1.235539 0.659005 9.198966
-1.262385 0.681779 9.204579
-1.290128 0.703428 9.210256
-1.317959 0.724968 9.215941
26 NaN NaN
-1.250973 -1.443179 9.065071
-1.182663 -1.360924 9.059878
-1.116878 -1.276608 9.055209
-1.053977 -1.190090 9.051126
-0.994387 -1.101233 9.047705
-0.938618 -1.009907 9.045033
-0.887279 -0.916001 9.043211
-0.841088 -0.819450 9.042353
-0.800882 -0.720258 9.042589
-0.767614 -0.618544 9.044057
-0.742325 -0.514594 9.046899
-0.726077 -0.408911 9.051246
-0.719843 -0.302252 9.057200
-0.724361 -0.195617 9.064809
-0.739979 -0.090167 9.074051
-0.766568 0.012916 9.084830
-0.803532 0.112596 9.096986
-0.849925 0.208101 9.110325
-0.904608 0.298973 9.124641
-0.966410 0.385035 9.139742
-1.034230 0.466329 9.155461
-1.107095 0.543041 9.171660
-1.184177 0.615435 9.188229
-1.264786 0.683816 9.205081
-1.348355 0.748492 9.222149
-1.434419 0.809765 9.239381
-1.018389 -1.408124 7.560149
-0.954399 -1.281953 7.562708
-0.896042 -1.153133 7.566907
-0.844096 -1.021665 7.572920
-0.801013 -0.887173 7.581358
-0.766613 -0.750383 7.592081
-0.741920 -0.611719 7.605263
-0.730149 -0.471713 7.621563
-0.730685 -0.331595 7.640676
-0.744038 -0.192510 7.662560
-0.772786 -0.056320 7.687551
-0.814872 0.075851 7.715028
-0.869245 0.203011 7.744617
-0.936504 0.323351 7.776211
-1.013880 0.437060 7.809204
-1.099680 0.544257 7.843230
-1.193617 0.644120 7.878110
-1.293739 0.737588 7.913529
-1.398810 0.825328 7.949297
-1.017470 -1.406349 7.560181
-0.955257 -1.283759 7.562659
-0.953540 -1.280148 7.562758
-0.896832 -1.154969 7.566837
-0.895251 -1.151297 7.566976
-0.844810 -1.023531 7.572830
-0.843406 -1.019791 7.573018
-0.801549 -0.889095 7.581220
-0.800476 -0.885252 7.581497
-0.767045 -0.752328 7.591915
-0.766180 -0.748437 7.592246
-0.742238 -0.613684 7.605069
-0.741602 -0.609754 7.605457
-0.730209 -0.473696 7.621308
-0.730090 -0.469730 7.621819
-0.730603 -0.333572 7.640389
-0.730768 -0.329617 7.640962
-0.743808 -0.194471 7.662242
-0.744269 -0.190549 7.662878
-0.772257 -0.058212 7.687174
-0.773315 -0.054429 7.687927
-0.814200 0.074011 7.714625
-0.815545 0.077691 7.715430
-0.868436 0.201232 7.744192
-0.870053 0.204790 7.745042
-0.935456 0.321711 7.775750
-0.937552 0.324991 7.776671
-1.012730 0.435494 7.808731
-1.015030 0.438626 7.809678
-1.098440 0.542765 7.842746
-1.100921 0.545749 7.843714
-1.192228 0.642770 7.877612
-1.195006 0.645470 7.878609
-1.292289 0.736305 7.913026
-1.295188 0.738871 7.914033
-1.397308 0.824109 7.948790
-1.014502 -1.400619 7.560283
-0.958027 -1.289585 7.562498
-0.950770 -1.274322 7.562918
-0.899383 -1.160892 7.566614
-0.892701 -1.145374 7.567199
-0.847116 -1.029551 7.572538
-0.841372 -1.013678 7.573384
-0.803280 -0.895295 7.580773
-0.798746 -0.879051 7.581944
-0.768441 -0.758606 7.591382
-0.764785 -0.742159 7.592780
-0.743264 -0.620024 7.604443
-0.740898 -0.603381 7.606161
-0.730400 -0.480093 7.620485
-0.729899 -0.463333 7.622642
-0.730335 -0.339953 7.639463
-0.731036 -0.323237 7.641888
-0.743064 -0.200798 7.661216
-0.745263 -0.184270 7.663955
-0.770550 -0.064315 7.685959
-0.775022 -0.048325 7.689142
-0.812029 0.068074 7.713327
-0.817716 0.083627 7.716728
-0.865827 0.195491 7.742821
-0.872757 0.210479 7.746427
-0.932074 0.316420 7.774265
-0.940935 0.330282 7.778157
-1.009019 0.430441 7.807203
-1.018741 0.443679 7.811206
-1.094437 0.537950 7.841184
-1.104923 0.550564 7.845276
-1.187746 0.638415 7.876003
-1.199487 0.649825 7.880217
-1.287613 0.732165 7.911402
-1.299864 0.743010 7.915656
-1.392463 0.820173 7.947156
-1.007830 -1.387736 7.560513
-0.999039 -1.370763 7.560816
-0.990248 -1.353790 7.561118
-0.981458 -1.336817 7.561421
-0.972667 -1.319845 7.561724
-0.964257 -1.302686 7.562138
-0.944541 -1.261221 7.563278
-0.936334 -1.243962 7.563752
-0.928128 -1.226703 7.564227
-0.920231 -1.209307 7.564790
-0.912675 -1.191759 7.565451
-0.905119 -1.174212 7.566112
-0.886965 -1.132054 7.567701
-0.879628 -1.114420 7.568423
-0.872796 -1.096587 7.569288
-0.865965 -1.078754 7.570153
-0.859133 -1.060921 7.571017
-0.852302 -1.043088 7.571882
-0.836799 -0.999931 7.574208
-0.830775 -0.981821 7.575294
-0.824751 -0.963711 7.576379
-0.818726 -0.945601 7.577465
-0.812702 -0.927491 7.578550
-0.807172 -0.909239 7.579767
-0.794853 -0.865108 7.582949
-0.789726 -0.846740 7.584274
-0.784599 -0.828371 7.585598
-0.779846 -0.809917 7.587019
-0.775713 -0.791320 7.588600
-0.771579 -0.772723 7.590182
-0.761647 -0.728043 7.593980
-0.757736 -0.709408 7.595617
-0.754695 -0.690626 7.597472
-0.751654 -0.671844 7.599326
-0.748613 -0.653063 7.601181
-0.745572 -0.634281 7.603035
-0.739494 -0.589029 7.607787
-0.737645 -0.570123 7.609929
-0.735796 -0.551218 7.612071
-0.733946 -0.532312 7.614213
-0.732097 -0.513406 7.616355
-0.730830 -0.494479 7.618633
-0.729469 -0.448947 7.624494
-0.728902 -0.429995 7.626934
-0.728336 -0.411044 7.629374
-0.728150 -0.392106 7.631898
-0.728942 -0.373204 7.634640
-0.729734 -0.354301 7.637382
-0.731637 -0.308888 7.643969
-0.732580 -0.290003 7.646743
-0.734783 -0.271259 7.649784
-0.736986 -0.252515 7.652825
-0.739189 -0.233771 7.655866
-0.741392 -0.215027 7.658907
-0.748023 -0.170250 7.666483
-0.751659 -0.151780 7.669812
-0.755295 -0.133310 7.673142
-0.758931 -0.114840 7.676471
-0.762567 -0.096370 7.679801
-0.766712 -0.078040 7.683227
-0.778861 -0.034601 7.691875
-0.783918 -0.016520 7.695474
-0.788974 0.001561 7.699074
-0.794285 0.019550 7.702719
-0.800716 0.037137 7.706564
-0.807147 0.054724 7.710409
-0.822598 0.096977 7.719646
-0.829044 0.114557 7.723494
-0.836773 0.131564 7.727555
-0.844502 0.148570 7.731616
-0.852231 0.165576 7.735677
-0.859960 0.182582 7.739738
-0.879536 0.222899 7.749651
-0.888465 0.239259 7.753897
-0.897394 0.255620 7.758144
-0.906324 0.271981 7.762390
-0.915253 0.288341 7.766637
-0.924468 0.304522 7.770924
-0.948540 0.342180 7.781498
-0.958559 0.357855 7.785899
-0.968579 0.373529 7.790300
-0.978684 0.389141 7.794712
-0.989679 0.404110 7.799239
-1.000673 0.419079 7.803766
-1.027087 0.455042 7.814643
-1.038081 0.470011 7.819170
-1.049865 0.484334 7.823789
-1.061722 0.498597 7.828416
-1.073580 0.512860 7.833044
-1.085437 0.527123 7.837671
-1.114485 0.560878 7.848847
-1.127100 0.574448 7.853552
-1.139715 0.588019 7.858258
-1.152329 0.601590 7.862964
-1.164944 0.615160 7.867670
-1.177668 0.628621 7.872385
-1.209565 0.659618 7.883835
-1.222842 0.672520 7.888600
-1.236119 0.685422 7.893366
-1.249395 0.698324 7.898131
-1.263243 0.710593 7.902941
-1.277097 0.722857 7.907751
-1.310380 0.752319 7.919307
-1.324234 0.764582 7.924117
-1.338497 0.776351 7.928954
-1.352853 0.788009 7.933796
-1.367209 0.799666 7.938638
-1.381565 0.811324 7.943480
25 NaN NaN
-1.018619 -1.408568 7.560141
-0.969596 -1.313914 7.561830
-0.923830 -1.217664 7.564475
-0.881691 -1.119807 7.568162
-0.843594 -1.020357 7.572984
-0.809999 -0.919365 7.579037
-0.781406 -0.816934 7.586423
-0.758354 -0.713230 7.595240
-0.741398 -0.608498 7.605581
-0.731087 -0.503078 7.617526
-0.727928 -0.397404 7.631130
-0.732344 -0.292008 7.646418
-0.744628 -0.187496 7.663374
-0.764901 -0.084513 7.681938
-0.793096 0.016299 7.702008
-0.828954 0.114360 7.723447
-0.872050 0.209184 7.746091
-0.921841 0.300411 7.769770
-0.977709 0.387813 7.794311
-1.039017 0.471284 7.819555
-1.105137 0.550821 7.845359
-1.175483 0.626498 7.871601
-1.249522 0.698447 7.898177
-1.326779 0.766835 7.925001
-1.406838 0.831847 7.952005
-1.009139 -1.397755 7.050139
-0.924213 -1.240490 7.038112
-0.848392 -1.078457 7.029505
-0.783647 -0.911522 7.024967
-0.734553 -0.739304 7.026020
-0.703157 -0.563249 7.033183
-0.692821 -0.385114 7.047372
-0.709875 -0.208447 7.070290
-0.753454 -0.037809 7.101205
-0.822484 0.122800 7.139377
-0.916058 0.268708 7.184053
-1.027292 0.400075 7.233017
-1.152080 0.517505 7.285000
-1.287903 0.620926 7.339177
-1.008168 -1.396013 7.049996
-0.925127 -1.242265 7.038233
-0.923299 -1.238715 7.037991
-0.849167 -1.080300 7.029574
-0.847617 -1.076615 7.029435
-0.784269 -0.913422 7.024982
-0.783054 -0.909612 7.024963
-0.735035 -0.741245 7.025985
-0.734070 -0.737364 7.026054
-0.703372 -0.565233 7.033057
-0.702943 -0.561264 7.033309
-0.692706 -0.387097 7.047140
-0.692936 -0.383131 7.047605
-0.709579 -0.210403 7.070001
-0.710172 -0.206490 7.070578
-0.752792 -0.039654 7.100809
-0.754116 -0.035964 7.101601
-0.821496 0.121129 7.138893
-0.823471 0.124471 7.139862
-0.914934 0.267136 7.183534
-0.917181 0.270279 7.184571
-1.025953 0.398703 7.232448
-1.028632 0.401447 7.233586
-1.150589 0.516315 7.284399
-1.153572 0.518694 7.285600
-1.286354 0.619818 7.338566
-1.004395 -1.389242 7.049440
-0.928677 -1.249160 7.038705
-0.919748 -1.231819 7.037520
-0.852177 -1.087458 7.029845
-0.844606 -1.069456 7.029164
-0.786951 -0.920714 7.025132
-0.780749 -0.902191 7.024947
-0.736910 -0.748785 7.025850
-0.732195 -0.729824 7.026189
-0.704205 -0.572944 7.032567
-0.702110 -0.553554 7.033798
-0.692890 -0.394832 7.046438
-0.693384 -0.375426 7.048508
-0.708427 -0.218006 7.068879
-0.711324 -0.198887 7.071700
-0.750219 -0.046823 7.099270
-0.756689 -0.028795 7.103140
-0.818146 0.114347 7.137140
-0.827307 0.130961 7.141743
-0.910569 0.261032 7.181519
-0.921546 0.276384 7.186586
-1.020748 0.393373 7.230237
-1.033836 0.406777 7.235797
-1.144975 0.511461 7.282103
-1.159367 0.523315 7.287932
-1.280334 0.615515 7.336193
-0.995399 -1.373100 7.048115
-0.983496 -1.351743 7.046362
-0.971593 -1.330385 7.044609
-0.959690 -1.309028 7.042856
-0.948345 -1.287355 7.041315
-0.937144 -1.265602 7.039829
-0.911281 -1.215378 7.036396
-0.900659 -1.193326 7.035126
-0.890254 -1.171163 7.033938
-0.879849 -1.149000 7.032749
-0.869443 -1.126836 7.031561
-0.859356 -1.104526 7.030489
-0.837428 -1.052388 7.028520
-0.827930 -1.029806 7.027666
-0.818725 -1.007105 7.026919
-0.810265 -0.984103 7.026444
-0.801805 -0.961101 7.025968
-0.793345 -0.938099 7.025492
-0.775252 -0.884498 7.024909
-0.767980 -0.861089 7.024858
-0.760707 -0.837679 7.024807
-0.753435 -0.814270 7.024756
-0.747296 -0.790547 7.025102
-0.741381 -0.766762 7.025528
-0.727725 -0.711847 7.026511
-0.722993 -0.687819 7.027344
-0.718623 -0.663718 7.028301
-0.714253 -0.639616 7.029258
-0.709883 -0.615515 7.030216
-0.706191 -0.591327 7.031401
-0.700124 -0.535171 7.034964
-0.697496 -0.510848 7.036508
-0.695489 -0.486498 7.038255
-0.694797 -0.462091 7.040434
-0.694105 -0.437685 7.042612
-0.693413 -0.413279 7.044791
-0.694452 -0.357055 7.050663
-0.695864 -0.332750 7.053513
-0.697276 -0.308444 7.056363
-0.698688 -0.284138 7.059214
-0.702047 -0.260115 7.062667
-0.705681 -0.236132 7.066205
-0.714070 -0.180761 7.074374
-0.719535 -0.157236 7.078460
-0.725433 -0.133820 7.082676
-0.731330 -0.110403 7.086892
-0.737228 -0.086986 7.091108
-0.744085 -0.063916 7.095600
-0.762824 -0.011702 7.106810
-0.770940 0.010913 7.111666
-0.779818 0.033163 7.116732
-0.790023 0.054779 7.122166
-0.800228 0.076394 7.127599
-0.810433 0.098010 7.133033
-0.836453 0.146436 7.146229
-0.848554 0.166912 7.152165
-0.860655 0.187387 7.158100
-0.872756 0.207862 7.164036
-0.886393 0.227217 7.170359
-0.900162 0.246476 7.176715
-0.931953 0.290940 7.191390
-0.946946 0.309146 7.198039
-0.962150 0.327169 7.204738
-0.977354 0.345192 7.211438
-0.992559 0.363216 7.218137
-1.008339 0.380665 7.224967
-1.046245 0.419485 7.241067
-1.062663 0.436299 7.248041
-1.079494 0.452644 7.255102
-1.096929 0.468305 7.262291
-1.114364 0.483965 7.269480
-1.131798 0.499625 7.276670
-1.173185 0.534333 7.293493
-1.191468 0.548911 7.300850
-1.209750 0.563489 7.308207
-1.228033 0.578067 7.315565
-1.246994 0.591681 7.323047
-1.265982 0.605256 7.330534
24 NaN NaN
-1.009382 -1.398191 7.050175
-0.957272 -1.304689 7.042500
-0.908232 -1.209456 7.035991
-0.862679 -1.112429 7.030788
-0.821102 -1.013568 7.027053
-0.784067 -0.912873 7.024970
-0.752232 -0.810397 7.024747
-0.726340 -0.706281 7.026611
-0.707212 -0.600784 7.030801
-0.695711 -0.494323 7.037557
-0.692683 -0.387502 7.047092
-0.698863 -0.281126 7.059567
-0.714766 -0.176169 7.075051
-0.740577 -0.073691 7.093501
-0.776096 0.025281 7.114751
-0.820758 0.119880 7.138531
-0.873720 0.209493 7.164509
-0.933988 0.293786 7.192330
-1.000539 0.372676 7.221654
-1.072406 0.446277 7.252179
-1.148725 0.514830 7.283650
-1.228759 0.578646 7.315857
-1.311887 0.638071 7.348634
-1.397597 0.693449 7.381849
-1.010229 -1.388983 6.540081
-0.951266 -1.282823 6.538493
-0.896737 -1.174322 6.537613
-0.847269 -1.063428 6.537527
-0.803589 -0.950140 6.538329
-0.766521 -0.834534 6.540121
-0.736986 -0.716795 6.543012
-0.716552 -0.597182 6.547191
-0.706332 -0.476344 6.552765
-0.706723 -0.355179 6.559735
-0.718393 -0.234688 6.568129
-0.741673 -0.116001 6.577927
-0.776480 -0.000267 6.589052
-0.822330 0.111468 6.601381
-0.879413 0.217773 6.614857
-0.945359 0.318683 6.629176
-1.019010 0.414007 6.644175
-1.099252 0.503774 6.659712
-1.185075 0.588163 6.675666
-1.275599 0.667449 6.691939
-1.009250 -1.387240 6.540053
-0.952183 -1.284601 6.538510
-0.950350 -1.281046 6.538475
-0.897584 -1.176134 6.537620
-0.895890 -1.172510 6.537607
-0.848036 -1.065275 6.537521
-0.846502 -1.061581 6.537533
-0.804266 -0.952022 6.538309
-0.802911 -0.948259 6.538348
-0.767098 -0.836449 6.540086
-0.765944 -0.832620 6.540155
-0.737450 -0.718740 6.542961
-0.736522 -0.714850 6.543063
-0.716751 -0.599170 6.547103
-0.716353 -0.595194 6.547279
-0.706380 -0.478340 6.552657
-0.706284 -0.474347 6.552873
-0.706610 -0.357172 6.559606
-0.706837 -0.353187 6.559863
-0.718112 -0.236662 6.567980
-0.718675 -0.232713 6.568278
-0.741222 -0.117942 6.577757
-0.742124 -0.114060 6.578096
-0.775863 -0.002160 6.588863
-0.777097 0.001626 6.589240
-0.821539 0.109643 6.601174
-0.823252 0.113229 6.601601
-0.878359 0.216090 6.614625
-0.880468 0.219457 6.615090
-0.944188 0.317080 6.628932
-0.946531 0.320285 6.629419
-1.017736 0.412486 6.643923
-1.020284 0.415528 6.644427
-1.097889 0.502333 6.659453
-1.100614 0.505215 6.659971
-1.183637 0.586799 6.675402
-1.186514 0.589527 6.675931
-1.274096 0.666158 6.691670
-1.006433 -1.382226 6.539974
-0.954820 -1.289711 6.538560
-0.947713 -1.275935 6.538425
-0.900018 -1.181344 6.537638
-0.893456 -1.167300 6.537589
-0.850243 -1.070586 6.537504
-0.844296 -1.056270 6.537550
-0.806215 -0.957432 6.538253
-0.800962 -0.942849 6.538404
-0.768758 -0.841954 6.539987
-0.764285 -0.827114 6.540254
-0.738785 -0.724332 6.542815
-0.735188 -0.709258 6.543209
-0.717323 -0.604887 6.546851
-0.715781 -0.589477 6.547531
-0.706517 -0.484081 6.552347
-0.706148 -0.468606 6.553183
-0.706283 -0.362902 6.559236
-0.707163 -0.347457 6.560233
-0.717303 -0.242340 6.567551
-0.719483 -0.227036 6.568707
-0.739926 -0.123524 6.577271
-0.743420 -0.108478 6.578583
-0.774088 -0.007604 6.588322
-0.778872 0.007069 6.589781
-0.819309 0.104375 6.600584
-0.825903 0.118292 6.602234
-0.875327 0.211250 6.613955
-0.883500 0.224297 6.615760
-0.940818 0.312473 6.628232
-0.949900 0.324893 6.630120
-1.014072 0.408113 6.643198
-1.023947 0.419901 6.645152
-1.093971 0.498190 6.658708
-1.104532 0.509359 6.660716
-1.179500 0.582877 6.674641
-1.190650 0.593450 6.676692
-1.269772 0.662446 6.690897
-1.000374 -1.371441 6.539804
-0.992419 -1.357282 6.539580
-0.984465 -1.343124 6.539357
-0.976510 -1.328965 6.539133
-0.968555 -1.314806 6.538909
-0.960601 -1.300647 6.538686
-0.942041 -1.264941 6.538317
-0.934594 -1.250507 6.538175
-0.927148 -1.236074 6.538033
-0.919701 -1.221640 6.537891
-0.912254 -1.207207 6.537749
-0.905255 -1.192553 6.537677
-0.888219 -1.156091 6.537549
-0.881344 -1.141376 6.537497
-0.874469 -1.126661 6.537446
-0.867594 -1.111946 6.537394
-0.861220 -1.097010 6.537420
-0.854989 -1.082011 6.537468
-0.839549 -1.044845 6.537587
-0.833319 -1.029846 6.537635
-0.827088 -1.014847 6.537683
-0.821418 -0.999631 6.537816
-0.815913 -0.984351 6.537974
-0.810408 -0.969071 6.538133
-0.796769 -0.931210 6.538525
-0.791264 -0.915930 6.538683
-0.786387 -0.900444 6.538935
-0.781701 -0.884895 6.539215
-0.777014 -0.869347 6.539494
-0.772328 -0.853798 6.539774
-0.760715 -0.815271 6.540467
-0.756729 -0.799535 6.540849
-0.752960 -0.783742 6.541262
-0.749192 -0.767949 6.541675
-0.745423 -0.752155 6.542087
-0.741655 -0.736362 6.542500
-0.733094 -0.697072 6.543633
-0.730349 -0.681074 6.544191
-0.727604 -0.665075 6.544748
-0.724860 -0.649077 6.545305
-0.722115 -0.633078 6.545863
-0.719370 -0.617080 6.546420
-0.714551 -0.577179 6.548073
-0.712936 -0.561033 6.548786
-0.711321 -0.544887 6.549498
-0.709706 -0.528742 6.550211
-0.708091 -0.512596 6.550923
-0.706811 -0.496432 6.551680
-0.705853 -0.456256 6.553850
-0.705466 -0.440042 6.554726
-0.705079 -0.423829 6.555601
-0.704693 -0.407615 6.556477
-0.704658 -0.391410 6.557398
-0.705580 -0.375228 6.558441
-0.707866 -0.335131 6.561028
-0.708789 -0.318949 6.562071
-0.709711 -0.302766 6.563115
-0.710995 -0.286623 6.564203
-0.713279 -0.270589 6.565415
-0.715563 -0.254554 6.566627
-0.721223 -0.214822 6.569631
-0.723508 -0.198787 6.570843
-0.726152 -0.182823 6.572097
-0.729814 -0.167059 6.573473
-0.733475 -0.151295 6.574848
-0.737137 -0.135531 6.576223
-0.746209 -0.096470 6.579631
-0.750220 -0.080807 6.581045
-0.755232 -0.065434 6.582574
-0.760245 -0.050061 6.584102
-0.765257 -0.034687 6.585630
-0.770270 -0.019314 6.587158
-0.783018 0.018653 6.590980
-0.789317 0.033531 6.592647
-0.795615 0.048409 6.594314
-0.801914 0.063286 6.595981
-0.808212 0.078164 6.597647
-0.814511 0.093042 6.599314
-0.831608 0.129186 6.603596
-0.839096 0.143487 6.605385
-0.846585 0.157788 6.607173
-0.854074 0.172089 6.608961
-0.861562 0.186390 6.610749
-0.869051 0.200691 6.612538
-0.890023 0.234711 6.617201
-0.898587 0.248381 6.619093
-0.907150 0.262052 6.620985
-0.915714 0.275723 6.622876
-0.924277 0.289393 6.624768
-0.933570 0.302560 6.626726
-0.957149 0.334805 6.631626
-0.966664 0.347818 6.633604
-0.976180 0.360832 6.635582
-0.985695 0.373845 6.637559
-0.995844 0.386353 6.639590
-1.006191 0.398705 6.641638
-1.031829 0.429310 6.646712
-1.042175 0.441661 6.648760
-1.052522 0.454012 6.650808
-1.063413 0.465872 6.652898
-1.074478 0.477574 6.655002
-1.085543 0.489276 6.657106
-1.112960 0.518272 6.662319
-1.124025 0.529974 6.664423
-1.135555 0.541206 6.666560
-1.147237 0.552284 6.668708
-1.158919 0.563361 6.670856
-1.170602 0.574439 6.673005
-1.199549 0.601888 6.678328
-1.211627 0.612521 6.680502
-1.223838 0.623006 6.682685
-1.236049 0.633490 6.684868
-1.248260 0.643975 6.687051
-1.260471 0.654459 6.689234
24 NaN NaN
-1.010474 -1.389419 6.540088
-0.958904 -1.297628 6.538638
-0.910629 -1.204057 6.537718
-0.866060 -1.108662 6.537382
-0.825667 -1.011427 6.537694
-0.789983 -0.912374 6.538720
-0.759603 -0.811582 6.540534
-0.735175 -0.709206 6.543210
-0.717384 -0.605503 6.546824
-0.706917 -0.500849 6.551441
-0.704410 -0.395759 6.557117
-0.710389 -0.290877 6.563882
-0.725194 -0.186951 6.571737
-0.748924 -0.084782 6.580650
-0.781411 0.014857 6.590555
-0.822234 0.111285 6.601358
-0.870772 0.203979 6.612949
-0.926279 0.292589 6.625210
-0.987959 0.376941 6.638030
-1.055028 0.457004 6.651304
-1.126756 0.532862 6.664942
-1.202486 0.604673 6.678868
-1.281646 0.672641 6.693020
-1.363744 0.736994 6.707347
-1.022564 -1.383236 5.519951
-0.893023 -1.178692 5.569716
-0.782086 -0.963954 5.621113
-0.697413 -0.738048 5.674101
-0.651018 -0.501697 5.728111
-0.660171 -0.261161 5.781172
-0.733883 -0.031353 5.829669
-0.867797 0.171463 5.870141
-1.045691 0.339612 5.901434
-1.250419 0.475825 5.924734
-1.021478 -1.381605 5.520350
-0.893991 -1.180393 5.569306
-0.892056 -1.176990 5.570126
-0.782893 -0.965734 5.620691
-0.781279 -0.962173 5.621536
-0.697999 -0.739910 5.673668
-0.696827 -0.736185 5.674534
-0.651103 -0.503647 5.727676
-0.650933 -0.499746 5.728547
-0.659804 -0.263082 5.780758
-0.660539 -0.259239 5.781586
-0.733040 -0.033130 5.829303
-0.734726 -0.029577 5.830034
-0.866561 0.169920 5.869840
-0.869034 0.173006 5.870442
-1.044090 0.338432 5.901227
-1.047292 0.340792 5.901642
-1.248684 0.474842 5.924575
-1.015963 -1.373324 5.522374
-0.898903 -1.189032 5.567223
-0.887144 -1.168351 5.572209
-0.786992 -0.974773 5.618547
-0.777181 -0.953135 5.623680
-0.700973 -0.749366 5.671469
-0.693854 -0.726729 5.676732
-0.652145 -0.513488 5.725457
-0.650500 -0.489846 5.730758
-0.657938 -0.272839 5.778656
-0.662405 -0.249482 5.783687
-0.728760 -0.042148 5.827447
-0.739007 -0.020559 5.831890
-0.860282 0.162087 5.868315
-0.875312 0.180838 5.871967
-1.035990 0.332405 5.900163
-1.055422 0.346783 5.902696
-1.239876 0.469857 5.923766
-1.001956 -1.352289 5.527514
-0.983342 -1.324336 5.534346
-0.964728 -1.296383 5.541178
-0.946996 -1.267887 5.548100
-0.929327 -1.239350 5.555029
-0.911658 -1.210814 5.561958
-0.874669 -1.146409 5.577499
-0.858090 -1.117251 5.584530
-0.842483 -1.087585 5.591640
-0.827170 -1.057767 5.598773
-0.811857 -1.027949 5.605907
-0.797401 -0.997731 5.613101
-0.766771 -0.930177 5.629126
-0.753989 -0.899241 5.636422
-0.741897 -0.868024 5.643757
-0.729804 -0.836807 5.651093
-0.718564 -0.805300 5.658463
-0.708526 -0.773383 5.665885
-0.687368 -0.702426 5.682344
-0.679757 -0.669859 5.689827
-0.672145 -0.637293 5.697311
-0.665251 -0.604592 5.704799
-0.660489 -0.571494 5.712304
-0.655728 -0.538395 5.719809
-0.649400 -0.464700 5.736375
-0.647939 -0.431284 5.743838
-0.646810 -0.397869 5.751291
-0.649072 -0.364468 5.758625
-0.651334 -0.331067 5.765960
-0.653596 -0.297667 5.773294
-0.667144 -0.224701 5.789026
-0.673442 -0.191769 5.796120
-0.683589 -0.159758 5.802879
-0.694034 -0.127820 5.809612
-0.704478 -0.095881 5.816346
-0.717888 -0.065053 5.822732
-0.749878 0.002346 5.836605
-0.767111 0.031334 5.842454
-0.785187 0.059883 5.848177
-0.803263 0.088431 5.853900
-0.823146 0.115755 5.859291
-0.844336 0.142193 5.864440
-0.892813 0.199421 5.875498
-0.916569 0.223693 5.880081
-0.940324 0.247966 5.884663
-0.964940 0.271364 5.889022
-0.990753 0.293540 5.893070
-1.016566 0.315717 5.897117
-1.076071 0.362000 5.905374
-1.103511 0.382221 5.908933
-1.131276 0.401988 5.912380
-1.159997 0.420425 5.915500
-1.188717 0.438862 5.918619
-1.217504 0.457193 5.921713
23 NaN NaN
-1.022836 -1.383644 5.519851
-0.963469 -1.294492 5.541640
-0.907117 -1.203480 5.563739
-0.854243 -1.110484 5.586161
-0.805406 -1.015386 5.608913
-0.761290 -0.918088 5.631993
-0.722727 -0.818537 5.655386
-0.690718 -0.716758 5.679051
-0.666448 -0.612913 5.702913
-0.651267 -0.507381 5.726841
-0.646608 -0.400846 5.750637
-0.653820 -0.294373 5.774017
-0.673895 -0.189401 5.796630
-0.707186 -0.087600 5.818091
-0.753237 0.009423 5.838062
-0.810859 0.100426 5.856305
-0.878416 0.184710 5.872721
-0.954158 0.262101 5.887331
-1.036466 0.332814 5.900238
-1.123968 0.397297 5.911586
-1.215558 0.456092 5.921535
-1.310371 0.509761 5.930236
-1.407738 0.558834 5.937832
-1.011398 -1.357628 4.500217
-0.963455 -1.276249 4.516803
-0.918217 -1.193478 4.534049
-0.876013 -1.109276 4.552001
-0.837243 -1.023611 4.570710
-0.802368 -0.936475 4.590227
-0.771918 -0.847899 4.610602
-0.746491 -0.757964 4.631876
-0.726752 -0.666827 4.654078
-0.713423 -0.574743 4.677219
-0.707853 -0.482096 4.701338
-0.710793 -0.389588 4.726329
-0.722340 -0.297995 4.751996
-0.742787 -0.208154 4.778146
-0.772128 -0.120916 4.804553
-0.810056 -0.037055 4.830976
-0.855992 0.042803 4.857187
-0.909166 0.118227 4.882989
-0.968700 0.188998 4.908229
-1.033781 0.255008 4.932792
-1.103890 0.315966 4.956544
-1.177692 0.372668 4.979555
-1.254592 0.425393 5.001837
-1.334091 0.474432 5.023413
-1.010398 -1.355931 4.500563
-0.964455 -1.277946 4.516457
-0.962455 -1.274551 4.517148
-0.919153 -1.195208 4.533687
-0.917280 -1.191748 4.534410
-0.876876 -1.111040 4.551622
-0.875150 -1.107512 4.552379
-0.838022 -1.025410 4.570313
-0.836464 -1.021812 4.571106
-0.803050 -0.938309 4.589811
-0.801687 -0.934642 4.590644
-0.772486 -0.849766 4.610165
-0.771350 -0.846032 4.611040
-0.746928 -0.759861 4.631417
-0.746053 -0.756067 4.632335
-0.727039 -0.668747 4.653597
-0.726465 -0.664908 4.654560
-0.713539 -0.576675 4.676715
-0.713307 -0.572811 4.677722
-0.707969 -0.484028 4.700835
-0.707737 -0.480164 4.701841
-0.710719 -0.391517 4.725807
-0.710867 -0.387659 4.726852
-0.722062 -0.299901 4.751458
-0.722619 -0.296089 4.752534
-0.742296 -0.210014 4.777598
-0.743278 -0.206295 4.778695
-0.771428 -0.122706 4.804001
-0.772829 -0.119126 4.805105
-0.809158 -0.038755 4.830427
-0.810954 -0.035354 4.831526
-0.854917 0.041205 4.856646
-0.857067 0.044400 4.857728
-0.907938 0.116739 4.882461
-0.910394 0.119714 4.883517
-0.967342 0.187622 4.907717
-0.970057 0.190375 4.908741
-1.032424 0.253631 4.932279
-1.035165 0.256358 4.933300
-1.102426 0.314696 4.956049
-1.105354 0.317235 4.957039
-1.176141 0.371499 4.979078
-1.179243 0.373837 4.980033
-1.252970 0.424317 5.001377
-1.256214 0.426469 5.002298
-1.332411 0.473441 5.022969
-1.007970 -1.351809 4.501403
-0.966883 -1.282067 4.515617
-0.960027 -1.270430 4.517988
-0.921426 -1.199409 4.532809
-0.915007 -1.187547 4.535288
-0.878972 -1.115324 4.550703
-0.873054 -1.103229 4.553298
-0.839913 -1.029778 4.569350
-0.834573 -1.017444 4.572069
-0.804704 -0.942762 4.588800
-0.800033 -0.930189 4.591655
-0.773866 -0.854299 4.609103
-0.769970 -0.841498 4.612101
-0.747991 -0.764466 4.630302
-0.744991 -0.751462 4.633450
-0.727736 -0.673409 4.652428
-0.725768 -0.660246 4.655729
-0.713973 -0.581356 4.675513
-0.713024 -0.568119 4.678943
-0.708251 -0.488720 4.699613
-0.707506 -0.475473 4.703067
-0.710540 -0.396201 4.724538
-0.711046 -0.382974 4.728120
-0.721385 -0.304529 4.750151
-0.723295 -0.291461 4.753841
-0.741104 -0.214530 4.776266
-0.744469 -0.201779 4.780027
-0.769727 -0.127053 4.802660
-0.774529 -0.114779 4.806447
-0.806979 -0.042885 4.829092
-0.813133 -0.031225 4.832860
-0.852307 0.037326 4.855333
-0.859677 0.048279 4.859042
-0.904955 0.113128 4.881179
-0.913377 0.123326 4.884799
-0.964047 0.184279 4.906473
-0.973353 0.193718 4.909985
-1.029128 0.250288 4.931035
-1.038720 0.259441 4.934502
-1.098872 0.311613 4.954847
-1.108909 0.320318 4.958241
-1.172375 0.368660 4.977918
-1.183009 0.376675 4.981193
-1.249032 0.421704 5.000259
-1.260152 0.429082 5.003415
-1.328333 0.471035 5.021892
-1.003148 -1.343624 4.503071
-0.996859 -1.332950 4.505246
-0.990571 -1.322275 4.507422
-0.984282 -1.311601 4.509597
-0.977994 -1.300927 4.511773
-0.971705 -1.290252 4.513948
-0.955382 -1.262153 4.519700
-0.949494 -1.251273 4.521973
-0.943606 -1.240393 4.524246
-0.937718 -1.229513 4.526520
-0.931830 -1.218632 4.528793
-0.925941 -1.207752 4.531066
-0.910492 -1.179204 4.537031
-0.904850 -1.168209 4.539361
-0.899421 -1.157115 4.541740
-0.893992 -1.146020 4.544120
-0.888564 -1.134926 4.546499
-0.883135 -1.123831 4.548879
-0.868891 -1.094721 4.555122
-0.863462 -1.083627 4.557502
-0.858366 -1.072395 4.559953
-0.853467 -1.061081 4.562448
-0.848569 -1.049767 4.564942
-0.843670 -1.038454 4.567437
-0.830816 -1.008768 4.573982
-0.825918 -0.997455 4.576477
-0.821019 -0.986141 4.578972
-0.816561 -0.974670 4.581555
-0.812276 -0.963138 4.584174
-0.807991 -0.951605 4.586792
-0.796746 -0.921346 4.593663
-0.792461 -0.909813 4.596281
-0.788176 -0.898281 4.598900
-0.783890 -0.886748 4.601518
-0.780182 -0.875046 4.604244
-0.776607 -0.863304 4.606994
-0.767229 -0.832494 4.614211
-0.763654 -0.820752 4.616961
-0.760080 -0.809010 4.619711
-0.756505 -0.797268 4.622462
-0.752931 -0.785526 4.625212
-0.750101 -0.773614 4.628087
-0.742881 -0.742314 4.635665
-0.740129 -0.730385 4.638553
-0.737377 -0.718455 4.641442
-0.734626 -0.706526 4.644330
-0.731874 -0.694597 4.647218
-0.729122 -0.682668 4.650106
-0.724384 -0.650987 4.658051
-0.722578 -0.638912 4.661079
-0.720773 -0.626838 4.664107
-0.718968 -0.614764 4.667135
-0.717163 -0.602689 4.670163
-0.715357 -0.590615 4.673191
-0.712464 -0.558800 4.681369
-0.711734 -0.546648 4.684533
-0.711003 -0.534496 4.687696
-0.710273 -0.522343 4.690860
-0.709542 -0.510191 4.694024
-0.708812 -0.498039 4.697187
-0.707862 -0.466169 4.705587
-0.708326 -0.454036 4.708873
-0.708791 -0.441903 4.712160
-0.709255 -0.429771 4.715446
-0.709719 -0.417638 4.718732
-0.710184 -0.405505 4.722018
-0.711402 -0.373670 4.730640
-0.713031 -0.361669 4.734016
-0.714784 -0.349682 4.737401
-0.716536 -0.337695 4.740785
-0.718289 -0.325708 4.744170
-0.720041 -0.313721 4.747555
-0.724639 -0.282269 4.756437
-0.726392 -0.270282 4.759822
-0.729478 -0.258586 4.763271
-0.732565 -0.246890 4.766721
-0.735651 -0.235194 4.770171
-0.738738 -0.223498 4.773621
-0.746836 -0.192811 4.782672
-0.749923 -0.181115 4.786122
-0.753135 -0.169461 4.789574
-0.757540 -0.158202 4.793048
-0.761945 -0.146944 4.796522
-0.766350 -0.135686 4.799996
-0.777907 -0.106146 4.809111
-0.782312 -0.094888 4.812584
-0.786717 -0.083630 4.816058
-0.791359 -0.072479 4.819529
-0.797004 -0.061783 4.822985
-0.802650 -0.051087 4.826442
-0.817462 -0.023023 4.835511
-0.823107 -0.012327 4.838967
-0.828753 -0.001631 4.842424
-0.834398 0.009065 4.845880
-0.840363 0.019575 4.849321
-0.847123 0.029622 4.852724
-0.864861 0.055983 4.861651
-0.871622 0.066030 4.865053
-0.878382 0.076077 4.868456
-0.885143 0.086124 4.871858
-0.891903 0.096171 4.875261
-0.899031 0.105954 4.878632
-0.919301 0.130500 4.887346
-0.927026 0.139854 4.890667
-0.934751 0.149209 4.893988
-0.942476 0.158564 4.897308
-0.950201 0.167919 4.900629
-0.957926 0.177274 4.903950
-0.979899 0.200357 4.912456
-0.988436 0.209016 4.915678
-0.996972 0.217674 4.918899
-1.005509 0.226332 4.922121
-1.014045 0.234991 4.925343
-1.022582 0.243649 4.928565
-1.045780 0.265564 4.936890
-1.054986 0.273549 4.940003
-1.064193 0.281534 4.943117
-1.073399 0.289519 4.946231
-1.082606 0.297505 4.949345
-1.091812 0.305490 4.952459
-1.116125 0.326261 4.960597
-1.125879 0.333613 4.963601
-1.135633 0.340965 4.966604
-1.145387 0.348318 4.969608
-1.155141 0.355670 4.972611
-1.164895 0.363022 4.975615
-1.190489 0.382314 4.983496
-1.200411 0.389444 4.986458
-1.210611 0.396212 4.989353
-1.220811 0.402980 4.992249
-1.231011 0.409747 4.995144
-1.241211 0.416515 4.998039
-1.267973 0.434272 5.005635
-1.278173 0.441040 5.008531
-1.288544 0.447555 5.011377
-1.299107 0.453789 5.014168
-1.309670 0.460022 5.016960
-1.320233 0.466255 5.019751
22 NaN NaN
-1.011648 -1.358052 4.500130
-0.957993 -1.266978 4.518692
-0.907755 -1.174147 4.538087
-0.861439 -1.079491 4.558389
-0.819645 -0.982967 4.579671
-0.783084 -0.884579 4.602011
-0.752590 -0.784406 4.625474
-0.729117 -0.682642 4.650112
-0.713717 -0.579646 4.675942
-0.707486 -0.475992 4.702927
-0.711446 -0.372512 4.730954
-0.726392 -0.270280 4.759822
-0.752714 -0.170536 4.789242
-0.790280 -0.074523 4.818868
-0.838426 0.016697 4.848346
-0.896086 0.102387 4.877366
-0.961978 0.182181 4.905692
-1.034796 0.256038 4.933175
-1.113335 0.324157 4.959738
-1.196547 0.386880 4.985361
-1.283566 0.444618 5.010061
-1.373686 0.497797 5.033877
-0.985260 -1.317081 3.992370
-0.913994 -1.197994 4.014522
-0.848152 -1.076130 4.038226
-0.788810 -0.951322 4.063684
-0.738237 -0.823184 4.091333
-0.698606 -0.691825 4.121461
-0.671492 -0.557952 4.154104
-0.659616 -0.422536 4.189395
-0.669399 -0.287829 4.227656
-0.699903 -0.156966 4.267892
-0.751532 -0.033259 4.309256
-0.824373 0.079295 4.350670
-0.914552 0.178991 4.391099
-1.016952 0.266797 4.430063
-1.128575 0.343505 4.467340
-1.247888 0.408800 4.502619
-1.371817 0.465806 4.536306
-0.984233 -1.315393 3.992681
-0.914962 -1.199713 4.014193
-0.913026 -1.196275 4.014851
-0.849050 -1.077882 4.037878
-0.847253 -1.074377 4.038574
-0.789628 -0.953110 4.063314
-0.787992 -0.949535 4.064053
-0.738846 -0.825043 4.090914
-0.737628 -0.821326 4.091752
-0.699080 -0.693716 4.121013
-0.698131 -0.689934 4.121908
-0.671808 -0.559868 4.153626
-0.671177 -0.556036 4.154582
-0.659701 -0.424464 4.188880
-0.659702 -0.420612 4.189934
-0.669076 -0.289720 4.227092
-0.669721 -0.285937 4.228220
-0.699332 -0.158792 4.267309
-0.700474 -0.155140 4.268474
-0.750717 -0.034987 4.308665
-0.752347 -0.031531 4.309848
-0.823143 0.077829 4.350089
-0.825603 0.080762 4.351250
-0.913165 0.177665 4.390534
-0.915940 0.180316 4.391664
-1.015440 0.265607 4.429517
-1.018464 0.267987 4.430609
-1.126941 0.342478 4.466820
-1.130260 0.344457 4.467846
-1.246145 0.407949 4.502132
-1.249631 0.409652 4.503106
-1.370028 0.465044 4.535836
-0.980935 -1.309977 3.993680
-0.918068 -1.205230 4.013138
-0.909919 -1.190757 4.015906
-0.851935 -1.083508 4.036761
-0.844369 -1.068752 4.039690
-0.792252 -0.958847 4.062129
-0.785368 -0.943797 4.065238
-0.740801 -0.831007 4.089568
-0.735673 -0.815361 4.093097
-0.700604 -0.699784 4.119576
-0.696607 -0.683866 4.123345
-0.672820 -0.566019 4.152093
-0.670164 -0.549885 4.156116
-0.660114 -0.430659 4.187247
-0.659977 -0.414435 4.191663
-0.668040 -0.295791 4.225280
-0.670757 -0.279866 4.230031
-0.697498 -0.164652 4.265439
-0.702307 -0.149279 4.270345
-0.748102 -0.040533 4.306766
-0.754963 -0.025984 4.311746
-0.819195 0.073123 4.348226
-0.829552 0.085468 4.353114
-0.908713 0.173412 4.388721
-0.920392 0.184570 4.393478
-1.010587 0.261788 4.427764
-1.023317 0.271806 4.432362
-1.121777 0.339060 4.465131
-1.135667 0.347513 4.469471
-1.240550 0.405217 4.500567
-1.255225 0.412384 4.504670
-1.364287 0.462598 4.534329
-0.973532 -1.297820 3.995923
-0.963781 -1.281808 3.998877
-0.954030 -1.265795 4.001831
-0.944279 -1.249782 4.004785
-0.934528 -1.233769 4.007739
-0.925042 -1.217615 4.010771
-0.902946 -1.178372 4.018273
-0.893761 -1.162058 4.021392
-0.884576 -1.145745 4.024511
-0.875465 -1.129396 4.027651
-0.866937 -1.112765 4.030953
-0.858409 -1.096134 4.034254
-0.837894 -1.056126 4.042197
-0.829366 -1.039495 4.045499
-0.821420 -1.022613 4.048954
-0.813661 -1.005650 4.052459
-0.805902 -0.988688 4.055963
-0.798143 -0.971725 4.059468
-0.779841 -0.930783 4.067989
-0.772988 -0.913482 4.071719
-0.766135 -0.896180 4.075449
-0.759281 -0.878879 4.079178
-0.752428 -0.861577 4.082908
-0.745575 -0.844276 4.086637
-0.731285 -0.801973 4.096117
-0.725505 -0.784338 4.100094
-0.719724 -0.766703 4.104072
-0.713944 -0.749068 4.108049
-0.708529 -0.731346 4.112104
-0.704024 -0.713405 4.116352
-0.693187 -0.670245 4.126570
-0.688682 -0.652304 4.130817
-0.684177 -0.634363 4.135065
-0.681080 -0.616195 4.139580
-0.678086 -0.598010 4.144115
-0.675093 -0.579825 4.148650
-0.667892 -0.536079 4.159559
-0.665922 -0.517820 4.164264
-0.664702 -0.499505 4.169093
-0.663481 -0.481191 4.173922
-0.662261 -0.462877 4.178751
-0.661040 -0.444563 4.183581
-0.660595 -0.400573 4.195544
-0.661409 -0.382313 4.200655
-0.662224 -0.364052 4.205767
-0.663038 -0.345792 4.210878
-0.663852 -0.327532 4.215990
-0.665714 -0.309417 4.221215
-0.673083 -0.266240 4.234097
-0.676146 -0.248291 4.239452
-0.679210 -0.230342 4.244807
-0.682542 -0.212464 4.250182
-0.687962 -0.195136 4.255711
-0.693383 -0.177808 4.261241
-0.706423 -0.136123 4.274543
-0.711843 -0.118795 4.280072
-0.719027 -0.102176 4.285665
-0.726761 -0.085778 4.291279
-0.734496 -0.069380 4.296892
-0.742230 -0.052982 4.302505
-0.761704 -0.014017 4.316003
-0.771557 0.001207 4.321605
-0.781409 0.016432 4.327206
-0.791261 0.031656 4.332808
-0.801113 0.046880 4.338409
-0.810965 0.062104 4.344011
-0.838414 0.096031 4.357296
-0.850087 0.109945 4.362806
-0.861760 0.123860 4.368315
-0.873433 0.137774 4.373824
-0.885554 0.151287 4.379289
-0.898718 0.163864 4.384651
-0.930387 0.194118 4.397548
-0.943551 0.206694 4.402909
-0.956716 0.219271 4.408271
-0.971000 0.230632 4.413463
-0.985347 0.241924 4.418646
-0.999695 0.253216 4.423829
-1.034209 0.280379 4.436297
-1.049103 0.290968 4.441368
-1.064373 0.301073 4.446361
-1.079643 0.311178 4.451354
-1.094913 0.321283 4.456347
-1.110184 0.331388 4.461341
-1.147802 0.354371 4.473119
-1.163788 0.363405 4.477924
-1.179773 0.372439 4.482728
-1.195758 0.381472 4.487533
-1.211743 0.390506 4.492338
-1.227993 0.399084 4.497056
-1.267782 0.418517 4.508181
-1.284322 0.426595 4.512806
-1.300862 0.434673 4.517430
-1.317455 0.442648 4.522034
-1.334428 0.449879 4.526490
-1.351401 0.457109 4.530946
22 NaN NaN
-0.985517 -1.317503 3.992292
-0.929340 -1.225249 4.009311
-0.876423 -1.131265 4.027280
-0.827294 -1.035453 4.046301
-0.782594 -0.937733 4.066491
-0.743114 -0.838064 4.087977
-0.709818 -0.736479 4.110889
-0.683869 -0.633136 4.135355
-0.666627 -0.528398 4.161474
-0.659599 -0.422927 4.189286
-0.664287 -0.317780 4.218720
-0.681924 -0.214437 4.249552
-0.713133 -0.114674 4.281387
-0.757661 -0.020264 4.313704
-0.814388 0.067393 4.345957
-0.881608 0.147517 4.377682
-0.957423 0.219947 4.408559
-1.040061 0.284984 4.438411
-1.128019 0.343191 4.467173
-1.220102 0.395230 4.494850
-1.315386 0.441767 4.521491
-1.413166 0.483421 4.547161
-0.872234 -1.147166 2.475556
-0.694755 -0.794719 2.544629
-0.606921 -0.416620 2.638263
-0.671820 -0.043706 2.759476
-0.902699 0.253457 2.890192
-0.871235 -1.145461 2.475864
-0.695486 -0.796539 2.544237
-0.694024 -0.792899 2.545021
-0.606996 -0.418543 2.637716
-0.606847 -0.414698 2.638810
-0.670943 -0.045378 2.758821
-0.672714 -0.042041 2.760132
-0.901287 0.252193 2.889554
-0.863475 -1.132209 2.478254
-0.701168 -0.810681 2.541191
-0.688343 -0.778758 2.548066
-0.607575 -0.433480 2.633466
-0.606268 -0.399760 2.643060
-0.665833 -0.059177 2.753820
-0.679657 -0.029105 2.765231
-0.890308 0.242373 2.884597
-0.842399 -1.096219 2.484745
-0.814539 -1.048048 2.493499
-0.788513 -0.998970 2.502867
-0.762954 -0.949687 2.512384
-0.739410 -0.899524 2.522542
-0.716598 -0.849088 2.532919
-0.674423 -0.739894 2.556759
-0.657348 -0.687570 2.568780
-0.642327 -0.634789 2.581325
-0.629453 -0.581529 2.594419
-0.619311 -0.527899 2.608141
-0.611416 -0.473967 2.622380
-0.604695 -0.359189 2.654603
-0.607761 -0.305412 2.670884
-0.612196 -0.251733 2.687398
-0.622603 -0.199205 2.704712
-0.634055 -0.146879 2.722167
-0.651954 -0.096655 2.740237
-0.698514 0.006028 2.779078
-0.724585 0.052354 2.797566
-0.755596 0.095586 2.816091
-0.787653 0.137989 2.834575
-0.823534 0.177365 2.852903
-0.860492 0.215701 2.871132
19 NaN NaN
-0.872484 -1.147593 2.475479
-0.817896 -1.054378 2.492291
-0.767392 -0.959142 2.510470
-0.721707 -0.861805 2.530180
-0.681747 -0.762339 2.551602
-0.648619 -0.660818 2.574926
-0.623643 -0.557490 2.600329
-0.608327 -0.452867 2.627951
-0.604255 -0.347838 2.657833
-0.612858 -0.243732 2.689859
-0.635066 -0.142258 2.723709
-0.670988 -0.045257 2.758865
-0.719798 0.045682 2.794706
-0.779946 0.129531 2.830638
-0.849547 0.205912 2.866190
-0.926751 0.274971 2.901053
-1.009941 0.337183 2.935058
-1.097807 0.393166 2.968135
-1.189327 0.443571 3.000280
-0.800829 -1.039893 1.463307
-0.728109 -0.897328 1.462773
-0.665144 -0.750292 1.467348
-0.616841 -0.598280 1.479226
-0.585882 -0.442687 1.499253
-0.577024 -0.285946 1.528935
-0.595040 -0.132441 1.569367
-0.638157 0.013224 1.618814
-0.708394 0.144600 1.676756
-0.796688 0.262228 1.739452
-0.900913 0.363965 1.805540
-1.015347 0.452955 1.873253
-0.799895 -1.038125 1.463286
-0.728958 -0.899139 1.462748
-0.727260 -0.895518 1.462798
-0.665890 -0.752146 1.467270
-0.664398 -0.748438 1.467425
-0.617317 -0.600211 1.479017
-0.616365 -0.596349 1.479436
-0.586184 -0.444643 1.498964
-0.585580 -0.440731 1.499542
-0.576899 -0.287886 1.528467
-0.577149 -0.284005 1.529402
-0.594677 -0.134328 1.568810
-0.595403 -0.130555 1.569924
-0.637342 0.011540 1.618107
-0.638973 0.014908 1.619520
-0.707390 0.143046 1.675997
-0.709399 0.146154 1.677516
-0.795527 0.260808 1.738655
-0.797849 0.263649 1.740250
-0.899526 0.362795 1.804699
-0.902300 0.365135 1.806380
-1.013880 0.451894 1.872402
-0.796575 -1.031845 1.463213
-0.731973 -0.905570 1.462659
-0.724245 -0.889087 1.462887
-0.668541 -0.758730 1.466993
-0.661747 -0.741854 1.467702
-0.619009 -0.607070 1.478273
-0.614673 -0.589490 1.480179
-0.587256 -0.451589 1.497938
-0.584507 -0.433785 1.500568
-0.576455 -0.294778 1.526807
-0.577593 -0.277113 1.531062
-0.593388 -0.141027 1.566832
-0.596691 -0.123856 1.571903
-0.634987 0.005274 1.615767
-0.641869 0.020889 1.622030
-0.703823 0.137527 1.673301
-0.712965 0.151673 1.680212
-0.791404 0.255765 1.735823
-0.801972 0.268692 1.743081
-0.894599 0.358638 1.801715
-0.907227 0.369292 1.809365
-1.008673 0.448125 1.869381
-0.788867 -1.017266 1.463043
-0.778689 -0.998012 1.462819
-0.768511 -0.978759 1.462595
-0.758332 -0.959505 1.462371
-0.748217 -0.940220 1.462180
-0.738973 -0.920502 1.462453
-0.717245 -0.874155 1.463094
-0.708001 -0.854436 1.463367
-0.699079 -0.834582 1.463805
-0.690951 -0.814394 1.464654
-0.682823 -0.794206 1.465502
-0.674696 -0.774018 1.466350
-0.656273 -0.726337 1.468684
-0.649484 -0.705698 1.470198
-0.642695 -0.685059 1.471713
-0.635907 -0.664420 1.473227
-0.629118 -0.643782 1.474742
-0.622937 -0.622995 1.476547
-0.610745 -0.573565 1.481906
-0.605558 -0.552536 1.484186
-0.600372 -0.531506 1.486466
-0.596325 -0.510315 1.489266
-0.593036 -0.489016 1.492411
-0.589747 -0.467718 1.495556
-0.582016 -0.417656 1.502950
-0.580536 -0.396304 1.506876
-0.579445 -0.374941 1.510971
-0.578354 -0.353578 1.515067
-0.577263 -0.332215 1.519162
-0.576173 -0.310852 1.523257
-0.578623 -0.261110 1.534916
-0.579984 -0.239977 1.540006
-0.581345 -0.218845 1.545096
-0.582706 -0.197712 1.550185
-0.586444 -0.177123 1.556171
-0.590396 -0.156582 1.562238
-0.599684 -0.108301 1.576497
-0.603997 -0.087895 1.582688
-0.610511 -0.068311 1.589641
-0.617025 -0.048726 1.596595
-0.623540 -0.029141 1.603548
-0.630054 -0.009556 1.610501
-0.648594 0.034775 1.627857
-0.657475 0.053113 1.635551
-0.666356 0.071450 1.643246
-0.675236 0.089788 1.650941
-0.684604 0.107790 1.658771
-0.695541 0.124712 1.667039
-0.721247 0.164488 1.686473
-0.732184 0.181411 1.694741
-0.743904 0.197663 1.703200
-0.756546 0.213127 1.711882
-0.769188 0.228591 1.720565
-0.781830 0.244055 1.729248
-0.812480 0.279442 1.749850
-0.826496 0.293495 1.758817
-0.840512 0.307549 1.767783
-0.854527 0.321603 1.776750
-0.868543 0.335656 1.785716
-0.883160 0.348987 1.794785
-0.918666 0.378942 1.816294
-0.933771 0.391687 1.825446
-0.948877 0.404431 1.834597
-0.964648 0.416258 1.843836
-0.980615 0.427815 1.853100
-0.996582 0.439373 1.862365
17 NaN NaN
-0.801063 -1.040335 1.463312
-0.748845 -0.941559 1.462162
-0.701421 -0.840402 1.463561
-0.659728 -0.736839 1.467913
-0.624904 -0.630971 1.475682
-0.598301 -0.523109 1.487376
-0.581433 -0.413878 1.503508
-0.575840 -0.304330 1.524507
-0.582818 -0.195976 1.550604
-0.603077 -0.090661 1.581706
-0.636476 0.009753 1.617357
-0.682013 0.103780 1.656812
-0.738097 0.190561 1.699212
-0.802936 0.269871 1.743744
-0.874826 0.341956 1.789736
-0.952313 0.407330 1.836679
-1.034223 0.466618 1.884205
-0.729071 -0.932142 0.451199
-0.669785 -0.817855 0.445541
-0.618499 -0.699723 0.441718
-0.576909 -0.577822 0.440066
-0.546987 -0.452547 0.440965
-0.531424 -0.324755 0.444911
-0.533680 -0.196241 0.452505
-0.553240 -0.069529 0.463502
-0.590040 0.052949 0.477756
-0.642822 0.169117 0.494894
-0.710254 0.277074 0.514544
-0.789627 0.376219 0.536121
-0.877670 0.467431 0.559014
-0.728133 -0.930377 0.451107
-0.670622 -0.819670 0.445610
-0.668948 -0.816040 0.445473
-0.619218 -0.701589 0.441759
-0.617781 -0.697857 0.441676
-0.577487 -0.579736 0.440077
-0.576330 -0.575907 0.440055
-0.547401 -0.454504 0.440940
-0.546573 -0.450591 0.440990
-0.531437 -0.326752 0.444802
-0.531410 -0.322758 0.445019
-0.533467 -0.198224 0.452351
-0.533894 -0.194259 0.452658
-0.552795 -0.071469 0.463304
-0.553686 -0.067590 0.463700
-0.589371 0.051079 0.477516
-0.590709 0.054818 0.477995
-0.641948 0.167339 0.494619
-0.643695 0.170895 0.495170
-0.709054 0.275509 0.514214
-0.711455 0.278639 0.514874
-0.788303 0.374760 0.535772
-0.790950 0.377677 0.536470
-0.876247 0.466074 0.558651
-0.725315 -0.925074 0.450831
-0.673138 -0.825125 0.445817
-0.666431 -0.810584 0.445266
-0.621377 -0.707198 0.441885
-0.615621 -0.692248 0.441550
-0.579225 -0.585491 0.440109
-0.574592 -0.570153 0.440023
-0.548646 -0.460384 0.440866
-0.545328 -0.444710 0.441064
-0.531767 -0.332740 0.444537
-0.531369 -0.316755 0.445344
-0.532824 -0.204183 0.451890
-0.534536 -0.188299 0.453119
-0.551455 -0.077299 0.462709
-0.555026 -0.061760 0.464295
-0.587359 0.045460 0.476797
-0.592721 0.060437 0.478714
-0.639323 0.161994 0.493791
-0.646320 0.176239 0.495998
-0.705446 0.270804 0.513222
-0.715063 0.283344 0.515866
-0.784325 0.370377 0.534723
-0.794928 0.382060 0.537519
-0.871968 0.461995 0.557558
-0.719143 -0.913460 0.450226
-0.711028 -0.898191 0.449431
-0.702914 -0.882922 0.448636
-0.694799 -0.867653 0.447841
-0.686685 -0.852384 0.447046
-0.678650 -0.837074 0.446269
-0.660920 -0.798635 0.444814
-0.653674 -0.782926 0.444219
-0.646428 -0.767217 0.443624
-0.639183 -0.751509 0.443030
-0.632326 -0.735633 0.442523
-0.626107 -0.719483 0.442161
-0.610891 -0.679964 0.441274
-0.604673 -0.663814 0.440912
-0.598455 -0.647664 0.440550
-0.593043 -0.631235 0.440367
-0.588038 -0.614665 0.440274
-0.583033 -0.598095 0.440180
-0.570785 -0.557549 0.439952
-0.565779 -0.540979 0.439859
-0.562127 -0.524063 0.440059
-0.558543 -0.507130 0.440273
-0.554958 -0.490197 0.440488
-0.551373 -0.473264 0.440702
-0.542994 -0.431768 0.441310
-0.541045 -0.414578 0.441870
-0.539096 -0.397387 0.442430
-0.537147 -0.380197 0.442991
-0.535198 -0.363006 0.443551
-0.533249 -0.345816 0.444111
-0.531279 -0.303609 0.446056
-0.531161 -0.286325 0.446992
-0.531043 -0.269041 0.447928
-0.530925 -0.251757 0.448864
-0.530807 -0.234473 0.449800
-0.531418 -0.217235 0.450881
-0.535943 -0.175247 0.454129
-0.537792 -0.158088 0.455456
-0.539641 -0.140929 0.456784
-0.541490 -0.123769 0.458111
-0.544665 -0.106856 0.459693
-0.548521 -0.090068 0.461406
-0.557959 -0.048990 0.465599
-0.561816 -0.032203 0.467312
-0.565673 -0.015416 0.469025
-0.571368 0.000794 0.471078
-0.577160 0.016974 0.473150
-0.582953 0.033153 0.475221
-0.597127 0.072744 0.480290
-0.603341 0.088735 0.482436
-0.610899 0.104124 0.484821
-0.618457 0.119512 0.487206
-0.626016 0.134901 0.489591
-0.633574 0.150289 0.491976
-0.652880 0.187469 0.497950
-0.661976 0.201956 0.500597
-0.671072 0.216444 0.503243
-0.680168 0.230931 0.505889
-0.689264 0.245418 0.508536
-0.698360 0.259905 0.511182
-0.722966 0.293649 0.518038
-0.733356 0.307196 0.520894
-0.743745 0.320743 0.523750
-0.754135 0.334290 0.526606
-0.764524 0.347837 0.529462
-0.775612 0.360776 0.532426
-0.803641 0.391661 0.539817
-0.815095 0.404282 0.542837
-0.826549 0.416903 0.545857
-0.838004 0.429525 0.548877
-0.850275 0.441318 0.552017
-0.862596 0.453062 0.555164
16 NaN NaN
-0.729305 -0.932583 0.451222
-0.679315 -0.838516 0.446324
-0.634679 -0.741744 0.442660
-0.596373 -0.642258 0.440429
-0.565542 -0.540194 0.439854
-0.543463 -0.435901 0.441176
-0.531460 -0.330032 0.444625
-0.530732 -0.223597 0.450389
-0.542119 -0.117935 0.458562
-0.565869 -0.014566 0.469112
-0.601538 0.085065 0.481867
-0.648085 0.179832 0.496555
-0.704106 0.269056 0.512854
-0.768099 0.352497 0.530445
-0.838656 0.430243 0.549049
-0.914554 0.502587 0.568435
