-2.243525 -1.428490 5.417540
-1.772959 -1.499792 6.750991
-1.302394 -1.571095 8.084442
-2.242860 -1.428590 5.419424
-1.773624 -1.499692 6.749107
-1.772295 -1.499893 6.752875
-1.303059 -1.570995 8.082558
-2.232951 -1.430092 5.447505
-1.783534 -1.498190 6.721026
-1.762385 -1.501395 6.780956
-1.312968 -1.569493 8.054476
-2.187656 -1.436955 5.575856
-2.115891 -1.447829 5.779220
-2.044125 -1.458704 5.982584
-1.972359 -1.469578 6.185947
-1.900594 -1.480453 6.389311
-1.828828 -1.491327 6.592675
-1.717091 -1.508258 6.909307
-1.645325 -1.519132 7.112671
-1.573559 -1.530007 7.316034
-1.501794 -1.540881 7.519398
-1.430028 -1.551755 7.722762
-1.358263 -1.562630 7.926125
36 NaN NaN
-2.243691 -1.428464 5.417069
-2.209582 -1.433633 5.513724
-2.175473 -1.438801 5.610380
-2.141364 -1.443970 5.707035
-2.107255 -1.449138 5.803690
-2.073147 -1.454306 5.900345
-2.039038 -1.459475 5.997000
-2.004929 -1.464643 6.093655
-1.970820 -1.469811 6.190311
-1.936711 -1.474980 6.286966
-1.902602 -1.480148 6.383621
-1.868493 -1.485317 6.480276
-1.834384 -1.490485 6.576931
-1.800275 -1.495653 6.673586
-1.766166 -1.500822 6.770242
-1.732057 -1.505990 6.866897
-1.697948 -1.511159 6.963552
-1.663839 -1.516327 7.060207
-1.629730 -1.521495 7.156862
-1.595621 -1.526664 7.253517
-1.561512 -1.531832 7.350173
-1.527403 -1.537001 7.446828
-1.493294 -1.542169 7.543483
-1.459186 -1.547337 7.640138
-1.425077 -1.552506 7.736793
-1.390968 -1.557674 7.833448
-1.356859 -1.562843 7.930104
-1.322750 -1.568011 8.026759
-1.288641 -1.573179 8.123414
-1.254532 -1.578348 8.220069
-1.220423 -1.583516 8.316724
-1.186314 -1.588685 8.413379
-1.152205 -1.593853 8.510035
-1.118096 -1.599021 8.606690
-1.083987 -1.604190 8.703345
-1.049878 -1.609358 8.800000
-2.243228 -1.428422 5.416886
-1.629774 -1.371560 5.038749
-1.201465 -1.329414 4.456291
-0.953557 -1.302371 3.774257
-0.835736 -1.286499 3.056778
-0.772142 -1.275339 2.331784
-0.693149 -1.262836 1.608338
-0.603393 -1.249396 0.886141
-0.521897 -1.236676 0.162972
-2.241375 -1.428254 5.416151
-1.631202 -1.371696 5.040142
-1.628345 -1.371423 5.037356
-1.202363 -1.329507 4.458076
-1.200566 -1.329321 4.454507
-0.954035 -1.302428 3.776198
-0.953078 -1.302314 3.772315
-0.835946 -1.286533 3.058767
-0.835525 -1.286465 3.054790
-0.772323 -1.275370 2.333775
-0.771962 -1.275308 2.329792
-0.693391 -1.262873 1.610323
-0.692907 -1.262800 1.606353
-0.603637 -1.249433 0.888126
-0.603150 -1.249360 0.884157
-0.522091 -1.236708 0.164963
-2.222509 -1.426537 5.408673
-1.645908 -1.373097 5.054156
-1.613799 -1.370035 5.023167
-1.211513 -1.330451 4.476248
-1.191417 -1.328377 4.436335
-0.958906 -1.303008 3.795965
-0.948208 -1.301734 3.752548
-0.838092 -1.286877 3.079018
-0.833379 -1.286121 3.034539
-0.774162 -1.275688 2.354057
-0.770072 -1.274986 2.309515
-0.695822 -1.263242 1.630541
-0.690439 -1.262427 1.586139
-0.606113 -1.249806 0.908339
-0.600675 -1.248987 0.863944
-0.524067 -1.237037 0.185231
-2.155210 -1.420412 5.381997
-2.057754 -1.411497 5.337367
-1.963268 -1.402798 5.286716
-1.872007 -1.394338 5.230441
-1.784320 -1.386151 5.168719
-1.700509 -1.378266 5.101803
-1.562360 -1.365118 4.972118
-1.490360 -1.358174 4.892530
-1.422784 -1.351590 4.809127
-1.359623 -1.345368 4.722307
-1.300816 -1.339505 4.632458
-1.246261 -1.333996 4.539942
-1.159779 -1.325093 4.371031
-1.116295 -1.320513 4.272767
-1.076482 -1.316245 4.172945
-1.040168 -1.312274 4.071784
-1.007183 -1.308587 3.969478
-0.977364 -1.305171 3.866193
-0.931990 -1.299764 3.681763
-0.910172 -1.297037 3.576474
-0.890926 -1.294531 3.470678
-0.874009 -1.292228 3.364478
-0.859144 -1.290103 3.257967
-0.846044 -1.288131 3.151221
-0.826352 -1.284948 2.962238
-0.816577 -1.283266 2.855129
-0.807429 -1.281638 2.747963
-0.798601 -1.280039 2.640770
-0.789788 -1.278440 2.533576
-0.780684 -1.276817 2.426406
-0.763102 -1.273818 2.237208
-0.752332 -1.272049 2.130196
-0.741025 -1.270233 2.023239
-0.729244 -1.268376 1.916334
-0.717035 -1.266481 1.809478
-0.704474 -1.264557 1.702664
-0.681635 -1.261099 1.514036
-0.668431 -1.259118 1.407299
-0.655108 -1.257127 1.300578
-0.641730 -1.255131 1.193864
-0.628357 -1.253135 1.087149
-0.615049 -1.251146 0.980426
-0.591875 -1.247659 0.791840
-0.579066 -1.245713 0.685055
-0.566553 -1.243792 0.578234
-0.554397 -1.241902 0.471372
-0.542658 -1.240049 0.364463
-0.531398 -1.238237 0.257501
60 NaN NaN
-2.243691 -1.428464 5.417069
-2.149697 -1.419911 5.379812
-2.057884 -1.411509 5.337436
-1.968591 -1.403291 5.289950
-1.882143 -1.395283 5.237428
-1.798844 -1.387516 5.180011
-1.718957 -1.380012 5.117902
-1.642698 -1.372793 5.051356
-1.570230 -1.365876 4.980669
-1.501660 -1.359273 4.906166
-1.437038 -1.352990 4.828185
-1.376368 -1.347031 4.747067
-1.319609 -1.341394 4.663142
-1.266683 -1.336075 4.576727
-1.217489 -1.331068 4.488116
-1.171902 -1.326363 4.397578
-1.129789 -1.321950 4.305359
-1.091004 -1.317820 4.211677
-1.055404 -1.313959 4.116728
-1.022844 -1.310358 4.020683
-0.993181 -1.307004 3.923694
-0.966280 -1.303887 3.825896
-0.942012 -1.300996 3.727403
-0.920255 -1.298322 3.628320
-0.900888 -1.295853 3.528736
-0.883730 -1.293577 3.428742
-0.868555 -1.291472 3.328425
-0.855122 -1.289518 3.227856
-0.843186 -1.287694 3.127096
-0.832495 -1.285979 3.026193
-0.822794 -1.284350 2.925189
-0.813826 -1.282786 2.824117
-0.805332 -1.281262 2.723002
-0.797054 -1.279757 2.621869
-0.788732 -1.278249 2.520740
-0.780107 -1.276714 2.419637
-0.770946 -1.275132 2.318582
-0.761211 -1.273501 2.217581
-0.750954 -1.271823 2.116633
-0.740227 -1.270105 2.015734
-0.729083 -1.268351 1.914881
-0.717573 -1.266564 1.814070
-0.705749 -1.264750 1.713295
-0.693663 -1.262914 1.612552
-0.681367 -1.261059 1.511835
-0.668910 -1.259190 1.411137
-0.656346 -1.257312 1.310454
-0.643726 -1.255429 1.209777
-0.631100 -1.253545 1.109101
-0.618520 -1.251666 1.008419
-0.606037 -1.249795 0.907725
-0.593703 -1.247936 0.807012
-0.581568 -1.246096 0.706275
-0.569686 -1.244277 0.605508
-0.558107 -1.242484 0.504704
-0.546882 -1.240723 0.403860
-0.536065 -1.238997 0.302971
-0.525706 -1.237310 0.202033
-0.515858 -1.235669 0.101044
-0.506574 -1.234076 0.000000
-2.244048 -1.428802 5.417164
-3.506535 -1.538187 5.016329
-4.276945 -0.543467 4.213843
-4.931854 0.674150 3.632058
-5.595001 1.887722 3.050280
-6.250291 3.091625 2.440920
-6.937007 4.252622 1.784767
-7.720697 5.314013 1.072618
-8.641093 6.198505 0.288230
-9.705015 6.827715 -0.557201
-10.876990 7.165745 -1.426502
-12.103534 7.237446 -2.284682
-2.245473 -1.430152 5.417545
-3.505266 -1.539255 5.017446
-3.507805 -1.537119 5.015211
-4.276110 -0.545049 4.214739
-4.277779 -0.541886 4.212947
-4.930981 0.672534 3.632850
-4.932727 0.675766 3.631266
-5.594111 1.886107 3.051053
-5.595892 1.889338 3.049508
-6.249417 3.090040 2.441769
-6.251165 3.093211 2.440070
-6.936036 4.251129 1.785675
-6.937979 4.254116 1.783859
-7.719562 5.312704 1.073618
-7.721832 5.315322 1.071619
-8.639772 6.197471 0.289320
-8.642413 6.199538 0.287140
-9.703516 6.827061 -0.556049
-9.706514 6.828368 -0.558353
-10.875381 7.165479 -1.425345
-10.878599 7.166012 -1.427659
-12.101883 7.237504 -2.283554
-2.267933 -1.451419 5.423541
-3.485267 -1.556076 5.035046
-3.527133 -1.519556 4.997601
-4.262964 -0.569962 4.228851
-4.290933 -0.516875 4.199020
-4.917230 0.647079 3.645325
-4.946478 0.701221 3.618790
-5.580083 1.860655 3.063222
-5.609920 1.914790 3.037339
-6.235651 3.065061 2.455157
-6.264931 3.118190 2.426682
-6.920784 4.227541 1.799946
-6.953288 4.277647 1.769554
-7.701848 5.291873 1.089267
-7.739713 5.335942 1.055880
-8.618973 6.181187 0.306492
-8.663388 6.215514 0.269892
-9.679903 6.816769 -0.537907
-9.730190 6.838489 -0.576508
-10.850030 7.161287 -1.407112
-10.903950 7.170204 -1.445892
-12.075875 7.238409 -2.265795
-2.377098 -1.543162 5.444309
-2.576111 -1.654430 5.442251
-2.791182 -1.718956 5.401436
-3.007078 -1.737866 5.330080
-3.211485 -1.709018 5.232994
-3.389323 -1.628413 5.115059
-3.613287 -1.436109 4.917125
-3.748065 -1.299584 4.792297
-3.879440 -1.158485 4.668967
-3.999048 -1.009548 4.543011
-4.104806 -0.851141 4.416186
-4.202607 -0.682357 4.296561
-4.351504 -0.400338 4.138908
-4.449428 -0.213357 4.050417
-4.550798 -0.026152 3.966363
-4.653439 0.160303 3.882180
-4.754638 0.345744 3.794115
-4.854369 0.530490 3.702953
-5.009824 0.818084 3.562261
-5.110711 1.003454 3.473671
-5.211936 1.188793 3.385404
-5.313270 1.373959 3.296899
-5.414598 1.558997 3.208120
-5.515951 1.743955 3.119201
-5.674457 2.031471 2.981788
-5.776927 2.216262 2.893808
-5.878409 2.400738 2.804047
-5.977623 2.584630 2.710632
-6.075204 2.767778 2.614078
-6.173112 2.950245 2.516571
-6.328375 3.232486 2.365228
-6.429976 3.412666 2.267247
-6.532798 3.591585 2.168234
-6.637119 3.769066 2.068210
-6.743287 3.944869 1.967168
-6.851463 4.118796 1.865019
-7.023911 4.385086 1.703717
-7.137912 4.553173 1.598184
-7.254483 4.718551 1.491190
-7.373764 4.880978 1.382674
-7.495919 5.040158 1.272555
-7.621202 5.195660 1.160711
-7.822226 5.429796 0.983435
-7.955717 5.574896 0.867199
-8.092671 5.715250 0.749178
-8.233031 5.850702 0.629447
-8.376824 5.980968 0.508046
-8.524172 6.105573 0.384977
-8.760161 6.287662 0.190556
-8.916187 6.397016 0.063746
-9.075601 6.499761 -0.064371
-9.238166 6.595952 -0.193608
-9.403723 6.685504 -0.323814
-9.572135 6.768284 -0.454841
-9.839421 6.883003 -0.659885
-10.014362 6.948120 -0.792316
-10.191512 7.006339 -0.925026
-10.370687 7.057636 -1.057873
-10.551618 7.102341 -1.190722
-10.734108 7.140586 -1.323457
-11.020604 7.187192 -1.529367
-11.206276 7.209393 -1.661342
-11.392864 7.225761 -1.792879
-11.580244 7.236254 -1.923889
-11.768242 7.241295 -2.054337
-11.956724 7.241136 -2.184182
171 NaN NaN
-2.243691 -1.428464 5.417069
-2.315583 -1.496537 5.436261
-2.395525 -1.557130 5.446720
-2.481734 -1.609451 5.448716
-2.572485 -1.653084 5.442765
-2.666241 -1.687865 5.429482
-2.761675 -1.713745 5.409482
-2.857624 -1.730691 5.383319
-2.953024 -1.738611 5.351472
-3.046822 -1.737318 5.314351
-3.137896 -1.726515 5.272330
-3.224964 -1.705812 5.225788
-3.306518 -1.674793 5.175186
-3.381461 -1.633947 5.121408
-3.450313 -1.585477 5.065807
-3.514371 -1.531596 5.009433
-3.575236 -1.474173 4.953002
-3.634612 -1.414778 4.897019
-3.694035 -1.354681 4.841841
-3.753503 -1.294038 4.787311
-3.812306 -1.232520 4.733042
-3.869705 -1.169804 4.678644
-3.924930 -1.105594 4.623744
-3.977211 -1.039653 4.568024
-4.026386 -0.971861 4.511697
-4.073010 -0.902166 4.455523
-4.117677 -0.830486 4.400262
-4.160974 -0.756730 4.346670
-4.203472 -0.680810 4.295519
-4.245663 -0.602751 4.247424
-4.287775 -0.522941 4.202216
-4.329990 -0.441829 4.159488
-4.372511 -0.359825 4.118812
-4.415553 -0.277312 4.079744
-4.459338 -0.194648 4.041837
-4.503876 -0.112047 4.004676
-4.548925 -0.029557 3.967885
-4.594226 0.052791 3.931087
-4.639522 0.134970 3.893906
-4.684554 0.216945 3.855964
-4.729139 0.298697 3.817026
-4.773352 0.380273 3.777301
-4.817326 0.461737 3.737083
-4.861195 0.543159 3.696665
-4.905092 0.624610 3.656338
-4.949143 0.706155 3.616372
-4.993376 0.787800 3.576809
-5.037757 0.869513 3.537556
-5.082254 0.951265 3.498516
-5.126836 1.033027 3.459593
-5.171471 1.114769 3.420690
-5.216135 1.196474 3.381742
-5.260817 1.278145 3.342743
-5.305509 1.359785 3.303691
-5.350200 1.441400 3.264585
-5.394883 1.522993 3.225425
-5.439553 1.604570 3.186215
-5.484235 1.686132 3.146990
-5.528966 1.767684 3.107797
-5.573784 1.849226 3.068686
-5.618724 1.930763 3.029702
-5.663821 2.012295 2.990891
-5.709038 2.093815 2.952195
-5.754253 2.175305 2.913432
-5.799338 2.256744 2.874412
-5.844165 2.338111 2.834947
-5.888603 2.419381 2.794849
-5.932529 2.500528 2.753944
-5.975972 2.581534 2.712252
-6.019093 2.662397 2.669953
-6.062056 2.743120 2.627227
-6.105028 2.823707 2.584254
-6.148178 2.904164 2.541215
-6.191644 2.984493 2.498256
-6.235440 3.064677 2.455363
-6.279540 3.144698 2.412474
-6.323918 3.224534 2.369529
-6.368549 3.304165 2.326464
-6.413406 3.383570 2.283219
-6.458488 3.462733 2.239763
-6.503823 3.541636 2.196100
-6.549437 3.620266 2.152233
-6.595356 3.698607 2.108169
-6.641610 3.776642 2.063913
-6.688221 3.854356 2.019467
-6.735205 3.931730 1.974821
-6.782576 4.008745 1.929964
-6.830346 4.085382 1.884882
-6.878526 4.161621 1.839563
-6.927131 4.237441 1.793996
-6.976173 4.312823 1.748171
-7.025668 4.387746 1.702080
-7.075633 4.462188 1.655719
-7.126082 4.536128 1.609079
-7.177031 4.609543 1.562155
-7.228494 4.682411 1.514940
-7.280485 4.754709 1.467428
-7.333017 4.826414 1.419613
-7.386103 4.897501 1.371488
-7.439756 4.967945 1.323047
-7.493986 5.037722 1.274286
-7.548806 5.106807 1.225199
-7.604227 5.175174 1.175783
-7.660259 5.242797 1.126034
-7.716913 5.309650 1.075949
-7.774197 5.375707 1.025526
-7.832121 5.440940 0.974763
-7.890692 5.505324 0.923660
-7.949917 5.568832 0.872215
-8.009802 5.631438 0.820430
-8.070353 5.693114 0.768304
-8.131574 5.753833 0.715840
-8.193470 5.813570 0.663040
-8.256042 5.872300 0.609908
-8.319292 5.929997 0.556448
-8.383220 5.986635 0.502665
-8.447828 6.042189 0.448563
-8.513114 6.096635 0.394150
-8.579074 6.149951 0.339433
-8.645706 6.202116 0.284421
-8.713005 6.253109 0.229121
-8.780966 6.302906 0.173542
-8.849583 6.351487 0.117695
-8.918849 6.398835 0.061591
-8.988753 6.444936 0.005240
-9.059287 6.489774 -0.051346
-9.130441 6.533333 -0.108154
-9.202204 6.575596 -0.165173
-9.274565 6.616555 -0.222389
-9.347509 6.656199 -0.279790
-9.421022 6.694522 -0.337361
-9.495091 6.731516 -0.395090
-9.569702 6.767173 -0.452963
-9.644839 6.801486 -0.510966
-9.720485 6.834457 -0.569087
-9.796623 6.866085 -0.627310
-9.873237 6.896370 -0.685624
-9.950310 6.925313 -0.744014
-10.027825 6.952914 -0.802469
-10.105765 6.979180 -0.860974
-10.184110 7.004118 -0.919519
-10.262843 7.027736 -0.978092
-10.341947 7.050040 -1.036679
-10.421403 7.071040 -1.095272
-10.501196 7.090745 -1.153857
-10.581306 7.109168 -1.212426
-10.661716 7.126322 -1.270969
-10.742410 7.142222 -1.329476
-10.823372 7.156879 -1.387939
-10.904584 7.170308 -1.446348
-10.986031 7.182526 -1.504696
-11.067698 7.193549 -1.562975
-11.149569 7.203393 -1.621178
-11.231630 7.212076 -1.679299
-11.313866 7.219614 -1.737332
-11.396265 7.226026 -1.795270
-11.478812 7.231329 -1.853108
-11.561495 7.235542 -1.910842
-11.644302 7.238684 -1.968467
-11.727221 7.240773 -2.025978
-11.810240 7.241828 -2.083372
-11.893350 7.241867 -2.140646
-11.976539 7.240907 -2.197795
-12.059799 7.238968 -2.254818
-12.143119 7.236069 -2.311711
-12.226490 7.232226 -2.368472
-12.309905 7.227459 -2.425100
-12.393355 7.221787 -2.481592
-12.476833 7.215226 -2.537948
-12.560331 7.207795 -2.594165
-12.643842 7.199513 -2.650243
-1.772536 -1.499531 6.751044
-1.675519 -1.439432 6.763205
-1.579798 -1.377373 6.775773
-1.485572 -1.313159 6.788789
-1.393088 -1.246564 6.802300
-1.302652 -1.177328 6.816360
-1.214651 -1.105152 6.831032
-1.129580 -1.029689 6.846387
-1.048079 -0.950549 6.862509
-0.970984 -0.867296 6.879489
-0.899397 -0.779470 6.897425
-0.834768 -0.686634 6.916409
-0.778972 -0.588481 6.936509
-0.734346 -0.485014 6.957731
-0.703546 -0.376831 6.979957
-0.689118 -0.265401 7.002890
-0.693214 -0.153143 7.026037
-0.715885 -0.043052 7.048781
-0.754821 0.062553 7.070638
-0.807398 0.162325 7.091324
-0.870891 0.255825 7.110743
-0.942926 0.343209 7.128921
-1.021608 0.424931 7.145948
-1.105493 0.501550 7.161935
-1.193490 0.573625 7.176995
-1.284783 0.641671 7.191232
-1.378752 0.706139 7.204738
-1.770844 -1.498486 6.751255
-1.677190 -1.440509 6.762987
-1.673848 -1.438355 6.763423
-1.581445 -1.378485 6.775548
-1.578150 -1.376261 6.775999
-1.487191 -1.314309 6.788556
-1.483952 -1.312009 6.789023
-1.394675 -1.247756 6.802058
-1.391500 -1.245372 6.802542
-1.304201 -1.178567 6.816108
-1.301102 -1.176089 6.816612
-1.216156 -1.106442 6.830769
-1.213146 -1.103861 6.831294
-1.131031 -1.031038 6.846113
-1.128128 -1.028341 6.846662
-1.049465 -0.951961 6.862221
-1.046692 -0.949137 6.862797
-0.972291 -0.868779 6.879187
-0.969677 -0.865813 6.879792
-0.900606 -0.781031 6.897106
-0.898189 -0.777908 6.897744
-0.835852 -0.688281 6.916072
-0.833683 -0.684988 6.916745
-0.779902 -0.590216 6.936154
-0.778043 -0.586746 6.936865
-0.735082 -0.486835 6.957357
-0.733610 -0.483192 6.958105
-0.704047 -0.378728 6.979567
-0.703046 -0.374934 6.980347
-0.689343 -0.267348 7.002489
-0.688892 -0.263455 7.003291
-0.692843 -0.155067 7.025640
-0.693585 -0.151218 7.026435
-0.715242 -0.044906 7.048397
-0.716529 -0.041197 7.049165
-0.753945 0.060792 7.070273
-0.755698 0.064313 7.071002
-0.806332 0.160668 7.090980
-0.808464 0.163982 7.091668
-0.869675 0.254271 7.110420
-0.872107 0.257380 7.111066
-0.941591 0.341750 7.128617
-0.944260 0.344667 7.129225
-1.020180 0.423560 7.145662
-1.023037 0.426301 7.146234
-1.103990 0.500258 7.161665
-1.106995 0.502842 7.162205
-1.191928 0.572404 7.176740
-1.195053 0.574847 7.177251
-1.283172 0.640512 7.190990
-1.286395 0.642829 7.191475
-1.377100 0.705037 7.204507
-1.766177 -1.495603 6.751839
-1.681801 -1.443478 6.762386
-1.669238 -1.435384 6.764025
-1.585988 -1.381552 6.774926
-1.573607 -1.373194 6.776620
-1.491659 -1.317482 6.787913
-1.479485 -1.308836 6.789666
-1.399054 -1.251045 6.801390
-1.387122 -1.242083 6.803210
-1.308476 -1.181985 6.815414
-1.296827 -1.172672 6.817306
-1.220308 -1.110002 6.830045
-1.208994 -1.100301 6.832018
-1.135036 -1.034756 6.845356
-1.124124 -1.024623 6.847419
-1.053291 -0.955857 6.861427
-1.042866 -0.945242 6.863591
-0.975897 -0.872870 6.878352
-0.966071 -0.861722 6.880627
-0.903939 -0.785338 6.896226
-0.894855 -0.773601 6.898624
-0.838845 -0.692822 6.915143
-0.830690 -0.680447 6.917674
-0.782466 -0.595001 6.935173
-0.775478 -0.581960 6.937845
-0.737112 -0.491860 6.956326
-0.731579 -0.478167 6.959136
-0.705427 -0.383960 6.978492
-0.701666 -0.369702 6.981422
-0.689966 -0.272717 7.001384
-0.688829 -0.258065 7.004402
-0.692461 -0.160447 7.024530
-0.694608 -0.145909 7.027532
-0.713466 -0.050021 7.047339
-0.718305 -0.036082 7.050223
-0.751527 0.055936 7.069266
-0.758115 0.069169 7.072009
-0.803392 0.156098 7.090031
-0.811404 0.168553 7.092617
-0.866320 0.249983 7.109528
-0.875462 0.261668 7.111958
-0.937910 0.337727 7.127780
-0.947942 0.348690 7.130062
-1.016241 0.419779 7.144873
-1.026976 0.430082 7.147022
-1.099845 0.496694 7.160921
-1.111141 0.506406 7.162949
-1.187616 0.569034 7.176035
-1.199364 0.578217 7.177955
-1.278725 0.637315 7.190320
-1.290842 0.646026 7.192144
-1.372541 0.701995 7.203870
-1.756314 -1.489509 6.753072
-1.743384 -1.481522 6.754688
-1.730454 -1.473534 6.756304
-1.717524 -1.465547 6.757920
-1.704594 -1.457559 6.759537
-1.691664 -1.449571 6.761153
-1.659497 -1.429105 6.765296
-1.646727 -1.420874 6.766963
-1.633958 -1.412643 6.768630
-1.621188 -1.404411 6.770297
-1.608418 -1.396180 6.771964
-1.595648 -1.387949 6.773631
-1.564006 -1.366712 6.777934
-1.551419 -1.358214 6.779656
-1.538832 -1.349717 6.781378
-1.526245 -1.341220 6.783100
-1.513659 -1.332722 6.784823
-1.501099 -1.324187 6.786553
-1.470045 -1.302131 6.791026
-1.457669 -1.293341 6.792809
-1.445293 -1.284552 6.794592
-1.432917 -1.275762 6.796375
-1.420541 -1.266972 6.798158
-1.408308 -1.257996 6.799979
-1.377868 -1.235132 6.804621
-1.365737 -1.226020 6.806471
-1.353607 -1.216909 6.808321
-1.341476 -1.207797 6.810170
-1.329354 -1.198675 6.812022
-1.317511 -1.189207 6.813946
-1.287793 -1.165450 6.818774
-1.275950 -1.155982 6.820698
-1.264106 -1.146514 6.822621
-1.252263 -1.137046 6.824545
-1.240584 -1.127389 6.826509
-1.229082 -1.117526 6.828515
-1.200220 -1.092777 6.833549
-1.188717 -1.082915 6.835555
-1.177215 -1.073052 6.837561
-1.165713 -1.063189 6.839567
-1.154592 -1.052917 6.841658
-1.143498 -1.042615 6.843756
-1.115661 -1.016764 6.849019
-1.104568 -1.006462 6.851117
-1.093474 -0.996160 6.853214
-1.082571 -0.985671 6.855351
-1.071973 -0.974879 6.857550
-1.061375 -0.964088 6.859750
-1.034782 -0.937010 6.865269
-1.024184 -0.926219 6.867468
-1.013587 -0.915428 6.869668
-1.003496 -0.904184 6.871962
-0.993506 -0.892850 6.874275
-0.983517 -0.881516 6.876587
-0.958451 -0.853076 6.882391
-0.948461 -0.841742 6.884704
-0.938687 -0.830237 6.887052
-0.929452 -0.818305 6.889490
-0.920218 -0.806373 6.891928
-0.910983 -0.794440 6.894366
-0.887811 -0.764499 6.900483
-0.878577 -0.752567 6.902921
-0.870038 -0.740157 6.905459
-0.861748 -0.727578 6.908033
-0.853458 -0.714998 6.910606
-0.845168 -0.702418 6.913180
-0.824367 -0.670851 6.919637
-0.816301 -0.658143 6.922238
-0.809197 -0.644886 6.924954
-0.802093 -0.631629 6.927670
-0.794989 -0.618371 6.930386
-0.787885 -0.605114 6.933102
-0.770059 -0.571847 6.939917
-0.763904 -0.558164 6.942723
-0.758279 -0.544243 6.945579
-0.752654 -0.530322 6.948435
-0.747029 -0.516401 6.951291
-0.741403 -0.502480 6.954148
-0.727461 -0.467492 6.961326
-0.723637 -0.452997 6.964305
-0.719814 -0.438502 6.967284
-0.715990 -0.424007 6.970262
-0.712167 -0.409512 6.973241
-0.708344 -0.395017 6.976220
-0.699906 -0.358436 6.983740
-0.698182 -0.343561 6.986802
-0.696457 -0.328687 6.989863
-0.694732 -0.313812 6.992925
-0.693007 -0.298938 6.995987
-0.691282 -0.284063 6.999049
-0.689253 -0.246654 7.006755
-0.689810 -0.231695 7.009839
-0.690367 -0.216736 7.012924
-0.690923 -0.201776 7.016008
-0.691480 -0.186817 7.019093
-0.692036 -0.171858 7.022177
-0.696769 -0.134689 7.029849
-0.699603 -0.119980 7.032887
-0.702437 -0.105272 7.035925
-0.705271 -0.090564 7.038963
-0.708105 -0.075855 7.042002
-0.710939 -0.061147 7.045040
-0.722057 -0.025273 7.052460
-0.726976 -0.011102 7.055392
-0.731895 0.003068 7.058324
-0.736815 0.017239 7.061256
-0.741734 0.031409 7.064188
-0.746653 0.045580 7.067120
-0.763224 0.079431 7.074136
-0.769922 0.092883 7.076924
-0.776620 0.106335 7.079712
-0.783317 0.119788 7.082501
-0.790015 0.133240 7.085289
-0.797179 0.146438 7.088026
-0.817617 0.178213 7.094622
-0.825761 0.190876 7.097251
-0.833906 0.203539 7.099880
-0.842051 0.216202 7.102509
-0.850195 0.228865 7.105138
-0.859231 0.240920 7.107644
-0.882551 0.270730 7.113842
-0.891845 0.282610 7.116312
-0.901138 0.294490 7.118782
-0.910432 0.306369 7.121253
-0.919931 0.318081 7.123689
-0.930130 0.329226 7.126009
-0.955721 0.357191 7.131833
-0.965920 0.368336 7.134153
-0.976119 0.379480 7.136474
-0.986317 0.390625 7.138795
-0.997002 0.401314 7.141023
-1.007916 0.411789 7.143207
-1.035301 0.438073 7.148688
-1.046215 0.448547 7.150873
-1.057129 0.459022 7.153057
-1.068117 0.469418 7.155225
-1.079601 0.479290 7.157287
-1.091085 0.489163 7.159348
-1.119901 0.513937 7.164522
-1.131385 0.523810 7.166583
-1.142868 0.533682 7.168645
-1.154619 0.543242 7.170642
-1.166563 0.552578 7.172594
-1.178506 0.561913 7.174546
-1.208475 0.585338 7.179444
-1.220418 0.594673 7.181396
-1.232374 0.603993 7.183345
-1.244692 0.612849 7.185198
-1.257010 0.621704 7.187052
-1.269328 0.630560 7.188906
-1.300238 0.652781 7.193558
-1.312557 0.661637 7.195412
-1.325025 0.670286 7.197224
-1.337653 0.678712 7.198990
-1.350281 0.687139 7.200756
-1.362908 0.695566 7.202522
29 NaN NaN
-1.772959 -1.499792 6.750991
-1.681688 -1.443409 6.762400
-1.591547 -1.385306 6.774166
-1.502699 -1.325323 6.786322
-1.415341 -1.263278 6.798907
-1.329713 -1.198961 6.811964
-1.246115 -1.132132 6.825544
-1.164926 -1.062514 6.839704
-1.086623 -0.989797 6.854510
-1.011821 -0.913630 6.870034
-0.941316 -0.833634 6.886358
-0.876142 -0.749421 6.903564
-0.817641 -0.660644 6.921726
-0.767514 -0.567098 6.940890
-0.727828 -0.468883 6.961041
-0.700858 -0.366637 6.982052
-0.688692 -0.261732 7.003645
-0.692618 -0.156237 7.025398
-0.712604 -0.052503 7.046825
-0.747302 0.047451 7.067507
-0.794554 0.142357 7.087178
-0.852024 0.231708 7.105728
-0.917608 0.315542 7.123160
-0.989585 0.394195 7.139538
-1.066614 0.468125 7.154955
-1.147669 0.537810 7.169507
-1.231970 0.603702 7.183284
-1.318919 0.666211 7.196370
-1.408056 0.725694 7.208837
-1.629367 -1.371285 5.038842
-1.442738 -1.241729 5.082510
-1.263572 -1.102616 5.127894
-1.095111 -0.951418 5.175358
-0.942973 -0.784671 5.225317
-0.817499 -0.598102 5.278042
-0.737562 -0.389123 5.332802
-0.729317 -0.165929 5.385818
-0.803322 0.046867 5.430559
-0.938709 0.230428 5.464080
-1.109138 0.384544 5.488199
-1.298818 0.515659 5.505550
-1.627739 -1.370185 5.039216
-1.444310 -1.242903 5.082123
-1.441166 -1.240555 5.082898
-1.265067 -1.103882 5.127491
-1.262078 -1.101349 5.128298
-1.096492 -0.952802 5.174935
-1.093730 -0.950034 5.175781
-0.944177 -0.786204 5.224872
-0.941769 -0.783137 5.225763
-0.818410 -0.599819 5.277574
-0.816588 -0.596384 5.278510
-0.737983 -0.391020 5.332327
-0.737140 -0.387227 5.333278
-0.729049 -0.167862 5.385383
-0.729586 -0.163995 5.386253
-0.802410 0.045121 5.430214
-0.804234 0.048614 5.430905
-0.937389 0.228948 5.463826
-0.940029 0.231909 5.464334
-1.107591 0.383290 5.488014
-1.110686 0.385797 5.488384
-1.297140 0.514579 5.505415
-1.619926 -1.364906 5.041010
-1.451885 -1.248498 5.080272
-1.433622 -1.234920 5.084756
-1.272238 -1.109960 5.125555
-1.254907 -1.095271 5.130234
-1.103118 -0.959442 5.172905
-1.087104 -0.943394 5.177811
-0.949954 -0.793564 5.222733
-0.935992 -0.775777 5.227902
-0.822781 -0.608063 5.275327
-0.812216 -0.588140 5.280757
-0.740005 -0.400120 5.330046
-0.735119 -0.378126 5.335559
-0.727762 -0.177141 5.383295
-0.730873 -0.154716 5.388342
-0.798034 0.036742 5.428556
-0.808610 0.056993 5.432563
-0.931052 0.221843 5.462606
-0.946366 0.239014 5.465554
-1.100165 0.377275 5.487128
-1.118112 0.391812 5.489270
-1.289090 0.509393 5.504768
-1.600312 -1.351654 5.045514
-1.574267 -1.334057 5.051495
-1.548223 -1.316461 5.057475
-1.522450 -1.298494 5.063523
-1.496819 -1.280334 5.069607
-1.471187 -1.262174 5.075690
-1.414682 -1.220774 5.089423
-1.389533 -1.201989 5.095619
-1.364383 -1.183205 5.101815
-1.339767 -1.163765 5.108127
-1.315185 -1.144284 5.114446
-1.290602 -1.124803 5.120766
-1.236903 -1.080012 5.135096
-1.212997 -1.059750 5.141551
-1.189273 -1.039291 5.148039
-1.166183 -1.018149 5.154643
-1.143093 -0.997007 5.161247
-1.120003 -0.975864 5.167850
-1.070470 -0.926723 5.182907
-1.048381 -0.904585 5.189673
-1.026925 -0.881877 5.196529
-1.006085 -0.858613 5.203472
-0.985245 -0.835349 5.210415
-0.964457 -0.812042 5.217364
-0.921488 -0.757299 5.233271
-0.902230 -0.732763 5.240400
-0.884582 -0.707106 5.247679
-0.867359 -0.681153 5.254997
-0.850136 -0.655199 5.262315
-0.833756 -0.628760 5.269687
-0.801241 -0.567443 5.286397
-0.786932 -0.539843 5.293895
-0.775806 -0.510824 5.301501
-0.764679 -0.481806 5.309107
-0.753553 -0.452787 5.316713
-0.745080 -0.422969 5.324318
-0.730043 -0.355277 5.341286
-0.725232 -0.324663 5.348819
-0.723767 -0.293571 5.356227
-0.722302 -0.262478 5.363635
-0.720837 -0.231386 5.371043
-0.724530 -0.200437 5.378051
-0.734105 -0.131421 5.393585
-0.742046 -0.101242 5.400111
-0.751886 -0.071456 5.406411
-0.761726 -0.041669 5.412711
-0.772458 -0.012231 5.418865
-0.787047 0.015704 5.424393
-0.819596 0.078031 5.436726
-0.837723 0.103938 5.441527
-0.856043 0.129734 5.446287
-0.874363 0.155531 5.451048
-0.894019 0.180321 5.455478
-0.915144 0.204006 5.459544
-0.962763 0.256397 5.468475
-0.985968 0.278152 5.471940
-1.009172 0.299907 5.475405
-1.032377 0.321662 5.478870
-1.056764 0.342121 5.481947
-1.081521 0.362174 5.484902
-1.137367 0.406145 5.491272
-1.163299 0.424716 5.493796
-1.189230 0.443288 5.496320
-1.215204 0.461801 5.498827
-1.242041 0.479088 5.500985
-1.268879 0.496375 5.503143
25 NaN NaN
-1.629774 -1.371560 5.038749
-1.539293 -1.310428 5.059526
-1.450250 -1.247340 5.080660
-1.362880 -1.182082 5.102185
-1.277482 -1.114405 5.124139
-1.194433 -1.044015 5.146563
-1.114221 -0.970570 5.169504
-1.037491 -0.893671 5.193010
-0.965099 -0.812860 5.217126
-0.898206 -0.727637 5.241890
-0.838391 -0.637500 5.267305
-0.787785 -0.542069 5.293312
-0.749158 -0.441325 5.319717
-0.725767 -0.336030 5.346111
-0.720685 -0.228152 5.371813
-0.735573 -0.120837 5.395967
-0.769715 -0.017483 5.417826
-0.820351 0.079475 5.437012
-0.883956 0.169038 5.453541
-0.957313 0.251287 5.467661
-1.037906 0.326846 5.479696
-1.123898 0.396498 5.489961
-1.213976 0.461010 5.498728
-1.307205 0.521061 5.506224
-1.402904 0.577231 5.512633
-0.953314 -1.301936 3.774302
-0.787111 -0.963701 3.812401
-0.686074 -0.602648 3.861920
-0.697891 -0.231526 3.926223
-0.856369 0.101149 4.001001
-1.127468 0.353232 4.075162
-0.952344 -1.300197 3.774485
-0.787855 -0.965543 3.812175
-0.786367 -0.961858 3.812627
-0.686297 -0.604611 3.861613
-0.685851 -0.600684 3.862227
-0.697496 -0.233451 3.925851
-0.698286 -0.229601 3.926595
-0.855140 0.099623 4.000600
-0.857598 0.102676 4.001402
-1.125878 0.352078 4.074782
-0.945181 -1.287351 3.775833
-0.793351 -0.979151 3.810504
-0.780871 -0.948251 3.814298
-0.688096 -0.619092 3.859366
-0.684204 -0.586182 3.864495
-0.694575 -0.247666 3.923102
-0.701207 -0.215386 3.929344
-0.846066 0.088353 3.997637
-0.866673 0.113946 4.004365
-1.114141 0.343563 4.071978
-0.925849 -1.252684 3.779472
-0.900187 -1.206368 3.784353
-0.876111 -1.159239 3.789555
-0.852188 -1.112039 3.794787
-0.830095 -1.063992 3.800374
-0.808183 -1.015871 3.805996
-0.766605 -0.911332 3.818905
-0.749512 -0.861396 3.825393
-0.733087 -0.811269 3.831990
-0.719151 -0.760431 3.838996
-0.706005 -0.709423 3.846123
-0.695769 -0.657792 3.853692
-0.679759 -0.547048 3.870617
-0.675545 -0.494758 3.878996
-0.674558 -0.442319 3.887774
-0.675503 -0.389982 3.896758
-0.680050 -0.337835 3.906128
-0.686695 -0.286028 3.915684
-0.712050 -0.177865 3.936964
-0.728685 -0.128420 3.947276
-0.748206 -0.080177 3.957719
-0.770771 -0.033201 3.968299
-0.795983 0.012289 3.978935
-0.823963 0.056229 3.989628
-0.891162 0.144361 4.012360
-0.926270 0.182791 4.022945
-0.962847 0.219925 4.033481
-1.001403 0.254967 4.043891
-1.041143 0.288757 4.054225
-1.082465 0.320583 4.064410
21 NaN NaN
-0.953557 -1.302371 3.774257
-0.902011 -1.209938 3.783958
-0.853895 -1.115750 3.794355
-0.809741 -1.019729 3.805522
-0.770197 -0.921824 3.817542
-0.736038 -0.822034 3.830506
-0.708191 -0.720445 3.844507
-0.687736 -0.617278 3.859632
-0.675887 -0.512960 3.875949
-0.673915 -0.408197 3.893486
-0.682998 -0.304025 3.912203
-0.703999 -0.201794 3.931973
-0.737227 -0.103032 3.952571
-0.782299 -0.009200 3.973705
-0.838190 0.078572 3.995066
-0.903462 0.159637 4.016376
-0.976542 0.233828 4.037425
-1.055946 0.301344 4.058075
-1.140392 0.362608 4.078249
-1.228831 0.418146 4.097915
-1.320430 0.468506 4.117069
-0.835498 -1.286060 3.056805
-0.752810 -1.127495 3.066567
-0.680971 -0.963898 3.078162
-0.623590 -0.794862 3.092045
-0.586074 -0.620691 3.108790
-0.571658 -0.443492 3.128509
-0.588774 -0.266990 3.151706
-0.639038 -0.097592 3.177791
-0.720795 0.058935 3.205882
-0.831886 0.196078 3.234952
-0.961947 0.315409 3.264019
-1.106467 0.417129 3.292597
-0.834548 -1.284303 3.056909
-0.753689 -1.129287 3.066451
-0.751930 -1.125703 3.066684
-0.681672 -0.965766 3.078016
-0.680270 -0.962031 3.078307
-0.624178 -0.796766 3.091881
-0.623002 -0.792957 3.092208
-0.586372 -0.622658 3.108586
-0.585776 -0.618723 3.108993
-0.571568 -0.445474 3.128260
-0.571749 -0.441510 3.128758
-0.588458 -0.268946 3.151434
-0.589090 -0.265034 3.151977
-0.638253 -0.099406 3.177484
-0.639823 -0.095778 3.178098
-0.719795 0.057233 3.205564
-0.721795 0.060638 3.206200
-0.830541 0.194635 3.234626
-0.833231 0.197522 3.235278
-0.960374 0.314216 3.263698
-0.963520 0.316601 3.264340
-1.104814 0.416049 3.292280
-0.830855 -1.277479 3.057314
-0.757107 -1.136250 3.065998
-0.748512 -1.118740 3.067137
-0.684395 -0.973020 3.077450
-0.677547 -0.954776 3.078874
-0.626461 -0.804166 3.091248
-0.620719 -0.785558 3.092841
-0.587528 -0.630300 3.107796
-0.584620 -0.611081 3.109783
-0.571217 -0.453176 3.127292
-0.572099 -0.433809 3.129725
-0.587229 -0.276545 3.150380
-0.590319 -0.257435 3.153031
-0.635204 -0.106451 3.176290
-0.642872 -0.088732 3.179291
-0.715910 0.050619 3.204329
-0.726214 0.066892 3.207453
-0.825315 0.189026 3.233361
-0.838457 0.203131 3.236544
-0.954262 0.309584 3.262449
-0.969631 0.321233 3.265589
-1.098394 0.411850 3.291049
-0.822052 -1.261209 3.058280
-0.810405 -1.239683 3.059557
-0.798758 -1.218157 3.060835
-0.787110 -1.196630 3.062113
-0.776036 -1.174815 3.063490
-0.765255 -1.152851 3.064918
-0.740364 -1.102140 3.068216
-0.730044 -1.079968 3.069722
-0.720272 -1.057548 3.071319
-0.710500 -1.035129 3.072916
-0.700727 -1.012709 3.074513
-0.690955 -0.990290 3.076110
-0.671053 -0.937480 3.080224
-0.662462 -0.914596 3.082011
-0.653871 -0.891712 3.083797
-0.646308 -0.868490 3.085740
-0.639106 -0.845149 3.087739
-0.631904 -0.821808 3.089737
-0.616152 -0.767690 3.094478
-0.610586 -0.743926 3.096712
-0.605020 -0.720163 3.098946
-0.599454 -0.696399 3.101180
-0.593931 -0.672628 3.103420
-0.590284 -0.648521 3.105912
-0.581864 -0.592861 3.111667
-0.578217 -0.568753 3.114159
-0.576394 -0.544480 3.116878
-0.574973 -0.520169 3.119646
-0.573552 -0.495859 3.122414
-0.572131 -0.471549 3.125182
-0.572936 -0.415448 3.132032
-0.574042 -0.391155 3.135083
-0.575148 -0.366862 3.138135
-0.576545 -0.342603 3.141215
-0.580422 -0.318633 3.144541
-0.584299 -0.294662 3.147866
-0.593249 -0.239318 3.155545
-0.599738 -0.215968 3.159091
-0.606508 -0.192685 3.162660
-0.613277 -0.169402 3.166230
-0.620047 -0.146119 3.169800
-0.627934 -0.123250 3.173445
-0.650142 -0.071934 3.182136
-0.659761 -0.049708 3.185900
-0.669881 -0.027741 3.189690
-0.682136 -0.006877 3.193587
-0.694391 0.013986 3.197485
-0.706647 0.034850 3.201383
-0.737218 0.081488 3.210454
-0.751778 0.100799 3.214425
-0.766338 0.120110 3.218396
-0.780897 0.139421 3.222367
-0.796373 0.157962 3.226349
-0.812857 0.175654 3.230342
-0.850915 0.216503 3.239562
-0.867824 0.233762 3.243551
-0.885865 0.249867 3.247529
-0.903906 0.265972 3.251507
-0.921947 0.282077 3.255485
-0.939987 0.298183 3.259463
-0.984202 0.332278 3.268565
-1.003480 0.346890 3.272503
-1.022758 0.361503 3.276441
-1.042579 0.375353 3.280348
-1.062833 0.388596 3.284231
-1.083086 0.401840 3.288114
20 NaN NaN
-0.835736 -1.286499 3.056778
-0.783167 -1.189342 3.062545
-0.734509 -1.090211 3.068992
-0.690405 -0.989027 3.076200
-0.651633 -0.885749 3.084263
-0.619132 -0.780412 3.093282
-0.594014 -0.673176 3.103363
-0.577558 -0.564397 3.114610
-0.571147 -0.454712 3.127099
-0.576139 -0.345116 3.140866
-0.593627 -0.236984 3.155869
-0.624164 -0.131959 3.171970
-0.667553 -0.031703 3.188949
-0.722838 0.062414 3.206532
-0.788523 0.149536 3.224447
-0.862896 0.229362 3.242465
-0.944303 0.302035 3.260415
-1.031298 0.367976 3.278185
-1.122700 0.427744 3.295710
-1.217572 0.481934 3.312954
-0.771943 -1.274886 2.331854
-0.695425 -1.091145 2.361003
-0.634791 -0.902259 2.394017
-0.594156 -0.708962 2.431423
-0.578367 -0.513135 2.473609
-0.592249 -0.318324 2.520579
-0.639095 -0.129769 2.571690
-0.719405 0.046394 2.625620
-0.829534 0.205262 2.680630
-0.962565 0.345653 2.735280
-1.112688 0.468209 2.788735
-0.771148 -1.273072 2.332135
-0.696145 -1.092987 2.360703
-0.694706 -1.089304 2.361304
-0.635326 -0.904155 2.393674
-0.634256 -0.900363 2.394361
-0.594453 -0.710900 2.431029
-0.593858 -0.707024 2.431817
-0.578368 -0.515085 2.473163
-0.578367 -0.511186 2.474056
-0.591902 -0.320230 2.520084
-0.592596 -0.316418 2.521075
-0.638385 -0.131562 2.571159
-0.639806 -0.127977 2.572221
-0.718523 0.044683 2.625079
-0.720287 0.048106 2.626161
-0.828356 0.203742 2.680083
-0.830713 0.206782 2.681178
-0.961163 0.344333 2.734741
-0.963968 0.346972 2.735820
-1.111126 0.467075 2.788212
-0.767749 -1.265328 2.333334
-0.699218 -1.100853 2.359421
-0.691632 -1.081437 2.362586
-0.637611 -0.912254 2.392205
-0.631971 -0.892264 2.395830
-0.595724 -0.719178 2.429348
-0.592587 -0.698746 2.433498
-0.578370 -0.523411 2.471256
-0.578365 -0.502859 2.475963
-0.590418 -0.328372 2.517968
-0.594080 -0.308276 2.523190
-0.635351 -0.139219 2.568892
-0.642840 -0.120320 2.574487
-0.714757 0.037372 2.622768
-0.724442 0.055187 2.628486
-0.823323 0.197248 2.677744
-0.835746 0.213276 2.683516
-0.955172 0.338696 2.732437
-0.969959 0.352609 2.738124
-1.104456 0.462232 2.785974
-0.759442 -1.246399 2.336265
-0.748432 -1.221310 2.340150
-0.737421 -1.196221 2.344036
-0.726644 -1.171046 2.347980
-0.716687 -1.145563 2.352134
-0.706730 -1.120080 2.356287
-0.684789 -1.061994 2.365882
-0.676028 -1.036124 2.370327
-0.667267 -1.010254 2.374771
-0.658506 -0.984384 2.379216
-0.650597 -0.958285 2.383857
-0.643195 -0.932048 2.388615
-0.626386 -0.872469 2.399420
-0.620472 -0.845919 2.404501
-0.614612 -0.819358 2.409595
-0.608752 -0.792797 2.414688
-0.602949 -0.766228 2.419793
-0.598831 -0.739411 2.425239
-0.589480 -0.678513 2.437607
-0.586087 -0.651640 2.443189
-0.583922 -0.624671 2.449000
-0.581757 -0.597703 2.454811
-0.579591 -0.570734 2.460623
-0.578375 -0.543763 2.466595
-0.578360 -0.482508 2.480623
-0.578353 -0.455534 2.486801
-0.580169 -0.428703 2.493254
-0.582503 -0.401914 2.499784
-0.584836 -0.375125 2.506315
-0.587170 -0.348335 2.512846
-0.597706 -0.288376 2.528362
-0.602512 -0.262000 2.535216
-0.607789 -0.235747 2.542122
-0.615124 -0.210035 2.549251
-0.622459 -0.184322 2.556381
-0.629793 -0.158610 2.563511
-0.650256 -0.101606 2.580028
-0.660085 -0.076803 2.587371
-0.669915 -0.051999 2.594715
-0.681153 -0.027861 2.602144
-0.693353 -0.004179 2.609631
-0.705553 0.019504 2.617119
-0.735287 0.072092 2.634191
-0.749660 0.094497 2.641754
-0.764033 0.116902 2.649316
-0.778411 0.139304 2.656878
-0.794716 0.160340 2.664454
-0.811021 0.181377 2.672029
-0.848619 0.228670 2.689219
-0.866600 0.248308 2.696757
-0.884580 0.267946 2.704296
-0.902560 0.287585 2.711834
-0.921124 0.306659 2.719342
-0.940530 0.324919 2.726806
-0.984600 0.366386 2.743755
-1.004905 0.383657 2.751144
-1.025512 0.400595 2.758508
-1.046119 0.417533 2.765872
-1.066726 0.434471 2.773236
-1.088151 0.450393 2.780506
20 NaN NaN
-0.772142 -1.275339 2.331784
-0.728843 -1.176673 2.347063
-0.689687 -1.076459 2.363397
-0.655235 -0.974725 2.380875
-0.626128 -0.871553 2.399586
-0.603084 -0.767107 2.419614
-0.586892 -0.661659 2.441030
-0.578378 -0.555619 2.463880
-0.578352 -0.449562 2.488168
-0.587527 -0.344237 2.513845
-0.606422 -0.240540 2.540793
-0.635258 -0.139454 2.568823
-0.673901 -0.041940 2.597693
-0.721864 0.051168 2.627129
-0.778374 0.139257 2.656861
-0.842482 0.221967 2.686646
-0.913180 0.299184 2.716286
-0.989490 0.370987 2.745636
-1.070522 0.437592 2.774593
-1.155503 0.499298 2.803096
-0.692947 -1.262379 1.608357
-0.612118 -1.069189 1.618065
-0.547899 -0.870440 1.635608
-0.505256 -0.667099 1.662757
-0.490231 -0.461816 1.701349
-0.508744 -0.259756 1.752623
-0.564054 -0.068311 1.816275
-0.654474 0.105327 1.890069
-0.773961 0.257105 1.970713
-0.915077 0.386789 2.055189
-0.692142 -1.260550 1.608433
-0.612853 -1.071046 1.617955
-0.611384 -1.067332 1.618175
-0.548459 -0.872350 1.635416
-0.547340 -0.868529 1.635800
-0.505586 -0.669050 1.662465
-0.504927 -0.665148 1.663050
-0.490268 -0.463773 1.700939
-0.490195 -0.459859 1.701760
-0.508431 -0.261657 1.752086
-0.509056 -0.257855 1.753161
-0.563376 -0.070075 1.815621
-0.564732 -0.066546 1.816929
-0.653471 0.103763 1.889329
-0.655477 0.106891 1.890809
-0.772706 0.255764 1.969921
-0.775215 0.258447 1.971505
-0.913645 0.385657 2.054371
-0.688581 -1.252467 1.608768
-0.616098 -1.079253 1.617467
-0.608330 -1.059060 1.618753
-0.550930 -0.880795 1.634568
-0.544869 -0.860085 1.636648
-0.507043 -0.677672 1.661174
-0.503470 -0.656526 1.664341
-0.490428 -0.472422 1.699124
-0.490035 -0.451209 1.703574
-0.507050 -0.270058 1.749710
-0.510438 -0.249454 1.755537
-0.560381 -0.077873 1.812733
-0.567727 -0.058748 1.819818
-0.649039 0.096850 1.886059
-0.659910 0.113804 1.894079
-0.767163 0.249834 1.966421
-0.780758 0.264376 1.975004
-0.907316 0.380653 2.050759
-0.679806 -1.232546 1.609593
-0.668169 -1.206127 1.610687
-0.656531 -1.179709 1.611782
-0.645309 -1.153127 1.613077
-0.634702 -1.126304 1.614671
-0.624096 -1.099480 1.616265
-0.601221 -1.038533 1.620375
-0.591794 -1.011310 1.622526
-0.582367 -0.984088 1.624677
-0.573172 -0.956801 1.626935
-0.565096 -0.929203 1.629706
-0.557019 -0.901605 1.632478
-0.539842 -0.839048 1.639211
-0.533313 -0.811120 1.642672
-0.526785 -0.783193 1.646133
-0.520257 -0.755265 1.649594
-0.515394 -0.727100 1.653770
-0.510633 -0.698921 1.657991
-0.500794 -0.635218 1.667901
-0.498034 -0.606908 1.672949
-0.495274 -0.578597 1.677997
-0.492515 -0.550287 1.683045
-0.491349 -0.522007 1.688722
-0.490824 -0.493738 1.694652
-0.490196 -0.429955 1.708255
-0.492115 -0.401955 1.715103
-0.494034 -0.373955 1.721950
-0.495953 -0.345955 1.728797
-0.499131 -0.318219 1.736089
-0.503646 -0.290762 1.743855
-0.513842 -0.228751 1.761392
-0.521017 -0.202135 1.770036
-0.528191 -0.175520 1.778679
-0.535365 -0.148904 1.787323
-0.543211 -0.122579 1.796171
-0.553000 -0.097092 1.805613
-0.575108 -0.039529 1.826937
-0.586801 -0.015097 1.836909
-0.599055 0.009023 1.847038
-0.611308 0.033144 1.857167
-0.623628 0.057221 1.867312
-0.638115 0.079814 1.877999
-0.670834 0.130840 1.902138
-0.686387 0.152559 1.913061
-0.702831 0.173547 1.924182
-0.719275 0.194535 1.935302
-0.735720 0.215523 1.946422
-0.753503 0.235222 1.957797
-0.794418 0.278989 1.983629
-0.812977 0.297877 1.995137
-0.832496 0.315698 2.006796
-0.852015 0.333520 2.018456
-0.871535 0.351342 2.030115
-0.891720 0.368324 2.041858
20 NaN NaN
-0.693149 -1.262836 1.608338
-0.649574 -1.163914 1.612436
-0.609859 -1.063474 1.618404
-0.574560 -0.961545 1.626458
-0.544321 -0.858213 1.636836
-0.519879 -0.753649 1.649794
-0.502054 -0.648148 1.665596
-0.491723 -0.542163 1.684493
-0.489759 -0.436339 1.706694
-0.496942 -0.331527 1.732326
-0.513842 -0.228752 1.761392
-0.540695 -0.129128 1.793745
-0.577336 -0.033729 1.829086
-0.623204 0.056560 1.866999
-0.677435 0.141135 1.907008
-0.738995 0.219703 1.948637
-0.806818 0.292253 1.991458
-0.879897 0.358978 2.035111
-0.957340 0.420200 2.079310
-1.038389 0.476310 2.123837
-0.603226 -1.248931 0.886213
-0.491935 -0.861975 0.949602
-0.467465 -0.463495 1.028059
-0.561723 -0.079579 1.120880
-0.776694 0.250663 1.220302
-0.602557 -1.247068 0.886499
-0.492329 -0.863906 0.949262
-0.491541 -0.860044 0.949942
-0.467323 -0.465445 1.027637
-0.467607 -0.461546 1.028482
-0.560915 -0.081343 1.120398
-0.562531 -0.077814 1.121361
-0.775351 0.249263 1.219817
-0.597276 -1.232364 0.888753
-0.495440 -0.879147 0.946579
-0.488431 -0.844802 0.952625
-0.466198 -0.480834 1.024305
-0.468731 -0.446157 1.031814
-0.554537 -0.095274 1.116598
-0.568910 -0.063883 1.125162
-0.765211 0.237806 1.215976
-0.582905 -1.192353 0.894889
-0.564142 -1.138820 0.903166
-0.547286 -1.084708 0.911842
-0.531194 -1.030404 0.920668
-0.516956 -0.975631 0.929862
-0.503904 -0.920621 0.939279
-0.482055 -0.803032 0.960292
-0.474051 -0.747204 0.970615
-0.468782 -0.691159 0.981382
-0.464444 -0.635040 0.992301
-0.463571 -0.578881 1.003735
-0.463271 -0.522715 1.015254
-0.472726 -0.404416 1.040992
-0.481469 -0.349181 1.053641
-0.491724 -0.294289 1.066441
-0.505297 -0.240153 1.079571
-0.520938 -0.186678 1.092867
-0.539371 -0.134097 1.106388
-0.586265 -0.025978 1.135503
-0.612861 0.022821 1.149439
-0.640489 0.071078 1.163414
-0.671711 0.117049 1.177443
-0.703419 0.162710 1.191480
-0.738735 0.205651 1.205484
19 NaN NaN
-0.603393 -1.249396 0.886141
-0.567173 -1.148551 0.901606
-0.535347 -1.046378 0.917987
-0.508462 -0.942957 0.935347
-0.487130 -0.838431 0.953747
-0.472018 -0.733024 0.973237
-0.463828 -0.627072 0.993852
-0.463262 -0.521034 1.015599
-0.470970 -0.415513 1.038450
-0.487474 -0.311241 1.062330
-0.513097 -0.209045 1.087116
-0.547893 -0.109785 1.112639
-0.591625 -0.014270 1.138698
-0.643782 0.076829 1.165079
-0.703641 0.163029 1.191578
-0.770361 0.244062 1.218017
-0.843062 0.319852 1.244250
-0.920894 0.390483 1.270172
-1.003082 0.456150 1.295710
-0.521754 -1.236200 0.163027
-0.490508 -1.132183 0.175031
-0.463920 -1.027042 0.188377
-0.442508 -0.920918 0.203164
-0.426858 -0.814020 0.219496
-0.417585 -0.706644 0.237466
-0.415310 -0.599195 0.257148
-0.420618 -0.492194 0.278586
-0.434006 -0.386275 0.301782
-0.455822 -0.282164 0.326683
-0.486210 -0.180633 0.353179
-0.525076 -0.082435 0.381105
-0.572088 0.011762 0.410255
-0.626708 0.101432 0.440399
-0.688253 0.186225 0.471305
-0.755966 0.265968 0.502758
-0.829078 0.340645 0.534568
-0.906855 0.410365 0.566576
-0.521182 -1.234296 0.163247
-0.491080 -1.134087 0.174811
-0.490003 -1.130263 0.175270
-0.464406 -1.028967 0.188132
-0.463463 -1.025112 0.188629
-0.442899 -0.922861 0.202893
-0.442118 -0.918976 0.203435
-0.427143 -0.815977 0.219196
-0.426574 -0.812063 0.219796
-0.417752 -0.708609 0.237136
-0.417419 -0.704678 0.237795
-0.415347 -0.601162 0.256786
-0.415273 -0.597228 0.257509
-0.420514 -0.494152 0.278192
-0.420722 -0.490236 0.278980
-0.433753 -0.388213 0.301355
-0.434259 -0.384338 0.302208
-0.455413 -0.284068 0.326225
-0.456231 -0.280261 0.327140
-0.485642 -0.182488 0.352692
-0.486778 -0.178778 0.353666
-0.524353 -0.084227 0.380592
-0.525800 -0.080642 0.381618
-0.571215 0.010045 0.409719
-0.572962 0.013480 0.410790
-0.625695 0.099799 0.439845
-0.627721 0.103066 0.440952
-0.687113 0.184683 0.470738
-0.689393 0.187768 0.471873
-0.754714 0.264520 0.502182
-0.757219 0.267417 0.503335
-0.827728 0.339290 0.533985
-0.830429 0.342001 0.535151
-0.905421 0.409101 0.565989
-0.519660 -1.229227 0.163832
-0.492603 -1.139156 0.174226
-0.488708 -1.125140 0.175920
-0.465701 -1.034090 0.187482
-0.462423 -1.019940 0.189351
-0.443939 -0.928033 0.202172
-0.441344 -0.913768 0.204228
-0.427899 -0.821186 0.218399
-0.426058 -0.806835 0.220655
-0.418194 -0.713842 0.236258
-0.417180 -0.699444 0.238723
-0.415444 -0.606397 0.255824
-0.415331 -0.592002 0.258507
-0.420238 -0.499365 0.277143
-0.421094 -0.485036 0.280049
-0.433078 -0.393371 0.300220
-0.434963 -0.379186 0.303349
-0.454323 -0.289135 0.325006
-0.457321 -0.275194 0.328359
-0.484131 -0.187426 0.351395
-0.488289 -0.173840 0.354962
-0.522425 -0.088998 0.379225
-0.527728 -0.075871 0.382985
-0.568888 0.005473 0.408294
-0.575288 0.018052 0.412216
-0.622997 0.095452 0.438372
-0.630419 0.107413 0.442426
-0.684079 0.180577 0.469229
-0.692428 0.191874 0.473382
-0.751381 0.260662 0.500646
-0.760552 0.271275 0.504871
-0.824134 0.335682 0.532433
-0.834023 0.345609 0.536703
-0.901601 0.405735 0.564428
-0.516493 -1.218687 0.165048
-0.512348 -1.204889 0.166640
-0.508204 -1.191091 0.168233
-0.504059 -1.177292 0.169825
-0.499914 -1.163494 0.171417
-0.495769 -1.149695 0.173010
-0.486016 -1.114486 0.177273
-0.482491 -1.100537 0.179044
-0.478967 -1.086589 0.180815
-0.475442 -1.072641 0.182586
-0.471918 -1.058693 0.184358
-0.468393 -1.044745 0.186129
-0.460260 -1.009186 0.190851
-0.457429 -0.995106 0.192815
-0.454597 -0.981026 0.194779
-0.451765 -0.966947 0.196743
-0.448934 -0.952867 0.198707
-0.446102 -0.938787 0.200671
-0.439771 -0.902935 0.205886
-0.437711 -0.888752 0.208057
-0.435652 -0.874569 0.210228
-0.433592 -0.860386 0.212399
-0.431532 -0.846203 0.214570
-0.429472 -0.832020 0.216741
-0.425138 -0.795954 0.222480
-0.423933 -0.781708 0.224871
-0.422728 -0.767462 0.227261
-0.421524 -0.753216 0.229651
-0.420319 -0.738970 0.232042
-0.419114 -0.724724 0.234432
-0.416977 -0.688556 0.240724
-0.416711 -0.674302 0.243344
-0.416445 -0.660048 0.245964
-0.416179 -0.645793 0.248583
-0.415913 -0.631539 0.251203
-0.415648 -0.617285 0.253823
-0.415905 -0.581162 0.260688
-0.416657 -0.566970 0.263543
-0.417409 -0.552779 0.266398
-0.418161 -0.538588 0.269253
-0.418912 -0.524396 0.272108
-0.419664 -0.510205 0.274963
-0.422497 -0.474310 0.282410
-0.424333 -0.460267 0.285500
-0.426169 -0.446225 0.288590
-0.428004 -0.432182 0.291680
-0.429840 -0.418140 0.294770
-0.431676 -0.404097 0.297860
-0.437228 -0.368648 0.305883
-0.440194 -0.354853 0.309201
-0.443160 -0.341058 0.312519
-0.446126 -0.327263 0.315836
-0.449092 -0.313468 0.319154
-0.452058 -0.299672 0.322472
-0.460420 -0.264912 0.331048
-0.464533 -0.251468 0.334578
-0.468647 -0.238025 0.338108
-0.472761 -0.224581 0.341638
-0.476875 -0.211138 0.345168
-0.480989 -0.197694 0.348698
-0.492182 -0.163872 0.357785
-0.497429 -0.150881 0.361504
-0.502676 -0.137891 0.365224
-0.507923 -0.124901 0.368944
-0.513170 -0.111911 0.372664
-0.518417 -0.098921 0.376384
-0.532387 -0.066274 0.385923
-0.538720 -0.053826 0.389804
-0.545052 -0.041378 0.393685
-0.551385 -0.028931 0.397566
-0.557718 -0.016483 0.401448
-0.564051 -0.004035 0.405329
-0.580668 0.027232 0.415250
-0.588012 0.039068 0.419262
-0.595356 0.050904 0.423273
-0.602700 0.062739 0.427285
-0.610044 0.074575 0.431296
-0.617388 0.086411 0.435308
-0.636462 0.116143 0.445537
-0.644724 0.127322 0.449647
-0.652985 0.138501 0.453758
-0.661246 0.149680 0.457868
-0.669507 0.160859 0.461978
-0.677769 0.172038 0.466089
-0.699071 0.200136 0.476551
-0.708146 0.210637 0.480731
-0.717222 0.221138 0.484912
-0.726297 0.231639 0.489092
-0.735373 0.242140 0.493272
-0.744448 0.252641 0.497453
-0.767730 0.279062 0.508079
-0.777516 0.288885 0.512304
-0.787301 0.298708 0.516530
-0.797087 0.308532 0.520755
-0.806873 0.318355 0.524980
-0.816659 0.328178 0.529205
-0.841670 0.352927 0.539937
-0.852068 0.362089 0.544186
-0.862466 0.371251 0.548435
-0.872863 0.380413 0.552684
-0.883261 0.389575 0.556934
-0.893659 0.398737 0.561183
18 NaN NaN
-0.521897 -1.236676 0.162972
-0.490382 -1.131763 0.175079
-0.463584 -1.025714 0.188545
-0.442056 -0.918668 0.203478
-0.426396 -0.810839 0.219983
-0.417238 -0.702534 0.238155
-0.415216 -0.594170 0.258071
-0.420931 -0.486287 0.279774
-0.434887 -0.379538 0.303264
-0.457433 -0.274672 0.328485
-0.488704 -0.172481 0.355319
-0.528590 -0.073737 0.383596
-0.576730 0.020885 0.413099
-0.632556 0.110858 0.443593
-0.695358 0.195840 0.474841
-0.764352 0.275671 0.506621
-0.838748 0.350353 0.538743
-0.917800 0.420008 0.571048
