-2.318848 -1.525482 14.067991
-1.966769 -1.495840 15.237681
-1.484496 -1.518339 16.362893
-1.081576 -1.508762 17.517454
-0.954578 -1.393961 18.726382
-0.980648 -1.224326 19.938712
-0.959110 -1.071311 21.153269
-0.909923 -0.928053 22.368334
-0.890705 -0.774224 23.582817
-2.318485 -1.525351 14.069953
-1.967518 -1.495819 15.235826
-1.966021 -1.495860 15.239535
-1.485272 -1.518307 16.361051
-1.483719 -1.518371 16.364736
-1.082039 -1.508855 17.515511
-1.081112 -1.508670 17.519398
-0.954580 -1.394223 18.724399
-0.954576 -1.393699 18.728365
-0.980629 -1.224595 19.936730
-0.980666 -1.224058 19.940694
-0.959183 -1.071548 21.151284
-0.959038 -1.071075 21.155253
-0.909996 -0.928290 22.366349
-0.909851 -0.927816 22.370318
-0.890685 -0.774493 23.580836
-2.313772 -1.523652 14.095455
-1.977096 -1.495612 15.211667
-1.956297 -1.496127 15.263636
-1.495400 -1.517874 16.337120
-1.473623 -1.518791 16.388681
-1.088056 -1.510058 17.490256
-1.075095 -1.507467 17.544652
-0.954605 -1.397622 18.698633
-0.954551 -1.390300 18.754131
-0.980390 -1.228087 19.910978
-0.980905 -1.220566 19.966446
-0.960132 -1.074623 21.125495
-0.958089 -1.068000 21.181043
-0.910937 -0.931367 22.340560
-0.908911 -0.924739 22.396108
-0.890424 -0.777993 23.555084
-2.291323 -1.516364 14.210839
-2.249411 -1.507237 14.392403
-2.200417 -1.500845 14.572312
-2.145246 -1.496875 14.750502
-2.084681 -1.495049 14.926968
-2.019828 -1.494948 15.101914
-1.911824 -1.497502 15.372689
-1.839581 -1.500415 15.544695
-1.765769 -1.503976 15.716022
-1.691074 -1.507902 15.886959
-1.616180 -1.511911 16.057807
-1.541808 -1.515703 16.228888
-1.428265 -1.520529 16.497365
-1.358403 -1.522465 16.670363
-1.291604 -1.523153 16.844574
-1.228657 -1.522283 17.020211
-1.170396 -1.519538 17.197438
-1.117948 -1.514496 17.376420
-1.049536 -1.501361 17.659457
-1.015901 -1.489091 17.842547
-0.990628 -1.473704 18.026744
-0.972906 -1.455550 18.211577
-0.961670 -1.435055 18.396682
-0.955873 -1.412624 18.581818
-0.955239 -1.374614 18.870861
-0.958524 -1.349002 19.055650
-0.963477 -1.322813 19.240321
-0.969137 -1.296380 19.424938
-0.974551 -1.270032 19.609575
-0.978767 -1.244098 19.794300
-0.981455 -1.204928 20.083184
-0.980799 -1.180688 20.268187
-0.978559 -1.157003 20.453249
-0.974926 -1.133808 20.638351
-0.970094 -1.111035 20.823478
-0.964258 -1.088617 21.008620
-0.953593 -1.054137 21.297920
-0.946087 -1.032311 21.483072
-0.938301 -1.010584 21.668225
-0.930446 -0.988882 21.853378
-0.922723 -0.967133 22.038531
-0.915332 -0.945267 22.223683
-0.904938 -0.910690 22.512981
-0.899321 -0.888194 22.698121
-0.894803 -0.865311 22.883242
-0.891548 -0.841982 23.068335
-0.889746 -0.818144 23.253382
-0.889585 -0.793731 23.438362
99 NaN NaN
-2.318938 -1.525514 14.067500
-2.300592 -1.518901 14.166769
-2.279804 -1.513211 14.265614
-2.256727 -1.508396 14.363996
-2.231515 -1.504403 14.461890
-2.204321 -1.501182 14.559282
-2.175298 -1.498677 14.656165
-2.144596 -1.496836 14.752545
-2.112360 -1.495604 14.848432
-2.078733 -1.494930 14.943847
-2.043853 -1.494760 15.038813
-2.007855 -1.495042 15.133360
-1.970867 -1.495728 15.227523
-1.933016 -1.496765 15.321339
-1.894424 -1.498107 15.414849
-1.855209 -1.499704 15.508096
-1.815487 -1.501511 15.601124
-1.775372 -1.503480 15.693979
-1.734975 -1.505566 15.786710
-1.694406 -1.507723 15.879364
-1.653774 -1.509906 15.971991
-1.613188 -1.512070 16.064637
-1.572758 -1.514170 16.157354
-1.532593 -1.516160 16.250187
-1.492804 -1.517994 16.343186
-1.453505 -1.519626 16.436397
-1.414811 -1.521010 16.529864
-1.376840 -1.522097 16.623631
-1.339713 -1.522839 16.717738
-1.303555 -1.523186 16.812225
-1.268496 -1.523088 16.907125
-1.234668 -1.522495 17.002469
-1.202209 -1.521352 17.098282
-1.171260 -1.519609 17.194585
-1.141967 -1.517211 17.291390
-1.114478 -1.514104 17.388702
-1.088946 -1.510236 17.486518
-1.065524 -1.505553 17.584825
-1.044364 -1.500005 17.683599
-1.025620 -1.493541 17.782804
-1.009419 -1.486124 17.882389
-0.995697 -1.477786 17.982274
-0.984286 -1.468598 18.082375
-0.975015 -1.458631 18.182622
-0.967708 -1.447954 18.282960
-0.962189 -1.436636 18.383342
-0.958283 -1.424743 18.483733
-0.955817 -1.412341 18.584108
-0.954619 -1.399493 18.684451
-0.954521 -1.386260 18.784751
-0.955357 -1.372701 18.885004
-0.956964 -1.358874 18.985212
-0.959182 -1.344836 19.085378
-0.961853 -1.330641 19.185511
-0.964819 -1.316344 19.285622
-0.967926 -1.301998 19.385721
-0.971017 -1.287658 19.485821
-0.973938 -1.273377 19.585935
-0.976533 -1.259208 19.686074
-0.978645 -1.245207 19.786248
-0.980162 -1.231411 19.886461
-0.981094 -1.217819 19.986709
-0.981470 -1.204420 20.086987
-0.981320 -1.191205 20.187290
-0.980674 -1.178163 20.287613
-0.979564 -1.165284 20.387953
-0.978020 -1.152557 20.488307
-0.976073 -1.139972 20.588672
-0.973756 -1.127518 20.689046
-0.971099 -1.115183 20.789426
-0.968135 -1.102957 20.889810
-0.964897 -1.090827 20.990198
-0.961415 -1.078784 21.090588
-0.957724 -1.066816 21.190979
-0.953855 -1.054910 21.291371
-0.949840 -1.043056 21.391764
-0.945714 -1.031242 21.492157
-0.941507 -1.019456 21.592550
-0.937254 -1.007686 21.692942
-0.932987 -0.995922 21.793335
-0.928739 -0.984151 21.893728
-0.924542 -0.972362 21.994121
-0.920429 -0.960543 22.094513
-0.916434 -0.948682 22.194906
-0.912588 -0.936768 22.295298
-0.908925 -0.924789 22.395689
-0.905477 -0.912734 22.496079
-0.902276 -0.900592 22.596466
-0.899354 -0.888351 22.696850
-0.896745 -0.875999 22.797229
-0.894479 -0.863527 22.897601
-0.892588 -0.850922 22.997965
-0.891105 -0.838174 23.098317
-0.890060 -0.825272 23.198655
-0.889484 -0.812206 23.298976
-0.889408 -0.798965 23.399275
-0.889862 -0.785539 23.499549
-0.890876 -0.771918 23.599792
-0.892480 -0.758092 23.700000
-2.318448 -1.525577 14.067426
-1.846839 -1.584024 13.961497
-1.416407 -1.629680 13.741988
-1.101919 -1.649922 13.375570
-0.953089 -1.640812 12.913902
-0.920364 -1.613517 12.428761
-0.940773 -1.578029 11.942964
-0.970299 -1.540279 11.457744
-0.979595 -1.504281 10.971626
-0.970432 -1.471543 10.485239
-0.954460 -1.442775 9.998761
-0.943704 -1.418600 9.511899
-0.941444 -1.400417 9.024661
-0.944913 -1.390292 8.537197
-0.951379 -1.390361 8.049661
-0.959317 -1.401256 7.562265
-0.969407 -1.420604 7.075167
-0.982571 -1.445534 6.588395
-0.998830 -1.472671 6.101832
-1.013551 -1.495911 5.615025
-1.020419 -1.508129 5.127665
-1.013208 -1.502289 4.640222
-0.991018 -1.477602 4.153801
-0.958064 -1.439272 3.668856
-0.918621 -1.392565 3.185118
-0.876055 -1.341653 2.702065
-0.831571 -1.288124 2.219468
-0.786033 -1.233155 1.737130
-0.740305 -1.177927 1.254840
-0.695242 -1.123607 0.772385
-0.651698 -1.071361 0.289562
-2.316486 -1.525829 14.067130
-1.848733 -1.583800 13.962098
-1.844945 -1.584248 13.960896
-1.418012 -1.629533 13.743173
-1.414802 -1.629827 13.740803
-1.102850 -1.649906 13.377340
-1.100989 -1.649937 13.373800
-0.953383 -1.640900 12.915878
-0.952795 -1.640724 12.911926
-0.920335 -1.613654 12.430756
-0.920394 -1.613381 12.426766
-0.940648 -1.578182 11.944954
-0.940898 -1.577876 11.940973
-0.970206 -1.540432 11.459736
-0.970392 -1.540126 11.455752
-0.979603 -1.504422 10.973621
-0.979587 -1.504139 10.969631
-0.970494 -1.471668 10.487234
-0.970371 -1.471417 10.483244
-0.954519 -1.442882 10.000757
-0.954400 -1.442668 9.996765
-0.943732 -1.418690 9.513896
-0.943677 -1.418510 9.509901
-0.941441 -1.400478 9.026660
-0.941448 -1.400357 9.022662
-0.944890 -1.390314 8.539197
-0.944935 -1.390270 8.535197
-0.951349 -1.390335 8.051661
-0.951409 -1.390387 8.047661
-0.959280 -1.401189 7.564264
-0.959354 -1.401323 7.560267
-0.969361 -1.420513 7.077165
-0.969453 -1.420695 7.073170
-0.982510 -1.445424 6.590391
-0.982632 -1.445643 6.586399
-0.998762 -1.472562 6.103828
-0.998898 -1.472779 6.099836
-1.013503 -1.495835 5.617023
-1.013598 -1.495986 5.613027
-1.020421 -1.508118 5.129665
-1.020417 -1.508140 5.125665
-1.013265 -1.502348 4.642220
-1.013150 -1.502229 4.638224
-0.991132 -1.477733 4.155794
-0.990903 -1.477472 4.151809
-0.958215 -1.439450 3.670842
-0.957912 -1.439094 3.666870
-0.918791 -1.392767 3.187100
-0.918451 -1.392362 3.183135
-0.876235 -1.341869 2.704045
-0.875875 -1.341438 2.700085
-0.831756 -1.288347 2.221447
-0.831386 -1.287901 2.217489
-0.786221 -1.233382 1.739109
-0.785845 -1.232928 1.735152
-0.740492 -1.178152 1.256819
-0.740118 -1.177701 1.252862
-0.695424 -1.123826 0.774364
-0.695060 -1.123387 0.770405
-0.651872 -1.071568 0.291543
-2.298275 -1.528169 14.064379
-1.866318 -1.581722 13.967678
-1.827379 -1.586320 13.955257
-1.432908 -1.628168 13.754169
-1.399906 -1.631192 13.729807
-1.111491 -1.649759 13.393772
-1.092347 -1.650084 13.357369
-0.956109 -1.641714 12.934225
-0.950069 -1.639909 12.893579
-0.920447 -1.614865 12.449281
-0.920670 -1.612111 12.408245
-0.939485 -1.579600 11.963429
-0.942072 -1.576455 11.922500
-0.969345 -1.541857 11.478227
-0.971253 -1.538701 11.437262
-0.979680 -1.505734 10.992140
-0.979510 -1.502827 10.951112
-0.971066 -1.472835 10.505754
-0.969798 -1.470251 10.464723
-0.955112 -1.443908 10.019285
-0.953846 -1.441672 9.978234
-0.943988 -1.419526 9.532441
-0.943440 -1.417687 9.491355
-0.941407 -1.401041 9.045217
-0.941482 -1.399794 9.004105
-0.944683 -1.390516 8.557760
-0.945143 -1.390068 8.516634
-0.951074 -1.390094 8.070223
-0.951684 -1.390629 8.029099
-0.958948 -1.400616 7.582817
-0.959699 -1.401945 7.541715
-0.968933 -1.419669 7.095706
-0.969890 -1.421556 7.054630
-0.981945 -1.444409 6.608920
-0.983197 -1.446658 6.567870
-0.998132 -1.471558 6.122355
-0.999528 -1.473783 6.081308
-1.013066 -1.495134 5.635570
-1.014035 -1.496687 5.594480
-1.020367 -1.507925 5.148230
-1.020398 -1.508240 5.107100
-1.013801 -1.502899 4.660770
-1.012555 -1.501605 4.619678
-0.992193 -1.478945 4.174289
-0.989843 -1.476259 4.133313
-0.959621 -1.441103 3.689281
-0.956506 -1.437441 3.648431
-0.920369 -1.394648 3.205503
-0.916873 -1.390482 3.164733
-0.877895 -1.343862 2.722429
-0.874206 -1.339433 2.681703
-0.833471 -1.290415 2.239817
-0.829665 -1.285826 2.199120
-0.787963 -1.235487 1.757472
-0.784103 -1.230823 1.716789
-0.742226 -1.180245 1.275184
-0.738384 -1.175608 1.234496
-0.697114 -1.125859 0.792741
-0.693370 -1.121354 0.752029
-0.653491 -1.073504 0.309937
-2.247831 -1.534651 14.056761
-2.180624 -1.543205 14.045296
-2.113612 -1.551659 14.032644
-2.047029 -1.559916 14.017775
-1.980845 -1.568013 14.001195
-1.915028 -1.575966 13.983136
-1.779512 -1.591801 13.937275
-1.715972 -1.599001 13.912172
-1.653480 -1.605890 13.884425
-1.592534 -1.612358 13.853388
-1.532760 -1.618525 13.820132
-1.474597 -1.624286 13.783985
-1.360393 -1.634592 13.697139
-1.308921 -1.638843 13.651804
-1.261733 -1.642211 13.601959
-1.217062 -1.645089 13.549916
-1.174922 -1.647475 13.495700
-1.137681 -1.648952 13.437964
-1.069389 -1.650323 13.311390
-1.042549 -1.649987 13.248128
-1.019171 -1.649077 13.183555
-0.998235 -1.647768 13.118144
-0.980689 -1.645914 13.051726
-0.966159 -1.643586 12.984622
-0.942517 -1.637652 12.842760
-0.935146 -1.634221 12.774528
-0.929168 -1.630580 12.706176
-0.924676 -1.626714 12.637711
-0.922254 -1.622536 12.569161
-0.920806 -1.618211 12.500598
-0.921434 -1.608593 12.356945
-0.923193 -1.603777 12.288418
-0.925547 -1.598867 12.219913
-0.928712 -1.593825 12.151450
-0.932330 -1.588705 12.083016
-0.936264 -1.583528 12.014604
-0.945461 -1.572481 11.871339
-0.949991 -1.567161 11.802974
-0.954522 -1.561819 11.734610
-0.958869 -1.556472 11.666235
-0.963017 -1.551133 11.597848
-0.966884 -1.545809 11.529442
-0.973234 -1.534791 11.386023
-0.975602 -1.529592 11.317540
-0.977237 -1.524468 11.249029
-0.978483 -1.519391 11.180508
-0.979368 -1.514358 11.111977
-0.979661 -1.509407 11.043435
-0.979187 -1.499214 10.899814
-0.978393 -1.494456 10.831262
-0.977272 -1.489775 10.762710
-0.975940 -1.485149 10.694158
-0.974336 -1.480603 10.625606
-0.972500 -1.476146 10.557054
-0.968214 -1.467020 10.413423
-0.965963 -1.462814 10.344868
-0.963674 -1.458672 10.276309
-0.961349 -1.454598 10.207748
-0.959038 -1.450648 10.139179
-0.956772 -1.446765 10.070605
-0.952313 -1.438914 9.926905
-0.950423 -1.435314 9.858304
-0.948669 -1.431786 9.789696
-0.947165 -1.428375 9.721076
-0.945858 -1.425068 9.652446
-0.944698 -1.421842 9.583811
-0.942918 -1.415503 9.439978
-0.942301 -1.412651 9.371318
-0.941835 -1.409922 9.302653
-0.941556 -1.407370 9.233979
-0.941383 -1.404929 9.165302
-0.941328 -1.402618 9.096619
-0.941662 -1.398364 8.952699
-0.941958 -1.396537 8.884002
-0.942391 -1.394949 8.815301
-0.942898 -1.393516 8.746596
-0.943471 -1.392225 8.677890
-0.944144 -1.391184 8.609179
-0.945737 -1.389585 8.465213
-0.946583 -1.389145 8.396499
-0.947477 -1.388953 8.327783
-0.948399 -1.388932 8.259068
-0.949352 -1.389148 8.190354
-0.950333 -1.389645 8.121642
-0.952448 -1.391297 7.977683
-0.953506 -1.392493 7.908980
-0.954589 -1.393846 7.840281
-0.955695 -1.395356 7.771585
-0.956852 -1.397147 7.702897
-0.958039 -1.399078 7.634213
-0.960654 -1.403670 7.490326
-0.961976 -1.406129 7.421661
-0.963335 -1.408705 7.353002
-0.964754 -1.411454 7.284350
-0.966230 -1.414343 7.215705
-0.967748 -1.417331 7.147066
-0.971143 -1.424015 7.003277
-0.972854 -1.427356 6.934659
-0.974624 -1.430786 6.866046
-0.976487 -1.434331 6.797441
-0.978405 -1.437934 6.728841
-0.980384 -1.441601 6.660246
-0.984828 -1.449512 6.516548
-0.987044 -1.453347 6.447970
-0.989341 -1.457215 6.379396
-0.991669 -1.461079 6.310823
-0.994018 -1.464933 6.242250
-0.996377 -1.468744 6.173675
-1.001256 -1.476527 6.029984
-1.003523 -1.480107 5.961393
-1.005708 -1.483543 5.892793
-1.007826 -1.486871 5.824185
-1.009847 -1.490046 5.755567
-1.011715 -1.492995 5.686934
-1.015247 -1.498629 5.543104
-1.016611 -1.500873 5.474433
-1.017819 -1.502908 5.405753
-1.018870 -1.504733 5.337064
-1.019593 -1.506126 5.268360
-1.020108 -1.507248 5.199651
-1.020346 -1.508517 5.055674
-1.019959 -1.508486 4.986955
-1.019326 -1.508143 4.918238
-1.018308 -1.507315 4.849529
-1.016922 -1.506028 4.780835
-1.015285 -1.504424 4.712152
-1.010740 -1.499663 4.568321
-1.008147 -1.496857 4.499706
-1.005306 -1.493740 4.431114
-1.002105 -1.490169 4.362561
-0.998713 -1.486356 4.294030
-0.995122 -1.482292 4.225523
-0.986722 -1.472669 4.082107
-0.982456 -1.467749 4.013695
-0.977940 -1.462512 3.945323
-0.973261 -1.457067 3.876978
-0.968452 -1.451456 3.808655
-0.963451 -1.445599 3.740367
-0.952558 -1.432792 3.597368
-0.947177 -1.426444 3.529152
-0.941671 -1.419933 3.460962
-0.936094 -1.413329 3.392787
-0.930436 -1.406617 3.324628
-0.924690 -1.399787 3.256489
-0.912500 -1.385272 3.113758
-0.906581 -1.378206 3.045658
-0.900623 -1.371087 2.977566
-0.894628 -1.363917 2.909483
-0.888569 -1.356661 2.841415
-0.882475 -1.349355 2.773356
-0.869584 -1.333882 2.630787
-0.863370 -1.326414 2.562756
-0.857130 -1.318910 2.494731
-0.850856 -1.311359 2.426714
-0.844550 -1.303765 2.358706
-0.838224 -1.296144 2.290702
-0.824890 -1.280066 2.148241
-0.818498 -1.272354 2.080253
-0.812091 -1.264622 2.012270
-0.805665 -1.256865 1.944291
-0.799232 -1.249096 1.876313
-0.792791 -1.241318 1.808338
-0.779273 -1.224989 1.665923
-0.772818 -1.217192 1.597951
-0.766364 -1.209396 1.529979
-0.759915 -1.201606 1.462006
-0.753470 -1.193822 1.394032
-0.747034 -1.186050 1.326055
-0.733588 -1.169819 1.183622
-0.727191 -1.162101 1.115636
-0.720817 -1.154415 1.047644
-0.714460 -1.146751 0.979648
-0.708123 -1.139114 0.911647
-0.701820 -1.131525 0.843637
-0.688690 -1.115725 0.701126
-0.682482 -1.108265 0.633093
-0.676305 -1.100846 0.565054
-0.670156 -1.093467 0.497007
-0.664061 -1.086160 0.428947
-0.658004 -1.078907 0.360879
148 NaN NaN
-2.318938 -1.525514 14.067500
-2.219379 -1.538307 14.052464
-2.120336 -1.550825 14.034146
-2.021998 -1.563021 14.012185
-1.924607 -1.574834 13.986176
-1.828477 -1.586194 13.955670
-1.734012 -1.597012 13.920181
-1.641724 -1.607186 13.879206
-1.552254 -1.616594 13.832247
-1.466369 -1.625101 13.778871
-1.384952 -1.632563 13.718768
-1.308950 -1.638841 13.651834
-1.239277 -1.643814 13.578240
-1.176697 -1.647405 13.498452
-1.121711 -1.649586 13.413205
-1.074483 -1.650387 13.323399
-1.034852 -1.649890 13.229984
-1.002385 -1.648207 13.133853
-0.976474 -1.645469 13.035769
-0.956424 -1.641809 12.936348
-0.941521 -1.637354 12.836055
-0.931074 -1.632220 12.735229
-0.924440 -1.626511 12.634110
-0.921033 -1.620314 12.532858
-0.920322 -1.613710 12.431576
-0.921830 -1.606767 12.330324
-0.925120 -1.599546 12.229134
-0.929796 -1.592099 12.128014
-0.935486 -1.584477 12.026959
-0.941843 -1.576723 11.925953
-0.948532 -1.568880 11.824975
-0.955225 -1.560990 11.724002
-0.961595 -1.553092 11.623008
-0.967306 -1.545227 11.521973
-0.972017 -1.537439 11.420880
-0.975549 -1.529756 11.319731
-0.977964 -1.522188 11.218540
-0.979345 -1.514744 11.117321
-0.979779 -1.507431 11.016084
-0.979361 -1.500257 10.914837
-0.978188 -1.493229 10.813585
-0.976365 -1.486355 10.712333
-0.973996 -1.479640 10.611080
-0.971192 -1.473091 10.509829
-0.968064 -1.466714 10.408575
-0.964725 -1.460515 10.307317
-0.961292 -1.454497 10.206052
-0.957878 -1.448667 10.104775
-0.954601 -1.443028 10.003482
-0.951574 -1.437585 9.902171
-0.948914 -1.432340 9.800840
-0.946692 -1.427302 9.699487
-0.944895 -1.422487 9.598115
-0.943495 -1.417915 9.496725
-0.942464 -1.413605 9.395320
-0.941776 -1.409575 9.293900
-0.941404 -1.405843 9.192467
-0.941324 -1.402430 9.091023
-0.941508 -1.399353 8.989567
-0.941932 -1.396632 8.888102
-0.942571 -1.394286 8.786629
-0.943400 -1.392335 8.685149
-0.944393 -1.390797 8.583664
-0.945528 -1.389694 8.482174
-0.946778 -1.389044 8.380681
-0.948120 -1.388869 8.279188
-0.949528 -1.389188 8.177696
-0.950985 -1.390016 8.076208
-0.952492 -1.391336 7.974726
-0.954058 -1.393122 7.873251
-0.955691 -1.395351 7.771787
-0.957400 -1.397996 7.670333
-0.959194 -1.401033 7.568892
-0.961079 -1.404437 7.467465
-0.963066 -1.408182 7.366051
-0.965161 -1.412243 7.264652
-0.967374 -1.416593 7.163267
-0.969713 -1.421208 7.061897
-0.972186 -1.426062 6.960541
-0.974801 -1.431128 6.859199
-0.977567 -1.436382 6.757870
-0.980491 -1.441798 6.656555
-0.983582 -1.447350 6.555252
-0.986843 -1.453009 6.453960
-0.990236 -1.458722 6.352675
-0.993703 -1.464425 6.251393
-0.997188 -1.470054 6.150107
-1.000633 -1.475545 6.048811
-1.003983 -1.480832 5.947502
-1.007178 -1.485853 5.846175
-1.010163 -1.490543 5.744825
-1.012880 -1.494836 5.643450
-1.015272 -1.498669 5.542049
-1.017280 -1.501975 5.440620
-1.018848 -1.504690 5.339167
-1.019916 -1.506748 5.237691
-1.020428 -1.508083 5.136199
-1.020324 -1.508630 5.034699
-1.019548 -1.508323 4.933201
-1.018044 -1.507101 4.831718
-1.015808 -1.504961 4.730263
-1.012879 -1.501951 4.628848
-1.009297 -1.498120 4.527482
-1.005101 -1.493516 4.426171
-1.000332 -1.488188 4.324922
-0.995028 -1.482186 4.223736
-0.989229 -1.475558 4.122617
-0.982975 -1.468352 4.021564
-0.976305 -1.460617 3.920577
-0.969257 -1.452399 3.819654
-0.961871 -1.443749 3.718791
-0.954185 -1.434711 3.617985
-0.946236 -1.425335 3.517230
-0.938064 -1.415666 3.416520
-0.929707 -1.405752 3.315850
-0.921202 -1.395640 3.215211
-0.912574 -1.385359 3.114600
-0.903831 -1.374923 3.014015
-0.894981 -1.364340 2.913455
-0.886033 -1.353623 2.812917
-0.876993 -1.342780 2.712401
-0.867870 -1.331824 2.611905
-0.858670 -1.320764 2.511428
-0.849403 -1.309611 2.410967
-0.840075 -1.298375 2.310520
-0.830695 -1.287068 2.210087
-0.821269 -1.275699 2.109665
-0.811807 -1.264279 2.009252
-0.802315 -1.252819 1.908846
-0.792801 -1.241330 1.808446
-0.783273 -1.229822 1.708049
-0.773739 -1.218305 1.607654
-0.764207 -1.206790 1.507259
-0.754684 -1.195288 1.406861
-0.745179 -1.183810 1.306459
-0.735698 -1.172366 1.206050
-0.726250 -1.160966 1.105634
-0.716842 -1.149621 1.005207
-0.707482 -1.138342 0.904769
-0.698179 -1.127139 0.804316
-0.688939 -1.116024 0.703849
-0.679770 -1.105005 0.603364
-0.670680 -1.094095 0.502860
-0.661677 -1.083303 0.402335
-0.652769 -1.072640 0.301788
-0.643963 -1.062117 0.201218
-0.635267 -1.051744 0.100622
-0.626688 -1.041531 0.000000
-2.319255 -1.525900 14.067528
-3.513661 -1.774289 14.094232
-4.395826 -0.828360 14.080726
-4.815403 0.424314 14.077092
-5.248787 1.672698 14.075609
-5.683650 2.919788 14.043308
-6.171944 4.145818 13.982302
-6.800636 5.304669 13.914322
-7.639214 6.319286 13.837050
-8.702404 7.093052 13.752314
-9.924142 7.581496 13.665687
-11.219473 7.820680 13.581484
-12.536643 7.873976 13.501055
-2.320524 -1.527442 14.067638
-3.511893 -1.775224 14.094247
-3.515429 -1.773354 14.094216
-4.395187 -0.830255 14.080750
-4.396465 -0.826465 14.080702
-4.814763 0.422419 14.077096
-4.816044 0.426208 14.077088
-5.248122 1.670812 14.075603
-5.249452 1.674585 14.075614
-5.682984 2.917905 14.043407
-5.684315 2.921672 14.043209
-6.171125 4.143996 13.982399
-6.172763 4.147639 13.982205
-6.799528 5.303008 13.914433
-6.801744 5.306331 13.914212
-7.637759 6.317919 13.837174
-7.640670 6.320652 13.836926
-8.700648 7.092104 13.752445
-8.704160 7.094001 13.752183
-9.922219 7.580963 13.665817
-9.926065 7.582030 13.665557
-11.217488 7.820471 13.581609
-11.221459 7.820888 13.581359
-12.534647 7.874004 13.501174
-2.338235 -1.548983 14.069175
-3.486629 -1.787057 14.094435
-3.540119 -1.760299 14.093996
-4.386268 -0.856720 14.081084
-4.405384 -0.800000 14.080369
-4.805819 0.395960 14.077150
-4.824988 0.452667 14.077034
-5.238837 1.644471 14.075528
-5.258737 1.700926 14.075689
-5.673691 2.891603 14.044794
-5.693626 2.947968 14.041831
-6.159684 4.118552 13.983748
-6.184352 4.173015 13.980850
-6.784388 5.279588 13.915957
-6.817220 5.329530 13.912673
-7.617605 6.298662 13.838900
-7.660995 6.339729 13.835194
-8.676126 7.078860 13.754278
-8.728682 7.107244 13.750351
-9.895364 7.573508 13.667631
-9.952920 7.589485 13.663743
-11.189765 7.817565 13.583350
-11.249182 7.823794 13.579618
-12.506770 7.874388 13.502835
-2.424168 -1.642133 14.075809
-2.586842 -1.759432 14.084170
-2.772250 -1.836477 14.089932
-2.969749 -1.873482 14.093408
-3.170747 -1.871720 14.094988
-3.367706 -1.831664 14.095033
-3.649629 -1.695874 14.092880
-3.811215 -1.575805 14.090783
-3.962933 -1.443331 14.088701
-4.106498 -1.302095 14.086813
-4.234849 -1.147062 14.084885
-4.337003 -0.973865 14.082644
-4.443135 -0.678598 14.078950
-4.499038 -0.485058 14.077360
-4.561374 -0.293502 14.076901
-4.629460 -0.103900 14.077167
-4.698419 0.085390 14.077476
-4.764854 0.275580 14.077366
-4.865746 0.573118 14.076805
-4.931104 0.763682 14.076600
-4.997337 0.953943 14.076486
-5.063871 1.144100 14.076243
-5.130266 1.334304 14.075755
-5.196703 1.524495 14.075410
-5.301201 1.820784 14.076286
-5.368603 2.010634 14.076920
-5.435510 2.200651 14.075438
-5.501297 2.390989 14.070149
-5.566365 2.581456 14.061517
-5.631753 2.771734 14.051279
-5.736727 3.067453 14.035912
-5.806604 3.256195 14.027000
-5.878512 3.444177 14.018174
-5.952530 3.631321 14.009004
-6.028955 3.817479 13.999524
-6.108133 4.002474 13.989879
-6.237861 4.288200 13.974653
-6.325449 4.469346 13.964705
-6.416796 4.648613 13.954559
-6.512180 4.825752 13.944203
-6.611877 5.000486 13.933639
-6.716146 5.172517 13.922866
-6.888426 5.434643 13.905631
-7.005422 5.598242 13.894291
-7.127707 5.757908 13.882723
-7.255409 5.913257 13.870932
-7.388610 6.063899 13.858924
-7.527317 6.209469 13.846709
-7.754513 6.425518 13.827276
-7.907039 6.556493 13.814594
-8.064687 6.681239 13.801764
-8.227242 6.799506 13.788806
-8.394412 6.911144 13.775745
-8.565893 7.016029 13.762603
-8.841110 7.166054 13.742002
-9.022091 7.253529 13.728757
-9.206165 7.334292 13.715508
-9.392989 7.408480 13.702274
-9.582237 7.476255 13.689070
-9.773604 7.537803 13.675910
-10.075595 7.621920 13.655499
-10.271151 7.668536 13.642499
-10.467923 7.709740 13.629574
-10.665714 7.745775 13.616730
-10.864344 7.776883 13.603971
-11.063660 7.803297 13.591300
-11.375543 7.835617 13.571720
-11.576022 7.851046 13.559279
-11.776771 7.862557 13.546929
-11.977704 7.870349 13.534670
-12.178748 7.874606 13.522499
-12.379842 7.875506 13.510416
169 NaN NaN
-2.318938 -1.525514 14.067500
-2.382649 -1.602997 14.073031
-2.455671 -1.671828 14.077917
-2.536659 -1.731137 14.082133
-2.624129 -1.780455 14.085683
-2.716613 -1.819634 14.088593
-2.812765 -1.848741 14.090906
-2.911389 -1.867946 14.092670
-3.011427 -1.877435 14.093935
-3.111919 -1.877353 14.094748
-3.211957 -1.867773 14.095156
-3.310620 -1.848679 14.095199
-3.406924 -1.819974 14.094919
-3.499804 -1.781617 14.094355
-3.588646 -1.734639 14.093564
-3.673468 -1.680722 14.092612
-3.754664 -1.621474 14.091565
-3.832868 -1.558319 14.090484
-3.908837 -1.492486 14.089424
-3.983236 -1.424882 14.088430
-4.055669 -1.355179 14.087489
-4.125188 -1.282575 14.086564
-4.190665 -1.206314 14.085620
-4.250744 -1.125744 14.084620
-4.303851 -1.040431 14.083530
-4.348650 -0.950478 14.082332
-4.386103 -0.857211 14.081090
-4.418205 -0.761957 14.079889
-4.447008 -0.665647 14.078804
-4.474520 -0.568955 14.077910
-4.502719 -0.472461 14.077278
-4.533108 -0.376634 14.076958
-4.565471 -0.281453 14.076892
-4.599203 -0.186748 14.076998
-4.633691 -0.092316 14.077191
-4.668319 0.002066 14.077383
-4.702475 0.096619 14.077489
-4.735850 0.191450 14.077468
-4.768617 0.286494 14.077353
-4.800989 0.381672 14.077179
-4.833183 0.476911 14.076985
-4.865412 0.572139 14.076806
-4.897879 0.667285 14.076678
-4.930635 0.762332 14.076601
-4.963611 0.857304 14.076546
-4.996735 0.952224 14.076488
-5.029936 1.047117 14.076398
-5.063140 1.142008 14.076248
-5.096292 1.236918 14.076021
-5.129407 1.331841 14.075761
-5.162531 1.426761 14.075535
-5.195709 1.521661 14.075409
-5.228987 1.616527 14.075448
-5.262409 1.711342 14.075719
-5.295985 1.806102 14.076209
-5.329637 1.900834 14.076703
-5.363275 1.995573 14.076957
-5.396804 2.090350 14.076723
-5.430132 2.185193 14.075755
-5.463163 2.280125 14.073809
-5.495876 2.375139 14.070797
-5.528385 2.470192 14.066910
-5.560819 2.565241 14.062367
-5.593311 2.660248 14.057386
-5.625991 2.755179 14.052187
-5.658992 2.850000 14.046987
-5.692442 2.944674 14.041996
-5.726398 3.039181 14.037270
-5.760862 3.133513 14.032739
-5.795832 3.227665 14.028326
-5.831309 3.321630 14.023957
-5.867290 3.415400 14.019557
-5.903780 3.508969 14.015060
-5.940813 3.602320 14.010462
-5.978431 3.695432 14.005781
-6.016680 3.788284 14.001036
-6.055600 3.880854 13.996244
-6.095236 3.973118 13.991424
-6.135628 4.065053 13.986587
-6.176809 4.156636 13.981728
-6.218813 4.247843 13.976841
-6.261673 4.338649 13.971918
-6.305421 4.429027 13.966953
-6.350090 4.518952 13.961939
-6.395714 4.608393 13.956874
-6.442326 4.697320 13.951755
-6.489964 4.785698 13.946585
-6.538661 4.873495 13.941363
-6.588450 4.960673 13.936089
-6.639364 5.047196 13.930764
-6.691432 5.133026 13.925386
-6.744686 5.218123 13.919956
-6.799151 5.302444 13.914470
-6.854857 5.385949 13.908929
-6.911829 5.468591 13.903332
-6.970089 5.550325 13.897678
-7.029656 5.631108 13.891967
-7.090548 5.710893 13.886200
-7.152781 5.789633 13.880377
-7.216369 5.867278 13.874498
-7.281324 5.943778 13.868565
-7.347653 6.019087 13.862578
-7.415353 6.093160 13.856538
-7.484425 6.165952 13.850448
-7.554864 6.237417 13.844308
-7.626667 6.307508 13.838119
-7.699826 6.376178 13.831885
-7.774322 6.443391 13.825607
-7.850133 6.509113 13.819287
-7.927237 6.573310 13.812929
-8.005610 6.635946 13.806534
-8.085230 6.696988 13.800105
-8.166065 6.756406 13.793646
-8.248078 6.814185 13.787158
-8.331230 6.870309 13.780645
-8.415484 6.924763 13.774110
-8.500803 6.977531 13.767556
-8.587147 7.028600 13.760985
-8.674475 7.077968 13.754401
-8.762740 7.125639 13.747806
-8.851898 7.171617 13.741203
-8.941905 7.215907 13.734594
-9.032721 7.258517 13.727983
-9.124302 7.299453 13.721371
-9.216605 7.338735 13.714761
-9.309588 7.376382 13.708154
-9.403209 7.412413 13.701553
-9.497429 7.446850 13.694961
-9.592210 7.479713 13.688377
-9.687515 7.511028 13.681805
-9.783307 7.540820 13.675245
-9.879552 7.569119 13.668700
-9.976217 7.595952 13.662169
-10.073271 7.621348 13.655654
-10.170683 7.645336 13.649157
-10.268426 7.667945 13.642678
-10.366472 7.689206 13.636218
-10.464796 7.709148 13.629777
-10.563375 7.727802 13.623357
-10.662184 7.745198 13.616957
-10.761203 7.761367 13.610579
-10.860411 7.776337 13.604222
-10.959791 7.790137 13.597887
-11.059324 7.802794 13.591574
-11.158993 7.814339 13.585283
-11.258784 7.824800 13.579015
-11.358681 7.834205 13.572769
-11.458671 7.842577 13.566546
-11.558742 7.849944 13.560345
-11.658882 7.856330 13.554167
-11.759079 7.861762 13.548012
-11.859324 7.866264 13.541879
-11.959607 7.869860 13.535768
-12.059919 7.872571 13.529679
-12.160252 7.874420 13.523613
-12.260598 7.875429 13.517569
-12.360950 7.875620 13.511546
-12.461302 7.875015 13.505545
-12.561648 7.873631 13.499565
-12.661982 7.871487 13.493607
-12.762298 7.868600 13.487669
-12.862592 7.864989 13.481752
-12.962859 7.860671 13.475856
-13.063096 7.855664 13.469980
-13.163297 7.849986 13.464125
-13.263461 7.843655 13.458289
-13.363584 7.836689 13.452472
-13.463663 7.829106 13.446675
-13.563696 7.820923 13.440896
-0.958878 -1.070922 21.153058
-0.905262 -0.980655 21.104499
-0.855429 -0.887054 21.058307
-0.810185 -0.789819 21.015031
-0.770563 -0.688687 20.975388
-0.737863 -0.583516 20.940300
-0.713675 -0.474411 20.910929
-0.699815 -0.361934 20.888643
-0.698093 -0.247317 20.874887
-0.709888 -0.132563 20.870874
-0.735639 -0.020203 20.877196
-0.774589 0.087291 20.893578
-0.825015 0.188138 20.918969
-0.884839 0.281431 20.951970
-0.952216 0.366814 20.991286
-1.024970 0.445228 21.035246
-1.101827 0.517345 21.082854
-1.181834 0.583865 21.133347
-0.957946 -1.069366 21.152216
-0.906134 -0.982265 21.105305
-0.904390 -0.979045 21.103694
-0.856230 -0.888721 21.059067
-0.854628 -0.885386 21.057547
-0.810900 -0.791548 21.015736
-0.809470 -0.788089 21.014326
-0.771174 -0.690482 20.976025
-0.769951 -0.686893 20.974751
-0.738347 -0.585376 20.940853
-0.737378 -0.581656 20.939747
-0.714007 -0.476332 20.911378
-0.713344 -0.472491 20.910480
-0.699965 -0.363902 20.888966
-0.699665 -0.359966 20.888320
-0.698035 -0.249309 20.875063
-0.698151 -0.245326 20.874712
-0.709605 -0.134543 20.870886
-0.710170 -0.130583 20.870861
-0.735131 -0.022131 20.877040
-0.736146 -0.018275 20.877352
-0.773873 0.085451 20.893262
-0.775306 0.089132 20.893894
-0.824119 0.186410 20.918512
-0.825911 0.189867 20.919427
-0.883728 0.279897 20.951335
-0.885996 0.282916 20.952643
-0.950969 0.365443 20.990536
-0.953463 0.368186 20.992037
-1.023654 0.443960 21.034434
-1.026287 0.446495 21.036058
-1.100457 0.516170 21.081993
-1.103198 0.518520 21.083715
-1.180421 0.582773 21.132446
-0.955362 -1.065047 21.149879
-0.908553 -0.986731 21.107539
-0.901971 -0.974579 21.101460
-0.858452 -0.893348 21.061176
-0.852405 -0.880760 21.055437
-0.812885 -0.796346 21.017693
-0.807485 -0.783291 21.012370
-0.772869 -0.695461 20.977792
-0.768256 -0.681914 20.972983
-0.739692 -0.590536 20.942387
-0.736034 -0.576495 20.938214
-0.714927 -0.481660 20.912623
-0.712424 -0.467162 20.909234
-0.700380 -0.369362 20.889863
-0.699249 -0.354506 20.887424
-0.697874 -0.254834 20.875550
-0.698312 -0.239801 20.874225
-0.708821 -0.140036 20.870920
-0.710954 -0.125090 20.870828
-0.733722 -0.027481 20.876607
-0.737555 -0.012926 20.877785
-0.771886 0.080345 20.892385
-0.777293 0.094238 20.894771
-0.821634 0.181614 20.917241
-0.828427 0.194636 20.920723
-0.880837 0.275439 20.949735
-0.889208 0.287038 20.954512
-0.947509 0.361637 20.988454
-0.956923 0.371992 20.994119
-1.020001 0.440442 21.032181
-1.029940 0.450013 21.038310
-1.096654 0.512911 21.079603
-1.107001 0.521779 21.086104
-1.176501 0.579744 21.129946
-0.949887 -1.055897 21.144928
-0.942708 -1.043901 21.138436
-0.935529 -1.031904 21.131943
-0.928350 -1.019907 21.125451
-0.921171 -1.007910 21.118959
-0.913992 -0.995913 21.112467
-0.896845 -0.965117 21.096727
-0.890124 -0.952710 21.090521
-0.883403 -0.940304 21.084315
-0.876682 -0.927897 21.078108
-0.869961 -0.915491 21.071902
-0.863240 -0.903084 21.065696
-0.847697 -0.870958 21.050969
-0.841524 -0.858107 21.045109
-0.835351 -0.845255 21.039250
-0.829178 -0.832403 21.033390
-0.823004 -0.819551 21.027531
-0.817089 -0.806513 21.021837
-0.803281 -0.773124 21.008225
-0.797768 -0.759794 21.002790
-0.792256 -0.746465 20.997355
-0.786743 -0.733135 20.991921
-0.781231 -0.719805 20.986486
-0.776462 -0.706010 20.981537
-0.764663 -0.671365 20.969238
-0.759953 -0.657534 20.964327
-0.755242 -0.643702 20.959417
-0.750531 -0.629871 20.954506
-0.746275 -0.615805 20.949898
-0.742540 -0.601469 20.945637
-0.733185 -0.565562 20.934964
-0.729450 -0.551227 20.930703
-0.725715 -0.536891 20.926441
-0.721985 -0.522554 20.922183
-0.719430 -0.507752 20.918723
-0.716875 -0.492950 20.915262
-0.710475 -0.455873 20.906595
-0.707920 -0.441071 20.903134
-0.705365 -0.426269 20.899674
-0.703571 -0.411267 20.896741
-0.702416 -0.396099 20.894251
-0.701261 -0.380931 20.891761
-0.698368 -0.342937 20.885525
-0.697213 -0.327769 20.883036
-0.696192 -0.312586 20.880641
-0.696639 -0.297237 20.879288
-0.697086 -0.281889 20.877935
-0.697533 -0.266540 20.876582
-0.698652 -0.228095 20.873193
-0.699099 -0.212746 20.871840
-0.700628 -0.197453 20.871273
-0.702805 -0.182194 20.871179
-0.704983 -0.166934 20.871085
-0.707161 -0.151674 20.870991
-0.712615 -0.113452 20.870756
-0.715082 -0.098259 20.870878
-0.718996 -0.083398 20.872081
-0.722910 -0.068537 20.873284
-0.726823 -0.053676 20.874487
-0.730737 -0.038815 20.875690
-0.740540 -0.001592 20.878702
-0.745593 0.012790 20.880780
-0.751114 0.026974 20.883216
-0.756634 0.041158 20.885653
-0.762155 0.055343 20.888090
-0.767675 0.069527 20.890526
-0.781849 0.104840 20.896903
-0.788753 0.118163 20.900432
-0.795657 0.131485 20.903962
-0.802561 0.144808 20.907491
-0.809465 0.158131 20.911020
-0.816369 0.171453 20.914549
-0.834553 0.204081 20.924114
-0.842585 0.216463 20.928560
-0.850616 0.228846 20.933006
-0.858648 0.241229 20.937452
-0.866679 0.253612 20.941898
-0.874711 0.265995 20.946344
-0.896012 0.295770 20.958470
-0.904933 0.307219 20.963660
-0.913854 0.318668 20.968850
-0.922775 0.330118 20.974040
-0.931696 0.341567 20.979230
-0.940618 0.353016 20.984420
-0.964254 0.380054 20.998531
-0.973866 0.390625 21.004316
-0.983478 0.401197 21.010100
-0.993091 0.411768 21.015885
-1.002703 0.422340 21.021670
-1.012315 0.432911 21.027454
-1.037679 0.457465 21.043083
-1.047826 0.467236 21.049342
-1.057973 0.477007 21.055600
-1.068120 0.486779 21.061858
-1.078268 0.496550 21.068117
-1.088597 0.506006 21.074541
-1.115057 0.528683 21.091166
-1.125621 0.537737 21.097803
-1.136185 0.546790 21.104441
-1.146748 0.555844 21.111078
-1.157312 0.564897 21.117715
-1.168195 0.573327 21.124651
20 NaN NaN
-0.959110 -1.071311 21.153269
-0.909086 -0.987714 21.108031
-0.862255 -0.901265 21.064786
-0.819241 -0.811716 21.023959
-0.780832 -0.718841 20.986093
-0.748013 -0.622477 20.951882
-0.721995 -0.522612 20.922197
-0.704198 -0.419507 20.898093
-0.696155 -0.313868 20.880754
-0.699267 -0.206990 20.871332
-0.714429 -0.100739 20.870678
-0.741679 0.002734 20.879052
-0.780122 0.101506 20.896020
-0.828203 0.194291 20.920599
-0.884148 0.280545 20.951568
-0.946297 0.360304 20.987724
-1.013265 0.433956 21.028026
-1.083965 0.502037 21.071631
-1.157571 0.565119 21.117878
-1.233458 0.623749 21.166259
-1.081298 -1.508347 17.517430
-0.921994 -1.253407 17.504766
-0.790604 -0.982956 17.498587
-0.701077 -0.696150 17.501646
-0.674011 -0.397638 17.517587
-0.733035 -0.105496 17.549688
-0.875987 0.153874 17.595659
-1.079415 0.367877 17.650084
-1.318892 0.540058 17.708499
-1.080190 -1.506685 17.517334
-0.922991 -1.255139 17.504835
-0.920998 -1.251674 17.504696
-0.791360 -0.984808 17.498602
-0.789849 -0.981104 17.498573
-0.701453 -0.698113 17.501579
-0.700702 -0.694187 17.501713
-0.673820 -0.399621 17.517409
-0.674201 -0.395655 17.517764
-0.732409 -0.107379 17.549433
-0.733661 -0.103614 17.549942
-0.874808 0.152295 17.595320
-0.877165 0.155454 17.595999
-1.077901 0.366627 17.649703
-1.080930 0.369127 17.650465
-1.317198 0.539072 17.708103
-1.073522 -1.496683 17.516756
-0.928987 -1.265565 17.505253
-0.915001 -1.241248 17.504278
-0.795909 -0.995949 17.498690
-0.785300 -0.969963 17.498485
-0.703712 -0.709927 17.501178
-0.698443 -0.682372 17.502115
-0.673888 -0.411624 17.516572
-0.675346 -0.383722 17.518831
-0.728643 -0.118706 17.547904
-0.737427 -0.092286 17.551472
-0.867714 0.142790 17.593277
-0.884259 0.164959 17.598041
-1.068789 0.359106 17.647412
-1.090041 0.376647 17.652756
-1.307234 0.532756 17.705732
-1.056056 -1.470485 17.515244
-1.032798 -1.435600 17.513229
-1.010079 -1.400361 17.511344
-0.987913 -1.364758 17.509591
-0.965747 -1.329155 17.507838
-0.944694 -1.292874 17.506348
-0.899952 -1.213572 17.503337
-0.880478 -1.176405 17.502214
-0.861003 -1.139237 17.501091
-0.842951 -1.101356 17.500294
-0.825145 -1.063351 17.499552
-0.807823 -1.025133 17.498919
-0.773386 -0.940779 17.498255
-0.759371 -0.901224 17.498355
-0.745773 -0.861512 17.498547
-0.732736 -0.821630 17.498859
-0.721783 -0.781116 17.499618
-0.710830 -0.740601 17.500377
-0.692526 -0.651428 17.503167
-0.685271 -0.610136 17.504694
-0.680926 -0.568439 17.506812
-0.676582 -0.526743 17.508930
-0.674521 -0.484944 17.511495
-0.674160 -0.443070 17.514394
-0.678346 -0.352467 17.521626
-0.682341 -0.310848 17.525347
-0.688799 -0.269649 17.529514
-0.697366 -0.228809 17.534063
-0.705934 -0.187970 17.538611
-0.718778 -0.148376 17.543897
-0.749474 -0.063534 17.555835
-0.766940 -0.025846 17.561877
-0.784406 0.011842 17.567919
-0.805389 0.047571 17.574501
-0.826758 0.083085 17.581142
-0.849134 0.117893 17.587927
-0.902840 0.189855 17.603392
-0.930031 0.220927 17.610841
-0.957600 0.251678 17.618341
-0.985781 0.281817 17.625915
-1.015673 0.310239 17.633698
-1.045565 0.338662 17.641481
-1.113908 0.396346 17.658758
-1.146035 0.422119 17.666784
-1.179345 0.446328 17.674928
-1.212655 0.470537 17.683072
-1.246738 0.493596 17.691283
-1.281288 0.515961 17.699535
25 NaN NaN
-1.081576 -1.508762 17.517454
-1.021015 -1.417927 17.512208
-0.963299 -1.325222 17.507644
-0.908840 -1.230535 17.503849
-0.858133 -1.133759 17.500926
-0.811771 -1.034806 17.498996
-0.770466 -0.933626 17.498199
-0.735063 -0.830235 17.498698
-0.706548 -0.724760 17.500673
-0.686038 -0.617491 17.504321
-0.674728 -0.508954 17.509833
-0.673788 -0.399962 17.517379
-0.684185 -0.291642 17.527065
-0.706483 -0.185355 17.538902
-0.740670 -0.082533 17.552789
-0.786126 0.015555 17.568514
-0.841743 0.107991 17.585799
-0.906147 0.194286 17.604344
-0.977915 0.274338 17.623867
-1.055736 0.348332 17.644129
-1.138477 0.416625 17.664936
-1.225203 0.479657 17.686139
-1.315161 0.537887 17.707625
-1.407749 0.591761 17.729310
-1.502492 0.641694 17.751132
-1.484122 -1.518017 16.362974
-1.389764 -1.436170 16.383494
-1.297835 -1.351814 16.404829
-1.208745 -1.264697 16.427065
-1.123007 -1.174537 16.450302
-1.041264 -1.081022 16.474654
-0.964494 -0.983712 16.500283
-0.894376 -0.881918 16.527446
-0.831844 -0.775738 16.556148
-0.778716 -0.665033 16.586493
-0.737201 -0.549953 16.618515
-0.709804 -0.431154 16.652108
-0.699949 -0.310013 16.686992
-0.710095 -0.189121 16.722499
-0.739061 -0.071307 16.757764
-0.785473 0.041097 16.792064
-0.846917 0.146590 16.824876
-0.920635 0.244578 16.855932
-1.004626 0.334629 16.885038
-1.096263 0.417525 16.912328
-1.193510 0.494311 16.938037
-1.295182 0.565651 16.962316
-1.400380 0.632159 16.985313
-1.508421 0.694380 17.007161
-1.482626 -1.516729 16.363297
-1.391228 -1.437492 16.383161
-1.388301 -1.434849 16.383828
-1.299262 -1.353173 16.404483
-1.296409 -1.350456 16.405174
-1.210129 -1.266096 16.426706
-1.207361 -1.263299 16.427423
-1.124341 -1.175979 16.449929
-1.121672 -1.173095 16.450675
-1.042540 -1.082512 16.474265
-1.039988 -1.079532 16.475043
-0.965619 -0.985309 16.499857
-0.963369 -0.982114 16.500708
-0.895402 -0.883575 16.527000
-0.893349 -0.880260 16.527892
-0.832751 -0.777458 16.555680
-0.830937 -0.774019 16.556617
-0.779478 -0.666815 16.586002
-0.777953 -0.663251 16.586985
-0.737790 -0.551793 16.618000
-0.736611 -0.548112 16.619029
-0.710188 -0.433043 16.651572
-0.709419 -0.429266 16.652643
-0.699843 -0.311930 16.686431
-0.700056 -0.308096 16.687553
-0.709726 -0.191005 16.721938
-0.710464 -0.187237 16.723059
-0.738441 -0.073127 16.757214
-0.739682 -0.069487 16.758315
-0.784627 0.039365 16.791531
-0.786319 0.042829 16.792597
-0.845878 0.144959 16.824365
-0.847956 0.148221 16.825386
-0.919438 0.243051 16.855446
-0.921832 0.246104 16.856418
-1.003198 0.333299 16.884601
-1.006055 0.335959 16.885474
-1.094752 0.416282 16.911914
-1.097774 0.418768 16.912742
-1.191932 0.493146 16.937643
-1.195087 0.495475 16.938430
-1.293550 0.564558 16.961941
-1.296814 0.566745 16.962691
-1.398703 0.631129 16.984955
-1.402057 0.633189 16.985670
-1.506707 0.693407 17.006819
-1.478191 -1.512910 16.364253
-1.395567 -1.441412 16.382172
-1.383962 -1.430929 16.384817
-1.303492 -1.357202 16.403459
-1.292179 -1.346427 16.406199
-1.214233 -1.270243 16.425643
-1.203258 -1.259151 16.428487
-1.128297 -1.180256 16.448823
-1.117716 -1.168818 16.451782
-1.046324 -1.086930 16.473112
-1.036204 -1.075114 16.476196
-0.969124 -0.989932 16.498635
-0.960032 -0.977376 16.501970
-0.898447 -0.888490 16.525676
-0.890305 -0.875346 16.529215
-0.835442 -0.782557 16.554290
-0.828246 -0.768919 16.558006
-0.781741 -0.672099 16.584544
-0.775690 -0.657966 16.588443
-0.739539 -0.557251 16.616474
-0.734863 -0.542654 16.620556
-0.711328 -0.438641 16.649983
-0.708279 -0.423667 16.654232
-0.699597 -0.317613 16.684769
-0.700371 -0.302412 16.689217
-0.708632 -0.196591 16.720275
-0.711558 -0.181650 16.724722
-0.736601 -0.078523 16.755581
-0.741521 -0.064091 16.759948
-0.782118 0.034230 16.789950
-0.788829 0.047965 16.794178
-0.842798 0.140122 16.822852
-0.851036 0.153058 16.826900
-0.915887 0.238524 16.854007
-0.925411 0.250609 16.857852
-0.998962 0.329355 16.883307
-1.010291 0.339903 16.886768
-1.090271 0.412595 16.910686
-1.102254 0.422454 16.913970
-1.187253 0.489693 16.936477
-1.199766 0.498928 16.939597
-1.288710 0.561314 16.960830
-1.301653 0.569988 16.963802
-1.393732 0.628075 16.983894
-1.407028 0.636244 16.986731
-1.501626 0.690522 17.005803
-1.468530 -1.504589 16.366337
-1.455834 -1.493656 16.369075
-1.443137 -1.482722 16.371813
-1.430441 -1.471788 16.374551
-1.417745 -1.460854 16.377289
-1.405049 -1.449920 16.380027
-1.374509 -1.422390 16.386971
-1.362086 -1.411169 16.389802
-1.349664 -1.399949 16.392633
-1.337241 -1.388728 16.395465
-1.324819 -1.377507 16.398296
-1.312706 -1.365978 16.401227
-1.282964 -1.337651 16.408431
-1.270856 -1.326118 16.411363
-1.258747 -1.314585 16.414296
-1.246667 -1.303025 16.417238
-1.234919 -1.291151 16.420282
-1.223172 -1.279278 16.423326
-1.194319 -1.250116 16.430803
-1.182571 -1.238243 16.433848
-1.170897 -1.226305 16.436913
-1.159570 -1.214061 16.440080
-1.148243 -1.201818 16.443247
-1.136917 -1.189574 16.446413
-1.109096 -1.159500 16.454191
-1.097901 -1.147148 16.457394
-1.087068 -1.134500 16.460695
-1.076235 -1.121852 16.463997
-1.065402 -1.109204 16.467298
-1.054568 -1.096555 16.470600
-1.028170 -1.065331 16.478762
-1.017921 -1.052243 16.482211
-1.007672 -1.039155 16.485661
-0.997422 -1.026067 16.489110
-0.987173 -1.012980 16.492560
-0.976924 -0.999892 16.496010
-0.952763 -0.967055 16.504718
-0.943211 -0.953493 16.508330
-0.933658 -0.939930 16.511942
-0.924106 -0.926368 16.515554
-0.914554 -0.912805 16.519166
-0.905078 -0.899196 16.522794
-0.883674 -0.864639 16.532098
-0.874959 -0.850570 16.535887
-0.866245 -0.836501 16.539675
-0.857531 -0.822431 16.543463
-0.849004 -0.808264 16.547286
-0.841302 -0.793666 16.551264
-0.822386 -0.757811 16.561033
-0.814684 -0.743213 16.565010
-0.806982 -0.728615 16.568987
-0.799623 -0.713868 16.573019
-0.793146 -0.698740 16.577193
-0.786670 -0.683612 16.581367
-0.770761 -0.646454 16.591620
-0.764285 -0.631325 16.595794
-0.758360 -0.616011 16.600041
-0.753355 -0.600388 16.604410
-0.748351 -0.584764 16.608779
-0.743347 -0.569140 16.613149
-0.731055 -0.530765 16.623880
-0.726869 -0.514951 16.628333
-0.723605 -0.498923 16.632881
-0.720341 -0.482895 16.637428
-0.717077 -0.466867 16.641976
-0.713812 -0.450838 16.646523
-0.706924 -0.411334 16.657771
-0.705652 -0.395066 16.662457
-0.704380 -0.378798 16.667144
-0.703108 -0.362529 16.671830
-0.701836 -0.346261 16.676517
-0.700565 -0.329993 16.681203
-0.701058 -0.290031 16.692841
-0.701960 -0.273760 16.697604
-0.702862 -0.257489 16.702366
-0.703764 -0.241218 16.707129
-0.704667 -0.224948 16.711892
-0.706249 -0.208761 16.716654
-0.713941 -0.169480 16.728344
-0.717073 -0.153487 16.733103
-0.720204 -0.137494 16.737863
-0.723336 -0.121501 16.742622
-0.727327 -0.105727 16.747348
-0.732594 -0.090279 16.752023
-0.745529 -0.052336 16.763506
-0.750795 -0.036887 16.768181
-0.756062 -0.021439 16.772856
-0.762286 -0.006364 16.777457
-0.769469 0.008339 16.781982
-0.776652 0.023041 16.786507
-0.794295 0.059153 16.797621
-0.801478 0.073856 16.802146
-0.809635 0.088048 16.806556
-0.818453 0.101894 16.810889
-0.827270 0.115740 16.815222
-0.836088 0.129586 16.819555
-0.857746 0.163594 16.830197
-0.867495 0.176827 16.834384
-0.877660 0.189786 16.838505
-0.887824 0.202745 16.842627
-0.897988 0.215704 16.846749
-0.908152 0.228663 16.850870
-0.933974 0.259814 16.860826
-0.945227 0.271911 16.864735
-0.956479 0.284008 16.868644
-0.967732 0.296105 16.872553
-0.978984 0.308202 16.876462
-0.990237 0.320299 16.880370
-1.019518 0.348495 16.889587
-1.031644 0.359786 16.893292
-1.043769 0.371076 16.896997
-1.055895 0.382367 16.900701
-1.068021 0.393658 16.904406
-1.080510 0.404565 16.908012
-1.112015 0.430484 16.916644
-1.124842 0.441037 16.920159
-1.137669 0.451590 16.923673
-1.150495 0.462143 16.927188
-1.163669 0.472286 16.930595
-1.177062 0.482171 16.933935
-1.209957 0.506451 16.942139
-1.223350 0.516336 16.945479
-1.236743 0.526221 16.948819
-1.250461 0.535681 16.952047
-1.264315 0.544965 16.955228
-1.278168 0.554250 16.958409
-1.312195 0.577053 16.966223
-1.326049 0.586337 16.969404
-1.340205 0.595189 16.972470
-1.354437 0.603933 16.975508
-1.368669 0.612677 16.978545
-1.382902 0.621421 16.981582
-1.417858 0.642898 16.989043
-1.432371 0.651207 16.991964
-1.446918 0.659465 16.994870
-1.461464 0.667723 16.997777
-1.476010 0.675981 17.000684
-1.490557 0.684238 17.003591
28 NaN NaN
-1.484496 -1.518339 16.362893
-1.403709 -1.448766 16.380316
-1.324664 -1.377367 16.398331
-1.247614 -1.303982 16.416992
-1.172866 -1.228434 16.436363
-1.100795 -1.150527 16.456512
-1.031865 -1.070049 16.477518
-0.966652 -0.986776 16.499467
-0.905876 -0.900484 16.522447
-0.850433 -0.810972 16.546549
-0.801436 -0.718102 16.571851
-0.760235 -0.621866 16.598403
-0.728404 -0.522489 16.626195
-0.707644 -0.420551 16.655116
-0.699557 -0.317099 16.684918
-0.705294 -0.213638 16.715202
-0.725207 -0.111945 16.745466
-0.758697 -0.013710 16.775196
-0.804378 0.079794 16.803973
-0.860463 0.167861 16.831532
-0.925119 0.250295 16.857750
-0.996705 0.327253 16.882617
-1.073850 0.399085 16.906187
-1.155459 0.466226 16.928548
-1.240672 0.529121 16.949799
-1.328819 0.588194 16.970040
-1.419377 0.643831 16.989367
-1.511935 0.696375 17.007863
-1.966326 -1.495618 15.237748
-1.758507 -1.388922 15.270128
-1.555689 -1.273862 15.305347
-1.359771 -1.148485 15.344078
-1.173826 -1.010122 15.387248
-1.003112 -0.855154 15.436129
-0.857063 -0.679108 15.492334
-0.753293 -0.478273 15.557341
-0.716632 -0.258093 15.629698
-0.758111 -0.039123 15.702758
-0.863112 0.160076 15.770170
-1.008475 0.335330 15.830227
-1.177992 0.490058 15.883832
-1.362510 0.628621 15.932298
-1.964554 -1.494732 15.238016
-1.760244 -1.389871 15.269839
-1.756770 -1.387974 15.270417
-1.557378 -1.274885 15.305032
-1.554000 -1.272838 15.305662
-1.361395 -1.149600 15.343732
-1.358148 -1.147369 15.344424
-1.175355 -1.011352 15.386862
-1.172297 -1.008891 15.387634
-1.004496 -0.856531 15.435693
-1.001728 -0.853778 15.436565
-0.858215 -0.680665 15.491835
-0.855911 -0.677551 15.492833
-0.753807 -0.480110 15.556740
-0.752780 -0.476436 15.557942
-0.716524 -0.259989 15.629069
-0.716741 -0.256198 15.630327
-0.757422 -0.040903 15.702159
-0.758800 -0.037344 15.703356
-0.862022 0.158489 15.769630
-0.864203 0.161663 15.770711
-1.007136 0.333924 15.829743
-1.009813 0.336735 15.830711
-1.176500 0.488801 15.883395
-1.179485 0.491315 15.884269
-1.360916 0.627481 15.931898
-1.955908 -1.490408 15.239325
-1.768716 -1.394497 15.268427
-1.748299 -1.383348 15.271829
-1.565618 -1.279876 15.303497
-1.545760 -1.267847 15.307198
-1.369314 -1.155040 15.342043
-1.350229 -1.141929 15.346113
-1.182810 -1.017355 15.384981
-1.164842 -1.002888 15.389515
-1.011247 -0.863244 15.433566
-0.994978 -0.847065 15.438691
-0.863835 -0.688258 15.489401
-0.850464 -0.669855 15.495304
-0.756931 -0.488874 15.553884
-0.750275 -0.467475 15.560872
-0.715995 -0.269234 15.626002
-0.717270 -0.246953 15.633394
-0.754062 -0.049583 15.699239
-0.762160 -0.028664 15.706277
-0.856703 0.150748 15.766993
-0.869521 0.169404 15.773348
-1.000609 0.327070 15.827383
-1.016340 0.343589 15.833072
-1.169218 0.482669 15.881263
-1.186766 0.497447 15.886401
-1.353140 0.621922 15.929949
-1.934127 -1.479515 15.242623
-1.905199 -1.465047 15.247003
-1.876271 -1.450579 15.251383
-1.847553 -1.435740 15.255889
-1.818897 -1.420790 15.260433
-1.790241 -1.405839 15.264977
-1.726958 -1.371693 15.275385
-1.698613 -1.356215 15.280108
-1.670367 -1.340575 15.284885
-1.642381 -1.324516 15.289806
-1.614395 -1.308456 15.294726
-1.586409 -1.292397 15.299646
-1.525004 -1.255273 15.311066
-1.497435 -1.238573 15.316204
-1.470251 -1.221315 15.321533
-1.443172 -1.203904 15.326913
-1.416094 -1.186493 15.332293
-1.389263 -1.168746 15.337789
-1.330279 -1.128223 15.350368
-1.303987 -1.109762 15.356107
-1.278190 -1.090673 15.362061
-1.252393 -1.071583 15.368015
-1.226596 -1.052494 15.373969
-1.201592 -1.032477 15.380241
-1.146060 -0.987766 15.394255
-1.121952 -0.966787 15.400859
-1.098055 -0.945582 15.407539
-1.074158 -0.924378 15.414220
-1.050837 -0.902620 15.421092
-1.028252 -0.880157 15.428208
-0.978483 -0.829721 15.444199
-0.957558 -0.805854 15.451803
-0.936632 -0.781987 15.459407
-0.915707 -0.758120 15.467011
-0.896795 -0.732793 15.475127
-0.877992 -0.707387 15.483270
-0.838356 -0.649503 15.501869
-0.822275 -0.622472 15.510588
-0.806193 -0.595441 15.519308
-0.791695 -0.567678 15.528292
-0.779067 -0.539052 15.537588
-0.766439 -0.510426 15.546885
-0.743964 -0.444901 15.568255
-0.735582 -0.414919 15.578060
-0.727200 -0.384937 15.587865
-0.723597 -0.354135 15.598009
-0.720136 -0.323309 15.608163
-0.716674 -0.292483 15.618316
-0.718604 -0.223663 15.641121
-0.720375 -0.192730 15.651385
-0.724592 -0.162116 15.661577
-0.731403 -0.131840 15.671693
-0.738213 -0.101565 15.681810
-0.745596 -0.071449 15.691882
-0.770626 -0.006798 15.713633
-0.781870 0.022244 15.723404
-0.796760 0.049754 15.732720
-0.811656 0.077262 15.742034
-0.826552 0.104770 15.751349
-0.843305 0.131248 15.760349
-0.882919 0.188904 15.779991
-0.901868 0.214018 15.788571
-0.921932 0.238373 15.796915
-0.941996 0.262727 15.805259
-0.962326 0.286869 15.813537
-0.984166 0.309803 15.821436
-1.032808 0.360835 15.839013
-1.056050 0.382490 15.846508
-1.079292 0.404146 15.854004
-1.102533 0.425801 15.861499
-1.126513 0.446707 15.868757
-1.150875 0.467222 15.875891
-1.205586 0.512361 15.891603
-1.230857 0.531863 15.898415
-1.256127 0.551366 15.905227
-1.281521 0.570718 15.911990
-1.307537 0.589318 15.918514
-1.333553 0.607918 15.925037
30 NaN NaN
-1.966769 -1.495840 15.237681
-1.869589 -1.447237 15.252395
-1.773322 -1.397012 15.267659
-1.678101 -1.345013 15.283526
-1.584086 -1.291064 15.300055
-1.491473 -1.234961 15.317316
-1.400509 -1.176472 15.335390
-1.311501 -1.115322 15.354373
-1.224843 -1.051197 15.374373
-1.141046 -0.983729 15.395521
-1.060774 -0.912502 15.417962
-0.984911 -0.837052 15.441863
-0.914630 -0.756891 15.467402
-0.851484 -0.671569 15.494751
-0.797486 -0.580804 15.524030
-0.755091 -0.484703 15.555238
-0.726958 -0.384070 15.588148
-0.715343 -0.280621 15.622224
-0.721286 -0.176814 15.656665
-0.744144 -0.075201 15.690620
-0.781888 0.022293 15.723421
-0.831905 0.114655 15.754696
-0.891665 0.201632 15.784328
-0.959051 0.283430 15.812352
-1.032407 0.360461 15.838883
-1.110477 0.433203 15.864061
-1.192314 0.502118 15.888026
-1.277203 0.567631 15.910908
-1.364597 0.630113 15.932822
-1.454075 0.689887 15.953869
-1.846442 -1.583786 13.961687
-1.678750 -1.481269 14.042991
-1.515510 -1.372884 14.125718
-1.357951 -1.257558 14.210035
-1.207861 -1.133901 14.296110
-1.067934 -1.000124 14.384070
-0.942382 -0.853988 14.473881
-0.837941 -0.693014 14.565028
-0.765118 -0.515585 14.655771
-0.737788 -0.324037 14.741948
-0.766715 -0.128253 14.816960
-0.849543 0.057809 14.875529
-0.972493 0.225747 14.917316
-1.121345 0.374816 14.945279
-1.286449 0.507637 14.962730
-1.462043 0.627229 14.972252
-1.844856 -1.582835 13.962449
-1.680317 -1.482246 14.042223
-1.677183 -1.480291 14.043758
-1.517031 -1.373921 14.124936
-1.513989 -1.371847 14.126500
-1.359412 -1.258666 14.209237
-1.356490 -1.256450 14.210833
-1.209241 -1.135096 14.295294
-1.206480 -1.132706 14.296925
-1.069203 -1.001425 14.383235
-1.066665 -0.998822 14.384904
-0.943488 -0.855420 14.473029
-0.941275 -0.852556 14.474732
-0.838802 -0.694601 14.564168
-0.837079 -0.691427 14.565888
-0.765608 -0.517332 14.654930
-0.764627 -0.513838 14.656613
-0.737763 -0.325884 14.741183
-0.737813 -0.322189 14.742713
-0.766127 -0.130061 14.816341
-0.767302 -0.126444 14.817580
-0.848504 0.056160 14.875080
-0.850582 0.059458 14.875978
-0.971159 0.224287 14.917013
-0.973827 0.227206 14.917618
-1.119829 0.373525 14.945089
-1.122860 0.376107 14.945470
-1.284820 0.506482 14.962623
-1.288078 0.508792 14.962837
-1.460357 0.626154 14.972191
-1.837763 -1.578581 13.965853
-1.687324 -1.486618 14.038789
-1.670220 -1.475861 14.047207
-1.523832 -1.378559 14.121438
-1.507188 -1.367208 14.129998
-1.365946 -1.263624 14.205667
-1.349956 -1.251492 14.214402
-1.215417 -1.140441 14.291645
-1.200305 -1.127362 14.300574
-1.074879 -1.007245 14.379503
-1.060989 -0.993003 14.388636
-0.948438 -0.861823 14.469220
-0.936325 -0.846153 14.478541
-0.842656 -0.701698 14.560322
-0.833225 -0.684330 14.569734
-0.767799 -0.525145 14.651168
-0.762436 -0.506025 14.660375
-0.737650 -0.334148 14.737762
-0.737926 -0.313925 14.746134
-0.763499 -0.138150 14.813571
-0.769931 -0.118355 14.820349
-0.843857 0.048786 14.873072
-0.855229 0.066832 14.877985
-0.965194 0.217760 14.915662
-0.979792 0.233733 14.918969
-1.113053 0.367749 14.944237
-1.129636 0.381883 14.946321
-1.277601 0.501230 14.962091
-1.295366 0.513956 14.963316
-1.452886 0.621248 14.971862
-1.820232 -1.568068 13.974268
-1.796979 -1.554123 13.985429
-1.773726 -1.540178 13.996590
-1.750584 -1.526082 14.007788
-1.727613 -1.511752 14.019045
-1.704642 -1.497422 14.030302
-1.653141 -1.464742 14.055770
-1.630488 -1.449993 14.067129
-1.607834 -1.435245 14.078487
-1.585231 -1.420432 14.089861
-1.562936 -1.405227 14.101327
-1.540640 -1.390022 14.112794
-1.490642 -1.355425 14.138716
-1.468755 -1.339722 14.150296
-1.446868 -1.324019 14.161877
-1.424981 -1.308315 14.173457
-1.403511 -1.292126 14.185145
-1.382093 -1.275875 14.196846
-1.334021 -1.239005 14.223273
-1.313145 -1.222152 14.235101
-1.292268 -1.205299 14.246929
-1.271392 -1.188446 14.258756
-1.250920 -1.171168 14.270669
-1.230678 -1.153648 14.282629
-1.185148 -1.114051 14.309610
-1.165652 -1.095793 14.321706
-1.146157 -1.077536 14.333802
-1.126661 -1.059278 14.345898
-1.107510 -1.040704 14.358047
-1.088905 -1.021627 14.370281
-1.046963 -0.978621 14.397859
-1.029312 -0.958735 14.410210
-1.011780 -0.938749 14.422576
-0.994248 -0.918763 14.434942
-0.976895 -0.898639 14.447324
-0.960670 -0.877648 14.459808
-0.924093 -0.830327 14.487953
-0.908894 -0.808635 14.500494
-0.894276 -0.786546 14.513068
-0.879657 -0.764456 14.525641
-0.865038 -0.742367 14.538215
-0.852180 -0.719236 14.550818
-0.823701 -0.666792 14.579238
-0.812024 -0.643059 14.591821
-0.801844 -0.618590 14.604367
-0.791664 -0.594121 14.616912
-0.781484 -0.569653 14.629458
-0.773216 -0.544454 14.641869
-0.757019 -0.486716 14.669674
-0.750338 -0.460971 14.681948
-0.746705 -0.434424 14.693856
-0.743071 -0.407878 14.705764
-0.739437 -0.381331 14.717671
-0.737372 -0.354571 14.729307
-0.738204 -0.293502 14.754588
-0.738573 -0.266413 14.765802
-0.742706 -0.239323 14.776151
-0.747273 -0.212234 14.786400
-0.751840 -0.185145 14.796650
-0.757003 -0.158140 14.806726
-0.776426 -0.098365 14.827194
-0.785042 -0.071850 14.836273
-0.796008 -0.046009 14.844531
-0.808229 -0.020529 14.852350
-0.820449 0.004952 14.860169
-0.832669 0.030433 14.867988
-0.866713 0.085057 14.882947
-0.881946 0.109231 14.889529
-0.898159 0.132837 14.895649
-0.915810 0.155609 14.901090
-0.933460 0.178381 14.906531
-0.951111 0.201154 14.911972
-0.994533 0.249863 14.922309
-1.014087 0.271259 14.926738
-1.033873 0.292453 14.931031
-1.054916 0.312560 14.934581
-1.075960 0.332668 14.938131
-1.097003 0.352775 14.941681
-1.146384 0.396157 14.948425
-1.168598 0.415091 14.951217
-1.190812 0.434024 14.954008
-1.213868 0.452000 14.956206
-1.237011 0.469876 14.958343
-1.260154 0.487753 14.960480
-1.313375 0.526720 14.964501
-1.337263 0.543650 14.966072
-1.361151 0.560581 14.967643
-1.385435 0.576956 14.968891
-1.409928 0.593039 14.969970
-1.434420 0.609123 14.971049
31 NaN NaN
-1.846839 -1.584024 13.961497
-1.759576 -1.531692 14.003382
-1.673372 -1.477913 14.045626
-1.588358 -1.422564 14.088252
-1.504690 -1.365505 14.131283
-1.422555 -1.306575 14.174741
-1.342178 -1.245591 14.218651
-1.263837 -1.182347 14.263037
-1.187874 -1.116603 14.307918
-1.114715 -1.048091 14.353310
-1.044899 -0.976504 14.399216
-0.979112 -0.901508 14.445618
-0.918233 -0.822745 14.492462
-0.863383 -0.739866 14.539638
-0.815988 -0.652588 14.586935
-0.777802 -0.560801 14.633996
-0.750854 -0.464740 14.680257
-0.737228 -0.365188 14.724912
-0.738611 -0.263616 14.766960
-0.755733 -0.162047 14.805389
-0.788040 -0.062623 14.839433
-0.833870 0.032936 14.868756
-0.891006 0.123609 14.893444
-0.957222 0.209037 14.913856
-1.030583 0.289309 14.930475
-1.109539 0.364754 14.943796
-1.192894 0.435798 14.954269
-1.279736 0.502879 14.962288
-1.369376 0.566410 14.968184
-1.461288 0.626765 14.972232
-1.555065 0.684273 14.974664
-1.101645 -1.649518 13.375681
-0.968886 -1.445101 13.432256
-0.851777 -1.232302 13.492228
-0.755637 -1.010384 13.556100
-0.688177 -0.779447 13.624233
-0.656756 -0.542165 13.696175
-0.672053 -0.304254 13.770700
-0.738404 -0.075306 13.845057
-0.851917 0.135539 13.916214
-1.005711 0.321387 13.981682
-1.186785 0.483257 14.041112
-1.386951 0.623342 14.094766
-1.100550 -1.647905 13.376125
-0.969884 -1.446770 13.431789
-0.967888 -1.443432 13.432722
-0.852654 -1.234032 13.491737
-0.850901 -1.230573 13.492720
-0.756266 -1.012206 13.555567
-0.755008 -1.008561 13.556632
-0.688584 -0.781323 13.623672
-0.687770 -0.777571 13.624793
-0.656887 -0.544073 13.695590
-0.656626 -0.540257 13.696759
-0.671685 -0.306127 13.770101
-0.672422 -0.302382 13.771299
-0.737691 -0.077080 13.844471
-0.739118 -0.073532 13.845643
-0.850897 0.133911 13.915657
-0.852936 0.137166 13.916770
-1.004347 0.320011 13.981185
-1.007075 0.322763 13.982178
-1.185265 0.482040 14.040657
-1.188305 0.484474 14.041567
-1.385274 0.622329 14.094366
-1.094929 -1.639630 13.378403
-0.975006 -1.455332 13.429398
-0.962766 -1.434870 13.435114
-0.857150 -1.242902 13.489217
-0.846404 -1.221702 13.495239
-0.759493 -1.021554 13.552835
-0.751781 -0.999214 13.559365
-0.690671 -0.790948 13.620795
-0.685683 -0.767947 13.627670
-0.657556 -0.553861 13.692590
-0.655957 -0.530468 13.699759
-0.669793 -0.315731 13.767027
-0.674313 -0.292778 13.774372
-0.734032 -0.086181 13.841463
-0.742777 -0.064431 13.848651
-0.845664 0.125560 13.912801
-0.858808 0.145111 13.919533
-0.997350 0.312952 13.978640
-1.014072 0.329821 13.984723
-1.177466 0.475796 14.038323
-1.196104 0.490719 14.043901
-1.376730 0.617045 14.092291
-1.080623 -1.618568 13.384200
-1.061609 -1.590575 13.391905
-1.042658 -1.562544 13.399624
-1.024442 -1.534076 13.407517
-1.006226 -1.505609 13.415410
-0.988043 -1.477123 13.423309
-0.949729 -1.413079 13.441202
-0.932609 -1.384010 13.449337
-0.916279 -1.354532 13.457639
-0.899949 -1.325055 13.465941
-0.883805 -1.295489 13.474280
-0.868595 -1.265481 13.482804
-0.835384 -1.198942 13.501731
-0.821435 -1.168393 13.510487
-0.807486 -1.137843 13.519243
-0.793957 -1.107134 13.528070
-0.781432 -1.076042 13.537067
-0.768907 -1.044950 13.546064
-0.743567 -0.975422 13.566319
-0.732651 -0.943801 13.575563
-0.722504 -0.911968 13.584911
-0.713403 -0.879850 13.594401
-0.704302 -0.847731 13.603892
-0.695983 -0.815444 13.613474
-0.680371 -0.743450 13.634991
-0.674573 -0.710702 13.644845
-0.669793 -0.677799 13.654800
-0.665012 -0.644897 13.664754
-0.661522 -0.611887 13.674807
-0.659259 -0.578775 13.684955
-0.656124 -0.505535 13.707496
-0.656596 -0.472395 13.717792
-0.657068 -0.439255 13.728089
-0.659412 -0.406241 13.738441
-0.662795 -0.373298 13.748825
-0.666178 -0.340355 13.759209
-0.679128 -0.268334 13.782195
-0.685526 -0.235846 13.792592
-0.694269 -0.203918 13.802936
-0.703698 -0.172155 13.813263
-0.713127 -0.140391 13.823591
-0.724718 -0.109344 13.833807
-0.752090 -0.041268 13.856307
-0.766981 -0.011560 13.866277
-0.782138 0.018034 13.876225
-0.797295 0.047629 13.886173
-0.814647 0.076060 13.895872
-0.832347 0.104307 13.905533
-0.873833 0.165282 13.926553
-0.893802 0.192091 13.935884
-0.913771 0.218899 13.945214
-0.935713 0.244245 13.954192
-0.957668 0.269581 13.963168
-0.979623 0.294918 13.972144
-1.031880 0.347787 13.991202
-1.055729 0.371491 13.999769
-1.080864 0.393957 14.008018
-1.105998 0.416423 14.016266
-1.131235 0.438779 14.024486
-1.157617 0.459903 14.032382
-1.216220 0.506293 14.049757
-1.243660 0.526153 14.057316
-1.271100 0.546014 14.064875
-1.298730 0.565625 14.072366
-1.327069 0.584307 14.079605
-1.355408 0.602989 14.086845
28 NaN NaN
-1.101919 -1.649922 13.375570
-1.044093 -1.564785 13.399003
-0.988692 -1.478208 13.423006
-0.935997 -1.390125 13.447615
-0.886334 -1.300477 13.472863
-0.840075 -1.209216 13.498786
-0.797654 -1.116310 13.525415
-0.759563 -1.021756 13.552775
-0.726365 -0.925595 13.580885
-0.698689 -0.827922 13.609744
-0.677220 -0.728919 13.639334
-0.662683 -0.628870 13.669602
-0.655801 -0.528187 13.700458
-0.657237 -0.427423 13.731765
-0.667522 -0.327262 13.763337
-0.686976 -0.228485 13.794948
-0.715644 -0.131912 13.826348
-0.753279 -0.038311 13.857284
-0.799364 0.051668 13.887530
-0.853181 0.137556 13.916904
-0.913900 0.219073 13.945275
-0.980660 0.296115 13.972568
-1.052635 0.368725 13.998753
-1.129069 0.437044 14.023837
-1.209296 0.501281 14.047850
-1.292744 0.561679 14.070837
-1.378928 0.618493 14.092853
-1.467439 0.671980 14.113957
-0.952870 -1.640371 12.913989
-0.883149 -1.496158 12.942463
-0.819908 -1.349231 12.972134
-0.765948 -1.198976 13.003385
-0.720870 -1.046119 13.036011
-0.688315 -0.890496 13.070358
-0.667793 -0.733173 13.106132
-0.663592 -0.574952 13.143504
-0.674644 -0.417367 13.182018
-0.704848 -0.262551 13.221497
-0.751732 -0.112073 13.261356
-0.817351 0.031291 13.301108
-0.897834 0.167017 13.340299
-0.993285 0.293041 13.378446
-1.099796 0.410237 13.415427
-1.216672 0.517643 13.450952
-1.340999 0.616797 13.485142
-1.472081 0.707414 13.517869
-0.951994 -1.638606 12.914335
-0.883969 -1.497947 12.942106
-0.882329 -1.494369 12.942820
-0.820597 -1.351069 12.971754
-0.819218 -1.347392 12.972513
-0.766561 -1.200838 13.002993
-0.765334 -1.197113 13.003777
-0.721307 -1.048026 13.035593
-0.720433 -1.044213 13.036428
-0.688649 -0.892420 13.069928
-0.687980 -0.888572 13.070789
-0.667894 -0.735118 13.105677
-0.667693 -0.731228 13.106587
-0.663561 -0.576897 13.143038
-0.663623 -0.573008 13.143970
-0.674329 -0.419282 13.181535
-0.674959 -0.415452 13.182501
-0.704386 -0.264434 13.221008
-0.705311 -0.260667 13.221985
-0.750979 -0.113860 13.260866
-0.752486 -0.110286 13.261846
-0.816462 0.029567 13.300621
-0.818240 0.033015 13.301594
-0.896703 0.165437 13.339826
-0.898966 0.168597 13.340772
-0.992050 0.291538 13.377983
-0.994520 0.294545 13.378910
-1.098389 0.408887 13.414986
-1.101204 0.411588 13.415868
-1.215194 0.516366 13.450522
-1.218150 0.518920 13.451382
-1.339407 0.615657 13.484735
-1.342591 0.617938 13.485549
-1.470443 0.706336 13.517473
-0.948843 -1.632260 12.915581
-0.886919 -1.504382 12.940821
-0.879378 -1.487934 12.944104
-0.823320 -1.357596 12.970428
-0.816736 -1.340779 12.973880
-0.768770 -1.207539 13.001583
-0.763125 -1.190412 13.005188
-0.723128 -1.054828 13.034126
-0.718860 -1.037354 13.037930
-0.689853 -0.899343 13.068379
-0.686776 -0.881650 13.072337
-0.668479 -0.742101 13.104061
-0.667332 -0.724231 13.108225
-0.663450 -0.583893 13.141360
-0.663735 -0.566012 13.145648
-0.673338 -0.426191 13.179803
-0.676092 -0.408563 13.184240
-0.702721 -0.271210 13.219252
-0.706975 -0.253891 13.223742
-0.748286 -0.120294 13.259103
-0.755195 -0.103858 13.263608
-0.813262 0.023365 13.298871
-0.821440 0.039217 13.303344
-0.892632 0.159754 13.338126
-0.903036 0.174281 13.342472
-0.987606 0.286130 13.376317
-0.998964 0.299952 13.380576
-1.093325 0.404029 13.413398
-1.106267 0.416446 13.417456
-1.209878 0.511772 13.448976
-1.223466 0.523515 13.452929
-1.333681 0.611555 13.483271
-1.348317 0.622040 13.487013
-1.464552 0.702460 13.516049
-0.941496 -1.617464 12.918486
-0.931792 -1.597920 12.922323
-0.922088 -1.578376 12.926160
-0.912384 -1.558832 12.929998
-0.902881 -1.539200 12.933873
-0.893796 -1.519384 12.937827
-0.872501 -1.472932 12.947098
-0.863417 -1.453116 12.951052
-0.854878 -1.433080 12.955106
-0.846478 -1.412989 12.959184
-0.838078 -1.392898 12.963262
-0.829679 -1.372806 12.967341
-0.810951 -1.325361 12.977066
-0.803310 -1.304996 12.981274
-0.795668 -1.284630 12.985482
-0.788027 -1.264265 12.989690
-0.780721 -1.243792 12.993952
-0.773919 -1.223159 12.998295
-0.757976 -1.174792 13.008476
-0.751175 -1.154159 13.012819
-0.745185 -1.133304 13.017284
-0.739314 -1.112416 13.021767
-0.733443 -1.091528 13.026249
-0.727572 -1.070641 13.030732
-0.715195 -1.021366 13.041432
-0.710353 -1.000247 13.046057
-0.705512 -0.979128 13.050682
-0.700670 -0.958009 13.055308
-0.696367 -0.936796 13.060001
-0.692660 -0.915480 13.064769
-0.683970 -0.865512 13.075947
-0.680262 -0.844196 13.080716
-0.677734 -0.822741 13.085617
-0.675271 -0.801277 13.090526
-0.672807 -0.779813 13.095436
-0.670344 -0.758350 13.100345
-0.666491 -0.707921 13.112043
-0.665380 -0.686376 13.117086
-0.664269 -0.664831 13.122129
-0.663157 -0.643286 13.127173
-0.662848 -0.621743 13.132283
-0.663190 -0.600201 13.137449
-0.663994 -0.549704 13.149559
-0.664376 -0.528165 13.154727
-0.666260 -0.506728 13.159998
-0.668144 -0.485292 13.165270
-0.670028 -0.463856 13.170541
-0.671912 -0.442419 13.175813
-0.678733 -0.392504 13.188294
-0.682222 -0.371290 13.193648
-0.685711 -0.350077 13.199002
-0.689199 -0.328863 13.204357
-0.693716 -0.307869 13.209746
-0.698841 -0.287005 13.215156
-0.710855 -0.238096 13.227838
-0.716147 -0.217281 13.233250
-0.722904 -0.196893 13.238685
-0.729660 -0.176505 13.244119
-0.736416 -0.156117 13.249554
-0.743172 -0.135728 13.254989
-0.761511 -0.088874 13.267717
-0.769855 -0.069080 13.273145
-0.778198 -0.049287 13.278572
-0.786542 -0.029493 13.284000
-0.795951 -0.010191 13.289401
-0.805804 0.008907 13.294790
-0.828899 0.053676 13.307425
-0.839004 0.072634 13.312803
-0.850259 0.090960 13.318127
-0.861515 0.109285 13.323452
-0.872770 0.127610 13.328776
-0.884025 0.145936 13.334101
-0.912526 0.187530 13.346437
-0.925061 0.205032 13.351673
-0.937595 0.222534 13.356910
-0.950130 0.240036 13.362146
-0.963565 0.256871 13.367301
-0.977248 0.273524 13.372432
-1.009322 0.312559 13.384461
-1.023267 0.328992 13.389562
-1.037967 0.344791 13.394576
-1.052667 0.360590 13.399591
-1.067367 0.376390 13.404605
-1.082068 0.392189 13.409619
-1.118072 0.427772 13.421158
-1.133665 0.442732 13.426048
-1.149257 0.457692 13.430938
-1.164850 0.472652 13.435828
-1.181113 0.486913 13.440608
-1.197484 0.501061 13.445371
-1.235860 0.534225 13.456534
-1.252457 0.548114 13.461254
-1.269504 0.561484 13.465888
-1.286552 0.574854 13.470522
-1.303599 0.588225 13.475156
-1.320646 0.601595 13.479790
-1.361667 0.631604 13.490426
-1.379300 0.644237 13.494934
-1.396934 0.656870 13.499442
-1.414567 0.669503 13.503950
-1.432676 0.681485 13.508343
-1.450818 0.693422 13.512729
27 NaN NaN
-0.953089 -1.640812 12.913902
-0.905820 -1.545612 12.932593
-0.861569 -1.449085 12.951857
-0.820654 -1.351219 12.971723
-0.783432 -1.252020 12.992220
-0.750304 -1.151517 13.013375
-0.721708 -1.049776 13.035210
-0.698126 -0.946910 13.057738
-0.680069 -0.843086 13.080964
-0.668071 -0.738547 13.104874
-0.662659 -0.633613 13.129437
-0.664329 -0.528697 13.154596
-0.673505 -0.424297 13.180269
-0.690495 -0.320984 13.206346
-0.715454 -0.219373 13.232692
-0.748357 -0.120081 13.259160
-0.788990 -0.023685 13.285592
-0.836972 0.069326 13.311841
-0.891788 0.158576 13.337773
-0.952837 0.243815 13.363277
-1.019480 0.324920 13.388270
-1.091078 0.401873 13.412693
-1.167025 0.474739 13.436510
-1.246766 0.543650 13.459706
-1.329801 0.608775 13.482279
-1.415693 0.670309 13.504238
-1.504060 0.728457 13.525599
-0.970056 -1.539847 11.457810
-0.861874 -1.338538 11.488904
-0.768643 -1.130476 11.523487
-0.694864 -0.915508 11.562183
-0.646590 -0.694370 11.605624
-0.631360 -0.469647 11.654219
-0.658539 -0.247338 11.707851
-0.731081 -0.036487 11.764871
-0.846069 0.154259 11.822948
-0.995214 0.320254 11.879946
-1.168933 0.461524 11.934609
-1.359722 0.580178 11.986426
-1.561584 0.680276 12.035522
-0.969085 -1.538118 11.458071
-0.862736 -1.340319 11.488617
-0.861011 -1.336756 11.489192
-0.769368 -1.132313 11.523168
-0.767918 -1.128639 11.523805
-0.695412 -0.917399 11.561829
-0.694316 -0.913618 11.562536
-0.646912 -0.696304 11.605231
-0.646269 -0.692435 11.606017
-0.631395 -0.471599 11.653785
-0.631324 -0.467696 11.654654
-0.658054 -0.249216 11.707364
-0.659025 -0.245460 11.708338
-0.730238 -0.038230 11.764367
-0.731923 -0.034745 11.765374
-0.844916 0.152703 11.822446
-0.847221 0.155814 11.823449
-0.993824 0.318901 11.879458
-0.996604 0.321607 11.880433
-1.167373 0.460362 11.934142
-1.170492 0.462686 11.935076
-1.357999 0.579258 11.985992
-1.361444 0.581097 11.986860
-1.559794 0.679487 12.035109
-0.964436 -1.529843 11.459323
-0.866865 -1.348846 11.487240
-0.856883 -1.328229 11.490569
-0.772838 -1.141105 11.521645
-0.764449 -1.119847 11.525328
-0.698036 -0.926450 11.560137
-0.691692 -0.904567 11.564229
-0.648449 -0.705564 11.603348
-0.644732 -0.683175 11.607900
-0.631565 -0.480943 11.651703
-0.631932 -0.458392 11.656829
-0.655728 -0.258206 11.705034
-0.661351 -0.236470 11.710668
-0.726203 -0.046571 11.761958
-0.735958 -0.026403 11.767783
-0.839401 0.145255 11.820043
-0.852737 0.163262 11.825852
-0.987171 0.312425 11.877124
-1.003257 0.328084 11.882767
-1.159906 0.454802 11.931908
-1.178186 0.467938 11.937271
-1.349754 0.574856 11.983917
-1.369689 0.585499 11.988936
-1.551221 0.675710 12.033131
-0.952772 -1.509078 11.462464
-0.937283 -1.481506 11.466634
-0.921794 -1.453934 11.470805
-0.906989 -1.426017 11.475143
-0.892317 -1.398032 11.479514
-0.877645 -1.370048 11.483884
-0.846523 -1.306831 11.494024
-0.832766 -1.278420 11.498611
-0.819504 -1.249798 11.503311
-0.806779 -1.220948 11.508133
-0.794054 -1.192098 11.512955
-0.781544 -1.163166 11.517823
-0.755743 -1.097785 11.529150
-0.744343 -1.068439 11.534258
-0.734103 -1.038706 11.539606
-0.723863 -1.008973 11.544953
-0.713623 -0.979240 11.550301
-0.704620 -0.949159 11.555889
-0.685108 -0.881858 11.568476
-0.677662 -0.851412 11.574352
-0.670618 -0.820875 11.580301
-0.663574 -0.790338 11.586250
-0.657431 -0.759653 11.592351
-0.652308 -0.728800 11.598624
-0.641751 -0.659852 11.612759
-0.638786 -0.628787 11.619364
-0.635821 -0.597721 11.625969
-0.633125 -0.566648 11.632611
-0.632559 -0.535518 11.639546
-0.631992 -0.504387 11.646480
-0.633478 -0.435049 11.662288
-0.635532 -0.404053 11.669538
-0.637585 -0.373057 11.676787
-0.641753 -0.342350 11.684249
-0.646603 -0.311735 11.691781
-0.651453 -0.281120 11.699312
-0.667185 -0.213911 11.716515
-0.674932 -0.183958 11.724279
-0.683840 -0.154384 11.732109
-0.694487 -0.125380 11.740041
-0.705134 -0.096376 11.747972
-0.716079 -0.067501 11.755914
-0.746082 -0.005473 11.773827
-0.759641 0.022255 11.781855
-0.775683 0.048626 11.789903
-0.791724 0.074996 11.797951
-0.807766 0.101366 11.805999
-0.825560 0.126568 11.814015
-0.866577 0.181949 11.831881
-0.886360 0.205648 11.839819
-0.906779 0.228843 11.847728
-0.927199 0.252038 11.855637
-0.948308 0.274595 11.863494
-0.970476 0.296174 11.871269
-1.020442 0.343815 11.888570
-1.044085 0.363828 11.896186
-1.067728 0.383840 11.903803
-1.091417 0.403797 11.911413
-1.116294 0.422323 11.918857
-1.141171 0.440849 11.926302
-1.197695 0.480845 11.942743
-1.223599 0.497982 11.950010
-1.249503 0.515119 11.957277
-1.275988 0.531381 11.964423
-1.302746 0.547232 11.971512
-1.329504 0.563083 11.978601
-1.390376 0.596544 11.994144
-1.417846 0.611211 12.001060
-1.445507 0.625526 12.007923
-1.473570 0.639105 12.014672
-1.501634 0.652684 12.021422
-1.529711 0.666235 12.028167
28 NaN NaN
-0.970299 -1.540279 11.457744
-0.919265 -1.449432 11.471486
-0.870922 -1.357225 11.485887
-0.825597 -1.263612 11.501002
-0.783671 -1.168556 11.516889
-0.745583 -1.072040 11.533610
-0.711845 -0.974078 11.551229
-0.683041 -0.874730 11.569809
-0.659834 -0.774125 11.589408
-0.642956 -0.672482 11.610074
-0.633189 -0.570141 11.631833
-0.631322 -0.467593 11.654677
-0.638087 -0.365492 11.678556
-0.654061 -0.264651 11.703364
-0.679579 -0.165991 11.728935
-0.714648 -0.070458 11.755060
-0.758927 0.021081 11.781496
-0.811766 0.107943 11.808006
-0.872302 0.189679 11.834374
-0.939567 0.266087 11.860428
-1.012596 0.337174 11.886042
-1.090487 0.403104 11.911135
-1.172446 0.464141 11.935660
-1.257791 0.520602 11.959602
-1.345952 0.572826 11.982959
-1.436458 0.621148 12.005747
-1.528924 0.665888 12.027985
-1.623030 0.707344 12.049701
-0.954213 -1.442343 9.998814
-0.892134 -1.332144 10.012196
-0.834464 -1.219619 10.025861
-0.781828 -1.104697 10.039816
-0.734952 -0.987348 10.054066
-0.694676 -0.867606 10.068605
-0.662411 -0.745499 10.083431
-0.639616 -0.621321 10.098507
-0.626800 -0.495773 10.113749
-0.625029 -0.369613 10.129063
-0.635198 -0.243846 10.144329
-0.657883 -0.119674 10.159401
-0.694484 0.001181 10.174068
-0.743561 0.117573 10.188193
-0.803831 0.228651 10.201671
-0.874099 0.333794 10.214429
-0.953056 0.432710 10.226429
-1.039543 0.525251 10.237655
-1.132776 0.611109 10.248069
-1.230985 0.691303 10.257795
-1.333340 0.766220 10.266880
-1.439149 0.836259 10.275373
-0.953228 -1.440615 9.999023
-0.893061 -1.333903 10.011983
-0.891208 -1.330385 10.012410
-0.835326 -1.221411 10.025644
-0.833603 -1.217827 10.026079
-0.782615 -1.106522 10.039595
-0.781040 -1.102872 10.040038
-0.735656 -0.989206 10.053840
-0.734247 -0.985490 10.054291
-0.695287 -0.869496 10.068376
-0.694065 -0.865715 10.068835
-0.662797 -0.747447 10.083194
-0.662024 -0.743551 10.083667
-0.639870 -0.623291 10.098268
-0.639362 -0.619352 10.098746
-0.626909 -0.497755 10.113508
-0.626691 -0.493790 10.113989
-0.624981 -0.371598 10.128822
-0.625078 -0.367628 10.129304
-0.634982 -0.245820 10.144090
-0.635414 -0.241873 10.144569
-0.657494 -0.121622 10.159164
-0.658271 -0.117727 10.159637
-0.693754 -0.000668 10.173844
-0.695213 0.003030 10.174293
-0.742674 0.115794 10.187977
-0.744448 0.119353 10.188409
-0.802800 0.226949 10.201465
-0.804863 0.230352 10.201878
-0.872939 0.332177 10.214232
-0.875259 0.335411 10.214625
-0.951784 0.431179 10.226243
-0.954329 0.434242 10.226615
-1.038090 0.523887 10.237490
-1.040997 0.526615 10.237820
-1.131251 0.609824 10.247913
-1.134300 0.612394 10.248225
-1.229400 0.690092 10.257648
-1.232570 0.692514 10.257942
-1.331703 0.765078 10.266742
-1.334976 0.767361 10.267019
-1.437469 0.835181 10.275242
-0.950296 -1.435473 9.999648
-0.895819 -1.339139 10.011347
-0.888450 -1.325149 10.013046
-0.837889 -1.226744 10.024996
-0.831040 -1.212495 10.026726
-0.784959 -1.111953 10.038935
-0.778696 -1.097441 10.040697
-0.737752 -0.994736 10.053169
-0.732151 -0.979960 10.054963
-0.697104 -0.875123 10.067692
-0.692248 -0.860089 10.069518
-0.663962 -0.753241 10.082491
-0.660874 -0.737754 10.084371
-0.640627 -0.629151 10.097556
-0.638605 -0.613492 10.099457
-0.627232 -0.503655 10.112792
-0.626367 -0.487890 10.114705
-0.624835 -0.377505 10.128105
-0.625223 -0.361722 10.130021
-0.634340 -0.251694 10.143377
-0.636056 -0.235999 10.145282
-0.656338 -0.127418 10.158461
-0.659753 -0.112010 10.160331
-0.691585 -0.006170 10.173176
-0.697383 0.008531 10.174960
-0.740034 0.110498 10.187334
-0.747088 0.124648 10.189052
-0.799731 0.221887 10.200851
-0.807932 0.235414 10.202492
-0.869487 0.327364 10.213648
-0.878712 0.340225 10.215209
-0.947996 0.426621 10.225690
-0.958117 0.438800 10.227168
-1.033964 0.519630 10.236973
-1.045322 0.530674 10.238313
-1.126714 0.605999 10.247449
-1.138837 0.616219 10.248689
-1.224684 0.686488 10.257211
-1.237286 0.696118 10.258379
-1.326834 0.761680 10.266330
-1.339845 0.770759 10.267431
-1.432469 0.831975 10.274853
-0.943901 -1.424256 10.001010
-0.935495 -1.409513 10.002801
-0.927090 -1.394770 10.004591
-0.918684 -1.380027 10.006381
-0.910278 -1.365284 10.008172
-0.901873 -1.350542 10.009962
-0.882433 -1.313727 10.014433
-0.874525 -1.298715 10.016256
-0.866617 -1.283703 10.018079
-0.858709 -1.268692 10.019902
-0.850830 -1.253666 10.021727
-0.843481 -1.238377 10.023583
-0.825448 -1.200862 10.028139
-0.818099 -1.185573 10.029996
-0.810750 -1.170284 10.031852
-0.803512 -1.154945 10.033715
-0.796792 -1.139373 10.035606
-0.790072 -1.123801 10.037497
-0.773583 -1.085593 10.042136
-0.766863 -1.070021 10.044027
-0.760357 -1.054364 10.045928
-0.754347 -1.038509 10.047853
-0.748336 -1.022655 10.049779
-0.742326 -1.006800 10.051704
-0.727577 -0.967896 10.056428
-0.721909 -0.951923 10.058367
-0.716699 -0.935792 10.060326
-0.711488 -0.919660 10.062285
-0.706278 -0.903529 10.064243
-0.701068 -0.887397 10.066202
-0.688782 -0.847671 10.071026
-0.684474 -0.831279 10.073016
-0.680165 -0.814888 10.075006
-0.675857 -0.798496 10.076996
-0.671548 -0.782104 10.078986
-0.667240 -0.765713 10.080976
-0.658366 -0.725107 10.085906
-0.655069 -0.708485 10.087924
-0.651773 -0.691864 10.089942
-0.648476 -0.675243 10.091960
-0.645180 -0.658621 10.093978
-0.642277 -0.641936 10.096004
-0.636954 -0.600706 10.101010
-0.634785 -0.583903 10.103049
-0.632615 -0.567100 10.105089
-0.630446 -0.550297 10.107129
-0.628867 -0.533441 10.109176
-0.627939 -0.516525 10.111229
-0.625661 -0.475020 10.116268
-0.624733 -0.458104 10.118321
-0.623804 -0.441189 10.120375
-0.623686 -0.424261 10.122430
-0.624102 -0.407326 10.124485
-0.624518 -0.390391 10.126541
-0.625540 -0.348836 10.131586
-0.625957 -0.331900 10.133641
-0.627411 -0.315033 10.135689
-0.629254 -0.298192 10.137733
-0.631096 -0.281350 10.139777
-0.632938 -0.264509 10.141821
-0.637458 -0.223184 10.146837
-0.640559 -0.206534 10.148858
-0.643873 -0.189916 10.150875
-0.647188 -0.173298 10.152892
-0.650502 -0.156680 10.154909
-0.653816 -0.140062 10.156926
-0.663397 -0.099638 10.161833
-0.668187 -0.083378 10.163806
-0.672976 -0.067119 10.165779
-0.677766 -0.050859 10.167753
-0.682556 -0.034600 10.169726
-0.687346 -0.018340 10.171699
-0.702117 0.020534 10.176417
-0.708338 0.036309 10.178331
-0.714560 0.052083 10.180246
-0.720781 0.067858 10.182160
-0.727003 0.083632 10.184074
-0.734276 0.098945 10.185933
-0.752846 0.136201 10.190453
-0.760415 0.151385 10.192296
-0.767983 0.166568 10.194138
-0.775551 0.181751 10.195981
-0.784236 0.196328 10.197749
-0.793036 0.210843 10.199511
-0.814627 0.246458 10.203832
-0.823426 0.260973 10.205593
-0.832263 0.275464 10.207352
-0.842160 0.289264 10.209026
-0.852058 0.303064 10.210700
-0.861956 0.316864 10.212374
-0.886243 0.350725 10.216483
-0.896294 0.364408 10.218143
-0.907154 0.377475 10.219728
-0.918014 0.390543 10.221313
-0.928873 0.403611 10.222899
-0.939733 0.416678 10.224484
-0.966617 0.448535 10.228349
-0.978307 0.460876 10.229846
-0.989998 0.473217 10.231343
-1.001688 0.485558 10.232840
-1.013379 0.497899 10.234337
-1.025069 0.510240 10.235834
-1.054758 0.539528 10.239387
-1.067160 0.551165 10.240798
-1.079562 0.562801 10.242210
-1.091963 0.574438 10.243621
-1.104365 0.586075 10.245033
-1.116817 0.597656 10.246437
-1.148734 0.624562 10.249701
-1.161742 0.635528 10.251031
-1.174749 0.646493 10.252361
-1.187757 0.657459 10.253691
-1.200872 0.668293 10.255005
-1.214395 0.678626 10.256258
-1.247576 0.703981 10.259333
-1.261098 0.714314 10.260586
-1.274621 0.724647 10.261839
-1.288290 0.734783 10.263068
-1.302251 0.744525 10.264249
-1.316212 0.754268 10.265431
-1.350468 0.778172 10.268329
-1.364428 0.787914 10.269511
-1.378560 0.797404 10.270662
-1.392894 0.806597 10.271776
-1.407229 0.815789 10.272891
-1.421563 0.824981 10.274005
26 NaN NaN
-0.954460 -1.442775 9.998761
-0.901261 -1.349470 10.010092
-0.851213 -1.254463 10.021630
-0.804702 -1.157703 10.033380
-0.762174 -1.059155 10.045347
-0.724135 -0.958817 10.057530
-0.691163 -0.856729 10.069926
-0.663898 -0.752999 10.082520
-0.643037 -0.647818 10.095290
-0.629309 -0.541490 10.108199
-0.623435 -0.434456 10.121192
-0.626070 -0.327299 10.134200
-0.637725 -0.220739 10.147134
-0.658696 -0.115596 10.159896
-0.689001 -0.012721 10.172381
-0.728365 0.087087 10.184494
-0.776251 0.183157 10.196151
-0.831929 0.274998 10.207295
-0.894560 0.362320 10.217890
-0.963279 0.445012 10.227921
-1.037258 0.523107 10.237395
-1.115740 0.596748 10.246327
-1.198059 0.666143 10.254744
-1.283639 0.731538 10.262675
-1.371993 0.793193 10.270151
-1.462711 0.851369 10.277205
-0.982324 -1.445102 6.588451
-0.772031 -1.014286 6.649550
-0.661422 -0.552246 6.732614
-0.715632 -0.087359 6.841442
-0.950463 0.313879 6.964062
-1.305666 0.617701 7.083978
-0.981339 -1.443376 6.588674
-0.772730 -1.016137 6.649257
-0.771331 -1.012436 6.649844
-0.661651 -0.554195 6.732227
-0.661193 -0.550297 6.733001
-0.715001 -0.089192 6.840949
-0.716262 -0.085526 6.841935
-0.949235 0.312386 6.963552
-0.951691 0.315373 6.964573
-1.304044 0.616633 7.083499
-0.972252 -1.427466 6.590728
-0.779183 -1.033195 6.646552
-0.764878 -0.995378 6.652549
-0.663763 -0.572160 6.728664
-0.660315 -0.532276 6.736765
-0.709189 -0.106089 6.836408
-0.722074 -0.068628 6.846477
-0.937913 0.298616 6.958846
-0.963618 0.328615 6.969257
-1.289092 0.606788 7.079089
-0.947098 -1.383426 6.596416
-0.914430 -1.324093 6.604266
-0.882823 -1.264213 6.612395
-0.853221 -1.203393 6.621034
-0.824650 -1.142127 6.629927
-0.797872 -1.080107 6.639256
-0.747767 -0.947925 6.660202
-0.727209 -0.883794 6.670937
-0.709059 -0.819053 6.682171
-0.692495 -0.753926 6.693731
-0.679931 -0.688042 6.706065
-0.669609 -0.621890 6.718799
-0.658401 -0.482370 6.747268
-0.658117 -0.415764 6.761631
-0.661261 -0.349282 6.776491
-0.669316 -0.283400 6.791971
-0.679913 -0.217960 6.807743
-0.695278 -0.153543 6.824021
-0.739080 -0.022237 6.859106
-0.766439 0.037825 6.876272
-0.796896 0.096263 6.893559
-0.829669 0.153486 6.910938
-0.867236 0.207657 6.928387
-0.906575 0.260500 6.945820
-0.997688 0.364345 6.982184
-1.044237 0.411072 6.999394
-1.092867 0.455727 7.016473
-1.143445 0.498198 7.033377
-1.195044 0.539479 7.050179
-1.248494 0.578450 7.066764
24 NaN NaN
-0.982571 -1.445534 6.588395
-0.929296 -1.352257 6.600442
-0.879199 -1.257347 6.613328
-0.832692 -1.160754 6.627125
-0.790250 -1.062453 6.641912
-0.752424 -0.962452 6.657770
-0.719841 -0.860811 6.674784
-0.693208 -0.757666 6.693031
-0.673297 -0.653254 6.712578
-0.660916 -0.547945 6.733467
-0.656864 -0.442269 6.755707
-0.661846 -0.336922 6.779254
-0.676387 -0.232746 6.804006
-0.700733 -0.130676 6.829799
-0.734795 -0.031644 6.856417
-0.778147 0.063527 6.883618
-0.830080 0.154203 6.911155
-0.889707 0.239984 6.938808
-0.956069 0.320698 6.966393
-1.028220 0.396363 6.993768
-1.105291 0.467135 7.020836
-1.186513 0.533259 7.047532
-1.271227 0.595025 7.073818
-1.358881 0.652741 7.099677
