0.275285 0.275226 0.274494 0.270336 0.263748 0.256437 0.249126 0.241816 0.235419 0.231380 0.230551 0.230483 0.230417 0.229603 0.226179 0.220756 0.216253 0.211750 0.207247 0.203507 0.201147 0.200660 0.200621 0.200582 0.200099 0.198050 0.194804 0.192006 0.189209 0.186412 0.183957 0.182407 0.182081 0.182054 0.182028 0.181705 0.180306 0.178090 0.176093 0.174095 0.172098 0.170297 0.169160 0.168917 0.168897 0.168877 0.168634 0.167587 0.165929 0.164433 0.162937 0.161441 0.160093 0.159241 0.159060 0.159045 0.159030 0.158850 0.158071 0.156838 0.155727 0.154616 0.153505 0.152503 0.151871 0.151737 0.151726 0.151715 0.151582 0.151004 0.150088 0.149257 0.148426 0.147594 0.146827 0.146343 0.146239 0.146230 0.146222 0.146118 0.145659 0.144932 0.144243 0.143554 0.142864 0.142208 0.141794 0.141703 0.141696 0.141689 0.141599 0.141201 0.140571 0.139974 0.139377 0.138780 0.138217 0.137861 0.137784 0.137777 0.137771 0.137694 0.137356 0.136819 0.136313 0.135808 0.135302 0.134821 0.134517 0.134451 0.134445 0.134440 0.134374 0.134083 0.133621 0.133181 0.132741 0.132301 0.131879 0.131613 0.131555 0.131551 0.131546 0.131488 0.131231 0.130824 0.130433 0.130042 0.129651 0.129276 0.129039 0.128987 0.128983 0.128979 0.128927 0.128699 0.128338 0.127993 0.127648 0.127302 0.126973 0.126766 0.126720 0.126717 
0.275289 0.275244 0.274865 0.273489 0.271651 0.269148 0.266645 0.264142 0.261109 0.258838 0.258012 0.257915 0.257818 0.256991 0.254706 0.251654 0.248541 0.245428 0.242315 0.239298 0.237038 0.236225 0.236130 0.236035 0.235223 0.233073 0.230201 0.227432 0.224662 0.221893 0.219344 0.217436 0.216764 0.216685 0.216608 0.215948 0.214228 0.211930 0.209987 0.208044 0.206102 0.204523 0.203341 0.202941 0.202894 0.202847 0.202452 0.201439 0.200086 0.198863 0.197640 0.196417 0.195249 0.194375 0.194060 0.194023 0.193986 0.193672 0.192822 0.191686 0.190581 0.189475 0.188370 0.187305 0.186508 0.186222 0.186188 
0.275350 0.275548 0.278160 0.287077 0.301203 0.306689 0.312174 0.317659 0.313437 0.310772 0.309046 0.308914 0.308806 0.307393 0.299812 0.287801 0.274524 0.261246 0.247969 0.237907 0.231555 0.230288 0.230192 0.230096 0.228840 0.223658 0.215449 0.209162 0.202876 0.196589 0.191873 0.188896 0.188314 0.188270 0.188226 0.187657 0.185393 0.181808 0.179177 0.176547 0.173917 0.171808 0.170477 0.170194 0.170172 0.170150 0.169864 0.168556 0.166485 0.164069 0.161652 0.159236 0.156094 0.154111 0.153633 0.153597 0.153560 0.153079 0.150843 0.147300 0.144015 0.140731 0.137446 0.134807 0.133141 0.132815 0.132790 0.132766 0.132447 0.131196 0.129212 0.127816 0.126420 0.125025 0.123980 0.123321 0.123191 0.123182 0.123172 0.123044 0.122516 0.121679 0.121036 0.120394 0.119751 0.119283 0.118987 0.118930 0.118926 0.118922 0.118866 0.118637 0.118274 0.117991 0.117708 0.117425 0.117191 0.117044 0.117013 0.117011 0.117008 0.116978 0.116846 0.116637 0.116449 0.116261 0.116073 0.115903 0.115795 0.115772 0.115771 0.115769 0.115746 0.115648 0.115491 0.115355 0.115219 0.115083 0.114971 0.114900 0.114886 0.114885 0.114884 0.114870 0.114812 0.114719 0.114647 0.114576 0.114504 0.114447 0.114411 0.114404 0.114404 0.114403 0.114396 0.114366 0.114319 0.114281 0.114243 0.114205 0.114173 0.114154 0.114149 0.114149 0.114149 0.114145 0.114128 0.114101 0.114079 0.114057 0.114035 0.114017 0.114006 0.114004 0.114003 0.114003 0.114001 0.113991 0.113976 0.113964 0.113952 0.113940 0.113930 0.113924 0.113923 0.113923 
0.134444 0.134437 0.134395 0.134282 0.134131 0.133987 0.133843 0.133699 0.133584 0.133497 0.133465 0.133460 0.133456 0.133424 0.133345 0.133241 0.133144 0.133047 0.132950 0.132864 0.132800 0.132776 0.132772 0.132768 0.132744 0.132687 0.132610 0.132541 0.132472 0.132404 0.132345 0.132301 0.132285 0.132282 0.132280 0.132264 0.132226 0.132176 0.132133 0.132090 0.132047 0.132011 0.131984 0.131974 0.131973 0.131971 0.131962 0.131938 0.131907 0.131880 0.131853 0.131826 0.131802 0.131784 0.131778 0.131777 
0.146229 0.146222 0.146177 0.146052 0.145885 0.145701 0.145517 0.145333 0.145135 0.144986 0.144928 0.144920 0.144912 0.144854 0.144693 0.144478 0.144347 0.144215 0.144083 0.143964 0.143874 0.143841 0.143837 0.143832 0.143799 0.143713 0.143597 0.143483 0.143369 0.143255 0.143141 0.143055 0.143024 0.143019 0.143015 0.142983 0.142897 0.142781 0.142666 0.142552 0.142437 0.142321 0.142235 0.142203 0.142199 0.142194 0.142161 0.142074 0.141958 0.141842 0.141725 0.141608 0.141490 0.141402 0.141369 0.141364 
0.159042 0.159028 0.158986 0.158892 0.158768 0.158642 0.158517 0.158391 0.158263 0.158166 0.158120 0.158105 0.158090 0.158044 0.157943 0.157810 0.157679 0.157548 0.157417 0.157285 0.157184 0.157139 0.157125 0.157110 0.157065 0.156965 0.156834 0.156701 0.156568 0.156435 0.156302 0.156200 0.156154 0.156139 0.156125 0.156078 0.155975 0.155839 0.155702 0.155564 0.155427 0.155290 0.155186 0.155139 0.155124 0.155109 0.155061 0.154956 0.154818 0.154680 0.154542 0.154403 0.154264 0.154159 0.154111 0.154096 0.154080 0.154032 0.153927 0.153787 0.153678 0.153568 0.153458 0.153361 0.153287 0.153255 0.153244 0.153234 0.153201 0.153130 0.153037 0.152949 0.152861 0.152773 0.152688 0.152624 0.152595 0.152586 0.152577 0.152549 0.152488 0.152409 0.152333 0.152258 0.152183 0.152110 0.152055 0.152030 0.152022 0.152014 0.151991 0.151938 0.151869 0.151801 0.151732 0.151663 0.151597 0.151548 0.151526 0.151519 0.151512 0.151490 0.151441 0.151377 0.151314 0.151250 0.151187 0.151127 0.151082 0.151061 0.151054 0.151048 0.151027 0.150982 0.150922 0.150865 0.150807 0.150749 0.150693 0.150649 0.150630 0.150624 0.150617 0.150598 0.150556 0.150500 0.150446 0.150392 0.150338 0.150284 0.150243 0.150224 0.150218 0.150213 0.150195 0.150156 0.150105 0.150053 0.150001 0.149949 0.149899 0.149860 0.149843 0.149838 0.149832 0.149815 0.149777 0.149727 0.149677 0.149627 0.149578 0.149529 0.149493 0.149476 0.149471 0.149465 0.149448 0.149411 0.149362 0.149314 0.149266 0.149218 0.149169 0.149133 0.149116 0.149111 
0.168892 0.168873 0.168801 0.168625 0.168392 0.168155 0.167917 0.167680 0.167438 0.167256 0.167178 0.167158 0.167138 0.167061 0.166875 0.166629 0.166381 0.166132 0.165883 0.165635 0.165447 0.165367 0.165346 0.165325 0.165246 0.165057 0.164808 0.164558 0.164307 0.164057 0.163812 0.163626 0.163548 0.163528 0.163508 0.163430 0.163245 0.163000 0.162760 0.162519 0.162279 0.162037 0.161854 0.161776 0.161756 0.161736 0.161659 0.161475 0.161233 0.160995 0.160758 0.160520 0.160284 0.160105 0.160031 0.160011 0.159991 0.159917 0.159770 0.159577 0.159400 0.159223 0.159045 0.158880 0.158755 0.158704 0.158690 0.158677 0.158626 0.158515 0.158367 0.158226 0.158085 0.157944 0.157817 0.157721 0.157681 0.157671 0.157661 0.157621 0.157528 0.157406 0.157294 0.157182 0.157069 0.156962 0.156880 0.156848 0.156839 0.156831 0.156799 0.156723 0.156622 0.156528 0.156433 0.156339 0.156248 0.156180 0.156151 0.156143 0.156135 0.156106 0.156042 0.155957 0.155873 0.155789 0.155705 0.155629 0.155571 0.155547 0.155540 0.155534 0.155509 0.155451 0.155374 0.155302 0.155230 0.155158 0.155086 0.155032 0.155011 0.155005 0.154999 0.154978 0.154926 0.154858 0.154791 0.154724 0.154657 0.154591 0.154542 0.154521 0.154515 
0.182048 0.182023 0.181891 0.181548 0.181093 0.180606 0.180119 0.179632 0.179124 0.178742 0.178591 0.178563 0.178533 0.178382 0.177992 0.177474 0.176952 0.176430 0.175908 0.175393 0.175005 0.174855 0.174826 0.174797 0.174648 0.174265 0.173757 0.173253 0.172749 0.172245 0.171751 0.171380 0.171237 0.171210 0.171182 0.171038 0.170674 0.170190 0.169706 0.169222 0.168738 0.168260 0.167899 0.167759 0.167732 0.167705 0.167565 0.167212 0.166743 0.166290 0.165837 0.165384 0.165020 0.164746 0.164652 0.164634 0.164616 0.164522 0.164303 0.164012 0.163764 0.163517 0.163269 0.163054 0.162892 0.162828 0.162816 0.162805 0.162744 0.162602 0.162412 0.162243 0.162073 0.161903 0.161746 0.161627 0.161585 0.161577 0.161569 0.161527 0.161419 0.161276 0.161148 0.161020 0.160891 0.160776 0.160689 0.160656 0.160649 0.160643 0.160609 0.160528 0.160419 0.160319 0.160219 0.160119 0.160025 0.159955 0.159927 0.159922 
0.200610 0.200565 0.200446 0.200193 0.199862 0.199521 0.199179 0.198837 0.198485 0.198216 0.198085 0.198036 0.197987 0.197854 0.197579 0.197218 0.196856 0.196493 0.196131 0.195766 0.195488 0.195352 0.195302 0.195252 0.195117 0.194833 0.194461 0.194089 0.193717 0.193345 0.192975 0.192692 0.192556 0.192505 0.192455 0.192319 0.192034 0.191662 0.191291 0.190920 0.190550 0.190183 0.189904 0.189770 0.189720 0.189671 0.189537 0.189261 0.188899 0.188545 0.188191 0.187837 0.187487 0.187221 0.187093 0.187046 0.186999 0.186873 0.186610 0.186265 0.185932 0.185600 0.185267 0.184938 0.184687 0.184567 0.184523 0.184479 0.184361 0.184116 0.183795 0.183484 0.183173 0.182862 0.182558 0.182327 0.182217 0.182176 0.182136 0.182026 0.181800 0.181503 0.181212 0.180921 0.180630 0.180339 0.180117 0.180012 0.179973 0.179934 0.179827 0.179609 0.179323 0.179043 0.178762 0.178481 0.178202 0.177988 0.177887 0.177849 0.177812 0.177711 0.177502 0.177228 0.176957 0.176687 0.176416 0.176146 0.175940 0.175842 0.175806 0.175769 0.175672 0.175468 0.175201 0.174939 0.174677 0.174415 0.174159 0.173964 0.173871 0.173837 0.173803 0.173711 0.173519 0.173267 0.173022 0.172776 0.172531 0.172295 0.172115 0.172029 0.171998 0.171966 0.171881 0.171704 0.171472 0.171264 0.171056 0.170847 0.170672 0.170538 0.170475 0.170452 0.170429 0.170367 0.170239 0.170072 0.169922 0.169772 0.169622 0.169487 0.169384 0.169335 0.169317 0.169299 0.169251 0.169150 0.169017 0.168900 0.168783 0.168666 0.168556 0.168472 0.168432 0.168418 0.168403 0.168363 0.168281 0.168173 0.168079 0.167985 0.167891 0.167801 0.167733 0.167700 0.167688 0.167676 0.167643 0.167575 0.167486 0.167409 0.167332 0.167255 0.167177 0.167118 0.167090 0.167080 0.167069 0.167041 0.166983 0.166907 0.166843 0.166779 0.166716 0.166652 0.166603 0.166580 0.166571 0.166562 0.166539 0.166490 0.166425 0.166370 0.166316 0.166261 0.166206 0.166165 0.166145 0.166138 0.166130 0.166111 0.166070 0.166017 0.165972 0.165926 0.165880 0.165834 0.165799 0.165783 0.165777 0.165771 0.165754 0.165721 0.165679 0.165641 0.165603 0.165565 0.165527 0.165498 0.165485 0.165480 0.165475 0.165462 0.165438 0.165406 0.165377 0.165347 0.165318 0.165289 0.165267 0.165257 0.165253 
0.236086 0.235910 0.234751 0.231834 0.227947 0.224314 0.220680 0.217047 0.213733 0.211246 0.210334 0.210195 0.210057 0.209147 0.207107 0.204387 0.202695 0.201003 0.199312 0.198020 0.197052 0.196696 0.196642 0.196588 0.196233 0.195309 0.194076 0.192865 0.191654 0.190443 0.189187 0.188244 0.187883 0.187828 0.187775 0.187421 0.186501 0.185275 0.184101 0.182927 0.181753 0.180694 0.179900 0.179610 0.179566 0.179524 0.179243 0.178593 0.177727 0.177124 0.176520 0.175917 0.175507 0.175199 0.175083 0.175065 0.175048 0.174937 0.174705 0.174396 0.174124 0.173852 0.173579 0.173345 0.173169 0.173105 0.173095 0.173086 0.173022 0.172874 0.172676 0.172488 0.172300 0.172112 0.171953 0.171833 0.171787 0.171780 
