0.184370 0.184401 0.184840 0.186878 0.190105 0.193229 0.196353 0.199476 0.202084 0.203729 0.204047 0.204069 0.204091 0.204400 0.205614 0.207536 0.208777 0.210018 0.211259 0.212026 0.212509 0.212592 0.212598 0.212603 0.212680 0.212902 0.213252 0.213127 0.213002 0.212877 0.212261 0.211872 0.211769 0.211761 0.211754 0.211648 0.211031 0.210055 0.208703 0.207351 0.206000 0.204359 0.203323 0.203077 0.203060 0.203043 0.202802 0.201660 0.199852 0.197922 0.195992 0.194062 0.192088 0.190842 0.190570 0.190551 
0.184358 0.184339 0.184154 0.183564 0.182731 0.181871 0.181011 0.180152 0.179248 0.178608 0.178403 0.178382 0.178361 0.178156 0.177511 0.176600 0.175695 0.174789 0.173883 0.173015 0.172400 0.172210 0.172190 0.172171 0.171982 0.171405 0.170590 0.169830 0.169070 0.168309 0.167591 0.167082 0.166923 0.166906 
0.184365 0.184375 0.184521 0.184210 0.183718 0.180871 0.178025 0.175178 0.172123 0.170195 0.169779 0.169751 0.169723 0.169299 0.167529 0.164725 0.162404 0.160083 0.157762 0.155816 0.154588 0.154339 0.154322 0.154305 0.154063 0.153045 0.151433 0.150118 0.148804 0.147489 0.146309 0.145564 0.145405 0.145394 0.145383 0.145222 0.144497 0.143349 0.142143 0.140938 0.139732 0.138365 0.137503 0.137300 0.137286 0.137272 0.137066 0.136042 0.134419 0.132666 0.130914 0.129161 0.127676 0.126738 0.126545 0.126532 0.126519 0.126327 0.125478 0.124133 0.122923 0.121714 0.120504 0.119557 0.118959 0.118854 0.118847 0.118840 0.118739 0.118368 0.117780 0.117417 0.117053 0.116690 0.116438 0.116279 0.116248 0.116246 0.116244 0.116213 0.116082 0.115874 0.115694 0.115513 0.115332 0.115167 0.115063 0.115041 0.115040 0.115038 0.115016 0.114919 0.114765 0.114626 0.114486 0.114346 0.114223 0.114145 0.114129 0.114128 0.114127 0.114112 0.114048 0.113946 0.113873 0.113800 0.113726 0.113672 0.113638 0.113632 0.113631 0.113631 0.113624 0.113596 0.113552 0.113515 0.113479 0.113442 0.113412 0.113393 0.113389 0.113388 0.113388 0.113384 0.113368 0.113342 0.113321 0.113299 0.113278 0.113261 0.113251 0.113249 0.113248 0.113248 0.113246 0.113238 0.113225 0.113216 0.113207 0.113198 0.113194 0.113192 0.113192 0.113192 
0.203040 0.202964 0.202686 0.202055 0.201222 0.200440 0.199658 0.198876 0.198137 0.197578 0.197345 0.197281 0.197217 0.196986 0.196458 0.195760 0.195111 0.194462 0.193813 0.193203 0.192742 0.192549 0.192496 0.192444 0.192256 0.191823 0.191251 0.190702 0.190153 0.189604 0.189087 0.188696 0.188529 0.188484 0.188438 0.188273 0.187891 0.187387 0.186916 0.186445 0.185974 0.185516 0.185170 0.185024 0.184985 0.184947 0.184809 0.184490 0.184068 0.183674 0.183280 0.182886 0.182538 0.182275 0.182166 0.182136 0.182106 0.181997 0.181754 0.181433 0.181153 0.180873 0.180593 0.180324 0.180121 0.180038 0.180015 0.179995 0.179920 0.179749 0.179523 0.179307 0.179091 0.178875 0.178689 0.178548 0.178488 0.178471 0.178454 0.178394 0.178252 0.178064 0.177905 0.177746 0.177587 0.177432 0.177314 0.177266 0.177253 0.177242 0.177200 0.177100 0.176968 0.176836 0.176704 0.176572 0.176456 0.176369 0.176332 0.176322 0.176311 0.176274 0.176187 0.176072 0.175974 0.175876 0.175777 0.175678 0.175602 0.175571 0.175563 0.175556 0.175529 0.175465 0.175381 0.175296 0.175211 0.175127 0.175053 0.174997 0.174972 0.174965 0.174959 0.174934 0.174876 0.174799 0.174732 0.174664 0.174597 0.174528 0.174476 0.174454 0.174448 
0.212572 0.212470 0.211857 0.210316 0.208264 0.206424 0.204585 0.202746 0.201108 0.199878 0.199437 0.199364 0.199291 0.198858 0.197783 0.196351 0.195129 0.193906 0.192683 0.191612 0.190807 0.190513 0.190464 0.190415 0.190125 0.189406 0.188449 0.187547 0.186644 0.185742 0.184896 0.184261 0.184027 0.183987 0.183948 0.183715 0.183127 0.182344 0.181651 0.180958 0.180266 0.179682 0.179244 0.179103 0.179080 0.179056 0.178918 0.178574 0.178116 0.177775 0.177434 0.177093 0.176827 0.176627 0.176555 0.176543 0.176533 0.176478 0.176333 0.176138 0.175987 0.175835 0.175683 0.175586 0.175513 0.175483 0.175478 0.175473 0.175443 0.175395 0.175331 0.175289 0.175248 0.175206 0.175198 0.175192 0.175193 0.175193 
0.204056 0.204002 0.203872 0.203613 0.203274 0.202930 0.202586 0.202243 0.201894 0.201627 0.201491 0.201435 0.201379 0.201243 0.200970 0.200614 0.200251 0.199889 0.199526 0.199159 0.198877 0.198734 0.198675 0.198616 0.198472 0.198186 0.197812 0.197435 0.197058 0.196680 0.196297 0.196003 0.195854 0.195792 0.195730 0.195581 0.195284 0.194898 0.194510 0.194122 0.193734 0.193344 0.193044 0.192894 0.192832 0.192769 0.192619 0.192320 0.191929 0.191547 0.191165 0.190782 0.190412 0.190128 0.189984 0.189925 0.189866 0.189722 0.189445 0.189083 0.188759 0.188434 0.188110 0.187814 0.187587 0.187476 0.187429 0.187384 0.187275 0.187068 0.186797 0.186550 0.186303 0.186055 0.185869 0.185727 0.185658 0.185630 0.185602 0.185534 0.185399 0.185223 0.185050 0.184877 0.184704 0.184533 0.184402 0.184337 0.184310 0.184283 0.184218 0.184088 0.183918 0.183749 0.183580 0.183411 0.183243 0.183114 0.183049 0.183022 0.182996 0.182931 0.182803 0.182637 0.182470 0.182303 0.182136 0.181965 0.181833 0.181766 0.181738 0.181711 0.181644 0.181510 0.181337 0.181164 0.180991 0.180818 0.180642 0.180507 0.180439 0.180411 0.180382 0.180313 0.180175 0.179996 0.179813 0.179629 0.179446 0.179255 0.179109 0.179035 0.179005 0.178974 0.178900 0.178755 0.178565 0.178375 0.178185 0.177995 0.177804 0.177657 0.177583 0.177552 0.177522 0.177448 0.177302 0.177112 0.176922 0.176733 0.176544 0.176356 0.176211 0.176139 0.176109 0.176079 0.176007 0.175867 0.175686 0.175508 0.175329 0.175151 0.174974 0.174838 0.174770 0.174742 0.174714 0.174647 0.174513 0.174338 0.174179 0.174021 0.173862 0.173708 0.173589 0.173534 0.173512 0.173489 0.173435 0.173329 0.173191 0.173072 0.172954 0.172836 0.172733 0.172654 0.172615 0.172599 0.172583 0.172544 0.172469 0.172370 0.172278 0.172186 0.172094 0.172029 0.171979 0.171954 0.171944 0.171934 0.171909 0.171859 0.171795 0.171730 0.171665 0.171600 0.171545 0.171502 0.171486 0.171479 0.171472 0.171456 0.171422 0.171378 0.171333 0.171287 0.171242 0.171197 0.171162 0.171145 0.171137 0.171132 0.171121 0.171099 0.171071 0.171041 0.171011 0.170982 0.170950 0.170927 0.170914 0.170909 0.170904 0.170892 0.170872 0.170846 0.170826 0.170806 0.170786 0.170764 0.170746 0.170737 0.170734 0.170730 0.170720 0.170702 0.170678 0.170663 0.170648 0.170633 0.170619 0.170608 0.170602 0.170600 0.170598 0.170592 0.170581 0.170565 0.170553 0.170541 0.170529 0.170521 0.170515 0.170512 0.170511 0.170510 0.170507 0.170501 0.170492 0.170484 0.170476 0.170467 0.170466 0.170464 0.170464 0.170463 0.170463 0.170463 0.170462 0.170461 0.170459 0.170458 0.170457 0.170455 0.170454 0.170456 0.170457 0.170457 0.170459 0.170462 0.170466 0.170470 0.170474 0.170478 0.170483 0.170487 0.170489 0.170490 
0.178380 0.178372 0.178352 0.178308 0.178249 0.178185 0.178120 0.178055 0.177984 0.177929 0.177902 0.177891 0.177881 0.177852 0.177791 0.177711 0.177624 0.177537 0.177450 0.177357 0.177285 0.177249 0.177235 0.177221 0.177185 0.177105 0.177001 0.176889 0.176777 0.176665 0.176546 0.176454 0.176409 0.176392 0.176374 0.176327 0.176229 0.176102 0.175967 0.175832 0.175698 0.175556 0.175448 0.175395 0.175375 0.175354 0.175300 0.175183 0.175029 0.174874 0.174720 0.174565 0.174410 0.174292 0.174234 0.174213 0.174190 0.174132 0.174007 0.173844 0.173681 0.173518 0.173356 0.173201 0.173084 0.173028 0.173007 0.172987 0.172933 0.172828 0.172691 0.172563 0.172436 0.172308 0.172189 0.172098 0.172057 0.172041 0.172025 0.171984 0.171897 0.171784 0.171709 0.171634 0.171559 0.171491 0.171439 0.171414 0.171404 0.171395 0.171369 0.171316 0.171247 0.171178 0.171108 0.171038 0.170968 0.170914 0.170888 0.170878 0.170868 0.170842 0.170786 0.170713 0.170637 0.170561 0.170485 0.170407 0.170347 0.170318 0.170307 0.170296 0.170267 0.170205 0.170124 0.170043 0.169962 0.169881 0.169800 0.169739 0.169708 0.169696 0.169684 0.169653 0.169586 0.169497 0.169405 0.169312 0.169220 0.169124 0.169050 0.169014 0.169000 0.168987 0.168950 0.168875 0.168778 0.168676 0.168575 0.168473 0.168369 0.168289 0.168250 0.168236 0.168221 0.168182 0.168102 0.167997 0.167892 0.167787 0.167683 0.167577 0.167497 0.167458 0.167443 0.167428 0.167389 0.167311 0.167209 0.167111 0.167014 0.166916 0.166824 0.166754 0.166720 0.166708 0.166695 0.166662 0.166600 0.166519 0.166445 0.166371 0.166296 0.166224 0.166168 0.166142 0.166132 0.166122 0.166095 0.166049 0.165987 0.165931 0.165875 0.165819 0.165765 0.165724 0.165705 0.165698 0.165690 0.165671 0.165636 0.165591 0.165548 0.165505 0.165462 0.165418 0.165384 0.165368 0.165362 0.165355 0.165339 0.165312 0.165277 0.165243 0.165209 0.165175 0.165139 0.165112 0.165098 0.165093 0.165088 0.165074 0.165050 0.165017 0.164987 0.164956 0.164925 0.164894 0.164870 0.164858 0.164854 0.164849 0.164838 0.164816 0.164789 0.164761 0.164734 0.164706 0.164676 0.164653 0.164642 0.164638 0.164634 0.164623 0.164602 0.164575 0.164550 0.164524 0.164498 0.164472 0.164451 0.164442 0.164438 0.164434 0.164424 0.164405 0.164381 0.164358 0.164335 0.164312 0.164288 0.164270 0.164261 0.164257 0.164254 0.164245 0.164227 0.164204 0.164182 0.164160 0.164138 0.164115 0.164097 0.164089 0.164085 
0.166903 0.166890 0.166845 0.166742 0.166606 0.166466 0.166327 0.166187 0.166044 0.165935 0.165887 0.165873 0.165859 0.165810 0.165698 0.165550 0.165403 0.165255 0.165107 0.164960 0.164848 0.164799 0.164785 0.164771 0.164722 0.164610 0.164462 0.164313 0.164165 0.164016 0.163868 0.163756 0.163707 0.163693 0.163678 0.163629 0.163518 0.163372 0.163227 0.163083 0.162939 0.162795 0.162687 0.162640 0.162626 0.162612 0.162565 0.162458 0.162316 0.162176 0.162035 0.161895 0.161756 0.161650 0.161605 0.161592 0.161579 0.161534 0.161431 0.161295 0.161160 0.161026 0.160892 0.160761 0.160662 0.160619 0.160606 0.160593 0.160550 0.160452 0.160322 0.160199 0.160075 0.159951 0.159828 0.159735 0.159697 0.159685 0.159674 0.159637 0.159550 0.159436 0.159323 0.159210 0.159097 0.158993 0.158914 0.158879 0.158869 0.158859 0.158825 0.158746 0.158641 0.158600 0.158559 0.158518 0.158484 0.158458 0.158447 0.158443 0.158440 0.158430 0.158413 0.158391 0.158366 0.158342 0.158317 0.158300 0.158287 0.158282 0.158280 0.158279 0.158273 0.158259 0.158241 0.158225 0.158209 0.158194 0.158178 0.158166 0.158160 0.158159 0.158157 0.158151 0.158142 0.158129 0.158113 0.158098 0.158083 0.158068 0.158057 0.158053 0.158051 0.158050 0.158046 0.158034 0.158019 0.158003 0.157988 0.157972 0.157959 0.157949 0.157944 0.157942 
