0.289333 0.289337 0.289392 0.288838 0.287961 0.284225 0.280489 0.276753 0.270491 0.266537 0.265608 0.265535 0.265461 0.264523 0.260232 0.253433 0.247161 0.240890 0.234618 0.229365 0.226049 0.225368 0.225315 0.225262 0.224590 0.221772 0.217308 0.213545 0.209782 0.206020 0.202809 0.200781 0.200357 0.200324 0.200290 0.199870 0.198060 0.195193 0.192656 0.190119 0.187583 0.185302 0.183862 0.183554 0.183530 0.183506 0.183200 0.181879 0.179786 0.177885 0.175984 0.174083 0.172341 0.171242 0.171008 0.170990 0.170971 0.170739 0.169728 0.168127 0.166656 0.165184 0.163712 0.162369 0.161522 0.161341 0.161327 
0.289329 0.289309 0.289131 0.287972 0.286423 0.283393 0.280362 0.277332 0.273751 0.271071 0.270071 0.269959 0.269847 0.268845 0.266078 0.262383 0.259138 0.255893 0.252648 0.249645 0.247398 0.246637 0.246552 0.246468 0.245718 0.243743 0.241105 0.238850 0.236596 0.234342 0.232395 0.230938 0.230437 0.230381 0.230326 0.229830 0.228546 0.226832 0.225290 0.223748 0.222206 0.220815 0.219773 0.219416 0.219376 0.219336 0.218981 0.218024 0.216746 0.215568 0.214389 0.213211 0.212113 0.211290 0.210996 0.210963 0.210930 0.210640 0.209860 0.208819 0.207835 0.206852 0.205869 0.204934 0.204233 0.203982 0.203954 0.203926 0.203673 0.202992 0.202083 0.201185 0.200288 0.199390 0.198503 0.197839 0.197602 0.197576 0.197550 0.197315 0.196660 0.195785 0.194921 0.194056 0.193191 0.192330 0.191685 0.191451 0.191425 0.191399 0.191166 0.190529 0.189678 0.188845 0.188011 0.187177 0.186349 0.185730 0.185511 0.185486 0.185462 0.185248 0.184639 0.183826 0.183031 0.182235 0.181440 0.180666 0.180087 0.179879 0.179856 0.179833 0.179627 0.179061 0.178305 0.177567 0.176829 0.176090 0.175373 0.174835 0.174643 0.174621 0.174600 0.174408 0.173881 0.173177 0.172494 0.171811 0.171128 0.170463 0.169965 0.169786 0.169766 
0.289409 0.289720 0.293951 0.309723 0.334711 0.340964 0.347217 0.353470 0.336012 0.324992 0.322021 0.321802 0.321589 0.318693 0.305077 0.283506 0.268405 0.253304 0.238203 0.227585 0.220883 0.219609 0.219516 0.219425 0.218190 0.213189 0.205267 0.199847 0.194427 0.189006 0.185207 0.182808 0.182338 0.182303 0.182269 0.181804 0.179821 0.176680 0.173798 0.170915 0.168032 0.164776 0.162721 0.162245 0.162210 0.162174 0.161688 0.159373 0.155705 0.151813 0.147922 0.144031 0.140201 0.137784 0.137280 0.137243 0.137206 0.136708 0.134681 0.131470 0.129308 0.127146 0.124985 0.123634 0.122782 0.122622 0.122610 0.122599 0.122444 0.121853 0.120918 0.120278 0.119637 0.118996 0.118549 0.118267 0.118213 0.118209 0.118205 0.118151 0.117935 0.117593 0.117333 0.117073 0.116813 0.116608 0.116479 0.116453 0.116451 0.116449 0.116423 0.116314 0.116140 0.115991 0.115842 0.115693 0.115563 0.115481 0.115464 0.115463 0.115462 0.115445 0.115371 0.115255 0.115154 0.115053 0.114952 0.114865 0.114810 0.114799 0.114798 0.114797 0.114786 0.114738 0.114662 0.114598 0.114533 0.114469 0.114414 0.114379 0.114372 0.114371 0.114371 0.114364 0.114334 0.114286 0.114245 0.114204 0.114163 0.114129 0.114108 0.114103 0.114103 0.114103 0.114098 0.114080 0.114051 0.114027 0.114003 0.113979 0.113956 0.113941 0.113937 0.113936 
0.200311 0.200259 0.199777 0.198432 0.196633 0.194862 0.193090 0.191318 0.189644 0.188392 0.187958 0.187911 0.187866 0.187439 0.186321 0.184827 0.183516 0.182206 0.180895 0.179715 0.178832 0.178528 0.178496 0.178463 0.178161 0.177346 0.176257 0.175363 0.174468 0.173574 0.172873 0.172348 0.172174 0.172155 0.172138 0.171975 0.171561 0.171008 0.170550 0.170092 0.169634 0.169251 0.168965 0.168867 0.168857 0.168846 0.168749 0.168496 0.168159 0.167861 0.167562 0.167263 0.166986 0.166779 0.166709 0.166701 
0.225290 0.225190 0.224683 0.223400 0.221696 0.220005 0.218314 0.216624 0.214963 0.213714 0.213231 0.213135 0.213041 0.212561 0.211373 0.209794 0.208291 0.206788 0.205285 0.203879 0.202822 0.202417 0.202337 0.202258 0.201856 0.200881 0.199586 0.198429 0.197272 0.196115 0.195097 0.194330 0.194049 0.193993 0.193939 0.193663 0.192980 0.192072 0.191280 0.190489 0.189697 0.188962 0.188409 0.188194 0.188151 0.188109 0.187894 0.187352 0.186632 0.185921 0.185210 0.184500 0.183814 0.183298 0.183102 0.183063 0.183024 0.182829 0.182347 0.181705 0.181130 0.180554 0.179979 0.179470 0.179087 0.178941 0.178913 0.178884 0.178740 0.178399 0.177946 0.177547 0.177149 0.176750 0.176395 0.176128 0.176027 0.176007 0.175988 0.175891 0.175660 0.175353 0.175070 0.174788 0.174505 0.174247 0.174052 0.173981 0.173967 0.173953 0.173882 0.173705 0.173470 0.173256 0.173042 0.172827 0.172629 0.172480 0.172423 0.172412 0.172401 0.172344 0.172203 0.172015 0.171840 0.171664 0.171489 0.171324 0.171200 0.171151 0.171141 
0.265481 0.265268 0.263225 0.257668 0.250106 0.243534 0.236963 0.230391 0.224733 0.220574 0.219253 0.219116 0.218982 0.217701 0.214394 0.209895 0.206978 0.204060 0.201143 0.199099 0.197597 0.197096 0.197044 0.196992 0.196495 0.195078 0.193150 0.191305 0.189461 0.187616 0.185895 0.184630 0.184221 0.184179 0.184137 0.183734 0.182698 0.181288 0.180280 0.179272 0.178264 0.177566 0.177054 0.176908 0.176893 0.176878 0.176733 0.176355 0.175842 0.175439 0.175036 0.174634 0.174302 0.174059 0.173979 0.173971 
0.269898 0.269654 0.268794 0.266841 0.264262 0.261859 0.259455 0.257052 0.254814 0.253120 0.252418 0.252219 0.252024 0.251334 0.249799 0.247773 0.245835 0.243897 0.241959 0.240089 0.238673 0.238077 0.237908 0.237741 0.237152 0.235804 0.234024 0.232335 0.230646 0.228957 0.227344 0.226122 0.225608 0.225462 0.225318 0.224809 0.223672 0.222170 0.220752 0.219335 0.217917 0.216605 0.215611 0.215208 0.215094 0.214982 0.214588 0.213696 0.212519 0.211449 0.210378 0.209308 0.208346 0.207617 0.207315 0.207230 0.207146 0.206850 0.206198 0.205337 0.204553 0.203768 0.202984 0.202323 0.201823 0.201642 0.201591 0.201540 0.201360 0.200945 0.200397 0.199859 0.199321 0.198783 0.198255 0.197854 0.197682 0.197633 0.197584 0.197412 0.197013 0.196486 0.195964 0.195443 0.194921 0.194405 0.194013 0.193845 0.193798 0.193750 0.193583 0.193192 0.192675 0.192153 0.191630 0.191108 0.190593 0.190203 0.190039 0.189993 0.189947 0.189785 0.189411 0.188917 0.188433 0.187949 0.187465 0.187005 0.186656 0.186507 0.186465 0.186423 0.186274 0.185939 0.185496 0.185092 0.184689 0.184285 0.183899 0.183607 0.183484 0.183449 0.183417 0.183303 0.183052 0.182721 0.182407 0.182093 0.181779 0.181523 0.181329 0.181246 0.181223 0.181200 0.181117 0.180928 0.180679 0.180465 0.180252 0.180039 0.179840 0.179690 0.179626 0.179607 0.179589 0.179526 0.179402 0.179238 0.179077 0.178915 0.178754 0.178616 0.178512 0.178470 0.178458 0.178446 0.178404 0.178301 0.178165 0.178042 0.177918 0.177795 0.177681 0.177594 0.177556 0.177546 0.177535 0.177497 0.177419 0.177316 0.177218 0.177120 0.177022 0.176929 0.176858 0.176830 0.176822 0.176814 0.176786 0.176720 0.176633 0.176549 0.176465 0.176382 0.176304 0.176244 0.176219 0.176211 0.176204 0.176178 0.176121 0.176046 0.175975 0.175905 0.175834 0.175764 0.175710 0.175689 0.175683 
0.230345 0.230201 0.229717 0.228642 0.227224 0.225883 0.224542 0.223201 0.221929 0.220964 0.220551 0.220428 0.220306 0.219897 0.218988 0.217790 0.216659 0.215527 0.214396 0.213324 0.212512 0.212164 0.212060 0.211958 0.211613 0.210848 0.209839 0.208889 0.207938 0.206987 0.206095 0.205417 0.205128 0.205042 0.204957 0.204670 0.204037 0.203201 0.202409 0.201617 0.200825 0.200089 0.199531 0.199291 0.199220 0.199149 0.198912 0.198384 0.197687 0.197031 0.196376 0.195720 0.195104 0.194636 0.194435 0.194375 0.194316 0.194116 0.193673 0.193088 0.192528 0.191969 0.191409 0.190871 0.190464 0.190291 0.190239 0.190188 0.190016 0.189631 0.189123 0.188631 0.188139 0.187647 0.187182 0.186830 0.186677 0.186632 0.186587 0.186435 0.186093 0.185642 0.185220 0.184797 0.184374 0.183968 0.183660 0.183527 0.183487 0.183447 0.183314 0.183030 0.182655 0.182301 0.181948 0.181594 0.181259 0.181005 0.180906 0.180876 0.180846 0.180747 0.180534 0.180253 0.180011 0.179769 0.179527 0.179334 0.179188 0.179126 0.179107 0.179088 0.179026 0.178887 0.178704 0.178559 0.178415 0.178270 0.178137 0.178036 0.177991 0.177978 0.177964 0.177919 0.177841 0.177737 0.177642 0.177547 0.177452 0.177366 0.177302 0.177278 0.177271 0.177264 0.177241 0.177186 0.177114 0.177048 0.176982 0.176916 0.176868 0.176832 0.176816 0.176811 0.176806 0.176789 0.176750 0.176698 0.176666 0.176634 0.176603 0.176569 0.176543 0.176531 0.176528 0.176524 0.176512 0.176500 0.176484 0.176469 0.176453 0.176437 0.176428 0.176421 0.176420 0.176419 0.176419 0.176418 0.176415 0.176411 0.176412 0.176413 0.176413 0.176422 0.176429 0.176432 0.176432 0.176433 0.176436 0.176442 0.176450 0.176469 0.176488 0.176507 0.176526 0.176540 0.176546 0.176548 
0.197562 0.197508 0.197326 0.196910 0.196362 0.195819 0.195275 0.194732 0.194197 0.193792 0.193617 0.193565 0.193513 0.193338 0.192942 0.192420 0.191907 0.191394 0.190881 0.190382 0.190003 0.189839 0.189790 0.189742 0.189578 0.189210 0.188725 0.188254 0.187782 0.187311 0.186853 0.186505 0.186358 0.186314 0.186270 0.186123 0.185790 0.185351 0.184923 0.184494 0.184066 0.183654 0.183342 0.183207 0.183167 0.183128 0.182994 0.182692 0.182293 0.181915 0.181537 0.181158 0.180794 0.180517 0.180398 0.180363 0.180328 0.180209 0.179948 0.179603 0.179270 0.178937 0.178604 0.178284 0.178041 0.177939 0.177909 0.177879 0.177777 0.177548 0.177245 0.176957 0.176668 0.176379 0.176111 0.175907 0.175819 0.175793 0.175767 0.175679 0.175480 0.175219 0.174981 0.174743 0.174505 0.174274 0.174099 0.174024 0.174001 0.173979 0.173904 0.173751 0.173548 0.173350 0.173152 0.172954 0.172786 0.172659 0.172622 0.172611 0.172600 0.172563 0.172480 0.172370 0.172274 0.172177 0.172080 0.171996 0.171933 0.171905 0.171897 0.171889 0.171861 0.171800 0.171718 0.171647 0.171576 0.171505 0.171429 0.171371 0.171348 0.171341 0.171336 0.171317 0.171272 0.171214 0.171150 0.171086 0.171022 0.170971 0.170933 0.170916 0.170911 0.170906 0.170889 0.170848 0.170795 0.170748 0.170700 0.170653 0.170610 0.170578 0.170564 0.170560 0.170555 0.170541 0.170513 0.170476 0.170444 0.170413 0.170381 0.170349 0.170324 0.170318 0.170316 0.170314 0.170307 0.170292 0.170271 0.170251 0.170232 0.170212 0.170206 0.170200 0.170198 0.170198 
0.169762 0.169745 0.169692 0.169574 0.169418 0.169259 0.169101 0.168943 0.168784 0.168664 0.168610 0.168592 0.168575 0.168521 0.168400 0.168240 0.168080 0.167919 0.167759 0.167599 0.167478 0.167422 0.167404 0.167387 0.167331 0.167207 0.167044 0.166882 0.166720 0.166558 0.166395 0.166271 0.166216 0.166198 0.166180 0.166125 0.166003 0.165843 0.165687 0.165531 0.165374 0.165218 0.165099 0.165046 0.165028 0.165011 0.164958 0.164844 0.164693 0.164544 0.164394 0.164244 0.164097 0.163986 0.163937 0.163921 0.163905 0.163857 0.163749 0.163607 0.163466 0.163326 0.163186 0.163053 0.162952 0.162907 0.162892 0.162877 0.162832 0.162732 0.162600 0.162474 0.162347 0.162221 0.162099 0.162007 0.161965 0.161951 0.161938 0.161896 0.161805 0.161685 0.161574 0.161462 0.161351 0.161240 0.161157 0.161119 0.161107 0.161094 0.161057 0.160979 0.160877 0.160778 0.160678 0.160578 0.160480 0.160406 0.160375 0.160365 0.160355 0.160324 0.160256 0.160166 0.160077 0.159988 0.159899 0.159819 0.159758 0.159731 0.159722 0.159713 0.159686 0.159644 0.159590 0.159567 0.159544 0.159521 0.159502 0.159488 0.159481 0.159479 0.159477 0.159470 0.159455 0.159434 0.159419 0.159403 0.159388 0.159372 0.159360 0.159354 0.159352 0.159351 0.159345 0.159334 0.159321 0.159307 0.159294 0.159280 0.159265 0.159254 0.159250 0.159249 0.159248 0.159245 0.159237 0.159227 0.159213 0.159199 0.159186 0.159174 0.159165 0.159161 0.159160 0.159158 0.159154 0.159144 0.159130 0.159116 0.159103 0.159090 0.159079 0.159071 0.159067 0.159065 0.159064 0.159060 0.159050 0.159037 0.159027 0.159017 0.159007 0.158996 0.158988 0.158984 0.158983 
