-1.804738 0.551690 12.473608
-1.805851 0.554743 12.464692
-1.806964 0.557795 12.455775
-1.862875 0.711257 12.007475
-1.918279 0.863349 11.563160
-1.974000 1.015568 11.118929
-2.030874 1.168236 10.675041
-1.807696 0.559804 12.449908
-1.862640 0.710614 12.009354
-1.863109 0.711900 12.005596
-1.918045 0.862707 11.565040
-1.918512 0.863992 11.561281
-1.973768 1.014926 11.120809
-1.974231 1.016210 11.117049
-2.030586 1.167571 10.676906
-1.810712 0.568077 12.425744
-1.859627 0.702342 12.033518
-1.866125 0.720173 11.981432
-1.915045 0.854440 11.589208
-1.921513 0.872259 11.537113
-1.970789 1.006668 11.144982
-1.977210 1.024468 11.092876
-2.026953 1.159055 10.700899
-1.817158 0.585759 12.374097
-1.824365 0.605540 12.316312
-1.831571 0.625321 12.258526
-1.838776 0.645101 12.200739
-1.845980 0.664881 12.142953
-1.853185 0.684662 12.085166
-1.872570 0.737855 11.929785
-1.879786 0.757639 11.872002
-1.887003 0.777424 11.814218
-1.894217 0.797209 11.756434
-1.901426 0.816991 11.698649
-1.908625 0.836768 11.640861
-1.927931 0.889930 11.485460
-1.935121 0.909704 11.427669
-1.942357 0.929497 11.369891
-1.949638 0.949307 11.312124
-1.956962 0.969135 11.254369
-1.964275 0.988959 11.196611
-1.983489 1.042083 11.041186
-1.990286 1.061700 10.983295
-1.997081 1.081316 10.925403
-2.003875 1.100932 10.867511
-2.011314 1.120806 10.809786
-2.019196 1.140855 10.752184
-2.586804 1.660072 9.875958
-3.685237 1.952066 9.461293
-4.799162 2.212126 9.065948
-5.852297 2.681262 8.774645
-6.466601 3.675661 8.490665
-7.045784 4.699016 8.202297
-7.706833 5.664859 7.893834
-8.476338 6.536986 7.560937
-9.370176 7.269002 7.203850
-10.379833 7.820008 6.830129
-11.470701 8.179814 6.452149
-12.606202 8.368160 6.079318
-2.031161 1.168900 10.673177
-2.585044 1.659436 9.876663
-2.588564 1.660708 9.875252
-3.683416 1.951640 9.462004
-3.687057 1.952493 9.460582
-4.797273 2.211748 9.066486
-4.801051 2.212504 9.065411
-5.850948 2.679854 8.775090
-5.853646 2.682670 8.774200
-6.465690 3.673942 8.491130
-6.467512 3.677380 8.490201
-7.044773 4.697361 8.202787
-7.046794 4.700671 8.201807
-7.705660 5.663327 7.894363
-7.708005 5.666390 7.893306
-8.474942 6.535674 7.561512
-8.477734 6.538297 7.560361
-9.368579 7.267963 7.204459
-9.371773 7.270041 7.203240
-10.378097 7.819236 6.830753
-10.381570 7.820779 6.829505
-11.468855 8.179361 6.452771
-11.472547 8.180267 6.451526
-12.604304 8.367998 6.079925
-2.034855 1.177440 10.649201
-2.563410 1.649299 9.886132
-2.611195 1.668887 9.866177
-3.659972 1.946147 9.471037
-3.710462 1.957972 9.451441
-4.773024 2.206633 9.073357
-4.825341 2.217368 9.058497
-5.833602 2.661740 8.780783
-5.870995 2.700772 8.768479
-6.454038 3.651802 8.497082
-6.479225 3.699485 8.484233
-7.031944 4.675969 8.209046
-7.059787 4.721953 8.195508
-7.690681 5.643549 7.901134
-7.723079 5.686089 7.886512
-8.457097 6.518689 7.568893
-8.495683 6.555164 7.552961
-9.348207 7.254352 7.212270
-9.392305 7.283401 7.195407
-10.355815 7.809203 6.838769
-10.403902 7.830699 6.821486
-11.445116 8.173547 6.460774
-11.496286 8.186086 6.443523
-12.579903 8.365765 6.087735
-2.049819 1.215418 10.540144
-2.059750 1.269933 10.364296
-2.078890 1.327957 10.191456
-2.181713 1.412043 10.068293
-2.324868 1.504959 9.998426
-2.468085 1.598727 9.929670
-2.714696 1.703514 9.825627
-2.880802 1.753176 9.762517
-3.046113 1.804523 9.698677
-3.214148 1.847731 9.636017
-3.384318 1.883609 9.574400
-3.553647 1.921361 9.511608
-3.816450 1.982771 9.410006
-3.984630 2.022206 9.345184
-4.153451 2.062167 9.282380
-4.322128 2.102495 9.219422
-4.491473 2.142910 9.158364
-4.663428 2.182747 9.104709
-4.935280 2.239655 9.027162
-5.108201 2.281868 8.978942
-5.277624 2.340036 8.934991
-5.445751 2.403176 8.892705
-5.610131 2.474446 8.849259
-5.753563 2.581256 8.806668
-5.949708 2.782527 8.742296
-6.066607 2.918284 8.699255
-6.157142 3.072473 8.655029
-6.234025 3.234292 8.610924
-6.317057 3.393122 8.567123
-6.401355 3.551484 8.524032
-6.532606 3.799384 8.457108
-6.618426 3.956863 8.413783
-6.704847 4.113969 8.370299
-6.792716 4.270167 8.326452
-6.883297 4.424613 8.281918
-6.974354 4.578744 8.237262
-7.119427 4.817777 8.166785
-7.216875 4.967469 8.120558
-7.315046 5.116638 8.074156
-7.414169 5.265101 8.027527
-7.517385 5.410430 7.979927
-7.623241 5.553648 7.931712
-7.791820 5.774894 7.855638
-7.903282 5.913338 7.806152
-8.018142 6.048701 7.755919
-8.135711 6.181504 7.705102
-8.254655 6.312964 7.653991
-8.377122 6.440833 7.602152
-8.576891 6.631638 7.519460
-8.705457 6.752870 7.466405
-8.838006 6.869336 7.412610
-8.976540 6.978138 7.357756
-9.116150 7.085478 7.302721
-9.257041 7.191010 7.247484
-9.485687 7.343253 7.159877
-9.634976 7.435803 7.103415
-9.786049 7.525266 7.046733
-9.939677 7.610067 6.989760
-10.096340 7.688907 6.932493
-10.255173 7.763161 6.875055
-10.505521 7.874479 6.785145
-10.669179 7.937105 6.727484
-10.834768 7.994501 6.669800
-11.000368 8.051866 6.612115
-11.167762 8.103748 6.554481
-11.337601 8.147232 6.497017
-11.603923 8.211913 6.407297
-11.775439 8.248565 6.350072
-11.948168 8.279526 6.293101
-12.121473 8.307442 6.236290
-12.295234 8.332706 6.179632
-12.469557 8.354337 6.123203
176 NaN NaN
-1.804181 0.550164 12.478066
-1.816006 0.582598 12.383330
-1.827823 0.615030 12.288591
-1.839635 0.647459 12.193850
-1.851446 0.679889 12.099110
-1.863262 0.712320 12.004371
-1.875085 0.744754 11.909634
-1.886918 0.777191 11.814899
-1.898746 0.809627 11.720163
-1.910549 0.842053 11.625420
-1.922313 0.874464 11.530668
-1.934088 0.906879 11.435918
-1.945952 0.939329 11.341191
-1.957959 0.971836 11.246502
-1.969947 1.004336 11.151808
-1.981628 1.036713 11.057034
-1.992772 1.068875 10.962122
-2.003911 1.101035 10.867209
-2.016112 1.133619 10.772572
-2.030341 1.167003 10.678501
-2.044822 1.200487 10.584502
-2.055524 1.232466 10.489495
-2.059269 1.261559 10.393053
-2.060889 1.289744 10.296263
-2.073509 1.322442 10.201923
-2.114903 1.364861 10.121406
-2.183762 1.413489 10.066664
-2.261793 1.463570 10.027143
-2.340577 1.515267 9.991274
-2.418116 1.567704 9.953793
-2.497358 1.616901 9.915538
-2.581372 1.658109 9.878136
-2.670076 1.690166 9.842566
-2.760856 1.717324 9.808104
-2.851797 1.744045 9.773718
-2.942046 1.772456 9.738864
-3.032322 1.800649 9.703907
-3.123502 1.826259 9.669324
-3.215886 1.848143 9.635378
-3.308879 1.867851 9.601755
-3.401894 1.887281 9.568027
-3.494524 1.907742 9.533854
-3.586775 1.928993 9.499142
-3.678731 1.950543 9.463834
-3.770496 1.972026 9.427994
-3.862240 1.993478 9.392081
-3.954143 2.015021 9.356634
-4.046319 2.036746 9.322015
-4.138635 2.058634 9.287872
-4.230900 2.080636 9.253667
-4.323010 2.102706 9.219090
-4.415286 2.124802 9.184977
-4.508165 2.146877 9.152534
-4.601956 2.168826 9.122740
-4.696503 2.190236 9.095008
-4.791526 2.210597 9.068122
-4.886755 2.229665 9.041017
-4.981864 2.249245 9.013861
-5.076429 2.272126 8.987426
-5.169818 2.300761 8.962487
-5.262011 2.334081 8.938907
-5.353738 2.369067 8.915903
-5.445745 2.403174 8.892706
-5.537063 2.438774 8.869073
-5.625048 2.481729 8.845214
-5.705661 2.537341 8.821707
-5.778041 2.603698 8.798983
-5.846040 2.674734 8.776708
-5.914059 2.745704 8.754279
-5.982349 2.816244 8.731323
-6.046881 2.890009 8.707744
-6.102861 2.970250 8.683654
-6.149482 3.056282 8.659444
-6.191352 3.144774 8.635311
-6.233450 3.233172 8.611233
-6.278147 3.320305 8.587222
-6.324318 3.406712 8.563372
-6.370606 3.493123 8.539760
-6.416325 3.579897 8.516375
-6.461890 3.666773 8.493065
-6.507814 3.753435 8.469666
-6.554365 3.839713 8.446087
-6.601341 3.925728 8.422388
-6.648483 4.011639 8.398644
-6.695697 4.097506 8.374885
-6.743291 4.183137 8.351031
-6.791628 4.268298 8.326989
-6.840880 4.352866 8.302714
-6.890668 4.437081 8.278304
-6.940514 4.521258 8.253879
-6.990149 4.605575 8.229507
-7.040089 4.689688 8.205058
-7.091028 4.773127 8.180362
-7.143444 4.855536 8.155303
-7.196890 4.937205 8.129994
-7.250664 5.018634 8.104606
-7.304226 5.100218 8.079268
-7.357923 5.181704 8.053899
-7.412418 5.262597 8.028338
-7.468263 5.342460 8.002457
-7.525302 5.421384 7.976296
-7.583079 5.499711 7.949963
-7.641196 5.577761 7.923553
-7.699678 5.655509 7.897059
-7.758779 5.732740 7.870423
-7.818738 5.809237 7.843593
-7.879678 5.884877 7.816543
-7.941644 5.959595 7.789265
-8.004670 6.033337 7.761757
-8.068587 6.106234 7.734058
-8.133080 6.178576 7.706235
-8.197858 6.250640 7.678350
-8.263107 6.322238 7.650366
-8.329459 6.392722 7.622153
-8.397515 6.461417 7.593594
-8.467163 6.528365 7.564720
-8.537536 6.594492 7.535705
-8.607767 6.660780 7.506716
-8.677797 6.727297 7.477765
-8.748679 6.792831 7.448653
-8.821494 6.856038 7.419183
-8.896498 6.916445 7.389325
-8.972717 6.975213 7.359261
-9.049137 7.033703 7.329164
-9.125301 7.092548 7.299111
-9.201866 7.150834 7.268992
-9.279607 7.207441 7.238687
-9.358925 7.261681 7.208142
-9.439422 7.314060 7.177430
-9.520618 7.365295 7.146623
-9.602191 7.415899 7.115769
-9.684231 7.465705 7.084856
-9.766901 7.514408 7.053866
-9.850339 7.561723 7.022786
-9.934621 7.607457 6.991615
-10.019802 7.651431 6.960357
-10.105875 7.693575 6.929022
-10.192586 7.734357 6.897638
-10.279625 7.774415 6.866231
-10.366781 7.814210 6.834816
-10.454336 7.853100 6.803376
-10.542723 7.890017 6.771894
-10.632238 7.924075 6.740377
-10.722559 7.955934 6.708853
-10.813162 7.986985 6.677329
-10.903622 8.018450 6.645804
-10.994116 8.049819 6.614280
-11.085139 8.079618 6.582765
-11.177085 8.106471 6.551289
-11.269802 8.130620 6.519873
-11.362873 8.153425 6.488497
-11.455953 8.176198 6.457121
-11.549022 8.199014 6.425744
-11.642315 8.220933 6.394397
-11.736043 8.241014 6.363120
-11.830213 8.259065 6.331930
-11.924680 8.275637 6.300812
-12.019316 8.291305 6.269743
-12.114068 8.306329 6.238708
-12.208953 8.320587 6.207718
-12.303988 8.333935 6.176782
-12.399189 8.346211 6.145914
-12.494571 8.357226 6.115130
-12.590143 8.366789 6.084448
-12.685876 8.374963 6.053870
-12.781704 8.382250 6.023361
-12.877566 8.389195 5.992879
-12.973445 8.395969 5.962412
-13.069397 8.401946 5.932010
-13.165472 8.406396 5.901739
-13.261672 8.408928 5.871641
-13.357942 8.410041 5.841680
-13.454242 8.410375 5.811795
-13.550546 8.410571 5.781924
-13.646833 8.411269 5.752003
-13.743069 8.413109 5.721972
