0.149785 0.149796 0.149963 0.150738 0.151965 0.153197 0.154429 0.155662 0.156860 0.157617 0.157781 0.157792 0.157803 0.157967 0.158711 0.159890 0.161095 0.162300 0.163505 0.164759 0.165551 0.165727 0.165739 
0.149780 0.149773 0.149707 0.149479 0.149145 0.148778 0.148411 0.148044 0.147643 0.147369 0.147287 0.147279 0.147271 0.147189 0.146897 0.146471 0.146033 0.145595 0.145158 0.144728 0.144435 0.144352 0.144343 0.144335 0.144253 0.143978 0.143577 0.143195 0.142814 0.142432 0.142060 0.141806 0.141732 0.141725 0.141718 0.141645 0.141394 0.141027 0.140665 0.140302 0.139939 0.139582 0.139337 0.139266 0.139259 0.139252 0.139182 0.138942 0.138591 0.138249 0.137906 0.137563 0.137228 0.137000 0.136934 0.136927 0.136921 0.136855 0.136631 0.136304 0.135985 0.135667 0.135348 0.135039 0.134827 0.134767 0.134761 0.134755 0.134694 0.134489 0.134188 0.133896 0.133604 0.133312 0.133029 0.132835 0.132780 0.132774 0.132769 0.132714 0.132525 0.132250 0.131984 0.131718 0.131451 0.131192 0.131015 0.130964 0.130959 0.130954 0.130903 0.130731 0.130479 0.130234 0.129989 0.129744 0.129506 0.129343 0.129297 0.129292 
0.149783 0.149789 0.149886 0.150033 0.150265 0.149401 0.148536 0.147672 0.146654 0.146011 0.145874 0.145865 0.145856 0.145719 0.145128 0.144192 0.143226 0.142261 0.141296 0.140486 0.139975 0.139876 0.139870 0.139864 0.139767 0.139351 0.138692 0.138015 0.137337 0.136659 0.135872 0.135375 0.135259 0.135251 0.135244 0.135128 0.134537 0.133600 0.132333 0.131066 0.129798 0.127712 0.126396 0.126105 0.126087 0.126068 0.125777 0.124480 0.122424 0.121181 0.119938 0.118695 0.118060 0.117659 0.117587 0.117583 0.117578 0.117509 0.117235 0.116800 0.116500 0.116200 0.115900 0.115686 0.115550 0.115524 0.115522 0.115521 0.115495 0.115388 0.115220 0.115087 0.114954 0.114822 0.114711 0.114642 0.114628 0.114627 0.114626 0.114612 0.114550 0.114452 0.114364 0.114277 0.114190 0.114113 0.114065 0.114055 0.114054 0.114053 0.114043 0.114001 0.113933 0.113877 0.113820 0.113764 0.113717 0.113687 0.113681 0.113681 0.113680 0.113674 0.113649 0.113609 0.113576 0.113543 0.113510 0.113484 0.113467 0.113463 0.113463 0.113463 0.113460 0.113445 0.113423 0.113406 0.113389 0.113371 0.113359 0.113351 0.113350 0.113350 
0.157790 0.157780 0.157730 0.157596 0.157418 0.157228 0.157038 0.156848 0.156647 0.156496 0.156436 0.156425 0.156414 0.156353 0.156191 0.155976 0.155750 0.155524 0.155299 0.155062 0.154884 0.154816 0.154803 0.154791 0.154723 0.154547 0.154313 0.154100 0.153888 0.153675 0.153546 0.153449 0.153411 0.153404 0.153397 0.153359 0.153261 0.153131 0.152999 0.152867 0.152736 0.152600 0.152499 0.152458 0.152451 0.152444 0.152403 0.152299 0.152161 0.152019 0.151877 0.151736 0.151591 0.151482 0.151439 0.151432 0.151424 0.151381 0.151269 0.151119 0.150976 0.150833 0.150690 0.150560 0.150462 0.150424 0.150418 0.150411 0.150374 0.150289 0.150177 0.150087 0.149996 0.149906 0.149834 0.149781 0.149766 0.149763 0.149761 0.149746 0.149709 0.149661 0.149631 0.149601 0.149571 0.149557 0.149546 0.149542 0.149542 0.149541 0.149538 0.149534 0.149530 0.149532 0.149535 0.149538 0.149546 0.149552 0.149556 0.149557 0.149558 0.149562 0.149573 0.149588 0.149607 0.149626 0.149645 0.149668 0.149685 0.149692 0.149694 
0.147278 0.147275 0.147258 0.147214 0.147155 0.147089 0.147022 0.146955 0.146879 0.146821 0.146797 0.146791 0.146785 0.146760 0.146693 0.146604 0.146500 0.146397 0.146294 0.146176 0.146086 0.146048 0.146039 0.146035 0.146021 0.145985 0.145938 0.145891 0.145844 0.145797 0.145749 0.145713 0.145698 0.145695 0.145691 0.145677 0.145640 0.145591 0.145540 0.145490 0.145440 0.145387 0.145348 0.145332 0.145328 0.145324 0.145308 0.145267 0.145213 0.145156 0.145099 0.145042 0.144983 0.144938 0.144919 0.144914 0.144910 0.144891 0.144844 0.144781 0.144715 0.144649 0.144583 0.144515 0.144463 0.144442 0.144437 0.144433 0.144411 0.144359 0.144289 0.144222 0.144155 0.144088 0.144023 0.143974 0.143956 0.143952 0.143948 0.143932 0.143892 0.143839 0.143796 0.143752 0.143709 0.143674 0.143648 0.143638 0.143636 0.143634 0.143624 0.143609 0.143590 0.143575 0.143560 0.143545 0.143538 0.143532 0.143530 0.143529 0.143529 0.143526 0.143525 0.143524 0.143524 0.143525 0.143526 0.143531 0.143536 0.143538 0.143538 0.143538 0.143540 0.143546 0.143553 0.143563 0.143573 0.143582 0.143595 0.143605 0.143609 0.143610 0.143610 0.143614 0.143625 0.143638 0.143655 0.143671 0.143687 0.143705 0.143718 0.143724 0.143725 
0.141724 0.141718 0.141683 0.141593 0.141474 0.141360 0.141246 0.141132 0.141026 0.140946 0.140916 0.140911 0.140906 0.140877 0.140799 0.140696 0.140590 0.140484 0.140378 0.140268 0.140186 0.140154 0.140149 0.140143 0.140111 0.140026 0.139914 0.139801 0.139689 0.139576 0.139481 0.139410 0.139387 0.139384 0.139380 0.139358 0.139304 0.139233 0.139185 0.139137 0.139090 0.139058 0.139033 0.139029 0.139029 0.139028 0.139024 0.139012 0.138997 0.138997 0.138996 0.138996 0.139006 0.139014 0.139017 0.139018 0.139018 0.139023 0.139038 0.139058 0.139085 0.139112 0.139139 0.139174 0.139200 0.139211 0.139213 
0.136927 0.136927 0.136927 0.136928 0.136929 0.136929 0.136929 0.136928 0.136928 0.136927 0.136927 0.136927 0.136926 0.136926 0.136924 0.136922 0.136919 0.136916 0.136912 0.136907 0.136904 0.136902 0.136901 0.136901 0.136899 0.136894 0.136887 0.136878 0.136869 0.136861 0.136851 0.136843 0.136839 0.136839 0.136838 0.136834 0.136825 0.136813 0.136800 0.136786 0.136772 0.136757 0.136746 0.136741 0.136740 0.136738 0.136733 0.136721 0.136705 0.136691 0.136678 0.136664 0.136665 0.136665 0.136666 0.136666 0.136667 0.136667 0.136670 0.136673 0.136678 0.136682 0.136687 0.136693 0.136697 0.136699 0.136699 0.136700 0.136702 0.136707 0.136713 0.136719 0.136725 0.136731 0.136737 0.136742 0.136744 0.136745 0.136745 0.136747 0.136753 0.136759 0.136766 0.136773 0.136779 0.136786 0.136791 0.136793 0.136794 0.136794 0.136797 0.136802 0.136809 0.136816 0.136824 0.136832 0.136840 0.136846 0.136849 0.136850 
0.134761 0.134762 0.134767 0.134779 0.134795 0.134809 0.134824 0.134838 0.134851 0.134861 0.134865 0.134865 0.134866 0.134869 0.134878 0.134889 0.134896 0.134904 0.134911 0.134917 0.134922 0.134923 0.134923 0.134923 0.134924 0.134927 0.134930 0.134930 0.134930 0.134930 0.134928 0.134927 0.134925 0.134925 0.134925 0.134923 0.134919 0.134914 0.134906 0.134898 0.134891 0.134881 0.134873 0.134870 0.134869 0.134868 0.134865 0.134865 0.134865 0.134874 0.134882 0.134891 0.134901 0.134907 0.134910 0.134911 0.134911 0.134914 0.134920 0.134929 0.134936 0.134944 0.134951 0.134957 0.134962 0.134963 0.134964 0.134964 0.134966 0.134970 0.134975 0.134979 0.134982 0.134985 0.134988 0.134990 0.134990 0.134990 0.134991 0.134991 0.134993 0.134995 0.134997 0.134998 0.135000 0.135002 0.135003 0.135003 0.135003 
0.132774 0.132775 0.132776 0.132779 0.132782 0.132785 0.132787 0.132790 0.132792 0.132794 0.132794 0.132795 0.132795 0.132795 0.132796 0.132798 0.132799 0.132800 0.132800 0.132800 0.132801 0.132801 0.132801 0.132801 0.132800 0.132800 0.132800 0.132799 0.132798 0.132797 0.132795 0.132794 0.132793 0.132793 0.132793 0.132792 0.132790 0.132788 0.132784 0.132781 0.132778 0.132775 0.132772 0.132770 0.132770 0.132770 0.132768 0.132765 0.132760 0.132755 0.132750 0.132745 0.132740 0.132736 0.132734 0.132733 0.132733 0.132731 0.132726 0.132720 0.132717 0.132714 0.132710 0.132715 0.132718 0.132720 0.132720 0.132721 0.132723 0.132727 0.132732 0.132738 0.132744 0.132751 0.132757 0.132761 0.132763 0.132764 0.132764 0.132767 0.132771 0.132778 0.132784 0.132790 0.132796 0.132802 0.132806 0.132808 0.132809 0.132810 0.132812 0.132816 0.132822 0.132828 0.132834 0.132840 0.132846 0.132851 0.132853 0.132853 0.132854 0.132856 0.132860 0.132865 0.132870 0.132875 0.132880 0.132885 0.132888 0.132890 0.132891 0.132891 0.132893 0.132897 0.132902 0.132907 0.132912 0.132917 0.132922 0.132926 0.132928 0.132928 0.132929 0.132931 0.132935 0.132940 0.132945 0.132951 0.132956 0.132962 0.132966 0.132968 0.132969 
0.130959 0.130959 0.130957 0.130955 0.130952 0.130948 0.130945 0.130941 0.130937 0.130935 0.130933 0.130932 0.130932 0.130930 0.130927 0.130923 0.130919 0.130915 0.130911 0.130907 0.130903 0.130902 0.130901 0.130900 0.130898 0.130895 0.130890 0.130886 0.130881 0.130876 0.130872 0.130868 0.130866 0.130865 0.130864 0.130862 0.130858 0.130853 0.130848 0.130843 0.130838 0.130832 0.130828 0.130826 0.130825 0.130824 0.130822 0.130818 0.130812 0.130806 0.130801 0.130795 0.130789 0.130785 0.130783 0.130782 0.130781 0.130778 0.130774 0.130768 0.130762 0.130755 0.130749 0.130743 0.130739 0.130736 0.130735 0.130734 0.130732 0.130727 0.130721 0.130715 0.130708 0.130702 0.130695 0.130691 0.130688 0.130687 0.130686 0.130684 0.130679 0.130673 0.130666 0.130660 0.130653 0.130647 0.130642 0.130639 0.130638 0.130638 0.130638 0.130640 0.130643 0.130646 0.130649 0.130651 0.130654 0.130656 0.130657 0.130658 0.130658 0.130659 0.130662 0.130666 0.130670 0.130674 0.130678 0.130681 0.130684 0.130686 0.130686 0.130687 0.130688 0.130691 0.130695 0.130700 0.130704 0.130709 0.130713 0.130716 0.130718 0.130719 0.130719 0.130721 0.130724 0.130728 0.130733 0.130738 0.130742 0.130747 0.130751 0.130752 0.130753 0.130754 0.130756 0.130759 0.130763 0.130768 0.130773 0.130777 0.130782 0.130786 0.130788 0.130789 0.130789 0.130791 0.130795 0.130799 0.130804 0.130808 0.130813 0.130818 0.130821 0.130823 0.130824 0.130825 0.130827 0.130830 0.130835 0.130840 0.130845 0.130850 0.130855 0.130859 0.130861 0.130862 0.130863 0.130865 0.130869 0.130874 0.130880 0.130885 0.130890 0.130896 0.130900 0.130902 0.130903 0.130904 0.130907 0.130911 0.130917 0.130923 0.130929 0.130935 0.130941 0.130946 0.130948 0.130949 0.130950 0.130953 0.130958 0.130965 0.130971 0.130978 0.130985 0.130992 0.130997 0.131000 0.131001 
0.129292 0.129291 0.129284 0.129265 0.129240 0.129213 0.129187 0.129161 0.129134 0.129115 0.129107 0.129105 0.129104 0.129096 0.129077 0.129051 0.129025 0.128998 0.128972 0.128948 0.128930 0.128922 0.128921 0.128920 0.128913 0.128913 0.128913 0.128922 0.128931 0.128940 0.128954 0.128965 0.128969 0.128970 0.128970 0.128974 0.128987 0.129004 0.129023 0.129042 0.129061 0.129083 0.129099 0.129105 0.129106 
