0.132978 0.132974 0.132896 0.132546 0.131991 0.131485 0.130980 0.130474 0.130029 0.129748 0.129690 0.129686 0.129682 0.129624 0.129367 0.128960 0.128574 0.128189 0.127803 0.127426 0.127187 0.127136 0.127132 0.127129 0.127077 0.126839 0.126461 0.126083 0.125704 0.125326 0.124954 0.124719 0.124669 0.124666 0.124662 0.124612 0.124384 0.124024 0.123678 0.123333 0.122987 0.122659 0.122452 0.122408 0.122405 0.122402 0.122358 0.122163 0.121852 0.121566 0.121279 0.120993 0.120731 0.120566 0.120531 0.120529 0.120526 0.120492 0.120338 0.120095 0.119872 0.119649 0.119427 0.119222 0.119093 0.119066 0.119064 
0.132981 0.132985 0.133032 0.133186 0.133422 0.133643 0.133864 0.134085 0.134334 0.134498 0.134542 0.134547 0.134551 0.134597 0.134786 0.135073 0.135397 0.135721 0.136044 0.136395 0.136625 0.136685 0.136691 0.136697 0.136757 0.136998 0.137364 0.137744 0.138125 0.138505 0.138898 0.139155 0.139222 0.139228 0.139235 0.139302 0.139565 0.139968 0.140380 0.140793 0.141205 0.141630 0.141908 0.141980 0.141987 0.141994 0.142067 0.142351 0.142784 0.143227 0.143671 0.144114 0.144569 0.144867 0.144944 0.144952 0.144959 0.145036 0.145341 0.145805 0.146280 0.146755 0.147230 0.147716 0.148035 0.148117 0.148125 0.148133 0.148216 0.148547 0.149050 0.149576 0.150101 0.150626 0.151186 0.151553 0.151649 0.151658 0.151667 0.151764 0.152154 0.152750 0.153397 0.154044 0.154691 0.155392 0.155851 0.155972 0.155984 0.155995 0.156117 0.156609 0.157358 0.158169 0.158981 0.159792 0.160656 0.161223 0.161373 0.161387 0.161401 0.161551 0.162147 0.163055 0.164018 0.164980 0.165943 0.166965 0.167636 0.167811 0.167827 0.167844 0.168020 0.168721 0.169790 0.170915 0.172039 0.173163 0.174354 0.175135 0.175338 0.175358 0.175378 0.175582 0.176402 0.177652 0.178986 0.180319 0.181652 0.183072 0.184004 0.184252 0.184275 
0.132980 0.132979 0.132968 0.132762 0.132435 0.132044 0.131652 0.131261 0.130980 0.130802 0.130768 0.130766 0.130764 0.130729 0.130579 0.130342 0.130132 0.129922 0.129712 0.129497 0.129361 0.129328 0.129326 0.129324 0.129293 0.129132 0.128878 0.128478 0.128078 0.127677 0.127077 0.126698 0.126609 0.126603 0.126598 0.126508 0.125973 0.125125 0.123710 0.122296 0.120881 0.119759 0.119051 0.118919 0.118911 0.118903 0.118775 0.118281 0.117498 0.117033 0.116567 0.116101 0.115834 0.115666 0.115636 0.115634 0.115633 0.115604 0.115490 0.115310 0.115185 0.115061 0.114936 0.114844 0.114785 0.114774 0.114773 0.114772 0.114761 0.114713 0.114636 0.114574 0.114512 0.114450 0.114399 0.114367 0.114360 0.114360 0.114359 0.114353 0.114325 0.114282 0.114246 0.114211 0.114175 0.114146 0.114128 0.114124 0.114124 0.114123 0.114120 0.114105 0.114081 0.114062 0.114043 0.114024 0.114010 0.114000 0.113999 0.113999 0.113998 0.113997 0.113990 0.113978 0.113970 0.113962 0.113954 0.113948 0.113945 0.113944 0.113944 
0.120528 0.120528 0.120525 0.120517 0.120505 0.120493 0.120480 0.120467 0.120453 0.120442 0.120437 0.120436 0.120436 0.120431 0.120419 0.120402 0.120383 0.120365 0.120346 0.120325 0.120310 0.120303 0.120302 0.120301 0.120295 0.120277 0.120254 0.120229 0.120204 0.120179 0.120151 0.120130 0.120122 0.120121 0.120119 0.120111 0.120088 0.120059 0.120027 0.119995 0.119963 0.119931 0.119907 0.119900 0.119899 0.119898 0.119891 0.119874 0.119851 0.119829 0.119806 0.119784 0.119763 0.119747 0.119741 0.119740 0.119739 0.119733 0.119717 0.119697 0.119677 0.119657 0.119637 0.119617 0.119602 0.119597 0.119596 0.119595 0.119590 0.119576 0.119557 0.119539 0.119522 0.119504 0.119488 0.119475 0.119471 0.119470 0.119469 0.119464 0.119452 0.119437 0.119422 0.119407 0.119392 0.119378 0.119368 0.119364 0.119363 
0.124665 0.124664 0.124658 0.124643 0.124623 0.124601 0.124579 0.124556 0.124532 0.124514 0.124506 0.124505 0.124504 0.124496 0.124477 0.124451 0.124423 0.124395 0.124367 0.124337 0.124315 0.124306 0.124304 0.124302 0.124293 0.124269 0.124237 0.124203 0.124169 0.124135 0.124099 0.124072 0.124061 0.124058 0.124056 0.124045 0.124016 0.123978 0.123937 0.123896 0.123856 0.123812 0.123780 0.123767 0.123765 0.123762 0.123749 0.123715 0.123670 0.123622 0.123575 0.123528 0.123478 0.123441 0.123426 0.123423 0.123420 0.123405 0.123366 0.123315 0.123261 0.123208 0.123155 0.123101 0.123060 0.123044 0.123041 0.123038 0.123021 0.122980 0.122924 0.122884 0.122844 0.122804 0.122769 0.122742 0.122732 0.122730 0.122728 0.122717 0.122691 0.122657 0.122623 0.122590 0.122556 0.122524 0.122499 0.122490 0.122488 0.122486 0.122477 0.122453 0.122422 0.122391 0.122361 0.122331 0.122301 0.122280 0.122271 0.122270 0.122268 0.122260 0.122239 0.122211 0.122184 0.122157 0.122130 0.122105 0.122086 0.122079 0.122077 0.122076 0.122068 0.122050 0.122026 0.122002 0.121978 0.121955 0.121932 0.121914 0.121908 0.121907 
0.127133 0.127134 0.127137 0.127140 0.127145 0.127150 0.127155 0.127160 0.127165 0.127168 0.127170 0.127172 0.127173 0.127175 0.127179 0.127183 0.127188 0.127192 0.127196 0.127201 0.127204 0.127206 0.127207 0.127208 0.127210 0.127213 0.127217 0.127221 0.127225 0.127229 0.127232 0.127235 0.127237 0.127238 0.127239 0.127241 0.127243 0.127247 0.127250 0.127253 0.127257 0.127260 0.127262 0.127264 0.127265 0.127266 0.127267 0.127269 0.127272 0.127275 0.127278 0.127281 0.127283 0.127285 0.127287 0.127287 0.127288 0.127289 0.127291 0.127294 0.127296 0.127299 0.127301 0.127303 0.127305 0.127306 0.127306 0.127307 0.127308 0.127309 0.127311 0.127313 0.127314 0.127316 0.127318 0.127319 0.127320 0.127320 0.127321 0.127321 0.127323 0.127324 0.127325 0.127327 0.127328 0.127329 0.127330 0.127330 0.127331 0.127331 0.127331 0.127332 0.127333 0.127334 0.127335 0.127335 0.127336 0.127337 0.127337 0.127337 0.127338 0.127338 0.127338 0.127339 0.127339 0.127340 0.127340 0.127341 0.127341 0.127341 0.127341 0.127341 0.127341 0.127341 0.127341 0.127341 0.127341 0.127341 0.127341 0.127341 0.127341 0.127341 0.127341 0.127341 0.127341 0.127340 0.127340 0.127340 0.127340 0.127339 0.127338 0.127338 0.127338 0.127338 0.127337 0.127337 0.127336 0.127335 0.127335 0.127334 0.127333 0.127332 0.127332 0.127332 0.127331 0.127331 0.127330 0.127330 0.127328 0.127327 0.127326 0.127325 0.127324 0.127323 0.127323 0.127322 0.127322 0.127320 0.127319 0.127317 0.127315 0.127313 0.127311 0.127310 0.127309 0.127308 0.127308 0.127307 0.127305 0.127303 0.127301 0.127298 0.127296 0.127293 0.127291 0.127290 0.127289 0.127288 0.127286 0.127284 0.127281 0.127278 0.127275 0.127272 0.127269 0.127266 0.127265 0.127264 0.127263 0.127261 0.127258 0.127255 0.127251 0.127247 0.127243 0.127239 0.127235 0.127233 0.127232 0.127231 0.127228 0.127225 0.127221 0.127216 0.127211 0.127207 0.127202 0.127199 0.127196 0.127195 0.127193 0.127191 0.127187 0.127182 0.127177 0.127171 0.127165 0.127159 0.127155 0.127152 0.127150 0.127148 0.127145 0.127141 0.127134 0.127128 0.127122 0.127116 0.127110 0.127105 0.127101 0.127100 0.127098 0.127095 0.127089 0.127083 0.127075 0.127067 0.127060 0.127052 0.127046 0.127042 0.127040 0.127038 0.127034 0.127028 0.127020 0.127012 0.127004 0.126996 0.126988 0.126982 0.126978 0.126976 0.126973 0.126969 0.126962 0.126954 0.126944 0.126935 0.126926 0.126916 0.126909 0.126904 0.126901 0.126898 0.126894 0.126886 0.126877 0.126867 0.126857 0.126847 0.126838 0.126830 0.126825 0.126822 0.126819 0.126814 0.126806 0.126795 0.126784 0.126773 0.126762 0.126751 0.126742 0.126739 0.126737 0.126735 0.126732 0.126727 0.126720 0.126714 0.126708 0.126701 0.126695 0.126690 0.126687 0.126685 0.126683 0.126680 0.126674 0.126668 0.126661 0.126654 0.126648 0.126641 0.126636 0.126632 0.126630 0.126628 0.126625 0.126620 0.126613 0.126607 0.126600 0.126594 0.126587 0.126582 0.126578 0.126577 0.126575 0.126571 0.126566 0.126559 0.126552 0.126545 0.126538 0.126531 0.126526 0.126522 0.126520 0.126518 0.126515 0.126509 0.126503 0.126496 0.126489 0.126482 0.126475 0.126469 0.126466 0.126464 0.126462 0.126458 0.126453 0.126446 0.126439 0.126431 0.126424 0.126417 0.126412 0.126408 0.126406 0.126404 0.126400 0.126395 0.126388 0.126380 0.126373 0.126366 0.126359 0.126353 0.126350 0.126348 0.126346 0.126342 0.126336 0.126329 0.126322 0.126315 0.126307 0.126300 0.126294 0.126291 0.126289 0.126287 0.126283 0.126277 0.126270 0.126263 0.126255 0.126248 0.126241 0.126235 0.126231 0.126229 0.126227 0.126224 0.126218 0.126211 0.126203 0.126196 0.126189 0.126181 0.126175 0.126172 0.126170 0.126168 0.126164 0.126158 0.126151 0.126143 0.126136 0.126128 0.126121 0.126116 0.126112 0.126110 0.126108 0.126104 0.126098 0.126091 0.126084 0.126077 0.126069 0.126062 0.126056 0.126053 0.126051 0.126048 0.126045 0.126039 0.126032 0.126024 0.126017 0.126010 0.126003 0.125997 0.125993 0.125991 0.125989 0.125986 0.125980 0.125973 0.125966 0.125959 0.125951 0.125944 0.125939 0.125935 0.125933 0.125931 0.125927 0.125922 0.125914 0.125907 0.125900 0.125893 0.125886 0.125881 0.125877 0.125875 0.125873 0.125870 0.125864 0.125857 0.125850 0.125843 0.125836 0.125829 0.125823 0.125820 0.125818 0.125816 0.125812 0.125807 0.125799 0.125792 0.125785 0.125778 0.125771 0.125766 0.125763 0.125761 0.125759 0.125755 0.125750 0.125743 0.125736 0.125729 0.125722 0.125715 0.125709 0.125706 0.125704 0.125702 0.125698 0.125693 0.125686 0.125679 0.125672 0.125665 0.125658 0.125653 0.125649 0.125647 0.125645 0.125642 0.125637 0.125630 0.125623 0.125616 0.125609 0.125602 0.125597 0.125593 0.125591 0.125589 0.125586 0.125580 0.125573 0.125566 0.125560 0.125553 0.125546 0.125541 0.125537 0.125535 0.125533 0.125530 0.125524 0.125518 0.125511 0.125504 0.125497 0.125490 0.125485 0.125481 0.125479 0.125478 0.125474 0.125469 0.125462 0.125455 0.125448 0.125442 0.125435 0.125430 0.125426 0.125424 0.125422 0.125419 0.125414 0.125407 0.125400 0.125394 0.125387 0.125380 0.125375 0.125371 0.125369 0.125367 0.125364 0.125359 0.125352 0.125345 0.125339 0.125332 0.125325 0.125320 0.125317 0.125315 0.125313 0.125310 0.125304 0.125298 0.125291 0.125284 0.125278 0.125271 0.125266 0.125262 0.125261 
0.129687 0.129689 0.129708 0.129753 0.129813 0.129845 0.129877 0.129910 0.129917 0.129923 0.129924 0.129924 0.129924 0.129924 0.129919 0.129912 0.129896 0.129880 0.129864 0.129857 0.129852 0.129848 0.129848 0.129848 0.129844 0.129832 0.129816 0.129795 0.129775 0.129755 0.129721 0.129696 0.129683 0.129682 0.129680 0.129667 0.129624 0.129566 0.129485 0.129404 0.129322 0.129227 0.129155 0.129133 0.129131 0.129128 0.129107 0.129050 0.128974 0.128900 0.128826 0.128753 0.128681 0.128628 0.128609 0.128606 0.128604 0.128585 0.128533 0.128464 0.128397 0.128331 0.128264 0.128201 0.128153 0.128136 0.128134 0.128132 0.128115 0.128069 0.128007 0.127946 0.127885 0.127823 0.127761 0.127714 0.127697 0.127695 
0.134546 0.134543 0.134522 0.134460 0.134377 0.134286 0.134194 0.134102 0.134002 0.133927 0.133899 0.133895 0.133892 0.133864 0.133784 0.133678 0.133564 0.133451 0.133337 0.133223 0.133138 0.133108 0.133104 0.133100 0.133070 0.132987 0.132877 0.132761 0.132646 0.132531 0.132404 0.132310 0.132272 0.132268 0.132263 0.132226 0.132119 0.131977 0.131822 0.131666 0.131511 0.131344 0.131219 0.131183 0.131178 0.131173 0.131137 0.131040 0.130911 0.130793 0.130676 0.130558 0.130452 0.130373 0.130345 0.130342 0.130339 0.130312 0.130241 0.130146 0.130060 0.129974 0.129888 0.129811 0.129753 0.129732 0.129729 0.129727 0.129706 0.129654 0.129584 0.129520 0.129457 0.129393 0.129333 0.129289 0.129273 0.129270 
0.136690 0.136688 0.136672 0.136627 0.136566 0.136496 0.136426 0.136355 0.136276 0.136217 0.136193 0.136190 0.136186 0.136162 0.136097 0.136010 0.135916 0.135822 0.135728 0.135629 0.135554 0.135525 0.135520 0.135516 0.135487 0.135406 0.135298 0.135181 0.135064 0.134947 0.134820 0.134725 0.134688 0.134682 0.134677 0.134640 0.134536 0.134399 0.134252 0.134106 0.133959 0.133806 0.133691 0.133647 0.133640 0.133634 0.133590 0.133508 0.133399 0.133302 0.133204 0.133107 0.133017 0.132950 0.132925 0.132922 0.132918 0.132893 0.132832 0.132749 0.132672 0.132595 0.132518 0.132447 0.132393 0.132373 0.132370 0.132367 0.132348 0.132298 0.132232 0.132171 0.132110 0.132048 0.131990 0.131947 0.131932 0.131930 0.131927 0.131912 0.131871 0.131817 0.131765 0.131714 0.131663 0.131613 0.131576 0.131563 0.131561 
0.139227 0.139225 0.139212 0.139179 0.139135 0.139086 0.139037 0.138988 0.138935 0.138895 0.138878 0.138875 0.138871 0.138854 0.138810 0.138753 0.138691 0.138629 0.138567 0.138502 0.138453 0.138432 0.138428 0.138423 0.138403 0.138351 0.138281 0.138208 0.138135 0.138062 0.137986 0.137928 0.137904 0.137899 0.137893 0.137870 0.137809 0.137729 0.137644 0.137559 0.137474 0.137385 0.137318 0.137291 0.137285 0.137279 0.137251 0.137182 0.137089 0.136993 0.136896 0.136799 0.136700 0.136625 0.136594 0.136588 0.136581 0.136550 0.136474 0.136372 0.136268 0.136164 0.136061 0.135956 0.135877 0.135856 0.135852 0.135848 0.135829 0.135783 0.135722 0.135666 0.135610 0.135554 0.135504 0.135466 0.135451 0.135448 0.135444 0.135429 0.135393 0.135345 0.135301 0.135256 0.135211 0.135170 0.135139 0.135127 0.135124 0.135121 0.135109 0.135079 0.135039 0.135002 0.134964 0.134927 0.134892 0.134866 0.134855 0.134853 0.134851 0.134840 0.134815 0.134782 0.134750 0.134718 0.134686 0.134656 0.134633 0.134624 0.134622 0.134620 0.134610 0.134589 0.134560 0.134532 0.134504 0.134476 0.134449 0.134428 0.134420 0.134418 0.134416 0.134408 0.134388 0.134362 0.134335 0.134309 0.134282 0.134257 0.134237 0.134229 0.134227 
0.144950 0.144942 0.144905 0.144812 0.144688 0.144560 0.144432 0.144305 0.144173 0.144073 0.144033 0.144025 0.144016 0.143976 0.143873 0.143736 0.143597 0.143458 0.143318 0.143177 0.143071 0.143029 0.143020 0.143011 0.142969 0.142861 0.142717 0.142571 0.142425 0.142280 0.142132 0.142021 0.141977 0.141968 0.141959 0.141914 0.141802 0.141652 0.141502 0.141352 0.141202 0.141050 0.140936 0.140891 0.140881 0.140872 0.140826 0.140711 0.140558 0.140405 0.140251 0.140098 0.139947 0.139834 0.139801 0.139794 0.139788 0.139755 0.139674 0.139567 0.139468 0.139368 0.139268 0.139176 0.139106 0.139080 0.139074 0.139069 0.139042 0.138977 0.138891 0.138811 0.138732 0.138652 0.138579 0.138524 0.138502 0.138498 0.138493 0.138472 0.138420 0.138351 0.138286 0.138221 0.138156 0.138095 0.138049 0.138031 0.138027 0.138023 0.138005 0.137963 0.137907 0.137853 0.137799 0.137745 0.137693 0.137653 0.137639 0.137636 0.137633 0.137619 0.137582 0.137534 0.137488 0.137442 0.137395 0.137350 0.137317 0.137304 0.137301 0.137298 0.137285 0.137252 0.137208 0.137166 0.137124 0.137081 0.137040 0.137009 0.136997 0.136994 
0.151655 0.151644 0.151607 0.151523 0.151411 0.151297 0.151184 0.151070 0.150953 0.150864 0.150824 0.150812 0.150800 0.150761 0.150671 0.150552 0.150430 0.150308 0.150186 0.150064 0.149971 0.149930 0.149918 0.149906 0.149866 0.149773 0.149650 0.149527 0.149405 0.149282 0.149162 0.149070 0.149030 0.149018 0.149006 0.148967 0.148876 0.148756 0.148637 0.148518 0.148399 0.148281 0.148191 0.148152 0.148141 0.148129 0.148090 0.148002 0.147886 0.147769 0.147652 0.147536 0.147433 0.147354 0.147320 0.147310 0.147300 0.147266 0.147190 0.147089 0.146990 0.146891 0.146791 0.146695 0.146622 0.146590 0.146581 0.146571 0.146540 0.146469 0.146375 0.146286 0.146197 0.146108 0.146023 0.145957 0.145929 0.145921 0.145912 0.145884 0.145822 0.145740 0.145660 0.145581 0.145502 0.145425 0.145366 0.145341 0.145334 0.145326 0.145302 0.145246 0.145172 0.145101 0.145030 0.144959 0.144891 0.144839 0.144817 0.144810 0.144803 0.144781 0.144730 0.144663 0.144599 0.144535 0.144472 0.144409 0.144361 0.144340 0.144333 0.144327 0.144307 0.144262 0.144202 0.144143 0.144084 0.144025 0.143968 0.143926 0.143907 0.143901 0.143896 0.143877 0.143834 0.143778 0.143724 0.143670 0.143616 0.143563 0.143523 0.143505 0.143500 0.143494 0.143477 0.143438 0.143386 0.143336 0.143285 0.143235 0.143185 0.143147 0.143131 0.143126 0.143121 0.143105 0.143068 0.143020 0.142972 0.142924 0.142876 0.142829 0.142794 0.142778 0.142773 0.142769 0.142753 0.142718 0.142671 0.142626 0.142580 0.142535 0.142489 0.142454 0.142439 0.142434 
0.175350 0.175318 0.175217 0.174990 0.174691 0.174392 0.174094 0.173795 0.173496 0.173269 0.173168 0.173137 0.173106 0.173005 0.172782 0.172489 0.172199 0.171908 0.171618 0.171329 0.171110 0.171013 0.170983 0.170952 0.170855 0.170640 0.170357 0.170079 0.169801 0.169523 0.169253 0.169048 0.168958 0.168930 0.168901 0.168810 0.168608 0.168341 0.168083 0.167825 0.167567 0.167313 0.167120 0.167034 0.167007 0.166980 0.166895 0.166705 0.166456 0.166210 0.165964 0.165718 0.165479 0.165298 0.165218 0.165193 0.165169 0.165089 0.164912 0.164678 0.164445 0.164211 0.163977 0.163747 0.163571 0.163494 0.163469 0.163445 0.163367 0.163194 0.162965 0.162739 0.162513 0.162287 0.162060 0.161887 0.161812 0.161788 0.161765 0.161690 0.161522 0.161302 0.161098 0.160895 0.160691 0.160504 0.160362 0.160300 0.160280 0.160261 0.160199 0.160062 0.159882 0.159715 0.159549 0.159383 0.159223 0.159102 0.159048 0.159032 0.159015 0.158963 0.158853 0.158709 0.158570 0.158432 0.158293 0.158163 0.158064 0.158023 0.158010 0.157997 0.157956 0.157865 0.157746 0.157631 0.157517 0.157403 0.157298 0.157219 0.157184 0.157173 0.157162 0.157127 0.157049 0.156946 0.156854 0.156762 0.156669 0.156579 0.156511 0.156481 0.156471 0.156462 0.156432 0.156371 0.156290 0.156212 0.156133 0.156055 0.155979 0.155921 0.155898 0.155891 0.155883 0.155860 0.155807 0.155737 0.155669 0.155601 0.155533 0.155473 0.155427 0.155407 0.155400 0.155394 0.155373 0.155327 0.155266 0.155210 0.155154 0.155099 0.155044 0.155003 0.154985 0.154979 0.154973 0.154954 0.154916 0.154865 0.154816 0.154767 0.154719 0.154670 0.154633 0.154618 0.154614 0.154609 0.154594 0.154560 0.154516 0.154472 0.154427 0.154383 0.154342 0.154312 0.154298 0.154294 
