0.148986 0.148977 0.148867 0.148381 0.147610 0.146914 0.146217 0.145520 0.144878 0.144473 0.144384 0.144376 0.144369 0.144280 0.143878 0.143242 0.142626 0.142010 0.141395 0.140808 0.140437 0.140356 0.140350 0.140343 0.140263 0.139900 0.139326 0.138755 0.138185 0.137614 0.137042 0.136681 0.136602 0.136595 0.136589 0.136508 0.136148 0.135576 0.135013 0.134450 0.133887 0.133342 0.132998 0.132923 0.132917 0.132911 0.132836 0.132503 0.131976 0.131472 0.130967 0.130462 0.129984 0.129681 0.129616 0.129611 0.129605 0.129540 0.129252 0.128795 0.128367 0.127939 0.127511 0.127113 0.126861 0.126806 0.126802 0.126798 0.126743 0.126506 0.126130 0.125779 0.125428 0.125077 0.124750 0.124544 0.124499 0.124496 
0.148992 0.149006 0.149129 0.149436 0.149846 0.150195 0.150543 0.150892 0.151192 0.151416 0.151495 0.151504 0.151513 0.151590 0.151793 0.152065 0.152321 0.152578 0.152834 0.153081 0.153267 0.153334 0.153342 0.153350 0.153417 0.153605 0.153855 0.154118 0.154381 0.154644 0.154920 0.155126 0.155203 0.155212 0.155222 0.155300 0.155520 0.155813 0.156119 0.156425 0.156730 0.157050 0.157289 0.157378 0.157389 0.157399 0.157488 0.157736 0.158066 0.158408 0.158749 0.159091 0.159442 0.159704 0.159801 0.159813 0.159824 0.159922 0.160191 0.160550 0.160917 0.161285 0.161652 0.162025 0.162304 0.162407 0.162419 0.162431 0.162534 0.162819 0.163198 0.163585 0.163971 0.164358 0.164750 0.165044 0.165153 0.165165 0.165178 0.165286 0.165585 0.165984 0.166388 0.166793 0.167198 0.167608 0.167915 0.168028 0.168041 0.168055 0.168168 0.168475 0.168886 0.169308 0.169730 0.170152 0.170581 0.170902 0.171018 0.171032 0.171046 0.171164 0.171487 0.171919 0.172349 0.172780 0.173211 0.173645 0.173969 0.174088 0.174102 0.174116 0.174234 0.174561 0.174996 0.175434 0.175872 0.176310 0.176746 0.177073 0.177194 0.177209 0.177223 0.177345 0.177670 0.178105 0.178541 0.178978 0.179414 0.179853 0.180182 0.180301 0.180315 0.180329 0.180447 0.180773 0.181207 0.181643 0.182079 0.182516 0.182959 0.183292 0.183417 0.183432 0.183447 0.183572 0.183921 0.184388 0.184853 0.185319 0.185785 0.186264 0.186622 0.186754 0.186770 0.186785 0.186917 0.187285 0.187777 0.188283 0.188790 0.189296 0.189825 0.190221 0.190366 0.190383 0.190401 0.190547 0.190949 0.191485 0.192032 0.192578 0.193125 0.193683 0.194101 0.194256 0.194274 0.194293 0.194448 0.194873 0.195442 0.196008 0.196573 0.197139 0.197702 0.198124 0.198278 0.198296 0.198314 0.198468 0.198879 0.199428 0.199959 0.200490 0.201021 0.201545 0.201938 0.202081 0.202098 0.202115 0.202256 0.202634 0.203138 0.203606 0.204075 0.204543 0.204982 0.205310 0.205426 0.205440 0.205454 0.205568 0.205858 0.206246 0.206600 0.206955 0.207309 0.207634 0.207877 0.207954 0.207963 0.207971 0.208040 0.208234 0.208493 0.208712 0.208931 0.209150 0.209316 0.209440 0.209480 0.209485 0.209490 0.209529 0.209619 0.209739 0.209804 0.209870 0.209935 0.209969 0.209993 0.209997 0.209998 0.209998 0.210000 0.209977 0.209947 0.209892 0.209837 0.209782 0.209670 0.209587 0.209552 0.209548 0.209544 0.209508 0.209394 0.209243 0.209047 0.208851 0.208656 0.208422 0.208246 0.208179 0.208171 
0.148987 0.148982 0.148920 0.148438 0.147673 0.147091 0.146508 0.145926 0.145611 0.145412 0.145365 0.145361 0.145358 0.145313 0.145110 0.144788 0.144483 0.144178 0.143874 0.143576 0.143388 0.143346 0.143343 0.143339 0.143297 0.143107 0.142806 0.142488 0.142170 0.141852 0.141460 0.141213 0.141154 0.141150 0.141145 0.141085 0.140752 0.140223 0.139532 0.138841 0.138150 0.136433 0.135349 0.135012 0.134986 0.134960 0.134628 0.133169 0.130858 0.128789 0.126720 0.124651 0.123236 0.122343 0.122157 0.122143 0.122129 0.121952 0.121311 0.120295 0.119685 0.119076 0.118466 0.118083 0.117841 0.117795 0.117792 0.117788 0.117744 0.117566 0.117283 0.117070 0.116858 0.116645 0.116481 0.116377 0.116357 0.116355 0.116353 0.116333 0.116246 0.116107 0.115992 0.115876 0.115761 0.115662 0.115601 0.115588 0.115587 0.115586 0.115573 0.115519 0.115432 0.115358 0.115284 0.115210 0.115146 0.115105 0.115097 0.115096 0.115096 0.115087 0.115051 0.114995 0.114946 0.114897 0.114848 0.114806 0.114780 0.114774 0.114774 0.114773 0.114768 0.114744 0.114707 0.114675 0.114643 0.114612 0.114585 0.114568 0.114565 0.114565 0.114564 0.114561 0.114546 0.114523 0.114503 0.114483 0.114463 0.114446 0.114436 0.114434 0.114434 0.114433 0.114431 0.114422 0.114407 0.114395 0.114383 0.114371 0.114361 0.114355 0.114354 0.114354 
0.126802 0.126803 0.126806 0.126813 0.126823 0.126829 0.126836 0.126842 0.126844 0.126846 0.126847 0.126847 0.126847 0.126846 0.126844 0.126842 0.126835 0.126829 0.126822 0.126811 0.126803 0.126799 0.126799 0.126798 0.126794 0.126781 0.126765 0.126745 0.126725 0.126705 0.126681 0.126663 0.126655 0.126654 0.126652 0.126644 0.126622 0.126592 0.126558 0.126524 0.126490 0.126454 0.126428 0.126421 0.126420 0.126418 0.126412 0.126395 0.126372 0.126349 0.126326 0.126303 0.126279 0.126261 0.126254 0.126252 0.126250 0.126243 0.126224 0.126199 0.126173 0.126147 0.126121 0.126094 0.126073 0.126065 0.126063 0.126061 0.126053 0.126032 0.126004 0.125976 0.125947 0.125919 0.125890 0.125868 0.125859 0.125857 0.125855 0.125846 0.125824 0.125795 0.125766 0.125737 0.125708 0.125680 0.125658 0.125649 0.125647 0.125645 0.125636 0.125615 0.125586 0.125558 0.125529 0.125501 0.125473 0.125452 0.125443 0.125441 
0.136594 0.136590 0.136561 0.136483 0.136379 0.136267 0.136155 0.136044 0.135927 0.135839 0.135805 0.135800 0.135795 0.135761 0.135668 0.135543 0.135412 0.135281 0.135150 0.135011 0.134908 0.134868 0.134862 0.134856 0.134816 0.134707 0.134561 0.134409 0.134257 0.134105 0.133947 0.133828 0.133783 0.133776 0.133770 0.133725 0.133603 0.133441 0.133275 0.133109 0.132944 0.132821 0.132730 0.132698 0.132693 0.132688 0.132656 0.132572 0.132461 0.132356 0.132251 0.132146 0.132047 0.131973 0.131946 0.131942 0.131938 0.131911 0.131841 0.131748 0.131660 0.131573 0.131485 0.131403 0.131342 0.131319 0.131316 0.131312 0.131290 0.131233 0.131158 0.131088 0.131017 0.130946 0.130881 0.130832 0.130815 0.130812 
0.140350 0.140349 0.140343 0.140324 0.140300 0.140266 0.140232 0.140198 0.140156 0.140125 0.140112 0.140109 0.140107 0.140094 0.140057 0.140008 0.139963 0.139919 0.139875 0.139828 0.139793 0.139778 0.139775 0.139772 0.139757 0.139718 0.139665 0.139599 0.139534 0.139468 0.139388 0.139328 0.139305 0.139300 0.139296 0.139272 0.139203 0.139110 0.139006 0.138901 0.138797 0.138680 0.138593 0.138557 0.138550 0.138544 0.138508 0.138412 0.138283 0.138146 0.138009 0.137872 0.137777 0.137705 0.137678 0.137674 0.137669 0.137643 0.137577 0.137489 0.137407 0.137325 0.137242 0.137166 0.137109 0.137087 0.137083 0.137079 0.137058 0.137004 0.136931 0.136863 0.136795 0.136727 0.136662 0.136613 0.136595 0.136592 0.136589 0.136572 0.136526 0.136466 0.136409 0.136353 0.136296 0.136244 0.136205 0.136190 0.136187 0.136184 0.136169 0.136131 0.136081 0.136031 0.135982 0.135933 0.135885 0.135848 0.135834 0.135832 
0.144377 0.144378 0.144386 0.144383 0.144379 0.144293 0.144207 0.144121 0.144010 0.143927 0.143905 0.143903 0.143900 0.143878 0.143813 0.143726 0.143624 0.143522 0.143420 0.143300 0.143210 0.143174 0.143170 0.143166 0.143130 0.143023 0.142882 0.142715 0.142548 0.142381 0.142187 0.142041 0.141985 0.141978 0.141971 0.141915 0.141756 0.141543 0.141325 0.141107 0.140889 0.140678 0.140520 0.140465 0.140459 0.140452 0.140398 0.140255 0.140065 0.139897 0.139729 0.139561 0.139414 0.139304 0.139267 0.139263 0.139259 0.139221 0.139123 0.138993 0.138875 0.138757 0.138639 0.138529 0.138447 0.138419 0.138415 
0.151503 0.151499 0.151480 0.151426 0.151354 0.151269 0.151184 0.151099 0.150999 0.150923 0.150891 0.150884 0.150878 0.150845 0.150756 0.150639 0.150498 0.150356 0.150215 0.150050 0.149925 0.149877 0.149867 0.149857 0.149809 0.149728 0.149621 0.149518 0.149416 0.149313 0.149207 0.149128 0.149096 0.149090 0.149084 0.149052 0.148971 0.148864 0.148754 0.148644 0.148535 0.148422 0.148337 0.148303 0.148296 0.148290 0.148256 0.148169 0.148054 0.147934 0.147815 0.147696 0.147572 0.147479 0.147442 0.147435 0.147427 0.147389 0.147290 0.147159 0.147022 0.146885 0.146748 0.146616 0.146517 0.146476 0.146468 0.146460 0.146419 0.146314 0.146176 0.146024 0.145871 0.145719 0.145557 0.145434 0.145383 0.145373 0.145363 0.145312 0.145183 0.145012 0.144829 0.144646 0.144463 0.144294 0.144167 0.144120 0.144111 0.144102 0.144055 0.143942 0.143791 0.143652 0.143513 0.143373 0.143248 0.143154 0.143117 0.143109 0.143102 0.143065 0.142980 0.142866 0.142762 0.142659 0.142555 0.142460 0.142388 0.142360 0.142354 0.142349 0.142321 0.142258 0.142174 0.142095 0.142016 0.141936 0.141861 0.141804 0.141784 0.141780 0.141776 0.141756 0.141705 0.141638 0.141574 0.141511 0.141447 0.141387 0.141342 0.141325 0.141322 0.141318 0.141301 0.141258 0.141200 0.141145 0.141091 0.141037 0.140984 0.140944 0.140929 0.140926 0.140923 0.140907 0.140867 0.140814 0.140762 0.140710 0.140658 0.140607 0.140568 0.140553 0.140550 
0.153341 0.153335 0.153321 0.153292 0.153253 0.153212 0.153171 0.153130 0.153086 0.153053 0.153036 0.153029 0.153022 0.153005 0.152968 0.152919 0.152867 0.152815 0.152763 0.152710 0.152670 0.152650 0.152643 0.152635 0.152615 0.152575 0.152523 0.152470 0.152417 0.152364 0.152312 0.152272 0.152252 0.152244 0.152236 0.152217 0.152177 0.152125 0.152072 0.152019 0.151966 0.151930 0.151902 0.151889 0.151884 0.151879 0.151866 0.151840 0.151806 0.151771 0.151735 0.151700 0.151664 0.151637 0.151623 0.151618 0.151612 0.151599 0.151571 0.151535 0.151498 0.151461 0.151424 0.151387 0.151359 0.151344 0.151339 0.151333 0.151319 0.151290 0.151251 0.151212 0.151173 0.151133 0.151093 0.151062 0.151046 0.151040 0.151034 0.151019 0.150988 0.150947 0.150904 0.150862 0.150820 0.150776 0.150743 0.150726 0.150720 0.150713 0.150696 0.150662 0.150616 0.150571 0.150525 0.150479 0.150431 0.150394 0.150375 0.150368 0.150361 0.150342 0.150304 0.150255 0.150204 0.150154 0.150103 0.150050 0.150009 0.149989 0.149981 0.149973 0.149952 0.149910 0.149855 0.149799 0.149743 0.149687 0.149629 0.149584 0.149562 0.149553 0.149544 0.149522 0.149476 0.149415 0.149353 0.149291 0.149229 0.149168 0.149121 0.149097 0.149088 0.149079 0.149054 0.149005 0.148941 0.148876 0.148810 0.148745 0.148679 0.148629 0.148604 0.148594 0.148583 0.148556 0.148503 0.148434 0.148367 0.148300 0.148233 0.148166 0.148115 0.148090 0.148080 0.148070 0.148045 0.147994 0.147927 0.147861 0.147794 0.147728 0.147662 0.147612 0.147588 0.147578 0.147568 0.147544 0.147495 0.147431 0.147368 0.147305 0.147242 0.147181 0.147134 0.147111 0.147102 0.147093 0.147070 0.147024 0.146965 0.146908 0.146852 0.146796 0.146740 0.146698 0.146677 0.146669 0.146661 0.146640 0.146598 0.146544 0.146495 0.146446 0.146397 0.146348 0.146311 0.146293 0.146285 0.146278 0.146260 0.146223 0.146175 0.146132 0.146088 0.146045 0.146003 0.145971 0.145955 0.145949 0.145943 0.145927 0.145895 0.145853 0.145814 0.145775 0.145736 0.145699 0.145671 0.145657 0.145652 0.145646 0.145632 0.145604 0.145568 0.145532 0.145497 0.145462 0.145430 0.145405 0.145393 0.145388 0.145383 0.145371 0.145346 0.145314 0.145282 0.145249 0.145217 0.145189 0.145167 0.145156 0.145151 0.145147 0.145136 0.145114 0.145085 0.145056 0.145027 0.144998 0.144971 0.144951 0.144941 0.144937 0.144933 0.144923 0.144903 0.144877 0.144851 0.144824 0.144798 0.144772 0.144753 0.144744 0.144740 0.144737 0.144728 0.144709 0.144685 0.144661 0.144637 0.144612 0.144588 0.144569 0.144561 0.144557 0.144554 0.144546 0.144528 0.144506 0.144482 0.144459 0.144436 0.144413 0.144395 0.144387 0.144383 0.144380 0.144372 0.144355 0.144333 0.144312 0.144290 0.144268 0.144245 0.144229 0.144220 0.144217 0.144214 0.144205 0.144189 0.144168 0.144147 0.144125 0.144104 0.144082 0.144066 0.144058 0.144054 0.144051 0.144043 0.144027 0.144005 0.143984 0.143963 0.143942 0.143920 0.143903 0.143895 0.143892 
0.157386 0.157378 0.157347 0.157274 0.157178 0.157078 0.156979 0.156880 0.156777 0.156699 0.156665 0.156656 0.156647 0.156614 0.156534 0.156430 0.156321 0.156212 0.156104 0.155996 0.155915 0.155879 0.155869 0.155860 0.155825 0.155744 0.155638 0.155532 0.155427 0.155322 0.155219 0.155142 0.155110 0.155102 0.155093 0.155062 0.154990 0.154895 0.154798 0.154702 0.154605 0.154504 0.154427 0.154393 0.154384 0.154375 0.154340 0.154258 0.154150 0.154035 0.153920 0.153805 0.153683 0.153592 0.153552 0.153541 0.153530 0.153491 0.153392 0.153261 0.153128 0.152994 0.152860 0.152719 0.152612 0.152566 0.152554 0.152541 0.152496 0.152388 0.152245 0.152097 0.151949 0.151801 0.151655 0.151545 0.151504 0.151494 0.151483 0.151443 0.151352 0.151231 0.151115 0.150998 0.150882 0.150773 0.150690 0.150656 0.150647 0.150637 0.150603 0.150525 0.150422 0.150327 0.150232 0.150137 0.150047 0.149978 0.149951 0.149944 0.149937 0.149910 0.149848 0.149765 0.149688 0.149611 0.149534 0.149462 0.149408 0.149385 0.149379 0.149373 0.149349 0.149299 0.149232 0.149169 0.149106 0.149043 0.148984 0.148940 0.148922 0.148917 0.148912 0.148893 0.148851 0.148794 0.148742 0.148690 0.148637 0.148587 0.148549 0.148533 0.148528 0.148524 0.148508 0.148473 0.148428 0.148383 0.148337 0.148292 0.148251 0.148220 0.148206 0.148203 0.148199 0.148186 0.148154 0.148113 0.148074 0.148036 0.147998 0.147960 0.147931 0.147919 0.147915 0.147912 0.147901 0.147874 0.147839 0.147803 0.147768 0.147732 0.147698 0.147673 0.147662 0.147659 
0.171026 0.171004 0.170921 0.170724 0.170464 0.170203 0.169942 0.169682 0.169419 0.169221 0.169137 0.169114 0.169092 0.169008 0.168811 0.168549 0.168287 0.168025 0.167763 0.167509 0.167318 0.167237 0.167215 0.167194 0.167112 0.166922 0.166670 0.166419 0.166168 0.165917 0.165666 0.165476 0.165396 0.165375 0.165354 0.165274 0.165086 0.164837 0.164590 0.164343 0.164097 0.163851 0.163664 0.163585 0.163564 0.163543 0.163464 0.163278 0.163032 0.162787 0.162541 0.162296 0.162054 0.161871 0.161794 0.161774 0.161753 0.161677 0.161497 0.161260 0.161037 0.160814 0.160591 0.160407 0.160268 0.160211 0.160195 0.160180 0.160123 0.159991 0.159816 0.159659 0.159502 0.159344 0.159195 0.159082 0.159037 0.159025 0.159013 0.158970 0.158869 0.158736 0.158607 0.158479 0.158350 0.158231 0.158142 0.158104 0.158094 0.158084 0.158046 0.157959 0.157845 0.157740 0.157635 0.157530 0.157428 0.157352 0.157322 0.157314 0.157306 0.157276 0.157205 0.157111 0.157021 0.156931 0.156840 0.156754 0.156689 0.156662 0.156655 0.156647 0.156620 0.156559 0.156479 0.156400 0.156322 0.156244 0.156170 0.156114 0.156092 0.156086 0.156079 0.156057 0.156002 0.155931 0.155863 0.155796 0.155728 0.155662 0.155611 0.155590 0.155584 0.155578 0.155557 0.155510 0.155449 0.155386 0.155323 0.155261 0.155202 0.155157 0.155138 0.155133 0.155128 0.155109 0.155063 0.155003 0.154946 0.154889 0.154831 0.154773 0.154729 0.154711 0.154706 
0.186759 0.186715 0.186516 0.186027 0.185379 0.184766 0.184153 0.183540 0.182966 0.182533 0.182364 0.182327 0.182290 0.182119 0.181705 0.181154 0.180643 0.180132 0.179621 0.179126 0.178753 0.178605 0.178572 0.178540 0.178392 0.178029 0.177547 0.177075 0.176602 0.176130 0.175662 0.175309 0.175168 0.175137 0.175107 0.174967 0.174623 0.174167 0.173741 0.173315 0.172888 0.172497 0.172203 0.172087 0.172062 0.172038 0.171928 0.171670 0.171327 0.171019 0.170711 0.170403 0.170124 0.169914 0.169831 0.169813 0.169796 0.169718 0.169537 0.169296 0.169075 0.168854 0.168633 0.168432 0.168281 0.168221 0.168208 0.168196 0.168139 0.168010 0.167839 0.167678 0.167516 0.167355 0.167206 0.167093 0.167047 0.167037 0.167028 0.166984 0.166885 0.166754 0.166629 0.166504 0.166379 0.166261 0.166173 0.166137 0.166129 0.166122 0.166087 0.166008 0.165903 0.165800 0.165697 0.165594 0.165496 0.165422 0.165392 0.165386 0.165379 0.165350 0.165282 0.165193 0.165103 0.165013 0.164923 0.164835 0.164768 0.164741 0.164735 
0.209973 0.209875 0.209534 0.208772 0.207765 0.206829 0.205893 0.204956 0.204082 0.203420 0.203141 0.203061 0.202982 0.202707 0.202089 0.201273 0.200509 0.199745 0.198981 0.198266 0.197725 0.197496 0.197430 0.197366 0.197140 0.196629 0.195955 0.195313 0.194672 0.194030 0.193421 0.192959 0.192764 0.192709 0.192654 0.192461 0.192025 0.191450 0.190893 0.190335 0.189778 0.189239 0.188832 0.188657 0.188607 0.188558 0.188384 0.187994 0.187480 0.186987 0.186494 0.186001 0.185535 0.185181 0.185035 0.184993 0.184952 0.184807 0.184476 0.184040 0.183628 0.183216 0.182804 0.182421 0.182131 0.182010 0.181976 0.181943 0.181831 0.181589 0.181270 0.181005 0.180740 0.180474 0.180229 0.180044 0.179979 0.179960 0.179942 0.179878 0.179730 0.179534 0.179351 0.179167 0.178984 0.178837 0.178725 0.178677 0.178663 0.178649 0.178601 0.178490 0.178345 0.178238 0.178132 0.178026 0.177914 0.177829 0.177795 0.177785 0.177777 0.177752 0.177689 0.177607 0.177521 0.177434 0.177348 0.177288 0.177241 0.177221 0.177215 0.177209 0.177189 0.177140 0.177076 0.177027 0.176979 0.176931 0.176882 0.176845 0.176828 0.176823 0.176819 0.176802 0.176777 0.176744 0.176709 0.176674 0.176638 0.176614 0.176595 0.176588 0.176586 0.176583 0.176576 0.176557 0.176533 0.176514 0.176495 0.176476 0.176460 0.176448 0.176442 0.176440 
