0.266610 0.266608 0.266579 0.265609 0.264071 0.258809 0.253548 0.248286 0.240790 0.236059 0.235018 0.234942 0.234865 0.233815 0.229180 0.221838 0.216216 0.210594 0.204972 0.200945 0.198403 0.197897 0.197860 0.197824 0.197325 0.195233 0.191919 0.189142 0.186365 0.183588 0.181193 0.179681 0.179368 0.179345 0.179322 0.179009 0.177643 0.175480 0.173536 0.171592 0.169647 0.167864 0.166738 0.166495 0.166478 0.166460 0.166219 0.165144 0.163440 0.161830 0.160221 0.158611 0.157087 0.156124 0.155919 0.155904 0.155889 0.155685 0.154780 0.153347 0.152015 0.150683 0.149351 0.148125 0.147351 0.147186 0.147174 0.147162 0.146999 0.146280 0.145141 0.144095 0.143049 0.142003 0.141044 0.140439 0.140310 0.140300 
0.266577 0.266438 0.265099 0.261139 0.255692 0.250633 0.245574 0.240516 0.235972 0.232669 0.231609 0.231499 0.231391 0.230350 0.227576 0.223761 0.220969 0.218176 0.215383 0.213383 0.211929 0.211481 0.211434 0.211390 0.210959 0.209850 0.208325 0.207109 0.205892 0.204676 0.203683 0.202961 0.202743 0.202720 0.202698 0.202481 0.201869 0.201029 0.200309 0.199589 0.198869 0.198227 0.197760 0.197607 0.197591 0.197575 0.197421 0.196993 0.196404 0.195844 0.195284 0.194724 0.194173 0.193773 0.193639 0.193625 0.193611 0.193478 0.193080 0.192533 0.191981 0.191430 0.190878 0.190315 0.189906 0.189764 0.189749 0.189734 0.189589 0.189162 0.188573 0.187992 0.187411 0.186829 0.186248 0.185826 0.185682 0.185667 0.185652 0.185508 0.185081 0.184492 0.183909 0.183325 0.182742 0.182165 0.181745 0.181604 0.181589 0.181575 0.181434 0.181021 0.180454 0.179884 0.179315 0.178746 0.178184 0.177775 0.177637 0.177622 0.177608 0.177469 0.177057 0.176492 0.175921 0.175350 0.174779 0.174207 0.173791 0.173649 0.173635 0.173620 0.173478 0.173060 0.172485 0.171907 0.171330 0.170753 0.170174 0.169753 0.169611 0.169597 0.169582 0.169440 0.169020 0.168441 0.167869 0.167296 0.166723 0.166158 0.165747 0.165608 0.165594 0.165580 0.165441 0.165037 0.164481 0.163937 0.163393 0.162849 0.162315 0.161928 0.161798 0.161784 0.161771 0.161641 0.161262 0.160742 0.160236 0.159730 0.159225 0.158733 0.158375 0.158256 0.158243 0.158231 0.158112 0.157764 0.157286 0.156822 0.156358 0.155894 0.155444 0.155116 0.155006 0.154995 0.154984 0.154874 0.154555 0.154116 0.153689 0.153262 0.152835 0.152420 0.152119 0.152018 0.152007 0.151997 0.151896 0.151602 0.151197 0.150803 0.150408 0.150014 0.149631 0.149352 0.149259 0.149249 0.149239 0.149146 0.148874 0.148499 0.148134 0.147768 0.147402 0.147045 0.146786 0.146699 0.146690 0.146681 0.146594 0.146340 0.145991 0.145649 0.145306 0.144964 0.144629 0.144386 0.144304 0.144296 
0.266675 0.266937 0.270740 0.288953 0.317810 0.341368 0.364926 0.388484 0.376686 0.369239 0.366080 0.365862 0.365648 0.362542 0.345979 0.319738 0.300029 0.280319 0.260610 0.246478 0.237559 0.235919 0.235806 0.235697 0.234109 0.228277 0.219037 0.212939 0.206841 0.200743 0.195991 0.192992 0.192367 0.192324 0.192281 0.191659 0.188862 0.184430 0.179536 0.174642 0.169748 0.163291 0.159216 0.158301 0.158238 0.158175 0.157265 0.153440 0.147381 0.143006 0.138631 0.134256 0.131383 0.129570 0.129236 0.129213 0.129191 0.128871 0.127658 0.125737 0.124547 0.123357 0.122168 0.121425 0.120956 0.120870 0.120864 0.120858 0.120774 0.120439 0.119909 0.119526 0.119143 0.118760 0.118474 0.118293 0.118257 0.118254 0.118252 0.118216 0.118067 0.117832 0.117640 0.117447 0.117255 0.117096 0.116996 0.116976 0.116974 0.116973 0.116952 0.116866 0.116729 0.116613 0.116497 0.116381 0.116283 0.116222 0.116209 0.116208 0.116207 0.116195 0.116141 0.116057 0.115985 0.115914 0.115842 0.115782 0.115744 0.115737 0.115736 0.115736 0.115728 0.115695 0.115642 0.115598 0.115553 0.115508 0.115470 0.115445 0.115440 0.115440 0.115439 0.115434 0.115413 0.115378 0.115347 0.115316 0.115285 0.115256 0.115238 0.115234 0.115233 
0.147173 0.147169 0.147155 0.147119 0.147072 0.147018 0.146965 0.146912 0.146850 0.146804 0.146784 0.146779 0.146774 0.146754 0.146705 0.146641 0.146569 0.146496 0.146423 0.146348 0.146291 0.146264 0.146257 0.146250 0.146224 0.146159 0.146075 0.145990 0.145905 0.145820 0.145749 0.145695 0.145673 0.145667 0.145661 0.145639 0.145586 0.145516 0.145448 0.145379 0.145311 0.145244 0.145194 0.145173 0.145167 0.145162 0.145140 0.145091 0.145026 0.144962 0.144899 0.144835 0.144772 0.144725 0.144705 0.144699 0.144694 0.144674 0.144627 0.144564 0.144502 0.144440 0.144377 0.144315 0.144267 0.144247 0.144242 0.144236 0.144216 0.144168 0.144104 0.144041 0.143978 0.143915 0.143852 0.143804 0.143783 0.143778 0.143773 0.143752 0.143705 0.143643 0.143581 0.143519 0.143457 0.143397 0.143351 0.143332 0.143327 0.143322 0.143303 0.143257 0.143197 0.143138 0.143079 0.143020 0.142961 0.142917 0.142898 0.142893 
0.166472 0.166451 0.166374 0.166196 0.165961 0.165725 0.165489 0.165254 0.165016 0.164836 0.164757 0.164735 0.164713 0.164635 0.164454 0.164215 0.163976 0.163737 0.163498 0.163261 0.163082 0.163005 0.162984 0.162962 0.162885 0.162706 0.162469 0.162235 0.162001 0.161767 0.161534 0.161358 0.161283 0.161262 0.161241 0.161166 0.160992 0.160763 0.160538 0.160314 0.160090 0.159869 0.159702 0.159632 0.159612 0.159592 0.159521 0.159361 0.159150 0.158944 0.158739 0.158533 0.158345 0.158203 0.158150 0.158135 0.158120 0.158066 0.157944 0.157783 0.157637 0.157490 0.157344 0.157207 0.157104 0.157060 0.157048 0.157035 0.156992 0.156901 0.156782 0.156669 0.156557 0.156444 0.156344 0.156268 0.156237 0.156228 0.156220 0.156189 0.156117 0.156023 0.155936 0.155850 0.155764 0.155683 0.155622 0.155595 0.155588 0.155580 0.155554 0.155497 0.155423 0.155352 0.155281 0.155210 0.155143 0.155093 0.155073 0.155068 0.155062 0.155042 0.154996 0.154935 0.154877 0.154820 0.154763 0.154710 0.154670 0.154652 0.154647 0.154642 0.154625 0.154586 0.154536 0.154489 0.154443 0.154396 0.154351 0.154317 0.154304 0.154300 0.154297 0.154283 0.154252 0.154211 0.154171 0.154132 0.154092 0.154056 0.154028 0.154016 0.154013 
0.197844 0.197777 0.197542 0.197013 0.196315 0.195660 0.195005 0.194350 0.193721 0.193245 0.193046 0.192990 0.192935 0.192740 0.192309 0.191741 0.191222 0.190703 0.190184 0.189731 0.189387 0.189247 0.189207 0.189167 0.189026 0.188711 0.188295 0.187895 0.187495 0.187095 0.186653 0.186319 0.186177 0.186137 0.186097 0.185955 0.185624 0.185186 0.184738 0.184291 0.183843 0.183389 0.183045 0.182896 0.182854 0.182812 0.182662 0.182315 0.181856 0.181407 0.180958 0.180509 0.180070 0.179738 0.179597 0.179557 0.179517 0.179376 0.179054 0.178628 0.178214 0.177800 0.177386 0.176982 0.176677 0.176547 0.176510 0.176474 0.176346 0.176055 0.175670 0.175300 0.174929 0.174559 0.174211 0.173947 0.173836 0.173804 0.173773 0.173662 0.173408 0.173072 0.172777 0.172483 0.172189 0.171914 0.171707 0.171619 0.171594 0.171570 0.171484 0.171311 0.171082 0.170864 0.170645 0.170427 0.170251 0.170119 0.170064 0.170048 0.170032 0.169977 0.169851 0.169684 0.169550 0.169416 0.169282 0.169158 0.169064 0.169024 0.169013 0.169001 0.168961 0.168892 0.168801 0.168709 0.168617 0.168524 0.168452 0.168397 0.168374 0.168368 0.168361 0.168338 0.168282 0.168209 0.168149 0.168090 0.168031 0.167975 0.167933 0.167915 0.167909 0.167904 0.167885 0.167853 0.167811 0.167766 0.167721 0.167677 0.167641 0.167613 0.167602 0.167599 0.167596 0.167585 0.167559 0.167524 0.167495 0.167466 0.167437 0.167410 0.167390 0.167381 0.167378 0.167375 0.167366 0.167350 0.167329 0.167307 0.167285 0.167263 0.167246 0.167232 0.167227 0.167225 0.167224 0.167218 0.167205 0.167188 0.167172 0.167156 0.167141 0.167126 0.167114 0.167109 0.167108 
0.234899 0.234727 0.234275 0.233349 0.232136 0.230952 0.229768 0.228584 0.227430 0.226547 0.226127 0.225968 0.225810 0.225393 0.224518 0.223374 0.222232 0.221089 0.219947 0.218808 0.217938 0.217518 0.217359 0.217199 0.216775 0.215938 0.214842 0.213849 0.212857 0.211865 0.210957 0.210264 0.209943 0.209822 0.209700 0.209381 0.209006 0.208514 0.208045 0.207576 0.207107 0.206645 0.206291 0.206122 0.206057 0.205993 0.205822 0.205478 0.205028 0.204592 0.204156 0.203721 0.203297 0.202974 0.202819 0.202760 0.202702 0.202547 0.202228 0.201811 0.201402 0.200994 0.200586 0.200187 0.199882 0.199735 0.199680 0.199624 0.199478 0.199177 0.198783 0.198399 0.198015 0.197630 0.197254 0.196966 0.196829 0.196776 0.196724 0.196586 0.196302 0.195930 0.195564 0.195198 0.194831 0.194471 0.194196 0.194064 0.194014 0.193964 0.193831 0.193558 0.193200 0.192847 0.192494 0.192142 0.191794 0.191528 0.191401 0.191352 0.191303 0.191174 0.190908 0.190559 0.190213 0.189868 0.189523 0.189181 0.188920 0.188794 0.188747 0.188699 0.188572 0.188311 0.187968 0.187629 0.187290 0.186952 0.186618 0.186362 0.186242 0.186196 0.186150 0.186029 0.185780 0.185454 0.185122 0.184789 0.184457 0.184130 0.183881 0.183761 0.183716 0.183671 0.183553 0.183309 0.182991 0.182678 0.182366 0.182054 0.181748 0.181515 0.181404 0.181362 0.181320 0.181210 0.180987 0.180695 0.180411 0.180126 0.179842 0.179567 0.179356 0.179255 0.179217 0.179180 0.179083 0.178888 0.178633 0.178385 0.178137 0.177890 0.177649 0.177466 0.177379 0.177346 0.177314 0.177231 0.177070 0.176859 0.176655 0.176450 0.176246 0.176049 0.175898 0.175826 0.175799 0.175774 0.175707 0.175582 0.175419 0.175260 0.175101 0.174943 0.174789 0.174671 0.174615 0.174594 0.174575 0.174524 0.174434 0.174316 0.174199 0.174082 0.173965 0.173849 0.173761 0.173718 0.173702 0.173688 0.173649 0.173582 0.173494 0.173405 0.173317 0.173228 0.173139 0.173071 0.173039 0.173026 0.173015 0.172986 0.172936 0.172870 0.172804 0.172737 0.172671 0.172603 0.172551 0.172525 0.172515 0.172507 0.172483 0.172443 0.172391 0.172338 0.172285 0.172232 0.172178 0.172137 0.172117 0.172109 0.172102 0.172084 0.172052 0.172010 0.171968 0.171926 0.171883 0.171840 0.171806 0.171789 0.171783 0.171777 0.171761 0.171735 0.171701 0.171666 0.171632 0.171597 0.171561 0.171534 0.171521 0.171516 0.171511 0.171498 0.171476 0.171448 0.171417 0.171387 0.171357 0.171326 0.171302 0.171291 0.171286 0.171282 0.171271 0.171251 0.171225 0.171200 0.171174 0.171149 0.171123 0.171104 0.171094 0.171091 0.171087 0.171078 0.171062 0.171041 0.171019 0.170997 0.170975 0.170952 0.170935 0.170927 0.170923 0.170920 0.170912 0.170897 0.170878 0.170858 0.170838 0.170819 0.170798 0.170783 0.170775 0.170772 0.170769 0.170762 0.170748 0.170730 0.170712 0.170694 0.170675 0.170657 0.170642 0.170635 0.170633 
0.231459 0.231301 0.230520 0.228607 0.226065 0.223696 0.221327 0.218958 0.216714 0.215026 0.214410 0.214285 0.214163 0.213561 0.212194 0.210377 0.208910 0.207443 0.205976 0.204992 0.204252 0.203966 0.203908 0.203850 0.203566 0.202862 0.201927 0.201038 0.200150 0.199261 0.198416 0.197780 0.197534 0.197484 0.197434 0.197190 0.196582 0.195774 0.194995 0.194216 0.193437 0.192668 0.192089 0.191862 0.191816 0.191770 0.191542 0.190973 0.190217 0.189475 0.188733 0.187991 0.187261 0.186713 0.186492 0.186447 0.186402 0.186179 0.185619 0.184875 0.184166 0.183458 0.182749 0.182083 0.181582 0.181389 0.181350 0.181312 0.181122 0.180659 0.180043 0.179491 0.178938 0.178385 0.177917 0.177564 0.177429 0.177402 0.177375 0.177241 0.176939 0.176539 0.176202 0.175865 0.175527 0.175250 0.175042 0.174961 0.174945 0.174930 0.174853 0.174697 0.174489 0.174306 0.174124 0.173941 0.173781 0.173661 0.173624 0.173617 0.173609 0.173572 0.173473 0.173343 0.173233 0.173123 0.173013 0.172919 0.172848 0.172823 0.172818 0.172813 0.172788 0.172723 0.172637 0.172565 0.172493 0.172421 0.172362 0.172317 0.172300 0.172296 0.172293 0.172275 0.172233 0.172178 0.172129 0.172079 0.172029 0.171986 0.171954 0.171940 0.171938 
0.202700 0.202621 0.202231 0.201286 0.200030 0.198904 0.197778 0.196651 0.195642 0.194882 0.194597 0.194539 0.194483 0.194204 0.193536 0.192649 0.191860 0.191072 0.190283 0.189584 0.189058 0.188855 0.188814 0.188774 0.188572 0.188065 0.187392 0.186722 0.186052 0.185382 0.184740 0.184257 0.184067 0.184029 0.183990 0.183800 0.183332 0.182710 0.182123 0.181537 0.180950 0.180384 0.179958 0.179791 0.179758 0.179724 0.179560 0.179178 0.178671 0.178211 0.177752 0.177292 0.176880 0.176570 0.176463 0.176441 0.176419 0.176313 0.176053 0.175707 0.175415 0.175122 0.174830 0.174581 0.174393 0.174328 0.174315 0.174302 0.174237 0.174075 0.173861 0.173691 0.173521 0.173352 0.173212 0.173107 0.173068 0.173060 0.173052 0.173012 0.172920 0.172799 0.172698 0.172598 0.172497 0.172419 0.172360 0.172337 0.172332 0.172327 0.172304 0.172256 0.172193 0.172139 0.172086 0.172032 0.171991 0.171960 0.171947 0.171945 0.171943 0.171935 0.171914 0.171885 0.171863 0.171841 0.171818 0.171801 0.171788 0.171785 0.171785 
0.189737 0.189690 0.189506 0.189071 0.188497 0.187935 0.187373 0.186811 0.186274 0.185867 0.185701 0.185659 0.185616 0.185452 0.185071 0.184567 0.184086 0.183605 0.183123 0.182663 0.182314 0.182170 0.182133 0.182096 0.181953 0.181619 0.181176 0.180753 0.180330 0.179907 0.179510 0.179209 0.179085 0.179053 0.179021 0.178897 0.178608 0.178225 0.177858 0.177491 0.177123 0.176773 0.176508 0.176398 0.176370 0.176342 0.176233 0.175982 0.175649 0.175328 0.175007 0.174686 0.174380 0.174148 0.174052 0.174027 0.174002 0.173907 0.173681 0.173381 0.173103 0.172824 0.172545 0.172276 0.172073 0.171994 0.171973 0.171953 0.171874 0.171687 0.171440 0.171208 0.170977 0.170746 0.170533 0.170372 0.170307 0.170290 0.170273 0.170208 0.170071 0.169891 0.169728 0.169565 0.169402 0.169275 0.169179 0.169140 0.169130 0.169120 0.169082 0.168992 0.168872 0.168781 0.168689 0.168598 0.168513 0.168449 0.168428 0.168423 0.168417 0.168396 0.168346 0.168280 0.168228 0.168175 0.168122 0.168078 0.168045 0.168031 0.168027 0.168023 0.168009 0.167987 0.167959 0.167930 0.167901 0.167872 0.167857 0.167845 0.167840 0.167839 0.167837 0.167832 0.167820 0.167804 0.167797 0.167791 0.167785 0.167782 0.167780 0.167781 0.167781 0.167782 0.167783 0.167785 0.167787 0.167794 0.167801 0.167809 0.167817 0.167823 0.167825 0.167826 0.167827 0.167830 0.167842 0.167858 0.167874 0.167889 0.167905 0.167925 0.167940 0.167946 0.167948 
0.173630 0.173610 0.173549 0.173410 0.173227 0.173040 0.172854 0.172667 0.172477 0.172333 0.172268 0.172247 0.172226 0.172161 0.172014 0.171820 0.171625 0.171430 0.171234 0.171039 0.170891 0.170825 0.170804 0.170782 0.170716 0.170567 0.170371 0.170175 0.169979 0.169783 0.169588 0.169440 0.169374 0.169353 0.169332 0.169266 0.169121 0.168929 0.168740 0.168550 0.168360 0.168171 0.168028 0.167964 0.167944 0.167924 0.167860 0.167719 0.167534 0.167351 0.167169 0.166986 0.166809 0.166674 0.166614 0.166595 0.166577 0.166517 0.166386 0.166213 0.166046 0.165879 0.165713 0.165551 0.165428 0.165374 0.165357 0.165340 0.165286 0.165167 0.165011 0.164860 0.164709 0.164558 0.164411 0.164299 0.164250 0.164234 0.164219 0.164172 0.164069 0.163933 0.163801 0.163668 0.163536 0.163409 0.163312 0.163270 0.163256 0.163243 0.163201 0.163107 0.162983 0.162864 0.162745 0.162626 0.162510 0.162423 0.162384 0.162371 0.162359 0.162320 0.162232 0.162118 0.162011 0.161904 0.161797 0.161691 0.161611 0.161575 0.161564 0.161553 0.161517 0.161444 0.161348 0.161256 0.161165 0.161073 0.160988 0.160924 0.160898 0.160890 0.160882 0.160856 0.160800 0.160727 0.160657 0.160587 0.160517 0.160457 0.160412 0.160392 0.160385 0.160379 0.160359 0.160315 0.160258 0.160208 0.160159 0.160109 0.160065 0.160031 0.160016 0.160011 0.160007 0.159992 0.159962 0.159922 0.159888 0.159854 0.159820 0.159787 0.159762 0.159751 0.159748 0.159745 0.159736 0.159718 0.159693 0.159668 0.159644 0.159619 0.159600 0.159586 0.159580 0.159578 0.159576 0.159570 0.159557 0.159540 0.159525 0.159510 0.159495 0.159484 0.159475 0.159471 0.159470 0.159469 0.159465 0.159456 0.159444 0.159438 0.159432 0.159426 0.159419 0.159414 0.159412 0.159411 0.159410 0.159408 0.159406 0.159403 0.159401 0.159399 0.159397 0.159396 0.159395 0.159395 0.159395 0.159396 0.159396 0.159397 0.159398 0.159399 0.159400 0.159400 0.159405 0.159408 0.159409 0.159410 0.159410 0.159411 0.159414 0.159418 0.159423 0.159429 0.159434 0.159440 0.159444 0.159445 0.159446 
0.152005 0.151997 0.151949 0.151825 0.151660 0.151491 0.151322 0.151154 0.150982 0.150852 0.150802 0.150793 0.150784 0.150734 0.150604 0.150431 0.150255 0.150080 0.149905 0.149731 0.149600 0.149551 0.149542 0.149533 0.149483 0.149357 0.149189 0.149024 0.148859 0.148693 0.148536 0.148418 0.148373 0.148365 0.148357 0.148312 0.148202 0.148054 0.147914 0.147774 0.147634 0.147500 0.147400 0.147363 0.147356 0.147349 0.147313 0.147216 0.147088 0.146976 0.146863 0.146750 0.146661 0.146594 0.146569 0.146564 0.146560 0.146535 0.146482 0.146411 0.146355 0.146300 0.146245 0.146204 0.146173 0.146164 0.146162 0.146161 0.146152 0.146131 0.146102 0.146087 0.146071 0.146055 0.146048 0.146044 0.146042 0.146042 0.146041 0.146040 0.146044 0.146048 0.146058 0.146067 0.146077 0.146094 0.146107 0.146113 0.146114 0.146115 0.146120 0.146137 0.146160 0.146189 0.146218 0.146246 0.146280 0.146305 0.146315 0.146317 
