0.145940 0.145933 0.145842 0.145453 0.144835 0.144287 0.143738 0.143190 0.142675 0.142350 0.142280 0.142274 0.142268 0.142197 0.141885 0.141390 0.140921 0.140453 0.139984 0.139523 0.139232 0.139167 0.139162 0.139157 0.139091 0.138792 0.138317 0.137814 0.137312 0.136810 0.136287 0.135956 0.135883 0.135877 0.135871 0.135798 0.135468 0.134946 0.134436 0.133925 0.133415 0.132922 0.132610 0.132542 0.132537 0.132532 0.132464 0.132166 0.131694 0.131247 0.130800 0.130353 0.129931 0.129664 0.129607 0.129602 0.129597 0.129540 0.129285 0.128880 0.128495 0.128109 0.127723 0.127354 0.127121 0.127070 0.127066 
0.145945 0.145954 0.146035 0.146240 0.146515 0.146746 0.146977 0.147209 0.147421 0.147580 0.147637 0.147644 0.147651 0.147707 0.147860 0.148065 0.148274 0.148482 0.148691 0.148907 0.149069 0.149129 0.149136 0.149143 0.149204 0.149374 0.149602 0.149847 0.150091 0.150336 0.150596 0.150791 0.150865 0.150873 0.150882 0.150956 0.151164 0.151441 0.151736 0.152031 0.152326 0.152637 0.152869 0.152955 0.152965 0.152975 0.153062 0.153306 0.153631 0.153969 0.154307 0.154645 0.154998 0.155262 0.155360 0.155372 0.155383 0.155482 0.155756 0.156122 0.156503 0.156884 0.157265 0.157658 0.157952 0.158061 0.158073 0.158086 0.158195 0.158502 0.158910 0.159333 0.159755 0.160178 0.160613 0.160938 0.161060 0.161075 0.161089 0.161211 0.161550 0.162003 0.162471 0.162938 0.163406 0.163890 0.164253 0.164386 0.164401 0.164417 0.164551 0.164925 0.165425 0.165940 0.166455 0.166970 0.167508 0.167911 0.168059 0.168076 0.168093 0.168243 0.168657 0.169211 0.169782 0.170353 0.170924 0.171514 0.171956 0.172119 0.172138 0.172156 0.172320 0.172777 0.173388 0.174015 0.174641 0.175267 0.175918 0.176406 0.176585 0.176606 0.176627 0.176807 0.177309 0.177979 0.178668 0.179356 0.180045 0.180751 0.181280 0.181474 0.181496 0.181519 0.181713 0.182258 0.182985 0.183731 0.184477 0.185222 0.185983 0.186553 0.186760 0.186784 0.186808 0.187014 0.187592 0.188363 0.189141 0.189920 0.190698 0.191474 0.192055 0.192266 0.192290 0.192315 0.192526 0.193104 0.193877 0.194639 0.195401 0.196163 0.196912 0.197472 0.197675 0.197699 0.197722 0.197921 0.198466 0.199194 0.199896 0.200598 0.201300 0.201975 0.202480 0.202658 0.202679 0.202700 0.202877 0.203344 0.203967 0.204555 0.205144 0.205733 0.206270 0.206673 0.206815 0.206831 0.206847 0.206988 0.207359 0.207855 0.208296 0.208736 0.209177 0.209558 0.209843 0.209941 0.209952 0.209963 0.210054 0.210287 0.210598 0.210853 0.211107 0.211361 0.211535 0.211665 0.211703 0.211707 0.211711 0.211746 0.211822 0.211923 0.211955 0.211988 0.212020 0.211988 0.211965 0.211946 0.211943 0.211941 0.211918 0.211836 0.211726 0.211558 0.211389 0.211221 0.210992 0.210821 0.210752 0.210744 0.210736 0.210664 0.210443 0.210148 0.209793 0.209438 0.209084 0.208662 0.208346 0.208227 0.208213 0.208199 0.208078 0.207732 0.207271 0.206757 0.206244 0.205730 0.205161 0.204735 0.204580 0.204562 0.204544 0.204389 0.203948 0.203359 0.202732 0.202105 0.201477 0.200813 0.200316 0.200132 0.200111 
0.145942 0.145941 0.145924 0.145732 0.145428 0.145028 0.144628 0.144228 0.143933 0.143747 0.143708 0.143705 0.143702 0.143665 0.143511 0.143266 0.143053 0.142839 0.142626 0.142381 0.142227 0.142191 0.142188 0.142185 0.142148 0.141978 0.141707 0.141432 0.141157 0.140881 0.140573 0.140378 0.140331 0.140327 0.140324 0.140274 0.139990 0.139542 0.138829 0.138117 0.137405 0.136343 0.135672 0.135509 0.135496 0.135484 0.135317 0.134534 0.133292 0.131777 0.130263 0.128748 0.127039 0.125960 0.125731 0.125714 0.125697 0.125470 0.124532 0.123044 0.121995 0.120947 0.119898 0.119219 0.118790 0.118711 0.118705 0.118699 0.118622 0.118324 0.117850 0.117528 0.117205 0.116882 0.116654 0.116510 0.116483 0.116481 0.116479 0.116452 0.116339 0.116161 0.116021 0.115881 0.115741 0.115626 0.115554 0.115539 0.115538 0.115536 0.115522 0.115459 0.115359 0.115272 0.115185 0.115099 0.115023 0.114976 0.114965 0.114965 0.114964 0.114954 0.114911 0.114843 0.114784 0.114724 0.114664 0.114612 0.114579 0.114572 0.114571 0.114571 0.114564 0.114534 0.114487 0.114446 0.114405 0.114364 0.114328 0.114306 0.114301 0.114301 0.114300 0.114296 0.114276 0.114244 0.114217 0.114190 0.114163 0.114140 0.114126 0.114123 0.114123 0.114122 0.114120 0.114107 0.114088 0.114072 0.114056 0.114040 0.114027 0.114019 0.114018 0.114017 
0.132537 0.132534 0.132525 0.132501 0.132469 0.132432 0.132396 0.132360 0.132321 0.132292 0.132279 0.132277 0.132274 0.132261 0.132228 0.132185 0.132138 0.132092 0.132045 0.131995 0.131957 0.131941 0.131938 0.131934 0.131918 0.131876 0.131821 0.131761 0.131702 0.131643 0.131580 0.131533 0.131513 0.131509 0.131504 0.131484 0.131433 0.131365 0.131294 0.131224 0.131153 0.131080 0.131024 0.131002 0.130997 0.130992 0.130969 0.130928 0.130873 0.130828 0.130783 0.130739 0.130695 0.130662 0.130649 0.130646 0.130643 0.130630 0.130598 0.130555 0.130514 0.130472 0.130431 0.130390 0.130359 0.130346 0.130344 0.130341 0.130329 0.130298 0.130258 0.130219 0.130179 0.130140 0.130100 0.130071 0.130059 0.130056 0.130054 0.130042 0.130014 0.129977 0.129940 0.129903 0.129866 0.129830 0.129803 0.129792 0.129789 0.129787 0.129776 0.129750 0.129715 0.129681 0.129646 0.129611 0.129577 0.129551 0.129541 0.129539 0.129536 0.129526 0.129501 0.129467 0.129434 0.129400 0.129366 0.129332 0.129307 0.129297 0.129294 
0.142273 0.142272 0.142263 0.142240 0.142209 0.142168 0.142126 0.142085 0.142033 0.141994 0.141977 0.141973 0.141969 0.141952 0.141904 0.141842 0.141769 0.141697 0.141624 0.141547 0.141489 0.141464 0.141459 0.141454 0.141428 0.141365 0.141281 0.141197 0.141113 0.141030 0.140949 0.140888 0.140872 0.140868 0.140865 0.140848 0.140806 0.140750 0.140692 0.140634 0.140576 0.140515 0.140469 0.140450 0.140446 0.140441 0.140422 0.140372 0.140307 0.140238 0.140168 0.140098 0.140025 0.139969 0.139945 0.139940 0.139935 0.139911 0.139851 0.139771 0.139685 0.139600 0.139514 0.139423 0.139355 0.139326 0.139320 0.139314 0.139285 0.139213 0.139117 0.139018 0.138919 0.138820 0.138721 0.138646 0.138616 0.138609 0.138602 0.138572 0.138496 0.138396 0.138299 0.138202 0.138105 0.138013 0.137943 0.137916 0.137910 0.137904 0.137877 0.137812 0.137725 0.137645 0.137564 0.137484 0.137408 0.137350 0.137329 0.137324 0.137319 0.137298 0.137245 0.137175 0.137110 0.137045 0.136981 0.136919 0.136873 0.136856 0.136852 0.136848 0.136831 0.136788 0.136730 0.136677 0.136624 0.136570 0.136519 0.136481 0.136466 0.136463 0.136460 0.136445 0.136408 0.136360 0.136314 0.136268 0.136222 0.136177 0.136143 0.136130 0.136127 0.136125 0.136112 0.136079 0.136035 0.135993 0.135951 0.135909 0.135868 0.135836 0.135824 0.135821 0.135819 0.135806 0.135775 0.135734 0.135694 0.135653 0.135613 0.135573 0.135542 0.135530 0.135527 
0.147643 0.147641 0.147631 0.147603 0.147566 0.147522 0.147478 0.147434 0.147382 0.147343 0.147326 0.147322 0.147318 0.147301 0.147254 0.147192 0.147120 0.147047 0.146974 0.146889 0.146824 0.146796 0.146790 0.146783 0.146755 0.146680 0.146581 0.146472 0.146362 0.146252 0.146138 0.146052 0.146017 0.146009 0.146001 0.145966 0.145913 0.145841 0.145779 0.145718 0.145656 0.145590 0.145541 0.145521 0.145516 0.145511 0.145491 0.145441 0.145374 0.145304 0.145233 0.145163 0.145090 0.145034 0.145011 0.145006 0.145000 0.144977 0.144920 0.144844 0.144764 0.144683 0.144603 0.144520 0.144457 0.144430 0.144423 0.144417 0.144390 0.144323 0.144234 0.144140 0.144046 0.143952 0.143855 0.143782 0.143751 0.143743 0.143736 0.143704 0.143623 0.143517 0.143407 0.143298 0.143188 0.143076 0.142992 0.142957 0.142949 0.142941 0.142907 0.142822 0.142709 0.142600 0.142490 0.142380 0.142275 0.142195 0.142163 0.142155 0.142148 0.142116 0.142044 0.141948 0.141857 0.141766 0.141675 0.141592 0.141529 0.141504 0.141498 0.141492 0.141466 0.141408 0.141331 0.141258 0.141186 0.141114 0.141050 0.141001 0.140981 0.140977 0.140972 0.140952 0.140905 0.140842 0.140785 0.140728 0.140670 0.140617 0.140577 0.140560 0.140557 0.140553 0.140537 0.140497 0.140445 0.140397 0.140348 0.140300 0.140253 0.140217 0.140203 0.140200 0.140197 0.140183 0.140148 0.140103 0.140059 0.140015 0.139971 0.139927 0.139894 0.139881 0.139878 0.139875 0.139862 0.139830 0.139788 0.139745 0.139703 0.139661 0.139619 0.139586 0.139573 0.139570 0.139567 0.139554 0.139522 0.139480 0.139437 0.139394 0.139351 0.139307 0.139274 0.139261 0.139257 
0.150872 0.150865 0.150828 0.150731 0.150602 0.150460 0.150318 0.150176 0.150023 0.149908 0.149861 0.149852 0.149843 0.149797 0.149676 0.149515 0.149352 0.149190 0.149027 0.148862 0.148738 0.148691 0.148682 0.148673 0.148626 0.148511 0.148358 0.148235 0.148112 0.147989 0.147859 0.147761 0.147722 0.147715 0.147707 0.147667 0.147562 0.147423 0.147274 0.147126 0.146977 0.146819 0.146700 0.146652 0.146642 0.146633 0.146585 0.146461 0.146296 0.146126 0.145956 0.145787 0.145620 0.145494 0.145446 0.145437 0.145427 0.145380 0.145262 0.145105 0.144961 0.144817 0.144672 0.144540 0.144441 0.144402 0.144395 0.144388 0.144352 0.144264 0.144147 0.144042 0.143936 0.143831 0.143734 0.143662 0.143636 0.143631 0.143626 0.143600 0.143535 0.143447 0.143370 0.143292 0.143215 0.143145 0.143092 0.143072 0.143068 0.143064 0.143044 0.142995 0.142930 0.142869 0.142808 0.142747 0.142690 0.142647 0.142630 0.142627 0.142624 0.142607 0.142567 0.142513 0.142461 0.142408 0.142355 0.142304 0.142266 0.142251 0.142249 0.142246 0.142231 0.142194 0.142143 0.142094 0.142044 0.141995 0.141945 0.141908 0.141893 0.141890 
0.158071 0.158061 0.158031 0.157967 0.157882 0.157795 0.157707 0.157620 0.157530 0.157461 0.157428 0.157416 0.157404 0.157371 0.157298 0.157203 0.157107 0.157011 0.156916 0.156816 0.156741 0.156705 0.156693 0.156680 0.156644 0.156567 0.156466 0.156363 0.156261 0.156159 0.156051 0.155969 0.155932 0.155919 0.155905 0.155868 0.155788 0.155683 0.155577 0.155471 0.155365 0.155257 0.155175 0.155137 0.155124 0.155111 0.155074 0.154995 0.154892 0.154785 0.154678 0.154571 0.154464 0.154383 0.154345 0.154332 0.154319 0.154281 0.154202 0.154098 0.153992 0.153885 0.153779 0.153672 0.153591 0.153553 0.153540 0.153526 0.153488 0.153406 0.153297 0.153186 0.153076 0.152965 0.152856 0.152772 0.152733 0.152719 0.152705 0.152666 0.152578 0.152464 0.152350 0.152235 0.152120 0.152005 0.151918 0.151876 0.151862 0.151847 0.151806 0.151716 0.151598 0.151496 0.151393 0.151291 0.151195 0.151122 0.151089 0.151078 0.151066 0.151033 0.150964 0.150872 0.150784 0.150697 0.150609 0.150527 0.150464 0.150435 0.150425 0.150415 0.150387 0.150326 0.150246 0.150169 0.150092 0.150015 0.149943 0.149888 0.149862 0.149853 0.149845 0.149819 0.149766 0.149695 0.149628 0.149561 0.149493 0.149429 0.149381 0.149358 0.149350 0.149342 0.149320 0.149271 0.149208 0.149148 0.149088 0.149028 0.148970 0.148925 0.148905 0.148898 0.148891 0.148870 0.148827 0.148770 0.148716 0.148662 0.148608 0.148554 0.148513 0.148494 0.148487 0.148481 0.148462 0.148423 0.148372 0.148323 0.148274 0.148225 0.148175 0.148138 0.148120 0.148114 0.148108 0.148090 0.148055 0.148009 0.147963 0.147917 0.147870 0.147824 0.147788 0.147773 0.147768 0.147762 0.147747 0.147714 0.147670 0.147627 0.147583 0.147539 0.147496 0.147464 0.147449 0.147444 0.147439 0.147424 0.147393 0.147351 0.147309 0.147268 0.147226 0.147186 0.147156 0.147142 0.147137 0.147132 0.147118 0.147088 0.147048 0.147008 0.146968 0.146928 0.146890 0.146861 0.146847 0.146842 0.146837 0.146823 0.146794 0.146755 0.146716 0.146678 0.146639 0.146601 0.146572 0.146558 0.146553 0.146548 0.146535 0.146505 0.146466 0.146428 0.146390 0.146352 0.146313 0.146284 0.146270 0.146266 
0.164397 0.164380 0.164309 0.164130 0.163893 0.163648 0.163403 0.163159 0.162907 0.162717 0.162638 0.162620 0.162601 0.162523 0.162328 0.162070 0.161814 0.161558 0.161303 0.161048 0.160856 0.160777 0.160758 0.160740 0.160661 0.160464 0.160204 0.159947 0.159689 0.159432 0.159177 0.158985 0.158908 0.158889 0.158871 0.158794 0.158604 0.158352 0.158101 0.157850 0.157600 0.157351 0.157164 0.157087 0.157069 0.157051 0.156975 0.156787 0.156539 0.156289 0.156040 0.155790 0.155541 0.155352 0.155275 0.155257 0.155239 0.155162 0.154976 0.154729 0.154522 0.154314 0.154107 0.153930 0.153798 0.153745 0.153733 0.153721 0.153669 0.153545 0.153381 0.153235 0.153089 0.152943 0.152810 0.152709 0.152671 0.152663 0.152654 0.152616 0.152525 0.152405 0.152296 0.152187 0.152078 0.151973 0.151893 0.151864 0.151857 0.151850 0.151821 0.151750 0.151655 0.151568 0.151481 0.151394 0.151311 0.151248 0.151224 0.151219 0.151214 0.151191 0.151134 0.151060 0.150989 0.150918 0.150847 0.150780 0.150728 0.150707 0.150702 0.150698 0.150679 0.150633 0.150572 0.150512 0.150452 0.150393 0.150336 0.150292 0.150274 0.150270 0.150266 0.150248 0.150208 0.150155 0.150101 0.150047 0.149994 0.149942 0.149903 0.149887 0.149883 
0.168071 0.168053 0.167978 0.167794 0.167552 0.167305 0.167058 0.166811 0.166554 0.166360 0.166278 0.166257 0.166237 0.166154 0.165955 0.165692 0.165431 0.165169 0.164907 0.164642 0.164441 0.164356 0.164335 0.164314 0.164231 0.164034 0.163773 0.163510 0.163247 0.162984 0.162724 0.162528 0.162445 0.162424 0.162403 0.162319 0.162119 0.161855 0.161602 0.161349 0.161096 0.160845 0.160655 0.160577 0.160557 0.160537 0.160459 0.160269 0.160018 0.159765 0.159511 0.159257 0.159007 0.158819 0.158740 0.158721 0.158701 0.158622 0.158434 0.158185 0.157938 0.157690 0.157442 0.157224 0.157059 0.156998 0.156982 0.156967 0.156907 0.156765 0.156578 0.156411 0.156245 0.156079 0.155922 0.155803 0.155758 0.155747 0.155735 0.155691 0.155584 0.155444 0.155313 0.155181 0.155050 0.154930 0.154838 0.154801 0.154791 0.154782 0.154744 0.154662 0.154553 0.154447 0.154341 0.154236 0.154140 0.154069 0.154039 0.154031 0.154024 0.153994 0.153924 0.153830 0.153746 0.153661 0.153576 0.153495 0.153433 0.153408 0.153402 0.153396 0.153372 0.153313 0.153236 0.153163 0.153090 0.153017 0.152945 0.152891 0.152869 0.152863 0.152858 0.152838 0.152788 0.152723 0.152659 0.152595 0.152530 0.152469 0.152423 0.152403 0.152398 0.152393 0.152374 0.152328 0.152268 0.152208 0.152148 0.152088 0.152030 0.151987 0.151969 0.151964 
0.172133 0.172113 0.172026 0.171807 0.171515 0.171214 0.170914 0.170613 0.170303 0.170070 0.169974 0.169952 0.169930 0.169834 0.169586 0.169258 0.168927 0.168596 0.168265 0.167940 0.167695 0.167597 0.167575 0.167553 0.167455 0.167214 0.166893 0.166573 0.166253 0.165933 0.165615 0.165375 0.165279 0.165257 0.165235 0.165141 0.164908 0.164599 0.164291 0.163983 0.163675 0.163366 0.163134 0.163040 0.163019 0.162998 0.162904 0.162672 0.162363 0.162056 0.161748 0.161441 0.161138 0.160910 0.160817 0.160796 0.160777 0.160689 0.160504 0.160257 0.160031 0.159805 0.159578 0.159381 0.159232 0.159174 0.159161 0.159148 0.159089 0.158952 0.158770 0.158604 0.158439 0.158274 0.158127 0.158017 0.157973 0.157963 0.157953 0.157910 0.157806 0.157668 0.157542 0.157416 0.157291 0.157176 0.157089 0.157055 0.157047 0.157039 0.157005 0.156922 0.156812 0.156712 0.156611 0.156511 0.156416 0.156344 0.156317 0.156310 0.156304 0.156276 0.156208 0.156117 0.156033 0.155949 0.155865 0.155784 0.155723 0.155700 0.155695 0.155689 0.155666 0.155608 0.155530 0.155456 0.155382 0.155307 0.155236 0.155181 0.155160 0.155156 
0.181489 0.181459 0.181359 0.181130 0.180828 0.180524 0.180220 0.179916 0.179603 0.179365 0.179260 0.179228 0.179197 0.179091 0.178849 0.178530 0.178210 0.177890 0.177569 0.177251 0.177009 0.176904 0.176872 0.176841 0.176735 0.176493 0.176174 0.175859 0.175543 0.175228 0.174920 0.174686 0.174582 0.174551 0.174520 0.174417 0.174185 0.173878 0.173577 0.173277 0.172976 0.172678 0.172452 0.172354 0.172325 0.172296 0.172197 0.171975 0.171682 0.171391 0.171100 0.170808 0.170522 0.170306 0.170212 0.170184 0.170156 0.170062 0.169850 0.169569 0.169292 0.169015 0.168737 0.168459 0.168248 0.168156 0.168128 0.168101 0.168008 0.167798 0.167521 0.167247 0.166973 0.166699 0.166428 0.166223 0.166133 0.166106 0.166079 0.165990 0.165787 0.165520 0.165262 0.165004 0.164746 0.164492 0.164300 0.164217 0.164193 0.164172 0.164104 0.163959 0.163768 0.163585 0.163402 0.163220 0.163059 0.162937 0.162887 0.162872 0.162857 0.162807 0.162695 0.162547 0.162413 0.162278 0.162143 0.162019 0.161924 0.161883 0.161870 0.161858 0.161816 0.161727 0.161609 0.161505 0.161400 0.161296 0.161192 0.161113 0.161082 0.161073 0.161064 0.161035 0.160967 0.160878 0.160788 0.160699 0.160610 0.160531 0.160472 0.160446 0.160438 0.160430 0.160403 0.160343 0.160263 0.160192 0.160121 0.160050 0.159981 0.159929 0.159905 0.159899 0.159892 0.159868 0.159820 0.159756 0.159694 0.159633 0.159571 0.159512 0.159467 0.159449 0.159443 0.159438 0.159420 0.159379 0.159326 0.159273 0.159220 0.159167 0.159119 0.159083 0.159067 0.159062 0.159057 0.159041 0.159004 0.158955 0.158910 0.158865 0.158820 0.158775 0.158741 0.158725 0.158721 
0.186775 0.186739 0.186580 0.186188 0.185669 0.185136 0.184603 0.184070 0.183531 0.183124 0.182960 0.182922 0.182884 0.182720 0.182315 0.181778 0.181242 0.180707 0.180171 0.179644 0.179247 0.179089 0.179052 0.179016 0.178859 0.178474 0.177964 0.177469 0.176974 0.176479 0.175996 0.175632 0.175489 0.175455 0.175423 0.175280 0.174931 0.174469 0.174018 0.173567 0.173115 0.172668 0.172331 0.172195 0.172164 0.172133 0.171997 0.171668 0.171232 0.170803 0.170374 0.169945 0.169527 0.169212 0.169085 0.169056 0.169027 0.168900 0.168594 0.168188 0.167801 0.167415 0.167029 0.166722 0.166491 0.166399 0.166378 0.166358 0.166268 0.166060 0.165784 0.165541 0.165298 0.165054 0.164843 0.164683 0.164621 0.164606 0.164592 0.164530 0.164382 0.164186 0.164015 0.163844 0.163674 0.163518 0.163400 0.163354 0.163344 0.163333 0.163288 0.163178 0.163031 0.162901 0.162771 0.162641 0.162519 0.162427 0.162393 0.162385 0.162377 0.162342 0.162257 0.162145 0.162044 0.161942 0.161841 0.161745 0.161672 0.161646 0.161639 0.161633 0.161606 0.161541 0.161453 0.161374 0.161295 0.161216 0.161140 0.161084 0.161063 0.161058 
0.197684 0.197625 0.197319 0.196551 0.195530 0.194528 0.193526 0.192523 0.191540 0.190801 0.190516 0.190461 0.190406 0.190123 0.189417 0.188480 0.187579 0.186679 0.185778 0.184925 0.184283 0.184040 0.183993 0.183946 0.183703 0.183096 0.182288 0.181515 0.180743 0.179970 0.179232 0.178676 0.178463 0.178422 0.178381 0.178169 0.177636 0.176927 0.176247 0.175566 0.174886 0.174236 0.173746 0.173561 0.173525 0.173490 0.173305 0.172842 0.172225 0.171651 0.171077 0.170503 0.169977 0.169582 0.169433 0.169405 0.169376 0.169229 0.168942 0.168562 0.168271 0.167981 0.167691 0.167449 0.167267 0.167196 0.167182 0.167169 0.167098 0.166951 0.166755 0.166579 0.166402 0.166226 0.166062 0.165939 0.165901 0.165894 0.165887 0.165849 0.165751 0.165620 0.165510 0.165400 0.165290 0.165196 0.165124 0.165100 0.165095 0.165090 0.165065 0.165005 0.164924 0.164860 0.164796 0.164732 0.164684 0.164649 0.164635 0.164632 
0.206811 0.206730 0.206402 0.205619 0.204583 0.203578 0.202573 0.201568 0.200595 0.199859 0.199559 0.199486 0.199412 0.199114 0.198405 0.197466 0.196578 0.195690 0.194803 0.193947 0.193301 0.193038 0.192973 0.192909 0.192648 0.192033 0.191219 0.190451 0.189683 0.188915 0.188184 0.187632 0.187410 0.187355 0.187301 0.187080 0.186556 0.185862 0.185197 0.184532 0.183867 0.183232 0.182752 0.182559 0.182512 0.182465 0.182276 0.181827 0.181232 0.180665 0.180097 0.179529 0.178989 0.178581 0.178414 0.178373 0.178333 0.178167 0.177784 0.177277 0.176795 0.176313 0.175831 0.175389 0.175056 0.174919 0.174885 0.174852 0.174716 0.174394 0.173969 0.173643 0.173318 0.172993 0.172735 0.172540 0.172466 0.172447 0.172429 0.172356 0.172184 0.171956 0.171754 0.171552 0.171350 0.171155 0.171008 0.170950 0.170936 0.170923 0.170870 0.170742 0.170572 0.170406 0.170240 0.170074 0.169926 0.169815 0.169769 0.169757 0.169745 0.169697 0.169593 0.169455 0.169321 0.169187 0.169054 0.168937 0.168850 0.168813 0.168804 0.168794 0.168757 0.168669 0.168553 0.168454 0.168355 0.168257 0.168167 0.168099 0.168073 0.168067 
0.211917 0.211813 0.211477 0.210739 0.209765 0.208839 0.207912 0.206986 0.206103 0.205433 0.205139 0.205048 0.204957 0.204665 0.204018 0.203167 0.202350 0.201533 0.200716 0.199944 0.199358 0.199104 0.199025 0.198947 0.198694 0.198138 0.197406 0.196711 0.196017 0.195323 0.194663 0.194162 0.193944 0.193876 0.193809 0.193592 0.193117 0.192492 0.191889 0.191286 0.190683 0.190106 0.189668 0.189479 0.189420 0.189362 0.189174 0.188759 0.188212 0.187685 0.187158 0.186630 0.186135 0.185759 0.185596 0.185545 0.185495 0.185333 0.184975 0.184504 0.184060 0.183617 0.183174 0.182748 0.182426 0.182284 0.182241 0.182197 0.182056 0.181753 0.181354 0.180978 0.180602 0.180226 0.179861 0.179584 0.179471 0.179435 0.179401 0.179288 0.179039 0.178710 0.178391 0.178072 0.177753 0.177470 0.177255 0.177161 0.177132 0.177103 0.177010 0.176803 0.176531 0.176283 0.176035 0.175787 0.175647 0.175540 0.175492 0.175478 0.175463 0.175416 0.175313 0.175178 0.175066 0.174954 0.174842 0.174723 0.174632 0.174591 0.174578 0.174566 0.174528 0.174453 0.174353 0.174248 0.174142 0.174036 0.173940 0.173866 0.173836 0.173827 0.173818 0.173787 0.173715 0.173621 0.173527 0.173432 0.173337 0.173252 0.173187 0.173157 0.173148 0.173138 0.173108 0.173037 0.172944 0.172862 0.172781 0.172699 0.172618 0.172556 0.172529 0.172520 0.172512 0.172484 0.172431 0.172362 0.172295 0.172227 0.172159 0.172092 0.172041 0.172023 0.172017 0.172011 0.171993 0.171951 0.171895 0.171840 0.171785 0.171730 0.171686 0.171654 0.171639 0.171634 
0.204541 0.204457 0.204085 0.203191 0.202006 0.200891 0.199775 0.198660 0.197619 0.196833 0.196526 0.196456 0.196388 0.196089 0.195365 0.194404 0.193501 0.192598 0.191696 0.190853 0.190218 0.189967 0.189910 0.189854 0.189608 0.189029 0.188262 0.187542 0.186823 0.186103 0.185436 0.184933 0.184734 0.184689 0.184645 0.184450 0.183994 0.183388 0.182830 0.182272 0.181713 0.181197 0.180807 0.180653 0.180618 0.180583 0.180431 0.180082 0.179619 0.179190 0.178761 0.178332 0.177940 0.177644 0.177527 0.177500 0.177474 0.177358 0.177098 0.176754 0.176485 0.176217 0.175948 0.175766 0.175629 0.175573 0.175560 0.175547 0.175491 0.175366 0.175201 0.175032 0.174863 0.174694 0.174529 0.174404 0.174352 0.174340 0.174328 0.174276 0.174157 0.173999 0.173835 0.173672 0.173508 0.173340 0.173214 0.173160 0.173148 0.173136 0.173081 0.172956 0.172789 0.172618 0.172448 0.172278 0.172109 0.171982 0.171929 0.171917 
