0.131596 0.131592 0.131533 0.131273 0.130860 0.130490 0.130121 0.129751 0.129410 0.129195 0.129148 0.129145 0.129141 0.129095 0.128885 0.128553 0.128229 0.127905 0.127581 0.127262 0.127060 0.127016 0.127013 0.127010 0.126965 0.126765 0.126447 0.126128 0.125810 0.125491 0.125174 0.124973 0.124929 0.124926 0.124923 0.124879 0.124681 0.124367 0.124062 0.123758 0.123453 0.123161 0.122977 0.122937 0.122934 0.122931 0.122892 0.122715 0.122435 0.122172 0.121909 0.121646 0.121400 0.121245 0.121212 0.121209 0.121207 0.121174 0.121027 0.120796 0.120580 0.120363 0.120147 0.119946 0.119819 0.119792 0.119790 0.119788 0.119761 0.119641 0.119450 0.119272 0.119094 0.118915 0.118748 0.118643 0.118620 0.118618 
0.131599 0.131606 0.131667 0.131836 0.132068 0.132265 0.132463 0.132660 0.132839 0.132969 0.133012 0.133017 0.133021 0.133064 0.133189 0.133360 0.133532 0.133704 0.133877 0.134055 0.134184 0.134229 0.134234 0.134239 0.134284 0.134420 0.134607 0.134804 0.135001 0.135198 0.135405 0.135556 0.135609 0.135614 0.135620 0.135673 0.135830 0.136047 0.136273 0.136498 0.136724 0.136959 0.137131 0.137190 0.137196 0.137202 0.137262 0.137438 0.137681 0.137931 0.138181 0.138431 0.138688 0.138875 0.138939 0.138946 0.138953 0.139018 0.139210 0.139474 0.139745 0.140016 0.140287 0.140566 0.140769 0.140839 0.140846 0.140853 0.140923 0.141131 0.141416 0.141709 0.142001 0.142294 0.142594 0.142813 0.142888 0.142896 0.142904 0.142979 0.143203 0.143510 0.143826 0.144141 0.144457 0.144781 0.145017 0.145098 0.145107 0.145115 0.145197 0.145439 0.145772 0.146114 0.146456 0.146798 0.147149 0.147405 0.147494 0.147503 0.147512 0.147601 0.147863 0.148223 0.148593 0.148963 0.149333 0.149712 0.149988 0.150083 0.150093 0.150103 0.150198 0.150481 0.150870 0.151269 0.151668 0.152068 0.152477 0.152775 0.152878 0.152889 0.152899 0.153003 0.153309 0.153730 0.154162 0.154595 0.155027 0.155472 0.155797 0.155908 0.155920 0.155932 0.156044 0.156379 0.156839 0.157315 0.157790 0.158265 0.158758 0.159117 0.159241 0.159254 0.159267 0.159392 0.159764 0.160275 0.160805 0.161335 0.161864 0.162413 0.162814 0.162952 0.162967 0.162981 0.163120 0.163535 0.164104 0.164696 0.165287 0.165879 0.166492 0.166939 0.167094 0.167110 0.167126 0.167281 0.167744 0.168379 0.169032 0.169685 0.170337 0.171012 0.171503 0.171673 0.171690 0.171708 0.171878 0.172382 0.173073 0.173789 0.174506 0.175222 0.175953 0.176486 0.176670 0.176689 0.176708 0.176890 0.177437 0.178187 0.178959 0.179730 0.180502 0.181286 0.181858 0.182053 0.182073 0.182094 0.182291 0.182880 0.183687 0.184513 0.185339 0.186165 0.187011 0.187628 0.187840 0.187862 
0.131597 0.131596 0.131573 0.131412 0.131156 0.130854 0.130553 0.130251 0.130008 0.129854 0.129824 0.129822 0.129820 0.129791 0.129661 0.129455 0.129292 0.129129 0.128967 0.128825 0.128736 0.128716 0.128714 0.128713 0.128692 0.128597 0.128447 0.128248 0.128048 0.127849 0.127539 0.127344 0.127292 0.127288 0.127284 0.127230 0.126939 0.126478 0.125859 0.125241 0.124623 0.123625 0.122996 0.122837 0.122826 0.122814 0.122654 0.121936 0.120798 0.119917 0.119036 0.118155 0.117567 0.117195 0.117128 0.117123 0.117118 0.117053 0.116802 0.116405 0.116150 0.115895 0.115641 0.115475 0.115370 0.115350 0.115349 0.115347 0.115328 0.115249 0.115124 0.115030 0.114936 0.114841 0.114767 0.114719 0.114710 0.114709 0.114709 0.114699 0.114659 0.114596 0.114544 0.114491 0.114438 0.114395 0.114367 0.114361 0.114361 0.114361 0.114355 0.114331 0.114294 0.114263 0.114231 0.114200 0.114175 0.114158 0.114155 0.114155 0.114155 0.114151 0.114138 0.114116 0.114098 0.114080 0.114062 0.114048 0.114039 0.114037 0.114037 0.114037 0.114035 0.114028 0.114016 0.114007 0.113998 0.113989 0.113982 0.113978 0.113977 0.113977 0.113977 0.113976 0.113972 0.113967 0.113963 0.113959 0.113955 0.113952 0.113951 0.113950 0.113950 
0.121209 0.121207 0.121197 0.121172 0.121139 0.121105 0.121070 0.121036 0.121000 0.120973 0.120962 0.120960 0.120958 0.120948 0.120920 0.120883 0.120845 0.120807 0.120769 0.120730 0.120700 0.120688 0.120686 0.120684 0.120673 0.120642 0.120601 0.120559 0.120517 0.120475 0.120432 0.120401 0.120388 0.120386 0.120383 0.120371 0.120343 0.120305 0.120274 0.120244 0.120213 0.120185 0.120163 0.120155 0.120153 0.120152 0.120143 0.120123 0.120095 0.120069 0.120044 0.120018 0.119993 0.119975 0.119969 0.119967 0.119966 0.119960 0.119943 0.119920 0.119899 0.119878 0.119858 0.119839 0.119825 0.119820 0.119819 0.119818 0.119813 0.119800 0.119783 0.119767 0.119751 0.119735 0.119721 0.119710 0.119706 0.119705 
0.124926 0.124924 0.124915 0.124892 0.124862 0.124829 0.124796 0.124763 0.124728 0.124701 0.124690 0.124688 0.124686 0.124676 0.124647 0.124609 0.124568 0.124528 0.124487 0.124444 0.124412 0.124399 0.124396 0.124394 0.124381 0.124346 0.124301 0.124252 0.124203 0.124155 0.124103 0.124065 0.124049 0.124047 0.124044 0.124029 0.123988 0.123934 0.123878 0.123821 0.123765 0.123707 0.123663 0.123646 0.123642 0.123639 0.123622 0.123577 0.123517 0.123471 0.123425 0.123379 0.123339 0.123309 0.123298 0.123296 0.123294 0.123283 0.123254 0.123216 0.123178 0.123141 0.123104 0.123068 0.123041 0.123030 0.123028 0.123026 0.123016 0.122990 0.122955 0.122921 0.122887 0.122853 0.122820 0.122795 0.122786 0.122785 0.122783 0.122774 0.122750 0.122719 0.122689 0.122659 0.122629 0.122601 0.122580 0.122572 0.122571 0.122569 0.122561 0.122541 0.122514 0.122488 0.122462 0.122436 0.122411 0.122392 0.122385 0.122384 
0.127013 0.127014 0.127020 0.127032 0.127049 0.127063 0.127078 0.127092 0.127105 0.127114 0.127118 0.127119 0.127120 0.127124 0.127131 0.127141 0.127150 0.127159 0.127167 0.127175 0.127180 0.127182 0.127183 0.127183 0.127185 0.127189 0.127195 0.127200 0.127204 0.127209 0.127211 0.127213 0.127213 0.127214 0.127214 0.127214 0.127215 0.127217 0.127215 0.127213 0.127211 0.127206 0.127203 0.127201 0.127200 0.127200 0.127197 0.127192 0.127184 0.127173 0.127162 0.127150 0.127136 0.127126 0.127120 0.127119 0.127118 0.127112 0.127098 0.127079 0.127057 0.127034 0.127012 0.126986 0.126966 0.126958 0.126956 0.126954 0.126945 0.126921 0.126889 0.126854 0.126818 0.126783 0.126744 0.126714 0.126701 0.126698 0.126697 0.126689 0.126671 0.126648 0.126625 0.126601 0.126578 0.126553 0.126535 0.126527 0.126525 0.126523 0.126516 0.126496 0.126471 0.126445 0.126419 0.126392 0.126365 0.126345 0.126336 0.126334 0.126332 0.126323 0.126303 0.126275 0.126246 0.126218 0.126190 0.126161 0.126139 0.126130 0.126128 0.126126 0.126117 0.126096 0.126067 0.126038 0.126010 0.125981 0.125953 0.125931 0.125922 0.125920 0.125918 0.125909 0.125888 0.125860 0.125832 0.125804 0.125776 0.125748 0.125727 0.125718 0.125716 0.125714 0.125706 0.125685 0.125657 0.125630 0.125602 0.125574 0.125547 0.125526 0.125517 0.125515 0.125513 0.125505 0.125484 0.125456 0.125429 0.125401 0.125374 0.125346 0.125326 0.125317 0.125315 
0.129145 0.129146 0.129155 0.129172 0.129195 0.129206 0.129218 0.129229 0.129229 0.129230 0.129229 0.129229 0.129228 0.129227 0.129221 0.129214 0.129199 0.129184 0.129170 0.129148 0.129133 0.129126 0.129124 0.129123 0.129117 0.129108 0.129097 0.129081 0.129066 0.129051 0.129031 0.129016 0.129009 0.129008 0.129007 0.129000 0.128981 0.128956 0.128931 0.128906 0.128880 0.128849 0.128825 0.128815 0.128813 0.128811 0.128800 0.128768 0.128726 0.128674 0.128622 0.128570 0.128506 0.128458 0.128439 0.128436 0.128433 0.128414 0.128362 0.128294 0.128236 0.128179 0.128121 0.128064 0.128021 0.128005 0.128002 0.127999 0.127983 0.127941 0.127885 0.127831 0.127777 0.127722 0.127669 0.127630 0.127615 0.127612 0.127610 0.127595 0.127557 0.127505 0.127456 0.127407 0.127358 0.127311 0.127275 0.127262 0.127260 0.127258 0.127245 0.127211 0.127166 0.127123 0.127079 0.127036 0.126994 0.126962 0.126950 0.126948 0.126946 0.126933 0.126902 0.126861 0.126819 0.126778 0.126737 0.126696 0.126665 0.126653 0.126651 
0.133017 0.133016 0.133013 0.133007 0.132999 0.132990 0.132981 0.132971 0.132960 0.132951 0.132947 0.132945 0.132944 0.132940 0.132930 0.132916 0.132900 0.132884 0.132868 0.132849 0.132836 0.132829 0.132827 0.132825 0.132818 0.132803 0.132783 0.132761 0.132739 0.132717 0.132694 0.132677 0.132669 0.132667 0.132665 0.132657 0.132640 0.132617 0.132594 0.132571 0.132548 0.132525 0.132507 0.132499 0.132497 0.132494 0.132487 0.132474 0.132457 0.132440 0.132423 0.132405 0.132388 0.132374 0.132368 0.132366 0.132364 0.132358 0.132344 0.132326 0.132307 0.132288 0.132270 0.132250 0.132235 0.132229 0.132227 0.132225 0.132219 0.132204 0.132185 0.132164 0.132143 0.132122 0.132100 0.132083 0.132076 0.132073 0.132071 0.132064 0.132046 0.132023 0.131999 0.131975 0.131951 0.131927 0.131908 0.131899 0.131896 0.131894 0.131885 0.131864 0.131838 0.131815 0.131792 0.131769 0.131745 0.131727 0.131719 0.131716 0.131713 0.131705 0.131685 0.131660 0.131632 0.131604 0.131576 0.131546 0.131522 0.131512 0.131508 0.131505 0.131495 0.131470 0.131439 0.131403 0.131367 0.131331 0.131294 0.131266 0.131253 0.131249 0.131245 0.131232 0.131201 0.131160 0.131118 0.131076 0.131034 0.130991 0.130958 0.130942 0.130937 0.130932 0.130916 0.130880 0.130833 0.130785 0.130737 0.130690 0.130643 0.130608 0.130595 0.130591 0.130587 0.130574 0.130545 0.130507 0.130470 0.130433 0.130396 0.130360 0.130333 0.130321 0.130317 0.130313 0.130301 0.130274 0.130239 0.130205 0.130172 0.130139 0.130106 0.130081 0.130070 0.130066 0.130063 0.130051 0.130028 0.129998 0.129968 0.129938 0.129908 0.129878 0.129856 0.129847 0.129844 0.129841 0.129831 0.129811 0.129783 0.129755 0.129728 0.129700 0.129675 0.129656 0.129647 0.129645 0.129642 0.129633 0.129614 0.129589 0.129564 0.129540 0.129516 0.129492 0.129475 0.129467 0.129464 0.129462 0.129454 0.129436 0.129413 0.129392 0.129370 0.129348 0.129327 0.129310 0.129303 0.129300 0.129298 0.129291 0.129275 0.129255 0.129235 0.129214 0.129194 0.129174 0.129159 0.129152 0.129150 0.129148 0.129142 0.129127 0.129108 0.129088 0.129069 0.129049 0.129031 0.129016 0.129010 0.129008 0.129006 0.128999 0.128985 0.128966 0.128947 0.128929 0.128910 0.128891 0.128877 0.128871 0.128869 0.128867 0.128860 0.128846 0.128827 0.128809 0.128790 0.128772 0.128753 0.128739 0.128732 0.128730 
0.134234 0.134232 0.134224 0.134200 0.134169 0.134133 0.134098 0.134062 0.134021 0.133991 0.133978 0.133976 0.133974 0.133961 0.133928 0.133884 0.133835 0.133786 0.133738 0.133687 0.133648 0.133634 0.133631 0.133629 0.133619 0.133593 0.133557 0.133518 0.133478 0.133439 0.133394 0.133361 0.133347 0.133344 0.133342 0.133328 0.133290 0.133240 0.133190 0.133140 0.133090 0.133032 0.132989 0.132971 0.132968 0.132965 0.132946 0.132895 0.132826 0.132749 0.132672 0.132595 0.132509 0.132445 0.132420 0.132415 0.132411 0.132389 0.132333 0.132258 0.132185 0.132111 0.132038 0.131968 0.131915 0.131895 0.131891 0.131887 0.131867 0.131818 0.131753 0.131691 0.131629 0.131567 0.131508 0.131465 0.131448 0.131445 0.131442 0.131426 0.131385 0.131330 0.131280 0.131229 0.131179 0.131132 0.131096 0.131083 0.131080 0.131078 0.131064 0.131031 0.130988 0.130946 0.130904 0.130863 0.130823 0.130794 0.130783 0.130781 0.130779 0.130768 0.130739 0.130701 0.130665 0.130629 0.130592 0.130557 0.130531 0.130521 0.130519 
0.137195 0.137193 0.137181 0.137147 0.137103 0.137054 0.137005 0.136956 0.136902 0.136861 0.136845 0.136842 0.136839 0.136822 0.136779 0.136722 0.136661 0.136600 0.136539 0.136477 0.136430 0.136412 0.136408 0.136405 0.136386 0.136337 0.136271 0.136202 0.136133 0.136063 0.135989 0.135933 0.135910 0.135905 0.135901 0.135877 0.135816 0.135735 0.135645 0.135556 0.135467 0.135370 0.135297 0.135268 0.135263 0.135257 0.135228 0.135151 0.135049 0.134950 0.134851 0.134752 0.134678 0.134622 0.134601 0.134597 0.134593 0.134572 0.134520 0.134452 0.134388 0.134324 0.134261 0.134202 0.134157 0.134141 0.134137 0.134134 0.134117 0.134076 0.134021 0.133969 0.133918 0.133867 0.133819 0.133783 0.133769 0.133766 0.133763 0.133749 0.133716 0.133671 0.133629 0.133586 0.133543 0.133503 0.133473 0.133462 0.133460 0.133458 0.133446 0.133418 0.133380 0.133344 0.133308 0.133272 0.133238 0.133213 0.133203 0.133201 0.133199 0.133189 0.133165 0.133132 0.133099 0.133067 0.133035 0.133003 0.132979 0.132970 0.132968 
0.145106 0.145102 0.145087 0.145048 0.144997 0.144938 0.144880 0.144822 0.144757 0.144708 0.144688 0.144683 0.144679 0.144658 0.144606 0.144536 0.144462 0.144389 0.144315 0.144236 0.144176 0.144151 0.144146 0.144140 0.144115 0.144050 0.143965 0.143877 0.143788 0.143700 0.143607 0.143537 0.143508 0.143501 0.143495 0.143466 0.143393 0.143297 0.143198 0.143099 0.143001 0.142898 0.142820 0.142788 0.142781 0.142774 0.142742 0.142663 0.142557 0.142449 0.142340 0.142231 0.142119 0.142034 0.141998 0.141990 0.141982 0.141947 0.141860 0.141745 0.141627 0.141508 0.141389 0.141268 0.141177 0.141140 0.141131 0.141122 0.141085 0.140999 0.140885 0.140805 0.140725 0.140645 0.140570 0.140513 0.140491 0.140486 0.140481 0.140460 0.140408 0.140338 0.140273 0.140208 0.140143 0.140081 0.140033 0.140015 0.140011 0.140007 0.139989 0.139945 0.139887 0.139831 0.139776 0.139720 0.139666 0.139624 0.139608 0.139604 0.139600 0.139585 0.139546 0.139495 0.139445 0.139395 0.139345 0.139297 0.139261 0.139246 0.139242 0.139239 0.139224 0.139190 0.139144 0.139099 0.139054 0.139008 0.138964 0.138931 0.138917 0.138914 0.138911 0.138897 0.138865 0.138822 0.138779 0.138736 0.138693 0.138651 0.138619 0.138606 0.138603 0.138600 0.138587 0.138555 0.138513 0.138471 0.138428 0.138385 0.138343 0.138311 0.138298 0.138295 
0.171686 0.171670 0.171631 0.171551 0.171446 0.171337 0.171228 0.171118 0.171006 0.170920 0.170876 0.170859 0.170841 0.170797 0.170707 0.170590 0.170469 0.170349 0.170228 0.170105 0.170010 0.169962 0.169943 0.169924 0.169876 0.169777 0.169648 0.169514 0.169380 0.169246 0.169109 0.169004 0.168953 0.168932 0.168912 0.168860 0.168756 0.168621 0.168483 0.168344 0.168206 0.168067 0.167960 0.167906 0.167884 0.167862 0.167808 0.167698 0.167555 0.167410 0.167265 0.167120 0.166975 0.166864 0.166809 0.166786 0.166764 0.166709 0.166597 0.166452 0.166305 0.166157 0.166010 0.165862 0.165748 0.165692 0.165670 0.165647 0.165592 0.165480 0.165334 0.165188 0.165042 0.164896 0.164750 0.164638 0.164582 0.164559 0.164537 0.164481 0.164369 0.164223 0.164078 0.163932 0.163787 0.163642 0.163530 0.163475 0.163452 0.163430 0.163375 0.163265 0.163121 0.162979 0.162837 0.162694 0.162553 0.162445 0.162391 0.162369 0.162348 0.162294 0.162187 0.162047 0.161907 0.161767 0.161628 0.161489 0.161382 0.161329 0.161308 0.161287 0.161234 0.161128 0.160990 0.160854 0.160717 0.160580 0.160445 0.160341 0.160290 0.160269 0.160249 0.160198 0.160095 0.159961 0.159828 0.159694 0.159561 0.159429 0.159327 0.159277 0.159257 0.159237 0.159187 0.159087 0.158957 0.158828 0.158700 0.158571 0.158466 0.158386 0.158348 0.158333 0.158318 0.158280 0.158205 0.158108 0.158014 0.157921 0.157827 0.157737 0.157668 0.157634 0.157620 0.157607 0.157575 0.157512 0.157430 0.157349 0.157268 0.157187 0.157108 0.157047 0.157017 0.157005 0.156993 0.156963 0.156908 0.156836 0.156765 0.156695 0.156625 0.156555 0.156502 0.156476 0.156465 0.156455 0.156428 0.156379 0.156313 0.156251 0.156188 0.156126 0.156063 0.156016 0.155992 0.155983 0.155973 0.155950 0.155904 0.155844 0.155788 0.155732 0.155676 0.155621 0.155578 0.155557 0.155549 0.155540 0.155519 0.155477 0.155421 0.155371 0.155320 0.155270 0.155220 0.155181 0.155162 0.155154 0.155146 0.155127 0.155088 0.155038 0.154991 0.154944 0.154897 0.154851 0.154815 0.154798 0.154791 0.154784 0.154766 0.154731 0.154685 0.154641 0.154597 0.154553 0.154511 0.154479 0.154462 0.154456 0.154449 0.154433 0.154400 0.154358 0.154316 0.154275 0.154233 0.154194 0.154164 0.154149 0.154143 0.154136 0.154121 0.154091 0.154051 0.154011 0.153972 0.153933 0.153896 0.153868 0.153854 0.153848 0.153843 0.153829 0.153801 0.153764 0.153726 0.153689 0.153652 0.153617 0.153591 0.153577 0.153572 0.153567 0.153553 0.153526 0.153491 0.153455 0.153420 0.153384 0.153349 0.153323 0.153310 0.153305 
