0.149430 0.149420 0.149288 0.148708 0.147789 0.146969 0.146149 0.145329 0.144576 0.144100 0.143998 0.143990 0.143983 0.143881 0.143425 0.142703 0.142015 0.141326 0.140637 0.139970 0.139549 0.139457 0.139450 0.139443 0.139351 0.138936 0.138279 0.137628 0.136977 0.136327 0.135684 0.135279 0.135191 0.135184 0.135178 0.135089 0.134693 0.134065 0.133461 0.132857 0.132252 0.131678 0.131315 0.131237 0.131231 0.131226 0.131148 0.130802 0.130253 0.129740 0.129228 0.128715 0.128238 0.127937 0.127873 0.127868 0.127864 0.127800 0.127517 0.127069 0.126653 0.126237 0.125820 0.125435 0.125192 0.125140 0.125136 0.125132 0.125080 0.124851 0.124487 0.124148 0.123809 0.123470 0.123154 0.122954 0.122911 0.122908 
0.149435 0.149448 0.149574 0.149916 0.150384 0.150771 0.151158 0.151545 0.151885 0.152134 0.152217 0.152225 0.152234 0.152316 0.152551 0.152874 0.153202 0.153530 0.153858 0.154202 0.154452 0.154540 0.154549 0.154558 0.154646 0.154914 0.155282 0.155675 0.156068 0.156462 0.156879 0.157184 0.157290 0.157301 0.157312 0.157420 0.157741 0.158181 0.158644 0.159107 0.159570 0.160055 0.160409 0.160532 0.160545 0.160557 0.160680 0.161047 0.161550 0.162074 0.162598 0.163122 0.163664 0.164060 0.164197 0.164211 0.164225 0.164363 0.164773 0.165336 0.165920 0.166505 0.167089 0.167698 0.168142 0.168296 0.168312 0.168328 0.168482 0.168942 0.169574 0.170232 0.170889 0.171547 0.172228 0.172725 0.172896 0.172914 0.172932 0.173104 0.173621 0.174329 0.175067 0.175804 0.176542 0.177308 0.177866 0.178058 0.178078 0.178098 0.178291 0.178868 0.179661 0.180483 0.181305 0.182127 0.182977 0.183597 0.183813 0.183835 0.183858 0.184074 0.184709 0.185581 0.186489 0.187398 0.188307 0.189238 0.189917 0.190151 0.190176 0.190200 0.190435 0.191133 0.192089 0.193070 0.194051 0.195032 0.196033 0.196762 0.197013 0.197039 0.197066 0.197316 0.198062 0.199085 0.200115 0.201145 0.202176 0.203222 0.203986 0.204246 0.204273 0.204300 0.204561 0.205329 0.206382 0.207448 0.208513 0.209579 0.210634 0.211403 0.211666 0.211693 0.211720 0.211983 0.212747 0.213795 0.214822 0.215849 0.216876 0.217885 0.218620 0.218868 0.218893 0.218919 0.219164 0.219862 0.220820 0.221714 0.222609 0.223503 0.224323 0.224921 0.225117 0.225138 0.225158 0.225352 0.225883 0.226611 0.227239 0.227867 0.228495 0.228990 0.229351 0.229461 0.229472 0.229483 0.229589 0.229859 0.230231 0.230443 0.230655 0.230867 0.230943 0.230999 0.230997 0.230997 0.230997 0.230993 0.230938 0.230862 0.230644 0.230426 0.230208 0.229871 0.229624 0.229529 0.229519 0.229508 0.229403 0.229059 0.228587 0.227991 0.227395 0.226799 0.226094 0.225580 0.225397 0.225379 
0.149431 0.149429 0.149396 0.149087 0.148598 0.147980 0.147363 0.146746 0.146236 0.145914 0.145851 0.145847 0.145843 0.145780 0.145502 0.145062 0.144707 0.144352 0.143997 0.143679 0.143478 0.143432 0.143429 0.143426 0.143380 0.143168 0.142832 0.142409 0.141985 0.141561 0.140927 0.140527 0.140421 0.140414 0.140407 0.140298 0.139713 0.138786 0.137547 0.136308 0.135070 0.133099 0.131855 0.131543 0.131521 0.131499 0.131185 0.129787 0.127573 0.125870 0.124166 0.122463 0.121331 0.120616 0.120486 0.120477 0.120468 0.120342 0.119861 0.119099 0.118615 0.118130 0.117645 0.117334 0.117137 0.117100 0.117097 0.117095 0.117058 0.116912 0.116680 0.116507 0.116333 0.116160 0.116024 0.115939 0.115921 0.115920 0.115919 0.115902 0.115830 0.115715 0.115620 0.115524 0.115429 0.115349 0.115298 0.115288 0.115287 0.115287 0.115276 0.115233 0.115163 0.115105 0.115046 0.114988 0.114939 0.114908 0.114902 0.114901 0.114901 0.114894 0.114868 0.114825 0.114789 0.114753 0.114717 0.114687 0.114668 0.114664 0.114664 0.114664 0.114660 0.114643 0.114617 0.114595 0.114573 0.114550 0.114531 0.114520 0.114517 0.114517 0.114517 0.114514 0.114504 0.114487 0.114472 0.114457 0.114442 0.114428 0.114420 0.114418 0.114418 
0.127867 0.127864 0.127845 0.127794 0.127728 0.127659 0.127590 0.127521 0.127450 0.127397 0.127376 0.127372 0.127368 0.127347 0.127292 0.127219 0.127144 0.127070 0.126995 0.126918 0.126861 0.126838 0.126834 0.126830 0.126807 0.126748 0.126669 0.126588 0.126507 0.126426 0.126345 0.126284 0.126260 0.126255 0.126251 0.126227 0.126173 0.126101 0.126043 0.125984 0.125926 0.125872 0.125831 0.125815 0.125812 0.125809 0.125793 0.125755 0.125703 0.125655 0.125607 0.125559 0.125514 0.125480 0.125468 0.125466 0.125464 0.125452 0.125420 0.125379 0.125341 0.125303 0.125265 0.125231 0.125206 0.125196 0.125195 0.125193 0.125183 0.125160 0.125129 0.125100 0.125072 0.125044 0.125018 0.124998 0.124991 0.124989 
0.135183 0.135180 0.135160 0.135107 0.135037 0.134963 0.134889 0.134814 0.134735 0.134675 0.134651 0.134647 0.134643 0.134619 0.134555 0.134471 0.134382 0.134294 0.134205 0.134113 0.134043 0.134015 0.134010 0.134005 0.133977 0.133903 0.133805 0.133703 0.133600 0.133498 0.133390 0.133310 0.133278 0.133273 0.133267 0.133235 0.133152 0.133040 0.132926 0.132811 0.132697 0.132580 0.132492 0.132457 0.132451 0.132445 0.132410 0.132321 0.132201 0.132110 0.132019 0.131927 0.131848 0.131789 0.131766 0.131762 0.131758 0.131736 0.131680 0.131605 0.131533 0.131461 0.131389 0.131320 0.131268 0.131248 0.131245 0.131241 0.131221 0.131171 0.131105 0.131041 0.130978 0.130914 0.130852 0.130806 0.130789 0.130786 0.130783 0.130766 0.130722 0.130664 0.130609 0.130553 0.130498 0.130447 0.130409 0.130394 0.130391 0.130388 0.130373 0.130336 0.130287 0.130240 0.130193 0.130146 0.130101 0.130067 0.130054 0.130052 
0.139450 0.139452 0.139459 0.139476 0.139498 0.139516 0.139534 0.139552 0.139566 0.139576 0.139580 0.139581 0.139582 0.139585 0.139592 0.139600 0.139606 0.139611 0.139616 0.139618 0.139620 0.139620 0.139620 0.139620 0.139621 0.139620 0.139618 0.139615 0.139611 0.139608 0.139600 0.139594 0.139591 0.139590 0.139589 0.139586 0.139578 0.139568 0.139550 0.139533 0.139515 0.139492 0.139475 0.139466 0.139464 0.139462 0.139454 0.139432 0.139403 0.139366 0.139330 0.139293 0.139252 0.139221 0.139206 0.139202 0.139199 0.139183 0.139145 0.139095 0.139037 0.138980 0.138922 0.138859 0.138811 0.138791 0.138787 0.138781 0.138759 0.138704 0.138630 0.138551 0.138472 0.138393 0.138307 0.138242 0.138215 0.138209 0.138204 0.138186 0.138146 0.138093 0.138040 0.137988 0.137936 0.137883 0.137843 0.137826 0.137822 0.137818 0.137802 0.137762 0.137709 0.137656 0.137603 0.137550 0.137497 0.137457 0.137441 0.137437 0.137433 0.137416 0.137376 0.137322 0.137269 0.137215 0.137161 0.137108 0.137067 0.137050 0.137047 0.137043 0.137026 0.136986 0.136932 0.136880 0.136828 0.136775 0.136723 0.136683 0.136667 0.136664 0.136660 0.136644 0.136606 0.136555 0.136504 0.136454 0.136403 0.136353 0.136315 0.136299 0.136296 0.136292 0.136277 0.136240 0.136190 0.136141 0.136092 0.136043 0.135994 0.135957 0.135942 0.135938 0.135934 0.135919 0.135882 0.135833 0.135784 0.135736 0.135687 0.135639 0.135602 0.135587 0.135584 
0.143991 0.143992 0.144001 0.144016 0.144035 0.144028 0.144021 0.144013 0.143982 0.143958 0.143947 0.143945 0.143943 0.143932 0.143897 0.143850 0.143790 0.143730 0.143671 0.143599 0.143545 0.143523 0.143519 0.143515 0.143494 0.143460 0.143415 0.143362 0.143310 0.143257 0.143194 0.143147 0.143127 0.143123 0.143120 0.143100 0.143044 0.142969 0.142892 0.142815 0.142739 0.142648 0.142579 0.142551 0.142546 0.142541 0.142510 0.142425 0.142312 0.142182 0.142052 0.141922 0.141770 0.141656 0.141612 0.141604 0.141596 0.141552 0.141433 0.141276 0.141143 0.141010 0.140876 0.140750 0.140654 0.140619 0.140613 0.140607 0.140571 0.140482 0.140363 0.140251 0.140140 0.140029 0.139924 0.139845 0.139817 0.139812 0.139807 0.139779 0.139704 0.139606 0.139514 0.139421 0.139329 0.139242 0.139176 0.139151 0.139147 0.139143 0.139120 0.139058 0.138976 0.138898 0.138820 0.138741 0.138666 0.138610 0.138588 0.138584 0.138581 0.138559 0.138504 0.138431 0.138358 0.138285 0.138212 0.138140 0.138086 0.138065 0.138062 
0.152224 0.152220 0.152208 0.152178 0.152139 0.152096 0.152053 0.152010 0.151961 0.151924 0.151907 0.151902 0.151896 0.151878 0.151838 0.151785 0.151724 0.151663 0.151602 0.151536 0.151487 0.151463 0.151456 0.151449 0.151426 0.151373 0.151304 0.151232 0.151160 0.151089 0.151015 0.150959 0.150935 0.150927 0.150920 0.150896 0.150843 0.150773 0.150702 0.150632 0.150562 0.150493 0.150441 0.150417 0.150410 0.150402 0.150379 0.150341 0.150290 0.150238 0.150187 0.150136 0.150083 0.150043 0.150025 0.150019 0.150013 0.149995 0.149954 0.149901 0.149847 0.149792 0.149738 0.149682 0.149640 0.149622 0.149616 0.149610 0.149592 0.149550 0.149495 0.149436 0.149377 0.149318 0.149258 0.149212 0.149191 0.149185 0.149178 0.149157 0.149109 0.149046 0.148981 0.148916 0.148851 0.148785 0.148735 0.148712 0.148704 0.148697 0.148673 0.148620 0.148549 0.148485 0.148422 0.148358 0.148291 0.148240 0.148217 0.148209 0.148202 0.148178 0.148125 0.148055 0.147980 0.147904 0.147829 0.147749 0.147688 0.147660 0.147651 0.147643 0.147615 0.147552 0.147470 0.147380 0.147289 0.147199 0.147107 0.147037 0.147005 0.146996 0.146986 0.146954 0.146879 0.146781 0.146680 0.146580 0.146479 0.146377 0.146300 0.146263 0.146252 0.146240 0.146204 0.146122 0.146014 0.145906 0.145798 0.145690 0.145587 0.145509 0.145479 0.145470 0.145460 0.145430 0.145365 0.145278 0.145196 0.145114 0.145032 0.144954 0.144894 0.144868 0.144859 0.144851 0.144825 0.144767 0.144690 0.144621 0.144552 0.144482 0.144414 0.144362 0.144339 0.144332 0.144325 0.144302 0.144256 0.144196 0.144136 0.144077 0.144017 0.143960 0.143917 0.143899 0.143893 0.143887 0.143870 0.143830 0.143777 0.143725 0.143673 0.143620 0.143574 0.143538 0.143522 0.143517 0.143512 0.143496 0.143460 0.143413 0.143369 0.143325 0.143280 0.143238 0.143206 0.143191 0.143187 0.143182 0.143168 0.143136 0.143094 0.143055 0.143017 0.142978 0.142939 0.142910 0.142896 0.142892 0.142888 0.142875 0.142848 0.142813 0.142777 0.142741 0.142705 0.142671 0.142644 0.142633 0.142629 0.142626 0.142614 0.142589 0.142555 0.142522 0.142488 0.142454 0.142422 0.142398 0.142387 0.142383 0.142380 0.142369 0.142344 0.142311 0.142279 0.142247 0.142215 0.142184 0.142159 0.142149 0.142145 0.142142 0.142131 0.142107 0.142075 0.142043 0.142012 0.141981 0.141949 0.141924 0.141913 0.141910 
0.154547 0.154541 0.154506 0.154412 0.154286 0.154151 0.154016 0.153881 0.153738 0.153630 0.153588 0.153580 0.153572 0.153529 0.153417 0.153269 0.153114 0.152958 0.152803 0.152646 0.152527 0.152484 0.152476 0.152470 0.152438 0.152353 0.152240 0.152118 0.151997 0.151875 0.151743 0.151643 0.151603 0.151595 0.151588 0.151547 0.151438 0.151293 0.151146 0.150999 0.150852 0.150688 0.150565 0.150516 0.150506 0.150497 0.150446 0.150307 0.150122 0.149923 0.149724 0.149525 0.149313 0.149154 0.149092 0.149081 0.149071 0.149015 0.148875 0.148687 0.148509 0.148331 0.148153 0.147988 0.147864 0.147817 0.147808 0.147800 0.147754 0.147643 0.147496 0.147362 0.147228 0.147093 0.146972 0.146881 0.146848 0.146842 0.146836 0.146803 0.146721 0.146611 0.146514 0.146416 0.146318 0.146230 0.146163 0.146137 0.146132 0.146127 0.146101 0.146041 0.145962 0.145887 0.145812 0.145737 0.145667 0.145615 0.145595 0.145592 0.145588 0.145569 0.145519 0.145453 0.145392 0.145330 0.145268 0.145209 0.145164 0.145147 0.145144 
0.160542 0.160532 0.160481 0.160345 0.160165 0.159975 0.159786 0.159596 0.159399 0.159250 0.159191 0.159180 0.159169 0.159110 0.158958 0.158757 0.158551 0.158345 0.158140 0.157935 0.157782 0.157722 0.157711 0.157699 0.157640 0.157482 0.157274 0.157060 0.156847 0.156633 0.156412 0.156245 0.156177 0.156165 0.156152 0.156084 0.155910 0.155678 0.155434 0.155191 0.154947 0.154696 0.154507 0.154433 0.154419 0.154405 0.154331 0.154139 0.153885 0.153644 0.153402 0.153161 0.152971 0.152829 0.152776 0.152766 0.152757 0.152706 0.152580 0.152412 0.152262 0.152113 0.151963 0.151830 0.151730 0.151693 0.151686 0.151679 0.151642 0.151552 0.151432 0.151325 0.151219 0.151112 0.151016 0.150943 0.150915 0.150909 0.150904 0.150876 0.150811 0.150725 0.150644 0.150563 0.150482 0.150408 0.150353 0.150332 0.150328 0.150325 0.150304 0.150253 0.150184 0.150121 0.150059 0.149997 0.149939 0.149896 0.149880 0.149876 0.149873 0.149856 0.149815 0.149761 0.149709 0.149656 0.149604 0.149552 0.149514 0.149499 0.149497 
0.178073 0.178053 0.177966 0.177747 0.177457 0.177147 0.176838 0.176528 0.176209 0.175968 0.175869 0.175847 0.175824 0.175725 0.175482 0.175158 0.174832 0.174506 0.174179 0.173847 0.173597 0.173494 0.173470 0.173446 0.173344 0.173088 0.172750 0.172414 0.172079 0.171744 0.171409 0.171156 0.171053 0.171029 0.171005 0.170903 0.170652 0.170319 0.169991 0.169662 0.169334 0.169011 0.168767 0.168668 0.168645 0.168623 0.168524 0.168283 0.167962 0.167646 0.167329 0.167013 0.166700 0.166464 0.166368 0.166346 0.166324 0.166228 0.165995 0.165687 0.165384 0.165081 0.164778 0.164482 0.164258 0.164168 0.164148 0.164127 0.164037 0.163829 0.163553 0.163346 0.163139 0.162931 0.162742 0.162600 0.162547 0.162534 0.162522 0.162469 0.162342 0.162174 0.162022 0.161869 0.161716 0.161573 0.161464 0.161425 0.161416 0.161406 0.161367 0.161270 0.161143 0.161025 0.160906 0.160788 0.160674 0.160588 0.160554 0.160546 0.160538 0.160507 0.160429 0.160325 0.160227 0.160128 0.160030 0.159937 0.159866 0.159838 0.159831 0.159824 0.159796 0.159733 0.159649 0.159564 0.159480 0.159396 0.159316 0.159256 0.159231 0.159225 0.159220 0.159195 0.159138 0.159062 0.158987 0.158911 0.158836 0.158765 0.158711 0.158688 0.158683 0.158678 0.158655 0.158601 0.158530 0.158458 0.158387 0.158315 0.158246 0.158194 0.158172 0.158167 
0.229440 0.229311 0.228993 0.228362 0.227538 0.226738 0.225939 0.225139 0.224361 0.223765 0.223472 0.223353 0.223236 0.222945 0.222369 0.221618 0.220887 0.220156 0.219425 0.218715 0.218171 0.217903 0.217796 0.217689 0.217423 0.216896 0.216208 0.215532 0.214856 0.214180 0.213520 0.213015 0.212772 0.212673 0.212576 0.212334 0.211861 0.211244 0.210643 0.210041 0.209440 0.208852 0.208402 0.208180 0.208091 0.208001 0.207779 0.207339 0.206765 0.206212 0.205660 0.205107 0.204575 0.204167 0.203967 0.203887 0.203807 0.203609 0.203219 0.202709 0.202222 0.201734 0.201246 0.200777 0.200418 0.200242 0.200171 0.200100 0.199925 0.199579 0.199126 0.198688 0.198251 0.197813 0.197390 0.197066 0.196906 0.196842 0.196778 0.196619 0.196304 0.195893 0.195500 0.195107 0.194714 0.194338 0.194050 0.193909 0.193852 0.193796 0.193656 0.193381 0.193022 0.192674 0.192325 0.191977 0.191643 0.191387 0.191261 0.191210 0.191160 0.191035 0.190785 0.190459 0.190140 0.189821 0.189501 0.189199 0.188967 0.188853 0.188807 0.188762 0.188649 0.188424 0.188131 0.187845 0.187559 0.187273 0.187003 0.186796 0.186695 0.186654 0.186613 0.186512 0.186309 0.186045 0.185785 0.185524 0.185263 0.185011 0.184818 0.184727 0.184690 0.184653 0.184562 0.184379 0.184141 0.183908 0.183674 0.183441 0.183218 0.183047 0.182969 0.182938 0.182907 0.182830 0.182677 0.182478 0.182287 0.182095 0.181904 0.181721 0.181581 0.181511 0.181484 0.181459 0.181397 0.181274 0.181113 0.180956 0.180799 0.180641 0.180487 0.180369 0.180311 0.180288 0.180264 0.180206 0.180104 0.179970 0.179840 0.179710 0.179580 0.179452 0.179355 0.179306 0.179286 0.179267 0.179218 0.179129 0.179012 0.178902 0.178792 0.178682 0.178572 0.178488 0.178446 0.178429 0.178413 0.178371 0.178291 0.178186 0.178091 0.177997 0.177903 0.177809 0.177737 0.177701 0.177687 0.177672 0.177637 0.177565 0.177471 0.177390 0.177309 0.177227 0.177146 0.177084 0.177052 0.177040 0.177027 0.176996 0.176933 0.176851 0.176778 0.176705 0.176632 0.176561 0.176507 0.176480 0.176469 0.176458 0.176430 0.176376 0.176305 0.176238 0.176172 0.176105 0.176042 0.175994 0.175970 0.175960 0.175951 0.175926 0.175877 0.175814 0.175753 0.175692 0.175631 0.175575 0.175532 0.175511 0.175502 0.175493 0.175472 0.175428 0.175371 0.175314 0.175258 0.175202 0.175153 0.175115 0.175096 0.175089 0.175081 0.175062 0.175024 0.174974 0.174922 0.174870 0.174819 0.174773 0.174739 0.174721 0.174714 0.174707 0.174690 0.174654 0.174607 0.174560 0.174512 0.174465 0.174421 0.174387 0.174370 0.174364 
