0.189579 0.189553 0.189213 0.187765 0.185470 0.183496 0.181522 0.179547 0.177756 0.176626 0.176383 0.176365 0.176346 0.176106 0.175045 0.173366 0.171850 0.170335 0.168819 0.167462 0.166605 0.166420 0.166406 0.166392 0.166209 0.165391 0.164096 0.162818 0.161540 0.160262 0.158989 0.158186 0.158009 0.157996 0.157982 0.157807 0.157024 0.155783 0.154600 0.153418 0.152235 0.151130 0.150432 0.150283 0.150272 0.150260 0.150111 0.149457 0.148422 0.147469 0.146515 0.145562 0.144669 0.144106 0.143985 0.143976 0.143966 0.143845 0.143310 0.142462 0.141663 0.140863 0.140063 0.139306 0.138829 0.138726 0.138718 
0.189588 0.189599 0.189697 0.189867 0.190093 0.190163 0.190233 0.190303 0.190281 0.190264 0.190250 0.190248 0.190246 0.190229 0.190191 0.190141 0.190091 0.190042 0.189993 0.190014 0.190029 0.190046 0.190048 0.190050 0.190067 0.190178 0.190326 0.190619 0.190912 0.191205 0.191615 0.191922 0.192043 0.192056 0.192069 0.192194 0.192564 0.193058 0.193611 0.194164 0.194717 0.195327 0.195783 0.195957 0.195976 0.195995 0.196167 0.196656 0.197310 0.198010 0.198711 0.199411 0.200142 0.200690 0.200880 0.200900 0.200922 0.201123 0.201697 0.202464 0.203251 0.204037 0.204824 0.205630 0.206232 0.206451 0.206475 0.206498 0.206715 0.207312 0.208110 0.208890 0.209670 0.210451 0.211224 0.211802 0.212009 0.212031 0.212053 0.212259 0.212820 0.213570 0.214305 0.215041 0.215777 0.216476 0.217000 0.217189 0.217209 0.217229 0.217417 0.217930 0.218616 0.219258 0.219899 0.220541 0.221159 0.221622 0.221786 0.221804 0.221821 0.221982 0.222422 0.223010 0.223562 0.224113 0.224665 0.225136 0.225488 0.225608 0.225620 0.225633 0.225750 0.226048 0.226446 0.226724 0.227002 0.227280 0.227415 0.227517 0.227536 0.227539 0.227539 0.227547 0.227520 0.227484 0.227244 0.227005 0.226766 0.226336 0.226015 0.225878 0.225863 0.225848 0.225703 0.225212 0.224556 0.223713 0.222871 0.222028 0.221021 0.220267 0.219977 0.219945 0.219914 0.219624 0.218777 0.217644 0.216435 0.215226 0.214017 0.212763 0.211825 0.211490 0.211455 0.211418 0.211080 0.210130 0.208861 0.207608 0.206355 0.205102 0.203872 0.202951 0.202623 0.202588 0.202553 0.202227 0.201339 0.200152 0.199014 0.197876 0.196738 0.195646 0.194829 0.194540 0.194510 0.194479 0.194192 0.193412 0.192370 0.191373 0.190375 0.189378 0.188419 0.187701 0.187446 0.187419 0.187392 0.187139 0.186450 0.185528 0.184640 0.183752 0.182864 0.182003 0.181358 0.181130 0.181105 0.181081 0.180855 0.180239 0.179415 0.178623 0.177831 0.177039 0.176270 0.175694 0.175490 0.175468 0.175446 0.175243 0.174688 0.173946 0.173227 0.172507 0.171788 0.171090 0.170568 0.170382 0.170362 0.170342 0.170157 0.169650 0.168973 0.168319 0.167664 0.167010 0.166373 0.165897 0.165727 0.165709 
0.189588 0.189597 0.189725 0.189232 0.188450 0.187352 0.186254 0.185156 0.184334 0.183815 0.183703 0.183695 0.183687 0.183572 0.183009 0.182117 0.180866 0.179616 0.178365 0.176854 0.175900 0.175688 0.175673 0.175658 0.175451 0.174558 0.173144 0.171885 0.170625 0.169366 0.168046 0.167212 0.167017 0.167003 0.166989 0.166787 0.165743 0.164089 0.161865 0.159640 0.157416 0.154613 0.152844 0.152360 0.152325 0.152289 0.151786 0.149099 0.144841 0.140753 0.136665 0.132577 0.129776 0.128009 0.127693 0.127671 0.127649 0.127346 0.126206 0.124399 0.123273 0.122147 0.121021 0.120315 0.119869 0.119785 0.119779 0.119773 0.119689 0.119365 0.118852 0.118486 0.118121 0.117756 0.117485 0.117314 0.117280 0.117277 0.117275 0.117241 0.117100 0.116877 0.116693 0.116510 0.116326 0.116172 0.116075 0.116055 0.116054 0.116052 0.116032 0.115947 0.115812 0.115695 0.115578 0.115461 0.115360 0.115296 0.115283 0.115282 0.115281 0.115268 0.115212 0.115122 0.115044 0.114967 0.114889 0.114822 0.114779 0.114770 0.114770 0.114769 0.114761 0.114723 0.114664 0.114613 0.114561 0.114510 0.114467 0.114439 0.114433 0.114433 0.114433 0.114427 0.114403 0.114365 0.114333 0.114302 0.114270 0.114244 0.114228 0.114224 0.114224 
0.157993 0.157982 0.157940 0.157838 0.157703 0.157566 0.157428 0.157291 0.157149 0.157041 0.156996 0.156985 0.156973 0.156928 0.156818 0.156673 0.156527 0.156381 0.156235 0.156086 0.155973 0.155926 0.155914 0.155902 0.155855 0.155742 0.155592 0.155438 0.155285 0.155131 0.154975 0.154857 0.154807 0.154794 0.154782 0.154732 0.154611 0.154451 0.154287 0.154124 0.153960 0.153793 0.153667 0.153614 0.153601 0.153588 0.153535 0.153405 0.153232 0.153058 0.152883 0.152709 0.152530 0.152395 0.152338 0.152324 0.152310 0.152254 0.152118 0.151938 0.151756 0.151574 0.151392 0.151209 0.151071 0.151013 0.150999 0.150984 0.150927 0.150788 0.150605 0.150423 0.150240 0.150058 0.149877 0.149741 0.149685 0.149671 0.149657 0.149601 0.149506 0.149380 0.149270 0.149160 0.149050 0.148948 0.148871 0.148839 0.148831 0.148823 0.148791 0.148723 0.148632 0.148544 0.148456 0.148369 0.148290 0.148231 0.148207 0.148201 0.148194 0.148170 0.148113 0.148037 0.147968 0.147900 0.147831 0.147767 0.147719 0.147700 0.147695 0.147690 0.147671 0.147625 0.147564 0.147508 0.147452 0.147396 0.147341 0.147300 0.147284 0.147280 0.147277 0.147262 0.147226 0.147178 0.147132 0.147086 0.147040 0.146997 0.146964 0.146951 0.146947 0.146944 0.146930 0.146900 0.146860 0.146821 0.146782 0.146743 0.146707 0.146680 0.146668 0.146666 0.146663 0.146651 0.146624 0.146587 0.146553 0.146520 0.146486 0.146453 0.146428 0.146418 0.146415 
0.176362 0.176353 0.176291 0.176090 0.175823 0.175442 0.175061 0.174681 0.174185 0.173812 0.173660 0.173637 0.173612 0.173452 0.172996 0.172389 0.171934 0.171479 0.171025 0.170735 0.170518 0.170434 0.170421 0.170408 0.170322 0.170094 0.169790 0.169471 0.169152 0.168833 0.168501 0.168252 0.168153 0.168138 0.168123 0.168025 0.167761 0.167410 0.167036 0.166662 0.166288 0.165890 0.165591 0.165473 0.165456 0.165438 0.165320 0.165008 0.164593 0.164169 0.163745 0.163321 0.162915 0.162610 0.162503 0.162487 0.162471 0.162366 0.162097 0.161740 0.161436 0.161131 0.160827 0.160567 0.160372 0.160308 0.160298 0.160289 0.160226 0.160063 0.159846 0.159662 0.159478 0.159294 0.159131 0.159008 0.158966 0.158960 0.158954 0.158911 0.158801 0.158654 0.158519 0.158385 0.158250 0.158121 0.158025 0.157990 0.157985 0.157979 0.157944 0.157851 0.157727 0.157606 0.157485 0.157363 0.157241 0.157150 0.157115 0.157110 
0.190242 0.190215 0.190131 0.189938 0.189685 0.189416 0.189148 0.188880 0.188593 0.188375 0.188275 0.188243 0.188211 0.188110 0.187877 0.187572 0.187246 0.186920 0.186595 0.186245 0.185980 0.185858 0.185820 0.185782 0.185659 0.185379 0.185010 0.184610 0.184209 0.183808 0.183378 0.183051 0.182907 0.182861 0.182816 0.182672 0.182350 0.181925 0.181634 0.181343 0.181052 0.180857 0.180709 0.180641 0.180620 0.180599 0.180532 0.180382 0.180183 0.179983 0.179783 0.179583 0.179379 0.179224 0.179154 0.179133 0.179111 0.179042 0.178887 0.178683 0.178478 0.178272 0.178066 0.177859 0.177702 0.177632 0.177610 0.177588 0.177518 0.177361 0.177153 0.176943 0.176732 0.176522 0.176313 0.176154 0.176084 0.176062 0.176039 0.175968 0.175805 0.175591 0.175378 0.175165 0.174952 0.174736 0.174572 0.174497 0.174474 0.174450 0.174376 0.174210 0.173992 0.173773 0.173554 0.173336 0.173111 0.172940 0.172863 0.172839 0.172815 0.172738 0.172565 0.172339 0.172105 0.171871 0.171637 0.171402 0.171223 0.171143 0.171118 0.171093 0.171013 0.170834 0.170598 0.170360 0.170122 0.169884 0.169650 0.169471 0.169392 0.169367 0.169342 0.169263 0.169087 0.168855 0.168629 0.168403 0.168178 0.167967 0.167807 0.167737 0.167715 0.167693 0.167623 0.167470 0.167269 0.167083 0.166897 0.166711 0.166541 0.166411 0.166355 0.166337 0.166319 0.166263 0.166139 0.165977 0.165838 0.165700 0.165561 0.165426 0.165324 0.165279 0.165264 0.165250 0.165206 0.165121 0.165010 0.164900 0.164791 0.164681 0.164579 0.164502 0.164471 0.164462 0.164452 0.164421 0.164353 0.164263 0.164175 0.164088 0.164001 0.163925 0.163867 0.163841 0.163833 0.163825 0.163799 0.163740 0.163663 0.163594 0.163525 0.163455 0.163388 0.163338 0.163315 0.163307 0.163300 0.163277 0.163229 0.163165 0.163106 0.163046 0.162986 0.162925 0.162879 0.162859 0.162853 0.162847 0.162829 0.162788 0.162733 0.162678 0.162622 0.162566 0.162514 0.162474 0.162457 0.162451 0.162446 0.162428 0.162388 0.162336 0.162285 0.162234 0.162182 0.162133 0.162095 0.162078 0.162072 0.162067 0.162050 0.162011 0.161959 0.161910 0.161861 0.161812 0.161762 0.161724 0.161707 0.161701 0.161696 0.161679 0.161641 0.161593 0.161543 0.161493 0.161443 0.161392 0.161353 0.161337 0.161331 
0.195960 0.195898 0.195635 0.195002 0.194164 0.193366 0.192569 0.191771 0.191006 0.190428 0.190199 0.190144 0.190091 0.189864 0.189318 0.188595 0.187919 0.187243 0.186568 0.185937 0.185461 0.185274 0.185230 0.185187 0.185003 0.184569 0.183995 0.183470 0.182944 0.182419 0.181934 0.181568 0.181425 0.181391 0.181357 0.181214 0.180865 0.180404 0.179943 0.179483 0.179023 0.178569 0.178226 0.178086 0.178053 0.178020 0.177881 0.177545 0.177101 0.176672 0.176243 0.175814 0.175409 0.175103 0.174982 0.174953 0.174924 0.174803 0.174517 0.174137 0.173792 0.173448 0.173103 0.172786 0.172547 0.172453 0.172431 0.172409 0.172316 0.172094 0.171801 0.171537 0.171274 0.171011 0.170766 0.170582 0.170512 0.170496 0.170479 0.170410 0.170244 0.170023 0.169824 0.169625 0.169427 0.169240 0.169099 0.169047 0.169034 0.169022 0.168970 0.168844 0.168677 0.168521 0.168364 0.168208 0.168058 0.167946 0.167902 0.167892 0.167882 0.167841 0.167741 0.167609 0.167483 0.167357 0.167232 0.167112 0.167022 0.166985 0.166976 0.166967 0.166932 0.166850 0.166741 0.166634 0.166527 0.166420 0.166318 0.166241 0.166209 0.166202 0.166194 0.166163 0.166090 0.165995 0.165899 0.165803 0.165707 0.165614 0.165544 0.165515 0.165508 
0.200884 0.200820 0.200625 0.200210 0.199664 0.199138 0.198612 0.198086 0.197573 0.197182 0.197004 0.196946 0.196887 0.196711 0.196329 0.195827 0.195342 0.194858 0.194373 0.193905 0.193550 0.193391 0.193339 0.193285 0.193122 0.192774 0.192317 0.191880 0.191443 0.191006 0.190585 0.190266 0.190123 0.190076 0.190029 0.189888 0.189585 0.189187 0.188794 0.188401 0.188008 0.187629 0.187342 0.187213 0.187170 0.187127 0.186999 0.186726 0.186367 0.186013 0.185660 0.185307 0.184959 0.184694 0.184574 0.184535 0.184495 0.184374 0.184111 0.183765 0.183423 0.183082 0.182740 0.182402 0.182144 0.182029 0.181991 0.181953 0.181838 0.181589 0.181260 0.180936 0.180612 0.180288 0.179972 0.179733 0.179624 0.179588 0.179553 0.179445 0.179210 0.178901 0.178599 0.178297 0.177996 0.177714 0.177499 0.177411 0.177382 0.177352 0.177265 0.177075 0.176826 0.176597 0.176368 0.176139 0.175925 0.175762 0.175689 0.175664 0.175640 0.175568 0.175413 0.175209 0.175031 0.174854 0.174676 0.174505 0.174374 0.174316 0.174297 0.174277 0.174220 0.174106 0.173956 0.173815 0.173674 0.173533 0.173393 0.173287 0.173240 0.173225 0.173211 0.173169 0.173076 0.172955 0.172836 0.172717 0.172597 0.172489 0.172406 0.172372 0.172360 0.172349 0.172314 0.172238 0.172138 0.172040 0.171942 0.171843 0.171758 0.171693 0.171663 0.171653 0.171643 0.171613 0.171546 0.171458 0.171375 0.171291 0.171208 0.171130 0.171070 0.171043 0.171034 0.171024 0.170997 0.170935 0.170855 0.170784 0.170713 0.170642 0.170572 0.170518 0.170493 0.170485 0.170477 0.170452 0.170401 0.170334 0.170270 0.170207 0.170143 0.170078 0.170029 0.170006 0.169998 0.169991 0.169969 0.169925 0.169866 0.169806 0.169745 0.169685 0.169625 0.169579 0.169559 0.169553 0.169547 0.169527 0.169484 0.169428 0.169370 0.169311 0.169253 0.169198 0.169156 0.169137 0.169131 0.169125 0.169105 0.169062 0.169005 0.168948 0.168891 0.168834 0.168779 0.168736 0.168717 0.168710 
0.212007 0.211911 0.211505 0.210543 0.209269 0.208085 0.206901 0.205718 0.204610 0.203774 0.203441 0.203362 0.203284 0.202954 0.202166 0.201123 0.200170 0.199217 0.198264 0.197372 0.196698 0.196430 0.196366 0.196303 0.196037 0.195408 0.194575 0.193807 0.193040 0.192272 0.191544 0.190995 0.190775 0.190723 0.190671 0.190452 0.189933 0.189244 0.188599 0.187953 0.187307 0.186700 0.186241 0.186055 0.186011 0.185967 0.185782 0.185339 0.184751 0.184193 0.183635 0.183076 0.182550 0.182153 0.181994 0.181957 0.181920 0.181763 0.181388 0.180890 0.180457 0.180023 0.179590 0.179199 0.178904 0.178792 0.178766 0.178740 0.178628 0.178364 0.178015 0.177712 0.177409 0.177106 0.176832 0.176625 0.176551 0.176534 0.176516 0.176443 0.176267 0.176035 0.175823 0.175611 0.175399 0.175200 0.175049 0.174993 0.174980 0.174967 0.174915 0.174786 0.174614 0.174456 0.174298 0.174140 0.173994 0.173884 0.173837 0.173825 0.173815 0.173771 0.173675 0.173549 0.173426 0.173303 0.173181 0.173067 0.172981 0.172946 0.172938 0.172929 0.172894 0.172817 0.172716 0.172617 0.172518 0.172419 0.172328 0.172260 0.172231 0.172225 0.172218 0.172189 0.172124 0.172037 0.171952 0.171867 0.171782 0.171703 0.171644 0.171619 0.171613 
0.217182 0.217073 0.216740 0.216023 0.215080 0.214179 0.213277 0.212376 0.211511 0.210853 0.210561 0.210465 0.210370 0.210080 0.209455 0.208634 0.207854 0.207075 0.206296 0.205558 0.204996 0.204748 0.204667 0.204586 0.204341 0.203805 0.203101 0.202419 0.201738 0.201057 0.200425 0.199945 0.199732 0.199662 0.199593 0.199381 0.198922 0.198320 0.197741 0.197163 0.196585 0.196030 0.195609 0.195422 0.195361 0.195300 0.195115 0.194715 0.194189 0.193690 0.193190 0.192691 0.192218 0.191858 0.191697 0.191644 0.191592 0.191433 0.191088 0.190633 0.190187 0.189742 0.189297 0.188865 0.188536 0.188391 0.188343 0.188296 0.188151 0.187837 0.187424 0.187023 0.186622 0.186222 0.185842 0.185553 0.185422 0.185380 0.185337 0.185208 0.184925 0.184553 0.184198 0.183843 0.183488 0.183149 0.182891 0.182775 0.182737 0.182699 0.182584 0.182332 0.182002 0.181710 0.181418 0.181127 0.180856 0.180649 0.180558 0.180528 0.180498 0.180407 0.180230 0.179996 0.179781 0.179565 0.179350 0.179140 0.178980 0.178912 0.178889 0.178869 0.178807 0.178672 0.178494 0.178320 0.178145 0.177970 0.177813 0.177694 0.177645 0.177629 0.177613 0.177564 0.177455 0.177313 0.177175 0.177037 0.176898 0.176780 0.176690 0.176649 0.176635 0.176622 0.176580 0.176489 0.176369 0.176260 0.176150 0.176041 0.175941 0.175865 0.175830 0.175819 0.175807 0.175772 0.175695 0.175594 0.175509 0.175425 0.175341 0.175255 0.175190 0.175160 0.175150 0.175141 0.175110 0.175051 0.174972 0.174898 0.174824 0.174749 0.174673 0.174616 0.174591 0.174583 0.174576 0.174555 0.174505 0.174440 0.174374 0.174307 0.174241 0.174179 0.174133 0.174113 0.174107 0.174101 0.174081 0.174037 0.173979 0.173921 0.173863 0.173805 0.173753 0.173714 0.173695 0.173689 0.173683 0.173665 0.173625 0.173572 0.173522 0.173471 0.173420 0.173371 0.173334 0.173316 0.173311 0.173305 0.173288 0.173248 0.173197 0.173150 0.173104 0.173057 0.173008 0.172971 0.172953 0.172948 
0.221773 0.221651 0.221267 0.220433 0.219336 0.218290 0.217245 0.216199 0.215207 0.214454 0.214124 0.214019 0.213915 0.213589 0.212881 0.211950 0.211054 0.210159 0.209263 0.208411 0.207764 0.207481 0.207390 0.207301 0.207021 0.206415 0.205618 0.204864 0.204110 0.203356 0.202644 0.202103 0.201866 0.201791 0.201717 0.201487 0.200981 0.200315 0.199677 0.199039 0.198401 0.197791 0.197327 0.197122 0.197057 0.196993 0.196790 0.196351 0.195773 0.195232 0.194691 0.194150 0.193642 0.193257 0.193086 0.193031 0.192977 0.192806 0.192431 0.191937 0.191462 0.190986 0.190511 0.190055 0.189709 0.189556 0.189507 0.189459 0.189306 0.188973 0.188533 0.188116 0.187698 0.187280 0.186874 0.186565 0.186428 0.186385 0.186341 0.186205 0.185916 0.185535 0.185165 0.184795 0.184425 0.184067 0.183796 0.183682 0.183645 0.183609 0.183495 0.183247 0.182920 0.182618 0.182316 0.182013 0.181755 0.181558 0.181473 0.181446 0.181419 0.181334 0.181149 0.180904 0.180683 0.180462 0.180241 0.180038 0.179884 0.179815 0.179794 0.179772 0.179703 0.179557 0.179364 0.179201 0.179037 0.178873 0.178710 0.178586 0.178530 0.178512 0.178495 0.178440 0.178336 0.178198 0.178061 0.177925 0.177788 0.177660 0.177563 0.177523 0.177510 0.177498 0.177458 0.177369 0.177253 0.177140 0.177027 0.176914 0.176816 0.176741 0.176708 0.176697 0.176686 0.176652 0.176576 0.176475 0.176384 0.176293 0.176202 0.176115 0.176049 0.176019 0.176010 0.176000 0.175971 0.175908 0.175826 0.175751 0.175675 0.175600 0.175523 0.175465 0.175439 0.175430 0.175423 0.175401 0.175352 0.175287 0.175220 0.175153 0.175086 0.175025 0.174978 0.174958 0.174952 0.174945 0.174925 0.174880 0.174820 0.174762 0.174703 0.174644 0.174591 0.174551 0.174532 0.174526 0.174520 0.174502 0.174460 0.174405 0.174355 0.174304 0.174254 0.174202 0.174162 0.174144 0.174138 
0.225587 0.225453 0.224953 0.223812 0.222303 0.220881 0.219459 0.218037 0.216705 0.215697 0.215283 0.215172 0.215062 0.214653 0.213718 0.212482 0.211329 0.210176 0.209024 0.207955 0.207147 0.206816 0.206727 0.206639 0.206311 0.205558 0.204562 0.203630 0.202698 0.201766 0.200900 0.200245 0.199975 0.199903 0.199832 0.199565 0.198955 0.198149 0.197398 0.196648 0.195897 0.195196 0.194665 0.194445 0.194386 0.194328 0.194111 0.193610 0.192949 0.192329 0.191710 0.191090 0.190489 0.190034 0.189849 0.189799 0.189750 0.189567 0.189142 0.188580 0.188044 0.187507 0.186971 0.186468 0.186088 0.185930 0.185887 0.185845 0.185687 0.185332 0.184863 0.184423 0.183983 0.183543 0.183133 0.182824 0.182705 0.182673 0.182642 0.182528 0.182267 0.181922 0.181627 0.181333 0.181038 0.180779 0.180582 0.180500 0.180478 0.180457 0.180376 0.180216 0.180005 0.179798 0.179590 0.179383 0.179215 0.179087 0.179034 0.179019 0.179005 0.178952 0.178827 0.178662 0.178527 0.178392 0.178257 0.178125 0.178025 0.177991 0.177982 0.177972 0.177938 0.177853 0.177740 0.177635 0.177529 0.177423 0.177330 0.177259 0.177229 0.177221 0.177213 0.177182 0.177120 0.177038 0.176961 0.176885 0.176808 0.176741 0.176690 0.176669 0.176664 0.176658 0.176637 0.176588 0.176522 0.176466 0.176409 0.176353 0.176298 0.176257 0.176239 0.176234 0.176230 0.176216 0.176183 0.176139 0.176094 0.176049 0.176004 0.175965 0.175935 0.175922 0.175919 
0.227504 0.227366 0.226754 0.225296 0.223363 0.221586 0.219808 0.218031 0.216408 0.215185 0.214712 0.214606 0.214502 0.214036 0.212921 0.211442 0.210061 0.208680 0.207299 0.206035 0.205083 0.204713 0.204629 0.204547 0.204183 0.203323 0.202183 0.201144 0.200105 0.199066 0.198101 0.197374 0.197087 0.197023 0.196959 0.196676 0.196004 0.195113 0.194291 0.193470 0.192649 0.191904 0.191342 0.191121 0.191072 0.191021 0.190799 0.190271 0.189570 0.188905 0.188239 0.187574 0.186955 0.186489 0.186303 0.186262 0.186220 0.186037 0.185614 0.185053 0.184529 0.184005 0.183481 0.183028 0.182687 0.182554 0.182524 0.182494 0.182363 0.182073 0.181688 0.181351 0.181014 0.180677 0.180401 0.180193 0.180109 0.180090 0.180071 0.179987 0.179799 0.179551 0.179330 0.179109 0.178888 0.178701 0.178560 0.178503 0.178490 0.178477 0.178420 0.178292 0.178122 0.177964 0.177807 0.177650 0.177515 0.177413 0.177372 0.177363 0.177354 0.177312 0.177219 0.177095 0.176982 0.176869 0.176755 0.176660 0.176587 0.176558 0.176551 0.176544 0.176514 0.176446 0.176355 0.176275 0.176196 0.176116 0.176052 0.176004 0.175984 0.175979 
0.225830 0.225696 0.225188 0.224020 0.222475 0.221032 0.219589 0.218146 0.216803 0.215787 0.215371 0.215261 0.215152 0.214740 0.213790 0.212533 0.211352 0.210170 0.208989 0.207882 0.207045 0.206702 0.206612 0.206522 0.206184 0.205409 0.204384 0.203432 0.202480 0.201528 0.200639 0.199967 0.199691 0.199619 0.199547 0.199274 0.198650 0.197825 0.197060 0.196294 0.195528 0.194808 0.194264 0.194041 0.193982 0.193924 0.193703 0.193193 0.192518 0.191885 0.191252 0.190619 0.190018 0.189563 0.189375 0.189325 0.189275 0.189088 0.188665 0.188106 0.187572 0.187039 0.186505 0.186008 0.185633 0.185478 0.185437 0.185396 0.185242 0.184882 0.184406 0.183973 0.183541 0.183108 0.182697 0.182387 0.182257 0.182223 0.182192 0.182072 0.181813 0.181471 0.181159 0.180847 0.180534 0.180279 0.180086 0.180007 0.179985 0.179965 0.179885 0.179701 0.179457 0.179259 0.179061 0.178864 0.178673 0.178530 0.178481 0.178469 0.178456 0.178407 0.178290 0.178136 0.177991 0.177846 0.177700 0.177574 0.177478 0.177438 0.177427 0.177416 0.177375 0.177286 0.177168 0.177065 0.176963 0.176860 0.176765 0.176694 0.176668 0.176661 0.176654 0.176629 0.176568 0.176487 0.176417 0.176348 0.176279 0.176216 0.176168 0.176148 0.176143 0.176137 0.176117 0.176079 0.176030 0.175985 0.175940 0.175896 0.175864 0.175840 0.175831 0.175828 
0.211431 0.211339 0.211029 0.210332 0.209414 0.208532 0.207651 0.206769 0.205924 0.205283 0.205007 0.204925 0.204843 0.204569 0.203958 0.203153 0.202383 0.201614 0.200844 0.200110 0.199553 0.199315 0.199244 0.199173 0.198937 0.198410 0.197715 0.197050 0.196385 0.195720 0.195084 0.194601 0.194394 0.194332 0.194271 0.194066 0.193608 0.193005 0.192431 0.191857 0.191284 0.190739 0.190325 0.190148 0.190095 0.190042 0.189866 0.189474 0.188958 0.188466 0.187975 0.187483 0.187006 0.186644 0.186487 0.186440 0.186394 0.186240 0.185897 0.185446 0.185009 0.184572 0.184135 0.183727 0.183418 0.183285 0.183246 0.183206 0.183073 0.182773 0.182378 0.182003 0.181628 0.181253 0.180894 0.180623 0.180505 0.180469 0.180434 0.180317 0.180063 0.179728 0.179414 0.179101 0.178787 0.178488 0.178262 0.178172 0.178145 0.178118 0.178029 0.177829 0.177566 0.177347 0.177128 0.176910 0.176748 0.176625 0.176571 0.176555 0.176539 0.176485 0.176364 0.176206 0.176087 0.175968 0.175849 0.175735 0.175649 0.175610 0.175599 0.175588 0.175552 0.175488 0.175404 0.175317 0.175230 0.175142 0.175075 0.175024 0.175004 0.174998 0.174992 0.174971 0.174923 0.174860 0.174807 0.174754 0.174701 0.174655 0.174620 0.174604 0.174599 0.174594 0.174578 0.174548 0.174508 0.174478 0.174448 0.174418 0.174387 0.174364 0.174360 0.174358 0.174357 0.174352 0.174342 0.174328 0.174316 0.174303 0.174290 0.174289 0.174289 0.174288 0.174288 0.174288 0.174287 0.174285 0.174283 0.174294 0.174305 0.174316 0.174330 0.174340 0.174345 0.174346 
0.187407 0.187358 0.187172 0.186733 0.186152 0.185592 0.185031 0.184471 0.183934 0.183527 0.183359 0.183315 0.183271 0.183103 0.182712 0.182194 0.181698 0.181203 0.180707 0.180235 0.179878 0.179731 0.179692 0.179654 0.179507 0.179165 0.178711 0.178278 0.177844 0.177411 0.177005 0.176698 0.176570 0.176536 0.176503 0.176374 0.176079 0.175687 0.175313 0.174938 0.174563 0.174213 0.173948 0.173839 0.173810 0.173781 0.173672 0.173416 0.173078 0.172767 0.172455 0.172144 0.171842 0.171614 0.171524 0.171501 0.171478 0.171388 0.171178 0.170900 0.170639 0.170378 0.170117 0.169904 0.169742 0.169684 0.169669 0.169654 0.169598 0.169480 0.169324 0.169181 0.169037 0.168894 0.168774 0.168683 0.168646 0.168636 0.168626 0.168589 0.168499 0.168380 0.168281 0.168182 0.168082 0.167986 0.167913 0.167884 0.167876 0.167870 0.167845 0.167784 0.167704 0.167623 0.167542 0.167461 0.167390 0.167337 0.167314 0.167308 0.167302 0.167279 0.167229 0.167164 0.167108 0.167052 0.166995 0.166946 0.166908 0.166895 0.166891 0.166888 0.166874 0.166841 0.166797 0.166763 0.166729 0.166695 0.166664 0.166641 0.166631 0.166628 
0.165705 0.165688 0.165613 0.165430 0.165187 0.164946 0.164706 0.164465 0.164229 0.164050 0.163978 0.163962 0.163945 0.163873 0.163701 0.163473 0.163250 0.163026 0.162803 0.162587 0.162424 0.162358 0.162343 0.162328 0.162263 0.162108 0.161902 0.161702 0.161503 0.161304 0.161116 0.160974 0.160917 0.160904 0.160891 0.160834 0.160699 0.160519 0.160348 0.160178 0.160007 0.159851 0.159733 0.159685 0.159674 0.159663 0.159616 0.159501 0.159350 0.159274 0.159199 0.159124 0.159080 0.159046 0.159034 0.159031 0.159028 0.159015 0.158982 0.158939 0.158904 0.158869 0.158833 0.158798 0.158771 0.158762 0.158760 0.158758 0.158748 0.158723 0.158690 0.158658 0.158627 0.158595 0.158559 0.158531 0.158522 0.158520 0.158518 0.158509 0.158484 0.158451 0.158420 0.158388 0.158357 0.158325 0.158300 0.158291 0.158289 
