0.145324 0.145319 0.145233 0.144803 0.144121 0.143298 0.142474 0.141650 0.140829 0.140311 0.140200 0.140194 0.140188 0.140077 0.139567 0.138758 0.137975 0.137192 0.136409 0.135661 0.135190 0.135090 0.135084 0.135079 0.134979 0.134526 0.133808 0.133118 0.132428 0.131738 0.131071 0.130650 0.130561 0.130556 0.130551 0.130461 0.130057 0.129416 0.128821 0.128227 0.127633 0.127083 0.126737 0.126664 0.126660 0.126656 0.126583 0.126260 0.125748 0.125295 0.124841 0.124387 0.123985 0.123731 0.123678 0.123675 0.123672 0.123620 0.123383 0.123009 0.122657 0.122305 0.121953 0.121621 0.121412 0.121368 0.121365 0.121363 0.121319 0.121122 0.120809 0.120522 0.120236 0.119949 0.119688 0.119523 0.119489 0.119487 
0.145327 0.145338 0.145470 0.145998 0.146836 0.147582 0.148329 0.149075 0.149855 0.150348 0.150460 0.150469 0.150478 0.150591 0.151124 0.151969 0.152902 0.153834 0.154766 0.155787 0.156431 0.156578 0.156590 0.156602 0.156750 0.157443 0.158541 0.159735 0.160929 0.162124 0.163412 0.164225 0.164409 0.164424 0.164439 0.164623 0.165486 0.166853 0.168294 0.169735 0.171175 0.172668 0.173610 0.173818 0.173834 0.173851 0.174062 0.175026 0.176552 0.178131 0.179711 0.181291 0.182946 0.183991 0.184228 0.184247 0.184266 0.184504 0.185614 0.187373 0.189271 0.191170 0.193069 0.195055 0.196308 0.196584 0.196606 0.196628 0.196904 0.198151 0.200127 0.201955 0.203783 0.205611 0.207139 0.208104 0.208295 0.208311 0.208326 0.208516 0.209258 0.210434 0.211085 0.211737 0.212388 0.212498 0.212568 0.212557 0.212556 0.212555 0.212548 0.212340 0.212010 0.211170 0.210330 0.209490 0.208174 0.207343 0.207129 0.207113 
0.145324 0.145323 0.145306 0.145091 0.144751 0.144208 0.143666 0.143124 0.142696 0.142426 0.142376 0.142374 0.142371 0.142322 0.142119 0.141798 0.141460 0.141122 0.140783 0.140432 0.140211 0.140157 0.140154 0.140151 0.140095 0.139751 0.139207 0.137861 0.136516 0.135171 0.132828 0.131350 0.131031 0.131015 0.130998 0.130675 0.129159 0.126757 0.124765 0.122774 0.120783 0.119644 0.118926 0.118808 0.118802 0.118796 0.118681 0.118260 0.117591 0.117207 0.116823 0.116439 0.116194 0.116039 0.116010 0.116009 0.116007 0.115979 0.115861 0.115673 0.115527 0.115380 0.115233 0.115116 0.115042 0.115027 0.115026 0.115026 0.115011 0.114949 0.114850 0.114769 0.114688 0.114607 0.114541 0.114499 0.114491 0.114491 0.114490 0.114482 0.114447 0.114391 0.114346 0.114301 0.114256 0.114220 0.114197 0.114193 0.114193 0.114193 0.114188 0.114170 0.114141 0.114118 0.114095 0.114072 0.114047 0.114031 0.114027 0.114026 
0.121365 0.121364 0.121357 0.121341 0.121319 0.121295 0.121271 0.121248 0.121226 0.121210 0.121205 0.121204 0.121203 0.121197 0.121185 0.121168 0.121151 0.121133 0.121116 0.121099 0.121085 0.121080 0.121079 0.121078 0.121072 0.121058 0.121040 0.121021 0.121002 0.120983 0.120963 0.120948 0.120943 0.120941 0.120940 0.120934 0.120919 0.120899 0.120879 0.120859 0.120839 0.120819 0.120804 0.120798 0.120797 0.120795 0.120790 0.120775 0.120755 0.120736 0.120717 0.120698 0.120679 0.120665 0.120660 0.120658 0.120657 0.120652 0.120638 0.120620 0.120602 0.120584 0.120566 0.120549 0.120536 0.120531 0.120530 
0.126660 0.126660 0.126660 0.126661 0.126661 0.126659 0.126657 0.126655 0.126650 0.126646 0.126644 0.126644 0.126643 0.126642 0.126634 0.126624 0.126611 0.126598 0.126585 0.126567 0.126554 0.126548 0.126547 0.126546 0.126540 0.126528 0.126511 0.126503 0.126495 0.126487 0.126476 0.126468 0.126465 0.126464 0.126463 0.126460 0.126452 0.126441 0.126427 0.126413 0.126400 0.126384 0.126372 0.126367 0.126365 0.126364 0.126359 0.126346 0.126329 0.126309 0.126288 0.126268 0.126246 0.126230 0.126223 0.126221 0.126220 0.126213 0.126195 0.126171 0.126147 0.126122 0.126097 0.126072 0.126053 0.126045 0.126043 0.126041 0.126033 0.126014 0.125987 0.125961 0.125934 0.125908 0.125881 0.125861 0.125853 0.125851 0.125849 0.125840 0.125820 0.125793 0.125765 0.125738 0.125711 0.125683 0.125662 0.125654 0.125652 0.125650 0.125641 0.125620 0.125592 0.125563 0.125535 0.125507 0.125478 0.125457 0.125448 0.125446 
0.130556 0.130557 0.130561 0.130569 0.130580 0.130589 0.130598 0.130608 0.130615 0.130620 0.130622 0.130623 0.130623 0.130625 0.130629 0.130633 0.130637 0.130640 0.130644 0.130644 0.130644 0.130644 0.130644 0.130644 0.130644 0.130643 0.130642 0.130637 0.130632 0.130628 0.130621 0.130616 0.130613 0.130612 0.130611 0.130608 0.130601 0.130591 0.130577 0.130563 0.130549 0.130532 0.130520 0.130514 0.130513 0.130511 0.130506 0.130489 0.130467 0.130442 0.130418 0.130393 0.130364 0.130342 0.130333 0.130330 0.130328 0.130318 0.130294 0.130261 0.130224 0.130187 0.130150 0.130109 0.130078 0.130064 0.130061 0.130057 0.130044 0.130016 0.129979 0.129956 0.129932 0.129909 0.129886 0.129869 0.129862 0.129860 0.129858 0.129850 0.129832 0.129808 0.129784 0.129759 0.129734 0.129709 0.129690 0.129682 0.129680 0.129678 0.129669 0.129649 0.129623 0.129596 0.129569 0.129542 0.129514 0.129492 0.129483 0.129481 0.129479 0.129470 0.129449 0.129420 0.129391 0.129363 0.129334 0.129305 0.129283 0.129273 0.129271 0.129269 0.129260 0.129237 0.129208 0.129178 0.129149 0.129119 0.129089 0.129067 0.129058 0.129055 0.129053 0.129044 0.129021 0.128991 0.128961 0.128931 0.128900 0.128870 0.128847 0.128837 0.128835 0.128833 0.128823 0.128800 0.128769 0.128738 0.128706 0.128675 0.128643 0.128619 0.128609 0.128607 
0.135084 0.135085 0.135089 0.135097 0.135107 0.135114 0.135121 0.135128 0.135131 0.135133 0.135134 0.135134 0.135134 0.135135 0.135134 0.135133 0.135129 0.135124 0.135120 0.135112 0.135106 0.135103 0.135102 0.135101 0.135098 0.135089 0.135077 0.135062 0.135047 0.135032 0.135013 0.134999 0.134993 0.134992 0.134990 0.134984 0.134967 0.134945 0.134919 0.134894 0.134869 0.134840 0.134818 0.134809 0.134807 0.134805 0.134795 0.134772 0.134741 0.134706 0.134670 0.134635 0.134596 0.134567 0.134554 0.134552 0.134549 0.134536 0.134504 0.134463 0.134416 0.134369 0.134323 0.134273 0.134235 0.134219 0.134215 0.134211 0.134194 0.134153 0.134099 0.134040 0.133981 0.133922 0.133860 0.133813 0.133793 0.133788 0.133783 0.133763 0.133712 0.133645 0.133575 0.133505 0.133435 0.133362 0.133307 0.133284 0.133279 0.133273 0.133250 0.133192 0.133116 0.133062 0.133008 0.132955 0.132912 0.132880 0.132867 0.132864 0.132861 0.132848 0.132817 0.132777 0.132737 0.132697 0.132657 0.132619 0.132590 0.132578 0.132575 0.132572 0.132560 0.132532 0.132495 0.132458 0.132421 0.132384 0.132348 0.132321 0.132310 0.132308 0.132305 0.132294 0.132267 0.132231 0.132197 0.132162 0.132127 0.132093 0.132068 0.132057 0.132055 0.132052 0.132042 0.132017 0.131983 0.131950 0.131918 0.131886 0.131854 0.131830 0.131820 0.131818 0.131816 0.131806 0.131782 0.131751 0.131720 0.131689 0.131659 0.131628 0.131605 0.131595 0.131593 0.131591 0.131582 0.131559 0.131528 0.131498 0.131468 0.131438 0.131407 0.131385 0.131375 0.131373 
0.140194 0.140195 0.140198 0.140205 0.140214 0.140221 0.140228 0.140235 0.140238 0.140241 0.140242 0.140242 0.140243 0.140243 0.140244 0.140245 0.140242 0.140239 0.140237 0.140232 0.140228 0.140225 0.140225 0.140224 0.140222 0.140215 0.140206 0.140194 0.140183 0.140171 0.140156 0.140145 0.140140 0.140138 0.140137 0.140131 0.140118 0.140099 0.140078 0.140056 0.140035 0.140011 0.139993 0.139985 0.139982 0.139980 0.139971 0.139951 0.139923 0.139894 0.139864 0.139835 0.139803 0.139779 0.139768 0.139765 0.139762 0.139752 0.139726 0.139692 0.139655 0.139617 0.139580 0.139541 0.139512 0.139499 0.139495 0.139492 0.139479 0.139448 0.139408 0.139366 0.139324 0.139283 0.139240 0.139208 0.139194 0.139190 0.139186 0.139173 0.139139 0.139094 0.139047 0.139000 0.138953 0.138905 0.138868 0.138851 0.138847 0.138842 0.138826 0.138787 0.138736 0.138682 0.138628 0.138574 0.138518 0.138475 0.138456 0.138451 0.138446 0.138427 0.138381 0.138319 0.138255 0.138191 0.138127 0.138059 0.138007 0.137985 0.137979 0.137973 0.137950 0.137897 0.137827 0.137753 0.137679 0.137606 0.137531 0.137474 0.137449 0.137442 0.137436 0.137411 0.137352 0.137273 0.137207 0.137141 0.137075 0.137024 0.136986 0.136970 0.136966 0.136961 0.136945 0.136908 0.136859 0.136814 0.136769 0.136723 0.136680 0.136647 0.136633 0.136629 0.136625 0.136612 0.136582 0.136543 0.136505 0.136467 0.136429 0.136394 0.136367 0.136356 0.136353 0.136349 0.136338 0.136311 0.136276 0.136243 0.136211 0.136178 0.136145 0.136121 0.136110 0.136108 0.136105 0.136095 0.136073 0.136043 0.136013 0.135983 0.135953 0.135924 0.135903 0.135894 0.135892 0.135889 0.135880 0.135858 0.135830 0.135803 0.135776 0.135749 0.135722 0.135702 0.135694 0.135691 0.135689 0.135681 0.135661 0.135636 0.135610 0.135584 0.135558 0.135533 0.135514 0.135506 0.135504 0.135502 0.135493 0.135474 0.135449 0.135424 0.135400 0.135375 0.135350 0.135331 0.135323 0.135321 0.135319 0.135311 0.135292 0.135268 0.135243 0.135218 0.135194 0.135169 0.135150 0.135142 0.135140 
0.164420 0.164404 0.164353 0.164236 0.164083 0.163926 0.163768 0.163611 0.163448 0.163324 0.163267 0.163249 0.163231 0.163175 0.163047 0.162879 0.162707 0.162535 0.162363 0.162186 0.162052 0.161992 0.161972 0.161953 0.161892 0.161756 0.161576 0.161391 0.161206 0.161021 0.160839 0.160700 0.160639 0.160619 0.160600 0.160538 0.160400 0.160217 0.160037 0.159857 0.159677 0.159497 0.159359 0.159297 0.159277 0.159257 0.159195 0.159056 0.158873 0.158696 0.158519 0.158343 0.158169 0.158037 0.157978 0.157960 0.157942 0.157884 0.157755 0.157586 0.157418 0.157249 0.157080 0.156914 0.156787 0.156731 0.156713 0.156695 0.156639 0.156514 0.156349 0.156184 0.156018 0.155853 0.155689 0.155565 0.155509 0.155492 0.155474 0.155418 0.155294 0.155130 0.154981 0.154833 0.154684 0.154540 0.154431 0.154382 0.154367 0.154352 0.154303 0.154196 0.154056 0.153919 0.153783 0.153646 0.153515 0.153415 0.153370 0.153356 0.153342 0.153298 0.153202 0.153074 0.152955 0.152835 0.152715 0.152599 0.152511 0.152471 0.152459 0.152447 0.152408 0.152326 0.152217 0.152112 0.152006 0.151901 0.151799 0.151722 0.151689 0.151679 0.151668 0.151635 0.151562 0.151465 0.151371 0.151278 0.151184 0.151096 0.151030 0.151000 0.150991 0.150982 0.150952 0.150886 0.150800 0.150718 0.150636 0.150553 0.150473 0.150412 0.150385 0.150377 0.150368 0.150341 0.150283 0.150206 0.150132 0.150058 0.149984 0.149910 0.149855 0.149831 0.149824 0.149816 0.149793 0.149740 0.149672 0.149603 0.149534 0.149466 0.149401 0.149352 0.149330 0.149323 0.149316 0.149294 0.149245 0.149181 0.149118 0.149056 0.148994 0.148933 0.148887 0.148867 0.148860 0.148853 0.148833 0.148787 0.148726 0.148669 0.148611 0.148554 0.148496 0.148452 0.148432 0.148426 0.148419 0.148400 0.148358 0.148303 0.148248 0.148192 0.148136 0.148082 0.148040 0.148022 0.148016 
