0.133795 0.133790 0.133725 0.133434 0.132972 0.132536 0.132099 0.131663 0.131261 0.131007 0.130953 0.130949 0.130945 0.130891 0.130656 0.130283 0.129938 0.129593 0.129248 0.128924 0.128720 0.128676 0.128672 0.128668 0.128624 0.128426 0.128113 0.127806 0.127498 0.127190 0.126884 0.126691 0.126648 0.126645 0.126642 0.126599 0.126405 0.126099 0.125795 0.125491 0.125187 0.124889 0.124701 0.124660 0.124657 0.124653 0.124612 0.124430 0.124141 0.123862 0.123584 0.123306 0.123038 0.122869 0.122833 0.122830 0.122827 0.122791 0.122629 0.122373 0.122133 0.121892 0.121651 0.121424 0.121280 0.121250 0.121247 0.121245 0.121214 0.121079 0.120865 0.120665 0.120464 0.120264 0.120077 0.119959 0.119933 0.119931 0.119929 0.119904 0.119792 0.119615 0.119448 0.119282 0.119115 0.118959 0.118860 0.118839 0.118837 
0.133797 0.133800 0.133821 0.133880 0.133958 0.134036 0.134114 0.134192 0.134277 0.134340 0.134364 0.134367 0.134370 0.134394 0.134463 0.134555 0.134662 0.134769 0.134876 0.134998 0.135090 0.135125 0.135129 0.135133 0.135170 0.135274 0.135415 0.135569 0.135722 0.135876 0.136043 0.136167 0.136214 0.136220 0.136225 0.136272 0.136403 0.136579 0.136762 0.136945 0.137128 0.137316 0.137458 0.137509 0.137515 0.137521 0.137574 0.137718 0.137912 0.138109 0.138306 0.138503 0.138705 0.138855 0.138911 0.138917 0.138924 0.138979 0.139132 0.139338 0.139547 0.139756 0.139965 0.140178 0.140337 0.140396 0.140403 0.140409 0.140468 0.140631 0.140848 0.141070 0.141291 0.141512 0.141739 0.141908 0.141970 0.141977 0.141984 0.142047 0.142219 0.142449 0.142683 0.142917 0.143151 0.143391 0.143570 0.143635 0.143643 0.143651 0.143717 0.143899 0.144143 0.144391 0.144639 0.144887 0.145140 0.145329 0.145398 0.145406 0.145414 0.145484 0.145676 0.145932 0.146195 0.146457 0.146720 0.146987 0.147187 0.147260 0.147268 0.147277 0.147351 0.147554 0.147826 0.148102 0.148379 0.148655 0.148939 0.149152 0.149230 0.149239 0.149248 0.149326 0.149544 0.149835 0.150130 0.150425 0.150720 0.151025 0.151252 0.151336 0.151346 0.151356 0.151440 0.151675 0.151989 0.152309 0.152630 0.152951 0.153280 0.153527 0.153618 0.153629 0.153639 0.153731 0.153985 0.154325 0.154675 0.155025 0.155375 0.155735 0.156004 0.156104 0.156115 0.156127 0.156227 0.156506 0.156878 0.157264 0.157649 0.158034 0.158431 0.158729 0.158838 0.158851 0.158864 0.158974 0.159280 0.159689 0.160111 0.160532 0.160954 0.161387 0.161712 0.161832 0.161846 0.161860 0.161981 0.162315 0.162762 0.163220 0.163678 0.164136 0.164608 0.164961 0.165091 0.165106 0.165122 0.165252 0.165617 0.166104 0.166598 0.167093 0.167587 0.168098 0.168480 0.168621 0.168638 0.168654 0.168796 0.169184 0.169702 0.170234 0.170765 0.171297 0.171844 0.172253 0.172404 0.172421 0.172438 0.172589 0.173009 0.173571 0.174141 0.174710 0.175280 0.175861 0.176296 0.176457 0.176475 0.176494 0.176655 0.177104 0.177703 0.178321 0.178939 0.179557 0.180186 0.180656 0.180830 0.180850 0.180870 0.181042 0.181519 0.182157 0.182816 0.183475 0.184134 0.184813 0.185322 0.185506 0.185527 
0.133796 0.133797 0.133802 0.133776 0.133736 0.133452 0.133168 0.132885 0.132571 0.132373 0.132325 0.132321 0.132318 0.132271 0.132084 0.131788 0.131532 0.131277 0.131022 0.130811 0.130677 0.130652 0.130650 0.130648 0.130622 0.130515 0.130346 0.130183 0.130020 0.129856 0.129676 0.129563 0.129535 0.129533 0.129531 0.129502 0.129355 0.129122 0.128741 0.128360 0.127979 0.127273 0.126827 0.126699 0.126689 0.126678 0.126538 0.125943 0.125001 0.123898 0.122795 0.121692 0.120632 0.119963 0.119829 0.119819 0.119809 0.119679 0.119164 0.118347 0.117823 0.117299 0.116775 0.116458 0.116258 0.116221 0.116218 0.116215 0.116178 0.116040 0.115821 0.115673 0.115525 0.115376 0.115271 0.115205 0.115192 0.115191 0.115190 0.115177 0.115123 0.115038 0.114969 0.114900 0.114831 0.114773 0.114737 0.114729 0.114728 0.114728 0.114720 0.114688 0.114637 0.114593 0.114549 0.114505 0.114467 0.114443 0.114438 0.114437 0.114437 0.114432 0.114411 0.114377 0.114349 0.114320 0.114292 0.114267 0.114252 0.114249 0.114249 0.114248 0.114245 0.114232 0.114211 0.114194 0.114176 0.114159 0.114144 0.114135 0.114134 0.114133 0.114133 0.114131 0.114124 0.114111 0.114101 0.114091 0.114081 0.114073 0.114068 0.114067 0.114067 0.114067 0.114065 0.114061 0.114054 0.114047 0.114041 0.114034 0.114027 0.114023 0.114022 0.114022 
0.121247 0.121245 0.121238 0.121218 0.121192 0.121165 0.121138 0.121111 0.121082 0.121060 0.121052 0.121050 0.121048 0.121040 0.121017 0.120986 0.120954 0.120922 0.120890 0.120857 0.120831 0.120821 0.120820 0.120818 0.120808 0.120781 0.120746 0.120710 0.120673 0.120637 0.120599 0.120571 0.120559 0.120557 0.120555 0.120544 0.120514 0.120474 0.120443 0.120411 0.120380 0.120352 0.120331 0.120323 0.120321 0.120320 0.120312 0.120292 0.120266 0.120241 0.120216 0.120191 0.120168 0.120150 0.120143 0.120142 0.120141 0.120134 0.120118 0.120095 0.120075 0.120054 0.120034 0.120015 0.120001 0.119996 0.119995 0.119994 0.119988 0.119975 0.119958 0.119942 0.119926 0.119909 0.119894 0.119883 0.119879 0.119878 0.119877 0.119873 0.119863 0.119849 0.119836 0.119823 0.119810 0.119799 0.119790 0.119787 0.119786 
0.126645 0.126643 0.126638 0.126624 0.126605 0.126585 0.126565 0.126545 0.126524 0.126507 0.126501 0.126499 0.126497 0.126490 0.126473 0.126449 0.126425 0.126400 0.126376 0.126350 0.126330 0.126322 0.126320 0.126318 0.126310 0.126289 0.126261 0.126232 0.126203 0.126174 0.126143 0.126120 0.126110 0.126108 0.126106 0.126096 0.126072 0.126039 0.126005 0.125971 0.125937 0.125901 0.125873 0.125862 0.125859 0.125857 0.125845 0.125817 0.125779 0.125740 0.125700 0.125660 0.125619 0.125587 0.125574 0.125571 0.125568 0.125554 0.125522 0.125479 0.125434 0.125388 0.125343 0.125297 0.125262 0.125247 0.125244 0.125240 0.125226 0.125189 0.125141 0.125092 0.125043 0.124994 0.124944 0.124906 0.124890 0.124886 0.124884 0.124872 0.124847 0.124813 0.124780 0.124746 0.124713 0.124681 0.124656 0.124646 0.124644 0.124641 0.124631 0.124608 0.124577 0.124546 0.124515 0.124485 0.124455 0.124432 0.124423 0.124421 0.124419 0.124409 0.124387 0.124358 0.124330 0.124301 0.124272 0.124245 0.124225 0.124216 0.124214 0.124212 0.124204 0.124183 0.124156 0.124130 0.124104 0.124078 0.124054 0.124035 0.124027 0.124026 0.124024 0.124016 0.123998 0.123974 0.123951 0.123928 0.123905 0.123883 0.123867 0.123860 0.123858 0.123857 0.123850 0.123834 0.123813 0.123793 0.123772 0.123752 0.123732 0.123717 0.123712 0.123710 
0.128672 0.128672 0.128673 0.128674 0.128676 0.128674 0.128672 0.128670 0.128665 0.128661 0.128659 0.128659 0.128658 0.128656 0.128649 0.128640 0.128629 0.128617 0.128606 0.128591 0.128580 0.128575 0.128574 0.128573 0.128568 0.128556 0.128539 0.128522 0.128505 0.128488 0.128469 0.128455 0.128449 0.128447 0.128446 0.128440 0.128426 0.128407 0.128387 0.128368 0.128348 0.128324 0.128306 0.128299 0.128297 0.128296 0.128288 0.128268 0.128242 0.128211 0.128181 0.128151 0.128115 0.128089 0.128078 0.128075 0.128073 0.128062 0.128033 0.127995 0.127952 0.127909 0.127866 0.127818 0.127783 0.127768 0.127764 0.127761 0.127746 0.127708 0.127658 0.127609 0.127559 0.127510 0.127472 0.127442 0.127430 0.127428 0.127425 0.127413 0.127384 0.127346 0.127309 0.127271 0.127234 0.127197 0.127169 0.127158 0.127156 0.127153 0.127142 0.127115 0.127079 0.127043 0.127008 0.126973 0.126938 0.126912 0.126901 0.126899 0.126897 0.126886 0.126861 0.126827 0.126794 0.126761 0.126728 0.126696 0.126671 0.126661 0.126659 0.126657 0.126648 0.126624 0.126594 0.126563 0.126533 0.126503 0.126473 0.126451 0.126442 0.126440 0.126438 0.126429 0.126408 0.126380 0.126352 0.126324 0.126296 0.126268 0.126248 0.126239 0.126237 0.126236 0.126227 0.126207 0.126180 0.126153 0.126127 0.126100 0.126074 0.126054 0.126046 0.126044 
0.130949 0.130950 0.130954 0.130961 0.130970 0.130969 0.130968 0.130966 0.130956 0.130948 0.130943 0.130943 0.130942 0.130937 0.130923 0.130905 0.130880 0.130855 0.130830 0.130802 0.130782 0.130773 0.130772 0.130770 0.130762 0.130738 0.130706 0.130672 0.130637 0.130603 0.130572 0.130550 0.130542 0.130541 0.130539 0.130532 0.130511 0.130484 0.130454 0.130424 0.130394 0.130360 0.130335 0.130326 0.130325 0.130323 0.130316 0.130295 0.130266 0.130232 0.130197 0.130163 0.130122 0.130091 0.130078 0.130075 0.130073 0.130059 0.130023 0.129974 0.129916 0.129858 0.129801 0.129734 0.129685 0.129665 0.129661 0.129657 0.129638 0.129582 0.129509 0.129428 0.129348 0.129268 0.129209 0.129164 0.129147 0.129144 0.129141 0.129124 0.129082 0.129026 0.128973 0.128921 0.128868 0.128820 0.128784 0.128770 0.128767 0.128765 0.128751 0.128717 0.128671 0.128628 0.128585 0.128542 0.128501 0.128470 0.128459 0.128457 0.128455 0.128444 0.128415 0.128377 0.128341 0.128305 0.128269 0.128236 0.128211 0.128201 0.128199 0.128197 0.128188 0.128163 0.128131 0.128100 0.128068 0.128037 0.128006 0.127983 0.127974 0.127972 0.127971 0.127962 0.127939 0.127909 0.127878 0.127848 0.127817 0.127786 0.127762 0.127753 0.127752 
0.134367 0.134366 0.134361 0.134349 0.134333 0.134313 0.134293 0.134274 0.134250 0.134232 0.134224 0.134223 0.134221 0.134213 0.134191 0.134162 0.134131 0.134100 0.134069 0.134035 0.134010 0.133999 0.133997 0.133994 0.133984 0.133957 0.133921 0.133883 0.133845 0.133808 0.133767 0.133736 0.133724 0.133721 0.133718 0.133705 0.133684 0.133657 0.133628 0.133600 0.133571 0.133540 0.133517 0.133507 0.133505 0.133503 0.133493 0.133469 0.133436 0.133400 0.133365 0.133329 0.133291 0.133262 0.133250 0.133247 0.133244 0.133231 0.133200 0.133158 0.133112 0.133067 0.133021 0.132973 0.132936 0.132920 0.132916 0.132912 0.132896 0.132858 0.132808 0.132752 0.132696 0.132640 0.132580 0.132534 0.132516 0.132512 0.132508 0.132490 0.132445 0.132385 0.132326 0.132267 0.132208 0.132149 0.132104 0.132086 0.132082 0.132078 0.132060 0.132016 0.131958 0.131902 0.131846 0.131789 0.131736 0.131695 0.131679 0.131675 0.131671 0.131655 0.131617 0.131566 0.131516 0.131467 0.131418 0.131372 0.131337 0.131323 0.131320 0.131317 0.131303 0.131269 0.131225 0.131183 0.131141 0.131099 0.131060 0.131031 0.131019 0.131016 0.131013 0.131001 0.130972 0.130933 0.130898 0.130862 0.130826 0.130791 0.130765 0.130755 0.130753 0.130750 0.130740 0.130715 0.130682 0.130650 0.130618 0.130587 0.130556 0.130532 0.130523 0.130521 0.130519 0.130509 0.130487 0.130457 0.130428 0.130398 0.130369 0.130340 0.130318 0.130309 0.130307 0.130305 0.130297 0.130275 0.130247 0.130219 0.130191 0.130163 0.130135 0.130114 0.130105 0.130103 
0.137515 0.137511 0.137496 0.137460 0.137413 0.137363 0.137313 0.137264 0.137212 0.137172 0.137156 0.137152 0.137147 0.137131 0.137090 0.137036 0.136980 0.136925 0.136870 0.136812 0.136768 0.136750 0.136746 0.136741 0.136723 0.136679 0.136621 0.136560 0.136499 0.136438 0.136376 0.136329 0.136309 0.136304 0.136299 0.136278 0.136229 0.136164 0.136095 0.136027 0.135959 0.135888 0.135835 0.135813 0.135807 0.135801 0.135779 0.135722 0.135647 0.135570 0.135493 0.135416 0.135336 0.135275 0.135250 0.135243 0.135237 0.135212 0.135149 0.135066 0.134982 0.134897 0.134812 0.134725 0.134659 0.134631 0.134624 0.134618 0.134590 0.134523 0.134435 0.134366 0.134297 0.134228 0.134169 0.134125 0.134108 0.134103 0.134099 0.134082 0.134040 0.133985 0.133933 0.133882 0.133830 0.133780 0.133742 0.133726 0.133722 0.133719 0.133703 0.133668 0.133622 0.133577 0.133532 0.133487 0.133445 0.133413 0.133400 0.133397 0.133393 0.133380 0.133349 0.133308 0.133269 0.133230 0.133191 0.133154 0.133127 0.133116 0.133113 0.133110 0.133099 0.133072 0.133036 0.133002 0.132969 0.132935 0.132903 0.132878 0.132868 0.132866 0.132863 0.132854 0.132831 0.132800 0.132771 0.132741 0.132712 0.132683 0.132661 0.132652 0.132650 0.132648 0.132639 0.132618 0.132592 0.132565 0.132538 0.132512 0.132486 0.132467 0.132459 0.132457 0.132455 0.132447 0.132427 0.132402 0.132377 0.132353 0.132328 0.132304 0.132286 0.132279 0.132277 
0.141976 0.141971 0.141951 0.141901 0.141836 0.141767 0.141699 0.141631 0.141560 0.141506 0.141483 0.141478 0.141472 0.141450 0.141394 0.141319 0.141242 0.141165 0.141088 0.141008 0.140947 0.140922 0.140916 0.140910 0.140886 0.140824 0.140742 0.140659 0.140576 0.140494 0.140409 0.140344 0.140317 0.140311 0.140304 0.140277 0.140211 0.140124 0.140034 0.139943 0.139853 0.139761 0.139692 0.139662 0.139655 0.139648 0.139618 0.139546 0.139451 0.139354 0.139256 0.139158 0.139058 0.138983 0.138952 0.138944 0.138937 0.138905 0.138828 0.138725 0.138639 0.138552 0.138465 0.138393 0.138339 0.138317 0.138312 0.138307 0.138285 0.138234 0.138167 0.138104 0.138040 0.137977 0.137919 0.137875 0.137857 0.137852 0.137848 0.137830 0.137787 0.137730 0.137676 0.137623 0.137570 0.137518 0.137480 0.137464 0.137461 0.137457 0.137442 0.137405 0.137356 0.137310 0.137264 0.137218 0.137173 0.137139 0.137125 0.137122 0.137119 0.137106 0.137074 0.137032 0.136991 0.136950 0.136909 0.136870 0.136840 0.136828 0.136825 0.136822 0.136809 0.136781 0.136744 0.136707 0.136670 0.136633 0.136598 0.136571 0.136560 0.136558 0.136555 0.136544 0.136517 0.136482 0.136448 0.136415 0.136381 0.136348 0.136322 0.136312 0.136309 0.136307 0.136297 0.136271 0.136238 0.136205 0.136173 0.136140 0.136107 0.136082 0.136072 0.136069 
0.165102 0.165083 0.165020 0.164874 0.164682 0.164489 0.164295 0.164101 0.163900 0.163747 0.163681 0.163661 0.163641 0.163575 0.163423 0.163223 0.163023 0.162823 0.162622 0.162422 0.162270 0.162203 0.162184 0.162164 0.162097 0.161943 0.161741 0.161537 0.161334 0.161131 0.160927 0.160773 0.160705 0.160684 0.160664 0.160596 0.160444 0.160243 0.160043 0.159843 0.159643 0.159444 0.159293 0.159227 0.159208 0.159188 0.159123 0.158974 0.158777 0.158581 0.158386 0.158190 0.157997 0.157851 0.157787 0.157768 0.157749 0.157684 0.157537 0.157342 0.157147 0.156953 0.156758 0.156565 0.156419 0.156355 0.156336 0.156317 0.156253 0.156108 0.155917 0.155727 0.155538 0.155348 0.155182 0.155055 0.155005 0.154990 0.154976 0.154927 0.154822 0.154683 0.154549 0.154416 0.154283 0.154160 0.154067 0.154027 0.154015 0.154003 0.153963 0.153873 0.153754 0.153644 0.153533 0.153423 0.153319 0.153240 0.153205 0.153195 0.153185 0.153151 0.153078 0.152983 0.152890 0.152797 0.152705 0.152616 0.152549 0.152521 0.152513 0.152504 0.152476 0.152413 0.152328 0.152248 0.152167 0.152087 0.152011 0.151953 0.151928 0.151920 0.151913 0.151887 0.151831 0.151756 0.151687 0.151618 0.151550 0.151479 0.151426 0.151405 0.151399 0.151393 0.151372 0.151324 0.151260 0.151197 0.151134 0.151070 0.151012 0.150967 0.150947 0.150942 0.150936 0.150916 0.150871 0.150811 0.150756 0.150700 0.150645 0.150589 0.150547 0.150528 0.150523 0.150517 0.150499 0.150459 0.150407 0.150355 0.150302 0.150249 0.150199 0.150161 0.150144 0.150139 0.150134 0.150118 0.150080 0.150029 0.149980 0.149931 0.149882 0.149833 0.149796 0.149780 0.149775 
