0.275039 0.275054 0.275280 0.275326 0.275399 0.269576 0.263753 0.257930 0.249483 0.244153 0.243016 0.242945 0.242875 0.241750 0.236935 0.229304 0.223189 0.217075 0.210960 0.206033 0.202924 0.202293 0.202253 0.202214 0.201590 0.198910 0.194663 0.191032 0.187401 0.183770 0.180626 0.178643 0.178231 0.178205 0.178179 0.177770 0.175983 0.173151 0.170580 0.168009 0.165439 0.163105 0.161632 0.161322 0.161303 0.161284 0.160976 0.159618 0.157468 0.155557 0.153647 0.151736 0.150055 0.148994 0.148773 0.148760 0.148746 0.148527 0.147572 0.146058 0.144722 0.143386 0.142049 0.140865 0.140117 0.139962 0.139952 
0.275001 0.274859 0.273360 0.266826 0.256637 0.248146 0.239656 0.231165 0.225431 0.221754 0.221024 0.220955 0.220889 0.220187 0.217628 0.213637 0.210946 0.208256 0.205565 0.203660 0.202438 0.202187 0.202163 0.202139 0.201888 0.200913 0.199393 0.198101 0.196810 0.195518 0.194329 0.193567 0.193389 0.193372 0.193355 0.193177 0.192424 0.191251 0.190044 0.188837 0.187631 0.186375 0.185569 0.185378 0.185360 0.185342 0.185152 0.184349 0.183096 0.181860 0.180625 0.179390 0.178202 0.177440 0.177263 0.177247 0.177230 0.177055 0.176330 0.175199 0.174129 0.173058 0.171988 0.170976 0.170328 0.170178 0.170163 0.170149 0.170000 0.169381 0.168415 0.167493 0.166571 0.165649 0.164763 0.164196 0.164064 0.164051 0.164039 0.163907 0.163357 0.162500 0.161670 0.160840 0.160010 0.159208 0.158693 0.158573 0.158562 0.158551 0.158431 0.157932 0.157154 0.156405 0.155656 0.154906 0.154186 0.153724 0.153616 0.153606 0.153596 0.153489 0.153044 0.152350 0.151682 0.151015 0.150348 0.149704 0.149290 0.149194 0.149185 0.149175 0.149079 0.148677 0.148049 0.147437 0.146825 0.146214 0.145615 0.145232 0.145142 0.145133 0.145125 0.145035 0.144659 0.144074 0.143504 0.142934 0.142363 0.141809 0.141453 0.141370 0.141362 0.141354 0.141271 0.140925 0.140384 0.139860 0.139337 0.138813 0.138307 0.137983 0.137907 0.137899 0.137892 0.137817 0.137502 0.137011 0.136539 0.136068 0.135596 0.135144 0.134854 0.134787 0.134781 0.134774 0.134707 0.134429 0.133994 0.133579 0.133165 0.132750 0.132355 0.132102 0.132043 0.132037 0.132032 0.131973 0.131730 0.131350 0.130989 0.130627 0.130265 0.129920 0.129699 0.129648 0.129643 
0.275111 0.275425 0.280764 0.303526 0.339597 0.394818 0.450039 0.505261 0.464407 0.438625 0.430769 0.430307 0.429806 0.421290 0.387460 0.333850 0.306202 0.278554 0.250906 0.237401 0.228879 0.227424 0.227338 0.227254 0.225823 0.220387 0.211771 0.205948 0.200125 0.194303 0.188630 0.185050 0.184151 0.184098 0.184044 0.183112 0.178389 0.170905 0.163089 0.155272 0.147456 0.141327 0.137460 0.136770 0.136729 0.136691 0.136041 0.133616 0.129773 0.127741 0.125709 0.123676 0.122569 0.121870 0.121749 0.121742 0.121735 0.121613 0.121152 0.120420 0.119939 0.119458 0.118977 0.118635 0.118419 0.118377 0.118375 0.118372 0.118331 0.118159 0.117886 0.117671 0.117455 0.117239 0.117065 0.116956 0.116934 0.116933 0.116931 0.116910 0.116817 0.116671 0.116551 0.116431 0.116311 0.116214 0.116152 0.116139 0.116139 0.116138 0.116125 0.116073 0.115990 0.115920 0.115851 0.115782 0.115724 0.115687 0.115680 0.115680 0.115679 0.115672 0.115640 0.115589 0.115543 0.115498 0.115452 0.115409 0.115381 0.115375 0.115375 
0.161300 0.161289 0.161236 0.161099 0.160917 0.160721 0.160525 0.160329 0.160121 0.159964 0.159900 0.159887 0.159873 0.159810 0.159648 0.159433 0.159209 0.158986 0.158762 0.158534 0.158363 0.158293 0.158278 0.158263 0.158194 0.158019 0.157787 0.157551 0.157314 0.157078 0.156837 0.156655 0.156582 0.156566 0.156551 0.156477 0.156293 0.156048 0.155797 0.155546 0.155296 0.155047 0.154860 0.154785 0.154769 0.154754 0.154679 0.154494 0.154248 0.154005 0.153762 0.153519 0.153279 0.153098 0.153026 0.153011 0.152995 0.152923 0.152744 0.152506 0.152274 0.152043 0.151812 0.151593 0.151427 0.151362 0.151348 0.151334 0.151269 0.151138 0.150964 0.150811 0.150658 0.150505 0.150369 0.150267 0.150227 0.150218 0.150210 0.150170 0.150076 0.149953 0.149837 0.149722 0.149607 0.149499 0.149417 0.149384 0.149377 0.149370 0.149337 0.149261 0.149161 0.149064 0.148967 0.148870 0.148778 0.148708 0.148680 0.148674 0.148668 0.148640 0.148575 0.148490 0.148407 0.148323 0.148239 0.148159 0.148099 0.148074 0.148069 0.148064 0.148042 0.147985 0.147911 0.147839 0.147766 0.147694 0.147623 0.147570 0.147549 0.147545 
0.202243 0.202199 0.202081 0.201826 0.201493 0.201150 0.200806 0.200463 0.200110 0.199840 0.199712 0.199665 0.199618 0.199489 0.199215 0.198856 0.198491 0.198127 0.197762 0.197398 0.197119 0.196987 0.196939 0.196891 0.196759 0.196481 0.196117 0.195754 0.195391 0.195028 0.194664 0.194387 0.194256 0.194208 0.194160 0.194028 0.193751 0.193387 0.193022 0.192658 0.192293 0.191930 0.191652 0.191521 0.191474 0.191426 0.191295 0.191020 0.190658 0.190310 0.189961 0.189612 0.189268 0.189006 0.188882 0.188837 0.188793 0.188670 0.188413 0.188076 0.187745 0.187415 0.187084 0.186758 0.186510 0.186393 0.186350 0.186308 0.186192 0.185949 0.185630 0.185315 0.185001 0.184687 0.184377 0.184140 0.184028 0.183988 0.183947 0.183835 0.183602 0.183295 0.182996 0.182696 0.182396 0.182102 0.181876 0.181770 0.181732 0.181693 0.181588 0.181366 0.181075 0.180790 0.180504 0.180219 0.179938 0.179724 0.179623 0.179586 0.179549 0.179449 0.179238 0.178961 0.178690 0.178419 0.178148 0.177882 0.177678 0.177583 0.177548 0.177513 0.177418 0.177218 0.176955 0.176701 0.176447 0.176192 0.175944 0.175754 0.175665 0.175633 0.175601 0.175512 0.175327 0.175084 0.174851 0.174618 0.174384 0.174156 0.173982 0.173901 0.173871 0.173841 0.173760 0.173589 0.173366 0.173156 0.172946 0.172736 0.172532 0.172375 0.172302 0.172275 0.172249 0.172176 0.172025 0.171828 0.171646 0.171463 0.171281 0.171102 0.170966 0.170903 0.170880 0.170857 0.170796 0.170682 0.170534 0.170398 0.170263 0.170128 0.169996 0.169894 0.169847 0.169829 0.169812 0.169765 0.169675 0.169558 0.169450 0.169342 0.169234 0.169128 0.169047 0.169008 0.168994 0.168980 0.168942 0.168873 0.168783 0.168696 0.168609 0.168522 0.168435 0.168369 0.168338 0.168326 0.168316 0.168286 0.168233 0.168162 0.168091 0.168021 0.167950 0.167879 0.167824 0.167799 0.167790 0.167783 0.167762 0.167716 0.167657 0.167596 0.167535 0.167474 0.167412 0.167365 0.167347 0.167340 0.167334 0.167315 0.167276 0.167225 0.167173 0.167120 0.167067 0.167017 0.166978 0.166962 0.166957 0.166951 0.166935 0.166902 0.166858 0.166813 0.166768 0.166723 0.166682 0.166650 0.166637 0.166632 0.166627 0.166614 0.166585 0.166548 0.166510 0.166472 0.166434 0.166401 0.166375 0.166364 0.166359 0.166355 0.166344 0.166319 0.166287 0.166254 0.166220 0.166187 0.166160 0.166138 0.166129 0.166125 0.166121 0.166111 0.166091 0.166063 0.166036 0.166009 0.165983 0.165960 0.165943 0.165935 0.165932 0.165929 0.165920 0.165903 0.165879 0.165856 0.165833 0.165810 0.165790 0.165774 0.165767 0.165764 0.165761 0.165754 0.165738 0.165718 0.165699 0.165680 0.165660 0.165644 0.165631 0.165625 0.165622 
0.242913 0.242781 0.242015 0.239985 0.237283 0.234550 0.231818 0.229085 0.226509 0.224575 0.223851 0.223726 0.223603 0.222885 0.221088 0.218696 0.216544 0.214391 0.212239 0.210321 0.208880 0.208346 0.208254 0.208164 0.207641 0.206377 0.204694 0.203204 0.201714 0.200224 0.198939 0.197974 0.197633 0.197575 0.197517 0.197180 0.196339 0.195218 0.194198 0.193177 0.192156 0.191139 0.190374 0.190080 0.190030 0.189980 0.189689 0.188944 0.187953 0.186993 0.186032 0.185072 0.184155 0.183466 0.183213 0.183169 0.183126 0.182873 0.182232 0.181379 0.180606 0.179834 0.179061 0.178373 0.177856 0.177663 0.177630 0.177599 0.177413 0.176974 0.176390 0.175906 0.175422 0.174938 0.174558 0.174273 0.174172 0.174155 0.174138 0.174039 0.173814 0.173514 0.173272 0.173030 0.172788 0.172580 0.172423 0.172374 0.172366 0.172358 0.172308 0.172178 0.172006 0.171867 0.171728 0.171590 0.171463 0.171368 0.171332 0.171326 0.171320 0.171284 0.171206 0.171103 0.171008 0.170913 0.170818 0.170731 0.170666 0.170643 0.170639 
0.220922 0.220792 0.219944 0.217837 0.215030 0.212646 0.210261 0.207877 0.205848 0.204325 0.203793 0.203712 0.203632 0.203110 0.201829 0.200122 0.198701 0.197280 0.195859 0.194697 0.193825 0.193502 0.193452 0.193403 0.193084 0.192307 0.191273 0.190256 0.189240 0.188223 0.187215 0.186458 0.186177 0.186134 0.186092 0.185819 0.185108 0.184160 0.183287 0.182413 0.181539 0.180747 0.180153 0.179943 0.179911 0.179881 0.179681 0.179173 0.178496 0.177939 0.177381 0.176824 0.176367 0.176024 0.175908 0.175890 0.175874 0.175767 0.175491 0.175122 0.174834 0.174546 0.174258 0.174016 0.173835 0.173775 0.173766 0.173757 0.173702 0.173552 0.173352 0.173196 0.173040 0.172884 0.172752 0.172653 0.172621 0.172616 0.172612 0.172581 0.172500 0.172392 0.172307 0.172223 0.172138 0.172067 0.172013 0.171996 0.171993 
0.202144 0.202069 0.201827 0.201292 0.200587 0.199916 0.199244 0.198573 0.197935 0.197450 0.197240 0.197175 0.197111 0.196903 0.196445 0.195841 0.195266 0.194691 0.194117 0.193573 0.193161 0.192982 0.192927 0.192872 0.192695 0.192304 0.191789 0.191297 0.190804 0.190312 0.189843 0.189486 0.189331 0.189283 0.189235 0.189081 0.188742 0.188295 0.187866 0.187436 0.187007 0.186597 0.186286 0.186150 0.186108 0.186066 0.185931 0.185626 0.185224 0.184840 0.184455 0.184071 0.183699 0.183416 0.183292 0.183253 0.183215 0.183091 0.182814 0.182450 0.182103 0.181756 0.181409 0.181068 0.180810 0.180697 0.180662 0.180627 0.180513 0.180272 0.179953 0.179642 0.179331 0.179020 0.178725 0.178501 0.178406 0.178377 0.178347 0.178252 0.178041 0.177762 0.177496 0.177231 0.176965 0.176721 0.176536 0.176455 0.176430 0.176405 0.176325 0.176145 0.175909 0.175702 0.175495 0.175287 0.175089 0.174938 0.174873 0.174853 0.174833 0.174768 0.174643 0.174479 0.174325 0.174171 0.174018 0.173880 0.173775 0.173736 0.173724 0.173711 0.173672 0.173585 0.173469 0.173363 0.173256 0.173149 0.173065 0.173000 0.172972 0.172963 0.172955 0.172926 0.172863 0.172780 0.172716 0.172652 0.172589 0.172528 0.172482 0.172461 0.172455 0.172448 0.172428 0.172392 0.172345 0.172301 0.172257 0.172213 0.172170 0.172138 0.172128 0.172125 0.172121 0.172111 0.172086 0.172054 0.172022 0.171990 0.171958 0.171939 0.171924 0.171917 0.171915 0.171913 0.171906 0.171888 0.171866 0.171851 0.171836 0.171821 0.171808 0.171798 0.171793 0.171792 0.171791 0.171786 0.171779 0.171771 0.171765 0.171758 0.171752 0.171746 0.171741 0.171741 0.171741 0.171742 0.171742 0.171743 0.171744 0.171744 0.171745 0.171745 0.171751 0.171755 0.171757 0.171757 0.171758 0.171759 0.171762 0.171766 0.171773 0.171781 0.171788 0.171796 0.171802 0.171804 0.171805 
0.177242 0.177221 0.177092 0.176753 0.176300 0.175856 0.175412 0.174968 0.174542 0.174222 0.174101 0.174082 0.174063 0.173943 0.173636 0.173229 0.172840 0.172452 0.172064 0.171704 0.171435 0.171336 0.171320 0.171304 0.171204 0.170943 0.170595 0.170263 0.169931 0.169600 0.169275 0.169031 0.168939 0.168924 0.168909 0.168818 0.168588 0.168281 0.167989 0.167698 0.167406 0.167143 0.166945 0.166874 0.166862 0.166851 0.166780 0.166616 0.166397 0.166225 0.166053 0.165881 0.165757 0.165664 0.165632 0.165627 0.165622 0.165591 0.165522 0.165430 0.165365 0.165300 0.165235 0.165189 0.165155 0.165144 0.165143 0.165141 0.165130 0.165107 0.165077 0.165060 0.165044 0.165027 0.165018 0.165011 0.165010 0.165010 0.165009 0.165008 0.165008 0.165006 0.165012 0.165018 0.165023 0.165032 0.165038 0.165042 0.165043 
0.158558 0.158544 0.158484 0.158338 0.158145 0.157953 0.157761 0.157569 0.157378 0.157233 0.157174 0.157159 0.157145 0.157086 0.156941 0.156750 0.156561 0.156372 0.156183 0.156001 0.155864 0.155809 0.155796 0.155782 0.155727 0.155595 0.155421 0.155249 0.155077 0.154906 0.154738 0.154612 0.154561 0.154549 0.154537 0.154486 0.154363 0.154201 0.154044 0.153886 0.153729 0.153574 0.153457 0.153409 0.153398 0.153387 0.153340 0.153225 0.153074 0.152927 0.152779 0.152632 0.152486 0.152376 0.152330 0.152319 0.152308 0.152263 0.152158 0.152017 0.151880 0.151742 0.151605 0.151474 0.151376 0.151335 0.151325 0.151316 0.151275 0.151190 0.151078 0.150981 0.150884 0.150788 0.150710 0.150652 0.150629 0.150623 0.150618 0.150595 0.150541 0.150471 0.150420 0.150368 0.150317 0.150275 0.150244 0.150234 0.150231 0.150229 0.150219 0.150194 0.150162 0.150140 0.150119 0.150098 0.150080 0.150066 0.150063 0.150063 0.150062 0.150061 0.150056 0.150050 0.150048 0.150047 0.150045 0.150049 0.150051 0.150052 0.150052 0.150052 0.150053 0.150061 0.150071 0.150083 0.150095 0.150106 0.150124 0.150137 0.150142 0.150143 0.150145 0.150150 0.150164 0.150183 0.150206 0.150228 0.150250 0.150276 0.150295 0.150303 0.150305 
