0.132264 0.132259 0.132187 0.131865 0.131356 0.130914 0.130472 0.130030 0.129643 0.129399 0.129348 0.129344 0.129341 0.129290 0.129060 0.128696 0.128338 0.127980 0.127622 0.127257 0.127027 0.126976 0.126972 0.126969 0.126918 0.126681 0.126306 0.125925 0.125544 0.125163 0.124790 0.124554 0.124504 0.124500 0.124497 0.124447 0.124220 0.123861 0.123518 0.123176 0.122834 0.122509 0.122304 0.122260 0.122257 0.122255 0.122211 0.122017 0.121710 0.121426 0.121143 0.120859 0.120600 0.120436 0.120401 0.120399 0.120397 0.120362 0.120210 0.119969 0.119748 0.119526 0.119305 0.119101 0.118972 0.118945 0.118943 
0.132266 0.132272 0.132335 0.132551 0.132882 0.133161 0.133439 0.133718 0.133994 0.134174 0.134221 0.134226 0.134230 0.134277 0.134471 0.134769 0.135100 0.135431 0.135762 0.136123 0.136358 0.136419 0.136425 0.136431 0.136493 0.136742 0.137125 0.137528 0.137931 0.138334 0.138755 0.139030 0.139100 0.139107 0.139113 0.139184 0.139468 0.139903 0.140356 0.140808 0.141261 0.141732 0.142039 0.142117 0.142125 0.142132 0.142211 0.142528 0.143013 0.143519 0.144025 0.144531 0.145057 0.145400 0.145488 0.145496 0.145505 0.145593 0.145949 0.146494 0.147063 0.147631 0.148200 0.148795 0.149183 0.149283 0.149292 0.149302 0.149402 0.149804 0.150421 0.151065 0.151710 0.152354 0.153026 0.153466 0.153578 0.153589 0.153600 0.153713 0.154171 0.154872 0.155607 0.156342 0.157078 0.157852 0.158357 0.158488 0.158500 0.158513 0.158643 0.159174 0.159988 0.160851 0.161714 0.162577 0.163490 0.164086 0.164240 0.164255 0.164270 0.164423 0.165050 0.166010 0.167019 0.168027 0.169036 0.170093 0.170783 0.170961 0.170978 0.170995 0.171173 0.171894 0.172999 0.174139 0.175279 0.176419 0.177606 0.178382 0.178578 0.178597 0.178616 0.178815 0.179612 0.180832 0.182096 0.183360 0.184624 0.185925 0.186774 0.186990 0.187011 
0.132264 0.132263 0.132235 0.131921 0.131422 0.131099 0.130776 0.130452 0.130229 0.130088 0.130059 0.130058 0.130056 0.130026 0.129898 0.129693 0.129498 0.129304 0.129109 0.128910 0.128785 0.128756 0.128754 0.128752 0.128722 0.128569 0.128325 0.127932 0.127538 0.127144 0.126671 0.126372 0.126260 0.126254 0.126245 0.126111 0.125142 0.123605 0.122200 0.120795 0.119390 0.118459 0.117871 0.117768 0.117761 0.117755 0.117654 0.117283 0.116696 0.116368 0.116040 0.115711 0.115514 0.115389 0.115366 0.115364 0.115363 0.115340 0.115250 0.115106 0.114999 0.114892 0.114785 0.114701 0.114648 0.114638 0.114637 0.114637 0.114626 0.114582 0.114512 0.114454 0.114397 0.114339 0.114292 0.114262 0.114256 0.114256 0.114256 0.114250 0.114224 0.114184 0.114152 0.114119 0.114086 0.114059 0.114042 0.114039 0.114039 0.114039 0.114035 0.114022 0.114000 0.113983 0.113966 0.113949 0.113937 0.113929 0.113927 0.113927 0.113927 0.113926 0.113920 0.113910 0.113904 0.113898 0.113891 0.113888 0.113886 0.113886 0.113886 
0.120399 0.120399 0.120399 0.120398 0.120398 0.120397 0.120395 0.120394 0.120391 0.120389 0.120388 0.120388 0.120387 0.120386 0.120383 0.120379 0.120373 0.120367 0.120361 0.120354 0.120348 0.120346 0.120345 0.120345 0.120342 0.120335 0.120327 0.120316 0.120305 0.120295 0.120283 0.120274 0.120270 0.120269 0.120268 0.120264 0.120254 0.120240 0.120224 0.120209 0.120194 0.120177 0.120164 0.120159 0.120158 0.120156 0.120151 0.120136 0.120117 0.120097 0.120076 0.120056 0.120035 0.120020 0.120015 0.120014 0.120013 0.120008 0.119997 0.119983 0.119968 0.119954 0.119939 0.119924 0.119913 0.119909 0.119908 0.119906 0.119902 0.119891 0.119876 0.119861 0.119846 0.119831 0.119816 0.119805 0.119800 0.119799 0.119798 0.119793 0.119782 0.119767 0.119752 0.119736 0.119721 0.119706 0.119695 0.119690 0.119689 0.119688 0.119683 0.119672 0.119657 0.119643 0.119628 0.119613 0.119599 0.119589 0.119584 0.119583 0.119582 0.119578 0.119567 0.119553 0.119539 0.119526 0.119512 0.119499 0.119488 0.119484 0.119483 0.119482 0.119478 0.119468 0.119455 0.119442 0.119430 0.119417 0.119404 0.119395 0.119391 0.119390 
0.124501 0.124502 0.124506 0.124517 0.124530 0.124543 0.124556 0.124568 0.124579 0.124588 0.124591 0.124592 0.124593 0.124596 0.124604 0.124614 0.124622 0.124630 0.124638 0.124645 0.124650 0.124652 0.124653 0.124653 0.124655 0.124659 0.124664 0.124668 0.124671 0.124675 0.124677 0.124678 0.124679 0.124679 0.124679 0.124679 0.124680 0.124680 0.124679 0.124677 0.124675 0.124673 0.124671 0.124669 0.124669 0.124669 0.124667 0.124664 0.124659 0.124652 0.124646 0.124639 0.124631 0.124624 0.124621 0.124621 0.124620 0.124617 0.124609 0.124599 0.124586 0.124574 0.124561 0.124548 0.124537 0.124532 0.124531 0.124529 0.124524 0.124512 0.124495 0.124477 0.124459 0.124441 0.124421 0.124405 0.124399 0.124397 0.124395 0.124388 0.124371 0.124349 0.124325 0.124301 0.124277 0.124251 0.124232 0.124223 0.124220 0.124218 0.124209 0.124188 0.124160 0.124133 0.124106 0.124078 0.124062 0.124050 0.124045 0.124043 0.124042 0.124036 0.124024 0.124007 0.123990 0.123974 0.123957 0.123939 0.123926 0.123921 0.123919 0.123917 0.123912 0.123898 0.123880 0.123862 0.123844 0.123825 0.123806 0.123792 0.123786 0.123784 0.123783 0.123777 0.123762 0.123743 0.123723 0.123704 0.123685 0.123665 0.123650 0.123644 0.123642 0.123640 0.123634 0.123618 0.123599 0.123578 0.123558 0.123538 0.123518 0.123503 0.123497 0.123495 0.123493 0.123486 0.123471 0.123451 0.123431 0.123411 0.123391 0.123371 0.123356 0.123349 0.123348 0.123346 0.123339 0.123324 0.123305 0.123285 0.123265 0.123245 0.123226 0.123211 0.123204 0.123203 0.123201 0.123195 0.123180 0.123160 0.123141 0.123121 0.123102 0.123083 0.123068 0.123062 0.123060 
0.126973 0.126974 0.126980 0.126993 0.127011 0.127026 0.127041 0.127056 0.127068 0.127077 0.127081 0.127081 0.127082 0.127085 0.127092 0.127100 0.127107 0.127113 0.127119 0.127123 0.127125 0.127126 0.127126 0.127126 0.127126 0.127126 0.127126 0.127123 0.127120 0.127117 0.127111 0.127107 0.127105 0.127104 0.127104 0.127101 0.127095 0.127086 0.127074 0.127062 0.127049 0.127034 0.127022 0.127017 0.127016 0.127015 0.127009 0.126995 0.126976 0.126953 0.126930 0.126907 0.126880 0.126859 0.126850 0.126848 0.126846 0.126838 0.126815 0.126784 0.126749 0.126713 0.126678 0.126638 0.126609 0.126596 0.126593 0.126590 0.126578 0.126545 0.126502 0.126454 0.126406 0.126359 0.126308 0.126269 0.126260 0.126259 0.126257 0.126248 0.126226 0.126198 0.126169 0.126141 0.126112 0.126084 0.126062 0.126054 0.126052 0.126050 0.126041 0.126019 0.125990 0.125961 0.125932 0.125902 0.125873 0.125851 0.125842 0.125840 0.125838 0.125829 0.125807 0.125777 0.125748 0.125718 0.125689 0.125660 0.125638 0.125629 0.125627 0.125625 0.125616 0.125594 0.125565 0.125537 0.125508 0.125480 0.125451 0.125430 0.125422 0.125420 0.125418 0.125410 0.125389 0.125361 0.125334 0.125306 0.125279 0.125251 0.125231 0.125223 0.125221 0.125219 0.125211 0.125190 0.125164 0.125137 0.125110 0.125083 0.125056 0.125036 0.125028 0.125026 
0.129344 0.129345 0.129346 0.129348 0.129350 0.129351 0.129352 0.129353 0.129352 0.129351 0.129350 0.129350 0.129350 0.129349 0.129347 0.129343 0.129338 0.129333 0.129328 0.129321 0.129316 0.129314 0.129313 0.129312 0.129309 0.129303 0.129295 0.129285 0.129275 0.129266 0.129255 0.129246 0.129243 0.129241 0.129240 0.129236 0.129227 0.129215 0.129202 0.129188 0.129175 0.129161 0.129151 0.129146 0.129144 0.129142 0.129137 0.129126 0.129111 0.129095 0.129079 0.129063 0.129046 0.129034 0.129028 0.129026 0.129024 0.129018 0.129004 0.128986 0.128968 0.128950 0.128932 0.128914 0.128901 0.128894 0.128892 0.128890 0.128884 0.128870 0.128852 0.128835 0.128818 0.128801 0.128784 0.128772 0.128766 0.128765 0.128763 0.128757 0.128746 0.128730 0.128715 0.128700 0.128684 0.128668 0.128656 0.128650 0.128648 0.128647 0.128641 0.128629 0.128613 0.128595 0.128577 0.128559 0.128539 0.128525 0.128518 0.128516 0.128514 0.128507 0.128491 0.128471 0.128448 0.128426 0.128403 0.128380 0.128362 0.128354 0.128352 0.128349 0.128341 0.128321 0.128295 0.128269 0.128243 0.128216 0.128189 0.128168 0.128158 0.128154 0.128151 0.128141 0.128118 0.128088 0.128058 0.128027 0.127997 0.127964 0.127939 0.127927 0.127923 0.127920 0.127908 0.127882 0.127848 0.127813 0.127778 0.127743 0.127706 0.127677 0.127665 0.127660 0.127656 0.127643 0.127615 0.127577 0.127542 0.127506 0.127471 0.127443 0.127422 0.127412 0.127409 0.127406 0.127396 0.127375 0.127348 0.127322 0.127296 0.127270 0.127244 0.127224 0.127216 0.127213 0.127210 0.127201 0.127183 0.127159 0.127135 0.127111 0.127087 0.127063 0.127045 0.127038 0.127035 0.127033 0.127025 0.127009 0.126987 0.126965 0.126943 0.126921 0.126900 0.126885 0.126878 0.126876 0.126873 0.126866 0.126851 0.126831 0.126811 0.126792 0.126772 0.126753 0.126739 0.126733 0.126731 0.126729 0.126722 0.126708 0.126690 0.126672 0.126655 0.126638 0.126621 0.126608 0.126602 0.126600 0.126598 0.126592 0.126579 0.126562 0.126547 0.126531 0.126515 0.126500 0.126488 0.126482 0.126481 0.126479 0.126473 0.126462 0.126447 0.126433 0.126418 0.126404 0.126389 0.126378 0.126373 0.126371 0.126370 0.126365 0.126355 0.126341 0.126327 0.126313 0.126299 0.126286 0.126276 0.126271 0.126270 0.126268 0.126264 0.126253 0.126240 0.126227 0.126214 0.126200 0.126187 0.126178 0.126173 0.126172 0.126170 0.126166 0.126156 0.126143 0.126130 0.126117 0.126105 0.126092 0.126082 0.126078 0.126076 0.126075 0.126070 0.126061 0.126048 0.126035 0.126023 0.126011 0.125998 0.125989 0.125984 0.125983 
0.134225 0.134222 0.134212 0.134188 0.134157 0.134125 0.134093 0.134061 0.134027 0.134002 0.133990 0.133987 0.133983 0.133971 0.133945 0.133910 0.133873 0.133837 0.133800 0.133764 0.133736 0.133724 0.133720 0.133716 0.133704 0.133676 0.133640 0.133603 0.133565 0.133528 0.133491 0.133462 0.133450 0.133446 0.133442 0.133429 0.133400 0.133362 0.133323 0.133285 0.133246 0.133207 0.133177 0.133164 0.133160 0.133156 0.133142 0.133112 0.133072 0.133040 0.133008 0.132976 0.132942 0.132917 0.132906 0.132902 0.132899 0.132888 0.132862 0.132829 0.132794 0.132760 0.132726 0.132691 0.132664 0.132653 0.132649 0.132645 0.132634 0.132607 0.132571 0.132534 0.132498 0.132461 0.132424 0.132396 0.132383 0.132380 0.132376 0.132363 0.132334 0.132295 0.132256 0.132218 0.132179 0.132144 0.132118 0.132107 0.132103 0.132099 0.132087 0.132059 0.132022 0.131984 0.131945 0.131907 0.131866 0.131835 0.131821 0.131817 0.131813 0.131799 0.131768 0.131726 0.131681 0.131637 0.131592 0.131547 0.131513 0.131497 0.131493 0.131488 0.131472 0.131435 0.131387 0.131338 0.131288 0.131239 0.131188 0.131149 0.131132 0.131126 0.131121 0.131103 0.131063 0.131011 0.130957 0.130904 0.130850 0.130799 0.130759 0.130744 0.130739 0.130734 0.130719 0.130684 0.130638 0.130594 0.130550 0.130505 0.130462 0.130429 0.130415 0.130410 0.130406 0.130391 0.130360 0.130319 0.130279 0.130238 0.130198 0.130159 0.130129 0.130117 0.130113 0.130109 0.130097 0.130069 0.130032 0.129996 0.129960 0.129924 0.129890 0.129865 0.129854 0.129851 0.129847 0.129836 0.129811 0.129778 0.129747 0.129717 0.129686 0.129656 0.129634 0.129624 0.129621 0.129618 0.129608 0.129586 0.129557 0.129531 0.129504 0.129477 0.129451 0.129430 0.129422 0.129419 0.129417 0.129409 0.129391 0.129367 0.129343 0.129319 0.129295 0.129273 0.129256 0.129249 0.129247 0.129245 0.129238 0.129221 0.129200 0.129179 0.129158 0.129137 0.129118 0.129103 0.129096 0.129094 0.129092 0.129085 0.129070 0.129051 0.129033 0.129014 0.128996 0.128978 0.128964 0.128958 0.128956 0.128954 0.128948 0.128935 0.128918 0.128901 0.128884 0.128867 0.128850 0.128837 0.128832 0.128830 0.128828 0.128823 0.128811 0.128794 0.128778 0.128762 0.128745 0.128729 0.128717 0.128712 0.128710 
0.136425 0.136423 0.136416 0.136399 0.136377 0.136353 0.136330 0.136306 0.136280 0.136260 0.136252 0.136249 0.136247 0.136238 0.136217 0.136190 0.136160 0.136131 0.136102 0.136072 0.136049 0.136039 0.136036 0.136033 0.136022 0.135998 0.135966 0.135934 0.135901 0.135869 0.135835 0.135809 0.135798 0.135795 0.135792 0.135781 0.135757 0.135725 0.135692 0.135659 0.135626 0.135594 0.135569 0.135559 0.135557 0.135554 0.135543 0.135518 0.135485 0.135450 0.135415 0.135380 0.135342 0.135313 0.135300 0.135297 0.135293 0.135281 0.135251 0.135211 0.135167 0.135122 0.135078 0.135031 0.134996 0.134981 0.134976 0.134972 0.134955 0.134916 0.134864 0.134810 0.134757 0.134703 0.134645 0.134601 0.134582 0.134576 0.134571 0.134552 0.134507 0.134448 0.134384 0.134321 0.134257 0.134192 0.134143 0.134122 0.134116 0.134110 0.134088 0.134050 0.134000 0.133952 0.133904 0.133857 0.133811 0.133776 0.133762 0.133758 0.133754 0.133739 0.133706 0.133662 0.133620 0.133579 0.133537 0.133496 0.133466 0.133453 0.133449 0.133445 0.133433 0.133404 0.133367 0.133329 0.133292 0.133255 0.133220 0.133194 0.133183 0.133180 0.133177 0.133165 0.133139 0.133104 0.133072 0.133040 0.133007 0.132975 0.132951 0.132941 0.132938 0.132935 0.132926 0.132903 0.132874 0.132844 0.132815 0.132786 0.132758 0.132737 0.132728 0.132726 0.132723 0.132714 0.132694 0.132666 0.132640 0.132614 0.132589 0.132563 0.132543 0.132535 0.132533 0.132531 0.132523 0.132505 0.132480 0.132456 0.132432 0.132408 0.132385 0.132368 0.132360 0.132358 0.132356 0.132349 0.132331 0.132308 0.132286 0.132264 0.132242 0.132219 0.132202 0.132195 0.132193 0.132191 0.132184 0.132168 0.132146 0.132124 0.132103 0.132081 0.132060 0.132044 0.132037 0.132035 
0.142124 0.142121 0.142099 0.142039 0.141959 0.141865 0.141772 0.141678 0.141576 0.141499 0.141469 0.141465 0.141460 0.141429 0.141347 0.141239 0.141121 0.141004 0.140887 0.140764 0.140672 0.140637 0.140631 0.140625 0.140590 0.140493 0.140364 0.140226 0.140088 0.139951 0.139803 0.139692 0.139649 0.139642 0.139636 0.139592 0.139474 0.139316 0.139150 0.138983 0.138817 0.138642 0.138512 0.138462 0.138454 0.138448 0.138409 0.138322 0.138206 0.138103 0.138000 0.137897 0.137806 0.137738 0.137713 0.137709 0.137705 0.137680 0.137618 0.137536 0.137460 0.137385 0.137309 0.137242 0.137191 0.137172 0.137168 0.137165 0.137146 0.137099 0.137036 0.136977 0.136918 0.136859 0.136805 0.136764 0.136748 0.136746 0.136743 0.136727 0.136688 0.136636 0.136585 0.136534 0.136483 0.136434 0.136397 0.136382 0.136380 
0.153587 0.153580 0.153555 0.153499 0.153425 0.153348 0.153270 0.153192 0.153109 0.153046 0.153017 0.153008 0.152999 0.152970 0.152905 0.152818 0.152728 0.152638 0.152549 0.152455 0.152384 0.152352 0.152343 0.152333 0.152300 0.152227 0.152131 0.152030 0.151929 0.151829 0.151726 0.151649 0.151614 0.151603 0.151592 0.151557 0.151477 0.151372 0.151265 0.151159 0.151053 0.150944 0.150861 0.150824 0.150812 0.150801 0.150763 0.150679 0.150569 0.150458 0.150347 0.150236 0.150123 0.150038 0.150000 0.149988 0.149977 0.149939 0.149854 0.149742 0.149628 0.149513 0.149398 0.149284 0.149197 0.149159 0.149147 0.149135 0.149096 0.149008 0.148892 0.148777 0.148661 0.148546 0.148430 0.148342 0.148302 0.148290 0.148278 0.148238 0.148149 0.148033 0.147916 0.147799 0.147682 0.147564 0.147474 0.147434 0.147422 0.147409 0.147370 0.147280 0.147161 0.147042 0.146922 0.146803 0.146683 0.146593 0.146552 0.146540 0.146527 0.146487 0.146397 0.146277 0.146158 0.146039 0.145919 0.145815 0.145736 0.145707 0.145698 0.145689 0.145660 0.145597 0.145513 0.145433 0.145352 0.145271 0.145196 0.145138 0.145113 0.145105 0.145098 0.145073 0.145017 0.144943 0.144875 0.144806 0.144738 0.144671 0.144621 0.144599 0.144592 0.144585 0.144563 0.144516 0.144453 0.144393 0.144332 0.144272 0.144213 0.144168 0.144149 0.144143 0.144137 0.144118 0.144076 0.144021 0.143966 0.143911 0.143857 0.143806 0.143767 0.143750 0.143745 0.143739 0.143722 0.143684 0.143633 0.143584 0.143536 0.143488 0.143440 0.143404 0.143388 0.143383 0.143378 0.143362 0.143327 0.143281 0.143236 0.143192 0.143148 0.143104 0.143070 0.143056 0.143052 0.143047 0.143033 0.143002 0.142961 0.142919 0.142877 0.142836 0.142797 0.142767 0.142754 0.142750 0.142746 0.142733 0.142703 0.142664 0.142625 0.142587 0.142549 0.142511 0.142483 0.142470 0.142466 0.142462 0.142449 0.142421 0.142383 0.142347 0.142310 0.142274 0.142237 0.142209 0.142197 0.142193 0.142190 0.142178 0.142151 0.142116 0.142080 0.142044 0.142008 0.141973 0.141946 0.141935 0.141931 
0.170974 0.170958 0.170900 0.170759 0.170571 0.170372 0.170173 0.169973 0.169761 0.169600 0.169530 0.169512 0.169493 0.169423 0.169255 0.169033 0.168801 0.168568 0.168336 0.168099 0.167919 0.167843 0.167822 0.167802 0.167725 0.167544 0.167305 0.167062 0.166819 0.166576 0.166330 0.166143 0.166066 0.166045 0.166025 0.165947 0.165761 0.165515 0.165270 0.165024 0.164778 0.164530 0.164342 0.164262 0.164241 0.164220 0.164141 0.163957 0.163714 0.163470 0.163226 0.162983 0.162743 0.162562 0.162485 0.162465 0.162445 0.162368 0.162186 0.161944 0.161702 0.161460 0.161218 0.160979 0.160797 0.160721 0.160701 0.160681 0.160605 0.160426 0.160189 0.159955 0.159720 0.159486 0.159285 0.159134 0.159078 0.159063 0.159048 0.158993 0.158865 0.158695 0.158543 0.158391 0.158239 0.158097 0.157990 0.157946 0.157934 0.157922 0.157878 0.157783 0.157657 0.157537 0.157417 0.157297 0.157191 0.157110 0.157076 0.157067 0.157058 0.157025 0.156945 0.156839 0.156745 0.156651 0.156556 0.156463 0.156392 0.156364 0.156357 0.156350 0.156324 0.156261 0.156178 0.156096 0.156015 0.155934 0.155857 0.155799 0.155775 0.155768 0.155761 0.155737 0.155681 0.155607 0.155537 0.155468 0.155398 0.155331 0.155281 0.155260 0.155255 0.155250 0.155229 0.155180 0.155115 0.155053 0.154992 0.154930 0.154869 0.154822 0.154803 0.154797 0.154792 0.154772 0.154729 0.154672 0.154613 0.154554 0.154496 0.154441 0.154399 0.154381 0.154376 
