0.158909 0.158897 0.158705 0.157876 0.156562 0.155334 0.154106 0.152879 0.151692 0.150943 0.150783 0.150772 0.150762 0.150600 0.149875 0.148725 0.147637 0.146548 0.145460 0.144486 0.143872 0.143743 0.143734 0.143726 0.143598 0.143030 0.142130 0.141294 0.140458 0.139621 0.138831 0.138331 0.138224 0.138217 0.138210 0.138103 0.137622 0.136860 0.136138 0.135416 0.134694 0.134009 0.133576 0.133484 0.133478 0.133472 0.133380 0.132966 0.132309 0.131687 0.131064 0.130441 0.129854 0.129484 0.129406 0.129400 0.129395 0.129316 0.128965 0.128408 0.127890 0.127372 0.126854 0.126378 0.126078 0.126013 0.126009 0.126005 0.125941 0.125661 0.125218 0.124811 0.124404 0.123997 0.123625 0.123390 0.123341 0.123337 
0.158913 0.158917 0.158953 0.159062 0.159228 0.159411 0.159594 0.159777 0.160105 0.160324 0.160398 0.160406 0.160413 0.160488 0.160846 0.161383 0.162113 0.162844 0.163575 0.164425 0.164991 0.165149 0.165164 0.165180 0.165338 0.165943 0.166851 0.167813 0.168775 0.169737 0.170751 0.171426 0.171610 0.171628 0.171646 0.171832 0.172543 0.173611 0.174731 0.175850 0.176969 0.178138 0.178916 0.179129 0.179149 0.179170 0.179382 0.180187 0.181398 0.182657 0.183917 0.185176 0.186492 0.187369 0.187608 0.187631 0.187654 0.187895 0.188807 0.190178 0.191623 0.193068 0.194512 0.196041 0.197058 0.197335 0.197362 0.197389 0.197668 0.198734 0.200335 0.202028 0.203722 0.205415 0.207186 0.208365 0.208687 0.208718 0.208749 0.209072 0.210297 0.212137 0.214023 0.215909 0.217795 0.219696 0.220962 0.221302 0.221335 0.221368 0.221707 0.222973 0.224876 0.226716 0.228557 0.230397 0.232060 0.233166 0.233459 0.233487 0.233515 0.233805 0.234820 0.236345 0.237638 0.238932 0.240225 0.241136 0.241741 0.241887 0.241901 0.241914 0.242051 0.242452 0.243054 0.243166 0.243278 0.243391 0.243043 0.242811 0.242719 0.242710 0.242701 0.242603 0.242104 0.241354 0.240239 0.239125 0.238011 0.236564 0.235602 0.235319 0.235291 
0.158913 0.158915 0.158953 0.158871 0.158743 0.157990 0.157237 0.156484 0.155674 0.155162 0.155043 0.155036 0.155029 0.154909 0.154329 0.153408 0.152595 0.151782 0.150969 0.150304 0.149885 0.149801 0.149796 0.149791 0.149709 0.149365 0.148819 0.148307 0.147794 0.147281 0.146508 0.146021 0.145876 0.145867 0.145857 0.145700 0.144364 0.142248 0.138097 0.133946 0.129795 0.126309 0.124109 0.123690 0.123663 0.123638 0.123230 0.121950 0.119922 0.119266 0.118610 0.117955 0.117629 0.117423 0.117385 0.117383 0.117380 0.117344 0.117199 0.116969 0.116794 0.116618 0.116443 0.116297 0.116205 0.116186 0.116185 0.116183 0.116165 0.116082 0.115952 0.115837 0.115722 0.115607 0.115506 0.115442 0.115429 0.115428 0.115428 0.115415 0.115358 0.115269 0.115192 0.115116 0.115039 0.114976 0.114936 0.114928 0.114928 0.114927 0.114919 0.114885 0.114831 0.114788 0.114744 0.114700 0.114664 0.114642 0.114637 0.114637 0.114637 0.114632 0.114613 0.114583 0.114559 0.114534 0.114509 0.114489 0.114477 0.114474 0.114474 0.114474 0.114471 0.114460 0.114443 0.114428 0.114414 0.114399 0.114388 0.114381 0.114380 0.114380 
0.126010 0.126012 0.126020 0.126036 0.126058 0.126079 0.126100 0.126122 0.126141 0.126156 0.126163 0.126165 0.126167 0.126173 0.126187 0.126206 0.126223 0.126240 0.126258 0.126273 0.126285 0.126290 0.126292 0.126294 0.126299 0.126310 0.126324 0.126336 0.126347 0.126359 0.126370 0.126378 0.126381 0.126382 0.126383 0.126387 0.126393 0.126401 0.126408 0.126415 0.126421 0.126427 0.126431 0.126432 0.126432 0.126432 0.126433 0.126435 0.126436 0.126437 0.126438 0.126439 0.126435 0.126433 0.126431 0.126431 0.126430 0.126429 0.126425 0.126420 0.126412 0.126404 0.126396 0.126391 0.126387 0.126387 0.126386 0.126386 0.126385 0.126383 0.126381 0.126375 0.126369 0.126364 0.126358 0.126353 0.126351 0.126351 0.126350 0.126348 0.126341 0.126332 0.126322 0.126313 0.126303 0.126292 0.126284 0.126280 0.126278 0.126277 0.126272 0.126262 0.126249 0.126234 0.126220 0.126206 0.126189 0.126176 0.126170 0.126168 0.126166 0.126160 0.126147 0.126130 0.126110 0.126091 0.126072 0.126051 0.126036 0.126029 0.126027 0.126025 0.126018 0.126002 0.125980 0.125958 0.125935 0.125913 0.125890 0.125873 0.125866 0.125863 0.125861 0.125853 0.125835 0.125811 0.125787 0.125763 0.125740 0.125715 0.125697 0.125689 0.125686 0.125684 0.125675 0.125657 0.125632 0.125608 0.125583 0.125558 0.125534 0.125515 0.125506 0.125504 0.125501 0.125493 0.125474 0.125449 0.125424 0.125399 0.125374 0.125349 0.125330 0.125322 0.125319 
0.138216 0.138210 0.138198 0.138174 0.138144 0.138114 0.138084 0.138054 0.138024 0.138001 0.137989 0.137984 0.137978 0.137966 0.137943 0.137914 0.137884 0.137854 0.137824 0.137794 0.137772 0.137760 0.137754 0.137749 0.137736 0.137714 0.137684 0.137655 0.137626 0.137596 0.137566 0.137543 0.137531 0.137525 0.137520 0.137508 0.137485 0.137455 0.137425 0.137395 0.137365 0.137335 0.137312 0.137300 0.137294 0.137288 0.137275 0.137252 0.137221 0.137189 0.137158 0.137126 0.137095 0.137070 0.137057 0.137051 0.137046 0.137033 0.137008 0.136976 0.136944 0.136911 0.136878 0.136845 0.136820 0.136807 0.136801 0.136794 0.136781 0.136756 0.136723 0.136689 0.136656 0.136622 0.136588 0.136561 0.136547 0.136541 0.136534 0.136520 0.136494 0.136459 0.136424 0.136390 0.136355 0.136320 0.136293 0.136279 0.136272 0.136265 0.136251 0.136223 0.136187 0.136151 0.136115 0.136079 0.136042 0.136015 0.136000 0.135993 0.135986 0.135971 0.135943 0.135906 0.135869 0.135831 0.135794 0.135756 0.135728 0.135712 0.135705 0.135698 0.135683 0.135654 0.135616 0.135578 0.135540 0.135501 0.135462 0.135432 0.135416 0.135409 0.135402 0.135386 0.135356 0.135317 0.135278 0.135239 0.135200 0.135161 0.135131 0.135114 0.135107 0.135100 0.135083 0.135052 0.135012 0.134972 0.134932 0.134893 0.134853 0.134822 0.134805 0.134798 0.134791 0.134774 0.134743 0.134703 0.134662 0.134621 0.134580 0.134540 0.134508 0.134491 0.134484 0.134476 0.134459 0.134428 0.134387 0.134353 0.134320 0.134286 0.134255 0.134231 0.134218 0.134213 0.134207 0.134194 0.134170 0.134140 0.134109 0.134078 0.134048 0.134018 0.133995 0.133983 0.133978 0.133973 0.133961 0.133939 0.133910 0.133881 0.133853 0.133824 0.133796 0.133774 0.133762 0.133757 0.133751 0.133740 0.133719 0.133692 0.133666 0.133639 0.133613 0.133587 0.133567 0.133556 0.133551 0.133546 0.133536 0.133516 0.133490 0.133465 0.133441 0.133416 0.133392 0.133374 0.133364 0.133360 0.133355 0.133346 0.133327 0.133303 0.133280 0.133256 0.133232 0.133210 0.133193 0.133184 0.133180 0.133176 0.133168 0.133151 0.133130 0.133108 0.133087 0.133065 0.133044 0.133028 0.133019 0.133015 0.133011 0.133002 0.132987 0.132968 0.132949 0.132930 0.132911 0.132892 0.132877 0.132869 0.132866 0.132862 0.132854 0.132839 0.132820 0.132803 0.132785 0.132768 0.132751 0.132738 0.132731 0.132728 0.132725 0.132718 0.132705 0.132688 0.132671 0.132654 0.132637 0.132622 0.132610 0.132604 0.132602 0.132599 0.132593 0.132581 0.132566 0.132551 0.132536 0.132521 0.132506 0.132495 0.132488 0.132486 0.132483 0.132477 0.132467 0.132454 0.132441 0.132428 0.132414 0.132401 0.132391 0.132386 0.132383 0.132381 0.132375 0.132365 0.132352 0.132340 0.132329 0.132317 0.132305 0.132296 0.132291 0.132289 0.132287 0.132282 0.132273 0.132262 0.132250 0.132239 0.132227 0.132217 0.132209 0.132205 0.132203 0.132201 0.132197 0.132189 0.132179 0.132168 0.132158 0.132148 0.132137 0.132130 0.132125 0.132123 0.132122 0.132118 0.132111 0.132102 0.132093 0.132084 0.132074 0.132065 0.132058 0.132055 0.132053 0.132051 0.132048 0.132041 0.132032 0.132024 0.132016 0.132008 0.132000 0.131994 0.131990 0.131989 
0.143734 0.143733 0.143730 0.143718 0.143703 0.143681 0.143658 0.143636 0.143608 0.143586 0.143576 0.143574 0.143572 0.143561 0.143553 0.143542 0.143531 0.143520 0.143509 0.143495 0.143483 0.143478 0.143477 0.143476 0.143470 0.143453 0.143431 0.143403 0.143376 0.143348 0.143313 0.143287 0.143275 0.143273 0.143270 0.143257 0.143225 0.143182 0.143141 0.143099 0.143058 0.143007 0.142969 0.142953 0.142949 0.142945 0.142926 0.142877 0.142813 0.142740 0.142666 0.142593 0.142512 0.142450 0.142425 0.142420 0.142413 0.142385 0.142323 0.142241 0.142165 0.142089 0.142013 0.141937 0.141880 0.141858 0.141853 0.141847 0.141824 0.141768 0.141692 0.141621 0.141549 0.141477 0.141407 0.141354 0.141333 0.141329 0.141324 0.141304 0.141253 0.141186 0.141122 0.141058 0.140993 0.140930 0.140882 0.140863 0.140859 0.140855 0.140837 0.140792 0.140732 0.140674 0.140615 0.140556 0.140499 0.140455 0.140438 0.140434 0.140430 0.140414 0.140373 0.140318 0.140264 0.140211 0.140157 0.140104 0.140064 0.140048 0.140044 0.140041 0.140026 0.139987 0.139936 0.139885 0.139834 0.139783 0.139732 0.139694 0.139678 0.139674 0.139671 0.139656 0.139618 0.139567 0.139515 0.139464 0.139412 0.139359 0.139319 0.139303 0.139299 
0.150772 0.150771 0.150766 0.150754 0.150739 0.150716 0.150692 0.150669 0.150635 0.150610 0.150598 0.150595 0.150591 0.150577 0.150542 0.150495 0.150437 0.150380 0.150322 0.150255 0.150203 0.150178 0.150171 0.150163 0.150136 0.150091 0.150031 0.150003 0.149975 0.149947 0.149916 0.149893 0.149882 0.149879 0.149876 0.149866 0.149842 0.149810 0.149775 0.149741 0.149706 0.149670 0.149643 0.149631 0.149627 0.149624 0.149612 0.149583 0.149544 0.149504 0.149463 0.149423 0.149379 0.149346 0.149331 0.149327 0.149323 0.149308 0.149273 0.149228 0.149179 0.149131 0.149082 0.149030 0.148990 0.148973 0.148968 0.148963 0.148945 0.148902 0.148846 0.148787 0.148728 0.148669 0.148607 0.148560 0.148538 0.148532 0.148525 0.148503 0.148450 0.148381 0.148308 0.148235 0.148162 0.148085 0.148026 0.148001 0.147994 0.147986 0.147961 0.147900 0.147819 0.147733 0.147647 0.147561 0.147474 0.147408 0.147377 0.147369 0.147360 0.147330 0.147261 0.147170 0.147078 0.146987 0.146895 0.146802 0.146732 0.146701 0.146693 0.146684 0.146654 0.146585 0.146493 0.146402 0.146312 0.146221 0.146132 0.146065 0.146037 0.146029 0.146021 0.145993 0.145929 0.145845 0.145764 0.145682 0.145601 0.145525 0.145467 0.145443 0.145436 0.145429 0.145404 0.145348 0.145273 0.145204 0.145136 0.145067 0.144998 0.144946 0.144924 0.144918 0.144911 0.144890 0.144843 0.144781 0.144719 0.144656 0.144594 0.144536 0.144491 0.144472 0.144467 0.144461 0.144442 0.144398 0.144340 0.144286 0.144231 0.144176 0.144122 0.144082 0.144064 0.144059 0.144054 0.144037 0.143998 0.143948 0.143897 0.143847 0.143796 0.143748 0.143711 0.143695 0.143691 0.143686 0.143671 0.143634 0.143586 0.143539 0.143492 0.143446 0.143399 0.143364 0.143349 0.143345 0.143340 0.143325 0.143291 0.143245 0.143200 0.143154 0.143109 0.143064 0.143029 0.143015 0.143011 0.143007 0.142992 0.142958 0.142913 0.142867 0.142822 0.142777 0.142732 0.142698 0.142683 0.142679 
0.160403 0.160393 0.160334 0.160173 0.159959 0.159731 0.159503 0.159275 0.159036 0.158856 0.158787 0.158776 0.158765 0.158695 0.158510 0.158263 0.158012 0.157760 0.157508 0.157254 0.157062 0.156989 0.156978 0.156966 0.156893 0.156700 0.156443 0.156192 0.155940 0.155688 0.155442 0.155257 0.155187 0.155176 0.155164 0.155094 0.154908 0.154659 0.154401 0.154144 0.153886 0.153616 0.153413 0.153334 0.153321 0.153308 0.153229 0.153016 0.152733 0.152436 0.152139 0.151842 0.151538 0.151310 0.151222 0.151207 0.151193 0.151105 0.150873 0.150564 0.150257 0.149949 0.149642 0.149420 0.149254 0.149195 0.149185 0.149176 0.149120 0.148976 0.148785 0.148622 0.148458 0.148295 0.148157 0.148053 0.148013 0.148007 0.148000 0.147962 0.147874 0.147756 0.147651 0.147545 0.147440 0.147349 0.147282 0.147257 0.147252 0.147248 0.147223 0.147164 0.147087 0.147017 0.146948 0.146878 0.146818 0.146772 0.146756 0.146753 0.146750 0.146734 0.146693 0.146639 0.146589 0.146539 0.146490 0.146445 0.146411 0.146399 0.146397 
0.171625 0.171612 0.171579 0.171508 0.171415 0.171319 0.171224 0.171128 0.171029 0.170954 0.170917 0.170903 0.170888 0.170851 0.170772 0.170668 0.170561 0.170454 0.170347 0.170237 0.170153 0.170112 0.170096 0.170080 0.170038 0.169951 0.169838 0.169722 0.169606 0.169491 0.169373 0.169284 0.169240 0.169223 0.169207 0.169163 0.169070 0.168949 0.168826 0.168703 0.168580 0.168455 0.168359 0.168313 0.168295 0.168278 0.168231 0.168133 0.168006 0.167878 0.167749 0.167621 0.167492 0.167393 0.167346 0.167327 0.167309 0.167261 0.167160 0.167028 0.166895 0.166761 0.166628 0.166494 0.166392 0.166342 0.166324 0.166305 0.166255 0.166152 0.166017 0.165882 0.165747 0.165612 0.165476 0.165372 0.165322 0.165303 0.165284 0.165234 0.165129 0.164992 0.164856 0.164720 0.164584 0.164448 0.164343 0.164293 0.164274 0.164255 0.164204 0.164099 0.163960 0.163822 0.163683 0.163544 0.163405 0.163299 0.163248 0.163228 0.163209 0.163158 0.163051 0.162912 0.162773 0.162634 0.162496 0.162358 0.162252 0.162201 0.162182 0.162162 0.162111 0.162006 0.161868 0.161729 0.161591 0.161453 0.161315 0.161210 0.161159 0.161139 0.161120 0.161069 0.160964 0.160826 0.160688 0.160550 0.160412 0.160274 0.160168 0.160117 0.160097 0.160078 0.160027 0.159921 0.159783 0.159646 0.159509 0.159372 0.159236 0.159131 0.159081 0.159062 0.159043 0.158993 0.158891 0.158757 0.158625 0.158492 0.158360 0.158228 0.158127 0.158078 0.158060 0.158041 0.157993 0.157893 0.157763 0.157635 0.157507 0.157378 0.157251 0.157153 0.157106 0.157088 0.157070 0.157023 0.156927 0.156802 0.156680 0.156559 0.156437 0.156354 0.156291 0.156261 0.156249 0.156237 0.156207 0.156147 0.156069 0.155996 0.155923 0.155850 0.155778 0.155723 0.155697 0.155687 0.155677 0.155651 0.155599 0.155531 0.155468 0.155405 0.155342 0.155280 0.155233 0.155210 0.155201 0.155193 0.155170 0.155125 0.155065 0.155012 0.154958 0.154905 0.154852 0.154811 0.154791 0.154784 0.154776 0.154756 0.154716 0.154663 0.154615 0.154567 0.154519 0.154471 0.154434 0.154416 0.154410 0.154403 0.154385 0.154348 0.154301 0.154257 0.154213 0.154169 0.154125 0.154091 0.154075 0.154068 0.154062 0.154046 0.154012 0.153968 0.153928 0.153889 0.153849 0.153809 0.153779 0.153764 0.153759 0.153753 0.153738 0.153708 0.153668 0.153632 0.153596 0.153560 0.153523 0.153495 0.153481 0.153476 0.153471 0.153457 0.153429 0.153392 0.153359 0.153326 0.153292 0.153259 0.153233 0.153221 0.153216 0.153211 0.153199 0.153172 0.153138 0.153107 0.153076 0.153045 0.153013 0.152989 0.152978 0.152973 0.152969 0.152957 0.152933 0.152901 0.152872 0.152843 0.152814 0.152784 0.152762 0.152751 0.152747 0.152743 0.152732 0.152709 0.152679 0.152651 0.152624 0.152596 0.152568 0.152547 0.152536 0.152532 0.152528 0.152518 0.152496 0.152468 0.152441 0.152414 0.152387 0.152360 0.152339 0.152329 0.152325 0.152321 0.152311 0.152290 0.152263 0.152237 0.152211 0.152185 0.152159 0.152140 0.152130 0.152126 
0.197354 0.197325 0.197228 0.197006 0.196712 0.196406 0.196099 0.195793 0.195480 0.195243 0.195136 0.195103 0.195070 0.194963 0.194717 0.194393 0.194058 0.193724 0.193390 0.193046 0.192785 0.192667 0.192631 0.192595 0.192477 0.192208 0.191853 0.191499 0.191144 0.190789 0.190429 0.190155 0.190032 0.189994 0.189956 0.189832 0.189553 0.189185 0.188816 0.188448 0.188079 0.187711 0.187432 0.187307 0.187269 0.187231 0.187107 0.186826 0.186456 0.186083 0.185711 0.185339 0.184965 0.184681 0.184556 0.184518 0.184480 0.184355 0.184076 0.183708 0.183343 0.182978 0.182613 0.182251 0.181977 0.181856 0.181819 0.181782 0.181661 0.181390 0.181034 0.180686 0.180338 0.179991 0.179650 0.179392 0.179278 0.179243 0.179208 0.179095 0.178840 0.178505 0.178176 0.177847 0.177518 0.177195 0.176949 0.176841 0.176808 0.176775 0.176667 0.176428 0.176112 0.175804 0.175495 0.175187 0.174890 0.174664 0.174566 0.174536 0.174506 0.174409 0.174190 0.173902 0.173620 0.173339 0.173057 0.172783 0.172575 0.172484 0.172456 0.172428 0.172337 0.172133 0.171865 0.171606 0.171348 0.171090 0.170837 0.170645 0.170561 0.170535 0.170509 0.170427 0.170243 0.170001 0.169762 0.169522 0.169283 0.169079 0.168923 0.168860 0.168840 0.168821 0.168758 0.168619 0.168436 0.168265 0.168094 0.167923 0.167762 0.167640 0.167586 0.167570 0.167554 0.167501 0.167386 0.167234 0.167093 0.166953 0.166813 0.166675 0.166571 0.166527 0.166514 0.166501 0.166458 0.166363 0.166238 0.166115 0.165992 0.165869 0.165756 0.165671 0.165634 0.165622 0.165611 0.165573 0.165489 0.165377 0.165272 0.165167 0.165062 0.164960 0.164882 0.164848 0.164837 0.164827 0.164793 0.164719 0.164622 0.164527 0.164433 0.164339 0.164245 0.164174 0.164145 0.164136 0.164127 0.164097 0.164031 0.163944 0.163858 0.163772 0.163686 0.163604 0.163543 0.163515 0.163507 0.163499 0.163471 0.163409 0.163327 0.163250 0.163172 0.163095 0.163018 0.162959 0.162933 0.162925 0.162917 0.162891 0.162835 0.162762 0.162689 0.162617 0.162544 0.162473 0.162418 0.162395 0.162388 0.162381 0.162358 0.162305 0.162235 0.162166 0.162097 0.162028 0.161960 0.161909 0.161887 0.161880 0.161873 0.161850 0.161798 0.161729 0.161663 0.161597 0.161531 0.161464 0.161413 0.161391 0.161383 
0.241865 0.241722 0.241100 0.239604 0.237619 0.235728 0.233836 0.231944 0.230168 0.228828 0.228298 0.228176 0.228055 0.227531 0.226274 0.224608 0.223027 0.221447 0.219867 0.218373 0.217247 0.216799 0.216697 0.216595 0.216151 0.215092 0.213688 0.212362 0.211036 0.209710 0.208471 0.207536 0.207168 0.207083 0.206999 0.206634 0.205754 0.204587 0.203509 0.202430 0.201352 0.200349 0.199592 0.199291 0.199222 0.199154 0.198856 0.198148 0.197210 0.196330 0.195451 0.194571 0.193756 0.193141 0.192902 0.192847 0.192792 0.192554 0.191990 0.191241 0.190536 0.189831 0.189126 0.188474 0.187982 0.187786 0.187741 0.187696 0.187502 0.187045 0.186439 0.185872 0.185306 0.184739 0.184221 0.183831 0.183674 0.183638 0.183603 0.183447 0.183083 0.182600 0.182184 0.181768 0.181352 0.181030 0.180786 0.180690 0.180667 0.180645 0.180549 0.180325 0.180029 0.179766 0.179504 0.179242 0.179015 0.178844 0.178777 0.178761 0.178746 0.178679 0.178520 0.178311 0.178124 0.177937 0.177750 0.177578 0.177449 0.177398 0.177387 0.177375 0.177325 0.177203 0.177041 0.176897 0.176753 0.176609 0.176473 0.176370 0.176329 0.176320 0.176311 0.176270 0.176171 0.176040 0.175925 0.175809 0.175694 0.175584 0.175501 0.175469 0.175462 0.175454 0.175422 0.175343 0.175237 0.175141 0.175045 0.174948 0.174855 0.174784 0.174757 0.174751 
