-1.515668 0.700599 16.962903
-1.518566 0.703224 16.953283
-1.521465 0.705849 16.943664
-1.662775 0.833792 16.475126
-1.802783 0.960552 16.010938
-1.941840 1.086867 15.546347
-2.079617 1.212548 15.081503
-1.523332 0.707541 16.937464
-1.662217 0.833287 16.476979
-1.663334 0.834298 16.473274
-1.802221 0.960045 16.012790
-1.803345 0.961060 16.009087
-1.941277 1.086359 15.548197
-1.942404 1.087375 15.544496
-2.079222 1.212120 15.083416
-1.530918 0.714413 16.912286
-1.654627 0.826413 16.502156
-1.670924 0.841171 16.448097
-1.794588 0.953152 16.037948
-1.810979 0.967954 15.983929
-1.933644 1.079466 15.573355
-1.950063 1.094281 15.519349
-2.073649 1.206203 15.109348
-1.547193 0.729153 16.858281
-1.565416 0.745653 16.797853
-1.583644 0.762155 16.737427
-1.601875 0.778659 16.677003
-1.620108 0.795163 16.616579
-1.638337 0.811666 16.556154
-1.687200 0.855912 16.394092
-1.705401 0.872402 16.333655
-1.723597 0.888889 16.273216
-1.741794 0.905377 16.212777
-1.760011 0.921874 16.152346
-1.778261 0.938387 16.091930
-1.827345 0.982736 15.929963
-1.845624 0.999262 15.869560
-1.863791 1.015736 15.809108
-1.881873 1.032170 15.748620
-1.899747 1.048507 15.688044
-1.917641 1.064853 15.627476
-1.966662 1.109173 15.465486
-1.985936 1.126163 15.405522
-2.005424 1.143252 15.345656
-2.024889 1.160331 15.285780
-2.043206 1.176875 15.225393
-2.059876 1.192642 15.164348
-3.004675 1.691194 14.584637
-4.266675 1.900828 14.476475
-5.389706 2.415689 14.366264
-5.836539 3.616511 14.314567
-6.371811 4.781089 14.252823
-7.073354 5.852258 14.183706
-7.987885 6.745355 14.106543
-9.088354 7.395446 14.024538
-10.308938 7.778957 13.942177
-11.577177 7.952744 13.862309
-12.858217 7.969422 13.785659
-2.080012 1.212976 15.079589
-3.002728 1.690780 14.584829
-3.006626 1.691593 14.584450
-4.264704 1.900537 14.476646
-4.268647 1.901119 14.476303
-5.388647 2.413996 14.366372
-5.390765 2.417382 14.366155
-5.835793 3.614657 14.314659
-5.837285 3.618364 14.314476
-6.370841 4.779342 14.252926
-6.372780 4.782835 14.252721
-7.072151 5.850664 14.183818
-7.074556 5.853852 14.183594
-7.986293 6.744150 14.106668
-7.989477 6.746559 14.106417
-9.086514 7.394673 14.024667
-9.090195 7.396218 14.024409
-10.306991 7.778519 13.942304
-10.310886 7.779394 13.942050
-11.575185 7.952620 13.862431
-11.579170 7.952868 13.862187
-12.856222 7.969480 13.785777
-2.085380 1.218795 15.053588
-2.976533 1.684146 14.587755
-3.033138 1.697013 14.581908
-4.237914 1.896587 14.478977
-4.295445 1.905005 14.473965
-5.374251 2.390989 14.367848
-5.405161 2.440389 14.364680
-5.825653 3.589471 14.315906
-5.847425 3.643551 14.313229
-6.357911 4.755476 14.254306
-6.385951 4.806569 14.251330
-7.055811 5.828998 14.185343
-7.091144 5.875326 14.182059
-7.964661 6.727784 14.108372
-8.011110 6.762925 14.104714
-9.061504 7.384177 14.026422
-9.115204 7.406714 14.022654
-10.280536 7.772528 13.944030
-10.337350 7.785345 13.940325
-11.548108 7.950935 13.864084
-11.606253 7.954452 13.860535
-12.829100 7.970266 13.787371
-2.112806 1.246690 14.936444
-2.196804 1.309250 14.773880
-2.338533 1.396464 14.674675
-2.502801 1.493142 14.634037
-2.676335 1.582270 14.620277
-2.858267 1.651307 14.601324
-3.153961 1.720183 14.570835
-3.346233 1.752870 14.554553
-3.538349 1.786256 14.537844
-3.730790 1.817893 14.521506
-3.923569 1.847687 14.505657
-4.116236 1.878019 14.489474
-4.417319 1.922091 14.463211
-4.609583 1.954072 14.445937
-4.798459 2.001752 14.428371
-4.979998 2.072041 14.410158
-5.148638 2.169194 14.391934
-5.297433 2.294865 14.375869
-5.455151 2.553016 14.359680
-5.511558 2.740317 14.354113
-5.573847 2.925698 14.347433
-5.642412 3.108823 14.339283
-5.710005 3.292282 14.330530
-5.779918 3.474854 14.321574
-5.893346 3.758093 14.307562
-5.967202 3.939103 14.298505
-6.046305 4.117860 14.289200
-6.129354 4.294820 14.279719
-6.213134 4.471435 14.270202
-6.300168 4.646449 14.260535
-6.446412 4.914108 14.244980
-6.544830 5.082961 14.234803
-6.645962 5.250196 14.224509
-6.751514 5.414647 14.214026
-6.864540 5.574023 14.203231
-6.981745 5.730372 14.192267
-7.168540 5.971328 14.175005
-7.299615 6.116137 14.163515
-7.436316 6.255701 14.151827
-7.574327 6.393961 14.140093
-7.717445 6.526877 14.128193
-7.867303 6.652141 14.116089
-8.110457 6.835934 14.096945
-8.269666 6.949075 14.084595
-8.433236 7.055761 14.072150
-8.603489 7.151421 14.059588
-8.776243 7.242524 14.046994
-8.949742 7.332186 14.034392
-9.229784 7.452176 14.014682
-9.412765 7.520446 14.002061
-9.596632 7.586285 13.989449
-9.782567 7.646004 13.976870
-9.970681 7.698470 13.964346
-10.160388 7.744895 13.951880
-10.457785 7.811699 13.932490
-10.649714 7.847805 13.920154
-10.843030 7.875687 13.907945
-11.036691 7.901174 13.895776
-11.230554 7.925050 13.883635
-11.425080 7.942691 13.871614
-11.729366 7.961349 13.853035
-11.924499 7.970546 13.841191
-12.119761 7.976475 13.829422
-12.315110 7.978135 13.817756
-12.510465 7.976050 13.806185
-12.705811 7.972992 13.794638
169 NaN NaN
-1.514219 0.699286 16.967713
-1.542287 0.724711 16.874551
-1.570378 0.750146 16.781398
-1.598481 0.775587 16.688250
-1.626588 0.801029 16.595104
-1.654687 0.826468 16.501955
-1.682771 0.851900 16.408799
-1.710828 0.877319 16.315633
-1.738875 0.902734 16.222461
-1.766957 0.928164 16.129304
-1.795122 0.953634 16.036183
-1.823370 0.979143 15.943098
-1.851548 1.004618 15.849983
-1.879471 1.029975 15.756759
-1.907025 1.055159 15.663378
-1.934630 1.080367 15.570018
-1.962970 1.105918 15.476974
-1.992680 1.132108 15.384537
-2.022902 1.158536 15.292332
-2.051136 1.184037 15.199248
-2.074891 1.207426 15.104388
-2.094755 1.228957 15.008184
-2.118608 1.252389 14.913385
-2.156017 1.282078 14.825132
-2.213667 1.320485 14.752689
-2.285873 1.364918 14.698947
-2.366001 1.412919 14.662015
-2.450330 1.463096 14.640398
-2.537095 1.512779 14.629879
-2.626003 1.559410 14.624190
-2.717318 1.600884 14.617092
-2.810827 1.636432 14.606979
-2.906159 1.666323 14.595614
-3.003068 1.690866 14.584791
-3.101158 1.710918 14.575385
-3.199854 1.728236 14.566881
-3.298721 1.744690 14.558634
-3.397475 1.761692 14.550152
-3.496164 1.778996 14.541514
-3.594910 1.795990 14.532922
-3.693818 1.812135 14.524555
-3.792857 1.827559 14.516387
-3.891937 1.842754 14.508275
-3.990971 1.858199 14.500080
-4.089949 1.873916 14.491729
-4.188957 1.889368 14.483235
-4.288080 1.903984 14.474613
-4.387318 1.917737 14.465881
-4.486456 1.932123 14.457057
-4.585209 1.948897 14.448162
-4.683183 1.969697 14.439217
-4.779929 1.995563 14.430170
-4.874896 2.027284 14.420950
-4.967367 2.065606 14.411506
-5.056546 2.111042 14.401986
-5.141578 2.163867 14.392704
-5.221528 2.224184 14.383987
-5.295141 2.292175 14.376110
-5.360170 2.368487 14.369291
-5.413377 2.453519 14.363838
-5.452872 2.545841 14.359903
-5.483296 2.641630 14.356927
-5.510915 2.738290 14.354180
-5.541279 2.834102 14.351010
-5.574947 2.928789 14.347312
-5.610226 3.022874 14.343230
-5.645461 3.116966 14.338909
-5.680134 3.211260 14.334446
-5.714885 3.305520 14.329890
-5.750402 3.399492 14.325289
-5.787038 3.493034 14.320677
-5.824375 3.586297 14.316063
-5.861893 3.679488 14.311450
-5.899215 3.772758 14.306836
-5.936786 3.865927 14.302202
-5.975342 3.958688 14.297516
-6.015569 4.050733 14.292753
-6.057388 4.142063 14.287919
-6.100111 4.232972 14.283045
-6.143047 4.323780 14.278161
-6.185933 4.414612 14.273279
-6.229302 4.505212 14.268373
-6.273771 4.595275 14.263417
-6.319815 4.684537 14.258390
-6.367333 4.773021 14.253296
-6.416069 4.860837 14.248148
-6.465776 4.948105 14.242957
-6.516305 5.034897 14.237730
-6.567561 5.121260 14.232471
-6.619460 5.207237 14.227184
-6.672186 5.292706 14.221862
-6.726320 5.377285 14.216479
-6.782460 5.460539 14.211012
-6.840878 5.542205 14.205451
-6.900796 5.622776 14.199829
-6.961233 5.702956 14.194187
-7.021384 5.783354 14.188556
-7.081845 5.863515 14.182913
-7.143954 5.942399 14.177206
-7.208965 6.018894 14.171387
-7.276967 6.092740 14.165459
-7.346786 6.164869 14.159467
-7.417261 6.236357 14.153453
-7.487707 6.307874 14.147440
-7.558678 6.378867 14.141409
-7.630927 6.448554 14.135335
-7.705073 6.516211 14.129201
-7.781091 6.581753 14.123010
-7.858706 6.645393 14.116772
-7.937662 6.707358 14.110498
-8.017704 6.767914 14.104195
-8.098566 6.827366 14.097871
-8.179999 6.886035 14.091533
-8.262008 6.943892 14.085182
-8.345126 7.000138 14.078806
-8.429912 7.053829 14.072397
-8.516682 7.104246 14.065952
-8.604858 7.152165 14.059488
-8.693657 7.198922 14.053016
-8.782405 7.245777 14.046545
-8.871214 7.292515 14.040073
-8.960787 7.337766 14.033594
-9.051773 7.380093 14.027104
-9.144306 7.418928 14.020612
-9.237834 7.455307 14.014124
-9.331833 7.490458 14.007638
-9.425937 7.525327 14.001153
-9.520254 7.559616 13.994671
-9.615000 7.592698 13.988193
-9.710358 7.623974 13.981726
-9.806347 7.653259 13.975271
-9.902899 7.680631 13.968831
-9.999954 7.706174 13.962408
-10.097410 7.730142 13.956002
-10.195127 7.753033 13.949607
-10.292973 7.775367 13.943218
-10.390891 7.797382 13.936833
-10.489031 7.818386 13.930461
-10.587560 7.837486 13.924114
-10.686569 7.853924 13.917806
-10.785923 7.868160 13.911534
-10.885434 7.881276 13.905280
-10.984953 7.894327 13.899028
-11.084456 7.907495 13.892773
-11.184050 7.919967 13.886531
-11.283827 7.930872 13.880318
-11.383812 7.939711 13.874145
-11.483929 7.946940 13.868004
-11.584114 7.953176 13.861885
-11.684328 7.958951 13.855776
-11.784566 7.964288 13.849676
-11.884837 7.969001 13.843590
-11.985143 7.972906 13.837523
-12.085483 7.975846 13.831478
-12.185851 7.977687 13.825459
-12.286236 7.978298 13.819470
-12.386623 7.977731 13.813511
-12.487005 7.976418 13.807571
-12.587383 7.974841 13.801638
-12.687762 7.973329 13.795703
-12.788135 7.971454 13.789778
-12.888485 7.968545 13.783880
-12.988775 7.963981 13.778028
-13.088984 7.957830 13.772221
-13.189128 7.950672 13.766442
-13.289242 7.943095 13.760676
-13.389368 7.935689 13.754906
-13.489546 7.929041 13.749112
-13.589801 7.923743 13.743281
