0.272151 0.272098 0.271192 0.265120 0.255497 0.245793 0.236089 0.226384 0.218823 0.214051 0.213118 0.213064 0.213011 0.212095 0.208297 0.202280 0.197578 0.192876 0.188174 0.184372 0.181973 0.181489 0.181461 0.181433 0.180953 0.178885 0.175607 0.172783 0.169958 0.167134 0.164666 0.163109 0.162787 0.162768 0.162750 0.162430 0.161028 0.158805 0.156880 0.154955 0.153029 0.151414 0.150395 0.150190 0.150179 0.150167 0.149968 0.149136 0.147817 0.146857 0.145896 0.144935 0.144192 0.143724 0.143627 0.143622 0.143616 0.143520 0.143087 0.142402 0.141700 0.140998 0.140296 0.139587 0.139140 0.139044 0.139038 0.139033 0.138937 0.138500 0.137809 0.137152 0.136496 0.135840 0.135222 0.134833 0.134749 0.134745 0.134740 0.134657 0.134281 0.133686 0.133115 0.132544 0.131974 0.131424 0.131078 0.131003 0.130999 0.130995 0.130921 0.130585 0.130053 0.129544 0.129035 0.128526 0.128042 0.127737 0.127672 0.127668 
0.272166 0.272182 0.272366 0.271858 0.271054 0.266750 0.262446 0.258142 0.252361 0.248711 0.247918 0.247851 0.247785 0.247004 0.243467 0.237864 0.232813 0.227763 0.222713 0.218342 0.215582 0.215010 0.214961 
0.272208 0.272395 0.275851 0.285456 0.300678 0.300156 0.299634 0.299113 0.282061 0.271301 0.268718 0.268579 0.268440 0.265864 0.255632 0.239416 0.228173 0.216929 0.205686 0.197976 0.193111 0.192203 0.192154 0.192106 0.191227 0.187800 0.182370 0.178828 0.175286 0.171744 0.168853 0.167028 0.166621 0.166600 0.166577 0.166169 0.164010 0.160587 0.155718 0.150850 0.145981 0.141158 0.138114 0.137524 0.137492 0.137460 0.136879 0.134596 0.130979 0.128834 0.126690 0.124545 0.123188 0.122332 0.122176 0.122168 0.122160 0.122008 0.121384 0.120394 0.119733 0.119073 0.118412 0.117979 0.117706 0.117654 0.117651 0.117648 0.117597 0.117380 0.117038 0.116753 0.116467 0.116182 0.115936 0.115780 0.115748 0.115746 0.115745 0.115713 0.115576 0.115359 0.115187 0.115015 0.114843 0.114719 0.114641 0.114626 0.114625 0.114624 0.114610 0.114551 0.114458 0.114390 0.114322 0.114255 0.114205 0.114173 0.114167 0.114166 0.114166 0.114160 0.114135 0.114095 0.114065 0.114036 0.114006 0.113983 0.113970 0.113967 0.113967 0.113967 0.113964 0.113953 0.113937 0.113923 0.113910 0.113897 0.113876 0.113862 0.113858 0.113858 
0.134745 0.134746 0.134753 0.134770 0.134793 0.134811 0.134828 0.134845 0.134857 0.134865 0.134867 0.134867 0.134867 0.134869 0.134873 0.134878 0.134873 0.134867 0.134862 0.134886 0.134903 0.134910 0.134911 0.134913 0.134919 0.134934 0.134953 0.134965 0.134978 0.134990 0.134995 0.134998 0.134999 0.135000 0.135000 0.135001 0.134996 0.134989 0.134975 0.134961 0.134947 0.134925 0.134909 0.134900 0.134898 0.134897 0.134887 0.134864 0.134833 0.134793 0.134754 0.134714 0.134668 0.134633 0.134618 0.134616 0.134613 0.134598 0.134561 0.134510 0.134455 0.134400 0.134345 0.134286 0.134241 0.134224 0.134220 0.134217 0.134200 0.134153 0.134091 0.134028 0.133964 0.133901 0.133835 0.133786 0.133767 0.133763 
0.143621 0.143618 0.143602 0.143561 0.143506 0.143475 0.143444 0.143413 0.143416 0.143419 0.143417 0.143416 0.143416 0.143414 0.143408 0.143399 0.143383 0.143366 0.143350 0.143327 0.143309 0.143301 0.143299 0.143297 0.143288 0.143266 0.143236 0.143199 0.143162 0.143125 0.143083 0.143051 0.143037 0.143034 0.143031 0.143017 0.142981 0.142934 0.142881 0.142827 0.142773 0.142715 0.142672 0.142653 0.142650 0.142646 0.142627 0.142581 0.142520 0.142454 0.142387 0.142320 0.142249 0.142196 0.142174 0.142170 0.142165 0.142143 0.142088 0.142014 0.141936 0.141859 0.141781 0.141699 0.141637 0.141612 0.141607 0.141602 0.141577 0.141512 0.141427 0.141338 0.141250 0.141161 0.141068 0.140998 0.140970 0.140964 
0.150179 0.150181 0.150196 0.150231 0.150279 0.150330 0.150381 0.150432 0.150521 0.150587 0.150610 0.150612 0.150614 0.150629 0.150660 0.150701 0.150680 0.150660 0.150639 0.150555 0.150493 0.150467 0.150464 0.150460 0.150427 0.150325 0.150188 0.150010 0.149832 0.149655 0.149449 0.149295 0.149237 0.149230 0.149223 0.149164 0.148995 0.148770 0.148530 0.148290 0.148050 0.147799 0.147611 0.147541 0.147533 
0.162763 0.162741 0.162634 0.162364 0.162005 0.161654 0.161302 0.160950 0.160608 0.160351 0.160251 0.160230 0.160210 0.160109 0.159857 0.159521 0.159195 0.158869 0.158543 0.158226 0.157988 0.157894 0.157875 0.157856 0.157762 0.157538 0.157240 0.157025 0.156810 0.156596 0.156407 0.156264 0.156209 0.156198 0.156187 0.156132 0.156003 0.155832 0.155673 0.155514 0.155355 0.155207 0.155097 0.155056 0.155048 0.155040 0.154999 0.154897 0.154761 0.154636 0.154510 0.154385 0.154270 0.154182 0.154149 0.154142 0.154135 0.154102 0.154019 0.153909 0.153807 0.153704 0.153601 0.153506 0.153435 0.153406 0.153401 0.153395 0.153366 0.153299 0.153210 0.153125 0.153039 0.152954 0.152871 0.152808 0.152785 0.152780 
0.181451 0.181414 0.181300 0.181052 0.180725 0.180402 0.180078 0.179755 0.179433 0.179189 0.179077 0.179040 0.179003 0.178892 0.178649 0.178329 0.178012 0.177695 0.177378 0.177064 0.176825 0.176717 0.176681 0.176646 0.176538 0.176303 0.175994 0.175689 0.175383 0.175078 0.174777 0.174547 0.174443 0.174409 0.174375 0.174271 0.174046 0.173749 0.173456 0.173163 0.172871 0.172582 0.172363 0.172263 0.172231 0.172198 0.172099 0.171883 0.171600 0.171320 0.171040 0.170760 0.170484 0.170274 0.170179 0.170147 0.170116 0.170021 0.169816 0.169546 0.169283 0.169020 0.168757 0.168493 0.168292 0.168201 0.168171 0.168142 0.168051 0.167856 0.167600 0.167348 0.167096 0.166844 0.166599 0.166413 0.166329 0.166301 0.166273 0.166189 0.166006 0.165766 0.165531 0.165296 0.165061 0.164834 0.164662 0.164583 0.164558 0.164532 0.164454 0.164284 0.164060 0.163846 0.163632 0.163418 0.163209 0.163050 0.162977 0.162953 0.162929 0.162857 0.162709 0.162513 0.162389 0.162264 0.162139 0.162013 0.161917 0.161874 0.161859 0.161845 0.161802 0.161720 0.161613 0.161509 0.161405 0.161302 0.161203 0.161128 0.161099 0.161090 0.161080 0.161051 0.160986 0.160901 0.160815 0.160729 0.160642 0.160568 0.160511 0.160486 0.160478 0.160470 0.160445 0.160389 0.160316 0.160246 0.160176 0.160106 0.160043 0.159996 0.159974 0.159967 0.159959 0.159937 0.159888 0.159824 0.159768 0.159711 0.159655 0.159601 0.159560 0.159541 0.159535 0.159529 0.159510 0.159469 0.159415 0.159369 0.159324 0.159278 0.159231 0.159195 0.159179 0.159173 0.159168 0.159152 0.159121 0.159080 0.159040 0.159001 0.158961 0.158921 0.158890 0.158879 0.158875 0.158871 0.158860 0.158835 0.158802 0.158768 0.158734 0.158701 0.158671 0.158648 0.158638 0.158635 0.158632 0.158622 0.158600 0.158572 0.158544 0.158516 0.158488 0.158464 0.158445 0.158437 0.158434 
0.213044 0.212964 0.212513 0.211351 0.209805 0.208280 0.206756 0.205232 0.203763 0.202658 0.202239 0.202164 0.202090 0.201673 0.200610 0.199196 0.197850 0.196503 0.195157 0.193893 0.192942 0.192584 0.192521 0.192458 0.192103 0.191221 0.190048 0.188966 0.187883 0.186801 0.185816 0.185076 0.184802 0.184754 0.184705 0.184434 0.183749 0.182837 0.181990 0.181143 0.180297 0.179488 0.178881 0.178653 0.178612 0.178572 0.178347 0.177774 0.177012 0.176286 0.175560 0.174834 0.174154 0.173644 0.173451 0.173417 0.173383 0.173191 0.172716 0.172083 0.171567 0.171051 0.170534 0.170093 0.169762 0.169649 0.169628 0.169609 0.169496 0.169214 0.168837 0.168516 0.168194 0.167872 0.167598 0.167392 0.167314 0.167300 0.167286 0.167207 0.167024 0.166780 0.166562 0.166344 0.166127 0.165931 0.165785 0.165735 0.165726 0.165717 0.165666 0.165535 0.165361 0.165213 0.165065 0.164916 0.164789 0.164694 0.164657 0.164651 
0.247797 0.247583 0.246897 0.245415 0.243464 0.241603 0.239742 0.237881 0.236117 0.234778 0.234197 0.234016 0.233837 0.233263 0.232013 0.230365 0.228814 0.227263 0.225712 0.224251 0.223141 0.222662 0.222513 0.222366 0.221893 0.220867 0.219515 0.218241 0.216967 0.215692 0.214514 0.213619 0.213233 0.213113 0.212995 0.212614 0.211778 0.210677 0.209654 0.208630 0.207606 0.206650 0.205925 0.205609 0.205511 0.205415 0.205104 0.204431 0.203545 0.202705 0.201865 0.201025 0.200254 0.199669 0.199419 0.199341 0.199264 0.199016 0.198471 0.197754 0.197066 0.196378 0.195690 0.195041 0.194548 0.194335 0.194269 0.194204 0.193994 0.193530 0.192920 0.192314 0.191708 0.191103 0.190520 0.190077 0.189882 0.189822 0.189761 0.189567 0.189139 0.188575 0.188031 0.187488 0.186944 0.186424 0.186029 0.185857 0.185803 0.185750 0.185579 0.185204 0.184709 0.184225 0.183742 0.183259 0.182795 0.182443 0.182288 0.182240 0.182192 0.182039 0.181699 0.181252 0.180837 0.180421 0.180006 0.179604 0.179298 0.179165 0.179123 0.179082 0.178950 0.178678 0.178321 0.177973 0.177626 0.177279 0.176963 0.176724 0.176627 0.176596 0.176566 0.176470 0.176291 0.176055 0.175877 0.175699 0.175521 0.175376 0.175266 0.175217 0.175202 0.175186 0.175137 0.175026 0.174880 0.174766 0.174652 0.174538 0.174427 0.174342 0.174304 0.174292 0.174280 0.174241 0.174169 0.174074 0.173983 0.173891 0.173800 0.173704 0.173631 0.173607 0.173599 0.173591 0.173566 0.173506 0.173427 0.173340 0.173253 0.173166 0.173093 0.173038 0.173011 0.173003 0.172995 0.172968 0.172904 0.172819 0.172750 0.172681 0.172612 0.172542 0.172489 0.172465 0.172457 0.172450 0.172425 0.172373 0.172303 0.172243 0.172182 0.172121 0.172057 0.172009 0.171987 0.171980 
