-2.317222 -1.527002 15.552933
-1.710575 -1.506275 16.520283
-1.245736 -1.458573 17.561715
-0.986338 -1.376175 18.669139
-0.952255 -1.260422 19.804608
-0.959674 -1.138999 20.940775
-0.927121 -1.022945 22.077136
-0.897662 -0.906471 23.213528
-2.316069 -1.526984 15.554568
-1.711523 -1.506333 16.518523
-1.709626 -1.506216 16.522043
-1.246396 -1.458684 17.559830
-1.245077 -1.458462 17.563599
-0.986583 -1.376352 18.667162
-0.986092 -1.375999 18.671116
-0.952216 -1.260638 19.802620
-0.952294 -1.260206 19.806596
-0.959706 -1.139205 20.938786
-0.959642 -1.138792 20.942764
-0.927190 -1.023146 22.075148
-0.927053 -1.022743 22.079125
-0.897681 -0.906679 23.211539
-2.302039 -1.526766 15.574474
-1.723074 -1.507047 16.497093
-1.698076 -1.505502 16.543473
-1.254431 -1.460033 17.536878
-1.237041 -1.457113 17.586551
-0.989575 -1.378500 18.643087
-0.983499 -1.373792 18.695231
-0.951745 -1.263267 19.778412
-0.952772 -1.257576 19.830804
-0.960093 -1.141720 20.914565
-0.959255 -1.136277 20.966986
-0.928021 -1.025601 22.050931
-0.926225 -1.020288 22.103342
-0.897946 -0.909210 23.187317
-2.239024 -1.525723 15.664485
-2.141105 -1.523677 15.808367
-2.045827 -1.521088 15.954003
-1.953215 -1.517960 16.101337
-1.863330 -1.514288 16.250336
-1.776343 -1.510045 16.401034
-1.646702 -1.502141 16.640546
-1.568134 -1.496286 16.795742
-1.493051 -1.489782 16.952630
-1.421879 -1.482561 17.111299
-1.354772 -1.474610 17.271693
-1.291819 -1.465925 17.433723
-1.202352 -1.450761 17.690619
-1.151720 -1.439976 17.856790
-1.106199 -1.428352 18.024372
-1.066063 -1.415863 18.193263
-1.031888 -1.402439 18.363392
-1.003993 -1.388056 18.534580
-0.972833 -1.363689 18.804123
-0.960224 -1.347075 18.976917
-0.952731 -1.329746 19.149942
-0.949033 -1.311899 19.323035
-0.948349 -1.293645 19.496127
-0.949958 -1.275086 19.669182
-0.955007 -1.245699 19.940020
-0.958560 -1.226883 20.113019
-0.961459 -1.208154 20.286039
-0.962883 -1.189619 20.459099
-0.962857 -1.171277 20.632184
-0.961547 -1.153107 20.805283
-0.957214 -1.124970 21.076267
-0.953233 -1.107160 21.249362
-0.948545 -1.089446 21.422451
-0.943304 -1.071808 21.595531
-0.937647 -1.054227 21.768603
-0.931771 -1.036676 21.941672
-0.922518 -1.009208 22.212602
-0.916821 -0.991632 22.385674
-0.911514 -0.974003 22.558753
-0.906738 -0.956301 22.731840
-0.902644 -0.938507 22.904934
-0.899454 -0.920590 23.078036
85 NaN NaN
-2.317510 -1.527006 15.552524
-2.259292 -1.526102 15.635125
-2.201883 -1.525029 15.718287
-2.145304 -1.523784 15.802015
-2.089578 -1.522363 15.886310
-2.034729 -1.520765 15.971174
-1.980783 -1.518983 16.056612
-1.927765 -1.517016 16.142625
-1.875704 -1.514858 16.229216
-1.824629 -1.512506 16.316387
-1.774571 -1.509955 16.404140
-1.725562 -1.507201 16.492477
-1.677634 -1.504239 16.581399
-1.630824 -1.501064 16.670908
-1.585169 -1.497671 16.761002
-1.540705 -1.494055 16.851682
-1.497474 -1.490211 16.942946
-1.455518 -1.486134 17.034794
-1.414878 -1.481818 17.127221
-1.375602 -1.477257 17.220223
-1.337735 -1.472445 17.313795
-1.301325 -1.467377 17.407931
-1.266424 -1.462047 17.502622
-1.233083 -1.456449 17.597858
-1.201356 -1.450576 17.693627
-1.171297 -1.444424 17.789915
-1.142962 -1.437986 17.886706
-1.116411 -1.431256 17.983982
-1.091700 -1.424228 18.081720
-1.068890 -1.416898 18.179897
-1.048041 -1.409260 18.278485
-1.029213 -1.401309 18.377455
-1.012467 -1.393041 18.476772
-0.997863 -1.384451 18.576399
-0.985448 -1.375537 18.676295
-0.975144 -1.366316 18.776402
-0.966788 -1.356815 18.876666
-0.960216 -1.347063 18.977038
-0.955260 -1.337085 19.077480
-0.951753 -1.326908 19.177965
-0.949526 -1.316556 19.278467
-0.948413 -1.306053 19.378973
-0.948246 -1.295424 19.479472
-0.948862 -1.284690 19.579958
-0.950096 -1.273875 19.680430
-0.951786 -1.262999 19.780889
-0.953771 -1.252085 19.881338
-0.955888 -1.241153 19.981782
-0.957977 -1.230225 20.082228
-0.959878 -1.219322 20.182680
-0.961429 -1.208465 20.283142
-0.962483 -1.197673 20.383619
-0.963015 -1.186951 20.484106
-0.963056 -1.176294 20.584603
-0.962637 -1.165698 20.685105
-0.961790 -1.155160 20.785610
-0.960548 -1.144674 20.886116
-0.958942 -1.134238 20.986623
-0.957005 -1.123847 21.087128
-0.954769 -1.113496 21.187632
-0.952268 -1.103181 21.288133
-0.949533 -1.092898 21.388631
-0.946598 -1.082642 21.489126
-0.943494 -1.072409 21.589618
-0.940256 -1.062195 21.690108
-0.936915 -1.051995 21.790597
-0.933506 -1.041804 21.891083
-0.930059 -1.031618 21.991570
-0.926609 -1.021433 22.092056
-0.923188 -1.011243 22.192542
-0.919830 -1.001045 22.293030
-0.916566 -0.990835 22.393520
-0.913431 -0.980606 22.494012
-0.910456 -0.970356 22.594506
-0.907674 -0.960079 22.695004
-0.905119 -0.949772 22.795504
-0.902822 -0.939429 22.896007
-0.900817 -0.929047 22.996512
-0.899136 -0.918621 23.097018
-0.897811 -0.908147 23.197525
-0.896875 -0.897620 23.298031
-0.896360 -0.887037 23.398533
-0.896297 -0.876394 23.499031
-0.896718 -0.865686 23.599521
-0.897656 -0.854910 23.700000
-2.317299 -1.527018 15.552071
-2.128820 -1.537100 15.159235
-1.934233 -1.547524 14.769382
-1.741695 -1.557884 14.378516
-1.559114 -1.567789 13.982911
-1.394539 -1.576841 13.579503
-1.257076 -1.584586 13.166101
-1.157867 -1.590469 12.741948
-1.107031 -1.593978 12.309368
-1.099029 -1.595413 11.873722
-1.115919 -1.595727 11.438232
-1.139518 -1.595889 11.003031
-1.154613 -1.596685 10.567466
-1.159475 -1.597961 10.131660
-1.158375 -1.599147 9.695823
-1.155672 -1.599671 9.259990
-1.154567 -1.599142 8.824150
-1.154801 -1.597729 8.388311
-1.155411 -1.595721 7.952474
-1.155456 -1.593392 7.516639
-1.154460 -1.590928 7.080805
-1.152692 -1.588379 6.644974
-1.150468 -1.585779 6.209146
-1.148114 -1.583164 5.773318
-1.145951 -1.580571 5.337490
-1.144300 -1.578034 4.901658
-1.143497 -1.575592 4.465824
-2.316454 -1.527063 15.550258
-2.129706 -1.537053 15.161027
-2.127933 -1.537147 15.157443
-1.935128 -1.547476 14.771170
-1.933338 -1.547572 14.767594
-1.742567 -1.557837 14.380316
-1.740824 -1.557931 14.376717
-1.559913 -1.567745 13.984744
-1.558315 -1.567833 13.981078
-1.395242 -1.576802 13.581375
-1.393835 -1.576880 13.577631
-1.257644 -1.584553 13.168018
-1.256507 -1.584619 13.164184
-1.158205 -1.590447 12.743919
-1.157529 -1.590490 12.739977
-1.107156 -1.593967 12.311364
-1.106907 -1.593988 12.307372
-1.099005 -1.595409 11.875722
-1.099054 -1.595417 11.871722
-1.115811 -1.595726 11.440229
-1.116027 -1.595727 11.436235
-1.139420 -1.595887 11.005028
-1.139615 -1.595891 11.001033
-1.154566 -1.596680 10.569466
-1.154659 -1.596690 10.565467
-1.159472 -1.597955 10.133660
-1.159478 -1.597968 10.129660
-1.158387 -1.599142 9.697823
-1.158363 -1.599151 9.693823
-1.155682 -1.599670 9.261990
-1.155662 -1.599671 9.257990
-1.154567 -1.599147 8.826150
-1.154566 -1.599137 8.822150
-1.154799 -1.597737 8.390311
-1.154804 -1.597721 8.386311
-1.155409 -1.595731 7.954474
-1.155414 -1.595711 7.950474
-1.155459 -1.593403 7.518638
-1.155453 -1.593381 7.514639
-1.154466 -1.590940 7.082805
-1.154453 -1.590917 7.078805
-1.152701 -1.588391 6.646974
-1.152682 -1.588367 6.642974
-1.150479 -1.585791 6.211146
-1.150458 -1.585767 6.207146
-1.148124 -1.583176 5.775318
-1.148103 -1.583152 5.771318
-1.145960 -1.580583 5.339490
-1.145942 -1.580559 5.335490
-1.144306 -1.578046 4.903658
-1.144295 -1.578023 4.899658
-1.143498 -1.575602 4.467824
-2.309383 -1.527441 15.535074
-2.137135 -1.536655 15.176039
-2.120504 -1.537545 15.142430
-1.942621 -1.547074 14.786150
-1.925845 -1.547974 14.752614
-1.749867 -1.557443 14.395391
-1.733605 -1.558321 14.361602
-1.566609 -1.567380 14.000098
-1.551619 -1.568198 13.965724
-1.401136 -1.576474 13.597055
-1.387941 -1.577207 13.561951
-1.262409 -1.584281 13.184078
-1.251979 -1.584880 13.148056
-1.161038 -1.590269 12.760431
-1.154697 -1.590668 12.723464
-1.108199 -1.593877 12.328086
-1.105864 -1.594079 12.290650
-1.098802 -1.595378 11.892475
-1.099359 -1.595443 11.854971
-1.114903 -1.595724 11.456959
-1.116934 -1.595730 11.419505
-1.138601 -1.595872 11.021763
-1.140435 -1.595906 10.984299
-1.154177 -1.596638 10.586215
-1.155026 -1.596733 10.548716
-1.159441 -1.597905 10.150414
-1.159506 -1.598018 10.112906
-1.158488 -1.599106 9.714577
-1.158261 -1.599188 9.677069
-1.155769 -1.599667 9.278744
-1.155575 -1.599674 9.241235
-1.154577 -1.599186 8.842904
-1.154559 -1.599095 8.805396
-1.154776 -1.597805 8.407065
-1.154827 -1.597653 8.369556
-1.155389 -1.595816 7.971228
-1.155434 -1.595627 7.933720
-1.155477 -1.593496 7.535393
-1.155430 -1.593288 7.497884
-1.154522 -1.591037 7.099559
-1.154397 -1.590820 7.062051
-1.152779 -1.588490 6.663728
-1.152604 -1.588268 6.626220
-1.150569 -1.585891 6.227900
-1.150367 -1.585666 6.190392
-1.148213 -1.583276 5.792072
-1.148014 -1.583052 5.754564
-1.146036 -1.580682 5.356244
-1.145866 -1.580460 5.318736
-1.144359 -1.578142 4.920412
-1.144249 -1.577927 4.882904
-1.143507 -1.575694 4.484578
-2.290007 -1.528478 15.493470
-2.263950 -1.529872 15.437998
-2.237637 -1.531279 15.382646
-2.211046 -1.532702 15.327427
-2.184336 -1.534130 15.272267
-2.157375 -1.535572 15.217229
-2.100151 -1.538634 15.101297
-2.072827 -1.540096 15.046439
-2.045467 -1.541561 14.991598
-2.018044 -1.543030 14.936789
-1.990604 -1.544501 14.881989
-1.963153 -1.545972 14.827194
-1.905355 -1.549074 14.711549
-1.878027 -1.550542 14.656693
-1.850820 -1.552004 14.601776
-1.823677 -1.553465 14.546828
-1.796703 -1.554917 14.491797
-1.769869 -1.556364 14.436697
-1.713844 -1.559389 14.320181
-1.687590 -1.560809 14.264802
-1.661581 -1.562218 14.209306
-1.635885 -1.563612 14.153665
-1.610350 -1.564998 14.097950
-1.585284 -1.566363 14.042021
-1.533272 -1.569200 13.923655
-1.509328 -1.570511 13.867236
-1.485625 -1.571811 13.810716
-1.462452 -1.573085 13.753975
-1.439735 -1.574338 13.697050
-1.417329 -1.575576 13.640001
-1.372168 -1.578085 13.518850
-1.351516 -1.579239 13.461141
-1.331624 -1.580355 13.403166
-1.312094 -1.581454 13.345068
-1.293505 -1.582507 13.286660
-1.275465 -1.583534 13.228083
-1.239851 -1.585581 13.103786
-1.224045 -1.586499 13.044565
-1.209175 -1.587371 12.985098
-1.195223 -1.588199 12.925412
-1.181772 -1.589002 12.865608
-1.169818 -1.589731 12.805485
-1.146937 -1.591156 12.678221
-1.137954 -1.591739 12.617585
-1.129576 -1.592293 12.556862
-1.122623 -1.592777 12.495956
-1.116542 -1.593218 12.434961
-1.111227 -1.593621 12.373890
-1.103481 -1.594303 12.244809
-1.101019 -1.594568 12.183555
-1.099411 -1.594792 12.122275
-1.098225 -1.594996 12.060983
-1.098043 -1.595153 11.999680
-1.098244 -1.595293 11.938378
-1.100505 -1.595502 11.809079
-1.102188 -1.595575 11.747798
-1.104367 -1.595626 11.686533
-1.106848 -1.595664 11.625280
-1.109541 -1.595694 11.564035
-1.112592 -1.595712 11.502807
-1.119420 -1.595737 11.373666
-1.122828 -1.595748 11.312457
-1.126261 -1.595759 11.251249
-1.129682 -1.595777 11.190040
-1.133033 -1.595803 11.128828
-1.136308 -1.595835 11.067612
-1.142564 -1.595955 10.938442
-1.145162 -1.596038 10.877193
-1.147489 -1.596138 10.815934
-1.149666 -1.596249 10.754668
-1.151452 -1.596383 10.693390
-1.153110 -1.596523 10.632109
-1.155847 -1.596859 10.502817
-1.156892 -1.597029 10.441523
-1.157691 -1.597208 10.380224
-1.158351 -1.597391 10.318924
-1.158885 -1.597576 10.257623
-1.159215 -1.597764 10.196320
-1.159582 -1.598157 10.066999
-1.159567 -1.598338 10.005696
-1.159494 -1.598517 9.944392
-1.159294 -1.598685 9.883089
-1.159052 -1.598848 9.821785
-1.158750 -1.599001 9.760482
-1.157976 -1.599282 9.631163
-1.157569 -1.599392 9.569860
-1.157160 -1.599486 9.508558
-1.156751 -1.599567 9.447255
-1.156369 -1.599619 9.385953
-1.156007 -1.599657 9.324650
-1.155392 -1.599656 9.195329
-1.155154 -1.599627 9.134026
-1.154976 -1.599567 9.072722
-1.154825 -1.599492 9.011418
-1.154705 -1.599398 8.950115
-1.154628 -1.599279 8.888811
-1.154542 -1.598980 8.759489
-1.154542 -1.598809 8.698186
-1.154556 -1.598629 8.636882
-1.154600 -1.598424 8.575578
-1.154652 -1.598212 8.514275
-1.154719 -1.597984 8.452971
-1.154890 -1.597464 8.323650
-1.154981 -1.597198 8.262347
-1.155072 -1.596924 8.201044
-1.155164 -1.596641 8.139740
-1.155251 -1.596346 8.078437
-1.155334 -1.596047 8.017134
-1.155474 -1.595389 7.887814
-1.155525 -1.595070 7.826511
-1.155550 -1.594744 7.765208
-1.155561 -1.594415 7.703905
-1.155551 -1.594083 7.642602
-1.155512 -1.593748 7.581298
-1.155367 -1.593033 7.451979
-1.155264 -1.592691 7.390676
-1.155146 -1.592347 7.329373
-1.155000 -1.591999 7.268070
-1.154843 -1.591651 7.206767
-1.154665 -1.591300 7.145464
-1.154242 -1.590555 7.016145
-1.154015 -1.590199 6.954843
-1.153777 -1.589841 6.893540
-1.153528 -1.589483 6.832238
-1.153263 -1.589122 6.770936
-1.152992 -1.588761 6.709633
-1.152382 -1.587995 6.580315
-1.152083 -1.587631 6.519013
-1.151773 -1.587266 6.457711
-1.151459 -1.586900 6.396409
-1.151139 -1.586533 6.335107
-1.150814 -1.586166 6.273805
-1.150119 -1.585391 6.144487
-1.149787 -1.585023 6.083185
-1.149453 -1.584655 6.021883
-1.149120 -1.584287 5.960581
-1.148788 -1.583919 5.899279
-1.148458 -1.583552 5.837977
-1.147771 -1.582777 5.708659
-1.147455 -1.582411 5.647357
-1.147142 -1.582045 5.586055
-1.146835 -1.581680 5.524753
-1.146538 -1.581316 5.463451
-1.146245 -1.580953 5.402149
-1.145667 -1.580190 5.272830
-1.145405 -1.579830 5.211528
-1.145162 -1.579472 5.150226
-1.144927 -1.579115 5.088923
-1.144708 -1.578760 5.027621
-1.144504 -1.578406 4.966318
-1.144124 -1.577666 4.836999
-1.143970 -1.577317 4.775696
-1.143833 -1.576971 4.714393
-1.143721 -1.576628 4.653090
-1.143621 -1.576286 4.591787
-1.143550 -1.575947 4.530484
114 NaN NaN
-2.317510 -1.527006 15.552524
-2.274936 -1.529284 15.461108
-2.231641 -1.531600 15.370032
-2.187753 -1.533947 15.279242
-2.143391 -1.536320 15.188682
-2.098668 -1.538713 15.098300
-2.053695 -1.541121 15.008044
-2.008574 -1.543537 14.917861
-1.963407 -1.545958 14.827702
-1.918292 -1.548379 14.737516
-1.873325 -1.550794 14.647256
-1.828602 -1.553199 14.556875
-1.784218 -1.555590 14.466327
-1.740267 -1.557961 14.375567
-1.696846 -1.560307 14.284552
-1.654051 -1.562625 14.193241
-1.611982 -1.564909 14.101592
-1.570739 -1.567154 14.009567
-1.530426 -1.569355 13.917130
-1.491150 -1.571507 13.824247
-1.453023 -1.573604 13.730885
-1.416157 -1.575640 13.637016
-1.380673 -1.577610 13.542616
-1.346693 -1.579508 13.447662
-1.314344 -1.581327 13.352139
-1.283759 -1.583060 13.256036
-1.255072 -1.584701 13.159347
-1.228424 -1.586242 13.062076
-1.203957 -1.587678 12.964231
-1.181817 -1.588999 12.865833
-1.162149 -1.590199 12.766910
-1.145098 -1.591271 12.667501
-1.130809 -1.592207 12.567656
-1.119369 -1.593003 12.467444
-1.110624 -1.593667 12.366959
-1.104344 -1.594210 12.266289
-1.100293 -1.594646 12.165504
-1.098236 -1.594987 12.064657
-1.097936 -1.595245 11.963790
-1.099160 -1.595433 11.862929
-1.101679 -1.595563 11.762091
-1.105265 -1.595646 11.661286
-1.109696 -1.595696 11.560514
-1.114751 -1.595723 11.459771
-1.120213 -1.595740 11.359050
-1.125865 -1.595757 11.258339
-1.131493 -1.595787 11.157626
-1.136881 -1.595841 11.056901
-1.141812 -1.595931 10.956152
-1.146088 -1.596067 10.855374
-1.149669 -1.596249 10.754568
-1.152607 -1.596469 10.653742
-1.154951 -1.596721 10.552900
-1.156755 -1.596998 10.452047
-1.158070 -1.597293 10.351187
-1.158949 -1.597599 10.250321
-1.159446 -1.597908 10.149454
-1.159613 -1.598213 10.048585
-1.159505 -1.598508 9.947716
-1.159175 -1.598785 9.846847
-1.158678 -1.599037 9.745979
-1.158068 -1.599257 9.645112
-1.157399 -1.599438 9.544245
-1.156725 -1.599573 9.443377
-1.156100 -1.599654 9.342510
-1.155577 -1.599674 9.241642
-1.155174 -1.599634 9.140773
-1.154880 -1.599535 9.039904
-1.154683 -1.599381 8.939035
-1.154572 -1.599177 8.838166
-1.154534 -1.598924 8.737296
-1.154557 -1.598628 8.636427
-1.154629 -1.598291 8.535558
-1.154739 -1.597917 8.434690
-1.154875 -1.597509 8.333821
-1.155024 -1.597071 8.232953
-1.155176 -1.596606 8.132084
-1.155318 -1.596118 8.031216
-1.155438 -1.595610 7.930348
-1.155524 -1.595086 7.829480
-1.155565 -1.594549 7.728612
-1.155549 -1.594003 7.627744
-1.155470 -1.593449 7.526876
-1.155332 -1.592889 7.426008
-1.155138 -1.592323 7.325140
-1.154894 -1.591751 7.224272
-1.154601 -1.591174 7.123405
-1.154266 -1.590592 7.022538
-1.153891 -1.590006 6.921671
-1.153481 -1.589416 6.820804
-1.153040 -1.588822 6.719937
-1.152571 -1.588226 6.619070
-1.152079 -1.587626 6.518204
-1.151568 -1.587025 6.417337
-1.151041 -1.586422 6.316471
-1.150503 -1.585817 6.215605
-1.149958 -1.585212 6.114738
-1.149410 -1.584607 6.013872
-1.148862 -1.584001 5.913006
-1.148319 -1.583397 5.812140
-1.147785 -1.582793 5.711273
-1.147264 -1.582190 5.610407
-1.146759 -1.581589 5.509541
-1.146275 -1.580991 5.408674
-1.145816 -1.580396 5.307807
-1.145386 -1.579803 5.206940
-1.144988 -1.579214 5.106073
-1.144628 -1.578630 5.005206
-1.144308 -1.578050 4.904339
-1.144033 -1.577474 4.803471
-1.143806 -1.576905 4.702604
-1.143633 -1.576341 4.601736
-1.143516 -1.575783 4.500868
-1.143460 -1.575232 4.400000
-2.317826 -1.527392 15.552491
-3.417120 -1.817435 15.429281
-4.311960 -1.027145 15.262602
-4.711939 0.115827 15.095127
-5.108462 1.262211 14.931625
-5.511313 2.407273 14.776751
-5.927434 3.557038 14.725850
-6.432626 4.669712 14.666940
-7.087438 5.699894 14.600800
-7.936053 6.575089 14.526671
-8.967698 7.223484 14.447203
-10.117933 7.628065 14.367050
-11.322076 7.826508 14.289275
-12.542447 7.869602 14.214782
-2.319093 -1.528934 15.552359
-3.415282 -1.818178 15.429546
-3.418958 -1.816692 15.429016
-4.311043 -1.028900 15.262886
-4.312876 -1.025390 15.262319
-4.711273 0.113959 15.095392
-4.712604 0.117694 15.094862
-5.107808 1.260339 14.931885
-5.109117 1.264083 14.931364
-5.510664 2.405385 14.776878
-5.511962 2.409160 14.776624
-5.926699 3.555180 14.725946
-5.928169 3.558895 14.725755
-6.431701 4.667942 14.667042
-6.433552 4.671482 14.666839
-7.086227 5.698307 14.600915
-7.088649 5.701482 14.600686
-7.934497 6.573840 14.526798
-7.937614 6.576333 14.526544
-8.965889 7.222641 14.447335
-8.969507 7.224327 14.447072
-10.115994 7.627593 14.367179
-10.119873 7.628536 14.366920
-11.320088 7.826326 14.289399
-11.324064 7.826689 14.289151
-12.540451 7.869635 14.214901
-2.335548 -1.548965 15.550644
-3.390897 -1.826388 15.432920
-3.442832 -1.807041 15.425571
-4.298817 -1.051513 15.266553
-4.324780 -1.002592 15.258642
-4.702628 0.089702 15.098830
-4.721250 0.141951 15.091424
-5.099308 1.236023 14.935269
-5.117616 1.288399 14.927981
-5.502233 2.380866 14.778529
-5.520393 2.433679 14.774973
-5.917149 3.531050 14.727183
-5.937719 3.583025 14.724518
-6.419677 4.644949 14.668361
-6.445648 4.694435 14.665517
-7.070496 5.677684 14.602400
-7.104627 5.721912 14.599190
-7.914551 6.557273 14.528439
-7.957889 6.592494 14.524894
-8.942513 7.211437 14.449044
-8.993004 7.235278 14.445362
-10.090815 7.621418 14.368861
-10.145065 7.634659 14.365239
-11.294265 7.823972 14.291015
-11.349886 7.829043 14.287535
-12.514520 7.870061 14.216447
-2.414253 -1.635854 15.542507
-2.561622 -1.748186 15.527514
-2.729650 -1.826275 15.510261
-2.909753 -1.869796 15.491118
-3.094654 -1.878934 15.470262
-3.278119 -1.856314 15.447847
-3.548780 -1.758490 15.409764
-3.705622 -1.661300 15.384135
-3.850731 -1.547109 15.358473
-3.987823 -1.423228 15.333206
-4.117694 -1.291758 15.308221
-4.234516 -1.148717 15.282892
-4.373555 -0.896861 15.241893
-4.434113 -0.722570 15.215346
-4.485358 -0.545154 15.189214
-4.538782 -0.368300 15.163723
-4.598945 -0.193522 15.138862
-4.662570 -0.019921 15.114327
-4.759850 0.252075 15.075784
-4.819553 0.427004 15.050827
-4.878805 0.602066 15.025726
-4.938776 0.776875 15.000565
-4.999569 0.951412 14.975494
-5.060730 1.125860 14.950695
-5.156117 1.398598 14.912621
-5.217192 1.573069 14.887774
-5.278609 1.747224 14.861600
-5.340438 1.921075 14.834382
-5.402337 2.095135 14.808736
-5.463837 2.269961 14.787840
-5.558494 2.544926 14.769150
-5.618975 2.721254 14.762981
-5.680331 2.897305 14.757598
-5.743234 3.072751 14.750629
-5.807880 3.247493 14.742082
-5.874284 3.421543 14.732895
-5.981732 3.692088 14.719030
-6.053180 3.864160 14.710448
-6.127132 4.035165 14.701759
-6.203750 4.204977 14.692810
-6.283250 4.373446 14.683642
-6.365834 4.540416 14.674314
-6.501593 4.797855 14.659479
-6.593073 4.960099 14.649787
-6.688480 5.120056 14.639908
-6.788024 5.277456 14.629830
-6.891787 5.432092 14.619561
-6.999924 5.583685 14.609101
-7.177972 5.813756 14.592374
-7.297852 5.956206 14.581427
-7.422429 6.094558 14.570294
-7.551855 6.228369 14.558979
-7.685992 6.357436 14.547495
-7.824716 6.481540 14.535857
-8.050348 6.664991 14.517398
-8.200188 6.775383 14.505433
-8.354014 6.880141 14.493372
-8.511591 6.979170 14.481232
-8.672811 7.072139 14.469029
-8.837239 7.159296 14.456786
-9.099928 7.283943 14.437613
-9.271343 7.356391 14.425340
-9.445006 7.423280 14.413080
-9.620667 7.484747 14.400847
-9.798114 7.540864 14.388651
-9.977141 7.591726 14.376503
-10.259456 7.661461 14.357633
-10.441524 7.700086 14.345637
-10.624482 7.734280 14.333709
-10.808188 7.764234 14.321852
-10.992516 7.790129 14.310069
-11.177365 7.812046 14.298364
-11.466982 7.838893 14.280231
-11.652703 7.851604 14.268726
-11.838624 7.861046 14.257299
-12.024682 7.867372 14.245948
-12.210823 7.870721 14.234674
-12.396999 7.871231 14.223476
169 NaN NaN
-2.317510 -1.527006 15.552524
-2.381478 -1.604876 15.545856
-2.454675 -1.674060 15.538375
-2.535821 -1.733630 15.530140
-2.623449 -1.783064 15.521220
-2.716081 -1.822199 15.511684
-2.812342 -1.851117 15.501590
-2.911007 -1.870036 15.490983
-3.011000 -1.879214 15.479893
-3.111362 -1.878879 15.468339
-3.211203 -1.869195 15.456325
-3.309648 -1.850244 15.443853
-3.405782 -1.822018 15.430917
-3.498613 -1.784491 15.417522
-3.587478 -1.738434 15.403780
-3.672320 -1.685356 15.389864
-3.753446 -1.626752 15.375908
-3.831398 -1.563966 15.362005
-3.906856 -1.498173 15.348218
-3.980517 -1.430340 15.334584
-4.052284 -1.360490 15.321051
-4.121321 -1.287946 15.307510
-4.186622 -1.212048 15.293863
-4.246995 -1.132216 15.280034
-4.301055 -1.048028 15.265971
-4.347346 -0.959377 15.251671
-4.386011 -0.867149 15.237246
-4.418885 -0.772687 15.222837
-4.447969 -0.676967 15.208530
-4.475242 -0.580689 15.194373
-4.502647 -0.484424 15.180397
-4.531994 -0.388703 15.166635
-4.563609 -0.293678 15.153074
-4.596878 -0.199196 15.139665
-4.631166 -0.105065 15.126352
-4.665835 -0.011068 15.113076
-4.700246 0.083020 15.099777
-4.733876 0.177379 15.086403
-4.766773 0.271986 15.072953
-4.799162 0.366759 15.059441
-4.831269 0.461621 15.045878
-4.863320 0.556497 15.032276
-4.895539 0.651311 15.018647
-4.928076 0.746015 15.005008
-4.960883 0.840629 14.991386
-4.993883 0.935182 14.977812
-5.027001 1.029705 14.964314
-5.060159 1.124230 14.950924
-5.093283 1.218785 14.937667
-5.126346 1.313374 14.924506
-5.159390 1.407967 14.911315
-5.192457 1.502528 14.897961
-5.225592 1.597024 14.884314
-5.258838 1.691418 14.870242
-5.292233 1.785679 14.855644
-5.325749 1.879856 14.840780
-5.359318 1.974053 14.826159
-5.392866 2.068371 14.812299
-5.426317 2.162902 14.799717
-5.459588 2.257718 14.788937
-5.492601 2.352853 14.780415
-5.525396 2.448229 14.773993
-5.558087 2.543737 14.769195
-5.590793 2.639290 14.765542
-5.623639 2.734819 14.762558
-5.656754 2.830261 14.759764
-5.690266 2.925556 14.756686
-5.724276 3.020651 14.752975
-5.758802 3.115536 14.748702
-5.793846 3.210213 14.744025
-5.829409 3.304683 14.739100
-5.865492 3.398951 14.734084
-5.902098 3.493020 14.729133
-5.939246 3.586884 14.724320
-5.976979 3.680519 14.719607
-6.015341 3.773902 14.714951
-6.054374 3.867006 14.710306
-6.094121 3.959806 14.705630
-6.134626 4.052274 14.700880
-6.175925 4.144386 14.696049
-6.218052 4.236118 14.691146
-6.261041 4.327446 14.686181
-6.304926 4.418344 14.681164
-6.349739 4.508786 14.676105
-6.395514 4.598742 14.671012
-6.442286 4.688183 14.665881
-6.490091 4.777072 14.660707
-6.538963 4.865377 14.655488
-6.588938 4.953059 14.650218
-6.640048 5.040081 14.644893
-6.692325 5.126404 14.639512
-6.745797 5.211988 14.634073
-6.800495 5.296790 14.628577
-6.856444 5.380768 14.623025
-6.913673 5.463875 14.617416
-6.972204 5.546066 14.611750
-7.032058 5.627295 14.606029
-7.093252 5.707515 14.600251
-7.155800 5.786680 14.594417
-7.219718 5.864738 14.588528
-7.285019 5.941640 14.582582
-7.351709 6.017334 14.576581
-7.419789 6.091778 14.570527
-7.489255 6.164924 14.564420
-7.560104 6.236729 14.558262
-7.632330 6.307143 14.552055
-7.705926 6.376118 14.545801
-7.780877 6.443617 14.539502
-7.857158 6.509604 14.533160
-7.934745 6.574046 14.526778
-8.013613 6.636909 14.520358
-8.093738 6.698160 14.513902
-8.175091 6.757766 14.507415
-8.257634 6.815709 14.500898
-8.341326 6.871976 14.494354
-8.426129 6.926552 14.487787
-8.512004 6.979424 14.481200
-8.598911 7.030579 14.474595
-8.686808 7.080011 14.467975
-8.775649 7.127724 14.461344
-8.865388 7.173726 14.454703
-8.955980 7.218023 14.448056
-9.047383 7.260621 14.441405
-9.139554 7.301531 14.434753
-9.232449 7.340768 14.428103
-9.326025 7.378354 14.421455
-9.420240 7.414309 14.414813
-9.515054 7.448655 14.408178
-9.610428 7.481416 14.401553
-9.706325 7.512614 14.394938
-9.802709 7.542279 14.388336
-9.899544 7.570437 14.381748
-9.996798 7.597119 14.375175
-10.094438 7.622354 14.368618
-10.192435 7.646172 14.362078
-10.290760 7.668603 14.355556
-10.389386 7.689676 14.349054
-10.488287 7.709423 14.342572
-10.587440 7.727874 14.336109
-10.686821 7.745061 14.329668
-10.786409 7.761015 14.323248
-10.886183 7.775763 14.316850
-10.986126 7.789336 14.310475
-11.086220 7.801762 14.304121
-11.186447 7.813070 14.297791
-11.286793 7.823290 14.291483
-11.387243 7.832450 14.285198
-11.487783 7.840574 14.278935
-11.588401 7.847689 14.272696
-11.689085 7.853820 14.266480
-11.789824 7.858993 14.260287
-11.890608 7.863234 14.254116
-11.991428 7.866565 14.247968
-12.092275 7.869010 14.241843
-12.193140 7.870591 14.235740
-12.294016 7.871330 14.229660
-12.394897 7.871249 14.223601
-12.495774 7.870370 14.217565
-12.596644 7.868710 14.211550
-12.697499 7.866289 14.205557
-12.798335 7.863124 14.199585
-12.899147 7.859233 14.193634
-12.999930 7.854634 14.187704
-13.100680 7.849345 14.181795
-13.201394 7.843384 14.175906
-13.302069 7.836769 14.170037
-13.402701 7.829518 14.164188
-13.503287 7.821649 14.158359
-13.603826 7.813179 14.152548
-0.926872 -1.022541 22.076980
-0.812035 -0.823205 22.004736
-0.721224 -0.608061 21.945410
-0.666599 -0.377099 21.905844
-0.663359 -0.137150 21.894855
-0.720430 0.095045 21.918105
-0.831026 0.301705 21.972454
-0.977271 0.477577 22.048042
-1.144573 0.626870 22.136496
-0.925873 -1.020924 22.076357
-0.812875 -0.824938 22.005275
-0.811195 -0.821471 22.004197
-0.721832 -0.609921 21.945823
-0.720616 -0.606201 21.944996
-0.666870 -0.379068 21.906072
-0.666328 -0.375131 21.905616
-0.663189 -0.139142 21.894836
-0.663530 -0.135157 21.894875
-0.719796 0.093170 21.917820
-0.721063 0.096921 21.918390
-0.829887 0.300167 21.971872
-0.832164 0.303243 21.973036
-0.975940 0.476257 22.047343
-0.978602 0.478896 22.048741
-1.143122 0.625731 22.135723
-0.920909 -1.012885 22.073256
-0.817051 -0.833555 22.007955
-0.807019 -0.812854 22.001518
-0.724854 -0.619169 21.947877
-0.717593 -0.596953 21.942942
-0.668220 -0.388854 21.907206
-0.664978 -0.365345 21.904483
-0.662342 -0.149050 21.894737
-0.664377 -0.125250 21.894974
-0.716645 0.083845 21.916403
-0.724457 0.106121 21.919948
-0.824318 0.292441 21.969032
-0.837825 0.310889 21.975929
-0.969322 0.469699 22.043869
-0.985220 0.485455 22.052215
-1.135907 0.620069 22.131879
-0.908352 -0.992553 22.065412
-0.891671 -0.965542 22.054992
-0.874989 -0.938531 22.044572
-0.859288 -0.910754 22.034674
-0.843809 -0.882804 22.024895
-0.828330 -0.854853 22.015116
-0.796457 -0.791057 21.994741
-0.782425 -0.762101 21.985738
-0.769119 -0.732706 21.977126
-0.756838 -0.702695 21.969068
-0.744557 -0.672683 21.961010
-0.732499 -0.642560 21.953073
-0.709949 -0.573562 21.937746
-0.699832 -0.542471 21.930865
-0.692244 -0.510398 21.925369
-0.684655 -0.478326 21.919873
-0.677067 -0.446253 21.914377
-0.671634 -0.413607 21.910072
-0.661564 -0.340592 21.901616
-0.659203 -0.307422 21.899020
-0.658188 -0.274075 21.897175
-0.657173 -0.240728 21.895330
-0.657352 -0.207398 21.894158
-0.660199 -0.174108 21.894488
-0.667397 -0.100342 21.895722
-0.674208 -0.067733 21.898309
-0.681019 -0.035124 21.900897
-0.687830 -0.002514 21.903485
-0.698089 0.028929 21.908057
-0.708676 0.060261 21.912819
-0.734948 0.128414 21.925001
-0.748886 0.158030 21.931714
-0.762824 0.187647 21.938427
-0.778213 0.216260 21.945995
-0.794962 0.243935 21.954364
-0.811711 0.271610 21.962733
-0.852142 0.330229 21.983248
-0.871162 0.355922 21.992971
-0.890395 0.381391 22.002823
-0.911215 0.405185 22.013631
-0.932036 0.428979 22.024440
-0.952856 0.452773 22.035249
-1.001958 0.502044 22.061001
-1.024195 0.524083 22.072674
-1.047235 0.544980 22.084843
-1.070589 0.565430 22.097205
-1.093944 0.585880 22.109568
-1.117660 0.605748 22.122157
19 NaN NaN
-0.927121 -1.022945 22.077136
-0.871899 -0.933526 22.042641
-0.820659 -0.841001 22.010270
-0.774210 -0.745148 21.980467
-0.733561 -0.645810 21.953795
-0.699948 -0.542960 21.930949
-0.674835 -0.436820 21.912761
-0.659829 -0.328009 21.900159
-0.656472 -0.217682 21.894055
-0.665891 -0.107553 21.895149
-0.688422 0.000321 21.903710
-0.723448 0.103976 21.919462
-0.769564 0.201968 21.941673
-0.824988 0.293549 21.969367
-0.887937 0.378582 22.001546
-0.956849 0.457336 22.037322
-1.030456 0.530287 22.075961
-1.107765 0.597982 22.116884
-1.188014 0.660964 22.159642
-0.951989 -1.260000 19.804581
-0.850242 -1.092196 19.794491
-0.761450 -0.917121 19.786951
-0.689888 -0.734306 19.782717
-0.641454 -0.544100 19.782788
-0.623583 -0.348731 19.788345
-0.646083 -0.154246 19.800808
-0.710388 0.029861 19.820004
-0.811713 0.195780 19.844766
-0.941351 0.340225 19.873449
-1.090600 0.464015 19.904594
-1.253269 0.569237 19.937227
-0.950925 -1.258310 19.804473
-0.851242 -1.093925 19.794587
-0.849241 -1.090467 19.794395
-0.762288 -0.918936 19.787015
-0.760612 -0.915306 19.786887
-0.690500 -0.736210 19.782738
-0.689277 -0.732402 19.782696
-0.641750 -0.546078 19.782752
-0.641157 -0.542122 19.782824
-0.623463 -0.350725 19.788236
-0.623703 -0.346738 19.788454
-0.645727 -0.156208 19.800660
-0.646440 -0.152284 19.800956
-0.709563 0.028052 19.819783
-0.711213 0.031669 19.820226
-0.810508 0.194208 19.844489
-0.812917 0.197353 19.845043
-0.939887 0.338898 19.873139
-0.942814 0.341553 19.873760
-1.088972 0.462901 19.904264
-1.092228 0.465129 19.904923
-1.251583 0.568215 19.936891
-0.946467 -1.251230 19.804019
-0.855431 -1.101170 19.794987
-0.845052 -1.083222 19.793995
-0.765797 -0.926540 19.787283
-0.757102 -0.907703 19.786619
-0.693063 -0.744187 19.782827
-0.686714 -0.724425 19.782607
-0.642993 -0.554362 19.782599
-0.639914 -0.533838 19.782977
-0.623796 -0.359087 19.787924
-0.624207 -0.338387 19.788909
-0.644233 -0.164430 19.800040
-0.647934 -0.144063 19.801576
-0.706106 0.020476 19.818853
-0.714669 0.039245 19.821156
-0.805462 0.187621 19.843330
-0.817964 0.203940 19.846202
-0.933756 0.333337 19.871838
-0.948945 0.347113 19.875060
-1.082335 0.457976 19.902905
-1.099048 0.469796 19.906303
-1.244520 0.563931 19.935487
-0.935623 -1.234009 19.802914
-0.921256 -1.211192 19.801450
-0.906889 -1.188375 19.799987
-0.892628 -1.165492 19.798544
-0.879125 -1.142142 19.797253
-0.865622 -1.118793 19.795962
-0.835230 -1.065392 19.793093
-0.822736 -1.041478 19.792000
-0.810241 -1.017564 19.790907
-0.797747 -0.993650 19.789814
-0.785645 -0.969540 19.788797
-0.774334 -0.945035 19.787934
-0.748566 -0.889208 19.785968
-0.738059 -0.864354 19.785258
-0.728145 -0.839244 19.784662
-0.718230 -0.814133 19.784066
-0.708316 -0.789023 19.783470
-0.699298 -0.763589 19.783042
-0.680479 -0.705023 19.782392
-0.672219 -0.679316 19.782107
-0.665496 -0.653176 19.782105
-0.659193 -0.626919 19.782181
-0.652889 -0.600661 19.782256
-0.646586 -0.574404 19.782332
-0.636891 -0.513686 19.783347
-0.632886 -0.486986 19.783837
-0.628881 -0.460286 19.784328
-0.627520 -0.433334 19.785285
-0.626168 -0.406381 19.786243
-0.624817 -0.379429 19.787201
-0.625432 -0.318073 19.790018
-0.627054 -0.291159 19.791486
-0.628677 -0.264244 19.792954
-0.630969 -0.237417 19.794534
-0.635784 -0.210922 19.796532
-0.640599 -0.184427 19.798531
-0.653043 -0.124450 19.803322
-0.661096 -0.098799 19.805841
-0.669149 -0.073147 19.808359
-0.677202 -0.047496 19.810878
-0.686561 -0.022368 19.813598
-0.697700 0.002049 19.816593
-0.723075 0.057673 19.823416
-0.736065 0.081072 19.826684
-0.749970 0.103969 19.830088
-0.763876 0.126865 19.833492
-0.777781 0.149761 19.836895
-0.793187 0.171597 19.840510
-0.830238 0.219963 19.849021
-0.846502 0.241194 19.852757
-0.864474 0.260937 19.856721
-0.882676 0.280479 19.860716
-0.900878 0.300022 19.864710
-0.919080 0.319565 19.868705
-0.963859 0.360639 19.878223
-0.983618 0.378561 19.882414
-1.003492 0.396343 19.886619
-1.024491 0.412758 19.890956
-1.045489 0.429173 19.895294
-1.066487 0.445588 19.899632
-1.115637 0.481149 19.909658
-1.137618 0.496191 19.914104
-1.159599 0.511234 19.918550
-1.181816 0.525902 19.923020
-1.204578 0.539707 19.927546
-1.227340 0.553512 19.932071
22 NaN NaN
-0.952255 -1.260422 19.804608
-0.894288 -1.168363 19.798703
-0.839810 -1.074157 19.793493
-0.789401 -0.977677 19.789084
-0.743768 -0.878813 19.785601
-0.703771 -0.777512 19.783196
-0.670449 -0.673808 19.782046
-0.645023 -0.567893 19.782351
-0.628868 -0.460201 19.784329
-0.623416 -0.351502 19.788194
-0.629960 -0.242967 19.794115
-0.649375 -0.136131 19.802175
-0.681848 -0.032700 19.812331
-0.726763 0.065755 19.824407
-0.782839 0.158089 19.838133
-0.848432 0.243713 19.853200
-0.921850 0.322539 19.869313
-1.001558 0.394831 19.886219
-1.086267 0.461050 19.903717
-1.174943 0.521734 19.921654
-1.266777 0.577430 19.939912
-1.361137 0.628648 19.958408
-1.245402 -1.458222 17.561593
-1.069184 -1.265696 17.497306
-0.906962 -1.060145 17.436791
-0.768021 -0.836683 17.382729
-0.664934 -0.592823 17.338942
-0.627729 -0.328976 17.314861
-0.680999 -0.067583 17.319250
-0.825166 0.155069 17.353948
-1.020229 0.331405 17.406776
-1.242176 0.468947 17.469855
-1.477017 0.580275 17.538210
-1.244062 -1.456819 17.561107
-1.070450 -1.267172 17.497772
-1.067918 -1.264220 17.496839
-0.908063 -1.061760 17.437212
-0.905860 -1.058529 17.436369
-0.768949 -0.838416 17.383101
-0.767094 -0.834950 17.382357
-0.665409 -0.594751 17.339182
-0.664459 -0.590895 17.338703
-0.627707 -0.330974 17.314949
-0.627750 -0.326978 17.314774
-0.680107 -0.069363 17.319054
-0.681890 -0.065803 17.319445
-0.823871 0.153583 17.353611
-0.826462 0.156555 17.354284
-1.018624 0.330300 17.406325
-1.021834 0.332510 17.407227
-1.240470 0.468026 17.469364
-1.243883 0.469868 17.470347
-1.475228 0.579553 17.537683
-1.236756 -1.449162 17.558457
-1.077357 -1.275225 17.500316
-1.061011 -1.256167 17.494296
-0.914422 -1.070295 17.439607
-0.899852 -1.049718 17.434072
-0.774006 -0.847867 17.385131
-0.762037 -0.825499 17.380327
-0.668849 -0.604978 17.340742
-0.661869 -0.580378 17.337396
-0.627591 -0.341873 17.315426
-0.627866 -0.316079 17.314297
-0.676225 -0.079499 17.318315
-0.686753 -0.056096 17.320512
-0.816804 0.145476 17.351778
-0.833529 0.164662 17.356117
-1.010070 0.323974 17.403942
-1.030590 0.338536 17.409687
-1.231164 0.463003 17.466684
-1.253189 0.474891 17.473026
-1.465509 0.575505 17.534828
-1.217942 -1.429446 17.551633
-1.192918 -1.403221 17.542556
-1.168046 -1.376840 17.533520
-1.143654 -1.349968 17.524611
-1.119263 -1.323097 17.515702
-1.095144 -1.295961 17.506866
-1.043224 -1.235431 17.487745
-1.020162 -1.207304 17.479194
-0.997361 -1.178940 17.470713
-0.974559 -1.150576 17.462232
-0.952594 -1.121497 17.453980
-0.930804 -1.092269 17.445775
-0.884379 -1.027027 17.428155
-0.863799 -0.996846 17.420284
-0.843634 -0.966368 17.412530
-0.824518 -0.935138 17.405069
-0.805402 -0.903908 17.397608
-0.787029 -0.872205 17.390358
-0.749014 -0.801161 17.375100
-0.733335 -0.767886 17.368620
-0.718234 -0.734293 17.362306
-0.703134 -0.700700 17.355992
-0.690447 -0.666018 17.350384
-0.678118 -0.631174 17.344880
-0.655199 -0.553295 17.334031
-0.646328 -0.517273 17.329555
-0.638851 -0.480947 17.325502
-0.634226 -0.444004 17.322313
-0.629601 -0.407060 17.319124
-0.627292 -0.369938 17.316653
-0.628165 -0.288014 17.313070
-0.632946 -0.251030 17.312827
-0.638901 -0.214140 17.312956
-0.644856 -0.177249 17.313086
-0.655978 -0.141658 17.314896
-0.667536 -0.106175 17.316847
-0.699275 -0.031097 17.323259
-0.715930 0.002154 17.326914
-0.734212 0.034371 17.331126
-0.755107 0.064927 17.336236
-0.776001 0.095484 17.341345
-0.798605 0.124601 17.347058
-0.851728 0.185537 17.360837
-0.878044 0.211079 17.367882
-0.904754 0.236205 17.375069
-0.931464 0.261330 17.382257
-0.959998 0.284134 17.390126
-0.988581 0.306876 17.398012
-1.053136 0.354054 17.416022
-1.083125 0.374695 17.424448
-1.113573 0.394546 17.433056
-1.144628 0.413352 17.441902
-1.175684 0.432159 17.450749
-1.207200 0.450067 17.459783
-1.277153 0.487827 17.479928
-1.309597 0.503794 17.489343
-1.342112 0.519601 17.498789
-1.374637 0.535388 17.508238
-1.407660 0.549966 17.517901
-1.440682 0.564545 17.527563
27 NaN NaN
-1.245736 -1.458573 17.561715
-1.173928 -1.383320 17.535668
-1.103938 -1.306213 17.510104
-1.036051 -1.227068 17.485104
-0.970622 -1.145679 17.460768
-0.908099 -1.061813 17.437226
-0.849048 -0.975213 17.414643
-0.794201 -0.885608 17.393236
-0.744502 -0.792728 17.373289
-0.701180 -0.696354 17.355175
-0.665816 -0.596403 17.339387
-0.640371 -0.493086 17.326549
-0.627109 -0.387150 17.317406
-0.628249 -0.280130 17.312725
-0.645318 -0.174384 17.313096
-0.678447 -0.072677 17.318690
-0.726198 0.022651 17.329166
-0.786114 0.110272 17.343818
-0.855541 0.189911 17.361826
-0.932161 0.261986 17.382444
-1.014162 0.327229 17.405071
-1.100203 0.386450 17.429247
-1.189308 0.440409 17.454631
-1.280770 0.489780 17.480969
-1.374071 0.535138 17.508073
-1.468827 0.576970 17.535798
-1.564750 0.615685 17.564037
-1.710181 -1.506017 16.520114
-1.424503 -1.309314 16.396743
-1.155238 -1.088819 16.277015
-0.915082 -0.833973 16.164519
-0.736511 -0.528121 16.069451
-0.687575 -0.171617 16.016635
-0.817376 0.168344 16.030551
-1.057534 0.439077 16.091463
-1.343091 0.655635 16.174230
-1.708605 -1.504988 16.519439
-1.426015 -1.310444 16.397404
-1.422992 -1.308183 16.396081
-1.156647 -1.090086 16.277652
-1.153828 -1.087551 16.276377
-0.916222 -0.835516 16.165086
-0.913942 -0.832431 16.163953
-0.737199 -0.529950 16.069881
-0.735824 -0.526293 16.069021
-0.687425 -0.173606 16.016775
-0.687725 -0.169627 16.016494
-0.816229 0.166726 16.030292
-0.818523 0.169962 16.030810
-1.056071 0.437774 16.091058
-1.058997 0.440379 16.091868
-1.341480 0.654551 16.173750
-1.697266 -1.497583 16.514582
-1.436887 -1.318577 16.402163
-1.412119 -1.300051 16.391322
-1.166785 -1.099206 16.282240
-1.143691 -1.078431 16.271789
-0.924823 -0.846253 16.169273
-0.905742 -0.821334 16.159876
-0.742144 -0.543102 16.072973
-0.730878 -0.513141 16.065929
-0.686344 -0.187917 16.017786
-0.688806 -0.155316 16.015483
-0.808072 0.155023 16.028470
-0.826773 0.181600 16.032674
-1.045549 0.428405 16.088145
-1.069520 0.449748 16.094782
-1.329893 0.646754 16.170294
-1.666772 -1.477669 16.501519
-1.626097 -1.451107 16.484095
-1.585883 -1.423794 16.466765
-1.545693 -1.396442 16.449440
-1.505957 -1.368376 16.432211
-1.466320 -1.340158 16.415003
-1.382880 -1.278180 16.378524
-1.344399 -1.248264 16.361571
-1.306136 -1.218035 16.344666
-1.268374 -1.187129 16.327876
-1.230979 -1.155726 16.311172
-1.194048 -1.123732 16.294579
-1.116995 -1.053230 16.259591
-1.081867 -1.019043 16.243439
-1.047240 -0.984306 16.227416
-1.013621 -0.948463 16.211651
-0.980384 -0.912236 16.195988
-0.948630 -0.874525 16.180720
-0.883690 -0.791491 16.148914
-0.854534 -0.751483 16.134367
-0.828094 -0.709353 16.120600
-0.801653 -0.667223 16.106834
-0.778877 -0.622686 16.094166
-0.756251 -0.578051 16.081543
-0.717578 -0.477771 16.057613
-0.705018 -0.428666 16.048218
-0.693417 -0.379204 16.039137
-0.687102 -0.328625 16.031873
-0.682856 -0.277610 16.025319
-0.683437 -0.226404 16.020505
-0.696590 -0.117513 16.014609
-0.708535 -0.067308 16.014032
-0.723932 -0.018221 16.014823
-0.743068 0.029657 16.017095
-0.764294 0.076474 16.020232
-0.789314 0.121367 16.024940
-0.848961 0.212900 16.037684
-0.879387 0.253933 16.044740
-0.912463 0.292683 16.052986
-0.945837 0.331126 16.061370
-0.981557 0.367151 16.070846
-1.017278 0.403176 16.080323
-1.097819 0.474943 16.102618
-1.137132 0.506437 16.113848
-1.176455 0.537918 16.125082
-1.216857 0.567779 16.136869
-1.257425 0.597392 16.148740
-1.298731 0.625787 16.161000
29 NaN NaN
-1.710575 -1.506275 16.520283
-1.624069 -1.449782 16.483227
-1.538594 -1.391610 16.446380
-1.454294 -1.331596 16.409782
-1.371347 -1.269554 16.373477
-1.289972 -1.205266 16.337524
-1.210443 -1.138481 16.301999
-1.133104 -1.068908 16.266998
-1.058400 -0.996205 16.232649
-0.986905 -0.919979 16.199124
-0.919378 -0.839787 16.166655
-0.856831 -0.755143 16.135563
-0.800614 -0.665566 16.106292
-0.752513 -0.570676 16.079457
-0.714806 -0.470399 16.055879
-0.690154 -0.365293 16.036583
-0.681133 -0.256912 16.022660
-0.689369 -0.147865 16.014957
-0.714745 -0.041208 16.013733
-0.755405 0.060525 16.018559
-0.808583 0.155941 16.028566
-0.871499 0.244693 16.042774
-0.941825 0.327081 16.060306
-1.017781 0.403683 16.080456
-1.098050 0.475149 16.102682
-1.181674 0.542096 16.126573
-1.267946 0.605073 16.151819
-1.356344 0.664552 16.178182
-1.446470 0.720936 16.205479
-2.128368 -1.536894 15.159297
-1.900801 -1.430032 15.191461
-1.677496 -1.314950 15.225029
-1.460030 -1.189673 15.260310
-1.251523 -1.050646 15.297849
-1.056687 -0.893865 15.338200
-0.884621 -0.713447 15.382069
-0.756204 -0.501301 15.430019
-0.706844 -0.259867 15.479828
-0.758045 -0.017933 15.524789
-0.888858 0.195158 15.560174
-1.064155 0.375801 15.587003
-1.262170 0.532376 15.607992
-1.473631 0.670992 15.624795
-2.126564 -1.536069 15.159548
-1.902579 -1.430910 15.191202
-1.899022 -1.429154 15.191721
-1.679239 -1.315892 15.224758
-1.675752 -1.314009 15.225299
-1.461728 -1.190692 15.260027
-1.458333 -1.188655 15.260593
-1.253113 -1.051820 15.297541
-1.249934 -1.049471 15.298158
-1.058156 -0.895182 15.337869
-1.055219 -0.892549 15.338530
-0.885892 -0.714949 15.381712
-0.883351 -0.711944 15.382427
-0.756874 -0.503143 15.429624
-0.755534 -0.499458 15.430413
-0.706832 -0.261830 15.479443
-0.706856 -0.257905 15.480212
-0.757348 -0.019779 15.524461
-0.758741 -0.016087 15.525117
-0.887559 0.193656 15.559943
-0.890158 0.196661 15.560405
-1.062659 0.374487 15.586819
-1.065652 0.377115 15.587187
-1.260555 0.531206 15.607842
-1.263786 0.533546 15.608142
-1.471910 0.669980 15.624681
-2.117206 -1.531790 15.160848
-1.911800 -1.435462 15.189855
-1.889801 -1.424602 15.193068
-1.688282 -1.320773 15.223356
-1.666709 -1.309128 15.226702
-1.470531 -1.195976 15.258557
-1.449602 -1.183259 15.262082
-1.261354 -1.057910 15.295940
-1.241693 -1.043381 15.299758
-1.065772 -0.902011 15.336154
-1.047603 -0.885720 15.340245
-0.892481 -0.722742 15.379859
-0.876762 -0.704152 15.384280
-0.760346 -0.512700 15.427578
-0.752062 -0.489901 15.432460
-0.706770 -0.272008 15.477449
-0.706918 -0.247727 15.482207
-0.753739 -0.029352 15.522760
-0.762351 -0.006514 15.526818
-0.880890 0.185811 15.558731
-0.896897 0.204453 15.561603
-1.054898 0.367673 15.585863
-1.073412 0.383929 15.588143
-1.252178 0.525141 15.607064
-1.272163 0.539611 15.608920
-1.463112 0.664526 15.624043
-2.093337 -1.520877 15.164164
-2.061609 -1.506370 15.168571
-2.029882 -1.491864 15.172978
-1.998371 -1.476915 15.177462
-1.966860 -1.461964 15.181946
-1.935350 -1.447013 15.186430
-1.866282 -1.412990 15.196504
-1.835018 -1.397555 15.201070
-1.804025 -1.381610 15.205724
-1.773042 -1.365644 15.210381
-1.742059 -1.349679 15.215038
-1.711347 -1.333223 15.219778
-1.643644 -1.296678 15.230280
-1.613331 -1.279530 15.235136
-1.583046 -1.262335 15.240000
-1.552761 -1.245140 15.244864
-1.522829 -1.227366 15.249824
-1.492983 -1.209452 15.254808
-1.427541 -1.169178 15.265930
-1.398215 -1.150460 15.271046
-1.368889 -1.131743 15.276162
-1.340044 -1.112328 15.281390
-1.311343 -1.092705 15.286653
-1.282641 -1.073082 15.291915
-1.220673 -1.027848 15.303841
-1.192731 -1.007199 15.309267
-1.165480 -0.985694 15.314828
-1.138477 -0.963878 15.320437
-1.111475 -0.942062 15.326047
-1.085197 -0.919427 15.331781
-1.028178 -0.868304 15.344618
-1.003415 -0.844083 15.350590
-0.979105 -0.819402 15.356629
-0.954796 -0.794722 15.362668
-0.931627 -0.769036 15.368848
-0.909287 -0.742616 15.375132
-0.861689 -0.682985 15.389175
-0.841952 -0.654626 15.395712
-0.822214 -0.626267 15.402248
-0.804361 -0.596782 15.408912
-0.788076 -0.566361 15.415683
-0.771792 -0.535939 15.422455
-0.743206 -0.465527 15.437679
-0.731434 -0.433126 15.444616
-0.722555 -0.399945 15.451565
-0.716395 -0.366031 15.458523
-0.710236 -0.332117 15.465482
-0.706611 -0.297967 15.472362
-0.707077 -0.221767 15.487293
-0.710409 -0.187531 15.493848
-0.717005 -0.153577 15.500187
-0.723601 -0.119624 15.506526
-0.732292 -0.086226 15.512653
-0.744531 -0.053769 15.518421
-0.773650 0.016988 15.530874
-0.790428 0.047458 15.536029
-0.807207 0.077928 15.541184
-0.825168 0.107687 15.546140
-0.845413 0.136072 15.550715
-0.865659 0.164457 15.555290
-0.914086 0.224327 15.564658
-0.936936 0.250746 15.568718
-0.960390 0.276621 15.572643
-0.985201 0.301275 15.576261
-1.010013 0.325929 15.579879
-1.035105 0.350293 15.583426
-1.093206 0.401309 15.590580
-1.119837 0.424041 15.593732
-1.147314 0.445789 15.596648
-1.174792 0.467538 15.599565
-1.202411 0.489106 15.602439
-1.230812 0.509670 15.605078
-1.293707 0.554834 15.610848
-1.322853 0.574360 15.613247
-1.351999 0.593886 15.615645
-1.381216 0.613305 15.618019
-1.410972 0.631916 15.620208
-1.440727 0.650526 15.622397
32 NaN NaN
-2.128820 -1.537100 15.159235
-2.029774 -1.491815 15.172993
-1.931407 -1.445143 15.186991
-1.833810 -1.396959 15.201247
-1.737091 -1.347119 15.215785
-1.641380 -1.295456 15.230631
-1.546840 -1.241778 15.245815
-1.453671 -1.185856 15.261372
-1.362126 -1.127426 15.277341
-1.272532 -1.066171 15.293769
-1.185312 -1.001716 15.310708
-1.101024 -0.933618 15.328218
-1.020427 -0.861355 15.346363
-0.944554 -0.784324 15.365212
-0.874835 -0.701873 15.384822
-0.813246 -0.613382 15.405217
-0.762445 -0.518477 15.426341
-0.725730 -0.417429 15.447977
-0.706527 -0.311694 15.469672
-0.707185 -0.204127 15.490750
-0.727749 -0.098271 15.510513
-0.765919 0.002949 15.528500
-0.818261 0.098004 15.544580
-0.881435 0.186575 15.558855
-0.952743 0.269023 15.571528
-1.030184 0.345972 15.582820
-1.112311 0.418084 15.592933
-1.198081 0.485971 15.602037
-1.286738 0.550165 15.610275
-1.377720 0.611118 15.617762
-1.470606 0.669213 15.624595
-1.565073 0.724770 15.630851
-1.933799 -1.547275 14.769378
-1.666955 -1.387897 14.767528
-1.410400 -1.212507 14.769419
-1.169944 -1.015896 14.776531
-0.957007 -0.790494 14.791325
-0.795464 -0.527547 14.817781
-0.728693 -0.229310 14.860116
-0.790026 0.068099 14.915876
-0.951957 0.325498 14.975660
-1.167001 0.541596 15.034225
-1.410182 0.726528 15.090607
-1.932065 -1.546279 14.769359
-1.668651 -1.388956 14.767532
-1.665258 -1.386838 14.767523
-1.412015 -1.213686 14.769395
-1.408785 -1.211328 14.769444
-1.171425 -1.017239 14.776465
-1.168463 -1.014553 14.776596
-0.958240 -0.792063 14.791196
-0.955773 -0.788925 14.791455
-0.796206 -0.529391 14.817554
-0.794722 -0.525704 14.818007
-0.728599 -0.231279 14.859780
-0.728786 -0.227341 14.860452
-0.789368 0.066248 14.915500
-0.790855 0.069875 14.916258
-0.950751 0.323949 14.975276
-0.953163 0.327047 14.976044
-1.165522 0.540302 15.033854
-1.168480 0.542891 15.034596
-1.408558 0.725416 15.090251
-1.921329 -1.540115 14.769243
-1.679153 -1.395512 14.767558
-1.654756 -1.380282 14.767497
-1.422014 -1.220985 14.769244
-1.398786 -1.204029 14.769594
-1.180590 -1.025551 14.776059
-1.159297 -1.006241 14.777003
-0.965876 -0.801774 14.790396
-0.948137 -0.779213 14.792255
-0.800800 -0.540801 14.816150
-0.790129 -0.514294 14.819411
-0.728020 -0.243469 14.857699
-0.729366 -0.215150 14.862533
-0.785293 0.054792 14.913171
-0.796318 0.080728 14.918635
-0.943287 0.314363 14.972898
-0.960627 0.336633 14.978423
-1.156367 0.532291 15.031558
-1.177634 0.550902 15.036893
-1.398508 0.718532 15.088046
-1.893080 -1.523897 14.768939
-1.855452 -1.502295 14.768534
-1.818049 -1.480309 14.768216
-1.780804 -1.458050 14.767960
-1.743593 -1.435737 14.767717
-1.706786 -1.412761 14.767626
-1.627490 -1.362460 14.767563
-1.591185 -1.338698 14.767656
-1.555009 -1.314746 14.767793
-1.519285 -1.290120 14.768090
-1.483562 -1.265494 14.768388
-1.448323 -1.240190 14.768849
-1.372771 -1.184438 14.770085
-1.338531 -1.157799 14.770873
-1.304290 -1.131160 14.771661
-1.270870 -1.103511 14.772702
-1.237588 -1.075694 14.773787
-1.204708 -1.047421 14.774989
-1.135183 -0.984367 14.778073
-1.104473 -0.953768 14.779891
-1.073764 -0.923170 14.781708
-1.043919 -0.891765 14.783751
-1.014961 -0.859532 14.786025
-0.986004 -0.827299 14.788298
-0.928044 -0.753660 14.794361
-0.903052 -0.718374 14.797560
-0.879058 -0.682384 14.800981
-0.855523 -0.646129 14.804496
-0.835034 -0.608105 14.808625
-0.814544 -0.570081 14.812755
-0.778042 -0.484271 14.823105
-0.763432 -0.443820 14.828259
-0.752679 -0.402181 14.834018
-0.741925 -0.360541 14.839777
-0.735935 -0.318128 14.846169
-0.731357 -0.275485 14.852749
-0.730890 -0.183075 14.868007
-0.732921 -0.140351 14.875300
-0.740905 -0.098456 14.883085
-0.749395 -0.056631 14.890913
-0.760286 -0.015500 14.898879
-0.774569 0.024650 14.907042
-0.810691 0.109284 14.924887
-0.829837 0.147320 14.933215
-0.851188 0.184090 14.941566
-0.874252 0.219876 14.949936
-0.897484 0.255543 14.958305
-0.923646 0.289140 14.966640
-0.982001 0.360413 14.984625
-1.010604 0.391978 14.992882
-1.039596 0.423174 15.001119
-1.070133 0.452899 15.009276
-1.100670 0.482625 15.017434
-1.132279 0.511211 15.025516
-1.202158 0.571472 15.042897
-1.235499 0.598082 15.050835
-1.268839 0.624691 15.058772
-1.303042 0.650204 15.066620
-1.337412 0.675503 15.074450
-1.372063 0.700418 15.082246
30 NaN NaN
-1.934233 -1.547524 14.769382
-1.839809 -1.493314 14.768365
-1.746347 -1.437456 14.767723
-1.653982 -1.379799 14.767496
-1.562879 -1.320171 14.767728
-1.473235 -1.258375 14.768474
-1.385298 -1.194184 14.769797
-1.299377 -1.127337 14.771774
-1.215862 -1.057535 14.774495
-1.135252 -0.984437 14.778069
-1.058197 -0.907658 14.782630
-0.985541 -0.826783 14.788335
-0.918394 -0.741387 14.795372
-0.858201 -0.651099 14.803956
-0.806807 -0.555722 14.814314
-0.766430 -0.455429 14.826653
-0.739466 -0.351019 14.841094
-0.727989 -0.244110 14.857589
-0.733080 -0.137001 14.875872
-0.754367 -0.032137 14.895497
-0.790185 0.068545 14.915967
-0.838206 0.163945 14.936855
-0.896061 0.253716 14.957851
-0.961695 0.338004 14.978763
-1.033460 0.417201 14.999480
-1.110082 0.491787 15.019948
-1.190592 0.562242 15.040143
-1.274253 0.629013 15.060062
-1.360499 0.692497 15.079709
-1.448892 0.753043 15.099097
-1.741285 -1.557599 14.378502
-1.496043 -1.381818 14.371008
-1.261203 -1.192329 14.366579
-1.042413 -0.984595 14.366501
-0.850895 -0.751847 14.373041
-0.711537 -0.485680 14.390365
-0.677842 -0.190392 14.424528
-0.783293 0.084713 14.473269
-0.983398 0.302625 14.526285
-1.227327 0.471938 14.578409
-1.491866 0.608036 14.628770
-1.739641 -1.556460 14.378447
-1.497645 -1.383014 14.371051
-1.494440 -1.380622 14.370965
-1.262718 -1.193635 14.366597
-1.259688 -1.191024 14.366561
-1.043783 -0.986052 14.366481
-1.041043 -0.983137 14.366521
-0.851989 -0.753519 14.372959
-0.849801 -0.750175 14.373123
-0.712292 -0.487526 14.390219
-0.710783 -0.483833 14.390512
-0.677698 -0.192368 14.424254
-0.677986 -0.188416 14.424803
-0.782217 0.083063 14.472922
-0.784368 0.086363 14.473616
-0.981872 0.301380 14.525935
-0.984924 0.303869 14.526635
-1.225610 0.470968 14.578071
-1.229043 0.472907 14.578747
-1.490082 0.607195 14.628440
-1.729728 -1.549592 14.378113
-1.507313 -1.390228 14.371310
-1.484773 -1.373409 14.370707
-1.271858 -1.201509 14.366704
-1.250547 -1.183150 14.366453
-1.052045 -0.994843 14.366362
-1.032781 -0.974347 14.366641
-0.858589 -0.763607 14.372466
-0.843201 -0.740087 14.373617
-0.716844 -0.498664 14.389336
-0.707567 -0.472267 14.391616
-0.676830 -0.204287 14.422600
-0.678855 -0.176497 14.426457
-0.775730 0.073108 14.470828
-0.790855 0.096318 14.475710
-0.972666 0.293873 14.523823
-0.994130 0.311376 14.528747
-1.215257 0.465120 14.576033
-1.239397 0.478756 14.580786
-1.479318 0.602120 14.626451
-1.703750 -1.531595 14.377239
-1.669158 -1.507629 14.376074
-1.634778 -1.483359 14.374975
-1.600587 -1.458818 14.373935
-1.566396 -1.434277 14.372894
-1.532645 -1.409130 14.371987
-1.459736 -1.354116 14.370117
-1.426526 -1.328252 14.369369
-1.393317 -1.302389 14.368622
-1.360712 -1.275763 14.368048
-1.328108 -1.249135 14.367474
-1.295810 -1.222143 14.366986
-1.226624 -1.162485 14.366179
-1.195568 -1.134062 14.366030
-1.164511 -1.105640 14.365880
-1.133923 -1.076723 14.365853
-1.103872 -1.047240 14.365966
-1.073820 -1.017757 14.366079
-1.011130 -0.951311 14.366955
-0.983054 -0.919963 14.367554
-0.955729 -0.887947 14.368332
-0.928403 -0.855930 14.369111
-0.902843 -0.822505 14.370290
-0.877406 -0.788980 14.371498
-0.825907 -0.713654 14.374910
-0.802877 -0.678454 14.376633
-0.782866 -0.641493 14.378957
-0.762944 -0.604479 14.381299
-0.744656 -0.566717 14.383940
-0.728772 -0.527851 14.387022
-0.699535 -0.441833 14.394573
-0.688838 -0.401306 14.398511
-0.680983 -0.360305 14.402862
-0.676695 -0.318709 14.407731
-0.672407 -0.277112 14.412600
-0.674553 -0.235520 14.418264
-0.684751 -0.145916 14.431155
-0.695241 -0.105669 14.437675
-0.705731 -0.065423 14.444196
-0.722400 -0.027450 14.451185
-0.739596 0.010329 14.458214
-0.758732 0.047023 14.465342
-0.807853 0.122404 14.481197
-0.834469 0.154153 14.488607
-0.861246 0.185782 14.496022
-0.889237 0.216271 14.503439
-0.919085 0.245018 14.510859
-0.948933 0.273765 14.518280
-1.018252 0.331047 14.534282
-1.051111 0.356285 14.541619
-1.084936 0.380264 14.548912
-1.118762 0.404243 14.556205
-1.153710 0.426566 14.563422
-1.188832 0.448631 14.570627
-1.266527 0.494082 14.586129
-1.302655 0.514490 14.593243
-1.339498 0.533601 14.600277
-1.376420 0.552569 14.607302
-1.413554 0.571116 14.614299
-1.451113 0.588823 14.621239
30 NaN NaN
-1.741695 -1.557884 14.378516
-1.652884 -1.496355 14.375526
-1.565105 -1.433349 14.372855
-1.478498 -1.368727 14.370539
-1.393238 -1.302328 14.368620
-1.309534 -1.233966 14.367148
-1.227651 -1.163426 14.366184
-1.147922 -1.090457 14.365801
-1.070772 -1.014767 14.366090
-0.996758 -0.936020 14.367163
-0.926611 -0.853830 14.369162
-0.861317 -0.767775 14.372262
-0.802206 -0.677427 14.376683
-0.751080 -0.582435 14.382694
-0.710323 -0.482710 14.390601
-0.682885 -0.378752 14.400703
-0.671888 -0.272082 14.413189
-0.679661 -0.165449 14.427991
-0.706557 -0.062256 14.444709
-0.750658 0.034632 14.462735
-0.808727 0.123745 14.481479
-0.877438 0.204908 14.500506
-0.954044 0.278687 14.519550
-1.036496 0.345925 14.538468
-1.123326 0.407479 14.557189
-1.213490 0.464122 14.575685
-1.306238 0.516514 14.593948
-1.401025 0.565209 14.611984
-1.497449 0.610668 14.629801
-1.595205 0.653272 14.647413
-1.394188 -1.576500 13.579609
-1.311355 -1.495709 13.604804
-1.230806 -1.412732 13.630288
-1.152889 -1.327375 13.656074
-1.078032 -1.239422 13.682172
-1.006759 -1.148640 13.708590
-0.939723 -1.054785 13.735326
-0.877734 -0.957615 13.762362
-0.821804 -0.856915 13.789659
-0.773181 -0.752544 13.817139
-0.733375 -0.644515 13.844670
-0.704190 -0.533093 13.872036
-0.688517 -0.418877 13.898851
-0.687250 -0.303438 13.924688
-0.701462 -0.188603 13.949048
-0.731255 -0.076415 13.971465
-0.775687 0.031276 13.991610
-0.833034 0.133164 14.009340
-0.901228 0.228597 14.024691
-0.978239 0.317480 14.037816
-1.062288 0.400081 14.048930
-1.151923 0.476862 14.058263
-1.246022 0.548319 14.066021
-1.343864 0.614722 14.072329
-1.444494 0.676921 14.077457
-1.392786 -1.575139 13.580035
-1.312722 -1.497104 13.604375
-1.309988 -1.494314 13.605234
-1.232133 -1.414164 13.629854
-1.229478 -1.411301 13.630722
-1.154171 -1.328846 13.655635
-1.151608 -1.325904 13.656513
-1.079262 -1.240936 13.681728
-1.076803 -1.237908 13.682616
-1.007928 -1.150200 13.708141
-1.005591 -1.147080 13.709039
-0.940819 -1.056395 13.734872
-0.938626 -1.053176 13.735780
-0.878746 -0.959278 13.761903
-0.876722 -0.955952 13.762820
-0.822716 -0.858634 13.789196
-0.820893 -0.855196 13.790121
-0.773973 -0.754321 13.816675
-0.772389 -0.750767 13.817604
-0.734024 -0.646349 13.844205
-0.732726 -0.642681 13.845135
-0.704620 -0.534989 13.871576
-0.703906 -0.531166 13.872490
-0.688579 -0.420827 13.898411
-0.688454 -0.416927 13.899291
-0.687073 -0.305386 13.924270
-0.687428 -0.301491 13.925107
-0.701039 -0.190518 13.948658
-0.701885 -0.186687 13.949438
-0.730595 -0.078269 13.971109
-0.731914 -0.074560 13.971821
-0.774812 0.029506 13.991291
-0.776561 0.033047 13.991929
-0.831974 0.131492 14.009059
-0.834094 0.134837 14.009621
-0.900013 0.227028 14.024446
-0.902444 0.230167 14.024935
-0.976897 0.316012 14.037605
-0.979580 0.318948 14.038027
-1.060844 0.398709 14.048750
-1.063732 0.401453 14.049111
-1.150396 0.475579 14.058109
-1.153450 0.478144 14.058416
-1.244404 0.547151 14.065902
-1.247671 0.549446 14.066130
-1.342171 0.613661 14.072239
-1.345557 0.615783 14.072418
-1.442764 0.675920 14.077384
-1.388829 -1.571296 13.581234
-1.316580 -1.501042 13.603162
-1.306129 -1.490376 13.606446
-1.235880 -1.418204 13.628628
-1.225732 -1.407260 13.631948
-1.157790 -1.332998 13.654395
-1.147989 -1.321752 13.657752
-1.082732 -1.245208 13.680475
-1.073333 -1.233636 13.683870
-1.011225 -1.154603 13.706874
-1.002294 -1.142677 13.710307
-0.943914 -1.060939 13.733590
-0.935531 -1.048632 13.737061
-0.881602 -0.963972 13.760609
-0.873866 -0.951258 13.764114
-0.825288 -0.863486 13.787892
-0.818320 -0.850343 13.791426
-0.776207 -0.759336 13.815363
-0.770155 -0.745752 13.818916
-0.735856 -0.651524 13.842893
-0.730894 -0.637506 13.846448
-0.705976 -0.540312 13.870272
-0.703104 -0.525728 13.873771
-0.688756 -0.426330 13.897169
-0.688278 -0.411423 13.900533
-0.686573 -0.310883 13.923088
-0.687928 -0.295994 13.926289
-0.699846 -0.195924 13.947557
-0.703078 -0.181281 13.950540
-0.728734 -0.083503 13.970104
-0.733776 -0.069327 13.972826
-0.772345 0.024509 13.990392
-0.779029 0.038043 13.992828
-0.828982 0.126771 14.008267
-0.837086 0.139557 14.010413
-0.896583 0.222598 14.023757
-0.905873 0.234597 14.025625
-0.973109 0.311869 14.037010
-0.983368 0.323091 14.038621
-1.056767 0.394838 14.048241
-1.067809 0.405324 14.049620
-1.146087 0.471959 14.057677
-1.157760 0.481764 14.058849
-1.239906 0.543760 14.065536
-1.252323 0.552629 14.066435
-1.337392 0.610667 14.071987
-1.350335 0.618778 14.072671
-1.437881 0.673095 14.077179
-1.380383 -1.563094 13.583795
-1.369302 -1.552333 13.587155
-1.358222 -1.541572 13.590515
-1.347141 -1.530811 13.593875
-1.336060 -1.520050 13.597235
-1.324979 -1.509289 13.600595
-1.297893 -1.481971 13.609034
-1.287088 -1.470945 13.612430
-1.276282 -1.459918 13.615825
-1.265477 -1.448891 13.619220
-1.254672 -1.437864 13.622615
-1.243877 -1.426828 13.626012
-1.217735 -1.398636 13.634564
-1.207243 -1.387322 13.637996
-1.196751 -1.376007 13.641428
-1.186260 -1.364693 13.644860
-1.175768 -1.353379 13.648293
-1.165512 -1.341859 13.651750
-1.140267 -1.312891 13.660397
-1.130134 -1.301265 13.663868
-1.120002 -1.289638 13.667338
-1.109870 -1.278012 13.670809
-1.099855 -1.266291 13.674290
-1.090138 -1.254327 13.677800
-1.065927 -1.224517 13.686545
-1.056210 -1.212553 13.690055
-1.046493 -1.200589 13.693564
-1.036776 -1.188625 13.697074
-1.027497 -1.176330 13.700619
-1.018263 -1.164001 13.704169
-0.995256 -1.133280 13.713012
-0.986022 -1.120950 13.716561
-0.976789 -1.108621 13.720111
-0.967855 -1.096083 13.723680
-0.959188 -1.083360 13.727268
-0.950521 -1.070636 13.730856
-0.928925 -1.038934 13.739795
-0.920258 -1.026211 13.743383
-0.911693 -1.013423 13.746977
-0.903695 -1.000279 13.750600
-0.895697 -0.987135 13.754224
-0.887699 -0.973991 13.757847
-0.867770 -0.941240 13.766876
-0.859772 -0.928095 13.770500
-0.852391 -0.914606 13.774146
-0.845187 -0.901019 13.777800
-0.837983 -0.887431 13.781453
-0.830779 -0.873843 13.785107
-0.812829 -0.839987 13.794210
-0.806006 -0.826216 13.797872
-0.799749 -0.812172 13.801545
-0.793491 -0.798128 13.805218
-0.787234 -0.784084 13.808891
-0.780977 -0.770041 13.812563
-0.765416 -0.735036 13.821715
-0.760286 -0.720543 13.825391
-0.755156 -0.706050 13.829066
-0.750026 -0.691557 13.832741
-0.744896 -0.677064 13.836416
-0.739766 -0.662571 13.840092
-0.727853 -0.626191 13.849233
-0.724057 -0.611287 13.852885
-0.720260 -0.596383 13.856536
-0.716463 -0.581479 13.860187
-0.712666 -0.566575 13.863838
-0.708870 -0.551671 13.867489
-0.701392 -0.514119 13.876507
-0.699145 -0.498890 13.880096
-0.696899 -0.483660 13.883685
-0.694653 -0.468430 13.887275
-0.692407 -0.453200 13.890864
-0.690160 -0.437971 13.894453
-0.687901 -0.399676 13.903184
-0.687406 -0.384264 13.906661
-0.686911 -0.368852 13.910139
-0.686417 -0.353440 13.913617
-0.685922 -0.338027 13.917095
-0.685505 -0.322616 13.920566
-0.688996 -0.284261 13.928811
-0.690397 -0.268867 13.932120
-0.691797 -0.253474 13.935429
-0.693198 -0.238080 13.938738
-0.694599 -0.222687 13.942047
-0.697298 -0.207463 13.945206
-0.705626 -0.169742 13.952890
-0.708968 -0.154603 13.955974
-0.712310 -0.139464 13.959058
-0.715652 -0.124324 13.962142
-0.719549 -0.109329 13.965146
-0.724761 -0.094673 13.967960
-0.737748 -0.058156 13.974971
-0.742960 -0.043501 13.977785
-0.748173 -0.028845 13.980599
-0.753385 -0.014189 13.983413
-0.760167 -0.000147 13.985954
-0.767078 0.013845 13.988472
-0.784296 0.048708 13.994748
-0.791206 0.062700 13.997266
-0.798117 0.076692 13.999785
-0.805838 0.090257 14.002138
-0.814216 0.103476 14.004357
-0.822595 0.116695 14.006576
-0.843473 0.149633 14.012105
-0.851852 0.162852 14.014323
-0.860449 0.175926 14.016491
-0.870054 0.188331 14.018422
-0.879658 0.200737 14.020353
-0.889263 0.213142 14.022285
-0.913194 0.244053 14.027097
-0.922799 0.256458 14.029028
-0.933208 0.268218 14.030745
-0.943814 0.279820 14.032410
-0.954420 0.291423 14.034076
-0.965026 0.303025 14.035741
-0.991452 0.331935 14.039891
-1.002405 0.343210 14.041453
-1.013820 0.354051 14.042878
-1.025236 0.364893 14.044304
-1.036651 0.375734 14.045729
-1.048066 0.386575 14.047155
-1.076545 0.413549 14.050695
-1.088613 0.423686 14.051906
-1.100682 0.433823 14.053118
-1.112751 0.443959 14.054330
-1.124819 0.454096 14.055541
-1.136888 0.464233 14.056753
-1.167317 0.489054 14.059644
-1.179915 0.498548 14.060667
-1.192512 0.508042 14.061689
-1.205109 0.517536 14.062712
-1.217707 0.527030 14.063734
-1.230304 0.536524 14.064757
-1.262253 0.559421 14.067087
-1.275281 0.568332 14.067942
-1.288309 0.577244 14.068798
-1.301337 0.586155 14.069653
-1.314365 0.595067 14.070509
-1.327393 0.603978 14.071364
-1.360535 0.625169 14.073210
-1.373916 0.633554 14.073918
-1.387297 0.641939 14.074625
-1.400679 0.650324 14.075332
-1.414060 0.658709 14.076040
-1.427459 0.667067 14.076740
28 NaN NaN
-1.394539 -1.576841 13.579503
-1.318436 -1.502935 13.602579
-1.244225 -1.427204 13.625898
-1.172169 -1.349497 13.649470
-1.102583 -1.269651 13.673305
-1.035850 -1.187485 13.697408
-0.972437 -1.102810 13.721783
-0.912916 -1.015433 13.746423
-0.857990 -0.925167 13.771307
-0.808520 -0.831859 13.796396
-0.765553 -0.735425 13.821617
-0.730330 -0.635913 13.846852
-0.704263 -0.533589 13.871919
-0.688843 -0.429038 13.896558
-0.685448 -0.323246 13.920430
-0.695063 -0.217588 13.943143
-0.718002 -0.113679 13.964310
-0.753778 -0.013084 13.983625
-0.801215 0.082964 14.000914
-0.858738 0.173716 14.016147
-0.924682 0.258890 14.029406
-0.997506 0.338557 14.040841
-1.075893 0.413002 14.050629
-1.158770 0.482613 14.058950
-1.245281 0.547812 14.065973
-1.334751 0.609012 14.071847
-1.426650 0.666599 14.076705
-1.520561 0.720921 14.080662
-1.157595 -1.590049 12.741954
-1.057092 -1.431325 12.745063
-0.965142 -1.267595 12.750752
-0.883720 -1.098538 12.759487
-0.815372 -0.923994 12.771833
-0.765041 -0.743843 12.788855
-0.735871 -0.559742 12.810963
-0.732080 -0.374219 12.838662
-0.757137 -0.191235 12.872078
-0.814609 -0.016860 12.911034
-0.899857 0.144652 12.953893
-1.008264 0.290945 12.999317
-1.134801 0.421565 13.046171
-1.275645 0.536436 13.093634
-1.426115 0.638337 13.141143
-1.156504 -1.588373 12.741981
-1.058135 -1.433031 12.745022
-1.056050 -1.429618 12.745105
-0.966070 -1.269365 12.750676
-0.964215 -1.265825 12.750827
-0.884500 -1.100376 12.759370
-0.882940 -1.096700 12.759604
-0.816017 -0.925880 12.771680
-0.814785 -0.922090 12.772001
-0.765510 -0.745777 12.788657
-0.764572 -0.741908 12.789053
-0.736057 -0.561716 12.810699
-0.735685 -0.557769 12.811227
-0.731922 -0.376184 12.838327
-0.732237 -0.372253 12.838997
-0.756664 -0.193136 12.871686
-0.757669 -0.189350 12.872480
-0.813894 -0.018677 12.910603
-0.815323 -0.015042 12.911464
-0.898818 0.143010 12.953421
-0.900895 0.146295 12.954365
-1.006974 0.289498 12.998822
-1.009553 0.292392 12.999812
-1.133335 0.420301 13.045667
-1.136270 0.422825 13.046676
-1.274108 0.535261 13.093129
-1.277183 0.537611 13.094140
-1.424472 0.637314 13.140638
-1.152101 -1.581602 12.742089
-1.062345 -1.439922 12.744854
-1.051839 -1.422727 12.745272
-0.969817 -1.276514 12.750371
-0.960468 -1.258676 12.751132
-0.887649 -1.107798 12.758896
-0.879791 -1.089277 12.760078
-0.818802 -0.933440 12.771108
-0.812416 -0.914398 12.772682
-0.767404 -0.753588 12.787858
-0.762677 -0.734098 12.789852
-0.736808 -0.569687 12.809633
-0.734934 -0.549798 12.812292
-0.731286 -0.384121 12.836973
-0.732873 -0.364316 12.840351
-0.755275 -0.200951 12.870191
-0.759818 -0.181735 12.874105
-0.811008 -0.026018 12.908864
-0.818209 -0.007701 12.913203
-0.894623 0.136376 12.951514
-0.905090 0.152928 12.956272
-1.001769 0.283656 12.996822
-1.014759 0.298235 13.001812
-1.127734 0.414845 13.043643
-1.142202 0.427913 13.048713
-1.267899 0.530517 13.091085
-1.283392 0.542355 13.096184
-1.417838 0.633183 13.138599
-1.141493 -1.565290 12.742349
-1.127446 -1.543690 12.742694
-1.113399 -1.522091 12.743039
-1.099352 -1.500491 12.743383
-1.085921 -1.478508 12.743917
-1.072489 -1.456524 12.744451
-1.041784 -1.406073 12.745702
-1.029045 -1.383687 12.746444
-1.016306 -1.361301 12.747187
-1.003568 -1.338914 12.747929
-0.990829 -1.316528 12.748672
-0.978846 -1.293738 12.749636
-0.951439 -1.241452 12.751867
-0.939565 -1.218607 12.752863
-0.928502 -1.195367 12.754091
-0.917439 -1.172128 12.755320
-0.906376 -1.148889 12.756548
-0.895313 -1.125649 12.757776
-0.872203 -1.071393 12.761219
-0.862157 -1.047713 12.762730
-0.852170 -1.024010 12.764258
-0.843285 -0.999892 12.766082
-0.834399 -0.975774 12.767906
-0.825513 -0.951655 12.769730
-0.806708 -0.895866 12.774320
-0.799150 -0.871327 12.776490
-0.791591 -0.846789 12.778660
-0.784056 -0.822245 12.780835
-0.778012 -0.797326 12.783384
-0.771969 -0.772407 12.785933
-0.758358 -0.715234 12.791835
-0.754033 -0.690005 12.794796
-0.749707 -0.664776 12.797756
-0.745382 -0.639547 12.800716
-0.741057 -0.614318 12.803676
-0.738618 -0.588893 12.807066
-0.733124 -0.530592 12.814860
-0.730954 -0.505158 12.818308
-0.730687 -0.479682 12.822165
-0.730420 -0.454206 12.826022
-0.730153 -0.428730 12.829880
-0.729886 -0.403254 12.833737
-0.734406 -0.345192 12.843614
-0.736435 -0.319870 12.847933
-0.738635 -0.294576 12.852285
-0.743066 -0.269644 12.857053
-0.747497 -0.244713 12.861822
-0.751928 -0.219781 12.866590
-0.764995 -0.163389 12.878019
-0.771849 -0.139096 12.883203
-0.778704 -0.114804 12.888386
-0.785643 -0.090543 12.893582
-0.794849 -0.067124 12.899129
-0.804055 -0.043705 12.904675
-0.825524 0.009810 12.917441
-0.836926 0.032166 12.923290
-0.848328 0.054521 12.929138
-0.859730 0.076876 12.934986
-0.871134 0.099231 12.940834
-0.884516 0.120393 12.946919
-0.915197 0.168911 12.960867
-0.928804 0.189912 12.966974
-0.943922 0.209817 12.973233
-0.959041 0.229723 12.979491
-0.974159 0.249628 12.985750
-0.989278 0.269534 12.992008
-1.027302 0.312312 13.006630
-1.043910 0.330952 13.013009
-1.060635 0.349477 13.019396
-1.078503 0.366884 13.025853
-1.096371 0.384291 13.032309
-1.114240 0.401698 13.038766
-1.156495 0.440174 13.053622
-1.175421 0.456408 13.060123
-1.194346 0.472642 13.066623
-1.213321 0.488815 13.073125
-1.233129 0.503950 13.079643
-1.252938 0.519086 13.086162
-1.298488 0.553599 13.101107
-1.319035 0.567716 13.107625
-1.339582 0.581834 13.114144
-1.360129 0.595951 13.120662
-1.380687 0.610051 13.127181
-1.401853 0.623230 13.133686
27 NaN NaN
-1.157867 -1.590469 12.741948
-1.099357 -1.500499 12.743383
-1.043410 -1.408931 12.745607
-0.990350 -1.315686 12.748700
-0.940558 -1.220693 12.752753
-0.894479 -1.123897 12.757869
-0.852633 -1.025267 12.764163
-0.815624 -0.924814 12.771761
-0.784145 -0.822615 12.780797
-0.758976 -0.718835 12.791413
-0.740962 -0.613768 12.803741
-0.730983 -0.507870 12.817897
-0.729871 -0.401785 12.833959
-0.738320 -0.296347 12.851946
-0.756771 -0.192535 12.871801
-0.785311 -0.091387 12.893382
-0.823645 0.006126 12.916478
-0.871122 0.099213 12.940829
-0.926849 0.187338 12.966165
-0.989808 0.270232 12.992228
-1.058974 0.347859 13.018796
-1.133391 0.420355 13.045687
-1.212213 0.487968 13.072760
-1.294717 0.551008 13.099911
-1.380298 0.609808 13.127061
-1.468455 0.664701 13.154156
-1.558777 0.716005 13.181159
-1.098746 -1.595010 11.873809
-0.991580 -1.438727 11.907412
-0.893094 -1.277034 11.941849
-0.805498 -1.109406 11.977163
-0.731786 -0.935445 12.013353
-0.675939 -0.755139 12.050315
-0.643504 -0.569294 12.087743
-0.641386 -0.380704 12.124904
-0.673494 -0.194765 12.160630
-0.741037 -0.018107 12.193586
-0.840629 0.143540 12.222735
-0.965832 0.287304 12.247683
-1.110196 0.412719 12.268510
-1.267643 0.521899 12.285794
-1.434019 0.617438 12.300157
-1.097612 -1.593400 11.874156
-0.992669 -1.440367 11.907060
-0.990491 -1.437087 11.907764
-0.894076 -1.278738 11.941487
-0.892112 -1.275329 11.942210
-0.806341 -1.111181 11.976791
-0.804655 -1.107630 11.977535
-0.732446 -0.937294 12.012972
-0.731127 -0.933595 12.013734
-0.676354 -0.757057 12.049927
-0.675525 -0.753221 12.050704
-0.643769 -0.571237 12.087354
-0.643239 -0.567350 12.088133
-0.641296 -0.382665 12.124520
-0.641477 -0.378743 12.125287
-0.672996 -0.196668 12.160269
-0.673992 -0.192862 12.160991
-0.740141 -0.019866 12.193264
-0.741932 -0.016348 12.193908
-0.839408 0.141980 12.222460
-0.841851 0.145099 12.223009
-0.964375 0.285952 12.247456
-0.967289 0.288655 12.247910
-1.108651 0.411465 12.268304
-1.111740 0.413972 12.268715
-1.265967 0.520820 12.285627
-1.269319 0.522977 12.285962
-1.432254 0.616506 12.300020
-1.092943 -1.586767 11.875585
-0.997155 -1.447121 11.905612
-0.986005 -1.430333 11.909212
-0.898120 -1.285757 11.939999
-0.888067 -1.268310 11.943699
-0.809813 -1.118491 11.975260
-0.801184 -1.100320 11.979066
-0.735160 -0.944910 12.011401
-0.728413 -0.925979 12.015305
-0.678062 -0.764954 12.048328
-0.673816 -0.745324 12.052303
-0.644862 -0.579242 12.085750
-0.642548 -0.559307 12.089734
-0.640923 -0.390740 12.122941
-0.641849 -0.370668 12.126866
-0.670945 -0.204505 12.158782
-0.676043 -0.185024 12.162478
-0.736454 -0.027111 12.191937
-0.745620 -0.009104 12.195235
-0.834377 0.135557 12.221331
-0.846881 0.151523 12.224139
-0.958527 0.280241 12.246488
-0.973289 0.294219 12.248844
-1.102288 0.406304 12.267458
-1.118103 0.419134 12.269561
-1.259064 0.516379 12.284937
-1.276221 0.527418 12.286651
-1.424988 0.612669 12.299459
-1.081635 -1.570704 11.879047
-1.066656 -1.549428 11.883632
-1.051678 -1.528151 11.888217
-1.036798 -1.506810 11.892812
-1.022409 -1.485144 11.897458
-1.008019 -1.463478 11.902104
-0.975445 -1.413787 11.912749
-0.961719 -1.391708 11.917459
-0.947993 -1.369630 11.922168
-0.934267 -1.347551 11.926878
-0.920889 -1.325270 11.931618
-0.907915 -1.302755 11.936393
-0.878272 -1.251312 11.947304
-0.865944 -1.228452 11.952131
-0.853827 -1.205478 11.956973
-0.841710 -1.182505 11.961816
-0.829593 -1.159531 11.966659
-0.818220 -1.136196 11.971553
-0.792777 -1.082616 11.982773
-0.781696 -1.059141 11.987687
-0.771688 -1.035201 11.992663
-0.761680 -1.011261 11.997640
-0.751671 -0.987321 12.002617
-0.741735 -0.963354 12.007597
-0.721838 -0.907535 12.019109
-0.713130 -0.883105 12.024148
-0.704941 -0.858511 12.029205
-0.697734 -0.833608 12.034296
-0.690526 -0.808704 12.039388
-0.683319 -0.783801 12.044480
-0.669679 -0.726199 12.056176
-0.664200 -0.700867 12.061306
-0.658720 -0.675535 12.066436
-0.654512 -0.649981 12.071575
-0.651009 -0.624304 12.076720
-0.647506 -0.598627 12.081866
-0.641588 -0.539763 12.093604
-0.640317 -0.513876 12.098731
-0.639045 -0.487989 12.103858
-0.637773 -0.462102 12.108985
-0.638825 -0.436199 12.114053
-0.640020 -0.410296 12.119118
-0.643370 -0.351167 12.130662
-0.647213 -0.325500 12.135609
-0.651056 -0.299832 12.140557
-0.654900 -0.274165 12.145504
-0.659401 -0.248625 12.150409
-0.665979 -0.223485 12.155180
-0.681009 -0.166044 12.166080
-0.689026 -0.141342 12.170727
-0.698306 -0.117025 12.175264
-0.707586 -0.092707 12.179801
-0.716867 -0.068389 12.184338
-0.727523 -0.044655 12.188723
-0.754550 0.008440 12.198449
-0.766379 0.031678 12.202706
-0.780124 0.053863 12.206704
-0.794255 0.075836 12.210650
-0.808386 0.097808 12.214597
-0.822518 0.119781 12.218543
-0.859063 0.167078 12.226875
-0.875200 0.187683 12.230498
-0.891558 0.208105 12.234080
-0.909393 0.227316 12.237385
-0.927228 0.246527 12.240689
-0.945062 0.265737 12.243993
-0.987820 0.307695 12.251108
-1.007068 0.325544 12.254107
-1.026315 0.343394 12.257106
-1.046060 0.360690 12.259983
-1.066470 0.377247 12.262696
-1.086879 0.393804 12.265410
-1.134196 0.430768 12.271421
-1.155558 0.446122 12.273873
-1.176919 0.461475 12.276324
-1.198281 0.476829 12.278775
-1.220207 0.491379 12.281054
-1.242348 0.505624 12.283266
-1.292947 0.538157 12.288318
-1.315728 0.551389 12.290315
-1.338509 0.564622 12.292311
-1.361290 0.577854 12.294307
-1.384082 0.591067 12.296299
-1.407391 0.603376 12.298100
28 NaN NaN
-1.099029 -1.595413 11.873722
-1.039199 -1.510425 11.892037
-0.981721 -1.423883 11.910595
-0.926894 -1.335691 11.929408
-0.875072 -1.245758 11.948483
-0.826672 -1.153994 11.967826
-0.782192 -1.060327 11.987440
-0.742217 -0.964707 12.007318
-0.707436 -0.867132 12.027442
-0.678650 -0.767670 12.047778
-0.656766 -0.666501 12.068265
-0.642777 -0.563960 12.088812
-0.637699 -0.460585 12.109286
-0.642473 -0.357154 12.129508
-0.657819 -0.254671 12.149262
-0.684083 -0.154295 12.168310
-0.721136 -0.057203 12.186425
-0.768367 0.035582 12.203421
-0.824793 0.123318 12.219178
-0.889230 0.205597 12.233649
-0.960453 0.282316 12.246845
-1.037322 0.353601 12.258821
-1.118837 0.419729 12.269659
-1.204156 0.481052 12.279450
-1.292591 0.537951 12.288287
-1.383584 0.590804 12.296261
-1.476687 0.639970 12.303453
-1.571540 0.685779 12.309937
-1.154317 -1.596282 10.567472
-1.002301 -1.379039 10.571182
-0.867928 -1.150551 10.577011
-0.759800 -0.908730 10.585754
-0.686364 -0.654501 10.597983
-0.663179 -0.391411 10.614627
-0.699840 -0.130345 10.635647
-0.800264 0.113059 10.660248
-0.951872 0.328425 10.686753
-1.139766 0.513191 10.713858
-1.350982 0.671048 10.740843
-1.153133 -1.594670 10.567495
-1.003386 -1.380718 10.571147
-1.001215 -1.377359 10.571218
-0.868888 -1.152305 10.576961
-0.866969 -1.148797 10.577061
-0.760492 -0.910605 10.585675
-0.759108 -0.906855 10.585833
-0.686806 -0.656449 10.597880
-0.685923 -0.652553 10.598086
-0.663115 -0.393405 10.614483
-0.663242 -0.389417 10.614771
-0.699383 -0.132285 10.635477
-0.700296 -0.128406 10.635818
-0.799265 0.111337 10.660052
-0.801262 0.114781 10.660444
-0.950604 0.326891 10.686550
-0.953139 0.329959 10.686956
-1.138232 0.511924 10.713654
-1.141300 0.514457 10.714062
-1.349335 0.669932 10.740641
-1.146750 -1.585980 10.567621
-1.009240 -1.389772 10.570956
-0.995361 -1.368305 10.571409
-0.874060 -1.161763 10.576690
-0.862086 -1.139189 10.577364
-0.764223 -0.920713 10.585250
-0.755378 -0.896746 10.586258
-0.689185 -0.666952 10.597326
-0.683678 -0.642026 10.598653
-0.662774 -0.404154 10.613705
-0.663584 -0.378667 10.615548
-0.696921 -0.142744 10.634560
-0.702759 -0.117947 10.636735
-0.793883 0.102053 10.658997
-0.806645 0.124065 10.661499
-0.943770 0.318622 10.685456
-0.959973 0.338228 10.688050
-1.129960 0.505094 10.712552
-1.149572 0.521287 10.715164
-1.340456 0.663911 10.739549
-1.130348 -1.563649 10.567944
-1.108535 -1.533951 10.568373
-1.086894 -1.504130 10.568824
-1.065930 -1.473828 10.569360
-1.044966 -1.443526 10.569895
-1.024282 -1.413037 10.570465
-0.980319 -1.345040 10.571900
-0.960945 -1.313708 10.572627
-0.942029 -1.282092 10.573409
-0.923112 -1.250476 10.574192
-0.905025 -1.218389 10.575069
-0.887350 -1.186067 10.575995
-0.849864 -1.114335 10.578179
-0.833609 -1.081281 10.579263
-0.817428 -1.048193 10.580354
-0.802804 -1.014391 10.581613
-0.788180 -0.980590 10.582872
-0.773809 -0.946688 10.584158
-0.745791 -0.870771 10.587350
-0.733952 -0.835926 10.588892
-0.723358 -0.800671 10.590557
-0.712763 -0.765415 10.592222
-0.703430 -0.729833 10.594005
-0.695299 -0.693940 10.595901
-0.679663 -0.614657 10.600263
-0.674323 -0.578258 10.602405
-0.668982 -0.541859 10.604546
-0.666414 -0.505187 10.606916
-0.664188 -0.468482 10.609314
-0.661961 -0.431777 10.611713
-0.664461 -0.351044 10.617546
-0.666594 -0.314391 10.620270
-0.671351 -0.277964 10.623175
-0.676108 -0.241537 10.626081
-0.682180 -0.205357 10.629069
-0.690594 -0.169617 10.632204
-0.711404 -0.091757 10.639219
-0.723397 -0.057072 10.642549
-0.735389 -0.022387 10.645880
-0.749864 0.011289 10.649327
-0.765218 0.044607 10.652816
-0.780571 0.077925 10.656304
-0.820476 0.147921 10.664211
-0.839184 0.179447 10.667828
-0.860248 0.209458 10.671517
-0.881313 0.239469 10.675206
-0.902853 0.269116 10.678905
-0.926208 0.297375 10.682644
-0.978494 0.358623 10.690874
-1.003785 0.385158 10.694639
-1.029077 0.411694 10.698404
-1.055318 0.437266 10.702173
-1.082231 0.462154 10.705945
-1.109145 0.487042 10.709718
-1.170827 0.538837 10.717996
-1.199095 0.562176 10.721763
-1.228450 0.584132 10.725514
-1.257848 0.606033 10.729265
-1.287296 0.627865 10.733015
-1.317639 0.648440 10.736745
27 NaN NaN
-1.154613 -1.596685 10.567466
-1.091126 -1.510249 10.568716
-1.030112 -1.422056 10.570275
-0.971891 -1.332003 10.572175
-0.916837 -1.239988 10.574451
-0.865396 -1.145920 10.577144
-0.818089 -1.049722 10.580297
-0.775530 -0.951352 10.583962
-0.738429 -0.850821 10.588189
-0.707597 -0.748226 10.593034
-0.683936 -0.643782 10.598549
-0.668397 -0.537870 10.604781
-0.661918 -0.431072 10.611759
-0.665315 -0.324189 10.619488
-0.679154 -0.218211 10.627942
-0.703633 -0.114232 10.637060
-0.738524 -0.013321 10.646750
-0.783193 0.083616 10.656900
-0.836714 0.175928 10.667396
-0.898007 0.263253 10.678129
-0.965968 0.345481 10.689010
-1.039567 0.422701 10.699966
-1.117890 0.495128 10.710943
-1.200155 0.563052 10.721904
-1.285712 0.626791 10.732820
-1.374023 0.686672 10.743675
-1.464649 0.743005 10.754456
-1.155141 -1.595319 7.952598
-1.086673 -1.492088 7.984288
-1.022076 -1.386499 8.016307
-0.961860 -1.278452 8.048643
-0.906614 -1.167872 8.081273
-0.857016 -1.054717 8.114158
-0.814321 -0.938843 8.147245
-0.779557 -0.820386 8.180423
-0.753238 -0.699779 8.213543
-0.736331 -0.577447 8.246425
-0.729757 -0.454003 8.278843
-0.734291 -0.330256 8.310532
-0.751995 -0.207403 8.341031
-0.781513 -0.086539 8.370157
-0.822482 0.031314 8.397670
-0.874228 0.145280 8.423394
-0.935820 0.254703 8.447226
-1.006643 0.358861 8.469024
-1.085499 0.457508 8.488812
-1.170731 0.551056 8.506818
-1.261408 0.639669 8.523150
-1.356716 0.723585 8.537930
-1.455960 0.803080 8.551280
-1.154063 -1.593709 7.953093
-1.087701 -1.493729 7.983789
-1.085645 -1.490446 7.984787
-1.023047 -1.388173 8.015803
-1.021105 -1.384824 8.016811
-0.962768 -1.280161 8.048135
-0.960952 -1.276744 8.049151
-0.907451 -1.169615 8.080761
-0.905777 -1.166129 8.081784
-0.857774 -1.056495 8.113643
-0.856259 -1.052939 8.114673
-0.814890 -0.940688 8.146726
-0.813752 -0.936997 8.147764
-0.780016 -0.822262 8.179904
-0.779099 -0.818510 8.180942
-0.753574 -0.701682 8.213026
-0.752901 -0.697876 8.214060
-0.736533 -0.579369 8.245913
-0.736128 -0.575524 8.246937
-0.729815 -0.455938 8.278338
-0.729699 -0.452069 8.279348
-0.734196 -0.332192 8.310038
-0.734505 -0.328328 8.311015
-0.751581 -0.209304 8.340569
-0.752409 -0.205502 8.341493
-0.780941 -0.088404 8.369716
-0.782084 -0.084673 8.370598
-0.821758 0.029497 8.397252
-0.823205 0.033132 8.398088
-0.873363 0.143520 8.423001
-0.875092 0.147040 8.423786
-0.934826 0.253007 8.446859
-0.936814 0.256399 8.447592
-1.005430 0.357302 8.468709
-1.007856 0.360419 8.469339
-1.084196 0.456019 8.488522
-1.086803 0.458997 8.489103
-1.169349 0.549635 8.506551
-1.172114 0.552477 8.507085
-1.259957 0.638314 8.522905
-1.262858 0.641024 8.523395
-1.355206 0.722292 8.537705
-1.358225 0.724878 8.538155
-1.454400 0.801847 8.551074
-1.150839 -1.588900 7.954571
-1.090772 -1.498633 7.982296
-1.082574 -1.485543 7.986280
-1.025949 -1.393175 8.014298
-1.018203 -1.379822 8.018316
-0.965480 -1.285264 8.046617
-0.958240 -1.271641 8.050668
-0.909951 -1.174822 8.079231
-0.903277 -1.160922 8.083314
-0.860037 -1.061807 8.112104
-0.853996 -1.047628 8.116212
-0.816590 -0.946203 8.145175
-0.812051 -0.931482 8.149314
-0.781386 -0.827868 8.178354
-0.777729 -0.812904 8.182492
-0.754578 -0.707366 8.211483
-0.751897 -0.692192 8.215604
-0.737138 -0.585114 8.244383
-0.735524 -0.569780 8.248468
-0.729988 -0.461717 8.276830
-0.729525 -0.446289 8.280856
-0.733913 -0.337975 8.308562
-0.735263 -0.322577 8.312448
-0.750344 -0.214985 8.339189
-0.753645 -0.199821 8.342873
-0.779233 -0.093976 8.368398
-0.783793 -0.079101 8.371915
-0.819598 0.024067 8.396005
-0.825365 0.038561 8.399335
-0.870780 0.138261 8.421828
-0.877676 0.152299 8.424959
-0.931856 0.247938 8.445764
-0.939784 0.261467 8.448688
-1.001805 0.352646 8.467768
-1.011481 0.365075 8.470280
-1.080301 0.451571 8.487654
-1.090698 0.463445 8.489970
-1.165220 0.545391 8.505753
-1.176243 0.556721 8.507883
-1.255624 0.634265 8.522172
-1.267191 0.645073 8.524127
-1.350697 0.718430 8.537034
-1.362735 0.728740 8.538826
-1.449737 0.798161 8.550460
-1.143796 -1.578392 7.957803
-1.134538 -1.564580 7.962050
-1.125280 -1.550768 7.966297
-1.116023 -1.536956 7.970544
-1.106765 -1.523144 7.974791
-1.097507 -1.509332 7.979038
-1.075863 -1.474828 7.989540
-1.067043 -1.460745 7.993826
-1.058222 -1.446661 7.998111
-1.049401 -1.432578 8.002397
-1.040623 -1.418470 8.006685
-1.032289 -1.404104 8.011009
-1.011863 -1.368893 8.021605
-1.003529 -1.354527 8.025928
-0.995196 -1.340161 8.030251
-0.986986 -1.325729 8.034582
-0.979196 -1.311072 8.038942
-0.971406 -1.296415 8.043301
-0.952313 -1.260490 8.053985
-0.944524 -1.245832 8.058344
-0.936958 -1.231065 8.062715
-0.929777 -1.216110 8.067107
-0.922596 -1.201155 8.071498
-0.915415 -1.186200 8.075890
-0.897813 -1.149544 8.086655
-0.890980 -1.134436 8.091061
-0.884480 -1.119180 8.095481
-0.877981 -1.103925 8.099901
-0.871481 -1.088669 8.104321
-0.864982 -1.073413 8.108741
-0.849548 -1.035828 8.119588
-0.843812 -1.020275 8.124030
-0.838076 -1.004723 8.128471
-0.832339 -0.989170 8.132912
-0.826603 -0.973617 8.137354
-0.820866 -0.958065 8.141795
-0.808336 -0.919433 8.152702
-0.803453 -0.903595 8.157155
-0.798569 -0.887758 8.161608
-0.793686 -0.871920 8.166061
-0.788802 -0.856082 8.170514
-0.784379 -0.840117 8.174967
-0.774736 -0.800655 8.185879
-0.770802 -0.784554 8.190331
-0.766868 -0.768454 8.194783
-0.762934 -0.752354 8.199235
-0.759657 -0.736112 8.203675
-0.756773 -0.719787 8.208109
-0.749702 -0.679771 8.218977
-0.746818 -0.663445 8.223411
-0.743933 -0.647120 8.227845
-0.741931 -0.630661 8.232249
-0.740195 -0.614163 8.236644
-0.738459 -0.597665 8.241039
-0.734203 -0.557228 8.251811
-0.732466 -0.540730 8.256206
-0.731859 -0.524141 8.260543
-0.731361 -0.507542 8.264874
-0.730864 -0.490944 8.269205
-0.730366 -0.474345 8.273536
-0.729217 -0.433661 8.284146
-0.730032 -0.417051 8.288384
-0.730847 -0.400441 8.292622
-0.731662 -0.383831 8.296861
-0.732477 -0.367222 8.301099
-0.733293 -0.350612 8.305338
-0.736918 -0.310010 8.315579
-0.739094 -0.293492 8.319695
-0.741269 -0.276974 8.323810
-0.743445 -0.260457 8.327926
-0.745621 -0.243939 8.332041
-0.747796 -0.227421 8.336157
-0.756347 -0.187408 8.345888
-0.759898 -0.171093 8.349851
-0.763450 -0.154777 8.353814
-0.767001 -0.138462 8.357778
-0.770594 -0.122156 8.361735
-0.775500 -0.106152 8.365519
-0.787525 -0.066925 8.374794
-0.792431 -0.050921 8.378578
-0.797337 -0.034917 8.382362
-0.802468 -0.018985 8.386111
-0.808673 -0.003391 8.389695
-0.814878 0.012204 8.393278
-0.830085 0.050425 8.402062
-0.836290 0.066019 8.405645
-0.842879 0.081458 8.409161
-0.850298 0.096562 8.412529
-0.857717 0.111666 8.415897
-0.865136 0.126770 8.419266
-0.883320 0.163790 8.427522
-0.891248 0.178643 8.430788
-0.899778 0.193198 8.433934
-0.908308 0.207754 8.437079
-0.916837 0.222309 8.440225
-0.925367 0.236865 8.443371
-0.946873 0.272190 8.450946
-0.956400 0.286162 8.453868
-0.965928 0.300133 8.456790
-0.975455 0.314105 8.459713
-0.984982 0.328077 8.462635
-0.994510 0.342048 8.465557
-1.019401 0.375249 8.472336
-1.029812 0.388622 8.475039
-1.040223 0.401994 8.477742
-1.050634 0.415367 8.480445
-1.061044 0.428739 8.483148
-1.071792 0.441852 8.485759
-1.099207 0.473164 8.491866
-1.110393 0.485938 8.494358
-1.121578 0.498713 8.496850
-1.132763 0.511488 8.499341
-1.144337 0.523926 8.501718
-1.156197 0.536116 8.504009
-1.185266 0.565996 8.509626
-1.197126 0.578186 8.511917
-1.208986 0.590377 8.514209
-1.221266 0.602163 8.516365
-1.233711 0.613791 8.518469
-1.246156 0.625419 8.520572
-1.276660 0.653919 8.525728
-1.289105 0.665547 8.527831
-1.301986 0.676715 8.529784
-1.314938 0.687807 8.531711
-1.327890 0.698899 8.533639
-1.340843 0.709991 8.535567
-1.372590 0.737178 8.540292
-1.385981 0.747764 8.542057
-1.399373 0.758350 8.543822
-1.412765 0.768936 8.545587
-1.426157 0.779521 8.547352
-1.439549 0.790107 8.549117
27 NaN NaN
-1.155411 -1.595721 7.952474
-1.096997 -1.508571 7.979272
-1.041341 -1.419708 8.006313
-0.988758 -1.329065 8.033591
-0.939608 -1.236583 8.061094
-0.894298 -1.142223 8.088805
-0.853289 -1.045969 8.116692
-0.817096 -0.947843 8.144714
-0.786285 -0.847919 8.172810
-0.761465 -0.746342 8.200897
-0.743266 -0.643344 8.228870
-0.732312 -0.539263 8.256597
-0.729174 -0.434551 8.283919
-0.734315 -0.329770 8.310656
-0.748040 -0.225571 8.336618
-0.770443 -0.122649 8.361619
-0.801391 -0.021692 8.385489
-0.840532 0.076681 8.408095
-0.887335 0.171964 8.429344
-0.941145 0.263790 8.449190
-1.001251 0.351935 8.467624
-1.066933 0.436303 8.484676
-1.137503 0.516901 8.500397
-1.212330 0.593814 8.514855
-1.290852 0.667180 8.528126
-1.372574 0.737166 8.540290
-1.457071 0.803959 8.551426
-1.144024 -1.577629 4.901758
-0.992232 -1.342247 4.960579
-0.863221 -1.095436 5.026117
-0.766130 -0.836660 5.099719
-0.715679 -0.567861 5.182625
-0.724799 -0.297481 5.273684
-0.803423 -0.040261 5.369266
-0.946428 0.188203 5.463531
-1.135642 0.383039 5.552532
-1.356127 0.545634 5.634818
-1.142919 -1.576010 4.902154
-0.993232 -1.343925 4.960149
-0.991232 -1.340569 4.961009
-0.864005 -1.097210 5.025627
-0.862437 -1.093662 5.026606
-0.766715 -0.838496 5.099183
-0.765545 -0.834824 5.100255
-0.715854 -0.569758 5.182017
-0.715503 -0.565964 5.183233
-0.724441 -0.299335 5.273022
-0.725157 -0.295628 5.274346
-0.802697 -0.042000 5.368595
-0.804149 -0.038523 5.369937
-0.945247 0.186723 5.462888
-0.947609 0.189684 5.464174
-1.134166 0.381826 5.551940
-1.137118 0.384252 5.553124
-1.354523 0.544576 5.634261
-1.136555 -1.566684 4.904440
-0.998990 -1.353590 4.957673
-0.985473 -1.330905 4.963485
-0.868520 -1.107426 5.022809
-0.857923 -1.083446 5.029425
-0.770083 -0.849072 5.096099
-0.762564 -0.824162 5.103417
-0.716865 -0.580685 5.178513
-0.714493 -0.555036 5.186737
-0.722380 -0.310008 5.269209
-0.727218 -0.284955 5.278158
-0.798514 -0.052014 5.364730
-0.808332 -0.028509 5.373802
-0.938446 0.178196 5.459182
-0.954410 0.198211 5.467880
-1.125665 0.374840 5.548529
-1.145618 0.391238 5.556535
-1.345290 0.538481 5.631052
-1.120007 -1.542435 4.910383
-1.097983 -1.510161 4.918294
-1.076339 -1.477665 4.926326
-1.055299 -1.444817 4.934553
-1.034260 -1.411969 4.942780
-1.013964 -1.378720 4.951235
-0.970667 -1.305691 4.969971
-0.951994 -1.271622 4.978907
-0.933320 -1.237552 4.987843
-0.915241 -1.203215 4.996944
-0.897993 -1.168506 5.006276
-0.880745 -1.133796 5.015607
-0.846184 -1.056881 5.036753
-0.830865 -1.021420 5.046581
-0.817094 -0.985427 5.056785
-0.803323 -0.949433 5.066988
-0.790499 -0.913168 5.077403
-0.778842 -0.876569 5.088078
-0.755612 -0.796260 5.111804
-0.746360 -0.759124 5.122966
-0.737639 -0.721904 5.134223
-0.731105 -0.684343 5.145874
-0.724571 -0.646781 5.157525
-0.719492 -0.609098 5.169404
-0.711865 -0.526624 5.195847
-0.711517 -0.488789 5.208381
-0.711355 -0.450953 5.220939
-0.712009 -0.413180 5.233581
-0.715422 -0.375621 5.246505
-0.718836 -0.338063 5.259428
-0.732577 -0.257203 5.288071
-0.739709 -0.220265 5.301264
-0.750489 -0.184283 5.314607
-0.761355 -0.148323 5.327953
-0.773164 -0.112705 5.341307
-0.787639 -0.078050 5.354682
-0.821651 -0.003612 5.383784
-0.839490 0.029473 5.397068
-0.857360 0.062540 5.410349
-0.878233 0.093881 5.423441
-0.899105 0.125222 5.436533
-0.920762 0.156024 5.449546
-0.972093 0.220383 5.477516
-0.997371 0.248498 5.490099
-1.023200 0.276170 5.502606
-1.049113 0.303765 5.515098
-1.076891 0.329646 5.527259
-1.104668 0.355527 5.539420
-1.167722 0.409403 5.565404
-1.197140 0.433580 5.577209
-1.227648 0.456493 5.588732
-1.258445 0.479071 5.600182
-1.289328 0.501539 5.611605
-1.321282 0.522633 5.622709
25 NaN NaN
-1.144300 -1.578034 4.901658
-1.084464 -1.490350 4.923149
-1.027304 -1.401109 4.945500
-0.973161 -1.310240 4.968778
-0.922429 -1.217681 4.993055
-0.875572 -1.123386 5.018406
-0.833128 -1.027335 5.044905
-0.795718 -0.929555 5.072623
-0.764051 -0.830134 5.101622
-0.738918 -0.729256 5.131943
-0.721169 -0.627228 5.163591
-0.711670 -0.524513 5.196523
-0.711230 -0.421749 5.230632
-0.720501 -0.319743 5.265732
-0.739871 -0.219426 5.301564
-0.769380 -0.121764 5.337811
-0.808692 -0.027648 5.374134
-0.857141 0.062211 5.410212
-0.913833 0.147336 5.445771
-0.977764 0.227493 5.480605
-1.047926 0.302659 5.514578
-1.123382 0.372964 5.547613
-1.203299 0.438641 5.579680
-1.286962 0.499977 5.610783
-1.373771 0.557282 5.640949
