-1.458122 0.557136 5.298628
-1.464262 0.565011 5.305429
-1.470401 0.572886 5.312230
-1.743147 0.927878 5.631335
-2.001866 1.272426 5.959742
-2.339798 1.514153 5.670695
-2.725895 1.685310 5.329616
-1.474233 0.577801 5.316475
-1.742126 0.926573 5.630215
-1.744167 0.929184 5.632455
-2.000545 1.271018 5.959221
-2.003187 1.273834 5.960264
-2.338521 1.513287 5.671967
-2.341075 1.515020 5.669423
-2.724404 1.684813 5.330853
-1.489180 0.596972 5.333031
-1.727122 0.907373 5.613745
-1.759251 0.948422 5.648805
-1.984431 1.251606 5.945511
-2.022612 1.294544 5.967934
-2.319738 1.500542 5.690670
-2.359858 1.527765 5.650720
-2.702475 1.677512 5.349041
-1.520973 0.638075 5.369312
-1.556031 0.683812 5.410683
-1.590624 0.729307 5.452707
-1.625231 0.774810 5.494711
-1.659929 0.820360 5.536587
-1.695068 0.866139 5.577844
-1.792370 0.990178 5.683110
-1.828621 1.036512 5.722729
-1.863720 1.082256 5.763996
-1.895679 1.126315 5.809494
-1.925563 1.169156 5.857447
-1.955597 1.212084 5.905214
-2.064821 1.336616 5.974831
-2.113709 1.371683 5.937244
-2.156921 1.398469 5.888465
-2.197991 1.422581 5.835894
-2.238257 1.446369 5.782553
-2.280629 1.474302 5.733015
-2.402296 1.553627 5.611400
-2.450826 1.580554 5.567291
-2.500612 1.604118 5.522586
-2.551558 1.624425 5.477602
-2.603104 1.643566 5.432791
-2.655217 1.661779 5.388237
-3.799866 1.932212 4.474309
-4.903816 2.157957 3.653060
-5.846076 2.820073 2.941573
-6.456172 3.929657 2.356564
-7.145548 4.969974 1.733206
-7.940324 5.898496 1.062032
-8.865575 6.646283 0.336123
-9.909263 7.158965 -0.431578
-11.029908 7.425138 -1.216146
-12.185217 7.470766 -1.995359
-2.727396 1.685796 5.328386
-3.798341 1.931889 4.475561
-3.801392 1.932534 4.473056
-4.902182 2.157586 3.654152
-4.905450 2.158327 3.651968
-5.845283 2.818415 2.942364
-5.846869 2.821730 2.940783
-6.455243 3.928112 2.357430
-6.457102 3.931201 2.355697
-7.144493 4.968549 1.734131
-7.146604 4.971399 1.732282
-7.939101 5.897269 1.063031
-7.941547 5.899723 1.061033
-8.864154 6.645376 0.337199
-8.866996 6.647189 0.335046
-9.907700 7.158410 -0.430460
-9.910825 7.159521 -0.432697
-11.028267 7.424930 -1.215022
-11.031548 7.425345 -1.217271
-12.183553 7.470813 -1.994251
-2.749586 1.692791 5.310394
-3.775910 1.927146 4.493984
-3.823847 1.937292 4.454667
-4.878150 2.152135 3.670207
-4.929483 2.163778 3.635914
-5.833627 2.794043 2.953988
-5.858525 2.846102 2.929159
-6.441576 3.905398 2.370170
-6.470769 3.953915 2.342957
-7.128978 4.947583 1.747722
-7.162128 4.992357 1.718686
-7.921435 5.878795 1.077579
-7.959535 5.917772 1.046346
-8.843258 6.632042 0.353029
-8.888072 6.660158 0.319155
-9.884727 7.150242 -0.414011
-9.933803 7.167671 -0.449146
-11.004139 7.421881 -1.198482
-11.055676 7.428395 -1.233811
-12.159079 7.471518 -1.977955
-2.851284 1.723877 5.228343
-3.014100 1.767682 5.098503
-3.179429 1.804274 4.969606
-3.345821 1.837246 4.841080
-3.510635 1.871242 4.710802
-3.673511 1.905520 4.578180
-3.926608 1.959185 4.370982
-4.090094 1.994688 4.239438
-4.253944 2.030744 4.108496
-4.419545 2.066134 3.979612
-4.592087 2.099770 3.859713
-4.767967 2.130611 3.743925
-5.038384 2.196826 3.564600
-5.211600 2.252854 3.454413
-5.382464 2.312498 3.343025
-5.524119 2.422238 3.230636
-5.648663 2.554378 3.119709
-5.771987 2.690104 3.012130
-5.910488 2.958371 2.876856
-5.999639 3.130868 2.789811
-6.093114 3.299719 2.700124
-6.187460 3.467830 2.609956
-6.282716 3.635222 2.519411
-6.379628 3.801260 2.428135
-6.533502 4.057377 2.284627
-6.634293 4.220087 2.191575
-6.737234 4.380866 2.097528
-6.842289 4.539689 2.002497
-6.948827 4.697109 1.906788
-7.058368 4.851579 1.809686
-7.233204 5.087882 1.656514
-7.348650 5.236205 1.556715
-7.468237 5.379923 1.455050
-7.588203 5.523211 1.353224
-7.712601 5.661171 1.249434
-7.840851 5.794299 1.143979
-8.043024 5.998341 0.978707
-8.179951 6.119341 0.869626
-8.316549 6.240849 0.760681
-8.457393 6.355709 0.650027
-8.603265 6.462191 0.537443
-8.749021 6.568859 0.424895
-8.984937 6.718143 0.246374
-9.138713 6.809365 0.130947
-9.295269 6.894405 0.014601
-9.455303 6.971178 -0.102806
-9.616396 7.045210 -0.220534
-9.780096 7.112015 -0.338958
-10.039133 7.203600 -0.524357
-10.207321 7.255960 -0.643763
-10.377264 7.301649 -0.763427
-10.548505 7.341813 -0.883232
-10.720758 7.377235 -1.003083
-10.894130 7.406755 -1.122911
-11.165973 7.441596 -1.309326
-11.341219 7.458803 -1.428824
-11.517289 7.468698 -1.547947
-11.693609 7.475967 -1.666904
-11.870249 7.478974 -1.785537
-12.047308 7.474661 -1.903526
169 NaN NaN
-1.455052 0.553199 5.295227
-1.506294 0.618924 5.351989
-1.556127 0.683937 5.410796
-1.605297 0.748606 5.470534
-1.654505 0.813294 5.530220
-1.704453 0.878366 5.588863
-1.755895 0.944190 5.645328
-1.808586 1.010623 5.699906
-1.859201 1.076028 5.757564
-1.904609 1.138626 5.822207
-1.945943 1.198851 5.891723
-1.991757 1.261648 5.955750
-2.056425 1.330594 5.981287
-2.125053 1.379820 5.928522
-2.184011 1.414322 5.854412
-2.241241 1.448131 5.778600
-2.301685 1.488292 5.708647
-2.366073 1.531982 5.644531
-2.434142 1.572657 5.582272
-2.504897 1.606146 5.518738
-2.577465 1.634573 5.454763
-2.651454 1.660526 5.391358
-2.726640 1.685558 5.328998
-2.802720 1.709540 5.267314
-2.879361 1.732166 5.205813
-2.956395 1.753228 5.144247
-3.033936 1.772651 5.082779
-3.112121 1.790368 5.021612
-3.190870 1.806637 4.960766
-3.269810 1.822190 4.899979
-3.348560 1.837788 4.838958
-3.426893 1.853783 4.777506
-3.504773 1.870010 4.715539
-3.582177 1.886276 4.652990
-3.659198 1.902499 4.589957
-3.736051 1.918719 4.526720
-3.812957 1.934979 4.463558
-3.890034 1.951347 4.400631
-3.967302 1.967905 4.337991
-4.044776 1.984733 4.275677
-4.122397 2.001783 4.213607
-4.200052 2.018906 4.151599
-4.277668 2.035954 4.089522
-4.355714 2.052808 4.027934
-4.435019 2.069364 3.967898
-4.516270 2.085505 3.910405
-4.599089 2.101087 3.855032
-4.682547 2.115974 3.800429
-4.765816 2.130215 3.745365
-4.848649 2.145444 3.689915
-4.931038 2.164131 3.634875
-5.012837 2.188229 3.581079
-5.094377 2.215669 3.528482
-5.176440 2.242653 3.476468
-5.259393 2.266719 3.424432
-5.341247 2.292938 3.371735
-5.418266 2.329489 3.318087
-5.485552 2.381975 3.264608
-5.545106 2.444147 3.212150
-5.602857 2.508155 3.159845
-5.663267 2.569115 3.106912
-5.723725 2.630696 3.054767
-5.779231 2.699020 3.005730
-5.825540 2.777135 2.962052
-5.865501 2.860688 2.922202
-5.904053 2.945317 2.883219
-5.944904 3.028183 2.842824
-5.987835 3.109357 2.801160
-6.031863 3.189593 2.758827
-6.076239 3.269522 2.716276
-6.120811 3.349281 2.673613
-6.165524 3.428925 2.630881
-6.210373 3.508466 2.588099
-6.255463 3.587816 2.545217
-6.300913 3.666876 2.502179
-6.346786 3.745588 2.458952
-6.393034 3.823986 2.415556
-6.439600 3.902114 2.372012
-6.486458 3.979991 2.328332
-6.533633 4.057593 2.284505
-6.581157 4.134893 2.240521
-6.629079 4.211844 2.196356
-6.677479 4.288367 2.151971
-6.726434 4.364384 2.107326
-6.775923 4.439907 2.062431
-6.825806 4.515061 2.017354
-6.875945 4.589976 1.972161
-6.926401 4.664589 1.926824
-6.977455 4.738623 1.881209
-7.029380 4.811796 1.835190
-7.082107 4.884158 1.788800
-7.135259 4.956084 1.742217
-7.188483 5.027937 1.695604
-7.241922 5.099567 1.648894
-7.296119 5.170394 1.601836
-7.351566 5.239859 1.554210
-7.408065 5.308144 1.506111
-7.464954 5.375982 1.457840
-7.521654 5.444039 1.409656
-7.578472 5.511961 1.361420
-7.636247 5.578758 1.312755
-7.695676 5.643537 1.263363
-7.756343 5.706744 1.213436
-7.817298 5.769580 1.163390
-7.877770 5.833045 1.113553
-7.938286 5.896451 1.063696
-7.999956 5.958330 1.013342
-8.063604 6.017461 0.962156
-8.128602 6.074619 0.910422
-8.193832 6.131431 0.858597
-8.258473 6.189128 0.807012
-8.323167 6.246742 0.755401
-8.389036 6.302558 0.703312
-8.456820 6.355289 0.650469
-8.525835 6.405919 0.597162
-8.595086 6.456138 0.543769
-8.663924 6.507082 0.490529
-8.732947 6.557695 0.437214
-8.803035 6.606376 0.383499
-8.874677 6.652090 0.329228
-8.947296 6.695828 0.274622
-9.020171 6.739031 0.219931
-9.092909 6.782519 0.165282
-9.165960 6.825335 0.110522
-9.239898 6.866201 0.055469
-9.314969 6.904440 0.000062
-9.390772 6.940885 -0.055561
-9.466860 6.976604 -0.111268
-9.543035 7.012090 -0.167005
-9.619563 7.046639 -0.222845
-9.696744 7.079399 -0.278861
-9.774670 7.110010 -0.335062
-9.853126 7.139006 -0.391386
-9.931890 7.167011 -0.447779
-10.010879 7.194272 -0.504224
-10.090184 7.220454 -0.560734
-10.169905 7.245175 -0.617318
-10.250061 7.268280 -0.673969
-10.330591 7.289914 -0.730671
-10.411436 7.310241 -0.787410
-10.492549 7.329390 -0.844176
-10.573900 7.347451 -0.900957
-10.655464 7.364504 -0.957745
-10.737250 7.380450 -1.014535
-10.819298 7.395014 -1.071318
-10.901633 7.407932 -1.128083
-10.984208 7.419362 -1.184819
-11.066932 7.429817 -1.241527
-11.149728 7.439778 -1.298220
-11.232619 7.449057 -1.354888
-11.315688 7.456978 -1.411501
-11.398985 7.462932 -1.468019
-11.482451 7.467227 -1.524439
-11.565988 7.470754 -1.580809
-11.649524 7.474293 -1.637180
-11.733092 7.477465 -1.693525
-11.816767 7.479255 -1.749768
-11.900585 7.478815 -1.805825
-11.984486 7.476669 -1.861722
-12.068407 7.473986 -1.917566
-12.152313 7.471712 -1.973450
-12.236224 7.469298 -2.029321
-12.320176 7.465593 -2.085056
-12.404168 7.459678 -2.140538
-12.488164 7.451944 -2.195793
-12.572151 7.443226 -2.250918
-12.656135 7.434358 -2.306022
-12.740128 7.426172 -2.361218
-12.824125 7.419506 -2.416609
