-1.301092 0.387471 3.902687
-1.301807 0.391584 3.891971
-1.302523 0.395698 3.881256
-1.336062 0.588404 3.379256
-1.369279 0.779234 2.882149
-1.402539 0.970072 2.385048
-1.435851 1.160920 1.887956
-1.302975 0.398291 3.874501
-1.335937 0.587689 3.381120
-1.336186 0.589119 3.377393
-1.369155 0.778518 2.884013
-1.369404 0.779949 2.880286
-1.402413 0.969356 2.386911
-1.402664 0.970788 2.383185
-1.435712 1.160202 1.889818
-1.304771 0.408611 3.847616
-1.334141 0.577368 3.408005
-1.337982 0.599440 3.350508
-1.367358 0.768198 2.910898
-1.371199 0.790270 2.853400
-1.400602 0.959033 2.413795
-1.404475 0.981111 2.356302
-1.433714 1.149841 1.916673
-1.308637 0.430828 3.789742
-1.312964 0.455693 3.724969
-1.317292 0.480557 3.660197
-1.321620 0.505422 3.595424
-1.325947 0.530287 3.530652
-1.330275 0.555152 3.465879
-1.341848 0.621656 3.292634
-1.346175 0.646521 3.227861
-1.350502 0.671386 3.163088
-1.354830 0.696250 3.098316
-1.359159 0.721116 3.033544
-1.363489 0.745981 2.968771
-1.375063 0.812486 2.795526
-1.379382 0.837349 2.730752
-1.383699 0.862211 2.665978
-1.388018 0.887074 2.601204
-1.392352 0.911940 2.536433
-1.396702 0.936810 2.471664
-1.408358 1.003331 2.298430
-1.412658 1.028190 2.233654
-1.416873 1.053032 2.168865
-1.421064 1.077869 2.104073
-1.425255 1.102707 2.039281
-1.429640 1.127583 1.974517
-1.719152 1.673503 0.668272
-2.213877 1.939380 -0.575133
-2.555362 2.019924 -1.895448
-3.150532 2.237178 -3.073017
-4.171388 2.756591 -3.810231
-4.856201 3.568311 -4.629889
-5.145164 4.521545 -5.566554
-5.493849 5.430137 -6.527117
-5.918327 6.258864 -7.528176
-6.443823 6.967429 -8.571987
-7.082758 7.517414 -9.647420
-7.829230 7.878173 -10.733386
-8.657305 8.046590 -11.807451
-1.435989 1.161638 1.886095
-1.718403 1.672948 0.670041
-1.719901 1.674059 0.666503
-2.213230 1.939193 -0.573250
-2.214523 1.939567 -0.577016
-2.554860 2.019783 -1.893517
-2.555865 2.020064 -1.897379
-3.149076 2.236579 -3.071783
-3.151988 2.237776 -3.074250
-4.169954 2.755617 -3.809232
-4.172821 2.757565 -3.811230
-4.855907 3.566895 -4.628507
-4.856495 3.569727 -4.631271
-5.144694 4.520178 -5.565172
-5.145634 4.522913 -5.567935
-5.493279 5.428869 -6.525678
-5.494419 5.431404 -6.528555
-5.917640 6.257727 -7.526681
-5.919014 6.260001 -7.529671
-6.442961 6.966517 -8.570430
-6.444686 6.968341 -8.573544
-7.081751 7.516726 -9.645835
-7.083787 7.518064 -9.649007
-7.828066 7.877801 -10.731803
-7.830394 7.878545 -10.734970
-8.656049 8.046479 -11.805898
-1.437987 1.171999 1.859239
-1.707648 1.664396 0.695410
-1.730706 1.682075 0.640977
-2.203900 1.936494 -0.546079
-2.223839 1.942264 -0.604192
-2.547623 2.017760 -1.865659
-2.563113 2.022095 -1.925233
-3.128073 2.227944 -3.053982
-3.172828 2.246301 -3.092293
-4.149277 2.741570 -3.794821
-4.193498 2.771612 -3.825641
-4.851236 3.546556 -4.608582
-4.860732 3.590155 -4.651203
-5.137907 4.500444 -5.545245
-5.152421 4.542646 -5.587862
-5.485094 5.410547 -6.504946
-5.502637 5.449692 -6.549305
-5.907729 6.241323 -7.505111
-5.929062 6.276243 -7.551298
-6.430519 6.953357 -8.547967
-6.457128 6.981500 -8.596007
-7.067235 7.506774 -9.622970
-7.098629 7.527441 -9.671906
-7.811276 7.872434 -10.708959
-7.847184 7.883912 -10.757813
-8.637979 8.044697 -11.783474
-1.447008 1.219245 1.736715
-1.456547 1.293133 1.541943
-1.470731 1.367913 1.347957
-1.516938 1.448851 1.161793
-1.584739 1.536632 0.985249
-1.658993 1.621197 0.809769
-1.780069 1.718657 0.524568
-1.858267 1.777782 0.340503
-1.935885 1.825153 0.152916
-2.012607 1.860415 -0.037767
-2.088366 1.895646 -0.228844
-2.160594 1.923423 -0.422471
-2.265160 1.954373 -0.728576
-2.326971 1.971267 -0.927019
-2.383014 1.983799 -1.127491
-2.433524 1.994434 -1.329539
-2.477238 2.002947 -1.533255
-2.517823 2.010499 -1.737670
-2.595639 2.031276 -2.052448
-2.642691 2.044031 -2.255215
-2.714321 2.068111 -2.449068
-2.815563 2.105950 -2.627396
-2.913277 2.142095 -2.808016
-3.034622 2.189678 -2.969632
-3.266691 2.284616 -3.176223
-3.415780 2.348138 -3.307313
-3.574974 2.423314 -3.418818
-3.736182 2.502985 -3.524432
-3.895158 2.586320 -3.630572
-4.052656 2.679089 -3.730916
-4.286170 2.837163 -3.892271
-4.428810 2.946104 -3.998414
-4.555979 3.064429 -4.113358
-4.659063 3.190962 -4.243037
-4.753732 3.318768 -4.377887
-4.825629 3.454775 -4.517896
-4.881717 3.683028 -4.742074
-4.922800 3.828882 -4.885334
-4.967720 3.974897 -5.027297
-5.013620 4.120743 -5.169122
-5.060145 4.265696 -5.311657
-5.107366 4.410021 -5.454600
-5.183843 4.632210 -5.679060
-5.233865 4.773877 -5.823698
-5.284968 4.914494 -5.968977
-5.338681 5.052527 -6.115786
-5.393097 5.189853 -6.263002
-5.448546 5.326130 -6.410800
-5.540288 5.532953 -6.644047
-5.600584 5.664190 -6.794490
-5.662930 5.793223 -6.945997
-5.727895 5.919387 -7.098815
-5.794915 6.043264 -7.252616
-5.863253 6.165635 -7.407039
-5.975862 6.349193 -7.650363
-6.050765 6.463856 -7.807633
-6.126768 6.577171 -7.965339
-6.207833 6.684148 -8.124925
-6.291146 6.788226 -8.285296
-6.375232 6.891288 -8.445913
-6.514481 7.040690 -8.698636
-6.606452 7.132890 -8.861523
-6.700850 7.221547 -9.024979
-6.798596 7.305138 -9.189134
-6.899225 7.384168 -9.353810
-7.001519 7.460514 -9.518729
-7.166897 7.569204 -9.776403
-7.276565 7.632647 -9.942053
-7.386732 7.695165 -10.107717
-7.501168 7.749230 -10.273425
-7.618380 7.797540 -10.439013
-7.735663 7.845657 -10.604605
-7.924515 7.906606 -10.861883
-8.047683 7.940900 -11.026641
-8.172168 7.971738 -11.191082
-8.298728 7.996945 -11.354898
-8.426826 8.017661 -11.518153
-8.555958 8.035229 -11.680964
206 NaN NaN
-1.300734 0.385414 3.908044
-1.307000 0.421420 3.814249
-1.313266 0.457426 3.720453
-1.319533 0.493432 3.626658
-1.325800 0.529438 3.532863
-1.332066 0.565444 3.439068
-1.338332 0.601450 3.345272
-1.344597 0.637455 3.251477
-1.350863 0.673461 3.157681
-1.357131 0.709467 3.063886
-1.363401 0.745474 2.970091
-1.369671 0.781481 2.876297
-1.375933 0.817486 2.782501
-1.382184 0.853489 2.688703
-1.388438 0.889492 2.594906
-1.394717 0.925500 2.501113
-1.401038 0.961517 2.407325
-1.407355 0.997533 2.313537
-1.413582 1.033531 2.219736
-1.419651 1.069497 2.125913
-1.425720 1.105464 2.032089
-1.432105 1.141493 1.938311
-1.439075 1.177640 1.844619
-1.446109 1.213799 1.750938
-1.452039 1.249736 1.657096
-1.455812 1.285229 1.562974
-1.459104 1.320621 1.468796
-1.466216 1.356790 1.375141
-1.481502 1.394453 1.283097
-1.505797 1.433786 1.193709
-1.536097 1.474758 1.106910
-1.569459 1.517518 1.022110
-1.604225 1.561006 0.938246
-1.640148 1.602494 0.853864
-1.676997 1.639065 0.767642
-1.714414 1.669988 0.679465
-1.752109 1.697955 0.590415
-1.789902 1.725938 0.501411
-1.827672 1.755022 0.412749
-1.865371 1.783067 0.323727
-1.902926 1.807581 0.233617
-1.940234 1.827471 0.142269
-1.977314 1.844590 0.050263
-2.014263 1.861157 -0.041897
-2.051069 1.878410 -0.133989
-2.087411 1.895244 -0.226341
-2.122912 1.910203 -0.319338
-2.157300 1.922410 -0.413152
-2.190675 1.932670 -0.507565
-2.223224 1.942083 -0.602355
-2.255055 1.951433 -0.697395
-2.285965 1.960425 -0.792772
-2.315684 1.968534 -0.888606
-2.343997 1.975391 -0.984961
-2.370938 1.981278 -1.081773
-2.396609 1.986637 -1.178960
-2.421055 1.991811 -1.276473
-2.444055 1.996648 -1.374353
-2.465304 2.000850 -1.472658
-2.484744 2.004265 -1.571367
-2.503762 2.007590 -1.670162
-2.524269 2.011832 -1.768620
-2.547781 2.017800 -1.866312
-2.573069 2.024884 -1.963490
-2.597765 2.031878 -2.060825
-2.620095 2.037856 -2.158797
-2.643018 2.044120 -2.256610
-2.671924 2.053127 -2.352568
-2.711517 2.067068 -2.443978
-2.759320 2.084839 -2.530746
-2.809377 2.103660 -2.616029
-2.856754 2.121201 -2.703086
-2.902939 2.138184 -2.790900
-2.953991 2.157499 -2.875425
-3.015315 2.181799 -2.951308
-3.085300 2.210358 -3.017732
-3.158573 2.240484 -3.079831
-3.231013 2.270045 -3.143157
-3.301740 2.298930 -3.208706
-3.373047 2.329018 -3.273063
-3.447183 2.362188 -3.332483
-3.524226 2.398586 -3.386058
-3.602493 2.436723 -3.436583
-3.680564 2.475230 -3.487132
-3.757797 2.513772 -3.538928
-3.834517 2.553337 -3.590711
-3.911093 2.594987 -3.641047
-3.987451 2.639159 -3.689535
-4.062948 2.685391 -3.737448
-4.136919 2.733175 -3.786209
-4.209055 2.782180 -3.836483
-4.279755 2.832423 -3.887574
-4.349516 2.883967 -3.938659
-4.418091 2.937059 -3.989760
-4.483553 2.992302 -4.042613
-4.543478 3.050198 -4.099042
-4.596467 3.110520 -4.159722
-4.644732 3.172008 -4.223139
-4.691279 3.233570 -4.287766
-4.737522 3.294938 -4.352793
-4.780216 3.357700 -4.418885
-4.814901 3.423491 -4.486644
-4.838624 3.492670 -4.555753
-4.855216 3.563562 -4.625255
-4.869999 3.634830 -4.694792
-4.887212 3.705629 -4.764246
-4.906903 3.776000 -4.833477
-4.928028 3.846273 -4.902388
-4.949669 3.916731 -4.970949
-4.971569 3.987300 -5.039313
-4.993674 4.057793 -5.107689
-5.015936 4.128052 -5.176255
-5.038337 4.198083 -5.245009
-5.060873 4.267954 -5.313882
-5.083550 4.337714 -5.382821
-5.106450 4.407291 -5.451871
-5.129691 4.476555 -5.521120
-5.153368 4.545399 -5.590642
-5.177380 4.613911 -5.660375
-5.201529 4.682288 -5.730194
-5.225645 4.750698 -5.799992
-5.249868 4.819005 -5.869853
-5.274528 4.886889 -5.939974
-5.299927 4.954044 -6.010530
-5.325972 5.020553 -6.081463
-5.352295 5.086781 -6.152555
-5.378548 5.153080 -6.223608
-5.404785 5.219396 -6.294651
-5.431400 5.285329 -6.365908
-5.458779 5.350481 -6.437593
-5.486958 5.414802 -6.509718
-5.515630 5.478604 -6.582109
-5.544488 5.542210 -6.654598
-5.573461 5.605698 -6.727146
-5.602746 5.668852 -6.799858
-5.632554 5.731445 -6.872842
-5.662994 5.793353 -6.946151
-5.694040 5.854595 -7.019763
-5.725659 5.915206 -7.093653
-5.757781 5.975256 -7.167783
-5.790284 6.034877 -7.242094
-5.823042 6.094206 -7.316527
-5.856085 6.153209 -7.391093
-5.889725 6.211525 -7.465930
-5.924302 6.268753 -7.541179
-5.959902 6.324772 -7.616861
-5.996067 6.380109 -7.692776
-6.032275 6.435391 -7.768711
-6.068315 6.490874 -7.844579
-6.104780 6.545844 -7.920617
-6.142382 6.599416 -7.997095
-6.181510 6.651062 -8.074131
-6.221604 6.701458 -8.151499
-6.261941 6.751535 -8.228949
-6.302045 6.801918 -8.306322
-6.342340 6.852051 -8.383756
-6.383456 6.901098 -8.461453
-6.425848 6.948417 -8.539535
-6.469255 6.994326 -8.617901
-6.513234 7.039426 -8.696419
-6.557433 7.084209 -8.774995
-6.601947 7.128540 -8.853649
-6.647015 7.172067 -8.932436
-6.692845 7.214474 -9.011394
-6.739475 7.255675 -9.090522
-6.786878 7.295682 -9.169803
-6.835016 7.334528 -9.249219
-6.883743 7.372427 -9.328733
-6.932869 7.409683 -9.408306
-6.982245 7.446540 -9.487909
-7.032066 7.482662 -9.567573
-7.082707 7.517382 -9.647341
-7.134486 7.550096 -9.727225
-7.187177 7.581159 -9.807174
-7.240226 7.611570 -9.887138
-7.293133 7.642257 -9.967090
-7.346062 7.672907 -10.047042
-7.399675 7.702249 -10.127027
-7.454580 7.729036 -10.207028
-7.510685 7.753355 -10.286989
-7.567338 7.776512 -10.366910
-7.623920 7.799822 -10.446838
-7.680358 7.823431 -10.526779
-7.737149 7.846254 -10.606697
-7.794789 7.867164 -10.686529
-7.853365 7.885888 -10.766223
-7.912518 7.903215 -10.845809
-7.971886 7.919996 -10.925352
-8.031335 7.936550 -11.004881
-8.091042 7.952436 -11.084355
-8.151197 7.967150 -11.163714
-8.211889 7.980428 -11.242918
-8.273047 7.992411 -11.321969
-8.334591 8.003277 -11.400884
-8.396450 8.013197 -11.479676
-8.458568 8.022326 -11.558360
-8.520895 8.030818 -11.636951
-8.583426 8.038685 -11.715444
-8.646252 8.045609 -11.793790
-8.709473 8.051222 -11.871922
-8.773131 8.055339 -11.949792
-8.837121 8.058274 -12.027444
-8.901325 8.060433 -12.104946
-8.965629 8.062220 -12.182373
-9.029926 8.064040 -12.259806
-9.094104 8.066296 -12.337325
