0.138113 0.138122 0.138222 0.138685 0.139418 0.140210 0.141003 0.141795 0.142650 0.143189 0.143313 0.143324 0.143335 0.143460 0.144036 0.144948 0.145935 0.146922 0.147909 0.148980 0.149657 0.149812 0.149826 0.149839 0.149995 0.150719 0.151865 0.153108 0.154351 0.155595 0.156928 0.157769 0.157961 0.157978 0.157995 0.158187 0.159065 0.160455 0.161894 0.163334 0.164773 0.166252 0.167186 0.167396 0.167415 0.167433 0.167644 0.168604 0.170125 0.171726 0.173326 0.174926 0.176638 0.177718 0.177966 0.177988 0.178010 0.178259 0.179410 0.181233 0.183170 0.185108 0.187046 0.189053 0.190321 0.190604 0.190629 0.190654 0.190937 0.192205 0.194215 0.196163 0.198111 0.200059 0.201848 0.202977 0.203216 0.203237 0.203258 0.203494 0.204458 0.205985 0.206994 0.208003 0.209012 0.209467 0.209753 0.209790 0.209793 0.209796 0.209828 0.209868 0.209930 0.209705 0.209480 0.209255 0.208837 0.208573 0.208506 0.208500 0.208494 0.208426 0.208091 0.207560 0.206887 0.206214 0.205541 0.204684 0.204143 0.204009 0.203997 0.203985 0.203850 0.203180 0.202119 0.200808 0.199498 0.198187 0.196648 0.195676 0.195449 0.195429 0.195409 0.195182 0.194118 0.192433 0.190642 0.188851 0.187060 0.185274 0.184146 0.183899 0.183878 0.183856 0.183610 0.182535 0.180832 0.179279 0.177727 0.176174 0.174774 0.173890 0.173700 0.173683 0.173667 0.173481 0.172672 0.171391 0.170224 0.169057 0.167889 0.166811 0.166130 0.165982 0.165969 0.165956 0.165809 0.165163 0.164139 0.163165 0.162191 0.161217 0.160283 0.159693 0.159563 0.159552 0.159540 0.159411 0.158835 0.157924 0.157030 0.156136 0.155243 0.154367 0.153815 0.153693 0.153682 0.153671 0.153550 0.153011 0.152159 0.151343 0.150527 0.149712 0.148938 0.148450 0.148344 0.148334 0.148325 0.148219 0.147755 0.147019 0.146324 0.145629 0.144934 0.144274 0.143858 0.143766 0.143758 
0.157976 0.157967 0.157917 0.157774 0.157585 0.157368 0.157152 0.156936 0.156698 0.156520 0.156450 0.156438 0.156427 0.156356 0.156163 0.155907 0.155635 0.155363 0.155091 0.154802 0.154585 0.154501 0.154487 0.154473 0.154388 0.154162 0.153861 0.153546 0.153232 0.152918 0.152586 0.152338 0.152241 0.152226 0.152210 0.152120 0.152001 0.151843 0.151685 0.151526 0.151368 0.151211 0.151093 0.151049 0.151042 0.151035 0.150991 0.150879 0.150729 0.150582 0.150436 0.150289 0.150149 0.150043 0.150003 0.149996 
0.190617 0.190571 0.190344 0.189779 0.189029 0.188294 0.187560 0.186825 0.186109 0.185569 0.185354 0.185310 0.185266 0.185052 0.184522 0.183819 0.183132 0.182444 0.181757 0.181085 0.180578 0.180377 0.180336 0.180295 0.180095 0.179597 0.178936 0.178286 0.177636 0.176986 0.176355 0.175880 0.175694 0.175655 0.175617 0.175433 0.174979 0.174376 0.173798 0.173220 0.172642 0.172090 0.171675 0.171511 0.171478 0.171444 0.171283 0.170881 0.170347 0.169862 0.169376 0.168891 0.168655 0.168477 0.168406 0.168392 0.168377 0.168306 0.168126 0.167888 0.167647 0.167406 0.167165 0.166932 0.166756 0.166688 0.166674 0.166660 0.166593 0.166425 0.166203 0.165991 0.165779 0.165567 0.165365 0.165214 0.165156 0.165144 
0.209774 0.209699 0.209280 0.208220 0.206811 0.205461 0.204111 0.202761 0.201484 0.200524 0.200167 0.200103 0.200040 0.199684 0.198777 0.197570 0.196431 0.195292 0.194153 0.193074 0.192264 0.191953 0.191897 0.191843 0.191534 0.190759 0.189726 0.188742 0.187757 0.186772 0.185836 0.185132 0.184867 0.184820 0.184773 0.184511 0.183846 0.182961 0.182146 0.181331 0.180517 0.179753 0.179179 0.178961 0.178922 0.178885 0.178680 0.178413 0.178058 0.177692 0.177326 0.176960 0.176595 0.176321 0.176216 0.176198 0.176179 0.176075 0.175810 0.175458 0.175120 0.174782 0.174444 0.174127 0.173888 0.173798 0.173782 
0.159548 0.159533 0.159481 0.159358 0.159196 0.159031 0.158865 0.158700 0.158529 0.158399 0.158344 0.158329 0.158313 0.158257 0.158125 0.157952 0.157774 0.157596 0.157418 0.157238 0.157102 0.157043 0.157027 0.157010 0.156951 0.156811 0.156625 0.156438 0.156251 0.156064 0.155873 0.155728 0.155665 0.155648 0.155630 0.155567 0.155420 0.155226 0.155026 0.154826 0.154626 0.154423 0.154270 0.154204 0.154185 0.154167 0.154101 0.154017 0.153907 0.153805 0.153702 0.153599 0.153496 0.153417 0.153383 0.153374 0.153364 0.153330 0.153251 0.153147 0.153042 0.152938 0.152833 0.152728 0.152648 0.152614 0.152604 0.152595 0.152560 0.152481 0.152375 0.152270 0.152165 0.152060 0.151956 0.151877 0.151843 0.151834 0.151824 0.151791 0.151713 0.151610 0.151509 0.151408 0.151306 0.151207 0.151132 0.151100 0.151091 0.151082 0.151050 0.150976 0.150878 0.150783 0.150687 0.150592 0.150498 0.150427 0.150397 0.150389 0.150381 0.150351 0.150282 0.150191 0.150102 0.150013 0.149924 0.149837 0.149772 0.149744 0.149736 
