0.298921 0.298936 0.299157 0.297568 0.295049 0.286864 0.278679 0.270493 0.261361 0.255597 0.254373 0.254290 0.254209 0.253000 0.247947 0.239940 0.233647 0.227354 0.221061 0.216099 0.212967 0.212333 0.212290 0.212248 0.211621 0.208968 0.204765 0.201235 0.197704 0.194174 0.191106 0.189170 0.188766 0.188738 0.188711 0.188311 0.186567 0.183803 0.181315 0.178827 0.176339 0.174118 0.172716 0.172422 0.172402 0.172382 0.172091 0.170818 0.168801 0.167016 0.165231 0.163446 0.161870 0.160876 0.160669 0.160655 0.160641 0.160435 0.159533 0.158104 0.156823 0.155542 0.154261 0.153106 0.152378 0.152225 0.152214 0.152204 0.152051 0.151376 0.150305 0.149304 0.148303 0.147302 0.146346 0.145742 0.145612 0.145603 0.145594 0.145465 0.144879 0.143950 0.143058 0.142167 0.141275 0.140431 0.139899 0.139785 0.139777 0.139770 0.139657 0.139157 0.138364 0.137637 0.136911 0.136184 0.135527 0.135113 0.135026 0.135020 0.135014 0.134927 0.134543 0.133933 0.133363 0.132792 0.132222 0.131678 0.131336 0.131262 0.131257 0.131252 0.131178 0.130846 0.130320 0.129812 0.129304 0.128795 0.128310 0.128004 0.127938 0.127934 0.127929 0.127864 0.127570 0.127106 0.126668 0.126230 0.125792 0.125383 0.125124 0.125069 0.125065 0.125062 0.125007 0.124763 0.124377 0.124018 0.123659 0.123300 0.122967 0.122757 0.122712 0.122709 
0.298930 0.298979 0.299482 0.300724 0.302549 0.301027 0.299505 0.297984 0.294668 0.292410 0.291679 0.291607 0.291532 0.290781 0.287766 0.283338 0.278606 0.273874 0.269142 0.265001 0.262181 0.261390 0.261312 
0.299004 0.299368 0.305037 0.323640 0.353117 0.357976 0.362836 0.367695 0.340041 0.322588 0.318841 0.318600 0.318361 0.314629 0.299321 0.275064 0.259398 0.243732 0.228066 0.217989 0.211629 0.210465 0.210391 0.210318 0.209185 0.204669 0.197514 0.192748 0.187982 0.183217 0.179669 0.177430 0.176963 0.176933 0.176903 0.176429 0.174263 0.170831 0.166603 0.162374 0.158145 0.153441 0.150472 0.149827 0.149785 0.149744 0.149105 0.146227 0.141667 0.137879 0.134091 0.130302 0.127817 0.126249 0.125965 0.125947 0.125929 0.125654 0.124624 0.122991 0.121983 0.120974 0.119966 0.119324 0.118920 0.118844 0.118840 0.118835 0.118761 0.118466 0.117999 0.117664 0.117329 0.116995 0.116746 0.116589 0.116558 0.116556 0.116554 0.116523 0.116395 0.116191 0.116024 0.115856 0.115689 0.115549 0.115460 0.115442 0.115441 0.115440 0.115422 0.115344 0.115221 0.115116 0.115011 0.114906 0.114818 0.114762 0.114750 0.114750 0.114749 0.114737 0.114689 0.114612 0.114548 0.114484 0.114419 0.114366 0.114332 0.114325 0.114325 0.114324 0.114317 0.114288 0.114243 0.114205 0.114168 0.114130 0.114100 0.114081 0.114077 0.114077 
0.125065 0.125065 0.125061 0.125052 0.125040 0.125024 0.125009 0.124993 0.124975 0.124960 0.124954 0.124953 0.124952 0.124945 0.124927 0.124903 0.124877 0.124850 0.124823 0.124793 0.124771 0.124761 0.124759 0.124757 0.124748 0.124721 0.124687 0.124655 0.124624 0.124592 0.124566 0.124546 0.124538 0.124536 0.124535 0.124527 0.124507 0.124481 0.124455 0.124428 0.124402 0.124376 0.124357 0.124349 0.124347 0.124345 0.124337 0.124318 0.124292 0.124267 0.124241 0.124215 0.124191 0.124172 0.124164 0.124163 0.124161 0.124154 0.124135 0.124112 0.124088 0.124065 0.124042 0.124020 0.124004 0.123997 0.123996 0.123994 0.123988 0.123972 0.123951 0.123931 0.123911 0.123890 0.123871 0.123857 0.123851 0.123850 
0.135018 0.135011 0.134979 0.134900 0.134795 0.134692 0.134589 0.134485 0.134394 0.134326 0.134298 0.134292 0.134285 0.134258 0.134191 0.134103 0.134018 0.133932 0.133847 0.133765 0.133702 0.133677 0.133672 0.133666 0.133641 0.133582 0.133504 0.133429 0.133354 0.133279 0.133210 0.133158 0.133137 0.133132 0.133128 0.133106 0.133057 0.132992 0.132930 0.132869 0.132808 0.132755 0.132715 0.132698 0.132695 0.132691 0.132675 0.132636 0.132584 0.132539 0.132494 0.132449 0.132410 0.132380 0.132368 0.132366 0.132363 0.132352 0.132324 0.132286 0.132255 0.132225 0.132194 0.132166 0.132145 0.132138 0.132136 0.132134 0.132127 0.132108 0.132084 0.132063 0.132043 0.132022 0.132003 0.131989 0.131984 0.131983 
0.139776 0.139769 0.139754 0.139728 0.139694 0.139660 0.139626 0.139592 0.139558 0.139531 0.139517 0.139509 0.139502 0.139487 0.139461 0.139426 0.139390 0.139355 0.139319 0.139283 0.139254 0.139239 0.139231 0.139223 0.139207 0.139179 0.139142 0.139105 0.139068 0.139031 0.138995 0.138967 0.138955 0.138949 0.138944 0.138932 0.138911 0.138884 0.138857 0.138830 0.138803 0.138777 0.138756 0.138745 0.138739 0.138734 0.138722 0.138702 0.138676 0.138650 0.138624 0.138598 0.138572 0.138552 0.138541 0.138536 0.138531 0.138520 0.138500 0.138475 0.138450 0.138424 0.138399 0.138374 0.138355 0.138345 0.138340 0.138335 0.138324 0.138305 0.138281 0.138257 0.138233 0.138208 0.138184 0.138165 0.138155 0.138150 0.138145 0.138135 0.138116 0.138092 0.138069 0.138046 0.138022 0.137999 0.137982 0.137972 0.137967 0.137962 0.137952 0.137934 0.137911 0.137888 0.137865 0.137842 0.137820 0.137802 0.137793 0.137788 0.137784 0.137775 0.137758 0.137736 0.137714 0.137692 0.137671 0.137649 0.137632 0.137623 0.137618 0.137613 0.137604 0.137587 0.137565 0.137545 0.137524 0.137504 0.137483 0.137467 0.137458 0.137454 0.137450 0.137441 0.137425 0.137405 0.137384 0.137363 0.137343 0.137323 0.137308 0.137300 0.137296 0.137292 0.137284 0.137270 0.137251 0.137232 0.137213 0.137194 0.137175 0.137161 0.137153 0.137149 0.137145 0.137137 0.137122 0.137103 0.137086 0.137069 0.137052 0.137035 0.137022 0.137014 0.137011 0.137007 0.137000 0.136987 0.136970 0.136952 0.136935 0.136918 0.136902 0.136889 0.136883 0.136879 0.136876 0.136869 0.136857 0.136842 0.136826 0.136811 0.136795 0.136780 0.136767 0.136761 0.136757 0.136754 0.136747 0.136736 0.136720 0.136706 0.136692 0.136677 0.136663 0.136652 0.136646 0.136643 0.136640 0.136633 0.136622 0.136608 0.136593 0.136579 0.136564 0.136551 0.136540 0.136534 0.136531 0.136529 0.136523 0.136512 0.136499 0.136485 0.136472 0.136458 0.136444 0.136434 0.136428 0.136425 0.136422 0.136416 0.136406 0.136392 0.136380 0.136367 0.136354 0.136341 0.136331 0.136325 0.136322 0.136320 0.136314 0.136304 0.136290 0.136277 0.136264 0.136250 0.136238 0.136228 0.136223 0.136220 0.136218 0.136212 0.136203 0.136190 0.136177 0.136165 0.136152 0.136139 0.136129 0.136124 0.136121 0.136119 0.136113 0.136104 0.136091 0.136079 0.136067 0.136055 0.136043 0.136033 0.136028 0.136026 
0.145601 0.145592 0.145563 0.145498 0.145412 0.145325 0.145238 0.145151 0.145062 0.144995 0.144964 0.144955 0.144945 0.144914 0.144846 0.144755 0.144663 0.144571 0.144480 0.144386 0.144315 0.144284 0.144274 0.144264 0.144232 0.144161 0.144067 0.144002 0.143937 0.143872 0.143812 0.143767 0.143747 0.143740 0.143734 0.143714 0.143671 0.143614 0.143558 0.143502 0.143447 0.143392 0.143350 0.143332 0.143326 0.143321 0.143303 0.143263 0.143210 0.143158 0.143106 0.143054 0.143004 0.142967 0.142950 0.142945 0.142940 0.142923 0.142885 0.142835 0.142787 0.142738 0.142690 0.142642 0.142605 0.142589 0.142584 0.142579 0.142562 0.142526 0.142479 0.142433 0.142388 0.142343 0.142297 0.142263 0.142248 0.142243 0.142238 0.142223 0.142190 0.142147 0.142103 0.142060 0.142017 0.141975 0.141942 0.141928 0.141924 0.141920 0.141906 0.141875 0.141834 0.141793 0.141752 0.141712 0.141672 0.141643 0.141630 0.141625 0.141621 0.141608 0.141578 0.141539 0.141501 0.141463 0.141425 0.141387 0.141358 0.141346 0.141341 0.141337 0.141325 0.141296 0.141259 0.141222 0.141185 0.141149 0.141112 0.141083 0.141071 0.141067 0.141063 0.141051 0.141024 0.140987 0.140951 0.140914 0.140877 0.140841 0.140813 0.140801 0.140797 
0.152211 0.152200 0.152164 0.152086 0.151983 0.151880 0.151777 0.151673 0.151569 0.151490 0.151453 0.151441 0.151429 0.151393 0.151312 0.151207 0.151101 0.150996 0.150890 0.150783 0.150702 0.150664 0.150652 0.150639 0.150602 0.150520 0.150412 0.150305 0.150197 0.150089 0.149981 0.149899 0.149862 0.149849 0.149837 0.149799 0.149717 0.149610 0.149504 0.149397 0.149291 0.149205 0.149139 0.149116 0.149108 0.149100 0.149077 0.149028 0.148963 0.148902 0.148842 0.148782 0.148723 0.148678 0.148658 0.148651 0.148644 0.148624 0.148584 0.148531 0.148478 0.148425 0.148373 0.148322 0.148283 0.148266 0.148261 0.148255 0.148239 0.148203 0.148156 0.148109 0.148062 0.148015 0.147972 0.147939 0.147925 0.147920 0.147915 0.147900 0.147868 0.147826 0.147785 0.147744 0.147703 0.147665 0.147636 0.147623 0.147618 0.147614 0.147601 0.147571 0.147533 0.147497 0.147461 0.147425 0.147391 0.147364 0.147352 0.147348 0.147344 0.147332 0.147306 0.147271 0.147241 0.147210 0.147179 0.147148 0.147125 0.147114 0.147110 0.147107 0.147096 0.147075 0.147047 0.147020 0.146992 0.146964 0.146937 0.146916 0.146907 0.146904 0.146902 0.146893 0.146874 0.146850 0.146825 0.146800 0.146775 0.146752 0.146734 0.146726 0.146724 0.146721 0.146713 0.146696 0.146673 0.146651 0.146628 0.146605 0.146584 0.146568 0.146561 0.146559 0.146556 0.146549 0.146533 0.146511 0.146491 0.146471 0.146450 0.146431 0.146416 0.146409 0.146407 0.146404 0.146397 0.146382 0.146362 0.146343 0.146324 0.146305 0.146286 0.146272 0.146265 0.146263 
0.160651 0.160636 0.160577 0.160435 0.160247 0.160059 0.159870 0.159681 0.159490 0.159346 0.159285 0.159269 0.159254 0.159193 0.159048 0.158856 0.158662 0.158469 0.158276 0.158080 0.157932 0.157870 0.157854 0.157837 0.157775 0.157627 0.157432 0.157237 0.157041 0.156846 0.156652 0.156505 0.156443 0.156427 0.156411 0.156349 0.156204 0.156011 0.155827 0.155643 0.155459 0.155330 0.155233 0.155193 0.155183 0.155172 0.155132 0.155039 0.154916 0.154804 0.154692 0.154580 0.154473 0.154393 0.154361 0.154353 0.154345 0.154314 0.154240 0.154142 0.154049 0.153956 0.153864 0.153776 0.153710 0.153682 0.153675 0.153668 0.153640 0.153578 0.153495 0.153415 0.153334 0.153254 0.153179 0.153123 0.153100 0.153094 0.153088 0.153064 0.153009 0.152935 0.152867 0.152799 0.152730 0.152662 0.152610 0.152590 0.152584 0.152579 0.152559 0.152512 0.152449 0.152388 0.152326 0.152265 0.152208 0.152164 0.152145 0.152141 0.152136 0.152117 0.152075 0.152019 0.151965 0.151911 0.151857 0.151805 0.151766 0.151750 0.151746 0.151742 0.151726 0.151687 0.151635 0.151586 0.151537 0.151487 0.151438 0.151401 0.151385 0.151381 0.151377 0.151362 0.151327 0.151281 0.151233 0.151186 0.151139 0.151094 0.151059 0.151045 0.151041 
0.188729 0.188691 0.188583 0.188352 0.188048 0.187744 0.187441 0.187137 0.186833 0.186601 0.186493 0.186454 0.186416 0.186307 0.186074 0.185768 0.185463 0.185157 0.184852 0.184550 0.184320 0.184213 0.184175 0.184137 0.184030 0.183800 0.183499 0.183198 0.182898 0.182597 0.182298 0.182070 0.181964 0.181927 0.181890 0.181785 0.181560 0.181265 0.180974 0.180682 0.180390 0.180100 0.179879 0.179776 0.179740 0.179705 0.179603 0.179387 0.179103 0.178824 0.178546 0.178267 0.177994 0.177785 0.177689 0.177655 0.177621 0.177525 0.177322 0.177055 0.176792 0.176530 0.176267 0.176007 0.175808 0.175716 0.175684 0.175652 0.175560 0.175365 0.175108 0.174858 0.174607 0.174356 0.174112 0.173926 0.173840 0.173810 0.173780 0.173695 0.173515 0.173278 0.173043 0.172809 0.172575 0.172343 0.172166 0.172084 0.172055 0.172027 0.171945 0.171773 0.171546 0.171322 0.171099 0.170875 0.170655 0.170487 0.170411 0.170384 0.170357 0.170281 0.170119 0.169906 0.169695 0.169484 0.169274 0.169068 0.168911 0.168839 0.168813 0.168788 0.168716 0.168563 0.168361 0.168166 0.167970 0.167775 0.167618 0.167499 0.167444 0.167424 0.167405 0.167350 0.167235 0.167083 0.166939 0.166795 0.166650 0.166517 0.166416 0.166369 0.166353 0.166337 0.166290 0.166193 0.166065 0.165946 0.165827 0.165708 0.165597 0.165512 0.165473 0.165459 0.165445 0.165406 0.165322 0.165211 0.165110 0.165009 0.164908 0.164811 0.164736 0.164702 0.164690 0.164677 0.164643 0.164571 0.164476 0.164389 0.164302 0.164215 0.164129 0.164063 0.164032 0.164021 0.164011 0.163980 0.163918 0.163836 0.163759 0.163681 0.163603 0.163525 0.163466 0.163438 0.163428 0.163419 0.163391 0.163338 0.163268 0.163197 0.163127 0.163057 0.162986 0.162932 0.162909 0.162901 0.162893 0.162870 0.162821 0.162757 0.162693 0.162628 0.162564 0.162502 0.162455 0.162434 0.162426 0.162419 0.162398 0.162353 0.162294 0.162234 0.162175 0.162115 0.162060 0.162019 0.161999 0.161992 0.161985 0.161966 0.161924 0.161869 0.161815 0.161760 0.161706 0.161655 0.161616 0.161597 0.161591 0.161585 0.161566 0.161527 0.161475 0.161425 0.161374 0.161324 0.161275 0.161238 0.161220 0.161214 0.161208 0.161191 0.161153 0.161103 0.161055 0.161008 0.160960 0.160913 0.160876 0.160859 0.160853 0.160847 0.160830 0.160793 0.160744 0.160698 0.160652 0.160605 0.160558 0.160522 0.160505 0.160499 
0.254259 0.254131 0.253657 0.252503 0.250979 0.249393 0.247806 0.246220 0.244637 0.243440 0.242934 0.242798 0.242661 0.242157 0.240979 0.239422 0.237875 0.236327 0.234779 0.233253 0.232098 0.231608 0.231476 0.231343 0.230851 0.229703 0.228184 0.226733 0.225282 0.223830 0.222430 0.221370 0.220925 0.220804 0.220685 0.220244 0.219233 0.217897 0.216618 0.215340 0.214062 0.212879 0.211983 0.211609 0.211507 0.211407 0.211036 0.210185 0.209061 0.208022 0.206983 0.205944 0.204980 0.204251 0.203955 0.203875 0.203796 0.203505 0.202863 0.202014 0.201241 0.200469 0.199696 0.198999 0.198473 0.198249 0.198188 0.198129 0.197910 0.197441 0.196821 0.196270 0.195719 0.195169 0.194605 0.194178 0.193998 0.193949 0.193900 0.193720 0.193299 0.192741 0.192189 0.191637 0.191085 0.190540 0.190127 0.189953 0.189906 0.189860 0.189686 0.189283 0.188750 0.188220 0.187691 0.187161 0.186648 0.186261 0.186098 0.186055 0.186011 0.185850 0.185481 0.184995 0.184541 0.184088 0.183634 0.183210 0.182889 0.182765 0.182732 0.182699 0.182576 0.182293 0.181919 0.181578 0.181238 0.180898 0.180592 0.180361 0.180266 0.180240 0.180214 0.180119 0.179914 0.179642 0.179401 0.179160 0.178918 0.178696 0.178528 0.178463 0.178446 0.178429 0.178364 0.178214 0.178016 0.177836 0.177656 0.177477 0.177312 0.177187 0.177134 0.177120 0.177106 0.177053 0.176938 0.176787 0.176647 0.176506 0.176366 0.176235 0.176136 0.176097 0.176086 0.176076 0.176036 0.175943 0.175819 0.175704 0.175588 0.175472 0.175362 0.175278 0.175243 0.175233 0.175224 0.175188 0.175111 0.175010 0.174911 0.174812 0.174713 0.174619 0.174548 0.174518 0.174510 0.174502 0.174473 0.174403 0.174310 0.174220 0.174130 0.174041 0.173952 0.173884 0.173855 0.173847 
