-1.693583 0.645387 17.448935
-1.695134 0.648320 17.436636
-1.696686 0.651252 17.424337
-1.765456 0.781188 16.879400
-1.833517 0.909775 16.340130
-1.901514 1.038325 15.800844
-1.968941 1.166539 15.261408
-1.697645 0.653063 17.416740
-1.765213 0.780727 16.881331
-1.765700 0.781648 16.877469
-1.833273 0.909315 16.342061
-1.833761 0.910236 16.338200
-1.901268 1.037864 15.802775
-1.901759 1.038787 15.798914
-1.968706 1.166084 15.263342
-1.701318 0.660004 17.387631
-1.761539 0.773787 16.910439
-1.769373 0.788588 16.848360
-1.829596 0.902372 16.371169
-1.837437 0.917178 16.309092
-1.897591 1.030921 15.831882
-1.905461 1.045744 15.769813
-1.965166 1.159222 15.292485
-1.709245 0.674981 17.324815
-1.718118 0.691747 17.254503
-1.726991 0.708512 17.184191
-1.735865 0.725278 17.113879
-1.744739 0.742043 17.043568
-1.753612 0.758809 16.973256
-1.777299 0.803566 16.785544
-1.786171 0.820330 16.715231
-1.795042 0.837094 16.644919
-1.803914 0.853858 16.574607
-1.812787 0.870624 16.504295
-1.821664 0.887391 16.433984
-1.845368 0.932158 16.246276
-1.854240 0.948923 16.175964
-1.863103 0.965682 16.105650
-1.871953 0.982433 16.035332
-1.880802 0.999184 15.965013
-1.889655 1.015938 15.894696
-1.913448 1.060758 15.707012
-1.922423 1.077583 15.636728
-1.931361 1.094386 15.566433
-1.940237 1.111153 15.496122
-1.948984 1.127844 15.425776
-1.957542 1.144423 15.355381
-2.423303 1.630872 14.177941
-3.776944 2.052264 14.192295
-5.092131 2.498598 14.117883
-5.574645 3.842087 14.037365
-6.190354 5.132695 13.969632
-7.023093 6.292606 13.894195
-8.100127 7.226104 13.811441
-9.377425 7.861278 13.724443
-10.765935 8.194076 13.637358
-12.190371 8.303652 13.552606
-1.969176 1.166994 15.259475
-2.421620 1.629827 14.177666
-2.424986 1.631917 14.178217
-3.774980 2.051892 14.192353
-3.778908 2.052636 14.192237
-5.091152 2.496862 14.118054
-5.093109 2.500334 14.117712
-5.573877 3.840243 14.037457
-5.575414 3.843931 14.037274
-6.189385 5.130948 13.969731
-6.191324 5.134441 13.969533
-7.021776 6.291105 13.894306
-7.024420 6.294099 13.894084
-8.098443 7.225032 13.811561
-8.101812 7.227175 13.811321
-9.375544 7.860609 13.724566
-9.379306 7.861947 13.724321
-10.763963 8.193764 13.637478
-10.767907 8.194387 13.637237
-12.188374 8.303633 13.552722
-1.972716 1.173856 15.230332
-2.396251 1.614074 14.173519
-2.450433 1.647380 14.182901
-3.745383 2.046208 14.193174
-3.808518 2.058244 14.191366
-5.076128 2.470880 14.120638
-5.107859 2.526502 14.115133
-5.562294 3.812442 14.038841
-5.586996 3.871732 14.035890
-6.174771 5.104620 13.971218
-6.206144 5.160651 13.968039
-7.001922 6.268478 13.895969
-7.044415 6.316602 13.892417
-8.073094 7.208812 13.813368
-8.127205 7.243328 13.809513
-9.347191 7.850525 13.726411
-9.407659 7.872030 13.722476
-10.734237 8.189069 13.639294
-10.797635 8.199071 13.635421
-12.158277 8.303349 13.554473
-1.989923 1.205839 15.097315
-2.019815 1.258059 14.887290
-2.040780 1.304984 14.675064
-2.059151 1.350348 14.462342
-2.131866 1.426446 14.273120
-2.280951 1.539453 14.169493
-2.568035 1.716147 14.203760
-2.762014 1.815522 14.212689
-2.969061 1.883961 14.208768
-3.183076 1.927631 14.205587
-3.396655 1.973437 14.201713
-3.610132 2.019618 14.196768
-3.943905 2.084055 14.187236
-4.158213 2.125918 14.180030
-4.372424 2.168146 14.172131
-4.586675 2.209816 14.162571
-4.798344 2.261213 14.149767
-4.985521 2.368261 14.132659
-5.162664 2.652226 14.103857
-5.218097 2.862948 14.088485
-5.281221 3.071601 14.075449
-5.355814 3.276646 14.064380
-5.431110 3.481509 14.054706
-5.510029 3.684999 14.045116
-5.640209 3.998782 14.029576
-5.725914 4.199495 14.019568
-5.815305 4.398581 14.009417
-5.909849 4.595258 13.999060
-6.008995 4.789655 13.988534
-6.109467 4.983370 13.977961
-6.277209 5.278600 13.961087
-6.395227 5.462109 13.949881
-6.515111 5.644407 13.938609
-6.639569 5.823585 13.927181
-6.772239 5.996750 13.915482
-6.911611 6.164561 13.903564
-7.136398 6.419039 13.884774
-7.287637 6.576176 13.872500
-7.449134 6.722730 13.859933
-7.614670 6.864749 13.847262
-7.782146 7.004434 13.834540
-7.958173 7.133071 13.821610
-8.243631 7.316739 13.801237
-8.430447 7.429230 13.788076
-8.621859 7.533670 13.774843
-8.818280 7.628328 13.761537
-9.018200 7.715409 13.748192
-9.219087 7.800249 13.734843
-9.538731 7.913951 13.714045
-9.748424 7.973800 13.700703
-9.958459 8.032441 13.687365
-10.170046 8.085128 13.674056
-10.383639 8.129039 13.660806
-10.598372 8.167062 13.647606
-10.933770 8.219346 13.627128
-11.150179 8.246171 13.614052
-11.367464 8.264780 13.601086
-11.585002 8.280339 13.588165
-11.802673 8.293899 13.575277
-12.020638 8.301394 13.562491
180 NaN NaN
-1.692807 0.643921 17.455084
-1.705067 0.667089 17.357916
-1.717329 0.690257 17.260748
-1.729592 0.713426 17.163581
-1.741855 0.736596 17.066413
-1.754118 0.759765 16.969246
-1.766380 0.782933 16.872078
-1.778641 0.806101 16.774910
-1.790901 0.829268 16.677741
-1.803161 0.852436 16.580573
-1.815424 0.875605 16.483405
-1.827693 0.898778 16.386239
-1.839965 0.921952 16.289074
-1.852231 0.945123 16.191907
-1.864479 0.968283 16.094736
-1.876705 0.991431 15.997558
-1.888937 1.014581 15.900383
-1.901212 1.037758 15.803218
-1.913567 1.060982 15.706075
-1.925971 1.084234 15.608946
-1.938288 1.107435 15.511793
-1.950376 1.130500 15.414578
-1.962153 1.153383 15.317283
-1.973972 1.176289 15.219998
-1.986364 1.199535 15.122866
-1.999853 1.223425 15.026037
-2.014095 1.247758 14.929425
-2.027252 1.271453 14.832504
-2.037328 1.293325 14.734796
-2.043027 1.312573 14.636185
-2.048830 1.331884 14.537593
-2.062109 1.355639 14.440778
-2.089663 1.387529 14.349588
-2.133991 1.428405 14.269269
-2.194249 1.477170 14.205575
-2.269874 1.532113 14.169945
-2.353488 1.587519 14.166528
-2.438137 1.640084 14.180366
-2.523357 1.690651 14.197933
-2.610183 1.740199 14.209257
-2.699141 1.787049 14.213177
-2.790793 1.828556 14.212466
-2.885603 1.862133 14.210281
-2.982935 1.887590 14.208516
-3.081448 1.908104 14.207056
-3.180279 1.927055 14.205633
-3.278838 1.947348 14.204010
-3.377094 1.969052 14.202133
-3.475276 1.991061 14.200023
-3.573631 2.012264 14.197700
-3.672258 2.032135 14.195182
-3.771050 2.051148 14.192469
-3.869893 2.069867 14.189560
-3.968688 2.088806 14.186458
-4.067418 2.108047 14.183181
-4.166108 2.127472 14.179756
-4.264782 2.146957 14.176208
-4.363459 2.166393 14.172498
-4.462149 2.185698 14.168460
-4.560857 2.204797 14.163927
-4.659518 2.223977 14.158746
-4.757286 2.247004 14.152768
-4.852094 2.279814 14.145837
-4.939710 2.328320 14.137902
-5.015163 2.394104 14.129267
-5.077434 2.472525 14.120453
-5.126625 2.559795 14.111852
-5.163043 2.653197 14.103773
-5.190308 2.749769 14.096340
-5.213959 2.847353 14.089504
-5.239714 2.944426 14.083163
-5.270114 3.040177 14.077263
-5.303603 3.134923 14.071793
-5.338406 3.229220 14.066734
-5.373046 3.323596 14.062049
-5.407558 3.418031 14.057620
-5.442534 3.512300 14.053292
-5.478559 3.606170 14.048915
-5.515836 3.699544 14.044414
-5.554008 3.792553 14.039830
-5.592673 3.885356 14.035212
-5.631491 3.978095 14.030603
-5.670535 4.070741 14.026004
-5.710054 4.163184 14.021395
-5.750295 4.255313 14.016759
-5.791458 4.347032 14.012083
-5.833667 4.438272 14.007364
-5.877033 4.528965 14.002600
-5.921629 4.619058 13.997790
-5.967193 4.708663 13.992944
-6.013297 4.797991 13.988080
-6.059518 4.887258 13.983212
-6.105814 4.976486 13.978341
-6.152935 5.065279 13.973439
-6.201717 5.153165 13.968476
-6.252881 5.239679 13.963427
-6.306156 5.324908 13.958303
-6.360706 5.409325 13.953134
-6.415718 5.493441 13.947950
-6.470759 5.577538 13.942764
-6.526313 5.661296 13.937559
-6.582993 5.744292 13.932317
-6.641365 5.826102 13.927017
-6.701549 5.906585 13.921659
-6.763371 5.985813 13.916247
-6.826661 6.063872 13.910787
-6.891223 6.140878 13.905285
-6.956784 6.217034 13.899752
-7.023060 6.292568 13.894198
-7.089807 6.367685 13.888631
-7.157325 6.442106 13.883041
-7.226336 6.515140 13.877407
-7.297536 6.586032 13.871707
-7.371247 6.654305 13.865937
-7.446703 6.720645 13.860120
-7.522973 6.786048 13.854282
-7.599211 6.851489 13.848446
-7.675472 6.916902 13.842608
-7.752645 6.981231 13.836747
-7.831610 7.043338 13.830839
-7.912909 7.102351 13.824878
-7.996032 7.158767 13.818877
-8.080285 7.213482 13.812854
-8.165049 7.267400 13.806819
-8.250130 7.320819 13.800775
-8.335761 7.373347 13.794720
-8.422187 7.424554 13.788651
-8.509608 7.474040 13.782567
-8.598090 7.521601 13.776466
-8.687657 7.567083 13.770349
-8.778320 7.610336 13.764217
-8.869916 7.651577 13.758074
-8.962091 7.691508 13.751926
-9.054509 7.730876 13.745776
-9.146940 7.770214 13.739628
-9.239677 7.808821 13.733477
-9.333176 7.845540 13.727322
-9.427816 7.879199 13.721165
-9.523576 7.909530 13.715011
-9.620010 7.937659 13.708863
-9.716716 7.964842 13.702719
-9.813387 7.992151 13.696574
-9.910091 8.019339 13.690429
-10.007050 8.045603 13.684287
-10.104461 8.070134 13.678154
-10.202388 8.092522 13.672035
-10.300724 8.113049 13.665929
-10.399362 8.132072 13.659835
-10.498219 8.149934 13.653751
-10.597237 8.166876 13.647676
-10.696379 8.183089 13.641608
-10.795607 8.198762 13.635545
-10.894925 8.213862 13.629489
-10.994398 8.227904 13.623444
-11.094084 8.240348 13.617419
-11.194008 8.250721 13.611421
-11.294104 8.259297 13.605448
-11.394290 8.266786 13.599491
-11.494503 8.273903 13.593540
-11.594715 8.281030 13.587588
-11.694955 8.287761 13.581644
-11.795253 8.293573 13.575713
-11.895623 8.297979 13.569807
-11.996048 8.300950 13.563926
-12.096502 8.302766 13.558066
-12.196969 8.303714 13.552222
-12.297441 8.304035 13.546391
-12.397914 8.303836 13.540571
-12.498385 8.303205 13.534759
-12.598855 8.302213 13.528954
-12.699318 8.300703 13.523160
-12.799765 8.298335 13.517384
-12.900178 8.294765 13.511635
-13.000533 8.289796 13.505917
-13.100830 8.283725 13.500225
-13.201083 8.276953 13.494551
-13.301315 8.269878 13.488883
-13.401554 8.262899 13.483213
-13.501826 8.256416 13.477531
-13.602150 8.250826 13.471828
