0.182612 0.182584 0.182174 0.180426 0.177658 0.175397 0.173135 0.170873 0.168940 0.167721 0.167469 0.167452 0.167436 0.167188 0.166104 0.164387 0.162873 0.161359 0.159845 0.158482 0.157622 0.157439 0.157427 0.157415 0.157232 0.156422 0.155137 0.153915 0.152692 0.151469 0.150301 0.149564 0.149404 0.149394 0.149383 0.149222 0.148517 0.147400 0.146352 0.145304 0.144256 0.143301 0.142697 0.142571 0.142563 0.142555 0.142430 0.141885 0.141020 0.140243 0.139465 0.138688 0.137985 0.137541 0.137448 0.137441 0.137435 0.137343 0.136937 0.136294 0.135713 0.135131 0.134550 0.134017 0.133681 0.133610 0.133605 0.133600 0.133529 0.133214 0.132715 0.132245 0.131775 0.131304 0.130857 0.130575 0.130514 0.130510 0.130506 0.130445 0.130173 0.129741 0.129326 0.128911 0.128496 0.128097 0.127845 0.127790 0.127787 
0.182623 0.182640 0.182812 0.183267 0.183940 0.184302 0.184665 0.185027 0.185210 0.185333 0.185357 0.185359 0.185362 0.185389 0.185455 0.185551 0.185665 0.185779 0.185893 0.186169 0.186357 0.186429 0.186436 0.186444 0.186520 0.186830 0.187287 0.187880 0.188474 0.189067 0.189747 0.190209 0.190347 0.190361 0.190375 0.190515 0.191015 0.191754 0.192577 0.193399 0.194221 0.195109 0.195711 0.195889 0.195906 0.195923 0.196099 0.196727 0.197654 0.198563 0.199473 0.200383 0.201228 0.201800 0.201951 0.201966 0.201981 0.202129 0.202615 0.203332 0.203851 0.204369 0.204888 0.205186 0.205388 0.205418 0.205421 0.205424 0.205453 0.205565 0.205731 0.205685 0.205639 0.205593 0.205391 0.205254 0.205207 0.205202 0.205197 0.205147 0.204924 0.204596 0.204144 0.203693 0.203242 0.202699 0.202331 0.202221 0.202210 
0.182619 0.182619 0.182629 0.182088 0.181230 0.180386 0.179543 0.178699 0.177915 0.177420 0.177340 0.177334 0.177329 0.177245 0.176805 0.176109 0.175250 0.174390 0.173531 0.172623 0.172050 0.171896 0.171886 0.171876 0.171723 0.170925 0.169661 0.168339 0.167017 0.165696 0.164311 0.163437 0.163224 0.163210 0.163196 0.162977 0.161771 0.159860 0.156768 0.153677 0.150585 0.146847 0.144489 0.143970 0.143937 0.143904 0.143379 0.140999 0.137228 0.134119 0.131009 0.127899 0.125858 0.124570 0.124337 0.124322 0.124308 0.124084 0.123229 0.121876 0.121028 0.120181 0.119333 0.118784 0.118438 0.118373 0.118369 0.118365 0.118301 0.118046 0.117643 0.117353 0.117062 0.116772 0.116555 0.116418 0.116391 0.116389 0.116387 0.116360 0.116247 0.116068 0.115920 0.115772 0.115624 0.115499 0.115420 0.115403 0.115402 0.115401 0.115385 0.115316 0.115206 0.115113 0.115019 0.114926 0.114847 0.114797 0.114787 0.114786 0.114785 0.114775 0.114732 0.114664 0.114606 0.114548 0.114490 0.114441 0.114410 0.114404 0.114403 0.114403 0.114397 0.114370 0.114328 0.114294 0.114259 0.114225 0.114197 0.114179 0.114176 0.114176 
0.137440 0.137433 0.137368 0.137167 0.136890 0.136621 0.136352 0.136082 0.135874 0.135723 0.135676 0.135671 0.135667 0.135621 0.135494 0.135317 0.135171 0.135025 0.134878 0.134760 0.134675 0.134649 0.134647 0.134644 0.134619 0.134549 0.134452 0.134374 0.134296 0.134217 0.134152 0.134105 0.134090 0.134088 
0.157424 0.157413 0.157370 0.157263 0.157123 0.156976 0.156829 0.156683 0.156529 0.156413 0.156364 0.156351 0.156339 0.156289 0.156168 0.156008 0.155843 0.155678 0.155512 0.155343 0.155215 0.155161 0.155147 0.155134 0.155079 0.154949 0.154776 0.154601 0.154426 0.154252 0.154077 0.153945 0.153890 0.153876 0.153862 0.153806 0.153674 0.153498 0.153324 0.153151 0.152977 0.152804 0.152674 0.152621 0.152608 0.152595 0.152542 0.152415 0.152247 0.152082 0.151916 0.151750 0.151587 0.151463 0.151411 0.151398 0.151385 0.151334 0.151211 0.151048 0.150880 0.150713 0.150546 0.150380 0.150255 0.150202 0.150189 0.150175 0.150122 0.149994 0.149824 0.149658 0.149491 0.149325 0.149173 0.149058 0.149010 0.148998 0.148986 0.148938 0.148830 0.148686 0.148550 0.148414 0.148278 0.148153 0.148058 0.148019 0.148010 0.148000 0.147962 0.147872 0.147753 0.147645 0.147537 0.147429 0.147325 0.147247 0.147216 0.147209 0.147201 0.147172 0.147102 0.147010 0.146923 0.146836 0.146749 0.146668 0.146607 0.146581 0.146575 0.146568 0.146543 0.146486 0.146411 0.146340 0.146270 0.146199 0.146135 0.146086 0.146066 0.146061 0.146056 0.146037 0.145989 0.145926 0.145869 0.145811 0.145754 0.145697 0.145655 0.145638 0.145634 0.145630 0.145614 0.145576 0.145525 0.145475 0.145426 0.145377 0.145330 0.145295 0.145280 0.145276 0.145272 0.145257 0.145224 0.145179 0.145135 0.145091 0.145047 0.145005 0.144974 0.144961 0.144957 0.144954 0.144941 0.144909 0.144866 0.144826 0.144786 0.144745 0.144704 0.144673 0.144661 0.144658 
0.167452 0.167452 0.167448 0.167424 0.167392 0.167314 0.167235 0.167156 0.167037 0.166947 0.166905 0.166896 0.166887 0.166844 0.166724 0.166565 0.166365 0.166165 0.165965 0.165740 0.165571 0.165500 0.165485 0.165470 0.165399 0.165217 0.164976 0.164727 0.164478 0.164229 0.163984 0.163800 0.163726 0.163711 0.163696 0.163623 0.163443 0.163205 0.162980 0.162756 0.162532 0.162362 0.162235 0.162182 0.162171 0.162160 0.162108 0.161972 0.161791 0.161597 0.161404 0.161211 0.161000 0.160842 0.160782 0.160770 0.160757 0.160698 0.160536 0.160321 0.160089 0.159857 0.159625 0.159365 0.159170 0.159091 0.159075 0.159058 0.158979 0.158767 0.158485 0.158193 0.157901 0.157609 0.157342 0.157142 0.157065 0.157048 0.157033 0.156958 0.156779 0.156540 0.156328 0.156116 0.155904 0.155712 0.155566 0.155515 0.155504 0.155494 0.155443 0.155317 0.155151 0.155004 0.154857 0.154709 0.154575 0.154475 0.154438 0.154430 0.154422 0.154385 0.154291 0.154167 0.154055 0.153944 0.153833 0.153730 0.153652 0.153622 0.153615 0.153609 0.153578 0.153502 0.153400 0.153306 0.153212 0.153117 0.153028 0.152961 0.152934 0.152929 0.152923 0.152896 0.152830 0.152742 0.152657 0.152572 0.152486 0.152404 0.152341 0.152316 0.152311 0.152305 0.152280 0.152217 0.152134 0.152051 0.151967 0.151883 0.151799 0.151735 0.151709 0.151704 
0.185352 0.185322 0.185181 0.184817 0.184334 0.183805 0.183276 0.182747 0.182180 0.181752 0.181573 0.181535 0.181495 0.181310 0.180830 0.180192 0.179540 0.178888 0.178236 0.177638 0.177187 0.177016 0.176980 0.176944 0.176777 0.176523 0.176186 0.175859 0.175531 0.175203 0.174878 0.174633 0.174532 0.174511 0.174490 0.174389 0.174137 0.173802 0.173458 0.173114 0.172771 0.172420 0.172155 0.172045 0.172021 0.171998 0.171887 0.171606 0.171232 0.170840 0.170448 0.170057 0.169655 0.169353 0.169228 0.169201 0.169175 0.169050 0.168737 0.168323 0.167899 0.167475 0.167051 0.166634 0.166319 0.166196 0.166169 0.166143 0.166021 0.165722 0.165325 0.164971 0.164617 0.164263 0.163948 0.163711 0.163626 0.163608 0.163590 0.163506 0.163305 0.163039 0.162817 0.162595 0.162373 0.162177 0.162030 0.161978 0.161967 0.161957 0.161905 0.161778 0.161608 0.161467 0.161326 0.161184 0.161058 0.160963 0.160928 0.160921 0.160913 0.160878 0.160788 0.160668 0.160567 0.160466 0.160365 0.160273 0.160204 0.160177 0.160172 0.160166 0.160140 0.160073 0.159984 0.159906 0.159827 0.159749 0.159676 0.159621 0.159600 0.159595 
0.201945 0.201860 0.201513 0.200697 0.199616 0.198605 0.197594 0.196583 0.195640 0.194928 0.194641 0.194571 0.194501 0.194217 0.193545 0.192655 0.191808 0.190961 0.190113 0.189322 0.188725 0.188484 0.188426 0.188368 0.188129 0.187567 0.186823 0.186121 0.185420 0.184718 0.184052 0.183548 0.183348 0.183299 0.183250 0.183051 0.182581 0.181958 0.181372 0.180787 0.180201 0.179644 0.179224 0.179053 0.179012 0.178972 0.178810 0.178428 0.177921 0.177446 0.176970 0.176494 0.176060 0.175732 0.175598 0.175566 0.175533 0.175401 0.175118 0.174743 0.174502 0.174260 0.174019 0.173826 0.173680 0.173620 0.173605 0.173591 0.173530 0.173380 0.173181 0.173019 0.172858 0.172697 0.172541 0.172423 0.172382 0.172372 0.172361 0.172319 0.172216 0.172078 0.171953 0.171828 0.171702 0.171581 0.171489 0.171451 0.171441 0.171434 0.171401 0.171328 0.171232 0.171136 0.171041 0.170945 0.170868 0.170809 0.170785 0.170779 0.170772 0.170748 0.170696 0.170629 0.170571 0.170513 0.170456 0.170414 0.170383 0.170370 0.170367 
