0.184381 0.184352 0.183971 0.182387 0.179877 0.177838 0.175798 0.173759 0.172013 0.170911 0.170679 0.170662 0.170645 0.170415 0.169427 0.167863 0.166488 0.165114 0.163739 0.162509 0.161732 0.161566 0.161554 0.161541 0.161376 0.160635 0.159461 0.158318 0.157174 0.156030 0.154898 0.154184 0.154027 0.154016 0.154004 0.153848 0.153144 0.152029 0.150956 0.149882 0.148809 0.147787 0.147141 0.147003 0.146993 0.146983 0.146845 0.146232 0.145261 0.144369 0.143476 0.142584 0.141768 0.141252 0.141142 0.141134 0.141126 0.141018 0.140540 0.139784 0.139089 0.138394 0.137699 0.137066 0.136667 0.136582 0.136576 0.136570 0.136486 0.136117 0.135534 0.135002 0.134469 0.133937 0.133448 0.133140 0.133074 0.133069 0.133064 0.132999 0.132711 0.132254 0.131827 0.131401 0.130974 0.130571 0.130317 0.130262 0.130258 0.130254 0.130199 0.129955 0.129568 0.129196 0.128824 0.128452 0.128093 0.127867 0.127818 0.127814 0.127810 0.127761 0.127541 0.127192 0.126854 0.126515 0.126177 0.125849 0.125642 0.125597 0.125594 
0.184394 0.184415 0.184620 0.185099 0.185750 0.186254 0.186757 0.187261 0.187712 0.188044 0.188162 0.188174 0.188186 0.188303 0.188633 0.189082 0.189554 0.190026 0.190499 0.191004 0.191377 0.191512 0.191526 0.191540 0.191673 0.192071 0.192611 0.193179 0.193746 0.194314 0.194907 0.195343 0.195495 0.195511 0.195526 0.195677 0.196124 0.196731 0.197333 0.197934 0.198536 0.199126 0.199560 0.199710 0.199726 0.199741 0.199890 0.200314 0.200890 0.201430 0.201971 0.202511 0.203028 0.203409 0.203533 0.203546 0.203559 0.203683 0.204022 0.204484 0.204888 0.205292 0.205697 0.206031 0.206277 0.206354 0.206362 0.206370 0.206445 0.206629 0.206879 0.207036 0.207192 0.207348 0.207401 0.207440 0.207442 0.207442 0.207442 0.207441 0.207399 0.207341 0.207193 0.207046 0.206899 0.206657 0.206479 0.206399 0.206391 0.206382 0.206300 0.206038 0.205683 0.205263 0.204842 0.204422 0.203935 0.203577 0.203445 0.203432 0.203418 0.203285 0.202884 0.202340 0.201748 0.201155 0.200563 0.199937 0.199477 0.199310 0.199293 0.199275 0.199107 0.198616 0.197950 0.197256 0.196562 0.195869 0.195161 0.194640 0.194455 0.194435 
0.184388 0.184386 0.184359 0.183544 0.182253 0.181644 0.181035 0.180426 0.180467 0.180493 0.180488 0.180488 0.180488 0.180482 0.180314 0.180048 0.179260 0.178473 0.177685 0.176626 0.175957 0.175772 0.175759 0.175745 0.175530 0.174499 0.172864 0.171349 0.169835 0.168321 0.166962 0.166105 0.165917 0.165903 0.165891 0.165706 0.164768 0.163282 0.161172 0.159061 0.156951 0.154075 0.152261 0.151814 0.151783 0.151751 0.151295 0.148949 0.145233 0.141283 0.137334 0.133384 0.130478 0.128643 0.128314 0.128291 0.128269 0.127949 0.126734 0.124808 0.123595 0.122381 0.121168 0.120386 0.119892 0.119799 0.119793 0.119787 0.119696 0.119338 0.118770 0.118366 0.117962 0.117558 0.117267 0.117083 0.117047 0.117044 0.117042 0.117006 0.116859 0.116626 0.116439 0.116252 0.116065 0.115910 0.115811 0.115791 0.115790 0.115788 0.115768 0.115682 0.115545 0.115428 0.115310 0.115193 0.115094 0.115032 0.115019 0.115018 0.115017 0.115004 0.114950 0.114864 0.114792 0.114719 0.114647 0.114586 0.114547 0.114539 0.114539 0.114538 0.114530 0.114496 0.114442 0.114396 0.114350 0.114303 0.114263 0.114238 0.114232 0.114232 0.114232 0.114227 0.114204 0.114169 0.114140 0.114111 0.114082 0.114059 0.114045 0.114042 0.114042 
0.136574 0.136567 0.136540 0.136478 0.136395 0.136313 0.136231 0.136149 0.136067 0.136004 0.135978 0.135970 0.135963 0.135936 0.135874 0.135793 0.135711 0.135629 0.135547 0.135465 0.135403 0.135377 0.135370 0.135362 0.135336 0.135274 0.135192 0.135111 0.135030 0.134949 0.134868 0.134807 0.134780 0.134773 0.134766 0.134740 0.134679 0.134598 0.134529 0.134460 0.134390 0.134332 0.134287 0.134269 0.134264 0.134259 0.134241 0.134198 0.134142 0.134087 0.134032 0.133977 0.133924 0.133884 0.133866 0.133862 0.133857 0.133840 0.133801 0.133749 0.133699 0.133649 0.133599 0.133551 0.133515 0.133500 0.133496 0.133491 0.133476 0.133441 0.133394 0.133350 0.133305 0.133260 0.133217 0.133184 0.133170 0.133166 0.133162 0.133148 0.133117 0.133077 0.133037 0.132997 0.132957 0.132920 0.132892 0.132880 0.132877 0.132874 0.132862 0.132834 0.132798 0.132764 0.132730 0.132696 0.132663 0.132638 0.132627 0.132624 0.132622 0.132611 0.132589 0.132559 0.132529 0.132499 0.132470 0.132443 0.132422 0.132414 0.132411 0.132409 0.132400 0.132380 0.132353 0.132329 0.132305 0.132281 0.132257 0.132239 0.132232 0.132230 0.132228 0.132221 0.132205 0.132184 0.132163 0.132142 0.132121 0.132102 0.132087 0.132081 0.132079 
0.146991 0.146984 0.146953 0.146875 0.146773 0.146664 0.146555 0.146446 0.146333 0.146248 0.146214 0.146205 0.146197 0.146162 0.146074 0.145957 0.145837 0.145717 0.145597 0.145475 0.145382 0.145345 0.145336 0.145327 0.145290 0.145196 0.145072 0.144945 0.144818 0.144691 0.144563 0.144466 0.144426 0.144417 0.144407 0.144368 0.144269 0.144139 0.144007 0.143874 0.143742 0.143608 0.143507 0.143466 0.143456 0.143448 0.143415 0.143346 0.143253 0.143167 0.143081 0.142994 0.142914 0.142853 0.142829 0.142823 0.142818 0.142794 0.142737 0.142661 0.142589 0.142517 0.142445 0.142376 0.142324 0.142304 0.142299 0.142294 0.142274 0.142223 0.142157 0.142093 0.142029 0.141966 0.141903 0.141856 0.141838 0.141834 0.141829 0.141811 0.141766 0.141705 0.141647 0.141589 0.141531 0.141473 0.141430 0.141412 0.141408 0.141404 0.141388 0.141346 0.141291 0.141236 0.141182 0.141128 0.141074 0.141033 0.141017 0.141013 0.141009 0.140993 0.140953 0.140901 0.140849 0.140797 0.140745 0.140694 0.140655 0.140639 0.140635 0.140631 0.140615 0.140577 0.140525 0.140474 0.140422 0.140370 0.140319 0.140280 0.140264 0.140260 
0.161552 0.161543 0.161510 0.161427 0.161317 0.161193 0.161069 0.160945 0.160806 0.160701 0.160656 0.160645 0.160633 0.160587 0.160474 0.160324 0.160165 0.160006 0.159847 0.159678 0.159551 0.159497 0.159483 0.159469 0.159414 0.159280 0.159102 0.158916 0.158731 0.158545 0.158358 0.158217 0.158157 0.158142 0.158127 0.158066 0.157919 0.157725 0.157530 0.157336 0.157141 0.156949 0.156805 0.156745 0.156730 0.156715 0.156657 0.156514 0.156326 0.156135 0.155944 0.155752 0.155560 0.155415 0.155356 0.155341 0.155326 0.155268 0.155129 0.154945 0.154758 0.154571 0.154384 0.154197 0.154056 0.153994 0.153979 0.153963 0.153900 0.153753 0.153559 0.153364 0.153169 0.152974 0.152788 0.152648 0.152594 0.152581 0.152567 0.152513 0.152387 0.152221 0.152063 0.151904 0.151746 0.151600 0.151489 0.151444 0.151433 0.151422 0.151377 0.151272 0.151133 0.151005 0.150877 0.150749 0.150626 0.150533 0.150497 0.150487 0.150478 0.150442 0.150358 0.150246 0.150139 0.150032 0.149925 0.149824 0.149748 0.149717 0.149709 0.149701 0.149670 0.149598 0.149503 0.149413 0.149322 0.149231 0.149146 0.149082 0.149056 0.149049 0.149042 0.149016 0.148952 0.148868 0.148789 0.148711 0.148632 0.148555 0.148496 0.148473 0.148467 0.148462 0.148439 0.148384 0.148312 0.148241 0.148171 0.148100 0.148031 0.147980 0.147958 0.147952 0.147947 0.147925 0.147875 0.147808 0.147743 0.147677 0.147611 0.147548 0.147501 0.147481 0.147476 0.147471 0.147451 0.147403 0.147339 0.147277 0.147215 0.147153 0.147090 0.147043 0.147023 0.147019 
0.170660 0.170651 0.170620 0.170540 0.170434 0.170308 0.170181 0.170055 0.169906 0.169793 0.169742 0.169728 0.169714 0.169661 0.169531 0.169358 0.169166 0.168974 0.168782 0.168573 0.168416 0.168345 0.168326 0.168306 0.168235 0.168061 0.167832 0.167591 0.167350 0.167108 0.166856 0.166665 0.166584 0.166562 0.166540 0.166459 0.166269 0.166017 0.165768 0.165519 0.165270 0.165032 0.164852 0.164775 0.164754 0.164733 0.164657 0.164482 0.164252 0.164038 0.163825 0.163611 0.163450 0.163328 0.163276 0.163262 0.163248 0.163197 0.163074 0.162912 0.162745 0.162579 0.162413 0.162242 0.162112 0.162056 0.162041 0.162026 0.161970 0.161839 0.161665 0.161486 0.161306 0.161126 0.160943 0.160804 0.160744 0.160728 0.160711 0.160651 0.160506 0.160313 0.160119 0.159924 0.159730 0.159534 0.159385 0.159323 0.159305 0.159288 0.159225 0.159077 0.158880 0.158666 0.158453 0.158239 0.158023 0.157860 0.157789 0.157769 0.157750 0.157677 0.157509 0.157288 0.157084 0.156880 0.156676 0.156483 0.156337 0.156276 0.156259 0.156243 0.156182 0.156044 0.155862 0.155700 0.155539 0.155378 0.155225 0.155110 0.155066 0.155054 0.155042 0.154998 0.154896 0.154761 0.154637 0.154513 0.154389 0.154278 0.154195 0.154159 0.154150 0.154140 0.154105 0.154028 0.153926 0.153833 0.153740 0.153647 0.153561 0.153496 0.153470 0.153463 0.153456 0.153430 0.153369 0.153289 0.153214 0.153140 0.153066 0.152996 0.152943 0.152920 0.152914 0.152908 0.152885 0.152836 0.152772 0.152708 0.152645 0.152581 0.152523 0.152479 0.152461 0.152456 0.152451 0.152432 0.152388 0.152330 0.152276 0.152222 0.152168 0.152113 0.152073 0.152055 0.152050 0.152046 0.152029 0.151991 0.151940 0.151889 0.151838 0.151787 0.151738 0.151701 0.151685 0.151680 
0.188167 0.188140 0.188058 0.187877 0.187638 0.187390 0.187142 0.186894 0.186634 0.186436 0.186343 0.186312 0.186280 0.186186 0.185979 0.185707 0.185424 0.185142 0.184860 0.184563 0.184338 0.184233 0.184198 0.184162 0.184057 0.183823 0.183515 0.183196 0.182877 0.182557 0.182228 0.181977 0.181861 0.181822 0.181783 0.181667 0.181415 0.181084 0.180737 0.180391 0.180045 0.179683 0.179407 0.179284 0.179242 0.179201 0.179077 0.178806 0.178451 0.178101 0.177752 0.177402 0.177080 0.176835 0.176726 0.176689 0.176653 0.176546 0.176314 0.176010 0.175719 0.175428 0.175137 0.174907 0.174733 0.174665 0.174642 0.174619 0.174551 0.174401 0.174203 0.174008 0.173813 0.173618 0.173424 0.173278 0.173209 0.173186 0.173163 0.173095 0.172945 0.172748 0.172550 0.172352 0.172154 0.171953 0.171801 0.171730 0.171707 0.171683 0.171613 0.171460 0.171258 0.171056 0.170854 0.170651 0.170443 0.170284 0.170211 0.170187 0.170163 0.170090 0.169930 0.169720 0.169508 0.169295 0.169082 0.168863 0.168696 0.168619 0.168593 0.168567 0.168490 0.168321 0.168100 0.167877 0.167654 0.167431 0.167209 0.167039 0.166962 0.166936 0.166910 0.166832 0.166661 0.166436 0.166207 0.165978 0.165750 0.165522 0.165349 0.165270 0.165244 0.165218 0.165139 0.164972 0.164752 0.164538 0.164325 0.164111 0.163902 0.163743 0.163673 0.163650 0.163627 0.163558 0.163409 0.163214 0.163026 0.162837 0.162649 0.162478 0.162347 0.162290 0.162270 0.162251 0.162195 0.162073 0.161914 0.161763 0.161612 0.161461 0.161330 0.161231 0.161185 0.161170 0.161155 0.161110 0.161012 0.160883 0.160765 0.160646 0.160528 0.160420 0.160338 0.160301 0.160289 0.160276 0.160239 0.160159 0.160053 0.159962 0.159871 0.159780 0.159691 0.159623 0.159592 0.159581 0.159571 0.159539 0.159474 0.159388 0.159312 0.159237 0.159161 0.159084 0.159025 0.158998 0.158989 0.158980 0.158953 0.158902 0.158834 0.158768 0.158701 0.158635 0.158568 0.158517 0.158496 0.158489 0.158482 0.158462 0.158418 0.158360 0.158302 0.158243 0.158185 0.158130 0.158088 0.158069 0.158063 0.158057 0.158039 0.157999 0.157946 0.157894 0.157841 0.157788 0.157741 0.157705 0.157688 0.157683 0.157677 0.157660 0.157624 0.157576 0.157529 0.157483 0.157437 0.157393 0.157360 0.157344 0.157339 0.157334 0.157318 0.157284 0.157240 0.157197 0.157155 0.157112 0.157070 0.157038 0.157023 0.157018 
0.195498 0.195446 0.195171 0.194469 0.193537 0.192593 0.191650 0.190706 0.189765 0.189057 0.188784 0.188732 0.188681 0.188410 0.187724 0.186812 0.185942 0.185071 0.184200 0.183390 0.182780 0.182556 0.182514 0.182472 0.182250 0.181699 0.180965 0.180294 0.179622 0.178950 0.178310 0.177828 0.177639 0.177604 0.177568 0.177379 0.176897 0.176256 0.175622 0.174989 0.174356 0.173738 0.173273 0.173094 0.173060 0.173028 0.172855 0.172438 0.171882 0.171386 0.170890 0.170393 0.169955 0.169625 0.169506 0.169484 0.169462 0.169350 0.169071 0.168700 0.168379 0.168058 0.167737 0.167459 0.167250 0.167173 0.167158 0.167144 0.167067 0.166881 0.166633 0.166418 0.166204 0.165989 0.165800 0.165657 0.165601 0.165591 0.165580 0.165525 0.165402 0.165238 0.165090 0.164941 0.164793 0.164660 0.164560 0.164524 0.164517 
0.206366 0.206270 0.205886 0.204988 0.203801 0.202684 0.201568 0.200451 0.199418 0.198637 0.198330 0.198253 0.198178 0.197876 0.197156 0.196203 0.195313 0.194422 0.193532 0.192700 0.192071 0.191816 0.191752 0.191689 0.191435 0.190839 0.190051 0.189316 0.188580 0.187845 0.187158 0.186640 0.186434 0.186383 0.186333 0.186129 0.185649 0.185013 0.184414 0.183815 0.183216 0.182652 0.182226 0.182052 0.182009 0.181966 0.181793 0.181406 0.180893 0.180409 0.179926 0.179442 0.179011 0.178686 0.178552 0.178519 0.178486 0.178353 0.178083 0.177724 0.177448 0.177171 0.176894 0.176650 0.176466 0.176396 0.176379 0.176361 0.176291 0.176121 0.175896 0.175692 0.175488 0.175284 0.175088 0.174941 0.174878 0.174862 0.174849 0.174795 0.174666 0.174494 0.174318 0.174143 0.173967 0.173814 0.173698 0.173649 0.173637 0.173625 0.173575 0.173466 0.173321 0.173178 0.173034 0.172890 0.172758 0.172658 0.172617 0.172607 
