0.303733 0.303670 0.302885 0.298883 0.292543 0.285857 0.279170 0.272483 0.265398 0.260926 0.259961 0.259884 0.259806 0.258843 0.254660 0.248033 0.242342 0.236651 0.230959 0.226140 0.223098 0.222463 0.222412 0.222361 0.221732 0.219048 0.214797 0.211032 0.207268 0.203504 0.200120 0.197984 0.197531 0.197494 0.197458 0.197010 0.195059 0.191968 0.189224 0.186480 0.183735 0.181329 0.179810 0.179493 0.179468 0.179443 0.179130 0.177794 0.175677 0.173840 0.172003 0.170166 0.168546 0.167523 0.167307 0.167290 0.167272 0.167057 0.166115 0.164621 0.163251 0.161880 0.160510 0.159228 0.158420 0.158245 0.158231 
0.303711 0.303560 0.302255 0.298571 0.293651 0.288720 0.283789 0.278858 0.274145 0.270617 0.269369 0.269224 0.269080 0.267834 0.264592 0.260261 0.256524 0.252788 0.249051 0.245875 0.243498 0.242652 0.242555 0.242458 0.241618 0.239447 0.236547 0.234050 0.231552 0.229055 0.226902 0.225291 0.224750 0.224687 0.224626 0.224092 0.222714 0.220874 0.219276 0.217677 0.216079 0.214679 0.213631 0.213271 0.213229 0.213188 0.212831 0.211901 0.210660 0.209540 0.208420 0.207301 0.206288 0.205529 0.205260 0.205229 0.205199 0.204940 0.204240 0.203305 0.202451 0.201598 0.200744 0.199952 0.199358 0.199149 0.199124 0.199100 0.198890 0.198331 0.197585 0.196868 0.196152 0.195436 0.194741 0.194220 0.194031 0.194009 0.193988 0.193799 0.193287 0.192603 0.191925 0.191247 0.190569 0.189893 0.189388 0.189202 0.189180 0.189159 0.188972 0.188463 0.187782 0.187101 0.186421 0.185740 0.185058 0.184548 0.184361 0.184340 0.184318 0.184132 0.183623 0.182943 0.182266 0.181590 0.180913 0.180250 0.179753 0.179574 0.179553 0.179533 0.179354 0.178866 0.178215 0.177573 0.176932 0.176290 0.175661 0.175189 0.175020 0.175000 0.174980 0.174811 0.174349 0.173732 0.173130 0.172527 0.171925 0.171338 0.170898 0.170739 0.170720 0.170702 0.170544 0.170112 0.169536 0.168971 0.168406 0.167841 0.167290 0.166877 0.166729 0.166712 
0.303845 0.304240 0.309475 0.327009 0.354787 0.370335 0.385883 0.401432 0.382232 0.370113 0.365117 0.364740 0.364424 0.360238 0.343613 0.317276 0.297514 0.277751 0.257989 0.244598 0.236145 0.234525 0.234403 0.234284 0.232708 0.226719 0.217230 0.210717 0.204204 0.197692 0.193191 0.190350 0.189801 0.189759 0.189719 0.189182 0.187010 0.183569 0.180699 0.177828 0.174957 0.172054 0.170221 0.169788 0.169755 0.169722 0.169286 0.166981 0.163331 0.159049 0.154767 0.150485 0.146426 0.143864 0.143321 0.143280 0.143239 0.142701 0.140361 0.136654 0.133866 0.131079 0.128292 0.126468 0.125316 0.125104 0.125088 0.125072 0.124866 0.124059 0.122779 0.121932 0.121084 0.120237 0.119660 0.119295 0.119224 0.119219 0.119214 0.119145 0.118866 0.118424 0.118097 0.117769 0.117441 0.117192 0.117034 0.117003 0.117000 0.116998 0.116967 0.116837 0.116631 0.116463 0.116294 0.116126 0.115985 0.115895 0.115877 0.115875 0.115874 0.115856 0.115776 0.115651 0.115542 0.115432 0.115323 0.115227 0.115166 0.115153 0.115152 0.115151 0.115139 0.115084 0.114998 0.114923 0.114847 0.114772 0.114707 0.114665 0.114657 0.114656 0.114656 0.114647 0.114611 0.114553 0.114503 0.114454 0.114404 0.114361 0.114335 0.114329 0.114329 0.114328 0.114323 0.114299 0.114262 0.114231 0.114199 0.114168 0.114142 0.114125 0.114122 0.114121 
0.222393 0.222315 0.221954 0.221043 0.219835 0.218607 0.217379 0.216151 0.214907 0.213970 0.213589 0.213507 0.213426 0.213047 0.212112 0.210870 0.209660 0.208450 0.207240 0.206070 0.205188 0.204837 0.204763 0.204688 0.204340 0.203485 0.202351 0.201271 0.200191 0.199111 0.198102 0.197341 0.197043 0.196979 0.196916 0.196621 0.195911 0.194968 0.194084 0.193201 0.192318 0.191509 0.190899 0.190660 0.190608 0.190558 0.190321 0.189753 0.188998 0.188293 0.187587 0.186882 0.186222 0.185725 0.185528 0.185486 0.185445 0.185249 0.184767 0.184126 0.183498 0.182871 0.182243 0.181638 0.181182 0.181003 0.180964 0.180926 0.180746 0.180307 0.179723 0.179169 0.178616 0.178063 0.177579 0.177215 0.177074 0.177044 0.177015 0.176877 0.176561 0.176142 0.175768 0.175395 0.175021 0.174699 0.174456 0.174361 0.174341 0.174321 0.174226 0.174014 0.173731 0.173475 0.173220 0.172964 0.172737 0.172566 0.172499 0.172484 0.172470 0.172403 0.172253 0.172054 0.171864 0.171675 0.171486 0.171314 0.171185 0.171132 0.171121 0.171110 0.171058 0.170940 0.170784 0.170633 0.170482 0.170331 0.170187 0.170078 0.170035 0.170025 0.170017 0.169978 0.169879 0.169747 0.169620 0.169492 0.169364 0.169239 0.169145 0.169109 0.169102 0.169094 0.169059 0.168970 0.168852 0.168735 0.168618 0.168501 0.168383 0.168294 0.168260 0.168252 
0.259841 0.259671 0.258765 0.256452 0.253376 0.250376 0.247377 0.244377 0.241481 0.239303 0.238478 0.238322 0.238168 0.237350 0.235308 0.232593 0.230025 0.227457 0.224890 0.222500 0.220702 0.220025 0.219898 0.219772 0.219105 0.217450 0.215250 0.213269 0.211289 0.209309 0.207601 0.206317 0.205837 0.205747 0.205658 0.205189 0.204059 0.202557 0.201283 0.200010 0.198736 0.197797 0.197090 0.196821 0.196770 0.196720 0.196453 0.195778 0.194882 0.193994 0.193105 0.192217 0.191351 0.190699 0.190448 0.190400 0.190353 0.190102 0.189468 0.188625 0.187804 0.186983 0.186162 0.185358 0.184753 0.184523 0.184479 0.184436 0.184208 0.183637 0.182878 0.182200 0.181522 0.180844 0.180261 0.179822 0.179656 0.179625 0.179594 0.179431 0.179061 0.178568 0.178146 0.177724 0.177302 0.176941 0.176669 0.176577 0.176560 0.176542 0.176450 0.176216 0.175905 0.175639 0.175373 0.175107 0.174879 0.174708 0.174644 0.174631 0.174619 0.174555 0.174398 0.174190 0.174002 0.173813 0.173624 0.173448 0.173315 0.173263 0.173253 0.173245 0.173199 0.173080 0.172922 0.172771 0.172620 0.172470 0.172326 0.172219 0.172178 0.172170 
0.269166 0.268936 0.268086 0.266138 0.263563 0.261188 0.258814 0.256440 0.254242 0.252578 0.251886 0.251698 0.251512 0.250823 0.249232 0.247128 0.245107 0.243087 0.241066 0.239164 0.237725 0.237122 0.236958 0.236795 0.236194 0.234815 0.232992 0.231250 0.229507 0.227765 0.226096 0.224833 0.224311 0.224169 0.224029 0.223514 0.222341 0.220791 0.219339 0.217887 0.216434 0.215120 0.214125 0.213721 0.213611 0.213504 0.213109 0.212236 0.211081 0.210050 0.209018 0.207987 0.207058 0.206355 0.206073 0.205996 0.205921 0.205645 0.205027 0.204211 0.203596 0.202981 0.202366 0.201775 0.201329 0.201139 0.201088 0.201037 0.200848 0.200412 0.199834 0.199269 0.198704 0.198139 0.197576 0.197150 0.196971 0.196922 0.196873 0.196694 0.196277 0.195725 0.195171 0.194618 0.194064 0.193510 0.193090 0.192912 0.192864 0.192816 0.192638 0.192222 0.191673 0.191131 0.190589 0.190047 0.189514 0.189112 0.188941 0.188895 0.188849 0.188679 0.188286 0.187768 0.187264 0.186759 0.186254 0.185771 0.185406 0.185256 0.185215 0.185175 0.185026 0.184683 0.184230 0.183815 0.183400 0.182985 0.182606 0.182320 0.182201 0.182169 0.182137 0.182019 0.181774 0.181450 0.181155 0.180860 0.180564 0.180305 0.180108 0.180031 0.180010 0.179989 0.179912 0.179734 0.179498 0.179289 0.179081 0.178872 0.178684 0.178542 0.178482 0.178466 0.178449 0.178389 0.178266 0.178103 0.177944 0.177786 0.177627 0.177488 0.177383 0.177340 0.177328 0.177317 0.177274 0.177173 0.177040 0.176921 0.176801 0.176682 0.176564 0.176475 0.176437 0.176426 0.176416 0.176377 0.176297 0.176190 0.176086 0.175982 0.175877 0.175783 0.175712 0.175681 0.175673 0.175665 0.175634 0.175562 0.175467 0.175380 0.175292 0.175205 0.175118 0.175053 0.175024 0.175017 0.175009 0.174981 0.174921 0.174843 0.174761 0.174680 0.174598 0.174525 0.174469 0.174445 0.174438 
0.242508 0.242320 0.241851 0.240920 0.239703 0.238520 0.237337 0.236154 0.235005 0.234125 0.233700 0.233530 0.233361 0.232940 0.232101 0.231006 0.229952 0.228899 0.227845 0.226836 0.226063 0.225690 0.225541 0.225393 0.225025 0.224285 0.223320 0.222385 0.221451 0.220517 0.219617 0.218928 0.218593 0.218458 0.218325 0.217992 0.217351 0.216514 0.215717 0.214919 0.214121 0.213362 0.212781 0.212501 0.212389 0.212278 0.212003 0.211464 0.210760 0.210092 0.209424 0.208756 0.208128 0.207646 0.207421 0.207331 0.207242 0.207021 0.206589 0.206026 0.205496 0.204966 0.204436 0.203932 0.203545 0.203360 0.203286 0.203213 0.203031 0.202676 0.202213 0.201781 0.201350 0.200919 0.200552 0.200271 0.200140 0.200087 0.200035 0.199904 0.199642 0.199300 0.198962 0.198625 0.198287 0.197953 0.197697 0.197570 0.197520 0.197469 0.197343 0.197090 0.196760 0.196437 0.196114 0.195791 0.195466 0.195217 0.195094 0.195044 0.194993 0.194863 0.194600 0.194256 0.193915 0.193573 0.193231 0.192891 0.192631 0.192502 0.192451 0.192399 0.192270 0.192012 0.191675 0.191341 0.191006 0.190672 0.190339 0.190085 0.189959 0.189909 0.189858 0.189733 0.189482 0.189154 0.188833 0.188511 0.188190 0.187872 0.187629 0.187509 0.187461 0.187412 0.187292 0.187052 0.186738 0.186439 0.186140 0.185841 0.185548 0.185324 0.185213 0.185169 0.185125 0.185015 0.184795 0.184507 0.184239 0.183971 0.183702 0.183452 0.183261 0.183167 0.183130 0.183092 0.183000 0.182816 0.182575 0.182353 0.182131 0.181909 0.181721 0.181576 0.181506 0.181478 0.181450 0.181380 0.181240 0.181058 0.180882 0.180706 0.180530 0.180395 0.180291 0.180242 0.180222 0.180203 0.180154 0.180057 0.179932 0.179807 0.179682 0.179557 0.179445 0.179358 0.179324 0.179310 0.179296 0.179261 0.179190 0.179097 0.179007 0.178916 0.178826 0.178736 0.178668 0.178639 0.178627 0.178618 0.178595 0.178549 0.178488 0.178426 0.178363 0.178301 0.178236 0.178186 0.178161 0.178151 0.178141 0.178116 0.178081 0.178034 0.177988 0.177942 0.177896 0.177849 0.177813 0.177794 0.177787 0.177780 0.177761 0.177729 0.177687 0.177653 0.177620 0.177587 0.177552 0.177525 0.177511 0.177506 0.177500 0.177486 0.177458 0.177422 0.177396 0.177371 0.177346 0.177320 0.177301 0.177291 0.177287 0.177283 0.177273 0.177252 0.177225 0.177203 0.177181 0.177159 0.177141 0.177127 0.177119 0.177116 0.177114 0.177106 0.177091 0.177072 0.177053 0.177035 0.177017 0.177004 0.176994 0.176989 0.176987 0.176985 0.176979 0.176969 0.176955 0.176941 0.176926 0.176912 0.176904 0.176898 0.176895 0.176893 
0.205209 0.205130 0.204900 0.204410 0.203768 0.203151 0.202535 0.201918 0.201329 0.200881 0.200677 0.200607 0.200538 0.200336 0.199909 0.199350 0.198814 0.198278 0.197742 0.197229 0.196838 0.196662 0.196601 0.196541 0.196366 0.195996 0.195510 0.195045 0.194581 0.194117 0.193677 0.193342 0.193189 0.193136 0.193084 0.192931 0.192607 0.192181 0.191771 0.191361 0.190950 0.190557 0.190257 0.190121 0.190074 0.190027 0.189891 0.189599 0.189217 0.188847 0.188477 0.188108 0.187750 0.187477 0.187353 0.187310 0.187267 0.187143 0.186879 0.186532 0.186202 0.185871 0.185540 0.185213 0.184964 0.184850 0.184811 0.184771 0.184657 0.184417 0.184102 0.183802 0.183501 0.183201 0.182906 0.182682 0.182579 0.182543 0.182508 0.182406 0.182198 0.181926 0.181663 0.181399 0.181136 0.180878 0.180681 0.180593 0.180563 0.180535 0.180454 0.180281 0.180055 0.179847 0.179638 0.179430 0.179247 0.179106 0.179051 0.179033 0.179014 0.178959 0.178842 0.178689 0.178542 0.178395 0.178248 0.178127 0.178036 0.177996 0.177982 0.177969 0.177929 0.177844 0.177732 0.177627 0.177521 0.177416 0.177336 0.177275 0.177247 0.177237 0.177227 0.177198 0.177136 0.177053 0.176981 0.176908 0.176835 0.176775 0.176730 0.176708 0.176700 0.176693 0.176671 0.176623 0.176560 0.176512 0.176464 0.176416 0.176373 0.176341 0.176325 0.176320 0.176315 0.176299 0.176265 0.176220 0.176191 0.176163 0.176134 0.176105 0.176082 0.176072 0.176068 0.176064 0.176054 0.176036 0.176013 0.175995 0.175978 0.175961 0.175945 0.175932 0.175926 0.175924 0.175921 0.175915 0.175911 0.175906 0.175902 0.175897 0.175893 0.175887 0.175883 0.175882 0.175882 0.175883 0.175885 0.175890 0.175896 0.175904 0.175911 0.175919 0.175929 0.175937 0.175944 0.175946 
0.184331 0.184297 0.184185 0.183932 0.183599 0.183269 0.182938 0.182607 0.182283 0.182037 0.181929 0.181896 0.181864 0.181756 0.181516 0.181199 0.180890 0.180581 0.180272 0.179972 0.179745 0.179645 0.179614 0.179583 0.179484 0.179261 0.178968 0.178682 0.178396 0.178110 0.177830 0.177617 0.177525 0.177497 0.177469 0.177378 0.177174 0.176905 0.176643 0.176380 0.176118 0.175866 0.175675 0.175591 0.175565 0.175540 0.175457 0.175270 0.175025 0.174790 0.174555 0.174321 0.174092 0.173919 0.173843 0.173820 0.173797 0.173721 0.173558 0.173342 0.173134 0.172925 0.172717 0.172516 0.172363 0.172299 0.172279 0.172260 0.172196 0.172052 0.171862 0.171680 0.171498 0.171316 0.171148 0.171020 0.170965 0.170948 0.170931 0.170875 0.170751 0.170587 0.170494 0.170401 0.170308 0.170223 0.170159 0.170130 0.170121 0.170113 0.170086 0.170035 0.169967 0.169897 0.169827 0.169757 0.169697 0.169651 0.169631 0.169626 0.169620 0.169600 0.169554 0.169492 0.169437 0.169381 0.169326 0.169277 0.169240 0.169224 0.169219 0.169214 0.169197 0.169159 0.169110 0.169067 0.169024 0.168981 0.168936 0.168901 0.168887 0.168883 0.168880 0.168868 0.168842 0.168807 0.168770 0.168732 0.168695 0.168667 0.168645 0.168636 0.168633 0.168630 0.168620 0.168598 0.168569 0.168546 0.168523 0.168500 0.168481 0.168466 0.168460 0.168458 
0.166707 0.166689 0.166650 0.166575 0.166477 0.166379 0.166281 0.166183 0.166084 0.166007 0.165967 0.165949 0.165931 0.165890 0.165815 0.165716 0.165621 0.165526 0.165430 0.165335 0.165261 0.165222 0.165205 0.165187 0.165148 0.165075 0.164979 0.164885 0.164790 0.164696 0.164604 0.164533 0.164495 0.164478 0.164461 0.164423 0.164352 0.164260 0.164168 0.164076 0.163984 0.163892 0.163822 0.163786 0.163770 0.163754 0.163718 0.163650 0.163562 0.163474 0.163387 0.163299 0.163212 0.163145 0.163109 0.163093 0.163077 0.163042 0.162976 0.162891 0.162809 0.162726 0.162644 0.162562 0.162498 0.162465 0.162450 0.162434 0.162401 0.162338 0.162256 0.162177 0.162098 0.162019 0.161942 0.161883 0.161852 0.161838 0.161824 0.161793 0.161734 0.161659 0.161583 0.161507 0.161432 0.161359 0.161303 0.161274 0.161261 0.161248 0.161219 0.161165 0.161095 0.161026 0.160956 0.160886 0.160817 0.160764 0.160736 0.160723 0.160710 0.160682 0.160632 0.160568 0.160504 0.160441 0.160378 0.160315 0.160266 0.160240 0.160229 0.160217 0.160192 0.160143 0.160081 0.160022 0.159964 0.159905 0.159849 0.159805 0.159782 0.159771 0.159761 0.159737 0.159694 0.159637 0.159581 0.159524 0.159467 0.159416 0.159377 0.159356 0.159347 0.159337 0.159317 0.159278 0.159228 0.159187 0.159147 0.159107 0.159089 0.159075 0.159068 0.159064 0.159062 0.159056 0.159047 0.159034 0.159022 0.159009 0.158997 0.158984 0.158974 0.158969 0.158967 0.158964 0.158959 0.158948 0.158935 0.158925 0.158916 0.158907 0.158897 0.158889 0.158885 0.158883 0.158881 0.158877 0.158869 0.158859 0.158849 0.158838 0.158828 0.158821 0.158816 0.158813 0.158811 0.158810 0.158807 0.158800 0.158792 0.158783 0.158773 0.158764 0.158754 0.158747 0.158744 0.158743 0.158742 0.158740 0.158735 0.158730 0.158722 0.158715 0.158708 0.158700 0.158694 0.158690 0.158688 0.158687 0.158683 0.158676 0.158668 0.158661 0.158655 0.158648 0.158640 0.158634 0.158631 0.158629 0.158628 0.158624 0.158617 0.158607 0.158599 0.158591 0.158583 0.158577 0.158572 0.158569 0.158568 0.158567 0.158564 0.158558 0.158550 0.158542 0.158534 0.158526 0.158518 0.158513 0.158511 0.158510 0.158509 0.158507 0.158503 0.158497 0.158491 0.158485 0.158479 0.158472 0.158467 0.158464 0.158463 0.158461 0.158458 0.158455 0.158451 0.158447 0.158443 0.158439 0.158435 0.158432 0.158430 0.158429 
