0.277739 0.277698 0.277177 0.273597 0.267927 0.259743 0.251560 0.243377 0.235585 0.230666 0.229666 0.229587 0.229509 0.228518 0.224507 0.218153 0.213397 0.208640 0.203884 0.200218 0.197904 0.197435 0.197398 0.197361 0.196898 0.194945 0.191852 0.189222 0.186592 0.183962 0.181701 0.180274 0.179975 0.179951 0.179928 0.179633 0.178355 0.176330 0.174510 0.172691 0.170871 0.169192 0.168131 0.167902 0.167884 0.167866 0.167640 0.166610 0.164979 0.163406 0.161832 0.160258 0.158743 0.157786 0.157578 0.157562 0.157546 0.157339 0.156424 0.154976 0.153625 0.152275 0.150925 0.149678 0.148891 0.148722 0.148709 0.148696 0.148528 0.147796 0.146636 0.145570 0.144504 0.143439 0.142462 0.141846 0.141714 0.141703 
0.277717 0.277589 0.276450 0.273185 0.268823 0.264674 0.260526 0.256377 0.252738 0.250014 0.249087 0.248983 0.248879 0.247952 0.245528 0.242291 0.239471 0.236652 0.233833 0.231408 0.229593 0.228991 0.228923 0.228856 0.228260 0.226719 0.224659 0.222916 0.221172 0.219428 0.217938 0.216822 0.216433 0.216389 0.216346 0.215963 0.214982 0.213671 0.212509 0.211347 0.210184 0.209152 0.208379 0.208114 0.208084 0.208054 0.207791 0.207090 0.206154 0.205298 0.204441 0.203585 0.202794 0.202202 0.201994 0.201970 0.201948 0.201747 0.201201 0.200471 0.199787 0.199102 0.198417 0.197779 0.197302 0.197133 0.197114 0.197095 0.196926 0.196473 0.195869 0.195298 0.194726 0.194154 0.193615 0.193211 0.193068 0.193052 0.193035 0.192891 0.192505 0.191988 0.191491 0.190994 0.190497 0.190003 0.189634 0.189497 0.189482 0.189466 0.189331 0.188963 0.188472 0.187993 0.187514 0.187034 0.186559 0.186202 0.186073 0.186059 0.186044 0.185915 0.185558 0.185081 0.184599 0.184118 0.183636 0.183155 0.182795 0.182665 0.182650 0.182635 0.182505 0.182143 0.181660 0.181177 0.180693 0.180210 0.179723 0.179358 0.179225 0.179210 0.179195 0.179063 0.178697 0.178208 0.177712 0.177215 0.176718 0.176218 0.175844 0.175708 0.175693 0.175677 0.175541 0.175167 0.174667 0.174164 0.173662 0.173159 0.172656 0.172280 0.172143 0.172128 0.172113 0.171975 0.171597 0.171092 0.170589 0.170086 0.169583 0.169080 0.168704 0.168568 0.168553 0.168538 0.168403 0.168031 0.167535 0.167044 0.166553 0.166063 0.165580 0.165219 0.165088 0.165074 0.165059 0.164929 0.164573 0.164096 0.163629 0.163161 0.162694 0.162234 0.161890 0.161766 0.161752 0.161739 0.161615 0.161279 0.160830 0.160392 0.159953 0.159514 0.159085 0.158764 0.158648 0.158635 0.158622 0.158507 0.158192 0.157770 0.157361 0.156951 0.156541 0.156140 0.155839 0.155731 0.155719 0.155707 0.155599 0.155306 0.154914 0.154533 0.154151 0.153770 0.153397 0.153118 0.153018 0.153007 0.152996 0.152896 0.152625 0.152262 0.151908 0.151554 0.151200 0.150855 0.150597 0.150504 0.150494 0.150483 0.150391 0.150140 0.149804 0.149476 0.149149 0.148821 0.148501 0.148262 0.148176 0.148166 0.148157 0.148071 0.147838 0.147526 0.147222 0.146917 0.146613 0.146316 0.146094 0.146014 0.146005 0.145996 0.145917 0.145699 0.145408 0.145123 0.144839 0.144554 0.144275 0.144066 0.143991 0.143983 
0.277823 0.278122 0.282162 0.300255 0.328920 0.345768 0.362615 0.379463 0.369389 0.363031 0.360602 0.360423 0.360209 0.357311 0.343961 0.322812 0.304766 0.286720 0.268674 0.254974 0.246327 0.244683 0.244562 0.244444 0.242852 0.236666 0.226866 0.220433 0.214000 0.207567 0.202893 0.199943 0.199320 0.199274 0.199228 0.198605 0.195969 0.191792 0.187576 0.183360 0.179143 0.174454 0.171494 0.170774 0.170721 0.170667 0.169933 0.166189 0.160257 0.154647 0.149037 0.143427 0.139317 0.136723 0.136230 0.136194 0.136159 0.135679 0.133825 0.130888 0.129008 0.127128 0.125248 0.124082 0.123346 0.123205 0.123195 0.123185 0.123053 0.122537 0.121718 0.121158 0.120597 0.120037 0.119635 0.119382 0.119332 0.119328 0.119324 0.119275 0.119074 0.118754 0.118502 0.118249 0.117996 0.117792 0.117664 0.117638 0.117636 0.117634 0.117608 0.117498 0.117325 0.117181 0.117036 0.116892 0.116771 0.116695 0.116679 0.116678 0.116677 0.116661 0.116595 0.116490 0.116401 0.116311 0.116222 0.116146 0.116098 0.116088 0.116087 0.116087 0.116077 0.116035 0.115968 0.115910 0.115853 0.115796 0.115746 0.115715 0.115709 0.115708 0.115708 0.115701 0.115674 0.115630 0.115592 0.115553 0.115515 0.115481 0.115459 0.115455 0.115454 0.115454 0.115449 0.115430 0.115398 0.115369 0.115340 0.115310 0.115282 0.115264 0.115260 0.115260 
0.148706 0.148696 0.148654 0.148555 0.148423 0.148291 0.148158 0.148026 0.147892 0.147791 0.147748 0.147737 0.147727 0.147684 0.147581 0.147445 0.147308 0.147171 0.147033 0.146895 0.146791 0.146748 0.146737 0.146726 0.146683 0.146578 0.146440 0.146301 0.146162 0.146022 0.145883 0.145777 0.145733 0.145722 0.145710 0.145666 0.145560 0.145419 0.145277 0.145135 0.144993 0.144850 0.144742 0.144697 0.144686 0.144675 0.144630 0.144523 0.144381 0.144239 0.144098 0.143956 0.143814 0.143707 0.143663 0.143652 0.143641 0.143596 0.143490 0.143349 0.143209 0.143069 0.142930 0.142792 0.142687 0.142644 0.142633 0.142623 0.142580 0.142477 0.142340 0.142207 0.142073 0.141940 0.141808 0.141708 0.141668 0.141658 0.141648 0.141608 0.141512 0.141385 0.141262 0.141138 0.141014 0.140901 0.140816 0.140786 0.140778 0.140771 0.140741 0.140677 0.140591 0.140509 0.140427 0.140345 0.140273 0.140219 0.140196 0.140191 0.140185 0.140163 0.140110 0.140040 0.139979 0.139917 0.139856 0.139798 0.139754 0.139737 0.139732 0.139728 0.139711 0.139670 0.139615 0.139564 0.139513 0.139462 0.139412 0.139375 0.139360 0.139356 0.139352 0.139339 0.139307 0.139264 0.139223 0.139182 0.139140 0.139103 0.139075 0.139063 0.139060 0.139057 0.139045 0.139019 0.138984 0.138951 0.138918 0.138885 0.138856 0.138834 0.138824 0.138822 
0.157559 0.157549 0.157502 0.157385 0.157230 0.157068 0.156906 0.156744 0.156575 0.156448 0.156395 0.156384 0.156372 0.156318 0.156185 0.156008 0.155827 0.155646 0.155464 0.155276 0.155134 0.155076 0.155063 0.155049 0.154990 0.154842 0.154645 0.154444 0.154242 0.154040 0.153836 0.153682 0.153619 0.153605 0.153591 0.153528 0.153373 0.153167 0.152960 0.152753 0.152547 0.152339 0.152183 0.152119 0.152105 0.152091 0.152027 0.151871 0.151664 0.151460 0.151256 0.151052 0.150853 0.150703 0.150642 0.150629 0.150615 0.150555 0.150439 0.150285 0.150142 0.150000 0.149857 0.149726 0.149628 0.149588 0.149580 0.149571 0.149532 0.149444 0.149327 0.149215 0.149104 0.148992 0.148885 0.148805 0.148773 0.148765 0.148758 0.148726 0.148652 0.148555 0.148458 0.148362 0.148266 0.148173 0.148103 0.148075 0.148068 0.148062 0.148033 0.147968 0.147881 0.147796 0.147711 0.147626 0.147545 0.147483 0.147458 0.147453 0.147447 0.147422 0.147364 0.147287 0.147211 0.147135 0.147060 0.146987 0.146933 0.146911 0.146906 
0.179943 0.179909 0.179758 0.179383 0.178887 0.178401 0.177915 0.177428 0.176954 0.176597 0.176454 0.176422 0.176391 0.176248 0.175897 0.175432 0.174972 0.174513 0.174054 0.173607 0.173270 0.173135 0.173105 0.173076 0.172942 0.172614 0.172178 0.171749 0.171320 0.170891 0.170473 0.170158 0.170032 0.170004 0.169977 0.169852 0.169546 0.169140 0.168749 0.168358 0.167966 0.167589 0.167305 0.167193 0.167168 0.167143 0.167033 0.166764 0.166408 0.166072 0.165735 0.165398 0.165079 0.164839 0.164745 0.164725 0.164705 0.164615 0.164425 0.164173 0.163948 0.163723 0.163498 0.163292 0.163137 0.163079 0.163066 0.163054 0.163001 0.162871 0.162699 0.162543 0.162387 0.162232 0.162087 0.161979 0.161939 0.161930 0.161922 0.161885 0.161793 0.161672 0.161560 0.161448 0.161337 0.161230 0.161150 0.161121 0.161115 0.161109 0.161083 0.161016 0.160928 0.160847 0.160766 0.160685 0.160608 0.160551 0.160531 0.160526 0.160522 0.160503 0.160456 0.160393 0.160337 0.160280 0.160224 0.160173 0.160134 0.160121 0.160118 0.160115 0.160103 0.160072 0.160030 0.159993 0.159957 0.159920 0.159887 0.159861 0.159853 0.159851 
0.197384 0.197327 0.197082 0.196492 0.195711 0.194945 0.194180 0.193414 0.192687 0.192138 0.191919 0.191868 0.191817 0.191600 0.191075 0.190379 0.189727 0.189074 0.188422 0.187821 0.187367 0.187190 0.187148 0.187107 0.186931 0.186503 0.185936 0.185394 0.184852 0.184310 0.183775 0.183372 0.183205 0.183166 0.183127 0.182959 0.182548 0.182002 0.181463 0.180924 0.180384 0.179855 0.179455 0.179294 0.179257 0.179219 0.179059 0.178671 0.178157 0.177658 0.177159 0.176660 0.176184 0.175824 0.175680 0.175646 0.175613 0.175469 0.175126 0.174670 0.174244 0.173818 0.173392 0.173010 0.172722 0.172609 0.172582 0.172556 0.172444 0.172176 0.171821 0.171510 0.171199 0.170888 0.170611 0.170401 0.170321 0.170303 0.170284 0.170205 0.170014 0.169761 0.169546 0.169332 0.169118 0.168924 0.168778 0.168725 0.168713 0.168701 0.168648 0.168520 0.168350 0.168201 0.168052 0.167903 0.167762 0.167656 0.167619 0.167610 0.167601 0.167564 0.167472 0.167351 0.167241 0.167132 0.167023 0.166920 0.166842 0.166814 0.166807 0.166801 0.166774 0.166709 0.166621 0.166540 0.166459 0.166377 0.166300 0.166242 0.166218 0.166213 0.166208 0.166187 0.166138 0.166073 0.166012 0.165951 0.165890 0.165834 0.165791 0.165773 0.165769 0.165765 0.165747 0.165708 0.165658 0.165609 0.165561 0.165512 0.165468 0.165435 0.165421 0.165418 
0.229551 0.229408 0.228980 0.228055 0.226838 0.225649 0.224461 0.223272 0.222109 0.221224 0.220821 0.220687 0.220553 0.220153 0.219292 0.218160 0.217079 0.215998 0.214917 0.213876 0.213084 0.212729 0.212611 0.212494 0.212143 0.211409 0.210444 0.209546 0.208648 0.207751 0.206917 0.206282 0.206002 0.205908 0.205816 0.205540 0.204956 0.204190 0.203475 0.202761 0.202047 0.201374 0.200862 0.200636 0.200561 0.200487 0.200264 0.199791 0.199170 0.198684 0.198197 0.197711 0.197260 0.196917 0.196763 0.196711 0.196660 0.196507 0.196176 0.195741 0.195314 0.194888 0.194461 0.194045 0.193729 0.193586 0.193539 0.193491 0.193349 0.193040 0.192634 0.192235 0.191835 0.191436 0.191041 0.190741 0.190603 0.190557 0.190511 0.190374 0.190075 0.189683 0.189295 0.188907 0.188519 0.188126 0.187827 0.187688 0.187642 0.187596 0.187458 0.187154 0.186754 0.186350 0.185947 0.185543 0.185140 0.184834 0.184694 0.184647 0.184601 0.184461 0.184158 0.183759 0.183367 0.182976 0.182584 0.182199 0.181906 0.181774 0.181730 0.181685 0.181554 0.181269 0.180895 0.180532 0.180168 0.179805 0.179452 0.179183 0.179062 0.179021 0.178981 0.178860 0.178599 0.178258 0.177928 0.177598 0.177268 0.176946 0.176701 0.176591 0.176554 0.176517 0.176407 0.176177 0.175874 0.175582 0.175289 0.174996 0.174715 0.174501 0.174410 0.174380 0.174350 0.174262 0.174072 0.173822 0.173581 0.173339 0.173097 0.172879 0.172712 0.172642 0.172619 0.172595 0.172526 0.172376 0.172179 0.171991 0.171802 0.171613 0.171460 0.171344 0.171291 0.171274 0.171256 0.171204 0.171091 0.170942 0.170809 0.170676 0.170542 0.170430 0.170344 0.170305 0.170292 0.170279 0.170240 0.170155 0.170043 0.169954 0.169864 0.169774 0.169689 0.169625 0.169595 0.169586 0.169576 0.169546 0.169482 0.169398 0.169333 0.169267 0.169202 0.169133 0.169081 0.169058 0.169050 0.169042 0.169018 0.168975 0.168919 0.168868 0.168816 0.168765 0.168711 0.168670 0.168652 0.168646 0.168641 0.168627 0.168596 0.168555 0.168512 0.168470 0.168427 0.168386 0.168355 0.168344 0.168340 0.168336 0.168324 0.168299 0.168265 0.168230 0.168194 0.168159 0.168131 0.168109 0.168100 0.168097 0.168093 0.168084 0.168062 0.168034 0.168007 0.167980 0.167953 0.167931 0.167914 0.167906 0.167903 0.167900 0.167892 0.167875 0.167851 0.167831 0.167810 0.167790 0.167772 0.167758 0.167751 0.167749 0.167747 0.167740 0.167725 0.167705 0.167689 0.167672 0.167656 0.167639 0.167627 0.167621 0.167619 0.167617 0.167611 0.167600 0.167586 0.167573 0.167561 0.167548 0.167536 0.167526 0.167522 0.167521 
0.248938 0.248761 0.247902 0.245774 0.242948 0.240283 0.237619 0.234954 0.232429 0.230527 0.229771 0.229615 0.229462 0.228718 0.226915 0.224520 0.222309 0.220097 0.217885 0.215968 0.214525 0.213986 0.213875 0.213767 0.213241 0.212057 0.210484 0.209144 0.207804 0.206464 0.205522 0.204813 0.204537 0.204480 0.204424 0.204150 0.203477 0.202583 0.201729 0.200876 0.200022 0.199209 0.198597 0.198358 0.198308 0.198259 0.198022 0.197437 0.196661 0.195903 0.195146 0.194389 0.193650 0.193094 0.192874 0.192828 0.192783 0.192563 0.192014 0.191285 0.190541 0.189797 0.189053 0.188305 0.187742 0.187514 0.187467 0.187421 0.187194 0.186634 0.185890 0.185175 0.184459 0.183744 0.183065 0.182554 0.182355 0.182314 0.182273 0.182077 0.181601 0.180970 0.180379 0.179788 0.179198 0.178648 0.178234 0.178077 0.178045 0.178015 0.177867 0.177502 0.177018 0.176597 0.176177 0.175757 0.175394 0.175121 0.175032 0.175014 0.174995 0.174907 0.174686 0.174394 0.174160 0.173927 0.173693 0.173497 0.173349 0.173300 0.173290 0.173280 0.173231 0.173104 0.172937 0.172802 0.172668 0.172533 0.172420 0.172335 0.172304 0.172298 0.172292 0.172261 0.172183 0.172079 0.171990 0.171900 0.171810 0.171735 0.171678 0.171656 0.171651 0.171647 0.171624 0.171571 0.171502 0.171439 0.171377 0.171315 0.171260 0.171218 0.171201 0.171197 0.171194 0.171176 0.171138 0.171088 0.171043 0.170997 0.170952 0.170910 0.170879 0.170866 0.170863 
0.228883 0.228724 0.228289 0.227393 0.226219 0.225101 0.223984 0.222866 0.221811 0.221006 0.220631 0.220495 0.220359 0.219988 0.219229 0.218234 0.217291 0.216348 0.215404 0.214541 0.213882 0.213580 0.213470 0.213361 0.213064 0.212454 0.211655 0.210903 0.210152 0.209400 0.208695 0.208156 0.207906 0.207815 0.207725 0.207479 0.206978 0.206321 0.205709 0.205096 0.204484 0.203907 0.203466 0.203261 0.203187 0.203113 0.202911 0.202498 0.201957 0.201447 0.200938 0.200429 0.199952 0.199587 0.199421 0.199361 0.199305 0.199152 0.198854 0.198465 0.198083 0.197702 0.197321 0.196948 0.196663 0.196529 0.196480 0.196431 0.196298 0.196021 0.195657 0.195302 0.194946 0.194591 0.194243 0.193978 0.193851 0.193804 0.193758 0.193630 0.193363 0.193012 0.192657 0.192302 0.191948 0.191584 0.191307 0.191175 0.191127 0.191079 0.190947 0.190669 0.190305 0.189941 0.189577 0.189213 0.188850 0.188573 0.188441 0.188394 0.188346 0.188214 0.187938 0.187577 0.187217 0.186857 0.186497 0.186143 0.185874 0.185747 0.185700 0.185654 0.185528 0.185262 0.184913 0.184572 0.184230 0.183888 0.183554 0.183300 0.183180 0.183136 0.183093 0.182974 0.182726 0.182400 0.182086 0.181772 0.181458 0.181156 0.180925 0.180817 0.180777 0.180738 0.180631 0.180407 0.180113 0.179833 0.179554 0.179274 0.179005 0.178800 0.178704 0.178669 0.178634 0.178538 0.178339 0.178077 0.177837 0.177597 0.177358 0.177131 0.176959 0.176878 0.176849 0.176819 0.176739 0.176574 0.176357 0.176170 0.175984 0.175797 0.175624 0.175491 0.175430 0.175407 0.175385 0.175323 0.175196 0.175030 0.174899 0.174768 0.174637 0.174514 0.174421 0.174377 0.174361 0.174345 0.174301 0.174210 0.174091 0.174006 0.173921 0.173836 0.173752 0.173688 0.173658 0.173646 0.173635 0.173605 0.173543 0.173462 0.173405 0.173348 0.173291 0.173232 0.173188 0.173166 0.173159 0.173151 0.173129 0.173089 0.173036 0.172996 0.172956 0.172917 0.172874 0.172842 0.172826 0.172820 0.172815 0.172799 0.172771 0.172735 0.172705 0.172675 0.172646 0.172614 0.172589 0.172577 0.172573 0.172569 0.172557 0.172538 0.172513 0.172492 0.172471 0.172449 0.172426 0.172409 0.172400 0.172397 0.172394 0.172385 0.172373 0.172357 0.172340 0.172323 0.172306 0.172288 0.172274 0.172267 0.172264 0.172262 0.172255 0.172246 0.172234 0.172221 0.172208 0.172195 0.172181 0.172171 0.172166 0.172164 0.172162 0.172159 0.172153 0.172145 0.172136 0.172127 0.172118 0.172107 0.172100 0.172096 0.172095 0.172094 0.172092 0.172087 0.172082 0.172075 0.172068 0.172061 0.172053 0.172048 0.172046 0.172045 0.172045 0.172044 0.172040 0.172036 0.172031 0.172025 0.172019 0.172013 0.172009 0.172008 0.172007 
0.208061 0.207970 0.207329 0.205727 0.203589 0.201763 0.199938 0.198112 0.196565 0.195406 0.195006 0.194949 0.194894 0.194504 0.193510 0.192186 0.191005 0.189824 0.188642 0.187518 0.186674 0.186368 0.186325 0.186282 0.185979 0.185183 0.184121 0.183119 0.182117 0.181115 0.180203 0.179519 0.179273 0.179238 0.179205 0.178971 0.178360 0.177545 0.176866 0.176187 0.175507 0.174971 0.174569 0.174447 0.174430 0.174413 0.174292 0.174011 0.173635 0.173381 0.173127 0.172873 0.172716 0.172598 0.172559 0.172554 0.172548 0.172508 0.172434 0.172336 0.172270 0.172205 0.172139 0.172106 0.172081 0.172073 0.172072 0.172072 0.172069 0.172059 0.172044 0.172050 0.172057 0.172063 0.172081 0.172094 0.172102 0.172103 
0.197099 0.197040 0.196814 0.196290 0.195597 0.194941 0.194286 0.193631 0.193013 0.192546 0.192353 0.192303 0.192253 0.192062 0.191617 0.191028 0.190468 0.189907 0.189347 0.188821 0.188423 0.188261 0.188219 0.188177 0.188017 0.187650 0.187165 0.186700 0.186236 0.185771 0.185321 0.184981 0.184841 0.184805 0.184769 0.184630 0.184315 0.183898 0.183492 0.183087 0.182681 0.182289 0.181993 0.181869 0.181837 0.181805 0.181682 0.181393 0.181011 0.180650 0.180288 0.179926 0.179574 0.179308 0.179200 0.179172 0.179144 0.179036 0.178783 0.178448 0.178131 0.177814 0.177497 0.177195 0.176967 0.176872 0.176847 0.176823 0.176728 0.176520 0.176245 0.175977 0.175708 0.175440 0.175200 0.175019 0.174944 0.174925 0.174905 0.174831 0.174660 0.174433 0.174241 0.174049 0.173857 0.173677 0.173540 0.173492 0.173479 0.173467 0.173418 0.173307 0.173160 0.173028 0.172896 0.172764 0.172649 0.172561 0.172525 0.172515 0.172506 0.172469 0.172392 0.172291 0.172199 0.172107 0.172015 0.171940 0.171884 0.171861 0.171856 0.171850 0.171828 0.171775 0.171705 0.171648 0.171592 0.171535 0.171477 0.171434 0.171417 0.171413 0.171409 0.171396 0.171362 0.171317 0.171276 0.171234 0.171193 0.171160 0.171136 0.171125 0.171122 0.171119 0.171109 0.171087 0.171057 0.171034 0.171012 0.170989 0.170971 0.170958 0.170954 0.170953 0.170952 0.170947 0.170936 0.170920 0.170910 0.170899 0.170889 0.170879 0.170872 0.170869 0.170868 0.170868 0.170866 0.170864 0.170861 0.170858 0.170855 0.170852 0.170853 0.170854 0.170854 0.170854 
0.189471 0.189427 0.189143 0.188399 0.187407 0.186476 0.185545 0.184614 0.183766 0.183129 0.182898 0.182862 0.182827 0.182598 0.182007 0.181218 0.180494 0.179771 0.179047 0.178376 0.177872 0.177690 0.177662 0.177635 0.177454 0.176986 0.176363 0.175789 0.175215 0.174640 0.174100 0.173694 0.173550 0.173527 0.173505 0.173362 0.172993 0.172501 0.172070 0.171639 0.171208 0.170838 0.170561 0.170470 0.170456 0.170443 0.170354 0.170144 0.169865 0.169668 0.169472 0.169276 0.169133 0.169027 0.168995 0.168990 0.168985 0.168952 0.168880 0.168783 0.168724 0.168664 0.168605 0.168570 0.168545 0.168538 0.168537 0.168536 0.168530 0.168520 0.168508 0.168511 0.168513 0.168516 0.168533 0.168546 0.168553 0.168554 0.168555 0.168560 0.168582 0.168611 0.168648 0.168684 0.168721 0.168765 0.168798 0.168810 0.168812 
0.179204 0.179180 0.179066 0.178779 0.178398 0.178016 0.177634 0.177253 0.176874 0.176589 0.176476 0.176452 0.176428 0.176314 0.176029 0.175652 0.175277 0.174903 0.174528 0.174167 0.173894 0.173787 0.173765 0.173742 0.173636 0.173374 0.173027 0.172694 0.172361 0.172029 0.171708 0.171466 0.171371 0.171351 0.171331 0.171238 0.171009 0.170704 0.170415 0.170126 0.169837 0.169559 0.169350 0.169267 0.169250 0.169233 0.169150 0.168949 0.168682 0.168422 0.168163 0.167904 0.167654 0.167466 0.167391 0.167375 0.167359 0.167285 0.167106 0.166868 0.166642 0.166417 0.166191 0.165981 0.165822 0.165759 0.165746 0.165733 0.165671 0.165533 0.165349 0.165191 0.165032 0.164874 0.164739 0.164638 0.164603 0.164596 0.164589 0.164557 0.164480 0.164377 0.164293 0.164209 0.164125 0.164055 0.164003 0.163988 0.163984 0.163981 0.163965 0.163926 0.163875 0.163836 0.163798 0.163759 0.163731 0.163710 0.163704 0.163703 0.163702 0.163695 0.163679 0.163658 0.163647 0.163637 0.163627 0.163623 0.163620 0.163619 0.163619 0.163618 0.163617 0.163616 0.163614 0.163617 0.163621 0.163625 0.163634 0.163642 0.163644 0.163645 0.163645 0.163647 0.163656 0.163667 0.163681 0.163695 0.163708 0.163725 0.163737 0.163742 0.163743 0.163744 0.163748 0.163762 0.163780 0.163798 0.163817 0.163835 0.163853 0.163867 0.163872 0.163873 
0.175687 0.175664 0.175578 0.175373 0.175101 0.174825 0.174550 0.174274 0.173996 0.173786 0.173696 0.173673 0.173649 0.173559 0.173348 0.173069 0.172793 0.172516 0.172240 0.171966 0.171758 0.171671 0.171647 0.171624 0.171537 0.171332 0.171060 0.170791 0.170521 0.170252 0.169991 0.169794 0.169711 0.169689 0.169667 0.169585 0.169394 0.169141 0.168896 0.168650 0.168404 0.168166 0.167986 0.167910 0.167890 0.167870 0.167796 0.167621 0.167391 0.167170 0.166949 0.166728 0.166518 0.166359 0.166292 0.166274 0.166256 0.166190 0.166036 0.165832 0.165636 0.165441 0.165245 0.165059 0.164918 0.164859 0.164843 0.164828 0.164768 0.164630 0.164446 0.164269 0.164091 0.163914 0.163741 0.163610 0.163556 0.163542 0.163528 0.163475 0.163349 0.163184 0.163024 0.162863 0.162703 0.162551 0.162435 0.162388 0.162375 0.162362 0.162315 0.162212 0.162076 0.161951 0.161826 0.161700 0.161593 0.161512 0.161480 0.161471 0.161463 0.161430 0.161356 0.161257 0.161174 0.161091 0.161008 0.160931 0.160874 0.160850 0.160844 0.160839 0.160819 0.160774 0.160714 0.160658 0.160601 0.160545 0.160500 0.160466 0.160452 0.160448 0.160444 0.160430 0.160398 0.160355 0.160322 0.160289 0.160256 0.160225 0.160202 0.160194 0.160192 0.160190 0.160182 0.160163 0.160139 0.160118 0.160098 0.160077 0.160060 0.160048 0.160042 0.160040 0.160039 0.160033 0.160024 0.160011 0.160000 0.159989 0.159977 0.159970 0.159965 0.159963 0.159962 0.159961 0.159959 0.159954 0.159946 0.159942 0.159939 0.159935 0.159931 0.159927 0.159926 0.159926 0.159926 0.159926 0.159926 0.159925 0.159924 0.159923 0.159921 0.159922 0.159923 0.159922 0.159922 
0.161750 0.161741 0.161707 0.161621 0.161508 0.161389 0.161270 0.161151 0.161028 0.160935 0.160895 0.160885 0.160875 0.160836 0.160739 0.160611 0.160479 0.160348 0.160217 0.160083 0.159982 0.159939 0.159929 0.159918 0.159875 0.159772 0.159635 0.159498 0.159361 0.159224 0.159090 0.158988 0.158946 0.158935 0.158924 0.158882 0.158781 0.158648 0.158518 0.158387 0.158256 0.158130 0.158035 0.157996 0.157987 0.157977 0.157939 0.157848 0.157727 0.157607 0.157488 0.157369 0.157260 0.157177 0.157143 0.157135 0.157126 0.157093 0.157013 0.156907 0.156803 0.156699 0.156596 0.156492 0.156414 0.156383 0.156375 0.156367 0.156336 0.156260 0.156159 0.156059 0.155959 0.155859 0.155760 0.155686 0.155655 0.155648 0.155640 0.155610 0.155542 0.155451 0.155366 0.155280 0.155194 0.155119 0.155062 0.155039 0.155033 0.155027 0.155005 0.154953 0.154884 0.154824 0.154763 0.154703 0.154650 0.154610 0.154595 0.154591 0.154587 0.154572 0.154536 0.154489 0.154449 0.154408 0.154367 0.154330 0.154302 0.154292 0.154290 0.154287 0.154278 0.154255 0.154226 0.154198 0.154170 0.154142 0.154119 0.154102 0.154095 0.154093 0.154091 0.154084 0.154069 0.154049 0.154030 0.154011 0.153992 0.153976 0.153965 0.153960 0.153959 0.153957 0.153952 0.153940 0.153925 0.153912 0.153900 0.153888 0.153875 0.153866 0.153863 0.153862 0.153862 0.153858 0.153851 0.153840 0.153830 0.153820 0.153810 0.153801 0.153794 0.153791 0.153790 0.153789 0.153786 0.153780 0.153771 0.153762 0.153752 0.153742 0.153733 0.153726 0.153723 0.153722 
0.148164 0.148156 0.148138 0.148102 0.148056 0.148009 0.147963 0.147916 0.147869 0.147833 0.147815 0.147807 0.147799 0.147780 0.147744 0.147697 0.147650 0.147603 0.147556 0.147510 0.147474 0.147455 0.147447 0.147439 0.147421 0.147385 0.147339 0.147292 0.147246 0.147200 0.147153 0.147118 0.147099 0.147091 0.147083 0.147065 0.147030 0.146984 0.146939 0.146894 0.146848 0.146804 0.146769 0.146751 0.146744 0.146736 0.146718 0.146684 0.146640 0.146596 0.146552 0.146508 0.146464 0.146431 0.146414 0.146406 0.146399 0.146381 0.146348 0.146305 0.146263 0.146221 0.146178 0.146136 0.146104 0.146087 0.146080 0.146073 0.146056 0.146024 0.145983 0.145942 0.145901 0.145860 0.145819 0.145788 0.145772 0.145765 0.145758 0.145742 0.145711 0.145670 0.145631 0.145591 0.145551 0.145511 0.145481 0.145465 0.145459 0.145452 0.145436 0.145406 0.145367 0.145329 0.145290 0.145252 0.145213 0.145184 0.145169 0.145162 0.145155 0.145140 0.145110 0.145071 0.145033 0.144994 0.144956 0.144918 0.144889 0.144874 0.144868 0.144861 0.144846 0.144817 0.144780 0.144742 0.144704 0.144666 0.144629 0.144601 0.144587 0.144581 0.144575 0.144560 0.144533 0.144497 0.144461 0.144425 0.144389 0.144353 0.144326 0.144312 0.144305 0.144300 0.144287 0.144263 0.144233 0.144205 0.144177 0.144149 0.144122 0.144101 0.144091 0.144086 0.144081 0.144071 0.144052 0.144028 0.144006 0.143985 0.143964 0.143943 0.143928 0.143920 0.143916 0.143913 0.143905 0.143890 0.143870 0.143855 0.143841 0.143826 0.143813 0.143803 0.143798 0.143795 0.143793 0.143788 0.143778 0.143766 0.143754 0.143743 0.143732 0.143725 0.143719 0.143716 0.143715 0.143713 0.143711 0.143705 0.143698 0.143691 0.143684 0.143678 0.143674 0.143671 0.143670 0.143670 0.143670 0.143669 0.143667 0.143666 0.143664 0.143662 0.143660 0.143658 0.143657 0.143656 0.143656 0.143657 0.143658 0.143659 0.143661 0.143663 0.143665 0.143667 0.143669 0.143671 0.143672 0.143672 0.143672 0.143673 0.143676 0.143679 0.143685 0.143690 0.143695 0.143701 0.143705 0.143707 0.143708 0.143709 0.143711 0.143716 0.143721 0.143728 0.143736 0.143744 0.143752 0.143758 0.143761 0.143763 0.143764 0.143767 0.143773 0.143781 0.143790 0.143799 0.143807 0.143818 0.143826 0.143830 0.143831 0.143833 0.143837 0.143845 0.143856 0.143866 0.143877 0.143887 0.143899 0.143908 0.143913 0.143915 0.143918 0.143922 0.143932 0.143945 0.143957 0.143970 0.143982 0.143995 0.144004 0.144010 0.144012 0.144014 0.144020 0.144031 0.144045 0.144059 0.144073 0.144088 0.144102 0.144113 0.144118 0.144121 0.144123 0.144129 0.144140 0.144155 0.144171 0.144186 0.144202 0.144218 0.144230 0.144236 0.144239 
