0.150432 0.150422 0.150302 0.149772 0.148933 0.148138 0.147344 0.146549 0.145814 0.145350 0.145250 0.145242 0.145234 0.145135 0.144692 0.143991 0.143329 0.142667 0.142006 0.141384 0.140991 0.140906 0.140899 
0.150437 0.150449 0.150548 0.150800 0.151137 0.151429 0.151722 0.152014 0.152292 0.152500 0.152576 0.152585 0.152594 0.152670 0.152877 0.153153 0.153442 0.153730 0.154018 0.154323 0.154551 0.154636 0.154646 0.154656 0.154742 0.154982 0.155302 0.155638 0.155975 0.156312 0.156662 0.156925 0.157023 0.157034 0.157046 0.157144 0.157417 0.157781 0.158158 0.158535 0.158912 0.159299 0.159589 0.159696 0.159709 0.159722 0.159829 0.160126 0.160522 0.160926 0.161330 0.161734 0.162147 0.162456 0.162570 0.162584 0.162598 0.162712 0.163026 0.163447 0.163875 0.164302 0.164730 0.165166 0.165492 0.165611 0.165626 0.165640 0.165760 0.166091 0.166531 0.166979 0.167426 0.167874 0.168327 0.168666 0.168791 0.168806 0.168821 0.168945 0.169288 0.169746 0.170209 0.170673 0.171136 0.171602 0.171952 0.172080 0.172095 0.172111 0.172239 0.172589 0.173057 0.173532 0.174007 0.174482 0.174960 0.175318 0.175448 0.175464 0.175480 0.175610 0.175970 0.176449 0.176931 0.177412 0.177894 0.178374 0.178733 0.178864 0.178880 0.178896 0.179027 0.179387 0.179869 0.180350 0.180831 0.181313 0.181792 0.182150 0.182281 0.182297 0.182313 0.182444 0.182801 0.183277 0.183751 0.184225 0.184698 0.185169 0.185521 0.185650 0.185665 0.185681 0.185809 0.186162 0.186633 0.187105 0.187577 0.188050 0.188523 0.188877 0.189008 0.189024 0.189040 0.189170 0.189525 0.189999 0.190476 0.190954 0.191432 0.191923 0.192291 0.192427 0.192443 0.192459 0.192595 0.192970 0.193470 0.193982 0.194494 0.195006 0.195539 0.195939 0.196086 0.196104 0.196122 0.196272 0.196686 0.197239 0.197814 0.198389 0.198964 0.199571 0.200025 0.200198 0.200219 0.200239 0.200412 0.200889 0.201527 0.202179 0.202831 0.203483 0.204165 0.204676 0.204868 0.204891 0.204914 0.205105 0.205637 0.206346 0.207065 0.207785 0.208504 0.209233 0.209778 0.209976 0.210000 0.210023 0.210220 0.210759 0.211478 0.212204 0.212931 0.213657 0.214355 0.214878 0.215065 0.215087 0.215110 0.215297 0.215811 0.216498 0.217143 0.217788 0.218434 0.219050 0.219511 0.219674 0.219693 0.219713 0.219872 0.220276 0.220816 0.221302 0.221788 0.222273 0.222697 0.223015 0.223120 0.223133 0.223146 0.223251 0.223514 0.223864 0.224122 0.224380 0.224637 0.224786 0.224898 0.224923 0.224926 0.224930 0.224963 0.225004 0.225058 0.225012 0.224967 0.224921 0.224768 0.224654 0.224599 0.224593 0.224585 0.224521 0.224316 0.224043 0.223665 0.223288 0.222910 0.222422 0.222057 0.221906 0.221888 0.221870 0.221718 0.221282 0.220700 0.220044 0.219388 0.218732 0.218000 0.217452 0.217243 0.217218 0.217193 0.216984 0.216395 0.215609 0.214772 0.213935 0.213097 0.212219 0.211561 0.211320 0.211291 0.211262 0.211020 0.210345 0.209443 0.208513 0.207584 0.206654 0.205719 0.205019 0.204762 0.204731 0.204700 0.204441 0.203736 0.202795 0.201853 0.200911 0.199970 0.199032 0.198331 0.198074 0.198043 0.198012 0.197757 0.197064 0.196139 0.195228 0.194317 0.193406 0.192510 0.191838 0.191595 0.191566 0.191537 0.191295 0.190638 0.189761 0.188908 0.188054 0.187200 0.186368 0.185744 0.185519 0.185492 0.185465 0.185241 0.184638 0.183831 0.183048 0.182265 0.181483 0.180722 0.180153 0.179948 0.179924 0.179899 0.179696 0.179150 0.178421 0.177712 0.177004 0.176295 0.175613 0.175101 0.174916 0.174893 0.174871 0.174688 0.174194 0.173535 0.172898 0.172260 0.171622 0.171009 0.170551 0.170385 0.170365 0.170345 0.170181 0.169738 0.169147 0.168575 0.168003 0.167431 0.166878 0.166463 0.166314 0.166296 0.166278 0.166130 0.165729 0.165195 0.164676 0.164158 0.163640 0.163139 0.162765 0.162629 0.162613 
0.150434 0.150432 0.150411 0.150139 0.149709 0.149086 0.148464 0.147841 0.147370 0.147072 0.147009 0.147004 0.146999 0.146932 0.146661 0.146231 0.145874 0.145516 0.145159 0.144837 0.144633 0.144589 0.144586 0.144583 0.144540 0.144344 0.144033 0.143696 0.143358 0.143021 0.142607 0.142345 0.142283 0.142278 0.142273 0.142209 0.141861 0.141311 0.140516 0.139722 0.138927 0.137905 0.137260 0.137112 0.137100 0.137089 0.136949 0.136088 0.134724 0.132716 0.130708 0.128700 0.126898 0.125761 0.125538 0.125521 0.125504 0.125284 0.124398 0.122995 0.122011 0.121028 0.120044 0.119404 0.119000 0.118923 0.118917 0.118911 0.118836 0.118549 0.118094 0.117782 0.117471 0.117160 0.116938 0.116798 0.116771 0.116769 0.116767 0.116741 0.116631 0.116458 0.116320 0.116183 0.116046 0.115933 0.115862 0.115848 0.115846 0.115845 0.115831 0.115769 0.115672 0.115589 0.115506 0.115423 0.115352 0.115307 0.115297 0.115297 0.115296 0.115287 0.115247 0.115184 0.115130 0.115075 0.115021 0.114974 0.114945 0.114939 0.114938 0.114938 0.114932 0.114906 0.114864 0.114829 0.114794 0.114758 0.114728 0.114709 0.114705 0.114704 0.114704 0.114700 0.114683 0.114657 0.114634 0.114611 0.114588 0.114568 0.114556 0.114553 0.114553 0.114553 0.114550 0.114539 0.114521 0.114506 0.114491 0.114476 0.114462 0.114454 0.114452 0.114452 
0.152585 0.152584 0.152577 0.152555 0.152525 0.152480 0.152434 0.152388 0.152325 0.152277 0.152256 0.152252 0.152248 0.152226 0.152165 0.152083 0.151986 0.151889 0.151792 0.151683 0.151601 0.151569 0.151563 0.151557 0.151523 0.151434 0.151317 0.151195 0.151073 0.150951 0.150824 0.150729 0.150691 0.150685 0.150678 0.150640 0.150541 0.150410 0.150285 0.150161 0.150037 0.149922 0.149835 0.149804 0.149798 0.149792 0.149759 0.149676 0.149567 0.149458 0.149349 0.149240 0.149106 0.149006 0.148965 0.148957 0.148950 0.148908 0.148794 0.148643 0.148472 0.148300 0.148129 0.147941 0.147800 0.147744 0.147734 0.147724 0.147665 0.147510 0.147304 0.147087 0.146871 0.146654 0.146464 0.146320 0.146271 0.146263 0.146254 0.146206 0.146087 0.145928 0.145787 0.145645 0.145504 0.145377 0.145282 0.145246 0.145239 0.145233 0.145200 0.145117 0.145008 0.144906 0.144804 0.144702 0.144609 0.144539 0.144513 0.144508 0.144504 0.144477 0.144412 0.144325 0.144245 0.144166 0.144087 0.144012 0.143956 0.143934 0.143930 0.143926 0.143906 0.143853 0.143784 0.143716 0.143648 0.143581 0.143515 0.143466 0.143447 0.143444 0.143441 0.143422 0.143374 0.143309 0.143245 0.143181 0.143118 0.143054 0.143007 0.142988 0.142985 
0.175461 0.175447 0.175402 0.175302 0.175170 0.175031 0.174892 0.174754 0.174607 0.174496 0.174445 0.174429 0.174412 0.174361 0.174243 0.174089 0.173927 0.173766 0.173604 0.173433 0.173303 0.173244 0.173225 0.173206 0.173146 0.173014 0.172839 0.172661 0.172482 0.172304 0.172124 0.171987 0.171925 0.171905 0.171885 0.171824 0.171684 0.171501 0.171315 0.171129 0.170944 0.170756 0.170613 0.170547 0.170526 0.170505 0.170439 0.170292 0.170099 0.169904 0.169708 0.169513 0.169317 0.169168 0.169102 0.169081 0.169060 0.168994 0.168847 0.168654 0.168459 0.168264 0.168069 0.167874 0.167726 0.167660 0.167639 0.167618 0.167551 0.167404 0.167210 0.167015 0.166821 0.166626 0.166433 0.166286 0.166220 0.166199 0.166178 0.166112 0.165965 0.165771 0.165579 0.165387 0.165195 0.165003 0.164858 0.164792 0.164771 0.164750 0.164684 0.164539 0.164348 0.164158 0.163968 0.163778 0.163590 0.163447 0.163384 0.163363 0.163343 0.163279 0.163138 0.162952 0.162770 0.162587 0.162405 0.162225 0.162089 0.162028 0.162008 0.161988 0.161927 0.161793 0.161616 0.161464 0.161312 0.161160 0.161033 0.160937 0.160896 0.160883 0.160870 0.160829 0.160740 0.160623 0.160510 0.160397 0.160284 0.160180 0.160102 0.160067 0.160056 0.160044 0.160010 0.159934 0.159833 0.159740 0.159647 0.159554 0.159464 0.159396 0.159366 0.159356 0.159346 0.159316 0.159250 0.159164 0.159082 0.159000 0.158919 0.158838 0.158777 0.158750 0.158741 0.158733 0.158708 0.158652 0.158579 0.158505 0.158431 0.158357 0.158287 0.158233 0.158210 0.158202 0.158195 0.158171 0.158119 0.158051 0.157984 0.157917 0.157850 0.157786 0.157738 0.157716 0.157709 0.157702 0.157680 0.157631 0.157567 0.157507 0.157446 0.157386 0.157325 0.157279 0.157259 0.157252 0.157245 0.157225 0.157181 0.157123 0.157066 0.157009 0.156952 0.156895 0.156852 0.156834 0.156828 0.156822 0.156804 0.156763 0.156709 0.156654 0.156600 0.156545 0.156494 0.156454 0.156436 0.156431 0.156425 0.156407 0.156367 0.156314 0.156263 0.156211 0.156159 0.156108 0.156069 0.156051 0.156045 0.156040 0.156022 0.155983 0.155932 0.155881 0.155831 0.155780 0.155729 0.155690 0.155672 0.155666 
0.185657 0.185625 0.185374 0.184681 0.183757 0.182807 0.181857 0.180906 0.179970 0.179269 0.179013 0.178980 0.178947 0.178692 0.178006 0.177091 0.176227 0.175364 0.174500 0.173679 0.173064 0.172847 0.172819 0.172792 0.172577 0.171999 0.171227 0.170491 0.169756 0.169020 0.168333 0.167818 0.167661 0.167641 0.167621 0.167466 0.167082 0.166568 0.166150 0.165732 0.165314 0.164968 0.164708 0.164622 0.164611 0.164600 0.164514 0.164294 0.164001 0.163745 0.163489 0.163233 0.163009 0.162841 0.162785 0.162778 0.162771 0.162715 0.162565 0.162366 0.162183 0.162001 0.161818 0.161650 0.161524 0.161478 0.161472 
0.196090 0.196036 0.195927 0.195736 0.195489 0.195244 0.194998 0.194753 0.194509 0.194319 0.194211 0.194157 0.194104 0.193997 0.193809 0.193568 0.193327 0.193086 0.192846 0.192607 0.192422 0.192317 0.192265 0.192213 0.192109 0.191927 0.191693 0.191461 0.191230 0.190998 0.190770 0.190593 0.190493 0.190443 0.190393 0.190292 0.190116 0.189890 0.189667 0.189443 0.189220 0.189000 0.188829 0.188732 0.188684 0.188636 0.188540 0.188373 0.188157 0.187943 0.187729 0.187515 0.187304 0.187140 0.187048 0.187001 0.186956 0.186864 0.186704 0.186498 0.186297 0.186096 0.185895 0.185698 0.185546 0.185460 0.185417 0.185373 0.185287 0.185137 0.184943 0.184752 0.184562 0.184371 0.184183 0.184037 0.183954 0.183913 0.183872 0.183790 0.183647 0.183462 0.183281 0.183100 0.182919 0.182741 0.182603 0.182525 0.182487 0.182448 0.182371 0.182236 0.182062 0.181890 0.181718 0.181546 0.181376 0.181245 0.181170 0.181133 0.181096 0.181022 0.180892 0.180725 0.180559 0.180394 0.180228 0.180064 0.179936 0.179864 0.179828 0.179792 0.179720 0.179594 0.179431 0.179270 0.179110 0.178949 0.178790 0.178667 0.178597 0.178563 0.178528 0.178459 0.178337 0.178181 0.178026 0.177871 0.177716 0.177563 0.177444 0.177376 0.177343 0.177309 0.177243 0.177126 0.176976 0.176826 0.176676 0.176526 0.176377 0.176261 0.176196 0.176163 0.176130 0.176065 0.175950 0.175802 0.175657 0.175512 0.175367 0.175225 0.175114 0.175052 0.175020 0.174989 0.174927 0.174817 0.174676 0.174536 0.174396 0.174256 0.174116 0.174008 0.173950 0.173920 0.173894 0.173841 0.173749 0.173630 0.173514 0.173399 0.173283 0.173170 0.173083 0.173034 0.173010 0.172985 0.172937 0.172853 0.172744 0.172642 0.172539 0.172437 0.172341 0.172266 0.172224 0.172203 0.172182 0.172140 0.172067 0.171973 0.171880 0.171787 0.171694 0.171603 0.171532 0.171492 0.171472 0.171454 0.171418 0.171354 0.171272 0.171192 0.171111 0.171030 0.170951 0.170889 0.170855 0.170837 0.170820 0.170786 0.170726 0.170648 0.170576 0.170504 0.170432 0.170365 0.170313 0.170283 0.170269 0.170254 0.170225 0.170173 0.170106 0.170040 0.169974 0.169908 0.169842 0.169791 0.169763 0.169748 0.169736 0.169710 0.169665 0.169608 0.169550 0.169492 0.169435 0.169377 0.169332 0.169307 0.169294 0.169282 0.169256 0.169211 0.169154 0.169100 0.169047 0.168993 0.168944 0.168905 0.168883 0.168872 0.168861 0.168839 0.168801 0.168752 0.168702 0.168653 0.168604 0.168554 0.168516 0.168494 0.168483 0.168474 0.168455 0.168421 0.168378 0.168334 0.168291 0.168247 0.168203 0.168169 0.168149 0.168140 0.168130 0.168110 0.168076 0.168031 0.167989 0.167948 0.167906 0.167867 0.167836 0.167819 0.167810 0.167801 0.167784 0.167752 0.167712 0.167672 0.167632 0.167592 0.167552 0.167521 0.167504 0.167495 0.167488 0.167472 0.167445 0.167410 0.167375 0.167339 0.167304 0.167269 0.167241 0.167226 0.167218 0.167210 0.167194 0.167167 0.167131 0.167098 0.167064 0.167030 0.166999 0.166974 0.166960 0.166953 0.166946 0.166932 0.166907 0.166875 0.166842 0.166809 0.166777 0.166744 0.166718 0.166704 0.166697 0.166691 0.166678 0.166655 0.166626 0.166596 0.166567 0.166537 0.166507 0.166484 0.166470 0.166463 0.166457 0.166443 0.166420 0.166389 0.166360 0.166331 0.166302 0.166274 0.166253 0.166240 0.166234 0.166228 0.166216 0.166194 0.166165 0.166137 0.166108 0.166079 0.166050 0.166027 0.166015 0.166008 0.166002 0.165991 0.165970 0.165944 0.165917 0.165890 0.165863 0.165835 0.165814 0.165802 0.165796 0.165790 0.165778 0.165756 0.165728 0.165701 0.165674 0.165647 0.165621 0.165600 0.165589 0.165583 0.165577 0.165565 0.165544 0.165518 0.165490 0.165463 0.165436 0.165408 0.165387 0.165374 0.165368 0.165363 0.165351 0.165331 0.165305 0.165279 0.165253 0.165226 0.165200 0.165179 0.165167 0.165161 
0.204871 0.204795 0.204557 0.204034 0.203347 0.202677 0.202007 0.201336 0.200683 0.200187 0.199968 0.199897 0.199828 0.199610 0.199134 0.198508 0.197904 0.197300 0.196696 0.196118 0.195679 0.195488 0.195427 0.195366 0.195177 0.194767 0.194226 0.193690 0.193153 0.192616 0.192114 0.191733 0.191565 0.191511 0.191457 0.191290 0.190925 0.190445 0.189982 0.189519 0.189057 0.188613 0.188276 0.188127 0.188079 0.188032 0.187884 0.187573 0.187163 0.186767 0.186370 0.185973 0.185589 0.185298 0.185168 0.185126 0.185085 0.184956 0.184672 0.184299 0.183934 0.183569 0.183204 0.182846 0.182573 0.182453 0.182414 0.182375 0.182255 0.181990 0.181641 0.181306 0.180970 0.180635 0.180308 0.180059 0.179949 0.179914 0.179879 0.179772 0.179543 0.179242 0.178956 0.178669 0.178382 0.178116 0.177913 0.177827 0.177799 0.177772 0.177687 0.177501 0.177257 0.177025 0.176793 0.176561 0.176350 0.176189 0.176118 0.176095 0.176072 0.176002 0.175847 0.175643 0.175459 0.175275 0.175091 0.174918 0.174785 0.174727 0.174708 0.174689 0.174631 0.174508 0.174346 0.174195 0.174045 0.173895 0.173748 0.173636 0.173590 0.173576 0.173562 0.173517 0.173419 0.173290 0.173161 0.173033 0.172904 0.172788 0.172701 0.172662 0.172650 0.172637 0.172598 0.172511 0.172397 0.172289 0.172181 0.172072 0.171972 0.171895 0.171861 0.171849 0.171838 0.171803 0.171725 0.171623 0.171532 0.171441 0.171350 0.171259 0.171190 0.171159 0.171149 0.171139 0.171108 0.171046 0.170964 0.170882 0.170800 0.170718 0.170637 0.170576 0.170551 0.170542 0.170534 0.170509 0.170451 0.170376 0.170300 0.170224 0.170148 0.170078 0.170025 0.170001 0.169994 0.169986 0.169962 0.169908 0.169836 0.169768 0.169700 0.169632 0.169564 0.169513 0.169489 0.169481 
0.209978 0.209892 0.209504 0.208561 0.207310 0.206116 0.204923 0.203729 0.202594 0.201737 0.201407 0.201334 0.201262 0.200935 0.200157 0.199123 0.198162 0.197200 0.196238 0.195343 0.194669 0.194409 0.194351 0.194294 0.194035 0.193406 0.192571 0.191781 0.190990 0.190200 0.189457 0.188897 0.188677 0.188629 0.188581 0.188364 0.187845 0.187156 0.186493 0.185831 0.185168 0.184529 0.184047 0.183855 0.183813 0.183771 0.183581 0.183128 0.182527 0.181962 0.181396 0.180830 0.180301 0.179902 0.179744 0.179709 0.179676 0.179529 0.179215 0.178797 0.178417 0.178038 0.177658 0.177328 0.177079 0.176982 0.176961 0.176939 0.176843 0.176643 0.176377 0.176142 0.175907 0.175672 0.175465 0.175309 0.175245 0.175231 0.175217 0.175154 0.175019 0.174841 0.174674 0.174507 0.174339 0.174195 0.174086 0.174042 0.174032 0.174022 0.173978 0.173884 0.173759 0.173639 0.173520 0.173400 0.173293 0.173212 0.173178 0.173171 0.173164 0.173130 0.173057 0.172960 0.172867 0.172773 0.172680 0.172595 0.172530 0.172503 0.172497 0.172491 0.172464 0.172404 0.172325 0.172246 0.172167 0.172087 0.172012 0.171955 0.171931 0.171926 
0.219664 0.219548 0.218967 0.217548 0.215663 0.213944 0.212226 0.210507 0.208937 0.207755 0.207306 0.207216 0.207127 0.206684 0.205611 0.204185 0.202894 0.201602 0.200311 0.199143 0.198263 0.197928 0.197860 0.197794 0.197461 0.196654 0.195582 0.194606 0.193631 0.192656 0.191753 0.191074 0.190812 0.190759 0.190707 0.190447 0.189811 0.188966 0.188181 0.187396 0.186611 0.185878 0.185327 0.185111 0.185068 0.185025 0.184811 0.184304 0.183629 0.183012 0.182395 0.181778 0.181250 0.180853 0.180719 0.180692 0.180666 0.180533 0.180207 0.179774 0.179406 0.179038 0.178670 0.178354 0.178116 0.178032 0.178015 0.177998 0.177913 0.177701 0.177419 0.177183 0.176947 0.176710 0.176505 0.176350 0.176291 0.176279 0.176267 0.176208 0.176068 0.175882 0.175716 0.175551 0.175385 0.175236 0.175125 0.175080 0.175071 0.175062 0.175017 0.174919 0.174788 0.174665 0.174542 0.174419 0.174304 0.174217 0.174182 0.174176 0.174170 0.174140 0.174063 0.173961 0.173862 0.173763 0.173664 0.173566 0.173493 0.173466 0.173461 
0.223101 0.222973 0.222502 0.221432 0.220017 0.218692 0.217366 0.216041 0.214797 0.213857 0.213468 0.213362 0.213258 0.212874 0.212000 0.210845 0.209753 0.208662 0.207571 0.206552 0.205781 0.205463 0.205376 0.205290 0.204975 0.204262 0.203320 0.202454 0.201587 0.200721 0.199902 0.199283 0.199027 0.198957 0.198888 0.198635 0.198058 0.197297 0.196593 0.195889 0.195185 0.194535 0.194044 0.193843 0.193789 0.193735 0.193535 0.193073 0.192463 0.191874 0.191285 0.190697 0.190134 0.189707 0.189528 0.189480 0.189431 0.189253 0.188844 0.188304 0.187800 0.187296 0.186792 0.186304 0.185936 0.185787 0.185747 0.185707 0.185559 0.185217 0.184765 0.184345 0.183926 0.183506 0.183130 0.182846 0.182728 0.182696 0.182664 0.182547 0.182291 0.181951 0.181655 0.181359 0.181063 0.180791 0.180585 0.180505 0.180484 0.180462 0.180383 0.180200 0.179957 0.179738 0.179518 0.179298 0.179101 0.178952 0.178890 0.178873 0.178856 0.178793 0.178659 0.178480 0.178315 0.178149 0.177984 0.177833 0.177719 0.177675 0.177663 0.177651 0.177606 0.177502 0.177364 0.177239 0.177114 0.176988 0.176869 0.176779 0.176741 0.176730 0.176720 0.176681 0.176600 0.176494 0.176392 0.176291 0.176189 0.176096 0.176025 0.175997 0.175989 0.175982 0.175953 0.175886 0.175798 0.175717 0.175637 0.175556 0.175479 0.175421 0.175395 0.175388 0.175382 0.175356 0.175304 0.175235 0.175167 0.175098 0.175029 0.174966 0.174918 0.174898 0.174892 
0.224560 0.224430 0.223710 0.221937 0.219578 0.217470 0.215362 0.213254 0.211376 0.209965 0.209440 0.209346 0.209253 0.208737 0.207473 0.205793 0.204304 0.202814 0.201325 0.199992 0.198990 0.198628 0.198563 0.198499 0.198144 0.197250 0.196060 0.194970 0.193881 0.192791 0.191821 0.191092 0.190823 0.190775 0.190726 0.190452 0.189773 0.188870 0.188030 0.187190 0.186351 0.185584 0.185008 0.184803 0.184766 0.184730 0.184527 0.184015 0.183334 0.182779 0.182225 0.181670 0.181224 0.180888 0.180762 0.180740 0.180717 0.180593 0.180324 0.179967 0.179664 0.179361 0.179058 0.178803 0.178612 0.178547 0.178535 0.178523 0.178457 0.178289 0.178064 0.177881 0.177698 0.177515 0.177357 0.177239 0.177192 0.177183 0.177175 0.177129 0.177029 0.176896 0.176779 0.176663 0.176546 0.176449 0.176376 0.176351 0.176346 
0.221857 0.221732 0.221100 0.219563 0.217520 0.215674 0.213828 0.211982 0.210306 0.209045 0.208569 0.208475 0.208383 0.207914 0.206780 0.205272 0.203921 0.202570 0.201220 0.200012 0.199103 0.198758 0.198689 0.198622 0.198282 0.197461 0.196369 0.195389 0.194408 0.193427 0.192525 0.191845 0.191585 0.191533 0.191482 0.191224 0.190599 0.189768 0.188997 0.188226 0.187455 0.186736 0.186195 0.185989 0.185948 0.185909 0.185713 0.185226 0.184578 0.183996 0.183414 0.182831 0.182331 0.181955 0.181824 0.181798 0.181772 0.181643 0.181326 0.180905 0.180558 0.180212 0.179865 0.179579 0.179364 0.179284 0.179268 0.179252 0.179172 0.178981 0.178728 0.178514 0.178299 0.178084 0.177902 0.177765 0.177710 0.177699 0.177688 0.177633 0.177514 0.177355 0.177215 0.177075 0.176934 0.176808 0.176713 0.176679 0.176673 0.176667 0.176637 0.176562 0.176461 0.176375 0.176290 0.176204 0.176131 0.176077 0.176060 0.176057 
0.211268 0.211175 0.210832 0.210044 0.209003 0.208011 0.207020 0.206028 0.205090 0.204380 0.204086 0.204007 0.203929 0.203638 0.202971 0.202090 0.201265 0.200441 0.199616 0.198836 0.198246 0.198002 0.197937 0.197872 0.197631 0.197082 0.196357 0.195684 0.195010 0.194336 0.193702 0.193222 0.193022 0.192968 0.192915 0.192717 0.192262 0.191661 0.191093 0.190526 0.189958 0.189417 0.189008 0.188840 0.188794 0.188749 0.188582 0.188194 0.187683 0.187196 0.186709 0.186223 0.185759 0.185407 0.185259 0.185219 0.185180 0.185032 0.184695 0.184250 0.183833 0.183416 0.182999 0.182602 0.182301 0.182182 0.182149 0.182117 0.181999 0.181724 0.181360 0.181025 0.180691 0.180357 0.180076 0.179864 0.179777 0.179753 0.179729 0.179642 0.179457 0.179212 0.179000 0.178788 0.178576 0.178391 0.178250 0.178197 0.178183 0.178168 0.178116 0.177994 0.177832 0.177691 0.177550 0.177409 0.177283 0.177188 0.177148 0.177137 0.177126 0.177085 0.177001 0.176891 0.176790 0.176689 0.176587 0.176502 0.176437 0.176412 0.176405 0.176399 0.176374 0.176314 0.176236 0.176170 0.176104 0.176038 0.175977 0.175931 0.175911 0.175905 0.175900 0.175880 0.175845 0.175799 0.175755 0.175711 0.175667 0.175636 0.175612 0.175603 0.175601 0.175598 0.175589 0.175567 0.175537 0.175521 0.175505 0.175488 0.175477 0.175468 0.175464 0.175463 
0.185484 0.185450 0.185257 0.184769 0.184120 0.183505 0.182890 0.182274 0.181683 0.181239 0.181073 0.181044 0.181015 0.180851 0.180432 0.179875 0.179347 0.178820 0.178292 0.177774 0.177385 0.177238 0.177212 0.177186 0.177040 0.176666 0.176169 0.175695 0.175221 0.174747 0.174301 0.173966 0.173839 0.173816 0.173794 0.173667 0.173358 0.172948 0.172600 0.172253 0.171906 0.171666 0.171485 0.171429 0.171419 0.171409 0.171354 0.171211 0.171022 0.170867 0.170713 0.170558 0.170428 0.170330 0.170292 0.170285 0.170278 0.170239 0.170158 0.170050 0.169947 0.169843 0.169740 0.169653 0.169588 0.169566 0.169562 
0.170358 0.170332 0.170144 0.169648 0.168987 0.168372 0.167757 0.167142 0.166563 0.166130 0.165971 0.165949 0.165927 0.165769 0.165354 0.164800 0.164283 0.163766 0.163248 0.162782 0.162433 0.162307 0.162289 0.162272 0.162146 0.161913 0.161601 0.161426 0.161251 0.161077 0.160966 0.160882 0.160866 0.160864 0.160862 0.160846 0.160799 0.160738 0.160711 0.160684 0.160657 0.160655 0.160653 0.160656 0.160657 
