0.205070 0.205106 0.205572 0.207440 0.210398 0.212227 0.214057 0.215886 0.216565 0.216994 0.217032 0.217035 0.217037 0.217068 0.217038 0.216991 0.216632 0.216272 0.215913 0.215460 0.215173 0.215104 0.215099 0.215093 0.215022 0.214731 0.214270 0.213791 0.213312 0.212833 0.212158 0.211731 0.211622 0.211613 0.211604 0.211491 0.210913 0.209999 0.208695 0.207391 0.206088 0.204466 0.203442 0.203201 0.203183 0.203164 0.202923 0.201807 0.200040 0.198222 0.196405 0.194587 0.192785 0.191648 0.191403 0.191383 
0.205048 0.204996 0.204521 0.203244 0.201538 0.199940 0.198341 0.196743 0.195238 0.194111 0.193716 0.193673 0.193631 0.193240 0.192188 0.190783 0.189455 0.188127 0.186799 0.185549 0.184614 0.184283 0.184247 0.184211 0.183883 0.182996 0.181811 0.180697 0.179583 0.178469 0.177430 0.176653 0.176382 0.176352 0.176323 0.176055 0.175344 0.174394 0.173537 0.172681 0.171824 0.171054 0.170478 0.170277 0.170255 0.170234 0.170037 0.169512 0.168810 0.168149 0.167487 0.166825 0.166197 0.165726 0.165560 0.165542 
0.205068 0.205096 0.205480 0.205709 0.206072 0.202853 0.199634 0.196415 0.192378 0.189830 0.189281 0.189242 0.189199 0.188610 0.185991 0.181843 0.178387 0.174931 0.171475 0.168669 0.166898 0.166539 0.166513 0.166487 0.166132 0.164652 0.162306 0.160452 0.158599 0.156745 0.155308 0.154402 0.154220 0.154207 0.154194 0.154015 0.153250 0.152039 0.150932 0.149824 0.148717 0.147563 0.146835 0.146665 0.146653 0.146641 0.146470 0.145605 0.144233 0.142299 0.140365 0.138431 0.136001 0.134467 0.134125 0.134100 0.134076 0.133737 0.132254 0.129905 0.128013 0.126120 0.124228 0.122947 0.122139 0.121992 0.121982 0.121972 0.121829 0.121281 0.120412 0.119800 0.119189 0.118578 0.118136 0.117857 0.117801 0.117797 0.117793 0.117738 0.117511 0.117150 0.116880 0.116611 0.116341 0.116138 0.116010 0.115984 0.115982 0.115980 0.115954 0.115846 0.115673 0.115524 0.115375 0.115226 0.115092 0.115007 0.114989 0.114988 0.114987 0.114969 0.114890 0.114765 0.114650 0.114536 0.114422 0.114320 0.114256 0.114242 0.114241 0.114240 0.114227 0.114171 0.114082 0.114009 0.113937 0.113864 0.113806 0.113770 0.113762 0.113762 0.113761 0.113754 0.113724 0.113676 0.113637 0.113598 0.113559 0.113528 0.113508 0.113504 0.113504 0.113504 0.113500 0.113483 0.113457 0.113435 0.113414 0.113392 0.113375 0.113364 0.113362 0.113362 0.113362 0.113360 0.113351 0.113337 0.113326 0.113316 0.113305 0.113297 0.113292 0.113292 0.113291 0.113291 0.113290 0.113287 0.113281 0.113277 0.113273 0.113268 0.113258 0.113252 0.113250 0.113250 
0.211593 0.211513 0.211178 0.210385 0.209335 0.208354 0.207373 0.206393 0.205468 0.204771 0.204497 0.204432 0.204367 0.204095 0.203443 0.202579 0.201747 0.200914 0.200082 0.199284 0.198682 0.198441 0.198384 0.198327 0.198089 0.197530 0.196788 0.196096 0.195403 0.194710 0.194072 0.193590 0.193398 0.193352 0.193306 0.193112 0.192648 0.192034 0.191442 0.190850 0.190257 0.189693 0.189267 0.189096 0.189056 0.189015 0.188846 0.188441 0.187903 0.187402 0.186900 0.186399 0.185924 0.185566 0.185423 0.185389 0.185355 0.185213 0.184869 0.184414 0.183990 0.183567 0.183143 0.182746 0.182446 0.182339 0.182314 0.182288 0.182182 0.181930 0.181596 0.181304 0.181012 0.180720 0.180446 0.180239 0.180158 0.180139 0.180121 0.180046 0.179864 0.179623 0.179402 0.179181 0.178960 0.178752 0.178595 0.178531 0.178515 0.178500 0.178436 0.178297 0.178114 0.177934 0.177754 0.177573 0.177409 0.177284 0.177233 0.177221 0.177208 0.177157 0.177040 0.176886 0.176737 0.176587 0.176438 0.176303 0.176202 0.176158 0.176148 0.176138 0.176094 0.175993 0.175859 0.175733 0.175607 0.175481 0.175365 0.175277 0.175241 0.175233 0.175224 0.175188 0.175100 0.174983 0.174876 0.174769 0.174661 0.174558 0.174480 0.174449 0.174441 
0.215070 0.214957 0.214591 0.213787 0.212728 0.211724 0.210721 0.209717 0.208767 0.208046 0.207734 0.207638 0.207543 0.207236 0.206562 0.205674 0.204839 0.204003 0.203168 0.202378 0.201779 0.201522 0.201443 0.201365 0.201112 0.200558 0.199828 0.199151 0.198473 0.197795 0.197157 0.196672 0.196463 0.196399 0.196335 0.196129 0.195675 0.195078 0.194519 0.193960 0.193402 0.192873 0.192472 0.192299 0.192245 0.192192 0.192020 0.191640 0.191139 0.190659 0.190180 0.189700 0.189235 0.188883 0.188728 0.188680 0.188633 0.188479 0.188138 0.187688 0.187262 0.186836 0.186410 0.185994 0.185678 0.185539 0.185496 0.185455 0.185320 0.185028 0.184642 0.184266 0.183891 0.183515 0.183166 0.182902 0.182790 0.182755 0.182721 0.182609 0.182363 0.182039 0.181745 0.181450 0.181155 0.180892 0.180693 0.180606 0.180579 0.180552 0.180466 0.180278 0.180030 0.179823 0.179616 0.179409 0.179209 0.179058 0.178992 0.178972 0.178953 0.178892 0.178771 0.178611 0.178453 0.178295 0.178137 0.177998 0.177892 0.177849 0.177836 0.177823 0.177780 0.177683 0.177557 0.177442 0.177327 0.177213 0.177114 0.177040 0.177007 0.176997 0.176986 0.176953 0.176878 0.176780 0.176703 0.176627 0.176550 0.176472 0.176413 0.176387 0.176378 0.176370 0.176345 0.176301 0.176243 0.176185 0.176128 0.176070 0.176023 0.175987 0.175973 0.175969 0.175965 0.175951 0.175920 0.175878 0.175841 0.175804 0.175767 0.175740 0.175720 0.175711 0.175709 0.175706 0.175698 0.175678 0.175653 0.175642 0.175631 0.175620 0.175610 0.175603 0.175600 0.175599 
0.217010 0.216910 0.216530 0.215634 0.214450 0.213281 0.212112 0.210942 0.209784 0.208909 0.208547 0.208452 0.208358 0.208000 0.207165 0.206060 0.204990 0.203920 0.202850 0.201846 0.201087 0.200777 0.200696 0.200616 0.200309 0.199607 0.198678 0.197831 0.196984 0.196137 0.195372 0.194794 0.194562 0.194501 0.194442 0.194214 0.193694 0.193006 0.192385 0.191764 0.191144 0.190584 0.190161 0.189990 0.189945 0.189902 0.189735 0.189360 0.188864 0.188387 0.187909 0.187432 0.186964 0.186610 0.186462 0.186424 0.186385 0.186236 0.185874 0.185395 0.184902 0.184409 0.183916 0.183431 0.183064 0.182908 0.182867 0.182826 0.182670 0.182301 0.181814 0.181334 0.180853 0.180373 0.179903 0.179547 0.179399 0.179360 0.179321 0.179174 0.178835 0.178387 0.177951 0.177516 0.177080 0.176680 0.176378 0.176253 0.176220 0.176188 0.176063 0.175772 0.175386 0.175100 0.174814 0.174527 0.174282 0.174096 0.174021 0.174001 0.173984 0.173922 0.173799 0.173638 0.173483 0.173328 0.173173 0.173073 0.172997 0.172964 0.172956 0.172947 0.172914 0.172832 0.172725 0.172655 0.172586 0.172517 0.172446 0.172393 0.172379 0.172375 0.172372 0.172361 0.172332 0.172293 0.172253 0.172212 0.172172 0.172147 0.172129 0.172120 0.172118 0.172116 0.172107 0.172090 0.172066 0.172058 0.172050 0.172042 0.172037 0.172033 0.172035 0.172036 0.172036 0.172039 0.172045 0.172053 0.172066 0.172078 0.172091 0.172115 0.172133 0.172141 0.172143 
0.193667 0.193642 0.193565 0.193391 0.193164 0.192924 0.192684 0.192445 0.192189 0.191995 0.191904 0.191874 0.191844 0.191752 0.191545 0.191274 0.190990 0.190705 0.190421 0.190120 0.189891 0.189785 0.189750 0.189715 0.189607 0.189368 0.189054 0.188728 0.188401 0.188074 0.187729 0.187467 0.187344 0.187304 0.187263 0.187140 0.186863 0.186499 0.186116 0.185732 0.185349 0.184963 0.184669 0.184530 0.184484 0.184438 0.184298 0.183989 0.183582 0.183183 0.182784 0.182386 0.181999 0.181705 0.181572 0.181528 0.181485 0.181353 0.181124 0.180823 0.180658 0.180492 0.180326 0.180157 0.180027 0.179968 0.179948 0.179928 0.179869 0.179738 0.179566 0.179393 0.179220 0.179047 0.178873 0.178741 0.178680 0.178661 0.178641 0.178581 0.178448 0.178274 0.178098 0.177923 0.177747 0.177569 0.177435 0.177373 0.177353 0.177333 0.177271 0.177135 0.176957 0.176775 0.176594 0.176412 0.176227 0.176086 0.176021 0.176000 0.175978 0.175913 0.175768 0.175578 0.175385 0.175192 0.174999 0.174803 0.174655 0.174587 0.174564 0.174542 0.174474 0.174325 0.174129 0.173930 0.173731 0.173532 0.173341 0.173195 0.173130 0.173109 0.173087 0.173020 0.172874 0.172682 0.172495 0.172308 0.172121 0.171950 0.171820 0.171762 0.171742 0.171723 0.171665 0.171539 0.171374 0.171224 0.171075 0.170925 0.170790 0.170687 0.170641 0.170626 0.170611 0.170566 0.170469 0.170342 0.170237 0.170133 0.170029 0.169926 0.169849 0.169813 0.169802 0.169790 0.169755 0.169688 0.169600 0.169520 0.169440 0.169360 0.169281 0.169222 0.169198 0.169190 0.169183 0.169162 0.169113 0.169050 0.168986 0.168923 0.168859 0.168803 0.168760 0.168743 0.168737 0.168731 0.168714 0.168674 0.168622 0.168571 0.168520 0.168468 0.168427 0.168395 0.168380 0.168375 0.168370 0.168355 0.168321 0.168276 0.168235 0.168194 0.168153 0.168115 0.168087 0.168074 0.168070 0.168065 0.168052 0.168024 0.167986 0.167955 0.167925 0.167895 0.167864 0.167840 0.167829 0.167826 
0.176344 0.176313 0.176105 0.175555 0.174822 0.174133 0.173444 0.172755 0.172170 0.171731 0.171583 0.171561 0.171539 0.171396 0.171054 0.170598 0.170209 0.169819 0.169429 0.169033 0.168737 0.168621 0.168604 0.168586 0.168468 0.168144 0.167710 0.167259 0.166808 0.166357 0.165911 0.165577 0.165454 0.165436 0.165418 0.165295 0.164983 0.164566 0.164281 0.163997 0.163712 0.163535 0.163401 0.163355 0.163349 0.163342 0.163296 0.163215 0.163107 0.163034 0.162961 0.162888 0.162847 0.162817 0.162802 0.162800 0.162799 0.162789 0.162774 0.162753 0.162748 0.162742 0.162736 0.162744 0.162750 0.162757 0.162758 
0.165537 0.165516 0.165417 0.165171 0.164845 0.164533 0.164222 0.163911 0.163613 0.163389 0.163303 0.163285 0.163267 0.163182 0.162969 0.162686 0.162414 0.162141 0.161869 0.161606 0.161407 0.161332 0.161316 0.161301 0.161226 0.161037 0.160787 0.160550 0.160313 0.160076 0.159851 0.159682 0.159620 0.159607 0.159594 0.159531 0.159374 0.159166 0.159045 0.158925 0.158805 0.158712 0.158641 0.158619 0.158614 0.158609 0.158587 0.158530 0.158455 0.158404 0.158353 0.158302 0.158263 0.158234 0.158225 0.158223 0.158221 0.158212 0.158187 0.158153 0.158134 0.158115 0.158095 0.158083 0.158074 0.158071 0.158070 0.158070 0.158066 0.158057 0.158046 0.158044 0.158042 0.158040 0.158047 0.158053 0.158055 0.158055 
