0.274776 0.274713 0.273737 0.267860 0.258547 0.249409 0.240271 0.231133 0.223992 0.219485 0.218607 0.218550 0.218494 0.217633 0.214106 0.208517 0.204249 0.199981 0.195713 0.192324 0.190185 0.189755 0.189728 0.189700 0.189276 0.187441 0.184533 0.182016 0.179499 0.176982 0.174737 0.173320 0.173023 0.173004 0.172984 0.172684 0.171392 0.169346 0.167501 0.165657 0.163813 0.162176 0.161143 0.160928 0.160914 0.160900 0.160687 0.159759 0.158289 0.157024 0.155760 0.154495 0.153394 0.152699 0.152553 0.152544 0.152535 0.152389 0.151748 0.150733 0.149771 0.148809 0.147847 0.146912 0.146322 0.146195 0.146187 0.146179 0.146051 0.145477 0.144567 0.143692 0.142817 0.141943 0.141108 0.140581 0.140468 0.140461 
0.274804 0.274853 0.275360 0.276357 0.277876 0.276300 0.274724 0.273149 0.269376 0.266898 0.266194 0.266126 0.266057 0.265342 0.262327 0.257737 0.253245 0.248753 0.244260 0.240170 0.237484 0.236822 0.236758 0.236696 0.236048 0.233651 0.230001 0.227024 0.224047 0.221069 0.218607 0.216990 0.216606 0.216569 0.216533 0.216150 0.214773 0.212677 0.210905 0.209134 0.207363 0.205800 0.204774 0.204519 0.204495 0.204471 0.204216 0.203259 0.201801 0.200365 0.198929 0.197493 0.196047 0.195097 0.194850 0.194827 0.194803 0.194557 0.193592 0.192123 0.190647 0.189170 0.187694 0.186243 0.185289 0.185047 0.185024 0.185001 0.184758 0.183820 0.182391 0.181032 0.179672 0.178312 0.177006 0.176148 0.175931 0.175910 0.175889 0.175673 0.174853 0.173605 0.172410 0.171216 0.170021 0.168879 0.168128 0.167939 0.167920 
0.274830 0.274989 0.277583 0.283298 0.292355 0.288586 0.284816 0.281047 0.269954 0.262954 0.261369 0.261272 0.261174 0.259568 0.252399 0.241040 0.232152 0.223264 0.214376 0.207614 0.203347 0.202520 0.202469 0.202420 0.201608 0.198354 0.193198 0.189546 0.185893 0.182241 0.179292 0.177431 0.177027 0.177002 0.176977 0.176568 0.174450 0.171095 0.166564 0.162034 0.157504 0.151874 0.148322 0.147494 0.147443 0.147393 0.146566 0.143036 0.137443 0.133814 0.130184 0.126555 0.124629 0.123414 0.123209 0.123197 0.123185 0.122988 0.122259 0.121103 0.120376 0.119648 0.118921 0.118432 0.118123 0.118065 0.118061 0.118058 0.118000 0.117766 0.117394 0.117112 0.116831 0.116549 0.116329 0.116190 0.116163 0.116161 0.116159 0.116132 0.116016 0.115832 0.115680 0.115528 0.115376 0.115250 0.115170 0.115154 0.115153 0.115152 0.115136 0.115068 0.114959 0.114869 0.114778 0.114688 0.114612 0.114565 0.114555 0.114554 0.114554 0.114544 0.114503 0.114439 0.114384 0.114330 0.114275 0.114230 0.114201 0.114195 0.114195 0.114194 0.114188 0.114163 0.114124 0.114091 0.114057 0.114024 0.113994 0.113975 0.113971 0.113971 
0.152542 0.152532 0.152494 0.152402 0.152280 0.152156 0.152033 0.151909 0.151782 0.151687 0.151647 0.151637 0.151626 0.151586 0.151489 0.151360 0.151230 0.151099 0.150969 0.150890 0.150831 0.150807 0.150801 0.150796 0.150772 0.150717 0.150643 0.150575 0.150507 0.150439 0.150374 0.150324 0.150304 0.150299 0.150294 0.150274 0.150227 0.150164 0.150103 0.150043 0.149982 0.149924 0.149879 0.149861 0.149856 0.149852 0.149833 0.149791 0.149734 0.149678 0.149622 0.149566 0.149511 0.149470 0.149452 0.149448 0.149443 0.149426 0.149385 0.149330 0.149277 0.149224 0.149171 0.149118 0.149079 0.149062 0.149058 0.149054 0.149038 0.148999 0.148947 0.148896 0.148846 0.148795 0.148744 0.148706 0.148690 0.148686 0.148682 0.148666 0.148629 0.148580 0.148532 0.148484 0.148435 0.148388 0.148352 0.148337 0.148333 0.148329 0.148314 0.148277 0.148230 0.148182 0.148134 0.148086 0.148039 0.148003 0.147988 0.147985 
0.189716 0.189669 0.189401 0.188716 0.187804 0.186922 0.186040 0.185158 0.184313 0.183679 0.183443 0.183402 0.183361 0.183129 0.182548 0.181774 0.181040 0.180306 0.179572 0.178882 0.178363 0.178171 0.178137 0.178104 0.177914 0.177433 0.176794 0.176174 0.175555 0.174936 0.174334 0.173882 0.173710 0.173680 0.173650 0.173479 0.173039 0.172453 0.171915 0.171377 0.170839 0.170373 0.170024 0.169894 0.169871 0.169848 0.169720 0.169414 0.169008 0.168648 0.168288 0.167927 0.167614 0.167379 0.167295 0.167280 0.167266 0.167182 0.166974 0.166698 0.166453 0.166207 0.165962 0.165740 0.165573 0.165515 0.165505 0.165495 0.165437 0.165287 0.165086 0.164905 0.164724 0.164544 0.164381 0.164259 0.164211 0.164203 0.164195 0.164147 0.164034 0.163884 0.163741 0.163598 0.163455 0.163321 0.163221 0.163183 0.163177 0.163170 0.163132 0.163036 0.162908 0.162785 0.162661 0.162537 0.162414 0.162322 0.162288 0.162282 
0.218531 0.218456 0.218068 0.217073 0.215750 0.214393 0.213036 0.211679 0.210317 0.209292 0.208889 0.208810 0.208732 0.208331 0.207325 0.205989 0.204712 0.203434 0.202157 0.200955 0.200051 0.199707 0.199640 0.199574 0.199237 0.198425 0.197345 0.196371 0.195397 0.194424 0.193592 0.192966 0.192738 0.192693 0.192649 0.192426 0.191910 0.191226 0.190541 0.189856 0.189171 0.188483 0.187965 0.187760 0.187720 0.187681 0.187476 0.186961 0.186275 0.185580 0.184885 0.184189 0.183490 0.182963 0.182759 0.182720 0.182680 0.182477 0.181973 0.181303 0.180685 0.180066 0.179448 0.178907 0.178501 0.178346 0.178316 0.178286 0.178133 0.177780 0.177311 0.176911 0.176511 0.176111 0.175768 0.175510 0.175414 0.175395 0.175379 0.175294 0.175082 0.174800 0.174551 0.174303 0.174055 0.173834 0.173668 0.173611 0.173600 0.173588 0.173531 0.173382 0.173184 0.173010 0.172836 0.172662 0.172505 0.172386 0.172340 0.172331 0.172321 0.172274 0.172162 0.172013 0.171874 0.171734 0.171594 0.171462 0.171363 0.171323 0.171315 0.171308 0.171268 0.171174 0.171049 0.170923 0.170797 0.170672 0.170545 0.170450 0.170414 0.170407 
0.266071 0.265853 0.265021 0.263086 0.260527 0.258135 0.255742 0.253350 0.251066 0.249339 0.248647 0.248465 0.248285 0.247596 0.245987 0.243857 0.241800 0.239742 0.237685 0.235730 0.234252 0.233643 0.233484 0.233326 0.232724 0.231342 0.229513 0.227724 0.225934 0.224144 0.222403 0.221087 0.220562 0.220424 0.220290 0.219777 0.218622 0.217094 0.215710 0.214327 0.212943 0.211699 0.210758 0.210379 0.210280 0.210182 0.209812 0.209004 0.207936 0.207060 0.206184 0.205308 0.204635 0.204126 0.203915 0.203859 0.203804 0.203592 0.203099 0.202446 0.201816 0.201185 0.200555 0.199936 0.199467 0.199272 0.199221 0.199170 0.198976 0.198521 0.197919 0.197328 0.196738 0.196147 0.195564 0.195124 0.194936 0.194887 0.194838 0.194653 0.194215 0.193637 0.193063 0.192490 0.191916 0.191346 0.190915 0.190735 0.190687 0.190640 0.190460 0.190034 0.189471 0.188911 0.188352 0.187792 0.187249 0.186838 0.186668 0.186624 0.186579 0.186410 0.186013 0.185488 0.184995 0.184502 0.184009 0.183544 0.183193 0.183048 0.183010 0.182973 0.182831 0.182533 0.182140 0.181769 0.181398 0.181028 0.180717 0.180483 0.180386 0.180360 0.180335 0.180239 0.180016 0.179721 0.179488 0.179254 0.179021 0.178793 0.178621 0.178561 0.178546 0.178530 0.178470 0.178330 0.178144 0.177972 0.177800 0.177628 0.177478 0.177365 0.177318 0.177305 0.177292 0.177244 0.177139 0.177000 0.176875 0.176749 0.176624 0.176508 0.176421 0.176388 0.176379 0.176370 0.176336 0.176254 0.176146 0.176046 0.175945 0.175845 0.175748 0.175675 0.175643 0.175635 0.175627 0.175595 0.175530 0.175443 0.175356 0.175269 0.175182 0.175105 0.175046 0.175020 0.175014 0.175007 0.174982 0.174920 0.174839 0.174763 0.174688 0.174613 0.174534 0.174475 0.174452 0.174446 
0.236714 0.236537 0.235845 0.234253 0.232145 0.230184 0.228223 0.226262 0.224448 0.223078 0.222528 0.222388 0.222251 0.221710 0.220473 0.218836 0.217323 0.215809 0.214296 0.212915 0.211871 0.211455 0.211349 0.211245 0.210836 0.209914 0.208694 0.207598 0.206501 0.205404 0.204426 0.203687 0.203395 0.203320 0.203247 0.202958 0.202300 0.201429 0.200677 0.199926 0.199174 0.198488 0.197970 0.197757 0.197702 0.197648 0.197434 0.196943 0.196294 0.195643 0.194992 0.194341 0.193691 0.193200 0.192998 0.192946 0.192895 0.192693 0.192213 0.191577 0.190956 0.190334 0.189712 0.189104 0.188643 0.188453 0.188404 0.188357 0.188171 0.187736 0.187161 0.186607 0.186054 0.185500 0.184984 0.184594 0.184433 0.184392 0.184351 0.184191 0.183830 0.183351 0.182933 0.182515 0.182097 0.181729 0.181452 0.181347 0.181321 0.181294 0.181191 0.180951 0.180635 0.180375 0.180114 0.179854 0.179615 0.179435 0.179360 0.179341 0.179324 0.179259 0.179122 0.178940 0.178769 0.178597 0.178426 0.178288 0.178184 0.178140 0.178129 0.178117 0.178073 0.177974 0.177842 0.177729 0.177616 0.177503 0.177404 0.177329 0.177302 0.177295 0.177288 0.177260 0.177192 0.177102 0.177022 0.176943 0.176863 0.176788 0.176730 0.176706 0.176700 0.176695 0.176673 0.176629 0.176571 0.176514 0.176457 0.176399 0.176352 0.176317 0.176302 0.176298 
0.216540 0.216424 0.215714 0.213948 0.211597 0.209521 0.207446 0.205371 0.203552 0.202186 0.201698 0.201619 0.201541 0.201063 0.199882 0.198309 0.196935 0.195560 0.194186 0.192963 0.192044 0.191708 0.191653 0.191599 0.191268 0.190429 0.189312 0.188276 0.187240 0.186204 0.185245 0.184525 0.184261 0.184217 0.184175 0.183912 0.183261 0.182395 0.181643 0.180891 0.180139 0.179553 0.179113 0.178967 0.178943 0.178920 0.178776 0.178445 0.178004 0.177677 0.177351 0.177024 0.176777 0.176592 0.176535 0.176526 0.176517 0.176459 0.176319 0.176133 0.176008 0.175884 0.175760 0.175667 0.175598 0.175583 0.175580 0.175578 0.175562 0.175520 0.175464 0.175447 0.175429 0.175411 0.175416 0.175419 0.175426 0.175427 
0.175904 0.175881 0.175796 0.175596 0.175332 0.175070 0.174807 0.174544 0.174285 0.174089 0.174005 0.173982 0.173960 0.173876 0.173680 0.173422 0.173165 0.172909 0.172653 0.172402 0.172213 0.172134 0.172113 0.172091 0.172013 0.171830 0.171588 0.171355 0.171121 0.170887 0.170659 0.170486 0.170412 0.170392 0.170372 0.170299 0.170132 0.169911 0.169697 0.169482 0.169268 0.169064 0.168910 0.168845 0.168828 0.168810 0.168746 0.168595 0.168396 0.168207 0.168019 0.167830 0.167646 0.167507 0.167448 0.167432 0.167417 0.167361 0.167232 0.167061 0.166894 0.166727 0.166560 0.166404 0.166286 0.166236 0.166222 0.166209 0.166159 0.166044 0.165893 0.165759 0.165625 0.165491 0.165409 0.165347 0.165325 0.165319 0.165313 0.165291 0.165242 0.165176 0.165120 0.165064 0.165008 0.164956 0.164916 0.164899 0.164894 0.164889 0.164872 0.164836 0.164788 0.164742 0.164697 0.164651 0.164610 0.164580 0.164566 0.164563 0.164559 0.164546 0.164513 0.164468 0.164429 0.164389 0.164349 0.164312 0.164283 0.164271 0.164268 0.164265 0.164256 0.164231 0.164199 0.164163 0.164128 0.164093 0.164064 0.164043 0.164033 0.164030 0.164028 0.164018 0.163995 0.163966 0.163941 0.163917 0.163893 0.163868 0.163849 0.163843 0.163841 
