-1.139728 0.414655 2.927966
-1.142736 0.422558 2.918622
-1.145744 0.430461 2.909278
-1.279984 0.782006 2.492766
-1.412949 1.129700 2.080430
-1.563091 1.441247 1.649393
-1.761062 1.643483 1.171776
-1.147606 0.435353 2.903494
-1.279507 0.780751 2.494249
-1.280462 0.783260 2.491284
-1.412487 1.128418 2.081894
-1.413411 1.130982 2.078966
-1.562429 1.440387 1.651074
-1.563752 1.442106 1.647712
-1.760300 1.642871 1.173521
-1.154766 0.454161 2.881255
-1.272351 0.761937 2.516484
-1.287608 0.802092 2.469061
-1.405559 1.109198 2.103851
-1.420340 1.150202 2.057008
-1.552510 1.427502 1.676276
-1.573942 1.454260 1.622258
-1.748863 1.633692 1.199683
-1.170229 0.494705 2.833256
-1.187557 0.540048 2.779505
-1.204903 0.585360 2.725733
-1.222248 0.630674 2.671963
-1.239586 0.676001 2.618201
-1.256909 0.721356 2.564457
-1.303018 0.842732 2.421126
-1.320312 0.888137 2.367417
-1.337684 0.933401 2.313613
-1.355152 0.978492 2.259695
-1.372731 1.023379 2.205643
-1.390158 1.068543 2.151774
-1.435084 1.192023 2.009888
-1.451598 1.238811 1.957135
-1.468930 1.284149 1.903380
-1.488081 1.325998 1.847510
-1.508786 1.364608 1.789937
-1.531114 1.399698 1.730644
-1.595964 1.480379 1.567306
-1.620912 1.508795 1.505537
-1.646152 1.536479 1.443557
-1.671726 1.563346 1.381353
-1.697909 1.588760 1.318791
-1.724639 1.612900 1.255962
-2.315795 1.909783 -0.109312
-2.728811 1.999714 -1.467904
-3.263253 2.207619 -2.752096
-4.303385 2.753037 -3.547317
-4.970456 3.660787 -4.379696
-5.289810 4.661689 -5.341304
-5.669163 5.596762 -6.346364
-6.139378 6.433777 -7.397742
-6.724660 7.121910 -8.497450
-7.428077 7.615766 -9.631335
-8.231053 7.892778 -10.773265
-9.102384 7.973787 -11.895976
-1.761825 1.644095 1.170031
-2.315070 1.909620 -0.107455
-2.316519 1.909945 -0.111169
-2.728354 1.999578 -1.465962
-2.729267 1.999851 -1.469846
-3.261904 2.207060 -2.750729
-3.264601 2.208179 -2.753463
-4.302001 2.752010 -3.546302
-4.304769 2.754064 -3.548331
-4.969987 3.659336 -4.378402
-4.970925 3.662238 -4.380990
-5.289334 4.660322 -5.339924
-5.290287 4.663055 -5.342685
-5.668567 5.595513 -6.344919
-5.669759 5.598010 -6.347808
-6.138643 6.432691 -7.396232
-6.140113 6.434863 -7.399253
-6.723765 7.121053 -8.495880
-6.725556 7.122767 -8.499019
-7.427003 7.615246 -9.629730
-7.429150 7.616286 -9.632940
-8.229870 7.892537 -10.771670
-8.232236 7.893019 -10.774859
-9.101121 7.973810 -11.894426
-1.773262 1.653274 1.143868
-2.304203 1.907184 -0.079607
-2.327387 1.912381 -0.139017
-2.721510 1.997530 -1.436832
-2.736232 2.001995 -1.498940
-3.243140 2.199389 -2.728631
-3.284827 2.216568 -2.773959
-4.280957 2.736875 -3.531226
-4.325526 2.769468 -3.563544
-4.962956 3.637573 -4.359000
-4.977957 3.684002 -4.400393
-5.282183 4.639828 -5.319226
-5.297438 4.683550 -5.363383
-5.659636 5.576792 -6.323255
-5.678709 5.616710 -6.369482
-6.127624 6.416410 -7.373581
-6.151259 6.450982 -7.421957
-6.710378 7.108131 -8.472357
-6.738985 7.135622 -8.522556
-7.410918 7.607412 -9.605659
-7.445249 7.624091 -9.657013
-8.212130 7.888930 -10.747757
-8.249977 7.896626 -10.798772
-9.082179 7.974145 -11.871174
-1.826687 1.692851 1.023941
-1.913097 1.749173 0.832724
-1.999348 1.797404 0.639246
-2.085636 1.835862 0.443611
-2.171033 1.867518 0.246350
-2.253814 1.894558 0.047300
-2.376155 1.922735 -0.266764
-2.450518 1.938517 -0.470297
-2.518236 1.950747 -0.676370
-2.582193 1.961662 -0.883733
-2.641388 1.974218 -1.092396
-2.690852 1.988297 -1.303493
-2.768746 2.012653 -1.631732
-2.822067 2.033180 -1.841355
-2.879117 2.056074 -2.049744
-2.952635 2.084433 -2.252049
-3.050922 2.122285 -2.442003
-3.161905 2.166364 -2.623387
-3.379190 2.256238 -2.865154
-3.532973 2.324533 -3.002588
-3.692608 2.399615 -3.129309
-3.857255 2.482749 -3.244115
-4.019519 2.573856 -3.356241
-4.181225 2.671203 -3.463834
-4.418357 2.841857 -3.633848
-4.559870 2.962776 -3.745898
-4.687410 3.093202 -3.863572
-4.787594 3.235519 -3.993242
-4.863854 3.385591 -4.130436
-4.927133 3.539269 -4.270366
-5.007720 3.784061 -4.489306
-5.053042 3.941110 -4.632438
-5.101028 4.094337 -4.778817
-5.149294 4.246103 -4.926622
-5.199158 4.396241 -5.075552
-5.250004 4.545643 -5.224895
-5.331297 4.776166 -5.458673
-5.386107 4.921824 -5.610294
-5.441036 5.067361 -5.761985
-5.499210 5.209714 -5.915468
-5.558833 5.350624 -6.069735
-5.619399 5.490564 -6.224512
-5.719888 5.701934 -6.468710
-5.786109 5.835900 -6.626429
-5.855504 5.966350 -6.785719
-5.927176 6.094201 -6.946112
-6.000934 6.219604 -7.107486
-6.077676 6.341417 -7.270210
-6.202542 6.524275 -7.525894
-6.285662 6.637968 -7.691338
-6.372569 6.746501 -7.858288
-6.461753 6.851857 -8.026083
-6.553152 6.953977 -8.194665
-6.649169 7.049057 -8.364799
-6.801179 7.193085 -8.630413
-6.904534 7.275933 -8.802613
-7.009163 7.356592 -8.975111
-7.115556 7.433937 -9.148002
-7.227219 7.501095 -9.321856
-7.339264 7.567492 -9.495770
-7.519556 7.658189 -9.767102
-7.638022 7.710534 -9.941558
-7.758145 7.758896 -10.116008
-7.881198 7.799981 -10.290295
-8.005484 7.837863 -10.464438
-8.131519 7.871003 -10.638283
-8.331484 7.911962 -10.907978
-8.461611 7.933291 -11.080662
-8.593208 7.950055 -11.252726
-8.726513 7.961348 -11.423925
-8.860506 7.970323 -11.594730
-8.995811 7.974796 -11.764662
197 NaN NaN
-1.138224 0.410704 2.932638
-1.162203 0.473701 2.858151
-1.186237 0.536600 2.783597
-1.210298 0.599451 2.709012
-1.234356 0.662306 2.634429
-1.258384 0.725216 2.559883
-1.282353 0.788232 2.485408
-1.306277 0.851329 2.410986
-1.330281 0.914282 2.336469
-1.354504 0.976837 2.261688
-1.378887 1.039099 2.186714
-1.402946 1.101950 2.112130
-1.426152 1.166328 2.038587
-1.448844 1.231606 1.965677
-1.472882 1.294485 1.891126
-1.500178 1.351079 1.812797
-1.531139 1.399738 1.730576
-1.564359 1.442894 1.646170
-1.598549 1.483445 1.560855
-1.633201 1.522727 1.475135
-1.668557 1.560271 1.388925
-1.704874 1.595520 1.302149
-1.742225 1.628364 1.214869
-1.780531 1.659109 1.127239
-1.819710 1.688065 1.039384
-1.859516 1.715372 0.951284
-1.899579 1.741045 0.862810
-1.939555 1.765082 0.773838
-1.979392 1.787312 0.684336
-2.019223 1.807455 0.594339
-2.059151 1.825294 0.503900
-2.099046 1.841212 0.413087
-2.138672 1.855906 0.321950
-2.177816 1.869952 0.230504
-2.216358 1.883084 0.138667
-2.254208 1.894679 0.046338
-2.291294 1.904291 -0.046527
-2.327694 1.912450 -0.139804
-2.363547 1.920017 -0.233342
-2.398901 1.927640 -0.327065
-2.433358 1.935050 -0.421139
-2.466392 1.941725 -0.515775
-2.497702 1.947349 -0.611063
-2.527798 1.952329 -0.706779
-2.557379 1.957227 -0.802659
-2.586740 1.962475 -0.898589
-2.615032 1.968126 -0.994815
-2.641199 1.974166 -1.091615
-2.664836 1.980548 -1.189043
-2.687066 1.987151 -1.286790
-2.709223 1.993853 -1.384546
-2.732150 2.000713 -1.482113
-2.755767 2.008131 -1.579474
-2.779897 2.016538 -1.676629
-2.804470 2.026038 -1.773572
-2.829583 2.036230 -1.870306
-2.855373 2.046687 -1.966834
-2.882867 2.057557 -2.062841
-2.914210 2.069705 -2.157496
-2.951479 2.083991 -2.249659
-2.994625 2.100508 -2.338849
-3.041618 2.118640 -2.425762
-3.090633 2.137843 -2.511322
-3.142102 2.158360 -2.595109
-3.198224 2.181043 -2.675251
-3.260752 2.206582 -2.749562
-3.328487 2.234676 -2.818202
-3.398848 2.264598 -2.883358
-3.469811 2.295820 -2.947244
-3.541303 2.328320 -3.009887
-3.614191 2.362294 -3.070087
-3.689071 2.397883 -3.126805
-3.765218 2.435154 -3.180695
-3.841465 2.474193 -3.233174
-3.916894 2.515066 -3.285439
-3.991696 2.557556 -3.337314
-4.066449 2.601349 -3.388167
-4.141450 2.646281 -3.437643
-4.215788 2.692859 -3.486593
-4.288185 2.741757 -3.536176
-4.357705 2.793348 -3.587129
-4.424931 2.847115 -3.638911
-4.490857 2.902409 -3.690758
-4.555813 2.958968 -3.742464
-4.618148 3.017465 -3.795215
-4.675713 3.078602 -3.850318
-4.726955 3.142562 -3.908379
-4.772102 3.208844 -3.968852
-4.811674 3.276978 -4.031151
-4.846473 3.346516 -4.094743
-4.877818 3.416983 -4.159112
-4.907122 3.488001 -4.223839
-4.935017 3.559466 -4.288696
-4.961014 3.631563 -4.353642
-4.984565 3.704456 -4.418629
-5.005982 3.777876 -4.483765
-5.026564 3.851111 -4.549378
-5.047620 3.923470 -4.615806
-5.069545 3.994800 -4.683062
-5.091883 4.065468 -4.750879
-5.114181 4.135858 -4.818998
-5.136414 4.206062 -4.887330
-5.158893 4.275947 -4.955907
-5.181901 4.345393 -5.024754
-5.205355 4.414500 -5.093792
-5.228937 4.483517 -5.162877
-5.252381 4.552651 -5.231891
-5.275868 4.621729 -5.300947
-5.299819 4.690373 -5.370274
-5.324570 4.758272 -5.440053
-5.349892 4.825635 -5.510147
-5.375318 4.892901 -5.580296
-5.400497 4.960403 -5.650308
-5.425745 5.027837 -5.720360
-5.451604 5.094679 -5.790755
-5.478457 5.160544 -5.861697
-5.505975 5.225744 -5.932997
-5.533638 5.290799 -6.004375
-5.561114 5.356041 -6.075653
-5.588755 5.421114 -6.147022
-5.617063 5.485505 -6.218747
-5.646328 5.548897 -6.290975
-5.676243 5.611602 -6.363537
-5.706397 5.674050 -6.436223
-5.736589 5.736455 -6.508929
-5.767100 5.798513 -6.581798
-5.798280 5.859838 -6.655004
-5.830288 5.920242 -6.728616
-5.862930 5.979928 -6.802536
-5.895976 6.039150 -6.876650
-5.929333 6.098007 -6.950914
-5.963126 6.156354 -7.025384
-5.997495 6.214020 -7.100120
-6.032519 6.270903 -7.175151
-6.068196 6.326988 -7.250475
-6.104517 6.382268 -7.326085
-6.141426 6.436803 -7.401951
-6.178817 6.490722 -7.478022
-6.216594 6.544149 -7.554249
-6.254843 6.596962 -7.630668
-6.293812 6.648812 -7.707381
-6.333725 6.699369 -7.784470
-6.374454 6.748789 -7.861871
-6.415623 6.797591 -7.939431
-6.456905 6.846241 -8.017027
-6.498506 6.894434 -8.094737
-6.540944 6.941391 -8.172749
-6.584640 6.986436 -8.251191
-6.629288 7.030001 -8.329935
-6.674242 7.073089 -8.408768
-6.719004 7.116495 -8.487536
-6.763983 7.159552 -8.566372
-6.809945 7.200987 -8.645505
-6.857424 7.239838 -8.725053
-6.905883 7.276967 -8.804835
-6.954475 7.313870 -8.884641
-7.002638 7.351548 -8.964345
-7.050972 7.388912 -9.044094
-7.100371 7.424299 -9.124085
-7.151345 7.456656 -9.204373
-7.203254 7.487144 -9.284796
-7.255268 7.517423 -9.365231
-7.306931 7.548415 -9.445621
-7.358782 7.579009 -9.526042
-7.411516 7.607738 -9.606572
-7.465438 7.633877 -9.687200
-7.520067 7.658419 -9.767856
-7.574855 7.682592 -9.848516
-7.629579 7.706906 -9.929177
-7.684589 7.730545 -10.009844
-7.740277 7.752554 -10.090504
-7.796759 7.772603 -10.171125
-7.853764 7.791318 -10.251699
-7.911016 7.809396 -10.332244
-7.968429 7.827049 -10.412769
-8.026146 7.843893 -10.493249
-8.084312 7.859515 -10.573651
-8.142964 7.873788 -10.653952
-8.202034 7.886877 -10.734148
-8.261454 7.898960 -10.814244
-8.321174 7.910169 -10.894243
-8.381155 7.920598 -10.974153
-8.441365 7.930321 -11.053980
-8.501851 7.939193 -11.133697
-8.562707 7.946914 -11.213251
-8.624008 7.953227 -11.292588
-8.685667 7.958373 -11.371731
-8.747517 7.962878 -11.450765
-8.809424 7.967180 -11.529766
-8.871474 7.970998 -11.608679
-8.933849 7.973710 -11.687380
-8.996686 7.974812 -11.765753
-9.059902 7.974540 -11.843827
-9.123347 7.973416 -11.921709
-9.186879 7.971962 -11.999514
-9.250361 7.970699 -12.077364
-9.313651 7.970148 -12.155377
