-1.403784 0.387438 3.792823
-1.403946 0.391617 3.781334
-1.404107 0.395797 3.769845
-1.411419 0.584759 3.250412
-1.418654 0.771802 2.736252
-1.425863 0.958833 2.222089
-1.432909 1.145798 1.707899
-1.404208 0.398399 3.762691
-1.411392 0.584075 3.252291
-1.411445 0.585443 3.248532
-1.418628 0.771118 2.738132
-1.418681 0.772485 2.734373
-1.425837 0.958150 2.223968
-1.425889 0.959517 2.220209
-1.432889 1.145116 1.709779
-1.404599 0.408504 3.734914
-1.411001 0.573971 3.280068
-1.411836 0.595548 3.220755
-1.418236 0.761013 2.765909
-1.419072 0.782590 2.706596
-1.425452 0.948047 2.251746
-1.426274 0.969619 2.192431
-1.432584 1.135047 1.737570
-1.405442 0.430287 3.675038
-1.406385 0.454667 3.608019
-1.407329 0.479047 3.541001
-1.408272 0.503428 3.473982
-1.409215 0.527808 3.406963
-1.410158 0.552188 3.339945
-1.412680 0.617330 3.160878
-1.413623 0.641711 3.093860
-1.414567 0.666091 3.026842
-1.415510 0.690471 2.959823
-1.416452 0.714851 2.892804
-1.417394 0.739231 2.825786
-1.419917 0.804373 2.646719
-1.420864 0.828756 2.579702
-1.421812 0.853138 2.512684
-1.422756 0.877518 2.445665
-1.423695 0.901897 2.378646
-1.424623 0.926271 2.311625
-1.427126 0.991405 2.132556
-1.428101 1.015799 2.065542
-1.429101 1.040202 1.998533
-1.430101 1.064606 1.931524
-1.431046 1.088987 1.864506
-1.431922 1.113340 1.797476
-1.642361 1.672326 0.450750
-2.130167 1.980983 -0.823624
-2.449446 2.060380 -2.185478
-3.145627 2.315043 -3.335176
-4.202016 2.874119 -4.061587
-4.782508 3.708545 -4.975670
-5.093869 4.681690 -5.936996
-5.460413 5.604601 -6.927620
-5.911033 6.440257 -7.959535
-6.472662 7.148997 -9.030612
-7.159737 7.688648 -10.126174
-7.960590 8.027187 -11.225072
-8.841539 8.161987 -12.306969
-1.432930 1.146479 1.706018
-1.641662 1.671619 0.452486
-1.643060 1.673025 0.449011
-2.129530 1.980728 -0.821745
-2.130805 1.981239 -0.825502
-2.448973 2.060276 -2.183538
-2.449919 2.060484 -2.187419
-3.144224 2.314491 -3.333862
-3.147030 2.315596 -3.336489
-4.200592 2.873145 -4.060575
-4.203440 2.875092 -4.062600
-4.782133 3.707164 -4.974272
-4.782882 3.709925 -4.977068
-5.093396 4.680326 -5.935612
-5.094343 4.683053 -5.938381
-5.459838 5.603339 -6.926179
-5.460989 5.605863 -6.929061
-5.910324 6.439138 -7.958037
-5.911742 6.441375 -7.961034
-6.471772 7.148098 -9.029063
-6.473552 7.149896 -9.032162
-7.158683 7.687994 -10.124605
-7.160791 7.689301 -10.127743
-7.959383 8.026851 -11.223513
-7.961797 8.027523 -11.226631
-8.840247 8.161915 -12.305444
-1.433229 1.156546 1.678226
-1.631365 1.660383 0.477814
-1.653389 1.683360 0.423314
-2.120105 1.976955 -0.793983
-2.140054 1.984898 -0.853339
-2.441985 2.058737 -2.154856
-2.456591 2.061863 -2.216182
-3.123482 2.306322 -3.314449
-3.167876 2.323926 -3.355719
-4.179549 2.858756 -4.045609
-4.224393 2.889580 -4.077594
-4.776595 3.686757 -4.953615
-4.788420 3.730332 -4.997725
-5.086394 4.660174 -5.915149
-5.101345 4.703205 -5.958843
-5.451331 5.584681 -6.904887
-5.469496 5.624521 -6.950353
-5.899849 6.422600 -7.935887
-5.922217 6.457913 -7.983184
-6.458618 7.134813 -9.006165
-6.486705 7.163181 -9.055060
-7.143103 7.678335 -10.101415
-7.176371 7.698962 -10.150933
-7.941575 8.021808 -11.200464
-7.979638 8.032483 -11.249673
-8.821145 8.160880 -12.282908
-1.434927 1.202672 1.551317
-1.439858 1.276677 1.350620
-1.438990 1.348263 1.149027
-1.441467 1.421069 0.948179
-1.499187 1.512727 0.764749
-1.583138 1.607052 0.592087
-1.701375 1.728617 0.305496
-1.779628 1.790473 0.116246
-1.856536 1.842760 -0.076434
-1.933549 1.890287 -0.270316
-2.008338 1.930597 -0.466645
-2.077242 1.959945 -0.667058
-2.181018 2.000593 -0.981046
-2.236927 2.018106 -1.186769
-2.286492 2.030570 -1.394537
-2.332042 2.040778 -1.603331
-2.367999 2.044979 -1.814202
-2.410195 2.051790 -2.023792
-2.486742 2.067980 -2.347672
-2.552382 2.086521 -2.549882
-2.653144 2.122971 -2.734804
-2.756455 2.160950 -2.918274
-2.876919 2.207345 -3.088259
-3.027659 2.268354 -3.227209
-3.265149 2.364664 -3.439956
-3.428742 2.440550 -3.554758
-3.595719 2.519731 -3.662588
-3.760636 2.601761 -3.771411
-3.923248 2.695798 -3.873791
-4.082102 2.794543 -3.977672
-4.316831 2.958774 -4.147579
-4.449945 3.073028 -4.269704
-4.563814 3.189491 -4.408287
-4.663050 3.309547 -4.554801
-4.725578 3.445323 -4.706948
-4.754440 3.593280 -4.858725
-4.816296 3.824133 -5.090785
-4.862082 3.974504 -5.235949
-4.909015 4.124290 -5.381351
-4.956439 4.273110 -5.527585
-5.004409 4.421569 -5.674007
-5.054330 4.568190 -5.821622
-5.133457 4.795152 -6.052390
-5.186075 4.939156 -6.201632
-5.240842 5.081049 -6.352122
-5.296306 5.222263 -6.502997
-5.353459 5.361788 -6.654806
-5.412866 5.499038 -6.807819
-5.508676 5.709420 -7.047788
-5.572330 5.842292 -7.202939
-5.639330 5.971656 -7.359638
-5.707598 6.099651 -7.516920
-5.777264 6.226138 -7.674796
-5.851772 6.347308 -7.834614
-5.970465 6.533022 -8.084510
-6.050513 6.647898 -8.246283
-6.134174 6.758523 -8.409203
-6.219293 6.867417 -8.572533
-6.307478 6.972559 -8.736682
-6.399236 7.073196 -8.901698
-6.547156 7.223398 -9.159731
-6.645562 7.315218 -9.326047
-6.748544 7.400528 -9.493062
-6.852848 7.483948 -9.660223
-6.959570 7.563627 -9.827645
-7.071704 7.634577 -9.995472
-7.248130 7.742056 -10.256903
-7.366280 7.802166 -10.424826
-7.487156 7.857016 -10.592639
-7.608779 7.910213 -10.760434
-7.733645 7.956421 -10.927905
-7.860748 7.997451 -11.095060
-8.061557 8.054083 -11.354834
-8.193088 8.083591 -11.520986
-8.326414 8.107800 -11.686569
-8.460689 8.129142 -11.851780
-8.596391 8.145809 -12.016347
-8.733906 8.156068 -12.179938
206 NaN NaN
-1.403703 0.385348 3.798568
-1.405036 0.419783 3.703911
-1.406368 0.454218 3.609254
-1.407700 0.488653 3.514596
-1.409032 0.523087 3.419939
-1.410365 0.557522 3.325282
-1.411697 0.591957 3.230625
-1.413030 0.626392 3.135968
-1.414363 0.660827 3.041311
-1.415695 0.695262 2.946654
-1.417026 0.729696 2.851996
-1.418357 0.764130 2.757339
-1.419691 0.798566 2.662682
-1.421030 0.833003 2.568026
-1.422367 0.867440 2.473370
-1.423694 0.901873 2.378712
-1.425004 0.936299 2.284051
-1.426316 0.970725 2.189390
-1.427665 1.005167 2.094736
-1.429077 1.039635 2.000092
-1.430490 1.074103 1.905448
-1.431775 1.108518 1.810783
-1.432821 1.142834 1.716080
-1.433841 1.177140 1.621372
-1.435308 1.211630 1.526737
-1.437659 1.246484 1.432254
-1.440204 1.281417 1.337804
-1.441173 1.315700 1.243091
-1.438964 1.348644 1.147927
-1.436036 1.381266 1.052670
-1.439476 1.416491 0.958413
-1.457063 1.456929 0.868018
-1.489646 1.501756 0.783979
-1.529509 1.547594 0.703630
-1.569705 1.591990 0.622643
-1.606653 1.633419 0.538596
-1.641743 1.671707 0.452288
-1.676940 1.706924 0.364723
-1.713328 1.739228 0.276524
-1.750318 1.768851 0.187636
-1.787157 1.796027 0.097907
-1.823426 1.821095 0.007335
-1.859428 1.844652 -0.083750
-1.895572 1.867338 -0.174999
-1.931974 1.889387 -0.266301
-1.967978 1.909967 -0.358101
-2.002779 1.928064 -0.450879
-2.035896 1.943153 -0.544807
-2.067946 1.956284 -0.639399
-2.099790 1.968824 -0.734142
-2.131907 1.981680 -0.828750
-2.163348 1.994097 -0.923642
-2.192811 2.004928 -1.019355
-2.219338 2.013336 -1.116164
-2.243635 2.019925 -1.213700
-2.266891 2.025700 -1.311544
-2.290007 2.031443 -1.409422
-2.312313 2.036766 -1.507511
-2.332609 2.040894 -1.606089
-2.350071 2.043275 -1.705267
-2.366309 2.044782 -1.804673
-2.383892 2.046837 -1.903836
-2.404987 2.050658 -2.002255
-2.428630 2.055797 -2.100040
-2.452443 2.061039 -2.197779
-2.474573 2.065434 -2.295953
-2.497618 2.070255 -2.393891
-2.526627 2.078021 -2.490003
-2.566064 2.091036 -2.581693
-2.613830 2.108344 -2.668653
-2.664390 2.127155 -2.753726
-2.713159 2.145111 -2.840012
-2.761175 2.162677 -2.926805
-2.813596 2.182389 -3.010492
-2.875045 2.206586 -3.086433
-2.944319 2.234645 -3.153924
-3.016765 2.264023 -3.217450
-3.088703 2.292624 -3.281895
-3.159384 2.320462 -3.348053
-3.230938 2.349656 -3.412655
-3.305394 2.382319 -3.472073
-3.382772 2.418512 -3.525434
-3.461510 2.456259 -3.575660
-3.540335 2.493704 -3.625976
-3.618571 2.530470 -3.677694
-3.696300 2.568171 -3.729501
-3.773625 2.608543 -3.779872
-3.850453 2.652151 -3.828271
-3.926589 2.697801 -3.875880
-4.001902 2.744199 -3.924072
-4.076237 2.790744 -3.973620
-4.149375 2.838125 -4.024149
-4.221083 2.887156 -4.075148
-4.290884 2.938272 -4.126737
-4.357745 2.991100 -4.180444
-4.420408 3.045079 -4.237919
-4.478047 3.099618 -4.299946
-4.531545 3.154447 -4.365350
-4.582230 3.209490 -4.432791
-4.630455 3.265230 -4.501446
-4.673288 3.323466 -4.571558
-4.706651 3.385939 -4.643098
-4.728008 3.452947 -4.715146
-4.741873 3.522387 -4.786781
-4.754277 3.592553 -4.857986
-4.769969 3.662343 -4.928902
-4.788841 3.731883 -4.999295
-4.809520 3.801693 -5.068910
-4.830809 3.872197 -5.137637
-4.852406 3.943136 -5.205818
-4.874281 4.014051 -5.273936
-4.896398 4.084557 -5.342400
-4.918675 4.154710 -5.411172
-4.941017 4.224732 -5.480058
-4.963354 4.294803 -5.548896
-4.985822 4.364807 -5.617759
-5.008644 4.434500 -5.686821
-5.032006 4.503670 -5.756227
-5.055793 4.572418 -5.825908
-5.079735 4.641009 -5.895689
-5.103595 4.709681 -5.965419
-5.127487 4.778329 -6.035163
-5.151731 4.846640 -6.105115
-5.176626 4.914319 -6.175452
-5.202140 4.981389 -6.246148
-5.228007 5.048112 -6.317047
-5.253971 5.114739 -6.387998
-5.280023 5.181283 -6.458996
-5.306354 5.247551 -6.530149
-5.333156 5.313346 -6.601564
-5.360502 5.378593 -6.673275
-5.388347 5.443335 -6.745252
-5.416644 5.507621 -6.817460
-5.445328 5.571516 -6.889863
-5.474317 5.635096 -6.962421
-5.503533 5.698436 -7.035098
-5.533044 5.761468 -7.107924
-5.563113 5.823920 -7.181020
-5.594012 5.885508 -7.254501
-5.625745 5.946213 -7.328361
-5.657909 6.006455 -7.402415
-5.690071 6.066691 -7.476473
-5.722148 6.127015 -7.550498
-5.754701 6.186830 -7.624726
-5.788354 6.245459 -7.699407
-5.823348 6.302605 -7.774620
-5.859124 6.358869 -7.850131
-5.895027 6.414987 -7.925690
-5.930723 6.471342 -8.001171
-5.966695 6.527392 -8.076748
-6.003555 6.582436 -8.152635
-6.041674 6.636019 -8.228944
-6.080727 6.688499 -8.305547
-6.120262 6.740404 -8.382295
-6.159966 6.792114 -8.459089
-6.200005 6.843425 -8.535975
-6.240658 6.893994 -8.613030
-6.282147 6.943536 -8.690307
-6.324472 6.992030 -8.767794
-6.367577 7.039534 -8.845464
-6.411393 7.086122 -8.923292
-6.455788 7.131955 -9.001239
-6.500613 7.177227 -9.079270
-6.545769 7.222062 -9.157360
-6.591499 7.266123 -9.235557
-6.638169 7.308884 -9.313920
-6.686057 7.349912 -9.392473
-6.734858 7.389614 -9.471146
-6.784010 7.428810 -9.549856
-6.833040 7.468203 -9.628544
-6.882253 7.507323 -9.707253
-6.932372 7.545046 -9.786070
-6.984022 7.580332 -9.865025
-7.036947 7.613520 -9.944049
-7.090366 7.645883 -10.023084
-7.143570 7.678622 -10.102109
-7.196661 7.711543 -10.181134
-7.250362 7.743379 -10.260190
-7.305349 7.772882 -10.339265
-7.361586 7.800029 -10.418306
-7.418463 7.825925 -10.497311
-7.475401 7.851687 -10.576317
-7.532305 7.877485 -10.655335
-7.589583 7.902492 -10.734336
-7.647643 7.925844 -10.813272
-7.706575 7.947295 -10.892102
-7.766109 7.967367 -10.970843
-7.825976 7.986629 -11.049535
-7.886059 8.005328 -11.128198
-7.946447 8.023255 -11.206807
-8.007244 8.040159 -11.285327
-8.068509 8.055865 -11.363731
-8.130240 8.070316 -11.442011
-8.192426 8.083465 -11.520161
-8.255022 8.095388 -11.598180
-8.317921 8.106396 -11.676090
-8.381011 8.116828 -11.753925
-8.444257 8.126796 -11.831695
-8.507783 8.135866 -11.909345
-8.571731 8.143525 -11.986799
-8.636162 8.149492 -12.064002
-8.700956 8.154137 -12.140993
-8.765974 8.157948 -12.217842
-8.831084 8.161409 -12.294629
-8.896159 8.165005 -12.371439
-8.961070 8.169224 -12.448355
