0.157311 0.157320 0.157450 0.157996 0.158861 0.159721 0.160581 0.161441 0.162359 0.162938 0.163069 0.163079 0.163088 0.163219 0.163833 0.164804 0.165825 0.166846 0.167867 0.168927 0.169595 0.169745 0.169756 0.169767 0.169916 0.170602 0.171688 0.172793 0.173899 0.175005 0.176115 0.176816 0.176967 0.176978 0.176989 0.177139 0.177810 0.178872 0.179840 0.180808 0.181775 0.182590 0.183104 0.183207 0.183214 0.183222 0.183323 0.183742 0.184406 0.184932 0.185458 0.185984 0.186420 0.186695 0.186752 0.186756 0.186760 0.186817 0.187072 0.187476 0.187807 0.188139 0.188470 0.188666 0.188789 0.188808 0.188810 0.188811 0.188828 0.188831 0.188836 0.188566 0.188296 0.188026 0.187483 0.187140 0.187047 0.187040 0.187033 0.186936 0.186433 0.185636 0.184607 0.183579 0.182551 0.181341 0.180577 0.180401 0.180388 
0.157305 0.157291 0.157156 0.156766 0.156231 0.155718 0.155206 0.154693 0.154211 0.153861 0.153744 0.153732 0.153720 0.153604 0.153273 0.152818 0.152390 0.151961 0.151533 0.151131 0.150838 0.150740 0.150730 0.150720 0.150622 0.150340 0.149953 0.149583 0.149213 0.148843 0.148485 0.148224 0.148137 0.148128 0.148119 0.148032 0.147779 0.147433 0.147095 0.146757 0.146419 0.146088 0.145848 0.145766 0.145758 0.145750 0.145669 0.145432 0.145107 0.144786 0.144466 0.144145 0.143828 0.143597 0.143519 0.143511 0.143503 0.143425 0.143196 0.142881 0.142568 0.142255 0.141942 0.141633 0.141408 0.141331 0.141324 0.141316 0.141240 0.141017 0.140712 0.140412 0.140112 0.139811 0.139517 0.139302 0.139230 0.139223 0.139215 0.139143 0.138933 0.138644 0.138361 0.138079 0.137796 0.137521 0.137320 0.137253 0.137246 0.137239 0.137172 0.136976 0.136708 0.136447 0.136185 0.135924 0.135671 0.135486 0.135424 0.135418 0.135411 0.135350 0.135170 0.134924 0.134684 0.134444 0.134204 0.133970 0.133799 0.133742 0.133736 0.133730 0.133673 0.133508 0.133280 0.133059 0.132837 0.132616 0.132400 0.132243 0.132190 0.132185 0.132179 0.132127 0.131973 0.131763 0.131558 0.131352 0.131147 0.130946 0.130800 0.130751 0.130746 0.130741 0.130692 0.130549 0.130353 0.130162 0.129970 0.129778 0.129591 0.129455 0.129409 0.129404 
0.157311 0.157319 0.157445 0.157594 0.157830 0.157153 0.156476 0.155799 0.154759 0.154103 0.153957 0.153947 0.153937 0.153793 0.153085 0.151964 0.150914 0.149864 0.148815 0.147866 0.147267 0.147140 0.147131 0.147122 0.146995 0.146444 0.145570 0.144828 0.144086 0.143344 0.142709 0.142308 0.142222 0.142216 0.142210 0.142123 0.141707 0.141047 0.140165 0.139283 0.138401 0.136989 0.136098 0.135864 0.135848 0.135832 0.135591 0.134316 0.132296 0.130014 0.127733 0.125451 0.123429 0.122152 0.121914 0.121898 0.121882 0.121654 0.120815 0.119486 0.118791 0.118095 0.117400 0.117026 0.116790 0.116746 0.116743 0.116741 0.116699 0.116531 0.116267 0.116071 0.115876 0.115681 0.115530 0.115435 0.115416 0.115415 0.115413 0.115394 0.115314 0.115187 0.115080 0.114973 0.114866 0.114774 0.114716 0.114704 0.114703 0.114702 0.114690 0.114639 0.114557 0.114485 0.114413 0.114341 0.114278 0.114239 0.114230 0.114230 0.114229 0.114221 0.114185 0.114129 0.114080 0.114031 0.113982 0.113941 0.113914 0.113909 0.113908 0.113908 0.113903 0.113880 0.113843 0.113812 0.113781 0.113750 0.113724 0.113708 0.113705 0.113704 0.113704 0.113701 0.113687 0.113664 0.113646 0.113628 0.113609 0.113594 0.113584 0.113582 0.113582 0.113582 0.113580 0.113571 0.113558 0.113545 0.113532 0.113519 0.113494 0.113478 0.113471 0.113471 
0.188799 0.188755 0.188490 0.187816 0.186918 0.186082 0.185246 0.184411 0.183638 0.183058 0.182843 0.182807 0.182772 0.182559 0.182028 0.181322 0.180676 0.180030 0.179384 0.178808 0.178376 0.178218 0.178192 0.178166 0.178010 0.177634 0.177133 0.176708 0.176282 0.175857 0.175512 0.175252 0.175163 0.175149 0.175134 0.175046 0.174838 0.174560 0.174340 0.174119 0.173899 0.173721 0.173587 0.173547 0.173540 0.173534 0.173493 0.173386 0.173243 0.173132 0.173022 0.172912 0.172825 0.172760 0.172742 0.172738 0.172736 0.172719 0.172671 0.172607 0.172562 0.172518 0.172474 0.172447 0.172428 0.172419 0.172418 0.172417 0.172410 0.172400 0.172386 0.172379 0.172373 0.172366 0.172369 0.172372 0.172372 0.172372 
0.176972 0.176949 0.176834 0.176542 0.176155 0.175778 0.175401 0.175024 0.174655 0.174378 0.174269 0.174248 0.174226 0.174118 0.173847 0.173488 0.173144 0.172800 0.172455 0.172124 0.171874 0.171778 0.171759 0.171740 0.171646 0.171415 0.171107 0.170813 0.170518 0.170224 0.169949 0.169743 0.169661 0.169645 0.169628 0.169547 0.169348 0.169085 0.168834 0.168584 0.168334 0.168097 0.167918 0.167852 0.167839 0.167826 0.167760 0.167594 0.167374 0.167173 0.166972 0.166770 0.166594 0.166460 0.166412 0.166402 0.166393 0.166345 0.166230 0.166077 0.165953 0.165829 0.165705 0.165607 0.165533 0.165504 0.165498 0.165493 0.165464 0.165401 0.165317 0.165247 0.165177 0.165108 0.165049 0.165005 0.164988 0.164984 0.164981 0.164967 0.164933 0.164887 0.164847 0.164808 0.164769 0.164738 0.164714 0.164707 0.164706 0.164705 0.164698 0.164678 0.164653 0.164634 0.164616 0.164597 0.164585 0.164576 0.164573 0.164572 0.164571 0.164568 0.164561 0.164552 0.164546 0.164540 0.164535 0.164533 0.164531 0.164531 0.164530 
0.169751 0.169733 0.169671 0.169525 0.169332 0.169137 0.168941 0.168746 0.168550 0.168401 0.168337 0.168318 0.168300 0.168235 0.168087 0.167891 0.167696 0.167501 0.167305 0.167110 0.166962 0.166898 0.166880 0.166861 0.166797 0.166650 0.166457 0.166267 0.166078 0.165889 0.165703 0.165562 0.165501 0.165484 0.165467 0.165406 0.165268 0.165085 0.164908 0.164730 0.164552 0.164379 0.164248 0.164191 0.164175 0.164159 0.164103 0.163976 0.163808 0.163646 0.163483 0.163321 0.163166 0.163048 0.162998 0.162983 0.162969 0.162919 0.162803 0.162651 0.162503 0.162355 0.162207 0.162064 0.161955 0.161908 0.161895 0.161882 0.161835 0.161730 0.161592 0.161456 0.161321 0.161185 0.161053 0.160952 0.160910 0.160898 0.160886 0.160843 0.160746 0.160618 0.160494 0.160370 0.160247 0.160128 0.160037 0.159999 0.159988 0.159977 0.159940 0.159856 0.159746 0.159649 0.159551 0.159454 0.159364 0.159296 0.159270 0.159263 0.159256 0.159231 0.159174 0.159099 0.159030 0.158961 0.158892 0.158834 0.158790 0.158771 0.158766 0.158760 0.158742 0.158700 0.158645 0.158602 0.158559 0.158516 0.158474 0.158442 0.158430 0.158427 0.158424 0.158414 0.158390 0.158359 0.158329 0.158299 0.158269 0.158248 0.158231 0.158224 0.158222 0.158220 0.158213 0.158196 0.158174 0.158159 0.158143 0.158127 0.158112 0.158100 0.158095 0.158094 0.158093 0.158089 0.158082 0.158073 0.158063 0.158054 0.158044 0.158039 0.158036 0.158034 0.158034 0.158033 0.158032 0.158028 0.158022 0.158020 0.158018 0.158016 0.158013 0.158012 0.158011 0.158011 0.158010 0.158010 0.158011 0.158012 0.158013 0.158013 0.158014 0.158017 0.158019 0.158020 0.158020 0.158021 0.158022 0.158023 0.158026 0.158029 0.158032 0.158035 0.158038 0.158041 0.158041 0.158042 
0.163075 0.163062 0.163009 0.162882 0.162714 0.162541 0.162368 0.162195 0.162017 0.161883 0.161826 0.161811 0.161796 0.161739 0.161602 0.161420 0.161236 0.161052 0.160868 0.160682 0.160542 0.160483 0.160467 0.160452 0.160392 0.160251 0.160064 0.159880 0.159695 0.159510 0.159329 0.159192 0.159135 0.159120 0.159105 0.159049 0.158914 0.158734 0.158561 0.158388 0.158215 0.158046 0.157919 0.157866 0.157852 0.157839 0.157786 0.157663 0.157500 0.157345 0.157190 0.157034 0.156889 0.156779 0.156733 0.156721 0.156710 0.156664 0.156558 0.156418 0.156278 0.156138 0.155998 0.155860 0.155756 0.155713 0.155702 0.155691 0.155648 0.155547 0.155413 0.155280 0.155147 0.155014 0.154879 0.154778 0.154735 0.154723 0.154712 0.154668 0.154565 0.154429 0.154296 0.154162 0.154029 0.153896 0.153795 0.153753 0.153742 0.153732 0.153691 0.153600 0.153479 0.153363 0.153248 0.153132 0.153034 0.152959 0.152928 0.152920 0.152913 0.152882 0.152812 0.152720 0.152645 0.152569 0.152494 0.152427 0.152377 0.152359 0.152355 0.152350 0.152332 0.152292 0.152239 0.152195 0.152152 0.152108 0.152073 0.152047 0.152036 0.152034 0.152031 0.152020 0.152001 0.151976 0.151954 0.151931 0.151909 0.151897 0.151887 0.151884 0.151883 0.151882 0.151879 0.151870 0.151858 0.151853 0.151848 0.151843 0.151838 0.151835 0.151835 0.151835 0.151835 0.151836 0.151838 0.151840 0.151843 0.151846 0.151849 0.151856 0.151861 0.151863 0.151864 0.151865 0.151867 0.151873 0.151881 0.151891 0.151902 0.151913 0.151924 0.151933 0.151938 0.151939 0.151940 0.151944 0.151954 0.151967 0.151981 0.151995 0.152009 0.152023 0.152033 0.152038 0.152039 
0.153732 0.153731 0.153728 0.153720 0.153710 0.153698 0.153687 0.153675 0.153662 0.153653 0.153648 0.153646 0.153644 0.153639 0.153628 0.153613 0.153597 0.153581 0.153565 0.153547 0.153533 0.153525 0.153523 0.153520 0.153513 0.153497 0.153477 0.153454 0.153431 0.153409 0.153384 0.153365 0.153355 0.153352 0.153348 0.153339 0.153318 0.153290 0.153260 0.153230 0.153200 0.153166 0.153141 0.153128 0.153124 0.153119 0.153107 0.153078 0.153041 0.153002 0.152962 0.152923 0.152881 0.152849 0.152833 0.152828 0.152822 0.152807 0.152773 0.152729 0.152682 0.152635 0.152588 0.152539 0.152503 0.152486 0.152480 0.152474 0.152457 0.152422 0.152376 0.152331 0.152286 0.152241 0.152198 0.152166 0.152152 0.152146 0.152141 0.152127 0.152098 0.152060 0.152032 0.152004 0.151976 0.151961 0.151950 0.151945 0.151943 0.151941 0.151935 0.151924 0.151909 0.151893 0.151877 0.151861 0.151845 0.151832 0.151826 0.151824 0.151822 0.151816 0.151803 0.151786 0.151769 0.151751 0.151733 0.151714 0.151700 0.151693 0.151690 0.151688 0.151681 0.151666 0.151647 0.151626 0.151605 0.151584 0.151563 0.151546 0.151538 0.151536 0.151533 0.151525 0.151508 0.151485 0.151460 0.151435 0.151410 0.151385 0.151365 0.151356 0.151352 0.151349 0.151340 0.151319 0.151291 0.151262 0.151233 0.151204 0.151174 0.151151 0.151140 0.151136 0.151132 0.151121 0.151096 0.151064 0.151030 0.150996 0.150962 0.150927 0.150899 0.150886 0.150881 0.150877 0.150863 0.150834 0.150795 0.150756 0.150716 0.150677 0.150637 0.150606 0.150592 0.150587 0.150582 0.150568 0.150538 0.150498 0.150459 0.150420 0.150381 0.150342 0.150313 0.150300 0.150296 0.150291 0.150279 0.150252 0.150217 0.150184 0.150150 0.150117 0.150087 0.150065 0.150055 0.150052 0.150049 0.150039 0.150019 0.149993 0.149969 0.149944 0.149919 0.149899 0.149884 0.149877 0.149875 0.149872 0.149866 0.149852 0.149833 0.149816 0.149799 0.149781 0.149769 0.149760 0.149755 0.149754 0.149752 0.149748 0.149739 0.149727 0.149716 0.149704 0.149693 0.149685 0.149679 0.149676 0.149675 0.149674 0.149671 0.149664 0.149656 0.149648 0.149641 0.149633 0.149627 0.149623 0.149621 0.149620 0.149619 0.149617 0.149613 0.149607 0.149602 0.149597 0.149593 0.149589 0.149586 0.149584 0.149583 0.149583 0.149581 0.149578 0.149573 0.149569 0.149566 0.149562 0.149559 0.149557 0.149555 0.149555 0.149555 0.149553 0.149551 0.149547 0.149544 0.149542 0.149539 0.149536 0.149534 0.149533 0.149533 0.149532 0.149531 0.149529 0.149526 0.149524 0.149522 0.149520 0.149518 0.149516 0.149515 0.149515 0.149514 0.149514 0.149512 0.149510 0.149508 0.149506 0.149504 0.149501 0.149500 0.149499 0.149499 0.149498 0.149498 0.149496 0.149494 0.149492 0.149489 0.149487 0.149485 0.149483 0.149482 0.149481 
0.150729 0.150723 0.150698 0.150634 0.150550 0.150462 0.150374 0.150287 0.150193 0.150122 0.150093 0.150087 0.150080 0.150050 0.149976 0.149876 0.149771 0.149666 0.149560 0.149448 0.149364 0.149328 0.149321 0.149313 0.149277 0.149191 0.149076 0.148963 0.148849 0.148735 0.148628 0.148547 0.148515 0.148508 0.148501 0.148469 0.148394 0.148293 0.148210 0.148127 0.148044 0.147982 0.147934 0.147915 0.147911 0.147906 0.147887 0.147838 0.147774 0.147708 0.147642 0.147577 0.147508 0.147457 0.147436 0.147431 0.147426 0.147405 0.147351 0.147281 0.147206 0.147131 0.147057 0.146979 0.146921 0.146897 0.146891 0.146886 0.146861 0.146801 0.146721 0.146638 0.146555 0.146473 0.146388 0.146324 0.146299 0.146294 0.146288 0.146263 0.146202 0.146121 0.146050 0.145979 0.145908 0.145845 0.145798 0.145783 0.145780 0.145776 0.145762 0.145727 0.145682 0.145649 0.145616 0.145583 0.145558 0.145539 0.145535 0.145534 0.145534 0.145531 0.145524 0.145514 0.145511 0.145508 0.145505 0.145507 0.145509 0.145509 0.145509 0.145510 0.145512 0.145520 0.145531 0.145543 0.145555 0.145568 0.145583 0.145596 0.145600 0.145601 0.145603 0.145607 0.145623 0.145643 0.145664 0.145685 0.145706 0.145729 0.145747 0.145754 0.145755 0.145757 0.145764 0.145783 0.145809 0.145835 0.145861 0.145888 0.145916 0.145937 0.145946 0.145948 
0.145757 0.145754 0.145739 0.145703 0.145654 0.145603 0.145552 0.145500 0.145446 0.145405 0.145388 0.145384 0.145381 0.145364 0.145322 0.145266 0.145209 0.145152 0.145095 0.145038 0.144994 0.144977 0.144973 0.144969 0.144951 0.144908 0.144852 0.144797 0.144743 0.144688 0.144635 0.144594 0.144578 0.144574 0.144570 0.144554 0.144515 0.144463 0.144415 0.144366 0.144318 0.144269 0.144233 0.144218 0.144215 0.144211 0.144196 0.144159 0.144110 0.144059 0.144008 0.143957 0.143905 0.143865 0.143849 0.143845 0.143841 0.143825 0.143784 0.143730 0.143675 0.143620 0.143564 0.143508 0.143466 0.143449 0.143445 0.143441 0.143424 0.143385 0.143333 0.143291 0.143250 0.143209 0.143174 0.143148 0.143139 0.143136 0.143134 0.143125 0.143104 0.143077 0.143057 0.143037 0.143018 0.143002 0.142990 0.142987 0.142986 0.142986 0.142982 0.142975 0.142965 0.142961 0.142957 0.142952 0.142951 0.142949 0.142949 0.142949 0.142949 0.142950 0.142952 0.142954 0.142958 0.142963 0.142967 0.142973 0.142978 0.142980 0.142980 0.142980 0.142982 0.142990 0.142999 0.143009 0.143019 0.143029 0.143042 0.143051 0.143054 0.143055 0.143056 0.143060 0.143071 0.143085 0.143100 0.143115 0.143130 0.143148 0.143161 0.143166 0.143167 
0.141323 0.141319 0.141297 0.141242 0.141169 0.141092 0.141016 0.140939 0.140860 0.140800 0.140777 0.140773 0.140768 0.140745 0.140686 0.140607 0.140527 0.140447 0.140368 0.140289 0.140229 0.140206 0.140202 0.140197 0.140174 0.140115 0.140037 0.139958 0.139879 0.139801 0.139722 0.139662 0.139639 0.139635 0.139630 0.139607 0.139547 0.139468 0.139389 0.139310 0.139230 0.139153 0.139095 0.139072 0.139068 0.139063 0.139040 0.138988 0.138918 0.138872 0.138825 0.138779 0.138741 0.138713 0.138704 0.138703 0.138701 0.138693 0.138672 0.138645 0.138626 0.138606 0.138587 0.138574 0.138564 0.138561 0.138561 0.138560 0.138557 0.138551 0.138543 0.138540 0.138537 0.138534 0.138535 0.138536 0.138537 0.138537 0.138537 0.138539 0.138544 0.138552 0.138562 0.138573 0.138583 0.138599 0.138610 0.138616 0.138617 
0.132184 0.132182 0.132177 0.132167 0.132153 0.132140 0.132127 0.132114 0.132100 0.132090 0.132084 0.132082 0.132080 0.132074 0.132064 0.132050 0.132037 0.132023 0.132010 0.131996 0.131985 0.131980 0.131977 0.131975 0.131969 0.131959 0.131945 0.131931 0.131917 0.131903 0.131889 0.131879 0.131873 0.131871 0.131868 0.131863 0.131852 0.131838 0.131824 0.131810 0.131796 0.131782 0.131772 0.131766 0.131764 0.131762 0.131756 0.131746 0.131732 0.131718 0.131703 0.131689 0.131675 0.131664 0.131659 0.131656 0.131654 0.131649 0.131638 0.131624 0.131610 0.131596 0.131582 0.131568 0.131557 0.131552 0.131549 0.131547 0.131541 0.131531 0.131517 0.131503 0.131490 0.131476 0.131462 0.131452 0.131446 0.131444 0.131441 0.131436 0.131425 0.131411 0.131398 0.131384 0.131371 0.131358 0.131347 0.131342 0.131340 0.131337 0.131332 0.131321 0.131308 0.131297 0.131286 0.131275 0.131271 0.131267 0.131265 0.131264 0.131264 0.131262 0.131258 0.131254 0.131250 0.131245 0.131241 0.131237 0.131234 0.131233 0.131233 0.131232 0.131231 0.131229 0.131226 0.131222 0.131219 0.131216 0.131213 0.131211 0.131209 0.131209 0.131208 0.131207 0.131206 0.131204 0.131202 0.131200 0.131198 0.131195 0.131194 0.131193 0.131192 0.131192 0.131191 0.131190 0.131188 0.131187 0.131186 0.131185 0.131184 0.131184 0.131183 0.131183 0.131183 0.131182 0.131181 0.131180 0.131179 0.131178 0.131177 0.131177 0.131177 0.131176 0.131176 0.131176 0.131176 0.131176 0.131175 0.131174 0.131173 0.131172 0.131173 0.131173 0.131173 0.131173 0.131173 0.131173 0.131174 0.131174 0.131175 0.131175 0.131175 0.131176 0.131176 0.131176 0.131176 0.131177 0.131177 0.131178 0.131180 0.131181 0.131182 0.131184 0.131185 0.131186 0.131186 0.131187 0.131187 0.131187 0.131189 0.131191 0.131193 0.131195 0.131198 0.131200 0.131202 0.131203 0.131203 
