-1.028484 0.536023 1.331049
-1.034837 0.546879 1.326392
-1.041190 0.557736 1.321736
-1.315804 1.026667 1.119736
-1.577026 1.445058 0.848657
-1.776434 1.639663 0.347917
-1.971903 1.768298 -0.175494
-1.045077 0.564378 1.318887
-1.314857 1.025047 1.120427
-1.316752 1.028287 1.119044
-1.576253 1.444083 0.850223
-1.577799 1.446033 0.847091
-1.775739 1.639112 0.349710
-1.777129 1.640213 0.346124
-1.971235 1.767952 -0.173641
-1.059725 0.589408 1.308150
-1.300209 0.999999 1.131123
-1.331399 1.053337 1.108354
-1.564300 1.429006 0.874433
-1.589017 1.459133 0.821546
-1.764990 1.630606 0.377430
-1.787879 1.648719 0.318403
-1.960872 1.762454 -0.145029
-1.091380 0.643465 1.284871
-1.126816 0.703944 1.258740
-1.162251 0.764400 1.232556
-1.197686 0.824864 1.206388
-1.233121 0.885351 1.180275
-1.268556 0.945873 1.154242
-1.363053 1.107448 1.085200
-1.398489 1.167876 1.058951
-1.433913 1.227916 1.031816
-1.469184 1.286715 1.002047
-1.504084 1.343316 0.968058
-1.537450 1.393322 0.923534
-1.611646 1.483111 0.763416
-1.636541 1.508188 0.697489
-1.661841 1.533417 0.631776
-1.687961 1.559657 0.566773
-1.714750 1.585877 0.502035
-1.741397 1.610287 0.436545
-1.810844 1.665660 0.257979
-1.836436 1.683874 0.190087
-1.861956 1.701491 0.122010
-1.887445 1.718360 0.053731
-1.912890 1.734447 -0.014750
-1.938272 1.749683 -0.083448
-2.379709 1.903489 -1.579828
-2.870211 2.031646 -2.942834
-3.951803 2.504947 -3.801344
-4.881213 3.304713 -4.582530
-5.205288 4.315583 -5.599501
-5.567496 5.293063 -6.637259
-6.010152 6.176538 -7.726218
-6.561295 6.920444 -8.868051
-7.242051 7.476485 -10.045621
-8.045342 7.818935 -11.227149
-8.943491 7.942834 -12.383911
-1.972571 1.768645 -0.177347
-2.379293 1.903438 -1.577872
-2.380126 1.903540 -1.581783
-2.869076 2.031233 -2.941240
-2.871345 2.032059 -2.944429
-3.950265 2.504061 -3.800422
-3.953341 2.505833 -3.802265
-4.880404 3.303417 -4.581239
-4.882022 3.306009 -4.583822
-5.204836 4.314210 -5.598119
-5.205741 4.316956 -5.600883
-5.566956 5.291788 -6.635815
-5.568037 5.294337 -6.638702
-6.009478 6.175426 -7.724698
-6.010826 6.177650 -7.727738
-6.560463 6.919547 -8.866469
-6.562127 6.921342 -8.869633
-7.241048 7.475851 -10.044010
-7.243053 7.477118 -10.047231
-8.044165 7.818649 -11.225557
-8.046518 7.819222 -11.228741
-8.942243 7.942740 -12.382351
-1.982902 1.774001 -0.205999
-2.372849 1.902646 -1.547637
-2.386225 1.904106 -1.612094
-2.851529 2.024846 -2.916590
-2.888893 2.038445 -2.969079
-3.926436 2.490629 -3.786003
-3.977124 2.519534 -3.816513
-4.867899 3.283384 -4.561274
-4.892934 3.326322 -4.604382
-5.197836 4.292981 -5.576748
-5.212740 4.338184 -5.622254
-5.558656 5.272018 -6.613531
-5.576389 5.314047 -6.661021
-5.999062 6.158232 -7.701199
-6.021286 6.194785 -7.751260
-6.547599 6.905670 -8.842009
-6.574991 6.935219 -8.894093
-7.225504 7.466134 -10.019104
-7.258550 7.486915 -10.072135
-8.025971 7.814219 -11.200946
-8.064740 7.823586 -11.253343
-8.922945 7.941289 -12.358230
-2.029527 1.797025 -0.337740
-2.100292 1.827863 -0.548462
-2.168639 1.853127 -0.760715
-2.231445 1.872477 -0.975276
-2.288817 1.887180 -1.191738
-2.342192 1.898180 -1.409435
-2.413158 1.906019 -1.751132
-2.460377 1.911141 -1.970422
-2.518725 1.922201 -2.186837
-2.579495 1.934596 -2.402424
-2.668708 1.961454 -2.606108
-2.777093 1.998449 -2.799082
-2.976878 2.071315 -3.074977
-3.131905 2.130800 -3.225709
-3.295913 2.195900 -3.364354
-3.464666 2.267550 -3.493657
-3.640951 2.348558 -3.606439
-3.816715 2.432609 -3.717810
-4.085902 2.582889 -3.881432
-4.255739 2.685042 -3.986652
-4.413251 2.800205 -4.097335
-4.563245 2.922108 -4.211373
-4.698475 3.051352 -4.334879
-4.806805 3.192439 -4.471571
-4.932331 3.420835 -4.701977
-4.973433 3.572906 -4.861769
-5.019898 3.726620 -5.018521
-5.068077 3.883357 -5.171746
-5.116518 4.040083 -5.324898
-5.166063 4.195450 -5.479080
-5.245116 4.435058 -5.720377
-5.297405 4.587463 -5.876595
-5.351042 4.738386 -6.033792
-5.406070 4.887771 -6.191974
-5.462617 5.035447 -6.351221
-5.521005 5.181047 -6.511710
-5.615041 5.403857 -6.763494
-5.678338 5.543767 -6.927151
-5.743314 5.681672 -7.091849
-5.810666 5.816722 -7.257947
-5.880456 5.948786 -7.425439
-5.951977 6.078690 -7.593884
-6.069485 6.272884 -7.859141
-6.147450 6.394567 -8.030830
-6.229444 6.510962 -8.204301
-6.312864 6.625413 -8.378391
-6.400038 6.734780 -8.553879
-6.490152 6.840049 -8.730412
-6.635640 6.996268 -9.006581
-6.733378 7.090570 -9.185245
-6.833186 7.181778 -9.364337
-6.938103 7.265169 -9.544338
-7.043624 7.347602 -9.724433
-7.154142 7.421924 -9.905026
-7.330072 7.530846 -10.186218
-7.448329 7.591647 -10.366969
-7.568367 7.649205 -10.547645
-7.690600 7.702435 -10.728121
-7.817107 7.747048 -10.908037
-7.943662 7.791567 -11.087942
-8.148296 7.843359 -11.365984
-8.280711 7.874594 -11.544457
-8.416981 7.895926 -11.721460
-8.553922 7.915526 -11.898175
-8.692458 7.930495 -12.074058
-8.833778 7.937070 -12.248268
186 NaN NaN
-1.025307 0.530595 1.333377
-1.072870 0.611870 1.298516
-1.120435 0.693058 1.263455
-1.168000 0.774209 1.228308
-1.215565 0.855371 1.193187
-1.263129 0.936594 1.158206
-1.310691 1.017922 1.123467
-1.358253 1.099262 1.088756
-1.405818 1.180374 1.053522
-1.453362 1.260826 1.016790
-1.500428 1.337838 0.972936
-1.545096 1.404782 0.913331
-1.583818 1.453624 0.834901
-1.617806 1.489639 0.747590
-1.651035 1.522539 0.658730
-1.686025 1.557763 0.571451
-1.721983 1.592957 0.484554
-1.757679 1.624821 0.396284
-1.792580 1.652439 0.306279
-1.826986 1.677344 0.215291
-1.861244 1.701019 0.123918
-1.895457 1.723663 0.032268
-1.929585 1.744775 -0.059778
-1.963543 1.763963 -0.152307
-1.997087 1.781356 -0.245340
-2.029933 1.797221 -0.338894
-2.061955 1.811776 -0.432946
-2.093374 1.825134 -0.527378
-2.124446 1.837393 -0.622074
-2.155069 1.848561 -0.717051
-2.184722 1.858539 -0.812466
-2.212902 1.867238 -0.908450
-2.239675 1.874801 -1.004933
-2.265470 1.881518 -1.101745
-2.290640 1.887622 -1.198762
-2.315087 1.893039 -1.296005
-2.338568 1.897599 -1.393528
-2.360857 1.901173 -1.491372
-2.381781 1.903744 -1.589548
-2.401197 1.905325 -1.688054
-2.419903 1.906410 -1.786705
-2.439956 1.908130 -1.885079
-2.463308 1.911573 -1.982672
-2.489408 1.916493 -2.079509
-2.515947 1.921694 -2.176214
-2.541321 1.926331 -2.273259
-2.568222 1.931730 -2.369844
-2.600931 1.940047 -2.464379
-2.641824 1.952545 -2.555197
-2.688158 1.967899 -2.642940
-2.736666 1.984460 -2.729286
-2.786254 2.001619 -2.814898
-2.838659 2.020162 -2.898510
-2.895623 2.040895 -2.978535
-2.957500 2.063967 -3.054154
-3.023722 2.089079 -3.125315
-3.093674 2.115931 -3.192147
-3.166103 2.144101 -3.255731
-3.239617 2.173158 -3.317653
-3.313416 2.202970 -3.378873
-3.388196 2.234201 -3.438157
-3.464820 2.267617 -3.493769
-3.543274 2.303218 -3.545340
-3.622521 2.339960 -3.594868
-3.701614 2.376859 -3.644526
-3.780173 2.414237 -3.694668
-3.858252 2.453493 -3.744116
-3.935858 2.495761 -3.791791
-4.013081 2.540249 -3.838055
-4.090148 2.585375 -3.883961
-4.167027 2.630238 -3.930438
-4.242624 2.676232 -3.977894
-4.315519 2.725199 -4.026569
-4.385153 2.777660 -4.076378
-4.452851 2.831977 -4.126871
-4.520147 2.886481 -4.177702
-4.586446 2.941287 -4.229499
-4.648965 2.998109 -4.283740
-4.704878 3.058237 -4.341492
-4.754798 3.120903 -4.402003
-4.801382 3.184703 -4.463989
-4.846331 3.248830 -4.526837
-4.886927 3.313867 -4.591653
-4.919004 3.380376 -4.659625
-4.941276 3.447992 -4.730405
-4.958603 3.516021 -4.802200
-4.976396 3.584271 -4.873670
-4.996745 3.652794 -4.944190
-5.018412 3.721840 -5.013806
-5.040112 3.791645 -5.082649
-5.061565 3.861989 -5.151021
-5.083025 3.932405 -5.219316
-5.104710 4.002513 -5.287857
-5.126641 4.072292 -5.356654
-5.148787 4.141824 -5.425632
-5.171125 4.211164 -5.494742
-5.193657 4.280306 -5.563987
-5.216384 4.349236 -5.633380
-5.239320 4.417935 -5.702932
-5.262488 4.486378 -5.772660
-5.285910 4.554539 -5.842578
-5.309603 4.622403 -5.912694
-5.333575 4.689962 -5.983011
-5.357832 4.757207 -6.053529
-5.382370 4.824139 -6.124247
-5.407184 4.890764 -6.195160
-5.432282 4.957068 -6.266272
-5.457711 5.023000 -6.337613
-5.483525 5.088498 -6.409215
-5.509729 5.153556 -6.481075
-5.536261 5.218238 -6.553155
-5.563064 5.282605 -6.625416
-5.590186 5.346602 -6.697886
-5.617747 5.410091 -6.770637
-5.645842 5.472958 -6.843722
-5.674391 5.535291 -6.917089
-5.703247 5.597256 -6.990648
-5.732344 5.658929 -7.064356
-5.761853 5.720108 -7.138311
-5.791984 5.780542 -7.212628
-5.822775 5.840173 -7.287322
-5.854001 5.899267 -7.362262
-5.885432 5.958100 -7.437321
-5.917138 6.016589 -7.512534
-5.949435 6.074344 -7.588060
-5.982584 6.131033 -7.664024
-6.016407 6.186862 -7.740328
-6.050539 6.242284 -7.816791
-6.084771 6.297570 -7.893308
-6.119433 6.352302 -7.970028
-6.154967 6.405906 -8.047143
-6.191494 6.458204 -8.124692
-6.228573 6.509757 -8.202477
-6.265737 6.561184 -8.280306
-6.303043 6.612416 -8.358194
-6.341051 6.662711 -8.436353
-6.380244 6.711396 -8.514944
-6.420363 6.758790 -8.593857
-6.460785 6.805748 -8.672877
-6.501104 6.852842 -8.751869
-6.541798 6.899412 -8.830978
-6.583567 6.944470 -8.910400
-6.626659 6.987619 -8.990176
-6.670426 7.029767 -9.070120
-6.714152 7.071965 -9.150061
-6.757829 7.114232 -9.229992
-6.802236 7.155425 -9.310079
-6.848075 7.194457 -9.390440
-6.895060 7.231708 -9.470986
-6.942352 7.268472 -9.551579
-6.989351 7.305693 -9.632132
-7.036602 7.342520 -9.712718
-7.084987 7.377533 -9.793436
-7.134885 7.410051 -9.874278
-7.185541 7.441284 -9.955158
-7.236084 7.472713 -10.036033
-7.286405 7.504524 -10.116898
-7.337359 7.535239 -10.197786
-7.389760 7.563386 -10.278682
-7.443368 7.589315 -10.359533
-7.497287 7.614668 -10.440361
-7.550828 7.640743 -10.521210
-7.604468 7.666622 -10.602056
-7.659097 7.690582 -10.682827
-7.715152 7.711672 -10.763422
-7.771937 7.731250 -10.843891
-7.828613 7.751073 -10.924377
-7.884985 7.771541 -11.004916
-7.941807 7.791030 -11.085378
-7.999828 7.807854 -11.165582
-8.058904 7.822237 -11.245495
-8.118264 7.835957 -11.325315
-8.177284 7.850505 -11.405241
-8.236291 7.865073 -11.485172
-8.296010 7.877873 -11.564874
-8.356843 7.887797 -11.644142
-8.418281 7.896101 -11.723132
-8.479678 7.904533 -11.802142
-8.540806 7.913700 -11.881277
-8.602155 7.922243 -11.960311
-8.664242 7.928664 -12.038965
-8.727109 7.932744 -12.117156
-8.790415 7.935455 -12.195055
-8.853830 7.937817 -12.272876
-8.917036 7.940844 -12.350843
-8.979696 7.945558 -12.429164
