-1.493618 0.902669 11.121980
-1.498110 0.906997 11.113201
-1.502602 0.911326 11.104422
-1.717310 1.119196 10.679856
-1.927127 1.323840 10.257311
-2.240914 1.571436 9.950177
-2.664595 1.806527 9.781554
-1.505473 0.914093 11.098810
-1.716473 1.118391 10.681485
-1.718147 1.120000 10.678228
-1.926288 1.323034 10.258938
-1.927965 1.324646 10.255684
-2.239366 1.570358 9.950843
-2.242461 1.572513 9.949511
-2.662848 1.805826 9.782228
-1.517093 0.925290 11.076098
-1.704818 1.107178 10.704171
-1.729802 1.131213 10.655541
-1.914607 1.311810 10.281606
-1.939647 1.335870 10.233017
-2.217805 1.555350 9.960124
-2.264023 1.587521 9.940230
-2.638504 1.796058 9.791621
-1.541973 0.949309 11.027250
-1.569641 0.976111 10.972457
-1.597207 1.002870 10.917592
-1.624754 1.029620 10.862713
-1.652312 1.056375 10.807842
-1.679997 1.083185 10.753062
-1.754919 1.155335 10.606865
-1.783114 1.182367 10.552456
-1.810862 1.209204 10.497721
-1.838070 1.235805 10.442606
-1.864626 1.262119 10.387032
-1.890689 1.288215 10.331123
-1.967463 1.361129 10.186501
-2.000609 1.390244 10.136162
-2.038799 1.421462 10.090851
-2.080195 1.454051 10.049746
-2.124245 1.487765 10.012319
-2.172849 1.523329 9.983009
-2.311594 1.619029 9.922197
-2.365283 1.653624 9.902062
-2.419547 1.686645 9.880820
-2.474487 1.717622 9.858328
-2.530018 1.747119 9.835306
-2.586712 1.774112 9.811998
-3.860115 2.138169 9.339172
-5.076034 2.451259 8.941806
-6.009064 3.234738 8.604478
-6.605690 4.368096 8.295321
-7.286355 5.449433 7.973723
-8.083596 6.439085 7.627998
-9.023142 7.282924 7.256215
-10.101963 7.926804 6.864284
-11.282013 8.350642 6.464364
-12.517525 8.573047 6.067333
-2.666343 1.807228 9.780879
-3.858302 2.137707 9.339878
-3.861928 2.138632 9.338466
-5.074204 2.450638 8.942320
-5.077864 2.451880 8.941292
-6.008307 3.232950 8.604958
-6.009821 3.236526 8.603999
-6.604732 4.366405 8.295793
-6.606649 4.369786 8.294849
-7.285239 5.447852 7.974229
-7.287471 5.451014 7.973217
-8.082284 6.437677 7.628542
-8.084909 6.440493 7.627453
-9.021591 7.281804 7.256799
-9.024692 7.284045 7.255631
-10.100221 7.926029 6.864890
-10.103704 7.927580 6.863679
-11.280172 8.350147 6.464971
-11.283853 8.351137 6.463757
-12.515630 8.572820 6.067931
-2.690692 1.816984 9.771489
-3.833043 2.131260 9.349710
-3.887205 2.145092 9.328691
-5.048709 2.441984 8.949485
-5.103281 2.460818 8.934203
-5.997767 3.208040 8.611639
-6.020647 3.261306 8.597295
-6.591374 4.342855 8.302364
-6.620107 4.393273 8.288253
-7.269832 5.425724 7.981245
-7.303018 5.473034 7.966172
-8.064174 6.417898 7.636095
-8.103190 6.460101 7.619869
-9.000246 7.265838 7.264896
-9.046288 7.299656 7.247496
-10.076020 7.915098 6.873316
-10.127962 7.938383 6.855248
-11.254532 8.343272 6.473429
-11.309488 8.358033 6.455299
-12.489231 8.569660 6.076261
-2.803987 1.856042 9.729979
-2.984829 1.913785 9.664133
-3.167260 1.965844 9.597993
-3.351778 2.010606 9.532245
-3.535633 2.055554 9.464790
-3.718123 2.101964 9.394663
-4.002639 2.174756 9.285327
-4.186016 2.222294 9.218337
-4.369571 2.270138 9.152058
-4.554971 2.317831 9.091071
-4.742888 2.362636 9.035842
-4.931521 2.406584 8.982448
-5.218894 2.502255 8.902572
-5.403926 2.563296 8.853626
-5.573585 2.654753 8.801813
-5.711156 2.790494 8.747778
-5.840740 2.934301 8.694075
-5.947117 3.095950 8.642426
-6.071808 3.373229 8.566676
-6.159754 3.547372 8.518622
-6.250777 3.720414 8.472297
-6.342663 3.893036 8.426109
-6.435765 4.064846 8.379333
-6.530735 4.235542 8.332236
-6.681666 4.499998 8.258160
-6.780969 4.667936 8.210098
-6.882370 4.834484 8.161581
-6.985796 4.999650 8.112620
-7.091541 5.163191 8.063160
-7.200020 5.324750 8.013116
-7.374158 5.572989 7.934024
-7.489451 5.729293 7.882558
-7.608183 5.882768 7.830393
-7.729153 6.034333 7.777780
-7.853670 6.182736 7.724471
-7.982135 6.327465 7.670402
-8.187271 6.548483 7.585183
-8.324632 6.684128 7.529483
-8.464280 6.817267 7.473384
-8.606964 6.946891 7.416766
-8.754847 7.070168 7.359293
-8.904512 7.191164 7.301543
-9.145461 7.369428 7.210347
-9.304342 7.477315 7.151254
-9.464785 7.582722 7.091956
-9.630328 7.679510 7.032033
-9.797837 7.772779 6.971894
-9.966886 7.863073 6.911598
-10.238349 7.987655 6.816875
-10.413431 8.065255 6.756067
-10.592047 8.134066 6.695071
-10.772746 8.197264 6.634012
-10.953681 8.259763 6.572950
-11.137585 8.312814 6.511917
-11.426233 8.389242 6.416799
-11.612850 8.432031 6.355943
-11.801176 8.467122 6.295314
-11.989311 8.503171 6.234652
-12.178764 8.531894 6.174289
-12.369187 8.554385 6.114228
165 NaN NaN
-1.491372 0.900505 11.126369
-1.533459 0.941060 11.044113
-1.575141 0.981440 10.961564
-1.616634 1.021737 10.878880
-1.658153 1.062045 10.796214
-1.699912 1.102458 10.713721
-1.742124 1.143068 10.631555
-1.784602 1.183793 10.549584
-1.826368 1.224209 10.467096
-1.866374 1.263852 10.383373
-1.905587 1.303143 10.299109
-1.947886 1.343787 10.217028
-1.997003 1.387297 10.140440
-2.054499 1.434295 10.072225
-2.120175 1.484787 10.014773
-2.193330 1.538315 9.970659
-2.271399 1.592655 9.937055
-2.352001 1.645541 9.907261
-2.433743 1.695284 9.875263
-2.516865 1.740858 9.840713
-2.602266 1.781518 9.805603
-2.690422 1.816890 9.771588
-2.780404 1.848368 9.738518
-2.871131 1.877894 9.705670
-2.961939 1.906813 9.672506
-3.053050 1.934562 9.639179
-3.144822 1.960205 9.605984
-3.237322 1.983454 9.573042
-3.330114 2.005447 9.540055
-3.422743 2.027505 9.506659
-3.514953 2.050315 9.472612
-3.606791 2.073579 9.437874
-3.698337 2.096923 9.402426
-3.789739 2.120207 9.366568
-3.881220 2.143556 9.330956
-3.972990 2.167102 9.296229
-4.065034 2.190864 9.262384
-4.157164 2.214775 9.228880
-4.249224 2.238766 9.195241
-4.341367 2.262804 9.161865
-4.433925 2.286871 9.129682
-4.527166 2.310884 9.099493
-4.621090 2.334353 9.071043
-4.715607 2.356625 9.043611
-4.810547 2.377546 9.016575
-4.905353 2.399393 8.989813
-4.999243 2.425194 8.963386
-5.091574 2.456534 8.937439
-5.183292 2.490105 8.912083
-5.275871 2.521699 8.887352
-5.369426 2.550620 8.863000
-5.461166 2.584328 8.838073
-5.546173 2.631582 8.811830
-5.620330 2.694265 8.784730
-5.687387 2.764588 8.757576
-5.753101 2.836211 8.730486
-5.818981 2.907715 8.703494
-5.880595 2.982998 8.676822
-5.932520 3.065470 8.650982
-5.974760 3.153672 8.626223
-6.012937 3.243889 8.602024
-6.052576 3.333436 8.577712
-6.095177 3.421579 8.553267
-6.139671 3.508855 8.529077
-6.185028 3.595845 8.505463
-6.230803 3.682738 8.482299
-6.276818 3.769536 8.459256
-6.322947 3.856231 8.436055
-6.369298 3.942758 8.412672
-6.416058 4.029031 8.389162
-6.463356 4.114988 8.365573
-6.511113 4.200672 8.341915
-6.559210 4.286147 8.318189
-6.607588 4.371442 8.294387
-6.656355 4.456489 8.270492
-6.705639 4.541205 8.246481
-6.755511 4.625540 8.222345
-6.805934 4.709513 8.198089
-6.856859 4.793149 8.173724
-6.908273 4.876455 8.149251
-6.960208 4.959403 8.124664
-7.012699 5.041965 8.099957
-7.065796 5.124099 8.075120
-7.119568 5.205749 8.050139
-7.174071 5.286864 8.025002
-7.229271 5.367460 7.999717
-7.285066 5.447607 7.974307
-7.341375 5.527359 7.948790
-7.398318 5.606617 7.923142
-7.456110 5.685200 7.897318
-7.514910 5.762963 7.871288
-7.574557 5.840020 7.845086
-7.634785 5.916585 7.818769
-7.695434 5.992788 7.792367
-7.756784 6.068378 7.765827
-7.819216 6.143000 7.739074
-7.882910 6.216459 7.712077
-7.947508 6.289062 7.684908
-8.012569 6.361217 7.657652
-8.077965 6.433045 7.630334
-8.144177 6.504062 7.602864
-8.211735 6.573700 7.575147
-8.280705 6.641838 7.547176
-8.350519 6.709050 7.519057
-8.420604 6.775961 7.490892
-8.490992 6.842530 7.462675
-8.562345 6.907990 7.434293
-8.635272 6.971571 7.405646
-8.709604 7.033402 7.376772
-8.784615 7.094359 7.347793
-8.859684 7.155241 7.318806
-8.935096 7.215672 7.289766
-9.011621 7.274597 7.260554
-9.089834 7.331133 7.231094
-9.169285 7.385828 7.201462
-9.249172 7.439853 7.171772
-9.328961 7.494032 7.142098
-9.409178 7.547542 7.112366
-9.490621 7.599068 7.082474
-9.573684 7.647820 7.052386
-9.657711 7.694830 7.022193
-9.741910 7.741522 6.991984
-9.825958 7.788496 6.961792
-9.910521 7.834498 6.931545
-9.996344 7.878007 6.901173
-10.083546 7.918602 6.870685
-10.171404 7.957729 6.840151
-10.259208 7.996979 6.809622
-10.346902 8.036482 6.779101
-10.435166 8.074656 6.748541
-10.524620 8.109887 6.717916
-10.615112 8.142337 6.687256
-10.705974 8.173735 6.656591
-10.796645 8.205686 6.625930
-10.887291 8.237707 6.595269
-10.978519 8.268015 6.564600
-11.070759 8.295088 6.533942
-11.163690 8.319739 6.503313
-11.256767 8.343851 6.472693
-11.349611 8.368826 6.442061
-11.442515 8.393580 6.411431
-11.535963 8.416231 6.380839
-11.630175 8.435591 6.350333
-11.724788 8.453028 6.319892
-11.819396 8.470484 6.289452
-11.913811 8.488905 6.258977
-12.008338 8.506767 6.228521
-12.103325 8.522165 6.198161
-12.198808 8.534479 6.167946
-12.294485 8.545419 6.137803
-12.390088 8.556893 6.107632
-12.485572 8.569222 6.077416
-12.581180 8.580666 6.047246
-12.677115 8.589427 6.017231
-12.773315 8.595515 5.987391
-12.869591 8.600668 5.957616
-12.965810 8.606542 5.927790
-13.061985 8.612929 5.897929
-13.158241 8.618327 5.868136
-13.254652 8.621391 5.838518
-13.351161 8.622336 5.809072
-13.447705 8.622161 5.779721
-13.544252 8.621865 5.750381
-13.640773 8.622451 5.720965
-13.737216 8.624920 5.691393
