0.282912 0.282873 0.282262 0.278952 0.273707 0.266257 0.258807 0.251357 0.243469 0.238490 0.237453 0.237386 0.237319 0.236287 0.231903 0.224957 0.219381 0.213804 0.208227 0.203702 0.200846 0.200266 0.200228 0.200191 0.199615 0.197108 0.193134 0.189697 0.186260 0.182823 0.179853 0.177978 0.177591 0.177566 0.177541 0.177159 0.175505 0.172885 0.170629 0.168374 0.166119 0.164155 0.162916 0.162658 0.162642 0.162625 0.162369 0.161250 0.159478 0.157908 0.156338 0.154768 0.153355 0.152463 0.152276 0.152263 
0.282897 0.282799 0.281782 0.277135 0.270077 0.262416 0.254755 0.247094 0.240136 0.235557 0.234431 0.234323 0.234218 0.233124 0.229206 0.223255 0.218697 0.214139 0.209580 0.206084 0.203782 0.203227 0.203174 
0.282982 0.283226 0.287216 0.300030 0.320336 0.320104 0.319871 0.319639 0.299667 0.287064 0.283995 0.283807 0.283628 0.280722 0.268483 0.249089 0.236226 0.223362 0.210499 0.201800 0.196310 0.195298 0.195236 0.195175 0.194189 0.190325 0.184204 0.179965 0.175726 0.171487 0.168375 0.166410 0.166004 0.165979 0.165955 0.165557 0.163815 0.161055 0.158203 0.155351 0.152499 0.149250 0.147199 0.146749 0.146721 0.146693 0.146234 0.144165 0.140885 0.138119 0.135353 0.132588 0.130303 0.128861 0.128567 0.128549 0.128531 0.128241 0.127005 0.125047 0.123686 0.122325 0.120964 0.120176 0.119679 0.119592 0.119586 0.119581 0.119498 0.119167 0.118643 0.118265 0.117887 0.117509 0.117202 0.117008 0.116968 0.116965 0.116963 0.116923 0.116749 0.116472 0.116226 0.115979 0.115733 0.115519 0.115384 0.115356 0.115354 0.115353 0.115326 0.115212 0.115033 0.114902 0.114771 0.114641 0.114551 0.114494 0.114483 0.114483 0.114482 0.114471 0.114428 0.114360 0.114306 0.114253 0.114199 0.114156 0.114129 0.114123 0.114123 0.114123 0.114117 0.114094 0.114058 0.114028 0.113998 0.113969 0.113945 0.113930 0.113927 0.113927 0.113927 0.113924 0.113913 0.113894 0.113880 0.113866 0.113852 0.113837 0.113827 0.113825 0.113824 
0.177557 0.177521 0.177369 0.177002 0.176515 0.176038 0.175561 0.175085 0.174618 0.174266 0.174124 0.174091 0.174058 0.173917 0.173574 0.173118 0.172679 0.172239 0.171800 0.171370 0.171046 0.170915 0.170885 0.170854 0.170724 0.170406 0.169985 0.169572 0.169159 0.168746 0.168343 0.168040 0.167918 0.167890 0.167861 0.167741 0.167445 0.167052 0.166668 0.166283 0.165899 0.165524 0.165242 0.165128 0.165101 0.165075 0.164961 0.164685 0.164319 0.163965 0.163610 0.163256 0.162913 0.162654 0.162549 0.162525 0.162501 0.162396 0.162144 0.161809 0.161489 0.161170 0.160850 0.160574 0.160366 0.160300 0.160284 0.160269 0.160203 0.160049 0.159844 0.159661 0.159478 0.159295 0.159122 0.158992 0.158945 0.158934 0.158923 0.158876 0.158762 0.158610 0.158473 0.158335 0.158198 0.158066 0.157967 0.157930 0.157921 0.157913 0.157878 0.157791 0.157677 0.157571 0.157464 0.157358 0.157259 0.157184 0.157154 0.157147 0.157140 0.157110 0.157046 0.156960 0.156877 0.156795 0.156712 0.156637 0.156581 0.156558 0.156552 0.156547 0.156523 0.156473 0.156406 0.156342 0.156278 0.156214 0.156157 0.156114 0.156096 0.156092 0.156088 0.156070 0.156029 0.155975 0.155924 0.155873 0.155822 0.155777 0.155743 0.155728 0.155725 
0.200214 0.200160 0.200028 0.199770 0.199433 0.199094 0.198754 0.198415 0.198075 0.197815 0.197683 0.197628 0.197573 0.197441 0.197181 0.196843 0.196507 0.196170 0.195834 0.195500 0.195245 0.195115 0.195061 0.195007 0.194877 0.194624 0.194293 0.193960 0.193626 0.193293 0.192961 0.192706 0.192576 0.192522 0.192468 0.192338 0.192087 0.191760 0.191437 0.191114 0.190791 0.190473 0.190229 0.190107 0.190056 0.190005 0.189883 0.189646 0.189337 0.189034 0.188732 0.188429 0.188127 0.187895 0.187778 0.187729 0.187680 0.187564 0.187336 0.187040 0.186751 0.186462 0.186173 0.185894 0.185679 0.185570 0.185525 0.185480 0.185371 0.185159 0.184883 0.184612 0.184342 0.184071 0.183806 0.183602 0.183497 0.183453 0.183409 0.183305 0.183100 0.182834 0.182572 0.182309 0.182047 0.181791 0.181594 0.181495 0.181453 0.181412 0.181313 0.181118 0.180864 0.180613 0.180363 0.180112 0.179865 0.179675 0.179580 0.179540 0.179500 0.179404 0.179218 0.178975 0.178737 0.178498 0.178260 0.178024 0.177843 0.177752 0.177714 0.177676 0.177586 0.177408 0.177176 0.176949 0.176722 0.176495 0.176271 0.176100 0.176013 0.175977 0.175940 0.175854 0.175685 0.175464 0.175250 0.175036 0.174821 0.174614 0.174456 0.174376 0.174342 0.174309 0.174229 0.174073 0.173870 0.173669 0.173469 0.173269 0.173084 0.172942 0.172870 0.172840 0.172810 0.172739 0.172602 0.172424 0.172279 0.172134 0.171990 0.171856 0.171754 0.171707 0.171687 0.171667 0.171621 0.171530 0.171411 0.171295 0.171179 0.171063 0.170950 0.170863 0.170820 0.170802 0.170787 0.170751 0.170681 0.170589 0.170499 0.170409 0.170318 0.170229 0.170161 0.170126 0.170112 0.170097 0.170062 0.170002 0.169925 0.169849 0.169773 0.169698 0.169623 0.169565 0.169536 0.169524 0.169512 0.169484 0.169428 0.169355 0.169295 0.169236 0.169177 0.169116 0.169070 0.169046 0.169036 0.169026 0.169002 0.168954 0.168892 0.168836 0.168780 0.168724 0.168673 0.168634 0.168615 0.168606 0.168598 0.168578 0.168539 0.168487 0.168438 0.168388 0.168339 0.168297 0.168265 0.168248 0.168241 0.168234 0.168218 0.168185 0.168142 0.168098 0.168055 0.168012 0.167975 0.167948 0.167934 0.167929 0.167923 0.167910 0.167884 0.167850 0.167816 0.167782 0.167748 0.167714 0.167688 0.167678 0.167673 0.167669 0.167660 0.167641 0.167616 0.167591 0.167566 0.167540 0.167515 0.167495 0.167485 0.167481 0.167477 0.167467 0.167451 0.167431 0.167411 0.167392 0.167372 0.167354 0.167340 0.167334 0.167331 
0.237349 0.237203 0.236552 0.234964 0.232856 0.230826 0.228795 0.226765 0.224797 0.223313 0.222725 0.222592 0.222461 0.221877 0.220454 0.218566 0.216753 0.214940 0.213127 0.211405 0.210107 0.209601 0.209487 0.209374 0.208876 0.207688 0.206113 0.204720 0.203327 0.201933 0.200695 0.199762 0.199409 0.199330 0.199252 0.198910 0.198116 0.197063 0.196135 0.195207 0.194279 0.193489 0.192893 0.192666 0.192614 0.192564 0.192341 0.191808 0.191102 0.190381 0.189661 0.188940 0.188222 0.187680 0.187458 0.187408 0.187358 0.187136 0.186589 0.185864 0.185138 0.184411 0.183685 0.182975 0.182440 0.182226 0.182178 0.182130 0.181918 0.181403 0.180721 0.180079 0.179438 0.178796 0.178190 0.177733 0.177555 0.177515 0.177478 0.177315 0.176945 0.176454 0.176035 0.175615 0.175196 0.174846 0.174582 0.174477 0.174453 0.174430 0.174326 0.174117 0.173840 0.173583 0.173326 0.173069 0.172854 0.172691 0.172624 0.172609 0.172594 0.172526 0.172382 0.172189 0.172010 0.171831 0.171651 0.171496 0.171379 0.171332 0.171321 0.171310 0.171263 0.171152 0.171006 0.170875 0.170743 0.170612 0.170500 0.170415 0.170381 0.170373 
0.234286 0.234136 0.233619 0.232455 0.230919 0.229444 0.227969 0.226494 0.225064 0.223981 0.223520 0.223387 0.223256 0.222800 0.221773 0.220416 0.219112 0.217808 0.216504 0.215268 0.214332 0.213934 0.213819 0.213705 0.213310 0.212420 0.211247 0.210177 0.209107 0.208037 0.207057 0.206315 0.206003 0.205914 0.205826 0.205521 0.204852 0.203969 0.203171 0.202374 0.201576 0.200873 0.200341 0.200123 0.200060 0.199998 0.199784 0.199304 0.198670 0.198077 0.197484 0.196891 0.196317 0.195882 0.195697 0.195644 0.195592 0.195411 0.195026 0.194517 0.194002 0.193486 0.192971 0.192454 0.192062 0.191896 0.191848 0.191800 0.191633 0.191247 0.190737 0.190219 0.189702 0.189184 0.188678 0.188295 0.188132 0.188085 0.188038 0.187876 0.187505 0.187016 0.186533 0.186050 0.185567 0.185101 0.184748 0.184596 0.184552 0.184508 0.184357 0.184011 0.183555 0.183121 0.182687 0.182253 0.181834 0.181516 0.181380 0.181341 0.181302 0.181167 0.180876 0.180492 0.180117 0.179743 0.179368 0.179052 0.178812 0.178717 0.178689 0.178662 0.178567 0.178355 0.178075 0.177827 0.177579 0.177331 0.177112 0.176946 0.176875 0.176854 0.176834 0.176762 0.176614 0.176419 0.176234 0.176048 0.175863 0.175687 0.175553 0.175502 0.175487 0.175472 0.175421 0.175301 0.175143 0.174989 0.174834 0.174680 0.174534 0.174423 0.174373 0.174359 0.174345 0.174295 0.174181 0.174031 0.173902 0.173772 0.173642 0.173510 0.173411 0.173371 0.173360 0.173348 0.173308 0.173213 0.173088 0.172962 0.172837 0.172711 0.172593 0.172503 0.172464 0.172453 0.172442 0.172403 0.172311 0.172191 0.172081 0.171972 0.171862 0.171750 0.171665 0.171628 0.171617 
0.203150 0.203057 0.202749 0.202071 0.201176 0.200337 0.199497 0.198658 0.197869 0.197270 0.197012 0.196935 0.196857 0.196602 0.196041 0.195301 0.194607 0.193912 0.193218 0.192559 0.192059 0.191843 0.191778 0.191714 0.191501 0.191029 0.190407 0.189819 0.189232 0.188645 0.188085 0.187661 0.187477 0.187421 0.187366 0.187183 0.186781 0.186251 0.185744 0.185236 0.184728 0.184248 0.183883 0.183726 0.183679 0.183632 0.183476 0.183129 0.182672 0.182235 0.181799 0.181362 0.180952 0.180641 0.180506 0.180465 0.180424 0.180289 0.179989 0.179593 0.179231 0.178870 0.178508 0.178161 0.177898 0.177784 0.177749 0.177714 0.177601 0.177364 0.177053 0.176758 0.176463 0.176168 0.175892 0.175683 0.175601 0.175576 0.175551 0.175470 0.175349 0.175191 0.175042 0.174894 0.174745 0.174631 0.174544 0.174505 0.174493 0.174481 0.174441 0.174350 0.174229 0.174129 0.174029 0.173928 0.173832 0.173760 0.173727 0.173717 0.173706 0.173673 0.173607 0.173520 0.173438 0.173357 0.173275 0.173186 0.173119 0.173098 0.173091 0.173084 0.173061 0.173005 0.172931 0.172850 0.172769 0.172688 0.172621 0.172570 0.172546 0.172538 0.172531 0.172506 0.172447 0.172369 0.172298 0.172226 0.172154 0.172087 0.172035 0.172011 0.172004 
