0.182046 0.182067 0.182384 0.183891 0.186278 0.188645 0.191013 0.193381 0.195408 0.196687 0.196942 0.196959 0.196976 0.197224 0.198222 0.199803 0.200910 0.202017 0.203124 0.203834 0.204282 0.204360 0.204365 0.204370 0.204439 0.204673 0.205043 0.204999 0.204954 0.204910 0.204430 0.204127 0.204043 0.204037 0.204031 0.203943 0.203425 0.202604 0.201425 0.200245 0.199066 0.197594 0.196665 0.196449 0.196435 0.196420 0.196202 0.195138 0.193452 0.191524 0.189595 0.187667 0.185618 0.184325 0.184037 0.184018 
0.182039 0.182034 0.181981 0.181709 0.181310 0.180598 0.179886 0.179174 0.178278 0.177666 0.177484 0.177466 0.177448 0.177265 0.176622 0.175681 0.174752 0.173822 0.172893 0.172000 0.171391 0.171219 0.171202 0.171185 0.171014 0.170439 0.169596 0.168805 0.168015 0.167225 0.166484 0.165979 0.165836 0.165822 0.165808 0.165666 0.165184 0.164478 0.163806 0.163133 0.162460 0.161812 0.161369 0.161243 0.161230 0.161218 0.161092 0.160663 0.160034 0.159422 0.158810 0.158198 0.157602 0.157196 0.157079 0.157068 0.157056 0.156940 0.156545 0.155967 0.155407 0.154847 0.154287 0.153745 0.153374 0.153269 0.153259 0.153248 0.153144 0.152786 0.152261 0.151755 0.151248 0.150742 0.150253 0.149918 0.149823 0.149813 0.149804 0.149708 0.149383 0.148906 0.148439 0.147972 0.147505 0.147047 0.146734 0.146644 0.146635 0.146626 0.146536 0.146228 0.145777 0.145333 0.144888 0.144444 0.144008 0.143710 0.143624 0.143616 0.143607 0.143522 0.143229 0.142801 0.142383 0.141965 0.141547 0.141140 0.140863 0.140783 0.140775 0.140767 0.140688 0.140417 0.140020 0.139634 0.139248 0.138862 0.138488 0.138232 0.138159 0.138151 0.138144 0.138071 0.137822 0.137458 0.137104 0.136750 0.136396 0.136053 0.135819 0.135752 0.135745 0.135739 0.135672 0.135445 0.135112 0.134790 0.134468 0.134145 0.133834 0.133621 0.133560 0.133554 0.133548 0.133488 0.133281 0.132979 0.132687 0.132395 0.132103 0.131820 0.131627 0.131572 0.131567 0.131561 0.131507 0.131320 0.131046 0.130781 0.130517 0.130252 0.129996 0.129821 0.129771 0.129766 
0.182045 0.182063 0.182348 0.182897 0.183766 0.183174 0.182581 0.181989 0.180604 0.179730 0.179503 0.179488 0.179473 0.179240 0.178131 0.176374 0.174740 0.173107 0.171473 0.170089 0.169216 0.169031 0.169019 0.169008 0.168825 0.167994 0.166679 0.165332 0.163985 0.162639 0.161078 0.160093 0.159861 0.159846 0.159830 0.159596 0.158246 0.156109 0.152610 0.149112 0.145614 0.141868 0.139504 0.139001 0.138968 0.138936 0.138443 0.136236 0.132739 0.130118 0.127497 0.124877 0.123350 0.122386 0.122211 0.122199 0.122188 0.122015 0.121379 0.120370 0.119752 0.119134 0.118516 0.118112 0.117856 0.117808 0.117804 0.117801 0.117754 0.117563 0.117260 0.117032 0.116803 0.116575 0.116396 0.116283 0.116261 0.116259 0.116258 0.116235 0.116140 0.115989 0.115864 0.115739 0.115613 0.115508 0.115441 0.115427 0.115427 0.115426 0.115412 0.115354 0.115261 0.115182 0.115102 0.115022 0.114953 0.114910 0.114901 0.114901 0.114900 0.114891 0.114853 0.114792 0.114740 0.114688 0.114636 0.114592 0.114563 0.114558 0.114557 0.114557 0.114551 0.114527 0.114489 0.114456 0.114424 0.114391 0.114363 0.114345 0.114341 0.114341 
0.204017 0.203938 0.203670 0.203073 0.202285 0.201539 0.200794 0.200049 0.199345 0.198811 0.198581 0.198514 0.198448 0.198227 0.197736 0.197089 0.196468 0.195848 0.195228 0.194635 0.194186 0.193994 0.193937 0.193881 0.193691 0.193266 0.192706 0.192176 0.191645 0.191115 0.190612 0.190230 0.190068 0.190021 0.189972 0.189808 0.189435 0.188944 0.188471 0.187998 0.187525 0.187067 0.186720 0.186570 0.186525 0.186481 0.186332 0.185994 0.185547 0.185121 0.184694 0.184268 0.183853 0.183538 0.183402 0.183362 0.183323 0.183189 0.182893 0.182503 0.182121 0.181739 0.181357 0.180999 0.180728 0.180613 0.180578 0.180544 0.180429 0.180169 0.179825 0.179503 0.179182 0.178860 0.178557 0.178328 0.178229 0.178200 0.178171 0.178072 0.177860 0.177581 0.177326 0.177071 0.176816 0.176575 0.176392 0.176324 0.176304 0.176284 0.176216 0.176065 0.175865 0.175678 0.175492 0.175306 0.175155 0.175042 0.174992 0.174978 0.174964 0.174915 0.174804 0.174658 0.174544 0.174430 0.174315 0.174205 0.174122 0.174086 0.174075 0.174064 0.174028 0.173967 0.173888 0.173808 0.173728 0.173649 0.173585 0.173537 0.173519 0.173513 0.173508 0.173489 0.173446 0.173388 0.173337 0.173287 0.173237 0.173194 0.173162 0.173147 0.173142 0.173138 0.173123 0.173093 0.173052 0.173025 0.172997 0.172969 0.172939 0.172916 0.172910 0.172909 0.172907 0.172902 0.172888 0.172870 0.172852 0.172834 0.172816 0.172807 0.172800 0.172797 0.172796 0.172795 0.172792 0.172783 0.172772 0.172766 0.172760 0.172755 0.172750 0.172747 0.172745 0.172744 0.172744 0.172742 0.172743 0.172744 0.172746 0.172747 0.172748 0.172752 0.172754 0.172756 0.172757 0.172758 0.172760 0.172764 0.172770 0.172776 0.172782 0.172788 0.172797 0.172803 0.172806 0.172807 
0.196947 0.196900 0.196624 0.195891 0.194915 0.193919 0.192923 0.191926 0.190915 0.190156 0.189864 0.189814 0.189764 0.189473 0.188742 0.187769 0.186860 0.185950 0.185041 0.184231 0.183623 0.183402 0.183364 0.183326 0.183108 0.182569 0.181851 0.181290 0.180729 0.180168 0.179693 0.179336 0.179200 0.179177 0.179153 0.179017 0.178667 0.178200 0.177736 0.177273 0.176810 0.176345 0.175996 0.175858 0.175835 0.175811 0.175673 0.175313 0.174834 0.174357 0.173879 0.173402 0.172935 0.172584 0.172451 0.172429 0.172406 0.172274 0.171942 0.171502 0.171105 0.170708 0.170312 0.169971 0.169714 0.169631 0.169616 0.169602 0.169519 0.169313 0.169038 0.168838 0.168637 0.168436 0.168285 0.168172 0.168130 0.168123 0.168117 0.168080 0.168004 0.167901 0.167824 0.167746 0.167668 0.167615 0.167576 0.167562 0.167560 0.167557 0.167543 0.167517 0.167482 0.167457 0.167432 0.167407 0.167393 0.167382 0.167381 0.167380 0.167380 0.167378 0.167373 0.167366 0.167368 0.167370 0.167371 0.167377 0.167381 0.167383 0.167383 
0.177461 0.177442 0.177375 0.177214 0.177003 0.176784 0.176565 0.176346 0.176119 0.175946 0.175871 0.175850 0.175829 0.175753 0.175575 0.175340 0.175100 0.174859 0.174618 0.174374 0.174190 0.174110 0.174088 0.174066 0.173985 0.173799 0.173553 0.173306 0.173060 0.172813 0.172565 0.172377 0.172297 0.172274 0.172252 0.172172 0.171989 0.171748 0.171510 0.171272 0.171034 0.170804 0.170629 0.170555 0.170534 0.170513 0.170439 0.170269 0.170045 0.169830 0.169616 0.169401 0.169194 0.169038 0.168973 0.168954 0.168936 0.168871 0.168724 0.168530 0.168346 0.168162 0.167978 0.167805 0.167673 0.167616 0.167600 0.167585 0.167528 0.167401 0.167233 0.167077 0.166920 0.166764 0.166609 0.166492 0.166442 0.166428 0.166414 0.166364 0.166248 0.166095 0.165940 0.165786 0.165631 0.165471 0.165351 0.165300 0.165285 0.165271 0.165220 0.165100 0.164943 0.164785 0.164628 0.164470 0.164316 0.164199 0.164148 0.164133 0.164119 0.164068 0.163950 0.163794 0.163645 0.163496 0.163347 0.163202 0.163093 0.163050 0.163038 0.163025 0.162982 0.162884 0.162755 0.162635 0.162515 0.162395 0.162290 0.162211 0.162178 0.162169 0.162159 0.162127 0.162054 0.161959 0.161878 0.161798 0.161718 0.161643 0.161587 0.161566 0.161561 0.161555 0.161535 0.161489 0.161429 0.161376 0.161322 0.161269 0.161225 0.161192 0.161178 0.161174 0.161171 0.161157 0.161127 0.161088 0.161058 0.161027 0.160997 0.160968 0.160946 0.160939 0.160937 0.160935 0.160928 0.160912 0.160891 0.160871 0.160851 0.160832 0.160816 0.160805 0.160800 0.160798 0.160797 0.160792 0.160781 0.160768 0.160758 0.160748 0.160738 0.160729 0.160722 0.160720 0.160720 0.160719 0.160717 0.160712 0.160706 0.160701 0.160696 0.160691 0.160687 0.160685 0.160684 0.160683 0.160683 0.160682 0.160679 0.160676 0.160675 0.160673 0.160672 0.160670 0.160669 0.160669 0.160669 0.160669 0.160669 0.160669 0.160668 0.160667 0.160666 0.160665 0.160665 0.160665 0.160664 0.160664 
0.165819 0.165808 0.165755 0.165618 0.165436 0.165245 0.165053 0.164862 0.164665 0.164517 0.164457 0.164444 0.164431 0.164370 0.164217 0.164014 0.163806 0.163597 0.163388 0.163177 0.163019 0.162955 0.162941 0.162928 0.162864 0.162706 0.162496 0.162286 0.162076 0.161866 0.161658 0.161501 0.161439 0.161425 0.161412 0.161350 0.161197 0.160993 0.160795 0.160597 0.160399 0.160206 0.160060 0.160003 0.159991 0.159978 0.159922 0.159782 0.159596 0.159419 0.159241 0.159063 0.158891 0.158761 0.158710 0.158699 0.158688 0.158638 0.158513 0.158347 0.158189 0.158031 0.157874 0.157723 0.157610 0.157566 0.157556 0.157547 0.157503 0.157393 0.157249 0.157122 0.156995 0.156868 0.156763 0.156685 0.156655 0.156649 0.156643 0.156614 0.156546 0.156456 0.156384 0.156311 0.156239 0.156182 0.156139 0.156122 0.156119 0.156115 0.156099 0.156061 0.156012 0.155972 0.155933 0.155893 0.155863 0.155841 0.155832 0.155830 0.155828 0.155819 0.155799 0.155773 0.155752 0.155730 0.155709 0.155694 0.155683 0.155678 0.155677 0.155676 0.155672 0.155663 0.155651 0.155641 0.155631 0.155621 0.155615 0.155610 0.155608 0.155607 0.155607 0.155604 0.155601 0.155597 0.155594 0.155590 0.155586 0.155584 0.155582 0.155581 0.155581 0.155581 0.155580 0.155579 0.155579 0.155577 0.155576 0.155574 0.155572 0.155570 0.155569 0.155569 
0.161227 0.161216 0.161177 0.161086 0.160967 0.160845 0.160722 0.160600 0.160475 0.160380 0.160338 0.160325 0.160313 0.160270 0.160173 0.160045 0.159915 0.159786 0.159657 0.159527 0.159428 0.159385 0.159372 0.159359 0.159316 0.159216 0.159085 0.158954 0.158822 0.158690 0.158558 0.158458 0.158414 0.158401 0.158388 0.158344 0.158244 0.158111 0.157980 0.157849 0.157718 0.157587 0.157488 0.157445 0.157432 0.157419 0.157376 0.157278 0.157148 0.157021 0.156894 0.156767 0.156640 0.156544 0.156503 0.156491 0.156478 0.156437 0.156343 0.156219 0.156097 0.155974 0.155852 0.155732 0.155641 0.155601 0.155590 0.155578 0.155538 0.155448 0.155330 0.155216 0.155102 0.154988 0.154877 0.154792 0.154755 0.154744 0.154733 0.154696 0.154614 0.154506 0.154399 0.154292 0.154185 0.154082 0.154004 0.153970 0.153960 0.153950 0.153917 0.153840 0.153739 0.153642 0.153544 0.153447 0.153352 0.153281 0.153249 0.153240 0.153231 0.153200 0.153131 0.153041 0.152956 0.152870 0.152784 0.152702 0.152640 0.152620 0.152614 0.152608 0.152587 0.152542 0.152482 0.152429 0.152375 0.152322 0.152278 0.152245 0.152231 0.152227 0.152223 0.152209 0.152178 0.152138 0.152107 0.152075 0.152044 0.152014 0.151992 0.151983 0.151980 0.151978 0.151971 0.151955 0.151935 0.151915 0.151896 0.151877 0.151865 0.151856 0.151851 0.151850 0.151849 0.151845 0.151835 0.151823 0.151815 0.151807 0.151799 0.151793 0.151788 0.151786 0.151785 0.151785 0.151783 0.151782 0.151780 0.151778 0.151776 0.151775 0.151776 0.151776 0.151777 0.151778 0.151778 0.151779 0.151781 0.151784 0.151788 0.151792 0.151796 0.151803 0.151808 0.151810 0.151810 0.151811 0.151813 0.151818 0.151825 0.151835 0.151844 0.151854 0.151863 0.151870 0.151874 0.151875 0.151876 0.151881 0.151890 0.151902 0.151913 0.151925 0.151937 0.151951 0.151961 0.151965 0.151967 0.151968 0.151972 0.151982 0.151995 0.152009 0.152024 0.152038 0.152052 0.152063 0.152067 0.152068 
0.157066 0.157057 0.156989 0.156797 0.156541 0.156270 0.155998 0.155727 0.155449 0.155240 0.155163 0.155153 0.155143 0.155064 0.154851 0.154565 0.154283 0.154002 0.153720 0.153446 0.153242 0.153167 0.153157 0.153148 0.153073 0.152876 0.152612 0.152361 0.152111 0.151861 0.151625 0.151449 0.151386 0.151378 0.151370 0.151308 0.151145 0.150927 0.150730 0.150533 0.150337 0.150215 0.150124 0.150099 0.150096 0.150092 0.150068 0.150011 0.149936 0.149895 0.149854 0.149813 0.149799 0.149789 0.149786 0.149785 0.149785 0.149786 0.149788 0.149792 0.149812 0.149832 0.149851 0.149883 0.149907 0.149916 0.149917 0.149918 0.149928 0.149959 0.150000 0.150050 0.150100 0.150150 0.150204 0.150245 0.150260 0.150262 
0.153257 0.153253 0.153237 0.153199 0.153150 0.153098 0.153047 0.152995 0.152942 0.152901 0.152883 0.152878 0.152873 0.152855 0.152812 0.152757 0.152699 0.152641 0.152583 0.152522 0.152477 0.152457 0.152451 0.152445 0.152425 0.152377 0.152314 0.152251 0.152187 0.152124 0.152059 0.152010 0.151988 0.151982 0.151976 0.151954 0.151904 0.151837 0.151770 0.151702 0.151635 0.151566 0.151514 0.151491 0.151484 0.151478 0.151455 0.151403 0.151334 0.151266 0.151197 0.151128 0.151060 0.151009 0.150986 0.150979 0.150973 0.150950 0.150898 0.150830 0.150761 0.150693 0.150624 0.150556 0.150505 0.150482 0.150476 0.150469 0.150447 0.150395 0.150328 0.150262 0.150195 0.150129 0.150064 0.150014 0.149992 0.149986 0.149980 0.149958 0.149909 0.149845 0.149780 0.149716 0.149651 0.149588 0.149541 0.149521 0.149515 0.149509 0.149488 0.149441 0.149380 0.149319 0.149259 0.149198 0.149138 0.149093 0.149073 0.149067 0.149062 0.149042 0.148998 0.148940 0.148888 0.148836 0.148784 0.148740 0.148707 0.148694 0.148691 0.148687 0.148675 0.148647 0.148610 0.148577 0.148544 0.148511 0.148482 0.148460 0.148451 0.148448 0.148446 0.148437 0.148417 0.148391 0.148370 0.148349 0.148328 0.148307 0.148292 0.148286 0.148285 0.148283 0.148278 0.148266 0.148250 0.148235 0.148220 0.148205 0.148194 0.148185 0.148181 0.148180 0.148179 0.148175 0.148167 0.148156 0.148147 0.148138 0.148130 0.148121 0.148115 0.148112 0.148111 0.148111 0.148108 0.148104 0.148099 0.148093 0.148087 0.148082 0.148078 0.148075 0.148074 0.148073 0.148073 0.148072 0.148069 0.148066 0.148063 0.148061 0.148058 0.148057 0.148055 0.148055 0.148054 0.148054 0.148054 0.148053 0.148053 0.148053 0.148053 0.148053 0.148054 0.148054 0.148055 0.148055 0.148055 0.148055 0.148056 0.148058 0.148059 0.148060 0.148062 0.148064 0.148065 0.148066 0.148066 
0.149812 0.149807 0.149778 0.149700 0.149596 0.149486 0.149375 0.149264 0.149147 0.149060 0.149025 0.149020 0.149014 0.148979 0.148886 0.148761 0.148634 0.148506 0.148379 0.148249 0.148151 0.148114 0.148107 0.148101 0.148064 0.147964 0.147832 0.147699 0.147567 0.147434 0.147302 0.147203 0.147166 0.147160 0.147154 0.147116 0.147018 0.146887 0.146759 0.146632 0.146504 0.146378 0.146284 0.146248 0.146242 0.146237 0.146202 0.146111 0.145989 0.145873 0.145757 0.145641 0.145534 0.145453 0.145422 0.145417 0.145413 0.145388 0.145341 0.145279 0.145233 0.145188 0.145143 0.145112 0.145090 0.145082 0.145081 0.145080 0.145072 0.145058 0.145040 0.145029 0.145018 0.145007 0.145002 0.144999 0.144999 0.144999 0.144999 0.144999 0.145000 0.145001 0.145009 0.145016 0.145024 0.145035 0.145043 0.145047 0.145048 0.145048 0.145053 0.145064 0.145080 0.145099 0.145118 0.145138 0.145160 0.145177 0.145183 0.145184 
0.146634 0.146629 0.146611 0.146569 0.146512 0.146454 0.146396 0.146337 0.146277 0.146232 0.146212 0.146207 0.146201 0.146182 0.146135 0.146072 0.146008 0.145944 0.145880 0.145815 0.145765 0.145744 0.145739 0.145733 0.145712 0.145661 0.145594 0.145527 0.145459 0.145391 0.145322 0.145270 0.145248 0.145242 0.145236 0.145214 0.145162 0.145092 0.145023 0.144954 0.144884 0.144814 0.144761 0.144739 0.144733 0.144727 0.144705 0.144652 0.144582 0.144512 0.144443 0.144373 0.144304 0.144251 0.144229 0.144223 0.144217 0.144195 0.144142 0.144073 0.144004 0.143935 0.143866 0.143798 0.143747 0.143725 0.143719 0.143713 0.143691 0.143640 0.143572 0.143506 0.143440 0.143373 0.143307 0.143256 0.143235 0.143229 0.143224 0.143203 0.143154 0.143090 0.143026 0.142962 0.142898 0.142838 0.142792 0.142772 0.142767 0.142762 0.142742 0.142697 0.142636 0.142581 0.142525 0.142470 0.142415 0.142374 0.142358 0.142354 0.142349 0.142334 0.142306 0.142269 0.142244 0.142219 0.142194 0.142176 0.142162 0.142156 0.142155 0.142153 0.142148 0.142138 0.142124 0.142115 0.142105 0.142096 0.142090 0.142086 0.142085 0.142085 0.142084 0.142083 0.142081 0.142079 0.142079 0.142079 0.142080 0.142082 0.142084 0.142084 0.142084 0.142085 0.142085 0.142090 0.142095 0.142102 0.142108 0.142114 0.142124 0.142131 0.142134 0.142135 0.142136 0.142139 0.142147 0.142157 0.142170 0.142183 0.142195 0.142209 0.142219 0.142223 0.142224 0.142226 0.142231 0.142243 0.142260 0.142277 0.142294 0.142312 0.142331 0.142346 0.142353 0.142354 
0.143615 0.143612 0.143601 0.143579 0.143549 0.143517 0.143486 0.143455 0.143422 0.143397 0.143386 0.143382 0.143378 0.143367 0.143341 0.143306 0.143271 0.143235 0.143200 0.143163 0.143135 0.143122 0.143118 0.143114 0.143101 0.143072 0.143034 0.142996 0.142957 0.142918 0.142879 0.142849 0.142835 0.142830 0.142826 0.142812 0.142781 0.142741 0.142699 0.142658 0.142617 0.142576 0.142544 0.142529 0.142524 0.142520 0.142505 0.142473 0.142431 0.142388 0.142346 0.142303 0.142260 0.142228 0.142213 0.142208 0.142203 0.142188 0.142155 0.142113 0.142070 0.142027 0.141985 0.141942 0.141909 0.141895 0.141890 0.141885 0.141870 0.141838 0.141795 0.141753 0.141710 0.141667 0.141625 0.141593 0.141578 0.141573 0.141569 0.141554 0.141522 0.141480 0.141439 0.141398 0.141357 0.141315 0.141284 0.141270 0.141265 0.141260 0.141246 0.141215 0.141173 0.141133 0.141093 0.141053 0.141012 0.140981 0.140967 0.140963 0.140958 0.140944 0.140914 0.140875 0.140836 0.140797 0.140757 0.140718 0.140688 0.140675 0.140671 0.140666 0.140653 0.140625 0.140587 0.140550 0.140512 0.140475 0.140441 0.140415 0.140406 0.140403 0.140400 0.140392 0.140373 0.140348 0.140326 0.140304 0.140281 0.140263 0.140248 0.140242 0.140240 0.140238 0.140232 0.140218 0.140201 0.140186 0.140172 0.140158 0.140145 0.140136 0.140131 0.140130 0.140129 0.140124 0.140116 0.140104 0.140096 0.140087 0.140079 0.140070 0.140064 0.140061 0.140060 0.140059 0.140056 0.140052 0.140047 0.140042 0.140036 0.140031 0.140027 0.140023 0.140023 0.140022 0.140022 0.140021 0.140020 0.140017 0.140015 0.140013 0.140011 0.140011 0.140011 0.140012 0.140012 0.140012 0.140012 0.140012 0.140013 0.140014 0.140016 0.140017 0.140020 0.140022 0.140023 0.140024 0.140024 0.140025 0.140028 0.140031 0.140036 0.140041 0.140046 0.140052 0.140056 0.140058 0.140059 0.140059 0.140061 0.140066 0.140073 0.140081 0.140090 0.140098 0.140107 0.140114 0.140117 0.140118 
0.135745 0.135744 0.135740 0.135731 0.135720 0.135708 0.135696 0.135684 0.135671 0.135662 0.135657 0.135656 0.135654 0.135650 0.135640 0.135627 0.135613 0.135599 0.135585 0.135571 0.135560 0.135555 0.135553 0.135551 0.135546 0.135535 0.135520 0.135504 0.135489 0.135474 0.135458 0.135446 0.135441 0.135439 0.135437 0.135431 0.135419 0.135403 0.135386 0.135370 0.135353 0.135337 0.135324 0.135318 0.135316 0.135314 0.135309 0.135296 0.135279 0.135262 0.135245 0.135228 0.135211 0.135198 0.135192 0.135190 0.135188 0.135182 0.135169 0.135152 0.135134 0.135117 0.135100 0.135082 0.135069 0.135063 0.135060 0.135058 0.135052 0.135039 0.135022 0.135005 0.134988 0.134971 0.134953 0.134940 0.134934 0.134932 0.134930 0.134924 0.134912 0.134895 0.134878 0.134861 0.134844 0.134827 0.134815 0.134809 0.134807 0.134805 0.134800 0.134787 0.134771 0.134754 0.134738 0.134721 0.134706 0.134695 0.134689 0.134688 0.134686 0.134681 0.134669 0.134653 0.134639 0.134624 0.134609 0.134595 0.134585 0.134581 0.134579 0.134577 0.134573 0.134565 0.134554 0.134556 0.134557 0.134558 0.134561 0.134563 0.134564 0.134564 0.134564 0.134565 0.134567 0.134570 0.134575 0.134580 0.134585 0.134590 0.134594 0.134596 0.134596 0.134597 0.134599 0.134603 0.134609 0.134616 0.134623 0.134630 0.134637 0.134642 0.134644 0.134645 0.134646 0.134648 0.134655 0.134663 0.134672 0.134681 0.134689 0.134698 0.134704 0.134708 0.134709 0.134710 0.134714 0.134721 0.134731 0.134741 0.134751 0.134761 0.134773 0.134781 0.134785 0.134787 0.134788 0.134792 0.134801 0.134813 0.134825 0.134837 0.134849 0.134863 0.134873 0.134878 0.134879 0.134881 0.134886 0.134896 0.134910 0.134924 0.134939 0.134953 0.134969 0.134981 0.134986 0.134988 0.134990 0.134995 0.135007 0.135023 0.135040 0.135057 0.135074 0.135091 0.135105 0.135111 0.135113 
0.131567 0.131566 0.131564 0.131557 0.131548 0.131538 0.131527 0.131517 0.131505 0.131496 0.131492 0.131491 0.131489 0.131485 0.131475 0.131462 0.131447 0.131433 0.131418 0.131403 0.131391 0.131386 0.131385 0.131383 0.131378 0.131366 0.131349 0.131332 0.131314 0.131297 0.131279 0.131265 0.131259 0.131258 0.131256 0.131250 0.131236 0.131217 0.131198 0.131178 0.131159 0.131139 0.131124 0.131118 0.131116 0.131114 0.131108 0.131093 0.131072 0.131051 0.131030 0.131009 0.130988 0.130972 0.130965 0.130963 0.130962 0.130955 0.130938 0.130916 0.130894 0.130872 0.130850 0.130831 0.130816 0.130814 0.130814 0.130813 0.130812 0.130808 0.130803 0.130799 0.130795 0.130791 0.130788 0.130785 0.130784 0.130784 0.130783 0.130782 0.130780 0.130777 0.130774 0.130771 0.130769 0.130767 0.130766 0.130765 0.130765 0.130765 0.130764 0.130762 0.130760 0.130758 0.130755 0.130753 0.130750 0.130748 0.130748 0.130748 0.130747 0.130747 0.130746 0.130745 0.130743 0.130742 0.130740 0.130739 0.130739 0.130738 0.130738 
