-2.240585 -1.607201 14.441043
-1.819169 -1.609066 15.702287
-1.338232 -1.648045 16.942832
-1.019265 -1.587807 18.230125
-0.973462 -1.370401 19.541408
-0.954324 -1.138238 20.851878
-0.888508 -0.931623 22.165311
-0.840275 -0.715343 23.477855
-2.240098 -1.607114 14.442981
-1.819904 -1.609000 15.700428
-1.818434 -1.609133 15.704146
-1.338888 -1.648029 16.940943
-1.337577 -1.648062 16.944722
-1.019497 -1.588043 18.228153
-1.019034 -1.587571 18.232097
-0.973446 -1.370774 19.539443
-0.973478 -1.370028 19.543372
-0.954402 -1.138560 20.849906
-0.954245 -1.137917 20.853850
-0.888611 -0.931931 22.163338
-0.888406 -0.931315 22.167284
-0.840304 -0.715691 23.475886
-2.233253 -1.605890 14.470232
-1.830176 -1.608106 15.674262
-1.808102 -1.610065 15.730287
-1.348168 -1.647761 16.914395
-1.328360 -1.648291 16.971292
-1.022756 -1.591361 18.200415
-1.015775 -1.584252 18.259835
-0.973218 -1.376022 19.511813
-0.973705 -1.364781 19.571002
-0.955506 -1.143083 20.822169
-0.953141 -1.133394 20.881587
-0.890055 -0.936267 22.135587
-0.886962 -0.926979 22.195035
-0.840710 -0.720596 23.448195
-2.201125 -1.600890 14.594133
-2.145146 -1.596048 14.789138
-2.083770 -1.594514 14.982573
-2.017967 -1.595725 15.174552
-1.948638 -1.599142 15.365263
-1.876630 -1.604248 15.554942
-1.760875 -1.614415 15.849286
-1.685540 -1.621634 16.037603
-1.610212 -1.628848 16.225922
-1.535611 -1.635599 16.414547
-1.462465 -1.641426 16.603772
-1.391525 -1.645857 16.793870
-1.287152 -1.648851 17.092582
-1.225519 -1.647475 17.285938
-1.169083 -1.642911 17.480822
-1.118791 -1.634624 17.677256
-1.075624 -1.622083 17.875149
-1.040573 -1.604777 18.074277
-1.002614 -1.568185 18.386236
-0.987535 -1.539488 18.586573
-0.978181 -1.507614 18.786783
-0.973321 -1.473272 18.986748
-0.971752 -1.437139 19.186452
-0.972302 -1.399859 19.385952
-0.974682 -1.340910 19.696857
-0.975463 -1.303506 19.896333
-0.974419 -1.267088 20.095990
-0.971386 -1.231751 20.295821
-0.966581 -1.197378 20.495785
-0.960233 -1.163851 20.695850
-0.947783 -1.112974 21.007937
-0.938534 -1.081040 21.208150
-0.928565 -1.049504 21.408392
-0.918113 -1.018234 21.608650
-0.907414 -0.987101 21.808917
-0.896706 -0.955974 22.009185
-0.880555 -0.907137 22.321429
-0.870902 -0.875427 22.521658
-0.862078 -0.843258 22.721853
-0.854320 -0.810505 22.921996
-0.847857 -0.777039 23.122068
-0.842920 -0.742740 23.322041
95 NaN NaN
-2.240707 -1.607222 14.440558
-2.215992 -1.602806 14.538945
-2.189595 -1.599404 14.636935
-2.161649 -1.596943 14.734522
-2.132282 -1.595350 14.831710
-2.101621 -1.594554 14.928508
-2.069786 -1.594483 15.024929
-2.036895 -1.595068 15.120993
-2.003062 -1.596242 15.216724
-1.968396 -1.597939 15.312149
-1.933002 -1.600093 15.407298
-1.896983 -1.602643 15.502202
-1.860440 -1.605525 15.596895
-1.823467 -1.608679 15.691414
-1.786161 -1.612045 15.785794
-1.748614 -1.615564 15.880072
-1.710918 -1.619179 15.974288
-1.673164 -1.622831 16.068479
-1.635440 -1.626463 16.162683
-1.597838 -1.630018 16.256938
-1.560448 -1.633438 16.351283
-1.523360 -1.636665 16.445753
-1.486666 -1.639642 16.540386
-1.450460 -1.642310 16.635215
-1.414837 -1.644609 16.730275
-1.379895 -1.646479 16.825596
-1.345734 -1.647859 16.921208
-1.312456 -1.648686 17.017138
-1.280167 -1.648897 17.113408
-1.248977 -1.648427 17.210038
-1.218996 -1.647211 17.307044
-1.190341 -1.645182 17.404436
-1.163129 -1.642275 17.502218
-1.137480 -1.638420 17.600389
-1.113518 -1.633553 17.698941
-1.091367 -1.627606 17.797856
-1.071152 -1.620514 17.897110
-1.052996 -1.612214 17.996667
-1.037018 -1.602649 18.096483
-1.023216 -1.591830 18.196496
-1.011451 -1.579849 18.296637
-1.001568 -1.566803 18.396849
-0.993413 -1.552786 18.497086
-0.986830 -1.537892 18.597312
-0.981663 -1.522213 18.697501
-0.977758 -1.505839 18.797637
-0.974960 -1.488857 18.897708
-0.973119 -1.471353 18.997712
-0.972085 -1.453411 19.097650
-0.971710 -1.435110 19.197528
-0.971850 -1.416532 19.297355
-0.972359 -1.397753 19.397143
-0.973096 -1.378853 19.496907
-0.973917 -1.359907 19.596662
-0.974680 -1.340992 19.696423
-0.975243 -1.322185 19.796206
-0.975464 -1.303563 19.896025
-0.975205 -1.285200 19.995892
-0.974422 -1.267121 20.095807
-0.973140 -1.249312 20.195767
-0.971387 -1.231761 20.295764
-0.969191 -1.214450 20.395795
-0.966580 -1.197366 20.495854
-0.963582 -1.180494 20.595939
-0.960226 -1.163818 20.696046
-0.956541 -1.147323 20.796170
-0.952555 -1.130993 20.896311
-0.948299 -1.114812 20.996464
-0.943800 -1.098764 21.096628
-0.939088 -1.082834 21.196801
-0.934193 -1.067004 21.296982
-0.929144 -1.051260 21.397168
-0.923971 -1.035584 21.497359
-0.918704 -1.019961 21.597552
-0.913371 -1.004374 21.697748
-0.908003 -0.988806 21.797946
-0.902629 -0.973241 21.898143
-0.897279 -0.957663 21.998340
-0.891983 -0.942056 22.098534
-0.886770 -0.926402 22.198726
-0.881670 -0.910686 22.298914
-0.876712 -0.894892 22.399097
-0.871926 -0.879002 22.499273
-0.867342 -0.863002 22.599441
-0.862988 -0.846874 22.699599
-0.858894 -0.830603 22.799745
-0.855090 -0.814173 22.899876
-0.851604 -0.797569 22.999989
-0.848464 -0.780774 23.100083
-0.845701 -0.763774 23.200153
-0.843341 -0.746553 23.300195
-0.841414 -0.729096 23.400206
-0.839947 -0.711388 23.500181
-0.838968 -0.693415 23.600114
-0.838505 -0.675163 23.700000
-2.240267 -1.607146 14.440332
-1.754403 -1.522538 14.119186
-1.387354 -1.458208 13.664952
-1.174266 -1.420298 13.117846
-1.081790 -1.403146 12.535753
-1.052302 -1.396837 11.946320
-1.035609 -1.392698 11.356271
-1.005464 -1.386219 10.766778
-0.969232 -1.378761 10.177630
-0.937748 -1.372273 9.588205
-0.916839 -1.367477 8.998297
-0.907565 -1.363929 8.408083
-0.910609 -1.361280 7.817799
-0.924114 -1.360421 7.227652
-0.944683 -1.362990 6.637712
-0.967952 -1.369203 6.047896
-0.985070 -1.372033 5.457857
-0.985633 -1.362012 4.867693
-0.963114 -1.333107 4.278582
-0.922555 -1.289484 3.691312
-0.871117 -1.237159 3.105589
-0.814156 -1.180575 2.520768
-0.754058 -1.121590 1.936498
-0.692905 -1.061797 1.352418
-0.632777 -1.002790 0.768153
-0.575757 -0.946160 0.183343
-2.238510 -1.606840 14.439429
-1.755909 -1.522801 14.120475
-1.752897 -1.522275 14.117896
-1.388355 -1.458384 13.666674
-1.386353 -1.458031 13.663230
-1.174754 -1.420386 13.119783
-1.173778 -1.420210 13.115908
-1.081962 -1.403180 12.537746
-1.081619 -1.403113 12.533761
-1.052352 -1.396850 11.948319
-1.052252 -1.396824 11.944321
-1.035693 -1.392717 11.358269
-1.035525 -1.392679 11.354272
-1.005581 -1.386243 10.768775
-1.005347 -1.386194 10.764782
-0.969353 -1.378785 10.179627
-0.969110 -1.378736 10.175634
-0.937838 -1.372292 9.590203
-0.937658 -1.372254 9.586207
-0.916891 -1.367491 9.000296
-0.916788 -1.367463 8.996297
-0.907574 -1.363940 8.410083
-0.907555 -1.363919 8.406083
-0.910577 -1.361286 7.819799
-0.910641 -1.361273 7.815800
-0.924054 -1.360419 7.229652
-0.924176 -1.360424 7.225653
-0.944607 -1.362975 6.639710
-0.944760 -1.363005 6.635713
-0.967877 -1.369182 6.049894
-0.968027 -1.369224 6.045897
-0.985034 -1.372040 5.459857
-0.985106 -1.372027 5.455858
-0.985672 -1.362079 4.869692
-0.985594 -1.361944 4.865695
-0.963227 -1.333236 4.280575
-0.963000 -1.332979 4.276590
-0.922717 -1.289652 3.693299
-0.922392 -1.289316 3.689326
-0.871301 -1.237343 3.107571
-0.870933 -1.236974 3.103606
-0.814355 -1.180771 2.522748
-0.813957 -1.180378 2.518788
-0.754265 -1.121792 1.938477
-0.753852 -1.121388 1.934519
-0.693111 -1.061999 1.354397
-0.692698 -1.061595 1.350439
-0.632977 -1.002986 0.770133
-0.632578 -1.002593 0.766173
-0.575941 -0.946345 0.185326
-2.221335 -1.603854 14.430597
-1.770625 -1.525369 14.133074
-1.738414 -1.519746 14.105032
-1.398136 -1.460108 13.683504
-1.376571 -1.456308 13.646400
-1.179523 -1.421248 13.138715
-1.169009 -1.419348 13.096977
-1.083634 -1.403509 12.557213
-1.079947 -1.402784 12.514294
-1.052844 -1.396976 11.967855
-1.051760 -1.396699 11.924785
-1.036447 -1.392889 11.377795
-1.034708 -1.392496 11.334749
-1.006723 -1.386482 10.788281
-1.004178 -1.385951 10.745276
-0.970540 -1.379028 10.199131
-0.967924 -1.378493 10.156130
-0.938721 -1.372478 9.609724
-0.936775 -1.372068 9.566686
-0.917393 -1.367626 9.019831
-0.916285 -1.367328 8.976762
-0.907665 -1.364041 8.429624
-0.907465 -1.363818 8.386542
-0.910280 -1.361352 7.839339
-0.910954 -1.361210 7.796260
-0.923492 -1.360410 7.249185
-0.924778 -1.360453 7.206121
-0.943855 -1.362826 6.659237
-0.945519 -1.363165 6.616187
-0.967143 -1.368976 6.069421
-0.968760 -1.369431 6.026370
-0.984678 -1.372102 5.479395
-0.985462 -1.371965 5.436319
-0.986054 -1.362738 4.889219
-0.985212 -1.361286 4.846168
-0.964338 -1.334492 4.300044
-0.961889 -1.331723 4.257120
-0.924264 -1.291261 3.712712
-0.920806 -1.287675 3.669918
-0.873098 -1.239149 3.126946
-0.869113 -1.235151 3.084234
-0.816299 -1.182689 2.542099
-0.812013 -1.178461 2.499438
-0.756283 -1.123766 1.957813
-0.751834 -1.119414 1.915182
-0.695130 -1.063975 1.373734
-0.690679 -1.059620 1.331103
-0.634924 -1.004907 0.789483
-0.630631 -1.000673 0.746823
-0.577751 -0.948161 0.204699
-2.168043 -1.594589 14.403192
-2.094436 -1.581786 14.362286
-2.022287 -1.569230 14.318802
-1.951761 -1.556950 14.272662
-1.883034 -1.544975 14.223800
-1.816288 -1.533338 14.172166
-1.694896 -1.512144 14.063496
-1.635750 -1.501803 14.003108
-1.579398 -1.491939 13.940030
-1.525991 -1.482580 13.874356
-1.475653 -1.473746 13.806206
-1.429030 -1.465549 13.735379
-1.348642 -1.451375 13.592817
-1.311643 -1.444830 13.516392
-1.277806 -1.438828 13.438461
-1.247048 -1.433356 13.359211
-1.219711 -1.428472 13.278674
-1.195320 -1.424095 13.197177
-1.155448 -1.416887 13.037936
-1.138192 -1.413738 12.954580
-1.123067 -1.410956 12.870791
-1.110179 -1.408560 12.786616
-1.099131 -1.406480 12.702174
-1.089633 -1.404668 12.617539
-1.075097 -1.401823 12.453860
-1.069266 -1.400642 12.368879
-1.064532 -1.399650 12.283826
-1.060631 -1.398800 12.198730
-1.057365 -1.398060 12.113607
-1.054605 -1.397406 12.028464
-1.050244 -1.396310 11.864169
-1.048253 -1.395786 11.779003
-1.046223 -1.395255 11.693839
-1.044021 -1.394694 11.608679
-1.041532 -1.394082 11.523528
-1.038690 -1.393408 11.438388
-1.032172 -1.391926 11.274167
-1.028281 -1.391070 11.189071
-1.024118 -1.390166 11.103987
-1.019710 -1.389221 11.018917
-1.015084 -1.388238 10.933858
-1.010270 -1.387224 10.848810
-1.000526 -1.385192 10.684754
-0.995324 -1.384116 10.599730
-0.990063 -1.383031 10.514709
-0.984772 -1.381943 10.429691
-0.979481 -1.380858 10.344672
-0.974224 -1.379782 10.259651
-0.964337 -1.377759 10.095604
-0.959393 -1.376748 10.010563
-0.954611 -1.375768 9.925513
-0.950019 -1.374824 9.840452
-0.945644 -1.373922 9.755379
-0.941520 -1.373065 9.670293
-0.934174 -1.371512 9.506108
-0.930683 -1.370757 9.420993
-0.927413 -1.370034 9.335868
-0.924376 -1.369343 9.250735
-0.921608 -1.368687 9.165593
-0.919069 -1.368058 9.080443
-0.914823 -1.366919 8.916145
-0.912965 -1.366363 8.830977
-0.911356 -1.365831 8.745803
-0.910034 -1.365324 8.660625
-0.908958 -1.364836 8.575443
-0.908129 -1.364367 8.490258
-0.907231 -1.363506 8.325906
-0.907149 -1.363083 8.240717
-0.907372 -1.362675 8.155528
-0.907843 -1.362286 8.070340
-0.908554 -1.361919 7.985154
-0.909495 -1.361579 7.899970
-0.911924 -1.361013 7.735632
-0.913528 -1.360786 7.650457
-0.915321 -1.360604 7.565286
-0.917295 -1.360473 7.480119
-0.919440 -1.360397 7.394956
-0.921747 -1.360380 7.309797
-0.926647 -1.360543 7.145513
-0.929399 -1.360742 7.060367
-0.932271 -1.361019 6.975226
-0.935256 -1.361378 6.890089
-0.938343 -1.361825 6.804956
-0.941523 -1.362363 6.719827
-0.947911 -1.363716 6.555600
-0.951306 -1.364553 6.470481
-0.954726 -1.365459 6.385365
-0.958145 -1.366409 6.300248
-0.961535 -1.367376 6.215131
-0.964852 -1.368329 6.130011
-0.970935 -1.370012 5.965775
-0.973878 -1.370758 5.880639
-0.976642 -1.371385 5.795496
-0.979197 -1.371866 5.710346
-0.981474 -1.372146 5.625187
-0.983453 -1.372203 5.540020
-0.986382 -1.371627 5.375690
-0.987388 -1.370928 5.290510
-0.988006 -1.369920 5.205328
-0.988138 -1.368521 5.120149
-0.987778 -1.366723 5.034979
-0.986929 -1.364525 4.949823
-0.983874 -1.359118 4.785585
-0.981563 -1.355717 4.700494
-0.978714 -1.351874 4.615439
-0.975386 -1.347637 4.530420
-0.971635 -1.343054 4.445436
-0.967480 -1.338141 4.360490
-0.958412 -1.327801 4.196710
-0.953147 -1.321982 4.111882
-0.947536 -1.315881 4.027096
-0.941628 -1.309540 3.942348
-0.935441 -1.302974 3.857638
-0.928996 -1.296199 3.772962
-0.915882 -1.282584 3.609696
-0.908753 -1.275262 3.525121
-0.901449 -1.267802 3.440573
-0.893990 -1.260221 3.356050
-0.886393 -1.252533 3.271548
-0.878675 -1.244752 3.187066
-0.863444 -1.229478 3.024130
-0.855396 -1.221444 2.939702
-0.847255 -1.213339 2.855290
-0.839027 -1.205167 2.770893
-0.830717 -1.196932 2.686510
-0.822327 -1.188637 2.602141
-0.805928 -1.172469 2.439405
-0.797343 -1.164024 2.355070
-0.788706 -1.155540 2.270745
-0.780024 -1.147020 2.186428
-0.771300 -1.138469 2.102118
-0.762537 -1.129887 2.017816
-0.745561 -1.113278 1.855183
-0.736737 -1.104650 1.770892
-0.727903 -1.096015 1.686602
-0.719064 -1.087376 1.602313
-0.710229 -1.078739 1.518024
-0.701404 -1.070110 1.433733
-0.684425 -1.053499 1.271101
-0.675659 -1.044916 1.186798
-0.666926 -1.036358 1.102490
-0.658240 -1.027835 1.018174
-0.649599 -1.019347 0.933849
-0.641010 -1.010899 0.849515
-0.624601 -0.994724 0.686781
-0.616194 -0.986415 0.602415
-0.607877 -0.978175 0.518033
-0.599641 -0.969997 0.433637
-0.591493 -0.961886 0.349227
-0.583437 -0.953846 0.264800
149 NaN NaN
-2.240707 -1.607222 14.440558
-2.151975 -1.591796 14.394929
-2.065150 -1.576692 14.345672
-1.980524 -1.561961 14.292622
-1.898417 -1.547657 14.235643
-1.819173 -1.533841 14.174635
-1.743146 -1.520573 14.109549
-1.670693 -1.507915 14.040395
-1.602149 -1.495925 13.967252
-1.537815 -1.484655 13.890272
-1.477937 -1.474148 13.809674
-1.422685 -1.464434 13.725741
-1.372152 -1.455529 13.638798
-1.326340 -1.447435 13.549199
-1.285172 -1.440138 13.457305
-1.248494 -1.433614 13.363471
-1.216097 -1.427826 13.268025
-1.187723 -1.422730 13.171267
-1.163085 -1.418277 13.073458
-1.141880 -1.414416 12.974822
-1.123795 -1.411092 12.875546
-1.108520 -1.408251 12.775784
-1.095749 -1.405842 12.675657
-1.085185 -1.403813 12.575266
-1.076543 -1.402116 12.474683
-1.069549 -1.400701 12.373968
-1.063938 -1.399525 12.273164
-1.059457 -1.398543 12.172300
-1.055861 -1.397713 12.071399
-1.052910 -1.396993 11.970477
-1.050370 -1.396343 11.869542
-1.048009 -1.395722 11.768604
-1.045597 -1.395092 11.667666
-1.042900 -1.394411 11.566736
-1.039705 -1.393642 11.465821
-1.035971 -1.392779 11.364926
-1.031748 -1.391831 11.264050
-1.027085 -1.390807 11.163195
-1.022032 -1.389716 11.062359
-1.016643 -1.388567 10.961541
-1.010968 -1.387370 10.860740
-1.005064 -1.386135 10.759952
-0.998983 -1.384872 10.659174
-0.992781 -1.383590 10.558405
-0.986513 -1.382300 10.457639
-0.980236 -1.381013 10.356875
-0.974005 -1.379737 10.256107
-0.967876 -1.378483 10.155332
-0.961905 -1.377262 10.054548
-0.956148 -1.376083 9.953751
-0.950661 -1.374957 9.852938
-0.945476 -1.373888 9.752109
-0.940600 -1.372874 9.651263
-0.936038 -1.371913 9.550403
-0.931793 -1.371001 9.449528
-0.927868 -1.370137 9.348639
-0.924269 -1.369319 9.247738
-0.921000 -1.368542 9.146826
-0.918064 -1.367806 9.045903
-0.915467 -1.367108 8.944971
-0.913212 -1.366445 8.844030
-0.911305 -1.365814 8.743081
-0.909749 -1.365214 8.642127
-0.908551 -1.364642 8.541167
-0.907714 -1.364096 8.440204
-0.907244 -1.363573 8.339238
-0.907146 -1.363071 8.238271
-0.907422 -1.362588 8.137304
-0.908057 -1.362133 8.036339
-0.909037 -1.361712 7.935376
-0.910343 -1.361334 7.834417
-0.911959 -1.361006 7.733462
-0.913867 -1.360738 7.632512
-0.916051 -1.360537 7.531567
-0.918492 -1.360412 7.430629
-0.921174 -1.360370 7.329696
-0.924080 -1.360420 7.228770
-0.927191 -1.360570 7.127849
-0.930492 -1.360827 7.026935
-0.933964 -1.361201 6.926027
-0.937591 -1.361699 6.825125
-0.941354 -1.362329 6.724229
-0.945237 -1.363100 6.623338
-0.949220 -1.364017 6.522453
-0.953269 -1.365058 6.421571
-0.957330 -1.366176 6.320690
-0.961353 -1.367324 6.219809
-0.965284 -1.368454 6.118923
-0.969073 -1.369519 6.018032
-0.972668 -1.370471 5.917132
-0.976015 -1.371264 5.816222
-0.979065 -1.371850 5.715302
-0.981763 -1.372181 5.614370
-0.984058 -1.372210 5.513428
-0.985897 -1.371889 5.412477
-0.987228 -1.371170 5.311520
-0.987998 -1.370006 5.210561
-0.988154 -1.368348 5.109607
-0.987645 -1.366150 5.008664
-0.986417 -1.363362 4.907742
-0.984442 -1.359960 4.806851
-0.981748 -1.355966 4.705998
-0.978371 -1.351410 4.605189
-0.974348 -1.346325 4.504429
-0.969716 -1.340740 4.403722
-0.964511 -1.334688 4.303070
-0.958770 -1.328197 4.202475
-0.952529 -1.321299 4.101936
-0.945825 -1.314025 4.001453
-0.938693 -1.306405 3.901026
-0.931170 -1.298468 3.800651
-0.923292 -1.290246 3.700327
-0.915094 -1.281768 3.600050
-0.906611 -1.273065 3.499816
-0.897880 -1.264165 3.399620
-0.888936 -1.255099 3.299458
-0.879812 -1.245894 3.199325
-0.870526 -1.236565 3.099219
-0.861087 -1.227119 2.999137
-0.851507 -1.217565 2.899079
-0.841795 -1.207911 2.799044
-0.831962 -1.198163 2.699030
-0.822018 -1.188331 2.599034
-0.811975 -1.178423 2.499056
-0.801841 -1.168446 2.399094
-0.791629 -1.158408 2.299147
-0.781347 -1.148317 2.199211
-0.771007 -1.138182 2.099287
-0.760619 -1.128009 1.999370
-0.750193 -1.117809 1.899461
-0.739741 -1.107587 1.799557
-0.729271 -1.097353 1.699656
-0.718796 -1.087113 1.599755
-0.708324 -1.076877 1.499855
-0.697868 -1.066653 1.399951
-0.687436 -1.056447 1.300043
-0.677040 -1.046269 1.200128
-0.666690 -1.036126 1.100205
-0.656396 -1.026026 1.000272
-0.646169 -1.015977 0.900327
-0.636020 -1.005987 0.800368
-0.625958 -0.996065 0.700393
-0.615994 -0.986217 0.600401
-0.606139 -0.976453 0.500391
-0.596402 -0.966779 0.400359
-0.586795 -0.957205 0.300306
-0.577328 -0.947738 0.200229
-0.568011 -0.938385 0.100128
-0.558855 -0.929156 -0.000000
-2.241024 -1.607609 14.440569
-3.509432 -1.915203 14.428153
-4.499499 -0.963052 14.372935
-4.973816 0.354673 14.321690
-5.472338 1.663989 14.273021
-5.954714 2.978616 14.215964
-6.491003 4.271540 14.149281
-7.205678 5.472659 14.072585
-8.178688 6.471765 13.983623
-9.393231 7.155951 13.887838
-10.741162 7.519445 13.793766
-12.133938 7.638270 13.704842
-13.531795 7.587054 13.620964
-2.242292 -1.609155 14.440611
-3.507554 -1.915887 14.428222
-3.511310 -1.914518 14.428084
-4.498687 -0.964878 14.373021
-4.500311 -0.961227 14.372849
-4.973130 0.352796 14.321761
-4.974502 0.356551 14.321619
-5.471593 1.662134 14.273088
-5.473083 1.665843 14.272954
-5.954033 2.976737 14.216055
-5.955395 2.980494 14.215873
-6.490133 4.269742 14.149383
-6.491874 4.273338 14.149180
-7.204480 5.471062 14.072703
-7.206876 5.474257 14.072466
-8.177100 6.470557 13.983757
-8.180276 6.472973 13.983488
-9.391370 7.155231 13.887974
-9.395092 7.156671 13.887701
-10.739195 7.519109 13.793897
-10.743130 7.519773 13.793636
-12.131942 7.638230 13.704965
-12.135934 7.638310 13.704718
-13.529805 7.587218 13.621081
-2.261017 -1.631990 14.441229
-3.479819 -1.925999 14.429237
-3.538288 -1.902592 14.427006
-4.486691 -0.991840 14.374295
-4.511651 -0.933996 14.371571
-4.963002 0.325068 14.322806
-4.984630 0.384278 14.320574
-5.460592 1.634739 14.274080
-5.484084 1.693238 14.271962
-5.943976 2.948997 14.217397
-5.965451 3.008235 14.214531
-6.477276 4.243191 14.150878
-6.504730 4.299889 14.147684
-7.186814 5.447455 14.074454
-7.224568 5.497845 14.070714
-8.153801 6.452511 13.985735
-8.203734 6.490813 13.981505
-9.364038 7.144217 13.889998
-9.422575 7.167304 13.885679
-10.710141 7.514147 13.795832
-10.772245 7.524367 13.791709
-12.102466 7.637638 13.706786
-12.165413 7.638732 13.702903
-13.500417 7.589638 13.622803
-2.352087 -1.731231 14.443720
-2.523350 -1.858142 14.445795
-2.718314 -1.944755 14.445626
-2.926717 -1.990971 14.443409
-3.140089 -1.997411 14.439338
-3.351095 -1.965770 14.433629
-3.658366 -1.841478 14.421877
-3.836211 -1.723490 14.413290
-4.001831 -1.588672 14.404718
-4.159076 -1.444107 14.396559
-4.303692 -1.286986 14.388496
-4.425863 -1.112040 14.380009
-4.557422 -0.807221 14.365733
-4.621760 -0.603543 14.356837
-4.689075 -0.400807 14.348848
-4.763877 -0.200666 14.341705
-4.841252 -0.001488 14.334792
-4.916549 0.198472 14.327546
-5.030997 0.510904 14.315792
-5.105532 0.711142 14.308311
-5.181311 0.910916 14.300932
-5.257541 1.110518 14.293544
-5.333812 1.310102 14.286089
-5.410924 1.509363 14.278670
-5.534800 1.818197 14.267455
-5.614556 2.016416 14.260107
-5.690754 2.215996 14.252060
-5.761841 2.417415 14.243059
-5.830188 2.619757 14.233420
-5.899008 2.821927 14.223566
-6.012254 3.134642 14.208408
-6.088551 3.334116 14.198647
-6.167037 3.532728 14.188694
-6.248046 3.730313 14.178530
-6.332178 3.926577 14.168176
-6.419923 4.121242 14.157636
-6.564494 4.420667 14.140792
-6.662999 4.610079 14.129655
-6.766291 4.796905 14.118253
-6.874730 4.980772 14.106574
-6.988640 5.161278 14.094607
-7.108318 5.337991 14.082344
-7.306707 5.604588 14.062646
-7.442250 5.769388 14.049608
-7.584319 5.928569 14.036276
-7.732845 6.081712 14.022669
-7.887791 6.228329 14.008810
-8.049009 6.367994 13.994724
-8.311968 6.570863 13.972418
-8.488021 6.691253 13.957910
-8.669316 6.803585 13.943302
-8.855375 6.907823 13.928633
-9.045687 7.004071 13.913939
-9.239798 7.092408 13.899252
-9.548591 7.214640 13.876457
-9.750416 7.283600 13.861904
-9.954552 7.345418 13.847438
-10.160682 7.400254 13.833074
-10.368451 7.448539 13.818823
-10.577572 7.490622 13.804690
-10.905366 7.544567 13.782925
-11.116902 7.572228 13.769111
-11.329054 7.594775 13.755425
-11.541674 7.612489 13.741864
-11.754641 7.625523 13.728432
-11.967835 7.634251 13.715123
-12.300087 7.639826 13.694635
-12.513475 7.638609 13.681627
-12.726821 7.633863 13.668731
-12.940073 7.625768 13.655945
-13.153188 7.614495 13.643265
-13.366126 7.600164 13.630689
168 NaN NaN
-2.240707 -1.607222 14.440558
-2.304623 -1.685166 14.442668
-2.376964 -1.755375 14.444271
-2.456667 -1.817118 14.445354
-2.542544 -1.869951 14.445922
-2.633397 -1.913689 14.445991
-2.728096 -1.948334 14.445584
-2.825613 -1.973996 14.444724
-2.925033 -1.990834 14.443438
-3.025532 -1.999003 14.441747
-3.126356 -1.998623 14.439672
-3.226782 -1.989759 14.437230
-3.326086 -1.972415 14.434434
-3.423500 -1.946531 14.431298
-3.518185 -1.912011 14.427833
-3.609441 -1.869253 14.424081
-3.697080 -1.819500 14.420132
-3.781250 -1.764075 14.416070
-3.862324 -1.704207 14.411970
-3.940819 -1.640987 14.407898
-4.017336 -1.575377 14.403910
-4.092270 -1.507958 14.400040
-4.165139 -1.438311 14.396243
-4.235171 -1.365816 14.392461
-4.301457 -1.289890 14.388638
-4.362929 -1.210027 14.384723
-4.418350 -1.125869 14.380669
-4.466449 -1.037336 14.376445
-4.507409 -0.945274 14.372095
-4.542883 -0.850954 14.367714
-4.574676 -0.755321 14.363382
-4.604582 -0.659073 14.359166
-4.634370 -0.562780 14.355127
-4.665744 -0.466985 14.351327
-4.699262 -0.371908 14.347766
-4.734391 -0.277408 14.344379
-4.770551 -0.183293 14.341100
-4.807159 -0.089350 14.337856
-4.843632 0.004644 14.334578
-4.879464 0.098881 14.331204
-4.914667 0.193352 14.327737
-4.949454 0.287974 14.324204
-4.984041 0.382668 14.320635
-5.018644 0.477356 14.317055
-5.053479 0.571959 14.313494
-5.088689 0.666425 14.309968
-5.124224 0.760770 14.306472
-5.159997 0.855026 14.302993
-5.195920 0.949225 14.299519
-5.231908 1.043399 14.296038
-5.267876 1.137580 14.292539
-5.303825 1.231767 14.289020
-5.339867 1.325919 14.285497
-5.376121 1.419990 14.281986
-5.412704 1.513934 14.278501
-5.449735 1.607704 14.275059
-5.487306 1.701261 14.271671
-5.525240 1.794672 14.268309
-5.563197 1.888073 14.264919
-5.600833 1.981601 14.261447
-5.637802 2.075388 14.257838
-5.673756 2.169562 14.254039
-5.708406 2.264214 14.250004
-5.741906 2.359269 14.245755
-5.774590 2.454601 14.241336
-5.806798 2.550089 14.236792
-5.838871 2.645619 14.232169
-5.871151 2.741077 14.227510
-5.903978 2.836349 14.222862
-5.937580 2.931352 14.218251
-5.971924 3.026090 14.213667
-6.006942 3.120583 14.209091
-6.042562 3.214849 14.204507
-6.078717 3.308910 14.199896
-6.115342 3.402787 14.195242
-6.152440 3.496476 14.190538
-6.190076 3.589947 14.185785
-6.228314 3.683171 14.180986
-6.267218 3.776117 14.176144
-6.306852 3.868752 14.171260
-6.347274 3.961044 14.166337
-6.388520 4.052968 14.161372
-6.430621 4.144501 14.156363
-6.473610 4.235618 14.151305
-6.517515 4.326294 14.146197
-6.562367 4.416502 14.141034
-6.608200 4.506212 14.135816
-6.655055 4.595390 14.130540
-6.702972 4.683998 14.125204
-6.751989 4.771998 14.119809
-6.802145 4.859350 14.114352
-6.853477 4.946013 14.108832
-6.906017 5.031944 14.103249
-6.959799 5.117099 14.097601
-7.014854 5.201432 14.091887
-7.071211 5.284896 14.086106
-7.128900 5.367440 14.080257
-7.187944 5.449016 14.074341
-7.248365 5.529571 14.068357
-7.310182 5.609056 14.062306
-7.373413 5.687414 14.056187
-7.438075 5.764591 14.050003
-7.504178 5.840532 14.043753
-7.571726 5.915185 14.037439
-7.640716 5.988502 14.031064
-7.711147 6.060430 14.024630
-7.783015 6.130917 14.018137
-7.856315 6.199909 14.011590
-7.931027 6.267365 14.004991
-8.007126 6.333246 13.998343
-8.084589 6.397513 13.991650
-8.163389 6.460130 13.984916
-8.243500 6.521055 13.978144
-8.324887 6.580261 13.971338
-8.407508 6.637730 13.964502
-8.491319 6.693446 13.957640
-8.576278 6.747392 13.950757
-8.662343 6.799554 13.943856
-8.749470 6.849920 13.936941
-8.837608 6.898493 13.930016
-8.926706 6.945280 13.923084
-9.016717 6.990288 13.916150
-9.107591 7.033524 13.909216
-9.199284 7.074999 13.902286
-9.291746 7.114730 13.895362
-9.384929 7.152739 13.888448
-9.478788 7.189051 13.881546
-9.573278 7.223690 13.874657
-9.668358 7.256681 13.867785
-9.763986 7.288051 13.860931
-9.860122 7.317831 13.854097
-9.956728 7.346054 13.847284
-10.053769 7.372751 13.840494
-10.151210 7.397955 13.833727
-10.249019 7.421699 13.826985
-10.347165 7.444016 13.820269
-10.445620 7.464939 13.813579
-10.544355 7.484502 13.806916
-10.643346 7.502739 13.800281
-10.742568 7.519685 13.793673
-10.841999 7.535371 13.787093
-10.941618 7.549829 13.780541
-11.041405 7.563090 13.774018
-11.141342 7.575186 13.767523
-11.241411 7.586149 13.761057
-11.341597 7.596009 13.754619
-11.441884 7.604795 13.748209
-11.542260 7.612534 13.741827
-11.642711 7.619254 13.735473
-11.743225 7.624982 13.729147
-11.843791 7.629747 13.722849
-11.944399 7.633573 13.716577
-12.045039 7.636485 13.710333
-12.145702 7.638506 13.704115
-12.246381 7.639660 13.697923
-12.347068 7.639972 13.691758
-12.447755 7.639463 13.685618
-12.548437 7.638155 13.679503
-12.649107 7.636065 13.673414
-12.749760 7.633213 13.667349
-12.850391 7.629618 13.661308
-12.950994 7.625299 13.655292
-13.051567 7.620275 13.649299
-13.152104 7.614564 13.643329
-13.252602 7.608187 13.637382
-13.353058 7.601161 13.631457
-13.453470 7.593505 13.625554
-13.553834 7.585239 13.619673
-0.888274 -0.931246 22.165081
-0.821102 -0.819818 22.098284
-0.761460 -0.702277 22.034981
-0.711427 -0.578017 21.976369
-0.676780 -0.445366 21.925775
-0.659131 -0.306372 21.884670
-0.661953 -0.163275 21.855749
-0.691835 -0.020875 21.844249
-0.743653 0.115473 21.848050
-0.813703 0.242437 21.865502
-0.899641 0.356702 21.895822
-0.995043 0.460512 21.934425
-1.097141 0.555096 21.979284
-0.887337 -0.929739 22.164159
-0.821964 -0.821390 22.099172
-0.820241 -0.818246 22.097397
-0.762229 -0.703919 22.035825
-0.760691 -0.700634 22.034138
-0.712082 -0.579735 21.977156
-0.710858 -0.576251 21.975627
-0.677122 -0.447236 21.926396
-0.676437 -0.443495 21.925155
-0.659267 -0.308303 21.885171
-0.658995 -0.304440 21.884168
-0.661853 -0.165240 21.856107
-0.662075 -0.161310 21.855405
-0.691234 -0.022782 21.844275
-0.692436 -0.018967 21.844223
-0.742830 0.113655 21.847915
-0.744476 0.117290 21.848185
-0.812696 0.240731 21.865226
-0.814710 0.244143 21.865778
-0.898378 0.355231 21.895331
-0.900905 0.358172 21.896312
-0.993694 0.459149 21.933857
-0.996391 0.461875 21.934994
-1.095727 0.553830 21.978654
-0.884234 -0.924750 22.161107
-0.824816 -0.826592 22.102109
-0.817389 -0.813044 22.094460
-0.764774 -0.709355 22.038616
-0.758145 -0.695198 22.031346
-0.714251 -0.585422 21.979761
-0.709154 -0.570307 21.973263
-0.678256 -0.453427 21.928449
-0.675303 -0.437304 21.923102
-0.659718 -0.314696 21.886832
-0.658544 -0.298048 21.882508
-0.661521 -0.171745 21.857292
-0.663244 -0.154826 21.854759
-0.689244 -0.029096 21.844361
-0.694425 -0.012654 21.844137
-0.740107 0.107637 21.847469
-0.747200 0.123308 21.848631
-0.809363 0.235085 21.864311
-0.818465 0.249442 21.867038
-0.894195 0.350364 21.893706
-0.905088 0.363039 21.897937
-0.989229 0.454637 21.931976
-1.000856 0.466387 21.936874
-1.091048 0.549638 21.976567
-0.877194 -0.913431 22.154184
-0.867913 -0.898508 22.145056
-0.858632 -0.883586 22.135929
-0.849351 -0.868664 22.126802
-0.840071 -0.853742 22.117674
-0.831287 -0.838397 22.108773
-0.810918 -0.801239 22.087795
-0.802388 -0.785678 22.079010
-0.793858 -0.770116 22.070224
-0.785779 -0.754210 22.061653
-0.778165 -0.737950 22.053302
-0.770550 -0.721690 22.044951
-0.752369 -0.682863 22.025011
-0.745120 -0.666361 22.016841
-0.738633 -0.649352 22.009049
-0.732146 -0.632342 22.001257
-0.725659 -0.615333 21.993464
-0.719172 -0.598324 21.985672
-0.705289 -0.556819 21.967900
-0.700192 -0.539038 21.960830
-0.695096 -0.521257 21.953760
-0.690000 -0.503477 21.946689
-0.684903 -0.485696 21.939619
-0.680829 -0.467474 21.933107
-0.672730 -0.423257 21.918444
-0.669338 -0.404740 21.912304
-0.665947 -0.386222 21.906164
-0.663439 -0.367443 21.900531
-0.662090 -0.348322 21.895565
-0.660741 -0.329201 21.890599
-0.657521 -0.283543 21.878741
-0.656796 -0.264332 21.874154
-0.657789 -0.244875 21.870610
-0.658782 -0.225418 21.867067
-0.659775 -0.205961 21.863523
-0.660768 -0.186504 21.859980
-0.665897 -0.140114 21.853294
-0.669394 -0.120720 21.851362
-0.672891 -0.101325 21.849430
-0.676389 -0.081931 21.847499
-0.679886 -0.062536 21.845567
-0.684731 -0.043421 21.844555
-0.698939 0.001672 21.843943
-0.704889 0.020557 21.843686
-0.710840 0.039441 21.843430
-0.717635 0.057986 21.843785
-0.725781 0.075985 21.845121
-0.733927 0.093984 21.846456
-0.753379 0.136962 21.849644
-0.761925 0.154718 21.851286
-0.771894 0.171606 21.854023
-0.781863 0.188495 21.856760
-0.791832 0.205384 21.859497
-0.801801 0.222273 21.862234
-0.827118 0.261357 21.870003
-0.838526 0.277064 21.873911
-0.849933 0.292771 21.877820
-0.861340 0.308478 21.881728
-0.872747 0.324185 21.885637
-0.884703 0.339321 21.890019
-0.914579 0.374082 21.901624
-0.927091 0.388640 21.906485
-0.939603 0.403198 21.911345
-0.952392 0.417407 21.916457
-0.965746 0.430903 21.922083
-0.979100 0.444399 21.927709
-1.010986 0.476625 21.941142
-1.024442 0.489968 21.946866
-1.038439 0.502507 21.953108
-1.052436 0.515047 21.959349
-1.066433 0.527586 21.965591
-1.080430 0.540126 21.971833
18 NaN NaN
-0.888508 -0.931623 22.165311
-0.836933 -0.848697 22.114589
-0.789530 -0.762221 22.065767
-0.747220 -0.671867 22.019364
-0.711176 -0.577360 21.976068
-0.682863 -0.478578 21.936789
-0.664022 -0.375716 21.902680
-0.656531 -0.269521 21.875099
-0.662045 -0.161481 21.855422
-0.681462 -0.053796 21.844696
-0.714502 0.051064 21.843272
-0.759742 0.151020 21.850687
-0.815115 0.244828 21.865890
-0.878486 0.332086 21.887603
-0.948003 0.412972 21.914608
-1.022204 0.487963 21.945868
-1.099984 0.557644 21.980552
-1.180524 0.622600 22.018013
-1.019026 -1.587368 18.230137
-0.898063 -1.351291 18.238129
-0.798595 -1.105638 18.250946
-0.729891 -0.850184 18.270197
-0.699263 -0.588187 18.296732
-0.718579 -0.326296 18.331770
-0.790709 -0.075035 18.374524
-0.914128 0.154251 18.423359
-1.077353 0.356484 18.475702
-1.269576 0.531088 18.529639
-1.018068 -1.585613 18.230187
-0.898900 -1.353105 18.238052
-0.897226 -1.349476 18.238206
-0.799280 -1.107514 18.250836
-0.797910 -1.103762 18.251057
-0.730269 -0.852140 18.270024
-0.729512 -0.848228 18.270370
-0.699376 -0.590172 18.296511
-0.699150 -0.586203 18.296954
-0.718216 -0.328240 18.331473
-0.718943 -0.324352 18.332068
-0.790016 -0.076880 18.374182
-0.791401 -0.073190 18.374866
-0.913012 0.152637 18.422973
-0.915245 0.155865 18.423745
-1.076026 0.355042 18.475301
-1.078680 0.357926 18.476103
-1.268031 0.529885 18.529230
-1.012901 -1.576143 18.230454
-0.903416 -1.362898 18.237635
-0.892710 -1.339683 18.238623
-0.802974 -1.117636 18.250239
-0.794564 -1.093528 18.251727
-0.732312 -0.862695 18.269093
-0.727470 -0.837672 18.271301
-0.699986 -0.600880 18.295317
-0.698702 -0.575495 18.298175
-0.716258 -0.338730 18.329867
-0.720901 -0.313861 18.333673
-0.786281 -0.086835 18.372339
-0.795136 -0.063235 18.376709
-0.906989 0.143929 18.420891
-0.921267 0.164574 18.425828
-1.068867 0.347263 18.473137
-1.085839 0.365705 18.478266
-1.259695 0.523397 18.527022
-0.999620 -1.551806 18.231139
-0.981958 -1.519438 18.232051
-0.964509 -1.486961 18.233013
-0.947898 -1.454049 18.234170
-0.931287 -1.421138 18.235327
-0.915021 -1.388063 18.236563
-0.881105 -1.314518 18.239695
-0.866439 -1.280721 18.241291
-0.852326 -1.246687 18.243010
-0.838212 -1.212653 18.244729
-0.825097 -1.178243 18.246664
-0.812469 -1.143648 18.248705
-0.786325 -1.067107 18.253525
-0.775368 -1.031970 18.255916
-0.764506 -0.996807 18.258326
-0.755425 -0.961166 18.261098
-0.746344 -0.925525 18.263870
-0.737561 -0.889822 18.266700
-0.722220 -0.810546 18.273694
-0.716243 -0.774325 18.277065
-0.711595 -0.737915 18.280686
-0.706946 -0.701505 18.284307
-0.703635 -0.664996 18.288168
-0.701552 -0.628398 18.292249
-0.699224 -0.547979 18.301599
-0.699918 -0.511384 18.306154
-0.700613 -0.474789 18.310708
-0.703963 -0.438408 18.315689
-0.707605 -0.402050 18.320717
-0.711248 -0.365693 18.325745
-0.725935 -0.286903 18.337799
-0.733493 -0.251269 18.343407
-0.743261 -0.216197 18.349324
-0.753028 -0.181126 18.355240
-0.763913 -0.146444 18.361300
-0.776680 -0.112419 18.367601
-0.806616 -0.038492 18.381666
-0.822227 -0.005740 18.388297
-0.837838 0.027013 18.394929
-0.855419 0.058682 18.401765
-0.873649 0.089994 18.408669
-0.891879 0.121306 18.415572
-0.936746 0.186955 18.431180
-0.957606 0.216511 18.438319
-0.980269 0.244685 18.445598
-1.002932 0.272860 18.452877
-1.025999 0.300681 18.460182
-1.050468 0.327270 18.467577
-1.105034 0.384908 18.483866
-1.131058 0.409954 18.491339
-1.157083 0.435000 18.498812
-1.183909 0.459156 18.506314
-1.211265 0.482726 18.513835
-1.238621 0.506296 18.521356
25 NaN NaN
-1.019265 -1.587807 18.230125
-0.967879 -1.493636 18.232778
-0.919550 -1.397884 18.236145
-0.874645 -1.300510 18.240292
-0.833585 -1.201494 18.245293
-0.796846 -1.100848 18.251229
-0.764969 -0.998625 18.258185
-0.738551 -0.894939 18.266249
-0.718242 -0.789988 18.275507
-0.704721 -0.684071 18.286041
-0.698661 -0.577610 18.297912
-0.700682 -0.471162 18.311159
-0.711276 -0.365409 18.325784
-0.730749 -0.261122 18.341745
-0.759159 -0.159112 18.358954
-0.796296 -0.060145 18.377282
-0.841703 0.035123 18.396571
-0.894730 0.126203 18.416652
-0.954612 0.212788 18.437357
-1.020539 0.294748 18.458532
-1.091723 0.372098 18.480044
-1.167433 0.444960 18.501784
-1.247017 0.513530 18.523665
-1.329907 0.578043 18.545617
-1.415617 0.638755 18.567589
-1.337882 -1.647690 16.942868
-1.285516 -1.594644 16.948217
-1.233799 -1.540982 16.953683
-1.182738 -1.486704 16.959268
-1.132906 -1.431316 16.965067
-1.084040 -1.375099 16.971029
-1.036045 -1.318149 16.977135
-0.989524 -1.260008 16.983478
-0.944463 -1.200765 16.990044
-0.900602 -1.140650 16.996790
-0.858549 -1.079273 17.003798
-0.818746 -1.016463 17.011112
-0.780661 -0.952634 17.018650
-0.744845 -0.887513 17.026474
-0.712572 -0.820632 17.034709
-0.682839 -0.752651 17.043216
-0.655984 -0.683469 17.052022
-0.634743 -0.612442 17.061344
-0.617248 -0.540517 17.070961
-0.603594 -0.467731 17.080871
-0.597853 -0.393951 17.091275
-0.597423 -0.320123 17.101921
-0.602053 -0.246398 17.112775
-0.615341 -0.173699 17.123864
-0.635060 -0.102642 17.134999
-0.659919 -0.033160 17.146134
-0.691999 0.033427 17.157170
-0.729903 0.096794 17.167999
-0.771672 0.157735 17.178647
-0.818096 0.215370 17.189024
-0.868821 0.269262 17.199050
-0.921970 0.320798 17.208842
-0.977737 0.369626 17.218360
-1.036450 0.414923 17.227497
-1.096616 0.458288 17.236419
-1.158203 0.499712 17.245124
-1.221810 0.538041 17.253471
-1.286310 0.574853 17.261639
-1.351677 0.610174 17.269629
-1.418286 0.643168 17.277338
-1.485560 0.674800 17.284880
-1.336481 -1.646271 16.943011
-1.286917 -1.596064 16.948074
-1.284115 -1.593224 16.948360
-1.235169 -1.542432 16.953534
-1.232430 -1.539532 16.953832
-1.184072 -1.488187 16.959113
-1.181404 -1.485222 16.959423
-1.134239 -1.432798 16.964912
-1.131572 -1.429834 16.965222
-1.085332 -1.376616 16.970866
-1.082747 -1.373581 16.971191
-1.037290 -1.319705 16.976965
-1.034800 -1.316593 16.977304
-0.990769 -1.261564 16.983308
-0.988279 -1.258452 16.983647
-0.945653 -1.202363 16.989866
-0.943273 -1.199168 16.990222
-0.901727 -1.142293 16.996602
-0.899476 -1.139008 16.996978
-0.859674 -1.080915 17.003611
-0.857423 -1.077630 17.003986
-0.819795 -1.018154 17.010914
-0.817696 -1.014772 17.011310
-0.781619 -0.954377 17.018440
-0.779702 -0.950892 17.018859
-0.745804 -0.889256 17.026265
-0.743887 -0.885770 17.026684
-0.713422 -0.822429 17.034487
-0.711722 -0.818835 17.034931
-0.683558 -0.754502 17.042980
-0.682120 -0.750799 17.043451
-0.656703 -0.685321 17.051787
-0.655266 -0.681618 17.052258
-0.635304 -0.614345 17.061094
-0.634182 -0.610538 17.061594
-0.617621 -0.542464 17.070696
-0.616875 -0.538570 17.071225
-0.603748 -0.469706 17.080593
-0.603440 -0.465757 17.081150
-0.598007 -0.395925 17.090997
-0.597699 -0.391976 17.091554
-0.597330 -0.322100 17.101631
-0.597516 -0.318147 17.102210
-0.601697 -0.248344 17.112478
-0.602409 -0.244453 17.113072
-0.614985 -0.175644 17.123567
-0.615697 -0.171753 17.124161
-0.634444 -0.104520 17.134701
-0.635677 -0.100763 17.135298
-0.659060 -0.034942 17.145839
-0.660777 -0.031378 17.146430
-0.691141 0.031645 17.156875
-0.692858 0.035209 17.157466
-0.728834 0.095128 17.167711
-0.730972 0.098460 17.168286
-0.770429 0.156193 17.178369
-0.772914 0.159278 17.178925
-0.816854 0.213828 17.188746
-0.819339 0.216913 17.189301
-0.867439 0.267841 17.198783
-0.870203 0.270683 17.199316
-0.920477 0.319491 17.208588
-0.923462 0.322104 17.209097
-0.976245 0.368319 17.218105
-0.979230 0.370932 17.218614
-1.034870 0.413721 17.227254
-1.038029 0.416126 17.227740
-1.094968 0.457179 17.236186
-1.098264 0.459397 17.236652
-1.156555 0.498603 17.244891
-1.159880 0.500777 17.245352
-1.220107 0.537016 17.253248
-1.223513 0.539066 17.253695
-1.284563 0.573904 17.261424
-1.288057 0.575803 17.261853
-1.349894 0.609291 17.269423
-1.353460 0.611057 17.269835
-1.416503 0.642285 17.277132
-1.420069 0.644051 17.277544
-1.483749 0.673977 17.284681
-1.333597 -1.643349 16.943306
-1.289801 -1.598985 16.947779
-1.281231 -1.590303 16.948655
-1.237987 -1.545415 16.953228
-1.229611 -1.536549 16.954139
-1.186816 -1.491237 16.958793
-1.178660 -1.482172 16.959742
-1.136984 -1.435849 16.964592
-1.128828 -1.426783 16.965542
-1.087992 -1.379739 16.970533
-1.080088 -1.370458 16.971524
-1.039852 -1.322907 16.976615
-1.032238 -1.313391 16.977654
-0.993331 -1.264766 16.982958
-0.985717 -1.255250 16.983997
-0.948101 -1.205651 16.989499
-0.940824 -1.195880 16.990589
-0.904043 -1.145673 16.996217
-0.897160 -1.135628 16.997364
-0.861990 -1.084296 17.003225
-0.855108 -1.074250 17.004372
-0.821954 -1.021634 17.010507
-0.815537 -1.011292 17.011718
-0.783592 -0.957964 17.018010
-0.777730 -0.947305 17.019290
-0.747776 -0.892842 17.025834
-0.741914 -0.882184 17.027115
-0.715170 -0.826127 17.034030
-0.709974 -0.815138 17.035388
-0.685037 -0.758312 17.042495
-0.680641 -0.746989 17.043936
-0.658182 -0.689131 17.051302
-0.653991 -0.677741 17.052762
-0.636459 -0.618262 17.060579
-0.633027 -0.606622 17.062109
-0.618388 -0.546471 17.070151
-0.616107 -0.534564 17.071770
-0.604449 -0.473721 17.080044
-0.603124 -0.461693 17.081723
-0.598323 -0.399988 17.090424
-0.597383 -0.387913 17.092127
-0.597138 -0.326168 17.101035
-0.597707 -0.314079 17.102807
-0.600966 -0.252348 17.111868
-0.603140 -0.240449 17.113683
-0.614253 -0.179648 17.122956
-0.616428 -0.167749 17.124771
-0.633174 -0.108387 17.134086
-0.636946 -0.096896 17.135913
-0.657293 -0.038609 17.145231
-0.662544 -0.027711 17.147037
-0.689374 0.027978 17.156267
-0.694624 0.038876 17.158073
-0.726636 0.091700 17.167118
-0.733171 0.101888 17.168879
-0.767873 0.153019 17.177798
-0.775471 0.162452 17.179496
-0.814297 0.210654 17.188175
-0.821896 0.220087 17.189873
-0.864595 0.264917 17.198235
-0.873047 0.273607 17.199864
-0.917406 0.316802 17.208063
-0.926533 0.324793 17.209621
-0.973173 0.365630 17.217581
-0.982301 0.373621 17.219138
-1.031620 0.411246 17.226752
-1.041280 0.418600 17.228242
-1.091576 0.454898 17.235707
-1.101656 0.461678 17.237132
-1.153163 0.496322 17.244412
-1.163385 0.502885 17.245812
-1.216603 0.534908 17.252789
-1.227018 0.541174 17.254154
-1.280968 0.571949 17.260983
-1.291652 0.577758 17.262294
-1.346244 0.607441 17.268994
-1.357128 0.612874 17.270260
-1.412835 0.640468 17.276707
-1.423737 0.645868 17.277969
-1.480020 0.672283 17.284271
-1.328420 -1.638105 16.943834
-1.321731 -1.631330 16.944518
-1.315043 -1.624555 16.945201
-1.308355 -1.617780 16.945884
-1.301667 -1.611004 16.946567
-1.294978 -1.604229 16.947250
-1.276054 -1.585059 16.949183
-1.269365 -1.578283 16.949867
-1.262677 -1.571508 16.950550
-1.256121 -1.564608 16.951257
-1.249584 -1.557689 16.951967
-1.243047 -1.550770 16.952678
-1.224551 -1.531194 16.954689
-1.218015 -1.524275 16.955399
-1.211478 -1.517356 16.956110
-1.204941 -1.510437 16.956821
-1.198405 -1.503518 16.957531
-1.191868 -1.496599 16.958242
-1.173734 -1.476696 16.960316
-1.167369 -1.469622 16.961056
-1.161004 -1.462547 16.961797
-1.154640 -1.455473 16.962538
-1.148275 -1.448399 16.963278
-1.141910 -1.441324 16.964019
-1.123901 -1.421308 16.966115
-1.117536 -1.414233 16.966856
-1.111271 -1.407074 16.967613
-1.105103 -1.399831 16.968387
-1.098934 -1.392588 16.969160
-1.092766 -1.385346 16.969934
-1.075314 -1.364852 16.972123
-1.069145 -1.357609 16.972897
-1.062977 -1.350366 16.973671
-1.056809 -1.343123 16.974444
-1.050641 -1.335880 16.975218
-1.044473 -1.328637 16.975992
-1.027639 -1.307643 16.978281
-1.021697 -1.300217 16.979091
-1.015756 -1.292791 16.979901
-1.009814 -1.285366 16.980711
-1.003872 -1.277940 16.981521
-0.997931 -1.270514 16.982331
-0.981118 -1.249502 16.984624
-0.975213 -1.242049 16.985439
-0.969534 -1.234425 16.986290
-0.963855 -1.226801 16.987140
-0.958176 -1.219176 16.987991
-0.952497 -1.211552 16.988841
-0.936429 -1.189979 16.991247
-0.930750 -1.182354 16.992098
-0.925071 -1.174730 16.992948
-0.919392 -1.167106 16.993799
-0.913713 -1.159481 16.994649
-0.908200 -1.151741 16.995524
-0.893003 -1.129560 16.998056
-0.887632 -1.121720 16.998951
-0.882261 -1.113881 16.999847
-0.876890 -1.106042 17.000742
-0.871519 -1.098203 17.001637
-0.866148 -1.090363 17.002532
-0.850950 -1.068182 17.005064
-0.845860 -1.060164 17.005998
-0.840852 -1.052093 17.006942
-0.835845 -1.044023 17.007887
-0.830837 -1.035952 17.008831
-0.825830 -1.027881 17.009776
-0.811661 -1.005045 17.012449
-0.806654 -0.996974 17.013393
-0.801646 -0.988904 17.014338
-0.796639 -0.980833 17.015282
-0.791707 -0.972719 17.016237
-0.787133 -0.964402 17.017236
-0.774189 -0.940867 17.020064
-0.769615 -0.932550 17.021063
-0.765040 -0.924232 17.022062
-0.760466 -0.915915 17.023062
-0.755891 -0.907598 17.024061
-0.751317 -0.899280 17.025060
-0.738585 -0.875641 17.027913
-0.734530 -0.867066 17.028972
-0.730475 -0.858490 17.030032
-0.726419 -0.849915 17.031091
-0.722364 -0.841340 17.032151
-0.718309 -0.832764 17.033210
-0.706835 -0.808500 17.036208
-0.702780 -0.799925 17.037268
-0.698724 -0.791350 17.038327
-0.694669 -0.782774 17.039387
-0.691121 -0.773987 17.040499
-0.687691 -0.765151 17.041624
-0.677986 -0.740150 17.044807
-0.674557 -0.731314 17.045932
-0.671127 -0.722478 17.047057
-0.667697 -0.713642 17.048181
-0.664267 -0.704806 17.049306
-0.660837 -0.695970 17.050431
-0.651919 -0.670710 17.053686
-0.649241 -0.661627 17.054880
-0.646564 -0.652543 17.056074
-0.643886 -0.643460 17.057267
-0.641209 -0.634376 17.058461
-0.638531 -0.625293 17.059655
-0.630955 -0.599591 17.063033
-0.628277 -0.590507 17.064227
-0.625600 -0.581424 17.065421
-0.623327 -0.572247 17.066646
-0.621547 -0.562955 17.067909
-0.619766 -0.553663 17.069173
-0.614729 -0.527372 17.072748
-0.612948 -0.518080 17.074012
-0.611168 -0.508788 17.075275
-0.609388 -0.499496 17.076539
-0.607607 -0.490205 17.077802
-0.605827 -0.480913 17.079066
-0.602557 -0.454399 17.082751
-0.601823 -0.444976 17.084080
-0.601090 -0.435553 17.085409
-0.600357 -0.426129 17.086738
-0.599624 -0.416706 17.088067
-0.598890 -0.407282 17.089395
-0.596816 -0.380619 17.093155
-0.596083 -0.371196 17.094484
-0.595463 -0.361771 17.095818
-0.595907 -0.352337 17.097200
-0.596351 -0.342904 17.098583
-0.596795 -0.333470 17.099965
-0.598051 -0.306777 17.103876
-0.598495 -0.297343 17.105259
-0.598939 -0.287909 17.106641
-0.599383 -0.278476 17.108024
-0.599827 -0.269042 17.109406
-0.600271 -0.259608 17.110788
-0.604454 -0.233262 17.114779
-0.606151 -0.223977 17.116195
-0.607848 -0.214691 17.117611
-0.609546 -0.205406 17.119028
-0.611243 -0.196121 17.120444
-0.612940 -0.186835 17.121860
-0.617742 -0.160562 17.125867
-0.619439 -0.151277 17.127284
-0.622066 -0.142229 17.128707
-0.625009 -0.133262 17.130132
-0.627953 -0.124295 17.131557
-0.630896 -0.115328 17.132983
-0.639225 -0.089955 17.137016
-0.642168 -0.080988 17.138441
-0.645111 -0.072021 17.139867
-0.648055 -0.063054 17.141292
-0.650998 -0.054087 17.142717
-0.654122 -0.045192 17.144140
-0.665716 -0.021128 17.148128
-0.669813 -0.012624 17.149538
-0.673910 -0.004119 17.150948
-0.678008 0.004385 17.152357
-0.682105 0.012890 17.153767
-0.686202 0.021395 17.155176
-0.697796 0.045459 17.159164
-0.702289 0.053744 17.160560
-0.707389 0.061695 17.161934
-0.712489 0.069645 17.163307
-0.717588 0.077596 17.164681
-0.722688 0.085546 17.166055
-0.737118 0.108042 17.169942
-0.742218 0.115992 17.171316
-0.747317 0.123943 17.172690
-0.752417 0.131893 17.174063
-0.757517 0.139843 17.175437
-0.763283 0.147321 17.176772
-0.780060 0.168150 17.180522
-0.785990 0.175511 17.181847
-0.791919 0.182872 17.183173
-0.797849 0.190233 17.184498
-0.803778 0.197595 17.185823
-0.809708 0.204956 17.187149
-0.826511 0.225762 17.190897
-0.833107 0.232543 17.192168
-0.839703 0.239325 17.193439
-0.846298 0.246106 17.194710
-0.852894 0.252887 17.195981
-0.859490 0.259668 17.197252
-0.878153 0.278856 17.200848
-0.884748 0.285637 17.202119
-0.891344 0.292418 17.203390
-0.897940 0.299199 17.204661
-0.904770 0.305738 17.205907
-0.911893 0.311975 17.207123
-0.932046 0.329621 17.210562
-0.939169 0.335857 17.211778
-0.946292 0.342093 17.212993
-0.953415 0.348330 17.214209
-0.960537 0.354566 17.215424
-0.967660 0.360803 17.216640
-0.988096 0.378111 17.220043
-0.995634 0.383850 17.221205
-1.003172 0.389588 17.222367
-1.010710 0.395327 17.223529
-1.018248 0.401066 17.224691
-1.025785 0.406804 17.225853
-1.047114 0.423042 17.229141
-1.054652 0.428781 17.230303
-1.062190 0.434519 17.231465
-1.069755 0.440221 17.232623
-1.077621 0.445512 17.233735
-1.085487 0.450803 17.234846
-1.107744 0.465773 17.237992
-1.115611 0.471064 17.239104
-1.123477 0.476355 17.240216
-1.131343 0.481645 17.241328
-1.139209 0.486936 17.242440
-1.147075 0.492227 17.243551
-1.169676 0.506671 17.246636
-1.177803 0.511561 17.247702
-1.185930 0.516451 17.248767
-1.194057 0.521342 17.249833
-1.202185 0.526232 17.250898
-1.210312 0.531122 17.251964
-1.233308 0.544960 17.254979
-1.241436 0.549850 17.256044
-1.249563 0.554740 17.257110
-1.257841 0.559374 17.258145
-1.266178 0.563907 17.259168
-1.274515 0.568440 17.260191
-1.298105 0.581267 17.263086
-1.306442 0.585800 17.264110
-1.314780 0.590333 17.265133
-1.323117 0.594866 17.266156
-1.331454 0.599399 17.267179
-1.339791 0.603932 17.268202
-1.363713 0.616136 17.271022
-1.372220 0.620350 17.272007
-1.380728 0.624564 17.272991
-1.389235 0.628778 17.273976
-1.397743 0.632992 17.274960
-1.406250 0.637206 17.275945
-1.430322 0.649130 17.278731
-1.438829 0.653344 17.279716
-1.447386 0.657457 17.280688
-1.456033 0.661386 17.281637
-1.464680 0.665314 17.282587
-1.473327 0.669242 17.283536
29 NaN NaN
-1.338232 -1.648045 16.942832
-1.261802 -1.570622 16.950639
-1.187104 -1.491557 16.958760
-1.114373 -1.410717 16.967224
-1.043888 -1.327950 16.976065
-0.975991 -1.243094 16.985323
-0.911098 -1.155970 16.995041
-0.849724 -1.066392 17.005269
-0.792506 -0.974172 17.016062
-0.740237 -0.879135 17.027481
-0.693904 -0.781157 17.039587
-0.654718 -0.680207 17.052438
-0.624130 -0.576439 17.066076
-0.603794 -0.470303 17.080509
-0.595420 -0.362678 17.095685
-0.600491 -0.254947 17.111471
-0.619870 -0.148917 17.127644
-0.653482 -0.046521 17.143920
-0.700274 0.050603 17.160017
-0.758521 0.141409 17.175708
-0.826253 0.225496 17.190847
-0.901604 0.302966 17.205367
-0.982982 0.374217 17.219255
-1.069109 0.439787 17.232532
-1.158989 0.500240 17.245235
-1.251857 0.556120 17.257410
-1.347124 0.607919 17.269102
-1.444339 0.656073 17.280353
-1.543150 0.700963 17.291204
-1.818742 -1.608809 15.702324
-1.502665 -1.408670 15.732489
-1.201894 -1.187417 15.769943
-0.928120 -0.935694 15.818333
-0.707703 -0.640325 15.883628
-0.603104 -0.294800 15.972950
-0.690222 0.049871 16.078219
-0.918322 0.328876 16.176739
-1.211390 0.546101 16.263194
-1.817035 -1.607777 15.702473
-1.504313 -1.409788 15.732310
-1.501017 -1.407551 15.732667
-1.203453 -1.188651 15.769724
-1.200336 -1.186182 15.770162
-0.929453 -0.937154 15.818031
-0.926787 -0.934235 15.818635
-0.708678 -0.642024 15.883227
-0.706728 -0.638625 15.884028
-0.603047 -0.296722 15.972400
-0.603161 -0.292878 15.973501
-0.689295 0.048188 16.077663
-0.691148 0.051554 16.078776
-0.916927 0.327533 16.176239
-0.919718 0.330218 16.177238
-1.209729 0.545074 16.262762
-1.804541 -1.600227 15.703563
-1.516377 -1.417977 15.731002
-1.488953 -1.399362 15.733975
-1.214857 -1.197687 15.768120
-1.188931 -1.177147 15.771766
-0.939213 -0.947838 15.815820
-0.917027 -0.923551 15.820846
-0.715814 -0.654465 15.880296
-0.699592 -0.626184 15.886960
-0.603625 -0.310761 15.968460
-0.603582 -0.278812 15.977532
-0.682515 0.035870 16.073591
-0.697928 0.063873 16.082847
-0.906711 0.317705 16.172585
-0.930360 0.339605 16.180803
-1.197574 0.537555 16.259600
-1.770864 -1.579877 15.706500
-1.725936 -1.552729 15.710418
-1.681455 -1.524889 15.714571
-1.636979 -1.497041 15.718726
-1.592965 -1.468505 15.723116
-1.549002 -1.439894 15.727531
-1.456436 -1.377290 15.737499
-1.413635 -1.347058 15.742473
-1.370928 -1.316696 15.747492
-1.328824 -1.285554 15.752783
-1.286898 -1.254182 15.758155
-1.245599 -1.222043 15.763797
-1.158981 -1.151882 15.776414
-1.119055 -1.118145 15.782626
-1.079966 -1.083515 15.789163
-1.041341 -1.048388 15.795880
-1.003596 -1.012397 15.802917
-0.966553 -0.975716 15.810210
-0.890720 -0.894752 15.826806
-0.856878 -0.855337 15.835145
-0.824217 -0.814985 15.843850
-0.792874 -0.773723 15.852925
-0.763291 -0.731247 15.862493
-0.735049 -0.687999 15.872394
-0.682293 -0.591773 15.895275
-0.661630 -0.544771 15.906882
-0.642855 -0.497163 15.918821
-0.628452 -0.448153 15.931527
-0.615674 -0.398854 15.944453
-0.608787 -0.348503 15.958174
-0.604715 -0.240896 15.988399
-0.607745 -0.190512 16.002968
-0.617774 -0.141032 16.017871
-0.628532 -0.091764 16.032775
-0.646358 -0.044536 16.047696
-0.664240 0.002666 16.062616
-0.716488 0.096905 16.093798
-0.746081 0.138060 16.107988
-0.775675 0.179215 16.122178
-0.809178 0.217430 16.135863
-0.842807 0.255550 16.149532
-0.879176 0.291216 16.162735
-0.959696 0.364234 16.190277
-0.998831 0.397091 16.202915
-1.039547 0.428106 16.215164
-1.080562 0.458772 16.227339
-1.122702 0.487984 16.239196
-1.165209 0.516722 16.250949
31 NaN NaN
-1.819169 -1.609066 15.702287
-1.725412 -1.552412 15.710464
-1.632598 -1.494298 15.719136
-1.540853 -1.434591 15.728350
-1.450328 -1.373144 15.738161
-1.361206 -1.309785 15.748634
-1.273714 -1.244317 15.759844
-1.188132 -1.176513 15.771879
-1.104815 -1.106113 15.784842
-1.024215 -1.032813 15.798859
-0.946917 -0.956272 15.814075
-0.873688 -0.876107 15.830664
-0.805542 -0.791911 15.848828
-0.743821 -0.703293 15.868790
-0.690293 -0.609971 15.890780
-0.647197 -0.511939 15.914990
-0.617163 -0.409742 15.941485
-0.602806 -0.304771 15.970093
-0.605957 -0.199335 16.000310
-0.626863 -0.096188 16.031377
-0.664029 0.002282 16.062489
-0.714873 0.094660 16.093024
-0.776603 0.180505 16.122623
-0.846760 0.260031 16.151139
-0.923402 0.333762 16.178556
-1.005060 0.402320 16.204927
-1.090644 0.466310 16.230331
-1.179344 0.526278 16.254857
-1.270554 0.582700 16.278587
-1.363815 0.635983 16.301599
-1.458773 0.686475 16.323960
-1.754002 -1.522293 14.119357
-1.485045 -1.350584 14.237072
-1.230411 -1.161474 14.359707
-0.998574 -0.948804 14.488430
-0.806845 -0.703616 14.624098
-0.692067 -0.417609 14.763998
-0.710689 -0.106336 14.892060
-0.871311 0.176586 14.984234
-1.112326 0.408562 15.041382
-1.391166 0.599914 15.075030
-1.752397 -1.521314 14.120040
-1.486582 -1.351650 14.236364
-1.483508 -1.349518 14.237780
-1.231846 -1.162655 14.358968
-1.228976 -1.160294 14.360447
-0.999844 -0.950139 14.487653
-0.997304 -0.947468 14.489207
-0.807818 -0.705161 14.623283
-0.805871 -0.702071 14.624913
-0.692482 -0.419386 14.763180
-0.691653 -0.415832 14.764817
-0.710256 -0.108161 14.891364
-0.711309 -0.104553 14.892707
-0.870026 0.175108 14.983828
-0.872595 0.178064 14.984641
-1.110759 0.407344 15.041133
-1.113892 0.409780 15.041631
-1.389458 0.598883 15.074884
-1.741641 -1.514752 14.124619
-1.496883 -1.358795 14.231615
-1.473207 -1.342373 14.242529
-1.241466 -1.170567 14.354011
-1.219356 -1.152382 14.365403
-1.008355 -0.959091 14.482445
-0.988792 -0.938516 14.494415
-0.814345 -0.715517 14.617817
-0.799345 -0.691714 14.630379
-0.695260 -0.431297 14.757691
-0.688874 -0.403921 14.770306
-0.707353 -0.120389 14.886700
-0.716045 -0.092731 14.896892
-0.861416 0.165200 14.981103
-0.881205 0.187972 14.987365
-1.100258 0.399180 15.039462
-1.124394 0.417943 15.043302
-1.378010 0.591978 15.073903
-1.712998 -1.497276 14.136813
-1.674816 -1.473981 14.153069
-1.637024 -1.450164 14.169479
-1.599316 -1.426236 14.185921
-1.561910 -1.401919 14.202476
-1.524735 -1.377304 14.219119
-1.445774 -1.323344 14.255174
-1.409342 -1.297817 14.272075
-1.373465 -1.271630 14.289161
-1.337589 -1.245442 14.306247
-1.302461 -1.218408 14.323564
-1.267383 -1.191317 14.340896
-1.193737 -1.131310 14.378604
-1.160205 -1.102596 14.396359
-1.127144 -1.073404 14.414237
-1.094482 -1.043834 14.432207
-1.062714 -1.013416 14.450383
-1.031023 -0.982932 14.468575
-0.966125 -0.914676 14.508285
-0.937674 -0.881480 14.527074
-0.909340 -0.848189 14.545882
-0.882574 -0.813768 14.564903
-0.856548 -0.778813 14.584024
-0.831725 -0.743097 14.603263
-0.783065 -0.663543 14.644997
-0.763450 -0.624871 14.664604
-0.744061 -0.586100 14.684215
-0.728845 -0.545523 14.703883
-0.713628 -0.504947 14.723551
-0.702660 -0.463016 14.743074
-0.685761 -0.371364 14.784554
-0.682166 -0.327855 14.803499
-0.681515 -0.284161 14.822026
-0.684821 -0.240216 14.839991
-0.689315 -0.196362 14.857718
-0.699621 -0.152953 14.874277
-0.728657 -0.061246 14.908037
-0.745469 -0.019276 14.922893
-0.766777 0.021036 14.936292
-0.789187 0.060942 14.949335
-0.814083 0.099565 14.961417
-0.841050 0.137119 14.972700
-0.904134 0.214356 14.994621
-0.935196 0.249128 15.004041
-0.968566 0.282040 15.012288
-1.001937 0.314952 15.020535
-1.037318 0.345963 15.027641
-1.072877 0.376806 15.034647
-1.152360 0.439684 15.047751
-1.190389 0.467752 15.053171
-1.229036 0.495070 15.058170
-1.268001 0.521958 15.062935
-1.307747 0.547794 15.067124
-1.347521 0.573589 15.071292
31 NaN NaN
-1.754403 -1.522538 14.119186
-1.668147 -1.469913 14.155908
-1.582963 -1.415859 14.193052
-1.498985 -1.360253 14.230647
-1.416376 -1.302952 14.268725
-1.335331 -1.243794 14.307322
-1.256090 -1.182595 14.346476
-1.178946 -1.119145 14.386225
-1.104264 -1.053201 14.426610
-1.032504 -0.984489 14.467669
-0.964250 -0.912704 14.509433
-0.900249 -0.837509 14.551916
-0.841467 -0.758557 14.595104
-0.789142 -0.675524 14.638923
-0.744845 -0.588191 14.683201
-0.710488 -0.496572 14.727610
-0.688220 -0.401116 14.771599
-0.680105 -0.302910 14.814360
-0.687565 -0.203731 14.854907
-0.710827 -0.105757 14.892281
-0.748776 -0.011022 14.925815
-0.799368 0.079073 14.955261
-0.860260 0.163870 14.980737
-0.929286 0.243299 15.002580
-1.004654 0.317632 15.021206
-1.084971 0.387297 15.037030
-1.169178 0.452758 15.050426
-1.256475 0.514466 15.061720
-1.346258 0.572827 15.071183
-1.438067 0.628202 15.079047
-1.531545 0.680903 15.085502
-1.386984 -1.457875 13.665006
-1.300912 -1.380154 13.677723
-1.217016 -1.300220 13.691211
-1.135652 -1.217860 13.705556
-1.057263 -1.132838 13.720858
-0.982402 -1.044897 13.737235
-0.911768 -0.953760 13.754820
-0.846247 -0.859151 13.773763
-0.786967 -0.760825 13.794228
-0.735347 -0.658623 13.816381
-0.693135 -0.552581 13.840368
-0.663254 -0.442909 13.866391
-0.647515 -0.330846 13.894286
-0.647506 -0.218149 13.923734
-0.664110 -0.107014 13.954240
-0.696954 0.000318 13.985185
-0.744504 0.102076 14.015970
-0.804555 0.197255 14.046138
-0.874773 0.285571 14.075410
-0.953054 0.367247 14.103659
-1.037673 0.442775 14.130859
-1.127452 0.512518 14.157003
-1.221224 0.577184 14.182173
-1.318066 0.637507 14.206479
-1.417403 0.693965 14.229994
-1.385505 -1.456546 13.665223
-1.302357 -1.381518 13.677495
-1.299466 -1.378791 13.677952
-1.218423 -1.301620 13.690969
-1.215609 -1.298819 13.691453
-1.137015 -1.219301 13.705299
-1.134290 -1.216418 13.705812
-1.058574 -1.134324 13.720586
-1.055953 -1.131352 13.721131
-0.983652 -1.046431 13.736945
-0.981153 -1.043362 13.737526
-0.912945 -0.955346 13.754509
-0.910591 -0.952173 13.755131
-0.847338 -0.860794 13.773430
-0.845157 -0.857508 13.774096
-0.787954 -0.762527 13.793870
-0.785981 -0.759122 13.794586
-0.736207 -0.660388 13.815996
-0.734487 -0.656859 13.816766
-0.693842 -0.554405 13.839953
-0.692428 -0.550756 13.840782
-0.663562 -0.444828 13.865917
-0.662945 -0.440991 13.866865
-0.647580 -0.332781 13.893786
-0.647450 -0.328910 13.894786
-0.647310 -0.220070 13.923215
-0.647702 -0.216228 13.924254
-0.663652 -0.108887 13.953710
-0.664569 -0.105140 13.954770
-0.696250 -0.001478 13.984653
-0.697658 0.002113 13.985716
-0.743585 0.100379 14.015445
-0.745424 0.103773 14.016494
-0.803454 0.195665 14.045626
-0.805656 0.198844 14.046651
-0.873524 0.284090 14.074913
-0.876022 0.287052 14.075907
-0.951687 0.365869 14.103178
-0.954422 0.368625 14.104139
-1.036210 0.441492 14.130395
-1.039135 0.444058 14.131323
-1.125852 0.511399 14.156570
-1.129053 0.513636 14.157437
-1.219574 0.576136 14.181753
-1.222875 0.578232 14.182593
-1.316374 0.636522 14.206072
-1.319758 0.638493 14.206886
-1.415676 0.693036 14.229599
-1.381378 -1.452836 13.665829
-1.306391 -1.385324 13.676856
-1.295432 -1.374984 13.678591
-1.222350 -1.305531 13.690294
-1.211682 -1.294908 13.692128
-1.140818 -1.223326 13.704583
-1.130487 -1.212394 13.706528
-1.062233 -1.138473 13.719824
-1.052294 -1.127204 13.721892
-0.987141 -1.050714 13.736133
-0.977664 -1.039079 13.738337
-0.916232 -0.959776 13.753642
-0.907304 -0.947744 13.755998
-0.850383 -0.865381 13.772500
-0.842112 -0.852921 13.775026
-0.790707 -0.767280 13.792871
-0.783227 -0.754369 13.795585
-0.738608 -0.665312 13.814921
-0.732087 -0.651934 13.817841
-0.695816 -0.559498 13.838797
-0.690943 -0.545519 13.842020
-0.664423 -0.450183 13.864593
-0.662084 -0.435636 13.868188
-0.647762 -0.338184 13.892390
-0.647269 -0.323507 13.896182
-0.646763 -0.225434 13.921765
-0.648250 -0.210864 13.925704
-0.662373 -0.114117 13.952231
-0.665848 -0.099911 13.956250
-0.694286 -0.006489 13.983170
-0.699622 0.007125 13.987199
-0.741018 0.095642 14.013981
-0.747991 0.108510 14.017959
-0.800381 0.191229 14.044195
-0.808730 0.203280 14.048081
-0.870037 0.279956 14.073525
-0.879508 0.291186 14.077295
-0.947869 0.362023 14.101836
-0.958240 0.372472 14.105481
-1.032126 0.437912 14.129099
-1.043335 0.447506 14.132595
-1.121438 0.508209 14.155347
-1.133521 0.516758 14.158647
-1.214965 0.573209 14.180582
-1.227483 0.581159 14.183764
-1.311650 0.633770 14.204936
-1.324482 0.641245 14.208021
-1.410857 0.690441 14.228496
-1.372608 -1.444953 13.667115
-1.361108 -1.434615 13.668802
-1.349607 -1.424277 13.670489
-1.338107 -1.413939 13.672176
-1.326606 -1.403601 13.673863
-1.315106 -1.393263 13.675550
-1.286861 -1.366898 13.679948
-1.275621 -1.356292 13.681728
-1.264380 -1.345687 13.683508
-1.253140 -1.335082 13.685287
-1.241900 -1.324477 13.687067
-1.230693 -1.313839 13.688858
-1.203339 -1.286600 13.693564
-1.192397 -1.275704 13.695446
-1.181455 -1.264809 13.697328
-1.170513 -1.253913 13.699210
-1.159571 -1.243017 13.701092
-1.148898 -1.231875 13.703062
-1.122407 -1.203844 13.708050
-1.111810 -1.192632 13.710045
-1.101214 -1.181420 13.712040
-1.090617 -1.170208 13.714035
-1.080199 -1.158842 13.716086
-1.070006 -1.147285 13.718207
-1.044521 -1.118392 13.723509
-1.034328 -1.106834 13.725630
-1.024134 -1.095277 13.727751
-1.013992 -1.083679 13.729887
-1.004272 -1.071746 13.732148
-0.994552 -1.059813 13.734409
-0.970253 -1.029980 13.740061
-0.960533 -1.018047 13.742322
-0.950813 -1.006114 13.744583
-0.941529 -0.993866 13.746965
-0.932372 -0.981526 13.749382
-0.923214 -0.969185 13.751799
-0.900322 -0.938334 13.757841
-0.891164 -0.925994 13.760258
-0.882303 -0.913460 13.762752
-0.873820 -0.900682 13.765342
-0.865336 -0.887903 13.767933
-0.856852 -0.875124 13.770524
-0.835643 -0.843178 13.777001
-0.827245 -0.830350 13.779613
-0.819573 -0.817107 13.782397
-0.811901 -0.803864 13.785180
-0.804229 -0.790621 13.787964
-0.796557 -0.777378 13.790748
-0.777378 -0.744271 13.797708
-0.770465 -0.730659 13.800655
-0.763776 -0.716938 13.803650
-0.757087 -0.703217 13.806646
-0.750398 -0.689496 13.809641
-0.743709 -0.675775 13.812637
-0.727508 -0.641267 13.820225
-0.722008 -0.627077 13.823448
-0.716509 -0.612887 13.826671
-0.711009 -0.598697 13.829894
-0.705509 -0.584508 13.833116
-0.700009 -0.570318 13.836339
-0.687837 -0.534380 13.844657
-0.683763 -0.519771 13.848115
-0.679690 -0.505161 13.851573
-0.675616 -0.490552 13.855031
-0.671542 -0.475943 13.858490
-0.667468 -0.461334 13.861948
-0.660254 -0.424258 13.871000
-0.657854 -0.409338 13.874687
-0.655454 -0.394417 13.878374
-0.653055 -0.379496 13.882062
-0.650655 -0.364576 13.885749
-0.648255 -0.349655 13.889436
-0.646883 -0.312029 13.899147
-0.646378 -0.296976 13.903036
-0.645872 -0.281923 13.906925
-0.645366 -0.266869 13.910814
-0.644861 -0.251816 13.914703
-0.645600 -0.236829 13.918685
-0.649413 -0.199469 13.928784
-0.650939 -0.184524 13.932824
-0.652464 -0.169580 13.936864
-0.653989 -0.154635 13.940903
-0.656091 -0.139797 13.944966
-0.659655 -0.125226 13.949088
-0.668565 -0.088801 13.959392
-0.672129 -0.074231 13.963514
-0.675693 -0.059661 13.967636
-0.679257 -0.045090 13.971758
-0.684640 -0.031099 13.975889
-0.690113 -0.017136 13.980020
-0.703795 0.017771 13.990349
-0.709268 0.031734 13.994480
-0.714740 0.045697 13.998612
-0.721258 0.059184 14.002711
-0.728411 0.072381 14.006791
-0.735564 0.085579 14.010870
-0.753445 0.118573 14.021069
-0.760598 0.131771 14.025149
-0.768161 0.144725 14.029201
-0.776724 0.157085 14.033186
-0.785288 0.169445 14.037172
-0.793851 0.181805 14.041157
-0.815260 0.212704 14.051120
-0.823823 0.225064 14.055105
-0.833489 0.236618 14.058977
-0.843203 0.248136 14.062843
-0.852917 0.259654 14.066710
-0.862631 0.271173 14.070577
-0.886915 0.299969 14.080244
-0.897207 0.310985 14.084030
-0.907844 0.321702 14.087769
-0.918482 0.332419 14.091508
-0.929120 0.343135 14.095247
-0.939757 0.353852 14.098985
-0.966568 0.380426 14.108295
-0.977944 0.390402 14.111905
-0.989321 0.400378 14.115515
-1.000698 0.410354 14.119126
-1.012075 0.420329 14.122736
-1.023452 0.430305 14.126346
-1.052462 0.454600 14.135254
-1.064432 0.463903 14.138741
-1.076402 0.473206 14.142228
-1.088371 0.482509 14.145714
-1.100341 0.491812 14.149201
-1.112311 0.501116 14.152688
-1.143013 0.523390 14.161217
-1.155462 0.532087 14.164588
-1.167911 0.540785 14.167959
-1.180360 0.549482 14.171330
-1.192809 0.558180 14.174700
-1.205257 0.566877 14.178071
-1.237273 0.587376 14.186252
-1.250112 0.595530 14.189515
-1.262952 0.603685 14.192779
-1.275791 0.611839 14.196042
-1.288630 0.619993 14.199305
-1.301615 0.627925 14.202524
-1.334517 0.647090 14.210434
-1.347677 0.654757 14.213598
-1.360837 0.662423 14.216762
-1.373998 0.670089 14.219927
-1.387191 0.677703 14.223080
-1.400618 0.684930 14.226153
28 NaN NaN
-1.387354 -1.458208 13.664952
-1.308750 -1.387549 13.676482
-1.231924 -1.315065 13.688647
-1.157140 -1.240596 13.701510
-1.084716 -1.163964 13.715146
-1.015047 -1.084974 13.729642
-0.948617 -1.003419 13.745094
-0.886034 -0.919081 13.761612
-0.828056 -0.831750 13.779318
-0.775628 -0.741252 13.798342
-0.729921 -0.647492 13.818811
-0.692343 -0.550538 13.840832
-0.664511 -0.450730 13.864458
-0.648119 -0.348806 13.889646
-0.644665 -0.245987 13.916209
-0.655083 -0.143918 13.943800
-0.679425 -0.044404 13.971952
-0.716807 0.050971 14.000172
-0.765669 0.141129 14.028042
-0.824176 0.225574 14.055269
-0.890549 0.304279 14.081691
-0.963241 0.377510 14.107239
-1.040988 0.445683 14.131911
-1.122792 0.509262 14.155741
-1.207871 0.568703 14.178779
-1.295621 0.624432 14.201082
-1.385567 0.676829 14.222708
-1.477340 0.726228 14.243712
-1.173963 -1.419907 13.117916
-0.982065 -1.154206 13.167096
-0.825139 -0.868391 13.225407
-0.723561 -0.561440 13.295345
-0.706677 -0.242286 13.377760
-0.795518 0.062187 13.467849
-0.976424 0.323892 13.556708
-1.215836 0.537038 13.639139
-1.488116 0.710058 13.714568
-1.172749 -1.418342 13.118196
-0.983106 -1.155882 13.166767
-0.981023 -1.152531 13.167424
-0.825915 -0.870192 13.225016
-0.824364 -0.866589 13.225798
-0.723921 -0.563352 13.294880
-0.723202 -0.559529 13.295810
-0.706449 -0.244200 13.377229
-0.706906 -0.240371 13.378290
-0.794673 0.060459 13.467301
-0.796362 0.063915 13.468398
-0.975135 0.322454 13.556187
-0.977713 0.325330 13.557228
-1.214286 0.535867 13.638661
-1.217386 0.538208 13.639617
-1.486419 0.709096 13.714128
-1.164794 -1.408091 13.120034
-0.990055 -1.166786 13.164647
-0.974198 -1.141552 13.169577
-0.830997 -0.881997 13.222454
-0.819282 -0.854785 13.228359
-0.726275 -0.575878 13.291830
-0.720847 -0.547003 13.298860
-0.704951 -0.256747 13.373753
-0.708404 -0.227824 13.381766
-0.789141 0.049135 13.463707
-0.801894 0.075238 13.471992
-0.966688 0.313033 13.552777
-0.986161 0.334750 13.560639
-1.204132 0.528199 13.635527
-1.227540 0.545876 13.642751
-1.475294 0.702797 13.711250
-1.143681 -1.380881 13.124910
-1.115543 -1.344617 13.131410
-1.088307 -1.307724 13.138174
-1.061325 -1.270653 13.145013
-1.034969 -1.233175 13.152028
-1.009309 -1.195246 13.159238
-0.956084 -1.112412 13.175291
-0.931967 -1.073562 13.182912
-0.909581 -1.033775 13.190970
-0.887195 -0.993989 13.199028
-0.866252 -0.953507 13.207428
-0.845904 -0.912738 13.215967
-0.805793 -0.823451 13.235157
-0.788502 -0.781454 13.244356
-0.773287 -0.738733 13.253972
-0.758072 -0.696011 13.263588
-0.745875 -0.652464 13.273752
-0.733864 -0.608866 13.283950
-0.714598 -0.513757 13.306955
-0.708279 -0.469234 13.318019
-0.704113 -0.424483 13.329378
-0.700761 -0.379721 13.340829
-0.701180 -0.334912 13.352705
-0.701600 -0.290103 13.364581
-0.712378 -0.194523 13.390992
-0.721250 -0.150833 13.403496
-0.731517 -0.107413 13.416081
-0.743782 -0.064604 13.428723
-0.758876 -0.022659 13.441446
-0.774457 0.019080 13.454168
-0.816578 0.105293 13.481531
-0.839955 0.143285 13.494115
-0.863509 0.181180 13.506693
-0.889295 0.217591 13.519124
-0.916282 0.253203 13.531474
-0.944267 0.288028 13.543726
-1.009042 0.359335 13.569629
-1.041331 0.390456 13.581373
-1.073620 0.421578 13.593118
-1.107670 0.450864 13.604570
-1.141949 0.479911 13.615984
-1.177179 0.507846 13.627208
-1.255071 0.565480 13.650935
-1.292352 0.590842 13.661704
-1.329767 0.616013 13.672437
-1.368177 0.639765 13.682905
-1.406587 0.663517 13.693372
-1.445765 0.686076 13.703609
26 NaN NaN
-1.174266 -1.420298 13.117846
-1.109371 -1.336663 13.132836
-1.047142 -1.251167 13.148608
-0.987962 -1.163693 13.165235
-0.932286 -1.074128 13.182798
-0.880659 -0.982372 13.201381
-0.833734 -0.888355 13.221075
-0.792279 -0.792057 13.241969
-0.757193 -0.693545 13.264143
-0.729497 -0.593016 13.287657
-0.710292 -0.490854 13.312531
-0.700686 -0.387679 13.338720
-0.701653 -0.284378 13.366098
-0.713865 -0.182065 13.394444
-0.737532 -0.081972 13.423455
-0.772328 0.014722 13.452785
-0.817444 0.107066 13.482094
-0.871748 0.194436 13.511093
-0.933972 0.276547 13.539570
-1.002875 0.353392 13.567386
-1.077333 0.425156 13.594468
-1.156382 0.492141 13.620790
-1.239221 0.554697 13.646356
-1.325197 0.613187 13.671192
-1.413780 0.667965 13.695333
-1.504542 0.719358 13.718818
-1.081522 -1.402725 12.535727
-1.000558 -1.273194 12.528113
-0.925003 -1.140356 12.522219
-0.856824 -1.003526 12.518617
-0.797767 -0.862488 12.517778
-0.749050 -0.717577 12.519980
-0.716317 -0.568423 12.526703
-0.700137 -0.416905 12.537906
-0.706260 -0.265291 12.554829
-0.737300 -0.117584 12.577737
-0.791645 0.022314 12.605823
-0.871200 0.148428 12.638968
-0.967466 0.261417 12.675064
-1.077881 0.359881 12.713311
-1.198290 0.445391 12.752806
-1.325302 0.520469 12.792935
-1.457942 0.584920 12.833429
-1.593923 0.641921 12.874024
-1.080448 -1.401041 12.535623
-1.001580 -1.274911 12.528201
-0.999536 -1.271477 12.528025
-0.925966 -1.142108 12.522288
-0.924040 -1.138604 12.522149
-0.857637 -1.005353 12.518641
-0.856011 -1.001699 12.518594
-0.798486 -0.864354 12.517773
-0.797049 -0.860621 12.517783
-0.749590 -0.719500 12.519923
-0.748577 -0.715635 12.520055
-0.716634 -0.570394 12.526585
-0.715999 -0.566452 12.526822
-0.700272 -0.418893 12.537739
-0.700002 -0.414916 12.538073
-0.705959 -0.267249 12.554554
-0.706562 -0.263333 12.555105
-0.736760 -0.119482 12.577407
-0.737839 -0.115687 12.578068
-0.790678 0.020616 12.605404
-0.792631 0.024003 12.606247
-0.870031 0.146871 12.638511
-0.872370 0.149984 12.639426
-0.966144 0.259996 12.674581
-0.968788 0.262838 12.675546
-1.076340 0.358713 12.712798
-1.079422 0.361048 12.713824
-1.196673 0.444335 12.752285
-1.199906 0.446447 12.753327
-1.323579 0.519602 12.792406
-1.327025 0.521335 12.793464
-1.456181 0.584132 12.832898
-1.459702 0.585707 12.833959
-1.592132 0.641205 12.873493
-1.076770 -1.395270 12.535265
-1.005082 -1.280794 12.528502
-0.996033 -1.265594 12.527724
-0.929265 -1.148110 12.522525
-0.920741 -1.132602 12.521913
-0.860425 -1.011614 12.518720
-0.853224 -0.995438 12.518515
-0.800948 -0.870750 12.517756
-0.794586 -0.854226 12.517801
-0.751669 -0.726030 12.519794
-0.746953 -0.708982 12.520313
-0.717721 -0.577149 12.526179
-0.714912 -0.559698 12.527227
-0.700733 -0.425707 12.537167
-0.699540 -0.408102 12.538645
-0.704925 -0.273958 12.553610
-0.707595 -0.256624 12.556049
-0.734912 -0.125984 12.576275
-0.739687 -0.109185 12.579200
-0.788033 0.014430 12.604100
-0.796007 0.029788 12.607697
-0.866023 0.141537 12.636945
-0.876378 0.155319 12.640992
-0.961614 0.255126 12.672928
-0.973318 0.267708 12.677199
-1.071060 0.354712 12.711041
-1.084702 0.365049 12.715581
-1.191134 0.440716 12.750500
-1.205446 0.450067 12.755112
-1.317824 0.516348 12.790603
-1.332930 0.524306 12.795277
-1.450149 0.581435 12.831080
-1.465735 0.588404 12.835777
-1.585997 0.638751 12.871673
-1.068325 -1.382021 12.534445
-1.057183 -1.364541 12.533362
-1.046041 -1.347061 12.532279
-1.034899 -1.329581 12.531196
-1.023757 -1.312101 12.530113
-1.013122 -1.294299 12.529193
-0.987994 -1.252088 12.527033
-0.977386 -1.234269 12.526121
-0.966813 -1.216430 12.525221
-0.956822 -1.198249 12.524503
-0.946830 -1.180069 12.523786
-0.936838 -1.161889 12.523068
-0.913287 -1.118759 12.521406
-0.904010 -1.100197 12.520910
-0.894733 -1.081635 12.520414
-0.885455 -1.063072 12.519919
-0.876178 -1.044510 12.519423
-0.866901 -1.025948 12.518927
-0.846826 -0.981067 12.518332
-0.838385 -0.962105 12.518091
-0.829943 -0.943143 12.517849
-0.821516 -0.924175 12.517612
-0.814058 -0.904803 12.517665
-0.806601 -0.885432 12.517717
-0.788934 -0.839544 12.517840
-0.781620 -0.820122 12.517934
-0.775325 -0.800346 12.518325
-0.769030 -0.780570 12.518716
-0.762735 -0.760794 12.519107
-0.756440 -0.741018 12.519498
-0.743225 -0.693709 12.520905
-0.738307 -0.673558 12.521687
-0.733389 -0.653406 12.522468
-0.728471 -0.633255 12.523250
-0.723553 -0.613104 12.524031
-0.720217 -0.592654 12.525248
-0.712416 -0.544193 12.528159
-0.709123 -0.523735 12.529387
-0.705989 -0.503262 12.530658
-0.704590 -0.482624 12.532390
-0.703192 -0.461987 12.534122
-0.701793 -0.441349 12.535854
-0.698901 -0.392465 12.540064
-0.699661 -0.371847 12.542347
-0.700422 -0.351230 12.544630
-0.701182 -0.330612 12.546913
-0.701943 -0.309995 12.549196
-0.702703 -0.289377 12.551479
-0.709967 -0.241223 12.558216
-0.713096 -0.220903 12.561075
-0.716226 -0.200583 12.563935
-0.719476 -0.180294 12.566822
-0.725073 -0.160601 12.570250
-0.730670 -0.140909 12.573677
-0.743929 -0.094260 12.581797
-0.749914 -0.074721 12.585309
-0.757926 -0.055984 12.589258
-0.765938 -0.037246 12.593208
-0.773949 -0.018509 12.597157
-0.781961 0.000228 12.601106
-0.803756 0.043068 12.611026
-0.813981 0.060590 12.615419
-0.824206 0.078113 12.619813
-0.834431 0.095635 12.624206
-0.844685 0.113136 12.628604
-0.856823 0.129292 12.633349
-0.885578 0.167563 12.644588
-0.897716 0.183719 12.649333
-0.910054 0.199698 12.654111
-0.923775 0.214448 12.659118
-0.937495 0.229197 12.664125
-0.951215 0.243947 12.669133
-0.984017 0.278565 12.681039
-0.999006 0.291952 12.686233
-1.013995 0.305339 12.691427
-1.028984 0.318726 12.696621
-1.043974 0.332113 12.701816
-1.058963 0.345500 12.707010
-1.096821 0.374233 12.719615
-1.112812 0.386350 12.724937
-1.128803 0.398468 12.730259
-1.144863 0.410484 12.735589
-1.161641 0.421446 12.740995
-1.178418 0.432408 12.746402
-1.218161 0.458375 12.759209
-1.235060 0.469132 12.764626
-1.252455 0.479056 12.770086
-1.269850 0.488980 12.775546
-1.287245 0.498903 12.781005
-1.304640 0.508827 12.786465
-1.346483 0.531124 12.799438
-1.364366 0.540121 12.804929
-1.382248 0.549118 12.810419
-1.400131 0.558114 12.815910
-1.418031 0.567073 12.821401
-1.436302 0.575243 12.826907
-1.479582 0.594596 12.839950
-1.497852 0.602766 12.845457
-1.516171 0.610822 12.850963
-1.534752 0.618254 12.856474
-1.553333 0.625686 12.861985
-1.571914 0.633119 12.867497
25 NaN NaN
-1.081790 -1.403146 12.535753
-1.023181 -1.311196 12.530057
-0.967382 -1.217464 12.525262
-0.914823 -1.121834 12.521488
-0.866025 -1.024195 12.518880
-0.821625 -0.924456 12.517612
-0.782398 -0.822568 12.517886
-0.749289 -0.718556 12.519942
-0.723424 -0.612577 12.524052
-0.706106 -0.504995 12.530513
-0.698753 -0.396477 12.539620
-0.702751 -0.288078 12.551623
-0.719203 -0.181253 12.566655
-0.748627 -0.077732 12.584674
-0.790744 0.020769 12.605436
-0.844499 0.112889 12.628531
-0.908321 0.197835 12.653478
-0.980468 0.275395 12.679809
-1.059295 0.345797 12.707125
-1.143397 0.409526 12.735116
-1.231639 0.467181 12.763553
-1.323134 0.519377 12.792269
-1.417196 0.566699 12.821149
-1.513299 0.609674 12.850112
-1.611040 0.648768 12.879101
-1.005223 -1.385795 10.766891
-0.931581 -1.252392 10.802514
-0.864563 -1.115855 10.839305
-0.807347 -0.975353 10.877628
-0.759639 -0.831702 10.917237
-0.725794 -0.684620 10.958385
-0.705447 -0.535404 11.000684
-0.703786 -0.385157 11.044019
-0.719547 -0.235854 11.087770
-0.756879 -0.090401 11.131263
-0.812390 0.049437 11.173852
-0.887221 0.180515 11.214675
-0.976629 0.302814 11.253538
-1.079706 0.414684 11.289929
-1.192519 0.517547 11.324103
-1.313899 0.610998 11.355898
-1.441371 0.696713 11.385699
-1.004262 -1.384100 10.767343
-0.932482 -1.254116 10.802052
-0.930680 -1.250667 10.802977
-0.865396 -1.117610 10.838831
-0.863747 -1.114093 10.839781
-0.808020 -0.977170 10.877130
-0.806675 -0.973537 10.878126
-0.760215 -0.833548 10.916726
-0.759063 -0.829856 10.917747
-0.726140 -0.686516 10.957851
-0.725448 -0.682724 10.958919
-0.705658 -0.537317 11.000139
-0.705237 -0.533491 11.001228
-0.703690 -0.387075 11.043461
-0.703883 -0.383239 11.044577
-0.719283 -0.237756 11.087210
-0.719812 -0.233953 11.088330
-0.756271 -0.092224 11.130712
-0.757488 -0.088577 11.131814
-0.811616 0.047673 11.173312
-0.813164 0.051200 11.174392
-0.886153 0.178902 11.214167
-0.888289 0.182128 11.215183
-0.975436 0.301285 11.253049
-0.977822 0.304344 11.254027
-1.078312 0.413322 11.289481
-1.081101 0.416045 11.290377
-1.191044 0.516265 11.323675
-1.193993 0.518828 11.324532
-1.312298 0.609865 11.355507
-1.315500 0.612132 11.356289
-1.439721 0.695646 11.385325
-1.000910 -1.378187 10.768918
-0.935626 -1.260133 10.800438
-0.927537 -1.244650 10.804591
-0.868305 -1.123733 10.837177
-0.861103 -1.107862 10.841477
-0.810365 -0.983508 10.875392
-0.804330 -0.967199 10.879864
-0.762223 -0.839989 10.914945
-0.757348 -0.823342 10.919561
-0.727346 -0.693131 10.955988
-0.724242 -0.676108 10.960783
-0.706394 -0.543991 10.998241
-0.704753 -0.526803 11.003141
-0.703352 -0.393767 11.041514
-0.704221 -0.376546 11.046523
-0.718359 -0.244391 11.085257
-0.720860 -0.227340 11.090282
-0.754147 -0.098587 11.128790
-0.759611 -0.082214 11.133736
-0.808917 0.041521 11.171428
-0.815863 0.057353 11.176276
-0.882426 0.173276 11.212394
-0.892016 0.187755 11.216955
-0.971275 0.295950 11.251343
-0.981983 0.309679 11.255733
-1.073445 0.408573 11.287916
-1.085968 0.420795 11.291942
-1.185898 0.511796 11.322180
-1.199139 0.523298 11.326026
-1.306713 0.605910 11.354144
-1.321085 0.616086 11.357652
-1.433964 0.691925 11.384023
-0.993168 -1.364534 10.772556
-0.982950 -1.346512 10.777357
-0.972731 -1.328491 10.782159
-0.962513 -1.310469 10.786961
-0.952464 -1.292364 10.791794
-0.942883 -1.274026 10.796712
-0.920279 -1.230757 10.808317
-0.910699 -1.212419 10.813235
-0.901610 -1.193859 10.818237
-0.892747 -1.175197 10.823277
-0.883883 -1.156534 10.828318
-0.875019 -1.137872 10.833358
-0.854999 -1.093475 10.845391
-0.846943 -1.074484 10.850558
-0.838886 -1.055493 10.855725
-0.830829 -1.036503 10.860893
-0.822926 -1.017457 10.866082
-0.815779 -0.998141 10.871379
-0.798916 -0.952565 10.883877
-0.791768 -0.933249 10.889174
-0.785227 -0.913748 10.894549
-0.779105 -0.894119 10.899977
-0.772983 -0.874489 10.905405
-0.766861 -0.854860 10.910833
-0.753584 -0.808254 10.923771
-0.748616 -0.788336 10.929328
-0.743648 -0.768419 10.934885
-0.738680 -0.748502 10.940441
-0.733807 -0.728567 10.946007
-0.730131 -0.708405 10.951686
-0.721457 -0.660834 10.965085
-0.717781 -0.640673 10.970763
-0.714816 -0.620422 10.976495
-0.712575 -0.600082 10.982282
-0.710333 -0.579741 10.988069
-0.708092 -0.559401 10.993856
-0.704248 -0.511327 11.007591
-0.703580 -0.490899 11.013466
-0.702912 -0.470472 11.019340
-0.702245 -0.450044 11.025215
-0.701577 -0.429616 11.031089
-0.702573 -0.409219 11.037020
-0.705000 -0.361095 11.051018
-0.706029 -0.340699 11.056950
-0.707777 -0.320373 11.062890
-0.710593 -0.300152 11.068843
-0.713409 -0.279931 11.074795
-0.716225 -0.259710 11.080748
-0.724382 -0.212274 11.094773
-0.729031 -0.192387 11.100701
-0.733680 -0.172500 11.106630
-0.738328 -0.152613 11.112558
-0.742977 -0.132726 11.118487
-0.749245 -0.113279 11.124352
-0.764514 -0.067523 11.138173
-0.770985 -0.048130 11.144031
-0.778002 -0.028937 11.149853
-0.786229 -0.010186 11.155594
-0.794457 0.008565 11.161336
-0.802684 0.027315 11.167078
-0.823298 0.071001 11.180512
-0.833166 0.088992 11.186099
-0.843033 0.106983 11.191686
-0.852900 0.124973 11.197274
-0.862768 0.142964 11.202861
-0.873821 0.160285 11.208301
-0.900620 0.200746 11.221048
-0.911978 0.217894 11.226451
-0.923624 0.234849 11.231809
-0.936306 0.251110 11.237008
-0.948987 0.267370 11.242206
-0.961668 0.283631 11.247405
-0.992329 0.321422 11.259534
-1.006165 0.336783 11.264518
-1.020002 0.352144 11.269503
-1.033838 0.367506 11.274487
-1.047674 0.382867 11.279472
-1.062209 0.397606 11.284304
-1.097204 0.431762 11.295554
-1.112035 0.446237 11.300322
-1.126972 0.460607 11.305064
-1.142654 0.474230 11.309619
-1.158336 0.487853 11.314174
-1.174018 0.501475 11.318729
-1.211414 0.533176 11.329365
-1.227820 0.545989 11.333715
-1.244226 0.558802 11.338065
-1.260632 0.571615 11.342415
-1.277038 0.584428 11.346765
-1.293818 0.596779 11.350997
-1.333980 0.625217 11.360799
-1.351001 0.637270 11.364954
-1.368038 0.649302 11.369103
-1.385583 0.660645 11.373074
-1.403127 0.671988 11.377044
-1.420672 0.683331 11.381015
26 NaN NaN
-1.005464 -1.386219 10.766778
-0.955001 -1.297221 10.790491
-0.907691 -1.206662 10.814779
-0.863920 -1.114502 10.839670
-0.824135 -1.020723 10.865186
-0.788841 -0.925338 10.891344
-0.758612 -0.828409 10.918148
-0.734080 -0.730061 10.945587
-0.715927 -0.630509 10.973626
-0.704860 -0.530076 11.002199
-0.701564 -0.429217 11.031204
-0.706643 -0.328517 11.060493
-0.720546 -0.228685 11.089881
-0.743497 -0.130503 11.119149
-0.775446 -0.034764 11.148068
-0.816064 0.057810 11.176416
-0.864780 0.146633 11.204000
-0.920857 0.231300 11.230675
-0.983471 0.311587 11.256343
-1.051790 0.387436 11.280954
-1.125024 0.458915 11.304498
-1.202461 0.526184 11.326992
-1.283475 0.589455 11.348472
-1.367530 0.648973 11.368988
-1.454170 0.704989 11.388595
-1.543015 0.757751 11.407350
-0.937540 -1.371829 9.588109
-0.871924 -1.227403 9.557692
-0.813460 -1.079401 9.530037
-0.765474 -0.927012 9.506452
-0.727727 -0.771223 9.486869
-0.704423 -0.612066 9.472973
-0.695276 -0.451093 9.464694
-0.704531 -0.289966 9.463779
-0.730991 -0.130858 9.469812
-0.776952 0.023192 9.483798
-0.839571 0.170493 9.504647
-0.918337 0.308645 9.532226
-1.009870 0.437496 9.565183
-1.112425 0.556376 9.602840
-1.223496 0.666082 9.644170
-1.341482 0.767043 9.688519
-0.936707 -1.370051 9.587724
-0.872694 -1.229213 9.558053
-0.871154 -1.225593 9.557332
-0.814160 -1.081245 9.530370
-0.812761 -1.077557 9.529705
-0.766005 -0.928922 9.506719
-0.764943 -0.925102 9.506185
-0.728158 -0.773162 9.487097
-0.727297 -0.769283 9.486641
-0.704619 -0.614052 9.473108
-0.704228 -0.610080 9.472838
-0.695337 -0.453090 9.464776
-0.695216 -0.449095 9.464613
-0.704295 -0.291952 9.463742
-0.704768 -0.287980 9.463817
-0.730600 -0.132817 9.469711
-0.731383 -0.128900 9.469912
-0.776256 0.021331 9.483572
-0.777648 0.025054 9.484023
-0.838734 0.168699 9.504364
-0.840407 0.172288 9.504931
-0.917258 0.307005 9.531841
-0.919415 0.310284 9.532611
-1.008691 0.435938 9.564756
-1.011049 0.439054 9.565611
-1.111084 0.554978 9.602343
-1.113767 0.557773 9.603337
-1.222090 0.664760 9.643645
-1.224902 0.667404 9.644695
-1.339974 0.765859 9.687949
-0.933727 -1.363695 9.586349
-0.875448 -1.235689 9.559341
-0.868399 -1.219117 9.556043
-0.816661 -1.087841 9.531561
-0.810498 -1.070861 9.528606
-0.767903 -0.935753 9.507675
-0.763045 -0.918271 9.505229
-0.729698 -0.780101 9.487913
-0.725890 -0.762313 9.485878
-0.705318 -0.621155 9.473592
-0.703529 -0.602977 9.472354
-0.695554 -0.460235 9.465067
-0.694999 -0.441950 9.464321
-0.703451 -0.299054 9.463607
-0.705612 -0.280877 9.463951
-0.729198 -0.139823 9.469351
-0.732785 -0.121893 9.470272
-0.773766 0.014672 9.482766
-0.780137 0.031712 9.484829
-0.835744 0.162279 9.503351
-0.843397 0.178708 9.505944
-0.913400 0.301140 9.530464
-0.923273 0.316150 9.533987
-1.004473 0.430366 9.563227
-1.015267 0.444627 9.567140
-1.106285 0.549979 9.600565
-1.118566 0.562772 9.605115
-1.217061 0.660031 9.641766
-1.229931 0.672133 9.646573
-1.334579 0.761625 9.685911
-0.926792 -1.348902 9.583148
-0.917633 -1.329364 9.578920
-0.908475 -1.309826 9.574692
-0.899316 -1.290288 9.570465
-0.890325 -1.270661 9.566302
-0.881859 -1.250758 9.562341
-0.861989 -1.204048 9.553044
-0.853522 -1.184145 9.549083
-0.845550 -1.164007 9.545314
-0.837861 -1.143735 9.541653
-0.830172 -1.123462 9.537993
-0.822483 -1.103190 9.534333
-0.805338 -1.055234 9.526092
-0.798523 -1.034593 9.522771
-0.791707 -1.013953 9.519450
-0.784892 -0.993313 9.516129
-0.778153 -0.972646 9.512838
-0.772319 -0.951650 9.509900
-0.758629 -0.902374 9.503004
-0.752795 -0.881378 9.500066
-0.747480 -0.860226 9.497332
-0.742747 -0.838900 9.494825
-0.738014 -0.817574 9.492318
-0.733281 -0.796248 9.489811
-0.723235 -0.745949 9.484346
-0.719729 -0.724337 9.482322
-0.716224 -0.702724 9.480298
-0.712718 -0.681112 9.478275
-0.709212 -0.659499 9.476251
-0.706945 -0.637686 9.474718
-0.701902 -0.586446 9.471229
-0.699753 -0.564614 9.469742
-0.698059 -0.542742 9.468437
-0.697393 -0.520782 9.467540
-0.696726 -0.498822 9.466643
-0.696059 -0.476862 9.465746
-0.695611 -0.425318 9.464089
-0.696535 -0.403351 9.463829
-0.697459 -0.381383 9.463569
-0.698384 -0.359416 9.463309
-0.699308 -0.337448 9.463049
-0.701485 -0.315583 9.463294
-0.707578 -0.264349 9.464264
-0.710173 -0.242518 9.464678
-0.713017 -0.220730 9.465191
-0.717324 -0.199196 9.466298
-0.721630 -0.177662 9.467405
-0.725937 -0.156128 9.468513
-0.736964 -0.105837 9.471485
-0.742972 -0.084762 9.473287
-0.748981 -0.063688 9.475089
-0.754990 -0.042613 9.476891
-0.760999 -0.021539 9.478692
-0.767973 -0.000822 9.480891
-0.785931 0.047207 9.486704
-0.793583 0.067672 9.489181
-0.801234 0.088136 9.491658
-0.810399 0.107880 9.494762
-0.819592 0.127610 9.497877
-0.828784 0.147341 9.500992
-0.850888 0.193335 9.508524
-0.861488 0.212241 9.512227
-0.872088 0.231147 9.515929
-0.882688 0.250053 9.519631
-0.893287 0.268958 9.523333
-0.904422 0.287491 9.527260
-0.932251 0.329799 9.537191
-0.944109 0.347826 9.541422
-0.955967 0.365853 9.545654
-0.968731 0.383143 9.550269
-0.981695 0.400270 9.554968
-0.994658 0.417398 9.559668
-1.025287 0.457404 9.570786
-1.039210 0.473637 9.575895
-1.053133 0.489871 9.581005
-1.067057 0.506105 9.586115
-1.080980 0.522338 9.591224
-1.095118 0.538345 9.596427
-1.129733 0.574406 9.609253
-1.144482 0.589771 9.614719
-1.159231 0.605136 9.620184
-1.174444 0.619957 9.625851
-1.189901 0.634492 9.631623
-1.205358 0.649026 9.637396
-1.241663 0.683099 9.650956
-1.257726 0.696848 9.656994
-1.273788 0.710597 9.663032
-1.289851 0.724346 9.669069
-1.305913 0.738095 9.675107
-1.322025 0.751774 9.681166
24 NaN NaN
-0.937748 -1.372273 9.588205
-0.892382 -1.275496 9.567264
-0.850446 -1.176914 9.547644
-0.812361 -1.076502 9.529514
-0.778604 -0.974271 9.513065
-0.749712 -0.870280 9.498513
-0.726270 -0.764655 9.486097
-0.708906 -0.657616 9.476075
-0.698264 -0.549489 9.468712
-0.694962 -0.440736 9.464271
-0.699539 -0.331949 9.462984
-0.712394 -0.223842 9.465031
-0.733722 -0.117206 9.470513
-0.763478 -0.012845 9.479436
-0.801369 0.088498 9.491702
-0.846891 0.186206 9.507128
-0.899385 0.279833 9.525463
-0.958111 0.369112 9.546418
-1.022315 0.453938 9.569695
-1.091272 0.534339 9.595002
-1.164323 0.610441 9.622071
-1.240882 0.682430 9.650663
-1.320441 0.750530 9.680568
-1.402568 0.814981 9.711605
-0.967727 -1.368772 6.048013
-0.910459 -1.257184 6.078444
-0.858510 -1.143077 6.109028
-0.812690 -1.026413 6.139709
-0.773939 -0.907224 6.170404
-0.743332 -0.785659 6.200991
-0.722684 -0.661943 6.231272
-0.713602 -0.536728 6.260967
-0.716550 -0.411059 6.289796
-0.732439 -0.286112 6.317414
-0.761754 -0.163266 6.343463
-0.804422 -0.043951 6.367617
-0.861130 0.069863 6.389367
-0.929292 0.177632 6.408794
-1.007250 0.278951 6.425939
-1.093525 0.373684 6.440889
-1.186736 0.461966 6.453788
-1.285853 0.543878 6.464737
-0.966829 -1.367049 6.048485
-0.911288 -1.258941 6.077971
-0.909630 -1.255426 6.078918
-0.859261 -1.144869 6.108553
-0.857760 -1.141285 6.109503
-0.813352 -1.028239 6.139234
-0.812028 -1.024586 6.140185
-0.774500 -0.909084 6.169929
-0.773378 -0.905364 6.170880
-0.743779 -0.787550 6.200518
-0.742884 -0.783768 6.201465
-0.722860 -0.663881 6.230810
-0.722509 -0.660005 6.231735
-0.713620 -0.538677 6.260515
-0.713585 -0.534780 6.261419
-0.716397 -0.413005 6.289358
-0.716702 -0.409114 6.290234
-0.732108 -0.288040 6.316995
-0.732770 -0.284185 6.317833
-0.761241 -0.165158 6.343067
-0.762267 -0.161374 6.343859
-0.803730 -0.045791 6.367248
-0.805114 -0.042111 6.367987
-0.860113 0.068169 6.389057
-0.862146 0.071557 6.389677
-0.928136 0.176023 6.408515
-0.930447 0.179241 6.409073
-1.005974 0.277431 6.425690
-1.008526 0.280471 6.426187
-1.092146 0.372253 6.440670
-1.094904 0.375116 6.441109
-1.185269 0.460620 6.453595
-1.188203 0.463312 6.453981
-1.284250 0.542690 6.464592
-0.964127 -1.361862 6.049902
-0.913783 -1.264229 6.076546
-0.907136 -1.250139 6.080342
-0.861520 -1.150260 6.107124
-0.855501 -1.135894 6.110933
-0.815344 -1.033734 6.137802
-0.810036 -1.019091 6.141617
-0.776189 -0.914679 6.168498
-0.771689 -0.899768 6.172310
-0.745125 -0.793240 6.199093
-0.741538 -0.778078 6.202889
-0.723388 -0.669712 6.229419
-0.721981 -0.654174 6.233126
-0.713673 -0.544538 6.259155
-0.713531 -0.528919 6.262779
-0.715939 -0.418859 6.288041
-0.717161 -0.403260 6.291551
-0.731111 -0.293839 6.315734
-0.733767 -0.278386 6.319094
-0.759697 -0.170851 6.341875
-0.763810 -0.155681 6.345051
-0.801649 -0.051327 6.366135
-0.807667 -0.036763 6.369018
-0.857054 0.063071 6.388125
-0.865205 0.076655 6.390609
-0.924661 0.171183 6.407676
-0.933922 0.184081 6.409912
-1.002136 0.272857 6.424942
-1.012365 0.285044 6.426936
-1.087996 0.367945 6.440008
-1.099054 0.379423 6.441771
-1.180855 0.456571 6.453015
-1.192617 0.467361 6.454561
-1.279493 0.539037 6.464130
-0.958206 -1.350498 6.053008
-0.950422 -1.335558 6.057092
-0.942638 -1.320618 6.061176
-0.934854 -1.305677 6.065259
-0.927070 -1.290737 6.069343
-0.919285 -1.275797 6.073427
-0.901671 -1.238553 6.083463
-0.894485 -1.223320 6.087566
-0.887300 -1.208088 6.091668
-0.880115 -1.192856 6.095771
-0.872977 -1.177603 6.099875
-0.866469 -1.162073 6.103992
-0.850551 -1.124081 6.114064
-0.844044 -1.108551 6.118181
-0.837537 -1.093021 6.122298
-0.831184 -1.077431 6.126417
-0.825446 -1.061602 6.130541
-0.819708 -1.045773 6.134665
-0.805671 -1.007052 6.144754
-0.799933 -0.991223 6.148878
-0.794486 -0.975298 6.153001
-0.789620 -0.959178 6.157122
-0.784755 -0.943059 6.161243
-0.779890 -0.926940 6.165364
-0.767988 -0.887508 6.175445
-0.763582 -0.871263 6.179557
-0.759705 -0.854874 6.183661
-0.755828 -0.838484 6.187765
-0.751951 -0.822095 6.191868
-0.748074 -0.805706 6.195972
-0.739254 -0.765473 6.205989
-0.736490 -0.748851 6.210057
-0.733727 -0.732229 6.214125
-0.730963 -0.715607 6.218192
-0.728200 -0.698985 6.222260
-0.725436 -0.682362 6.226327
-0.720824 -0.641399 6.236174
-0.719304 -0.624603 6.240182
-0.717783 -0.607807 6.244189
-0.716263 -0.591011 6.248197
-0.714742 -0.574215 6.252205
-0.713789 -0.557382 6.256175
-0.713415 -0.516075 6.265759
-0.713262 -0.499190 6.269677
-0.713109 -0.482305 6.273595
-0.712956 -0.465420 6.277513
-0.713612 -0.448547 6.281362
-0.714933 -0.431685 6.285156
-0.718167 -0.390434 6.294436
-0.719488 -0.373572 6.298230
-0.720810 -0.356709 6.302023
-0.723187 -0.339954 6.305707
-0.726058 -0.323249 6.309339
-0.728928 -0.306545 6.312971
-0.735950 -0.265680 6.321857
-0.738821 -0.248975 6.325489
-0.742975 -0.232520 6.328960
-0.747422 -0.216121 6.332394
-0.751868 -0.199722 6.335828
-0.756315 -0.183324 6.339262
-0.767192 -0.143208 6.347664
-0.773108 -0.127239 6.350880
-0.779103 -0.111293 6.354084
-0.785098 -0.095347 6.357289
-0.791093 -0.079401 6.360493
-0.797089 -0.063455 6.363698
-0.813344 -0.025076 6.371263
-0.820808 -0.009712 6.374215
-0.828272 0.005652 6.377166
-0.835736 0.021016 6.380118
-0.843200 0.036380 6.383069
-0.850664 0.051745 6.386021
-0.871907 0.087824 6.392652
-0.880718 0.102509 6.395337
-0.889529 0.117193 6.398023
-0.898340 0.131878 6.400708
-0.907152 0.146562 6.403394
-0.917046 0.160578 6.405837
-0.941538 0.194686 6.411751
-0.951549 0.208629 6.414168
-0.961561 0.222572 6.416585
-0.971609 0.236488 6.418993
-0.982667 0.249662 6.421148
-0.993725 0.262836 6.423303
-1.020776 0.295065 6.428575
-1.031833 0.308239 6.430730
-1.043041 0.321285 6.432843
-1.054995 0.333693 6.434748
-1.066949 0.346100 6.436654
-1.078903 0.358508 6.438559
-1.108147 0.388861 6.443220
-1.120329 0.401045 6.445055
-1.133043 0.412709 6.446727
-1.145757 0.424373 6.448399
-1.158471 0.436036 6.450071
-1.171185 0.447700 6.451743
-1.202564 0.475927 6.455740
-1.215918 0.486882 6.457197
-1.229272 0.497838 6.458653
-1.242627 0.508793 6.460110
-1.255981 0.519748 6.461566
-1.269335 0.530704 6.463022
22 NaN NaN
-0.967952 -1.369203 6.047896
-0.918797 -1.274859 6.073683
-0.873424 -1.178672 6.099592
-0.832334 -1.080605 6.125590
-0.796102 -0.980654 6.151632
-0.765382 -0.878873 6.177652
-0.740902 -0.775388 6.203563
-0.723454 -0.670438 6.229246
-0.713853 -0.564394 6.254548
-0.712887 -0.457792 6.279283
-0.721231 -0.351338 6.303232
-0.739352 -0.245882 6.326161
-0.767422 -0.142361 6.347841
-0.805269 -0.041697 6.368070
-0.852389 0.055296 6.386703
-0.908016 0.148002 6.403657
-0.971225 0.236030 6.418918
-1.041041 0.319209 6.432524
-1.116519 0.397550 6.444554
-1.196798 0.471197 6.455111
-1.281122 0.540374 6.464308
-1.368847 0.605352 6.472259
