-2.087006 -1.390711 1.767834
-1.755472 -1.386263 2.686871
-1.370213 -1.414797 3.585274
-1.059563 -1.397781 4.511057
-0.910744 -1.287109 5.470361
-0.799636 -1.155509 6.432964
-0.657141 -1.041154 7.393692
-0.515737 -0.926196 8.354504
-2.086457 -1.390624 1.769756
-1.756247 -1.386213 2.685028
-1.754696 -1.386314 2.688714
-1.370967 -1.414760 3.583421
-1.369459 -1.414834 3.587126
-1.060046 -1.397907 4.509121
-1.059080 -1.397656 4.512994
-0.910954 -1.287388 5.468391
-0.910535 -1.286830 5.472330
-0.799905 -1.155755 6.430998
-0.799366 -1.155263 6.434931
-0.657443 -1.041382 7.391728
-0.656838 -1.040927 7.395656
-0.516000 -0.926445 8.352537
-2.080584 -1.389693 1.790325
-1.764550 -1.385671 2.665299
-1.746393 -1.386856 2.708443
-1.379037 -1.414363 3.563593
-1.361389 -1.415231 3.606955
-1.065217 -1.399248 4.488386
-1.054312 -1.396082 4.533808
-0.913200 -1.290371 5.447307
-0.908289 -1.283847 5.493414
-0.802790 -1.158389 6.409945
-0.796481 -1.152629 6.455983
-0.660686 -1.043817 7.370704
-0.653597 -1.038490 7.416680
-0.518820 -0.929115 8.331480
-2.054424 -1.385789 1.880720
-2.009700 -1.381688 2.022312
-1.961609 -1.379608 2.162843
-1.910265 -1.379503 2.302236
-1.856624 -1.380806 2.440756
-1.800745 -1.383492 2.578371
-1.709457 -1.389498 2.795046
-1.650574 -1.394059 2.931354
-1.591278 -1.398879 3.067474
-1.532000 -1.403688 3.203603
-1.473163 -1.408219 3.339932
-1.415168 -1.412223 3.476637
-1.326293 -1.416727 3.694346
-1.272547 -1.418095 3.832826
-1.221535 -1.417787 3.972339
-1.173356 -1.415760 4.112842
-1.128915 -1.411491 4.254516
-1.088434 -1.404875 4.397283
-1.033903 -1.388835 4.625470
-1.005541 -1.375226 4.770645
-0.980702 -1.359634 4.916267
-0.959369 -1.342091 5.062227
-0.940317 -1.323290 5.208346
-0.923340 -1.303352 5.354571
-0.898611 -1.270614 5.586164
-0.883467 -1.249679 5.732453
-0.867935 -1.228954 5.878730
-0.851459 -1.208743 6.024976
-0.833779 -1.189189 6.171170
-0.815119 -1.170172 6.317314
-0.783651 -1.141122 6.548581
-0.762852 -1.123282 6.694585
-0.741432 -1.105787 6.840540
-0.719565 -1.088539 6.986459
-0.697358 -1.071480 7.132349
-0.674944 -1.054535 7.278220
-0.639350 -1.027767 7.509165
-0.617009 -1.010781 7.655043
-0.594898 -0.993669 7.800941
-0.573212 -0.976320 7.946875
-0.551994 -0.958713 8.092846
-0.531465 -0.940724 8.238870
73 NaN NaN
-2.087143 -1.390733 1.767354
-2.059335 -1.386326 1.864739
-2.029577 -1.383072 1.961591
-1.998047 -1.380876 2.057912
-1.964919 -1.379643 2.153713
-1.930365 -1.379276 2.249016
-1.894548 -1.379680 2.343852
-1.857629 -1.380762 2.438259
-1.819764 -1.382429 2.532282
-1.781102 -1.384590 2.625971
-1.741791 -1.387157 2.719378
-1.701972 -1.390040 2.812561
-1.661786 -1.393155 2.905579
-1.621369 -1.396414 2.998493
-1.580857 -1.399732 3.091363
-1.540387 -1.403025 3.184251
-1.500092 -1.406208 3.277220
-1.460110 -1.409194 3.370330
-1.420577 -1.411899 3.463640
-1.381635 -1.414235 3.557209
-1.343426 -1.416115 3.651089
-1.306098 -1.417449 3.745332
-1.269802 -1.418148 3.839983
-1.234694 -1.418119 3.935084
-1.200933 -1.417269 4.030668
-1.168685 -1.415505 4.126760
-1.138118 -1.412733 4.223376
-1.109406 -1.408859 4.320521
-1.082723 -1.403790 4.418188
-1.058242 -1.397438 4.516355
-1.036035 -1.389776 4.614968
-1.015937 -1.380909 4.713933
-0.997746 -1.370965 4.813164
-0.981255 -1.360067 4.912592
-0.966257 -1.348339 5.012163
-0.952544 -1.335900 5.111833
-0.939909 -1.322869 5.211570
-0.928145 -1.309360 5.311350
-0.917049 -1.295487 5.411157
-0.906419 -1.281361 5.510979
-0.896052 -1.267092 5.610808
-0.885748 -1.252788 5.710639
-0.875307 -1.238559 5.810467
-0.864528 -1.224514 5.910284
-0.853228 -1.210752 6.010083
-0.841377 -1.197291 6.109860
-0.829015 -1.184110 6.209612
-0.816181 -1.171187 6.309338
-0.802914 -1.158502 6.409038
-0.789256 -1.146033 6.508712
-0.775246 -1.133758 6.608361
-0.760926 -1.121654 6.707988
-0.746335 -1.109700 6.807593
-0.731515 -1.097873 6.907180
-0.716507 -1.086150 7.006750
-0.701351 -1.074509 7.106308
-0.686088 -1.062928 7.205857
-0.670759 -1.051382 7.305400
-0.655406 -1.039851 7.404940
-0.640068 -1.028311 7.504482
-0.624788 -1.016739 7.604029
-0.609606 -1.005112 7.703585
-0.594564 -0.993409 7.803153
-0.579701 -0.981605 7.902736
-0.565059 -0.969679 8.002337
-0.550679 -0.957609 8.101959
-0.536601 -0.945371 8.201603
-0.522866 -0.932944 8.301272
-0.509514 -0.920306 8.400967
-0.496586 -0.907435 8.500687
-0.484122 -0.894310 8.600434
-0.472161 -0.880909 8.700205
-0.460744 -0.867211 8.800000
-2.086801 -1.390713 1.766990
-1.829170 -1.375307 1.493329
-1.571540 -1.359902 1.219667
-1.313910 -1.344497 0.946005
-1.056279 -1.329092 0.672344
-0.798649 -1.313687 0.398682
-0.541018 -1.298282 0.125020
-2.085431 -1.390631 1.765535
-1.830540 -1.375389 1.494784
-1.827801 -1.375226 1.491874
-1.572910 -1.359984 1.221122
-1.570170 -1.359820 1.218212
-1.315279 -1.344579 0.947460
-1.312540 -1.344415 0.944550
-1.057649 -1.329174 0.673799
-1.054909 -1.329010 0.670889
-0.800019 -1.313769 0.400137
-0.797279 -1.313605 0.397227
-0.542388 -1.298364 0.126475
-2.075387 -1.390030 1.754866
-1.840585 -1.375990 1.505453
-1.817756 -1.374625 1.481204
-1.582954 -1.360585 1.231791
-1.560126 -1.359220 1.207543
-1.325324 -1.345180 0.958130
-1.302495 -1.343815 0.933881
-1.067693 -1.329775 0.684468
-1.044865 -1.328410 0.660219
-0.810063 -1.314369 0.410806
-0.787235 -1.313004 0.386558
-0.552433 -1.298964 0.137145
-2.048306 -1.388411 1.726100
-2.012178 -1.386250 1.687724
-1.976050 -1.384090 1.649347
-1.939922 -1.381930 1.610971
-1.903794 -1.379770 1.572595
-1.867666 -1.377609 1.534219
-1.790675 -1.373006 1.452438
-1.754547 -1.370845 1.414062
-1.718419 -1.368685 1.375686
-1.682291 -1.366525 1.337310
-1.646163 -1.364364 1.298934
-1.610035 -1.362204 1.260558
-1.533045 -1.357601 1.178776
-1.496917 -1.355440 1.140400
-1.460789 -1.353280 1.102024
-1.424661 -1.351120 1.063648
-1.388533 -1.348959 1.025272
-1.352405 -1.346799 0.986896
-1.275414 -1.342195 0.905115
-1.239286 -1.340035 0.866739
-1.203158 -1.337875 0.828362
-1.167030 -1.335715 0.789986
-1.130902 -1.333554 0.751610
-1.094774 -1.331394 0.713234
-1.017784 -1.326790 0.631453
-0.981656 -1.324630 0.593077
-0.945528 -1.322470 0.554701
-0.909400 -1.320309 0.516325
-0.873272 -1.318149 0.477949
-0.837144 -1.315989 0.439573
-0.760154 -1.311385 0.357791
-0.724026 -1.309225 0.319415
-0.687898 -1.307065 0.281039
-0.651770 -1.304904 0.242663
-0.615642 -1.302744 0.204287
-0.579514 -1.300584 0.165911
24 NaN NaN
-2.087143 -1.390733 1.767354
-2.014803 -1.386407 1.690512
-1.942463 -1.382082 1.613671
-1.870123 -1.377756 1.536830
-1.797783 -1.373431 1.459988
-1.725443 -1.369105 1.383147
-1.653103 -1.364779 1.306305
-1.580763 -1.360454 1.229464
-1.508423 -1.356128 1.152622
-1.436083 -1.351803 1.075781
-1.363743 -1.347477 0.998939
-1.291403 -1.343151 0.922098
-1.219063 -1.338826 0.845256
-1.146722 -1.334500 0.768415
-1.074382 -1.330175 0.691573
-1.002042 -1.325849 0.614732
-0.929702 -1.321523 0.537890
-0.857362 -1.317198 0.461049
-0.785022 -1.312872 0.384207
-0.712682 -1.308547 0.307366
-0.640342 -1.304221 0.230524
-0.568002 -1.299895 0.153683
-0.495662 -1.295570 0.076841
-0.423322 -1.291244 0.000000
-2.087562 -1.390997 1.767284
-3.025554 -1.614938 1.319189
-3.553383 -1.141353 0.492650
-3.853961 -0.519955 -0.363829
-4.072973 0.268000 -1.102835
-4.304397 1.038356 -1.856904
-4.533087 1.811626 -2.608841
-4.763484 2.581260 -3.363983
-4.994886 3.349344 -4.120389
-5.231461 4.122452 -4.870021
-5.491521 4.874671 -5.632907
-5.791268 5.585755 -6.420112
-6.145217 6.234257 -7.238006
-6.564574 6.795862 -8.088343
-7.053740 7.247295 -8.966361
-7.608517 7.573635 -9.860601
-8.218979 7.773337 -10.755928
-8.873949 7.855603 -11.638373
-2.089238 -1.392052 1.767002
-3.024040 -1.615228 1.320463
-3.027068 -1.614648 1.317915
-3.552719 -1.142379 0.494233
-3.554047 -1.140327 0.491067
-3.853539 -0.521272 -0.362385
-3.854384 -0.518638 -0.365273
-4.072556 0.266581 -1.101490
-4.073391 0.269420 -1.104181
-4.303983 1.036954 -1.855540
-4.304810 1.039759 -1.858268
-4.532669 1.810228 -2.607473
-4.533504 1.813024 -2.610209
-4.763066 2.579865 -3.362613
-4.763902 2.582656 -3.365353
-4.994461 3.347955 -4.119014
-4.995311 3.350732 -4.121764
-5.231016 4.121061 -4.868654
-5.231906 4.123843 -4.871388
-5.491018 4.873337 -5.631504
-5.492024 4.876004 -5.634310
-5.790679 5.584514 -6.418657
-5.791856 5.586995 -6.421566
-6.144518 6.233152 -7.236492
-6.145916 6.235362 -7.239519
-6.563749 6.794938 -8.086773
-6.565398 6.796786 -8.089913
-7.052789 7.246590 -8.964749
-7.054690 7.248001 -8.967973
-7.607456 7.573162 -9.858973
-7.609579 7.574107 -9.862228
-8.217826 7.773088 -10.754313
-8.220131 7.773585 -10.757544
-8.872726 7.855557 -11.636792
-2.108971 -1.404474 1.763688
-3.006211 -1.618640 1.335469
-3.043728 -1.609468 1.302106
-3.544895 -1.154461 0.512874
-3.561685 -1.128242 0.472352
-3.848559 -0.536785 -0.345378
-3.859260 -0.502864 -0.382065
-4.067640 0.249863 -1.085646
-4.078322 0.286099 -1.120060
-4.299119 1.020434 -1.839474
-4.309674 1.056283 -1.874330
-4.527756 1.793765 -2.591365
-4.538417 1.829487 -2.626318
-4.758143 2.563431 -3.346477
-4.768824 2.599090 -3.381489
-4.989456 3.331606 -4.102818
-5.000316 3.367082 -4.137960
-5.225780 4.104686 -4.852557
-5.237142 4.140218 -4.887485
-5.485100 4.857632 -5.614981
-5.497942 4.891709 -5.650833
-5.783749 5.569907 -6.401532
-5.798786 5.601603 -6.438691
-6.136288 6.220140 -7.218670
-6.154146 6.248374 -7.257342
-6.554038 6.784056 -8.068280
-6.575109 6.807667 -8.108406
-7.041598 7.238277 -8.945767
-7.065881 7.256314 -8.986955
-7.594955 7.567598 -9.839804
-7.622079 7.579672 -9.881397
-8.204256 7.770165 -10.735287
-8.233702 7.776508 -10.776569
-8.858322 7.855004 -11.618167
-2.198548 -1.458375 1.746781
-2.344868 -1.529944 1.706731
-2.493802 -1.582462 1.650162
-2.642028 -1.617744 1.580172
-2.786968 -1.635153 1.497526
-2.924513 -1.631341 1.401625
-3.116687 -1.583509 1.229882
-3.219190 -1.526968 1.109753
-3.305948 -1.455816 0.984984
-3.381564 -1.376908 0.857610
-3.448727 -1.293914 0.728058
-3.509109 -1.208743 0.596587
-3.595634 -1.073875 0.387929
-3.647926 -0.987780 0.253611
-3.697758 -0.899832 0.119566
-3.744466 -0.807986 -0.012967
-3.787136 -0.710221 -0.142592
-3.825725 -0.605716 -0.268172
-3.880747 -0.430639 -0.456607
-3.913665 -0.312403 -0.571158
-3.945893 -0.190923 -0.682473
-3.978218 -0.068278 -0.792480
-4.011384 0.053802 -0.902863
-4.045628 0.174401 -1.014536
-4.100635 0.360827 -1.191847
-4.136151 0.478351 -1.306368
-4.171704 0.595192 -1.421574
-4.207146 0.711834 -1.537017
-4.242320 0.828743 -1.652270
-4.277197 0.946136 -1.767121
-4.331547 1.130711 -1.946563
-4.366220 1.248658 -2.060908
-4.400967 1.366586 -2.175250
-4.435786 1.484433 -2.289652
-4.470684 1.602126 -2.404190
-4.505652 1.719644 -2.518886
-4.560544 1.903547 -2.698853
-4.595607 2.020803 -2.813787
-4.630684 2.138018 -2.928759
-4.665773 2.255199 -3.043763
-4.700876 2.372345 -3.158797
-4.735984 2.489475 -3.273847
-4.790965 2.673076 -3.454094
-4.825992 2.790337 -3.569035
-4.861013 2.907612 -3.683963
-4.896113 3.024758 -3.798998
-4.931418 3.141567 -3.914313
-4.966947 3.258067 -4.029872
-5.022846 3.440828 -4.210689
-5.058458 3.558296 -4.325238
-5.094011 3.676495 -4.439050
-5.129686 3.795004 -4.552502
-5.165756 3.913238 -4.666114
-5.202361 4.030821 -4.780231
-5.260909 4.213710 -4.960077
-5.299078 4.329623 -5.075384
-5.337862 4.444982 -5.191040
-5.377334 4.559696 -5.307104
-5.417618 4.673608 -5.423678
-5.458702 4.786704 -5.540766
-5.524876 4.962083 -5.725382
-5.568366 5.072688 -5.843971
-5.612833 5.182265 -5.963150
-5.658369 5.290698 -6.082970
-5.705073 5.397859 -6.203483
-5.752907 5.503767 -6.324657
-5.830361 5.666905 -6.515984
-5.881478 5.769052 -6.639032
-5.933888 5.869668 -6.762795
-5.987708 5.968579 -6.887325
-6.042995 6.065678 -7.012636
-6.099693 6.160993 -7.138683
-6.191627 6.306352 -7.337772
-6.252302 6.396424 -7.465807
-6.314493 6.484409 -7.594564
-6.378334 6.570061 -7.724085
-6.443804 6.653344 -7.854334
-6.510840 6.734291 -7.985258
-6.619256 6.855941 -8.191808
-6.690544 6.930207 -8.324434
-6.763397 7.001883 -8.457634
-6.837944 7.070672 -8.591419
-6.914078 7.136667 -8.725713
-6.991731 7.199912 -8.860462
-7.116637 7.292981 -9.072481
-7.198274 7.348616 -9.208226
-7.281330 7.401399 -9.344252
-7.365917 7.451012 -9.480528
-7.451871 7.497711 -9.616975
-7.539137 7.541543 -9.753543
-7.678646 7.604013 -9.967670
-7.769274 7.640157 -10.104298
-7.861076 7.673500 -10.240856
-7.954151 7.703733 -10.377276
-8.048320 7.731231 -10.513523
-8.143549 7.756030 -10.649553
-8.295005 7.789061 -10.862124
-8.392916 7.806757 -10.997356
-8.491767 7.821867 -11.132218
-8.591601 7.834214 -11.266637
-8.692285 7.844117 -11.400621
-8.793799 7.851588 -11.534139
194 NaN NaN
-2.087143 -1.390733 1.767354
-2.171426 -1.443791 1.753199
-2.258163 -1.490431 1.732673
-2.346491 -1.530684 1.706245
-2.435671 -1.564571 1.674311
-2.525038 -1.592075 1.637185
-2.613968 -1.613126 1.595120
-2.701837 -1.627585 1.548310
-2.787984 -1.635243 1.496920
-2.871675 -1.635825 1.441102
-2.952076 -1.629003 1.381031
-3.028225 -1.614427 1.316941
-3.099030 -1.591781 1.249183
-3.163768 -1.561450 1.178415
-3.222623 -1.524832 1.105500
-3.276132 -1.483343 1.031079
-3.324983 -1.438242 0.955555
-3.369919 -1.390623 0.879144
-3.411677 -1.341440 0.801922
-3.450788 -1.291271 0.723949
-3.487609 -1.240377 0.645334
-3.522527 -1.189000 0.566164
-3.555958 -1.137377 0.486515
-3.588335 -1.085733 0.406443
-3.620042 -1.034222 0.326019
-3.651073 -0.982540 0.245441
-3.681245 -0.930182 0.164973
-3.710369 -0.876655 0.084891
-3.738246 -0.821476 0.005490
-3.764667 -0.764182 -0.072902
-3.789525 -0.704484 -0.150001
-3.812983 -0.642466 -0.225695
-3.835246 -0.578257 -0.299909
-3.856523 -0.511977 -0.372576
-3.877022 -0.443737 -0.443635
-3.896952 -0.373655 -0.513045
-3.916492 -0.302042 -0.580988
-3.935807 -0.229342 -0.647834
-3.955066 -0.155984 -0.713974
-3.974441 -0.082385 -0.779812
-3.994105 -0.008955 -0.845753
-4.014185 0.063975 -0.912121
-4.034644 0.136374 -0.978954
-4.055411 0.208273 -1.046230
-4.076415 0.279705 -1.113928
-4.097586 0.350705 -1.182029
-4.118853 0.421307 -1.250511
-4.140163 0.491579 -1.319320
-4.161480 0.561621 -1.388360
-4.182772 0.631538 -1.457534
-4.204005 0.701438 -1.526744
-4.225147 0.771424 -1.595895
-4.246169 0.841588 -1.664902
-4.267084 0.911929 -1.733761
-4.287922 0.982411 -1.802498
-4.308709 1.052999 -1.871143
-4.329474 1.123656 -1.939723
-4.350245 1.194348 -2.008265
-4.371041 1.265046 -2.076794
-4.391864 1.335735 -2.145324
-4.412714 1.406399 -2.213871
-4.433591 1.477025 -2.282449
-4.454496 1.547598 -2.351073
-4.475428 1.618106 -2.419756
-4.496385 1.688549 -2.488497
-4.517362 1.758938 -2.557288
-4.538356 1.829284 -2.626119
-4.559362 1.899595 -2.694980
-4.580377 1.969883 -2.763863
-4.601396 2.040155 -2.832761
-4.622420 2.110412 -2.901672
-4.643448 2.180656 -2.970595
-4.664482 2.250888 -3.039530
-4.685520 2.321107 -3.108475
-4.706562 2.391316 -3.177430
-4.727606 2.461520 -3.246390
-4.748647 2.531727 -3.315347
-4.769680 2.601946 -3.384294
-4.790699 2.672187 -3.453223
-4.811701 2.742459 -3.522127
-4.832686 2.812760 -3.591005
-4.853671 2.883061 -3.659883
-4.874681 2.953323 -3.728794
-4.895736 3.023510 -3.797767
-4.916861 3.093583 -3.866835
-4.938075 3.163509 -3.936024
-4.959374 3.233320 -4.005303
-4.980731 3.303108 -4.074588
-5.002119 3.372968 -4.143791
-5.023507 3.442994 -4.212825
-5.044870 3.513281 -4.281602
-5.066185 3.583897 -4.350055
-5.087486 3.654774 -4.418243
-5.108820 3.725792 -4.486273
-5.130237 3.796833 -4.554253
-5.151789 3.867781 -4.622289
-5.173524 3.938517 -4.690486
-5.195469 4.008984 -4.758894
-5.217628 4.079193 -4.827497
-5.240002 4.149162 -4.896277
-5.262592 4.218906 -4.965213
-5.285401 4.288443 -5.034288
-5.308431 4.357783 -5.103486
-5.331695 4.426912 -5.172817
-5.355207 4.495809 -5.242294
-5.378982 4.564455 -5.311932
-5.403034 4.632826 -5.381744
-5.427378 4.700902 -5.451743
-5.452025 4.768666 -5.521938
-5.476988 4.836107 -5.592333
-5.502276 4.903210 -5.662934
-5.527902 4.969965 -5.733743
-5.553875 5.036357 -5.804766
-5.580207 5.102375 -5.876006
-5.606909 5.168001 -5.947470
-5.633993 5.233219 -6.019162
-5.661471 5.298013 -6.091090
-5.689353 5.362365 -6.163257
-5.717652 5.426259 -6.235670
-5.746377 5.489678 -6.308332
-5.775540 5.552603 -6.381247
-5.805151 5.615019 -6.454420
-5.835221 5.676908 -6.527853
-5.865759 5.738251 -6.601550
-5.896776 5.799031 -6.675513
-5.928282 5.859229 -6.749745
-5.960285 5.918827 -6.824247
-5.992794 5.977806 -6.899023
-6.025819 6.036147 -6.974073
-6.059368 6.093830 -7.049398
-6.093450 6.150837 -7.124999
-6.128070 6.207148 -7.200875
-6.163236 6.262745 -7.277027
-6.198956 6.317608 -7.353453
-6.235235 6.371718 -7.430152
-6.272079 6.425054 -7.507123
-6.309493 6.477599 -7.584363
-6.347480 6.529334 -7.661868
-6.386046 6.580241 -7.739637
-6.425193 6.630301 -7.817664
-6.464925 6.679494 -7.895947
-6.505243 6.727804 -7.974479
-6.546148 6.775215 -8.053256
-6.587641 6.821710 -8.132270
-6.629721 6.867273 -8.211517
-6.672390 6.911887 -8.290988
-6.715645 6.955537 -8.370678
-6.759484 6.998210 -8.450577
-6.803903 7.039895 -8.530677
-6.848900 7.080578 -8.610970
-6.894472 7.120247 -8.691445
-6.940614 7.158891 -8.772095
-6.987320 7.196500 -8.852907
-7.034586 7.233068 -8.933873
-7.082405 7.268588 -9.014981
-7.130770 7.303052 -9.096220
-7.179676 7.336453 -9.177579
-7.229115 7.368787 -9.259047
-7.279079 7.400052 -9.340612
-7.329561 7.430248 -9.422261
-7.380552 7.459371 -9.503983
-7.432044 7.487422 -9.585765
-7.484030 7.514399 -9.667597
-7.536500 7.540306 -9.749465
-7.589447 7.565146 -9.831358
-7.642860 7.588922 -9.913263
-7.696733 7.611639 -9.995168
-7.751055 7.633300 -10.077062
-7.805819 7.653912 -10.158932
-7.861016 7.673480 -10.240768
-7.916636 7.692014 -10.322558
-7.972672 7.709519 -10.404291
-8.029115 7.726004 -10.485957
-8.085956 7.741476 -10.567543
-8.143187 7.755945 -10.649042
-8.200800 7.769420 -10.730442
-8.258785 7.781912 -10.811735
-8.317134 7.793429 -10.892910
-8.375840 7.803981 -10.973959
-8.434894 7.813580 -11.054874
-8.494288 7.822235 -11.135647
-8.554013 7.829957 -11.216270
-8.614062 7.836758 -11.296735
-8.674427 7.842648 -11.377036
-8.735099 7.847639 -11.457165
-8.796070 7.851741 -11.537118
-8.857333 7.854966 -11.616888
-8.918879 7.857326 -11.696470
-8.980701 7.858832 -11.775858
-9.042791 7.859496 -11.855049
-9.105142 7.859328 -11.934038
-9.167746 7.858341 -12.012819
-9.230597 7.856545 -12.091389
-9.293688 7.853952 -12.169744
-0.799472 -1.155070 6.433139
-0.745826 -1.003307 6.493144
-0.703178 -0.848035 6.552894
-0.674457 -0.689336 6.611966
-0.662336 -0.528093 6.669695
-0.667635 -0.365772 6.725461
-0.695444 -0.204632 6.777793
-0.743615 -0.047170 6.826112
-0.813262 0.103697 6.869252
-0.902577 0.245432 6.906576
-1.007570 0.377520 6.938438
-1.127352 0.497869 6.964230
-1.257152 0.608333 6.985238
-1.395476 0.708854 7.001642
-0.798818 -1.153314 6.433838
-0.746401 -1.005091 6.492446
-0.745250 -1.001523 6.493842
-0.703567 -0.849871 6.552203
-0.702788 -0.846199 6.553585
-0.674737 -0.691195 6.611282
-0.674177 -0.687478 6.612650
-0.662364 -0.529980 6.669035
-0.662308 -0.526205 6.670356
-0.667461 -0.367659 6.724827
-0.667899 -0.363888 6.726080
-0.695024 -0.206495 6.777201
-0.695865 -0.202768 6.778385
-0.742880 -0.048955 6.825589
-0.744350 -0.045385 6.826634
-0.812378 0.101969 6.868770
-0.814147 0.105424 6.869735
-0.901427 0.243845 6.906178
-0.903727 0.247020 6.906974
-1.006247 0.376058 6.938107
-1.008931 0.378951 6.938753
-1.125905 0.496517 6.963954
-1.128799 0.499222 6.964506
-1.255569 0.607128 6.985031
-1.258735 0.609538 6.985445
-1.393840 0.707717 7.001466
-0.796360 -1.146717 6.436463
-0.748563 -1.011792 6.489825
-0.743089 -0.994822 6.496464
-0.705029 -0.856769 6.549607
-0.701326 -0.839302 6.556181
-0.675790 -0.698176 6.608712
-0.673124 -0.680497 6.615221
-0.662471 -0.537072 6.666553
-0.662201 -0.519114 6.672837
-0.667034 -0.374762 6.722413
-0.668892 -0.356814 6.728408
-0.693443 -0.213496 6.774977
-0.697446 -0.195767 6.780608
-0.740118 -0.055661 6.823627
-0.747112 -0.038678 6.828597
-0.809055 0.095478 6.866958
-0.817470 0.111915 6.871547
-0.897105 0.237883 6.904684
-0.908048 0.252982 6.908468
-1.001503 0.370387 6.936771
-1.014047 0.384326 6.939936
-1.120468 0.491435 6.962915
-1.134235 0.504304 6.965545
-1.249622 0.602602 6.984255
-1.264682 0.614064 6.986221
-1.387693 0.703448 7.000806
-0.790555 -1.131137 6.442663
-0.782880 -1.110538 6.450861
-0.775205 -1.089939 6.459058
-0.767530 -1.069340 6.467255
-0.760417 -1.048543 6.475446
-0.753667 -1.027619 6.483633
-0.737984 -0.978996 6.502656
-0.731601 -0.957959 6.510832
-0.725885 -0.936717 6.518990
-0.720169 -0.915476 6.527148
-0.714453 -0.894234 6.535306
-0.708736 -0.872993 6.543464
-0.697873 -0.823012 6.562312
-0.693308 -0.801475 6.570419
-0.688743 -0.779937 6.578525
-0.684851 -0.758262 6.586589
-0.681563 -0.736463 6.594615
-0.678276 -0.714663 6.602641
-0.671025 -0.663952 6.621259
-0.669149 -0.641944 6.629168
-0.667273 -0.619936 6.637077
-0.665397 -0.597928 6.644986
-0.663520 -0.575920 6.652896
-0.662723 -0.553818 6.660692
-0.661949 -0.502367 6.678698
-0.661616 -0.480225 6.686447
-0.662028 -0.458067 6.694101
-0.663361 -0.435890 6.701638
-0.664694 -0.413713 6.709175
-0.666026 -0.391535 6.716713
-0.671237 -0.340107 6.733907
-0.674336 -0.318017 6.741176
-0.677436 -0.295927 6.748446
-0.680536 -0.273837 6.755716
-0.684776 -0.251889 6.762783
-0.689711 -0.230029 6.769726
-0.701178 -0.179234 6.785860
-0.706800 -0.157515 6.792661
-0.713593 -0.136039 6.799222
-0.720386 -0.114562 6.805782
-0.727179 -0.093086 6.812343
-0.733972 -0.071609 6.818903
-0.753634 -0.022840 6.833232
-0.762257 -0.001899 6.839360
-0.770880 0.019041 6.845488
-0.780456 0.039616 6.851361
-0.790831 0.059883 6.857020
-0.801207 0.080150 6.862678
-0.825794 0.127014 6.875683
-0.837802 0.146496 6.880849
-0.849811 0.165977 6.886015
-0.861819 0.185459 6.891181
-0.873828 0.204940 6.896347
-0.886900 0.223802 6.901155
-0.918253 0.267062 6.911997
-0.931746 0.285679 6.916663
-0.945854 0.303873 6.921099
-0.960669 0.321581 6.925271
-0.975483 0.339288 6.929443
-0.990298 0.356995 6.933615
-1.026127 0.397019 6.942731
-1.042099 0.413802 6.946426
-1.058072 0.430584 6.950121
-1.074044 0.447367 6.953815
-1.090656 0.463566 6.957221
-1.107630 0.479434 6.960463
-1.147073 0.516305 6.967997
-1.164379 0.531830 6.971075
-1.182214 0.546811 6.973893
-1.200048 0.561791 6.976711
-1.217883 0.576772 6.979529
-1.235717 0.591752 6.982346
-1.278727 0.624753 6.988054
-1.297296 0.638886 6.990479
-1.315865 0.653018 6.992903
-1.334784 0.666704 6.995125
-1.353979 0.680035 6.997186
-1.373174 0.693365 6.999247
22 NaN NaN
-0.799636 -1.155509 6.432964
-0.764514 -1.061248 6.470476
-0.733630 -0.965496 6.507937
-0.707473 -0.868298 6.545267
-0.686583 -0.769747 6.582361
-0.671541 -0.670001 6.619085
-0.662956 -0.569303 6.655274
-0.661432 -0.467993 6.690727
-0.667529 -0.366526 6.725212
-0.681712 -0.265461 6.758472
-0.704290 -0.165450 6.790238
-0.735368 -0.067195 6.820251
-0.774820 0.028608 6.848288
-0.822290 0.121331 6.874176
-0.877231 0.210462 6.897811
-0.938965 0.295640 6.919160
-1.006748 0.376658 6.938248
-1.079831 0.453447 6.955154
-1.157501 0.526053 6.969988
-1.239108 0.594600 6.982882
-1.324078 0.659269 6.993975
-1.411916 0.720270 7.003407
-1.059292 -1.397364 4.511102
-1.001990 -1.309128 4.520527
-0.947692 -1.219057 4.530347
-0.896838 -1.127049 4.540596
-0.849972 -1.033005 4.551314
-0.807753 -0.936852 4.562543
-0.770971 -0.838566 4.574323
-0.740566 -0.738211 4.586690
-0.717626 -0.635988 4.599667
-0.703359 -0.532305 4.613256
-0.699008 -0.427846 4.627421
-0.705698 -0.323615 4.642079
-0.724220 -0.220904 4.657087
-0.754828 -0.121165 4.672260
-0.797127 -0.025780 4.687387
-0.850141 0.064161 4.702273
-0.912510 0.147998 4.716762
-0.982740 0.225507 4.730753
-1.059405 0.296806 4.744195
-1.141258 0.362234 4.757074
-1.227263 0.422244 4.769405
-1.316592 0.477321 4.781215
-1.058207 -1.395693 4.511280
-1.003075 -1.310799 4.520348
-1.000905 -1.307457 4.520705
-0.948718 -1.220764 4.530160
-0.946666 -1.217350 4.530533
-0.897796 -1.128794 4.540401
-0.895880 -1.125304 4.540791
-0.850850 -1.034790 4.551110
-0.849094 -1.031220 4.551518
-0.808538 -0.938679 4.562329
-0.806968 -0.935025 4.562757
-0.771646 -0.840435 4.574098
-0.770296 -0.836697 4.574548
-0.741111 -0.740120 4.586453
-0.740020 -0.736301 4.586926
-0.718018 -0.637933 4.599418
-0.717233 -0.634043 4.599916
-0.703573 -0.534277 4.612995
-0.703145 -0.530334 4.613517
-0.699019 -0.429828 4.627149
-0.698998 -0.425865 4.627693
-0.705483 -0.325583 4.641798
-0.705913 -0.321646 4.642360
-0.723767 -0.222831 4.656801
-0.724674 -0.218978 4.657374
-0.754136 -0.123020 4.671972
-0.755520 -0.119311 4.672547
-0.796213 -0.027536 4.687102
-0.798042 -0.024025 4.687672
-0.849029 0.062522 4.701995
-0.851253 0.065799 4.702551
-0.911230 0.146485 4.716493
-0.913789 0.149512 4.717031
-0.981324 0.224118 4.730495
-0.984155 0.226896 4.731011
-1.057881 0.295535 4.743947
-1.060930 0.298077 4.744442
-1.139646 0.361073 4.756838
-1.142869 0.363395 4.757310
-1.225583 0.421182 4.769179
-1.228943 0.423305 4.769631
-1.314858 0.476348 4.780999
-1.055388 -1.391352 4.511744
-1.005894 -1.315140 4.519885
-0.998188 -1.303053 4.521183
-0.951384 -1.225199 4.529677
-0.944000 -1.212916 4.531017
-0.900285 -1.133328 4.539895
-0.893392 -1.120770 4.541297
-0.853132 -1.039429 4.550580
-0.846812 -1.026581 4.552049
-0.810577 -0.943426 4.561773
-0.804928 -0.930277 4.563314
-0.773400 -0.845292 4.573513
-0.768542 -0.831840 4.575133
-0.742528 -0.745082 4.585837
-0.738603 -0.731339 4.587542
-0.719038 -0.642988 4.598771
-0.716213 -0.628988 4.600563
-0.704130 -0.539399 4.612316
-0.702588 -0.525212 4.614195
-0.699046 -0.434976 4.626442
-0.698971 -0.420716 4.628400
-0.704923 -0.330698 4.641067
-0.706473 -0.316531 4.643090
-0.722588 -0.227837 4.656056
-0.725853 -0.213971 4.658118
-0.752339 -0.127838 4.671224
-0.757317 -0.114492 4.673296
-0.793835 -0.032098 4.686362
-0.800419 -0.019463 4.688412
-0.846138 0.058264 4.701272
-0.854144 0.070058 4.703274
-0.907906 0.142551 4.715794
-0.917113 0.153446 4.717729
-0.977646 0.220508 4.729824
-0.987833 0.230506 4.731682
-1.053919 0.292233 4.743305
-1.064891 0.301379 4.745084
-1.135460 0.358055 4.756225
-1.147055 0.366413 4.757924
-1.221218 0.418423 4.768593
-1.233308 0.426065 4.770217
-1.310351 0.473822 4.780438
-1.049592 -1.382427 4.512697
-1.042012 -1.370755 4.513944
-1.034431 -1.359082 4.515191
-1.026851 -1.347409 4.516438
-1.019270 -1.335737 4.517685
-1.011690 -1.324064 4.518931
-0.992708 -1.293936 4.522177
-0.985539 -1.282012 4.523478
-0.978371 -1.270088 4.524779
-0.971202 -1.258164 4.526080
-0.964034 -1.246240 4.527381
-0.956865 -1.234315 4.528682
-0.938859 -1.203608 4.532054
-0.932167 -1.191416 4.533414
-0.925476 -1.179225 4.534774
-0.918784 -1.167033 4.536135
-0.912092 -1.154841 4.537495
-0.905401 -1.142650 4.538855
-0.888504 -1.111333 4.542363
-0.882368 -1.098859 4.543789
-0.876232 -1.086386 4.545214
-0.870096 -1.073913 4.546640
-0.863960 -1.061439 4.548065
-0.857824 -1.048966 4.549490
-0.842192 -1.017012 4.553146
-0.836708 -1.004247 4.554643
-0.831223 -0.991482 4.556139
-0.825739 -0.978716 4.557636
-0.820255 -0.965951 4.559132
-0.814771 -0.953186 4.560628
-0.800735 -0.920517 4.564458
-0.795872 -0.907514 4.566017
-0.791155 -0.894455 4.567590
-0.786439 -0.881395 4.569163
-0.781723 -0.868336 4.570737
-0.777006 -0.855277 4.572310
-0.764936 -0.821855 4.576336
-0.760680 -0.808652 4.577951
-0.756870 -0.795310 4.579606
-0.753060 -0.781968 4.581261
-0.749251 -0.768626 4.582916
-0.745441 -0.755283 4.584572
-0.735691 -0.721138 4.588808
-0.732103 -0.707744 4.590480
-0.729361 -0.694153 4.592220
-0.726619 -0.680562 4.593960
-0.723877 -0.666971 4.595700
-0.721134 -0.653379 4.597440
-0.714117 -0.618597 4.601893
-0.711375 -0.605005 4.603633
-0.709764 -0.591249 4.605450
-0.708267 -0.577476 4.607274
-0.706771 -0.563703 4.609098
-0.705274 -0.549930 4.610922
-0.701444 -0.514681 4.615590
-0.699947 -0.500908 4.617414
-0.699318 -0.487092 4.619285
-0.699246 -0.473248 4.621186
-0.699173 -0.459405 4.623087
-0.699101 -0.445561 4.624988
-0.698916 -0.410132 4.629854
-0.698843 -0.396288 4.631755
-0.699262 -0.382473 4.633676
-0.700766 -0.368720 4.635639
-0.702270 -0.354966 4.637603
-0.703774 -0.341213 4.639566
-0.707623 -0.306016 4.644591
-0.709127 -0.292263 4.646555
-0.710654 -0.278514 4.648518
-0.713824 -0.265052 4.650521
-0.716994 -0.251591 4.652523
-0.720164 -0.238130 4.654525
-0.728277 -0.203679 4.659649
-0.731447 -0.190218 4.661652
-0.734617 -0.176756 4.663654
-0.738979 -0.163657 4.665663
-0.743812 -0.150701 4.667674
-0.748644 -0.137744 4.669686
-0.761012 -0.104586 4.674834
-0.765844 -0.091630 4.676845
-0.770677 -0.078673 4.678857
-0.776164 -0.066007 4.680859
-0.782556 -0.053742 4.682850
-0.788948 -0.041476 4.684840
-0.805307 -0.010085 4.689934
-0.811698 0.002181 4.691924
-0.818090 0.014446 4.693914
-0.824652 0.026612 4.695899
-0.832424 0.038061 4.697842
-0.840196 0.049510 4.699786
-0.860086 0.078811 4.704759
-0.867858 0.090261 4.706703
-0.875630 0.101710 4.708646
-0.883402 0.113159 4.710590
-0.892136 0.123888 4.712480
-0.901073 0.134465 4.714358
-0.923946 0.161532 4.719166
-0.932883 0.172109 4.721044
-0.941821 0.182685 4.722923
-0.950758 0.193261 4.724801
-0.960196 0.203380 4.726641
-0.970085 0.213087 4.728445
-0.995394 0.237928 4.733061
-1.005283 0.247634 4.734865
-1.015173 0.257341 4.736669
-1.025062 0.267047 4.738473
-1.035124 0.276566 4.740259
-1.045775 0.285444 4.741986
-1.073035 0.308167 4.746403
-1.083687 0.317046 4.748130
-1.094338 0.325924 4.749856
-1.104990 0.334803 4.751582
-1.115641 0.343682 4.753308
-1.126853 0.351852 4.754963
-1.155662 0.372617 4.759185
-1.166918 0.380730 4.760835
-1.178175 0.388844 4.762484
-1.189432 0.396958 4.764134
-1.200688 0.405072 4.765783
-1.212245 0.412750 4.767387
-1.242281 0.431737 4.771423
-1.254017 0.439156 4.772999
-1.265754 0.446575 4.774576
-1.277490 0.453994 4.776153
-1.289226 0.461412 4.777729
-1.301086 0.468628 4.779284
22 NaN NaN
-1.059563 -1.397781 4.511057
-0.999975 -1.306025 4.520858
-0.943626 -1.212292 4.531085
-0.891025 -1.116459 4.541778
-0.842794 -1.018413 4.552982
-0.799686 -0.918076 4.564744
-0.762616 -0.815432 4.577110
-0.732673 -0.710571 4.590118
-0.711124 -0.603760 4.603793
-0.699363 -0.495529 4.618126
-0.698793 -0.386755 4.633065
-0.710610 -0.278702 4.648490
-0.735514 -0.172947 4.664220
-0.773479 -0.071161 4.680023
-0.823697 0.025205 4.695660
-0.884763 0.115164 4.710930
-0.954993 0.198273 4.725692
-1.032709 0.274553 4.739868
-1.116423 0.344334 4.753435
-1.204898 0.408106 4.766400
-1.297147 0.466419 4.778794
-1.392397 0.519818 4.790653
-1.369845 -1.414465 3.585205
-1.199248 -1.255372 3.553785
-1.039029 -1.085307 3.525681
-0.894235 -0.901369 3.502343
-0.773908 -0.700059 3.486248
-0.694533 -0.479175 3.481627
-0.683241 -0.245695 3.494727
-0.755588 -0.025707 3.527624
-0.892148 0.159156 3.574032
-1.065453 0.308705 3.627138
-1.258404 0.431001 3.683253
-1.368375 -1.413138 3.584931
-1.200647 -1.256779 3.554035
-1.197849 -1.253965 3.553534
-1.040328 -1.086813 3.525901
-1.037731 -1.083802 3.525462
-0.895384 -0.902997 3.502517
-0.893086 -0.899742 3.502169
-0.774822 -0.701835 3.486353
-0.772995 -0.698283 3.486142
-0.695062 -0.481104 3.481627
-0.694004 -0.477246 3.481628
-0.682850 -0.247643 3.494498
-0.683632 -0.243747 3.494957
-0.754606 -0.027411 3.527264
-0.756570 -0.024002 3.527983
-0.890792 0.157750 3.573601
-0.893503 0.160561 3.574464
-1.063890 0.307548 3.626672
-1.067016 0.309862 3.627604
-1.256723 0.430032 3.682771
-1.361214 -1.406673 3.583598
-1.207461 -1.263631 3.555256
-1.191036 -1.247114 3.552313
-1.046652 -1.094143 3.526968
-1.031407 -1.076472 3.524395
-0.900980 -0.910924 3.503363
-0.887490 -0.891815 3.501323
-0.779270 -0.710484 3.486866
-0.768547 -0.689634 3.485629
-0.697637 -0.490497 3.481625
-0.691813 -0.467778 3.481730
-0.681070 -0.257145 3.493410
-0.685534 -0.234261 3.496074
-0.749824 -0.035714 3.525515
-0.761352 -0.015699 3.529733
-0.884190 0.150905 3.571500
-0.900105 0.167407 3.576565
-1.056277 0.301913 3.624403
-1.074629 0.315496 3.629873
-1.248534 0.425312 3.680422
-1.343180 -1.390392 3.580240
-1.319228 -1.368769 3.575780
-1.295276 -1.347145 3.571320
-1.271762 -1.325021 3.567002
-1.248346 -1.302785 3.562717
-1.224929 -1.280549 3.558431
-1.173877 -1.229860 3.549238
-1.151089 -1.206944 3.545154
-1.128613 -1.183710 3.541169
-1.106568 -1.160038 3.537321
-1.084524 -1.136366 3.533473
-1.062577 -1.112602 3.529655
-1.015482 -1.058013 3.521708
-0.994358 -1.033474 3.518147
-0.974296 -1.008014 3.514911
-0.954235 -0.982554 3.511676
-0.934173 -0.957095 3.508441
-0.915071 -0.930885 3.505494
-0.873399 -0.871854 3.499192
-0.855745 -0.844612 3.496674
-0.838719 -0.816939 3.494342
-0.821693 -0.789265 3.492009
-0.805350 -0.761194 3.489872
-0.790472 -0.732265 3.488157
-0.757988 -0.667551 3.484518
-0.745863 -0.637332 3.483572
-0.733738 -0.607112 3.482627
-0.721613 -0.576892 3.481681
-0.712732 -0.545567 3.481614
-0.704120 -0.514151 3.481620
-0.688620 -0.443475 3.482593
-0.684379 -0.411198 3.483741
-0.680138 -0.378920 3.484888
-0.678626 -0.346539 3.486718
-0.679514 -0.314067 3.489149
-0.680402 -0.281595 3.491580
-0.690326 -0.210372 3.498887
-0.696691 -0.178643 3.502624
-0.703804 -0.147156 3.506529
-0.715372 -0.117103 3.511440
-0.726940 -0.087050 3.516352
-0.738508 -0.056996 3.521263
-0.773394 0.005209 3.534139
-0.789387 0.032977 3.539990
-0.808000 0.058873 3.546363
-0.827468 0.084158 3.552907
-0.846936 0.109443 3.559450
-0.867565 0.133666 3.566208
-0.916731 0.184645 3.581856
-0.939511 0.206762 3.589004
-0.963530 0.227499 3.596365
-0.987549 0.248236 3.603726
-1.011641 0.268879 3.611098
-1.037104 0.287724 3.618688
-1.093802 0.329686 3.635588
-1.120317 0.346948 3.643330
-1.146870 0.364154 3.651078
-1.173423 0.381360 3.658826
-1.200523 0.397638 3.666646
-1.227912 0.413425 3.674505
23 NaN NaN
-1.370213 -1.414797 3.585274
-1.290895 -1.343190 3.570504
-1.213351 -1.269553 3.556312
-1.137885 -1.193667 3.542788
-1.064885 -1.115278 3.530045
-0.994847 -1.034094 3.518225
-0.928416 -0.949788 3.507512
-0.866446 -0.862004 3.498141
-0.810073 -0.770379 3.490417
-0.760819 -0.674608 3.484738
-0.720684 -0.574578 3.481609
-0.692185 -0.470611 3.481629
-0.678154 -0.363823 3.485424
-0.681090 -0.256417 3.493464
-0.702140 -0.151480 3.505823
-0.740405 -0.052068 3.522068
-0.793324 0.039812 3.541431
-0.857756 0.123496 3.563086
-0.930850 0.199285 3.586350
-1.010373 0.267940 3.610720
-1.094683 0.330338 3.635850
-1.182607 0.387311 3.661506
-1.273301 0.439588 3.687528
-1.755030 -1.386030 2.686883
-1.619282 -1.313395 2.690584
-1.485319 -1.237556 2.694854
-1.353734 -1.157712 2.699845
-1.225310 -1.072942 2.705733
-1.100501 -0.983010 2.712578
-0.981393 -0.885796 2.720804
-0.869514 -0.780516 2.730608
-0.767778 -0.665647 2.742368
-0.684049 -0.537512 2.757042
-0.623794 -0.397365 2.774731
-0.600873 -0.247388 2.795834
-0.622118 -0.097473 2.819238
-0.679801 0.042727 2.843103
-0.768339 0.166301 2.866109
-0.873571 0.276376 2.887982
-0.990154 0.374705 2.908701
-1.114925 0.462755 2.928320
-1.753262 -1.385095 2.686929
-1.621033 -1.314361 2.690532
-1.617532 -1.312430 2.690636
-1.487050 -1.238556 2.694796
-1.483588 -1.236556 2.694912
-1.355414 -1.158794 2.699772
-1.352054 -1.156630 2.699918
-1.226957 -1.074073 2.705651
-1.223662 -1.071811 2.705815
-1.102108 -0.984197 2.712486
-1.098894 -0.981823 2.712670
-0.982886 -0.887121 2.720685
-0.979900 -0.884470 2.720923
-0.870925 -0.781928 2.730472
-0.868104 -0.779105 2.730744
-0.768929 -0.667272 2.742186
-0.766626 -0.664022 2.742549
-0.684996 -0.539261 2.756832
-0.683103 -0.535763 2.757253
-0.624462 -0.399235 2.774488
-0.623126 -0.395496 2.774974
-0.600767 -0.249362 2.795535
-0.600978 -0.245413 2.796133
-0.621606 -0.099382 2.818927
-0.622629 -0.095565 2.819548
-0.678949 0.040944 2.842793
-0.680654 0.044509 2.843412
-0.767043 0.164806 2.865819
-0.769635 0.167796 2.866399
-0.872140 0.275006 2.887703
-0.875001 0.277746 2.888260
-0.988553 0.373534 2.908443
-0.991754 0.375876 2.908959
-1.113269 0.461662 2.928071
-1.747173 -1.381875 2.687090
-1.627064 -1.317688 2.690352
-1.611501 -1.309103 2.690815
-1.493013 -1.242002 2.694595
-1.477625 -1.233110 2.695113
-1.361204 -1.162522 2.699520
-1.346265 -1.152902 2.700169
-1.232633 -1.077970 2.705368
-1.217987 -1.067914 2.706098
-1.107644 -0.988287 2.712167
-1.093358 -0.977734 2.712989
-0.988030 -0.891687 2.720275
-0.974757 -0.879904 2.721333
-0.875783 -0.786791 2.730003
-0.863245 -0.774242 2.731213
-0.773134 -0.672690 2.741601
-0.762660 -0.658423 2.743174
-0.688258 -0.545287 2.756106
-0.679841 -0.529737 2.757978
-0.626764 -0.405675 2.773650
-0.620824 -0.389056 2.775811
-0.600405 -0.256166 2.794504
-0.601341 -0.238610 2.797164
-0.619844 -0.105956 2.817857
-0.624391 -0.088990 2.820618
-0.676012 0.034803 2.841726
-0.684211 0.050298 2.844459
-0.762577 0.159655 2.864820
-0.774101 0.172948 2.867399
-0.867214 0.270285 2.886743
-0.879927 0.282467 2.889220
-0.983039 0.369499 2.907555
-0.997269 0.379910 2.909847
-1.107562 0.457897 2.927213
-1.733170 -1.374472 2.687458
-1.714691 -1.364702 2.687944
-1.696213 -1.354932 2.688431
-1.677735 -1.345162 2.688917
-1.659256 -1.335392 2.689403
-1.640933 -1.325339 2.689940
-1.597632 -1.301452 2.691227
-1.579331 -1.291357 2.691771
-1.561030 -1.281261 2.692315
-1.542916 -1.270840 2.692917
-1.524821 -1.260383 2.693526
-1.506726 -1.249926 2.694134
-1.463913 -1.225185 2.695574
-1.446044 -1.214352 2.696250
-1.428190 -1.203492 2.696931
-1.410337 -1.192633 2.697612
-1.392484 -1.181773 2.698294
-1.374631 -1.170914 2.698975
-1.332953 -1.144329 2.700748
-1.315386 -1.133017 2.701511
-1.297820 -1.121704 2.702275
-1.280253 -1.110392 2.703038
-1.262904 -1.098756 2.703861
-1.245683 -1.086931 2.704718
-1.204937 -1.058953 2.706748
-1.187715 -1.047129 2.707605
-1.170773 -1.034917 2.708535
-1.153974 -1.022508 2.709502
-1.137174 -1.010099 2.710468
-1.120375 -0.997690 2.711435
-1.080991 -0.967865 2.713810
-1.064716 -0.954785 2.714904
-1.048442 -0.941705 2.715997
-1.032168 -0.928626 2.717091
-1.015893 -0.915546 2.718185
-0.999858 -0.902187 2.719333
-0.962929 -0.869404 2.722276
-0.947321 -0.855549 2.723520
-0.931713 -0.841693 2.724764
-0.916443 -0.827486 2.726078
-0.901699 -0.812729 2.727501
-0.886956 -0.797973 2.728924
-0.852073 -0.763059 2.732291
-0.837815 -0.747862 2.733806
-0.824221 -0.732062 2.735444
-0.810626 -0.716262 2.737082
-0.797031 -0.700463 2.738721
-0.783436 -0.684663 2.740359
-0.753538 -0.645548 2.744612
-0.741501 -0.628558 2.746509
-0.729464 -0.611568 2.748405
-0.717427 -0.594579 2.750302
-0.705654 -0.577429 2.752237
-0.695757 -0.559144 2.754438
-0.672341 -0.515881 2.759647
-0.662445 -0.497595 2.761848
-0.653010 -0.479111 2.764103
-0.646026 -0.459569 2.766644
-0.639041 -0.440027 2.769184
-0.632057 -0.420484 2.771725
-0.616268 -0.374067 2.777802
-0.613041 -0.353611 2.780675
-0.609814 -0.333154 2.783548
-0.606587 -0.312698 2.786421
-0.603360 -0.292241 2.789294
-0.600133 -0.271785 2.792167
-0.602175 -0.222966 2.799533
-0.603275 -0.202323 2.802661
-0.604375 -0.181680 2.805788
-0.605476 -0.161037 2.808915
-0.610445 -0.141025 2.812151
-0.615792 -0.121075 2.815397
-0.628443 -0.073872 2.823078
-0.633790 -0.053921 2.826324
-0.642526 -0.035222 2.829562
-0.651437 -0.016588 2.832799
-0.660348 0.002047 2.836036
-0.669259 0.020681 2.839273
-0.693005 0.063259 2.846846
-0.704610 0.080363 2.849997
-0.716215 0.097466 2.853147
-0.727820 0.114570 2.856297
-0.739425 0.131674 2.859448
-0.752308 0.147810 2.862521
-0.784369 0.184793 2.869697
-0.797920 0.200423 2.872730
-0.811471 0.216054 2.875764
-0.825987 0.230782 2.878713
-0.840936 0.245106 2.881625
-0.855885 0.259431 2.884537
-0.891256 0.293322 2.891426
-0.906943 0.306834 2.894256
-0.922913 0.320034 2.897054
-0.938884 0.333235 2.899853
-0.954854 0.346435 2.902651
-0.970824 0.359636 2.905449
-1.009949 0.389188 2.911890
-1.026681 0.401431 2.914586
-1.043414 0.413674 2.917282
-1.060147 0.425917 2.919977
-1.077125 0.437815 2.922635
-1.094440 0.449240 2.925239
25 NaN NaN
-1.755472 -1.386263 2.686871
-1.656892 -1.334142 2.689466
-1.559260 -1.280285 2.692368
-1.462727 -1.224500 2.695614
-1.367483 -1.166566 2.699247
-1.273770 -1.106217 2.703320
-1.181899 -1.043135 2.707895
-1.092281 -0.976939 2.713051
-1.005465 -0.907165 2.718886
-0.922207 -0.833255 2.725521
-0.843567 -0.754547 2.733112
-0.771061 -0.670281 2.741850
-0.706875 -0.579685 2.751965
-0.654117 -0.482210 2.763700
-0.616901 -0.378078 2.777238
-0.599714 -0.269128 2.792540
-0.605574 -0.159202 2.809193
-0.634052 -0.052943 2.826484
-0.681538 0.046358 2.843733
-0.743405 0.137539 2.860528
-0.815664 0.220891 2.876702
-0.895395 0.297288 2.892233
-0.980580 0.367700 2.907159
-1.069837 0.433007 2.921538
-1.162208 0.493951 2.935432
-1.828721 -1.375088 1.493334
-1.590506 -1.254405 1.497031
-1.358614 -1.122165 1.504315
-1.136889 -0.973944 1.516716
-0.931540 -0.804603 1.536206
-0.756484 -0.605928 1.566380
-0.642371 -0.370661 1.612448
-0.628815 -0.113946 1.675027
-0.725525 0.123326 1.744985
-0.885552 0.325194 1.813130
-1.826925 -1.374209 1.493354
-1.592268 -1.255350 1.496991
-1.588744 -1.253460 1.497072
-1.360329 -1.123192 1.504249
-1.356899 -1.121138 1.504381
-1.138490 -0.975136 1.516596
-1.135287 -0.972751 1.516836
-0.933010 -0.805948 1.536034
-0.930070 -0.803258 1.536379
-0.757560 -0.607587 1.566085
-0.755407 -0.604268 1.566674
-0.642930 -0.372538 1.612042
-0.641812 -0.368784 1.612855
-0.628310 -0.115810 1.674505
-0.629319 -0.112082 1.675548
-0.724508 0.121685 1.744463
-0.726542 0.124967 1.745507
-0.884238 0.323772 1.812629
-1.817181 -1.369442 1.493463
-1.601826 -1.260476 1.496771
-1.579185 -1.248333 1.497291
-1.369632 -1.128761 1.503891
-1.347597 -1.115569 1.504739
-1.147175 -0.981603 1.515945
-1.126602 -0.966284 1.517487
-0.940983 -0.813245 1.535097
-0.922098 -0.795961 1.537316
-0.763401 -0.616588 1.564486
-0.749566 -0.595268 1.568273
-0.645963 -0.382718 1.609837
-0.638780 -0.358605 1.615059
-0.626926 -0.126179 1.671764
-0.632056 -0.101973 1.678375
-0.718993 0.112784 1.741629
-0.732058 0.133869 1.748341
-0.877110 0.316058 1.809913
-1.792114 -1.357180 1.493743
-1.758774 -1.340871 1.494115
-1.725480 -1.324471 1.494515
-1.692436 -1.307578 1.495066
-1.659391 -1.290684 1.495617
-1.626414 -1.273663 1.496208
-1.554598 -1.235147 1.497855
-1.522070 -1.217295 1.498702
-1.489767 -1.199039 1.499676
-1.457465 -1.180784 1.500649
-1.425390 -1.162145 1.501743
-1.393562 -1.143089 1.502969
-1.324075 -1.100596 1.505868
-1.292815 -1.080641 1.507381
-1.261556 -1.060686 1.508894
-1.230822 -1.039957 1.510659
-1.200253 -1.018986 1.512502
-1.169684 -0.998014 1.514346
-1.104260 -0.949647 1.519161
-1.074590 -0.927462 1.521408
-1.045944 -0.904012 1.524084
-1.017298 -0.880562 1.526759
-0.988771 -0.856981 1.529481
-0.961492 -0.832015 1.532686
-0.902170 -0.776625 1.539932
-0.876673 -0.749926 1.543768
-0.851175 -0.723227 1.547604
-0.826551 -0.695803 1.551718
-0.803413 -0.667146 1.556304
-0.780274 -0.638489 1.560891
-0.734542 -0.572113 1.572386
-0.714559 -0.541317 1.577857
-0.697326 -0.509102 1.583987
-0.681543 -0.476138 1.590464
-0.665760 -0.443175 1.596942
-0.653764 -0.408905 1.604166
-0.630979 -0.332418 1.620731
-0.626692 -0.296569 1.629204
-0.622776 -0.260659 1.637734
-0.618860 -0.224748 1.646263
-0.621747 -0.188929 1.655525
-0.624703 -0.153110 1.664794
-0.639098 -0.075967 1.685648
-0.648463 -0.041378 1.695321
-0.659321 -0.007333 1.705024
-0.674032 0.025310 1.714805
-0.688743 0.057953 1.724586
-0.704804 0.089886 1.734339
-0.746247 0.156767 1.755631
-0.766895 0.186019 1.765224
-0.788912 0.214346 1.774738
-0.810928 0.242673 1.784252
-0.834388 0.269822 1.793631
-0.858775 0.296214 1.802925
25 NaN NaN
-1.829170 -1.375307 1.493329
-1.730584 -1.327080 1.494430
-1.632869 -1.277125 1.496059
-1.536167 -1.225262 1.498278
-1.440648 -1.171280 1.501156
-1.346533 -1.114932 1.504780
-1.254099 -1.055926 1.509255
-1.163710 -0.993916 1.514706
-1.075843 -0.928487 1.521291
-0.991144 -0.859152 1.529202
-0.910492 -0.785340 1.538680
-0.835113 -0.706408 1.550021
-0.766717 -0.621698 1.563578
-0.707659 -0.530683 1.579746
-0.661028 -0.433291 1.598884
-0.630384 -0.330421 1.621163
-0.618820 -0.224383 1.646350
-0.627551 -0.118614 1.673721
-0.655212 -0.016450 1.702293
-0.698678 0.080000 1.731191
-0.754452 0.170009 1.759847
-0.819534 0.253745 1.787970
-0.891630 0.331772 1.815446
-0.969074 0.404757 1.842257
-1.050659 0.473335 1.868427
-0.798426 -1.313245 0.398611
-0.735215 -1.185223 0.378840
-0.677884 -1.053951 0.362973
-0.627560 -0.919377 0.351681
-0.586897 -0.781237 0.346563
-0.557298 -0.640264 0.348345
-0.540108 -0.497565 0.357669
-0.538222 -0.354749 0.376018
-0.554130 -0.214513 0.404491
-0.586415 -0.079320 0.441919
-0.634481 0.048502 0.487634
-0.698848 0.165580 0.541482
-0.774566 0.272858 0.600678
-0.859520 0.370488 0.663997
-0.797534 -1.311478 0.398327
-0.736044 -1.187027 0.379082
-0.734386 -1.183419 0.378597
-0.678641 -1.055792 0.363168
-0.677127 -1.052109 0.362778
-0.628232 -0.921255 0.351821
-0.626887 -0.917499 0.351541
-0.587359 -0.783183 0.346570
-0.586436 -0.779291 0.346557
-0.557628 -0.642235 0.348271
-0.556967 -0.638293 0.348419
-0.540290 -0.499550 0.357505
-0.539926 -0.495580 0.357832
-0.538060 -0.356709 0.375655
-0.538385 -0.352789 0.376380
-0.553782 -0.216427 0.404026
-0.554478 -0.212600 0.404957
-0.585884 -0.081164 0.441355
-0.586946 -0.077476 0.442483
-0.633694 0.046803 0.486939
-0.635342 0.050153 0.488366
-0.697851 0.164040 0.540686
-0.699844 0.167120 0.542279
-0.773454 0.271429 0.599829
-0.775677 0.274288 0.601527
-0.858313 0.369166 0.663106
-0.794616 -1.305693 0.397397
-0.738757 -1.192931 0.379875
-0.731673 -1.177516 0.377804
-0.681117 -1.061817 0.363804
-0.674651 -1.046084 0.362141
-0.630434 -0.927403 0.352279
-0.624685 -0.911352 0.351082
-0.588869 -0.789552 0.346592
-0.584925 -0.772922 0.346535
-0.558711 -0.648686 0.348030
-0.555884 -0.631842 0.348661
-0.540886 -0.506046 0.356971
-0.539331 -0.489083 0.358366
-0.537528 -0.363125 0.374467
-0.538917 -0.346374 0.377568
-0.552644 -0.222690 0.402502
-0.555617 -0.206337 0.406480
-0.584145 -0.087198 0.439509
-0.588686 -0.071442 0.444329
-0.631389 0.041063 0.484800
-0.638158 0.055555 0.490760
-0.694590 0.158998 0.538079
-0.703105 0.172162 0.544885
-0.769816 0.266750 0.597049
-0.779315 0.278966 0.604306
-0.854362 0.364838 0.660190
-0.788021 -1.292618 0.395296
-0.779329 -1.275387 0.392526
-0.770638 -1.258156 0.389757
-0.761946 -1.240925 0.386988
-0.753255 -1.223694 0.384218
-0.744890 -1.206274 0.381667
-0.725540 -1.164172 0.376012
-0.717459 -1.146588 0.373650
-0.709377 -1.129003 0.371288
-0.701467 -1.111330 0.369039
-0.694090 -1.093383 0.367141
-0.686714 -1.075436 0.365244
-0.669054 -1.032466 0.360702
-0.661678 -1.014518 0.358804
-0.655080 -0.996226 0.357412
-0.648523 -0.977916 0.356047
-0.641966 -0.959606 0.354681
-0.635409 -0.941296 0.353316
-0.620337 -0.897229 0.350447
-0.614732 -0.878571 0.349689
-0.609128 -0.859912 0.348932
-0.603523 -0.841254 0.348174
-0.597919 -0.822596 0.347417
-0.592314 -0.803938 0.346660
-0.581511 -0.758527 0.346487
-0.577012 -0.739557 0.346423
-0.572513 -0.720587 0.346359
-0.568014 -0.701617 0.346295
-0.564382 -0.682480 0.346764
-0.561158 -0.663266 0.347484
-0.553438 -0.617262 0.349207
-0.550213 -0.598047 0.349927
-0.547553 -0.578780 0.350986
-0.545779 -0.559430 0.352578
-0.544005 -0.540079 0.354170
-0.542232 -0.520729 0.355762
-0.538142 -0.474402 0.359667
-0.537984 -0.455072 0.362208
-0.537825 -0.435743 0.364748
-0.537667 -0.416413 0.367288
-0.537508 -0.397083 0.369829
-0.537349 -0.377754 0.372369
-0.540119 -0.331875 0.380251
-0.541704 -0.312768 0.383787
-0.543288 -0.293660 0.387324
-0.544873 -0.274553 0.390860
-0.546678 -0.255501 0.394519
-0.550070 -0.236846 0.399058
-0.558191 -0.192181 0.409924
-0.561582 -0.173526 0.414463
-0.564974 -0.154871 0.419002
-0.569854 -0.136783 0.424339
-0.575034 -0.118810 0.429838
-0.580214 -0.100836 0.435337
-0.592616 -0.057804 0.448502
-0.598710 -0.040304 0.454474
-0.605577 -0.023206 0.460847
-0.612444 -0.006108 0.467219
-0.619311 0.010990 0.473592
-0.626178 0.028088 0.479964
-0.644524 0.067764 0.496171
-0.652913 0.083853 0.503303
-0.661302 0.099943 0.510434
-0.669691 0.116033 0.517565
-0.678081 0.132123 0.524697
-0.687220 0.147604 0.532187
-0.710476 0.183555 0.550777
-0.720189 0.198571 0.558542
-0.729903 0.213587 0.566307
-0.739925 0.228306 0.574213
-0.750760 0.242241 0.582490
-0.761595 0.256176 0.590768
-0.787536 0.289540 0.610587
-0.798372 0.303476 0.618865
-0.810125 0.316384 0.627544
-0.821894 0.329275 0.636229
-0.833663 0.342166 0.644914
-0.845432 0.355056 0.653600
19 NaN NaN
-0.798649 -1.313687 0.398682
-0.749220 -1.215696 0.382933
-0.703260 -1.115695 0.369500
-0.661314 -1.013633 0.358711
-0.624027 -0.909512 0.350945
-0.592157 -0.803416 0.346638
-0.566575 -0.695550 0.346274
-0.548242 -0.586301 0.350367
-0.538158 -0.476289 0.359419
-0.537256 -0.366401 0.373861
-0.546264 -0.257782 0.393964
-0.565544 -0.151738 0.419764
-0.594990 -0.049568 0.451021
-0.634027 0.047631 0.487248
-0.681719 0.139102 0.527790
-0.736945 0.224473 0.571936
-0.798551 0.303707 0.619002
-0.865471 0.377006 0.668388
-0.936773 0.444720 0.719593
