-1.080542 0.472164 2.212938
-1.085455 0.479695 2.205255
-1.090367 0.487227 2.197572
-1.316810 0.835016 1.844321
-1.541059 1.179951 1.495261
-1.745790 1.421671 1.064019
-1.933491 1.563427 0.578685
-1.093446 0.491948 2.192756
-1.315980 0.833744 1.845622
-1.317641 0.836288 1.843020
-1.540240 1.178762 1.496645
-1.541879 1.181139 1.493877
-1.745100 1.421084 1.065802
-1.746480 1.422259 1.062236
-1.932805 1.563002 0.580514
-1.105561 0.510521 2.173807
-1.303868 0.815195 1.864596
-1.329753 0.854837 1.824046
-1.528162 1.160494 1.515906
-1.553833 1.198473 1.473693
-1.735033 1.412516 1.091802
-1.756547 1.430827 1.036236
-1.922793 1.556807 0.607201
-1.131661 0.550578 2.133046
-1.160882 0.595480 2.087498
-1.190108 0.640436 2.042006
-1.219333 0.685387 1.996510
-1.248558 0.730325 1.950999
-1.277774 0.775191 1.905412
-1.355836 0.894745 1.783128
-1.385044 0.939539 1.737466
-1.414270 0.984498 1.691978
-1.443556 1.030000 1.647072
-1.472845 1.075534 1.602201
-1.502113 1.120878 1.557127
-1.579583 1.235810 1.430217
-1.607790 1.273923 1.378295
-1.635421 1.309221 1.324209
-1.662418 1.341564 1.267957
-1.688133 1.368603 1.208356
-1.713094 1.392608 1.147202
-1.778363 1.449210 0.980260
-1.802911 1.469686 0.917627
-1.827610 1.489585 0.854869
-1.852253 1.508556 0.791806
-1.876814 1.526600 0.728441
-1.901172 1.543084 0.664569
-2.376091 1.723252 -0.720192
-2.737921 1.779768 -2.053989
-3.477227 2.035146 -3.161913
-4.537465 2.593614 -3.844245
-5.236686 3.499159 -4.583039
-5.555932 4.450362 -5.535173
-5.908623 5.347089 -6.527247
-6.334613 6.144563 -7.573234
-6.852135 6.797369 -8.676161
-7.468983 7.269482 -9.819122
-8.184055 7.550221 -10.968071
-8.984604 7.649924 -12.090385
-1.934178 1.563852 0.576855
-2.375527 1.723154 -0.718276
-2.376655 1.723349 -0.722109
-2.737333 1.779625 -2.052083
-2.738509 1.779912 -2.055896
-3.475762 2.034568 -3.160681
-3.478693 2.035725 -3.163144
-4.536078 2.592528 -3.843298
-4.538851 2.594701 -3.845192
-5.236149 3.497786 -4.581687
-5.237222 3.500531 -4.584391
-5.555460 4.449018 -5.533769
-5.556404 4.451706 -5.536577
-5.908061 5.345859 -6.525774
-5.909184 5.348319 -6.528721
-6.333933 6.143504 -7.571679
-6.335292 6.145622 -7.574788
-6.851326 6.796530 -8.674536
-6.852944 6.798207 -8.677787
-7.468005 7.268968 -9.817456
-7.469962 7.269996 -9.820789
-8.182955 7.549950 -10.966423
-8.185156 7.550492 -10.969719
-8.983392 7.649910 -12.088794
-1.944174 1.569935 0.550138
-2.367308 1.721735 -0.690326
-2.384875 1.724769 -0.750058
-2.728917 1.777618 -2.024229
-2.747079 1.782006 -2.083698
-3.454382 2.026131 -3.142722
-3.500275 2.044495 -3.180695
-4.515858 2.576680 -3.829487
-4.559072 2.610549 -3.859003
-5.228319 3.477769 -4.561969
-5.245052 3.520548 -4.604109
-5.548711 4.429260 -5.513402
-5.563289 4.471301 -5.557057
-5.899875 5.327918 -6.504282
-5.917381 5.366245 -6.550221
-6.324029 6.128062 -7.549002
-6.345196 6.161064 -7.597465
-6.839537 6.784295 -8.650827
-6.864740 6.810430 -8.701499
-7.453956 7.261011 -9.793163
-7.484238 7.277496 -9.845094
-8.166909 7.545995 -10.942389
-8.201226 7.554397 -10.993745
-8.965717 7.649701 -12.065592
-1.989505 1.595614 0.427611
-2.060753 1.631193 0.232283
-2.130962 1.659591 0.035406
-2.199001 1.682494 -0.162949
-2.264981 1.700592 -0.362494
-2.328787 1.714464 -0.563084
-2.421571 1.730399 -0.877922
-2.477710 1.737573 -1.081142
-2.531849 1.744573 -1.284910
-2.583065 1.750913 -1.489452
-2.635030 1.758317 -1.693761
-2.691986 1.769422 -1.896571
-2.788970 1.792845 -2.209592
-2.869809 1.816482 -2.402904
-2.966609 1.847461 -2.587689
-3.078494 1.885648 -2.762302
-3.208298 1.932311 -2.921618
-3.356936 1.988159 -3.060323
-3.599973 2.085975 -3.258535
-3.764174 2.158980 -3.368859
-3.930348 2.236269 -3.473327
-4.094474 2.320219 -3.575794
-4.257132 2.414370 -3.671577
-4.419268 2.509586 -3.767202
-4.648675 2.686392 -3.921817
-4.795613 2.802181 -4.019231
-4.922079 2.932695 -4.124468
-5.014253 3.085466 -4.236845
-5.110482 3.236969 -4.347631
-5.189983 3.385511 -4.473996
-5.280028 3.611695 -4.694643
-5.330954 3.756770 -4.839068
-5.377377 3.903302 -4.983549
-5.423159 4.049829 -5.128239
-5.470563 4.194405 -5.274361
-5.518392 4.338485 -5.420837
-5.595148 4.560219 -5.650896
-5.646195 4.700403 -5.800042
-5.697553 4.840208 -5.949434
-5.751798 4.976418 -6.101108
-5.806652 5.111857 -6.253257
-5.862852 5.245563 -6.406433
-5.954889 5.447952 -6.648429
-6.015491 5.575807 -6.804890
-6.078762 5.699960 -6.963265
-6.143550 5.821949 -7.122710
-6.210199 5.941219 -7.283435
-6.279286 6.056840 -7.445789
-6.390922 6.230737 -7.701302
-6.465187 6.338207 -7.866933
-6.542362 6.440882 -8.034269
-6.620912 6.541210 -8.202392
-6.701963 6.637230 -8.371816
-6.786232 6.727539 -8.542822
-6.919640 6.864322 -8.810160
-7.010388 6.942674 -8.983725
-7.101244 7.020765 -9.157358
-7.195080 7.093296 -9.331777
-7.292653 7.158556 -9.507053
-7.390528 7.223315 -9.682345
-7.549592 7.311362 -9.956042
-7.653811 7.363799 -10.131798
-7.760510 7.411366 -10.307437
-7.869899 7.453527 -10.482813
-7.980944 7.492457 -10.657896
-8.094162 7.526910 -10.832522
-8.275176 7.570977 -11.103217
-8.393341 7.595078 -11.276297
-8.513769 7.614211 -11.448421
-8.636298 7.628622 -11.619536
-8.759576 7.641290 -11.790248
-8.885271 7.648148 -11.959509
190 NaN NaN
-1.078086 0.468398 2.216780
-1.119949 0.532581 2.151303
-1.161833 0.596942 2.086014
-1.203725 0.661384 2.020811
-1.245616 0.725808 1.955589
-1.287494 0.790117 1.890245
-1.329348 0.854218 1.824682
-1.371193 0.918241 1.759037
-1.413082 0.982651 1.693801
-1.455059 1.047873 1.629434
-1.497044 1.113169 1.565148
-1.538833 1.176722 1.499021
-1.580135 1.236611 1.429284
-1.620539 1.291124 1.354789
-1.659458 1.338453 1.274815
-1.696305 1.377196 1.189416
-1.731575 1.409573 1.100733
-1.766363 1.439180 1.010887
-1.801536 1.468578 0.921121
-1.836938 1.497101 0.831165
-1.872211 1.523485 0.740511
-1.907124 1.547112 0.648961
-1.941722 1.568520 0.556746
-1.976090 1.588356 0.464094
-2.010284 1.606857 0.371102
-2.044316 1.623815 0.277757
-2.078187 1.639018 0.184053
-2.111788 1.652556 0.089996
-2.144945 1.664722 -0.004406
-2.177510 1.675783 -0.099149
-2.209527 1.685781 -0.194196
-2.241115 1.694663 -0.289498
-2.272344 1.702422 -0.385016
-2.303064 1.709237 -0.480770
-2.333073 1.715335 -0.576799
-2.362247 1.720861 -0.673118
-2.390651 1.725766 -0.769701
-2.418378 1.729976 -0.866513
-2.445522 1.733573 -0.963515
-2.472180 1.736874 -1.060663
-2.498441 1.740197 -1.157918
-2.524232 1.743588 -1.255296
-2.549327 1.746834 -1.352861
-2.573566 1.749760 -1.450652
-2.597525 1.752667 -1.548512
-2.622206 1.756125 -1.646175
-2.648407 1.760603 -1.743398
-2.675784 1.765972 -1.840252
-2.703602 1.771896 -1.936949
-2.731624 1.778229 -2.033561
-2.761238 1.785465 -2.129629
-2.794136 1.794220 -2.224489
-2.831306 1.804858 -2.317561
-2.872437 1.817275 -2.408729
-2.917102 1.831327 -2.497977
-2.965108 1.846957 -2.585206
-3.016490 1.864202 -2.670177
-3.071306 1.883106 -2.752610
-3.130052 1.903878 -2.831815
-3.193509 1.926844 -2.906650
-3.262057 1.952186 -2.976029
-3.334176 1.979393 -3.040962
-3.407843 2.007765 -3.103628
-3.481720 2.036919 -3.165687
-3.556410 2.067413 -3.226101
-3.632902 2.100005 -3.283052
-3.711446 2.134906 -3.335686
-3.791023 2.171237 -3.385750
-3.870615 2.208070 -3.435426
-3.949671 2.245392 -3.485588
-4.028225 2.284478 -3.535188
-4.106292 2.326595 -3.583037
-4.183990 2.371370 -3.629048
-4.261667 2.417036 -3.674214
-4.339596 2.462104 -3.719548
-4.416696 2.507879 -3.765578
-4.491000 2.557197 -3.812508
-4.560862 2.611952 -3.860226
-4.628365 2.669612 -3.907951
-4.697120 2.726419 -3.954892
-4.768618 2.780541 -4.000911
-4.838105 2.836243 -4.048068
-4.898774 2.898739 -4.098576
-4.947033 2.969054 -4.152192
-4.989145 3.042889 -4.206352
-5.032715 3.116772 -4.259266
-5.079782 3.189124 -4.311311
-5.125646 3.260602 -4.365571
-5.165201 3.331722 -4.424969
-5.197684 3.402225 -4.489230
-5.226047 3.471958 -4.556246
-5.253102 3.541129 -4.624382
-5.279438 3.610075 -4.693026
-5.304614 3.679151 -4.761973
-5.328326 3.748637 -4.831027
-5.350898 3.818492 -4.900092
-5.372827 3.888602 -4.969106
-5.394560 3.958807 -5.038085
-5.416421 4.028816 -5.107222
-5.438707 4.098316 -5.176737
-5.461484 4.167245 -5.246659
-5.484450 4.235954 -5.316737
-5.507284 4.304816 -5.386707
-5.530034 4.373774 -5.456610
-5.553114 4.442340 -5.526789
-5.576904 4.510052 -5.597558
-5.601272 4.577059 -5.668800
-5.625769 4.643907 -5.740147
-5.650038 4.711033 -5.811311
-5.674342 4.778119 -5.882501
-5.699178 4.844552 -5.954117
-5.724863 4.909926 -6.026405
-5.751074 4.974636 -6.099102
-5.777344 5.039270 -6.171845
-5.803474 5.104082 -6.244480
-5.829845 5.168587 -6.317301
-5.856906 5.232203 -6.390647
-5.884756 5.294781 -6.464589
-5.913044 5.356779 -6.538854
-5.941406 5.418675 -6.613176
-5.969856 5.480451 -6.687563
-5.998723 5.541662 -6.762256
-6.028302 5.601894 -6.837463
-6.058537 5.661210 -6.913138
-6.089188 5.719935 -6.989106
-6.120069 5.778328 -7.065236
-6.151260 5.836272 -7.141582
-6.182923 5.893527 -7.218253
-6.215173 5.949915 -7.295321
-6.247990 6.005452 -7.372766
-6.281328 6.060193 -7.450555
-6.315140 6.114203 -7.528650
-6.349365 6.167564 -7.607011
-6.383951 6.220356 -7.685599
-6.418954 6.272480 -7.764447
-6.454560 6.323632 -7.843660
-6.490936 6.373523 -7.923326
-6.527967 6.422318 -8.003368
-6.565345 6.470522 -8.083608
-6.602827 6.518540 -8.163912
-6.640658 6.565962 -8.244404
-6.679289 6.612011 -8.325311
-6.718995 6.656173 -8.406749
-6.759366 6.699134 -8.488503
-6.799827 6.741912 -8.570308
-6.840142 6.784941 -8.652054
-6.880904 6.827179 -8.733990
-6.922804 6.867356 -8.816382
-6.965955 6.905199 -8.899236
-7.009629 6.942024 -8.982276
-7.053091 6.979232 -9.065257
-7.096392 7.016752 -9.148182
-7.140334 7.053099 -9.231289
-7.185635 7.086874 -9.314747
-7.232061 7.118444 -9.398455
-7.278852 7.149280 -9.482234
-7.325416 7.180576 -9.565969
-7.372072 7.211732 -9.649705
-7.419471 7.241480 -9.733533
-7.468016 7.268974 -9.817475
-7.517347 7.294889 -9.901462
-7.566967 7.320239 -9.985453
-7.616645 7.345520 -10.069430
-7.666681 7.370129 -10.153394
-7.717426 7.393334 -10.237331
-7.768976 7.414909 -10.321212
-7.821118 7.435287 -10.405028
-7.873642 7.454927 -10.488782
-7.926500 7.473926 -10.572472
-7.979777 7.492085 -10.656084
-8.033552 7.509211 -10.739595
-8.087869 7.525209 -10.822979
-8.142752 7.540040 -10.906207
-8.198201 7.553708 -10.989259
-8.254098 7.566440 -11.072160
-8.310292 7.578534 -11.154956
-8.366724 7.590103 -11.237665
-8.423589 7.600733 -11.320202
-8.481112 7.609918 -11.402456
-8.539320 7.617570 -11.484384
-8.597918 7.624331 -11.566114
-8.656603 7.630892 -11.647798
-8.715373 7.637253 -11.729437
-8.774549 7.642658 -11.810849
-8.834427 7.646380 -11.891840
-8.894959 7.648485 -11.972404
-8.955888 7.649586 -12.052689
-9.016965 7.650306 -12.132865
-9.077948 7.651268 -12.213111
-9.138590 7.653095 -12.293598
